;1; 2; 3; 4; 5; 6; 7; 8; 9; 10; 11; 12; 13; 14; 15; 16; 17; 18; 19; 20; 21; 22; 23; 24; 25; 26; 27; 28; 29; 30; 31
1;1,000000;0,800000;0,491844;0,800000;0,692945;0,651797;0,266667;0,540771;0,304741;0,317287;0,350000;0,591766;0,600000;0,396145;0,303017;0,600000;0,350000;0,350000;0,350000;0,266667;0,266667;0,266667;0,359648;0,266667;0,600000;0,350000;0,350000;0,400000;0,400000;0,400000;0,350000;
2;;1,000000;0,491844;0,800000;0,692945;0,651797;0,266667;0,540771;0,304741;0,317287;0,350000;0,591766;0,600000;0,396145;0,303017;0,600000;0,350000;0,350000;0,350000;0,266667;0,266667;0,266667;0,359648;0,266667;0,600000;0,350000;0,350000;0,400000;0,400000;0,400000;0,350000;
3;;;1,000000;0,491844;0,558219;0,595384;0,433749;0,567562;0,388931;0,402354;0,292953;0,558219;0,543390;0,356910;0,410024;0,000000;0,287040;0,287040;0,322911;0,394878;0,394878;0,394878;0,339705;0,419065;0,000000;0,286914;0,286914;0,491844;0,491844;0,491844;0,322911;
4;;;;1,000000;0,692945;0,651797;0,266667;0,540771;0,304741;0,317287;0,350000;0,591766;0,600000;0,396145;0,303017;0,600000;0,350000;0,350000;0,350000;0,266667;0,266667;0,266667;0,359648;0,266667;0,600000;0,350000;0,350000;0,400000;0,400000;0,400000;0,350000;
5;;;;;1,000000;0,741892;0,517981;0,596298;0,534942;0,325064;0,357777;0,656730;0,769476;0,403922;0,310794;0,607777;0,357777;0,357777;0,357777;0,274444;0,274444;0,274444;0,560259;0,517981;0,607777;0,357777;0,357777;0,591766;0,591766;0,591766;0,357777;
6;;;;;;1,000000;0,497663;0,566032;0,514624;0,323072;0,355784;0,741892;0,728773;0,401929;0,308802;0,605784;0,355784;0,355784;0,355784;0,272451;0,272451;0,272451;0,539941;0,497663;0,605784;0,355784;0,355784;0,651797;0,651797;0,651797;0,355784;
7;;;;;;;1,000000;0,564472;0,683628;0,383954;0,416667;0,517981;0,533333;0,462812;0,369684;0,666667;0,416667;0,416667;0,416667;0,333333;0,333333;0,333333;0,708945;0,666667;0,666667;0,416667;0,416667;0,266667;0,266667;0,266667;0,416667;
8;;;;;;;;1,000000;0,581523;0,363160;0,395873;0,596298;0,694471;0,442018;0,348890;0,645873;0,395873;0,395873;0,395873;0,312540;0,312540;0,312540;0,550553;0,509648;0,645873;0,395873;0,395873;0,540771;0,540771;0,540771;0,395873;
9;;;;;;;;;1,000000;0,422028;0,454741;0,534942;0,550294;0,500885;0,407758;0,704741;0,454741;0,454741;0,454741;0,371407;0,371407;0,371407;0,725905;0,683628;0,704741;0,454741;0,454741;0,304741;0,304741;0,304741;0,454741;
10;;;;;;;;;;1,000000;0,467287;0,325064;0,317287;0,664735;0,691157;0,717287;0,467287;0,467287;0,785123;0,383954;0,383954;0,383954;0,476935;0,383954;0,717287;0,467287;0,467287;0,317287;0,317287;0,317287;0,785123;
11;;;;;;;;;;;1,000000;0,357777;0,350000;0,833333;0,800240;0,750000;0,500000;0,500000;0,500000;0,416667;0,416667;0,416667;0,509648;0,416667;0,750000;0,500000;0,500000;0,350000;0,350000;0,350000;0,500000;
12;;;;;;;;;;;;1,000000;0,769476;0,403922;0,310794;0,607777;0,357777;0,357777;0,357777;0,274444;0,274444;0,274444;0,560259;0,517981;0,607777;0,357777;0,357777;0,692945;0,692945;0,692945;0,357777;
13;;;;;;;;;;;;;1,000000;0,396145;0,303017;0,600000;0,350000;0,350000;0,350000;0,266667;0,266667;0,266667;0,575611;0,533333;0,600000;0,350000;0,350000;0,600000;0,600000;0,600000;0,350000;
14;;;;;;;;;;;;;;1,000000;0,633573;0,796145;0,546145;0,546145;0,546145;0,462812;0,462812;0,462812;0,555793;0,462812;0,796145;0,546145;0,546145;0,396145;0,396145;0,396145;0,546145;
15;;;;;;;;;;;;;;;1,000000;0,703017;0,453017;0,453017;0,906035;0,369684;0,369684;0,369684;0,462665;0,369684;0,703017;0,453017;0,453017;0,303017;0,303017;0,303017;0,906035;
16;;;;;;;;;;;;;;;;1,000000;0,750000;0,750000;0,750000;0,666667;0,666667;0,666667;0,759648;0,666667;1,000000;0,750000;0,750000;0,600000;0,600000;0,600000;0,750000;
17;;;;;;;;;;;;;;;;;1,000000;0,500000;0,500000;0,416667;0,416667;0,416667;0,509648;0,416667;0,750000;0,500000;0,500000;0,350000;0,350000;0,350000;0,500000;
18;;;;;;;;;;;;;;;;;;1,000000;0,500000;0,416667;0,416667;0,416667;0,509648;0,416667;0,750000;0,500000;0,500000;0,350000;0,350000;0,350000;0,500000;
19;;;;;;;;;;;;;;;;;;;1,000000;0,416667;0,416667;0,416667;0,509648;0,416667;0,750000;0,500000;0,500000;0,350000;0,350000;0,350000;1,000000;
20;;;;;;;;;;;;;;;;;;;;1,000000;0,666667;0,666667;0,426314;0,333333;0,666667;0,416667;0,416667;0,266667;0,266667;0,266667;0,416667;
21;;;;;;;;;;;;;;;;;;;;;1,000000;0,666667;0,426314;0,333333;0,666667;0,416667;0,416667;0,266667;0,266667;0,266667;0,416667;
22;;;;;;;;;;;;;;;;;;;;;;1,000000;0,426314;0,333333;0,666667;0,416667;0,416667;0,266667;0,266667;0,266667;0,416667;
23;;;;;;;;;;;;;;;;;;;;;;;1,000000;0,708945;0,759648;0,509648;0,509648;0,359648;0,359648;0,359648;0,509648;
24;;;;;;;;;;;;;;;;;;;;;;;;1,000000;0,666667;0,416667;0,416667;0,266667;0,266667;0,266667;0,416667;
25;;;;;;;;;;;;;;;;;;;;;;;;;1,000000;0,750000;0,750000;0,600000;0,600000;0,600000;0,750000;
26;;;;;;;;;;;;;;;;;;;;;;;;;;1,000000;0,500000;0,350000;0,350000;0,350000;0,500000;
27;;;;;;;;;;;;;;;;;;;;;;;;;;;1,000000;0,350000;0,350000;0,350000;0,500000;
28;;;;;;;;;;;;;;;;;;;;;;;;;;;;1,000000;0,800000;0,800000;0,350000;
29;;;;;;;;;;;;;;;;;;;;;;;;;;;;;1,000000;0,800000;0,350000;
30;;;;;;;;;;;;;;;;;;;;;;;;;;;;;;1,000000;0,350000;
31;;;;;;;;;;;;;;;;;;;;;;;;;;;;;;;1,000000;
