;1; 2; 3; 4; 5; 6; 7; 8; 9; 10; 11; 12; 13; 14; 15; 16; 17; 18; 19; 20; 21; 22; 23; 24; 25; 26; 27; 28; 29; 30; 31; 32; 33; 34; 35; 36; 37; 38; 39; 40; 41; 42; 43; 44; 45; 46; 47; 48; 49; 50; 51; 52; 53; 54; 55; 56; 57; 58; 59; 60; 61; 62; 63
1;1,000000;0,000000;0,240749;0,327457;0,299086;0,207297;0,176533;0,207513;0,000000;0,137683;0,000000;0,000000;0,000000;0,000000;0,598032;0,000000;0,400777;0,402538;0,435577;0,325887;0,000000;0,268001;0,203853;0,204381;0,199805;0,000000;0,000000;0,000000;0,162109;0,162515;0,162917;0,242780;0,243188;0,415344;0,415971;0,416577;0,424878;0,425533;0,078225;0,000000;0,000000;0,000000;0,000000;0,251820;0,000000;0,000000;0,221291;0,000000;0,000000;0,000000;0,000000;0,000000;0,000000;0,000000;0,000000;0,479464;0,479827;0,000000;0,000000;0,000000;0,000000;0,000000;0,302412;
2;;1,000000;0,269915;0,316530;0,260382;0,000000;0,245601;0,000000;0,000000;0,000000;0,000000;0,000000;0,000000;0,000000;0,000000;0,456745;0,283915;0,284446;0,428564;0,454405;0,000000;0,441225;0,000000;0,000000;0,000000;0,000000;0,000000;0,000000;0,000000;0,000000;0,000000;0,000000;0,000000;0,719701;0,719905;0,720115;0,382549;0,382904;0,000000;0,000000;0,000000;0,000000;0,000000;0,000000;0,000000;0,000000;0,000000;0,000000;0,000000;0,000000;0,000000;0,000000;0,000000;0,000000;0,000000;0,395421;0,395607;0,000000;0,000000;0,000000;0,000000;0,000000;0,000000;
3;;;1,000000;0,381080;0,264980;0,000000;0,092926;0,099316;0,192882;0,252592;0,194357;0,205390;0,000000;0,000000;0,000000;0,511534;0,365513;0,366048;0,275890;0,301731;0,000000;0,630416;0,212455;0,212983;0,208406;0,551463;0,000000;0,000000;0,000000;0,000000;0,000000;0,517653;0,518517;0,147184;0,147360;0,147536;0,229875;0,230230;0,000000;0,000000;0,000000;0,000000;0,000000;0,260421;0,321914;0,321914;0,229892;0,000000;0,000000;0,000000;0,000000;0,000000;0,326287;0,326287;0,000000;0,242747;0,242933;0,000000;0,000000;0,237090;0,237288;0,314458;0,399140;
4;;;;1,000000;0,371396;0,000000;0,139541;0,139147;0,000000;0,167206;0,000000;0,000000;0,000000;0,000000;0,000000;0,350685;0,485761;0,486296;0,322504;0,348346;0,000000;0,750664;0,252286;0,252813;0,248237;0,000000;0,000000;0,000000;0,000000;0,000000;0,000000;0,357287;0,357695;0,193799;0,193975;0,194151;0,276490;0,276845;0,000000;0,000000;0,000000;0,000000;0,000000;0,300252;0,000000;0,000000;0,269723;0,000000;0,000000;0,000000;0,000000;0,000000;0,000000;0,000000;0,000000;0,289362;0,289548;0,000000;0,000000;0,000000;0,000000;0,000000;0,000000;
5;;;;;1,000000;0,224953;0,284186;0,377129;0,000000;0,054237;0,000000;0,000000;0,285837;0,285837;0,000000;0,294537;0,534772;0,536631;0,266356;0,292198;0,581546;0,279017;0,465668;0,466925;0,375435;0,000000;0,309806;0,309806;0,188693;0,189034;0,189370;0,244318;0,244726;0,137651;0,137827;0,138003;0,220342;0,220697;0,314649;0,320571;0,372286;0,321974;0,581546;0,440947;0,000000;0,000000;0,490728;0,242262;0,242403;0,000000;0,000000;0,000000;0,000000;0,000000;0,581546;0,233214;0,233400;0,581546;0,581546;0,000000;0,000000;0,317895;0,000000;
6;;;;;;1,000000;0,380049;0,353740;0,000000;0,000000;0,000000;0,000000;0,347698;0,347698;0,000000;0,000000;0,202783;0,203310;0,000000;0,000000;0,643407;0,000000;0,279618;0,280174;0,437296;0,000000;0,371667;0,371667;0,658407;0,658658;0,658915;0,000000;0,000000;0,000000;0,000000;0,000000;0,382307;0,382762;0,695874;0,745644;0,434147;0,383835;0,643407;0,324920;0,000000;0,000000;0,296547;0,602213;0,602213;0,000000;0,000000;0,000000;0,000000;0,000000;0,643407;0,000000;0,000000;0,643407;0,643407;0,000000;0,000000;0,379756;0,000000;
7;;;;;;;1,000000;0,384990;0,000000;0,000000;0,000000;0,000000;0,293907;0,293907;0,000000;0,279756;0,274466;0,275233;0,251575;0,277417;0,589616;0,264236;0,225827;0,226383;0,383505;0,000000;0,317876;0,317876;0,606771;0,607471;0,608144;0,000000;0,000000;0,122869;0,123045;0,123222;0,478274;0,478858;0,514442;0,634405;0,380356;0,330044;0,589616;0,271129;0,000000;0,000000;0,242756;0,490974;0,490974;0,000000;0,000000;0,000000;0,000000;0,000000;0,589616;0,218433;0,218619;0,589616;0,589616;0,000000;0,000000;0,325965;0,000000;
8;;;;;;;;1,000000;0,000000;0,072096;0,000000;0,000000;0,309397;0,311300;0,000000;0,000000;0,392219;0,393945;0,000000;0,000000;0,000000;0,270213;0,416689;0,417686;0,202017;0,000000;0,321462;0,322453;0,464640;0,465184;0,465708;0,000000;0,000000;0,000000;0,000000;0,000000;0,218864;0,219320;0,431531;0,328655;0,304390;0,350935;0,000000;0,401959;0,000000;0,000000;0,438529;0,452431;0,452808;0,000000;0,000000;0,000000;0,000000;0,000000;0,000000;0,000000;0,000000;0,000000;0,000000;0,000000;0,000000;0,000000;0,000000;
9;;;;;;;;;1,000000;0,482216;0,645252;0,627284;0,000000;0,000000;0,000000;0,250616;0,000000;0,000000;0,000000;0,000000;0,000000;0,000000;0,000000;0,000000;0,000000;0,641419;0,000000;0,000000;0,000000;0,000000;0,000000;0,308418;0,308891;0,000000;0,000000;0,000000;0,000000;0,000000;0,000000;0,000000;0,000000;0,000000;0,000000;0,000000;0,411871;0,411871;0,000000;0,000000;0,000000;0,000000;0,000000;0,000000;0,416244;0,416244;0,000000;0,000000;0,000000;0,000000;0,000000;0,694809;0,694809;0,404415;0,489097;
10;;;;;;;;;;1,000000;0,486246;0,553722;0,000000;0,000000;0,000000;0,256268;0,000000;0,000000;0,000000;0,000000;0,000000;0,000000;0,000000;0,000000;0,000000;0,000000;0,000000;0,000000;0,000000;0,000000;0,000000;0,462199;0,462750;0,000000;0,000000;0,000000;0,000000;0,000000;0,000000;0,000000;0,000000;0,000000;0,000000;0,000000;0,423605;0,424041;0,000000;0,000000;0,000000;0,000000;0,000000;0,000000;0,402321;0,402761;0,000000;0,000000;0,000000;0,000000;0,000000;0,513412;0,513698;0,000000;0,290207;
11;;;;;;;;;;;1,000000;0,632600;0,000000;0,000000;0,000000;0,252090;0,000000;0,000000;0,000000;0,000000;0,000000;0,000000;0,000000;0,000000;0,000000;0,642894;0,000000;0,000000;0,000000;0,000000;0,000000;0,309892;0,310366;0,000000;0,000000;0,000000;0,000000;0,000000;0,000000;0,000000;0,000000;0,000000;0,000000;0,000000;0,413345;0,413345;0,000000;0,000000;0,000000;0,000000;0,000000;0,000000;0,417719;0,417719;0,000000;0,000000;0,000000;0,000000;0,000000;0,694809;0,694809;0,405889;0,490571;
12;;;;;;;;;;;;1,000000;0,000000;0,000000;0,000000;0,263124;0,000000;0,000000;0,000000;0,000000;0,000000;0,000000;0,000000;0,000000;0,000000;0,653928;0,000000;0,000000;0,000000;0,000000;0,000000;0,320926;0,321400;0,000000;0,000000;0,000000;0,000000;0,000000;0,000000;0,000000;0,000000;0,000000;0,000000;0,000000;0,424379;0,424379;0,000000;0,000000;0,000000;0,000000;0,000000;0,000000;0,428752;0,428752;0,000000;0,000000;0,000000;0,000000;0,000000;0,622703;0,623043;0,416923;0,501605;
13;;;;;;;;;;;;;1,000000;0,408582;0,000000;0,000000;0,263667;0,264193;0,000000;0,000000;0,704291;0,000000;0,340502;0,341058;0,498180;0,000000;0,432551;0,432551;0,311439;0,311779;0,312115;0,000000;0,000000;0,000000;0,000000;0,000000;0,000000;0,000000;0,437394;0,443316;0,495031;0,444719;0,704291;0,385804;0,000000;0,000000;0,357431;0,365007;0,365148;0,000000;0,000000;0,000000;0,000000;0,000000;0,704291;0,000000;0,000000;0,704291;0,704291;0,000000;0,000000;0,440640;0,000000;
14;;;;;;;;;;;;;;1,000000;0,000000;0,000000;0,263667;0,264193;0,000000;0,000000;0,704291;0,000000;0,340502;0,341058;0,498180;0,000000;0,432551;0,432551;0,311439;0,311779;0,312115;0,000000;0,000000;0,000000;0,000000;0,000000;0,000000;0,000000;0,437394;0,443316;0,495031;0,444719;0,704291;0,385804;0,000000;0,000000;0,357431;0,365007;0,365148;0,000000;0,000000;0,000000;0,000000;0,000000;0,704291;0,000000;0,000000;0,704291;0,704291;0,000000;0,000000;0,440640;0,000000;
15;;;;;;;;;;;;;;;1,000000;0,000000;0,000000;0,000000;0,000000;0,000000;0,000000;0,000000;0,000000;0,000000;0,000000;0,000000;0,000000;0,000000;0,000000;0,000000;0,000000;0,000000;0,000000;0,659163;0,660048;0,660905;0,000000;0,000000;0,000000;0,000000;0,000000;0,000000;0,000000;0,000000;0,000000;0,000000;0,000000;0,000000;0,000000;0,000000;0,000000;0,000000;0,000000;0,000000;0,000000;0,000000;0,000000;0,000000;0,000000;0,000000;0,000000;0,000000;0,000000;
16;;;;;;;;;;;;;;;;1,000000;0,318070;0,318601;0,462719;0,488561;0,000000;0,475380;0,000000;0,000000;0,000000;0,609196;0,000000;0,000000;0,000000;0,000000;0,000000;0,276194;0,276668;0,334013;0,334190;0,334366;0,416705;0,417060;0,000000;0,000000;0,000000;0,000000;0,000000;0,000000;0,379648;0,379648;0,000000;0,000000;0,000000;0,000000;0,000000;0,000000;0,384021;0,384021;0,000000;0,429577;0,429763;0,000000;0,000000;0,294823;0,295022;0,372191;0,456874;
17;;;;;;;;;;;;;;;;;1,000000;0,636395;0,289890;0,315731;0,559375;0,735097;0,543658;0,543658;0,722127;0,000000;0,287635;0,287635;0,166523;0,166864;0,167199;0,000000;0,000000;0,161184;0,161360;0,161536;0,243875;0,244230;0,292478;0,298401;0,350116;0,299804;0,559375;0,626370;0,000000;0,000000;0,561396;0,220091;0,220232;0,000000;0,000000;0,000000;0,000000;0,000000;0,559375;0,256747;0,256933;0,559375;0,559375;0,000000;0,000000;0,295725;0,000000;
18;;;;;;;;;;;;;;;;;;1,000000;0,290421;0,316262;0,559902;0,735632;0,544525;0,544525;0,722994;0,000000;0,288162;0,288162;0,167050;0,167390;0,167726;0,000000;0,000000;0,161715;0,161891;0,162067;0,244406;0,244761;0,293005;0,298928;0,350642;0,300330;0,559902;0,627237;0,000000;0,000000;0,562262;0,220618;0,220759;0,000000;0,000000;0,000000;0,000000;0,000000;0,559902;0,257278;0,257464;0,559902;0,559902;0,000000;0,000000;0,296251;0,000000;
19;;;;;;;;;;;;;;;;;;;1,000000;0,460380;0,000000;0,447199;0,000000;0,000000;0,000000;0,000000;0,000000;0,000000;0,000000;0,000000;0,000000;0,000000;0,000000;0,305833;0,306009;0,306185;0,388524;0,388879;0,000000;0,000000;0,000000;0,000000;0,000000;0,000000;0,000000;0,000000;0,000000;0,000000;0,000000;0,000000;0,000000;0,000000;0,000000;0,000000;0,000000;0,705303;0,705673;0,000000;0,000000;0,000000;0,000000;0,000000;0,000000;
20;;;;;;;;;;;;;;;;;;;;1,000000;0,000000;0,473041;0,000000;0,000000;0,000000;0,000000;0,000000;0,000000;0,000000;0,000000;0,000000;0,000000;0,000000;0,331674;0,331850;0,332027;0,414365;0,414720;0,000000;0,000000;0,000000;0,000000;0,000000;0,000000;0,000000;0,000000;0,000000;0,000000;0,000000;0,000000;0,000000;0,000000;0,000000;0,000000;0,000000;0,875389;0,875389;0,000000;0,000000;0,000000;0,000000;0,000000;0,000000;
21;;;;;;;;;;;;;;;;;;;;;1,000000;0,000000;0,636211;0,636767;0,793889;0,000000;0,728260;0,728260;0,607147;0,607488;0,607824;0,000000;0,000000;0,000000;0,000000;0,000000;0,000000;0,000000;0,733103;0,739025;0,790740;0,740428;1,000000;0,681513;0,000000;0,000000;0,653140;0,660716;0,660857;0,000000;0,000000;0,000000;0,000000;0,000000;1,000000;0,000000;0,000000;1,000000;1,000000;0,000000;0,000000;0,736349;0,000000;
22;;;;;;;;;;;;;;;;;;;;;;1,000000;0,383352;0,383880;0,379304;0,000000;0,000000;0,000000;0,000000;0,000000;0,000000;0,000000;0,000000;0,318494;0,318670;0,318846;0,401185;0,401540;0,000000;0,000000;0,000000;0,000000;0,000000;0,431319;0,000000;0,000000;0,400790;0,000000;0,000000;0,000000;0,000000;0,000000;0,000000;0,000000;0,000000;0,414057;0,414243;0,000000;0,000000;0,000000;0,000000;0,000000;0,000000;
23;;;;;;;;;;;;;;;;;;;;;;;1,000000;0,643062;0,821531;0,000000;0,364470;0,364470;0,243358;0,243699;0,244035;0,000000;0,000000;0,000000;0,000000;0,000000;0,000000;0,000000;0,369313;0,375236;0,426951;0,376639;0,636211;0,725774;0,000000;0,000000;0,660799;0,296926;0,297067;0,000000;0,000000;0,000000;0,000000;0,000000;0,636211;0,000000;0,000000;0,636211;0,636211;0,000000;0,000000;0,372560;0,000000;
24;;;;;;;;;;;;;;;;;;;;;;;;1,000000;0,821531;0,000000;0,365026;0,365026;0,243914;0,244255;0,244591;0,000000;0,000000;0,000000;0,000000;0,000000;0,000000;0,000000;0,369869;0,375792;0,427507;0,377195;0,636767;0,725774;0,000000;0,000000;0,660799;0,297482;0,297623;0,000000;0,000000;0,000000;0,000000;0,000000;0,636767;0,000000;0,000000;0,636767;0,636767;0,000000;0,000000;0,373116;0,000000;
25;;;;;;;;;;;;;;;;;;;;;;;;;1,000000;0,000000;0,522148;0,522148;0,401036;0,401377;0,401713;0,000000;0,000000;0,000000;0,000000;0,000000;0,000000;0,000000;0,526991;0,532914;0,584629;0,534317;0,793889;0,904243;0,000000;0,000000;0,839268;0,454604;0,454745;0,000000;0,000000;0,000000;0,000000;0,000000;0,793889;0,000000;0,000000;0,793889;0,793889;0,000000;0,000000;0,530238;0,000000;
26;;;;;;;;;;;;;;;;;;;;;;;;;;1,000000;0,000000;0,000000;0,000000;0,000000;0,000000;0,666998;0,667472;0,000000;0,000000;0,000000;0,000000;0,000000;0,000000;0,000000;0,000000;0,000000;0,000000;0,000000;0,770451;0,770451;0,000000;0,000000;0,000000;0,000000;0,000000;0,000000;0,774825;0,774825;0,000000;0,000000;0,000000;0,000000;0,000000;0,685627;0,685826;0,762995;0,847677;
27;;;;;;;;;;;;;;;;;;;;;;;;;;;1,000000;0,456519;0,335407;0,335748;0,336083;0,000000;0,000000;0,000000;0,000000;0,000000;0,000000;0,000000;0,461362;0,467285;0,519000;0,468688;0,728260;0,409773;0,000000;0,000000;0,381399;0,388975;0,389116;0,000000;0,000000;0,000000;0,000000;0,000000;0,728260;0,000000;0,000000;0,728260;0,728260;0,000000;0,000000;0,464609;0,000000;
28;;;;;;;;;;;;;;;;;;;;;;;;;;;;1,000000;0,335407;0,335748;0,336083;0,000000;0,000000;0,000000;0,000000;0,000000;0,000000;0,000000;0,461362;0,467285;0,519000;0,468688;0,728260;0,409773;0,000000;0,000000;0,381399;0,388975;0,389116;0,000000;0,000000;0,000000;0,000000;0,000000;0,728260;0,000000;0,000000;0,728260;0,728260;0,000000;0,000000;0,464609;0,000000;
29;;;;;;;;;;;;;;;;;;;;;;;;;;;;;1,000000;0,803868;0,804516;0,000000;0,000000;0,000000;0,000000;0,000000;0,337118;0,337574;0,554624;0,346173;0,397888;0,347576;0,607147;0,288660;0,000000;0,000000;0,260287;0,267863;0,268004;0,000000;0,000000;0,000000;0,000000;0,000000;0,607147;0,000000;0,000000;0,607147;0,607147;0,000000;0,000000;0,343497;0,000000;
30;;;;;;;;;;;;;;;;;;;;;;;;;;;;;;1,000000;0,805149;0,000000;0,000000;0,000000;0,000000;0,000000;0,337524;0,337980;0,554874;0,346513;0,398228;0,347916;0,607488;0,289001;0,000000;0,000000;0,260628;0,268204;0,268345;0,000000;0,000000;0,000000;0,000000;0,000000;0,607488;0,000000;0,000000;0,607488;0,607488;0,000000;0,000000;0,343837;0,000000;
31;;;;;;;;;;;;;;;;;;;;;;;;;;;;;;;1,000000;0,000000;0,000000;0,000000;0,000000;0,000000;0,337926;0,338382;0,555132;0,346849;0,398564;0,348252;0,607824;0,289337;0,000000;0,000000;0,260964;0,268540;0,268681;0,000000;0,000000;0,000000;0,000000;0,000000;0,607824;0,000000;0,000000;0,607824;0,607824;0,000000;0,000000;0,344173;0,000000;
32;;;;;;;;;;;;;;;;;;;;;;;;;;;;;;;;1,000000;0,734762;0,000000;0,000000;0,000000;0,000000;0,000000;0,000000;0,000000;0,000000;0,000000;0,000000;0,000000;0,437450;0,437450;0,000000;0,000000;0,000000;0,000000;0,000000;0,000000;0,441823;0,441823;0,000000;0,000000;0,000000;0,000000;0,000000;0,352625;0,352824;0,429993;0,514676;
33;;;;;;;;;;;;;;;;;;;;;;;;;;;;;;;;;1,000000;0,000000;0,000000;0,000000;0,000000;0,000000;0,000000;0,000000;0,000000;0,000000;0,000000;0,000000;0,437923;0,437923;0,000000;0,000000;0,000000;0,000000;0,000000;0,000000;0,442297;0,442297;0,000000;0,000000;0,000000;0,000000;0,000000;0,353099;0,353297;0,430467;0,515149;
34;;;;;;;;;;;;;;;;;;;;;;;;;;;;;;;;;;1,000000;0,765747;0,766355;0,259818;0,260173;0,000000;0,000000;0,000000;0,000000;0,000000;0,000000;0,000000;0,000000;0,000000;0,000000;0,000000;0,000000;0,000000;0,000000;0,000000;0,000000;0,000000;0,272690;0,272876;0,000000;0,000000;0,000000;0,000000;0,000000;0,000000;
35;;;;;;;;;;;;;;;;;;;;;;;;;;;;;;;;;;;1,000000;0,766951;0,259994;0,260349;0,000000;0,000000;0,000000;0,000000;0,000000;0,000000;0,000000;0,000000;0,000000;0,000000;0,000000;0,000000;0,000000;0,000000;0,000000;0,000000;0,000000;0,272866;0,273052;0,000000;0,000000;0,000000;0,000000;0,000000;0,000000;
36;;;;;;;;;;;;;;;;;;;;;;;;;;;;;;;;;;;;1,000000;0,260171;0,260526;0,000000;0,000000;0,000000;0,000000;0,000000;0,000000;0,000000;0,000000;0,000000;0,000000;0,000000;0,000000;0,000000;0,000000;0,000000;0,000000;0,000000;0,273043;0,273229;0,000000;0,000000;0,000000;0,000000;0,000000;0,000000;
37;;;;;;;;;;;;;;;;;;;;;;;;;;;;;;;;;;;;;1,000000;0,712132;0,253235;0,000000;0,000000;0,000000;0,000000;0,000000;0,000000;0,000000;0,000000;0,000000;0,000000;0,000000;0,000000;0,000000;0,000000;0,000000;0,000000;0,355382;0,355568;0,000000;0,000000;0,000000;0,000000;0,000000;0,000000;
38;;;;;;;;;;;;;;;;;;;;;;;;;;;;;;;;;;;;;;1,000000;0,253690;0,000000;0,000000;0,000000;0,000000;0,000000;0,000000;0,000000;0,000000;0,000000;0,000000;0,000000;0,000000;0,000000;0,000000;0,000000;0,000000;0,355737;0,355923;0,000000;0,000000;0,000000;0,000000;0,000000;0,000000;
39;;;;;;;;;;;;;;;;;;;;;;;;;;;;;;;;;;;;;;;1,000000;0,472128;0,523843;0,473531;0,733103;0,414616;0,000000;0,000000;0,386243;0,698029;0,698321;0,000000;0,000000;0,000000;0,000000;0,000000;0,733103;0,000000;0,000000;0,733103;0,733103;0,000000;0,000000;0,469452;0,000000;
40;;;;;;;;;;;;;;;;;;;;;;;;;;;;;;;;;;;;;;;;1,000000;0,529766;0,479454;0,739025;0,420538;0,000000;0,000000;0,392165;0,856569;0,856569;0,000000;0,000000;0,000000;0,000000;0,000000;0,739025;0,000000;0,000000;0,739025;0,739025;0,000000;0,000000;0,475374;0,000000;
41;;;;;;;;;;;;;;;;;;;;;;;;;;;;;;;;;;;;;;;;;1,000000;0,531168;0,790740;0,472253;0,000000;0,000000;0,443880;0,451456;0,451597;0,000000;0,000000;0,000000;0,000000;0,000000;0,790740;0,000000;0,000000;0,790740;0,790740;0,000000;0,000000;0,527089;0,000000;
42;;;;;;;;;;;;;;;;;;;;;;;;;;;;;;;;;;;;;;;;;;1,000000;0,740428;0,421941;0,000000;0,000000;0,393568;0,401144;0,401285;0,000000;0,000000;0,000000;0,000000;0,000000;0,740428;0,000000;0,000000;0,740428;0,740428;0,000000;0,000000;0,476777;0,000000;
43;;;;;;;;;;;;;;;;;;;;;;;;;;;;;;;;;;;;;;;;;;;1,000000;0,681513;0,000000;0,000000;0,653140;0,660716;0,660857;0,000000;0,000000;0,000000;0,000000;0,000000;1,000000;0,000000;0,000000;1,000000;1,000000;0,000000;0,000000;0,736349;0,000000;
44;;;;;;;;;;;;;;;;;;;;;;;;;;;;;;;;;;;;;;;;;;;;1,000000;0,000000;0,000000;0,743511;0,342229;0,342370;0,000000;0,000000;0,000000;0,000000;0,000000;0,681513;0,000000;0,000000;0,681513;0,681513;0,000000;0,000000;0,417862;0,000000;
45;;;;;;;;;;;;;;;;;;;;;;;;;;;;;;;;;;;;;;;;;;;;;1,000000;0,540903;0,000000;0,000000;0,000000;0,000000;0,000000;0,000000;0,545276;0,545276;0,000000;0,000000;0,000000;0,000000;0,000000;0,456078;0,456277;0,533447;0,618129;
46;;;;;;;;;;;;;;;;;;;;;;;;;;;;;;;;;;;;;;;;;;;;;;1,000000;0,000000;0,000000;0,000000;0,000000;0,000000;0,000000;0,545276;0,545276;0,000000;0,000000;0,000000;0,000000;0,000000;0,456078;0,456277;0,533447;0,618129;
47;;;;;;;;;;;;;;;;;;;;;;;;;;;;;;;;;;;;;;;;;;;;;;;1,000000;0,313856;0,313997;0,000000;0,000000;0,000000;0,000000;0,000000;0,653140;0,000000;0,000000;0,653140;0,653140;0,000000;0,000000;0,389489;0,000000;
48;;;;;;;;;;;;;;;;;;;;;;;;;;;;;;;;;;;;;;;;;;;;;;;;1,000000;0,713138;0,000000;0,000000;0,000000;0,000000;0,000000;0,660716;0,000000;0,000000;0,660716;0,660716;0,000000;0,000000;0,397065;0,000000;
49;;;;;;;;;;;;;;;;;;;;;;;;;;;;;;;;;;;;;;;;;;;;;;;;;1,000000;0,000000;0,000000;0,000000;0,000000;0,000000;0,660857;0,000000;0,000000;0,660857;0,660857;0,000000;0,000000;0,397206;0,000000;
50;;;;;;;;;;;;;;;;;;;;;;;;;;;;;;;;;;;;;;;;;;;;;;;;;;1,000000;0,769005;0,769384;0,000000;0,000000;0,000000;0,000000;0,000000;0,000000;0,000000;0,000000;0,000000;0,000000;0,000000;
51;;;;;;;;;;;;;;;;;;;;;;;;;;;;;;;;;;;;;;;;;;;;;;;;;;;1,000000;0,769758;0,000000;0,000000;0,000000;0,000000;0,000000;0,000000;0,000000;0,000000;0,000000;0,000000;0,000000;
52;;;;;;;;;;;;;;;;;;;;;;;;;;;;;;;;;;;;;;;;;;;;;;;;;;;;1,000000;0,000000;0,000000;0,000000;0,000000;0,000000;0,000000;0,000000;0,000000;0,000000;0,000000;0,000000;
53;;;;;;;;;;;;;;;;;;;;;;;;;;;;;;;;;;;;;;;;;;;;;;;;;;;;;1,000000;0,549649;0,000000;0,000000;0,000000;0,000000;0,000000;0,460452;0,460650;0,537820;0,622502;
54;;;;;;;;;;;;;;;;;;;;;;;;;;;;;;;;;;;;;;;;;;;;;;;;;;;;;;1,000000;0,000000;0,000000;0,000000;0,000000;0,000000;0,460452;0,460650;0,537820;0,622502;
55;;;;;;;;;;;;;;;;;;;;;;;;;;;;;;;;;;;;;;;;;;;;;;;;;;;;;;;1,000000;0,000000;0,000000;1,000000;1,000000;0,000000;0,000000;0,736349;0,000000;
56;;;;;;;;;;;;;;;;;;;;;;;;;;;;;;;;;;;;;;;;;;;;;;;;;;;;;;;;1,000000;0,750778;0,000000;0,000000;0,000000;0,000000;0,000000;0,000000;
57;;;;;;;;;;;;;;;;;;;;;;;;;;;;;;;;;;;;;;;;;;;;;;;;;;;;;;;;;1,000000;0,000000;0,000000;0,000000;0,000000;0,000000;0,000000;
58;;;;;;;;;;;;;;;;;;;;;;;;;;;;;;;;;;;;;;;;;;;;;;;;;;;;;;;;;;1,000000;1,000000;0,000000;0,000000;0,736349;0,000000;
59;;;;;;;;;;;;;;;;;;;;;;;;;;;;;;;;;;;;;;;;;;;;;;;;;;;;;;;;;;;1,000000;0,000000;0,000000;0,736349;0,000000;
60;;;;;;;;;;;;;;;;;;;;;;;;;;;;;;;;;;;;;;;;;;;;;;;;;;;;;;;;;;;;1,000000;0,744366;0,448622;0,533304;
61;;;;;;;;;;;;;;;;;;;;;;;;;;;;;;;;;;;;;;;;;;;;;;;;;;;;;;;;;;;;;1,000000;0,448821;0,533503;
62;;;;;;;;;;;;;;;;;;;;;;;;;;;;;;;;;;;;;;;;;;;;;;;;;;;;;;;;;;;;;;1,000000;0,610672;
63;;;;;;;;;;;;;;;;;;;;;;;;;;;;;;;;;;;;;;;;;;;;;;;;;;;;;;;;;;;;;;;1,000000;
