;1; 2; 3; 4; 5; 6; 7; 8; 9; 10; 11; 12; 13; 14; 15; 16; 17; 18; 19; 20; 21; 22; 23; 24; 25; 26; 27; 28; 29; 30; 31; 32; 33; 34; 35; 36; 37; 38; 39; 40; 41; 42; 43; 44; 45; 46; 47; 48; 49; 50; 51; 52; 53; 54; 55; 56; 57; 58; 59; 60; 61; 62; 63; 64; 65; 66; 67; 68; 69; 70; 71; 72; 73; 74; 75; 76; 77; 78; 79
1;1,000000;0,467330;0,761815;0,567862;0,583333;0,545988;0,636067;0,583333;0,726190;0,583333;0,566229;0,583333;0,583333;0,779343;0,583333;0,583333;0,583333;0,291667;0,291667;0,291667;0,441667;0,739368;0,900000;0,873066;0,422151;0,455348;0,455348;0,455348;0,666667;0,666667;0,666667;0,687902;0,416667;0,333333;0,739368;0,683333;0,291667;0,636067;0,416667;0,426314;0,666667;0,545988;0,919828;0,666667;0,333333;0,333333;0,333333;0,341667;0,341667;0,291667;0,291667;0,533333;0,533333;0,557060;0,533333;0,666667;0,666667;0,333333;0,333333;0,666667;0,833333;0,666667;0,833333;0,333333;0,333333;0,266667;0,266667;0,266667;0,266667;0,266667;0,500000;0,416667;0,666667;0,666667;0,416667;0,666667;0,833333;0,416667;0,416667;
2;;1,000000;0,525865;0,583029;0,494794;0,514966;0,477159;0,491307;0,420870;0,491307;0,558178;0,523293;0,523293;0,487603;0,483660;0,483660;0,483660;0,425860;0,425860;0,425860;0,295159;0,411808;0,540124;0,540086;0,484150;0,442527;0,442527;0,442527;0,478645;0,000000;0,000000;0,422626;0,279454;0,379130;0,411808;0,474540;0,433144;0,489704;0,279454;0,303094;0,478645;0,515059;0,365161;0,000000;0,355115;0,355115;0,398701;0,364515;0,364515;0,407849;0,407849;0,513872;0,513872;0,549687;0,513872;0,439091;0,439091;0,355115;0,355115;0,000000;0,352418;0,000000;0,352418;0,355115;0,355115;0,437062;0,437062;0,437062;0,437062;0,437062;0,245718;0,287316;0,000000;0,000000;0,264683;0,000000;0,352418;0,264401;0,264401;
3;;;1,000000;0,516490;0,573493;0,536148;0,626226;0,573493;0,716350;0,573493;0,580479;0,573493;0,573493;0,842962;0,573493;0,573493;0,573493;0,294871;0,294871;0,294871;0,530386;0,729527;0,762329;0,735612;0,527713;0,636888;0,636888;0,636888;0,656826;0,669871;0,669871;0,718589;0,419871;0,336537;0,729527;0,673493;0,438839;0,626226;0,419871;0,429518;0,656826;0,536148;0,701355;0,669871;0,336537;0,336537;0,336537;0,344871;0,344871;0,294871;0,294871;0,523493;0,523493;0,547220;0,523493;0,656826;0,656826;0,336537;0,336537;0,669871;0,823493;0,669871;0,823493;0,336537;0,336537;0,269871;0,269871;0,269871;0,269871;0,269871;0,503204;0,419871;0,669871;0,669871;0,419871;0,669871;0,823493;0,419871;0,419871;
4;;;;1,000000;0,580701;0,591386;0,568249;0,583108;0,506157;0,583108;0,515822;0,594775;0,594775;0,591492;0,570102;0,570102;0,570102;0,464632;0,464632;0,464632;0,558119;0,500138;0,644538;0,649643;0,470405;0,418641;0,418641;0,418641;0,547966;0,685047;0,685047;0,524510;0,724316;0,718904;0,500138;0,572733;0,464632;0,585317;0,724316;0,719758;0,547966;0,579898;0,594281;0,685047;0,351714;0,351714;0,351714;0,360047;0,360047;0,310047;0,310047;0,603321;0,603321;0,621742;0,603321;0,523859;0,523859;0,351714;0,351714;0,685047;0,435047;0,685047;0,435047;0,351714;0,351714;0,285047;0,285047;0,285047;0,285047;0,285047;0,518380;0,714632;0,685047;0,685047;0,435047;0,685047;0,435047;0,435047;0,435047;
5;;;;;1,000000;0,660937;0,724474;0,500000;0,642857;0,500000;0,620316;0,500000;0,500000;0,569473;0,500000;0,500000;0,500000;0,250000;0,250000;0,250000;0,400000;0,875000;0,450000;0,508349;0,236863;0,225000;0,225000;0,225000;0,583333;0,625000;0,625000;0,604569;0,375000;0,583333;0,875000;0,600000;0,250000;0,552733;0,375000;0,384648;0,583333;0,462655;0,627862;0,625000;0,291667;0,291667;0,291667;0,300000;0,300000;0,250000;0,250000;0,450000;0,450000;0,473727;0,450000;0,583333;0,583333;0,291667;0,291667;0,625000;0,750000;0,625000;0,750000;0,291667;0,291667;0,225000;0,225000;0,225000;0,225000;0,225000;0,458333;0,375000;0,625000;0,625000;0,375000;0,625000;0,750000;0,375000;0,375000;
6;;;;;;1,000000;0,635640;0,462655;0,605512;0,462655;0,535713;0,664620;0,664620;0,532128;0,462655;0,462655;0,462655;0,477133;0,477133;0,477133;0,570620;0,785937;0,412655;0,471004;0,402430;0,244285;0,244285;0,244285;0,789620;0,644285;0,644285;0,567224;0,394285;0,560466;0,785937;0,562655;0,477133;0,515388;0,394285;0,603365;0,789620;0,645461;0,590518;0,644285;0,310952;0,310952;0,310952;0,319285;0,319285;0,269285;0,269285;0,412655;0,412655;0,575408;0,412655;0,545988;0,545988;0,310952;0,310952;0,644285;0,712655;0,644285;0,712655;0,310952;0,310952;0,244285;0,244285;0,244285;0,244285;0,244285;0,477618;0,727133;0,644285;0,644285;0,394285;0,644285;0,712655;0,394285;0,394285;
7;;;;;;;1,000000;0,552733;0,695590;0,552733;0,594790;0,552733;0,552733;0,622207;0,552733;0,552733;0,552733;0,276367;0,276367;0,276367;0,426367;0,708768;0,502733;0,561082;0,263230;0,251367;0,251367;0,251367;0,636067;0,651367;0,651367;0,657302;0,401367;0,533421;0,708768;0,652733;0,276367;0,605467;0,401367;0,411014;0,636067;0,515388;0,680596;0,651367;0,318033;0,318033;0,318033;0,326367;0,326367;0,276367;0,276367;0,502733;0,502733;0,526460;0,502733;0,636067;0,636067;0,318033;0,318033;0,651367;0,802733;0,651367;0,802733;0,318033;0,318033;0,251367;0,251367;0,251367;0,251367;0,251367;0,484700;0,401367;0,651367;0,651367;0,401367;0,651367;0,802733;0,401367;0,401367;
8;;;;;;;;1,000000;0,818721;0,750000;0,482896;0,500000;0,500000;0,569473;0,500000;0,500000;0,500000;0,250000;0,250000;0,250000;0,400000;0,656035;0,450000;0,508349;0,236863;0,225000;0,225000;0,225000;0,583333;0,625000;0,625000;0,604569;0,375000;0,291667;0,656035;0,600000;0,250000;0,552733;0,375000;0,384648;0,583333;0,462655;0,627862;0,625000;0,291667;0,291667;0,291667;0,300000;0,300000;0,250000;0,250000;0,450000;0,450000;0,473727;0,450000;0,583333;0,583333;0,291667;0,291667;0,625000;0,750000;0,625000;0,750000;0,291667;0,291667;0,225000;0,225000;0,225000;0,225000;0,225000;0,458333;0,375000;0,625000;0,625000;0,375000;0,625000;0,750000;0,375000;0,375000;
9;;;;;;;;;1,000000;0,818721;0,625753;0,642857;0,642857;0,712330;0,642857;0,642857;0,642857;0,321429;0,321429;0,321429;0,471429;0,798892;0,592857;0,651206;0,308292;0,296429;0,296429;0,296429;0,726190;0,696429;0,696429;0,747426;0,446429;0,363095;0,798892;0,742857;0,321429;0,695590;0,446429;0,456076;0,726190;0,605512;0,770720;0,696429;0,363095;0,363095;0,363095;0,371429;0,371429;0,321429;0,321429;0,592857;0,592857;0,616584;0,592857;0,726190;0,726190;0,363095;0,363095;0,696429;0,892857;0,696429;0,892857;0,363095;0,363095;0,296429;0,296429;0,296429;0,296429;0,296429;0,529762;0,446429;0,696429;0,696429;0,446429;0,696429;0,892857;0,446429;0,446429;
10;;;;;;;;;;1,000000;0,482896;0,500000;0,500000;0,569473;0,500000;0,500000;0,500000;0,250000;0,250000;0,250000;0,400000;0,656035;0,450000;0,508349;0,236863;0,225000;0,225000;0,225000;0,583333;0,625000;0,625000;0,604569;0,375000;0,291667;0,656035;0,600000;0,250000;0,552733;0,375000;0,384648;0,583333;0,462655;0,627862;0,625000;0,291667;0,291667;0,291667;0,300000;0,300000;0,250000;0,250000;0,450000;0,450000;0,473727;0,450000;0,583333;0,583333;0,291667;0,291667;0,625000;0,750000;0,625000;0,750000;0,291667;0,291667;0,225000;0,225000;0,225000;0,225000;0,225000;0,458333;0,375000;0,625000;0,625000;0,375000;0,625000;0,750000;0,375000;0,375000;
11;;;;;;;;;;;1,000000;0,619523;0,619523;0,552369;0,482896;0,482896;0,482896;0,586443;0,586443;0,586443;0,605973;0,638931;0,432896;0,491245;0,434481;0,374469;0,374469;0,374469;0,566229;0,663243;0,663243;0,587465;0,413243;0,510083;0,638931;0,582896;0,562795;0,535629;0,413243;0,562870;0,566229;0,612440;0,610758;0,663243;0,329910;0,329910;0,329910;0,338243;0,338243;0,288243;0,288243;0,544498;0,544498;0,543502;0,544498;0,566229;0,566229;0,329910;0,329910;0,663243;0,732896;0,663243;0,732896;0,329910;0,329910;0,263243;0,263243;0,263243;0,263243;0,263243;0,496576;0,413243;0,663243;0,663243;0,413243;0,663243;0,732896;0,413243;0,413243;
12;;;;;;;;;;;;1,000000;0,750000;0,569473;0,500000;0,500000;0,500000;0,500000;0,500000;0,500000;0,593487;0,656035;0,450000;0,508349;0,425297;0,225000;0,225000;0,225000;0,875000;0,625000;0,625000;0,604569;0,375000;0,583333;0,656035;0,600000;0,500000;0,552733;0,375000;0,626232;0,875000;0,730842;0,627862;0,625000;0,291667;0,291667;0,291667;0,300000;0,300000;0,250000;0,250000;0,450000;0,450000;0,660788;0,450000;0,583333;0,583333;0,291667;0,291667;0,625000;0,750000;0,625000;0,750000;0,291667;0,291667;0,225000;0,225000;0,225000;0,225000;0,225000;0,458333;0,750000;0,625000;0,625000;0,375000;0,625000;0,750000;0,375000;0,375000;
13;;;;;;;;;;;;;1,000000;0,569473;0,500000;0,500000;0,500000;0,500000;0,500000;0,500000;0,593487;0,656035;0,450000;0,508349;0,425297;0,225000;0,225000;0,225000;0,875000;0,625000;0,625000;0,604569;0,375000;0,583333;0,656035;0,600000;0,500000;0,552733;0,375000;0,626232;0,875000;0,730842;0,627862;0,625000;0,291667;0,291667;0,291667;0,300000;0,300000;0,250000;0,250000;0,450000;0,450000;0,660788;0,450000;0,583333;0,583333;0,291667;0,291667;0,625000;0,750000;0,625000;0,750000;0,291667;0,291667;0,225000;0,225000;0,225000;0,225000;0,225000;0,458333;0,750000;0,625000;0,625000;0,375000;0,625000;0,750000;0,375000;0,375000;
14;;;;;;;;;;;;;;1,000000;0,569473;0,569473;0,569473;0,284737;0,284737;0,284737;0,434737;0,725508;0,803292;0,776420;0,368457;0,401654;0,401654;0,401654;0,652807;0,659737;0,659737;0,736203;0,409737;0,326403;0,725508;0,669473;0,284737;0,622207;0,409737;0,419384;0,652807;0,532128;0,859514;0,659737;0,326403;0,326403;0,326403;0,334737;0,334737;0,284737;0,284737;0,519473;0,519473;0,543200;0,519473;0,652807;0,652807;0,326403;0,326403;0,659737;0,819473;0,659737;0,819473;0,326403;0,326403;0,259737;0,259737;0,259737;0,259737;0,259737;0,493070;0,409737;0,659737;0,659737;0,409737;0,659737;0,819473;0,409737;0,409737;
15;;;;;;;;;;;;;;;1,000000;0,750000;0,750000;0,250000;0,250000;0,250000;0,400000;0,656035;0,450000;0,508349;0,236863;0,225000;0,225000;0,225000;0,583333;0,625000;0,625000;0,604569;0,375000;0,291667;0,656035;0,600000;0,250000;0,552733;0,375000;0,384648;0,583333;0,462655;0,627862;0,625000;0,291667;0,291667;0,291667;0,300000;0,300000;0,250000;0,250000;0,450000;0,450000;0,473727;0,450000;0,583333;0,583333;0,291667;0,291667;0,625000;0,750000;0,625000;0,750000;0,291667;0,291667;0,225000;0,225000;0,225000;0,225000;0,225000;0,458333;0,375000;0,625000;0,625000;0,375000;0,625000;0,750000;0,375000;0,375000;
16;;;;;;;;;;;;;;;;1,000000;0,750000;0,250000;0,250000;0,250000;0,400000;0,656035;0,450000;0,508349;0,236863;0,225000;0,225000;0,225000;0,583333;0,625000;0,625000;0,604569;0,375000;0,291667;0,656035;0,600000;0,250000;0,552733;0,375000;0,384648;0,583333;0,462655;0,627862;0,625000;0,291667;0,291667;0,291667;0,300000;0,300000;0,250000;0,250000;0,450000;0,450000;0,473727;0,450000;0,583333;0,583333;0,291667;0,291667;0,625000;0,750000;0,625000;0,750000;0,291667;0,291667;0,225000;0,225000;0,225000;0,225000;0,225000;0,458333;0,375000;0,625000;0,625000;0,375000;0,625000;0,750000;0,375000;0,375000;
17;;;;;;;;;;;;;;;;;1,000000;0,250000;0,250000;0,250000;0,400000;0,656035;0,450000;0,508349;0,236863;0,225000;0,225000;0,225000;0,583333;0,625000;0,625000;0,604569;0,375000;0,291667;0,656035;0,600000;0,250000;0,552733;0,375000;0,384648;0,583333;0,462655;0,627862;0,625000;0,291667;0,291667;0,291667;0,300000;0,300000;0,250000;0,250000;0,450000;0,450000;0,473727;0,450000;0,583333;0,583333;0,291667;0,291667;0,625000;0,750000;0,625000;0,750000;0,291667;0,291667;0,225000;0,225000;0,225000;0,225000;0,225000;0,458333;0,375000;0,625000;0,625000;0,375000;0,625000;0,750000;0,375000;0,375000;
18;;;;;;;;;;;;;;;;;;1,000000;0,750000;0,750000;0,593487;0,328017;0,225000;0,254175;0,425297;0,225000;0,225000;0,225000;0,583333;0,625000;0,625000;0,325795;0,375000;0,583333;0,328017;0,300000;0,500000;0,276367;0,375000;0,626232;0,583333;0,538570;0,384648;0,625000;0,291667;0,291667;0,291667;0,300000;0,300000;0,250000;0,250000;0,225000;0,225000;0,425297;0,225000;0,291667;0,291667;0,291667;0,291667;0,625000;0,375000;0,625000;0,375000;0,291667;0,291667;0,225000;0,225000;0,225000;0,225000;0,225000;0,458333;0,750000;0,625000;0,625000;0,375000;0,625000;0,375000;0,375000;0,375000;
19;;;;;;;;;;;;;;;;;;;1,000000;0,750000;0,593487;0,328017;0,225000;0,254175;0,425297;0,225000;0,225000;0,225000;0,583333;0,625000;0,625000;0,325795;0,375000;0,583333;0,328017;0,300000;0,500000;0,276367;0,375000;0,626232;0,583333;0,538570;0,384648;0,625000;0,291667;0,291667;0,291667;0,300000;0,300000;0,250000;0,250000;0,225000;0,225000;0,425297;0,225000;0,291667;0,291667;0,291667;0,291667;0,625000;0,375000;0,625000;0,375000;0,291667;0,291667;0,225000;0,225000;0,225000;0,225000;0,225000;0,458333;0,750000;0,625000;0,625000;0,375000;0,625000;0,375000;0,375000;0,375000;
20;;;;;;;;;;;;;;;;;;;;1,000000;0,593487;0,328017;0,225000;0,254175;0,425297;0,225000;0,225000;0,225000;0,583333;0,625000;0,625000;0,325795;0,375000;0,583333;0,328017;0,300000;0,500000;0,276367;0,375000;0,626232;0,583333;0,538570;0,384648;0,625000;0,291667;0,291667;0,291667;0,300000;0,300000;0,250000;0,250000;0,225000;0,225000;0,425297;0,225000;0,291667;0,291667;0,291667;0,291667;0,625000;0,375000;0,625000;0,375000;0,291667;0,291667;0,225000;0,225000;0,225000;0,225000;0,225000;0,458333;0,750000;0,625000;0,625000;0,375000;0,625000;0,375000;0,375000;0,375000;
21;;;;;;;;;;;;;;;;;;;;;1,000000;0,478017;0,375000;0,404175;0,663454;0,541547;0,541547;0,541547;0,676820;0,775000;0,775000;0,475795;0,525000;0,676820;0,478017;0,450000;0,794158;0,426367;0,525000;0,719719;0,676820;0,632057;0,534648;0,775000;0,441667;0,441667;0,441667;0,450000;0,450000;0,400000;0,400000;0,375000;0,375000;0,518784;0,375000;0,441667;0,441667;0,441667;0,441667;0,775000;0,525000;0,775000;0,525000;0,441667;0,441667;0,375000;0,375000;0,375000;0,375000;0,375000;0,608333;0,843487;0,775000;0,775000;0,525000;0,775000;0,525000;0,525000;0,525000;
22;;;;;;;;;;;;;;;;;;;;;;1,000000;0,606035;0,664384;0,314881;0,303017;0,303017;0,303017;0,739368;0,703017;0,703017;0,760604;0,453017;0,369684;1,000000;0,756035;0,328017;0,708768;0,453017;0,462665;0,739368;0,618690;0,783897;0,703017;0,369684;0,369684;0,369684;0,378017;0,378017;0,328017;0,328017;0,606035;0,606035;0,629762;0,606035;0,739368;0,739368;0,369684;0,369684;0,703017;0,906035;0,703017;0,906035;0,369684;0,369684;0,303017;0,303017;0,303017;0,303017;0,303017;0,536351;0,453017;0,703017;0,703017;0,453017;0,703017;0,906035;0,453017;0,453017;
23;;;;;;;;;;;;;;;;;;;;;;;1,000000;0,773066;0,366802;0,400000;0,400000;0,400000;0,533333;0,600000;0,600000;0,676950;0,350000;0,266667;0,606035;0,550000;0,225000;0,502733;0,350000;0,359648;0,533333;0,412655;0,800000;0,600000;0,266667;0,266667;0,266667;0,275000;0,275000;0,225000;0,225000;0,400000;0,400000;0,423727;0,400000;0,533333;0,533333;0,266667;0,266667;0,600000;0,700000;0,600000;0,700000;0,266667;0,266667;0,200000;0,200000;0,200000;0,200000;0,200000;0,433333;0,350000;0,600000;0,600000;0,350000;0,600000;0,700000;0,350000;0,350000;
24;;;;;;;;;;;;;;;;;;;;;;;;1,000000;0,353260;0,386457;0,386457;0,386457;0,591682;0,629175;0,629175;0,612918;0,709220;0,295841;0,664384;0,759483;0,254175;0,790729;0,709220;0,388822;0,591682;0,471004;0,813968;0,629175;0,295841;0,295841;0,295841;0,304175;0,304175;0,254175;0,254175;0,458349;0,458349;0,482076;0,458349;0,591682;0,591682;0,295841;0,295841;0,629175;0,758349;0,629175;0,758349;0,295841;0,295841;0,229175;0,229175;0,229175;0,229175;0,229175;0,462508;0,379175;0,629175;0,629175;0,379175;0,629175;0,758349;0,379175;0,379175;
25;;;;;;;;;;;;;;;;;;;;;;;;;1,000000;0,689346;0,689346;0,689346;0,508630;0,611863;0,611863;0,312659;0,361863;0,508630;0,314881;0,286863;0,619002;0,263230;0,361863;0,551529;0,508630;0,463867;0,542442;0,611863;0,278530;0,278530;0,278530;0,286863;0,286863;0,236863;0,236863;0,211863;0,211863;0,350594;0,211863;0,278530;0,278530;0,278530;0,278530;0,611863;0,361863;0,611863;0,361863;0,278530;0,278530;0,211863;0,211863;0,211863;0,211863;0,211863;0,445197;0,675297;0,611863;0,611863;0,361863;0,611863;0,361863;0,361863;0,361863;
26;;;;;;;;;;;;;;;;;;;;;;;;;;1,000000;0,800000;0,800000;0,266667;0,600000;0,600000;0,300795;0,350000;0,266667;0,303017;0,275000;0,450000;0,251367;0,350000;0,359648;0,266667;0,244285;0,575640;0,600000;0,266667;0,266667;0,266667;0,275000;0,275000;0,225000;0,225000;0,200000;0,200000;0,211863;0,200000;0,266667;0,266667;0,266667;0,266667;0,600000;0,350000;0,600000;0,350000;0,266667;0,266667;0,200000;0,200000;0,200000;0,200000;0,200000;0,433333;0,350000;0,600000;0,600000;0,350000;0,600000;0,350000;0,350000;0,350000;
27;;;;;;;;;;;;;;;;;;;;;;;;;;;1,000000;0,800000;0,266667;0,600000;0,600000;0,300795;0,350000;0,266667;0,303017;0,275000;0,450000;0,251367;0,350000;0,359648;0,266667;0,244285;0,575640;0,600000;0,266667;0,266667;0,266667;0,275000;0,275000;0,225000;0,225000;0,200000;0,200000;0,211863;0,200000;0,266667;0,266667;0,266667;0,266667;0,600000;0,350000;0,600000;0,350000;0,266667;0,266667;0,200000;0,200000;0,200000;0,200000;0,200000;0,433333;0,350000;0,600000;0,600000;0,350000;0,600000;0,350000;0,350000;0,350000;
28;;;;;;;;;;;;;;;;;;;;;;;;;;;;1,000000;0,266667;0,600000;0,600000;0,300795;0,350000;0,266667;0,303017;0,275000;0,450000;0,251367;0,350000;0,359648;0,266667;0,244285;0,575640;0,600000;0,266667;0,266667;0,266667;0,275000;0,275000;0,225000;0,225000;0,200000;0,200000;0,211863;0,200000;0,266667;0,266667;0,266667;0,266667;0,600000;0,350000;0,600000;0,350000;0,266667;0,266667;0,200000;0,200000;0,200000;0,200000;0,200000;0,433333;0,350000;0,600000;0,600000;0,350000;0,600000;0,350000;0,350000;0,350000;
29;;;;;;;;;;;;;;;;;;;;;;;;;;;;;1,000000;0,666667;0,666667;0,687902;0,416667;0,666667;0,739368;0,683333;0,583333;0,636067;0,416667;0,709566;1,000000;0,855842;0,711196;0,666667;0,333333;0,333333;0,333333;0,341667;0,341667;0,291667;0,291667;0,533333;0,533333;0,785788;0,533333;0,666667;0,666667;0,333333;0,333333;0,666667;0,833333;0,666667;0,833333;0,333333;0,333333;0,266667;0,266667;0,266667;0,266667;0,266667;0,500000;0,833333;0,666667;0,666667;0,416667;0,666667;0,833333;0,416667;0,416667;
30;;;;;;;;;;;;;;;;;;;;;;;;;;;;;;1,000000;1,000000;0,700795;0,750000;0,666667;0,703017;0,675000;0,625000;0,651367;0,750000;0,759648;0,666667;0,644285;0,759648;1,000000;0,666667;0,666667;0,666667;0,675000;0,675000;0,625000;0,625000;0,600000;0,600000;0,611863;0,600000;0,666667;0,666667;0,666667;0,666667;1,000000;0,750000;1,000000;0,750000;0,666667;0,666667;0,600000;0,600000;0,600000;0,600000;0,600000;0,833333;0,750000;1,000000;1,000000;0,750000;1,000000;0,750000;0,750000;0,750000;
31;;;;;;;;;;;;;;;;;;;;;;;;;;;;;;;1,000000;0,700795;0,750000;0,666667;0,703017;0,675000;0,625000;0,651367;0,750000;0,759648;0,666667;0,644285;0,759648;1,000000;0,666667;0,666667;0,666667;0,675000;0,675000;0,625000;0,625000;0,600000;0,600000;0,611863;0,600000;0,666667;0,666667;0,666667;0,666667;1,000000;0,750000;1,000000;0,750000;0,666667;0,666667;0,600000;0,600000;0,600000;0,600000;0,600000;0,833333;0,750000;1,000000;1,000000;0,750000;1,000000;0,750000;0,750000;0,750000;
32;;;;;;;;;;;;;;;;;;;;;;;;;;;;;;;;1,000000;0,450795;0,367462;0,760604;0,838650;0,325795;0,722342;0,450795;0,460443;0,687902;0,567224;0,732432;0,700795;0,367462;0,367462;0,367462;0,375795;0,375795;0,325795;0,325795;0,554569;0,554569;0,578296;0,554569;0,687902;0,687902;0,367462;0,367462;0,700795;0,854569;0,700795;0,854569;0,367462;0,367462;0,300795;0,300795;0,300795;0,300795;0,300795;0,534129;0,450795;0,700795;0,700795;0,450795;0,700795;0,854569;0,450795;0,450795;
33;;;;;;;;;;;;;;;;;;;;;;;;;;;;;;;;;1,000000;0,416667;0,453017;0,750000;0,375000;0,802733;1,000000;0,509648;0,416667;0,394285;0,509648;0,750000;0,416667;0,416667;0,416667;0,425000;0,425000;0,375000;0,375000;0,350000;0,350000;0,361863;0,350000;0,416667;0,416667;0,416667;0,416667;0,750000;0,500000;0,750000;0,500000;0,416667;0,416667;0,350000;0,350000;0,350000;0,350000;0,350000;0,583333;0,500000;0,750000;0,750000;0,500000;0,750000;0,500000;0,500000;0,500000;
34;;;;;;;;;;;;;;;;;;;;;;;;;;;;;;;;;;1,000000;0,369684;0,341667;0,583333;0,318033;0,416667;0,709566;0,666667;0,621904;0,426314;0,666667;0,333333;0,333333;0,333333;0,341667;0,341667;0,291667;0,291667;0,266667;0,266667;0,508630;0,266667;0,333333;0,333333;0,333333;0,333333;0,666667;0,416667;0,666667;0,416667;0,333333;0,333333;0,266667;0,266667;0,266667;0,266667;0,266667;0,500000;0,833333;0,666667;0,666667;0,416667;0,666667;0,416667;0,416667;0,416667;
35;;;;;;;;;;;;;;;;;;;;;;;;;;;;;;;;;;;1,000000;0,756035;0,328017;0,708768;0,453017;0,462665;0,739368;0,618690;0,783897;0,703017;0,369684;0,369684;0,369684;0,378017;0,378017;0,328017;0,328017;0,606035;0,606035;0,629762;0,606035;0,739368;0,739368;0,369684;0,369684;0,703017;0,906035;0,703017;0,906035;0,369684;0,369684;0,303017;0,303017;0,303017;0,303017;0,303017;0,536351;0,453017;0,703017;0,703017;0,453017;0,703017;0,906035;0,453017;0,453017;
36;;;;;;;;;;;;;;;;;;;;;;;;;;;;;;;;;;;;1,000000;0,300000;0,876954;0,750000;0,434648;0,683333;0,562655;0,727862;0,675000;0,341667;0,341667;0,341667;0,350000;0,350000;0,300000;0,300000;0,550000;0,550000;0,573727;0,550000;0,683333;0,683333;0,341667;0,341667;0,675000;0,850000;0,675000;0,850000;0,341667;0,341667;0,275000;0,275000;0,275000;0,275000;0,275000;0,508333;0,425000;0,675000;0,675000;0,425000;0,675000;0,850000;0,425000;0,425000;
37;;;;;;;;;;;;;;;;;;;;;;;;;;;;;;;;;;;;;1,000000;0,276367;0,375000;0,626232;0,583333;0,538570;0,384648;0,625000;0,291667;0,291667;0,291667;0,300000;0,300000;0,250000;0,250000;0,225000;0,225000;0,425297;0,225000;0,291667;0,291667;0,291667;0,291667;0,625000;0,375000;0,625000;0,375000;0,291667;0,291667;0,225000;0,225000;0,225000;0,225000;0,225000;0,458333;0,750000;0,625000;0,625000;0,375000;0,625000;0,375000;0,375000;0,375000;
38;;;;;;;;;;;;;;;;;;;;;;;;;;;;;;;;;;;;;;1,000000;0,802733;0,411014;0,636067;0,515388;0,680596;0,651367;0,318033;0,318033;0,318033;0,326367;0,326367;0,276367;0,276367;0,502733;0,502733;0,526460;0,502733;0,636067;0,636067;0,318033;0,318033;0,651367;0,802733;0,651367;0,802733;0,318033;0,318033;0,251367;0,251367;0,251367;0,251367;0,251367;0,484700;0,401367;0,651367;0,651367;0,401367;0,651367;0,802733;0,401367;0,401367;
39;;;;;;;;;;;;;;;;;;;;;;;;;;;;;;;;;;;;;;;1,000000;0,509648;0,416667;0,394285;0,509648;0,750000;0,416667;0,416667;0,416667;0,425000;0,425000;0,375000;0,375000;0,350000;0,350000;0,361863;0,350000;0,416667;0,416667;0,416667;0,416667;0,750000;0,500000;0,750000;0,500000;0,416667;0,416667;0,350000;0,350000;0,350000;0,350000;0,350000;0,583333;0,500000;0,750000;0,750000;0,500000;0,750000;0,500000;0,500000;0,500000;
40;;;;;;;;;;;;;;;;;;;;;;;;;;;;;;;;;;;;;;;;1,000000;0,709566;0,664802;0,519295;0,759648;0,426314;0,426314;0,426314;0,434648;0,434648;0,384648;0,384648;0,359648;0,359648;0,744187;0,359648;0,426314;0,426314;0,426314;0,426314;0,759648;0,509648;0,759648;0,509648;0,426314;0,426314;0,359648;0,359648;0,359648;0,359648;0,359648;0,592981;0,876232;0,759648;0,759648;0,509648;0,759648;0,509648;0,509648;0,509648;
41;;;;;;;;;;;;;;;;;;;;;;;;;;;;;;;;;;;;;;;;;1,000000;0,855842;0,711196;0,666667;0,333333;0,333333;0,333333;0,341667;0,341667;0,291667;0,291667;0,533333;0,533333;0,785788;0,533333;0,666667;0,666667;0,333333;0,333333;0,666667;0,833333;0,666667;0,833333;0,333333;0,333333;0,266667;0,266667;0,266667;0,266667;0,266667;0,500000;0,833333;0,666667;0,666667;0,416667;0,666667;0,833333;0,416667;0,416667;
42;;;;;;;;;;;;;;;;;;;;;;;;;;;;;;;;;;;;;;;;;;1,000000;0,590518;0,644285;0,310952;0,310952;0,310952;0,319285;0,319285;0,269285;0,269285;0,586041;0,586041;0,641630;0,586041;0,545988;0,545988;0,310952;0,310952;0,644285;0,712655;0,644285;0,712655;0,310952;0,310952;0,244285;0,244285;0,244285;0,244285;0,244285;0,477618;0,788570;0,644285;0,644285;0,394285;0,644285;0,712655;0,394285;0,394285;
43;;;;;;;;;;;;;;;;;;;;;;;;;;;;;;;;;;;;;;;;;;;1,000000;0,759648;0,426314;0,426314;0,426314;0,434648;0,434648;0,384648;0,384648;0,577862;0,577862;0,601589;0,577862;0,711196;0,711196;0,426314;0,426314;0,759648;0,877862;0,759648;0,877862;0,426314;0,426314;0,359648;0,359648;0,359648;0,359648;0,359648;0,592981;0,509648;0,759648;0,759648;0,509648;0,759648;0,877862;0,509648;0,509648;
44;;;;;;;;;;;;;;;;;;;;;;;;;;;;;;;;;;;;;;;;;;;;1,000000;0,666667;0,666667;0,666667;0,675000;0,675000;0,625000;0,625000;0,600000;0,600000;0,611863;0,600000;0,666667;0,666667;0,666667;0,666667;1,000000;0,750000;1,000000;0,750000;0,666667;0,666667;0,600000;0,600000;0,600000;0,600000;0,600000;0,833333;0,750000;1,000000;1,000000;0,750000;1,000000;0,750000;0,750000;0,750000;
45;;;;;;;;;;;;;;;;;;;;;;;;;;;;;;;;;;;;;;;;;;;;;1,000000;0,666667;0,561096;0,341667;0,341667;0,291667;0,291667;0,266667;0,266667;0,278530;0,266667;0,333333;0,333333;0,666667;0,666667;0,666667;0,416667;0,666667;0,416667;0,666667;0,666667;0,266667;0,266667;0,266667;0,266667;0,266667;0,500000;0,416667;0,666667;0,666667;0,416667;0,666667;0,416667;0,416667;0,416667;
46;;;;;;;;;;;;;;;;;;;;;;;;;;;;;;;;;;;;;;;;;;;;;;1,000000;0,561096;0,341667;0,341667;0,291667;0,291667;0,266667;0,266667;0,278530;0,266667;0,333333;0,333333;0,666667;0,666667;0,666667;0,416667;0,666667;0,416667;0,666667;0,666667;0,266667;0,266667;0,266667;0,266667;0,266667;0,500000;0,416667;0,666667;0,666667;0,416667;0,666667;0,416667;0,416667;0,416667;
47;;;;;;;;;;;;;;;;;;;;;;;;;;;;;;;;;;;;;;;;;;;;;;;1,000000;0,341667;0,341667;0,291667;0,291667;0,266667;0,266667;0,278530;0,266667;0,333333;0,333333;0,561096;0,561096;0,666667;0,416667;0,666667;0,416667;0,561096;0,561096;0,266667;0,266667;0,266667;0,266667;0,266667;0,500000;0,416667;0,666667;0,666667;0,416667;0,666667;0,416667;0,416667;0,416667;
48;;;;;;;;;;;;;;;;;;;;;;;;;;;;;;;;;;;;;;;;;;;;;;;;1,000000;0,664078;0,797180;0,797180;0,275000;0,275000;0,286863;0,275000;0,341667;0,341667;0,341667;0,341667;0,675000;0,425000;0,675000;0,425000;0,341667;0,341667;0,275000;0,275000;0,275000;0,275000;0,275000;0,508333;0,425000;0,675000;0,675000;0,425000;0,675000;0,425000;0,425000;0,425000;
49;;;;;;;;;;;;;;;;;;;;;;;;;;;;;;;;;;;;;;;;;;;;;;;;;1,000000;0,797180;0,797180;0,275000;0,275000;0,286863;0,275000;0,341667;0,341667;0,341667;0,341667;0,675000;0,425000;0,675000;0,425000;0,341667;0,341667;0,275000;0,275000;0,275000;0,275000;0,275000;0,508333;0,425000;0,675000;0,675000;0,425000;0,675000;0,425000;0,425000;0,425000;
50;;;;;;;;;;;;;;;;;;;;;;;;;;;;;;;;;;;;;;;;;;;;;;;;;;1,000000;0,750000;0,225000;0,225000;0,236863;0,225000;0,291667;0,291667;0,291667;0,291667;0,625000;0,375000;0,625000;0,375000;0,291667;0,291667;0,225000;0,225000;0,225000;0,225000;0,225000;0,458333;0,375000;0,625000;0,625000;0,375000;0,625000;0,375000;0,375000;0,375000;
51;;;;;;;;;;;;;;;;;;;;;;;;;;;;;;;;;;;;;;;;;;;;;;;;;;;1,000000;0,225000;0,225000;0,236863;0,225000;0,291667;0,291667;0,291667;0,291667;0,625000;0,375000;0,625000;0,375000;0,291667;0,291667;0,225000;0,225000;0,225000;0,225000;0,225000;0,458333;0,375000;0,625000;0,625000;0,375000;0,625000;0,375000;0,375000;0,375000;
52;;;;;;;;;;;;;;;;;;;;;;;;;;;;;;;;;;;;;;;;;;;;;;;;;;;;1,000000;0,800000;0,734574;0,800000;0,533333;0,533333;0,266667;0,266667;0,600000;0,700000;0,600000;0,700000;0,266667;0,266667;0,200000;0,200000;0,200000;0,200000;0,200000;0,433333;0,350000;0,600000;0,600000;0,350000;0,600000;0,700000;0,350000;0,350000;
53;;;;;;;;;;;;;;;;;;;;;;;;;;;;;;;;;;;;;;;;;;;;;;;;;;;;;1,000000;0,734574;0,800000;0,533333;0,533333;0,266667;0,266667;0,600000;0,700000;0,600000;0,700000;0,266667;0,266667;0,200000;0,200000;0,200000;0,200000;0,200000;0,433333;0,350000;0,600000;0,600000;0,350000;0,600000;0,700000;0,350000;0,350000;
54;;;;;;;;;;;;;;;;;;;;;;;;;;;;;;;;;;;;;;;;;;;;;;;;;;;;;;1,000000;0,734574;0,557060;0,557060;0,278530;0,278530;0,611863;0,723727;0,611863;0,723727;0,278530;0,278530;0,211863;0,211863;0,211863;0,211863;0,211863;0,445197;0,675297;0,611863;0,611863;0,361863;0,611863;0,723727;0,361863;0,361863;
55;;;;;;;;;;;;;;;;;;;;;;;;;;;;;;;;;;;;;;;;;;;;;;;;;;;;;;;1,000000;0,533333;0,533333;0,266667;0,266667;0,600000;0,700000;0,600000;0,700000;0,266667;0,266667;0,200000;0,200000;0,200000;0,200000;0,200000;0,433333;0,350000;0,600000;0,600000;0,350000;0,600000;0,700000;0,350000;0,350000;
56;;;;;;;;;;;;;;;;;;;;;;;;;;;;;;;;;;;;;;;;;;;;;;;;;;;;;;;;1,000000;0,666667;0,333333;0,333333;0,666667;0,833333;0,666667;0,833333;0,333333;0,333333;0,266667;0,266667;0,266667;0,266667;0,266667;0,500000;0,416667;0,666667;0,666667;0,416667;0,666667;0,833333;0,416667;0,416667;
57;;;;;;;;;;;;;;;;;;;;;;;;;;;;;;;;;;;;;;;;;;;;;;;;;;;;;;;;;1,000000;0,333333;0,333333;0,666667;0,833333;0,666667;0,833333;0,333333;0,333333;0,266667;0,266667;0,266667;0,266667;0,266667;0,500000;0,416667;0,666667;0,666667;0,416667;0,666667;0,833333;0,416667;0,416667;
58;;;;;;;;;;;;;;;;;;;;;;;;;;;;;;;;;;;;;;;;;;;;;;;;;;;;;;;;;;1,000000;0,666667;0,666667;0,416667;0,666667;0,416667;0,666667;0,666667;0,266667;0,266667;0,266667;0,266667;0,266667;0,500000;0,416667;0,666667;0,666667;0,416667;0,666667;0,416667;0,416667;0,416667;
59;;;;;;;;;;;;;;;;;;;;;;;;;;;;;;;;;;;;;;;;;;;;;;;;;;;;;;;;;;;1,000000;0,666667;0,416667;0,666667;0,416667;0,666667;0,666667;0,266667;0,266667;0,266667;0,266667;0,266667;0,500000;0,416667;0,666667;0,666667;0,416667;0,666667;0,416667;0,416667;0,416667;
60;;;;;;;;;;;;;;;;;;;;;;;;;;;;;;;;;;;;;;;;;;;;;;;;;;;;;;;;;;;;1,000000;0,750000;1,000000;0,750000;0,666667;0,666667;0,600000;0,600000;0,600000;0,600000;0,600000;0,833333;0,750000;1,000000;1,000000;0,750000;1,000000;0,750000;0,750000;0,750000;
61;;;;;;;;;;;;;;;;;;;;;;;;;;;;;;;;;;;;;;;;;;;;;;;;;;;;;;;;;;;;;1,000000;0,750000;1,000000;0,416667;0,416667;0,350000;0,350000;0,350000;0,350000;0,350000;0,583333;0,500000;0,750000;0,750000;0,500000;0,750000;1,000000;0,500000;0,500000;
62;;;;;;;;;;;;;;;;;;;;;;;;;;;;;;;;;;;;;;;;;;;;;;;;;;;;;;;;;;;;;;1,000000;0,750000;0,666667;0,666667;0,600000;0,600000;0,600000;0,600000;0,600000;0,833333;0,750000;1,000000;1,000000;0,750000;1,000000;0,750000;0,750000;0,750000;
63;;;;;;;;;;;;;;;;;;;;;;;;;;;;;;;;;;;;;;;;;;;;;;;;;;;;;;;;;;;;;;;1,000000;0,416667;0,416667;0,350000;0,350000;0,350000;0,350000;0,350000;0,583333;0,500000;0,750000;0,750000;0,500000;0,750000;1,000000;0,500000;0,500000;
64;;;;;;;;;;;;;;;;;;;;;;;;;;;;;;;;;;;;;;;;;;;;;;;;;;;;;;;;;;;;;;;;1,000000;0,666667;0,266667;0,266667;0,266667;0,266667;0,266667;0,500000;0,416667;0,666667;0,666667;0,416667;0,666667;0,416667;0,416667;0,416667;
65;;;;;;;;;;;;;;;;;;;;;;;;;;;;;;;;;;;;;;;;;;;;;;;;;;;;;;;;;;;;;;;;;1,000000;0,266667;0,266667;0,266667;0,266667;0,266667;0,500000;0,416667;0,666667;0,666667;0,416667;0,666667;0,416667;0,416667;0,416667;
66;;;;;;;;;;;;;;;;;;;;;;;;;;;;;;;;;;;;;;;;;;;;;;;;;;;;;;;;;;;;;;;;;;1,000000;0,800000;0,800000;0,800000;0,800000;0,433333;0,350000;0,600000;0,600000;0,350000;0,600000;0,350000;0,350000;0,350000;
67;;;;;;;;;;;;;;;;;;;;;;;;;;;;;;;;;;;;;;;;;;;;;;;;;;;;;;;;;;;;;;;;;;;1,000000;0,800000;0,800000;0,800000;0,433333;0,350000;0,600000;0,600000;0,350000;0,600000;0,350000;0,350000;0,350000;
68;;;;;;;;;;;;;;;;;;;;;;;;;;;;;;;;;;;;;;;;;;;;;;;;;;;;;;;;;;;;;;;;;;;;1,000000;0,800000;0,800000;0,433333;0,350000;0,600000;0,600000;0,350000;0,600000;0,350000;0,350000;0,350000;
69;;;;;;;;;;;;;;;;;;;;;;;;;;;;;;;;;;;;;;;;;;;;;;;;;;;;;;;;;;;;;;;;;;;;;1,000000;0,800000;0,433333;0,350000;0,600000;0,600000;0,350000;0,600000;0,350000;0,350000;0,350000;
70;;;;;;;;;;;;;;;;;;;;;;;;;;;;;;;;;;;;;;;;;;;;;;;;;;;;;;;;;;;;;;;;;;;;;;1,000000;0,433333;0,350000;0,600000;0,600000;0,350000;0,600000;0,350000;0,350000;0,350000;
71;;;;;;;;;;;;;;;;;;;;;;;;;;;;;;;;;;;;;;;;;;;;;;;;;;;;;;;;;;;;;;;;;;;;;;;1,000000;0,583333;0,833333;0,833333;0,583333;0,833333;0,583333;0,583333;0,583333;
72;;;;;;;;;;;;;;;;;;;;;;;;;;;;;;;;;;;;;;;;;;;;;;;;;;;;;;;;;;;;;;;;;;;;;;;;1,000000;0,750000;0,750000;0,500000;0,750000;0,500000;0,500000;0,500000;
73;;;;;;;;;;;;;;;;;;;;;;;;;;;;;;;;;;;;;;;;;;;;;;;;;;;;;;;;;;;;;;;;;;;;;;;;;1,000000;1,000000;0,750000;1,000000;0,750000;0,750000;0,750000;
74;;;;;;;;;;;;;;;;;;;;;;;;;;;;;;;;;;;;;;;;;;;;;;;;;;;;;;;;;;;;;;;;;;;;;;;;;;1,000000;0,750000;1,000000;0,750000;0,750000;0,750000;
75;;;;;;;;;;;;;;;;;;;;;;;;;;;;;;;;;;;;;;;;;;;;;;;;;;;;;;;;;;;;;;;;;;;;;;;;;;;1,000000;0,750000;0,500000;0,500000;0,500000;
76;;;;;;;;;;;;;;;;;;;;;;;;;;;;;;;;;;;;;;;;;;;;;;;;;;;;;;;;;;;;;;;;;;;;;;;;;;;;1,000000;0,750000;0,750000;0,750000;
77;;;;;;;;;;;;;;;;;;;;;;;;;;;;;;;;;;;;;;;;;;;;;;;;;;;;;;;;;;;;;;;;;;;;;;;;;;;;;1,000000;0,500000;0,500000;
78;;;;;;;;;;;;;;;;;;;;;;;;;;;;;;;;;;;;;;;;;;;;;;;;;;;;;;;;;;;;;;;;;;;;;;;;;;;;;;1,000000;0,500000;
79;;;;;;;;;;;;;;;;;;;;;;;;;;;;;;;;;;;;;;;;;;;;;;;;;;;;;;;;;;;;;;;;;;;;;;;;;;;;;;;1,000000;
