;1; 2; 3; 4; 5; 6; 7; 8; 9; 10; 11; 12; 13; 14; 15; 16; 17; 18; 19; 20; 21; 22; 23; 24; 25; 26; 27; 28; 29; 30; 31; 32; 33; 34; 35; 36; 37; 38; 39; 40; 41; 42; 43; 44; 45; 46; 47; 48; 49; 50; 51; 52; 53; 54; 55; 56; 57; 58; 59; 60; 61; 62; 63; 64; 65; 66; 67; 68; 69; 70; 71; 72; 73; 74; 75; 76; 77; 78; 79; 80; 81; 82; 83; 84; 85; 86; 87; 88; 89; 90; 91; 92; 93; 94; 95; 96; 97; 98; 99; 100; 101; 102; 103; 104; 105; 106; 107; 108; 109; 110; 111; 112; 113; 114; 115; 116; 117; 118; 119; 120; 121; 122; 123; 124; 125; 126; 127; 128; 129; 130; 131; 132
1;1,000000;1,000000;1,000000;1,000000;0,000000;0,000000;0,000000;1,000000;0,000000;1,000000;1,000000;1,000000;1,000000;1,000000;1,000000;1,000000;1,000000;1,000000;1,000000;1,000000;1,000000;1,000000;1,000000;1,000000;1,000000;1,000000;1,000000;1,000000;1,000000;1,000000;1,000000;1,000000;1,000000;1,000000;1,000000;1,000000;1,000000;1,000000;1,000000;1,000000;1,000000;1,000000;1,000000;1,000000;1,000000;1,000000;1,000000;1,000000;0,000000;0,000000;0,000000;0,000000;0,000000;1,000000;1,000000;1,000000;1,000000;0,000000;0,000000;0,000000;0,000000;1,000000;1,000000;1,000000;1,000000;0,000000;1,000000;0,000000;1,000000;0,000000;0,000000;1,000000;0,000000;0,000000;0,000000;0,000000;0,000000;0,000000;1,000000;0,000000;0,000000;0,000000;1,000000;1,000000;0,000000;0,000000;1,000000;1,000000;0,000000;0,000000;0,000000;0,000000;1,000000;1,000000;0,000000;1,000000;1,000000;1,000000;1,000000;1,000000;1,000000;0,000000;1,000000;1,000000;0,000000;0,000000;0,000000;0,000000;0,000000;0,000000;0,000000;0,000000;0,000000;0,000000;1,000000;1,000000;1,000000;1,000000;1,000000;0,000000;0,000000;0,000000;1,000000;1,000000;1,000000;1,000000;1,000000;1,000000;1,000000;1,000000;1,000000;1,000000;
2;;1,000000;1,000000;1,000000;0,000000;0,000000;0,000000;1,000000;0,000000;1,000000;1,000000;1,000000;1,000000;1,000000;1,000000;1,000000;1,000000;1,000000;1,000000;1,000000;1,000000;1,000000;1,000000;1,000000;1,000000;1,000000;1,000000;1,000000;1,000000;1,000000;1,000000;1,000000;1,000000;1,000000;1,000000;1,000000;1,000000;1,000000;1,000000;1,000000;1,000000;1,000000;1,000000;1,000000;1,000000;1,000000;1,000000;1,000000;0,000000;0,000000;0,000000;0,000000;0,000000;1,000000;1,000000;1,000000;1,000000;0,000000;0,000000;0,000000;0,000000;1,000000;1,000000;1,000000;1,000000;0,000000;1,000000;1,000000;0,000000;0,000000;0,000000;1,000000;0,000000;0,000000;0,000000;0,000000;0,000000;0,000000;1,000000;1,000000;0,000000;0,000000;1,000000;1,000000;0,000000;0,000000;1,000000;1,000000;0,000000;0,000000;0,000000;0,000000;1,000000;1,000000;0,000000;1,000000;1,000000;1,000000;1,000000;1,000000;1,000000;0,000000;1,000000;1,000000;0,000000;0,000000;0,000000;0,000000;0,000000;0,000000;0,000000;0,000000;0,000000;0,000000;1,000000;1,000000;1,000000;1,000000;1,000000;0,000000;0,000000;0,000000;1,000000;1,000000;1,000000;1,000000;1,000000;1,000000;1,000000;1,000000;1,000000;1,000000;
3;;;1,000000;1,000000;1,000000;1,000000;0,000000;1,000000;1,000000;1,000000;1,000000;1,000000;1,000000;1,000000;1,000000;1,000000;1,000000;1,000000;1,000000;1,000000;1,000000;1,000000;1,000000;1,000000;1,000000;1,000000;1,000000;1,000000;1,000000;1,000000;1,000000;1,000000;1,000000;1,000000;1,000000;1,000000;1,000000;1,000000;1,000000;1,000000;1,000000;1,000000;0,000000;1,000000;1,000000;1,000000;1,000000;1,000000;1,000000;1,000000;1,000000;1,000000;1,000000;1,000000;1,000000;0,000000;1,000000;0,000000;0,000000;0,000000;0,000000;1,000000;1,000000;1,000000;1,000000;0,000000;0,000000;1,000000;0,000000;0,000000;0,000000;0,000000;0,000000;0,000000;0,000000;0,000000;0,000000;0,000000;1,000000;1,000000;0,000000;0,000000;1,000000;0,000000;1,000000;1,000000;1,000000;1,000000;0,000000;0,000000;0,000000;0,000000;1,000000;0,000000;0,000000;1,000000;1,000000;1,000000;0,000000;1,000000;1,000000;0,000000;0,000000;1,000000;0,000000;0,000000;0,000000;0,000000;0,000000;0,000000;0,000000;0,000000;0,000000;0,000000;1,000000;1,000000;1,000000;1,000000;1,000000;0,000000;0,000000;0,000000;1,000000;1,000000;0,000000;0,000000;1,000000;0,000000;1,000000;0,000000;0,000000;0,000000;
4;;;;1,000000;1,000000;1,000000;1,000000;1,000000;1,000000;1,000000;0,000000;1,000000;1,000000;1,000000;1,000000;1,000000;1,000000;1,000000;1,000000;1,000000;1,000000;1,000000;0,000000;1,000000;1,000000;1,000000;1,000000;1,000000;1,000000;1,000000;1,000000;1,000000;1,000000;1,000000;0,000000;1,000000;1,000000;1,000000;1,000000;1,000000;1,000000;1,000000;1,000000;1,000000;1,000000;1,000000;1,000000;1,000000;0,000000;0,000000;0,000000;0,000000;0,000000;1,000000;1,000000;1,000000;1,000000;1,000000;1,000000;1,000000;1,000000;0,000000;0,000000;1,000000;1,000000;1,000000;1,000000;0,000000;0,000000;0,000000;0,000000;1,000000;0,000000;0,000000;0,000000;0,000000;0,000000;0,000000;1,000000;0,000000;0,000000;0,000000;1,000000;1,000000;0,000000;0,000000;1,000000;1,000000;0,000000;0,000000;0,000000;0,000000;1,000000;1,000000;0,000000;1,000000;1,000000;1,000000;1,000000;1,000000;1,000000;1,000000;1,000000;1,000000;0,000000;0,000000;0,000000;0,000000;0,000000;0,000000;0,000000;0,000000;0,000000;0,000000;1,000000;1,000000;1,000000;1,000000;1,000000;0,000000;0,000000;0,000000;1,000000;1,000000;1,000000;1,000000;1,000000;1,000000;1,000000;1,000000;1,000000;1,000000;
5;;;;;1,000000;1,000000;1,000000;0,000000;1,000000;0,000000;1,000000;0,000000;0,000000;0,000000;0,000000;0,000000;0,000000;0,000000;0,000000;0,000000;0,000000;0,000000;0,000000;0,000000;0,000000;0,000000;0,000000;0,000000;1,000000;0,000000;0,000000;0,000000;0,000000;0,000000;0,000000;0,000000;0,000000;0,000000;0,000000;0,000000;0,000000;0,000000;0,000000;0,000000;0,000000;0,000000;0,000000;0,000000;0,000000;0,000000;0,000000;0,000000;0,000000;0,000000;0,000000;0,000000;0,000000;1,000000;1,000000;1,000000;1,000000;0,000000;0,000000;0,000000;0,000000;1,000000;0,000000;0,000000;0,000000;0,000000;0,000000;0,000000;0,000000;0,000000;0,000000;0,000000;0,000000;0,000000;0,000000;0,000000;0,000000;0,000000;0,000000;0,000000;0,000000;0,000000;1,000000;1,000000;0,000000;0,000000;0,000000;0,000000;0,000000;0,000000;0,000000;0,000000;0,000000;0,000000;0,000000;0,000000;0,000000;1,000000;0,000000;0,000000;0,000000;0,000000;0,000000;0,000000;0,000000;0,000000;0,000000;0,000000;0,000000;0,000000;0,000000;0,000000;0,000000;0,000000;0,000000;0,000000;0,000000;0,000000;0,000000;0,000000;0,000000;0,000000;0,000000;0,000000;0,000000;0,000000;0,000000;0,000000;
6;;;;;;1,000000;1,000000;0,000000;1,000000;0,000000;1,000000;0,000000;0,000000;0,000000;0,000000;0,000000;0,000000;0,000000;0,000000;0,000000;0,000000;0,000000;0,000000;0,000000;0,000000;0,000000;0,000000;0,000000;1,000000;0,000000;0,000000;0,000000;0,000000;0,000000;0,000000;0,000000;0,000000;0,000000;0,000000;0,000000;0,000000;0,000000;0,000000;0,000000;0,000000;0,000000;0,000000;0,000000;0,000000;0,000000;0,000000;0,000000;0,000000;0,000000;0,000000;0,000000;0,000000;1,000000;1,000000;1,000000;1,000000;0,000000;0,000000;0,000000;0,000000;0,000000;0,000000;0,000000;0,000000;0,000000;0,000000;0,000000;0,000000;0,000000;0,000000;0,000000;0,000000;0,000000;0,000000;0,000000;0,000000;0,000000;0,000000;0,000000;0,000000;0,000000;1,000000;1,000000;0,000000;0,000000;0,000000;0,000000;0,000000;0,000000;0,000000;0,000000;0,000000;0,000000;0,000000;0,000000;0,000000;0,000000;0,000000;0,000000;0,000000;0,000000;0,000000;0,000000;0,000000;0,000000;0,000000;0,000000;0,000000;0,000000;0,000000;0,000000;0,000000;0,000000;0,000000;0,000000;0,000000;0,000000;0,000000;0,000000;0,000000;0,000000;0,000000;0,000000;0,000000;0,000000;0,000000;0,000000;
7;;;;;;;1,000000;0,000000;1,000000;0,000000;0,000000;0,000000;0,000000;0,000000;0,000000;0,000000;0,000000;0,000000;0,000000;0,000000;0,000000;0,000000;0,000000;0,000000;0,000000;0,000000;0,000000;0,000000;0,000000;0,000000;0,000000;0,000000;0,000000;0,000000;0,000000;0,000000;0,000000;0,000000;0,000000;0,000000;0,000000;0,000000;0,000000;0,000000;0,000000;0,000000;0,000000;0,000000;0,000000;0,000000;0,000000;0,000000;0,000000;0,000000;0,000000;0,000000;0,000000;1,000000;1,000000;1,000000;1,000000;0,000000;0,000000;0,000000;0,000000;1,000000;0,000000;0,000000;0,000000;0,000000;0,000000;0,000000;0,000000;0,000000;0,000000;0,000000;0,000000;0,000000;0,000000;0,000000;0,000000;0,000000;0,000000;0,000000;0,000000;0,000000;0,000000;0,000000;0,000000;0,000000;0,000000;0,000000;0,000000;0,000000;0,000000;0,000000;0,000000;0,000000;0,000000;0,000000;0,000000;1,000000;0,000000;0,000000;0,000000;0,000000;0,000000;0,000000;0,000000;0,000000;0,000000;0,000000;0,000000;0,000000;0,000000;0,000000;0,000000;0,000000;0,000000;0,000000;0,000000;0,000000;0,000000;0,000000;0,000000;0,000000;0,000000;0,000000;0,000000;0,000000;0,000000;0,000000;
8;;;;;;;;1,000000;0,000000;1,000000;1,000000;1,000000;1,000000;1,000000;1,000000;1,000000;1,000000;1,000000;1,000000;1,000000;1,000000;1,000000;1,000000;1,000000;1,000000;1,000000;1,000000;1,000000;1,000000;1,000000;1,000000;1,000000;1,000000;1,000000;0,000000;1,000000;1,000000;1,000000;1,000000;1,000000;1,000000;1,000000;1,000000;1,000000;1,000000;1,000000;1,000000;1,000000;1,000000;1,000000;1,000000;1,000000;1,000000;1,000000;1,000000;1,000000;1,000000;0,000000;0,000000;0,000000;0,000000;0,000000;0,000000;1,000000;1,000000;0,000000;1,000000;0,000000;0,000000;0,000000;0,000000;1,000000;0,000000;0,000000;0,000000;0,000000;0,000000;0,000000;1,000000;1,000000;0,000000;0,000000;1,000000;1,000000;0,000000;0,000000;1,000000;1,000000;0,000000;0,000000;0,000000;0,000000;1,000000;1,000000;0,000000;1,000000;1,000000;1,000000;1,000000;1,000000;1,000000;0,000000;1,000000;1,000000;0,000000;0,000000;0,000000;0,000000;0,000000;0,000000;0,000000;0,000000;0,000000;0,000000;1,000000;1,000000;1,000000;1,000000;1,000000;0,000000;0,000000;0,000000;1,000000;1,000000;1,000000;1,000000;1,000000;1,000000;1,000000;1,000000;1,000000;1,000000;
9;;;;;;;;;1,000000;0,000000;1,000000;0,000000;0,000000;0,000000;0,000000;0,000000;0,000000;0,000000;0,000000;0,000000;0,000000;0,000000;0,000000;0,000000;0,000000;0,000000;0,000000;0,000000;1,000000;0,000000;0,000000;0,000000;0,000000;0,000000;0,000000;0,000000;0,000000;0,000000;0,000000;0,000000;0,000000;0,000000;0,000000;0,000000;0,000000;0,000000;0,000000;0,000000;0,000000;0,000000;0,000000;0,000000;0,000000;0,000000;0,000000;0,000000;0,000000;1,000000;1,000000;1,000000;1,000000;0,000000;0,000000;0,000000;0,000000;1,000000;0,000000;0,000000;0,000000;0,000000;0,000000;0,000000;0,000000;0,000000;0,000000;0,000000;0,000000;0,000000;0,000000;0,000000;0,000000;0,000000;0,000000;0,000000;0,000000;0,000000;1,000000;1,000000;0,000000;0,000000;0,000000;0,000000;0,000000;0,000000;0,000000;0,000000;0,000000;0,000000;0,000000;0,000000;0,000000;1,000000;0,000000;0,000000;0,000000;0,000000;0,000000;0,000000;0,000000;0,000000;0,000000;0,000000;0,000000;0,000000;0,000000;0,000000;0,000000;0,000000;0,000000;0,000000;0,000000;0,000000;0,000000;0,000000;0,000000;0,000000;0,000000;0,000000;0,000000;0,000000;0,000000;0,000000;
10;;;;;;;;;;1,000000;1,000000;1,000000;1,000000;1,000000;1,000000;1,000000;1,000000;1,000000;1,000000;1,000000;1,000000;1,000000;1,000000;1,000000;1,000000;1,000000;1,000000;1,000000;1,000000;1,000000;1,000000;1,000000;1,000000;1,000000;1,000000;0,000000;0,000000;1,000000;1,000000;1,000000;1,000000;1,000000;1,000000;1,000000;1,000000;1,000000;1,000000;1,000000;0,000000;0,000000;0,000000;0,000000;0,000000;1,000000;1,000000;1,000000;1,000000;0,000000;0,000000;0,000000;0,000000;1,000000;1,000000;1,000000;1,000000;0,000000;1,000000;1,000000;0,000000;0,000000;0,000000;1,000000;0,000000;0,000000;0,000000;0,000000;0,000000;0,000000;1,000000;0,000000;0,000000;0,000000;1,000000;1,000000;0,000000;0,000000;1,000000;1,000000;0,000000;0,000000;0,000000;0,000000;1,000000;1,000000;0,000000;1,000000;1,000000;1,000000;1,000000;1,000000;1,000000;0,000000;1,000000;1,000000;0,000000;0,000000;0,000000;0,000000;0,000000;0,000000;0,000000;0,000000;0,000000;0,000000;1,000000;1,000000;1,000000;1,000000;1,000000;0,000000;0,000000;0,000000;1,000000;1,000000;1,000000;1,000000;1,000000;1,000000;1,000000;1,000000;1,000000;1,000000;
11;;;;;;;;;;;1,000000;0,000000;1,000000;1,000000;0,000000;0,000000;0,000000;0,000000;0,000000;0,000000;0,000000;0,000000;1,000000;0,000000;0,000000;0,000000;0,000000;0,000000;1,000000;1,000000;1,000000;1,000000;1,000000;0,000000;1,000000;1,000000;1,000000;0,000000;0,000000;0,000000;0,000000;1,000000;0,000000;0,000000;0,000000;0,000000;0,000000;0,000000;0,000000;0,000000;0,000000;0,000000;0,000000;0,000000;0,000000;0,000000;1,000000;0,000000;0,000000;0,000000;0,000000;1,000000;1,000000;0,000000;0,000000;0,000000;0,000000;1,000000;0,000000;0,000000;0,000000;0,000000;0,000000;0,000000;0,000000;0,000000;0,000000;0,000000;0,000000;0,000000;0,000000;0,000000;1,000000;0,000000;0,000000;0,000000;1,000000;1,000000;0,000000;0,000000;0,000000;0,000000;0,000000;0,000000;0,000000;0,000000;0,000000;0,000000;0,000000;0,000000;0,000000;0,000000;0,000000;0,000000;0,000000;0,000000;0,000000;0,000000;0,000000;0,000000;0,000000;0,000000;0,000000;0,000000;0,000000;0,000000;0,000000;0,000000;0,000000;0,000000;0,000000;0,000000;0,000000;0,000000;0,000000;0,000000;0,000000;0,000000;0,000000;0,000000;0,000000;0,000000;
12;;;;;;;;;;;;1,000000;1,000000;1,000000;1,000000;1,000000;1,000000;1,000000;1,000000;1,000000;1,000000;1,000000;0,000000;1,000000;1,000000;1,000000;1,000000;1,000000;1,000000;1,000000;1,000000;1,000000;1,000000;1,000000;0,000000;1,000000;1,000000;1,000000;1,000000;1,000000;1,000000;1,000000;1,000000;1,000000;1,000000;1,000000;1,000000;1,000000;0,000000;0,000000;0,000000;0,000000;0,000000;1,000000;1,000000;1,000000;1,000000;0,000000;0,000000;0,000000;0,000000;0,000000;0,000000;1,000000;1,000000;0,000000;1,000000;0,000000;0,000000;0,000000;0,000000;1,000000;0,000000;0,000000;0,000000;0,000000;0,000000;0,000000;1,000000;0,000000;0,000000;0,000000;1,000000;1,000000;0,000000;0,000000;1,000000;1,000000;0,000000;0,000000;0,000000;0,000000;1,000000;1,000000;0,000000;1,000000;1,000000;1,000000;1,000000;1,000000;1,000000;0,000000;1,000000;1,000000;0,000000;0,000000;0,000000;0,000000;0,000000;0,000000;0,000000;0,000000;0,000000;0,000000;1,000000;1,000000;1,000000;1,000000;1,000000;0,000000;0,000000;0,000000;1,000000;1,000000;1,000000;1,000000;1,000000;1,000000;1,000000;1,000000;1,000000;1,000000;
13;;;;;;;;;;;;;1,000000;1,000000;1,000000;1,000000;1,000000;1,000000;1,000000;1,000000;1,000000;1,000000;0,000000;1,000000;1,000000;1,000000;1,000000;1,000000;1,000000;1,000000;1,000000;1,000000;1,000000;1,000000;0,000000;0,000000;0,000000;1,000000;1,000000;1,000000;1,000000;1,000000;1,000000;1,000000;1,000000;1,000000;1,000000;1,000000;0,000000;0,000000;0,000000;0,000000;0,000000;1,000000;1,000000;1,000000;0,000000;0,000000;0,000000;0,000000;0,000000;0,000000;0,000000;1,000000;1,000000;0,000000;1,000000;0,000000;0,000000;0,000000;0,000000;1,000000;0,000000;0,000000;0,000000;0,000000;0,000000;0,000000;1,000000;0,000000;0,000000;0,000000;1,000000;1,000000;0,000000;0,000000;1,000000;1,000000;0,000000;0,000000;0,000000;0,000000;1,000000;1,000000;0,000000;1,000000;1,000000;1,000000;1,000000;1,000000;1,000000;0,000000;1,000000;1,000000;0,000000;0,000000;0,000000;0,000000;0,000000;0,000000;0,000000;0,000000;0,000000;0,000000;1,000000;1,000000;1,000000;1,000000;1,000000;0,000000;0,000000;0,000000;1,000000;1,000000;1,000000;1,000000;1,000000;1,000000;1,000000;1,000000;1,000000;1,000000;
14;;;;;;;;;;;;;;1,000000;1,000000;1,000000;1,000000;1,000000;1,000000;1,000000;1,000000;1,000000;0,000000;1,000000;1,000000;1,000000;1,000000;1,000000;1,000000;1,000000;1,000000;1,000000;1,000000;1,000000;0,000000;0,000000;0,000000;1,000000;1,000000;1,000000;1,000000;1,000000;1,000000;1,000000;1,000000;1,000000;1,000000;1,000000;0,000000;0,000000;0,000000;0,000000;0,000000;1,000000;1,000000;1,000000;0,000000;0,000000;0,000000;0,000000;0,000000;0,000000;0,000000;1,000000;1,000000;0,000000;1,000000;0,000000;0,000000;0,000000;0,000000;1,000000;0,000000;0,000000;0,000000;0,000000;0,000000;0,000000;1,000000;0,000000;0,000000;0,000000;1,000000;1,000000;0,000000;0,000000;1,000000;1,000000;0,000000;0,000000;0,000000;0,000000;1,000000;1,000000;0,000000;1,000000;1,000000;1,000000;1,000000;1,000000;1,000000;0,000000;1,000000;1,000000;0,000000;0,000000;0,000000;0,000000;0,000000;0,000000;0,000000;0,000000;0,000000;0,000000;1,000000;1,000000;1,000000;1,000000;1,000000;0,000000;0,000000;0,000000;1,000000;1,000000;1,000000;1,000000;1,000000;1,000000;1,000000;1,000000;1,000000;1,000000;
15;;;;;;;;;;;;;;;1,000000;1,000000;1,000000;1,000000;1,000000;1,000000;1,000000;1,000000;1,000000;1,000000;1,000000;1,000000;1,000000;1,000000;1,000000;1,000000;1,000000;1,000000;1,000000;1,000000;0,000000;0,000000;0,000000;1,000000;1,000000;1,000000;1,000000;1,000000;1,000000;1,000000;1,000000;1,000000;1,000000;1,000000;0,000000;0,000000;0,000000;0,000000;0,000000;1,000000;1,000000;1,000000;0,000000;0,000000;0,000000;0,000000;0,000000;0,000000;0,000000;1,000000;1,000000;0,000000;1,000000;0,000000;0,000000;0,000000;0,000000;1,000000;0,000000;0,000000;0,000000;0,000000;0,000000;0,000000;1,000000;1,000000;0,000000;0,000000;1,000000;1,000000;0,000000;0,000000;1,000000;1,000000;0,000000;0,000000;0,000000;0,000000;1,000000;1,000000;0,000000;1,000000;1,000000;1,000000;1,000000;1,000000;1,000000;0,000000;1,000000;1,000000;0,000000;0,000000;0,000000;0,000000;0,000000;0,000000;0,000000;0,000000;0,000000;0,000000;1,000000;1,000000;1,000000;1,000000;1,000000;0,000000;0,000000;0,000000;1,000000;1,000000;1,000000;1,000000;1,000000;1,000000;1,000000;1,000000;1,000000;1,000000;
16;;;;;;;;;;;;;;;;1,000000;1,000000;1,000000;1,000000;1,000000;1,000000;1,000000;0,000000;1,000000;1,000000;1,000000;1,000000;1,000000;1,000000;1,000000;1,000000;1,000000;1,000000;1,000000;0,000000;0,000000;0,000000;1,000000;1,000000;1,000000;1,000000;1,000000;1,000000;1,000000;1,000000;1,000000;1,000000;1,000000;0,000000;0,000000;0,000000;0,000000;0,000000;1,000000;1,000000;1,000000;0,000000;0,000000;0,000000;0,000000;0,000000;0,000000;0,000000;1,000000;1,000000;0,000000;1,000000;0,000000;0,000000;0,000000;0,000000;1,000000;0,000000;0,000000;0,000000;0,000000;0,000000;0,000000;1,000000;0,000000;0,000000;0,000000;1,000000;1,000000;0,000000;0,000000;1,000000;1,000000;0,000000;0,000000;0,000000;0,000000;1,000000;1,000000;0,000000;1,000000;1,000000;1,000000;1,000000;1,000000;1,000000;0,000000;1,000000;1,000000;0,000000;0,000000;0,000000;0,000000;0,000000;0,000000;0,000000;0,000000;0,000000;0,000000;1,000000;1,000000;1,000000;1,000000;1,000000;0,000000;0,000000;0,000000;1,000000;1,000000;1,000000;1,000000;1,000000;1,000000;1,000000;1,000000;1,000000;1,000000;
17;;;;;;;;;;;;;;;;;1,000000;1,000000;1,000000;1,000000;1,000000;1,000000;0,000000;1,000000;1,000000;1,000000;1,000000;1,000000;1,000000;1,000000;1,000000;1,000000;1,000000;1,000000;0,000000;0,000000;0,000000;1,000000;1,000000;1,000000;1,000000;1,000000;1,000000;1,000000;1,000000;1,000000;1,000000;1,000000;0,000000;0,000000;0,000000;0,000000;0,000000;1,000000;1,000000;1,000000;0,000000;0,000000;0,000000;0,000000;0,000000;0,000000;0,000000;1,000000;1,000000;0,000000;1,000000;0,000000;0,000000;0,000000;0,000000;1,000000;0,000000;0,000000;0,000000;0,000000;0,000000;0,000000;1,000000;0,000000;0,000000;0,000000;1,000000;1,000000;0,000000;0,000000;1,000000;1,000000;0,000000;0,000000;0,000000;0,000000;1,000000;1,000000;0,000000;1,000000;1,000000;1,000000;1,000000;1,000000;1,000000;0,000000;1,000000;1,000000;0,000000;0,000000;0,000000;0,000000;0,000000;0,000000;0,000000;0,000000;0,000000;0,000000;1,000000;1,000000;1,000000;1,000000;1,000000;0,000000;0,000000;0,000000;1,000000;1,000000;1,000000;1,000000;1,000000;1,000000;1,000000;1,000000;1,000000;1,000000;
18;;;;;;;;;;;;;;;;;;1,000000;1,000000;1,000000;1,000000;1,000000;1,000000;1,000000;1,000000;1,000000;1,000000;1,000000;1,000000;1,000000;1,000000;1,000000;1,000000;1,000000;0,000000;0,000000;0,000000;1,000000;1,000000;1,000000;1,000000;1,000000;1,000000;1,000000;1,000000;1,000000;1,000000;1,000000;0,000000;0,000000;0,000000;0,000000;0,000000;1,000000;1,000000;1,000000;0,000000;0,000000;0,000000;0,000000;0,000000;0,000000;0,000000;1,000000;1,000000;0,000000;1,000000;0,000000;0,000000;0,000000;0,000000;1,000000;0,000000;0,000000;0,000000;0,000000;0,000000;0,000000;1,000000;1,000000;0,000000;0,000000;1,000000;1,000000;0,000000;0,000000;1,000000;1,000000;0,000000;0,000000;0,000000;0,000000;1,000000;1,000000;0,000000;1,000000;1,000000;1,000000;1,000000;1,000000;1,000000;0,000000;1,000000;1,000000;0,000000;0,000000;0,000000;0,000000;0,000000;0,000000;0,000000;0,000000;0,000000;0,000000;1,000000;1,000000;1,000000;1,000000;1,000000;0,000000;0,000000;0,000000;1,000000;1,000000;1,000000;1,000000;1,000000;1,000000;1,000000;1,000000;1,000000;1,000000;
19;;;;;;;;;;;;;;;;;;;1,000000;1,000000;1,000000;1,000000;1,000000;1,000000;1,000000;1,000000;1,000000;1,000000;1,000000;1,000000;1,000000;1,000000;1,000000;1,000000;0,000000;0,000000;0,000000;1,000000;1,000000;1,000000;1,000000;1,000000;1,000000;1,000000;1,000000;1,000000;1,000000;1,000000;0,000000;0,000000;0,000000;0,000000;0,000000;1,000000;1,000000;1,000000;0,000000;0,000000;0,000000;0,000000;0,000000;0,000000;0,000000;1,000000;1,000000;0,000000;1,000000;0,000000;0,000000;0,000000;0,000000;1,000000;0,000000;0,000000;0,000000;0,000000;0,000000;0,000000;1,000000;1,000000;0,000000;0,000000;1,000000;1,000000;0,000000;0,000000;1,000000;1,000000;0,000000;0,000000;0,000000;0,000000;1,000000;1,000000;0,000000;1,000000;1,000000;1,000000;1,000000;1,000000;1,000000;0,000000;1,000000;1,000000;0,000000;0,000000;0,000000;0,000000;0,000000;0,000000;0,000000;0,000000;0,000000;0,000000;1,000000;1,000000;1,000000;1,000000;1,000000;0,000000;0,000000;0,000000;1,000000;1,000000;1,000000;1,000000;1,000000;1,000000;1,000000;1,000000;1,000000;1,000000;
20;;;;;;;;;;;;;;;;;;;;1,000000;1,000000;1,000000;1,000000;1,000000;1,000000;1,000000;1,000000;1,000000;1,000000;1,000000;1,000000;1,000000;1,000000;1,000000;0,000000;0,000000;0,000000;1,000000;1,000000;1,000000;1,000000;1,000000;1,000000;1,000000;1,000000;1,000000;1,000000;1,000000;0,000000;0,000000;0,000000;0,000000;0,000000;1,000000;1,000000;1,000000;0,000000;0,000000;0,000000;0,000000;0,000000;0,000000;0,000000;1,000000;1,000000;0,000000;1,000000;0,000000;0,000000;0,000000;0,000000;1,000000;0,000000;0,000000;0,000000;0,000000;0,000000;0,000000;1,000000;1,000000;0,000000;0,000000;1,000000;1,000000;0,000000;0,000000;1,000000;1,000000;0,000000;0,000000;0,000000;0,000000;1,000000;1,000000;0,000000;1,000000;1,000000;1,000000;1,000000;1,000000;1,000000;0,000000;1,000000;1,000000;0,000000;0,000000;0,000000;0,000000;0,000000;0,000000;0,000000;0,000000;0,000000;0,000000;1,000000;1,000000;1,000000;1,000000;1,000000;0,000000;0,000000;0,000000;1,000000;1,000000;1,000000;1,000000;1,000000;1,000000;1,000000;1,000000;1,000000;1,000000;
21;;;;;;;;;;;;;;;;;;;;;1,000000;1,000000;0,000000;1,000000;1,000000;1,000000;1,000000;1,000000;1,000000;1,000000;1,000000;1,000000;1,000000;1,000000;0,000000;0,000000;0,000000;1,000000;1,000000;1,000000;1,000000;1,000000;1,000000;1,000000;1,000000;1,000000;1,000000;1,000000;0,000000;0,000000;0,000000;0,000000;0,000000;1,000000;1,000000;1,000000;0,000000;0,000000;0,000000;0,000000;0,000000;0,000000;0,000000;1,000000;1,000000;0,000000;1,000000;0,000000;0,000000;0,000000;0,000000;1,000000;0,000000;0,000000;0,000000;0,000000;0,000000;0,000000;1,000000;0,000000;0,000000;0,000000;1,000000;1,000000;0,000000;0,000000;1,000000;1,000000;0,000000;0,000000;0,000000;0,000000;1,000000;1,000000;0,000000;1,000000;1,000000;1,000000;1,000000;1,000000;1,000000;0,000000;1,000000;1,000000;0,000000;0,000000;0,000000;0,000000;0,000000;0,000000;0,000000;0,000000;0,000000;0,000000;1,000000;1,000000;1,000000;1,000000;1,000000;0,000000;0,000000;0,000000;1,000000;1,000000;1,000000;1,000000;1,000000;1,000000;1,000000;1,000000;1,000000;1,000000;
22;;;;;;;;;;;;;;;;;;;;;;1,000000;0,000000;1,000000;1,000000;1,000000;1,000000;1,000000;1,000000;1,000000;1,000000;1,000000;1,000000;1,000000;0,000000;0,000000;0,000000;1,000000;1,000000;1,000000;1,000000;1,000000;1,000000;1,000000;1,000000;1,000000;1,000000;1,000000;0,000000;0,000000;0,000000;0,000000;0,000000;1,000000;1,000000;1,000000;0,000000;0,000000;0,000000;0,000000;0,000000;0,000000;0,000000;1,000000;1,000000;0,000000;1,000000;0,000000;0,000000;0,000000;0,000000;1,000000;0,000000;0,000000;0,000000;0,000000;0,000000;0,000000;1,000000;0,000000;0,000000;0,000000;1,000000;1,000000;0,000000;0,000000;1,000000;1,000000;0,000000;0,000000;0,000000;0,000000;1,000000;1,000000;0,000000;1,000000;1,000000;1,000000;1,000000;1,000000;1,000000;0,000000;1,000000;1,000000;0,000000;0,000000;0,000000;0,000000;0,000000;0,000000;0,000000;0,000000;0,000000;0,000000;1,000000;1,000000;1,000000;1,000000;1,000000;0,000000;0,000000;0,000000;1,000000;1,000000;1,000000;1,000000;1,000000;1,000000;1,000000;1,000000;1,000000;1,000000;
23;;;;;;;;;;;;;;;;;;;;;;;1,000000;0,000000;1,000000;1,000000;1,000000;0,000000;0,000000;1,000000;1,000000;1,000000;1,000000;1,000000;0,000000;1,000000;1,000000;1,000000;1,000000;1,000000;0,000000;0,000000;0,000000;0,000000;0,000000;0,000000;0,000000;0,000000;0,000000;0,000000;0,000000;0,000000;0,000000;0,000000;1,000000;0,000000;0,000000;0,000000;0,000000;0,000000;0,000000;0,000000;0,000000;1,000000;0,000000;0,000000;0,000000;0,000000;0,000000;0,000000;0,000000;0,000000;0,000000;0,000000;0,000000;0,000000;0,000000;0,000000;1,000000;1,000000;0,000000;0,000000;0,000000;0,000000;0,000000;0,000000;0,000000;0,000000;0,000000;0,000000;0,000000;0,000000;0,000000;0,000000;0,000000;0,000000;0,000000;0,000000;0,000000;0,000000;0,000000;0,000000;0,000000;0,000000;0,000000;0,000000;0,000000;0,000000;0,000000;0,000000;0,000000;0,000000;0,000000;0,000000;0,000000;0,000000;1,000000;0,000000;0,000000;0,000000;0,000000;0,000000;0,000000;0,000000;0,000000;0,000000;0,000000;0,000000;0,000000;0,000000;0,000000;0,000000;
24;;;;;;;;;;;;;;;;;;;;;;;;1,000000;1,000000;1,000000;1,000000;1,000000;1,000000;1,000000;1,000000;1,000000;1,000000;1,000000;0,000000;0,000000;0,000000;1,000000;1,000000;1,000000;1,000000;1,000000;1,000000;1,000000;1,000000;1,000000;1,000000;1,000000;0,000000;0,000000;0,000000;0,000000;0,000000;1,000000;1,000000;1,000000;0,000000;0,000000;0,000000;0,000000;0,000000;0,000000;0,000000;1,000000;1,000000;0,000000;1,000000;0,000000;0,000000;0,000000;0,000000;1,000000;0,000000;0,000000;0,000000;0,000000;0,000000;0,000000;1,000000;0,000000;0,000000;0,000000;1,000000;1,000000;0,000000;0,000000;1,000000;1,000000;0,000000;0,000000;0,000000;0,000000;1,000000;1,000000;0,000000;1,000000;1,000000;1,000000;1,000000;1,000000;1,000000;0,000000;1,000000;1,000000;0,000000;0,000000;0,000000;0,000000;0,000000;0,000000;0,000000;0,000000;0,000000;0,000000;1,000000;1,000000;1,000000;1,000000;1,000000;0,000000;0,000000;0,000000;1,000000;1,000000;1,000000;1,000000;1,000000;1,000000;1,000000;1,000000;1,000000;1,000000;
25;;;;;;;;;;;;;;;;;;;;;;;;;1,000000;1,000000;1,000000;1,000000;1,000000;1,000000;1,000000;1,000000;1,000000;1,000000;0,000000;0,000000;0,000000;1,000000;1,000000;1,000000;1,000000;1,000000;1,000000;1,000000;1,000000;1,000000;1,000000;1,000000;0,000000;0,000000;0,000000;0,000000;0,000000;1,000000;1,000000;1,000000;0,000000;0,000000;0,000000;0,000000;0,000000;0,000000;0,000000;1,000000;1,000000;0,000000;1,000000;0,000000;0,000000;0,000000;0,000000;1,000000;0,000000;0,000000;0,000000;0,000000;0,000000;0,000000;1,000000;1,000000;0,000000;0,000000;1,000000;1,000000;0,000000;0,000000;1,000000;1,000000;0,000000;0,000000;0,000000;0,000000;1,000000;1,000000;0,000000;1,000000;1,000000;1,000000;1,000000;1,000000;1,000000;0,000000;1,000000;1,000000;0,000000;0,000000;0,000000;0,000000;0,000000;0,000000;0,000000;0,000000;0,000000;0,000000;1,000000;1,000000;1,000000;1,000000;1,000000;0,000000;0,000000;0,000000;1,000000;1,000000;1,000000;1,000000;1,000000;1,000000;1,000000;1,000000;1,000000;1,000000;
26;;;;;;;;;;;;;;;;;;;;;;;;;;1,000000;1,000000;1,000000;1,000000;1,000000;1,000000;1,000000;1,000000;1,000000;0,000000;0,000000;0,000000;1,000000;1,000000;1,000000;1,000000;1,000000;1,000000;1,000000;1,000000;1,000000;1,000000;1,000000;0,000000;0,000000;0,000000;0,000000;0,000000;1,000000;1,000000;1,000000;0,000000;0,000000;0,000000;0,000000;0,000000;0,000000;0,000000;1,000000;1,000000;0,000000;1,000000;0,000000;0,000000;0,000000;0,000000;1,000000;0,000000;0,000000;0,000000;0,000000;0,000000;0,000000;1,000000;1,000000;0,000000;0,000000;1,000000;1,000000;0,000000;0,000000;1,000000;1,000000;0,000000;0,000000;0,000000;0,000000;1,000000;1,000000;0,000000;1,000000;1,000000;1,000000;1,000000;1,000000;1,000000;0,000000;1,000000;1,000000;0,000000;0,000000;0,000000;0,000000;0,000000;0,000000;0,000000;0,000000;0,000000;0,000000;1,000000;1,000000;1,000000;1,000000;1,000000;0,000000;0,000000;0,000000;1,000000;1,000000;1,000000;1,000000;1,000000;1,000000;1,000000;1,000000;1,000000;1,000000;
27;;;;;;;;;;;;;;;;;;;;;;;;;;;1,000000;1,000000;1,000000;1,000000;1,000000;1,000000;1,000000;1,000000;0,000000;0,000000;0,000000;1,000000;1,000000;1,000000;1,000000;1,000000;1,000000;1,000000;1,000000;1,000000;1,000000;1,000000;0,000000;0,000000;0,000000;0,000000;0,000000;1,000000;1,000000;1,000000;0,000000;0,000000;0,000000;0,000000;0,000000;0,000000;0,000000;1,000000;1,000000;0,000000;1,000000;0,000000;0,000000;0,000000;0,000000;1,000000;0,000000;0,000000;0,000000;0,000000;0,000000;0,000000;1,000000;1,000000;0,000000;0,000000;1,000000;1,000000;0,000000;0,000000;1,000000;1,000000;0,000000;0,000000;0,000000;0,000000;1,000000;1,000000;0,000000;1,000000;1,000000;1,000000;1,000000;1,000000;1,000000;0,000000;1,000000;1,000000;0,000000;0,000000;0,000000;0,000000;0,000000;0,000000;0,000000;0,000000;0,000000;0,000000;1,000000;1,000000;1,000000;1,000000;1,000000;0,000000;0,000000;0,000000;1,000000;1,000000;1,000000;1,000000;1,000000;1,000000;1,000000;1,000000;1,000000;1,000000;
28;;;;;;;;;;;;;;;;;;;;;;;;;;;;1,000000;1,000000;1,000000;1,000000;1,000000;1,000000;1,000000;0,000000;0,000000;0,000000;1,000000;1,000000;1,000000;1,000000;1,000000;1,000000;1,000000;1,000000;1,000000;1,000000;1,000000;0,000000;0,000000;0,000000;0,000000;0,000000;1,000000;1,000000;1,000000;0,000000;0,000000;0,000000;0,000000;0,000000;0,000000;0,000000;1,000000;1,000000;0,000000;1,000000;0,000000;0,000000;0,000000;0,000000;1,000000;0,000000;0,000000;0,000000;0,000000;0,000000;0,000000;1,000000;0,000000;0,000000;0,000000;1,000000;1,000000;1,000000;1,000000;1,000000;1,000000;0,000000;0,000000;0,000000;0,000000;1,000000;1,000000;0,000000;1,000000;1,000000;1,000000;1,000000;1,000000;1,000000;0,000000;1,000000;1,000000;0,000000;0,000000;0,000000;0,000000;0,000000;0,000000;0,000000;0,000000;0,000000;0,000000;1,000000;1,000000;1,000000;1,000000;1,000000;0,000000;0,000000;0,000000;1,000000;1,000000;1,000000;1,000000;1,000000;1,000000;1,000000;1,000000;1,000000;1,000000;
29;;;;;;;;;;;;;;;;;;;;;;;;;;;;;1,000000;1,000000;1,000000;1,000000;1,000000;1,000000;0,000000;0,000000;0,000000;1,000000;1,000000;1,000000;1,000000;1,000000;1,000000;1,000000;1,000000;1,000000;1,000000;1,000000;0,000000;0,000000;0,000000;0,000000;0,000000;1,000000;1,000000;1,000000;0,000000;0,000000;0,000000;0,000000;0,000000;0,000000;0,000000;1,000000;1,000000;0,000000;1,000000;0,000000;0,000000;0,000000;0,000000;1,000000;0,000000;0,000000;0,000000;0,000000;0,000000;0,000000;1,000000;0,000000;0,000000;0,000000;1,000000;1,000000;0,000000;0,000000;1,000000;1,000000;0,000000;0,000000;0,000000;0,000000;1,000000;1,000000;0,000000;1,000000;1,000000;1,000000;1,000000;1,000000;1,000000;0,000000;1,000000;1,000000;0,000000;0,000000;0,000000;0,000000;0,000000;0,000000;0,000000;0,000000;0,000000;0,000000;1,000000;1,000000;1,000000;1,000000;1,000000;0,000000;0,000000;0,000000;1,000000;1,000000;1,000000;1,000000;1,000000;1,000000;1,000000;1,000000;1,000000;1,000000;
30;;;;;;;;;;;;;;;;;;;;;;;;;;;;;;1,000000;1,000000;1,000000;1,000000;1,000000;0,000000;1,000000;1,000000;1,000000;1,000000;1,000000;1,000000;1,000000;1,000000;1,000000;1,000000;1,000000;1,000000;1,000000;1,000000;1,000000;1,000000;1,000000;1,000000;1,000000;1,000000;1,000000;1,000000;0,000000;0,000000;0,000000;0,000000;0,000000;0,000000;1,000000;1,000000;0,000000;1,000000;0,000000;0,000000;0,000000;0,000000;1,000000;0,000000;0,000000;0,000000;0,000000;0,000000;0,000000;1,000000;0,000000;0,000000;0,000000;1,000000;1,000000;0,000000;0,000000;1,000000;1,000000;0,000000;0,000000;0,000000;0,000000;1,000000;1,000000;0,000000;1,000000;1,000000;1,000000;1,000000;1,000000;1,000000;0,000000;1,000000;1,000000;0,000000;0,000000;0,000000;0,000000;0,000000;0,000000;0,000000;0,000000;0,000000;0,000000;1,000000;1,000000;1,000000;1,000000;1,000000;0,000000;0,000000;0,000000;1,000000;1,000000;1,000000;1,000000;1,000000;1,000000;1,000000;1,000000;1,000000;1,000000;
31;;;;;;;;;;;;;;;;;;;;;;;;;;;;;;;1,000000;1,000000;1,000000;1,000000;0,000000;1,000000;1,000000;1,000000;1,000000;1,000000;1,000000;1,000000;1,000000;1,000000;1,000000;1,000000;1,000000;1,000000;1,000000;1,000000;1,000000;1,000000;1,000000;1,000000;1,000000;1,000000;0,000000;0,000000;0,000000;0,000000;0,000000;0,000000;0,000000;1,000000;1,000000;0,000000;1,000000;0,000000;0,000000;0,000000;0,000000;1,000000;0,000000;0,000000;0,000000;0,000000;0,000000;0,000000;1,000000;0,000000;1,000000;1,000000;1,000000;1,000000;0,000000;0,000000;1,000000;1,000000;0,000000;0,000000;0,000000;0,000000;1,000000;1,000000;0,000000;1,000000;1,000000;1,000000;1,000000;1,000000;1,000000;0,000000;1,000000;1,000000;0,000000;0,000000;1,000000;1,000000;1,000000;1,000000;1,000000;0,000000;0,000000;0,000000;1,000000;1,000000;1,000000;1,000000;1,000000;1,000000;1,000000;1,000000;1,000000;1,000000;1,000000;1,000000;1,000000;1,000000;1,000000;1,000000;1,000000;1,000000;
32;;;;;;;;;;;;;;;;;;;;;;;;;;;;;;;;1,000000;1,000000;1,000000;0,000000;1,000000;1,000000;1,000000;1,000000;1,000000;1,000000;1,000000;1,000000;1,000000;1,000000;1,000000;1,000000;1,000000;1,000000;1,000000;1,000000;1,000000;1,000000;1,000000;1,000000;1,000000;1,000000;0,000000;0,000000;0,000000;0,000000;0,000000;0,000000;1,000000;1,000000;0,000000;1,000000;0,000000;0,000000;0,000000;0,000000;1,000000;0,000000;0,000000;0,000000;0,000000;0,000000;0,000000;1,000000;0,000000;0,000000;0,000000;1,000000;1,000000;0,000000;0,000000;1,000000;1,000000;0,000000;0,000000;0,000000;0,000000;1,000000;1,000000;0,000000;1,000000;1,000000;1,000000;1,000000;1,000000;1,000000;0,000000;1,000000;1,000000;0,000000;0,000000;0,000000;0,000000;0,000000;0,000000;0,000000;0,000000;0,000000;0,000000;1,000000;1,000000;1,000000;1,000000;1,000000;0,000000;0,000000;0,000000;1,000000;1,000000;1,000000;1,000000;1,000000;1,000000;1,000000;1,000000;1,000000;1,000000;
33;;;;;;;;;;;;;;;;;;;;;;;;;;;;;;;;;1,000000;1,000000;0,000000;1,000000;1,000000;1,000000;1,000000;1,000000;1,000000;1,000000;1,000000;1,000000;1,000000;1,000000;1,000000;1,000000;1,000000;1,000000;1,000000;1,000000;1,000000;1,000000;1,000000;1,000000;0,000000;0,000000;0,000000;0,000000;0,000000;0,000000;0,000000;1,000000;1,000000;0,000000;1,000000;0,000000;0,000000;0,000000;0,000000;1,000000;0,000000;0,000000;0,000000;0,000000;0,000000;0,000000;1,000000;0,000000;0,000000;0,000000;1,000000;1,000000;0,000000;0,000000;1,000000;1,000000;0,000000;0,000000;0,000000;0,000000;1,000000;1,000000;0,000000;1,000000;1,000000;1,000000;1,000000;1,000000;1,000000;0,000000;1,000000;1,000000;0,000000;0,000000;0,000000;0,000000;0,000000;0,000000;0,000000;0,000000;0,000000;0,000000;1,000000;1,000000;1,000000;1,000000;1,000000;0,000000;0,000000;0,000000;1,000000;1,000000;1,000000;1,000000;1,000000;1,000000;1,000000;1,000000;1,000000;1,000000;
34;;;;;;;;;;;;;;;;;;;;;;;;;;;;;;;;;;1,000000;0,000000;0,000000;0,000000;1,000000;1,000000;1,000000;1,000000;1,000000;1,000000;1,000000;1,000000;1,000000;1,000000;1,000000;0,000000;0,000000;0,000000;0,000000;0,000000;1,000000;1,000000;1,000000;0,000000;0,000000;0,000000;0,000000;0,000000;0,000000;0,000000;1,000000;1,000000;0,000000;1,000000;0,000000;0,000000;0,000000;0,000000;1,000000;0,000000;0,000000;0,000000;0,000000;0,000000;0,000000;1,000000;0,000000;0,000000;0,000000;1,000000;1,000000;0,000000;0,000000;1,000000;1,000000;0,000000;0,000000;0,000000;0,000000;1,000000;1,000000;0,000000;1,000000;1,000000;1,000000;1,000000;1,000000;1,000000;0,000000;1,000000;1,000000;0,000000;0,000000;0,000000;0,000000;0,000000;0,000000;0,000000;0,000000;0,000000;0,000000;1,000000;1,000000;1,000000;1,000000;1,000000;0,000000;0,000000;0,000000;1,000000;1,000000;1,000000;1,000000;1,000000;1,000000;1,000000;1,000000;1,000000;1,000000;
35;;;;;;;;;;;;;;;;;;;;;;;;;;;;;;;;;;;1,000000;0,000000;0,000000;0,000000;0,000000;0,000000;0,000000;1,000000;0,000000;0,000000;0,000000;0,000000;0,000000;0,000000;0,000000;0,000000;0,000000;0,000000;0,000000;0,000000;0,000000;0,000000;1,000000;0,000000;0,000000;0,000000;0,000000;1,000000;1,000000;0,000000;0,000000;0,000000;0,000000;1,000000;0,000000;0,000000;0,000000;0,000000;0,000000;0,000000;0,000000;0,000000;0,000000;0,000000;0,000000;0,000000;0,000000;0,000000;1,000000;0,000000;0,000000;0,000000;0,000000;0,000000;0,000000;0,000000;0,000000;0,000000;0,000000;0,000000;0,000000;0,000000;0,000000;0,000000;0,000000;0,000000;0,000000;0,000000;0,000000;0,000000;0,000000;0,000000;0,000000;0,000000;0,000000;0,000000;0,000000;0,000000;0,000000;0,000000;0,000000;0,000000;0,000000;0,000000;0,000000;0,000000;0,000000;0,000000;0,000000;0,000000;0,000000;0,000000;0,000000;0,000000;0,000000;0,000000;0,000000;0,000000;
36;;;;;;;;;;;;;;;;;;;;;;;;;;;;;;;;;;;;1,000000;1,000000;0,000000;0,000000;0,000000;0,000000;0,000000;0,000000;0,000000;0,000000;0,000000;0,000000;0,000000;0,000000;0,000000;0,000000;0,000000;0,000000;0,000000;0,000000;0,000000;1,000000;0,000000;0,000000;0,000000;0,000000;0,000000;0,000000;0,000000;0,000000;0,000000;0,000000;0,000000;0,000000;0,000000;0,000000;0,000000;0,000000;0,000000;0,000000;0,000000;0,000000;0,000000;0,000000;0,000000;0,000000;0,000000;0,000000;0,000000;0,000000;0,000000;0,000000;0,000000;0,000000;0,000000;0,000000;0,000000;0,000000;0,000000;0,000000;0,000000;0,000000;0,000000;0,000000;0,000000;0,000000;0,000000;0,000000;0,000000;0,000000;0,000000;0,000000;0,000000;0,000000;0,000000;0,000000;0,000000;0,000000;0,000000;0,000000;0,000000;0,000000;0,000000;0,000000;0,000000;0,000000;0,000000;0,000000;0,000000;0,000000;0,000000;0,000000;0,000000;0,000000;0,000000;0,000000;0,000000;
37;;;;;;;;;;;;;;;;;;;;;;;;;;;;;;;;;;;;;1,000000;0,000000;0,000000;0,000000;0,000000;0,000000;0,000000;0,000000;0,000000;0,000000;0,000000;0,000000;0,000000;0,000000;0,000000;0,000000;0,000000;0,000000;0,000000;0,000000;1,000000;0,000000;0,000000;0,000000;0,000000;0,000000;0,000000;0,000000;0,000000;0,000000;0,000000;0,000000;0,000000;0,000000;0,000000;0,000000;0,000000;0,000000;0,000000;0,000000;0,000000;0,000000;0,000000;0,000000;0,000000;0,000000;0,000000;0,000000;0,000000;0,000000;0,000000;0,000000;0,000000;0,000000;0,000000;0,000000;0,000000;0,000000;0,000000;0,000000;0,000000;0,000000;0,000000;0,000000;0,000000;0,000000;0,000000;0,000000;0,000000;0,000000;0,000000;0,000000;0,000000;0,000000;0,000000;0,000000;0,000000;0,000000;0,000000;0,000000;0,000000;0,000000;0,000000;0,000000;0,000000;0,000000;0,000000;0,000000;0,000000;0,000000;0,000000;0,000000;0,000000;0,000000;0,000000;0,000000;
38;;;;;;;;;;;;;;;;;;;;;;;;;;;;;;;;;;;;;;1,000000;1,000000;1,000000;1,000000;1,000000;1,000000;1,000000;1,000000;1,000000;1,000000;1,000000;0,000000;0,000000;0,000000;0,000000;0,000000;1,000000;1,000000;1,000000;0,000000;0,000000;0,000000;0,000000;0,000000;0,000000;0,000000;1,000000;1,000000;0,000000;1,000000;0,000000;0,000000;0,000000;0,000000;1,000000;0,000000;0,000000;0,000000;0,000000;0,000000;0,000000;1,000000;1,000000;0,000000;0,000000;1,000000;1,000000;0,000000;0,000000;1,000000;1,000000;0,000000;0,000000;0,000000;0,000000;1,000000;1,000000;0,000000;1,000000;1,000000;1,000000;1,000000;1,000000;1,000000;0,000000;1,000000;1,000000;0,000000;0,000000;0,000000;0,000000;0,000000;0,000000;0,000000;0,000000;0,000000;0,000000;1,000000;1,000000;1,000000;1,000000;1,000000;0,000000;0,000000;0,000000;1,000000;1,000000;1,000000;1,000000;1,000000;1,000000;1,000000;1,000000;1,000000;1,000000;
39;;;;;;;;;;;;;;;;;;;;;;;;;;;;;;;;;;;;;;;1,000000;1,000000;1,000000;1,000000;1,000000;1,000000;1,000000;1,000000;1,000000;1,000000;0,000000;0,000000;0,000000;0,000000;0,000000;1,000000;1,000000;1,000000;0,000000;0,000000;0,000000;0,000000;0,000000;0,000000;0,000000;1,000000;1,000000;0,000000;1,000000;0,000000;0,000000;0,000000;0,000000;1,000000;0,000000;0,000000;0,000000;0,000000;0,000000;0,000000;1,000000;1,000000;0,000000;0,000000;1,000000;1,000000;0,000000;0,000000;1,000000;1,000000;0,000000;0,000000;0,000000;0,000000;1,000000;1,000000;0,000000;1,000000;1,000000;1,000000;1,000000;1,000000;1,000000;0,000000;1,000000;1,000000;0,000000;0,000000;0,000000;0,000000;0,000000;0,000000;0,000000;0,000000;0,000000;0,000000;1,000000;1,000000;1,000000;1,000000;1,000000;0,000000;0,000000;0,000000;1,000000;1,000000;1,000000;1,000000;1,000000;1,000000;1,000000;1,000000;1,000000;1,000000;
40;;;;;;;;;;;;;;;;;;;;;;;;;;;;;;;;;;;;;;;;1,000000;1,000000;1,000000;1,000000;1,000000;1,000000;1,000000;1,000000;1,000000;0,000000;0,000000;0,000000;0,000000;0,000000;1,000000;1,000000;1,000000;0,000000;0,000000;0,000000;0,000000;0,000000;0,000000;0,000000;1,000000;1,000000;0,000000;1,000000;0,000000;0,000000;0,000000;0,000000;1,000000;0,000000;0,000000;0,000000;0,000000;0,000000;0,000000;1,000000;0,000000;0,000000;0,000000;1,000000;1,000000;0,000000;0,000000;1,000000;1,000000;0,000000;0,000000;0,000000;0,000000;1,000000;1,000000;0,000000;1,000000;1,000000;1,000000;1,000000;1,000000;1,000000;0,000000;1,000000;1,000000;0,000000;0,000000;0,000000;0,000000;0,000000;0,000000;0,000000;0,000000;0,000000;0,000000;1,000000;1,000000;1,000000;1,000000;1,000000;0,000000;0,000000;0,000000;1,000000;1,000000;1,000000;1,000000;1,000000;1,000000;1,000000;1,000000;1,000000;1,000000;
41;;;;;;;;;;;;;;;;;;;;;;;;;;;;;;;;;;;;;;;;;1,000000;1,000000;1,000000;1,000000;1,000000;1,000000;1,000000;1,000000;0,000000;0,000000;0,000000;0,000000;0,000000;1,000000;1,000000;1,000000;0,000000;0,000000;0,000000;0,000000;0,000000;0,000000;0,000000;1,000000;1,000000;0,000000;1,000000;0,000000;0,000000;0,000000;0,000000;1,000000;0,000000;0,000000;0,000000;0,000000;0,000000;0,000000;1,000000;0,000000;0,000000;0,000000;1,000000;1,000000;0,000000;0,000000;1,000000;1,000000;0,000000;0,000000;0,000000;0,000000;1,000000;1,000000;0,000000;1,000000;1,000000;1,000000;1,000000;1,000000;1,000000;0,000000;1,000000;1,000000;0,000000;0,000000;0,000000;0,000000;0,000000;0,000000;0,000000;0,000000;0,000000;0,000000;1,000000;1,000000;1,000000;1,000000;1,000000;0,000000;0,000000;0,000000;1,000000;1,000000;1,000000;1,000000;1,000000;1,000000;1,000000;1,000000;1,000000;1,000000;
42;;;;;;;;;;;;;;;;;;;;;;;;;;;;;;;;;;;;;;;;;;1,000000;1,000000;1,000000;1,000000;1,000000;1,000000;1,000000;0,000000;0,000000;0,000000;0,000000;0,000000;1,000000;1,000000;1,000000;1,000000;0,000000;0,000000;0,000000;0,000000;1,000000;1,000000;1,000000;1,000000;0,000000;1,000000;1,000000;0,000000;0,000000;0,000000;1,000000;0,000000;0,000000;0,000000;0,000000;0,000000;0,000000;1,000000;0,000000;0,000000;0,000000;1,000000;1,000000;0,000000;0,000000;1,000000;1,000000;0,000000;0,000000;0,000000;0,000000;1,000000;1,000000;0,000000;1,000000;1,000000;1,000000;1,000000;1,000000;1,000000;0,000000;1,000000;1,000000;0,000000;0,000000;0,000000;0,000000;0,000000;0,000000;0,000000;0,000000;0,000000;0,000000;1,000000;1,000000;1,000000;1,000000;1,000000;0,000000;0,000000;0,000000;1,000000;1,000000;1,000000;1,000000;1,000000;1,000000;1,000000;1,000000;1,000000;1,000000;
43;;;;;;;;;;;;;;;;;;;;;;;;;;;;;;;;;;;;;;;;;;;1,000000;1,000000;1,000000;1,000000;1,000000;1,000000;0,000000;0,000000;0,000000;0,000000;0,000000;1,000000;1,000000;1,000000;0,000000;0,000000;0,000000;0,000000;0,000000;0,000000;0,000000;1,000000;1,000000;0,000000;1,000000;0,000000;0,000000;0,000000;0,000000;1,000000;0,000000;0,000000;0,000000;0,000000;0,000000;0,000000;1,000000;0,000000;0,000000;0,000000;1,000000;1,000000;0,000000;0,000000;1,000000;1,000000;0,000000;0,000000;0,000000;0,000000;1,000000;1,000000;0,000000;1,000000;1,000000;1,000000;1,000000;1,000000;1,000000;0,000000;1,000000;1,000000;0,000000;0,000000;0,000000;0,000000;0,000000;0,000000;0,000000;0,000000;0,000000;0,000000;1,000000;1,000000;1,000000;1,000000;1,000000;0,000000;0,000000;0,000000;1,000000;1,000000;1,000000;1,000000;1,000000;1,000000;1,000000;1,000000;1,000000;1,000000;
44;;;;;;;;;;;;;;;;;;;;;;;;;;;;;;;;;;;;;;;;;;;;1,000000;1,000000;1,000000;1,000000;1,000000;0,000000;0,000000;0,000000;0,000000;0,000000;1,000000;1,000000;1,000000;0,000000;0,000000;0,000000;0,000000;0,000000;0,000000;0,000000;1,000000;1,000000;0,000000;1,000000;0,000000;0,000000;0,000000;0,000000;1,000000;0,000000;0,000000;0,000000;0,000000;0,000000;0,000000;1,000000;0,000000;0,000000;0,000000;1,000000;1,000000;0,000000;0,000000;1,000000;1,000000;0,000000;0,000000;0,000000;0,000000;1,000000;1,000000;0,000000;1,000000;1,000000;1,000000;1,000000;1,000000;1,000000;0,000000;1,000000;1,000000;0,000000;0,000000;0,000000;0,000000;0,000000;0,000000;0,000000;0,000000;0,000000;0,000000;1,000000;1,000000;1,000000;1,000000;1,000000;0,000000;0,000000;0,000000;1,000000;1,000000;1,000000;1,000000;1,000000;1,000000;1,000000;1,000000;1,000000;1,000000;
45;;;;;;;;;;;;;;;;;;;;;;;;;;;;;;;;;;;;;;;;;;;;;1,000000;1,000000;1,000000;1,000000;0,000000;0,000000;0,000000;0,000000;0,000000;1,000000;1,000000;1,000000;0,000000;0,000000;0,000000;0,000000;0,000000;0,000000;0,000000;1,000000;1,000000;0,000000;1,000000;0,000000;0,000000;0,000000;0,000000;1,000000;0,000000;0,000000;0,000000;0,000000;0,000000;0,000000;1,000000;0,000000;0,000000;0,000000;1,000000;1,000000;0,000000;0,000000;1,000000;1,000000;0,000000;0,000000;0,000000;0,000000;1,000000;1,000000;0,000000;1,000000;1,000000;1,000000;1,000000;1,000000;1,000000;0,000000;1,000000;1,000000;0,000000;0,000000;0,000000;0,000000;0,000000;0,000000;0,000000;0,000000;0,000000;0,000000;1,000000;1,000000;1,000000;1,000000;1,000000;0,000000;0,000000;0,000000;1,000000;1,000000;1,000000;1,000000;1,000000;1,000000;1,000000;1,000000;1,000000;1,000000;
46;;;;;;;;;;;;;;;;;;;;;;;;;;;;;;;;;;;;;;;;;;;;;;1,000000;1,000000;1,000000;0,000000;0,000000;0,000000;0,000000;0,000000;1,000000;1,000000;1,000000;0,000000;0,000000;0,000000;0,000000;0,000000;0,000000;0,000000;1,000000;1,000000;0,000000;1,000000;0,000000;0,000000;0,000000;0,000000;1,000000;0,000000;0,000000;0,000000;0,000000;0,000000;0,000000;1,000000;0,000000;0,000000;0,000000;1,000000;1,000000;0,000000;0,000000;1,000000;1,000000;0,000000;0,000000;0,000000;0,000000;1,000000;1,000000;0,000000;1,000000;1,000000;1,000000;1,000000;1,000000;1,000000;0,000000;1,000000;1,000000;0,000000;0,000000;0,000000;0,000000;0,000000;0,000000;0,000000;0,000000;0,000000;0,000000;1,000000;1,000000;1,000000;1,000000;1,000000;0,000000;0,000000;0,000000;1,000000;1,000000;1,000000;1,000000;1,000000;1,000000;1,000000;1,000000;1,000000;1,000000;
47;;;;;;;;;;;;;;;;;;;;;;;;;;;;;;;;;;;;;;;;;;;;;;;1,000000;1,000000;0,000000;0,000000;0,000000;0,000000;0,000000;1,000000;1,000000;1,000000;0,000000;0,000000;0,000000;0,000000;0,000000;0,000000;0,000000;1,000000;1,000000;0,000000;1,000000;0,000000;0,000000;0,000000;0,000000;1,000000;0,000000;0,000000;0,000000;0,000000;0,000000;0,000000;1,000000;0,000000;0,000000;0,000000;1,000000;1,000000;0,000000;0,000000;1,000000;1,000000;0,000000;0,000000;0,000000;0,000000;1,000000;1,000000;0,000000;1,000000;1,000000;1,000000;1,000000;1,000000;1,000000;0,000000;1,000000;1,000000;0,000000;0,000000;0,000000;0,000000;0,000000;0,000000;0,000000;0,000000;0,000000;0,000000;1,000000;1,000000;1,000000;1,000000;1,000000;0,000000;0,000000;0,000000;1,000000;1,000000;1,000000;1,000000;1,000000;1,000000;1,000000;1,000000;1,000000;1,000000;
48;;;;;;;;;;;;;;;;;;;;;;;;;;;;;;;;;;;;;;;;;;;;;;;;1,000000;0,000000;0,000000;0,000000;0,000000;0,000000;1,000000;1,000000;1,000000;0,000000;0,000000;0,000000;0,000000;0,000000;0,000000;0,000000;1,000000;1,000000;0,000000;1,000000;0,000000;0,000000;0,000000;0,000000;1,000000;0,000000;0,000000;0,000000;0,000000;0,000000;0,000000;1,000000;0,000000;0,000000;0,000000;1,000000;1,000000;0,000000;0,000000;1,000000;1,000000;0,000000;0,000000;0,000000;0,000000;1,000000;1,000000;0,000000;1,000000;1,000000;1,000000;1,000000;1,000000;1,000000;0,000000;1,000000;1,000000;0,000000;0,000000;0,000000;0,000000;0,000000;0,000000;0,000000;0,000000;0,000000;0,000000;1,000000;1,000000;1,000000;1,000000;1,000000;0,000000;0,000000;0,000000;1,000000;1,000000;1,000000;1,000000;1,000000;1,000000;1,000000;1,000000;1,000000;1,000000;
49;;;;;;;;;;;;;;;;;;;;;;;;;;;;;;;;;;;;;;;;;;;;;;;;;1,000000;1,000000;1,000000;1,000000;1,000000;0,000000;0,000000;0,000000;0,000000;0,000000;0,000000;0,000000;0,000000;0,000000;0,000000;0,000000;0,000000;0,000000;0,000000;0,000000;0,000000;0,000000;0,000000;0,000000;0,000000;0,000000;0,000000;0,000000;0,000000;0,000000;0,000000;0,000000;1,000000;1,000000;0,000000;0,000000;0,000000;0,000000;0,000000;0,000000;0,000000;0,000000;0,000000;0,000000;0,000000;0,000000;0,000000;0,000000;0,000000;0,000000;0,000000;0,000000;0,000000;0,000000;0,000000;0,000000;0,000000;0,000000;1,000000;1,000000;1,000000;1,000000;1,000000;0,000000;0,000000;0,000000;0,000000;0,000000;0,000000;0,000000;0,000000;1,000000;1,000000;1,000000;0,000000;0,000000;0,000000;0,000000;0,000000;0,000000;0,000000;0,000000;0,000000;0,000000;
50;;;;;;;;;;;;;;;;;;;;;;;;;;;;;;;;;;;;;;;;;;;;;;;;;;1,000000;1,000000;1,000000;1,000000;0,000000;0,000000;0,000000;0,000000;0,000000;0,000000;0,000000;0,000000;0,000000;0,000000;0,000000;0,000000;0,000000;0,000000;0,000000;0,000000;0,000000;0,000000;0,000000;0,000000;0,000000;0,000000;0,000000;0,000000;0,000000;0,000000;0,000000;1,000000;1,000000;0,000000;0,000000;0,000000;0,000000;0,000000;0,000000;0,000000;0,000000;0,000000;0,000000;0,000000;0,000000;0,000000;0,000000;0,000000;0,000000;0,000000;0,000000;0,000000;0,000000;0,000000;0,000000;0,000000;0,000000;1,000000;1,000000;1,000000;1,000000;1,000000;0,000000;0,000000;0,000000;0,000000;0,000000;0,000000;0,000000;0,000000;1,000000;1,000000;1,000000;0,000000;0,000000;0,000000;0,000000;0,000000;0,000000;0,000000;0,000000;0,000000;0,000000;
51;;;;;;;;;;;;;;;;;;;;;;;;;;;;;;;;;;;;;;;;;;;;;;;;;;;1,000000;1,000000;1,000000;0,000000;0,000000;0,000000;0,000000;0,000000;0,000000;0,000000;0,000000;0,000000;0,000000;0,000000;0,000000;0,000000;0,000000;0,000000;0,000000;0,000000;0,000000;0,000000;0,000000;0,000000;0,000000;0,000000;0,000000;0,000000;0,000000;0,000000;1,000000;1,000000;0,000000;0,000000;0,000000;0,000000;0,000000;0,000000;0,000000;0,000000;0,000000;0,000000;0,000000;0,000000;0,000000;0,000000;0,000000;0,000000;0,000000;0,000000;0,000000;0,000000;0,000000;0,000000;0,000000;0,000000;1,000000;1,000000;1,000000;1,000000;1,000000;0,000000;0,000000;0,000000;0,000000;0,000000;0,000000;0,000000;0,000000;1,000000;1,000000;1,000000;0,000000;0,000000;0,000000;0,000000;0,000000;0,000000;0,000000;0,000000;0,000000;0,000000;
52;;;;;;;;;;;;;;;;;;;;;;;;;;;;;;;;;;;;;;;;;;;;;;;;;;;;1,000000;1,000000;0,000000;0,000000;0,000000;0,000000;0,000000;0,000000;0,000000;0,000000;0,000000;0,000000;0,000000;0,000000;0,000000;0,000000;0,000000;0,000000;0,000000;0,000000;0,000000;0,000000;0,000000;0,000000;0,000000;0,000000;0,000000;0,000000;0,000000;1,000000;1,000000;0,000000;0,000000;0,000000;0,000000;0,000000;0,000000;0,000000;0,000000;0,000000;0,000000;0,000000;0,000000;0,000000;0,000000;0,000000;0,000000;0,000000;0,000000;0,000000;0,000000;0,000000;0,000000;0,000000;0,000000;1,000000;1,000000;1,000000;1,000000;1,000000;0,000000;0,000000;0,000000;0,000000;0,000000;0,000000;0,000000;0,000000;1,000000;1,000000;1,000000;0,000000;0,000000;0,000000;0,000000;0,000000;0,000000;0,000000;0,000000;0,000000;0,000000;
53;;;;;;;;;;;;;;;;;;;;;;;;;;;;;;;;;;;;;;;;;;;;;;;;;;;;;1,000000;0,000000;0,000000;0,000000;0,000000;0,000000;0,000000;0,000000;0,000000;0,000000;0,000000;0,000000;0,000000;0,000000;0,000000;0,000000;0,000000;0,000000;0,000000;0,000000;0,000000;0,000000;0,000000;0,000000;0,000000;0,000000;0,000000;0,000000;1,000000;1,000000;0,000000;0,000000;0,000000;0,000000;0,000000;0,000000;0,000000;0,000000;0,000000;0,000000;0,000000;0,000000;0,000000;0,000000;0,000000;0,000000;0,000000;0,000000;0,000000;0,000000;0,000000;0,000000;0,000000;0,000000;1,000000;1,000000;1,000000;1,000000;1,000000;0,000000;0,000000;0,000000;0,000000;0,000000;0,000000;0,000000;0,000000;1,000000;1,000000;1,000000;0,000000;0,000000;0,000000;0,000000;0,000000;0,000000;0,000000;0,000000;0,000000;0,000000;
54;;;;;;;;;;;;;;;;;;;;;;;;;;;;;;;;;;;;;;;;;;;;;;;;;;;;;;1,000000;1,000000;1,000000;0,000000;0,000000;0,000000;0,000000;0,000000;0,000000;0,000000;1,000000;1,000000;0,000000;1,000000;0,000000;0,000000;0,000000;0,000000;1,000000;0,000000;0,000000;0,000000;0,000000;0,000000;0,000000;1,000000;1,000000;0,000000;0,000000;1,000000;1,000000;0,000000;0,000000;1,000000;1,000000;0,000000;0,000000;0,000000;0,000000;1,000000;1,000000;0,000000;1,000000;1,000000;1,000000;1,000000;1,000000;1,000000;0,000000;1,000000;1,000000;0,000000;0,000000;0,000000;0,000000;0,000000;0,000000;0,000000;0,000000;0,000000;0,000000;1,000000;1,000000;1,000000;1,000000;1,000000;0,000000;0,000000;0,000000;1,000000;1,000000;1,000000;1,000000;1,000000;1,000000;1,000000;1,000000;1,000000;1,000000;
55;;;;;;;;;;;;;;;;;;;;;;;;;;;;;;;;;;;;;;;;;;;;;;;;;;;;;;;1,000000;1,000000;0,000000;0,000000;0,000000;0,000000;0,000000;0,000000;0,000000;1,000000;1,000000;0,000000;1,000000;0,000000;0,000000;0,000000;0,000000;1,000000;0,000000;0,000000;0,000000;0,000000;0,000000;0,000000;1,000000;0,000000;0,000000;0,000000;1,000000;1,000000;0,000000;0,000000;1,000000;1,000000;0,000000;0,000000;0,000000;0,000000;1,000000;1,000000;0,000000;1,000000;1,000000;1,000000;1,000000;1,000000;1,000000;0,000000;1,000000;1,000000;0,000000;0,000000;0,000000;0,000000;0,000000;0,000000;0,000000;0,000000;0,000000;0,000000;1,000000;1,000000;1,000000;1,000000;1,000000;0,000000;0,000000;0,000000;1,000000;1,000000;1,000000;1,000000;1,000000;1,000000;1,000000;1,000000;1,000000;1,000000;
56;;;;;;;;;;;;;;;;;;;;;;;;;;;;;;;;;;;;;;;;;;;;;;;;;;;;;;;;1,000000;0,000000;0,000000;0,000000;0,000000;0,000000;0,000000;0,000000;1,000000;1,000000;0,000000;1,000000;0,000000;0,000000;0,000000;0,000000;1,000000;0,000000;0,000000;0,000000;0,000000;0,000000;0,000000;1,000000;0,000000;0,000000;0,000000;1,000000;1,000000;0,000000;0,000000;1,000000;1,000000;0,000000;0,000000;0,000000;0,000000;1,000000;1,000000;0,000000;1,000000;1,000000;1,000000;1,000000;1,000000;1,000000;0,000000;1,000000;1,000000;0,000000;0,000000;0,000000;0,000000;0,000000;0,000000;0,000000;0,000000;0,000000;0,000000;1,000000;1,000000;1,000000;1,000000;1,000000;0,000000;0,000000;0,000000;1,000000;1,000000;1,000000;1,000000;1,000000;1,000000;1,000000;1,000000;1,000000;1,000000;
57;;;;;;;;;;;;;;;;;;;;;;;;;;;;;;;;;;;;;;;;;;;;;;;;;;;;;;;;;1,000000;0,000000;0,000000;0,000000;0,000000;1,000000;1,000000;0,000000;0,000000;0,000000;0,000000;1,000000;0,000000;0,000000;0,000000;0,000000;0,000000;0,000000;0,000000;0,000000;0,000000;0,000000;0,000000;0,000000;0,000000;0,000000;1,000000;0,000000;0,000000;0,000000;0,000000;0,000000;0,000000;0,000000;0,000000;0,000000;0,000000;0,000000;0,000000;0,000000;0,000000;0,000000;0,000000;0,000000;0,000000;0,000000;0,000000;0,000000;0,000000;0,000000;0,000000;0,000000;0,000000;0,000000;0,000000;0,000000;0,000000;0,000000;0,000000;0,000000;0,000000;0,000000;0,000000;0,000000;0,000000;0,000000;0,000000;0,000000;0,000000;0,000000;0,000000;0,000000;0,000000;0,000000;0,000000;0,000000;
58;;;;;;;;;;;;;;;;;;;;;;;;;;;;;;;;;;;;;;;;;;;;;;;;;;;;;;;;;;1,000000;1,000000;1,000000;1,000000;0,000000;0,000000;0,000000;0,000000;1,000000;0,000000;0,000000;0,000000;0,000000;0,000000;0,000000;0,000000;0,000000;0,000000;0,000000;0,000000;0,000000;0,000000;0,000000;0,000000;0,000000;0,000000;0,000000;0,000000;0,000000;0,000000;0,000000;0,000000;0,000000;0,000000;0,000000;0,000000;0,000000;0,000000;0,000000;0,000000;0,000000;0,000000;0,000000;0,000000;1,000000;0,000000;0,000000;0,000000;0,000000;0,000000;0,000000;0,000000;0,000000;0,000000;0,000000;0,000000;0,000000;0,000000;0,000000;0,000000;0,000000;0,000000;0,000000;0,000000;0,000000;0,000000;0,000000;0,000000;0,000000;0,000000;0,000000;0,000000;0,000000;0,000000;0,000000;
59;;;;;;;;;;;;;;;;;;;;;;;;;;;;;;;;;;;;;;;;;;;;;;;;;;;;;;;;;;;1,000000;1,000000;1,000000;0,000000;0,000000;0,000000;0,000000;1,000000;0,000000;0,000000;0,000000;0,000000;0,000000;0,000000;0,000000;0,000000;0,000000;0,000000;0,000000;0,000000;0,000000;0,000000;0,000000;0,000000;0,000000;0,000000;0,000000;0,000000;0,000000;0,000000;0,000000;0,000000;0,000000;0,000000;0,000000;0,000000;0,000000;0,000000;0,000000;0,000000;0,000000;0,000000;0,000000;1,000000;0,000000;0,000000;0,000000;0,000000;0,000000;0,000000;0,000000;0,000000;0,000000;0,000000;0,000000;0,000000;0,000000;0,000000;0,000000;0,000000;0,000000;0,000000;0,000000;0,000000;0,000000;0,000000;0,000000;0,000000;0,000000;0,000000;0,000000;0,000000;0,000000;0,000000;
60;;;;;;;;;;;;;;;;;;;;;;;;;;;;;;;;;;;;;;;;;;;;;;;;;;;;;;;;;;;;1,000000;1,000000;0,000000;0,000000;0,000000;0,000000;1,000000;0,000000;0,000000;0,000000;0,000000;0,000000;0,000000;0,000000;0,000000;0,000000;0,000000;0,000000;0,000000;0,000000;0,000000;0,000000;0,000000;0,000000;0,000000;0,000000;0,000000;0,000000;0,000000;0,000000;0,000000;0,000000;0,000000;0,000000;0,000000;0,000000;0,000000;0,000000;0,000000;0,000000;0,000000;0,000000;1,000000;0,000000;0,000000;0,000000;0,000000;0,000000;0,000000;0,000000;0,000000;0,000000;0,000000;0,000000;0,000000;0,000000;0,000000;0,000000;0,000000;0,000000;0,000000;0,000000;0,000000;0,000000;0,000000;0,000000;0,000000;0,000000;0,000000;0,000000;0,000000;0,000000;0,000000;
61;;;;;;;;;;;;;;;;;;;;;;;;;;;;;;;;;;;;;;;;;;;;;;;;;;;;;;;;;;;;;1,000000;0,000000;0,000000;0,000000;0,000000;1,000000;0,000000;0,000000;0,000000;0,000000;0,000000;0,000000;0,000000;0,000000;0,000000;0,000000;0,000000;0,000000;0,000000;0,000000;0,000000;0,000000;0,000000;0,000000;0,000000;0,000000;0,000000;0,000000;0,000000;0,000000;0,000000;0,000000;0,000000;0,000000;0,000000;0,000000;0,000000;0,000000;0,000000;0,000000;0,000000;1,000000;0,000000;0,000000;0,000000;0,000000;0,000000;0,000000;0,000000;0,000000;0,000000;0,000000;0,000000;0,000000;0,000000;0,000000;0,000000;0,000000;0,000000;0,000000;0,000000;0,000000;0,000000;0,000000;0,000000;0,000000;0,000000;0,000000;0,000000;0,000000;0,000000;0,000000;
62;;;;;;;;;;;;;;;;;;;;;;;;;;;;;;;;;;;;;;;;;;;;;;;;;;;;;;;;;;;;;;1,000000;1,000000;0,000000;0,000000;0,000000;0,000000;1,000000;0,000000;0,000000;0,000000;0,000000;0,000000;0,000000;0,000000;0,000000;0,000000;0,000000;0,000000;0,000000;0,000000;0,000000;1,000000;0,000000;0,000000;0,000000;0,000000;0,000000;0,000000;0,000000;0,000000;0,000000;0,000000;0,000000;0,000000;0,000000;0,000000;0,000000;0,000000;0,000000;0,000000;0,000000;0,000000;0,000000;0,000000;0,000000;0,000000;0,000000;0,000000;0,000000;0,000000;0,000000;0,000000;0,000000;0,000000;0,000000;0,000000;0,000000;0,000000;0,000000;0,000000;0,000000;0,000000;0,000000;0,000000;0,000000;0,000000;0,000000;0,000000;0,000000;0,000000;0,000000;
63;;;;;;;;;;;;;;;;;;;;;;;;;;;;;;;;;;;;;;;;;;;;;;;;;;;;;;;;;;;;;;;1,000000;0,000000;0,000000;0,000000;0,000000;1,000000;1,000000;0,000000;0,000000;0,000000;0,000000;0,000000;0,000000;0,000000;0,000000;0,000000;0,000000;0,000000;0,000000;0,000000;1,000000;0,000000;0,000000;0,000000;0,000000;0,000000;0,000000;0,000000;0,000000;0,000000;0,000000;0,000000;0,000000;0,000000;0,000000;0,000000;0,000000;0,000000;0,000000;0,000000;0,000000;0,000000;0,000000;0,000000;0,000000;0,000000;0,000000;0,000000;0,000000;0,000000;0,000000;0,000000;0,000000;0,000000;0,000000;0,000000;0,000000;0,000000;0,000000;0,000000;0,000000;0,000000;0,000000;0,000000;0,000000;0,000000;0,000000;0,000000;0,000000;0,000000;
64;;;;;;;;;;;;;;;;;;;;;;;;;;;;;;;;;;;;;;;;;;;;;;;;;;;;;;;;;;;;;;;;1,000000;1,000000;0,000000;1,000000;0,000000;0,000000;0,000000;0,000000;1,000000;0,000000;0,000000;0,000000;0,000000;0,000000;0,000000;1,000000;1,000000;0,000000;0,000000;1,000000;1,000000;0,000000;0,000000;1,000000;1,000000;0,000000;0,000000;0,000000;0,000000;1,000000;1,000000;0,000000;1,000000;1,000000;1,000000;1,000000;1,000000;1,000000;0,000000;1,000000;1,000000;0,000000;0,000000;0,000000;0,000000;0,000000;0,000000;0,000000;0,000000;0,000000;0,000000;1,000000;1,000000;1,000000;1,000000;1,000000;0,000000;0,000000;0,000000;1,000000;1,000000;1,000000;1,000000;1,000000;1,000000;1,000000;1,000000;1,000000;1,000000;
65;;;;;;;;;;;;;;;;;;;;;;;;;;;;;;;;;;;;;;;;;;;;;;;;;;;;;;;;;;;;;;;;;1,000000;0,000000;1,000000;0,000000;0,000000;0,000000;0,000000;1,000000;0,000000;0,000000;0,000000;0,000000;0,000000;0,000000;1,000000;0,000000;0,000000;0,000000;1,000000;1,000000;0,000000;0,000000;1,000000;1,000000;0,000000;0,000000;0,000000;0,000000;1,000000;1,000000;0,000000;1,000000;1,000000;1,000000;1,000000;1,000000;1,000000;0,000000;1,000000;1,000000;0,000000;0,000000;0,000000;0,000000;0,000000;0,000000;0,000000;0,000000;0,000000;0,000000;1,000000;1,000000;1,000000;1,000000;1,000000;0,000000;0,000000;0,000000;1,000000;1,000000;1,000000;1,000000;1,000000;1,000000;1,000000;1,000000;1,000000;1,000000;
66;;;;;;;;;;;;;;;;;;;;;;;;;;;;;;;;;;;;;;;;;;;;;;;;;;;;;;;;;;;;;;;;;;1,000000;0,000000;0,000000;0,000000;0,000000;0,000000;0,000000;0,000000;0,000000;0,000000;0,000000;0,000000;0,000000;0,000000;0,000000;0,000000;0,000000;0,000000;0,000000;0,000000;0,000000;0,000000;0,000000;0,000000;0,000000;0,000000;0,000000;0,000000;0,000000;0,000000;0,000000;0,000000;0,000000;0,000000;0,000000;0,000000;1,000000;0,000000;0,000000;0,000000;0,000000;0,000000;0,000000;0,000000;0,000000;0,000000;0,000000;0,000000;0,000000;0,000000;0,000000;0,000000;0,000000;0,000000;0,000000;0,000000;0,000000;0,000000;0,000000;0,000000;0,000000;0,000000;0,000000;0,000000;0,000000;0,000000;0,000000;
67;;;;;;;;;;;;;;;;;;;;;;;;;;;;;;;;;;;;;;;;;;;;;;;;;;;;;;;;;;;;;;;;;;;1,000000;0,000000;0,000000;0,000000;0,000000;1,000000;0,000000;0,000000;0,000000;0,000000;0,000000;0,000000;1,000000;0,000000;0,000000;0,000000;1,000000;1,000000;0,000000;0,000000;1,000000;1,000000;0,000000;0,000000;0,000000;0,000000;1,000000;1,000000;0,000000;1,000000;1,000000;1,000000;1,000000;1,000000;1,000000;0,000000;1,000000;1,000000;0,000000;0,000000;0,000000;0,000000;0,000000;0,000000;0,000000;0,000000;0,000000;0,000000;1,000000;1,000000;1,000000;1,000000;1,000000;0,000000;0,000000;0,000000;1,000000;1,000000;1,000000;1,000000;1,000000;1,000000;1,000000;1,000000;1,000000;1,000000;
68;;;;;;;;;;;;;;;;;;;;;;;;;;;;;;;;;;;;;;;;;;;;;;;;;;;;;;;;;;;;;;;;;;;;1,000000;0,000000;0,000000;0,000000;0,000000;0,000000;0,000000;0,000000;0,000000;0,000000;0,000000;0,000000;0,000000;0,000000;0,000000;1,000000;0,000000;0,000000;0,000000;0,000000;0,000000;0,000000;0,000000;0,000000;0,000000;0,000000;0,000000;0,000000;0,000000;0,000000;0,000000;0,000000;0,000000;0,000000;0,000000;0,000000;0,000000;0,000000;0,000000;0,000000;0,000000;0,000000;0,000000;0,000000;0,000000;0,000000;0,000000;0,000000;0,000000;0,000000;0,000000;0,000000;0,000000;0,000000;0,000000;0,000000;0,000000;0,000000;0,000000;0,000000;0,000000;0,000000;0,000000;0,000000;0,000000;
69;;;;;;;;;;;;;;;;;;;;;;;;;;;;;;;;;;;;;;;;;;;;;;;;;;;;;;;;;;;;;;;;;;;;;1,000000;0,000000;0,000000;0,000000;0,000000;0,000000;0,000000;0,000000;0,000000;0,000000;0,000000;0,000000;0,000000;0,000000;0,000000;0,000000;0,000000;0,000000;0,000000;0,000000;0,000000;0,000000;0,000000;0,000000;0,000000;0,000000;0,000000;0,000000;0,000000;0,000000;0,000000;0,000000;0,000000;0,000000;0,000000;0,000000;0,000000;0,000000;0,000000;0,000000;0,000000;0,000000;0,000000;0,000000;0,000000;0,000000;0,000000;0,000000;0,000000;0,000000;0,000000;0,000000;0,000000;0,000000;0,000000;0,000000;0,000000;0,000000;0,000000;0,000000;0,000000;0,000000;0,000000;0,000000;
70;;;;;;;;;;;;;;;;;;;;;;;;;;;;;;;;;;;;;;;;;;;;;;;;;;;;;;;;;;;;;;;;;;;;;;1,000000;1,000000;0,000000;0,000000;0,000000;0,000000;0,000000;0,000000;0,000000;0,000000;0,000000;0,000000;0,000000;0,000000;0,000000;0,000000;0,000000;0,000000;0,000000;0,000000;0,000000;0,000000;0,000000;0,000000;0,000000;1,000000;0,000000;0,000000;0,000000;0,000000;0,000000;0,000000;0,000000;0,000000;0,000000;0,000000;0,000000;0,000000;0,000000;0,000000;0,000000;0,000000;0,000000;0,000000;0,000000;0,000000;0,000000;0,000000;0,000000;0,000000;0,000000;0,000000;0,000000;0,000000;0,000000;0,000000;0,000000;0,000000;0,000000;0,000000;0,000000;0,000000;0,000000;
71;;;;;;;;;;;;;;;;;;;;;;;;;;;;;;;;;;;;;;;;;;;;;;;;;;;;;;;;;;;;;;;;;;;;;;;1,000000;0,000000;0,000000;0,000000;0,000000;0,000000;0,000000;0,000000;0,000000;0,000000;0,000000;0,000000;0,000000;0,000000;0,000000;0,000000;0,000000;0,000000;0,000000;0,000000;0,000000;0,000000;0,000000;0,000000;1,000000;0,000000;0,000000;0,000000;0,000000;0,000000;0,000000;0,000000;0,000000;0,000000;0,000000;0,000000;0,000000;0,000000;0,000000;0,000000;0,000000;0,000000;0,000000;0,000000;0,000000;0,000000;0,000000;0,000000;0,000000;0,000000;0,000000;0,000000;0,000000;0,000000;0,000000;0,000000;0,000000;0,000000;0,000000;0,000000;0,000000;0,000000;
72;;;;;;;;;;;;;;;;;;;;;;;;;;;;;;;;;;;;;;;;;;;;;;;;;;;;;;;;;;;;;;;;;;;;;;;;1,000000;0,000000;0,000000;0,000000;0,000000;0,000000;0,000000;1,000000;0,000000;0,000000;0,000000;1,000000;1,000000;0,000000;0,000000;1,000000;1,000000;0,000000;0,000000;0,000000;0,000000;1,000000;1,000000;0,000000;1,000000;1,000000;1,000000;1,000000;1,000000;1,000000;0,000000;1,000000;1,000000;0,000000;0,000000;0,000000;0,000000;0,000000;0,000000;0,000000;0,000000;0,000000;0,000000;1,000000;1,000000;1,000000;1,000000;1,000000;0,000000;0,000000;0,000000;1,000000;1,000000;1,000000;1,000000;1,000000;1,000000;1,000000;1,000000;1,000000;1,000000;
73;;;;;;;;;;;;;;;;;;;;;;;;;;;;;;;;;;;;;;;;;;;;;;;;;;;;;;;;;;;;;;;;;;;;;;;;;1,000000;1,000000;1,000000;1,000000;1,000000;1,000000;0,000000;0,000000;0,000000;0,000000;0,000000;0,000000;0,000000;0,000000;0,000000;0,000000;0,000000;0,000000;0,000000;0,000000;0,000000;0,000000;0,000000;0,000000;0,000000;0,000000;0,000000;0,000000;0,000000;0,000000;0,000000;0,000000;1,000000;1,000000;0,000000;0,000000;0,000000;0,000000;0,000000;0,000000;0,000000;0,000000;0,000000;0,000000;0,000000;0,000000;0,000000;0,000000;0,000000;0,000000;0,000000;0,000000;0,000000;0,000000;0,000000;0,000000;0,000000;0,000000;0,000000;0,000000;
74;;;;;;;;;;;;;;;;;;;;;;;;;;;;;;;;;;;;;;;;;;;;;;;;;;;;;;;;;;;;;;;;;;;;;;;;;;1,000000;1,000000;1,000000;1,000000;1,000000;0,000000;0,000000;0,000000;0,000000;0,000000;0,000000;0,000000;0,000000;0,000000;0,000000;0,000000;0,000000;0,000000;0,000000;0,000000;0,000000;0,000000;0,000000;0,000000;0,000000;0,000000;0,000000;0,000000;0,000000;0,000000;0,000000;1,000000;1,000000;0,000000;0,000000;0,000000;0,000000;0,000000;0,000000;0,000000;0,000000;0,000000;0,000000;0,000000;0,000000;0,000000;0,000000;0,000000;0,000000;0,000000;0,000000;0,000000;0,000000;0,000000;0,000000;0,000000;0,000000;0,000000;0,000000;
75;;;;;;;;;;;;;;;;;;;;;;;;;;;;;;;;;;;;;;;;;;;;;;;;;;;;;;;;;;;;;;;;;;;;;;;;;;;1,000000;1,000000;1,000000;1,000000;0,000000;0,000000;0,000000;0,000000;0,000000;0,000000;0,000000;0,000000;0,000000;0,000000;0,000000;0,000000;0,000000;0,000000;0,000000;0,000000;0,000000;0,000000;0,000000;0,000000;0,000000;0,000000;0,000000;0,000000;0,000000;0,000000;1,000000;1,000000;0,000000;0,000000;0,000000;0,000000;0,000000;0,000000;0,000000;0,000000;0,000000;0,000000;0,000000;0,000000;0,000000;0,000000;0,000000;0,000000;0,000000;0,000000;0,000000;0,000000;0,000000;0,000000;0,000000;0,000000;0,000000;0,000000;
76;;;;;;;;;;;;;;;;;;;;;;;;;;;;;;;;;;;;;;;;;;;;;;;;;;;;;;;;;;;;;;;;;;;;;;;;;;;;1,000000;1,000000;1,000000;0,000000;0,000000;0,000000;0,000000;0,000000;0,000000;0,000000;0,000000;0,000000;0,000000;0,000000;0,000000;0,000000;0,000000;0,000000;0,000000;0,000000;0,000000;0,000000;0,000000;0,000000;0,000000;0,000000;0,000000;0,000000;0,000000;1,000000;1,000000;0,000000;0,000000;0,000000;0,000000;0,000000;0,000000;0,000000;0,000000;0,000000;0,000000;0,000000;0,000000;0,000000;0,000000;0,000000;0,000000;0,000000;0,000000;0,000000;0,000000;0,000000;0,000000;0,000000;0,000000;0,000000;0,000000;
77;;;;;;;;;;;;;;;;;;;;;;;;;;;;;;;;;;;;;;;;;;;;;;;;;;;;;;;;;;;;;;;;;;;;;;;;;;;;;1,000000;1,000000;0,000000;0,000000;0,000000;0,000000;0,000000;0,000000;0,000000;0,000000;0,000000;0,000000;0,000000;0,000000;0,000000;0,000000;0,000000;0,000000;0,000000;0,000000;0,000000;0,000000;0,000000;0,000000;0,000000;0,000000;0,000000;0,000000;1,000000;1,000000;0,000000;0,000000;0,000000;0,000000;0,000000;0,000000;0,000000;0,000000;0,000000;0,000000;0,000000;0,000000;0,000000;0,000000;0,000000;0,000000;0,000000;0,000000;0,000000;0,000000;0,000000;0,000000;0,000000;0,000000;0,000000;0,000000;
78;;;;;;;;;;;;;;;;;;;;;;;;;;;;;;;;;;;;;;;;;;;;;;;;;;;;;;;;;;;;;;;;;;;;;;;;;;;;;;1,000000;0,000000;0,000000;0,000000;0,000000;0,000000;0,000000;0,000000;0,000000;0,000000;0,000000;0,000000;0,000000;0,000000;0,000000;0,000000;0,000000;0,000000;0,000000;0,000000;0,000000;0,000000;0,000000;0,000000;0,000000;0,000000;0,000000;1,000000;1,000000;0,000000;0,000000;0,000000;0,000000;0,000000;0,000000;0,000000;0,000000;0,000000;0,000000;0,000000;0,000000;0,000000;0,000000;0,000000;0,000000;0,000000;0,000000;0,000000;0,000000;0,000000;0,000000;0,000000;0,000000;0,000000;0,000000;
79;;;;;;;;;;;;;;;;;;;;;;;;;;;;;;;;;;;;;;;;;;;;;;;;;;;;;;;;;;;;;;;;;;;;;;;;;;;;;;;1,000000;1,000000;0,000000;0,000000;1,000000;1,000000;0,000000;0,000000;1,000000;1,000000;0,000000;0,000000;0,000000;0,000000;1,000000;1,000000;0,000000;1,000000;1,000000;1,000000;1,000000;1,000000;1,000000;0,000000;1,000000;1,000000;0,000000;0,000000;0,000000;0,000000;0,000000;0,000000;0,000000;0,000000;0,000000;0,000000;1,000000;1,000000;1,000000;1,000000;1,000000;0,000000;0,000000;0,000000;1,000000;1,000000;1,000000;1,000000;1,000000;1,000000;1,000000;1,000000;1,000000;1,000000;
80;;;;;;;;;;;;;;;;;;;;;;;;;;;;;;;;;;;;;;;;;;;;;;;;;;;;;;;;;;;;;;;;;;;;;;;;;;;;;;;;1,000000;0,000000;0,000000;0,000000;0,000000;0,000000;0,000000;0,000000;0,000000;0,000000;0,000000;0,000000;0,000000;0,000000;0,000000;0,000000;0,000000;0,000000;0,000000;0,000000;0,000000;0,000000;0,000000;0,000000;0,000000;0,000000;0,000000;0,000000;0,000000;0,000000;0,000000;0,000000;0,000000;0,000000;0,000000;0,000000;0,000000;0,000000;0,000000;0,000000;0,000000;0,000000;0,000000;0,000000;0,000000;0,000000;0,000000;0,000000;0,000000;0,000000;0,000000;0,000000;0,000000;
81;;;;;;;;;;;;;;;;;;;;;;;;;;;;;;;;;;;;;;;;;;;;;;;;;;;;;;;;;;;;;;;;;;;;;;;;;;;;;;;;;1,000000;1,000000;0,000000;0,000000;0,000000;0,000000;0,000000;0,000000;0,000000;0,000000;0,000000;0,000000;0,000000;0,000000;0,000000;0,000000;0,000000;0,000000;0,000000;0,000000;0,000000;0,000000;0,000000;0,000000;0,000000;0,000000;1,000000;1,000000;1,000000;1,000000;1,000000;0,000000;0,000000;0,000000;0,000000;0,000000;0,000000;0,000000;0,000000;1,000000;1,000000;1,000000;0,000000;0,000000;0,000000;0,000000;0,000000;0,000000;0,000000;0,000000;0,000000;0,000000;
82;;;;;;;;;;;;;;;;;;;;;;;;;;;;;;;;;;;;;;;;;;;;;;;;;;;;;;;;;;;;;;;;;;;;;;;;;;;;;;;;;;1,000000;0,000000;0,000000;0,000000;0,000000;0,000000;0,000000;0,000000;0,000000;0,000000;0,000000;0,000000;0,000000;0,000000;0,000000;0,000000;0,000000;0,000000;0,000000;0,000000;0,000000;0,000000;0,000000;0,000000;0,000000;1,000000;1,000000;1,000000;1,000000;1,000000;0,000000;0,000000;0,000000;0,000000;0,000000;0,000000;0,000000;0,000000;1,000000;1,000000;1,000000;0,000000;0,000000;0,000000;0,000000;0,000000;0,000000;0,000000;0,000000;0,000000;0,000000;
83;;;;;;;;;;;;;;;;;;;;;;;;;;;;;;;;;;;;;;;;;;;;;;;;;;;;;;;;;;;;;;;;;;;;;;;;;;;;;;;;;;;1,000000;1,000000;0,000000;0,000000;1,000000;1,000000;0,000000;0,000000;0,000000;0,000000;1,000000;1,000000;0,000000;1,000000;1,000000;1,000000;1,000000;1,000000;1,000000;0,000000;1,000000;1,000000;0,000000;0,000000;0,000000;0,000000;0,000000;0,000000;0,000000;0,000000;0,000000;0,000000;1,000000;1,000000;1,000000;1,000000;1,000000;0,000000;0,000000;0,000000;1,000000;1,000000;1,000000;1,000000;1,000000;1,000000;1,000000;1,000000;1,000000;1,000000;
84;;;;;;;;;;;;;;;;;;;;;;;;;;;;;;;;;;;;;;;;;;;;;;;;;;;;;;;;;;;;;;;;;;;;;;;;;;;;;;;;;;;;1,000000;0,000000;0,000000;1,000000;1,000000;0,000000;0,000000;0,000000;0,000000;1,000000;1,000000;0,000000;1,000000;1,000000;1,000000;1,000000;1,000000;1,000000;0,000000;1,000000;1,000000;0,000000;0,000000;0,000000;0,000000;0,000000;0,000000;0,000000;0,000000;0,000000;0,000000;1,000000;1,000000;1,000000;1,000000;1,000000;0,000000;0,000000;0,000000;1,000000;1,000000;1,000000;1,000000;1,000000;1,000000;1,000000;1,000000;1,000000;1,000000;
85;;;;;;;;;;;;;;;;;;;;;;;;;;;;;;;;;;;;;;;;;;;;;;;;;;;;;;;;;;;;;;;;;;;;;;;;;;;;;;;;;;;;;1,000000;1,000000;0,000000;0,000000;0,000000;0,000000;0,000000;0,000000;1,000000;0,000000;0,000000;0,000000;0,000000;0,000000;0,000000;0,000000;0,000000;0,000000;0,000000;0,000000;0,000000;0,000000;0,000000;0,000000;0,000000;0,000000;0,000000;0,000000;0,000000;0,000000;0,000000;0,000000;0,000000;0,000000;0,000000;0,000000;0,000000;0,000000;0,000000;0,000000;0,000000;0,000000;0,000000;0,000000;0,000000;0,000000;0,000000;0,000000;
86;;;;;;;;;;;;;;;;;;;;;;;;;;;;;;;;;;;;;;;;;;;;;;;;;;;;;;;;;;;;;;;;;;;;;;;;;;;;;;;;;;;;;;1,000000;0,000000;0,000000;0,000000;0,000000;0,000000;0,000000;1,000000;0,000000;0,000000;0,000000;0,000000;0,000000;0,000000;0,000000;0,000000;0,000000;0,000000;0,000000;0,000000;0,000000;0,000000;0,000000;0,000000;0,000000;0,000000;0,000000;0,000000;0,000000;0,000000;0,000000;0,000000;0,000000;0,000000;0,000000;0,000000;0,000000;0,000000;0,000000;0,000000;0,000000;0,000000;0,000000;0,000000;0,000000;0,000000;0,000000;
87;;;;;;;;;;;;;;;;;;;;;;;;;;;;;;;;;;;;;;;;;;;;;;;;;;;;;;;;;;;;;;;;;;;;;;;;;;;;;;;;;;;;;;;1,000000;1,000000;0,000000;0,000000;0,000000;0,000000;1,000000;1,000000;0,000000;1,000000;1,000000;1,000000;1,000000;1,000000;1,000000;0,000000;1,000000;1,000000;0,000000;0,000000;0,000000;0,000000;0,000000;0,000000;0,000000;0,000000;0,000000;0,000000;1,000000;1,000000;1,000000;1,000000;1,000000;0,000000;0,000000;0,000000;1,000000;1,000000;1,000000;1,000000;1,000000;1,000000;1,000000;1,000000;1,000000;1,000000;
88;;;;;;;;;;;;;;;;;;;;;;;;;;;;;;;;;;;;;;;;;;;;;;;;;;;;;;;;;;;;;;;;;;;;;;;;;;;;;;;;;;;;;;;;1,000000;0,000000;0,000000;0,000000;0,000000;1,000000;1,000000;0,000000;1,000000;1,000000;1,000000;1,000000;1,000000;1,000000;0,000000;1,000000;1,000000;0,000000;0,000000;0,000000;0,000000;0,000000;0,000000;0,000000;0,000000;0,000000;0,000000;1,000000;1,000000;1,000000;1,000000;1,000000;0,000000;0,000000;0,000000;1,000000;1,000000;1,000000;1,000000;1,000000;1,000000;1,000000;1,000000;1,000000;1,000000;
89;;;;;;;;;;;;;;;;;;;;;;;;;;;;;;;;;;;;;;;;;;;;;;;;;;;;;;;;;;;;;;;;;;;;;;;;;;;;;;;;;;;;;;;;;1,000000;1,000000;1,000000;1,000000;0,000000;0,000000;0,000000;0,000000;0,000000;0,000000;0,000000;0,000000;0,000000;0,000000;0,000000;0,000000;0,000000;0,000000;0,000000;0,000000;0,000000;0,000000;0,000000;0,000000;0,000000;0,000000;0,000000;0,000000;0,000000;0,000000;0,000000;0,000000;0,000000;0,000000;0,000000;0,000000;0,000000;0,000000;0,000000;0,000000;0,000000;0,000000;0,000000;0,000000;
90;;;;;;;;;;;;;;;;;;;;;;;;;;;;;;;;;;;;;;;;;;;;;;;;;;;;;;;;;;;;;;;;;;;;;;;;;;;;;;;;;;;;;;;;;;1,000000;1,000000;1,000000;0,000000;0,000000;0,000000;0,000000;0,000000;0,000000;0,000000;0,000000;0,000000;0,000000;0,000000;0,000000;0,000000;0,000000;0,000000;0,000000;0,000000;0,000000;0,000000;0,000000;0,000000;0,000000;0,000000;0,000000;0,000000;0,000000;0,000000;0,000000;0,000000;0,000000;0,000000;0,000000;0,000000;0,000000;0,000000;0,000000;0,000000;0,000000;0,000000;0,000000;
91;;;;;;;;;;;;;;;;;;;;;;;;;;;;;;;;;;;;;;;;;;;;;;;;;;;;;;;;;;;;;;;;;;;;;;;;;;;;;;;;;;;;;;;;;;;1,000000;1,000000;0,000000;0,000000;0,000000;0,000000;0,000000;0,000000;0,000000;0,000000;0,000000;0,000000;0,000000;0,000000;0,000000;0,000000;0,000000;0,000000;0,000000;0,000000;0,000000;0,000000;0,000000;0,000000;0,000000;0,000000;0,000000;0,000000;0,000000;0,000000;0,000000;0,000000;0,000000;0,000000;0,000000;0,000000;0,000000;0,000000;0,000000;0,000000;0,000000;0,000000;
92;;;;;;;;;;;;;;;;;;;;;;;;;;;;;;;;;;;;;;;;;;;;;;;;;;;;;;;;;;;;;;;;;;;;;;;;;;;;;;;;;;;;;;;;;;;;1,000000;0,000000;0,000000;0,000000;0,000000;0,000000;0,000000;0,000000;0,000000;0,000000;0,000000;0,000000;0,000000;0,000000;0,000000;0,000000;0,000000;0,000000;0,000000;0,000000;0,000000;0,000000;0,000000;0,000000;0,000000;0,000000;0,000000;0,000000;0,000000;0,000000;0,000000;0,000000;0,000000;0,000000;0,000000;0,000000;0,000000;0,000000;0,000000;0,000000;0,000000;
93;;;;;;;;;;;;;;;;;;;;;;;;;;;;;;;;;;;;;;;;;;;;;;;;;;;;;;;;;;;;;;;;;;;;;;;;;;;;;;;;;;;;;;;;;;;;;1,000000;1,000000;0,000000;1,000000;1,000000;1,000000;1,000000;1,000000;1,000000;0,000000;1,000000;1,000000;0,000000;0,000000;0,000000;0,000000;0,000000;0,000000;0,000000;0,000000;0,000000;0,000000;1,000000;1,000000;1,000000;1,000000;1,000000;0,000000;0,000000;0,000000;1,000000;1,000000;1,000000;1,000000;1,000000;1,000000;1,000000;1,000000;1,000000;1,000000;
94;;;;;;;;;;;;;;;;;;;;;;;;;;;;;;;;;;;;;;;;;;;;;;;;;;;;;;;;;;;;;;;;;;;;;;;;;;;;;;;;;;;;;;;;;;;;;;1,000000;0,000000;1,000000;1,000000;1,000000;1,000000;1,000000;1,000000;0,000000;1,000000;1,000000;0,000000;0,000000;0,000000;0,000000;0,000000;0,000000;0,000000;0,000000;0,000000;0,000000;1,000000;1,000000;1,000000;1,000000;1,000000;0,000000;0,000000;0,000000;1,000000;1,000000;1,000000;1,000000;1,000000;1,000000;1,000000;1,000000;1,000000;1,000000;
95;;;;;;;;;;;;;;;;;;;;;;;;;;;;;;;;;;;;;;;;;;;;;;;;;;;;;;;;;;;;;;;;;;;;;;;;;;;;;;;;;;;;;;;;;;;;;;;1,000000;0,000000;0,000000;0,000000;0,000000;0,000000;0,000000;0,000000;0,000000;0,000000;0,000000;0,000000;0,000000;0,000000;0,000000;0,000000;0,000000;0,000000;0,000000;0,000000;0,000000;0,000000;0,000000;0,000000;0,000000;0,000000;0,000000;0,000000;0,000000;0,000000;0,000000;0,000000;0,000000;0,000000;0,000000;0,000000;0,000000;0,000000;
96;;;;;;;;;;;;;;;;;;;;;;;;;;;;;;;;;;;;;;;;;;;;;;;;;;;;;;;;;;;;;;;;;;;;;;;;;;;;;;;;;;;;;;;;;;;;;;;;1,000000;1,000000;1,000000;1,000000;1,000000;1,000000;0,000000;1,000000;1,000000;0,000000;0,000000;0,000000;0,000000;0,000000;0,000000;0,000000;0,000000;0,000000;0,000000;1,000000;1,000000;1,000000;1,000000;1,000000;0,000000;0,000000;0,000000;1,000000;1,000000;1,000000;1,000000;1,000000;1,000000;1,000000;1,000000;1,000000;1,000000;
97;;;;;;;;;;;;;;;;;;;;;;;;;;;;;;;;;;;;;;;;;;;;;;;;;;;;;;;;;;;;;;;;;;;;;;;;;;;;;;;;;;;;;;;;;;;;;;;;;1,000000;1,000000;1,000000;1,000000;1,000000;0,000000;1,000000;1,000000;0,000000;0,000000;0,000000;0,000000;0,000000;0,000000;0,000000;0,000000;0,000000;0,000000;1,000000;1,000000;1,000000;1,000000;1,000000;0,000000;0,000000;0,000000;1,000000;1,000000;1,000000;1,000000;1,000000;1,000000;1,000000;1,000000;1,000000;1,000000;
98;;;;;;;;;;;;;;;;;;;;;;;;;;;;;;;;;;;;;;;;;;;;;;;;;;;;;;;;;;;;;;;;;;;;;;;;;;;;;;;;;;;;;;;;;;;;;;;;;;1,000000;1,000000;1,000000;1,000000;0,000000;1,000000;1,000000;0,000000;0,000000;0,000000;0,000000;0,000000;0,000000;0,000000;0,000000;0,000000;0,000000;1,000000;1,000000;1,000000;1,000000;1,000000;0,000000;0,000000;0,000000;1,000000;1,000000;1,000000;1,000000;1,000000;1,000000;1,000000;1,000000;1,000000;1,000000;
99;;;;;;;;;;;;;;;;;;;;;;;;;;;;;;;;;;;;;;;;;;;;;;;;;;;;;;;;;;;;;;;;;;;;;;;;;;;;;;;;;;;;;;;;;;;;;;;;;;;1,000000;1,000000;1,000000;0,000000;1,000000;1,000000;0,000000;0,000000;0,000000;0,000000;0,000000;0,000000;0,000000;0,000000;0,000000;0,000000;1,000000;1,000000;1,000000;1,000000;1,000000;0,000000;0,000000;0,000000;1,000000;1,000000;1,000000;1,000000;1,000000;1,000000;1,000000;1,000000;1,000000;1,000000;
100;;;;;;;;;;;;;;;;;;;;;;;;;;;;;;;;;;;;;;;;;;;;;;;;;;;;;;;;;;;;;;;;;;;;;;;;;;;;;;;;;;;;;;;;;;;;;;;;;;;;1,000000;1,000000;0,000000;1,000000;1,000000;0,000000;0,000000;0,000000;0,000000;0,000000;0,000000;0,000000;0,000000;0,000000;0,000000;1,000000;1,000000;1,000000;1,000000;1,000000;0,000000;0,000000;0,000000;1,000000;1,000000;1,000000;1,000000;1,000000;1,000000;1,000000;1,000000;1,000000;1,000000;
101;;;;;;;;;;;;;;;;;;;;;;;;;;;;;;;;;;;;;;;;;;;;;;;;;;;;;;;;;;;;;;;;;;;;;;;;;;;;;;;;;;;;;;;;;;;;;;;;;;;;;1,000000;0,000000;1,000000;1,000000;0,000000;0,000000;0,000000;0,000000;0,000000;0,000000;0,000000;0,000000;0,000000;0,000000;1,000000;1,000000;1,000000;1,000000;1,000000;0,000000;0,000000;0,000000;1,000000;1,000000;1,000000;1,000000;1,000000;1,000000;1,000000;1,000000;1,000000;1,000000;
102;;;;;;;;;;;;;;;;;;;;;;;;;;;;;;;;;;;;;;;;;;;;;;;;;;;;;;;;;;;;;;;;;;;;;;;;;;;;;;;;;;;;;;;;;;;;;;;;;;;;;;1,000000;0,000000;0,000000;0,000000;0,000000;0,000000;0,000000;0,000000;0,000000;0,000000;0,000000;0,000000;0,000000;0,000000;0,000000;0,000000;0,000000;0,000000;0,000000;0,000000;0,000000;0,000000;0,000000;0,000000;0,000000;0,000000;0,000000;0,000000;0,000000;0,000000;0,000000;
103;;;;;;;;;;;;;;;;;;;;;;;;;;;;;;;;;;;;;;;;;;;;;;;;;;;;;;;;;;;;;;;;;;;;;;;;;;;;;;;;;;;;;;;;;;;;;;;;;;;;;;;1,000000;1,000000;0,000000;0,000000;0,000000;0,000000;0,000000;0,000000;0,000000;0,000000;0,000000;0,000000;1,000000;1,000000;1,000000;1,000000;1,000000;0,000000;0,000000;0,000000;1,000000;1,000000;1,000000;1,000000;1,000000;1,000000;1,000000;1,000000;1,000000;1,000000;
104;;;;;;;;;;;;;;;;;;;;;;;;;;;;;;;;;;;;;;;;;;;;;;;;;;;;;;;;;;;;;;;;;;;;;;;;;;;;;;;;;;;;;;;;;;;;;;;;;;;;;;;;1,000000;0,000000;0,000000;0,000000;0,000000;0,000000;0,000000;0,000000;0,000000;0,000000;0,000000;1,000000;1,000000;1,000000;1,000000;1,000000;0,000000;0,000000;0,000000;1,000000;1,000000;1,000000;1,000000;1,000000;1,000000;1,000000;1,000000;1,000000;1,000000;
105;;;;;;;;;;;;;;;;;;;;;;;;;;;;;;;;;;;;;;;;;;;;;;;;;;;;;;;;;;;;;;;;;;;;;;;;;;;;;;;;;;;;;;;;;;;;;;;;;;;;;;;;;1,000000;1,000000;0,000000;0,000000;0,000000;0,000000;0,000000;0,000000;0,000000;0,000000;0,000000;0,000000;0,000000;0,000000;0,000000;0,000000;0,000000;0,000000;0,000000;0,000000;0,000000;0,000000;0,000000;0,000000;0,000000;0,000000;0,000000;0,000000;
106;;;;;;;;;;;;;;;;;;;;;;;;;;;;;;;;;;;;;;;;;;;;;;;;;;;;;;;;;;;;;;;;;;;;;;;;;;;;;;;;;;;;;;;;;;;;;;;;;;;;;;;;;;1,000000;0,000000;0,000000;0,000000;0,000000;0,000000;0,000000;0,000000;0,000000;0,000000;0,000000;0,000000;0,000000;0,000000;0,000000;0,000000;0,000000;0,000000;0,000000;0,000000;0,000000;0,000000;0,000000;0,000000;0,000000;0,000000;0,000000;
107;;;;;;;;;;;;;;;;;;;;;;;;;;;;;;;;;;;;;;;;;;;;;;;;;;;;;;;;;;;;;;;;;;;;;;;;;;;;;;;;;;;;;;;;;;;;;;;;;;;;;;;;;;;1,000000;1,000000;1,000000;1,000000;1,000000;0,000000;0,000000;0,000000;0,000000;0,000000;0,000000;0,000000;0,000000;1,000000;1,000000;1,000000;0,000000;0,000000;0,000000;0,000000;0,000000;0,000000;0,000000;0,000000;0,000000;0,000000;
108;;;;;;;;;;;;;;;;;;;;;;;;;;;;;;;;;;;;;;;;;;;;;;;;;;;;;;;;;;;;;;;;;;;;;;;;;;;;;;;;;;;;;;;;;;;;;;;;;;;;;;;;;;;;1,000000;1,000000;1,000000;1,000000;0,000000;0,000000;0,000000;0,000000;0,000000;0,000000;0,000000;0,000000;1,000000;1,000000;1,000000;0,000000;0,000000;0,000000;0,000000;0,000000;0,000000;0,000000;0,000000;0,000000;0,000000;
109;;;;;;;;;;;;;;;;;;;;;;;;;;;;;;;;;;;;;;;;;;;;;;;;;;;;;;;;;;;;;;;;;;;;;;;;;;;;;;;;;;;;;;;;;;;;;;;;;;;;;;;;;;;;;1,000000;1,000000;1,000000;0,000000;0,000000;0,000000;0,000000;0,000000;0,000000;0,000000;0,000000;1,000000;1,000000;1,000000;0,000000;0,000000;0,000000;0,000000;0,000000;0,000000;0,000000;0,000000;0,000000;0,000000;
110;;;;;;;;;;;;;;;;;;;;;;;;;;;;;;;;;;;;;;;;;;;;;;;;;;;;;;;;;;;;;;;;;;;;;;;;;;;;;;;;;;;;;;;;;;;;;;;;;;;;;;;;;;;;;;1,000000;1,000000;0,000000;0,000000;0,000000;0,000000;0,000000;0,000000;0,000000;0,000000;1,000000;1,000000;1,000000;0,000000;0,000000;0,000000;0,000000;0,000000;0,000000;0,000000;0,000000;0,000000;0,000000;
111;;;;;;;;;;;;;;;;;;;;;;;;;;;;;;;;;;;;;;;;;;;;;;;;;;;;;;;;;;;;;;;;;;;;;;;;;;;;;;;;;;;;;;;;;;;;;;;;;;;;;;;;;;;;;;;1,000000;0,000000;0,000000;0,000000;0,000000;0,000000;0,000000;0,000000;0,000000;1,000000;1,000000;1,000000;0,000000;0,000000;0,000000;0,000000;0,000000;0,000000;0,000000;0,000000;0,000000;0,000000;
112;;;;;;;;;;;;;;;;;;;;;;;;;;;;;;;;;;;;;;;;;;;;;;;;;;;;;;;;;;;;;;;;;;;;;;;;;;;;;;;;;;;;;;;;;;;;;;;;;;;;;;;;;;;;;;;;1,000000;1,000000;1,000000;0,000000;0,000000;0,000000;0,000000;0,000000;0,000000;0,000000;0,000000;0,000000;0,000000;0,000000;0,000000;0,000000;0,000000;0,000000;0,000000;0,000000;0,000000;
113;;;;;;;;;;;;;;;;;;;;;;;;;;;;;;;;;;;;;;;;;;;;;;;;;;;;;;;;;;;;;;;;;;;;;;;;;;;;;;;;;;;;;;;;;;;;;;;;;;;;;;;;;;;;;;;;;1,000000;1,000000;0,000000;0,000000;0,000000;0,000000;0,000000;0,000000;0,000000;0,000000;0,000000;0,000000;0,000000;0,000000;0,000000;0,000000;0,000000;0,000000;0,000000;0,000000;
114;;;;;;;;;;;;;;;;;;;;;;;;;;;;;;;;;;;;;;;;;;;;;;;;;;;;;;;;;;;;;;;;;;;;;;;;;;;;;;;;;;;;;;;;;;;;;;;;;;;;;;;;;;;;;;;;;;1,000000;0,000000;0,000000;0,000000;0,000000;0,000000;0,000000;0,000000;0,000000;0,000000;0,000000;0,000000;0,000000;0,000000;0,000000;0,000000;0,000000;0,000000;0,000000;
115;;;;;;;;;;;;;;;;;;;;;;;;;;;;;;;;;;;;;;;;;;;;;;;;;;;;;;;;;;;;;;;;;;;;;;;;;;;;;;;;;;;;;;;;;;;;;;;;;;;;;;;;;;;;;;;;;;;1,000000;1,000000;1,000000;1,000000;1,000000;0,000000;0,000000;0,000000;1,000000;1,000000;1,000000;1,000000;1,000000;1,000000;1,000000;1,000000;1,000000;1,000000;
116;;;;;;;;;;;;;;;;;;;;;;;;;;;;;;;;;;;;;;;;;;;;;;;;;;;;;;;;;;;;;;;;;;;;;;;;;;;;;;;;;;;;;;;;;;;;;;;;;;;;;;;;;;;;;;;;;;;;1,000000;1,000000;1,000000;1,000000;0,000000;0,000000;0,000000;1,000000;1,000000;1,000000;1,000000;1,000000;1,000000;1,000000;1,000000;1,000000;1,000000;
117;;;;;;;;;;;;;;;;;;;;;;;;;;;;;;;;;;;;;;;;;;;;;;;;;;;;;;;;;;;;;;;;;;;;;;;;;;;;;;;;;;;;;;;;;;;;;;;;;;;;;;;;;;;;;;;;;;;;;1,000000;1,000000;1,000000;0,000000;0,000000;0,000000;1,000000;1,000000;1,000000;1,000000;1,000000;1,000000;1,000000;1,000000;1,000000;1,000000;
118;;;;;;;;;;;;;;;;;;;;;;;;;;;;;;;;;;;;;;;;;;;;;;;;;;;;;;;;;;;;;;;;;;;;;;;;;;;;;;;;;;;;;;;;;;;;;;;;;;;;;;;;;;;;;;;;;;;;;;1,000000;1,000000;0,000000;0,000000;0,000000;1,000000;1,000000;1,000000;1,000000;1,000000;1,000000;1,000000;1,000000;1,000000;1,000000;
119;;;;;;;;;;;;;;;;;;;;;;;;;;;;;;;;;;;;;;;;;;;;;;;;;;;;;;;;;;;;;;;;;;;;;;;;;;;;;;;;;;;;;;;;;;;;;;;;;;;;;;;;;;;;;;;;;;;;;;;1,000000;0,000000;0,000000;0,000000;1,000000;1,000000;1,000000;1,000000;1,000000;1,000000;1,000000;1,000000;1,000000;1,000000;
120;;;;;;;;;;;;;;;;;;;;;;;;;;;;;;;;;;;;;;;;;;;;;;;;;;;;;;;;;;;;;;;;;;;;;;;;;;;;;;;;;;;;;;;;;;;;;;;;;;;;;;;;;;;;;;;;;;;;;;;;1,000000;1,000000;1,000000;0,000000;0,000000;0,000000;0,000000;0,000000;0,000000;0,000000;0,000000;0,000000;0,000000;
121;;;;;;;;;;;;;;;;;;;;;;;;;;;;;;;;;;;;;;;;;;;;;;;;;;;;;;;;;;;;;;;;;;;;;;;;;;;;;;;;;;;;;;;;;;;;;;;;;;;;;;;;;;;;;;;;;;;;;;;;;1,000000;1,000000;0,000000;0,000000;0,000000;0,000000;0,000000;0,000000;0,000000;0,000000;0,000000;0,000000;
122;;;;;;;;;;;;;;;;;;;;;;;;;;;;;;;;;;;;;;;;;;;;;;;;;;;;;;;;;;;;;;;;;;;;;;;;;;;;;;;;;;;;;;;;;;;;;;;;;;;;;;;;;;;;;;;;;;;;;;;;;;1,000000;0,000000;0,000000;0,000000;0,000000;0,000000;0,000000;0,000000;0,000000;0,000000;0,000000;
123;;;;;;;;;;;;;;;;;;;;;;;;;;;;;;;;;;;;;;;;;;;;;;;;;;;;;;;;;;;;;;;;;;;;;;;;;;;;;;;;;;;;;;;;;;;;;;;;;;;;;;;;;;;;;;;;;;;;;;;;;;;1,000000;1,000000;1,000000;1,000000;1,000000;1,000000;1,000000;1,000000;1,000000;1,000000;
124;;;;;;;;;;;;;;;;;;;;;;;;;;;;;;;;;;;;;;;;;;;;;;;;;;;;;;;;;;;;;;;;;;;;;;;;;;;;;;;;;;;;;;;;;;;;;;;;;;;;;;;;;;;;;;;;;;;;;;;;;;;;1,000000;1,000000;1,000000;1,000000;1,000000;1,000000;1,000000;1,000000;1,000000;
125;;;;;;;;;;;;;;;;;;;;;;;;;;;;;;;;;;;;;;;;;;;;;;;;;;;;;;;;;;;;;;;;;;;;;;;;;;;;;;;;;;;;;;;;;;;;;;;;;;;;;;;;;;;;;;;;;;;;;;;;;;;;;1,000000;1,000000;1,000000;1,000000;1,000000;1,000000;1,000000;1,000000;
126;;;;;;;;;;;;;;;;;;;;;;;;;;;;;;;;;;;;;;;;;;;;;;;;;;;;;;;;;;;;;;;;;;;;;;;;;;;;;;;;;;;;;;;;;;;;;;;;;;;;;;;;;;;;;;;;;;;;;;;;;;;;;;1,000000;1,000000;1,000000;1,000000;1,000000;1,000000;1,000000;
127;;;;;;;;;;;;;;;;;;;;;;;;;;;;;;;;;;;;;;;;;;;;;;;;;;;;;;;;;;;;;;;;;;;;;;;;;;;;;;;;;;;;;;;;;;;;;;;;;;;;;;;;;;;;;;;;;;;;;;;;;;;;;;;1,000000;1,000000;1,000000;1,000000;1,000000;1,000000;
128;;;;;;;;;;;;;;;;;;;;;;;;;;;;;;;;;;;;;;;;;;;;;;;;;;;;;;;;;;;;;;;;;;;;;;;;;;;;;;;;;;;;;;;;;;;;;;;;;;;;;;;;;;;;;;;;;;;;;;;;;;;;;;;;1,000000;1,000000;1,000000;1,000000;1,000000;
129;;;;;;;;;;;;;;;;;;;;;;;;;;;;;;;;;;;;;;;;;;;;;;;;;;;;;;;;;;;;;;;;;;;;;;;;;;;;;;;;;;;;;;;;;;;;;;;;;;;;;;;;;;;;;;;;;;;;;;;;;;;;;;;;;1,000000;1,000000;1,000000;1,000000;
130;;;;;;;;;;;;;;;;;;;;;;;;;;;;;;;;;;;;;;;;;;;;;;;;;;;;;;;;;;;;;;;;;;;;;;;;;;;;;;;;;;;;;;;;;;;;;;;;;;;;;;;;;;;;;;;;;;;;;;;;;;;;;;;;;;1,000000;1,000000;1,000000;
131;;;;;;;;;;;;;;;;;;;;;;;;;;;;;;;;;;;;;;;;;;;;;;;;;;;;;;;;;;;;;;;;;;;;;;;;;;;;;;;;;;;;;;;;;;;;;;;;;;;;;;;;;;;;;;;;;;;;;;;;;;;;;;;;;;;1,000000;1,000000;
132;;;;;;;;;;;;;;;;;;;;;;;;;;;;;;;;;;;;;;;;;;;;;;;;;;;;;;;;;;;;;;;;;;;;;;;;;;;;;;;;;;;;;;;;;;;;;;;;;;;;;;;;;;;;;;;;;;;;;;;;;;;;;;;;;;;;1,000000;
