;1; 2; 3; 4; 5; 6; 7; 8; 9; 10; 11; 12; 13; 14; 15; 16; 17; 18; 19; 20; 21; 22; 23; 24; 25; 26; 27; 28; 29; 30; 31; 32; 33; 34; 35; 36; 37; 38; 39; 40; 41; 42; 43; 44; 45; 46; 47; 48; 49; 50; 51; 52; 53; 54; 55; 56; 57; 58; 59; 60; 61; 62; 63; 64; 65; 66; 67; 68; 69; 70; 71; 72; 73; 74; 75; 76; 77; 78; 79; 80; 81; 82; 83; 84; 85
1;1,000000;0,327662;0,425387;0,352955;0,358705;0,373213;0,379934;0,413883;0,419088;0,396501;0,419489;0,408581;0,212318;0,276608;0,459818;0,346393;0,444776;0,446271;0,447649;0,426151;0,352698;0,397565;0,222153;0,269361;0,237225;0,472239;0,478710;0,479545;0,423709;0,083814;0,140572;0,140801;0,141031;0,441184;0,441850;0,359754;0,395034;0,430035;0,430540;0,431027;0,431497;0,440767;0,000000;0,000000;0,430421;0,274144;0,401521;0,401999;0,000000;0,276763;0,260884;0,439601;0,416907;0,417250;0,417585;0,453052;0,377494;0,342276;0,429492;0,443758;0,435076;0,427290;0,412720;0,413053;0,454657;0,454946;0,382189;0,430743;0,000000;0,000000;0,000000;0,423496;0,378521;0,305569;0,387190;0,273409;0,384879;0,385146;0,000000;0,316836;0,338449;0,385807;0,431530;0,301236;0,292262;
2;;1,000000;0,374570;0,129424;0,274667;0,132119;0,133528;0,483639;0,486745;0,298549;0,329512;0,322137;0,624923;0,372381;0,404490;0,482525;0,515719;0,517169;0,518512;0,380603;0,398565;0,391727;0,418489;0,270101;0,624923;0,561356;0,565179;0,566025;0,333122;0,305017;0,438741;0,439364;0,439960;0,346464;0,346742;0,418083;0,385821;0,159586;0,159736;0,159886;0,160036;0,150884;0,316150;0,316150;0,238688;0,290036;0,211838;0,211959;0,571015;0,291205;0,624923;0,655253;0,214926;0,215026;0,215129;0,525435;0,434580;0,286824;0,192202;0,179858;0,203183;0,179385;0,189680;0,189859;0,359563;0,359762;0,217808;0,219202;0,000000;0,000000;0,000000;0,299865;0,428234;0,291488;0,429473;0,345508;0,303853;0,303853;0,507667;0,353596;0,304787;0,214265;0,182526;0,303370;0,299442;
3;;;1,000000;0,145202;0,189585;0,147897;0,149306;0,513830;0,518024;0,445575;0,495174;0,463249;0,248752;0,491620;0,199416;0,341292;0,295466;0,296007;0,296553;0,302623;0,413456;0,412526;0,434267;0,606226;0,269497;0,565894;0,570337;0,571135;0,524356;0,082903;0,139661;0,139891;0,140120;0,509442;0,510084;0,218844;0,294233;0,175363;0,175513;0,175663;0,175813;0,166661;0,000000;0,000000;0,254465;0,305814;0,227616;0,227737;0,586792;0,306983;0,290814;0,521839;0,230703;0,230804;0,230906;0,533161;0,453668;0,302601;0,331271;0,195636;0,218961;0,195163;0,527774;0,527774;0,545778;0,546069;0,233585;0,234980;0,000000;0,000000;0,000000;0,338444;0,229329;0,606226;0,230462;0,272499;0,319630;0,319630;0,000000;0,369374;0,320564;0,230042;0,198304;0,319147;0,315220;
4;;;;1,000000;0,592696;0,688661;0,697290;0,125803;0,127073;0,142774;0,150630;0,148408;0,220369;0,168811;0,000000;0,107952;0,122426;0,122902;0,123363;0,170391;0,165556;0,209423;0,405884;0,257496;0,241114;0,134560;0,126700;0,127077;0,144664;0,000000;0,000000;0,000000;0,000000;0,150883;0,151192;0,190461;0,193382;0,146980;0,147130;0,147280;0,147430;0,138278;0,000000;0,000000;0,387476;0,277431;0,199233;0,199354;0,558409;0,278600;0,262431;0,153373;0,202320;0,202421;0,202523;0,155354;0,190515;0,274218;0,179596;0,167253;0,190578;0,166780;0,177075;0,177253;0,160560;0,160743;0,205202;0,206597;0,000000;0,000000;0,000000;0,465194;0,200947;0,278883;0,532891;0,000000;0,291248;0,291248;0,000000;0,340991;0,292181;0,529782;0,169921;0,290765;0,286837;
5;;;;;1,000000;0,604047;0,608529;0,170186;0,171457;0,187157;0,195014;0,192792;0,264753;0,213195;0,000000;0,152336;0,166809;0,167286;0,167747;0,337870;0,209940;0,253807;0,450267;0,301879;0,285498;0,178944;0,171084;0,171461;0,189048;0,000000;0,000000;0,000000;0,000000;0,195267;0,195576;0,234845;0,237766;0,191364;0,191514;0,191664;0,191814;0,182662;0,000000;0,000000;0,392262;0,643294;0,479773;0,479773;0,602793;0,643294;0,306815;0,197757;0,246704;0,246805;0,246907;0,199737;0,234899;0,318602;0,223980;0,211637;0,234961;0,211163;0,221459;0,221637;0,204944;0,205127;0,487845;0,396473;0,000000;0,000000;0,000000;0,497338;0,245330;0,323266;0,539693;0,000000;0,335631;0,335631;0,000000;0,385375;0,336565;0,477619;0,214304;0,335148;0,643294;
6;;;;;;1,000000;0,711314;0,128498;0,129768;0,145469;0,153325;0,151103;0,223065;0,171507;0,000000;0,110647;0,125121;0,125597;0,126058;0,173086;0,168251;0,212118;0,408579;0,260191;0,243809;0,137255;0,129396;0,129773;0,147359;0,000000;0,000000;0,000000;0,000000;0,153578;0,153888;0,193156;0,196078;0,149676;0,149826;0,149976;0,150125;0,140974;0,000000;0,000000;0,391230;0,280126;0,201928;0,202049;0,561105;0,281295;0,265126;0,156068;0,205016;0,205116;0,205218;0,158049;0,193210;0,276913;0,182292;0,169948;0,193273;0,169475;0,179770;0,179948;0,163256;0,163439;0,207898;0,209292;0,000000;0,000000;0,000000;0,468948;0,203642;0,281578;0,536645;0,000000;0,293943;0,293943;0,000000;0,343686;0,294876;0,533535;0,172616;0,293460;0,289532;
7;;;;;;;1,000000;0,129907;0,131177;0,146878;0,154734;0,152512;0,224473;0,172915;0,000000;0,112056;0,126530;0,127006;0,127467;0,174495;0,169660;0,213527;0,409988;0,261600;0,245218;0,138664;0,130804;0,131181;0,148768;0,000000;0,000000;0,000000;0,000000;0,154987;0,155296;0,194565;0,197486;0,151084;0,151234;0,151384;0,151534;0,142382;0,000000;0,000000;0,393698;0,281535;0,203337;0,203458;0,562513;0,282704;0,266535;0,157477;0,206424;0,206525;0,206627;0,159458;0,194619;0,278322;0,183700;0,171357;0,194682;0,170884;0,181179;0,181357;0,164664;0,164847;0,209306;0,210701;0,000000;0,000000;0,000000;0,471416;0,205051;0,282987;0,539113;0,000000;0,295352;0,295352;0,000000;0,345095;0,296285;0,536004;0,174025;0,294869;0,290941;
8;;;;;;;;1,000000;0,676047;0,352489;0,383452;0,376078;0,678864;0,476678;0,214540;0,326349;0,280524;0,281064;0,281610;0,287680;0,755418;0,445667;0,414868;0,266479;0,678864;0,567685;0,529172;0,529464;0,387062;0,098027;0,154786;0,155015;0,155245;0,400405;0,400682;0,199445;0,202366;0,155964;0,156114;0,156264;0,156414;0,147262;0,000000;0,000000;0,235066;0,286415;0,208217;0,208338;0,567393;0,287584;0,678864;0,720431;0,211304;0,211405;0,211507;0,619310;0,488520;0,283202;0,188580;0,176237;0,199561;0,175764;0,186059;0,186237;0,413503;0,413702;0,214186;0,215581;0,000000;0,000000;0,000000;0,323501;0,209930;0,287867;0,211063;0,287623;0,300231;0,300231;0,000000;0,349975;0,301165;0,210643;0,178905;0,299748;0,295821;
9;;;;;;;;;1,000000;0,354016;0,384979;0,377604;0,680391;0,478246;0,215498;0,327917;0,282091;0,282632;0,283178;0,289248;0,755547;0,447194;0,416138;0,267750;0,680391;0,567815;0,529301;0,529593;0,388589;0,098985;0,155744;0,155973;0,156203;0,401932;0,402209;0,200716;0,203637;0,157235;0,157385;0,157535;0,157685;0,148533;0,000000;0,000000;0,236337;0,287685;0,209487;0,209609;0,568664;0,288854;0,680391;0,723717;0,212575;0,212676;0,212778;0,619439;0,490047;0,284473;0,189851;0,177507;0,200832;0,177034;0,187330;0,187508;0,415030;0,415229;0,215457;0,216851;0,000000;0,000000;0,000000;0,325069;0,211201;0,289137;0,212334;0,288581;0,301502;0,301502;0,000000;0,351245;0,302436;0,211914;0,180175;0,301019;0,297092;
10;;;;;;;;;;1,000000;0,696041;0,669197;0,673626;0,194766;0,000000;0,133907;0,148381;0,148857;0,149318;0,196346;0,447267;0,440429;0,431839;0,283451;0,673626;0,357151;0,336451;0,337022;0,905199;0,000000;0,000000;0,000000;0,000000;0,395167;0,395444;0,216416;0,313659;0,172935;0,173085;0,173235;0,173385;0,164233;0,000000;0,000000;0,252037;0,303386;0,225188;0,225309;0,584364;0,304555;0,673626;0,394432;0,228275;0,228376;0,228478;0,398107;0,840820;0,300173;0,350697;0,193208;0,216533;0,192735;0,712139;0,712383;0,718593;0,718593;0,231157;0,232552;0,000000;0,000000;0,000000;0,225768;0,226902;0,304838;0,228034;0,000000;0,317203;0,317203;0,000000;0,366946;0,318136;0,227614;0,195876;0,316720;0,312792;
11;;;;;;;;;;;1,000000;0,604899;0,704588;0,202623;0,000000;0,141763;0,156237;0,156713;0,157174;0,204202;0,478230;0,471392;0,439695;0,291307;0,704588;0,388114;0,367413;0,367985;0,634591;0,000000;0,000000;0,000000;0,000000;0,426129;0,426406;0,224272;0,332869;0,180792;0,180942;0,181092;0,181242;0,172090;0,000000;0,000000;0,259893;0,311242;0,233044;0,233165;0,592221;0,312411;0,704588;0,425395;0,236132;0,236232;0,236335;0,429070;0,514244;0,308030;0,369908;0,201064;0,224389;0,200591;0,577229;0,577554;0,627406;0,627680;0,239014;0,240408;0,000000;0,000000;0,000000;0,233624;0,234758;0,312694;0,235891;0,000000;0,325059;0,325059;0,000000;0,374802;0,325992;0,235471;0,203732;0,324576;0,320648;
12;;;;;;;;;;;;1,000000;0,697214;0,200401;0,000000;0,139541;0,154015;0,154491;0,154952;0,356789;0,470855;0,464018;0,437473;0,289085;0,697214;0,380740;0,360039;0,360610;0,679314;0,000000;0,000000;0,000000;0,000000;0,418755;0,419032;0,453389;0,319220;0,178570;0,178720;0,178870;0,179019;0,169867;0,000000;0,000000;0,257671;0,309020;0,230822;0,230943;0,589999;0,310189;0,697214;0,418021;0,233910;0,234010;0,234112;0,421695;0,828376;0,305807;0,340140;0,340435;0,344809;0,419362;0,611766;0,611766;0,706149;0,706149;0,236792;0,238186;0,000000;0,000000;0,000000;0,231402;0,466587;0,310472;0,233669;0,000000;0,322837;0,322837;0,000000;0,372580;0,323770;0,233249;0,201510;0,322354;0,318426;
13;;;;;;;;;;;;;1,000000;0,272362;0,000000;0,211503;0,225976;0,226452;0,226913;0,273941;0,773641;0,766804;0,509434;0,361046;1,000000;0,683526;0,662825;0,663396;0,708198;0,000000;0,000000;0,000000;0,000000;0,721541;0,721818;0,294012;0,296933;0,250531;0,250681;0,250831;0,250981;0,241829;0,000000;0,000000;0,329633;0,380981;0,302784;0,302905;0,661960;0,382150;1,000000;0,720807;0,305871;0,305972;0,306074;0,724482;0,809656;0,377769;0,283147;0,270803;0,294128;0,270330;0,280626;0,280804;0,734639;0,734838;0,308753;0,310148;0,000000;0,000000;0,000000;0,303364;0,304497;0,382433;0,305630;0,000000;0,394798;0,394798;0,000000;0,444542;0,395732;0,305210;0,273471;0,394315;0,390388;
14;;;;;;;;;;;;;;1,000000;0,559115;0,728941;0,516127;0,516668;0,517214;0,523284;0,634117;0,261415;0,457876;0,309488;0,293107;0,542730;0,521754;0,522311;0,196657;0,223585;0,280343;0,280572;0,280802;0,202875;0,203185;0,242454;0,245375;0,198973;0,199123;0,199273;0,199423;0,190271;0,000000;0,000000;0,278075;0,329423;0,251226;0,251347;0,610402;0,330592;0,314424;0,205366;0,254313;0,254414;0,254516;0,583564;0,242508;0,326211;0,231589;0,219245;0,242570;0,218772;0,229068;0,229246;0,212553;0,212736;0,257195;0,258590;0,000000;0,000000;0,000000;0,559105;0,252939;0,330875;0,254072;0,709888;0,343240;0,343240;0,000000;0,392984;0,344174;0,253652;0,221913;0,342757;0,338830;
15;;;;;;;;;;;;;;;1,000000;0,604751;0,255350;0,255943;0,256515;0,217884;0,305292;0,000000;0,000000;0,000000;0,000000;0,269826;0,260595;0,261051;0,000000;0,236716;0,293475;0,293704;0,293934;0,000000;0,000000;0,000000;0,000000;0,000000;0,000000;0,000000;0,000000;0,000000;0,000000;0,000000;0,000000;0,000000;0,000000;0,000000;0,000000;0,000000;0,000000;0,000000;0,000000;0,000000;0,000000;0,294165;0,000000;0,000000;0,000000;0,000000;0,000000;0,000000;0,000000;0,000000;0,000000;0,000000;0,000000;0,000000;0,000000;0,000000;0,000000;0,231827;0,000000;0,000000;0,000000;0,426312;0,000000;0,000000;0,000000;0,000000;0,000000;0,000000;0,000000;0,000000;0,000000;
16;;;;;;;;;;;;;;;;1,000000;0,365798;0,366339;0,366885;0,372955;0,483788;0,200556;0,397017;0,248629;0,232247;0,392402;0,371425;0,371983;0,135797;0,192173;0,248931;0,249160;0,249390;0,142016;0,142326;0,181594;0,184516;0,138114;0,138264;0,138414;0,138564;0,129412;0,000000;0,000000;0,217215;0,268564;0,190366;0,190487;0,549543;0,269733;0,253564;0,144506;0,193454;0,193554;0,193657;0,433235;0,181648;0,265352;0,170730;0,158386;0,181711;0,157913;0,168208;0,168386;0,151694;0,151877;0,196336;0,197730;0,000000;0,000000;0,000000;0,408776;0,192080;0,270016;0,193213;0,741144;0,282381;0,282381;0,000000;0,332124;0,283314;0,192793;0,161054;0,281898;0,277970;
17;;;;;;;;;;;;;;;;;1,000000;0,796273;0,797550;0,657420;0,437963;0,215030;0,411491;0,263103;0,246721;0,346576;0,325600;0,326157;0,150271;0,138838;0,195596;0,195825;0,196055;0,156490;0,156799;0,493010;0,460748;0,152587;0,152737;0,152887;0,153037;0,143885;0,000000;0,000000;0,231689;0,283038;0,204840;0,204961;0,564016;0,284207;0,268038;0,158980;0,207927;0,208028;0,208130;0,387410;0,196122;0,279825;0,185203;0,172860;0,196185;0,172387;0,182682;0,182860;0,166167;0,166350;0,210809;0,212204;0,000000;0,000000;0,000000;0,541326;0,503162;0,284490;0,207686;0,328433;0,296855;0,296855;0,000000;0,346598;0,297788;0,207266;0,175528;0,296372;0,292444;
18;;;;;;;;;;;;;;;;;;1,000000;0,798777;0,658067;0,438504;0,215506;0,411967;0,263579;0,247197;0,347117;0,326141;0,326698;0,150747;0,139431;0,196189;0,196419;0,196648;0,156966;0,157275;0,493991;0,461729;0,153063;0,153213;0,153363;0,153513;0,144361;0,000000;0,000000;0,232165;0,283514;0,205316;0,205437;0,564492;0,284683;0,268514;0,159456;0,208404;0,208504;0,208606;0,387951;0,196598;0,280301;0,185680;0,173336;0,196661;0,172863;0,183158;0,183336;0,166644;0,166826;0,211285;0,212680;0,000000;0,000000;0,000000;0,541796;0,504142;0,284966;0,208162;0,329027;0,297331;0,297331;0,000000;0,347074;0,298264;0,207742;0,176004;0,296848;0,292920;
19;;;;;;;;;;;;;;;;;;;1,000000;0,658690;0,439050;0,215967;0,412428;0,264040;0,247658;0,347663;0,326687;0,327244;0,151208;0,140003;0,196761;0,196990;0,197220;0,157427;0,157737;0,494937;0,462675;0,153524;0,153674;0,153824;0,153974;0,144822;0,000000;0,000000;0,232626;0,283975;0,205777;0,205898;0,564953;0,285144;0,268975;0,159917;0,208865;0,208965;0,209067;0,388497;0,197059;0,280762;0,186141;0,173797;0,197122;0,173324;0,183619;0,183797;0,167105;0,167288;0,211746;0,213141;0,000000;0,000000;0,000000;0,542288;0,505088;0,285427;0,208624;0,329598;0,297792;0,297792;0,000000;0,347535;0,298725;0,208204;0,176465;0,297309;0,293381;
20;;;;;;;;;;;;;;;;;;;;1,000000;0,445120;0,262995;0,459456;0,311067;0,294686;0,353733;0,332757;0,333314;0,198236;0,101372;0,158130;0,158359;0,158589;0,204455;0,204764;0,556070;0,561021;0,200552;0,200702;0,200852;0,201002;0,191850;0,000000;0,000000;0,279654;0,331003;0,252805;0,252926;0,611981;0,332172;0,316003;0,206945;0,255892;0,255993;0,256095;0,394567;0,244087;0,327790;0,442821;0,220825;0,244149;0,220352;0,230647;0,230825;0,214132;0,214315;0,258774;0,260169;0,000000;0,000000;0,000000;0,370107;0,569268;0,332455;0,492676;0,290967;0,344819;0,344819;0,000000;0,394563;0,345753;0,255231;0,223493;0,344336;0,340409;
21;;;;;;;;;;;;;;;;;;;;;1,000000;0,540445;0,454621;0,306233;0,773641;0,812267;0,773754;0,774045;0,481840;0,188779;0,245538;0,245767;0,245997;0,495182;0,495460;0,239198;0,242120;0,195718;0,195868;0,196018;0,196167;0,187016;0,000000;0,000000;0,274819;0,326168;0,247970;0,248091;0,607147;0,327337;0,773641;0,494448;0,251058;0,251158;0,251260;0,863892;0,583298;0,322955;0,228334;0,215990;0,239315;0,215517;0,225812;0,225990;0,508281;0,508480;0,253940;0,255334;0,000000;0,000000;0,000000;0,480940;0,249684;0,327620;0,250817;0,378375;0,339985;0,339985;0,000000;0,389728;0,340918;0,250397;0,218658;0,339502;0,335574;
22;;;;;;;;;;;;;;;;;;;;;;1,000000;0,498488;0,350100;0,766804;0,450329;0,429629;0,430200;0,475002;0,000000;0,000000;0,000000;0,000000;0,731963;0,732503;0,283065;0,285986;0,239584;0,239734;0,239884;0,240034;0,230882;0,000000;0,000000;0,318686;0,370035;0,291837;0,291958;0,651013;0,371204;0,766804;0,487610;0,294924;0,295025;0,295127;0,491285;0,576460;0,366822;0,272200;0,259857;0,283182;0,259384;0,269679;0,269857;0,501443;0,501642;0,297806;0,299201;0,000000;0,000000;0,000000;0,292417;0,293551;0,371487;0,294683;0,000000;0,383852;0,383852;0,000000;0,433595;0,384785;0,294263;0,262525;0,383369;0,379441;
23;;;;;;;;;;;;;;;;;;;;;;;1,000000;0,546561;0,530179;0,423625;0,415765;0,416142;0,433729;0,000000;0,000000;0,000000;0,000000;0,439948;0,440257;0,479526;0,482447;0,436045;0,436195;0,436345;0,436495;0,427343;0,000000;0,000000;0,515147;0,566496;0,488298;0,488419;0,847474;0,567665;0,551496;0,442438;0,491385;0,491486;0,491588;0,444419;0,479580;0,563283;0,468661;0,456318;0,479643;0,455845;0,466140;0,466318;0,449625;0,449808;0,494267;0,495662;0,000000;0,000000;0,000000;0,488878;0,490012;0,567948;0,491144;0,000000;0,580313;0,580313;0,000000;0,630056;0,581246;0,490724;0,458986;0,579830;0,575902;
24;;;;;;;;;;;;;;;;;;;;;;;;1,000000;0,381791;0,275237;0,267377;0,267754;0,285341;0,000000;0,000000;0,000000;0,000000;0,748406;0,748901;0,331138;0,334059;0,287657;0,287807;0,287957;0,288107;0,278955;0,000000;0,000000;0,366759;0,418108;0,339910;0,340031;0,699086;0,419276;0,403108;0,294050;0,342997;0,343098;0,343200;0,296030;0,331192;0,414895;0,320273;0,307930;0,331254;0,307457;0,317752;0,317930;0,301237;0,301420;0,345879;0,347274;0,000000;0,000000;0,000000;0,340490;0,341623;1,000000;0,342756;0,000000;0,431924;0,431924;0,000000;0,481668;0,432858;0,342336;0,310598;0,431441;0,427514;
25;;;;;;;;;;;;;;;;;;;;;;;;;1,000000;0,683526;0,662825;0,663396;0,708198;0,000000;0,000000;0,000000;0,000000;0,721541;0,721818;0,314756;0,317678;0,271276;0,271426;0,271576;0,271725;0,262574;0,000000;0,000000;0,350377;0,401726;0,323528;0,323649;0,682705;0,402895;1,000000;0,720807;0,326616;0,326716;0,326818;0,724482;0,809656;0,398513;0,303892;0,291548;0,314873;0,291075;0,301370;0,301548;0,734639;0,734838;0,329498;0,330892;0,000000;0,000000;0,000000;0,324108;0,325242;0,403178;0,326375;0,000000;0,415543;0,415543;0,000000;0,465286;0,416476;0,325955;0,294216;0,415060;0,411132;
26;;;;;;;;;;;;;;;;;;;;;;;;;;1,000000;0,790013;0,790596;0,391724;0,153314;0,210072;0,210301;0,210531;0,405067;0,405344;0,208202;0,211123;0,164721;0,164871;0,165021;0,165171;0,156019;0,000000;0,000000;0,243823;0,295172;0,216974;0,217095;0,576150;0,296341;0,683526;0,404332;0,220062;0,220162;0,220264;0,676159;0,493182;0,291959;0,197338;0,184994;0,208319;0,184521;0,194816;0,194994;0,418165;0,418364;0,222943;0,224338;0,000000;0,000000;0,000000;0,389554;0,218688;0,296624;0,219820;0,342909;0,308989;0,308989;0,000000;0,358732;0,309922;0,219400;0,187662;0,308506;0,304578;
27;;;;;;;;;;;;;;;;;;;;;;;;;;;1,000000;0,792432;0,371023;0,144083;0,200841;0,201070;0,201300;0,384366;0,384643;0,200343;0,203264;0,156862;0,157012;0,157162;0,157312;0,148160;0,000000;0,000000;0,235964;0,287312;0,209114;0,209236;0,568291;0,288481;0,662825;0,383632;0,212202;0,212303;0,212405;0,896216;0,472481;0,284100;0,189478;0,177134;0,200459;0,176661;0,186957;0,187135;0,397464;0,397663;0,215084;0,216478;0,000000;0,000000;0,000000;0,368578;0,210828;0,288764;0,211961;0,333678;0,301129;0,301129;0,000000;0,350873;0,302063;0,211541;0,179802;0,300646;0,296719;
28;;;;;;;;;;;;;;;;;;;;;;;;;;;;1,000000;0,371595;0,144539;0,201297;0,201526;0,201756;0,384937;0,385215;0,200720;0,203641;0,157239;0,157389;0,157539;0,157689;0,148537;0,000000;0,000000;0,236341;0,287689;0,209492;0,209613;0,568668;0,288858;0,663396;0,384203;0,212579;0,212680;0,212782;0,896216;0,473052;0,284477;0,189855;0,177511;0,200836;0,177038;0,187334;0,187512;0,398036;0,398234;0,215461;0,216856;0,000000;0,000000;0,000000;0,369135;0,211205;0,289141;0,212338;0,334134;0,301506;0,301506;0,000000;0,351250;0,302440;0,211918;0,180179;0,301023;0,297096;
29;;;;;;;;;;;;;;;;;;;;;;;;;;;;;1,000000;0,000000;0,000000;0,000000;0,000000;0,429739;0,430017;0,218306;0,408438;0,174825;0,174975;0,175125;0,175275;0,166123;0,000000;0,000000;0,253927;0,305276;0,227078;0,227199;0,586255;0,306445;0,708198;0,429005;0,230166;0,230266;0,230368;0,432680;0,850938;0,302063;0,445476;0,195098;0,218423;0,194625;0,498130;0,498270;0,728711;0,728711;0,233048;0,234442;0,000000;0,000000;0,000000;0,227658;0,228792;0,306728;0,229925;0,000000;0,319093;0,319093;0,000000;0,368836;0,320026;0,229505;0,197766;0,318610;0,314682;
30;;;;;;;;;;;;;;;;;;;;;;;;;;;;;;1,000000;0,669891;0,670276;0,670652;0,000000;0,000000;0,000000;0,000000;0,000000;0,000000;0,000000;0,000000;0,000000;0,528416;0,528755;0,000000;0,000000;0,000000;0,000000;0,000000;0,000000;0,000000;0,000000;0,000000;0,000000;0,000000;0,177653;0,000000;0,000000;0,000000;0,000000;0,000000;0,000000;0,000000;0,000000;0,000000;0,000000;0,000000;0,000000;0,000000;0,000000;0,000000;0,115315;0,000000;0,000000;0,000000;0,309800;0,000000;0,000000;0,000000;0,000000;0,000000;0,000000;0,000000;0,000000;0,000000;
31;;;;;;;;;;;;;;;;;;;;;;;;;;;;;;;1,000000;0,814918;0,815489;0,000000;0,000000;0,000000;0,000000;0,000000;0,000000;0,000000;0,000000;0,000000;0,468287;0,468287;0,000000;0,000000;0,000000;0,000000;0,000000;0,000000;0,000000;0,000000;0,000000;0,000000;0,000000;0,234411;0,000000;0,000000;0,000000;0,000000;0,000000;0,000000;0,000000;0,000000;0,000000;0,000000;0,000000;0,000000;0,000000;0,000000;0,000000;0,172073;0,000000;0,000000;0,000000;0,366558;0,000000;0,000000;0,659804;0,000000;0,000000;0,000000;0,000000;0,000000;0,000000;
32;;;;;;;;;;;;;;;;;;;;;;;;;;;;;;;;1,000000;0,816049;0,000000;0,000000;0,000000;0,000000;0,000000;0,000000;0,000000;0,000000;0,000000;0,468758;0,468758;0,000000;0,000000;0,000000;0,000000;0,000000;0,000000;0,000000;0,000000;0,000000;0,000000;0,000000;0,234640;0,000000;0,000000;0,000000;0,000000;0,000000;0,000000;0,000000;0,000000;0,000000;0,000000;0,000000;0,000000;0,000000;0,000000;0,000000;0,172302;0,000000;0,000000;0,000000;0,366787;0,000000;0,000000;0,660275;0,000000;0,000000;0,000000;0,000000;0,000000;0,000000;
33;;;;;;;;;;;;;;;;;;;;;;;;;;;;;;;;;1,000000;0,000000;0,000000;0,000000;0,000000;0,000000;0,000000;0,000000;0,000000;0,000000;0,469219;0,469219;0,000000;0,000000;0,000000;0,000000;0,000000;0,000000;0,000000;0,000000;0,000000;0,000000;0,000000;0,234870;0,000000;0,000000;0,000000;0,000000;0,000000;0,000000;0,000000;0,000000;0,000000;0,000000;0,000000;0,000000;0,000000;0,000000;0,000000;0,172532;0,000000;0,000000;0,000000;0,367017;0,000000;0,000000;0,660736;0,000000;0,000000;0,000000;0,000000;0,000000;0,000000;
34;;;;;;;;;;;;;;;;;;;;;;;;;;;;;;;;;;1,000000;0,752832;0,224525;0,227446;0,181044;0,181194;0,181344;0,181494;0,172342;0,000000;0,000000;0,260146;0,311495;0,233297;0,233418;0,592473;0,312664;0,721541;0,442348;0,236385;0,236485;0,236587;0,446023;0,531197;0,308282;0,213661;0,201317;0,224642;0,200844;0,211139;0,211317;0,456181;0,456379;0,239266;0,240661;0,000000;0,000000;0,000000;0,233877;0,235011;0,748406;0,236143;0,000000;0,325312;0,325312;0,000000;0,375055;0,326245;0,235723;0,203985;0,324829;0,320901;
35;;;;;;;;;;;;;;;;;;;;;;;;;;;;;;;;;;;1,000000;0,224835;0,227756;0,181354;0,181504;0,181654;0,181804;0,172652;0,000000;0,000000;0,260456;0,311805;0,233607;0,233728;0,592783;0,312973;0,721818;0,442625;0,236694;0,236795;0,236897;0,446300;0,531474;0,308592;0,213970;0,201626;0,224951;0,201153;0,211449;0,211627;0,456458;0,456656;0,239576;0,240971;0,000000;0,000000;0,000000;0,234187;0,235320;0,748901;0,236453;0,000000;0,325621;0,325621;0,000000;0,375365;0,326555;0,236033;0,204294;0,325138;0,321211;
36;;;;;;;;;;;;;;;;;;;;;;;;;;;;;;;;;;;;1,000000;0,623443;0,220623;0,220773;0,220923;0,221073;0,211921;0,000000;0,000000;0,299724;0,351073;0,272875;0,272996;0,632052;0,352242;0,336073;0,227015;0,275963;0,276063;0,276166;0,228996;0,264157;0,347861;0,539421;0,240895;0,264220;0,240422;0,250717;0,250895;0,234203;0,234386;0,278845;0,280239;0,000000;0,000000;0,000000;0,537488;1,000000;0,352525;0,275722;0,000000;0,364890;0,364890;0,000000;0,414633;0,365823;0,275302;0,243563;0,364407;0,360479;
37;;;;;;;;;;;;;;;;;;;;;;;;;;;;;;;;;;;;;1,000000;0,223544;0,223694;0,223844;0,223994;0,214842;0,000000;0,000000;0,302646;0,353994;0,275796;0,275918;0,634973;0,355163;0,338995;0,229937;0,278884;0,278985;0,279087;0,231917;0,267079;0,350782;0,395907;0,391078;0,395452;0,470005;0,253639;0,253817;0,237124;0,237307;0,281766;0,283160;0,000000;0,000000;0,000000;0,505226;0,633595;0,355446;0,278643;0,000000;0,367811;0,367811;0,000000;0,417555;0,368745;0,278223;0,246484;0,367328;0,363401;
38;;;;;;;;;;;;;;;;;;;;;;;;;;;;;;;;;;;;;;1,000000;0,824548;0,824977;0,825398;0,877641;0,000000;0,000000;0,256244;0,307592;0,229394;0,229516;0,588571;0,308761;0,292593;0,183535;0,232482;0,232583;0,232685;0,185515;0,220677;0,304380;0,209758;0,197414;0,220739;0,196941;0,207237;0,207415;0,190722;0,190905;0,235364;0,236758;0,000000;0,000000;0,000000;0,229975;0,231108;0,309044;0,232241;0,000000;0,321409;0,321409;0,000000;0,371153;0,322343;0,231821;0,200082;0,320926;0,316999;
39;;;;;;;;;;;;;;;;;;;;;;;;;;;;;;;;;;;;;;;1,000000;0,825398;0,825812;0,877941;0,000000;0,000000;0,256394;0,307742;0,229544;0,229666;0,588721;0,308911;0,292743;0,183685;0,232632;0,232733;0,232835;0,185665;0,220827;0,304530;0,209908;0,197564;0,220889;0,197091;0,207387;0,207565;0,190872;0,191055;0,235514;0,236908;0,000000;0,000000;0,000000;0,230125;0,231258;0,309194;0,232391;0,000000;0,321559;0,321559;0,000000;0,371303;0,322493;0,231971;0,200232;0,321076;0,317149;
40;;;;;;;;;;;;;;;;;;;;;;;;;;;;;;;;;;;;;;;;1,000000;0,826219;0,878236;0,000000;0,000000;0,256544;0,307892;0,229694;0,229816;0,588871;0,309061;0,292893;0,183835;0,232782;0,232883;0,232985;0,185815;0,220977;0,304680;0,210058;0,197714;0,221039;0,197241;0,207537;0,207715;0,191022;0,191205;0,235664;0,237058;0,000000;0,000000;0,000000;0,230275;0,231408;0,309344;0,232541;0,000000;0,321709;0,321709;0,000000;0,371453;0,322643;0,232121;0,200382;0,321226;0,317299;
41;;;;;;;;;;;;;;;;;;;;;;;;;;;;;;;;;;;;;;;;;1,000000;0,878526;0,000000;0,000000;0,256694;0,308042;0,229844;0,229966;0,589021;0,309211;0,293043;0,183985;0,232932;0,233033;0,233135;0,185965;0,221126;0,304830;0,210208;0,197864;0,221189;0,197391;0,207687;0,207865;0,191172;0,191355;0,235814;0,237208;0,000000;0,000000;0,000000;0,230424;0,231558;0,309494;0,232691;0,000000;0,321859;0,321859;0,000000;0,371602;0,322793;0,232271;0,200532;0,321376;0,317449;
42;;;;;;;;;;;;;;;;;;;;;;;;;;;;;;;;;;;;;;;;;;1,000000;0,000000;0,000000;0,247542;0,298890;0,220692;0,220814;0,579869;0,300059;0,283891;0,174833;0,223780;0,223881;0,223983;0,176813;0,211975;0,295678;0,201056;0,188712;0,212037;0,188239;0,198535;0,198713;0,182020;0,182203;0,226662;0,228056;0,000000;0,000000;0,000000;0,221273;0,222406;0,300342;0,223539;0,000000;0,312707;0,312707;0,000000;0,362451;0,313641;0,223119;0,191380;0,312224;0,308297;
43;;;;;;;;;;;;;;;;;;;;;;;;;;;;;;;;;;;;;;;;;;;1,000000;0,616966;0,000000;0,000000;0,000000;0,000000;0,000000;0,000000;0,000000;0,000000;0,000000;0,000000;0,000000;0,000000;0,000000;0,000000;0,000000;0,000000;0,000000;0,000000;0,000000;0,000000;0,000000;0,000000;0,000000;0,000000;0,000000;0,000000;0,000000;0,000000;0,000000;0,000000;0,000000;0,000000;0,000000;0,000000;0,808483;0,000000;0,000000;0,000000;0,000000;0,000000;0,000000;
44;;;;;;;;;;;;;;;;;;;;;;;;;;;;;;;;;;;;;;;;;;;;1,000000;0,000000;0,000000;0,000000;0,000000;0,000000;0,000000;0,000000;0,000000;0,000000;0,000000;0,000000;0,000000;0,000000;0,000000;0,000000;0,000000;0,000000;0,000000;0,000000;0,000000;0,000000;0,000000;0,000000;0,000000;0,000000;0,000000;0,000000;0,000000;0,000000;0,000000;0,000000;0,000000;0,000000;0,000000;0,808483;0,000000;0,000000;0,000000;0,000000;0,000000;0,000000;
45;;;;;;;;;;;;;;;;;;;;;;;;;;;;;;;;;;;;;;;;;;;;;1,000000;0,386694;0,607928;0,608171;0,667673;0,387863;0,371694;0,262636;0,311584;0,311684;0,311787;0,264617;0,299778;0,383482;0,288860;0,435750;0,442336;0,276043;0,286338;0,286516;0,269824;0,270007;0,589608;0,526632;0,000000;0,000000;0,000000;0,492257;0,310210;0,388146;0,559954;0,000000;0,400511;0,400511;0,000000;0,450254;0,401445;0,556844;0,514920;0,741119;0,396100;
46;;;;;;;;;;;;;;;;;;;;;;;;;;;;;;;;;;;;;;;;;;;;;;1,000000;0,836479;0,836479;0,719021;1,000000;0,423043;0,313985;0,362933;0,363033;0,363135;0,315966;0,351127;0,434830;0,340209;0,327865;0,351190;0,327392;0,337687;0,337865;0,321173;0,321355;0,844551;0,753179;0,000000;0,000000;0,000000;0,360425;0,361559;0,439495;0,362691;0,000000;0,451860;0,451860;0,000000;0,501603;0,452793;0,834325;0,330533;0,451377;1,000000;
47;;;;;;;;;;;;;;;;;;;;;;;;;;;;;;;;;;;;;;;;;;;;;;;1,000000;0,672958;0,640824;0,836479;0,344845;0,235787;0,284735;0,284835;0,284937;0,237768;0,272929;0,356632;0,262011;0,249667;0,272992;0,249194;0,259489;0,259667;0,242975;0,243158;0,681030;0,589658;0,000000;0,000000;0,000000;0,282227;0,283361;0,361297;0,284494;0,000000;0,373662;0,373662;0,000000;0,423405;0,374595;0,670804;0,252335;0,373179;0,836479;
48;;;;;;;;;;;;;;;;;;;;;;;;;;;;;;;;;;;;;;;;;;;;;;;;1,000000;0,640945;0,836479;0,344966;0,235908;0,284856;0,284956;0,285059;0,237889;0,273050;0,356754;0,262132;0,249788;0,273113;0,249315;0,259610;0,259788;0,243096;0,243279;0,681030;0,589658;0,000000;0,000000;0,000000;0,282348;0,283482;0,361418;0,284615;0,000000;0,373783;0,373783;0,000000;0,423526;0,374716;0,670804;0,252456;0,373300;0,836479;
49;;;;;;;;;;;;;;;;;;;;;;;;;;;;;;;;;;;;;;;;;;;;;;;;;1,000000;0,720190;0,704022;0,594964;0,643911;0,644012;0,644114;0,596944;0,632106;0,715809;0,621187;0,608843;0,632168;0,608370;0,618666;0,618844;0,602151;0,602334;0,646793;0,648188;0,000000;0,000000;0,000000;0,641404;0,642537;0,720473;0,643670;0,000000;0,732838;0,732838;0,000000;0,782582;0,733772;0,643250;0,611511;0,732355;0,728428;
50;;;;;;;;;;;;;;;;;;;;;;;;;;;;;;;;;;;;;;;;;;;;;;;;;;1,000000;0,424212;0,315154;0,364101;0,364202;0,364304;0,317135;0,352296;0,435999;0,341377;0,329034;0,352359;0,328561;0,338856;0,339034;0,322341;0,322524;0,844551;0,753179;0,000000;0,000000;0,000000;0,361594;0,362727;0,440664;0,363860;0,000000;0,453029;0,453029;0,000000;0,502772;0,453962;0,834325;0,331702;0,452546;1,000000;
51;;;;;;;;;;;;;;;;;;;;;;;;;;;;;;;;;;;;;;;;;;;;;;;;;;;1,000000;0,720807;0,347933;0,348033;0,348136;0,724482;0,809656;0,419831;0,325209;0,312865;0,336190;0,312392;0,322687;0,322865;0,734639;0,734838;0,350815;0,352209;0,000000;0,000000;0,000000;0,345425;0,346559;0,424495;0,347692;0,000000;0,436860;0,436860;0,000000;0,486603;0,437793;0,347272;0,315533;0,436377;0,432449;
52;;;;;;;;;;;;;;;;;;;;;;;;;;;;;;;;;;;;;;;;;;;;;;;;;;;;1,000000;0,238875;0,238975;0,239078;0,445288;0,530463;0,310773;0,216151;0,203807;0,227132;0,203334;0,213629;0,213807;0,455446;0,455645;0,241757;0,243151;0,000000;0,000000;0,000000;0,236367;0,237501;0,315437;0,238634;0,000000;0,327802;0,327802;0,000000;0,377545;0,328735;0,238214;0,206475;0,327319;0,323391;
53;;;;;;;;;;;;;;;;;;;;;;;;;;;;;;;;;;;;;;;;;;;;;;;;;;;;;1,000000;0,773522;0,773870;0,240855;0,276017;0,359720;0,265098;0,252755;0,276079;0,252281;0,262577;0,262755;0,246062;0,246245;0,290704;0,292099;0,000000;0,000000;0,000000;0,285315;0,286448;0,364384;0,287581;0,000000;0,376749;0,376749;0,000000;0,426493;0,377683;0,287161;0,255422;0,376266;0,372339;
54;;;;;;;;;;;;;;;;;;;;;;;;;;;;;;;;;;;;;;;;;;;;;;;;;;;;;;1,000000;0,774214;0,240956;0,276117;0,359821;0,265199;0,252855;0,276180;0,252382;0,262677;0,262855;0,246163;0,246346;0,290805;0,292199;0,000000;0,000000;0,000000;0,285415;0,286549;0,364485;0,287682;0,000000;0,376850;0,376850;0,000000;0,426593;0,377783;0,287262;0,255523;0,376367;0,372439;
55;;;;;;;;;;;;;;;;;;;;;;;;;;;;;;;;;;;;;;;;;;;;;;;;;;;;;;;1,000000;0,241058;0,276219;0,359923;0,265301;0,252957;0,276282;0,252484;0,262780;0,262958;0,246265;0,246448;0,290907;0,292301;0,000000;0,000000;0,000000;0,285517;0,286651;0,364587;0,287784;0,000000;0,376952;0,376952;0,000000;0,426695;0,377886;0,287364;0,255625;0,376469;0,372542;
56;;;;;;;;;;;;;;;;;;;;;;;;;;;;;;;;;;;;;;;;;;;;;;;;;;;;;;;;1,000000;0,534138;0,312753;0,218131;0,205788;0,229113;0,205315;0,215610;0,215788;0,459121;0,459320;0,243737;0,245132;0,000000;0,000000;0,000000;0,430388;0,239481;0,317418;0,240614;0,367249;0,329782;0,329782;0,000000;0,379526;0,330716;0,240194;0,208456;0,329299;0,325372;
57;;;;;;;;;;;;;;;;;;;;;;;;;;;;;;;;;;;;;;;;;;;;;;;;;;;;;;;;;1,000000;0,347914;0,253293;0,240949;0,264274;0,240476;0,599499;0,599639;0,877773;0,877773;0,278899;0,280293;0,000000;0,000000;0,000000;0,273509;0,274643;0,352579;0,275776;0,000000;0,364944;0,364944;0,000000;0,414687;0,365877;0,275356;0,243617;0,364461;0,360533;
58;;;;;;;;;;;;;;;;;;;;;;;;;;;;;;;;;;;;;;;;;;;;;;;;;;;;;;;;;;1,000000;0,336996;0,324652;0,347977;0,324179;0,334475;0,334653;0,317960;0,318143;0,362602;0,363996;0,000000;0,000000;0,000000;0,357212;0,358346;0,436282;0,359479;0,000000;0,448647;0,448647;0,000000;0,498390;0,449581;0,359059;0,327320;0,448164;0,444237;
59;;;;;;;;;;;;;;;;;;;;;;;;;;;;;;;;;;;;;;;;;;;;;;;;;;;;;;;;;;;1,000000;0,672097;0,659805;0,708585;0,239853;0,240031;0,223338;0,223521;0,267980;0,570465;0,000000;0,000000;0,000000;0,262591;0,552619;0,341660;0,264857;0,000000;0,354025;0,354025;0,000000;0,625245;0,354959;0,264437;0,712064;0,353542;0,349615;
60;;;;;;;;;;;;;;;;;;;;;;;;;;;;;;;;;;;;;;;;;;;;;;;;;;;;;;;;;;;;1,000000;0,802930;0,751504;0,227509;0,227687;0,210995;0,211177;0,543120;0,627400;0,000000;0,000000;0,000000;0,250247;0,251381;0,329317;0,252513;0,000000;0,341682;0,341682;0,000000;0,681799;0,342615;0,252093;0,742540;0,694631;0,337271;
61;;;;;;;;;;;;;;;;;;;;;;;;;;;;;;;;;;;;;;;;;;;;;;;;;;;;;;;;;;;;;1,000000;0,739551;0,250834;0,251012;0,234319;0,234502;0,549707;0,614859;0,000000;0,000000;0,000000;0,273572;0,274705;0,352642;0,275838;0,000000;0,365006;0,365006;0,000000;0,414750;0,717175;0,275418;0,731455;0,701218;0,360596;
62;;;;;;;;;;;;;;;;;;;;;;;;;;;;;;;;;;;;;;;;;;;;;;;;;;;;;;;;;;;;;;1,000000;0,227036;0,227214;0,210521;0,210704;0,255163;0,668055;0,000000;0,000000;0,000000;0,249774;0,250908;0,328844;0,252040;0,000000;0,341209;0,341209;0,000000;0,680552;0,342142;0,251620;0,809655;0,340726;0,336798;
63;;;;;;;;;;;;;;;;;;;;;;;;;;;;;;;;;;;;;;;;;;;;;;;;;;;;;;;;;;;;;;;1,000000;0,738501;0,526961;0,527192;0,265459;0,266853;0,000000;0,000000;0,000000;0,260069;0,261203;0,339139;0,262336;0,000000;0,351504;0,351504;0,000000;0,401247;0,352437;0,261916;0,230177;0,351021;0,347093;
64;;;;;;;;;;;;;;;;;;;;;;;;;;;;;;;;;;;;;;;;;;;;;;;;;;;;;;;;;;;;;;;;1,000000;0,527101;0,527332;0,265637;0,267031;0,000000;0,000000;0,000000;0,260247;0,261381;0,339317;0,262514;0,000000;0,351682;0,351682;0,000000;0,401425;0,352616;0,262094;0,230355;0,351199;0,347271;
65;;;;;;;;;;;;;;;;;;;;;;;;;;;;;;;;;;;;;;;;;;;;;;;;;;;;;;;;;;;;;;;;;1,000000;0,755546;0,248944;0,250339;0,000000;0,000000;0,000000;0,243555;0,244688;0,322624;0,245821;0,000000;0,334989;0,334989;0,000000;0,384733;0,335923;0,245401;0,213662;0,334506;0,330579;
66;;;;;;;;;;;;;;;;;;;;;;;;;;;;;;;;;;;;;;;;;;;;;;;;;;;;;;;;;;;;;;;;;;1,000000;0,249127;0,250522;0,000000;0,000000;0,000000;0,243738;0,244871;0,322807;0,246004;0,000000;0,335172;0,335172;0,000000;0,384916;0,336106;0,245584;0,213845;0,334689;0,330762;
67;;;;;;;;;;;;;;;;;;;;;;;;;;;;;;;;;;;;;;;;;;;;;;;;;;;;;;;;;;;;;;;;;;;1,000000;0,597730;0,000000;0,000000;0,000000;0,288197;0,289330;0,367266;0,290463;0,000000;0,379631;0,379631;0,000000;0,429375;0,380565;0,678877;0,622290;0,848489;0,844551;
68;;;;;;;;;;;;;;;;;;;;;;;;;;;;;;;;;;;;;;;;;;;;;;;;;;;;;;;;;;;;;;;;;;;;1,000000;0,000000;0,000000;0,000000;0,289591;0,290725;0,368661;0,291858;0,000000;0,381026;0,381026;0,000000;0,614515;0,381959;0,587504;0,671534;0,380543;0,753179;
69;;;;;;;;;;;;;;;;;;;;;;;;;;;;;;;;;;;;;;;;;;;;;;;;;;;;;;;;;;;;;;;;;;;;;1,000000;0,780676;0,780925;0,000000;0,000000;0,000000;0,000000;0,000000;0,000000;0,000000;0,000000;0,000000;0,000000;0,000000;0,000000;0,000000;0,000000;
70;;;;;;;;;;;;;;;;;;;;;;;;;;;;;;;;;;;;;;;;;;;;;;;;;;;;;;;;;;;;;;;;;;;;;;1,000000;0,781171;0,000000;0,000000;0,000000;0,000000;0,000000;0,000000;0,000000;0,000000;0,000000;0,000000;0,000000;0,000000;0,000000;0,000000;
71;;;;;;;;;;;;;;;;;;;;;;;;;;;;;;;;;;;;;;;;;;;;;;;;;;;;;;;;;;;;;;;;;;;;;;;1,000000;0,000000;0,000000;0,000000;0,000000;0,000000;0,000000;0,000000;0,000000;0,000000;0,000000;0,000000;0,000000;0,000000;0,000000;
72;;;;;;;;;;;;;;;;;;;;;;;;;;;;;;;;;;;;;;;;;;;;;;;;;;;;;;;;;;;;;;;;;;;;;;;;1,000000;0,547639;0,361877;0,637671;0,304910;0,374242;0,374242;0,000000;0,423985;0,375175;0,634562;0,252915;0,373759;0,369831;
73;;;;;;;;;;;;;;;;;;;;;;;;;;;;;;;;;;;;;;;;;;;;;;;;;;;;;;;;;;;;;;;;;;;;;;;;;1,000000;0,363011;0,286207;0,000000;0,375375;0,375375;0,000000;0,425119;0,376309;0,285787;0,254049;0,374892;0,370965;
74;;;;;;;;;;;;;;;;;;;;;;;;;;;;;;;;;;;;;;;;;;;;;;;;;;;;;;;;;;;;;;;;;;;;;;;;;;1,000000;0,364143;0,000000;0,453312;0,453312;0,000000;0,503055;0,454245;0,363723;0,331985;0,452829;0,448901;
75;;;;;;;;;;;;;;;;;;;;;;;;;;;;;;;;;;;;;;;;;;;;;;;;;;;;;;;;;;;;;;;;;;;;;;;;;;;1,000000;0,000000;0,376508;0,376508;0,000000;0,426252;0,377442;0,702259;0,255181;0,376025;0,372098;
76;;;;;;;;;;;;;;;;;;;;;;;;;;;;;;;;;;;;;;;;;;;;;;;;;;;;;;;;;;;;;;;;;;;;;;;;;;;;1,000000;0,000000;0,000000;0,000000;0,000000;0,000000;0,000000;0,000000;0,000000;0,000000;
77;;;;;;;;;;;;;;;;;;;;;;;;;;;;;;;;;;;;;;;;;;;;;;;;;;;;;;;;;;;;;;;;;;;;;;;;;;;;;1,000000;0,465676;0,000000;0,515420;0,466610;0,376088;0,344350;0,465193;0,461266;
78;;;;;;;;;;;;;;;;;;;;;;;;;;;;;;;;;;;;;;;;;;;;;;;;;;;;;;;;;;;;;;;;;;;;;;;;;;;;;;1,000000;0,000000;0,515420;0,466610;0,376088;0,344350;0,465193;0,461266;
79;;;;;;;;;;;;;;;;;;;;;;;;;;;;;;;;;;;;;;;;;;;;;;;;;;;;;;;;;;;;;;;;;;;;;;;;;;;;;;;1,000000;0,000000;0,000000;0,000000;0,000000;0,000000;0,000000;
80;;;;;;;;;;;;;;;;;;;;;;;;;;;;;;;;;;;;;;;;;;;;;;;;;;;;;;;;;;;;;;;;;;;;;;;;;;;;;;;;1,000000;0,516353;0,425832;0,685349;0,514937;0,511009;
81;;;;;;;;;;;;;;;;;;;;;;;;;;;;;;;;;;;;;;;;;;;;;;;;;;;;;;;;;;;;;;;;;;;;;;;;;;;;;;;;;1,000000;0,377022;0,345283;0,466127;0,462199;
82;;;;;;;;;;;;;;;;;;;;;;;;;;;;;;;;;;;;;;;;;;;;;;;;;;;;;;;;;;;;;;;;;;;;;;;;;;;;;;;;;;1,000000;0,254761;0,375605;0,834325;
83;;;;;;;;;;;;;;;;;;;;;;;;;;;;;;;;;;;;;;;;;;;;;;;;;;;;;;;;;;;;;;;;;;;;;;;;;;;;;;;;;;;1,000000;0,773802;0,339939;
84;;;;;;;;;;;;;;;;;;;;;;;;;;;;;;;;;;;;;;;;;;;;;;;;;;;;;;;;;;;;;;;;;;;;;;;;;;;;;;;;;;;;1,000000;0,460783;
85;;;;;;;;;;;;;;;;;;;;;;;;;;;;;;;;;;;;;;;;;;;;;;;;;;;;;;;;;;;;;;;;;;;;;;;;;;;;;;;;;;;;;1,000000;
