;1; 2; 3; 4; 5; 6; 7; 8; 9; 10; 11; 12; 13; 14; 15; 16; 17; 18; 19; 20; 21; 22; 23; 24; 25; 26; 27; 28; 29; 30; 31; 32; 33; 34; 35; 36; 37; 38; 39; 40; 41; 42; 43; 44; 45; 46; 47; 48; 49; 50; 51; 52; 53; 54; 55; 56; 57; 58; 59; 60; 61; 62; 63; 64; 65; 66; 67; 68; 69; 70; 71; 72; 73; 74; 75; 76; 77; 78; 79; 80; 81; 82; 83; 84; 85
1;1,000000;0,686813;0,741606;0,676093;0,503645;0,741606;0,732065;0,741499;0,659329;0,545852;0,692509;0,755416;0,790434;0,649238;0,496927;0,787988;0,776563;0,658231;0,778969;0,778969;0,778969;0,778969;0,704752;0,707555;0,725881;0,502542;0,776563;0,496927;0,750188;0,486660;0,469641;0,401090;0,401090;0,420521;0,699048;0,659103;0,658232;0,496927;0,496927;0,486328;0,979070;0,494066;0,496927;0,336213;0,336213;0,649238;0,959583;0,494066;0,494066;0,791623;0,500456;0,979878;0,496927;0,496927;0,496927;0,959583;0,207641;0,207641;0,207641;0,207641;0,207641;0,791049;0,496927;0,255856;0,494066;0,581395;0,496927;0,336213;0,336213;0,336213;0,979070;0,979070;0,496927;0,496927;0,979070;0,981021;0,649238;0,658946;0,959583;0,979070;0,496927;0,979070;0,496927;0,496927;0,496927;
2;;1,000000;0,747027;0,695579;0,655106;0,747027;0,728407;0,748102;0,704263;0,551657;0,629955;0,621337;0,732579;0,500000;0,501437;0,660095;0,514876;0,665095;0,794843;0,794843;0,794843;0,794843;0,724859;0,666667;0,741856;0,595988;0,500000;0,503079;0,512005;0,623568;0,589710;0,799336;0,799336;0,750181;0,760213;0,664627;0,664352;0,500000;0,500000;0,525504;0,000000;0,501221;0,500000;0,668398;0,668398;0,500000;0,000000;0,500000;0,500000;0,797699;0,626006;0,499196;0,499510;0,500000;0,500000;0,000000;0,800000;0,800000;0,800000;0,800000;0,800000;0,797218;0,499258;0,748581;0,501709;0,500000;0,500044;0,666667;0,666667;0,666667;0,000000;0,000000;0,500000;0,500000;0,000000;0,498218;0,500000;0,664719;0,000000;0,000000;0,501437;0,000000;0,499102;0,500000;0,500000;
3;;;1,000000;0,728293;0,717315;0,750000;0,498332;0,500000;0,513249;0,509471;0,502417;0,503761;0,505765;0,388889;0,375000;0,338288;0,336735;0,583333;0,233333;0,233333;0,233333;0,233333;0,254607;0,324686;0,251384;0,315596;0,336735;0,375000;0,360000;0,266574;0,264585;0,225000;0,225000;0,252783;0,459605;0,291667;0,291667;0,375000;0,375000;0,281886;0,625000;0,333333;0,375000;0,291667;0,291667;0,388889;0,500000;0,333333;0,333333;0,225000;0,282456;0,375000;0,375000;0,375000;0,375000;0,500000;0,225000;0,225000;0,225000;0,225000;0,225000;0,450000;0,375000;0,250000;0,333333;0,337500;0,375000;0,291667;0,291667;0,291667;0,625000;0,625000;0,375000;0,375000;0,625000;0,375000;0,388889;0,291667;0,500000;0,625000;0,375000;0,625000;0,375000;0,375000;0,375000;
4;;;;1,000000;0,569242;0,728293;0,617065;0,738320;0,701320;0,512790;0,683350;0,747164;0,736138;0,627206;0,489453;0,757967;0,706889;0,648615;0,406804;0,406804;0,406804;0,406804;0,628086;0,646644;0,637247;0,482197;0,706889;0,489453;0,701317;0,441201;0,427878;0,208203;0,208203;0,419988;0,619948;0,967110;0,653615;0,489453;0,489453;0,449780;0,958203;0,480148;0,489453;0,333203;0,333203;0,627206;0,921324;0,480148;0,480148;0,592110;0,617625;0,960444;0,489453;0,489453;0,489453;0,921324;0,208203;0,208203;0,208203;0,208203;0,208203;0,786515;0,966115;0,494956;0,480148;0,555209;0,489453;0,333203;0,333203;0,333203;0,958203;0,958203;0,489453;0,489453;0,958203;0,963504;0,627206;0,653615;0,921324;0,958203;0,489453;0,958203;0,489453;0,489453;0,489453;
5;;;;;1,000000;0,717315;0,498145;0,500933;0,614816;0,459923;0,661554;0,621875;0,651843;0,558287;0,468305;0,635029;0,547774;0,641479;0,410685;0,410685;0,410685;0,410685;0,489064;0,514036;0,477209;0,612693;0,547774;0,468305;0,570764;0,364361;0,358243;0,228305;0,228305;0,420646;0,539547;0,619745;0,619745;0,468305;0,468305;0,634224;0,868305;0,447176;0,468305;0,334972;0,334972;0,558287;0,780509;0,447176;0,447176;0,406411;0,556357;0,468305;0,908146;0,468305;0,468305;0,780509;0,228305;0,228305;0,228305;0,228305;0,228305;0,420933;0,886411;0,268305;0,447176;0,489226;0,468305;0,334972;0,334972;0,334972;0,868305;0,868305;0,468305;0,468305;0,868305;0,468305;0,558287;0,619745;0,780509;0,868305;0,468305;0,868305;0,468305;0,468305;0,468305;
6;;;;;;1,000000;0,498332;0,500000;0,513249;0,509471;0,502417;0,503761;0,505765;0,388889;0,375000;0,338288;0,336735;0,583333;0,233333;0,233333;0,233333;0,233333;0,254607;0,324686;0,251384;0,315596;0,336735;0,375000;0,360000;0,266574;0,264585;0,225000;0,225000;0,252783;0,459605;0,291667;0,291667;0,375000;0,375000;0,281886;0,625000;0,333333;0,375000;0,291667;0,291667;0,388889;0,500000;0,333333;0,333333;0,225000;0,282456;0,375000;0,375000;0,375000;0,375000;0,500000;0,225000;0,225000;0,225000;0,225000;0,225000;0,450000;0,375000;0,250000;0,333333;0,337500;0,375000;0,291667;0,291667;0,291667;0,625000;0,625000;0,375000;0,375000;0,625000;0,375000;0,388889;0,291667;0,500000;0,625000;0,375000;0,625000;0,375000;0,375000;0,375000;
7;;;;;;;1,000000;0,744646;0,679477;0,341156;0,502248;0,506279;0,650389;0,552838;0,461378;0,503362;0,535938;0,322489;0,219505;0,219505;0,219505;0,219505;0,362849;0,497600;0,379583;0,420841;0,535938;0,461378;0,563674;0,541801;0,529455;0,564619;0,564619;0,464890;0,580463;0,608346;0,322489;0,461378;0,461378;0,366944;0,878045;0,433791;0,461378;0,322489;0,322489;0,552838;0,790934;0,433791;0,433791;0,386124;0,549898;0,461378;0,461378;0,461378;0,461378;0,790934;0,211378;0,211378;0,211378;0,211378;0,211378;0,794317;0,461378;0,689619;0,433791;0,475600;0,461378;0,322489;0,322489;0,322489;0,878045;0,878045;0,461378;0,461378;0,878045;0,461378;0,552838;0,322489;0,790934;0,878045;0,461378;0,878045;0,887445;0,461378;0,461378;
8;;;;;;;;1,000000;0,754992;0,274150;0,502417;0,503761;0,719280;0,388889;0,375000;0,338288;0,336735;0,291667;0,233333;0,233333;0,233333;0,233333;0,254607;0,324686;0,251384;0,315596;0,336735;0,375000;0,360000;0,495435;0,493303;0,225000;0,225000;0,252783;0,886254;0,291667;0,291667;0,375000;0,375000;0,281886;0,625000;0,333333;0,375000;0,291667;0,291667;0,388889;0,500000;0,333333;0,333333;0,225000;0,282456;0,375000;0,375000;0,375000;0,375000;0,500000;0,225000;0,225000;0,225000;0,225000;0,225000;0,900000;0,375000;0,500000;0,333333;0,337500;0,375000;0,291667;0,291667;0,291667;0,625000;0,625000;0,375000;0,375000;0,625000;0,375000;0,388889;0,291667;0,500000;0,625000;0,375000;0,625000;0,375000;0,375000;0,375000;
9;;;;;;;;;1,000000;0,364138;0,770342;0,741017;0,678721;0,574093;0,470910;0,640640;0,576757;0,328053;0,386150;0,386150;0,386150;0,386150;0,555384;0,534585;0,574830;0,440380;0,576757;0,470910;0,598548;0,476801;0,468274;0,213767;0,213767;0,397356;0,706385;0,912086;0,620657;0,470910;0,470910;0,392703;0,899481;0,449093;0,470910;0,328053;0,328053;0,574093;0,824093;0,449093;0,449093;0,569229;0,547921;0,470910;0,470910;0,470910;0,470910;0,824093;0,213767;0,213767;0,213767;0,213767;0,213767;0,803693;0,906371;0,498824;0,449093;0,498790;0,470910;0,328053;0,328053;0,328053;0,899481;0,899481;0,470910;0,470910;0,899481;0,470910;0,574093;0,620657;0,824093;0,899481;0,470910;0,899481;0,470910;0,470910;0,470910;
10;;;;;;;;;;1,000000;0,355779;0,421904;0,329426;0,617007;0,492900;0,601169;0,666092;0,655304;0,254044;0,254044;0,254044;0,254044;0,334914;0,620677;0,311836;0,803238;0,666092;0,492900;0,670254;0,431185;0,422485;0,230400;0,230400;0,299427;0,314178;0,347067;0,347067;0,492900;0,492900;0,576836;0,930400;0,487378;0,492900;0,347067;0,347067;0,617007;0,876267;0,487378;0,487378;0,230400;0,398837;0,492900;0,492900;0,492900;0,492900;0,876267;0,230400;0,230400;0,230400;0,230400;0,230400;0,230400;0,492900;0,274150;0,487378;0,552960;0,963974;0,347067;0,347067;0,347067;0,930400;0,930400;0,492900;0,492900;0,930400;0,492900;0,617007;0,347067;0,876267;0,930400;0,492900;0,930400;0,492900;0,492900;0,492900;
11;;;;;;;;;;;1,000000;0,810532;0,827441;0,560001;0,465556;0,694208;0,549612;0,326667;0,432705;0,432705;0,432705;0,432705;0,532025;0,511274;0,512346;0,430242;0,549612;0,465556;0,574816;0,337051;0,329949;0,215556;0,215556;0,443377;0,595952;0,641300;0,641300;0,465556;0,465556;0,381568;0,882223;0,440953;0,465556;0,326667;0,326667;0,560001;0,798096;0,440953;0,440953;0,419078;0,598914;0,898362;0,465556;0,465556;0,465556;0,798096;0,215556;0,215556;0,215556;0,215556;0,215556;0,419083;0,919078;0,257223;0,440953;0,485001;0,465556;0,326667;0,326667;0,326667;0,882223;0,882223;0,465556;0,465556;0,882223;0,465556;0,560001;0,641300;0,798096;0,882223;0,465556;0,882223;0,465556;0,465556;0,465556;
12;;;;;;;;;;;;1,000000;0,803528;0,592388;0,484449;0,698445;0,611442;0,345560;0,435428;0,435428;0,435428;0,435428;0,536262;0,573104;0,515921;0,472750;0,611442;0,484449;0,625196;0,409923;0,402821;0,234449;0,234449;0,446101;0,556273;0,642889;0,642889;0,484449;0,484449;0,447692;0,901115;0,473341;0,484449;0,345560;0,345560;0,592388;0,830483;0,473341;0,473341;0,420667;0,602489;0,484449;0,484449;0,484449;0,484449;0,830483;0,234449;0,234449;0,234449;0,234449;0,234449;0,420427;0,920667;0,276115;0,473341;0,527510;0,484449;0,345560;0,345560;0,345560;0,901115;0,901115;0,484449;0,484449;0,901115;0,920208;0,592388;0,642889;0,830483;0,901115;0,484449;0,901115;0,484449;0,484449;0,484449;
13;;;;;;;;;;;;;1,000000;0,532582;0,452882;0,640030;0,501504;0,319549;0,414020;0,414020;0,414020;0,414020;0,494066;0,467767;0,481496;0,406111;0,501504;0,452882;0,532206;0,310973;0,304855;0,212882;0,212882;0,423980;0,655143;0,621745;0,621745;0,452882;0,452882;0,351932;0,852882;0,421471;0,452882;0,319549;0,319549;0,532582;0,754804;0,421471;0,421471;0,408412;0,560644;0,876015;0,452882;0,452882;0,452882;0,754804;0,212882;0,212882;0,212882;0,212882;0,212882;0,599280;0,888412;0,252882;0,421471;0,456176;0,452882;0,319549;0,319549;0,319549;0,852882;0,852882;0,452882;0,452882;0,852882;0,876015;0,532582;0,621745;0,754804;0,852882;0,452882;0,852882;0,452882;0,452882;0,452882;
14;;;;;;;;;;;;;;1,000000;0,555556;0,674924;0,714286;0,444444;0,433333;0,433333;0,433333;0,433333;0,535457;0,693200;0,502215;0,604954;0,714286;0,555556;0,711111;0,621043;0,617428;0,355556;0,355556;0,462508;0,524595;0,444444;0,444444;0,555556;0,555556;0,630761;0,888889;0,583333;0,555556;0,444444;0,444444;0,666667;0,833333;0,583333;0,583333;0,355556;0,551930;0,555556;0,555556;0,555556;0,555556;0,833333;0,355556;0,355556;0,355556;0,355556;0,355556;0,355556;0,555556;0,388889;0,583333;0,640000;0,555556;0,444444;0,444444;0,444444;0,888889;0,888889;0,555556;0,555556;0,888889;0,555556;0,666667;0,444444;0,833333;0,888889;0,555556;0,888889;0,555556;0,555556;0,555556;
15;;;;;;;;;;;;;;;1,000000;0,538288;0,551020;0,416667;0,400000;0,400000;0,400000;0,400000;0,454607;0,538971;0,438884;0,503096;0,551020;0,500000;0,560000;0,491574;0,489585;0,350000;0,350000;0,419450;0,448090;0,416667;0,416667;0,500000;0,500000;0,500636;0,750000;0,500000;0,500000;0,416667;0,416667;0,555556;0,666667;0,500000;0,500000;0,350000;0,469956;0,500000;0,500000;0,500000;0,500000;0,666667;0,350000;0,350000;0,350000;0,350000;0,350000;0,350000;0,500000;0,375000;0,500000;0,525000;0,500000;0,416667;0,416667;0,416667;0,750000;0,750000;0,500000;0,500000;0,750000;0,500000;0,555556;0,416667;0,666667;0,750000;0,500000;0,750000;0,500000;0,500000;0,500000;
16;;;;;;;;;;;;;;;;1,000000;0,757720;0,404954;0,546001;0,546001;0,546001;0,546001;0,692037;0,723982;0,866635;0,589122;0,757720;0,538288;0,745719;0,606607;0,600488;0,298288;0,298288;0,555962;0,777862;0,700934;0,700934;0,538288;0,538288;0,623676;0,938288;0,563813;0,538288;0,404954;0,404954;0,674924;0,897146;0,563813;0,563813;0,680000;0,730334;0,538288;0,538288;0,538288;0,538288;0,897146;0,298288;0,298288;0,298288;0,298288;0,298288;0,298288;0,967600;0,338288;0,563813;0,639188;0,538288;0,404954;0,404954;0,404954;0,938288;0,938288;0,538288;0,538288;0,938288;0,538288;0,674924;0,700934;0,897146;0,938288;0,538288;0,938288;0,538288;0,538288;0,538288;
17;;;;;;;;;;;;;;;;;1,000000;0,408163;0,364286;0,364286;0,364286;0,364286;0,506679;0,814971;0,456072;0,627305;0,857143;0,551020;0,822857;0,680581;0,672627;0,293878;0,293878;0,408048;0,487127;0,408163;0,408163;0,551020;0,551020;0,694658;0,979592;0,589286;0,551020;0,408163;0,408163;0,714286;0,964286;0,589286;0,589286;0,293878;0,538930;0,551020;0,551020;0,551020;0,551020;0,964286;0,293878;0,293878;0,293878;0,293878;0,293878;0,293878;0,551020;0,336735;0,589286;0,685714;0,551020;0,408163;0,408163;0,408163;0,979592;0,979592;0,551020;0,551020;0,979592;0,551020;0,714286;0,408163;0,964286;0,979592;0,551020;0,979592;0,551020;0,551020;0,551020;
18;;;;;;;;;;;;;;;;;;1,000000;0,288889;0,288889;0,288889;0,288889;0,321274;0,396114;0,313884;0,666667;0,408163;0,416667;0,426667;0,341574;0,339585;0,266667;0,266667;0,308339;0,314757;0,333333;0,333333;0,416667;0,416667;0,683064;0,666667;0,388889;0,416667;0,333333;0,333333;0,444444;0,555556;0,388889;0,388889;0,266667;0,344956;0,416667;0,833333;0,416667;0,416667;0,555556;0,266667;0,266667;0,266667;0,266667;0,266667;0,266667;0,416667;0,291667;0,388889;0,400000;0,416667;0,333333;0,333333;0,333333;0,666667;0,666667;0,416667;0,416667;0,666667;0,416667;0,444444;0,333333;0,555556;0,666667;0,416667;0,666667;0,416667;0,416667;0,416667;
19;;;;;;;;;;;;;;;;;;;1,000000;0,800000;0,800000;0,800000;0,448691;0,343200;0,444430;0,324954;0,364286;0,400000;0,400000;0,239225;0,235610;0,200000;0,200000;0,407471;0,410721;0,577778;0,577778;0,400000;0,400000;0,267798;0,733333;0,350000;0,400000;0,288889;0,288889;0,433333;0,600000;0,350000;0,350000;0,400000;0,499833;0,400000;0,400000;0,400000;0,400000;0,600000;0,200000;0,200000;0,200000;0,200000;0,200000;0,200000;0,800000;0,233333;0,350000;0,360000;0,400000;0,288889;0,288889;0,288889;0,733333;0,733333;0,400000;0,400000;0,733333;0,400000;0,433333;0,577778;0,600000;0,733333;0,400000;0,733333;0,400000;0,400000;0,400000;
20;;;;;;;;;;;;;;;;;;;;1,000000;0,800000;0,800000;0,448691;0,343200;0,444430;0,324954;0,364286;0,400000;0,400000;0,239225;0,235610;0,200000;0,200000;0,407471;0,410721;0,577778;0,577778;0,400000;0,400000;0,267798;0,733333;0,350000;0,400000;0,288889;0,288889;0,433333;0,600000;0,350000;0,350000;0,400000;0,499833;0,400000;0,400000;0,400000;0,400000;0,600000;0,200000;0,200000;0,200000;0,200000;0,200000;0,200000;0,800000;0,233333;0,350000;0,360000;0,400000;0,288889;0,288889;0,288889;0,733333;0,733333;0,400000;0,400000;0,733333;0,400000;0,433333;0,577778;0,600000;0,733333;0,400000;0,733333;0,400000;0,400000;0,400000;
21;;;;;;;;;;;;;;;;;;;;;1,000000;0,800000;0,448691;0,343200;0,444430;0,324954;0,364286;0,400000;0,400000;0,239225;0,235610;0,200000;0,200000;0,407471;0,410721;0,577778;0,577778;0,400000;0,400000;0,267798;0,733333;0,350000;0,400000;0,288889;0,288889;0,433333;0,600000;0,350000;0,350000;0,400000;0,499833;0,400000;0,400000;0,400000;0,400000;0,600000;0,200000;0,200000;0,200000;0,200000;0,200000;0,200000;0,800000;0,233333;0,350000;0,360000;0,400000;0,288889;0,288889;0,288889;0,733333;0,733333;0,400000;0,400000;0,733333;0,400000;0,433333;0,577778;0,600000;0,733333;0,400000;0,733333;0,400000;0,400000;0,400000;
22;;;;;;;;;;;;;;;;;;;;;;1,000000;0,448691;0,343200;0,444430;0,324954;0,364286;0,400000;0,400000;0,239225;0,235610;0,200000;0,200000;0,407471;0,410721;0,577778;0,577778;0,400000;0,400000;0,267798;0,733333;0,350000;0,400000;0,288889;0,288889;0,433333;0,600000;0,350000;0,350000;0,400000;0,499833;0,400000;0,400000;0,400000;0,400000;0,600000;0,200000;0,200000;0,200000;0,200000;0,200000;0,200000;0,800000;0,233333;0,350000;0,360000;0,400000;0,288889;0,288889;0,288889;0,733333;0,733333;0,400000;0,400000;0,733333;0,400000;0,433333;0,577778;0,600000;0,733333;0,400000;0,733333;0,400000;0,400000;0,400000;
23;;;;;;;;;;;;;;;;;;;;;;;1,000000;0,472942;0,740217;0,409807;0,506679;0,454607;0,536518;0,316944;0,310826;0,214607;0,214607;0,458652;0,710661;0,933848;0,642548;0,454607;0,454607;0,357420;0,854607;0,424345;0,454607;0,321274;0,321274;0,535457;0,757679;0,424345;0,424345;0,814312;0,605221;0,454607;0,454607;0,454607;0,454607;0,757679;0,214607;0,214607;0,214607;0,214607;0,214607;0,399947;0,909215;0,254607;0,424345;0,459873;0,454607;0,321274;0,321274;0,321274;0,854607;0,854607;0,454607;0,454607;0,854607;0,454607;0,535457;0,642548;0,757679;0,854607;0,454607;0,854607;0,454607;0,454607;0,454607;
24;;;;;;;;;;;;;;;;;;;;;;;;1,000000;0,427958;0,599190;0,814971;0,538971;0,789120;0,629975;0,622021;0,281828;0,281828;0,386962;0,453390;0,396114;0,396114;0,538971;0,538971;0,649242;0,967543;0,568200;0,538971;0,696589;0,696589;0,693200;0,943200;0,568200;0,568200;0,281828;0,510816;0,538971;0,538971;0,538971;0,538971;0,943200;0,281828;0,281828;0,281828;0,281828;0,281828;0,281828;0,538971;0,324686;0,568200;0,657600;0,538971;0,396114;0,396114;0,396114;0,967543;0,967543;0,538971;0,538971;0,967543;0,538971;0,693200;0,396114;0,943200;0,967543;0,538971;0,967543;0,538971;0,538971;0,538971;
25;;;;;;;;;;;;;;;;;;;;;;;;;1,000000;0,383961;0,456072;0,438884;0,488878;0,295587;0,290616;0,213884;0,213884;0,453394;0,744521;0,917486;0,627768;0,438884;0,438884;0,330403;0,813884;0,402215;0,438884;0,313884;0,313884;0,502215;0,702215;0,402215;0,402215;0,831039;0,580328;0,438884;0,438884;0,438884;0,438884;0,702215;0,213884;0,213884;0,213884;0,213884;0,213884;0,404322;0,877768;0,251384;0,402215;0,427768;0,438884;0,313884;0,313884;0,313884;0,813884;0,813884;0,438884;0,438884;0,813884;0,438884;0,502215;0,627768;0,702215;0,813884;0,438884;0,813884;0,438884;0,438884;0,438884;
26;;;;;;;;;;;;;;;;;;;;;;;;;;1,000000;0,627305;0,503096;0,635649;0,488224;0,483252;0,278096;0,278096;0,359964;0,395842;0,378096;0,378096;0,503096;0,503096;0,706019;0,878096;0,504954;0,503096;0,378096;0,378096;0,604954;0,804954;0,504954;0,504954;0,278096;0,446105;0,503096;0,916667;0,503096;0,503096;0,804954;0,278096;0,278096;0,278096;0,278096;0,278096;0,278096;0,503096;0,315596;0,504954;0,556193;0,960607;0,378096;0,378096;0,378096;0,878096;0,878096;0,503096;0,503096;0,878096;0,503096;0,604954;0,378096;0,804954;0,878096;0,503096;0,878096;0,503096;0,503096;0,503096;
27;;;;;;;;;;;;;;;;;;;;;;;;;;;1,000000;0,551020;0,822857;0,680581;0,672627;0,293878;0,293878;0,408048;0,487127;0,408163;0,408163;0,551020;0,551020;0,694658;0,979592;0,589286;0,551020;0,408163;0,408163;0,714286;0,964286;0,589286;0,589286;0,293878;0,538930;0,551020;0,551020;0,551020;0,551020;0,964286;0,293878;0,293878;0,293878;0,293878;0,293878;0,293878;0,551020;0,336735;0,589286;0,685714;0,551020;0,408163;0,408163;0,408163;0,979592;0,979592;0,551020;0,551020;0,979592;0,551020;0,714286;0,408163;0,964286;0,979592;0,551020;0,979592;0,551020;0,551020;0,551020;
28;;;;;;;;;;;;;;;;;;;;;;;;;;;;1,000000;0,560000;0,491574;0,489585;0,350000;0,350000;0,419450;0,448090;0,416667;0,416667;0,500000;0,500000;0,500636;0,750000;0,500000;0,500000;0,416667;0,416667;0,555556;0,666667;0,500000;0,500000;0,350000;0,469956;0,500000;0,500000;0,500000;0,500000;0,666667;0,350000;0,350000;0,350000;0,350000;0,350000;0,350000;0,500000;0,375000;0,500000;0,525000;0,500000;0,416667;0,416667;0,416667;0,750000;0,750000;0,500000;0,500000;0,750000;0,500000;0,555556;0,416667;0,666667;0,750000;0,500000;0,750000;0,500000;0,500000;0,500000;
29;;;;;;;;;;;;;;;;;;;;;;;;;;;;;1,000000;0,681765;0,675647;0,320000;0,320000;0,438899;0,520225;0,426667;0,426667;0,560000;0,560000;0,692761;0,960000;0,600000;0,560000;0,426667;0,426667;0,711111;0,933333;0,600000;0,600000;0,320000;0,559899;0,560000;0,560000;0,560000;0,560000;0,933333;0,320000;0,320000;0,320000;0,320000;0,320000;0,320000;0,560000;0,360000;0,600000;0,685714;0,560000;0,426667;0,426667;0,426667;0,960000;0,960000;0,560000;0,560000;0,960000;0,560000;0,711111;0,426667;0,933333;0,960000;0,560000;0,960000;0,560000;0,560000;0,560000;
30;;;;;;;;;;;;;;;;;;;;;;;;;;;;;;1,000000;0,632992;0,804588;0,804588;0,666227;0,346471;0,341574;0,644798;0,491574;0,491574;0,465999;0,941574;0,484680;0,491574;0,341574;0,341574;0,621043;0,893770;0,484680;0,484680;0,221574;0,575517;0,491574;0,491574;0,491574;0,491574;0,893770;0,221574;0,221574;0,221574;0,221574;0,221574;0,405435;0,491574;0,756704;0,484680;0,553934;0,491574;0,341574;0,341574;0,341574;0,941574;0,941574;0,491574;0,491574;0,941574;0,491574;0,621043;0,646273;0,893770;0,941574;0,491574;0,941574;0,977999;0,491574;0,491574;
31;;;;;;;;;;;;;;;;;;;;;;;;;;;;;;;1,000000;0,801053;0,801053;0,659804;0,339912;0,339585;0,642702;0,489585;0,489585;0,457300;0,939585;0,481064;0,489585;0,339585;0,339585;0,617428;0,890155;0,481064;0,481064;0,219585;0,567159;0,489585;0,489585;0,489585;0,489585;0,890155;0,219585;0,219585;0,219585;0,219585;0,219585;0,403303;0,489585;0,753243;0,481064;0,548963;0,489585;0,339585;0,339585;0,339585;0,939585;0,939585;0,489585;0,489585;0,939585;0,489585;0,617428;0,644097;0,890155;0,939585;0,489585;0,939585;0,489585;0,489585;0,489585;
32;;;;;;;;;;;;;;;;;;;;;;;;;;;;;;;;1,000000;0,800000;0,741566;0,208090;0,266667;0,533333;0,350000;0,350000;0,238136;0,600000;0,300000;0,350000;0,266667;0,266667;0,355556;0,466667;0,300000;0,300000;0,200000;0,611802;0,350000;0,350000;0,350000;0,350000;0,466667;0,200000;0,200000;0,200000;0,200000;0,200000;0,200000;0,350000;0,675000;0,300000;0,300000;0,350000;0,266667;0,266667;0,266667;0,600000;0,600000;0,350000;0,350000;0,600000;0,350000;0,355556;0,266667;0,466667;0,600000;0,350000;0,600000;0,700000;0,350000;0,350000;
33;;;;;;;;;;;;;;;;;;;;;;;;;;;;;;;;;1,000000;0,741566;0,208090;0,266667;0,533333;0,350000;0,350000;0,238136;0,600000;0,300000;0,350000;0,266667;0,266667;0,355556;0,466667;0,300000;0,300000;0,200000;0,611802;0,350000;0,350000;0,350000;0,350000;0,466667;0,200000;0,200000;0,200000;0,200000;0,200000;0,200000;0,350000;0,675000;0,300000;0,300000;0,350000;0,266667;0,266667;0,266667;0,600000;0,600000;0,350000;0,350000;0,600000;0,350000;0,355556;0,266667;0,466667;0,600000;0,350000;0,600000;0,700000;0,350000;0,350000;
34;;;;;;;;;;;;;;;;;;;;;;;;;;;;;;;;;;1,000000;0,420682;0,582758;0,582758;0,419450;0,419450;0,313181;0,752783;0,379175;0,419450;0,308339;0,308339;0,462508;0,629175;0,379175;0,379175;0,404980;0,730212;0,419450;0,419450;0,419450;0,419450;0,629175;0,219450;0,219450;0,219450;0,219450;0,219450;0,219450;0,804980;0,665254;0,379175;0,395009;0,419450;0,308339;0,308339;0,308339;0,752783;0,752783;0,419450;0,419450;0,752783;0,419450;0,462508;0,582758;0,629175;0,752783;0,419450;0,752783;0,790929;0,419450;0,419450;
35;;;;;;;;;;;;;;;;;;;;;;;;;;;;;;;;;;;1,000000;0,619766;0,619766;0,448090;0,448090;0,336684;0,848090;0,413483;0,448090;0,314757;0,314757;0,524595;0,746817;0,413483;0,413483;0,777154;0,556403;0,448090;0,448090;0,448090;0,448090;0,746817;0,208090;0,208090;0,208090;0,208090;0,208090;0,726254;0,886433;0,459705;0,413483;0,445907;0,448090;0,314757;0,314757;0,314757;0,848090;0,848090;0,448090;0,448090;0,848090;0,448090;0,524595;0,619766;0,746817;0,848090;0,448090;0,848090;0,448090;0,448090;0,448090;
36;;;;;;;;;;;;;;;;;;;;;;;;;;;;;;;;;;;;1,000000;0,666667;0,416667;0,416667;0,354803;0,666667;0,388889;0,416667;0,333333;0,333333;0,444444;0,555556;0,388889;0,388889;0,800000;0,662396;0,416667;0,416667;0,416667;0,416667;0,555556;0,266667;0,266667;0,266667;0,266667;0,266667;0,533333;0,833333;0,291667;0,388889;0,400000;0,416667;0,333333;0,333333;0,333333;0,666667;0,666667;0,416667;0,416667;0,666667;0,416667;0,444444;0,666667;0,555556;0,666667;0,416667;0,666667;0,416667;0,416667;0,416667;
37;;;;;;;;;;;;;;;;;;;;;;;;;;;;;;;;;;;;;1,000000;0,416667;0,416667;0,354803;0,666667;0,388889;0,416667;0,333333;0,333333;0,444444;0,555556;0,388889;0,388889;0,533333;0,662396;0,416667;0,416667;0,416667;0,416667;0,555556;0,266667;0,266667;0,266667;0,266667;0,266667;0,266667;0,833333;0,291667;0,388889;0,400000;0,416667;0,333333;0,333333;0,333333;0,666667;0,666667;0,416667;0,416667;0,666667;0,416667;0,444444;0,666667;0,555556;0,666667;0,416667;0,666667;0,416667;0,416667;0,416667;
38;;;;;;;;;;;;;;;;;;;;;;;;;;;;;;;;;;;;;;1,000000;0,500000;0,500636;0,750000;0,500000;0,500000;0,416667;0,416667;0,555556;0,666667;0,500000;0,500000;0,350000;0,469956;0,500000;0,500000;0,500000;0,500000;0,666667;0,350000;0,350000;0,350000;0,350000;0,350000;0,350000;0,500000;0,375000;0,500000;0,525000;0,500000;0,416667;0,416667;0,416667;0,750000;0,750000;0,500000;0,500000;0,750000;0,500000;0,555556;0,416667;0,666667;0,750000;0,500000;0,750000;0,500000;0,500000;0,500000;
39;;;;;;;;;;;;;;;;;;;;;;;;;;;;;;;;;;;;;;;1,000000;0,500636;0,750000;0,500000;0,500000;0,416667;0,416667;0,555556;0,666667;0,500000;0,500000;0,350000;0,469956;0,500000;0,500000;0,500000;0,500000;0,666667;0,350000;0,350000;0,350000;0,350000;0,350000;0,350000;0,500000;0,375000;0,500000;0,525000;0,500000;0,416667;0,416667;0,416667;0,750000;0,750000;0,500000;0,500000;0,750000;0,500000;0,555556;0,416667;0,666667;0,750000;0,500000;0,750000;0,500000;0,500000;0,500000;
40;;;;;;;;;;;;;;;;;;;;;;;;;;;;;;;;;;;;;;;;1,000000;0,938136;0,501132;0,500636;0,354803;0,354803;0,630761;0,890020;0,501132;0,501132;0,238136;0,417404;0,500636;0,974730;0,500636;0,500636;0,890020;0,238136;0,238136;0,238136;0,238136;0,238136;0,238136;0,500636;0,281886;0,501132;0,571528;0,500636;0,354803;0,354803;0,354803;0,938136;0,938136;0,500636;0,500636;0,938136;0,500636;0,630761;0,354803;0,890020;0,938136;0,500636;0,938136;0,500636;0,500636;0,500636;
41;;;;;;;;;;;;;;;;;;;;;;;;;;;;;;;;;;;;;;;;;1,000000;0,833333;0,750000;0,666667;0,666667;0,888889;1,000000;0,833333;0,833333;0,600000;0,844956;0,750000;0,750000;0,750000;0,750000;1,000000;0,600000;0,600000;0,600000;0,600000;0,600000;0,600000;0,750000;0,625000;0,833333;0,900000;0,750000;0,666667;0,666667;0,666667;1,000000;1,000000;0,750000;0,750000;1,000000;0,750000;0,888889;0,666667;1,000000;1,000000;0,750000;1,000000;0,750000;0,750000;0,750000;
42;;;;;;;;;;;;;;;;;;;;;;;;;;;;;;;;;;;;;;;;;;1,000000;0,500000;0,388889;0,388889;0,583333;0,750000;0,500000;0,500000;0,300000;0,451930;0,500000;0,500000;0,500000;0,500000;0,750000;0,300000;0,300000;0,300000;0,300000;0,300000;0,300000;0,500000;0,333333;0,500000;0,540000;0,500000;0,388889;0,388889;0,388889;0,833333;0,833333;0,500000;0,500000;0,833333;0,500000;0,583333;0,388889;0,750000;0,833333;0,500000;0,833333;0,500000;0,500000;0,500000;
43;;;;;;;;;;;;;;;;;;;;;;;;;;;;;;;;;;;;;;;;;;;1,000000;0,416667;0,416667;1,000000;0,666667;0,500000;0,500000;0,350000;0,469956;0,500000;0,500000;0,500000;0,500000;0,666667;0,350000;0,350000;0,350000;0,350000;0,350000;0,350000;0,500000;0,375000;0,500000;0,525000;0,500000;0,416667;0,416667;0,416667;0,750000;0,750000;0,500000;0,500000;0,750000;0,500000;0,555556;0,416667;0,666667;0,750000;0,500000;0,750000;0,500000;0,500000;0,500000;
44;;;;;;;;;;;;;;;;;;;;;;;;;;;;;;;;;;;;;;;;;;;;1,000000;0,666667;0,444444;0,555556;0,388889;0,388889;0,266667;0,344956;0,416667;0,416667;0,416667;0,416667;0,555556;0,266667;0,266667;0,266667;0,266667;0,266667;0,266667;0,416667;0,291667;0,388889;0,400000;0,416667;0,333333;0,333333;0,333333;0,666667;0,666667;0,416667;0,416667;0,666667;0,416667;0,444444;0,333333;0,555556;0,666667;0,416667;0,666667;0,416667;0,416667;0,416667;
45;;;;;;;;;;;;;;;;;;;;;;;;;;;;;;;;;;;;;;;;;;;;;1,000000;0,444444;0,555556;0,388889;0,388889;0,266667;0,344956;0,416667;0,416667;0,416667;0,416667;0,555556;0,266667;0,266667;0,266667;0,266667;0,266667;0,266667;0,416667;0,291667;0,388889;0,400000;0,416667;0,333333;0,333333;0,333333;0,666667;0,666667;0,416667;0,416667;0,666667;0,416667;0,444444;0,333333;0,555556;0,666667;0,416667;0,666667;0,416667;0,416667;0,416667;
46;;;;;;;;;;;;;;;;;;;;;;;;;;;;;;;;;;;;;;;;;;;;;;1,000000;0,833333;0,583333;0,583333;0,355556;0,551930;0,555556;0,555556;0,555556;0,555556;0,833333;0,355556;0,355556;0,355556;0,355556;0,355556;0,355556;0,555556;0,388889;0,583333;0,640000;0,555556;0,444444;0,444444;0,444444;0,888889;0,888889;0,555556;0,555556;0,888889;0,555556;0,666667;0,444444;0,833333;0,888889;0,555556;0,888889;0,555556;0,555556;0,555556;
47;;;;;;;;;;;;;;;;;;;;;;;;;;;;;;;;;;;;;;;;;;;;;;;1,000000;0,750000;0,750000;0,466667;0,751930;0,666667;0,666667;0,666667;0,666667;1,000000;0,466667;0,466667;0,466667;0,466667;0,466667;0,466667;0,666667;0,500000;0,750000;0,840000;0,666667;0,555556;0,555556;0,555556;1,000000;1,000000;0,666667;0,666667;1,000000;0,666667;0,833333;0,555556;1,000000;1,000000;0,666667;1,000000;0,666667;0,666667;0,666667;
48;;;;;;;;;;;;;;;;;;;;;;;;;;;;;;;;;;;;;;;;;;;;;;;;1,000000;0,500000;0,300000;0,451930;0,500000;0,500000;0,500000;0,500000;0,750000;0,300000;0,300000;0,300000;0,300000;0,300000;0,300000;0,500000;0,333333;0,500000;0,540000;0,500000;0,388889;0,388889;0,388889;0,833333;0,833333;0,500000;0,500000;0,833333;0,500000;0,583333;0,388889;0,750000;0,833333;0,500000;0,833333;0,500000;0,500000;0,500000;
49;;;;;;;;;;;;;;;;;;;;;;;;;;;;;;;;;;;;;;;;;;;;;;;;;1,000000;0,300000;0,451930;0,500000;0,500000;0,500000;0,500000;0,750000;0,300000;0,300000;0,300000;0,300000;0,300000;0,300000;0,500000;0,333333;0,500000;0,540000;0,500000;0,388889;0,388889;0,388889;0,833333;0,833333;0,500000;0,500000;0,833333;0,500000;0,583333;0,388889;0,750000;0,833333;0,500000;0,833333;0,500000;0,500000;0,500000;
50;;;;;;;;;;;;;;;;;;;;;;;;;;;;;;;;;;;;;;;;;;;;;;;;;;1,000000;0,462396;0,350000;0,350000;0,350000;0,350000;0,466667;0,200000;0,200000;0,200000;0,200000;0,200000;0,400000;0,700000;0,225000;0,300000;0,300000;0,350000;0,266667;0,266667;0,266667;0,600000;0,600000;0,350000;0,350000;0,600000;0,350000;0,355556;0,533333;0,466667;0,600000;0,350000;0,600000;0,350000;0,350000;0,350000;
51;;;;;;;;;;;;;;;;;;;;;;;;;;;;;;;;;;;;;;;;;;;;;;;;;;;1,000000;0,469956;0,469956;0,469956;0,469956;0,751930;0,244956;0,244956;0,244956;0,244956;0,244956;0,244956;0,912396;0,724302;0,451930;0,489912;0,469956;0,344956;0,344956;0,344956;0,844956;0,844956;0,469956;0,469956;0,844956;0,469956;0,551930;0,662396;0,751930;0,844956;0,469956;0,844956;0,876840;0,469956;0,469956;
52;;;;;;;;;;;;;;;;;;;;;;;;;;;;;;;;;;;;;;;;;;;;;;;;;;;;1,000000;0,500000;0,500000;0,500000;0,666667;0,350000;0,350000;0,350000;0,350000;0,350000;0,350000;0,500000;0,375000;0,500000;0,525000;0,500000;0,416667;0,416667;0,416667;0,750000;0,750000;0,500000;0,500000;0,750000;0,500000;0,555556;0,416667;0,666667;0,750000;0,500000;0,750000;0,500000;0,500000;0,500000;
53;;;;;;;;;;;;;;;;;;;;;;;;;;;;;;;;;;;;;;;;;;;;;;;;;;;;;1,000000;0,500000;0,500000;0,666667;0,350000;0,350000;0,350000;0,350000;0,350000;0,350000;0,500000;0,375000;0,500000;0,525000;0,500000;0,416667;0,416667;0,416667;0,750000;0,750000;0,500000;0,500000;0,750000;0,500000;0,555556;0,416667;0,666667;0,750000;0,500000;0,750000;0,500000;0,500000;0,500000;
54;;;;;;;;;;;;;;;;;;;;;;;;;;;;;;;;;;;;;;;;;;;;;;;;;;;;;;1,000000;0,500000;0,666667;0,350000;0,350000;0,350000;0,350000;0,350000;0,350000;0,500000;0,375000;0,500000;0,525000;0,500000;0,416667;0,416667;0,416667;0,750000;0,750000;0,500000;0,500000;0,750000;0,500000;0,555556;0,416667;0,666667;0,750000;0,500000;0,750000;0,500000;0,500000;0,500000;
55;;;;;;;;;;;;;;;;;;;;;;;;;;;;;;;;;;;;;;;;;;;;;;;;;;;;;;;1,000000;0,666667;0,350000;0,350000;0,350000;0,350000;0,350000;0,350000;0,500000;0,375000;0,500000;0,525000;0,500000;0,416667;0,416667;0,416667;0,750000;0,750000;0,500000;0,500000;0,750000;0,500000;0,555556;0,416667;0,666667;0,750000;0,500000;0,750000;0,500000;0,500000;0,500000;
56;;;;;;;;;;;;;;;;;;;;;;;;;;;;;;;;;;;;;;;;;;;;;;;;;;;;;;;;1,000000;0,466667;0,466667;0,466667;0,466667;0,466667;0,466667;0,666667;0,500000;0,750000;0,840000;0,666667;0,555556;0,555556;0,555556;1,000000;1,000000;0,666667;0,666667;1,000000;0,666667;0,833333;0,555556;1,000000;1,000000;0,666667;1,000000;0,666667;0,666667;0,666667;
57;;;;;;;;;;;;;;;;;;;;;;;;;;;;;;;;;;;;;;;;;;;;;;;;;;;;;;;;;1,000000;0,800000;0,800000;0,800000;0,800000;0,200000;0,350000;0,225000;0,300000;0,300000;0,350000;0,266667;0,266667;0,266667;0,600000;0,600000;0,350000;0,350000;0,600000;0,350000;0,355556;0,266667;0,466667;0,600000;0,350000;0,600000;0,350000;0,350000;0,350000;
58;;;;;;;;;;;;;;;;;;;;;;;;;;;;;;;;;;;;;;;;;;;;;;;;;;;;;;;;;;1,000000;0,800000;0,800000;0,800000;0,200000;0,350000;0,225000;0,300000;0,300000;0,350000;0,266667;0,266667;0,266667;0,600000;0,600000;0,350000;0,350000;0,600000;0,350000;0,355556;0,266667;0,466667;0,600000;0,350000;0,600000;0,350000;0,350000;0,350000;
59;;;;;;;;;;;;;;;;;;;;;;;;;;;;;;;;;;;;;;;;;;;;;;;;;;;;;;;;;;;1,000000;0,800000;0,800000;0,200000;0,350000;0,225000;0,300000;0,300000;0,350000;0,266667;0,266667;0,266667;0,600000;0,600000;0,350000;0,350000;0,600000;0,350000;0,355556;0,266667;0,466667;0,600000;0,350000;0,600000;0,350000;0,350000;0,350000;
60;;;;;;;;;;;;;;;;;;;;;;;;;;;;;;;;;;;;;;;;;;;;;;;;;;;;;;;;;;;;1,000000;0,800000;0,200000;0,350000;0,225000;0,300000;0,300000;0,350000;0,266667;0,266667;0,266667;0,600000;0,600000;0,350000;0,350000;0,600000;0,350000;0,355556;0,266667;0,466667;0,600000;0,350000;0,600000;0,350000;0,350000;0,350000;
61;;;;;;;;;;;;;;;;;;;;;;;;;;;;;;;;;;;;;;;;;;;;;;;;;;;;;;;;;;;;;1,000000;0,200000;0,350000;0,225000;0,300000;0,300000;0,350000;0,266667;0,266667;0,266667;0,600000;0,600000;0,350000;0,350000;0,600000;0,350000;0,355556;0,266667;0,466667;0,600000;0,350000;0,600000;0,350000;0,350000;0,350000;
62;;;;;;;;;;;;;;;;;;;;;;;;;;;;;;;;;;;;;;;;;;;;;;;;;;;;;;;;;;;;;;1,000000;0,350000;0,450000;0,300000;0,300000;0,350000;0,266667;0,266667;0,266667;0,600000;0,600000;0,350000;0,350000;0,600000;0,350000;0,355556;0,266667;0,466667;0,600000;0,350000;0,600000;0,350000;0,350000;0,350000;
63;;;;;;;;;;;;;;;;;;;;;;;;;;;;;;;;;;;;;;;;;;;;;;;;;;;;;;;;;;;;;;;1,000000;0,375000;0,500000;0,525000;0,500000;0,416667;0,416667;0,416667;0,750000;0,750000;0,500000;0,500000;0,750000;0,500000;0,555556;0,833333;0,666667;0,750000;0,500000;0,750000;0,500000;0,500000;0,500000;
64;;;;;;;;;;;;;;;;;;;;;;;;;;;;;;;;;;;;;;;;;;;;;;;;;;;;;;;;;;;;;;;;1,000000;0,333333;0,337500;0,375000;0,291667;0,291667;0,291667;0,625000;0,625000;0,375000;0,375000;0,625000;0,375000;0,388889;0,291667;0,500000;0,625000;0,375000;0,625000;0,750000;0,375000;0,375000;
65;;;;;;;;;;;;;;;;;;;;;;;;;;;;;;;;;;;;;;;;;;;;;;;;;;;;;;;;;;;;;;;;;1,000000;0,540000;0,500000;0,388889;0,388889;0,388889;0,833333;0,833333;0,500000;0,500000;0,833333;0,500000;0,583333;0,388889;0,750000;0,833333;0,500000;0,833333;0,500000;0,500000;0,500000;
66;;;;;;;;;;;;;;;;;;;;;;;;;;;;;;;;;;;;;;;;;;;;;;;;;;;;;;;;;;;;;;;;;;1,000000;0,525000;0,400000;0,400000;0,400000;0,900000;0,900000;0,525000;0,525000;0,900000;0,525000;0,640000;0,400000;0,840000;0,900000;0,525000;0,900000;0,525000;0,525000;0,525000;
67;;;;;;;;;;;;;;;;;;;;;;;;;;;;;;;;;;;;;;;;;;;;;;;;;;;;;;;;;;;;;;;;;;;1,000000;0,416667;0,416667;0,416667;0,750000;0,750000;0,500000;0,500000;0,750000;0,500000;0,555556;0,416667;0,666667;0,750000;0,500000;0,750000;0,500000;0,500000;0,500000;
68;;;;;;;;;;;;;;;;;;;;;;;;;;;;;;;;;;;;;;;;;;;;;;;;;;;;;;;;;;;;;;;;;;;;1,000000;0,666667;0,666667;0,666667;0,666667;0,416667;0,416667;0,666667;0,416667;0,444444;0,333333;0,555556;0,666667;0,416667;0,666667;0,416667;0,416667;0,416667;
69;;;;;;;;;;;;;;;;;;;;;;;;;;;;;;;;;;;;;;;;;;;;;;;;;;;;;;;;;;;;;;;;;;;;;1,000000;0,666667;0,666667;0,666667;0,416667;0,416667;0,666667;0,416667;0,444444;0,333333;0,555556;0,666667;0,416667;0,666667;0,416667;0,416667;0,416667;
70;;;;;;;;;;;;;;;;;;;;;;;;;;;;;;;;;;;;;;;;;;;;;;;;;;;;;;;;;;;;;;;;;;;;;;1,000000;0,666667;0,666667;0,416667;0,416667;0,666667;0,416667;0,444444;0,333333;0,555556;0,666667;0,416667;0,666667;0,416667;0,416667;0,416667;
71;;;;;;;;;;;;;;;;;;;;;;;;;;;;;;;;;;;;;;;;;;;;;;;;;;;;;;;;;;;;;;;;;;;;;;;1,000000;1,000000;0,750000;0,750000;1,000000;0,750000;0,888889;0,666667;1,000000;1,000000;0,750000;1,000000;0,750000;0,750000;0,750000;
72;;;;;;;;;;;;;;;;;;;;;;;;;;;;;;;;;;;;;;;;;;;;;;;;;;;;;;;;;;;;;;;;;;;;;;;;1,000000;0,750000;0,750000;1,000000;0,750000;0,888889;0,666667;1,000000;1,000000;0,750000;1,000000;0,750000;0,750000;0,750000;
73;;;;;;;;;;;;;;;;;;;;;;;;;;;;;;;;;;;;;;;;;;;;;;;;;;;;;;;;;;;;;;;;;;;;;;;;;1,000000;0,500000;0,750000;0,500000;0,555556;0,416667;0,666667;0,750000;0,500000;0,750000;0,500000;0,500000;0,500000;
74;;;;;;;;;;;;;;;;;;;;;;;;;;;;;;;;;;;;;;;;;;;;;;;;;;;;;;;;;;;;;;;;;;;;;;;;;;1,000000;0,750000;0,500000;0,555556;0,416667;0,666667;0,750000;0,500000;0,750000;0,500000;0,500000;0,500000;
75;;;;;;;;;;;;;;;;;;;;;;;;;;;;;;;;;;;;;;;;;;;;;;;;;;;;;;;;;;;;;;;;;;;;;;;;;;;1,000000;0,750000;0,888889;0,666667;1,000000;1,000000;0,750000;1,000000;0,750000;0,750000;0,750000;
76;;;;;;;;;;;;;;;;;;;;;;;;;;;;;;;;;;;;;;;;;;;;;;;;;;;;;;;;;;;;;;;;;;;;;;;;;;;;1,000000;0,555556;0,416667;0,666667;0,750000;0,500000;0,750000;0,500000;0,500000;0,500000;
77;;;;;;;;;;;;;;;;;;;;;;;;;;;;;;;;;;;;;;;;;;;;;;;;;;;;;;;;;;;;;;;;;;;;;;;;;;;;;1,000000;0,444444;0,833333;0,888889;0,555556;0,888889;0,555556;0,555556;0,555556;
78;;;;;;;;;;;;;;;;;;;;;;;;;;;;;;;;;;;;;;;;;;;;;;;;;;;;;;;;;;;;;;;;;;;;;;;;;;;;;;1,000000;0,555556;0,666667;0,416667;0,666667;0,416667;0,416667;0,416667;
79;;;;;;;;;;;;;;;;;;;;;;;;;;;;;;;;;;;;;;;;;;;;;;;;;;;;;;;;;;;;;;;;;;;;;;;;;;;;;;;1,000000;1,000000;0,666667;1,000000;0,666667;0,666667;0,666667;
80;;;;;;;;;;;;;;;;;;;;;;;;;;;;;;;;;;;;;;;;;;;;;;;;;;;;;;;;;;;;;;;;;;;;;;;;;;;;;;;;1,000000;0,750000;1,000000;0,750000;0,750000;0,750000;
81;;;;;;;;;;;;;;;;;;;;;;;;;;;;;;;;;;;;;;;;;;;;;;;;;;;;;;;;;;;;;;;;;;;;;;;;;;;;;;;;;1,000000;0,750000;0,500000;0,500000;0,500000;
82;;;;;;;;;;;;;;;;;;;;;;;;;;;;;;;;;;;;;;;;;;;;;;;;;;;;;;;;;;;;;;;;;;;;;;;;;;;;;;;;;;1,000000;0,750000;0,750000;0,750000;
83;;;;;;;;;;;;;;;;;;;;;;;;;;;;;;;;;;;;;;;;;;;;;;;;;;;;;;;;;;;;;;;;;;;;;;;;;;;;;;;;;;;1,000000;0,500000;0,500000;
84;;;;;;;;;;;;;;;;;;;;;;;;;;;;;;;;;;;;;;;;;;;;;;;;;;;;;;;;;;;;;;;;;;;;;;;;;;;;;;;;;;;;1,000000;0,500000;
85;;;;;;;;;;;;;;;;;;;;;;;;;;;;;;;;;;;;;;;;;;;;;;;;;;;;;;;;;;;;;;;;;;;;;;;;;;;;;;;;;;;;;1,000000;
