;1; 2; 3; 4; 5; 6; 7; 8; 9; 10; 11; 12; 13; 14; 15; 16; 17; 18; 19; 20; 21; 22; 23; 24; 25; 26; 27; 28; 29; 30; 31; 32; 33; 34; 35; 36; 37; 38; 39; 40; 41; 42; 43; 44; 45; 46; 47; 48; 49; 50; 51; 52; 53; 54; 55; 56; 57; 58; 59; 60; 61; 62; 63; 64; 65; 66; 67; 68; 69; 70; 71; 72; 73; 74; 75; 76; 77; 78; 79
1;1,000000;0,246349;0,212597;0,505359;0,214796;0,000000;0,000000;0,345428;0,437092;0,396714;0,400336;0,233193;0,284883;0,363024;0,386213;0,363315;0,375817;0,366999;0,389275;0,390819;0,258688;0,261968;0,425410;0,426420;0,427372;0,370029;0,391541;0,392577;0,409048;0,425246;0,410777;0,384284;0,365774;0,366602;0,437467;0,438047;0,438605;0,000000;0,375132;0,433409;0,433899;0,429995;0,000000;0,422459;0,437143;0,423370;0,423805;0,000000;0,427778;0,408264;0,408671;0,409067;0,409453;0,407447;0,405281;0,000000;0,327378;0,352721;0,000000;0,392367;0,398815;0,421552;0,421868;0,330530;0,380954;0,389506;0,430196;0,299440;0,387885;0,408337;0,392539;0,315976;0,415307;0,415578;0,463472;0,441967;0,446474;0,446684;0,318510;
2;;1,000000;0,286102;0,000000;0,216771;0,616589;0,616589;0,224067;0,225351;0,190003;0,190763;0,274255;0,295404;0,226092;0,271324;0,232667;0,267567;0,236720;0,238952;0,239234;0,384310;0,314728;0,206781;0,207092;0,207401;0,279069;0,240692;0,241067;0,600561;0,645939;0,602828;0,244546;0,328204;0,328204;0,212774;0,213020;0,213263;0,616589;0,295640;0,218305;0,218457;0,235018;0,616589;0,220317;0,231490;0,220585;0,220719;0,616589;0,260024;0,259913;0,260025;0,260564;0,260674;0,291104;0,258419;0,616589;0,331060;0,326405;0,616589;0,260022;0,277509;0,242627;0,242720;0,343747;0,290535;0,289970;0,263280;0,336217;0,264605;0,266662;0,266997;0,720700;0,261578;0,261729;0,224059;0,222407;0,226163;0,226279;0,720700;
3;;;1,000000;0,000000;0,269695;0,669513;0,669513;0,276991;0,278275;0,242928;0,243687;0,880535;0,348328;0,279016;0,324248;0,285591;0,320491;0,289644;0,291876;0,292158;0,437234;0,367653;0,259705;0,260016;0,260325;0,331993;0,293616;0,293991;0,660961;0,625318;0,661295;0,297470;0,381128;0,381128;0,265698;0,265944;0,266187;0,669513;0,348565;0,271229;0,271381;0,287942;0,669513;0,273242;0,284414;0,273509;0,273643;0,669513;0,312948;0,312838;0,312949;0,313488;0,313598;0,344028;0,311343;0,669513;0,383984;0,379330;0,669513;0,312946;0,330433;0,295551;0,295645;0,396672;0,343459;0,342895;0,316204;0,389141;0,317530;0,319586;0,319922;0,384365;0,314503;0,314653;0,276983;0,275331;0,279087;0,279203;0,386875;
4;;;;1,000000;0,000000;0,000000;0,000000;0,000000;0,000000;0,000000;0,000000;0,000000;0,000000;0,000000;0,000000;0,000000;0,000000;0,000000;0,000000;0,000000;0,000000;0,000000;0,000000;0,000000;0,000000;0,000000;0,000000;0,000000;0,000000;0,000000;0,000000;0,000000;0,000000;0,000000;0,000000;0,000000;0,000000;0,000000;0,000000;0,000000;0,000000;0,000000;0,000000;0,000000;0,000000;0,000000;0,000000;0,000000;0,000000;0,000000;0,000000;0,000000;0,000000;0,000000;0,000000;0,000000;0,000000;0,847362;0,000000;0,000000;0,000000;0,000000;0,000000;0,000000;0,000000;0,000000;0,000000;0,000000;0,000000;0,000000;0,000000;0,000000;0,000000;0,000000;0,000000;0,000000;0,000000;0,000000;0,000000;
5;;;;;1,000000;0,600182;0,600182;0,207660;0,208944;0,173596;0,174356;0,257848;0,278997;0,209685;0,254917;0,216260;0,251160;0,220313;0,222545;0,222827;0,367903;0,298321;0,190374;0,190685;0,190994;0,262662;0,224285;0,224660;0,204986;0,191883;0,205773;0,228139;0,311797;0,311797;0,196367;0,196613;0,196856;0,600182;0,279233;0,201898;0,202050;0,218611;0,600182;0,203910;0,215083;0,204178;0,204312;0,600182;0,243617;0,243506;0,243618;0,244157;0,244267;0,274697;0,242012;0,600182;0,314653;0,309999;0,600182;0,243615;0,261102;0,226220;0,226313;0,327341;0,274128;0,273563;0,246873;0,319810;0,248198;0,250255;0,250590;0,315034;0,245171;0,245322;0,207652;0,206000;0,209756;0,209872;0,317544;
6;;;;;;1,000000;1,000000;0,607478;0,608762;0,573414;0,574174;0,657666;0,678815;0,609503;0,654735;0,616078;0,650978;0,620131;0,622363;0,622645;0,767721;0,698139;0,590192;0,590503;0,590812;0,662480;0,624103;0,624478;0,604804;0,591701;0,605591;0,627957;0,711615;0,711615;0,596185;0,596431;0,596674;1,000000;0,679051;0,601716;0,601868;0,618429;1,000000;0,603728;0,614901;0,603996;0,604130;1,000000;0,643435;0,643324;0,643436;0,643975;0,644085;0,674515;0,641830;1,000000;0,714471;0,709816;1,000000;0,643433;0,660920;0,626038;0,626131;0,727158;0,673946;0,673381;0,646691;0,719628;0,648016;0,650073;0,650408;0,714852;0,644989;0,645140;0,607470;0,605818;0,609574;0,609690;0,717362;
7;;;;;;;1,000000;0,607478;0,608762;0,573414;0,574174;0,657666;0,678815;0,609503;0,654735;0,616078;0,650978;0,620131;0,622363;0,622645;0,767721;0,698139;0,590192;0,590503;0,590812;0,662480;0,624103;0,624478;0,604804;0,591701;0,605591;0,627957;0,711615;0,711615;0,596185;0,596431;0,596674;1,000000;0,679051;0,601716;0,601868;0,618429;1,000000;0,603728;0,614901;0,603996;0,604130;1,000000;0,643435;0,643324;0,643436;0,643975;0,644085;0,674515;0,641830;1,000000;0,714471;0,709816;1,000000;0,643433;0,660920;0,626038;0,626131;0,727158;0,673946;0,673381;0,646691;0,719628;0,648016;0,650073;0,650408;0,714852;0,644989;0,645140;0,607470;0,605818;0,609574;0,609690;0,717362;
8;;;;;;;;1,000000;0,552019;0,726652;0,729286;0,265144;0,629552;0,588875;0,262213;0,223556;0,258456;0,227609;0,229841;0,230123;0,375199;0,305618;0,197670;0,197981;0,198290;0,269958;0,612222;0,612222;0,212282;0,199179;0,213069;0,235435;0,319093;0,319093;0,534965;0,535165;0,535369;0,607478;0,286530;0,209194;0,209346;0,225907;0,607478;0,211207;0,222379;0,211474;0,211608;0,607478;0,250913;0,250803;0,250914;0,251453;0,251563;0,281993;0,249308;0,607478;0,321949;0,317295;0,607478;0,250911;0,268398;0,233516;0,233609;0,334637;0,281424;0,280860;0,254169;0,327106;0,255495;0,257551;0,257887;0,322330;0,637061;0,637061;0,691457;0,733769;0,744625;0,744625;0,324840;
9;;;;;;;;;1,000000;0,599754;0,601591;0,266427;0,511243;0,475368;0,263496;0,224840;0,259740;0,228893;0,231125;0,231407;0,376483;0,306901;0,198954;0,199264;0,199574;0,271242;0,503967;0,504767;0,213566;0,200462;0,214352;0,236719;0,320376;0,320376;0,570996;0,571482;0,571953;0,608762;0,287813;0,210478;0,210630;0,227191;0,608762;0,212490;0,223663;0,212757;0,212891;0,608762;0,252196;0,252086;0,252198;0,252737;0,252847;0,283277;0,250591;0,608762;0,323232;0,318578;0,608762;0,252195;0,269682;0,234800;0,234893;0,335920;0,282708;0,282143;0,255453;0,328390;0,256778;0,258835;0,259170;0,323614;0,522687;0,522946;0,684328;0,637256;0,588472;0,588677;0,326124;
10;;;;;;;;;;1,000000;0,691273;0,231080;0,523302;0,482625;0,228149;0,189492;0,224392;0,193545;0,195777;0,196059;0,341136;0,271554;0,163607;0,163917;0,164226;0,235895;0,505972;0,505972;0,178219;0,165115;0,179005;0,201371;0,285029;0,285029;0,428714;0,428914;0,429119;0,573414;0,252466;0,175130;0,175282;0,191843;0,573414;0,177143;0,188315;0,177410;0,177544;0,573414;0,216849;0,216739;0,216851;0,217389;0,217499;0,247930;0,215244;0,573414;0,287885;0,283231;0,573414;0,216848;0,234335;0,199452;0,199546;0,300573;0,247360;0,246796;0,220105;0,293042;0,221431;0,223487;0,223823;0,288266;0,530811;0,530811;0,675353;0,739026;0,449275;0,449357;0,290776;
11;;;;;;;;;;;1,000000;0,231839;0,524423;0,483745;0,228908;0,190252;0,225152;0,194305;0,196537;0,196819;0,341895;0,272313;0,164366;0,164676;0,164986;0,236654;0,507093;0,507093;0,178978;0,165874;0,179764;0,202131;0,285788;0,285788;0,429835;0,430035;0,430240;0,574174;0,253225;0,175890;0,176042;0,192603;0,574174;0,177902;0,189075;0,178169;0,178303;0,574174;0,217608;0,217498;0,217610;0,218149;0,218259;0,248689;0,216003;0,574174;0,288644;0,283990;0,574174;0,217607;0,235094;0,200212;0,200305;0,301332;0,248120;0,247555;0,220865;0,293801;0,222190;0,224247;0,224582;0,289026;0,531932;0,531932;0,675353;0,739026;0,450396;0,450477;0,291536;
12;;;;;;;;;;;;1,000000;0,336481;0,267169;0,312400;0,273744;0,308644;0,277796;0,280029;0,280311;0,425387;0,355805;0,247858;0,248168;0,248478;0,320146;0,281768;0,282143;0,780425;0,744783;0,780760;0,285623;0,369280;0,369280;0,253851;0,254096;0,254339;0,657666;0,336717;0,259382;0,259534;0,276095;0,657666;0,261394;0,272567;0,261661;0,261795;0,657666;0,301100;0,300990;0,301102;0,301641;0,301750;0,332181;0,299495;0,657666;0,372136;0,367482;0,657666;0,301099;0,318586;0,283704;0,283797;0,384824;0,331612;0,331047;0,304357;0,377293;0,305682;0,307739;0,308074;0,372518;0,302655;0,302805;0,265135;0,263483;0,267240;0,267355;0,375028;
13;;;;;;;;;;;;;1,000000;0,621719;0,333550;0,294893;0,329793;0,298946;0,301178;0,301460;0,446537;0,376955;0,269008;0,269318;0,269627;0,341296;0,645066;0,645066;0,283619;0,270516;0,284406;0,306772;0,390430;0,390430;0,567808;0,568009;0,568213;0,678815;0,357867;0,280531;0,280683;0,297244;0,678815;0,282544;0,293716;0,282811;0,282945;0,678815;0,322250;0,322140;0,322252;0,322790;0,322900;0,353330;0,320645;0,678815;0,393286;0,388632;0,678815;0,322248;0,339736;0,304853;0,304947;0,405974;0,352761;0,352197;0,325506;0,398443;0,326832;0,328888;0,329224;0,393667;0,669905;0,669905;0,583921;0,579954;0,588370;0,588451;0,396177;
14;;;;;;;;;;;;;;1,000000;0,264238;0,225581;0,260481;0,229634;0,231866;0,232148;0,377224;0,307642;0,199695;0,200006;0,200315;0,271983;0,604389;0,604389;0,214307;0,201204;0,215094;0,237460;0,321118;0,321118;0,527131;0,527331;0,527536;0,609503;0,288555;0,211219;0,211371;0,227932;0,609503;0,213232;0,224404;0,213499;0,213633;0,609503;0,252938;0,252827;0,252939;0,253478;0,253588;0,284018;0,251333;0,609503;0,323974;0,319320;0,609503;0,252936;0,270423;0,235541;0,235634;0,336662;0,283449;0,282885;0,256194;0,329131;0,257520;0,259576;0,259911;0,324355;0,629228;0,629228;0,543244;0,539277;0,547692;0,547774;0,326865;
15;;;;;;;;;;;;;;;1,000000;0,558578;0,549388;0,274865;0,277098;0,277380;0,422456;0,703007;0,685913;0,686640;0,687341;0,317215;0,278837;0,279212;0,259539;0,246435;0,260325;0,282691;0,366349;0,366349;0,250919;0,251165;0,251408;0,654735;0,333786;0,256450;0,256602;0,273164;0,654735;0,258463;0,269635;0,258730;0,258864;0,654735;0,298169;0,298059;0,298171;0,298710;0,298819;0,543671;0,589272;0,654735;0,720357;0,364551;0,654735;0,298168;0,315655;0,280773;0,280866;0,381893;0,328681;0,328116;0,452859;0,703007;0,302751;0,304808;0,305143;0,369587;0,299724;0,299874;0,262204;0,260552;0,264308;0,264424;0,372097;
16;;;;;;;;;;;;;;;;1,000000;0,596268;0,236209;0,238441;0,238723;0,617838;0,314217;0,558359;0,558690;0,559032;0,611961;0,240181;0,240556;0,220882;0,207779;0,221669;0,244035;0,327692;0,327692;0,212263;0,212509;0,212752;0,616078;0,295129;0,217794;0,217946;0,234507;0,616078;0,219806;0,230979;0,220074;0,220208;0,616078;0,259513;0,259402;0,259514;0,260053;0,260163;0,290593;0,257907;0,616078;0,838222;0,325894;0,616078;0,259511;0,276998;0,242116;0,242209;0,343236;0,290024;0,289459;0,262769;0,335706;0,264094;0,266151;0,266486;0,330930;0,261067;0,261218;0,223548;0,221896;0,225652;0,225768;0,333440;
17;;;;;;;;;;;;;;;;;1,000000;0,271109;0,273341;0,273623;0,583055;0,349117;0,523576;0,523906;0,524248;0,577177;0,275081;0,275456;0,255782;0,242678;0,256569;0,278935;0,362592;0,362592;0,247163;0,247409;0,247652;0,650978;0,330029;0,252694;0,252846;0,269407;0,650978;0,254706;0,265879;0,254973;0,255108;0,650978;0,294413;0,294302;0,294414;0,294953;0,295063;0,325493;0,292807;0,650978;0,365448;0,360794;0,650978;0,294411;0,311898;0,277016;0,277109;0,378136;0,324924;0,324359;0,297669;0,370606;0,298994;0,301051;0,301386;0,365830;0,295967;0,296117;0,258448;0,256796;0,260552;0,260668;0,368340;
18;;;;;;;;;;;;;;;;;;1,000000;0,680204;0,681677;0,387852;0,318270;0,210323;0,210633;0,210943;0,282611;0,244234;0,244608;0,224935;0,211831;0,225721;1,000000;0,331745;0,331745;0,216316;0,216561;0,216805;0,620131;0,299182;0,221847;0,221999;0,238560;0,620131;0,223859;0,235032;0,224126;0,224260;0,620131;0,263566;0,263455;0,263567;0,264106;0,264216;0,294646;0,261960;0,620131;0,334601;0,329947;0,620131;0,263564;0,281051;0,246169;0,246262;0,347289;0,294077;0,293512;0,266822;0,339759;0,268147;0,270204;0,270539;0,334983;0,265120;0,265270;0,227600;0,225949;0,229705;0,229820;0,337493;
19;;;;;;;;;;;;;;;;;;;1,000000;0,728558;0,390084;0,320502;0,212555;0,212866;0,213175;0,284843;0,246466;0,246841;0,227167;0,214064;0,227954;0,689390;0,333978;0,333978;0,218548;0,218794;0,219037;0,622363;0,301414;0,224079;0,224231;0,240792;0,622363;0,226091;0,237264;0,226359;0,226493;0,622363;0,265798;0,265687;0,265799;0,266338;0,266448;0,296878;0,264193;0,622363;0,336834;0,332180;0,622363;0,265796;0,283283;0,248401;0,248494;0,349522;0,296309;0,295744;0,269054;0,341991;0,270379;0,272436;0,272771;0,337215;0,267352;0,267503;0,229833;0,228181;0,231937;0,232053;0,339725;
20;;;;;;;;;;;;;;;;;;;;1,000000;0,390366;0,320784;0,212837;0,213148;0,213457;0,285125;0,246748;0,247123;0,227449;0,214346;0,228236;0,690581;0,334260;0,334260;0,218830;0,219076;0,219319;0,622645;0,301697;0,224361;0,224513;0,241074;0,622645;0,226374;0,237546;0,226641;0,226775;0,622645;0,266080;0,265970;0,266081;0,266620;0,266730;0,297160;0,264475;0,622645;0,337116;0,332462;0,622645;0,266078;0,283565;0,248683;0,248776;0,349804;0,296591;0,296027;0,269336;0,342273;0,270662;0,272718;0,273054;0,337497;0,267635;0,267785;0,230115;0,228463;0,232219;0,232335;0,340007;
21;;;;;;;;;;;;;;;;;;;;;1,000000;0,465861;0,545146;0,545476;0,545818;0,598747;0,391824;0,392199;0,372525;0,359422;0,373312;0,395678;0,479336;0,479336;0,363906;0,364152;0,364395;0,767721;0,446773;0,369437;0,369589;0,386150;0,767721;0,371450;0,382622;0,371717;0,371851;0,767721;0,411156;0,411046;0,411158;0,411696;0,411806;0,442236;0,409551;0,767721;0,482192;0,477538;0,767721;0,411154;0,535060;0,540038;0,540142;0,494880;0,441667;0,441103;0,414412;0,487349;0,415738;0,417794;0,418130;0,482573;0,412711;0,412861;0,375191;0,373539;0,377295;0,377411;0,485083;
22;;;;;;;;;;;;;;;;;;;;;;1,000000;0,288332;0,288642;0,288951;0,360620;0,322242;0,322617;0,302944;0,289840;0,303730;0,326096;0,409754;0,409754;0,294324;0,294570;0,294813;0,698139;0,377191;0,299855;0,300007;0,316568;0,698139;0,301868;0,313040;0,302135;0,302269;0,698139;0,341574;0,341464;0,341576;0,342114;0,342224;0,372654;0,339969;0,698139;0,412610;0,407956;0,698139;0,341573;0,359060;0,324177;0,324271;0,425298;0,372085;0,371521;0,749852;1,000000;0,346156;0,348212;0,348548;0,412991;0,343129;0,343279;0,305609;0,303957;0,307713;0,307829;0,415501;
23;;;;;;;;;;;;;;;;;;;;;;;1,000000;0,788803;0,789710;0,539268;0,214295;0,214670;0,194996;0,181893;0,195783;0,218149;0,301807;0,301807;0,186377;0,186623;0,186866;0,590192;0,269244;0,191908;0,192060;0,208621;0,590192;0,193921;0,205093;0,194188;0,194322;0,590192;0,233627;0,233517;0,233629;0,234167;0,234277;0,264707;0,232022;0,590192;0,304663;0,300009;0,590192;0,233625;0,251113;0,216230;0,216324;0,317351;0,264138;0,263574;0,236883;0,309820;0,238209;0,240265;0,240601;0,305044;0,235182;0,235332;0,197662;0,196010;0,199766;0,199882;0,307554;
24;;;;;;;;;;;;;;;;;;;;;;;;1,000000;0,790591;0,539599;0,214605;0,214980;0,195307;0,182203;0,196093;0,218460;0,302117;0,302117;0,186687;0,186933;0,187176;0,590503;0,269554;0,192219;0,192370;0,208932;0,590503;0,194231;0,205403;0,194498;0,194632;0,590503;0,233937;0,233827;0,233939;0,234478;0,234587;0,265018;0,232332;0,590503;0,304973;0,300319;0,590503;0,233936;0,251423;0,216541;0,216634;0,317661;0,264449;0,263884;0,237193;0,310130;0,238519;0,240576;0,240911;0,305355;0,235492;0,235642;0,197972;0,196320;0,200076;0,200192;0,307865;
25;;;;;;;;;;;;;;;;;;;;;;;;;1,000000;0,539941;0,214915;0,215290;0,195616;0,182513;0,196403;0,218769;0,302427;0,302427;0,186997;0,187243;0,187486;0,590812;0,269864;0,192528;0,192680;0,209241;0,590812;0,194541;0,205713;0,194808;0,194942;0,590812;0,234247;0,234136;0,234248;0,234787;0,234897;0,265327;0,232642;0,590812;0,305283;0,300629;0,590812;0,234245;0,251732;0,216850;0,216943;0,317971;0,264758;0,264194;0,237503;0,310440;0,238829;0,240885;0,241221;0,305664;0,235802;0,235952;0,198282;0,196630;0,200386;0,200502;0,308174;
26;;;;;;;;;;;;;;;;;;;;;;;;;;1,000000;0,286583;0,286958;0,267284;0,254181;0,268071;0,290437;0,374095;0,374095;0,258665;0,258911;0,259154;0,662480;0,341532;0,264196;0,264348;0,280909;0,662480;0,266209;0,277381;0,266476;0,266610;0,662480;0,305915;0,305805;0,305917;0,306455;0,306565;0,660150;0,669907;0,662480;0,376951;0,372297;0,662480;0,305913;0,323401;0,288518;0,288612;0,805947;0,336426;0,335862;0,309171;0,382108;0,310497;0,312553;0,312889;0,377332;0,307470;0,307620;0,269950;0,268298;0,272054;0,272170;0,379842;
27;;;;;;;;;;;;;;;;;;;;;;;;;;;1,000000;0,627736;0,228907;0,215803;0,229693;0,252060;0,335717;0,335717;0,550478;0,550679;0,550883;0,624103;0,303154;0,225819;0,225971;0,242532;0,624103;0,227831;0,239004;0,228098;0,228232;0,624103;0,267538;0,267427;0,267539;0,268078;0,268188;0,298618;0,265932;0,624103;0,338573;0,333919;0,624103;0,267536;0,285023;0,250141;0,250234;0,351261;0,298049;0,297484;0,270794;0,343731;0,272119;0,274176;0,274511;0,338955;0,652575;0,652575;0,566591;0,562624;0,571040;0,571121;0,341465;
28;;;;;;;;;;;;;;;;;;;;;;;;;;;;1,000000;0,229282;0,216178;0,230068;0,252435;0,336092;0,336092;0,550478;0,550679;0,550883;0,624478;0,303529;0,226194;0,226345;0,242907;0,624478;0,228206;0,239379;0,228473;0,228607;0,624478;0,267912;0,267802;0,267914;0,268453;0,268562;0,298993;0,266307;0,624478;0,338948;0,334294;0,624478;0,267911;0,285398;0,250516;0,250609;0,351636;0,298424;0,297859;0,271169;0,344105;0,272494;0,274551;0,274886;0,339330;0,652575;0,652575;0,566591;0,562624;0,571040;0,571121;0,341840;
29;;;;;;;;;;;;;;;;;;;;;;;;;;;;;1,000000;0,824577;0,743774;0,232761;0,316419;0,316419;0,200989;0,201235;0,201478;0,604804;0,283856;0,206520;0,206672;0,223233;0,604804;0,208533;0,219705;0,208800;0,208934;0,604804;0,248239;0,248129;0,248240;0,248779;0,248889;0,279319;0,246634;0,604804;0,319275;0,314621;0,604804;0,248237;0,265725;0,230842;0,230936;0,331963;0,278750;0,278186;0,251495;0,324432;0,252821;0,254877;0,255213;0,319656;0,249794;0,249944;0,212274;0,210622;0,214378;0,214494;0,322166;
30;;;;;;;;;;;;;;;;;;;;;;;;;;;;;;1,000000;0,825732;0,219657;0,303315;0,303315;0,187885;0,188131;0,188374;0,591701;0,270752;0,193416;0,193568;0,210129;0,591701;0,195429;0,206601;0,195696;0,195830;0,591701;0,235135;0,235025;0,235137;0,235676;0,235785;0,266216;0,233530;0,591701;0,306171;0,301517;0,591701;0,235134;0,252621;0,217739;0,217832;0,318859;0,265647;0,265082;0,238391;0,311328;0,239717;0,241774;0,242109;0,306553;0,236690;0,236840;0,199170;0,197518;0,201274;0,201390;0,309063;
31;;;;;;;;;;;;;;;;;;;;;;;;;;;;;;;1,000000;0,233548;0,317205;0,317205;0,201776;0,202021;0,202264;0,605591;0,284642;0,207307;0,207459;0,224020;0,605591;0,209319;0,220492;0,209586;0,209720;0,605591;0,249025;0,248915;0,249027;0,249566;0,249675;0,280106;0,247420;0,605591;0,320061;0,315407;0,605591;0,249024;0,266511;0,231629;0,231722;0,332749;0,279537;0,278972;0,252282;0,325218;0,253607;0,255664;0,255999;0,320443;0,250580;0,250730;0,213060;0,211408;0,215165;0,215280;0,322953;
32;;;;;;;;;;;;;;;;;;;;;;;;;;;;;;;;1,000000;0,339571;0,339571;0,224142;0,224388;0,224631;0,627957;0,307008;0,229673;0,229825;0,246386;0,627957;0,231685;0,242858;0,231952;0,232087;0,627957;0,271392;0,271281;0,271393;0,271932;0,272042;0,302472;0,269786;0,627957;0,342427;0,337773;0,627957;0,271390;0,288877;0,253995;0,254088;0,355115;0,301903;0,301338;0,274648;0,347585;0,275973;0,278030;0,278365;0,342809;0,272946;0,273096;0,235427;0,233775;0,237531;0,237647;0,345319;
33;;;;;;;;;;;;;;;;;;;;;;;;;;;;;;;;;1,000000;0,423229;0,307799;0,308045;0,308288;0,711615;0,390666;0,313330;0,313482;0,330043;0,711615;0,315343;0,326515;0,315610;0,315744;0,711615;0,355049;0,354939;0,355051;0,355590;0,355699;0,386130;0,353444;0,711615;0,426085;0,421431;0,711615;0,355048;0,372535;0,337653;0,337746;0,438773;0,385561;0,384996;0,358305;0,431242;0,359631;0,361688;0,362023;0,426466;0,356604;0,356754;0,319084;0,317432;0,321188;0,321304;0,428977;
34;;;;;;;;;;;;;;;;;;;;;;;;;;;;;;;;;;1,000000;0,307799;0,308045;0,308288;0,711615;0,390666;0,313330;0,313482;0,330043;0,711615;0,315343;0,326515;0,315610;0,315744;0,711615;0,355049;0,354939;0,355051;0,355590;0,355699;0,386130;0,353444;0,711615;0,426085;0,421431;0,711615;0,355048;0,372535;0,337653;0,337746;0,438773;0,385561;0,384996;0,358305;0,431242;0,359631;0,361688;0,362023;0,426466;0,356604;0,356754;0,319084;0,317432;0,321188;0,321304;0,428977;
35;;;;;;;;;;;;;;;;;;;;;;;;;;;;;;;;;;;1,000000;0,793543;0,794080;0,596185;0,275236;0,197901;0,198053;0,214614;0,596185;0,199913;0,211086;0,200180;0,200315;0,596185;0,239620;0,239509;0,239621;0,240160;0,240270;0,270700;0,238014;0,596185;0,310655;0,306001;0,596185;0,239618;0,257105;0,222223;0,222316;0,323343;0,270131;0,269566;0,242876;0,315813;0,244201;0,246258;0,246593;0,311037;0,575317;0,575317;0,489333;0,485367;0,493782;0,493863;0,313547;
36;;;;;;;;;;;;;;;;;;;;;;;;;;;;;;;;;;;;1,000000;0,794606;0,596431;0,275482;0,198147;0,198298;0,214860;0,596431;0,200159;0,211331;0,200426;0,200560;0,596431;0,239865;0,239755;0,239867;0,240406;0,240515;0,270946;0,238260;0,596431;0,310901;0,306247;0,596431;0,239864;0,257351;0,222469;0,222562;0,323589;0,270377;0,269812;0,243122;0,316058;0,244447;0,246504;0,246839;0,311283;0,575518;0,575518;0,489534;0,485567;0,493982;0,494063;0,313793;
37;;;;;;;;;;;;;;;;;;;;;;;;;;;;;;;;;;;;;1,000000;0,596674;0,275725;0,198390;0,198542;0,215103;0,596674;0,200402;0,211575;0,200669;0,200803;0,596674;0,240108;0,239998;0,240110;0,240649;0,240759;0,271189;0,238503;0,596674;0,311144;0,306490;0,596674;0,240107;0,257594;0,222712;0,222805;0,323832;0,270620;0,270055;0,243365;0,316301;0,244690;0,246747;0,247082;0,311526;0,575722;0,575722;0,489738;0,485771;0,494186;0,494268;0,314036;
38;;;;;;;;;;;;;;;;;;;;;;;;;;;;;;;;;;;;;;1,000000;0,679051;0,601716;0,601868;0,618429;1,000000;0,603728;0,614901;0,603996;0,604130;1,000000;0,643435;0,643324;0,643436;0,643975;0,644085;0,674515;0,641830;1,000000;0,714471;0,709816;1,000000;0,643433;0,660920;0,626038;0,626131;0,727158;0,673946;0,673381;0,646691;0,719628;0,648016;0,650073;0,650408;0,714852;0,644989;0,645140;0,607470;0,605818;0,609574;0,609690;0,717362;
39;;;;;;;;;;;;;;;;;;;;;;;;;;;;;;;;;;;;;;;1,000000;0,762228;0,762519;0,766583;0,679051;0,282780;0,293952;0,283047;0,283181;0,679051;0,322486;0,322376;0,322488;0,323027;0,323136;0,353567;0,320881;0,679051;0,393522;0,388868;0,679051;0,656469;0,339972;0,594960;0,595022;0,406210;0,352997;0,352433;0,544048;0,398679;0,327068;0,329125;0,329460;0,393903;0,324041;0,324191;0,286521;0,284869;0,288625;0,288741;0,396413;
40;;;;;;;;;;;;;;;;;;;;;;;;;;;;;;;;;;;;;;;;1,000000;0,792308;0,788740;0,601716;0,205444;0,216617;0,205711;0,205846;0,601716;0,245151;0,245040;0,245152;0,245691;0,245801;0,276231;0,243545;0,601716;0,316186;0,311532;0,601716;0,896154;0,539939;0,227754;0,227847;0,328874;0,275662;0,275097;0,248407;0,321344;0,249732;0,251789;0,252124;0,316568;0,246705;0,246855;0,209186;0,207534;0,211290;0,211406;0,319078;
41;;;;;;;;;;;;;;;;;;;;;;;;;;;;;;;;;;;;;;;;;1,000000;0,789077;0,601868;0,205596;0,216769;0,205863;0,205997;0,601868;0,245303;0,245192;0,245304;0,245843;0,245953;0,276383;0,243697;0,601868;0,316338;0,311684;0,601868;0,896154;0,540110;0,227906;0,227999;0,329026;0,275814;0,275249;0,248559;0,321496;0,249884;0,251941;0,252276;0,316720;0,246857;0,247007;0,209338;0,207686;0,211442;0,211558;0,319230;
42;;;;;;;;;;;;;;;;;;;;;;;;;;;;;;;;;;;;;;;;;;1,000000;0,618429;0,222157;0,233330;0,222425;0,222559;0,618429;0,261864;0,261753;0,261865;0,262404;0,262514;0,292944;0,260258;0,618429;0,332899;0,328245;0,618429;0,643606;0,577615;0,244467;0,244560;0,345587;0,292375;0,291810;0,265120;0,338057;0,266445;0,268502;0,268837;0,333281;0,263418;0,263569;0,225899;0,224247;0,228003;0,228119;0,335791;
43;;;;;;;;;;;;;;;;;;;;;;;;;;;;;;;;;;;;;;;;;;;1,000000;0,603728;0,614901;0,603996;0,604130;1,000000;0,643435;0,643324;0,643436;0,643975;0,644085;0,674515;0,641830;1,000000;0,714471;0,709816;1,000000;0,643433;0,660920;0,626038;0,626131;0,727158;0,673946;0,673381;0,646691;0,719628;0,648016;0,650073;0,650408;0,714852;0,644989;0,645140;0,607470;0,605818;0,609574;0,609690;0,717362;
44;;;;;;;;;;;;;;;;;;;;;;;;;;;;;;;;;;;;;;;;;;;;1,000000;0,747167;0,794409;0,794809;0,603728;0,247163;0,247053;0,247165;0,247704;0,247813;0,278244;0,245558;0,603728;0,318199;0,313545;0,603728;0,247162;0,264649;0,229766;0,229860;0,330887;0,277674;0,491969;0,250419;0,323356;0,619139;0,253802;0,254137;0,318580;0,248718;0,248868;0,211198;0,209546;0,213302;0,213418;0,321090;
45;;;;;;;;;;;;;;;;;;;;;;;;;;;;;;;;;;;;;;;;;;;;;1,000000;0,747829;0,748153;0,614901;0,258336;0,258225;0,258337;0,258876;0,258986;0,289416;0,256730;0,614901;0,329371;0,324717;0,614901;0,258334;0,275821;0,240939;0,241032;0,342059;0,535197;0,455208;0,261592;0,334529;0,522566;0,466479;0,265309;0,329753;0,259890;0,260040;0,222371;0,220719;0,224475;0,224591;0,332263;
46;;;;;;;;;;;;;;;;;;;;;;;;;;;;;;;;;;;;;;;;;;;;;;1,000000;0,795592;0,603996;0,247430;0,247320;0,247432;0,247971;0,248080;0,278511;0,245825;0,603996;0,318466;0,313812;0,603996;0,247429;0,264916;0,230034;0,230127;0,331154;0,277942;0,492268;0,250686;0,323623;0,619438;0,254069;0,254404;0,318848;0,248985;0,249135;0,211465;0,209813;0,213569;0,213685;0,321358;
47;;;;;;;;;;;;;;;;;;;;;;;;;;;;;;;;;;;;;;;;;;;;;;;1,000000;0,604130;0,247564;0,247454;0,247566;0,248105;0,248214;0,278645;0,245959;0,604130;0,318600;0,313946;0,604130;0,247563;0,265050;0,230168;0,230261;0,331288;0,278076;0,492421;0,250821;0,323757;0,619591;0,254203;0,254538;0,318982;0,249119;0,249269;0,211599;0,209947;0,213704;0,213819;0,321492;
48;;;;;;;;;;;;;;;;;;;;;;;;;;;;;;;;;;;;;;;;;;;;;;;;1,000000;0,643435;0,643324;0,643436;0,643975;0,644085;0,674515;0,641830;1,000000;0,714471;0,709816;1,000000;0,643433;0,660920;0,626038;0,626131;0,727158;0,673946;0,673381;0,646691;0,719628;0,648016;0,650073;0,650408;0,714852;0,644989;0,645140;0,607470;0,605818;0,609574;0,609690;0,717362;
49;;;;;;;;;;;;;;;;;;;;;;;;;;;;;;;;;;;;;;;;;;;;;;;;;1,000000;0,676680;0,676961;0,676889;0,677163;0,317950;0,285264;0,643435;0,357905;0,353251;0,643435;0,286868;0,304355;0,269473;0,269566;0,370593;0,317381;0,316816;0,290126;0,363062;0,291451;0,293508;0,293843;0,358287;0,288424;0,288574;0,250904;0,249253;0,253009;0,253124;0,360797;
50;;;;;;;;;;;;;;;;;;;;;;;;;;;;;;;;;;;;;;;;;;;;;;;;;;1,000000;0,726976;0,727806;0,727806;0,317840;0,285154;0,643324;0,357795;0,353141;0,643324;0,286758;0,304245;0,269362;0,269456;0,370483;0,317270;0,316706;0,290015;0,362952;0,291341;0,293397;0,293733;0,358176;0,288314;0,288464;0,250794;0,249142;0,252898;0,253014;0,360686;
51;;;;;;;;;;;;;;;;;;;;;;;;;;;;;;;;;;;;;;;;;;;;;;;;;;;1,000000;0,727806;0,727806;0,317951;0,285266;0,643436;0,357907;0,353253;0,643436;0,286869;0,304357;0,269474;0,269568;0,370595;0,317382;0,316818;0,290127;0,363064;0,291453;0,293509;0,293845;0,358288;0,288426;0,288576;0,250906;0,249254;0,253010;0,253126;0,360798;
52;;;;;;;;;;;;;;;;;;;;;;;;;;;;;;;;;;;;;;;;;;;;;;;;;;;;1,000000;0,728636;0,318490;0,285805;0,643975;0,358446;0,353792;0,643975;0,287408;0,304895;0,270013;0,270106;0,371134;0,317921;0,317357;0,290666;0,363603;0,291992;0,294048;0,294383;0,358827;0,288965;0,289115;0,251445;0,249793;0,253549;0,253665;0,361337;
53;;;;;;;;;;;;;;;;;;;;;;;;;;;;;;;;;;;;;;;;;;;;;;;;;;;;;1,000000;0,318600;0,285914;0,644085;0,358555;0,353901;0,644085;0,287518;0,305005;0,270123;0,270216;0,371243;0,318031;0,317466;0,290776;0,363713;0,292101;0,294158;0,294493;0,358937;0,289074;0,289224;0,251554;0,249903;0,253659;0,253774;0,361447;
54;;;;;;;;;;;;;;;;;;;;;;;;;;;;;;;;;;;;;;;;;;;;;;;;;;;;;;1,000000;0,695073;0,674515;0,388986;0,384332;0,674515;0,317948;0,335435;0,300553;0,300646;0,401674;0,348461;0,347897;0,321206;0,394143;0,322532;0,324588;0,324924;0,389367;0,319505;0,319655;0,281985;0,280333;0,284089;0,284205;0,391877;
55;;;;;;;;;;;;;;;;;;;;;;;;;;;;;;;;;;;;;;;;;;;;;;;;;;;;;;;1,000000;0,641830;0,356300;0,351646;0,641830;0,285263;0,302750;0,267868;0,267961;0,863960;0,315776;0,315211;0,288520;0,361457;0,289846;0,291903;0,292238;0,356681;0,286819;0,286969;0,249299;0,247647;0,251403;0,251519;0,359192;
56;;;;;;;;;;;;;;;;;;;;;;;;;;;;;;;;;;;;;;;;;;;;;;;;;;;;;;;;1,000000;0,714471;0,709816;1,000000;0,643433;0,660920;0,626038;0,626131;0,727158;0,673946;0,673381;0,646691;0,719628;0,648016;0,650073;0,650408;0,714852;0,644989;0,645140;0,607470;0,605818;0,609574;0,609690;0,717362;
57;;;;;;;;;;;;;;;;;;;;;;;;;;;;;;;;;;;;;;;;;;;;;;;;;;;;;;;;;1,000000;0,424287;0,714471;0,357904;0,375391;0,340509;0,340602;0,441629;0,388417;0,387852;0,361161;0,434098;0,362487;0,364544;0,364879;0,429322;0,359460;0,359610;0,321940;0,320288;0,324044;0,324160;0,431833;
58;;;;;;;;;;;;;;;;;;;;;;;;;;;;;;;;;;;;;;;;;;;;;;;;;;;;;;;;;;1,000000;0,709816;0,353250;0,370737;0,335854;0,335948;0,436975;0,383762;0,383198;0,356507;0,429444;0,357833;0,359890;0,360225;0,424668;0,354806;0,354956;0,317286;0,315634;0,319390;0,319506;0,427179;
59;;;;;;;;;;;;;;;;;;;;;;;;;;;;;;;;;;;;;;;;;;;;;;;;;;;;;;;;;;;1,000000;0,643433;0,660920;0,626038;0,626131;0,727158;0,673946;0,673381;0,646691;0,719628;0,648016;0,650073;0,650408;0,714852;0,644989;0,645140;0,607470;0,605818;0,609574;0,609690;0,717362;
60;;;;;;;;;;;;;;;;;;;;;;;;;;;;;;;;;;;;;;;;;;;;;;;;;;;;;;;;;;;;1,000000;0,627488;0,269471;0,269564;0,370592;0,317379;0,316815;0,290124;0,363061;0,291450;0,293506;0,293842;0,358285;0,288423;0,288573;0,250903;0,249251;0,253007;0,253123;0,360795;
61;;;;;;;;;;;;;;;;;;;;;;;;;;;;;;;;;;;;;;;;;;;;;;;;;;;;;;;;;;;;;1,000000;0,735134;0,735365;0,388079;0,334866;0,334302;0,748050;0,380548;0,308937;0,310993;0,311329;0,375772;0,305910;0,306060;0,268390;0,266738;0,270494;0,270610;0,378282;
62;;;;;;;;;;;;;;;;;;;;;;;;;;;;;;;;;;;;;;;;;;;;;;;;;;;;;;;;;;;;;;1,000000;0,771490;0,353196;0,299984;0,299419;0,802585;0,345666;0,274054;0,276111;0,276446;0,340890;0,271027;0,271178;0,233508;0,231856;0,235612;0,235728;0,343400;
63;;;;;;;;;;;;;;;;;;;;;;;;;;;;;;;;;;;;;;;;;;;;;;;;;;;;;;;;;;;;;;;1,000000;0,353290;0,300077;0,299513;0,802738;0,345759;0,274148;0,276204;0,276540;0,340983;0,271121;0,271271;0,233601;0,231949;0,235705;0,235821;0,343493;
64;;;;;;;;;;;;;;;;;;;;;;;;;;;;;;;;;;;;;;;;;;;;;;;;;;;;;;;;;;;;;;;;1,000000;0,401104;0,400540;0,373849;0,446786;0,375175;0,377232;0,377567;0,442010;0,372148;0,372298;0,334628;0,332976;0,336732;0,336848;0,444521;
65;;;;;;;;;;;;;;;;;;;;;;;;;;;;;;;;;;;;;;;;;;;;;;;;;;;;;;;;;;;;;;;;;1,000000;0,604781;0,320637;0,393574;0,707774;0,773941;0,684953;0,388798;0,318935;0,319086;0,281416;0,279764;0,283520;0,283636;0,391308;
66;;;;;;;;;;;;;;;;;;;;;;;;;;;;;;;;;;;;;;;;;;;;;;;;;;;;;;;;;;;;;;;;;;1,000000;0,320072;0,393009;0,582384;0,710870;0,935140;0,388233;0,318371;0,318521;0,280851;0,279199;0,282955;0,283071;0,390743;
67;;;;;;;;;;;;;;;;;;;;;;;;;;;;;;;;;;;;;;;;;;;;;;;;;;;;;;;;;;;;;;;;;;;1,000000;0,749852;0,294707;0,296764;0,297099;0,361543;0,291680;0,291830;0,254161;0,252509;0,256265;0,256381;0,364053;
68;;;;;;;;;;;;;;;;;;;;;;;;;;;;;;;;;;;;;;;;;;;;;;;;;;;;;;;;;;;;;;;;;;;;1,000000;0,367644;0,369701;0,370036;0,434480;0,364617;0,364767;0,327097;0,325446;0,329202;0,329317;0,436990;
69;;;;;;;;;;;;;;;;;;;;;;;;;;;;;;;;;;;;;;;;;;;;;;;;;;;;;;;;;;;;;;;;;;;;;1,000000;0,639055;0,298425;0,362868;0,293006;0,293156;0,255486;0,253834;0,257590;0,257706;0,365378;
70;;;;;;;;;;;;;;;;;;;;;;;;;;;;;;;;;;;;;;;;;;;;;;;;;;;;;;;;;;;;;;;;;;;;;;1,000000;0,703856;0,364925;0,295063;0,295213;0,257543;0,255891;0,259647;0,259763;0,367435;
71;;;;;;;;;;;;;;;;;;;;;;;;;;;;;;;;;;;;;;;;;;;;;;;;;;;;;;;;;;;;;;;;;;;;;;;1,000000;0,365260;0,295398;0,295548;0,257878;0,256226;0,259982;0,260098;0,367770;
72;;;;;;;;;;;;;;;;;;;;;;;;;;;;;;;;;;;;;;;;;;;;;;;;;;;;;;;;;;;;;;;;;;;;;;;;1,000000;0,359841;0,359992;0,322322;0,320670;0,324426;0,324542;1,000000;
73;;;;;;;;;;;;;;;;;;;;;;;;;;;;;;;;;;;;;;;;;;;;;;;;;;;;;;;;;;;;;;;;;;;;;;;;;1,000000;0,677414;0,591430;0,587463;0,595879;0,595960;0,362351;
74;;;;;;;;;;;;;;;;;;;;;;;;;;;;;;;;;;;;;;;;;;;;;;;;;;;;;;;;;;;;;;;;;;;;;;;;;;1,000000;0,591430;0,587463;0,595879;0,595960;0,362502;
75;;;;;;;;;;;;;;;;;;;;;;;;;;;;;;;;;;;;;;;;;;;;;;;;;;;;;;;;;;;;;;;;;;;;;;;;;;;1,000000;0,723106;0,749180;0,749322;0,324832;
76;;;;;;;;;;;;;;;;;;;;;;;;;;;;;;;;;;;;;;;;;;;;;;;;;;;;;;;;;;;;;;;;;;;;;;;;;;;;1,000000;0,786768;0,786768;0,323180;
77;;;;;;;;;;;;;;;;;;;;;;;;;;;;;;;;;;;;;;;;;;;;;;;;;;;;;;;;;;;;;;;;;;;;;;;;;;;;;1,000000;0,797623;0,326936;
78;;;;;;;;;;;;;;;;;;;;;;;;;;;;;;;;;;;;;;;;;;;;;;;;;;;;;;;;;;;;;;;;;;;;;;;;;;;;;;1,000000;0,327052;
79;;;;;;;;;;;;;;;;;;;;;;;;;;;;;;;;;;;;;;;;;;;;;;;;;;;;;;;;;;;;;;;;;;;;;;;;;;;;;;;1,000000;
