;1; 2; 3; 4; 5; 6; 7; 8; 9; 10; 11; 12; 13; 14; 15; 16; 17; 18; 19; 20; 21; 22; 23; 24; 25; 26; 27; 28; 29; 30; 31; 32; 33; 34; 35; 36; 37; 38; 39; 40; 41; 42; 43; 44; 45; 46; 47; 48; 49; 50; 51; 52; 53; 54; 55; 56; 57; 58; 59; 60; 61; 62; 63; 64; 65; 66
1;1,000000;0,624197;0,728034;0,654143;0,738168;0,774152;0,456826;0,456826;0,652030;0,569223;0,486704;0,493073;0,626968;0,264626;0,261376;0,365399;0,323492;0,236055;0,369924;0,278541;0,216826;0,228043;0,478589;0,478589;0,478589;0,207469;0,207469;0,207469;0,207469;0,604102;0,228043;0,464487;0,323492;0,487588;0,400474;0,256826;0,613807;0,323492;0,323492;0,323492;0,557281;0,316932;0,323492;0,216826;0,216826;0,361737;0,919724;0,323492;0,323492;0,675503;0,256826;0,256826;0,256826;0,256826;0,216826;0,518849;0,518849;0,480453;0,613807;0,856826;0,856826;0,856826;0,856826;0,456826;0,323492;0,323492;
2;;1,000000;0,589438;0,736286;0,571112;0,795470;0,500000;0,500000;0,651753;0,624727;0,724177;0,682280;0,638534;0,744366;0,746158;0,596275;0,663118;0,793000;0,756504;0,789956;0,797007;0,795136;0,738247;0,740335;0,738247;0,399978;0,399978;0,399978;0,399978;0,660510;0,795136;0,734715;0,664599;0,768664;0,795465;0,748053;0,663702;0,666667;0,666667;0,666667;0,633307;0,665815;0,664414;0,797259;0,797259;0,792581;0,666267;0,661919;0,661919;0,596308;0,750000;0,750000;0,750000;0,750000;0,797007;0,707880;0,707880;0,747163;0,663664;0,000000;0,000000;0,000000;0,000000;0,497083;0,664675;0,664675;
3;;;1,000000;0,609347;0,549840;0,797298;0,497604;0,497604;0,705536;0,818169;0,375869;0,384109;0,844234;0,263472;0,259231;0,793053;0,661041;0,402826;0,517266;0,447080;0,400996;0,401936;0,733132;0,734023;0,733132;0,207165;0,207165;0,207165;0,207165;0,986678;0,401936;0,728124;0,335700;0,352478;0,792211;0,254747;0,660394;0,335700;0,335700;0,335700;0,406597;0,507472;0,659950;0,206176;0,206176;0,326005;0,668050;0,335700;0,335700;0,590398;0,254747;0,254747;0,254747;0,254747;0,400996;0,569142;0,569142;0,498090;0,660305;0,983319;0,983319;0,983319;0,983319;0,983805;0,335700;0,335700;
4;;;;1,000000;0,613769;0,728425;0,448090;0,448090;0,483615;0,582946;0,332572;0,332526;0,450277;0,245907;0,246817;0,350840;0,314757;0,217336;0,339032;0,256702;0,208090;0,213483;0,461427;0,461427;0,461427;0,200000;0,200000;0,200000;0,200000;0,561388;0,213483;0,442421;0,314757;0,337709;0,390177;0,248090;0,603510;0,314757;0,314757;0,314757;0,540119;0,302372;0,314757;0,208090;0,208090;0,319023;0,892953;0,314757;0,314757;0,658341;0,248090;0,248090;0,248090;0,248090;0,208090;0,628776;0,628776;0,708627;0,603510;0,848090;0,848090;0,848090;0,848090;0,870576;0,314757;0,314757;
5;;;;;1,000000;0,799801;0,498309;0,498309;0,666520;0,654776;0,660928;0,697525;0,829981;0,725577;0,733278;0,793830;0,661332;0,218878;0,512869;0,289997;0,206642;0,212925;0,636235;0,775245;0,636235;0,793591;0,793591;0,793591;0,793591;0,656286;0,212925;0,678519;0,984462;0,874503;0,604964;0,741407;0,668944;0,336272;0,336272;0,336272;0,640894;0,339051;0,336272;0,790334;0,790334;0,689761;0,668944;0,660110;0,660110;0,808642;0,255253;0,255253;0,255253;0,255253;0,206642;0,570619;0,570619;0,498791;0,668944;0,984420;0,984420;0,984420;0,984420;0,985253;0,336272;0,336272;
6;;;;;;1,000000;0,400000;0,400000;0,591453;0,640582;0,379211;0,381128;0,450000;0,220000;0,225000;0,303017;0,288889;0,200000;0,380313;0,224318;0,200000;0,200000;0,458349;0,458349;0,458349;0,200000;0,200000;0,200000;0,200000;0,533333;0,200000;0,444430;0,288889;0,365574;0,400000;0,233333;0,577778;0,288889;0,288889;0,288889;0,517368;0,266667;0,288889;0,200000;0,200000;0,351560;0,866667;0,288889;0,288889;0,606035;0,233333;0,233333;0,233333;0,233333;0,200000;0,488570;0,488570;0,466667;0,577778;0,733333;0,733333;0,733333;0,733333;0,800000;0,288889;0,288889;
7;;;;;;;1,000000;0,500000;0,487049;0,485447;0,474055;0,479381;0,450000;0,437500;0,416667;0,468678;0,416667;0,425000;0,463002;0,454591;0,350000;0,400000;0,419450;0,419450;0,419450;0,000000;0,000000;0,000000;0,000000;0,444444;0,400000;0,438884;0,416667;0,407909;0,350000;0,375000;0,416667;0,416667;0,416667;0,416667;0,468678;0,444444;0,416667;0,350000;0,350000;0,400000;0,416667;0,416667;0,416667;0,468678;0,375000;0,375000;0,375000;0,375000;0,350000;0,429523;0,429523;0,375000;0,416667;0,750000;0,750000;0,750000;0,750000;0,500000;0,416667;0,416667;
8;;;;;;;;1,000000;0,487049;0,485447;0,474055;0,479381;0,450000;0,437500;0,416667;0,468678;0,416667;0,425000;0,463002;0,454591;0,350000;0,400000;0,419450;0,419450;0,419450;0,000000;0,000000;0,000000;0,000000;0,444444;0,400000;0,438884;0,416667;0,407909;0,350000;0,375000;0,416667;0,416667;0,416667;0,416667;0,468678;0,444444;0,416667;0,350000;0,350000;0,400000;0,416667;0,416667;0,416667;0,468678;0,375000;0,375000;0,375000;0,375000;0,350000;0,429523;0,429523;0,375000;0,416667;0,750000;0,750000;0,750000;0,750000;0,500000;0,416667;0,416667;
9;;;;;;;;;1,000000;0,664502;0,375610;0,372619;0,627367;0,266328;0,261663;0,566127;0,646239;0,403154;0,482486;0,440332;0,401213;0,402253;0,835581;0,712947;0,835581;0,207903;0,207903;0,207903;0,207903;0,630672;0,402253;0,712371;0,333203;0,448164;0,784641;0,256280;0,962449;0,333203;0,333203;0,333203;0,610007;0,333091;0,333203;0,210126;0,210126;0,319060;0,964628;0,333203;0,333203;0,762007;0,256280;0,256280;0,256280;0,256280;0,401213;0,294723;0,294723;0,256280;0,650895;0,948588;0,948588;0,948588;0,948588;0,487049;0,333203;0,333203;
10;;;;;;;;;;1,000000;0,724456;0,704787;0,832159;0,670291;0,690956;0,727240;0,637125;0,255074;0,405338;0,313182;0,222947;0,240795;0,385504;0,497507;0,385504;0,396773;0,396773;0,396773;0,396773;0,949466;0,240795;0,420979;0,935538;0,783865;0,403792;0,716788;0,339614;0,339614;0,339614;0,339614;0,401045;0,344499;0,339614;0,585538;0,585538;0,817291;0,674228;0,637135;0,637135;0,401045;0,266697;0,266697;0,266697;0,266697;0,222947;0,309683;0,309683;0,266697;0,339614;0,922947;0,922947;0,922947;0,922947;0,930090;0,339614;0,339614;
11;;;;;;;;;;;1,000000;0,699238;0,592746;0,718404;0,726793;0,378127;0,325907;0,218136;0,251934;0,270802;0,207389;0,213300;0,259979;0,259979;0,259979;0,387978;0,387978;0,387978;0,387978;0,592545;0,213300;0,258526;0,651814;0,751624;0,207389;0,737107;0,325907;0,325907;0,325907;0,325907;0,378127;0,319966;0,325907;0,780324;0,780324;0,776947;0,625488;0,651814;0,651814;0,378127;0,251833;0,251833;0,251833;0,251833;0,207389;0,284156;0,284156;0,251833;0,325907;0,918500;0,918500;0,918500;0,918500;0,474055;0,325907;0,325907;
12;;;;;;;;;;;;1,000000;0,600879;0,717269;0,726326;0,383894;0,327866;0,216890;0,253078;0,273022;0,206654;0,212198;0,260823;0,260823;0,260823;0,777672;0,777672;0,777672;0,777672;0,603350;0,212198;0,259611;0,652893;0,742913;0,206654;0,737087;0,327866;0,327866;0,327866;0,327866;0,383894;0,323310;0,327866;0,781631;0,781631;0,767124;0,632130;0,634440;0,634440;0,383894;0,252108;0,252108;0,252108;0,252108;0,206654;0,286007;0,286007;0,252108;0,327866;0,933926;0,933926;0,933926;0,933926;0,479381;0,327866;0,327866;
13;;;;;;;;;;;;;1,000000;0,310000;0,300000;0,756035;0,677778;0,290000;0,620978;0,324318;0,250000;0,275000;0,536348;0,608349;0,536348;0,216667;0,216667;0,216667;0,216667;0,924588;0,275000;0,586787;0,338889;0,553643;0,500000;0,283333;0,338889;0,338889;0,338889;0,338889;0,378017;0,341667;0,338889;0,250000;0,250000;0,401560;0,611111;0,338889;0,338889;0,378017;0,283333;0,283333;0,283333;0,283333;0,250000;0,319285;0,319285;0,283333;0,338889;0,783333;0,783333;0,783333;0,783333;0,450000;0,338889;0,338889;
14;;;;;;;;;;;;;;1,000000;0,750000;0,343621;0,312500;0,225000;0,247004;0,259838;0,212500;0,220000;0,255009;0,255009;0,255009;0,212500;0,212500;0,212500;0,212500;0,300000;0,220000;0,252768;0,937500;0,702708;0,212500;0,750000;0,312500;0,312500;0,312500;0,312500;0,343621;0,300000;0,312500;0,637500;0,637500;0,660000;0,312500;0,625000;0,625000;0,343621;0,250000;0,250000;0,250000;0,250000;0,212500;0,273142;0,273142;0,250000;0,312500;0,812500;0,812500;0,812500;0,812500;0,437500;0,312500;0,312500;
15;;;;;;;;;;;;;;;1,000000;0,328017;0,305556;0,230000;0,247753;0,257651;0,216667;0,225000;0,254175;0,254175;0,254175;0,216667;0,216667;0,216667;0,216667;0,291667;0,225000;0,252215;0,916667;0,710590;0,216667;1,000000;0,305556;0,305556;0,305556;0,305556;0,328017;0,291667;0,305556;0,650000;0,650000;0,675000;0,305556;0,611111;0,611111;0,328017;0,250000;0,250000;0,250000;0,250000;0,216667;0,269285;0,269285;0,250000;0,305556;0,750000;0,750000;0,750000;0,750000;0,416667;0,305556;0,305556;
16;;;;;;;;;;;;;;;;1,000000;0,715134;0,323621;0,705030;0,361675;0,268678;0,303017;0,592382;0,664384;0,592382;0,000000;0,000000;0,000000;0,000000;0,739368;0,303017;0,654029;0,357567;0,314881;0,537357;0,302012;0,357567;0,357567;0,357567;0,357567;0,406035;0,369684;0,357567;0,268678;0,268678;0,303017;0,357567;0,357567;0,357567;0,406035;0,302012;0,302012;0,302012;0,302012;0,268678;0,347303;0,347303;0,302012;0,357567;0,802012;0,802012;0,802012;0,802012;0,468678;0,357567;0,357567;
17;;;;;;;;;;;;;;;;;1,000000;0,300000;0,626273;0,321258;0,266667;0,288889;0,568676;0,616677;0,568676;0,000000;0,000000;0,000000;0,000000;0,666667;0,288889;0,604242;0,333333;0,296798;0,533333;0,291667;0,333333;0,333333;0,333333;0,333333;0,357567;0,333333;0,333333;0,266667;0,266667;0,288889;0,333333;0,333333;0,333333;0,357567;0,291667;0,291667;0,291667;0,291667;0,266667;0,318412;0,318412;0,291667;0,333333;0,666667;0,666667;0,666667;0,666667;0,416667;0,333333;0,333333;
18;;;;;;;;;;;;;;;;;;1,000000;0,735032;0,805969;0,784080;0,800000;0,235009;0,235009;0,235009;0,000000;0,000000;0,000000;0,000000;0,280000;0,800000;0,408669;0,300000;0,214236;0,400000;0,237500;0,300000;0,300000;0,300000;0,300000;0,323621;0,280000;0,300000;0,200000;0,200000;0,200000;0,300000;0,300000;0,300000;0,323621;0,237500;0,237500;0,237500;0,237500;0,784080;0,253142;0,253142;0,237500;0,300000;0,800000;0,800000;0,800000;0,800000;0,425000;0,300000;0,300000;
19;;;;;;;;;;;;;;;;;;;1,000000;0,730481;0,766118;0,751140;0,587895;0,698110;0,587895;0,000000;0,000000;0,000000;0,000000;0,595978;0,751140;0,668251;0,320144;0,228048;0,765471;0,248716;0,915737;0,320144;0,320144;0,320144;0,556365;0,310253;0,320144;0,205859;0,205859;0,210253;0,617322;0,320144;0,320144;0,689365;0,248716;0,248716;0,248716;0,248716;0,766118;0,276680;0,276680;0,248716;0,617322;0,891573;0,891573;0,891573;0,891573;0,463002;0,320144;0,320144;
20;;;;;;;;;;;;;;;;;;;;1,000000;0,791033;0,804661;0,263217;0,263217;0,263217;0,000000;0,000000;0,000000;0,000000;0,313207;0,804661;0,430701;0,321258;0,240136;0,409704;0,254591;0,321258;0,321258;0,321258;0,321258;0,361675;0,313207;0,321258;0,214591;0,214591;0,224318;0,321258;0,321258;0,321258;0,361675;0,254591;0,254591;0,254591;0,254591;0,791033;0,283365;0,283365;0,254591;0,321258;0,854591;0,854591;0,854591;0,854591;0,454591;0,321258;0,321258;
21;;;;;;;;;;;;;;;;;;;;;1,000000;0,800000;0,219450;0,219450;0,219450;0,000000;0,000000;0,000000;0,000000;0,244444;0,967578;0,404335;0,266667;0,207909;0,400000;0,225000;0,266667;0,266667;0,266667;0,266667;0,268678;0,244444;0,266667;0,200000;0,200000;0,200000;0,266667;0,266667;0,266667;0,268678;0,225000;0,225000;0,225000;0,225000;0,800000;0,229523;0,229523;0,225000;0,266667;0,600000;0,600000;0,600000;0,600000;0,350000;0,266667;0,266667;
22;;;;;;;;;;;;;;;;;;;;;;1,000000;0,229175;0,229175;0,229175;0,000000;0,000000;0,000000;0,000000;0,266667;0,800000;0,406935;0,288889;0,211863;0,400000;0,233333;0,288889;0,288889;0,288889;0,288889;0,303017;0,266667;0,288889;0,200000;0,200000;0,200000;0,288889;0,288889;0,288889;0,303017;0,233333;0,233333;0,233333;0,233333;0,967578;0,244285;0,244285;0,233333;0,288889;0,733333;0,733333;0,733333;0,733333;0,400000;0,288889;0,288889;
23;;;;;;;;;;;;;;;;;;;;;;;1,000000;0,884884;0,745881;0,000000;0,000000;0,000000;0,000000;0,519681;0,229175;0,644829;0,308339;0,241038;0,609365;0,252783;0,616677;0,308339;0,308339;0,308339;0,575717;0,295841;0,308339;0,219450;0,219450;0,229175;0,616677;0,308339;0,308339;0,664384;0,252783;0,252783;0,252783;0,252783;0,219450;0,273460;0,273460;0,252783;0,616677;0,752783;0,752783;0,752783;0,752783;0,419450;0,308339;0,308339;
24;;;;;;;;;;;;;;;;;;;;;;;;1,000000;0,884884;0,000000;0,000000;0,000000;0,000000;0,591682;0,229175;0,733001;0,308339;0,241038;0,658349;0,252783;0,616677;0,308339;0,308339;0,308339;0,575717;0,295841;0,308339;0,219450;0,219450;0,229175;0,616677;0,308339;0,308339;0,664384;0,252783;0,252783;0,252783;0,252783;0,219450;0,273460;0,273460;0,252783;0,616677;0,752783;0,752783;0,752783;0,752783;0,419450;0,308339;0,308339;
25;;;;;;;;;;;;;;;;;;;;;;;;;1,000000;0,000000;0,000000;0,000000;0,000000;0,519681;0,229175;0,644829;0,308339;0,241038;0,609365;0,252783;0,616677;0,308339;0,308339;0,308339;0,575717;0,295841;0,308339;0,219450;0,219450;0,229175;0,616677;0,308339;0,308339;0,664384;0,252783;0,252783;0,252783;0,252783;0,219450;0,273460;0,273460;0,252783;0,616677;0,752783;0,752783;0,752783;0,752783;0,419450;0,308339;0,308339;
26;;;;;;;;;;;;;;;;;;;;;;;;;;1,000000;0,800000;0,800000;0,800000;0,244444;0,000000;0,000000;0,266667;0,373282;0,000000;0,225000;0,000000;0,000000;0,000000;0,000000;0,000000;0,000000;0,000000;0,200000;0,200000;0,362693;0,266667;0,266667;0,266667;0,000000;0,000000;0,000000;0,000000;0,000000;0,000000;0,000000;0,000000;0,000000;0,000000;0,000000;0,000000;0,000000;0,000000;0,000000;0,000000;0,000000;
27;;;;;;;;;;;;;;;;;;;;;;;;;;;1,000000;0,800000;0,800000;0,244444;0,000000;0,000000;0,266667;0,373282;0,000000;0,225000;0,000000;0,000000;0,000000;0,000000;0,000000;0,000000;0,000000;0,200000;0,200000;0,362693;0,266667;0,266667;0,266667;0,000000;0,000000;0,000000;0,000000;0,000000;0,000000;0,000000;0,000000;0,000000;0,000000;0,000000;0,000000;0,000000;0,000000;0,000000;0,000000;0,000000;
28;;;;;;;;;;;;;;;;;;;;;;;;;;;;1,000000;0,800000;0,244444;0,000000;0,000000;0,266667;0,373282;0,000000;0,225000;0,000000;0,000000;0,000000;0,000000;0,000000;0,000000;0,000000;0,200000;0,200000;0,362693;0,266667;0,266667;0,266667;0,000000;0,000000;0,000000;0,000000;0,000000;0,000000;0,000000;0,000000;0,000000;0,000000;0,000000;0,000000;0,000000;0,000000;0,000000;0,000000;0,000000;
29;;;;;;;;;;;;;;;;;;;;;;;;;;;;;1,000000;0,244444;0,000000;0,000000;0,266667;0,373282;0,000000;0,225000;0,000000;0,000000;0,000000;0,000000;0,000000;0,000000;0,000000;0,200000;0,200000;0,362693;0,266667;0,266667;0,266667;0,000000;0,000000;0,000000;0,000000;0,000000;0,000000;0,000000;0,000000;0,000000;0,000000;0,000000;0,000000;0,000000;0,000000;0,000000;0,000000;0,000000;
30;;;;;;;;;;;;;;;;;;;;;;;;;;;;;;1,000000;0,266667;0,566787;0,333333;0,498908;0,488889;0,277778;0,333333;0,333333;0,333333;0,333333;0,369684;0,333333;0,333333;0,244444;0,244444;0,484893;0,666667;0,333333;0,333333;0,369684;0,277778;0,277778;0,277778;0,277778;0,244444;0,310952;0,310952;0,277778;0,333333;0,777778;0,777778;0,777778;0,777778;0,444444;0,333333;0,333333;
31;;;;;;;;;;;;;;;;;;;;;;;;;;;;;;;1,000000;0,406935;0,288889;0,211863;0,400000;0,233333;0,288889;0,288889;0,288889;0,288889;0,303017;0,266667;0,288889;0,200000;0,200000;0,200000;0,288889;0,288889;0,288889;0,303017;0,233333;0,233333;0,233333;0,233333;0,800000;0,244285;0,244285;0,233333;0,288889;0,733333;0,733333;0,733333;0,733333;0,400000;0,288889;0,288889;
32;;;;;;;;;;;;;;;;;;;;;;;;;;;;;;;;1,000000;0,313884;0,236451;0,808566;0,251384;0,627768;0,313884;0,313884;0,313884;0,585271;0,302215;0,313884;0,213884;0,213884;0,222215;0,627768;0,313884;0,313884;0,691671;0,251384;0,251384;0,251384;0,251384;0,404335;0,275357;0,275357;0,251384;0,627768;0,813884;0,813884;0,813884;0,813884;0,438884;0,313884;0,313884;
33;;;;;;;;;;;;;;;;;;;;;;;;;;;;;;;;;1,000000;0,890394;0,266667;0,875000;0,333333;0,333333;0,333333;0,333333;0,357567;0,333333;0,333333;0,800000;0,800000;0,866667;0,333333;0,666667;0,666667;0,357567;0,291667;0,291667;0,291667;0,291667;0,266667;0,318412;0,318412;0,291667;0,333333;0,666667;0,666667;0,666667;0,666667;0,416667;0,333333;0,333333;
34;;;;;;;;;;;;;;;;;;;;;;;;;;;;;;;;;;1,000000;0,207909;0,723727;0,296798;0,296798;0,296798;0,296798;0,314881;0,278530;0,296798;0,792369;0,792369;0,737851;0,554827;0,593596;0,593596;0,314881;0,241242;0,241242;0,241242;0,241242;0,207909;0,256149;0,256149;0,241242;0,296798;0,741242;0,741242;0,741242;0,741242;0,407909;0,296798;0,296798;
35;;;;;;;;;;;;;;;;;;;;;;;;;;;;;;;;;;;1,000000;0,225000;0,800000;0,266667;0,266667;0,266667;0,478245;0,244444;0,266667;0,200000;0,200000;0,200000;0,533333;0,266667;0,266667;0,537357;0,225000;0,225000;0,225000;0,225000;0,400000;0,229523;0,229523;0,225000;0,533333;0,600000;0,600000;0,600000;0,600000;0,350000;0,266667;0,266667;
36;;;;;;;;;;;;;;;;;;;;;;;;;;;;;;;;;;;;1,000000;0,291667;0,291667;0,291667;0,291667;0,302012;0,277778;0,291667;0,675000;0,675000;0,700000;0,291667;0,583333;0,583333;0,302012;0,250000;0,250000;0,250000;0,250000;0,225000;0,262857;0,262857;0,250000;0,291667;0,625000;0,625000;0,625000;0,625000;0,375000;0,291667;0,291667;
37;;;;;;;;;;;;;;;;;;;;;;;;;;;;;;;;;;;;;1,000000;0,333333;0,333333;0,333333;0,656023;0,333333;0,333333;0,266667;0,266667;0,288889;0,666667;0,333333;0,333333;0,715134;0,291667;0,291667;0,291667;0,291667;0,266667;0,318412;0,318412;0,291667;0,666667;0,666667;0,666667;0,666667;0,666667;0,416667;0,333333;0,333333;
38;;;;;;;;;;;;;;;;;;;;;;;;;;;;;;;;;;;;;;1,000000;0,666667;0,666667;0,357567;0,333333;0,333333;0,266667;0,266667;0,288889;0,333333;0,333333;0,333333;0,357567;0,291667;0,291667;0,291667;0,291667;0,266667;0,318412;0,318412;0,291667;0,333333;0,666667;0,666667;0,666667;0,666667;0,416667;0,333333;0,333333;
39;;;;;;;;;;;;;;;;;;;;;;;;;;;;;;;;;;;;;;;1,000000;0,666667;0,357567;0,333333;0,333333;0,266667;0,266667;0,288889;0,333333;0,333333;0,333333;0,357567;0,291667;0,291667;0,291667;0,291667;0,266667;0,318412;0,318412;0,291667;0,333333;0,666667;0,666667;0,666667;0,666667;0,416667;0,333333;0,333333;
40;;;;;;;;;;;;;;;;;;;;;;;;;;;;;;;;;;;;;;;;1,000000;0,357567;0,333333;0,333333;0,266667;0,266667;0,288889;0,333333;0,333333;0,333333;0,357567;0,291667;0,291667;0,291667;0,291667;0,266667;0,318412;0,318412;0,291667;0,333333;0,666667;0,666667;0,666667;0,666667;0,416667;0,333333;0,333333;
41;;;;;;;;;;;;;;;;;;;;;;;;;;;;;;;;;;;;;;;;;1,000000;0,556051;0,644372;0,268678;0,268678;0,303017;0,656023;0,357567;0,357567;0,723403;0,302012;0,302012;0,302012;0,302012;0,268678;0,347303;0,347303;0,302012;0,656023;0,802012;0,802012;0,802012;0,802012;0,468678;0,644372;0,644372;
42;;;;;;;;;;;;;;;;;;;;;;;;;;;;;;;;;;;;;;;;;;1,000000;0,615090;0,244444;0,244444;0,266667;0,333333;0,333333;0,333333;0,369684;0,277778;0,277778;0,277778;0,277778;0,244444;0,310952;0,310952;0,277778;0,333333;0,777778;0,777778;0,777778;0,777778;0,444444;0,615176;0,615176;
43;;;;;;;;;;;;;;;;;;;;;;;;;;;;;;;;;;;;;;;;;;;1,000000;0,266667;0,266667;0,288889;0,333333;0,333333;0,333333;0,357567;0,291667;0,291667;0,291667;0,291667;0,266667;0,318412;0,318412;0,291667;0,333333;0,666667;0,666667;0,666667;0,666667;0,416667;0,666667;0,666667;
44;;;;;;;;;;;;;;;;;;;;;;;;;;;;;;;;;;;;;;;;;;;;1,000000;0,800000;0,767829;0,266667;0,533333;0,533333;0,268678;0,225000;0,225000;0,225000;0,225000;0,200000;0,229523;0,229523;0,225000;0,266667;0,600000;0,600000;0,600000;0,600000;0,350000;0,266667;0,266667;
45;;;;;;;;;;;;;;;;;;;;;;;;;;;;;;;;;;;;;;;;;;;;;1,000000;0,767829;0,266667;0,533333;0,533333;0,268678;0,225000;0,225000;0,225000;0,225000;0,200000;0,229523;0,229523;0,225000;0,266667;0,600000;0,600000;0,600000;0,600000;0,350000;0,266667;0,266667;
46;;;;;;;;;;;;;;;;;;;;;;;;;;;;;;;;;;;;;;;;;;;;;;1,000000;0,545484;0,577778;0,577778;0,303017;0,233333;0,233333;0,233333;0,233333;0,200000;0,244285;0,244285;0,233333;0,288889;0,733333;0,733333;0,733333;0,733333;0,400000;0,288889;0,288889;
47;;;;;;;;;;;;;;;;;;;;;;;;;;;;;;;;;;;;;;;;;;;;;;;1,000000;0,333333;0,333333;0,715134;0,291667;0,291667;0,291667;0,291667;0,266667;0,318412;0,318412;0,291667;0,666667;0,666667;0,666667;0,666667;0,666667;0,416667;0,333333;0,333333;
48;;;;;;;;;;;;;;;;;;;;;;;;;;;;;;;;;;;;;;;;;;;;;;;;1,000000;0,666667;0,357567;0,291667;0,291667;0,291667;0,291667;0,266667;0,318412;0,318412;0,291667;0,333333;0,666667;0,666667;0,666667;0,666667;0,416667;0,333333;0,333333;
49;;;;;;;;;;;;;;;;;;;;;;;;;;;;;;;;;;;;;;;;;;;;;;;;;1,000000;0,357567;0,291667;0,291667;0,291667;0,291667;0,266667;0,318412;0,318412;0,291667;0,333333;0,666667;0,666667;0,666667;0,666667;0,416667;0,333333;0,333333;
50;;;;;;;;;;;;;;;;;;;;;;;;;;;;;;;;;;;;;;;;;;;;;;;;;;1,000000;0,302012;0,302012;0,302012;0,302012;0,268678;0,347303;0,347303;0,302012;0,715134;0,802012;0,802012;0,802012;0,802012;0,468678;0,357567;0,357567;
51;;;;;;;;;;;;;;;;;;;;;;;;;;;;;;;;;;;;;;;;;;;;;;;;;;;1,000000;0,750000;0,750000;0,750000;0,225000;0,262857;0,262857;0,250000;0,291667;0,625000;0,625000;0,625000;0,625000;0,375000;0,291667;0,291667;
52;;;;;;;;;;;;;;;;;;;;;;;;;;;;;;;;;;;;;;;;;;;;;;;;;;;;1,000000;0,750000;0,750000;0,225000;0,262857;0,262857;0,250000;0,291667;0,625000;0,625000;0,625000;0,625000;0,375000;0,291667;0,291667;
53;;;;;;;;;;;;;;;;;;;;;;;;;;;;;;;;;;;;;;;;;;;;;;;;;;;;;1,000000;0,750000;0,225000;0,262857;0,262857;0,250000;0,291667;0,625000;0,625000;0,625000;0,625000;0,375000;0,291667;0,291667;
54;;;;;;;;;;;;;;;;;;;;;;;;;;;;;;;;;;;;;;;;;;;;;;;;;;;;;;1,000000;0,225000;0,262857;0,262857;0,250000;0,291667;0,625000;0,625000;0,625000;0,625000;0,375000;0,291667;0,291667;
55;;;;;;;;;;;;;;;;;;;;;;;;;;;;;;;;;;;;;;;;;;;;;;;;;;;;;;;1,000000;0,229523;0,229523;0,225000;0,266667;0,600000;0,600000;0,600000;0,600000;0,350000;0,266667;0,266667;
56;;;;;;;;;;;;;;;;;;;;;;;;;;;;;;;;;;;;;;;;;;;;;;;;;;;;;;;;1,000000;0,713384;0,788570;0,318412;0,762857;0,762857;0,762857;0,762857;0,429523;0,318412;0,318412;
57;;;;;;;;;;;;;;;;;;;;;;;;;;;;;;;;;;;;;;;;;;;;;;;;;;;;;;;;;1,000000;0,788570;0,318412;0,762857;0,762857;0,762857;0,762857;0,429523;0,318412;0,318412;
58;;;;;;;;;;;;;;;;;;;;;;;;;;;;;;;;;;;;;;;;;;;;;;;;;;;;;;;;;;1,000000;0,291667;0,625000;0,625000;0,625000;0,625000;0,375000;0,291667;0,291667;
59;;;;;;;;;;;;;;;;;;;;;;;;;;;;;;;;;;;;;;;;;;;;;;;;;;;;;;;;;;;1,000000;0,666667;0,666667;0,666667;0,666667;0,416667;0,333333;0,333333;
60;;;;;;;;;;;;;;;;;;;;;;;;;;;;;;;;;;;;;;;;;;;;;;;;;;;;;;;;;;;;1,000000;1,000000;1,000000;1,000000;0,750000;0,666667;0,666667;
61;;;;;;;;;;;;;;;;;;;;;;;;;;;;;;;;;;;;;;;;;;;;;;;;;;;;;;;;;;;;;1,000000;1,000000;1,000000;0,750000;0,666667;0,666667;
62;;;;;;;;;;;;;;;;;;;;;;;;;;;;;;;;;;;;;;;;;;;;;;;;;;;;;;;;;;;;;;1,000000;1,000000;0,750000;0,666667;0,666667;
63;;;;;;;;;;;;;;;;;;;;;;;;;;;;;;;;;;;;;;;;;;;;;;;;;;;;;;;;;;;;;;;1,000000;0,750000;0,666667;0,666667;
64;;;;;;;;;;;;;;;;;;;;;;;;;;;;;;;;;;;;;;;;;;;;;;;;;;;;;;;;;;;;;;;;1,000000;0,416667;0,416667;
65;;;;;;;;;;;;;;;;;;;;;;;;;;;;;;;;;;;;;;;;;;;;;;;;;;;;;;;;;;;;;;;;;1,000000;0,666667;
66;;;;;;;;;;;;;;;;;;;;;;;;;;;;;;;;;;;;;;;;;;;;;;;;;;;;;;;;;;;;;;;;;;1,000000;
