<?xml version="1.0" encoding="UTF-8" standalone="no"?>
<!-- Created by igraph (http://igraph.org/) for use in Inkscape (http://www.inkscape.org/) -->

<svg xmlns:dc="http://purl.org/dc/elements/1.1/" xmlns:cc="http://creativecommons.org/ns#" xmlns:rdf="http://www.w3.org/1999/02/22-rdf-syntax-ns#" xmlns:svg="http://www.w3.org/2000/svg" xmlns="http://www.w3.org/2000/svg" xmlns:sodipodi="http://sodipodi.sourceforge.net/DTD/sodipodi-0.dtd" xmlns:inkscape="http://www.inkscape.org/namespaces/inkscape"
width="400px" height="400px"> <defs id="defs3">
<marker
   inkscape:stockid="Arrow2Lend0"
   orient="auto"
   refY="0.0"
   refX="0.0"
   id="Arrow2Lend0"
   style="overflow:visible;">
  <path
     id="pathArrow0"
     style="font-size:12.0;fill-rule:evenodd;stroke-width:0.62500000;stroke-linejoin:round;fill:black"
     d="M 8.7185878,4.0337352 L -2.2072895,0.016013256 L 8.7185884,-4.0017078 C 6.9730900,-1.6296469 6.9831476,1.6157441 8.7185878,4.0337352 z "
     transform="scale(1.1) rotate(180) translate(1,0)" />
</marker>
</defs>
<g inkscape:groupmode="layer" id="layer2" inkscape:label="Lines" sodipodi:insensitive="true">
<path
    style="fill:none;stroke:black;stroke-width:2;stroke-linecap:butt;stroke-linejoin:miter;stroke-miterlimit:4;stroke-opacity:1;stroke-dasharray:none"
    d="M 338.480607913181,187.96632522122505 319.67479443072426,209.33790923751215"
    id="path0"
    inkscape:connector-type="polyline"
    inkscape:connector-curvature="0"
    inkscape:connection-start="#g0"
    inkscape:connection-start-point="d4"
    inkscape:connection-end="#g1"
    inkscape:connection-end-point="d4" />
<path
    style="fill:none;stroke:black;stroke-width:2;stroke-linecap:butt;stroke-linejoin:miter;stroke-miterlimit:4;stroke-opacity:1;stroke-dasharray:none"
    d="M 338.480607913181,187.96632522122505 382.75184745632896,230.0465283138298"
    id="path1"
    inkscape:connector-type="polyline"
    inkscape:connector-curvature="0"
    inkscape:connection-start="#g0"
    inkscape:connection-start-point="d4"
    inkscape:connection-end="#g2"
    inkscape:connection-end-point="d4" />
<path
    style="fill:none;stroke:black;stroke-width:2;stroke-linecap:butt;stroke-linejoin:miter;stroke-miterlimit:4;stroke-opacity:1;stroke-dasharray:none"
    d="M 338.480607913181,187.96632522122505 286.0061823695478,279.43521206568306"
    id="path2"
    inkscape:connector-type="polyline"
    inkscape:connector-curvature="0"
    inkscape:connection-start="#g0"
    inkscape:connection-start-point="d4"
    inkscape:connection-end="#g3"
    inkscape:connection-end-point="d4" />
<path
    style="fill:none;stroke:black;stroke-width:2;stroke-linecap:butt;stroke-linejoin:miter;stroke-miterlimit:4;stroke-opacity:1;stroke-dasharray:none"
    d="M 338.480607913181,187.96632522122505 365.74098752981,261.3972956797465"
    id="path3"
    inkscape:connector-type="polyline"
    inkscape:connector-curvature="0"
    inkscape:connection-start="#g0"
    inkscape:connection-start-point="d4"
    inkscape:connection-end="#g4"
    inkscape:connection-end-point="d4" />
<path
    style="fill:none;stroke:black;stroke-width:2;stroke-linecap:butt;stroke-linejoin:miter;stroke-miterlimit:4;stroke-opacity:1;stroke-dasharray:none"
    d="M 313.06874917825996,216.84525005316678 380.3244938731677,234.40918826221176"
    id="path4"
    inkscape:connector-type="polyline"
    inkscape:connector-curvature="0"
    inkscape:connection-start="#g1"
    inkscape:connection-start-point="d4"
    inkscape:connection-end="#g2"
    inkscape:connection-end-point="d4" />
<path
    style="fill:none;stroke:black;stroke-width:2;stroke-linecap:butt;stroke-linejoin:miter;stroke-miterlimit:4;stroke-opacity:1;stroke-dasharray:none"
    d="M 313.06874917825996,216.84525005316678 285.13048539231175,278.9885414151277"
    id="path5"
    inkscape:connector-type="polyline"
    inkscape:connector-curvature="0"
    inkscape:connection-start="#g1"
    inkscape:connection-start-point="d4"
    inkscape:connection-end="#g3"
    inkscape:connection-end-point="d4" />
<path
    style="fill:none;stroke:black;stroke-width:2;stroke-linecap:butt;stroke-linejoin:miter;stroke-miterlimit:4;stroke-opacity:1;stroke-dasharray:none"
    d="M 313.06874917825996,216.84525005316678 362.00872325482754,263.84544595354555"
    id="path6"
    inkscape:connector-type="polyline"
    inkscape:connector-curvature="0"
    inkscape:connection-start="#g1"
    inkscape:connection-start-point="d4"
    inkscape:connection-end="#g4"
    inkscape:connection-end-point="d4" />
<path
    style="fill:none;stroke:black;stroke-width:2;stroke-linecap:butt;stroke-linejoin:miter;stroke-miterlimit:4;stroke-opacity:1;stroke-dasharray:none"
    d="M 390.0,236.93596114271168 290.08163903519926,283.858486210416"
    id="path7"
    inkscape:connector-type="polyline"
    inkscape:connector-curvature="0"
    inkscape:connection-start="#g2"
    inkscape:connection-start-point="d4"
    inkscape:connection-end="#g3"
    inkscape:connection-end-point="d4" />
<path
    style="fill:none;stroke:black;stroke-width:2;stroke-linecap:butt;stroke-linejoin:miter;stroke-miterlimit:4;stroke-opacity:1;stroke-dasharray:none"
    d="M 390.0,236.93596114271168 374.45430236185285,262.2506567250682"
    id="path8"
    inkscape:connector-type="polyline"
    inkscape:connector-curvature="0"
    inkscape:connection-start="#g2"
    inkscape:connection-start-point="d4"
    inkscape:connection-end="#g4"
    inkscape:connection-end-point="d4" />
<path
    style="fill:none;stroke:black;stroke-width:2;stroke-linecap:butt;stroke-linejoin:miter;stroke-miterlimit:4;stroke-opacity:1;stroke-dasharray:none"
    d="M 281.0300387618494,288.1091958560508 359.40908622720633,272.7010605879405"
    id="path9"
    inkscape:connector-type="polyline"
    inkscape:connector-curvature="0"
    inkscape:connection-start="#g3"
    inkscape:connection-start-point="d4"
    inkscape:connection-end="#g4"
    inkscape:connection-end-point="d4" />
<path
    style="fill:none;stroke:black;stroke-width:2;stroke-linecap:butt;stroke-linejoin:miter;stroke-miterlimit:4;stroke-opacity:1;stroke-dasharray:none"
    d="M 117.28676488114967,168.39745454574557 130.91303049198513,241.2528707007885"
    id="path10"
    inkscape:connector-type="polyline"
    inkscape:connector-curvature="0"
    inkscape:connection-start="#g5"
    inkscape:connection-start-point="d4"
    inkscape:connection-end="#g6"
    inkscape:connection-end-point="d4" />
<path
    style="fill:none;stroke:black;stroke-width:2;stroke-linecap:butt;stroke-linejoin:miter;stroke-miterlimit:4;stroke-opacity:1;stroke-dasharray:none"
    d="M 117.28676488114967,168.39745454574557 204.13700019139358,207.22080208122068"
    id="path11"
    inkscape:connector-type="polyline"
    inkscape:connector-curvature="0"
    inkscape:connection-start="#g5"
    inkscape:connection-start-point="d4"
    inkscape:connection-end="#g7"
    inkscape:connection-end-point="d4" />
<path
    style="fill:none;stroke:black;stroke-width:2;stroke-linecap:butt;stroke-linejoin:miter;stroke-miterlimit:4;stroke-opacity:1;stroke-dasharray:none"
    d="M 132.75146793095718,251.0824255118156 204.30097726444959,215.73138441461597"
    id="path12"
    inkscape:connector-type="polyline"
    inkscape:connector-curvature="0"
    inkscape:connection-start="#g6"
    inkscape:connection-start-point="d4"
    inkscape:connection-end="#g7"
    inkscape:connection-end-point="d4" />
<path
    style="fill:none;stroke:black;stroke-width:2;stroke-linecap:butt;stroke-linejoin:miter;stroke-miterlimit:4;stroke-opacity:1;stroke-dasharray:none"
    d="M 117.28676488114967,168.39745454574557 130.91303049198513,241.2528707007885"
    id="path13"
    inkscape:connector-type="polyline"
    inkscape:connector-curvature="0"
    inkscape:connection-start="#g5"
    inkscape:connection-start-point="d4"
    inkscape:connection-end="#g6"
    inkscape:connection-end-point="d4" />
<path
    style="fill:none;stroke:black;stroke-width:2;stroke-linecap:butt;stroke-linejoin:miter;stroke-miterlimit:4;stroke-opacity:1;stroke-dasharray:none"
    d="M 281.0300387618494,288.1091958560508 237.66168401306322,374.6487534564397"
    id="path14"
    inkscape:connector-type="polyline"
    inkscape:connector-curvature="0"
    inkscape:connection-start="#g3"
    inkscape:connection-start-point="d4"
    inkscape:connection-end="#g8"
    inkscape:connection-end-point="d4" />
<path
    style="fill:none;stroke:black;stroke-width:2;stroke-linecap:butt;stroke-linejoin:miter;stroke-miterlimit:4;stroke-opacity:1;stroke-dasharray:none"
    d="M 281.0300387618494,288.1091958560508 284.8694642995178,380.0087158138038"
    id="path15"
    inkscape:connector-type="polyline"
    inkscape:connector-curvature="0"
    inkscape:connection-start="#g3"
    inkscape:connection-start-point="d4"
    inkscape:connection-end="#g9"
    inkscape:connection-end-point="d4" />
<path
    style="fill:none;stroke:black;stroke-width:2;stroke-linecap:butt;stroke-linejoin:miter;stroke-miterlimit:4;stroke-opacity:1;stroke-dasharray:none"
    d="M 233.18140299681636,383.5889481979125 275.36173063390055,388.7788102515566"
    id="path16"
    inkscape:connector-type="polyline"
    inkscape:connector-curvature="0"
    inkscape:connection-start="#g8"
    inkscape:connection-start-point="d4"
    inkscape:connection-end="#g9"
    inkscape:connection-end-point="d4" />
<path
    style="fill:none;stroke:black;stroke-width:2;stroke-linecap:butt;stroke-linejoin:miter;stroke-miterlimit:4;stroke-opacity:1;stroke-dasharray:none"
    d="M 338.480607913181,187.96632522122505 319.67479443072426,209.33790923751215"
    id="path17"
    inkscape:connector-type="polyline"
    inkscape:connector-curvature="0"
    inkscape:connection-start="#g0"
    inkscape:connection-start-point="d4"
    inkscape:connection-end="#g1"
    inkscape:connection-end-point="d4" />
<path
    style="fill:none;stroke:black;stroke-width:2;stroke-linecap:butt;stroke-linejoin:miter;stroke-miterlimit:4;stroke-opacity:1;stroke-dasharray:none"
    d="M 338.480607913181,187.96632522122505 271.23807700916603,121.50297755591954"
    id="path18"
    inkscape:connector-type="polyline"
    inkscape:connector-curvature="0"
    inkscape:connection-start="#g0"
    inkscape:connection-start-point="d4"
    inkscape:connection-end="#g10"
    inkscape:connection-end-point="d4" />
<path
    style="fill:none;stroke:black;stroke-width:2;stroke-linecap:butt;stroke-linejoin:miter;stroke-miterlimit:4;stroke-opacity:1;stroke-dasharray:none"
    d="M 313.06874917825996,216.84525005316678 268.439207967447,123.49518574774534"
    id="path19"
    inkscape:connector-type="polyline"
    inkscape:connector-curvature="0"
    inkscape:connection-start="#g1"
    inkscape:connection-start-point="d4"
    inkscape:connection-end="#g10"
    inkscape:connection-end-point="d4" />
<path
    style="fill:none;stroke:black;stroke-width:2;stroke-linecap:butt;stroke-linejoin:miter;stroke-miterlimit:4;stroke-opacity:1;stroke-dasharray:none"
    d="M 183.66450722165408,123.8039830798152 104.81207373609915,113.53175083058308"
    id="path20"
    inkscape:connector-type="polyline"
    inkscape:connector-curvature="0"
    inkscape:connection-start="#g11"
    inkscape:connection-start-point="d4"
    inkscape:connection-end="#g12"
    inkscape:connection-end-point="d4" />
<path
    style="fill:none;stroke:black;stroke-width:2;stroke-linecap:butt;stroke-linejoin:miter;stroke-miterlimit:4;stroke-opacity:1;stroke-dasharray:none"
    d="M 183.66450722165408,123.8039830798152 165.55193641675945,97.68718415996001"
    id="path21"
    inkscape:connector-type="polyline"
    inkscape:connector-curvature="0"
    inkscape:connection-start="#g11"
    inkscape:connection-start-point="d4"
    inkscape:connection-end="#g13"
    inkscape:connection-end-point="d4" />
<path
    style="fill:none;stroke:black;stroke-width:2;stroke-linecap:butt;stroke-linejoin:miter;stroke-miterlimit:4;stroke-opacity:1;stroke-dasharray:none"
    d="M 117.28676488114967,168.39745454574557 175.36377538470066,129.38052779594435"
    id="path22"
    inkscape:connector-type="polyline"
    inkscape:connector-curvature="0"
    inkscape:connection-start="#g5"
    inkscape:connection-start-point="d4"
    inkscape:connection-end="#g11"
    inkscape:connection-end-point="d4" />
<path
    style="fill:none;stroke:black;stroke-width:2;stroke-linecap:butt;stroke-linejoin:miter;stroke-miterlimit:4;stroke-opacity:1;stroke-dasharray:none"
    d="M 94.89586221237532,112.23995014287362 150.4160963380623,92.77796606211446"
    id="path23"
    inkscape:connector-type="polyline"
    inkscape:connector-curvature="0"
    inkscape:connection-start="#g12"
    inkscape:connection-start-point="d4"
    inkscape:connection-end="#g13"
    inkscape:connection-end-point="d4" />
<path
    style="fill:none;stroke:black;stroke-width:2;stroke-linecap:butt;stroke-linejoin:miter;stroke-miterlimit:4;stroke-opacity:1;stroke-dasharray:none"
    d="M 117.28676488114967,168.39745454574557 98.59948589566767,121.52882368128269"
    id="path24"
    inkscape:connector-type="polyline"
    inkscape:connector-curvature="0"
    inkscape:connection-start="#g5"
    inkscape:connection-start-point="d4"
    inkscape:connection-end="#g12"
    inkscape:connection-end-point="d4" />
<path
    style="fill:none;stroke:black;stroke-width:2;stroke-linecap:butt;stroke-linejoin:miter;stroke-miterlimit:4;stroke-opacity:1;stroke-dasharray:none"
    d="M 117.28676488114967,168.39745454574557 155.10631377406352,98.2715294212118"
    id="path25"
    inkscape:connector-type="polyline"
    inkscape:connector-curvature="0"
    inkscape:connection-start="#g5"
    inkscape:connection-start-point="d4"
    inkscape:connection-end="#g13"
    inkscape:connection-end-point="d4" />
<path
    style="fill:none;stroke:black;stroke-width:2;stroke-linecap:butt;stroke-linejoin:miter;stroke-miterlimit:4;stroke-opacity:1;stroke-dasharray:none"
    d="M 117.28676488114967,168.39745454574557 204.13700019139358,207.22080208122068"
    id="path26"
    inkscape:connector-type="polyline"
    inkscape:connector-curvature="0"
    inkscape:connection-start="#g5"
    inkscape:connection-start-point="d4"
    inkscape:connection-end="#g7"
    inkscape:connection-end-point="d4" />
<path
    style="fill:none;stroke:black;stroke-width:2;stroke-linecap:butt;stroke-linejoin:miter;stroke-miterlimit:4;stroke-opacity:1;stroke-dasharray:none"
    d="M 117.28676488114967,168.39745454574557 182.0607480113876,244.78661780647388"
    id="path27"
    inkscape:connector-type="polyline"
    inkscape:connector-curvature="0"
    inkscape:connection-start="#g5"
    inkscape:connection-start-point="d4"
    inkscape:connection-end="#g14"
    inkscape:connection-end-point="d4" />
<path
    style="fill:none;stroke:black;stroke-width:2;stroke-linecap:butt;stroke-linejoin:miter;stroke-miterlimit:4;stroke-opacity:1;stroke-dasharray:none"
    d="M 213.26638545108844,211.30177313969025 193.68398329364018,243.84534409348078"
    id="path28"
    inkscape:connector-type="polyline"
    inkscape:connector-curvature="0"
    inkscape:connection-start="#g7"
    inkscape:connection-start-point="d4"
    inkscape:connection-end="#g14"
    inkscape:connection-end-point="d4" />
<path
    style="fill:none;stroke:black;stroke-width:2;stroke-linecap:butt;stroke-linejoin:miter;stroke-miterlimit:4;stroke-opacity:1;stroke-dasharray:none"
    d="M 183.66450722165408,123.8039830798152 104.81207373609915,113.53175083058308"
    id="path29"
    inkscape:connector-type="polyline"
    inkscape:connector-curvature="0"
    inkscape:connection-start="#g11"
    inkscape:connection-start-point="d4"
    inkscape:connection-end="#g12"
    inkscape:connection-end-point="d4" />
<path
    style="fill:none;stroke:black;stroke-width:2;stroke-linecap:butt;stroke-linejoin:miter;stroke-miterlimit:4;stroke-opacity:1;stroke-dasharray:none"
    d="M 117.28676488114967,168.39745454574557 175.36377538470066,129.38052779594435"
    id="path30"
    inkscape:connector-type="polyline"
    inkscape:connector-curvature="0"
    inkscape:connection-start="#g5"
    inkscape:connection-start-point="d4"
    inkscape:connection-end="#g11"
    inkscape:connection-end-point="d4" />
<path
    style="fill:none;stroke:black;stroke-width:2;stroke-linecap:butt;stroke-linejoin:miter;stroke-miterlimit:4;stroke-opacity:1;stroke-dasharray:none"
    d="M 117.28676488114967,168.39745454574557 98.59948589566767,121.52882368128269"
    id="path31"
    inkscape:connector-type="polyline"
    inkscape:connector-curvature="0"
    inkscape:connection-start="#g5"
    inkscape:connection-start-point="d4"
    inkscape:connection-end="#g12"
    inkscape:connection-end-point="d4" />
<path
    style="fill:none;stroke:black;stroke-width:2;stroke-linecap:butt;stroke-linejoin:miter;stroke-miterlimit:4;stroke-opacity:1;stroke-dasharray:none"
    d="M 281.0300387618494,288.1091958560508 219.88218451050759,218.80051988867365"
    id="path32"
    inkscape:connector-type="polyline"
    inkscape:connector-curvature="0"
    inkscape:connection-start="#g3"
    inkscape:connection-start-point="d4"
    inkscape:connection-end="#g7"
    inkscape:connection-end-point="d4" />
<path
    style="fill:none;stroke:black;stroke-width:2;stroke-linecap:butt;stroke-linejoin:miter;stroke-miterlimit:4;stroke-opacity:1;stroke-dasharray:none"
    d="M 281.0300387618494,288.1091958560508 197.85760753233305,256.01387088083897"
    id="path33"
    inkscape:connector-type="polyline"
    inkscape:connector-curvature="0"
    inkscape:connection-start="#g3"
    inkscape:connection-start-point="d4"
    inkscape:connection-end="#g14"
    inkscape:connection-end-point="d4" />
<path
    style="fill:none;stroke:black;stroke-width:2;stroke-linecap:butt;stroke-linejoin:miter;stroke-miterlimit:4;stroke-opacity:1;stroke-dasharray:none"
    d="M 213.26638545108844,211.30177313969025 193.68398329364018,243.84534409348078"
    id="path34"
    inkscape:connector-type="polyline"
    inkscape:connector-curvature="0"
    inkscape:connection-start="#g7"
    inkscape:connection-start-point="d4"
    inkscape:connection-end="#g14"
    inkscape:connection-end-point="d4" />
<path
    style="fill:none;stroke:black;stroke-width:2;stroke-linecap:butt;stroke-linejoin:miter;stroke-miterlimit:4;stroke-opacity:1;stroke-dasharray:none"
    d="M 117.28676488114967,168.39745454574557 130.91303049198513,241.2528707007885"
    id="path35"
    inkscape:connector-type="polyline"
    inkscape:connector-curvature="0"
    inkscape:connection-start="#g5"
    inkscape:connection-start-point="d4"
    inkscape:connection-end="#g6"
    inkscape:connection-end-point="d4" />
<path
    style="fill:none;stroke:black;stroke-width:2;stroke-linecap:butt;stroke-linejoin:miter;stroke-miterlimit:4;stroke-opacity:1;stroke-dasharray:none"
    d="M 117.28676488114967,168.39745454574557 204.13700019139358,207.22080208122068"
    id="path36"
    inkscape:connector-type="polyline"
    inkscape:connector-curvature="0"
    inkscape:connection-start="#g5"
    inkscape:connection-start-point="d4"
    inkscape:connection-end="#g7"
    inkscape:connection-end-point="d4" />
<path
    style="fill:none;stroke:black;stroke-width:2;stroke-linecap:butt;stroke-linejoin:miter;stroke-miterlimit:4;stroke-opacity:1;stroke-dasharray:none"
    d="M 132.75146793095718,251.0824255118156 204.30097726444959,215.73138441461597"
    id="path37"
    inkscape:connector-type="polyline"
    inkscape:connector-curvature="0"
    inkscape:connection-start="#g6"
    inkscape:connection-start-point="d4"
    inkscape:connection-end="#g7"
    inkscape:connection-end-point="d4" />
<path
    style="fill:none;stroke:black;stroke-width:2;stroke-linecap:butt;stroke-linejoin:miter;stroke-miterlimit:4;stroke-opacity:1;stroke-dasharray:none"
    d="M 213.26638545108844,211.30177313969025 193.68398329364018,243.84534409348078"
    id="path38"
    inkscape:connector-type="polyline"
    inkscape:connector-curvature="0"
    inkscape:connection-start="#g7"
    inkscape:connection-start-point="d4"
    inkscape:connection-end="#g14"
    inkscape:connection-end-point="d4" />
<path
    style="fill:none;stroke:black;stroke-width:2;stroke-linecap:butt;stroke-linejoin:miter;stroke-miterlimit:4;stroke-opacity:1;stroke-dasharray:none"
    d="M 117.28676488114967,168.39745454574557 204.13700019139358,207.22080208122068"
    id="path39"
    inkscape:connector-type="polyline"
    inkscape:connector-curvature="0"
    inkscape:connection-start="#g5"
    inkscape:connection-start-point="d4"
    inkscape:connection-end="#g7"
    inkscape:connection-end-point="d4" />
<path
    style="fill:none;stroke:black;stroke-width:2;stroke-linecap:butt;stroke-linejoin:miter;stroke-miterlimit:4;stroke-opacity:1;stroke-dasharray:none"
    d="M 213.26638545108844,211.30177313969025 209.34507977801107,174.85745403497253"
    id="path40"
    inkscape:connector-type="polyline"
    inkscape:connector-curvature="0"
    inkscape:connection-start="#g7"
    inkscape:connection-start-point="d4"
    inkscape:connection-end="#g15"
    inkscape:connection-end-point="d4" />
<path
    style="fill:none;stroke:black;stroke-width:2;stroke-linecap:butt;stroke-linejoin:miter;stroke-miterlimit:4;stroke-opacity:1;stroke-dasharray:none"
    d="M 117.28676488114967,168.39745454574557 182.0607480113876,244.78661780647388"
    id="path41"
    inkscape:connector-type="polyline"
    inkscape:connector-curvature="0"
    inkscape:connection-start="#g5"
    inkscape:connection-start-point="d4"
    inkscape:connection-end="#g14"
    inkscape:connection-end-point="d4" />
<path
    style="fill:none;stroke:black;stroke-width:2;stroke-linecap:butt;stroke-linejoin:miter;stroke-miterlimit:4;stroke-opacity:1;stroke-dasharray:none"
    d="M 188.5281382940919,252.41373147621698 206.07380587214055,174.66950748623623"
    id="path42"
    inkscape:connector-type="polyline"
    inkscape:connector-curvature="0"
    inkscape:connection-start="#g14"
    inkscape:connection-start-point="d4"
    inkscape:connection-end="#g15"
    inkscape:connection-end-point="d4" />
<path
    style="fill:none;stroke:black;stroke-width:2;stroke-linecap:butt;stroke-linejoin:miter;stroke-miterlimit:4;stroke-opacity:1;stroke-dasharray:none"
    d="M 117.28676488114967,168.39745454574557 198.28259979127242,165.29731489194432"
    id="path43"
    inkscape:connector-type="polyline"
    inkscape:connector-curvature="0"
    inkscape:connection-start="#g5"
    inkscape:connection-start-point="d4"
    inkscape:connection-end="#g15"
    inkscape:connection-end-point="d4" />
<path
    style="fill:none;stroke:black;stroke-width:2;stroke-linecap:butt;stroke-linejoin:miter;stroke-miterlimit:4;stroke-opacity:1;stroke-dasharray:none"
    d="M 117.28676488114967,168.39745454574557 174.088520121439,80.90987303118355"
    id="path44"
    inkscape:connector-type="polyline"
    inkscape:connector-curvature="0"
    inkscape:connection-start="#g5"
    inkscape:connection-start-point="d4"
    inkscape:connection-end="#g16"
    inkscape:connection-end-point="d4" />
<path
    style="fill:none;stroke:black;stroke-width:2;stroke-linecap:butt;stroke-linejoin:miter;stroke-miterlimit:4;stroke-opacity:1;stroke-dasharray:none"
    d="M 179.5340106100807,72.5225830434633 111.48741207153088,53.06410517930102"
    id="path45"
    inkscape:connector-type="polyline"
    inkscape:connector-curvature="0"
    inkscape:connection-start="#g16"
    inkscape:connection-start-point="d4"
    inkscape:connection-end="#g17"
    inkscape:connection-end-point="d4" />
<path
    style="fill:none;stroke:black;stroke-width:2;stroke-linecap:butt;stroke-linejoin:miter;stroke-miterlimit:4;stroke-opacity:1;stroke-dasharray:none"
    d="M 117.28676488114967,168.39745454574557 103.16716469965462,60.230602608955394"
    id="path46"
    inkscape:connector-type="polyline"
    inkscape:connector-curvature="0"
    inkscape:connection-start="#g5"
    inkscape:connection-start-point="d4"
    inkscape:connection-end="#g17"
    inkscape:connection-end-point="d4" />
<path
    style="fill:none;stroke:black;stroke-width:2;stroke-linecap:butt;stroke-linejoin:miter;stroke-miterlimit:4;stroke-opacity:1;stroke-dasharray:none"
    d="M 117.28676488114967,168.39745454574557 70.54006591840938,256.7647394251068"
    id="path47"
    inkscape:connector-type="polyline"
    inkscape:connector-curvature="0"
    inkscape:connection-start="#g5"
    inkscape:connection-start-point="d4"
    inkscape:connection-end="#g18"
    inkscape:connection-end-point="d4" />
<path
    style="fill:none;stroke:black;stroke-width:2;stroke-linecap:butt;stroke-linejoin:miter;stroke-miterlimit:4;stroke-opacity:1;stroke-dasharray:none"
    d="M 264.12592266904926,114.47323640546756 297.1999672686201,116.34763421699353"
    id="path48"
    inkscape:connector-type="polyline"
    inkscape:connector-curvature="0"
    inkscape:connection-start="#g10"
    inkscape:connection-start-point="d4"
    inkscape:connection-end="#g19"
    inkscape:connection-end-point="d4" />
<path
    style="fill:none;stroke:black;stroke-width:2;stroke-linecap:butt;stroke-linejoin:miter;stroke-miterlimit:4;stroke-opacity:1;stroke-dasharray:none"
    d="M 208.27528283790343,164.91484197842843 298.18743719546137,121.27955231798413"
    id="path49"
    inkscape:connector-type="polyline"
    inkscape:connector-curvature="0"
    inkscape:connection-start="#g15"
    inkscape:connection-start-point="d4"
    inkscape:connection-end="#g19"
    inkscape:connection-end-point="d4" />
<path
    style="fill:none;stroke:black;stroke-width:2;stroke-linecap:butt;stroke-linejoin:miter;stroke-miterlimit:4;stroke-opacity:1;stroke-dasharray:none"
    d="M 264.12592266904926,114.47323640546756 215.69658247620154,158.21228189450557"
    id="path50"
    inkscape:connector-type="polyline"
    inkscape:connector-curvature="0"
    inkscape:connection-start="#g10"
    inkscape:connection-start-point="d4"
    inkscape:connection-end="#g15"
    inkscape:connection-end-point="d4" />
<path
    style="fill:none;stroke:black;stroke-width:2;stroke-linecap:butt;stroke-linejoin:miter;stroke-miterlimit:4;stroke-opacity:1;stroke-dasharray:none"
    d="M 369.2212842539479,270.77213086293534 349.0450545442296,300.0270101288171"
    id="path51"
    inkscape:connector-type="polyline"
    inkscape:connector-curvature="0"
    inkscape:connection-start="#g4"
    inkscape:connection-start-point="d4"
    inkscape:connection-end="#g20"
    inkscape:connection-end-point="d4" />
<path
    style="fill:none;stroke:black;stroke-width:2;stroke-linecap:butt;stroke-linejoin:miter;stroke-miterlimit:4;stroke-opacity:1;stroke-dasharray:none"
    d="M 313.06874917825996,216.84525005316678 340.2214760658193,298.76688933131993"
    id="path52"
    inkscape:connector-type="polyline"
    inkscape:connector-curvature="0"
    inkscape:connection-start="#g1"
    inkscape:connection-start-point="d4"
    inkscape:connection-end="#g20"
    inkscape:connection-end-point="d4" />
<path
    style="fill:none;stroke:black;stroke-width:2;stroke-linecap:butt;stroke-linejoin:miter;stroke-miterlimit:4;stroke-opacity:1;stroke-dasharray:none"
    d="M 281.0300387618494,288.1091958560508 333.85238212145765,305.18338583924"
    id="path53"
    inkscape:connector-type="polyline"
    inkscape:connector-curvature="0"
    inkscape:connection-start="#g3"
    inkscape:connection-start-point="d4"
    inkscape:connection-end="#g20"
    inkscape:connection-end-point="d4" />
<path
    style="fill:none;stroke:black;stroke-width:2;stroke-linecap:butt;stroke-linejoin:miter;stroke-miterlimit:4;stroke-opacity:1;stroke-dasharray:none"
    d="M 313.06874917825996,216.84525005316678 362.00872325482754,263.84544595354555"
    id="path54"
    inkscape:connector-type="polyline"
    inkscape:connector-curvature="0"
    inkscape:connection-start="#g1"
    inkscape:connection-start-point="d4"
    inkscape:connection-end="#g4"
    inkscape:connection-end-point="d4" />
<path
    style="fill:none;stroke:black;stroke-width:2;stroke-linecap:butt;stroke-linejoin:miter;stroke-miterlimit:4;stroke-opacity:1;stroke-dasharray:none"
    d="M 281.0300387618494,288.1091958560508 359.40908622720633,272.7010605879405"
    id="path55"
    inkscape:connector-type="polyline"
    inkscape:connector-curvature="0"
    inkscape:connection-start="#g3"
    inkscape:connection-start-point="d4"
    inkscape:connection-end="#g4"
    inkscape:connection-end-point="d4" />
<path
    style="fill:none;stroke:black;stroke-width:2;stroke-linecap:butt;stroke-linejoin:miter;stroke-miterlimit:4;stroke-opacity:1;stroke-dasharray:none"
    d="M 313.06874917825996,216.84525005316678 285.13048539231175,278.9885414151277"
    id="path56"
    inkscape:connector-type="polyline"
    inkscape:connector-curvature="0"
    inkscape:connection-start="#g1"
    inkscape:connection-start-point="d4"
    inkscape:connection-end="#g3"
    inkscape:connection-end-point="d4" />
<path
    style="fill:none;stroke:black;stroke-width:2;stroke-linecap:butt;stroke-linejoin:miter;stroke-miterlimit:4;stroke-opacity:1;stroke-dasharray:none"
    d="M 369.2212842539479,270.77213086293534 349.0450545442296,300.0270101288171"
    id="path57"
    inkscape:connector-type="polyline"
    inkscape:connector-curvature="0"
    inkscape:connection-start="#g4"
    inkscape:connection-start-point="d4"
    inkscape:connection-end="#g20"
    inkscape:connection-end-point="d4" />
<path
    style="fill:none;stroke:black;stroke-width:2;stroke-linecap:butt;stroke-linejoin:miter;stroke-miterlimit:4;stroke-opacity:1;stroke-dasharray:none"
    d="M 313.06874917825996,216.84525005316678 340.2214760658193,298.76688933131993"
    id="path58"
    inkscape:connector-type="polyline"
    inkscape:connector-curvature="0"
    inkscape:connection-start="#g1"
    inkscape:connection-start-point="d4"
    inkscape:connection-end="#g20"
    inkscape:connection-end-point="d4" />
<path
    style="fill:none;stroke:black;stroke-width:2;stroke-linecap:butt;stroke-linejoin:miter;stroke-miterlimit:4;stroke-opacity:1;stroke-dasharray:none"
    d="M 281.0300387618494,288.1091958560508 333.85238212145765,305.18338583924"
    id="path59"
    inkscape:connector-type="polyline"
    inkscape:connector-curvature="0"
    inkscape:connection-start="#g3"
    inkscape:connection-start-point="d4"
    inkscape:connection-end="#g20"
    inkscape:connection-end-point="d4" />
<path
    style="fill:none;stroke:black;stroke-width:2;stroke-linecap:butt;stroke-linejoin:miter;stroke-miterlimit:4;stroke-opacity:1;stroke-dasharray:none"
    d="M 313.06874917825996,216.84525005316678 362.00872325482754,263.84544595354555"
    id="path60"
    inkscape:connector-type="polyline"
    inkscape:connector-curvature="0"
    inkscape:connection-start="#g1"
    inkscape:connection-start-point="d4"
    inkscape:connection-end="#g4"
    inkscape:connection-end-point="d4" />
<path
    style="fill:none;stroke:black;stroke-width:2;stroke-linecap:butt;stroke-linejoin:miter;stroke-miterlimit:4;stroke-opacity:1;stroke-dasharray:none"
    d="M 281.0300387618494,288.1091958560508 359.40908622720633,272.7010605879405"
    id="path61"
    inkscape:connector-type="polyline"
    inkscape:connector-curvature="0"
    inkscape:connection-start="#g3"
    inkscape:connection-start-point="d4"
    inkscape:connection-end="#g4"
    inkscape:connection-end-point="d4" />
<path
    style="fill:none;stroke:black;stroke-width:2;stroke-linecap:butt;stroke-linejoin:miter;stroke-miterlimit:4;stroke-opacity:1;stroke-dasharray:none"
    d="M 313.06874917825996,216.84525005316678 285.13048539231175,278.9885414151277"
    id="path62"
    inkscape:connector-type="polyline"
    inkscape:connector-curvature="0"
    inkscape:connection-start="#g1"
    inkscape:connection-start-point="d4"
    inkscape:connection-end="#g3"
    inkscape:connection-end-point="d4" />
<path
    style="fill:none;stroke:black;stroke-width:2;stroke-linecap:butt;stroke-linejoin:miter;stroke-miterlimit:4;stroke-opacity:1;stroke-dasharray:none"
    d="M 94.89586221237532,112.23995014287362 76.58282779459054,81.49166941447709"
    id="path63"
    inkscape:connector-type="polyline"
    inkscape:connector-curvature="0"
    inkscape:connection-start="#g12"
    inkscape:connection-start-point="d4"
    inkscape:connection-end="#g21"
    inkscape:connection-end-point="d4" />
<path
    style="fill:none;stroke:black;stroke-width:2;stroke-linecap:butt;stroke-linejoin:miter;stroke-miterlimit:4;stroke-opacity:1;stroke-dasharray:none"
    d="M 159.8530940447799,89.46993427819723 81.29460222340465,74.74262319053781"
    id="path64"
    inkscape:connector-type="polyline"
    inkscape:connector-curvature="0"
    inkscape:connection-start="#g13"
    inkscape:connection-start-point="d4"
    inkscape:connection-end="#g21"
    inkscape:connection-end-point="d4" />
<path
    style="fill:none;stroke:black;stroke-width:2;stroke-linecap:butt;stroke-linejoin:miter;stroke-miterlimit:4;stroke-opacity:1;stroke-dasharray:none"
    d="M 117.28676488114967,168.39745454574557 75.79176869861823,81.91591565211412"
    id="path65"
    inkscape:connector-type="polyline"
    inkscape:connector-curvature="0"
    inkscape:connection-start="#g5"
    inkscape:connection-start-point="d4"
    inkscape:connection-end="#g21"
    inkscape:connection-end-point="d4" />
<path
    style="fill:none;stroke:black;stroke-width:2;stroke-linecap:butt;stroke-linejoin:miter;stroke-miterlimit:4;stroke-opacity:1;stroke-dasharray:none"
    d="M 94.89586221237532,112.23995014287362 150.4160963380623,92.77796606211446"
    id="path66"
    inkscape:connector-type="polyline"
    inkscape:connector-curvature="0"
    inkscape:connection-start="#g12"
    inkscape:connection-start-point="d4"
    inkscape:connection-end="#g13"
    inkscape:connection-end-point="d4" />
<path
    style="fill:none;stroke:black;stroke-width:2;stroke-linecap:butt;stroke-linejoin:miter;stroke-miterlimit:4;stroke-opacity:1;stroke-dasharray:none"
    d="M 117.28676488114967,168.39745454574557 98.59948589566767,121.52882368128269"
    id="path67"
    inkscape:connector-type="polyline"
    inkscape:connector-curvature="0"
    inkscape:connection-start="#g5"
    inkscape:connection-start-point="d4"
    inkscape:connection-end="#g12"
    inkscape:connection-end-point="d4" />
<path
    style="fill:none;stroke:black;stroke-width:2;stroke-linecap:butt;stroke-linejoin:miter;stroke-miterlimit:4;stroke-opacity:1;stroke-dasharray:none"
    d="M 117.28676488114967,168.39745454574557 155.10631377406352,98.2715294212118"
    id="path68"
    inkscape:connector-type="polyline"
    inkscape:connector-curvature="0"
    inkscape:connection-start="#g5"
    inkscape:connection-start-point="d4"
    inkscape:connection-end="#g13"
    inkscape:connection-end-point="d4" />
<path
    style="fill:none;stroke:black;stroke-width:2;stroke-linecap:butt;stroke-linejoin:miter;stroke-miterlimit:4;stroke-opacity:1;stroke-dasharray:none"
    d="M 183.66450722165408,123.8039830798152 227.301376856374,52.70331720835297"
    id="path69"
    inkscape:connector-type="polyline"
    inkscape:connector-curvature="0"
    inkscape:connection-start="#g11"
    inkscape:connection-start-point="d4"
    inkscape:connection-end="#g22"
    inkscape:connection-end-point="d4" />
<path
    style="fill:none;stroke:black;stroke-width:2;stroke-linecap:butt;stroke-linejoin:miter;stroke-miterlimit:4;stroke-opacity:1;stroke-dasharray:none"
    d="M 183.66450722165408,123.8039830798152 165.55193641675945,97.68718415996001"
    id="path70"
    inkscape:connector-type="polyline"
    inkscape:connector-curvature="0"
    inkscape:connection-start="#g11"
    inkscape:connection-start-point="d4"
    inkscape:connection-end="#g13"
    inkscape:connection-end-point="d4" />
<path
    style="fill:none;stroke:black;stroke-width:2;stroke-linecap:butt;stroke-linejoin:miter;stroke-miterlimit:4;stroke-opacity:1;stroke-dasharray:none"
    d="M 264.12592266904926,114.47323640546756 193.59793792884378,122.65204801851155"
    id="path71"
    inkscape:connector-type="polyline"
    inkscape:connector-curvature="0"
    inkscape:connection-start="#g10"
    inkscape:connection-start-point="d4"
    inkscape:connection-end="#g11"
    inkscape:connection-end-point="d4" />
<path
    style="fill:none;stroke:black;stroke-width:2;stroke-linecap:butt;stroke-linejoin:miter;stroke-miterlimit:4;stroke-opacity:1;stroke-dasharray:none"
    d="M 159.8530940447799,89.46993427819723 224.04508427831888,49.46911374522142"
    id="path72"
    inkscape:connector-type="polyline"
    inkscape:connector-curvature="0"
    inkscape:connection-start="#g13"
    inkscape:connection-start-point="d4"
    inkscape:connection-end="#g22"
    inkscape:connection-end-point="d4" />
<path
    style="fill:none;stroke:black;stroke-width:2;stroke-linecap:butt;stroke-linejoin:miter;stroke-miterlimit:4;stroke-opacity:1;stroke-dasharray:none"
    d="M 264.12592266904926,114.47323640546756 236.63169057864076,53.30151727732161"
    id="path73"
    inkscape:connector-type="polyline"
    inkscape:connector-curvature="0"
    inkscape:connection-start="#g10"
    inkscape:connection-start-point="d4"
    inkscape:connection-end="#g22"
    inkscape:connection-end-point="d4" />
<path
    style="fill:none;stroke:black;stroke-width:2;stroke-linecap:butt;stroke-linejoin:miter;stroke-miterlimit:4;stroke-opacity:1;stroke-dasharray:none"
    d="M 264.12592266904926,114.47323640546756 169.57743619612893,91.80170822167821"
    id="path74"
    inkscape:connector-type="polyline"
    inkscape:connector-curvature="0"
    inkscape:connection-start="#g10"
    inkscape:connection-start-point="d4"
    inkscape:connection-end="#g13"
    inkscape:connection-end-point="d4" />
<path
    style="fill:none;stroke:black;stroke-width:2;stroke-linecap:butt;stroke-linejoin:miter;stroke-miterlimit:4;stroke-opacity:1;stroke-dasharray:none"
    d="M 281.0300387618494,288.1091958560508 335.0228486540872,367.19249618946395"
    id="path75"
    inkscape:connector-type="polyline"
    inkscape:connector-curvature="0"
    inkscape:connection-start="#g3"
    inkscape:connection-start-point="d4"
    inkscape:connection-end="#g23"
    inkscape:connection-end-point="d4" />
<path
    style="fill:none;stroke:black;stroke-width:2;stroke-linecap:butt;stroke-linejoin:miter;stroke-miterlimit:4;stroke-opacity:1;stroke-dasharray:none"
    d="M 20.696857869642564,201.62002351519322 23.519999268321055,141.49414022145095"
    id="path76"
    inkscape:connector-type="polyline"
    inkscape:connector-curvature="0"
    inkscape:connection-start="#g24"
    inkscape:connection-start-point="d4"
    inkscape:connection-end="#g25"
    inkscape:connection-end-point="d4" />
<path
    style="fill:none;stroke:black;stroke-width:2;stroke-linecap:butt;stroke-linejoin:miter;stroke-miterlimit:4;stroke-opacity:1;stroke-dasharray:none"
    d="M 117.28676488114967,168.39745454574557 30.153128128598595,198.3674933017158"
    id="path77"
    inkscape:connector-type="polyline"
    inkscape:connector-curvature="0"
    inkscape:connection-start="#g5"
    inkscape:connection-start-point="d4"
    inkscape:connection-end="#g24"
    inkscape:connection-end-point="d4" />
<path
    style="fill:none;stroke:black;stroke-width:2;stroke-linecap:butt;stroke-linejoin:miter;stroke-miterlimit:4;stroke-opacity:1;stroke-dasharray:none"
    d="M 117.28676488114967,168.39745454574557 33.288384340114845,135.18235096658407"
    id="path78"
    inkscape:connector-type="polyline"
    inkscape:connector-curvature="0"
    inkscape:connection-start="#g5"
    inkscape:connection-start-point="d4"
    inkscape:connection-end="#g25"
    inkscape:connection-end-point="d4" />
<path
    style="fill:none;stroke:black;stroke-width:2;stroke-linecap:butt;stroke-linejoin:miter;stroke-miterlimit:4;stroke-opacity:1;stroke-dasharray:none"
    d="M 117.28676488114967,168.39745454574557 52.6411911747561,213.31138248822396"
    id="path79"
    inkscape:connector-type="polyline"
    inkscape:connector-curvature="0"
    inkscape:connection-start="#g5"
    inkscape:connection-start-point="d4"
    inkscape:connection-end="#g26"
    inkscape:connection-end-point="d4" />
<path
    style="fill:none;stroke:black;stroke-width:2;stroke-linecap:butt;stroke-linejoin:miter;stroke-miterlimit:4;stroke-opacity:1;stroke-dasharray:none"
    d="M 44.42875162126258,219.0171547041659 15.703813433973934,177.65168872521642"
    id="path80"
    inkscape:connector-type="polyline"
    inkscape:connector-curvature="0"
    inkscape:connection-start="#g26"
    inkscape:connection-start-point="d4"
    inkscape:connection-end="#g27"
    inkscape:connection-end-point="d4" />
<path
    style="fill:none;stroke:black;stroke-width:2;stroke-linecap:butt;stroke-linejoin:miter;stroke-miterlimit:4;stroke-opacity:1;stroke-dasharray:none"
    d="M 23.989020984433502,131.50514534559807 42.15431730058001,209.27924175934547"
    id="path81"
    inkscape:connector-type="polyline"
    inkscape:connector-curvature="0"
    inkscape:connection-start="#g25"
    inkscape:connection-start-point="d4"
    inkscape:connection-end="#g26"
    inkscape:connection-end-point="d4" />
<path
    style="fill:none;stroke:black;stroke-width:2;stroke-linecap:butt;stroke-linejoin:miter;stroke-miterlimit:4;stroke-opacity:1;stroke-dasharray:none"
    d="M 117.28676488114967,168.39745454574557 19.999529806955714,169.34091624516932"
    id="path82"
    inkscape:connector-type="polyline"
    inkscape:connector-curvature="0"
    inkscape:connection-start="#g5"
    inkscape:connection-start-point="d4"
    inkscape:connection-end="#g27"
    inkscape:connection-end-point="d4" />
<path
    style="fill:none;stroke:black;stroke-width:2;stroke-linecap:butt;stroke-linejoin:miter;stroke-miterlimit:4;stroke-opacity:1;stroke-dasharray:none"
    d="M 117.28676488114967,168.39745454574557 33.288384340114845,135.18235096658407"
    id="path83"
    inkscape:connector-type="polyline"
    inkscape:connector-curvature="0"
    inkscape:connection-start="#g5"
    inkscape:connection-start-point="d4"
    inkscape:connection-end="#g25"
    inkscape:connection-end-point="d4" />
<path
    style="fill:none;stroke:black;stroke-width:2;stroke-linecap:butt;stroke-linejoin:miter;stroke-miterlimit:4;stroke-opacity:1;stroke-dasharray:none"
    d="M 23.989020984433502,131.50514534559807 13.460058737715135,160.05556515010605"
    id="path84"
    inkscape:connector-type="polyline"
    inkscape:connector-curvature="0"
    inkscape:connection-start="#g25"
    inkscape:connection-start-point="d4"
    inkscape:connection-end="#g27"
    inkscape:connection-end-point="d4" />
<path
    style="fill:none;stroke:black;stroke-width:2;stroke-linecap:butt;stroke-linejoin:miter;stroke-miterlimit:4;stroke-opacity:1;stroke-dasharray:none"
    d="M 264.12592266904926,114.47323640546756 188.49286262254114,76.96543917649683"
    id="path85"
    inkscape:connector-type="polyline"
    inkscape:connector-curvature="0"
    inkscape:connection-start="#g10"
    inkscape:connection-start-point="d4"
    inkscape:connection-end="#g16"
    inkscape:connection-end-point="d4" />
<path
    style="fill:none;stroke:black;stroke-width:2;stroke-linecap:butt;stroke-linejoin:miter;stroke-miterlimit:4;stroke-opacity:1;stroke-dasharray:none"
    d="M 179.5340106100807,72.5225830434633 229.0367372386441,17.437874949686698"
    id="path86"
    inkscape:connector-type="polyline"
    inkscape:connector-curvature="0"
    inkscape:connection-start="#g16"
    inkscape:connection-start-point="d4"
    inkscape:connection-end="#g28"
    inkscape:connection-end-point="d4" />
<path
    style="fill:none;stroke:black;stroke-width:2;stroke-linecap:butt;stroke-linejoin:miter;stroke-miterlimit:4;stroke-opacity:1;stroke-dasharray:none"
    d="M 264.12592266904926,114.47323640546756 238.3445344370663,19.64969099102764"
    id="path87"
    inkscape:connector-type="polyline"
    inkscape:connector-curvature="0"
    inkscape:connection-start="#g10"
    inkscape:connection-start-point="d4"
    inkscape:connection-end="#g28"
    inkscape:connection-end-point="d4" />
<path
    style="fill:none;stroke:black;stroke-width:2;stroke-linecap:butt;stroke-linejoin:miter;stroke-miterlimit:4;stroke-opacity:1;stroke-dasharray:none"
    d="M 213.26638545108844,211.30177313969025 259.4758237641632,123.32629125533592"
    id="path88"
    inkscape:connector-type="polyline"
    inkscape:connector-curvature="0"
    inkscape:connection-start="#g7"
    inkscape:connection-start-point="d4"
    inkscape:connection-end="#g10"
    inkscape:connection-end-point="d4" />
<path
    style="fill:none;stroke:black;stroke-width:2;stroke-linecap:butt;stroke-linejoin:miter;stroke-miterlimit:4;stroke-opacity:1;stroke-dasharray:none"
    d="M 213.26638545108844,211.30177313969025 209.34507977801107,174.85745403497253"
    id="path89"
    inkscape:connector-type="polyline"
    inkscape:connector-curvature="0"
    inkscape:connection-start="#g7"
    inkscape:connection-start-point="d4"
    inkscape:connection-end="#g15"
    inkscape:connection-end-point="d4" />
<path
    style="fill:none;stroke:black;stroke-width:2;stroke-linecap:butt;stroke-linejoin:miter;stroke-miterlimit:4;stroke-opacity:1;stroke-dasharray:none"
    d="M 264.12592266904926,114.47323640546756 215.69658247620154,158.21228189450557"
    id="path90"
    inkscape:connector-type="polyline"
    inkscape:connector-curvature="0"
    inkscape:connection-start="#g10"
    inkscape:connection-start-point="d4"
    inkscape:connection-end="#g15"
    inkscape:connection-end-point="d4" />
<path
    style="fill:none;stroke:black;stroke-width:2;stroke-linecap:butt;stroke-linejoin:miter;stroke-miterlimit:4;stroke-opacity:1;stroke-dasharray:none"
    d="M 264.12592266904926,114.47323640546756 336.59093185237265,47.70770236071359"
    id="path91"
    inkscape:connector-type="polyline"
    inkscape:connector-curvature="0"
    inkscape:connection-start="#g10"
    inkscape:connection-start-point="d4"
    inkscape:connection-end="#g29"
    inkscape:connection-end-point="d4" />
<path
    style="fill:none;stroke:black;stroke-width:2;stroke-linecap:butt;stroke-linejoin:miter;stroke-miterlimit:4;stroke-opacity:1;stroke-dasharray:none"
    d="M 264.12592266904926,114.47323640546756 357.4250001389579,85.00422548524881"
    id="path92"
    inkscape:connector-type="polyline"
    inkscape:connector-curvature="0"
    inkscape:connection-start="#g10"
    inkscape:connection-start-point="d4"
    inkscape:connection-end="#g30"
    inkscape:connection-end-point="d4" />
<path
    style="fill:none;stroke:black;stroke-width:2;stroke-linecap:butt;stroke-linejoin:miter;stroke-miterlimit:4;stroke-opacity:1;stroke-dasharray:none"
    d="M 264.12592266904926,114.47323640546756 299.3008962302832,22.82205159435643"
    id="path93"
    inkscape:connector-type="polyline"
    inkscape:connector-curvature="0"
    inkscape:connection-start="#g10"
    inkscape:connection-start-point="d4"
    inkscape:connection-end="#g31"
    inkscape:connection-end-point="d4" />
<path
    style="fill:none;stroke:black;stroke-width:2;stroke-linecap:butt;stroke-linejoin:miter;stroke-miterlimit:4;stroke-opacity:1;stroke-dasharray:none"
    d="M 232.53214125209914,44.18045948125145 293.7183769129748,17.48496833151149"
    id="path94"
    inkscape:connector-type="polyline"
    inkscape:connector-curvature="0"
    inkscape:connection-start="#g22"
    inkscape:connection-start-point="d4"
    inkscape:connection-end="#g31"
    inkscape:connection-end-point="d4" />
<path
    style="fill:none;stroke:black;stroke-width:2;stroke-linecap:butt;stroke-linejoin:miter;stroke-miterlimit:4;stroke-opacity:1;stroke-dasharray:none"
    d="M 264.12592266904926,114.47323640546756 236.63169057864076,53.30151727732161"
    id="path95"
    inkscape:connector-type="polyline"
    inkscape:connector-curvature="0"
    inkscape:connection-start="#g10"
    inkscape:connection-start-point="d4"
    inkscape:connection-end="#g22"
    inkscape:connection-end-point="d4" />
  </g>

  <g inkscape:label="Nodes"                     inkscape:groupmode="layer" id="layer1">
  <!-- Vertices -->
    <g id="g0" transform="translate(338.480607913181,187.96632522122505)">
     <circle cx="0" cy="0" r="10" fill="red"/>
      <text sodipodi:linespacing="125%" y="5.0" x="0" id="text0" style="font-size:16pxpx;font-style:normal;font-weight:normal;text-align:center;line-height:125%;letter-spacing:0px;word-spacing:0px;text-anchor:middle;fill:#000000;fill-opacity:1;stroke:none;font-family:Sans">
<tspan y="5.0" x="0" id="tspan0" sodipodi:role="line">1</tspan></text>
    </g>
    <g id="g1" transform="translate(313.06874917825996,216.84525005316678)">
     <circle cx="0" cy="0" r="10" fill="red"/>
      <text sodipodi:linespacing="125%" y="5.0" x="0" id="text1" style="font-size:16pxpx;font-style:normal;font-weight:normal;text-align:center;line-height:125%;letter-spacing:0px;word-spacing:0px;text-anchor:middle;fill:#000000;fill-opacity:1;stroke:none;font-family:Sans">
<tspan y="5.0" x="0" id="tspan1" sodipodi:role="line">2</tspan></text>
    </g>
    <g id="g2" transform="translate(390.0,236.93596114271168)">
     <circle cx="0" cy="0" r="10" fill="red"/>
      <text sodipodi:linespacing="125%" y="5.0" x="0" id="text2" style="font-size:16pxpx;font-style:normal;font-weight:normal;text-align:center;line-height:125%;letter-spacing:0px;word-spacing:0px;text-anchor:middle;fill:#000000;fill-opacity:1;stroke:none;font-family:Sans">
<tspan y="5.0" x="0" id="tspan2" sodipodi:role="line">3</tspan></text>
    </g>
    <g id="g3" transform="translate(281.0300387618494,288.1091958560508)">
     <circle cx="0" cy="0" r="10" fill="red"/>
      <text sodipodi:linespacing="125%" y="5.0" x="0" id="text3" style="font-size:16pxpx;font-style:normal;font-weight:normal;text-align:center;line-height:125%;letter-spacing:0px;word-spacing:0px;text-anchor:middle;fill:#000000;fill-opacity:1;stroke:none;font-family:Sans">
<tspan y="5.0" x="0" id="tspan3" sodipodi:role="line">4</tspan></text>
    </g>
    <g id="g4" transform="translate(369.2212842539479,270.77213086293534)">
     <circle cx="0" cy="0" r="10" fill="red"/>
      <text sodipodi:linespacing="125%" y="5.0" x="0" id="text4" style="font-size:16pxpx;font-style:normal;font-weight:normal;text-align:center;line-height:125%;letter-spacing:0px;word-spacing:0px;text-anchor:middle;fill:#000000;fill-opacity:1;stroke:none;font-family:Sans">
<tspan y="5.0" x="0" id="tspan4" sodipodi:role="line">5</tspan></text>
    </g>
    <g id="g5" transform="translate(117.28676488114967,168.39745454574557)">
     <circle cx="0" cy="0" r="10" fill="red"/>
      <text sodipodi:linespacing="125%" y="5.0" x="0" id="text5" style="font-size:16pxpx;font-style:normal;font-weight:normal;text-align:center;line-height:125%;letter-spacing:0px;word-spacing:0px;text-anchor:middle;fill:#000000;fill-opacity:1;stroke:none;font-family:Sans">
<tspan y="5.0" x="0" id="tspan5" sodipodi:role="line">6</tspan></text>
    </g>
    <g id="g6" transform="translate(132.75146793095718,251.0824255118156)">
     <circle cx="0" cy="0" r="10" fill="red"/>
      <text sodipodi:linespacing="125%" y="5.0" x="0" id="text6" style="font-size:16pxpx;font-style:normal;font-weight:normal;text-align:center;line-height:125%;letter-spacing:0px;word-spacing:0px;text-anchor:middle;fill:#000000;fill-opacity:1;stroke:none;font-family:Sans">
<tspan y="5.0" x="0" id="tspan6" sodipodi:role="line">7</tspan></text>
    </g>
    <g id="g7" transform="translate(213.26638545108844,211.30177313969025)">
     <circle cx="0" cy="0" r="10" fill="red"/>
      <text sodipodi:linespacing="125%" y="5.0" x="0" id="text7" style="font-size:16pxpx;font-style:normal;font-weight:normal;text-align:center;line-height:125%;letter-spacing:0px;word-spacing:0px;text-anchor:middle;fill:#000000;fill-opacity:1;stroke:none;font-family:Sans">
<tspan y="5.0" x="0" id="tspan7" sodipodi:role="line">8</tspan></text>
    </g>
    <g id="g8" transform="translate(233.18140299681636,383.5889481979125)">
     <circle cx="0" cy="0" r="10" fill="red"/>
      <text sodipodi:linespacing="125%" y="5.0" x="0" id="text8" style="font-size:16pxpx;font-style:normal;font-weight:normal;text-align:center;line-height:125%;letter-spacing:0px;word-spacing:0px;text-anchor:middle;fill:#000000;fill-opacity:1;stroke:none;font-family:Sans">
<tspan y="5.0" x="0" id="tspan8" sodipodi:role="line">9</tspan></text>
    </g>
    <g id="g9" transform="translate(285.28688532278557,390.0)">
     <circle cx="0" cy="0" r="10" fill="red"/>
      <text sodipodi:linespacing="125%" y="5.0" x="0" id="text9" style="font-size:16pxpx;font-style:normal;font-weight:normal;text-align:center;line-height:125%;letter-spacing:0px;word-spacing:0px;text-anchor:middle;fill:#000000;fill-opacity:1;stroke:none;font-family:Sans">
<tspan y="5.0" x="0" id="tspan9" sodipodi:role="line">10</tspan></text>
    </g>
    <g id="g10" transform="translate(264.12592266904926,114.47323640546756)">
     <circle cx="0" cy="0" r="10" fill="red"/>
      <text sodipodi:linespacing="125%" y="5.0" x="0" id="text10" style="font-size:16pxpx;font-style:normal;font-weight:normal;text-align:center;line-height:125%;letter-spacing:0px;word-spacing:0px;text-anchor:middle;fill:#000000;fill-opacity:1;stroke:none;font-family:Sans">
<tspan y="5.0" x="0" id="tspan10" sodipodi:role="line">11</tspan></text>
    </g>
    <g id="g11" transform="translate(183.66450722165408,123.8039830798152)">
     <circle cx="0" cy="0" r="10" fill="red"/>
      <text sodipodi:linespacing="125%" y="5.0" x="0" id="text11" style="font-size:16pxpx;font-style:normal;font-weight:normal;text-align:center;line-height:125%;letter-spacing:0px;word-spacing:0px;text-anchor:middle;fill:#000000;fill-opacity:1;stroke:none;font-family:Sans">
<tspan y="5.0" x="0" id="tspan11" sodipodi:role="line">12</tspan></text>
    </g>
    <g id="g12" transform="translate(94.89586221237532,112.23995014287362)">
     <circle cx="0" cy="0" r="10" fill="red"/>
      <text sodipodi:linespacing="125%" y="5.0" x="0" id="text12" style="font-size:16pxpx;font-style:normal;font-weight:normal;text-align:center;line-height:125%;letter-spacing:0px;word-spacing:0px;text-anchor:middle;fill:#000000;fill-opacity:1;stroke:none;font-family:Sans">
<tspan y="5.0" x="0" id="tspan12" sodipodi:role="line">13</tspan></text>
    </g>
    <g id="g13" transform="translate(159.8530940447799,89.46993427819723)">
     <circle cx="0" cy="0" r="10" fill="red"/>
      <text sodipodi:linespacing="125%" y="5.0" x="0" id="text13" style="font-size:16pxpx;font-style:normal;font-weight:normal;text-align:center;line-height:125%;letter-spacing:0px;word-spacing:0px;text-anchor:middle;fill:#000000;fill-opacity:1;stroke:none;font-family:Sans">
<tspan y="5.0" x="0" id="tspan13" sodipodi:role="line">14</tspan></text>
    </g>
    <g id="g14" transform="translate(188.5281382940919,252.41373147621698)">
     <circle cx="0" cy="0" r="10" fill="red"/>
      <text sodipodi:linespacing="125%" y="5.0" x="0" id="text14" style="font-size:16pxpx;font-style:normal;font-weight:normal;text-align:center;line-height:125%;letter-spacing:0px;word-spacing:0px;text-anchor:middle;fill:#000000;fill-opacity:1;stroke:none;font-family:Sans">
<tspan y="5.0" x="0" id="tspan14" sodipodi:role="line">15</tspan></text>
    </g>
    <g id="g15" transform="translate(208.27528283790343,164.91484197842843)">
     <circle cx="0" cy="0" r="10" fill="red"/>
      <text sodipodi:linespacing="125%" y="5.0" x="0" id="text15" style="font-size:16pxpx;font-style:normal;font-weight:normal;text-align:center;line-height:125%;letter-spacing:0px;word-spacing:0px;text-anchor:middle;fill:#000000;fill-opacity:1;stroke:none;font-family:Sans">
<tspan y="5.0" x="0" id="tspan15" sodipodi:role="line">16</tspan></text>
    </g>
    <g id="g16" transform="translate(179.5340106100807,72.5225830434633)">
     <circle cx="0" cy="0" r="10" fill="red"/>
      <text sodipodi:linespacing="125%" y="5.0" x="0" id="text16" style="font-size:16pxpx;font-style:normal;font-weight:normal;text-align:center;line-height:125%;letter-spacing:0px;word-spacing:0px;text-anchor:middle;fill:#000000;fill-opacity:1;stroke:none;font-family:Sans">
<tspan y="5.0" x="0" id="tspan16" sodipodi:role="line">17</tspan></text>
    </g>
    <g id="g17" transform="translate(101.87279212570539,50.314726468149274)">
     <circle cx="0" cy="0" r="10" fill="red"/>
      <text sodipodi:linespacing="125%" y="5.0" x="0" id="text17" style="font-size:16pxpx;font-style:normal;font-weight:normal;text-align:center;line-height:125%;letter-spacing:0px;word-spacing:0px;text-anchor:middle;fill:#000000;fill-opacity:1;stroke:none;font-family:Sans">
<tspan y="5.0" x="0" id="tspan17" sodipodi:role="line">18</tspan></text>
    </g>
    <g id="g18" transform="translate(65.86400021882551,265.6041064597522)">
     <circle cx="0" cy="0" r="10" fill="red"/>
      <text sodipodi:linespacing="125%" y="5.0" x="0" id="text18" style="font-size:16pxpx;font-style:normal;font-weight:normal;text-align:center;line-height:125%;letter-spacing:0px;word-spacing:0px;text-anchor:middle;fill:#000000;fill-opacity:1;stroke:none;font-family:Sans">
<tspan y="5.0" x="0" id="tspan18" sodipodi:role="line">19</tspan></text>
    </g>
    <g id="g19" transform="translate(307.1839468333496,116.9134540214057)">
     <circle cx="0" cy="0" r="10" fill="red"/>
      <text sodipodi:linespacing="125%" y="5.0" x="0" id="text19" style="font-size:16pxpx;font-style:normal;font-weight:normal;text-align:center;line-height:125%;letter-spacing:0px;word-spacing:0px;text-anchor:middle;fill:#000000;fill-opacity:1;stroke:none;font-family:Sans">
<tspan y="5.0" x="0" id="tspan19" sodipodi:role="line">20</tspan></text>
    </g>
    <g id="g20" transform="translate(343.36763900192324,308.25907868781115)">
     <circle cx="0" cy="0" r="10" fill="red"/>
      <text sodipodi:linespacing="125%" y="5.0" x="0" id="text20" style="font-size:16pxpx;font-style:normal;font-weight:normal;text-align:center;line-height:125%;letter-spacing:0px;word-spacing:0px;text-anchor:middle;fill:#000000;fill-opacity:1;stroke:none;font-family:Sans">
<tspan y="5.0" x="0" id="tspan20" sodipodi:role="line">21</tspan></text>
    </g>
    <g id="g21" transform="translate(71.46582583023923,72.90002865750728)">
     <circle cx="0" cy="0" r="10" fill="red"/>
      <text sodipodi:linespacing="125%" y="5.0" x="0" id="text21" style="font-size:16pxpx;font-style:normal;font-weight:normal;text-align:center;line-height:125%;letter-spacing:0px;word-spacing:0px;text-anchor:middle;fill:#000000;fill-opacity:1;stroke:none;font-family:Sans">
<tspan y="5.0" x="0" id="tspan21" sodipodi:role="line">22</tspan></text>
    </g>
    <g id="g22" transform="translate(232.53214125209914,44.18045948125145)">
     <circle cx="0" cy="0" r="10" fill="red"/>
      <text sodipodi:linespacing="125%" y="5.0" x="0" id="text22" style="font-size:16pxpx;font-style:normal;font-weight:normal;text-align:center;line-height:125%;letter-spacing:0px;word-spacing:0px;text-anchor:middle;fill:#000000;fill-opacity:1;stroke:none;font-family:Sans">
<tspan y="5.0" x="0" id="tspan22" sodipodi:role="line">23</tspan></text>
    </g>
    <g id="g23" transform="translate(340.6613756215746,375.45124994756316)">
     <circle cx="0" cy="0" r="10" fill="red"/>
      <text sodipodi:linespacing="125%" y="5.0" x="0" id="text23" style="font-size:16pxpx;font-style:normal;font-weight:normal;text-align:center;line-height:125%;letter-spacing:0px;word-spacing:0px;text-anchor:middle;fill:#000000;fill-opacity:1;stroke:none;font-family:Sans">
<tspan y="5.0" x="0" id="tspan23" sodipodi:role="line">24</tspan></text>
    </g>
    <g id="g24" transform="translate(20.696857869642564,201.62002351519322)">
     <circle cx="0" cy="0" r="10" fill="red"/>
      <text sodipodi:linespacing="125%" y="5.0" x="0" id="text24" style="font-size:16pxpx;font-style:normal;font-weight:normal;text-align:center;line-height:125%;letter-spacing:0px;word-spacing:0px;text-anchor:middle;fill:#000000;fill-opacity:1;stroke:none;font-family:Sans">
<tspan y="5.0" x="0" id="tspan24" sodipodi:role="line">25</tspan></text>
    </g>
    <g id="g25" transform="translate(23.989020984433502,131.50514534559807)">
     <circle cx="0" cy="0" r="10" fill="red"/>
      <text sodipodi:linespacing="125%" y="5.0" x="0" id="text25" style="font-size:16pxpx;font-style:normal;font-weight:normal;text-align:center;line-height:125%;letter-spacing:0px;word-spacing:0px;text-anchor:middle;fill:#000000;fill-opacity:1;stroke:none;font-family:Sans">
<tspan y="5.0" x="0" id="tspan25" sodipodi:role="line">26</tspan></text>
    </g>
    <g id="g26" transform="translate(44.42875162126258,219.0171547041659)">
     <circle cx="0" cy="0" r="10" fill="red"/>
      <text sodipodi:linespacing="125%" y="5.0" x="0" id="text26" style="font-size:16pxpx;font-style:normal;font-weight:normal;text-align:center;line-height:125%;letter-spacing:0px;word-spacing:0px;text-anchor:middle;fill:#000000;fill-opacity:1;stroke:none;font-family:Sans">
<tspan y="5.0" x="0" id="tspan26" sodipodi:role="line">27</tspan></text>
    </g>
    <g id="g27" transform="translate(10.0,169.43788861135812)">
     <circle cx="0" cy="0" r="10" fill="red"/>
      <text sodipodi:linespacing="125%" y="5.0" x="0" id="text27" style="font-size:16pxpx;font-style:normal;font-weight:normal;text-align:center;line-height:125%;letter-spacing:0px;word-spacing:0px;text-anchor:middle;fill:#000000;fill-opacity:1;stroke:none;font-family:Sans">
<tspan y="5.0" x="0" id="tspan27" sodipodi:role="line">28</tspan></text>
    </g>
    <g id="g28" transform="translate(235.72089883399943,10.0)">
     <circle cx="0" cy="0" r="10" fill="red"/>
      <text sodipodi:linespacing="125%" y="5.0" x="0" id="text28" style="font-size:16pxpx;font-style:normal;font-weight:normal;text-align:center;line-height:125%;letter-spacing:0px;word-spacing:0px;text-anchor:middle;fill:#000000;fill-opacity:1;stroke:none;font-family:Sans">
<tspan y="5.0" x="0" id="tspan28" sodipodi:role="line">29</tspan></text>
    </g>
    <g id="g29" transform="translate(343.9452981856801,40.93176730822718)">
     <circle cx="0" cy="0" r="10" fill="red"/>
      <text sodipodi:linespacing="125%" y="5.0" x="0" id="text29" style="font-size:16pxpx;font-style:normal;font-weight:normal;text-align:center;line-height:125%;letter-spacing:0px;word-spacing:0px;text-anchor:middle;fill:#000000;fill-opacity:1;stroke:none;font-family:Sans">
<tspan y="5.0" x="0" id="tspan29" sodipodi:role="line">30</tspan></text>
    </g>
    <g id="g30" transform="translate(366.9606464452163,81.99234077265768)">
     <circle cx="0" cy="0" r="10" fill="red"/>
      <text sodipodi:linespacing="125%" y="5.0" x="0" id="text30" style="font-size:16pxpx;font-style:normal;font-weight:normal;text-align:center;line-height:125%;letter-spacing:0px;word-spacing:0px;text-anchor:middle;fill:#000000;fill-opacity:1;stroke:none;font-family:Sans">
<tspan y="5.0" x="0" id="tspan30" sodipodi:role="line">31</tspan></text>
    </g>
    <g id="g31" transform="translate(302.8839879731569,13.486021733534958)">
     <circle cx="0" cy="0" r="10" fill="red"/>
      <text sodipodi:linespacing="125%" y="5.0" x="0" id="text31" style="font-size:16pxpx;font-style:normal;font-weight:normal;text-align:center;line-height:125%;letter-spacing:0px;word-spacing:0px;text-anchor:middle;fill:#000000;fill-opacity:1;stroke:none;font-family:Sans">
<tspan y="5.0" x="0" id="tspan31" sodipodi:role="line">32</tspan></text>
    </g>
</g>

</svg>
