;1; 2; 3; 4; 5; 6; 7; 8; 9; 10; 11; 12; 13; 14; 15; 16; 17; 18; 19; 20; 21; 22; 23; 24; 25; 26; 27; 28; 29; 30; 31; 32; 33; 34; 35; 36; 37; 38; 39; 40; 41; 42; 43; 44; 45; 46; 47; 48; 49; 50; 51; 52; 53; 54; 55; 56; 57
1;1,000000;0,495219;0,500000;0,500000;0,745297;0,000000;0,000000;0,500000;0,502674;0,609972;0,564882;0,590531;0,000000;0,000000;0,500000;0,000000;0,493333;0,000000;0,497089;0,550091;0,669177;0,574662;0,000000;0,660286;0,689700;0,000000;0,000000;0,000000;0,789548;0,620929;0,500000;0,500000;0,000000;0,500000;0,497048;0,000000;0,000000;0,496599;0,751323;0,000000;0,000000;0,000000;0,000000;0,000000;0,000000;0,000000;0,000000;0,497089;0,333824;0,333824;0,665393;0,665393;0,000000;0,000000;0,500000;0,000000;0,000000;
2;;1,000000;0,500000;0,552595;0,584114;0,928571;0,961538;0,642857;0,500000;0,437660;0,431447;0,461281;0,772727;0,928571;0,500000;0,928571;0,612727;0,961538;0,500000;0,474103;0,346154;0,447659;0,875000;0,386965;0,357566;0,346154;0,346154;0,346154;0,500000;0,455489;0,500000;0,500000;0,961538;0,500000;0,500000;0,500000;0,500000;0,500000;0,269231;0,346154;0,346154;0,346154;0,961538;0,500000;0,500000;0,000000;0,000000;0,500000;0,346154;0,346154;0,657360;0,657360;0,961538;0,961538;0,500000;0,500000;0,500000;
3;;;1,000000;1,000000;0,500000;0,875000;0,928571;0,625000;0,500000;0,451445;0,440016;0,388889;0,687500;0,875000;0,500000;0,875000;0,598636;0,928571;0,500000;0,472627;0,357143;0,456383;0,800000;0,412655;0,386053;0,357143;0,357143;0,357143;0,500000;0,691839;0,500000;0,500000;0,000000;0,500000;0,500000;0,000000;0,000000;0,000000;0,285714;0,000000;0,000000;0,000000;0,000000;0,000000;0,000000;0,000000;0,000000;0,500000;0,357143;0,357143;0,357143;0,357143;0,928571;0,928571;0,500000;0,500000;0,500000;
4;;;;1,000000;0,500000;1,000000;0,916667;0,619048;0,500000;0,506513;0,464161;0,395833;0,666667;0,857143;0,500000;0,878431;0,615228;1,000000;0,500000;0,474908;0,361111;0,459109;0,777778;0,419933;0,394493;0,444444;0,444444;0,444444;0,500000;0,743111;0,500000;0,500000;0,000000;0,583333;0,527941;0,000000;0,000000;0,000000;0,291667;0,000000;0,000000;0,000000;0,000000;0,000000;0,000000;0,000000;0,000000;0,583333;0,444444;0,444444;0,361111;0,361111;1,000000;0,916667;0,500000;0,583333;0,583333;
5;;;;;1,000000;0,000000;0,000000;0,000000;0,000000;0,554255;0,439491;0,573412;0,000000;0,000000;0,000000;0,000000;0,500000;0,000000;0,493288;0,500000;0,000000;0,000000;0,000000;0,358247;0,332664;0,666667;0,666667;0,666667;0,482041;0,500000;0,000000;0,000000;0,000000;0,500000;0,500000;0,000000;0,000000;0,000000;0,261145;0,000000;0,000000;0,000000;0,000000;0,000000;0,000000;0,000000;0,000000;0,493288;0,662114;0,662114;0,000000;0,000000;0,000000;0,000000;0,000000;0,500000;0,500000;
6;;;;;;1,000000;0,000000;0,000000;0,000000;0,901006;0,750000;0,000000;0,000000;0,000000;0,000000;1,000000;0,750000;1,000000;0,000000;0,000000;0,000000;0,000000;0,000000;0,000000;0,000000;0,555556;0,555556;0,555556;0,000000;0,000000;0,000000;0,000000;0,000000;0,666667;0,800000;0,000000;0,000000;0,000000;0,000000;0,000000;0,000000;0,000000;0,000000;0,000000;0,000000;0,000000;0,000000;0,666667;0,555556;0,555556;0,000000;0,000000;1,000000;0,000000;0,000000;0,666667;0,666667;
7;;;;;;;1,000000;0,888889;0,875000;0,941578;0,777778;0,833333;1,000000;1,000000;0,750000;1,000000;1,000000;0,000000;0,750000;0,908303;0,666667;0,858644;1,000000;0,889978;0,862018;0,000000;0,000000;0,000000;0,000000;0,851509;0,833333;0,833333;0,000000;0,000000;0,875000;0,000000;0,000000;0,000000;0,625000;0,000000;0,000000;0,000000;0,000000;0,000000;0,000000;0,000000;0,000000;0,000000;0,000000;0,000000;0,666667;0,666667;0,000000;1,000000;0,750000;0,000000;0,000000;
8;;;;;;;;1,000000;0,600000;0,615116;0,500000;0,533333;0,722222;0,833333;1,000000;0,833333;0,833333;0,000000;0,555556;0,604709;0,444444;0,573830;0,777778;0,573295;0,547807;0,000000;0,000000;0,000000;0,000000;0,562414;0,583333;0,583333;0,000000;0,000000;0,600000;0,000000;0,000000;0,000000;0,388889;0,000000;0,000000;0,000000;0,000000;0,000000;0,000000;0,000000;0,000000;0,000000;0,000000;0,000000;0,444444;0,444444;0,000000;0,888889;1,000000;0,000000;0,000000;
9;;;;;;;;;1,000000;0,467084;0,400000;0,416667;0,615385;0,800000;0,500000;0,800000;0,800000;0,000000;0,500000;0,481181;0,375000;0,467287;0,714286;0,439950;0,418609;0,000000;0,000000;0,000000;0,000000;0,453017;0,500000;0,500000;0,000000;0,000000;0,500000;0,000000;0,000000;0,000000;0,312500;0,000000;0,000000;0,000000;0,000000;0,000000;0,000000;0,000000;0,000000;0,000000;0,000000;0,000000;0,375000;0,375000;0,000000;0,875000;0,500000;0,000000;0,000000;
10;;;;;;;;;;1,000000;0,559608;0,524453;0,678681;0,892894;0,487033;0,895086;0,901902;0,946003;0,487033;0,435322;0,335518;0,416756;0,816389;0,645294;0,682921;0,339943;0,339943;0,339943;0,455490;0,429356;0,476227;0,476227;0,954545;0,491458;0,473625;0,500000;0,500000;0,961097;0,756381;0,348485;0,348485;0,348485;0,954545;0,500000;0,500000;0,000000;0,000000;0,491458;0,660829;0,660829;0,335518;0,335518;0,946003;0,941578;0,487033;0,491458;0,491458;
11;;;;;;;;;;;1,000000;0,632541;0,444444;0,666667;0,444444;0,710011;0,525768;0,833333;0,888889;0,366614;0,333333;0,373830;0,555556;0,670400;0,651170;0,388889;0,388889;0,388889;0,673751;0,362414;0,416667;0,416667;0,000000;0,500000;0,452013;0,000000;0,000000;0,444444;0,555556;0,000000;0,000000;0,000000;0,000000;0,000000;0,000000;0,000000;0,000000;0,800871;0,578649;0,578649;0,333333;0,333333;0,833333;0,777778;0,444444;0,500000;0,500000;
12;;;;;;;;;;;;1,000000;0,487179;0,733333;0,458333;0,733333;0,606219;0,000000;0,895338;0,455993;0,333333;0,383954;0,619048;0,618246;0,597991;0,000000;0,000000;0,000000;0,475575;0,447981;0,433333;0,433333;0,875000;0,000000;0,475801;0,500000;0,500000;0,500000;0,520338;0,375000;0,375000;0,375000;0,875000;0,500000;0,500000;0,000000;0,000000;0,476509;0,351509;0,351509;0,333333;0,333333;0,000000;0,833333;0,458333;0,000000;0,000000;
13;;;;;;;;;;;;;1,000000;1,000000;0,545455;1,000000;1,000000;0,000000;0,545455;0,633211;0,393939;0,565057;1,000000;0,559911;0,507206;0,000000;0,000000;0,000000;0,000000;0,543104;0,583333;0,583333;0,000000;0,000000;0,615385;0,000000;0,000000;0,000000;0,318182;0,000000;0,000000;0,000000;0,000000;0,000000;0,000000;0,000000;0,000000;0,000000;0,000000;0,000000;0,393939;0,393939;0,000000;1,000000;0,545455;0,000000;0,000000;
14;;;;;;;;;;;;;;1,000000;0,666667;1,000000;1,000000;0,000000;0,666667;0,842805;0,555556;0,773830;1,000000;0,811391;0,770029;0,000000;0,000000;0,000000;0,000000;0,762414;0,750000;0,750000;0,000000;0,000000;0,800000;0,000000;0,000000;0,000000;0,500000;0,000000;0,000000;0,000000;0,000000;0,000000;0,000000;0,000000;0,000000;0,000000;0,000000;0,000000;0,555556;0,555556;0,000000;1,000000;0,666667;0,000000;0,000000;
15;;;;;;;;;;;;;;;1,000000;0,666667;0,666667;0,000000;0,500000;0,491636;0,416667;0,483644;0,600000;0,473311;0,462018;0,000000;0,000000;0,000000;0,000000;0,476509;0,500000;0,500000;0,000000;0,000000;0,500000;0,000000;0,000000;0,000000;0,375000;0,000000;0,000000;0,000000;0,000000;0,000000;0,000000;0,000000;0,000000;0,000000;0,000000;0,000000;0,416667;0,416667;0,000000;0,750000;1,000000;0,000000;0,000000;
16;;;;;;;;;;;;;;;;1,000000;0,815757;1,000000;0,666667;0,842805;0,555556;0,773830;1,000000;0,811391;0,770029;0,555556;0,555556;0,555556;0,000000;0,762414;0,750000;0,750000;0,000000;0,666667;0,800000;0,000000;0,000000;0,000000;0,500000;0,000000;0,000000;0,000000;0,000000;0,000000;0,000000;0,000000;0,000000;0,666667;0,555556;0,555556;0,555556;0,555556;1,000000;1,000000;0,666667;0,666667;0,666667;
17;;;;;;;;;;;;;;;;;1,000000;0,833333;0,666667;0,842805;0,555556;0,773830;1,000000;0,811391;0,770029;0,388889;0,388889;0,388889;0,000000;0,762414;0,750000;0,750000;0,000000;0,500000;0,578909;0,000000;0,000000;0,000000;0,500000;0,000000;0,000000;0,000000;0,000000;0,000000;0,000000;0,000000;0,000000;0,500000;0,388889;0,388889;0,555556;0,555556;0,833333;1,000000;0,666667;0,500000;0,500000;
18;;;;;;;;;;;;;;;;;;1,000000;0,000000;0,000000;0,000000;0,000000;0,000000;0,000000;0,000000;0,666667;0,666667;0,666667;0,000000;0,000000;0,000000;0,000000;0,000000;0,750000;0,875000;0,000000;0,000000;0,000000;0,000000;0,000000;0,000000;0,000000;0,000000;0,000000;0,000000;0,000000;0,000000;0,750000;0,666667;0,666667;0,000000;0,000000;1,000000;0,000000;0,000000;0,750000;0,750000;
19;;;;;;;;;;;;;;;;;;;1,000000;0,491636;0,416667;0,483644;0,600000;0,946622;0,924035;0,000000;0,000000;0,000000;0,500000;0,476509;0,500000;0,500000;0,000000;0,000000;0,500000;0,000000;0,000000;0,000000;0,750000;0,000000;0,000000;0,000000;0,000000;0,000000;0,000000;0,000000;0,000000;0,500000;0,416667;0,416667;0,416667;0,416667;0,000000;0,750000;0,500000;0,000000;0,000000;
20;;;;;;;;;;;;;;;;;;;;1,000000;0,687655;0,565890;0,755474;0,394841;0,372189;0,000000;0,000000;0,000000;0,500000;0,451468;0,485662;0,485662;0,916667;0,500000;0,486242;0,500000;0,500000;0,500000;0,283303;0,361111;0,361111;0,361111;0,916667;0,500000;0,500000;0,000000;0,000000;0,000000;0,000000;0,000000;0,352747;0,352747;0,000000;0,908303;0,491636;0,000000;0,000000;
21;;;;;;;;;;;;;;;;;;;;;1,000000;0,717287;0,466667;0,334422;0,328684;0,000000;0,000000;0,000000;0,350000;0,351509;0,388889;0,388889;0,000000;0,000000;0,670884;0,000000;0,000000;0,000000;0,291667;0,000000;0,000000;0,000000;0,000000;0,000000;0,000000;0,000000;0,000000;0,000000;0,000000;0,000000;0,333333;0,333333;0,000000;0,666667;0,416667;0,000000;0,000000;
22;;;;;;;;;;;;;;;;;;;;;;1,000000;0,676899;0,399059;0,381223;0,000000;0,000000;0,000000;0,450931;0,420304;0,473830;0,473830;0,000000;0,000000;0,776342;0,000000;0,000000;0,000000;0,296144;0,000000;0,000000;0,000000;0,000000;0,000000;0,000000;0,000000;0,000000;0,000000;0,000000;0,000000;0,358644;0,358644;0,000000;0,858644;0,483644;0,000000;0,000000;
23;;;;;;;;;;;;;;;;;;;;;;;1,000000;0,706607;0,655044;0,000000;0,000000;0,000000;0,000000;0,660591;0,666667;0,666667;0,000000;0,000000;0,714286;0,000000;0,000000;0,000000;0,400000;0,000000;0,000000;0,000000;0,000000;0,000000;0,000000;0,000000;0,000000;0,000000;0,000000;0,000000;0,466667;0,466667;0,000000;1,000000;0,600000;0,000000;0,000000;
24;;;;;;;;;;;;;;;;;;;;;;;;1,000000;0,712602;0,000000;0,000000;0,000000;0,397057;0,381222;0,454248;0,454248;0,000000;0,000000;0,439950;0,000000;0,000000;0,000000;0,781737;0,000000;0,000000;0,000000;0,000000;0,000000;0,000000;0,000000;0,000000;0,473311;0,334422;0,334422;0,334422;0,334422;0,000000;0,889978;0,473311;0,000000;0,000000;
25;;;;;;;;;;;;;;;;;;;;;;;;;1,000000;0,000000;0,000000;0,000000;0,368523;0,364915;0,436696;0,436696;0,000000;0,000000;0,418609;0,000000;0,000000;0,000000;0,786053;0,000000;0,000000;0,000000;0,000000;0,000000;0,000000;0,000000;0,000000;0,462018;0,328684;0,328684;0,328684;0,328684;0,000000;0,862018;0,462018;0,000000;0,000000;
26;;;;;;;;;;;;;;;;;;;;;;;;;;1,000000;0,666667;0,666667;0,000000;0,000000;0,000000;0,000000;0,000000;0,416667;0,375000;0,000000;0,000000;0,000000;0,000000;0,000000;0,000000;0,000000;0,000000;0,000000;0,000000;0,000000;0,000000;0,416667;0,333333;0,333333;0,000000;0,000000;0,666667;0,000000;0,000000;0,416667;0,416667;
27;;;;;;;;;;;;;;;;;;;;;;;;;;;1,000000;0,666667;0,000000;0,000000;0,000000;0,000000;0,000000;0,416667;0,375000;0,000000;0,000000;0,000000;0,000000;0,000000;0,000000;0,000000;0,000000;0,000000;0,000000;0,000000;0,000000;0,416667;0,333333;0,333333;0,000000;0,000000;0,666667;0,000000;0,000000;0,416667;0,416667;
28;;;;;;;;;;;;;;;;;;;;;;;;;;;;1,000000;0,000000;0,000000;0,000000;0,000000;0,000000;0,416667;0,375000;0,000000;0,000000;0,000000;0,000000;0,000000;0,000000;0,000000;0,000000;0,000000;0,000000;0,000000;0,000000;0,416667;0,333333;0,333333;0,000000;0,000000;0,666667;0,000000;0,000000;0,416667;0,416667;
29;;;;;;;;;;;;;;;;;;;;;;;;;;;;;1,000000;0,500000;0,000000;0,000000;0,000000;0,500000;0,500000;0,500000;0,500000;0,500000;0,275000;0,666667;0,666667;0,666667;0,000000;0,500000;0,500000;0,000000;0,000000;0,500000;0,350000;0,350000;0,350000;0,350000;0,000000;0,000000;0,000000;0,000000;0,000000;
30;;;;;;;;;;;;;;;;;;;;;;;;;;;;;;1,000000;0,462414;0,462414;0,875000;0,000000;0,472181;0,500000;0,500000;0,500000;0,289009;0,375000;0,375000;0,375000;0,875000;0,500000;0,500000;0,000000;0,000000;0,000000;0,000000;0,000000;0,650105;0,650105;0,000000;0,851509;0,476509;0,000000;0,000000;
31;;;;;;;;;;;;;;;;;;;;;;;;;;;;;;;1,000000;0,500000;0,000000;0,000000;0,500000;0,000000;0,000000;0,000000;0,333333;0,000000;0,000000;0,000000;0,000000;0,000000;0,000000;0,000000;0,000000;0,000000;0,000000;0,000000;0,388889;0,388889;0,000000;0,833333;0,500000;0,000000;0,000000;
32;;;;;;;;;;;;;;;;;;;;;;;;;;;;;;;;1,000000;0,000000;0,000000;0,500000;0,000000;0,000000;0,000000;0,333333;0,000000;0,000000;0,000000;0,000000;0,000000;0,000000;0,000000;0,000000;0,000000;0,000000;0,000000;0,388889;0,388889;0,000000;0,833333;0,500000;0,000000;0,000000;
33;;;;;;;;;;;;;;;;;;;;;;;;;;;;;;;;;1,000000;0,000000;0,875000;0,750000;0,750000;0,750000;0,000000;0,666667;0,666667;0,666667;1,000000;0,750000;0,750000;0,000000;0,000000;0,000000;0,000000;0,000000;0,000000;0,000000;0,000000;0,000000;0,000000;0,000000;0,000000;
34;;;;;;;;;;;;;;;;;;;;;;;;;;;;;;;;;;1,000000;0,500000;0,000000;0,000000;0,000000;0,000000;0,000000;0,000000;0,000000;0,000000;0,000000;0,000000;0,000000;0,000000;0,500000;0,416667;0,416667;0,000000;0,000000;0,750000;0,000000;0,000000;0,500000;0,500000;
35;;;;;;;;;;;;;;;;;;;;;;;;;;;;;;;;;;;1,000000;0,500000;0,500000;0,500000;0,312500;0,375000;0,375000;0,375000;0,875000;0,500000;0,500000;0,000000;0,000000;0,500000;0,375000;0,375000;0,375000;0,375000;0,875000;0,875000;0,500000;0,500000;0,500000;
36;;;;;;;;;;;;;;;;;;;;;;;;;;;;;;;;;;;;1,000000;0,500000;0,500000;0,000000;0,416667;0,416667;0,416667;0,750000;0,500000;0,500000;0,000000;0,000000;0,000000;0,000000;0,000000;0,000000;0,000000;0,000000;0,000000;0,000000;0,000000;0,000000;
37;;;;;;;;;;;;;;;;;;;;;;;;;;;;;;;;;;;;;1,000000;0,500000;0,000000;0,416667;0,416667;0,416667;0,750000;0,500000;0,500000;0,000000;0,000000;0,000000;0,000000;0,000000;0,000000;0,000000;0,000000;0,000000;0,000000;0,000000;0,000000;
38;;;;;;;;;;;;;;;;;;;;;;;;;;;;;;;;;;;;;;1,000000;0,000000;0,416667;0,416667;0,416667;0,750000;0,500000;0,500000;0,000000;0,000000;0,000000;0,000000;0,000000;0,000000;0,000000;0,000000;0,000000;0,000000;0,000000;0,000000;
39;;;;;;;;;;;;;;;;;;;;;;;;;;;;;;;;;;;;;;;1,000000;0,000000;0,000000;0,000000;0,000000;0,000000;0,000000;0,000000;0,000000;0,375000;0,291667;0,291667;0,291667;0,291667;0,000000;0,625000;0,375000;0,000000;0,000000;
40;;;;;;;;;;;;;;;;;;;;;;;;;;;;;;;;;;;;;;;;1,000000;0,666667;0,666667;0,666667;0,416667;0,416667;0,000000;0,000000;0,000000;0,000000;0,000000;0,000000;0,000000;0,000000;0,000000;0,000000;0,000000;0,000000;
41;;;;;;;;;;;;;;;;;;;;;;;;;;;;;;;;;;;;;;;;;1,000000;0,666667;0,666667;0,416667;0,416667;0,000000;0,000000;0,000000;0,000000;0,000000;0,000000;0,000000;0,000000;0,000000;0,000000;0,000000;0,000000;
42;;;;;;;;;;;;;;;;;;;;;;;;;;;;;;;;;;;;;;;;;;1,000000;0,666667;0,416667;0,416667;0,000000;0,000000;0,000000;0,000000;0,000000;0,000000;0,000000;0,000000;0,000000;0,000000;0,000000;0,000000;
43;;;;;;;;;;;;;;;;;;;;;;;;;;;;;;;;;;;;;;;;;;;1,000000;0,750000;0,750000;0,000000;0,000000;0,000000;0,000000;0,000000;0,000000;0,000000;0,000000;0,000000;0,000000;0,000000;0,000000;
44;;;;;;;;;;;;;;;;;;;;;;;;;;;;;;;;;;;;;;;;;;;;1,000000;0,500000;0,000000;0,000000;0,000000;0,000000;0,000000;0,000000;0,000000;0,000000;0,000000;0,000000;0,000000;0,000000;
45;;;;;;;;;;;;;;;;;;;;;;;;;;;;;;;;;;;;;;;;;;;;;1,000000;0,000000;0,000000;0,000000;0,000000;0,000000;0,000000;0,000000;0,000000;0,000000;0,000000;0,000000;0,000000;
46;;;;;;;;;;;;;;;;;;;;;;;;;;;;;;;;;;;;;;;;;;;;;;1,000000;0,000000;0,000000;0,000000;0,000000;0,000000;0,000000;0,000000;0,000000;0,000000;0,000000;0,000000;
47;;;;;;;;;;;;;;;;;;;;;;;;;;;;;;;;;;;;;;;;;;;;;;;1,000000;0,000000;0,000000;0,000000;0,000000;0,000000;0,000000;0,000000;0,000000;0,000000;0,000000;
48;;;;;;;;;;;;;;;;;;;;;;;;;;;;;;;;;;;;;;;;;;;;;;;;1,000000;0,833333;0,833333;0,000000;0,000000;0,750000;0,000000;0,000000;0,500000;0,500000;
49;;;;;;;;;;;;;;;;;;;;;;;;;;;;;;;;;;;;;;;;;;;;;;;;;1,000000;0,666667;0,000000;0,000000;0,666667;0,000000;0,000000;0,416667;0,416667;
50;;;;;;;;;;;;;;;;;;;;;;;;;;;;;;;;;;;;;;;;;;;;;;;;;;1,000000;0,000000;0,000000;0,666667;0,000000;0,000000;0,416667;0,416667;
51;;;;;;;;;;;;;;;;;;;;;;;;;;;;;;;;;;;;;;;;;;;;;;;;;;;1,000000;0,666667;0,000000;0,666667;0,416667;0,000000;0,000000;
52;;;;;;;;;;;;;;;;;;;;;;;;;;;;;;;;;;;;;;;;;;;;;;;;;;;;1,000000;0,000000;0,666667;0,416667;0,000000;0,000000;
53;;;;;;;;;;;;;;;;;;;;;;;;;;;;;;;;;;;;;;;;;;;;;;;;;;;;;1,000000;0,000000;0,000000;0,750000;0,750000;
54;;;;;;;;;;;;;;;;;;;;;;;;;;;;;;;;;;;;;;;;;;;;;;;;;;;;;;1,000000;0,750000;0,000000;0,000000;
55;;;;;;;;;;;;;;;;;;;;;;;;;;;;;;;;;;;;;;;;;;;;;;;;;;;;;;;1,000000;0,000000;0,000000;
56;;;;;;;;;;;;;;;;;;;;;;;;;;;;;;;;;;;;;;;;;;;;;;;;;;;;;;;;1,000000;0,500000;
57;;;;;;;;;;;;;;;;;;;;;;;;;;;;;;;;;;;;;;;;;;;;;;;;;;;;;;;;;1,000000;
