<?xml version="1.0" encoding="UTF-8" standalone="no"?>
<!-- Created by igraph (http://igraph.org/) for use in Inkscape (http://www.inkscape.org/) -->

<svg xmlns:dc="http://purl.org/dc/elements/1.1/" xmlns:cc="http://creativecommons.org/ns#" xmlns:rdf="http://www.w3.org/1999/02/22-rdf-syntax-ns#" xmlns:svg="http://www.w3.org/2000/svg" xmlns="http://www.w3.org/2000/svg" xmlns:sodipodi="http://sodipodi.sourceforge.net/DTD/sodipodi-0.dtd" xmlns:inkscape="http://www.inkscape.org/namespaces/inkscape"
width="400px" height="400px"> <defs id="defs3">
<marker
   inkscape:stockid="Arrow2Lend0"
   orient="auto"
   refY="0.0"
   refX="0.0"
   id="Arrow2Lend0"
   style="overflow:visible;">
  <path
     id="pathArrow0"
     style="font-size:12.0;fill-rule:evenodd;stroke-width:0.62500000;stroke-linejoin:round;fill:black"
     d="M 8.7185878,4.0337352 L -2.2072895,0.016013256 L 8.7185884,-4.0017078 C 6.9730900,-1.6296469 6.9831476,1.6157441 8.7185878,4.0337352 z "
     transform="scale(1.1) rotate(180) translate(1,0)" />
</marker>
</defs>
<g inkscape:groupmode="layer" id="layer2" inkscape:label="Lines" sodipodi:insensitive="true">
<path
    style="fill:none;stroke:black;stroke-width:2;stroke-linecap:butt;stroke-linejoin:miter;stroke-miterlimit:4;stroke-opacity:1;stroke-dasharray:none"
    d="M 187.94622093989324,333.9410895907019 225.74924190476736,307.79331435928964"
    id="path0"
    inkscape:connector-type="polyline"
    inkscape:connector-curvature="0"
    inkscape:connection-start="#g0"
    inkscape:connection-start-point="d4"
    inkscape:connection-end="#g1"
    inkscape:connection-end-point="d4" />
<path
    style="fill:none;stroke:black;stroke-width:2;stroke-linecap:butt;stroke-linejoin:miter;stroke-miterlimit:4;stroke-opacity:1;stroke-dasharray:none"
    d="M 160.44200275978494,261.92555666769186 228.33825090622207,235.7400825661657"
    id="path1"
    inkscape:connector-type="polyline"
    inkscape:connector-curvature="0"
    inkscape:connection-start="#g2"
    inkscape:connection-start-point="d4"
    inkscape:connection-end="#g3"
    inkscape:connection-end-point="d4" />
<path
    style="fill:none;stroke:black;stroke-width:2;stroke-linecap:butt;stroke-linejoin:miter;stroke-miterlimit:4;stroke-opacity:1;stroke-dasharray:none"
    d="M 160.44200275978494,261.92555666769186 145.79845132587454,220.67771877722166"
    id="path2"
    inkscape:connector-type="polyline"
    inkscape:connector-curvature="0"
    inkscape:connection-start="#g2"
    inkscape:connection-start-point="d4"
    inkscape:connection-end="#g4"
    inkscape:connection-end-point="d4" />
<path
    style="fill:none;stroke:black;stroke-width:2;stroke-linecap:butt;stroke-linejoin:miter;stroke-miterlimit:4;stroke-opacity:1;stroke-dasharray:none"
    d="M 160.44200275978494,261.92555666769186 173.1654280479768,223.38306892546757"
    id="path3"
    inkscape:connector-type="polyline"
    inkscape:connector-curvature="0"
    inkscape:connection-start="#g2"
    inkscape:connection-start-point="d4"
    inkscape:connection-end="#g5"
    inkscape:connection-end-point="d4" />
<path
    style="fill:none;stroke:black;stroke-width:2;stroke-linecap:butt;stroke-linejoin:miter;stroke-miterlimit:4;stroke-opacity:1;stroke-dasharray:none"
    d="M 237.66840953511277,232.14173017100808 152.22061439332725,213.39674253015795"
    id="path4"
    inkscape:connector-type="polyline"
    inkscape:connector-curvature="0"
    inkscape:connection-start="#g3"
    inkscape:connection-start-point="d4"
    inkscape:connection-end="#g4"
    inkscape:connection-end-point="d4" />
<path
    style="fill:none;stroke:black;stroke-width:2;stroke-linecap:butt;stroke-linejoin:miter;stroke-miterlimit:4;stroke-opacity:1;stroke-dasharray:none"
    d="M 237.66840953511277,232.14173017100808 185.88511725904362,216.73824543587406"
    id="path5"
    inkscape:connector-type="polyline"
    inkscape:connector-curvature="0"
    inkscape:connection-start="#g3"
    inkscape:connection-start-point="d4"
    inkscape:connection-end="#g5"
    inkscape:connection-end-point="d4" />
<path
    style="fill:none;stroke:black;stroke-width:2;stroke-linecap:butt;stroke-linejoin:miter;stroke-miterlimit:4;stroke-opacity:1;stroke-dasharray:none"
    d="M 142.4528874744312,211.25396143124146 166.33030463683022,213.11150070305897"
    id="path6"
    inkscape:connector-type="polyline"
    inkscape:connector-curvature="0"
    inkscape:connection-start="#g4"
    inkscape:connection-start-point="d4"
    inkscape:connection-end="#g5"
    inkscape:connection-end-point="d4" />
<path
    style="fill:none;stroke:black;stroke-width:2;stroke-linecap:butt;stroke-linejoin:miter;stroke-miterlimit:4;stroke-opacity:1;stroke-dasharray:none"
    d="M 212.60428457955388,165.8005025093619 248.20649359842037,182.350710296262"
    id="path7"
    inkscape:connector-type="polyline"
    inkscape:connector-curvature="0"
    inkscape:connection-start="#g6"
    inkscape:connection-start-point="d4"
    inkscape:connection-end="#g7"
    inkscape:connection-end-point="d4" />
<path
    style="fill:none;stroke:black;stroke-width:2;stroke-linecap:butt;stroke-linejoin:miter;stroke-miterlimit:4;stroke-opacity:1;stroke-dasharray:none"
    d="M 237.66840953511277,232.14173017100808 216.13852267105472,175.15513564554553"
    id="path8"
    inkscape:connector-type="polyline"
    inkscape:connector-curvature="0"
    inkscape:connection-start="#g3"
    inkscape:connection-start-point="d4"
    inkscape:connection-end="#g6"
    inkscape:connection-end-point="d4" />
<path
    style="fill:none;stroke:black;stroke-width:2;stroke-linecap:butt;stroke-linejoin:miter;stroke-miterlimit:4;stroke-opacity:1;stroke-dasharray:none"
    d="M 237.66840953511277,232.14173017100808 253.32282580068534,195.7521996001304"
    id="path9"
    inkscape:connector-type="polyline"
    inkscape:connector-curvature="0"
    inkscape:connection-start="#g3"
    inkscape:connection-start-point="d4"
    inkscape:connection-end="#g7"
    inkscape:connection-end-point="d4" />
<path
    style="fill:none;stroke:black;stroke-width:2;stroke-linecap:butt;stroke-linejoin:miter;stroke-miterlimit:4;stroke-opacity:1;stroke-dasharray:none"
    d="M 233.97356056862344,302.10467809781636 237.14102936328743,242.12781399572964"
    id="path10"
    inkscape:connector-type="polyline"
    inkscape:connector-curvature="0"
    inkscape:connection-start="#g1"
    inkscape:connection-start-point="d4"
    inkscape:connection-end="#g3"
    inkscape:connection-end-point="d4" />
<path
    style="fill:none;stroke:black;stroke-width:2;stroke-linecap:butt;stroke-linejoin:miter;stroke-miterlimit:4;stroke-opacity:1;stroke-dasharray:none"
    d="M 160.44200275978494,261.92555666769186 228.33825090622207,235.7400825661657"
    id="path11"
    inkscape:connector-type="polyline"
    inkscape:connector-curvature="0"
    inkscape:connection-start="#g2"
    inkscape:connection-start-point="d4"
    inkscape:connection-end="#g3"
    inkscape:connection-end-point="d4" />
<path
    style="fill:none;stroke:black;stroke-width:2;stroke-linecap:butt;stroke-linejoin:miter;stroke-miterlimit:4;stroke-opacity:1;stroke-dasharray:none"
    d="M 237.66840953511277,232.14173017100808 253.32282580068534,195.7521996001304"
    id="path12"
    inkscape:connector-type="polyline"
    inkscape:connector-curvature="0"
    inkscape:connection-start="#g3"
    inkscape:connection-start-point="d4"
    inkscape:connection-end="#g7"
    inkscape:connection-end-point="d4" />
<path
    style="fill:none;stroke:black;stroke-width:2;stroke-linecap:butt;stroke-linejoin:miter;stroke-miterlimit:4;stroke-opacity:1;stroke-dasharray:none"
    d="M 187.94622093989324,333.9410895907019 198.26299740565224,289.4517895883234"
    id="path13"
    inkscape:connector-type="polyline"
    inkscape:connector-curvature="0"
    inkscape:connection-start="#g0"
    inkscape:connection-start-point="d4"
    inkscape:connection-end="#g8"
    inkscape:connection-end-point="d4" />
<path
    style="fill:none;stroke:black;stroke-width:2;stroke-linecap:butt;stroke-linejoin:miter;stroke-miterlimit:4;stroke-opacity:1;stroke-dasharray:none"
    d="M 237.66840953511277,232.14173017100808 260.36829527725274,295.084515599928"
    id="path14"
    inkscape:connector-type="polyline"
    inkscape:connector-curvature="0"
    inkscape:connection-start="#g3"
    inkscape:connection-start-point="d4"
    inkscape:connection-end="#g9"
    inkscape:connection-end-point="d4" />
<path
    style="fill:none;stroke:black;stroke-width:2;stroke-linecap:butt;stroke-linejoin:miter;stroke-miterlimit:4;stroke-opacity:1;stroke-dasharray:none"
    d="M 237.66840953511277,232.14173017100808 281.83802719057144,214.83667708560236"
    id="path15"
    inkscape:connector-type="polyline"
    inkscape:connector-curvature="0"
    inkscape:connection-start="#g3"
    inkscape:connection-start-point="d4"
    inkscape:connection-end="#g10"
    inkscape:connection-end-point="d4" />
<path
    style="fill:none;stroke:black;stroke-width:2;stroke-linecap:butt;stroke-linejoin:miter;stroke-miterlimit:4;stroke-opacity:1;stroke-dasharray:none"
    d="M 237.66840953511277,232.14173017100808 314.3176201829498,236.46252598015855"
    id="path16"
    inkscape:connector-type="polyline"
    inkscape:connector-curvature="0"
    inkscape:connection-start="#g3"
    inkscape:connection-start-point="d4"
    inkscape:connection-end="#g11"
    inkscape:connection-end-point="d4" />
<path
    style="fill:none;stroke:black;stroke-width:2;stroke-linecap:butt;stroke-linejoin:miter;stroke-miterlimit:4;stroke-opacity:1;stroke-dasharray:none"
    d="M 291.14893125346515,211.1887920090698 316.4141323017818,230.87837778458214"
    id="path17"
    inkscape:connector-type="polyline"
    inkscape:connector-curvature="0"
    inkscape:connection-start="#g10"
    inkscape:connection-start-point="d4"
    inkscape:connection-end="#g11"
    inkscape:connection-end-point="d4" />
<path
    style="fill:none;stroke:black;stroke-width:2;stroke-linecap:butt;stroke-linejoin:miter;stroke-miterlimit:4;stroke-opacity:1;stroke-dasharray:none"
    d="M 237.66840953511277,232.14173017100808 287.9300657784026,187.20894389383696"
    id="path18"
    inkscape:connector-type="polyline"
    inkscape:connector-curvature="0"
    inkscape:connection-start="#g3"
    inkscape:connection-start-point="d4"
    inkscape:connection-end="#g12"
    inkscape:connection-end-point="d4" />
<path
    style="fill:none;stroke:black;stroke-width:2;stroke-linecap:butt;stroke-linejoin:miter;stroke-miterlimit:4;stroke-opacity:1;stroke-dasharray:none"
    d="M 187.94622093989324,333.9410895907019 156.60512336444816,376.51873882559204"
    id="path19"
    inkscape:connector-type="polyline"
    inkscape:connector-curvature="0"
    inkscape:connection-start="#g0"
    inkscape:connection-start-point="d4"
    inkscape:connection-end="#g13"
    inkscape:connection-end-point="d4" />
<path
    style="fill:none;stroke:black;stroke-width:2;stroke-linecap:butt;stroke-linejoin:miter;stroke-miterlimit:4;stroke-opacity:1;stroke-dasharray:none"
    d="M 233.97356056862344,302.10467809781636 237.14102936328743,242.12781399572964"
    id="path20"
    inkscape:connector-type="polyline"
    inkscape:connector-curvature="0"
    inkscape:connection-start="#g1"
    inkscape:connection-start-point="d4"
    inkscape:connection-end="#g3"
    inkscape:connection-end-point="d4" />
<path
    style="fill:none;stroke:black;stroke-width:2;stroke-linecap:butt;stroke-linejoin:miter;stroke-miterlimit:4;stroke-opacity:1;stroke-dasharray:none"
    d="M 333.5431375452454,10.0 380.9104883629625,31.725668807453204"
    id="path21"
    inkscape:connector-type="polyline"
    inkscape:connector-curvature="0"
    inkscape:connection-start="#g14"
    inkscape:connection-start-point="d4"
    inkscape:connection-end="#g15"
    inkscape:connection-end-point="d4" />
<path
    style="fill:none;stroke:black;stroke-width:2;stroke-linecap:butt;stroke-linejoin:miter;stroke-miterlimit:4;stroke-opacity:1;stroke-dasharray:none"
    d="M 237.66840953511277,232.14173017100808 185.88511725904362,216.73824543587406"
    id="path22"
    inkscape:connector-type="polyline"
    inkscape:connector-curvature="0"
    inkscape:connection-start="#g3"
    inkscape:connection-start-point="d4"
    inkscape:connection-end="#g5"
    inkscape:connection-end-point="d4" />
<path
    style="fill:none;stroke:black;stroke-width:2;stroke-linecap:butt;stroke-linejoin:miter;stroke-miterlimit:4;stroke-opacity:1;stroke-dasharray:none"
    d="M 233.97356056862344,302.10467809781636 237.14102936328743,242.12781399572964"
    id="path23"
    inkscape:connector-type="polyline"
    inkscape:connector-curvature="0"
    inkscape:connection-start="#g1"
    inkscape:connection-start-point="d4"
    inkscape:connection-end="#g3"
    inkscape:connection-end-point="d4" />
<path
    style="fill:none;stroke:black;stroke-width:2;stroke-linecap:butt;stroke-linejoin:miter;stroke-miterlimit:4;stroke-opacity:1;stroke-dasharray:none"
    d="M 237.66840953511277,232.14173017100808 260.36829527725274,295.084515599928"
    id="path24"
    inkscape:connector-type="polyline"
    inkscape:connector-curvature="0"
    inkscape:connection-start="#g3"
    inkscape:connection-start-point="d4"
    inkscape:connection-end="#g9"
    inkscape:connection-end-point="d4" />
<path
    style="fill:none;stroke:black;stroke-width:2;stroke-linecap:butt;stroke-linejoin:miter;stroke-miterlimit:4;stroke-opacity:1;stroke-dasharray:none"
    d="M 237.66840953511277,232.14173017100808 260.36829527725274,295.084515599928"
    id="path25"
    inkscape:connector-type="polyline"
    inkscape:connector-curvature="0"
    inkscape:connection-start="#g3"
    inkscape:connection-start-point="d4"
    inkscape:connection-end="#g9"
    inkscape:connection-end-point="d4" />
<path
    style="fill:none;stroke:black;stroke-width:2;stroke-linecap:butt;stroke-linejoin:miter;stroke-miterlimit:4;stroke-opacity:1;stroke-dasharray:none"
    d="M 237.66840953511277,232.14173017100808 264.70398489415135,265.9230214471354"
    id="path26"
    inkscape:connector-type="polyline"
    inkscape:connector-curvature="0"
    inkscape:connection-start="#g3"
    inkscape:connection-start-point="d4"
    inkscape:connection-end="#g16"
    inkscape:connection-end-point="d4" />
<path
    style="fill:none;stroke:black;stroke-width:2;stroke-linecap:butt;stroke-linejoin:miter;stroke-miterlimit:4;stroke-opacity:1;stroke-dasharray:none"
    d="M 237.66840953511277,232.14173017100808 291.02028581067736,280.9602622264824"
    id="path27"
    inkscape:connector-type="polyline"
    inkscape:connector-curvature="0"
    inkscape:connection-start="#g3"
    inkscape:connection-start-point="d4"
    inkscape:connection-end="#g17"
    inkscape:connection-end-point="d4" />
<path
    style="fill:none;stroke:black;stroke-width:2;stroke-linecap:butt;stroke-linejoin:miter;stroke-miterlimit:4;stroke-opacity:1;stroke-dasharray:none"
    d="M 237.66840953511277,232.14173017100808 278.7317743436264,249.3088448845207"
    id="path28"
    inkscape:connector-type="polyline"
    inkscape:connector-curvature="0"
    inkscape:connection-start="#g3"
    inkscape:connection-start-point="d4"
    inkscape:connection-end="#g18"
    inkscape:connection-end-point="d4" />
<path
    style="fill:none;stroke:black;stroke-width:2;stroke-linecap:butt;stroke-linejoin:miter;stroke-miterlimit:4;stroke-opacity:1;stroke-dasharray:none"
    d="M 237.66840953511277,232.14173017100808 304.34156362230476,263.8844224271873"
    id="path29"
    inkscape:connector-type="polyline"
    inkscape:connector-curvature="0"
    inkscape:connection-start="#g3"
    inkscape:connection-start-point="d4"
    inkscape:connection-end="#g19"
    inkscape:connection-end-point="d4" />
<path
    style="fill:none;stroke:black;stroke-width:2;stroke-linecap:butt;stroke-linejoin:miter;stroke-miterlimit:4;stroke-opacity:1;stroke-dasharray:none"
    d="M 263.7608455335369,304.4914599900361 268.67591521583785,283.46794974994265"
    id="path30"
    inkscape:connector-type="polyline"
    inkscape:connector-curvature="0"
    inkscape:connection-start="#g9"
    inkscape:connection-start-point="d4"
    inkscape:connection-end="#g16"
    inkscape:connection-end-point="d4" />
<path
    style="fill:none;stroke:black;stroke-width:2;stroke-linecap:butt;stroke-linejoin:miter;stroke-miterlimit:4;stroke-opacity:1;stroke-dasharray:none"
    d="M 263.7608455335369,304.4914599900361 289.39835659567325,292.07090475188454"
    id="path31"
    inkscape:connector-type="polyline"
    inkscape:connector-curvature="0"
    inkscape:connection-start="#g9"
    inkscape:connection-start-point="d4"
    inkscape:connection-end="#g17"
    inkscape:connection-end-point="d4" />
<path
    style="fill:none;stroke:black;stroke-width:2;stroke-linecap:butt;stroke-linejoin:miter;stroke-miterlimit:4;stroke-opacity:1;stroke-dasharray:none"
    d="M 263.7608455335369,304.4914599900361 283.69364981877794,262.2111818689815"
    id="path32"
    inkscape:connector-type="polyline"
    inkscape:connector-curvature="0"
    inkscape:connection-start="#g9"
    inkscape:connection-start-point="d4"
    inkscape:connection-end="#g18"
    inkscape:connection-end-point="d4" />
<path
    style="fill:none;stroke:black;stroke-width:2;stroke-linecap:butt;stroke-linejoin:miter;stroke-miterlimit:4;stroke-opacity:1;stroke-dasharray:none"
    d="M 263.7608455335369,304.4914599900361 305.3008747722109,274.0890658460279"
    id="path33"
    inkscape:connector-type="polyline"
    inkscape:connector-curvature="0"
    inkscape:connection-start="#g9"
    inkscape:connection-start-point="d4"
    inkscape:connection-end="#g19"
    inkscape:connection-end-point="d4" />
<path
    style="fill:none;stroke:black;stroke-width:2;stroke-linecap:butt;stroke-linejoin:miter;stroke-miterlimit:4;stroke-opacity:1;stroke-dasharray:none"
    d="M 270.9524209487032,273.7305208465703 289.48728762478777,283.1719955030188"
    id="path34"
    inkscape:connector-type="polyline"
    inkscape:connector-curvature="0"
    inkscape:connection-start="#g16"
    inkscape:connection-start-point="d4"
    inkscape:connection-end="#g17"
    inkscape:connection-end-point="d4" />
<path
    style="fill:none;stroke:black;stroke-width:2;stroke-linecap:butt;stroke-linejoin:miter;stroke-miterlimit:4;stroke-opacity:1;stroke-dasharray:none"
    d="M 270.9524209487032,273.7305208465703 281.58526151867073,260.8723883560759"
    id="path35"
    inkscape:connector-type="polyline"
    inkscape:connector-curvature="0"
    inkscape:connection-start="#g16"
    inkscape:connection-start-point="d4"
    inkscape:connection-end="#g18"
    inkscape:connection-end-point="d4" />
<path
    style="fill:none;stroke:black;stroke-width:2;stroke-linecap:butt;stroke-linejoin:miter;stroke-miterlimit:4;stroke-opacity:1;stroke-dasharray:none"
    d="M 270.9524209487032,273.7305208465703 303.45494324299705,269.4798141347801"
    id="path36"
    inkscape:connector-type="polyline"
    inkscape:connector-curvature="0"
    inkscape:connection-start="#g16"
    inkscape:connection-start-point="d4"
    inkscape:connection-end="#g19"
    inkscape:connection-end-point="d4" />
<path
    style="fill:none;stroke:black;stroke-width:2;stroke-linecap:butt;stroke-linejoin:miter;stroke-miterlimit:4;stroke-opacity:1;stroke-dasharray:none"
    d="M 298.39784123850137,287.710941889256 290.8508535727867,262.73839795275023"
    id="path37"
    inkscape:connector-type="polyline"
    inkscape:connector-curvature="0"
    inkscape:connection-start="#g17"
    inkscape:connection-start-point="d4"
    inkscape:connection-end="#g18"
    inkscape:connection-end-point="d4" />
<path
    style="fill:none;stroke:black;stroke-width:2;stroke-linecap:butt;stroke-linejoin:miter;stroke-miterlimit:4;stroke-opacity:1;stroke-dasharray:none"
    d="M 298.39784123850137,287.710941889256 307.2858635266225,276.1188608770153"
    id="path38"
    inkscape:connector-type="polyline"
    inkscape:connector-curvature="0"
    inkscape:connection-start="#g17"
    inkscape:connection-start-point="d4"
    inkscape:connection-end="#g19"
    inkscape:connection-end-point="d4" />
<path
    style="fill:none;stroke:black;stroke-width:2;stroke-linecap:butt;stroke-linejoin:miter;stroke-miterlimit:4;stroke-opacity:1;stroke-dasharray:none"
    d="M 287.9579599631435,253.16598098715133 304.76132492369436,263.0956141478625"
    id="path39"
    inkscape:connector-type="polyline"
    inkscape:connector-curvature="0"
    inkscape:connection-start="#g18"
    inkscape:connection-start-point="d4"
    inkscape:connection-end="#g19"
    inkscape:connection-end-point="d4" />
<path
    style="fill:none;stroke:black;stroke-width:2;stroke-linecap:butt;stroke-linejoin:miter;stroke-miterlimit:4;stroke-opacity:1;stroke-dasharray:none"
    d="M 237.66840953511277,232.14173017100808 253.32282580068534,195.7521996001304"
    id="path40"
    inkscape:connector-type="polyline"
    inkscape:connector-curvature="0"
    inkscape:connection-start="#g3"
    inkscape:connection-start-point="d4"
    inkscape:connection-end="#g7"
    inkscape:connection-end-point="d4" />
<path
    style="fill:none;stroke:black;stroke-width:2;stroke-linecap:butt;stroke-linejoin:miter;stroke-miterlimit:4;stroke-opacity:1;stroke-dasharray:none"
    d="M 237.66840953511277,232.14173017100808 314.3176201829498,236.46252598015855"
    id="path41"
    inkscape:connector-type="polyline"
    inkscape:connector-curvature="0"
    inkscape:connection-start="#g3"
    inkscape:connection-start-point="d4"
    inkscape:connection-end="#g11"
    inkscape:connection-end-point="d4" />
<path
    style="fill:none;stroke:black;stroke-width:2;stroke-linecap:butt;stroke-linejoin:miter;stroke-miterlimit:4;stroke-opacity:1;stroke-dasharray:none"
    d="M 237.66840953511277,232.14173017100808 253.32282580068534,195.7521996001304"
    id="path42"
    inkscape:connector-type="polyline"
    inkscape:connector-curvature="0"
    inkscape:connection-start="#g3"
    inkscape:connection-start-point="d4"
    inkscape:connection-end="#g7"
    inkscape:connection-end-point="d4" />
<path
    style="fill:none;stroke:black;stroke-width:2;stroke-linecap:butt;stroke-linejoin:miter;stroke-miterlimit:4;stroke-opacity:1;stroke-dasharray:none"
    d="M 171.0678028453865,283.41859909276576 137.9263385837206,315.74449672881246"
    id="path43"
    inkscape:connector-type="polyline"
    inkscape:connector-curvature="0"
    inkscape:connection-start="#g20"
    inkscape:connection-start-point="d4"
    inkscape:connection-end="#g21"
    inkscape:connection-end-point="d4" />
<path
    style="fill:none;stroke:black;stroke-width:2;stroke-linecap:butt;stroke-linejoin:miter;stroke-miterlimit:4;stroke-opacity:1;stroke-dasharray:none"
    d="M 187.94622093989324,333.9410895907019 174.2364306255,292.9033130046923"
    id="path44"
    inkscape:connector-type="polyline"
    inkscape:connector-curvature="0"
    inkscape:connection-start="#g0"
    inkscape:connection-start-point="d4"
    inkscape:connection-end="#g20"
    inkscape:connection-end-point="d4" />
<path
    style="fill:none;stroke:black;stroke-width:2;stroke-linecap:butt;stroke-linejoin:miter;stroke-miterlimit:4;stroke-opacity:1;stroke-dasharray:none"
    d="M 171.0678028453865,283.41859909276576 194.00450071048263,293.1948418115776"
    id="path45"
    inkscape:connector-type="polyline"
    inkscape:connector-curvature="0"
    inkscape:connection-start="#g20"
    inkscape:connection-start-point="d4"
    inkscape:connection-end="#g22"
    inkscape:connection-end-point="d4" />
<path
    style="fill:none;stroke:black;stroke-width:2;stroke-linecap:butt;stroke-linejoin:miter;stroke-miterlimit:4;stroke-opacity:1;stroke-dasharray:none"
    d="M 187.94622093989324,333.9410895907019 140.58078802707706,324.65152303456114"
    id="path46"
    inkscape:connector-type="polyline"
    inkscape:connector-curvature="0"
    inkscape:connection-start="#g0"
    inkscape:connection-start-point="d4"
    inkscape:connection-end="#g21"
    inkscape:connection-end-point="d4" />
<path
    style="fill:none;stroke:black;stroke-width:2;stroke-linecap:butt;stroke-linejoin:miter;stroke-miterlimit:4;stroke-opacity:1;stroke-dasharray:none"
    d="M 130.76773764942357,322.72693417310666 193.77569715737053,300.44927192394493"
    id="path47"
    inkscape:connector-type="polyline"
    inkscape:connector-curvature="0"
    inkscape:connection-start="#g21"
    inkscape:connection-start-point="d4"
    inkscape:connection-end="#g22"
    inkscape:connection-end-point="d4" />
<path
    style="fill:none;stroke:black;stroke-width:2;stroke-linecap:butt;stroke-linejoin:miter;stroke-miterlimit:4;stroke-opacity:1;stroke-dasharray:none"
    d="M 187.94622093989324,333.9410895907019 199.37605276718116,306.3542491059909"
    id="path48"
    inkscape:connector-type="polyline"
    inkscape:connector-curvature="0"
    inkscape:connection-start="#g0"
    inkscape:connection-start-point="d4"
    inkscape:connection-end="#g22"
    inkscape:connection-end-point="d4" />
<path
    style="fill:none;stroke:black;stroke-width:2;stroke-linecap:butt;stroke-linejoin:miter;stroke-miterlimit:4;stroke-opacity:1;stroke-dasharray:none"
    d="M 237.66840953511277,232.14173017100808 260.36829527725274,295.084515599928"
    id="path49"
    inkscape:connector-type="polyline"
    inkscape:connector-curvature="0"
    inkscape:connection-start="#g3"
    inkscape:connection-start-point="d4"
    inkscape:connection-end="#g9"
    inkscape:connection-end-point="d4" />
<path
    style="fill:none;stroke:black;stroke-width:2;stroke-linecap:butt;stroke-linejoin:miter;stroke-miterlimit:4;stroke-opacity:1;stroke-dasharray:none"
    d="M 237.66840953511277,232.14173017100808 238.2976224694152,257.2872078835686"
    id="path50"
    inkscape:connector-type="polyline"
    inkscape:connector-curvature="0"
    inkscape:connection-start="#g3"
    inkscape:connection-start-point="d4"
    inkscape:connection-end="#g23"
    inkscape:connection-end-point="d4" />
<path
    style="fill:none;stroke:black;stroke-width:2;stroke-linecap:butt;stroke-linejoin:miter;stroke-miterlimit:4;stroke-opacity:1;stroke-dasharray:none"
    d="M 237.66840953511277,232.14173017100808 207.88969271611214,288.28167728896756"
    id="path51"
    inkscape:connector-type="polyline"
    inkscape:connector-curvature="0"
    inkscape:connection-start="#g3"
    inkscape:connection-start-point="d4"
    inkscape:connection-end="#g22"
    inkscape:connection-end-point="d4" />
<path
    style="fill:none;stroke:black;stroke-width:2;stroke-linecap:butt;stroke-linejoin:miter;stroke-miterlimit:4;stroke-opacity:1;stroke-dasharray:none"
    d="M 203.20374127473642,297.11580764170003 230.9059456814357,273.73407643153377"
    id="path52"
    inkscape:connector-type="polyline"
    inkscape:connector-curvature="0"
    inkscape:connection-start="#g22"
    inkscape:connection-start-point="d4"
    inkscape:connection-end="#g23"
    inkscape:connection-end-point="d4" />
<path
    style="fill:none;stroke:black;stroke-width:2;stroke-linecap:butt;stroke-linejoin:miter;stroke-miterlimit:4;stroke-opacity:1;stroke-dasharray:none"
    d="M 187.94622093989324,333.9410895907019 198.26299740565224,289.4517895883234"
    id="path53"
    inkscape:connector-type="polyline"
    inkscape:connector-curvature="0"
    inkscape:connection-start="#g0"
    inkscape:connection-start-point="d4"
    inkscape:connection-end="#g8"
    inkscape:connection-end-point="d4" />
<path
    style="fill:none;stroke:black;stroke-width:2;stroke-linecap:butt;stroke-linejoin:miter;stroke-miterlimit:4;stroke-opacity:1;stroke-dasharray:none"
    d="M 237.66840953511277,232.14173017100808 206.67673035051314,271.8287118970423"
    id="path54"
    inkscape:connector-type="polyline"
    inkscape:connector-curvature="0"
    inkscape:connection-start="#g3"
    inkscape:connection-start-point="d4"
    inkscape:connection-end="#g8"
    inkscape:connection-end-point="d4" />
<path
    style="fill:none;stroke:black;stroke-width:2;stroke-linecap:butt;stroke-linejoin:miter;stroke-miterlimit:4;stroke-opacity:1;stroke-dasharray:none"
    d="M 187.94622093989324,333.9410895907019 156.60512336444816,376.51873882559204"
    id="path55"
    inkscape:connector-type="polyline"
    inkscape:connector-curvature="0"
    inkscape:connection-start="#g0"
    inkscape:connection-start-point="d4"
    inkscape:connection-end="#g13"
    inkscape:connection-end-point="d4" />
<path
    style="fill:none;stroke:black;stroke-width:2;stroke-linecap:butt;stroke-linejoin:miter;stroke-miterlimit:4;stroke-opacity:1;stroke-dasharray:none"
    d="M 237.66840953511277,232.14173017100808 305.43510485696595,202.2668634305795"
    id="path56"
    inkscape:connector-type="polyline"
    inkscape:connector-curvature="0"
    inkscape:connection-start="#g3"
    inkscape:connection-start-point="d4"
    inkscape:connection-end="#g24"
    inkscape:connection-end-point="d4" />
<path
    style="fill:none;stroke:black;stroke-width:2;stroke-linecap:butt;stroke-linejoin:miter;stroke-miterlimit:4;stroke-opacity:1;stroke-dasharray:none"
    d="M 237.66840953511277,232.14173017100808 314.3176201829498,236.46252598015855"
    id="path57"
    inkscape:connector-type="polyline"
    inkscape:connector-curvature="0"
    inkscape:connection-start="#g3"
    inkscape:connection-start-point="d4"
    inkscape:connection-end="#g11"
    inkscape:connection-end-point="d4" />
<path
    style="fill:none;stroke:black;stroke-width:2;stroke-linecap:butt;stroke-linejoin:miter;stroke-miterlimit:4;stroke-opacity:1;stroke-dasharray:none"
    d="M 324.30176947806933,237.0253428711307 317.01504955528947,207.9333193537226"
    id="path58"
    inkscape:connector-type="polyline"
    inkscape:connector-curvature="0"
    inkscape:connection-start="#g11"
    inkscape:connection-start-point="d4"
    inkscape:connection-end="#g24"
    inkscape:connection-end-point="d4" />
<path
    style="fill:none;stroke:black;stroke-width:2;stroke-linecap:butt;stroke-linejoin:miter;stroke-miterlimit:4;stroke-opacity:1;stroke-dasharray:none"
    d="M 237.66840953511277,232.14173017100808 314.0868967950438,220.26696094538318"
    id="path59"
    inkscape:connector-type="polyline"
    inkscape:connector-curvature="0"
    inkscape:connection-start="#g3"
    inkscape:connection-start-point="d4"
    inkscape:connection-end="#g25"
    inkscape:connection-end-point="d4" />
<path
    style="fill:none;stroke:black;stroke-width:2;stroke-linecap:butt;stroke-linejoin:miter;stroke-miterlimit:4;stroke-opacity:1;stroke-dasharray:none"
    d="M 187.94622093989324,333.9410895907019 254.43939423142035,308.1123087333931"
    id="path60"
    inkscape:connector-type="polyline"
    inkscape:connector-curvature="0"
    inkscape:connection-start="#g0"
    inkscape:connection-start-point="d4"
    inkscape:connection-end="#g9"
    inkscape:connection-end-point="d4" />
<path
    style="fill:none;stroke:black;stroke-width:2;stroke-linecap:butt;stroke-linejoin:miter;stroke-miterlimit:4;stroke-opacity:1;stroke-dasharray:none"
    d="M 237.66840953511277,232.14173017100808 241.44108977072435,169.96696657531598"
    id="path61"
    inkscape:connector-type="polyline"
    inkscape:connector-curvature="0"
    inkscape:connection-start="#g3"
    inkscape:connection-start-point="d4"
    inkscape:connection-end="#g26"
    inkscape:connection-end-point="d4" />
<path
    style="fill:none;stroke:black;stroke-width:2;stroke-linecap:butt;stroke-linejoin:miter;stroke-miterlimit:4;stroke-opacity:1;stroke-dasharray:none"
    d="M 263.7608455335369,304.4914599900361 323.0917745813046,337.3423987117513"
    id="path62"
    inkscape:connector-type="polyline"
    inkscape:connector-curvature="0"
    inkscape:connection-start="#g9"
    inkscape:connection-start-point="d4"
    inkscape:connection-end="#g27"
    inkscape:connection-end-point="d4" />
<path
    style="fill:none;stroke:black;stroke-width:2;stroke-linecap:butt;stroke-linejoin:miter;stroke-miterlimit:4;stroke-opacity:1;stroke-dasharray:none"
    d="M 237.66840953511277,232.14173017100808 197.04307803164323,188.3300049844146"
    id="path63"
    inkscape:connector-type="polyline"
    inkscape:connector-curvature="0"
    inkscape:connection-start="#g3"
    inkscape:connection-start-point="d4"
    inkscape:connection-end="#g28"
    inkscape:connection-end-point="d4" />
<path
    style="fill:none;stroke:black;stroke-width:2;stroke-linecap:butt;stroke-linejoin:miter;stroke-miterlimit:4;stroke-opacity:1;stroke-dasharray:none"
    d="M 187.94622093989324,333.9410895907019 164.00985374072982,271.26742154456576"
    id="path64"
    inkscape:connector-type="polyline"
    inkscape:connector-curvature="0"
    inkscape:connection-start="#g0"
    inkscape:connection-start-point="d4"
    inkscape:connection-end="#g2"
    inkscape:connection-end-point="d4" />
<path
    style="fill:none;stroke:black;stroke-width:2;stroke-linecap:butt;stroke-linejoin:miter;stroke-miterlimit:4;stroke-opacity:1;stroke-dasharray:none"
    d="M 187.94622093989324,333.9410895907019 226.59079521978012,381.1866626662265"
    id="path65"
    inkscape:connector-type="polyline"
    inkscape:connector-curvature="0"
    inkscape:connection-start="#g0"
    inkscape:connection-start-point="d4"
    inkscape:connection-end="#g29"
    inkscape:connection-end-point="d4" />
<path
    style="fill:none;stroke:black;stroke-width:2;stroke-linecap:butt;stroke-linejoin:miter;stroke-miterlimit:4;stroke-opacity:1;stroke-dasharray:none"
    d="M 237.66840953511277,232.14173017100808 206.67673035051314,271.8287118970423"
    id="path66"
    inkscape:connector-type="polyline"
    inkscape:connector-curvature="0"
    inkscape:connection-start="#g3"
    inkscape:connection-start-point="d4"
    inkscape:connection-end="#g8"
    inkscape:connection-end-point="d4" />
<path
    style="fill:none;stroke:black;stroke-width:2;stroke-linecap:butt;stroke-linejoin:miter;stroke-miterlimit:4;stroke-opacity:1;stroke-dasharray:none"
    d="M 237.66840953511277,232.14173017100808 208.71292591336967,234.1778369093245"
    id="path67"
    inkscape:connector-type="polyline"
    inkscape:connector-curvature="0"
    inkscape:connection-start="#g3"
    inkscape:connection-start-point="d4"
    inkscape:connection-end="#g30"
    inkscape:connection-end-point="d4" />
<path
    style="fill:none;stroke:black;stroke-width:2;stroke-linecap:butt;stroke-linejoin:miter;stroke-miterlimit:4;stroke-opacity:1;stroke-dasharray:none"
    d="M 200.521988883511,279.71028264622447 199.13527822788456,244.87137781063427"
    id="path68"
    inkscape:connector-type="polyline"
    inkscape:connector-curvature="0"
    inkscape:connection-start="#g8"
    inkscape:connection-start-point="d4"
    inkscape:connection-end="#g30"
    inkscape:connection-end-point="d4" />
<path
    style="fill:none;stroke:black;stroke-width:2;stroke-linecap:butt;stroke-linejoin:miter;stroke-miterlimit:4;stroke-opacity:1;stroke-dasharray:none"
    d="M 237.66840953511277,232.14173017100808 206.67673035051314,271.8287118970423"
    id="path69"
    inkscape:connector-type="polyline"
    inkscape:connector-curvature="0"
    inkscape:connection-start="#g3"
    inkscape:connection-start-point="d4"
    inkscape:connection-end="#g8"
    inkscape:connection-end-point="d4" />
<path
    style="fill:none;stroke:black;stroke-width:2;stroke-linecap:butt;stroke-linejoin:miter;stroke-miterlimit:4;stroke-opacity:1;stroke-dasharray:none"
    d="M 237.66840953511277,232.14173017100808 208.71292591336967,234.1778369093245"
    id="path70"
    inkscape:connector-type="polyline"
    inkscape:connector-curvature="0"
    inkscape:connection-start="#g3"
    inkscape:connection-start-point="d4"
    inkscape:connection-end="#g30"
    inkscape:connection-end-point="d4" />
<path
    style="fill:none;stroke:black;stroke-width:2;stroke-linecap:butt;stroke-linejoin:miter;stroke-miterlimit:4;stroke-opacity:1;stroke-dasharray:none"
    d="M 187.94622093989324,333.9410895907019 164.00985374072982,271.26742154456576"
    id="path71"
    inkscape:connector-type="polyline"
    inkscape:connector-curvature="0"
    inkscape:connection-start="#g0"
    inkscape:connection-start-point="d4"
    inkscape:connection-end="#g2"
    inkscape:connection-end-point="d4" />
<path
    style="fill:none;stroke:black;stroke-width:2;stroke-linecap:butt;stroke-linejoin:miter;stroke-miterlimit:4;stroke-opacity:1;stroke-dasharray:none"
    d="M 160.44200275978494,261.92555666769186 191.3814542208252,275.65434550664264"
    id="path72"
    inkscape:connector-type="polyline"
    inkscape:connector-curvature="0"
    inkscape:connection-start="#g2"
    inkscape:connection-start-point="d4"
    inkscape:connection-end="#g8"
    inkscape:connection-end-point="d4" />
<path
    style="fill:none;stroke:black;stroke-width:2;stroke-linecap:butt;stroke-linejoin:miter;stroke-miterlimit:4;stroke-opacity:1;stroke-dasharray:none"
    d="M 187.94622093989324,333.9410895907019 198.26299740565224,289.4517895883234"
    id="path73"
    inkscape:connector-type="polyline"
    inkscape:connector-curvature="0"
    inkscape:connection-start="#g0"
    inkscape:connection-start-point="d4"
    inkscape:connection-end="#g8"
    inkscape:connection-end-point="d4" />
<path
    style="fill:none;stroke:black;stroke-width:2;stroke-linecap:butt;stroke-linejoin:miter;stroke-miterlimit:4;stroke-opacity:1;stroke-dasharray:none"
    d="M 150.67704514858045,384.5721783806241 130.83733170302014,372.142455023764"
    id="path74"
    inkscape:connector-type="polyline"
    inkscape:connector-curvature="0"
    inkscape:connection-start="#g13"
    inkscape:connection-start-point="d4"
    inkscape:connection-end="#g31"
    inkscape:connection-end-point="d4" />
<path
    style="fill:none;stroke:black;stroke-width:2;stroke-linecap:butt;stroke-linejoin:miter;stroke-miterlimit:4;stroke-opacity:1;stroke-dasharray:none"
    d="M 187.94622093989324,333.9410895907019 156.60512336444816,376.51873882559204"
    id="path75"
    inkscape:connector-type="polyline"
    inkscape:connector-curvature="0"
    inkscape:connection-start="#g0"
    inkscape:connection-start-point="d4"
    inkscape:connection-end="#g13"
    inkscape:connection-end-point="d4" />
<path
    style="fill:none;stroke:black;stroke-width:2;stroke-linecap:butt;stroke-linejoin:miter;stroke-miterlimit:4;stroke-opacity:1;stroke-dasharray:none"
    d="M 150.67704514858045,384.5721783806241 175.63375069345503,388.4605330904904"
    id="path76"
    inkscape:connector-type="polyline"
    inkscape:connector-curvature="0"
    inkscape:connection-start="#g13"
    inkscape:connection-start-point="d4"
    inkscape:connection-end="#g32"
    inkscape:connection-end-point="d4" />
<path
    style="fill:none;stroke:black;stroke-width:2;stroke-linecap:butt;stroke-linejoin:miter;stroke-miterlimit:4;stroke-opacity:1;stroke-dasharray:none"
    d="M 187.94622093989324,333.9410895907019 131.30187293371745,362.35017894205896"
    id="path77"
    inkscape:connector-type="polyline"
    inkscape:connector-curvature="0"
    inkscape:connection-start="#g0"
    inkscape:connection-start-point="d4"
    inkscape:connection-end="#g31"
    inkscape:connection-end-point="d4" />
<path
    style="fill:none;stroke:black;stroke-width:2;stroke-linecap:butt;stroke-linejoin:miter;stroke-miterlimit:4;stroke-opacity:1;stroke-dasharray:none"
    d="M 122.363094035517,366.8332840946386 176.1263166260688,386.55598783740805"
    id="path78"
    inkscape:connector-type="polyline"
    inkscape:connector-curvature="0"
    inkscape:connection-start="#g31"
    inkscape:connection-start-point="d4"
    inkscape:connection-end="#g32"
    inkscape:connection-end-point="d4" />
<path
    style="fill:none;stroke:black;stroke-width:2;stroke-linecap:butt;stroke-linejoin:miter;stroke-miterlimit:4;stroke-opacity:1;stroke-dasharray:none"
    d="M 187.94622093989324,333.9410895907019 185.94790675166757,380.00939465286797"
    id="path79"
    inkscape:connector-type="polyline"
    inkscape:connector-curvature="0"
    inkscape:connection-start="#g0"
    inkscape:connection-start-point="d4"
    inkscape:connection-end="#g32"
    inkscape:connection-end-point="d4" />
<path
    style="fill:none;stroke:black;stroke-width:2;stroke-linecap:butt;stroke-linejoin:miter;stroke-miterlimit:4;stroke-opacity:1;stroke-dasharray:none"
    d="M 233.97356056862344,302.10467809781636 237.14102936328743,242.12781399572964"
    id="path80"
    inkscape:connector-type="polyline"
    inkscape:connector-curvature="0"
    inkscape:connection-start="#g1"
    inkscape:connection-start-point="d4"
    inkscape:connection-end="#g3"
    inkscape:connection-end-point="d4" />
<path
    style="fill:none;stroke:black;stroke-width:2;stroke-linecap:butt;stroke-linejoin:miter;stroke-miterlimit:4;stroke-opacity:1;stroke-dasharray:none"
    d="M 142.4528874744312,211.25396143124146 97.26657522135353,167.51752624474372"
    id="path81"
    inkscape:connector-type="polyline"
    inkscape:connector-curvature="0"
    inkscape:connection-start="#g4"
    inkscape:connection-start-point="d4"
    inkscape:connection-end="#g33"
    inkscape:connection-end-point="d4" />
<path
    style="fill:none;stroke:black;stroke-width:2;stroke-linecap:butt;stroke-linejoin:miter;stroke-miterlimit:4;stroke-opacity:1;stroke-dasharray:none"
    d="M 142.4528874744312,211.25396143124146 93.02233142934905,195.51866360737006"
    id="path82"
    inkscape:connector-type="polyline"
    inkscape:connector-curvature="0"
    inkscape:connection-start="#g4"
    inkscape:connection-start-point="d4"
    inkscape:connection-end="#g34"
    inkscape:connection-end-point="d4" />
<path
    style="fill:none;stroke:black;stroke-width:2;stroke-linecap:butt;stroke-linejoin:miter;stroke-miterlimit:4;stroke-opacity:1;stroke-dasharray:none"
    d="M 142.4528874744312,211.25396143124146 79.31733451766537,218.33382817038122"
    id="path83"
    inkscape:connector-type="polyline"
    inkscape:connector-curvature="0"
    inkscape:connection-start="#g4"
    inkscape:connection-start-point="d4"
    inkscape:connection-end="#g35"
    inkscape:connection-end-point="d4" />
<path
    style="fill:none;stroke:black;stroke-width:2;stroke-linecap:butt;stroke-linejoin:miter;stroke-miterlimit:4;stroke-opacity:1;stroke-dasharray:none"
    d="M 90.0811693677386,160.56267594305956 85.5145388029998,182.6916948883676"
    id="path84"
    inkscape:connector-type="polyline"
    inkscape:connector-curvature="0"
    inkscape:connection-start="#g33"
    inkscape:connection-start-point="d4"
    inkscape:connection-end="#g34"
    inkscape:connection-end-point="d4" />
<path
    style="fill:none;stroke:black;stroke-width:2;stroke-linecap:butt;stroke-linejoin:miter;stroke-miterlimit:4;stroke-opacity:1;stroke-dasharray:none"
    d="M 90.0811693677386,160.56267594305956 72.69619762164862,210.0142206374314"
    id="path85"
    inkscape:connector-type="polyline"
    inkscape:connector-curvature="0"
    inkscape:connection-start="#g33"
    inkscape:connection-start-point="d4"
    inkscape:connection-end="#g35"
    inkscape:connection-end-point="d4" />
<path
    style="fill:none;stroke:black;stroke-width:2;stroke-linecap:butt;stroke-linejoin:miter;stroke-miterlimit:4;stroke-opacity:1;stroke-dasharray:none"
    d="M 83.49348552617029,192.48533280551652 74.0172284966267,210.58861378607185"
    id="path86"
    inkscape:connector-type="polyline"
    inkscape:connector-curvature="0"
    inkscape:connection-start="#g34"
    inkscape:connection-start-point="d4"
    inkscape:connection-end="#g35"
    inkscape:connection-end-point="d4" />
<path
    style="fill:none;stroke:black;stroke-width:2;stroke-linecap:butt;stroke-linejoin:miter;stroke-miterlimit:4;stroke-opacity:1;stroke-dasharray:none"
    d="M 237.66840953511277,232.14173017100808 260.36829527725274,295.084515599928"
    id="path87"
    inkscape:connector-type="polyline"
    inkscape:connector-curvature="0"
    inkscape:connection-start="#g3"
    inkscape:connection-start-point="d4"
    inkscape:connection-end="#g9"
    inkscape:connection-end-point="d4" />
<path
    style="fill:none;stroke:black;stroke-width:2;stroke-linecap:butt;stroke-linejoin:miter;stroke-miterlimit:4;stroke-opacity:1;stroke-dasharray:none"
    d="M 237.66840953511277,232.14173017100808 264.70398489415135,265.9230214471354"
    id="path88"
    inkscape:connector-type="polyline"
    inkscape:connector-curvature="0"
    inkscape:connection-start="#g3"
    inkscape:connection-start-point="d4"
    inkscape:connection-end="#g16"
    inkscape:connection-end-point="d4" />
<path
    style="fill:none;stroke:black;stroke-width:2;stroke-linecap:butt;stroke-linejoin:miter;stroke-miterlimit:4;stroke-opacity:1;stroke-dasharray:none"
    d="M 263.7608455335369,304.4914599900361 268.67591521583785,283.46794974994265"
    id="path89"
    inkscape:connector-type="polyline"
    inkscape:connector-curvature="0"
    inkscape:connection-start="#g9"
    inkscape:connection-start-point="d4"
    inkscape:connection-end="#g16"
    inkscape:connection-end-point="d4" />
<path
    style="fill:none;stroke:black;stroke-width:2;stroke-linecap:butt;stroke-linejoin:miter;stroke-miterlimit:4;stroke-opacity:1;stroke-dasharray:none"
    d="M 237.66840953511277,232.14173017100808 264.70398489415135,265.9230214471354"
    id="path90"
    inkscape:connector-type="polyline"
    inkscape:connector-curvature="0"
    inkscape:connection-start="#g3"
    inkscape:connection-start-point="d4"
    inkscape:connection-end="#g16"
    inkscape:connection-end-point="d4" />
<path
    style="fill:none;stroke:black;stroke-width:2;stroke-linecap:butt;stroke-linejoin:miter;stroke-miterlimit:4;stroke-opacity:1;stroke-dasharray:none"
    d="M 237.66840953511277,232.14173017100808 178.99141829539855,277.31808122947496"
    id="path91"
    inkscape:connector-type="polyline"
    inkscape:connector-curvature="0"
    inkscape:connection-start="#g3"
    inkscape:connection-start-point="d4"
    inkscape:connection-end="#g20"
    inkscape:connection-end-point="d4" />
<path
    style="fill:none;stroke:black;stroke-width:2;stroke-linecap:butt;stroke-linejoin:miter;stroke-miterlimit:4;stroke-opacity:1;stroke-dasharray:none"
    d="M 237.66840953511277,232.14173017100808 177.52938122209324,239.79508917764505"
    id="path92"
    inkscape:connector-type="polyline"
    inkscape:connector-curvature="0"
    inkscape:connection-start="#g3"
    inkscape:connection-start-point="d4"
    inkscape:connection-end="#g36"
    inkscape:connection-end-point="d4" />
<path
    style="fill:none;stroke:black;stroke-width:2;stroke-linecap:butt;stroke-linejoin:miter;stroke-miterlimit:4;stroke-opacity:1;stroke-dasharray:none"
    d="M 171.0678028453865,283.41859909276576 168.423093717589,251.02435762896997"
    id="path93"
    inkscape:connector-type="polyline"
    inkscape:connector-curvature="0"
    inkscape:connection-start="#g20"
    inkscape:connection-start-point="d4"
    inkscape:connection-end="#g36"
    inkscape:connection-end-point="d4" />
<path
    style="fill:none;stroke:black;stroke-width:2;stroke-linecap:butt;stroke-linejoin:miter;stroke-miterlimit:4;stroke-opacity:1;stroke-dasharray:none"
    d="M 90.0811693677386,160.56267594305956 86.02807251006784,106.99266781521759"
    id="path94"
    inkscape:connector-type="polyline"
    inkscape:connector-curvature="0"
    inkscape:connection-start="#g33"
    inkscape:connection-start-point="d4"
    inkscape:connection-end="#g37"
    inkscape:connection-end-point="d4" />
<path
    style="fill:none;stroke:black;stroke-width:2;stroke-linecap:butt;stroke-linejoin:miter;stroke-miterlimit:4;stroke-opacity:1;stroke-dasharray:none"
    d="M 90.0811693677386,160.56267594305956 42.801213527660195,132.0420512281715"
    id="path95"
    inkscape:connector-type="polyline"
    inkscape:connector-curvature="0"
    inkscape:connection-start="#g33"
    inkscape:connection-start-point="d4"
    inkscape:connection-end="#g38"
    inkscape:connection-end-point="d4" />
<path
    style="fill:none;stroke:black;stroke-width:2;stroke-linecap:butt;stroke-linejoin:miter;stroke-miterlimit:4;stroke-opacity:1;stroke-dasharray:none"
    d="M 90.0811693677386,160.56267594305956 19.98740831701448,164.08351919778892"
    id="path96"
    inkscape:connector-type="polyline"
    inkscape:connector-curvature="0"
    inkscape:connection-start="#g33"
    inkscape:connection-start-point="d4"
    inkscape:connection-end="#g39"
    inkscape:connection-end-point="d4" />
<path
    style="fill:none;stroke:black;stroke-width:2;stroke-linecap:butt;stroke-linejoin:miter;stroke-miterlimit:4;stroke-opacity:1;stroke-dasharray:none"
    d="M 34.23850518772836,126.87678009441078 15.40716290649787,156.1731412666859"
    id="path97"
    inkscape:connector-type="polyline"
    inkscape:connector-curvature="0"
    inkscape:connection-start="#g38"
    inkscape:connection-start-point="d4"
    inkscape:connection-end="#g39"
    inkscape:connection-end-point="d4" />
<path
    style="fill:none;stroke:black;stroke-width:2;stroke-linecap:butt;stroke-linejoin:miter;stroke-miterlimit:4;stroke-opacity:1;stroke-dasharray:none"
    d="M 225.72510680522583,184.05031081914746 261.5087226549479,170.80648524454193"
    id="path98"
    inkscape:connector-type="polyline"
    inkscape:connector-curvature="0"
    inkscape:connection-start="#g40"
    inkscape:connection-start-point="d4"
    inkscape:connection-end="#g41"
    inkscape:connection-end-point="d4" />
<path
    style="fill:none;stroke:black;stroke-width:2;stroke-linecap:butt;stroke-linejoin:miter;stroke-miterlimit:4;stroke-opacity:1;stroke-dasharray:none"
    d="M 237.66840953511277,232.14173017100808 228.13535029596812,193.7555015084299"
    id="path99"
    inkscape:connector-type="polyline"
    inkscape:connector-curvature="0"
    inkscape:connection-start="#g3"
    inkscape:connection-start-point="d4"
    inkscape:connection-end="#g40"
    inkscape:connection-end-point="d4" />
<path
    style="fill:none;stroke:black;stroke-width:2;stroke-linecap:butt;stroke-linejoin:miter;stroke-miterlimit:4;stroke-opacity:1;stroke-dasharray:none"
    d="M 237.66840953511277,232.14173017100808 266.32551350773383,176.23453134912583"
    id="path100"
    inkscape:connector-type="polyline"
    inkscape:connector-curvature="0"
    inkscape:connection-start="#g3"
    inkscape:connection-start-point="d4"
    inkscape:connection-end="#g41"
    inkscape:connection-end-point="d4" />
  </g>

  <g inkscape:label="Nodes"                     inkscape:groupmode="layer" id="layer1">
  <!-- Vertices -->
    <g id="g0" transform="translate(187.94622093989324,333.9410895907019)">
     <circle cx="0" cy="0" r="10" fill="red"/>
      <text sodipodi:linespacing="125%" y="5.0" x="0" id="text0" style="font-size:16pxpx;font-style:normal;font-weight:normal;text-align:center;line-height:125%;letter-spacing:0px;word-spacing:0px;text-anchor:middle;fill:#000000;fill-opacity:1;stroke:none;font-family:Sans">
<tspan y="5.0" x="0" id="tspan0" sodipodi:role="line">1</tspan></text>
    </g>
    <g id="g1" transform="translate(233.97356056862344,302.10467809781636)">
     <circle cx="0" cy="0" r="10" fill="red"/>
      <text sodipodi:linespacing="125%" y="5.0" x="0" id="text1" style="font-size:16pxpx;font-style:normal;font-weight:normal;text-align:center;line-height:125%;letter-spacing:0px;word-spacing:0px;text-anchor:middle;fill:#000000;fill-opacity:1;stroke:none;font-family:Sans">
<tspan y="5.0" x="0" id="tspan1" sodipodi:role="line">2</tspan></text>
    </g>
    <g id="g2" transform="translate(160.44200275978494,261.92555666769186)">
     <circle cx="0" cy="0" r="10" fill="red"/>
      <text sodipodi:linespacing="125%" y="5.0" x="0" id="text2" style="font-size:16pxpx;font-style:normal;font-weight:normal;text-align:center;line-height:125%;letter-spacing:0px;word-spacing:0px;text-anchor:middle;fill:#000000;fill-opacity:1;stroke:none;font-family:Sans">
<tspan y="5.0" x="0" id="tspan2" sodipodi:role="line">3</tspan></text>
    </g>
    <g id="g3" transform="translate(237.66840953511277,232.14173017100808)">
     <circle cx="0" cy="0" r="10" fill="red"/>
      <text sodipodi:linespacing="125%" y="5.0" x="0" id="text3" style="font-size:16pxpx;font-style:normal;font-weight:normal;text-align:center;line-height:125%;letter-spacing:0px;word-spacing:0px;text-anchor:middle;fill:#000000;fill-opacity:1;stroke:none;font-family:Sans">
<tspan y="5.0" x="0" id="tspan3" sodipodi:role="line">4</tspan></text>
    </g>
    <g id="g4" transform="translate(142.4528874744312,211.25396143124146)">
     <circle cx="0" cy="0" r="10" fill="red"/>
      <text sodipodi:linespacing="125%" y="5.0" x="0" id="text4" style="font-size:16pxpx;font-style:normal;font-weight:normal;text-align:center;line-height:125%;letter-spacing:0px;word-spacing:0px;text-anchor:middle;fill:#000000;fill-opacity:1;stroke:none;font-family:Sans">
<tspan y="5.0" x="0" id="tspan4" sodipodi:role="line">5</tspan></text>
    </g>
    <g id="g5" transform="translate(176.30018113253132,213.8871054093795)">
     <circle cx="0" cy="0" r="10" fill="red"/>
      <text sodipodi:linespacing="125%" y="5.0" x="0" id="text5" style="font-size:16pxpx;font-style:normal;font-weight:normal;text-align:center;line-height:125%;letter-spacing:0px;word-spacing:0px;text-anchor:middle;fill:#000000;fill-opacity:1;stroke:none;font-family:Sans">
<tspan y="5.0" x="0" id="tspan5" sodipodi:role="line">6</tspan></text>
    </g>
    <g id="g6" transform="translate(212.60428457955388,165.8005025093619)">
     <circle cx="0" cy="0" r="10" fill="red"/>
      <text sodipodi:linespacing="125%" y="5.0" x="0" id="text6" style="font-size:16pxpx;font-style:normal;font-weight:normal;text-align:center;line-height:125%;letter-spacing:0px;word-spacing:0px;text-anchor:middle;fill:#000000;fill-opacity:1;stroke:none;font-family:Sans">
<tspan y="5.0" x="0" id="tspan6" sodipodi:role="line">7</tspan></text>
    </g>
    <g id="g7" transform="translate(257.27457712626415,186.56614160658464)">
     <circle cx="0" cy="0" r="10" fill="red"/>
      <text sodipodi:linespacing="125%" y="5.0" x="0" id="text7" style="font-size:16pxpx;font-style:normal;font-weight:normal;text-align:center;line-height:125%;letter-spacing:0px;word-spacing:0px;text-anchor:middle;fill:#000000;fill-opacity:1;stroke:none;font-family:Sans">
<tspan y="5.0" x="0" id="tspan7" sodipodi:role="line">8</tspan></text>
    </g>
    <g id="g8" transform="translate(200.521988883511,279.71028264622447)">
     <circle cx="0" cy="0" r="10" fill="red"/>
      <text sodipodi:linespacing="125%" y="5.0" x="0" id="text8" style="font-size:16pxpx;font-style:normal;font-weight:normal;text-align:center;line-height:125%;letter-spacing:0px;word-spacing:0px;text-anchor:middle;fill:#000000;fill-opacity:1;stroke:none;font-family:Sans">
<tspan y="5.0" x="0" id="tspan8" sodipodi:role="line">9</tspan></text>
    </g>
    <g id="g9" transform="translate(263.7608455335369,304.4914599900361)">
     <circle cx="0" cy="0" r="10" fill="red"/>
      <text sodipodi:linespacing="125%" y="5.0" x="0" id="text9" style="font-size:16pxpx;font-style:normal;font-weight:normal;text-align:center;line-height:125%;letter-spacing:0px;word-spacing:0px;text-anchor:middle;fill:#000000;fill-opacity:1;stroke:none;font-family:Sans">
<tspan y="5.0" x="0" id="tspan9" sodipodi:role="line">10</tspan></text>
    </g>
    <g id="g10" transform="translate(291.14893125346515,211.1887920090698)">
     <circle cx="0" cy="0" r="10" fill="red"/>
      <text sodipodi:linespacing="125%" y="5.0" x="0" id="text10" style="font-size:16pxpx;font-style:normal;font-weight:normal;text-align:center;line-height:125%;letter-spacing:0px;word-spacing:0px;text-anchor:middle;fill:#000000;fill-opacity:1;stroke:none;font-family:Sans">
<tspan y="5.0" x="0" id="tspan10" sodipodi:role="line">11</tspan></text>
    </g>
    <g id="g11" transform="translate(324.30176947806933,237.0253428711307)">
     <circle cx="0" cy="0" r="10" fill="red"/>
      <text sodipodi:linespacing="125%" y="5.0" x="0" id="text11" style="font-size:16pxpx;font-style:normal;font-weight:normal;text-align:center;line-height:125%;letter-spacing:0px;word-spacing:0px;text-anchor:middle;fill:#000000;fill-opacity:1;stroke:none;font-family:Sans">
<tspan y="5.0" x="0" id="tspan11" sodipodi:role="line">12</tspan></text>
    </g>
    <g id="g12" transform="translate(295.3852916243238,180.5441402518451)">
     <circle cx="0" cy="0" r="10" fill="red"/>
      <text sodipodi:linespacing="125%" y="5.0" x="0" id="text12" style="font-size:16pxpx;font-style:normal;font-weight:normal;text-align:center;line-height:125%;letter-spacing:0px;word-spacing:0px;text-anchor:middle;fill:#000000;fill-opacity:1;stroke:none;font-family:Sans">
<tspan y="5.0" x="0" id="tspan12" sodipodi:role="line">13</tspan></text>
    </g>
    <g id="g13" transform="translate(150.67704514858045,384.5721783806241)">
     <circle cx="0" cy="0" r="10" fill="red"/>
      <text sodipodi:linespacing="125%" y="5.0" x="0" id="text13" style="font-size:16pxpx;font-style:normal;font-weight:normal;text-align:center;line-height:125%;letter-spacing:0px;word-spacing:0px;text-anchor:middle;fill:#000000;fill-opacity:1;stroke:none;font-family:Sans">
<tspan y="5.0" x="0" id="tspan13" sodipodi:role="line">14</tspan></text>
    </g>
    <g id="g14" transform="translate(333.5431375452454,10.0)">
     <circle cx="0" cy="0" r="10" fill="red"/>
      <text sodipodi:linespacing="125%" y="5.0" x="0" id="text14" style="font-size:16pxpx;font-style:normal;font-weight:normal;text-align:center;line-height:125%;letter-spacing:0px;word-spacing:0px;text-anchor:middle;fill:#000000;fill-opacity:1;stroke:none;font-family:Sans">
<tspan y="5.0" x="0" id="tspan14" sodipodi:role="line">15</tspan></text>
    </g>
    <g id="g15" transform="translate(390.0,35.894694856803326)">
     <circle cx="0" cy="0" r="10" fill="red"/>
      <text sodipodi:linespacing="125%" y="5.0" x="0" id="text15" style="font-size:16pxpx;font-style:normal;font-weight:normal;text-align:center;line-height:125%;letter-spacing:0px;word-spacing:0px;text-anchor:middle;fill:#000000;fill-opacity:1;stroke:none;font-family:Sans">
<tspan y="5.0" x="0" id="tspan15" sodipodi:role="line">16</tspan></text>
    </g>
    <g id="g16" transform="translate(270.9524209487032,273.7305208465703)">
     <circle cx="0" cy="0" r="10" fill="red"/>
      <text sodipodi:linespacing="125%" y="5.0" x="0" id="text16" style="font-size:16pxpx;font-style:normal;font-weight:normal;text-align:center;line-height:125%;letter-spacing:0px;word-spacing:0px;text-anchor:middle;fill:#000000;fill-opacity:1;stroke:none;font-family:Sans">
<tspan y="5.0" x="0" id="tspan16" sodipodi:role="line">17</tspan></text>
    </g>
    <g id="g17" transform="translate(298.39784123850137,287.710941889256)">
     <circle cx="0" cy="0" r="10" fill="red"/>
      <text sodipodi:linespacing="125%" y="5.0" x="0" id="text17" style="font-size:16pxpx;font-style:normal;font-weight:normal;text-align:center;line-height:125%;letter-spacing:0px;word-spacing:0px;text-anchor:middle;fill:#000000;fill-opacity:1;stroke:none;font-family:Sans">
<tspan y="5.0" x="0" id="tspan17" sodipodi:role="line">18</tspan></text>
    </g>
    <g id="g18" transform="translate(287.9579599631435,253.16598098715133)">
     <circle cx="0" cy="0" r="10" fill="red"/>
      <text sodipodi:linespacing="125%" y="5.0" x="0" id="text18" style="font-size:16pxpx;font-style:normal;font-weight:normal;text-align:center;line-height:125%;letter-spacing:0px;word-spacing:0px;text-anchor:middle;fill:#000000;fill-opacity:1;stroke:none;font-family:Sans">
<tspan y="5.0" x="0" id="tspan18" sodipodi:role="line">19</tspan></text>
    </g>
    <g id="g19" transform="translate(313.3705067180261,268.1830485535474)">
     <circle cx="0" cy="0" r="10" fill="red"/>
      <text sodipodi:linespacing="125%" y="5.0" x="0" id="text19" style="font-size:16pxpx;font-style:normal;font-weight:normal;text-align:center;line-height:125%;letter-spacing:0px;word-spacing:0px;text-anchor:middle;fill:#000000;fill-opacity:1;stroke:none;font-family:Sans">
<tspan y="5.0" x="0" id="tspan19" sodipodi:role="line">20</tspan></text>
    </g>
    <g id="g20" transform="translate(171.0678028453865,283.41859909276576)">
     <circle cx="0" cy="0" r="10" fill="red"/>
      <text sodipodi:linespacing="125%" y="5.0" x="0" id="text20" style="font-size:16pxpx;font-style:normal;font-weight:normal;text-align:center;line-height:125%;letter-spacing:0px;word-spacing:0px;text-anchor:middle;fill:#000000;fill-opacity:1;stroke:none;font-family:Sans">
<tspan y="5.0" x="0" id="tspan20" sodipodi:role="line">21</tspan></text>
    </g>
    <g id="g21" transform="translate(130.76773764942357,322.72693417310666)">
     <circle cx="0" cy="0" r="10" fill="red"/>
      <text sodipodi:linespacing="125%" y="5.0" x="0" id="text21" style="font-size:16pxpx;font-style:normal;font-weight:normal;text-align:center;line-height:125%;letter-spacing:0px;word-spacing:0px;text-anchor:middle;fill:#000000;fill-opacity:1;stroke:none;font-family:Sans">
<tspan y="5.0" x="0" id="tspan21" sodipodi:role="line">22</tspan></text>
    </g>
    <g id="g22" transform="translate(203.20374127473642,297.11580764170003)">
     <circle cx="0" cy="0" r="10" fill="red"/>
      <text sodipodi:linespacing="125%" y="5.0" x="0" id="text22" style="font-size:16pxpx;font-style:normal;font-weight:normal;text-align:center;line-height:125%;letter-spacing:0px;word-spacing:0px;text-anchor:middle;fill:#000000;fill-opacity:1;stroke:none;font-family:Sans">
<tspan y="5.0" x="0" id="tspan22" sodipodi:role="line">23</tspan></text>
    </g>
    <g id="g23" transform="translate(238.5477732298903,267.284078623807)">
     <circle cx="0" cy="0" r="10" fill="red"/>
      <text sodipodi:linespacing="125%" y="5.0" x="0" id="text23" style="font-size:16pxpx;font-style:normal;font-weight:normal;text-align:center;line-height:125%;letter-spacing:0px;word-spacing:0px;text-anchor:middle;fill:#000000;fill-opacity:1;stroke:none;font-family:Sans">
<tspan y="5.0" x="0" id="tspan23" sodipodi:role="line">24</tspan></text>
    </g>
    <g id="g24" transform="translate(314.5853897644939,198.2329712516702)">
     <circle cx="0" cy="0" r="10" fill="red"/>
      <text sodipodi:linespacing="125%" y="5.0" x="0" id="text24" style="font-size:16pxpx;font-style:normal;font-weight:normal;text-align:center;line-height:125%;letter-spacing:0px;word-spacing:0px;text-anchor:middle;fill:#000000;fill-opacity:1;stroke:none;font-family:Sans">
<tspan y="5.0" x="0" id="tspan24" sodipodi:role="line">25</tspan></text>
    </g>
    <g id="g25" transform="translate(323.9683078485976,218.73147548771675)">
     <circle cx="0" cy="0" r="10" fill="red"/>
      <text sodipodi:linespacing="125%" y="5.0" x="0" id="text25" style="font-size:16pxpx;font-style:normal;font-weight:normal;text-align:center;line-height:125%;letter-spacing:0px;word-spacing:0px;text-anchor:middle;fill:#000000;fill-opacity:1;stroke:none;font-family:Sans">
<tspan y="5.0" x="0" id="tspan25" sodipodi:role="line">26</tspan></text>
    </g>
    <g id="g26" transform="translate(242.04676220547483,159.9853253825169)">
     <circle cx="0" cy="0" r="10" fill="red"/>
      <text sodipodi:linespacing="125%" y="5.0" x="0" id="text26" style="font-size:16pxpx;font-style:normal;font-weight:normal;text-align:center;line-height:125%;letter-spacing:0px;word-spacing:0px;text-anchor:middle;fill:#000000;fill-opacity:1;stroke:none;font-family:Sans">
<tspan y="5.0" x="0" id="tspan26" sodipodi:role="line">27</tspan></text>
    </g>
    <g id="g27" transform="translate(331.84026729834073,342.1863511454531)">
     <circle cx="0" cy="0" r="10" fill="red"/>
      <text sodipodi:linespacing="125%" y="5.0" x="0" id="text27" style="font-size:16pxpx;font-style:normal;font-weight:normal;text-align:center;line-height:125%;letter-spacing:0px;word-spacing:0px;text-anchor:middle;fill:#000000;fill-opacity:1;stroke:none;font-family:Sans">
<tspan y="5.0" x="0" id="tspan27" sodipodi:role="line">28</tspan></text>
    </g>
    <g id="g28" transform="translate(190.24369017043816,180.99731620655845)">
     <circle cx="0" cy="0" r="10" fill="red"/>
      <text sodipodi:linespacing="125%" y="5.0" x="0" id="text28" style="font-size:16pxpx;font-style:normal;font-weight:normal;text-align:center;line-height:125%;letter-spacing:0px;word-spacing:0px;text-anchor:middle;fill:#000000;fill-opacity:1;stroke:none;font-family:Sans">
<tspan y="5.0" x="0" id="tspan28" sodipodi:role="line">29</tspan></text>
    </g>
    <g id="g29" transform="translate(232.92210388334016,388.92711036689144)">
     <circle cx="0" cy="0" r="10" fill="red"/>
      <text sodipodi:linespacing="125%" y="5.0" x="0" id="text29" style="font-size:16pxpx;font-style:normal;font-weight:normal;text-align:center;line-height:125%;letter-spacing:0px;word-spacing:0px;text-anchor:middle;fill:#000000;fill-opacity:1;stroke:none;font-family:Sans">
<tspan y="5.0" x="0" id="tspan29" sodipodi:role="line">30</tspan></text>
    </g>
    <g id="g30" transform="translate(198.73755807293597,234.87929000685935)">
     <circle cx="0" cy="0" r="10" fill="red"/>
      <text sodipodi:linespacing="125%" y="5.0" x="0" id="text30" style="font-size:16pxpx;font-style:normal;font-weight:normal;text-align:center;line-height:125%;letter-spacing:0px;word-spacing:0px;text-anchor:middle;fill:#000000;fill-opacity:1;stroke:none;font-family:Sans">
<tspan y="5.0" x="0" id="tspan30" sodipodi:role="line">31</tspan></text>
    </g>
    <g id="g31" transform="translate(122.363094035517,366.8332840946386)">
     <circle cx="0" cy="0" r="10" fill="red"/>
      <text sodipodi:linespacing="125%" y="5.0" x="0" id="text31" style="font-size:16pxpx;font-style:normal;font-weight:normal;text-align:center;line-height:125%;letter-spacing:0px;word-spacing:0px;text-anchor:middle;fill:#000000;fill-opacity:1;stroke:none;font-family:Sans">
<tspan y="5.0" x="0" id="tspan31" sodipodi:role="line">32</tspan></text>
    </g>
    <g id="g32" transform="translate(185.51454224244162,390.0)">
     <circle cx="0" cy="0" r="10" fill="red"/>
      <text sodipodi:linespacing="125%" y="5.0" x="0" id="text32" style="font-size:16pxpx;font-style:normal;font-weight:normal;text-align:center;line-height:125%;letter-spacing:0px;word-spacing:0px;text-anchor:middle;fill:#000000;fill-opacity:1;stroke:none;font-family:Sans">
<tspan y="5.0" x="0" id="tspan32" sodipodi:role="line">33</tspan></text>
    </g>
    <g id="g33" transform="translate(90.0811693677386,160.56267594305956)">
     <circle cx="0" cy="0" r="10" fill="red"/>
      <text sodipodi:linespacing="125%" y="5.0" x="0" id="text33" style="font-size:16pxpx;font-style:normal;font-weight:normal;text-align:center;line-height:125%;letter-spacing:0px;word-spacing:0px;text-anchor:middle;fill:#000000;fill-opacity:1;stroke:none;font-family:Sans">
<tspan y="5.0" x="0" id="tspan33" sodipodi:role="line">34</tspan></text>
    </g>
    <g id="g34" transform="translate(83.49348552617029,192.48533280551652)">
     <circle cx="0" cy="0" r="10" fill="red"/>
      <text sodipodi:linespacing="125%" y="5.0" x="0" id="text34" style="font-size:16pxpx;font-style:normal;font-weight:normal;text-align:center;line-height:125%;letter-spacing:0px;word-spacing:0px;text-anchor:middle;fill:#000000;fill-opacity:1;stroke:none;font-family:Sans">
<tspan y="5.0" x="0" id="tspan34" sodipodi:role="line">35</tspan></text>
    </g>
    <g id="g35" transform="translate(69.37962184956238,219.44821900228237)">
     <circle cx="0" cy="0" r="10" fill="red"/>
      <text sodipodi:linespacing="125%" y="5.0" x="0" id="text35" style="font-size:16pxpx;font-style:normal;font-weight:normal;text-align:center;line-height:125%;letter-spacing:0px;word-spacing:0px;text-anchor:middle;fill:#000000;fill-opacity:1;stroke:none;font-family:Sans">
<tspan y="5.0" x="0" id="tspan35" sodipodi:role="line">36</tspan></text>
    </g>
    <g id="g36" transform="translate(167.60938766184063,241.0575184883578)">
     <circle cx="0" cy="0" r="10" fill="red"/>
      <text sodipodi:linespacing="125%" y="5.0" x="0" id="text36" style="font-size:16pxpx;font-style:normal;font-weight:normal;text-align:center;line-height:125%;letter-spacing:0px;word-spacing:0px;text-anchor:middle;fill:#000000;fill-opacity:1;stroke:none;font-family:Sans">
<tspan y="5.0" x="0" id="tspan36" sodipodi:role="line">37</tspan></text>
    </g>
    <g id="g37" transform="translate(85.27363065365067,97.02116755270514)">
     <circle cx="0" cy="0" r="10" fill="red"/>
      <text sodipodi:linespacing="125%" y="5.0" x="0" id="text37" style="font-size:16pxpx;font-style:normal;font-weight:normal;text-align:center;line-height:125%;letter-spacing:0px;word-spacing:0px;text-anchor:middle;fill:#000000;fill-opacity:1;stroke:none;font-family:Sans">
<tspan y="5.0" x="0" id="tspan37" sodipodi:role="line">38</tspan></text>
    </g>
    <g id="g38" transform="translate(34.23850518772836,126.87678009441078)">
     <circle cx="0" cy="0" r="10" fill="red"/>
      <text sodipodi:linespacing="125%" y="5.0" x="0" id="text38" style="font-size:16pxpx;font-style:normal;font-weight:normal;text-align:center;line-height:125%;letter-spacing:0px;word-spacing:0px;text-anchor:middle;fill:#000000;fill-opacity:1;stroke:none;font-family:Sans">
<tspan y="5.0" x="0" id="tspan38" sodipodi:role="line">39</tspan></text>
    </g>
    <g id="g39" transform="translate(10.0,164.58519151038948)">
     <circle cx="0" cy="0" r="10" fill="red"/>
      <text sodipodi:linespacing="125%" y="5.0" x="0" id="text39" style="font-size:16pxpx;font-style:normal;font-weight:normal;text-align:center;line-height:125%;letter-spacing:0px;word-spacing:0px;text-anchor:middle;fill:#000000;fill-opacity:1;stroke:none;font-family:Sans">
<tspan y="5.0" x="0" id="tspan39" sodipodi:role="line">40</tspan></text>
    </g>
    <g id="g40" transform="translate(225.72510680522583,184.05031081914746)">
     <circle cx="0" cy="0" r="10" fill="red"/>
      <text sodipodi:linespacing="125%" y="5.0" x="0" id="text40" style="font-size:16pxpx;font-style:normal;font-weight:normal;text-align:center;line-height:125%;letter-spacing:0px;word-spacing:0px;text-anchor:middle;fill:#000000;fill-opacity:1;stroke:none;font-family:Sans">
<tspan y="5.0" x="0" id="tspan40" sodipodi:role="line">41</tspan></text>
    </g>
    <g id="g41" transform="translate(270.88700944038493,167.33550023015522)">
     <circle cx="0" cy="0" r="10" fill="red"/>
      <text sodipodi:linespacing="125%" y="5.0" x="0" id="text41" style="font-size:16pxpx;font-style:normal;font-weight:normal;text-align:center;line-height:125%;letter-spacing:0px;word-spacing:0px;text-anchor:middle;fill:#000000;fill-opacity:1;stroke:none;font-family:Sans">
<tspan y="5.0" x="0" id="tspan41" sodipodi:role="line">42</tspan></text>
    </g>
</g>

</svg>
