;1; 2; 3; 4; 5; 6; 7; 8; 9; 10; 11; 12; 13; 14; 15; 16; 17; 18; 19; 20; 21; 22; 23; 24; 25; 26; 27; 28; 29; 30; 31; 32; 33; 34; 35; 36; 37; 38; 39; 40; 41; 42
1;1,000000;0,000000;0,127693;0,489708;0,151792;0,173838;0,000000;0,000000;0,120692;0,000000;0,000000;0,000000;0,000000;0,324915;0,000000;0,000000;0,151144;0,129747;0,130387;0,131009;0,332386;0,425793;0,332844;0,326187;0,000000;0,000000;0,000000;0,522814;0,000000;0,000000;0,275160;0,512737;0,513514;0,000000;0,000000;0,000000;0,339177;0,000000;0,000000;0,000000;0,000000;0,000000;
2;;1,000000;0,716429;0,000000;0,304508;0,415829;0,434892;0,600293;0,847333;0,720597;0,452367;0,511063;0,747039;0,369378;0,000000;0,000000;0,404965;0,329016;0,329459;0,329896;0,698407;0,233788;0,696835;0,477587;0,469640;0,747039;0,747039;0,000000;0,747039;0,557228;0,557614;0,240013;0,240351;0,000000;0,000000;0,000000;0,484207;0,000000;0,000000;0,000000;0,494769;0,494769;
3;;;1,000000;0,240203;0,318318;0,459774;0,256750;0,422151;0,563762;0,437026;0,274225;0,332921;0,568896;0,410183;0,000000;0,000000;0,226822;0,150873;0,151317;0,151753;0,414836;0,274593;0,413265;0,299445;0,291497;0,568896;0,568896;0,000000;0,568896;0,598032;0,626441;0,280817;0,281155;0,181838;0,284372;0,284583;0,306064;0,000000;0,000000;0,000000;0,316626;0,316626;
4;;;;1,000000;0,253539;0,271863;0,306201;0,175738;0,192072;0,288430;0,308370;0,326616;0,000000;0,000000;0,000000;0,000000;0,416305;0,517822;0,518868;0,519847;0,314210;0,391092;0,316944;0,308462;0,335085;0,000000;0,000000;0,547565;0,000000;0,000000;0,227594;0,000000;0,000000;0,139872;0,242406;0,242617;0,321419;0,000000;0,000000;0,000000;0,387346;0,387910;
5;;;;;1,000000;0,496013;0,245323;0,410724;0,363691;0,225775;0,262798;0,321494;0,557469;0,000000;0,000000;0,000000;0,215395;0,139446;0,139890;0,140326;0,141510;0,000000;0,141420;0,288018;0,280070;0,557469;0,557469;0,000000;0,557469;0,000000;0,368044;0,000000;0,000000;0,470765;0,575763;0,576464;0,294637;0,587643;0,406378;0,406378;0,305199;0,305199;
6;;;;;;1,000000;0,356644;0,522045;0,531475;0,337096;0,374119;0,432815;0,668790;0,000000;0,000000;0,000000;0,326716;0,250767;0,251211;0,251647;0,252832;0,000000;0,252741;0,399339;0,391391;0,668790;0,668790;0,000000;0,668790;0,000000;0,479365;0,000000;0,000000;0,244469;0,347003;0,347214;0,405959;0,000000;0,000000;0,000000;0,416520;0,416520;
7;;;;;;;1,000000;0,541108;0,313974;0,356160;0,393183;0,451879;0,687854;0,000000;0,000000;0,000000;0,345780;0,269831;0,270274;0,270711;0,271895;0,000000;0,271805;0,418403;0,410455;0,687854;0,687854;0,000000;0,687854;0,000000;0,498429;0,000000;0,000000;0,000000;0,000000;0,000000;0,425022;0,000000;0,000000;0,000000;0,435584;0,435584;
8;;;;;;;;1,000000;0,479375;0,521560;0,558583;0,617279;0,853254;0,000000;0,000000;0,000000;0,511181;0,435232;0,435675;0,436112;0,437296;0,000000;0,437206;0,583803;0,575856;0,853254;0,853254;0,000000;0,853254;0,000000;0,663830;0,000000;0,000000;0,000000;0,000000;0,000000;0,590423;0,000000;0,000000;0,000000;0,600985;0,600985;
9;;;;;;;;;1,000000;0,567930;0,331449;0,390145;0,626120;0,471933;0,000000;0,000000;0,284046;0,208098;0,208541;0,208978;0,545740;0,336343;0,544168;0,356669;0,348722;0,626120;0,626120;0,000000;0,626120;0,659782;0,436696;0,342567;0,342906;0,000000;0,000000;0,000000;0,363289;0,000000;0,000000;0,000000;0,373851;0,373851;
10;;;;;;;;;;1,000000;0,373634;0,432330;0,668306;0,348620;0,000000;0,000000;0,707330;0,780026;0,781077;0,782075;0,419004;0,213030;0,417432;0,398855;0,390907;0,668306;0,668306;0,000000;0,668306;0,536469;0,478881;0,219254;0,219592;0,000000;0,000000;0,000000;0,405474;0,000000;0,000000;0,000000;0,416036;0,416036;
11;;;;;;;;;;;1,000000;0,469353;0,705329;0,000000;0,000000;0,000000;0,363255;0,287306;0,287749;0,288186;0,289370;0,000000;0,289280;0,435878;1,000000;0,705329;0,705329;0,000000;0,705329;0,000000;0,515904;0,000000;0,000000;0,000000;0,000000;0,000000;0,442497;0,000000;0,000000;0,000000;0,453059;0,453059;
12;;;;;;;;;;;;1,000000;0,764025;0,000000;0,000000;0,000000;0,421951;0,346002;0,346445;0,346882;0,348066;0,000000;0,347976;0,494574;0,486626;0,764025;0,764025;0,000000;0,764025;0,000000;0,574600;0,000000;0,000000;0,000000;0,000000;0,000000;0,501193;0,000000;0,000000;0,000000;0,511755;0,511755;
13;;;;;;;;;;;;;1,000000;0,000000;0,000000;0,000000;0,657926;0,581977;0,582420;0,582857;0,584041;0,000000;0,583951;0,730549;0,722601;1,000000;1,000000;0,000000;1,000000;0,000000;0,810575;0,000000;0,000000;0,000000;0,000000;0,000000;0,737168;0,000000;0,000000;0,000000;0,747730;0,747730;
14;;;;;;;;;;;;;;1,000000;0,000000;0,000000;0,000000;0,000000;0,000000;0,000000;0,417027;0,488712;0,416797;0,000000;0,000000;0,000000;0,000000;0,000000;0,000000;0,812151;0,000000;0,804610;0,805480;0,000000;0,000000;0,000000;0,000000;0,000000;0,000000;0,000000;0,000000;0,000000;
15;;;;;;;;;;;;;;;1,000000;0,000000;0,000000;0,000000;0,000000;0,000000;0,000000;0,000000;0,000000;0,000000;0,000000;0,000000;0,000000;0,000000;0,000000;0,000000;0,000000;0,000000;0,000000;0,000000;0,000000;0,000000;0,000000;0,000000;0,000000;0,000000;0,000000;0,000000;
16;;;;;;;;;;;;;;;;1,000000;0,000000;0,000000;0,000000;0,000000;0,000000;0,000000;0,000000;0,000000;0,000000;0,000000;0,000000;0,000000;0,000000;0,000000;0,000000;0,000000;0,000000;0,000000;0,000000;0,000000;0,000000;0,000000;0,000000;0,000000;0,000000;0,000000;
17;;;;;;;;;;;;;;;;;1,000000;0,859126;0,860073;0,860983;0,241968;0,000000;0,241877;0,388475;0,380527;0,657926;0,657926;0,628330;0,657926;0,000000;0,468501;0,000000;0,000000;0,000000;0,000000;0,000000;0,395095;0,000000;0,000000;0,000000;0,405656;0,405656;
18;;;;;;;;;;;;;;;;;;1,000000;0,827860;0,828906;0,166019;0,000000;0,165929;0,312526;0,304579;0,581977;0,581977;0,606933;0,581977;0,000000;0,392553;0,000000;0,000000;0,000000;0,000000;0,000000;0,319146;0,000000;0,000000;0,000000;0,329708;0,329708;
19;;;;;;;;;;;;;;;;;;;1,000000;0,829913;0,166462;0,000000;0,166372;0,312969;0,305022;0,582420;0,582420;0,607573;0,582420;0,000000;0,392996;0,000000;0,000000;0,000000;0,000000;0,000000;0,319589;0,000000;0,000000;0,000000;0,330151;0,330151;
20;;;;;;;;;;;;;;;;;;;;1,000000;0,166899;0,000000;0,166809;0,313406;0,305459;0,582857;0,582857;0,608195;0,582857;0,000000;0,393433;0,000000;0,000000;0,000000;0,000000;0,000000;0,320026;0,000000;0,000000;0,000000;0,330588;0,330588;
21;;;;;;;;;;;;;;;;;;;;;1,000000;0,599373;0,673899;0,719987;0,306643;0,584041;0,584041;0,000000;0,584041;0,604876;0,394617;0,287662;0,288000;0,000000;0,000000;0,000000;0,321210;0,000000;0,000000;0,000000;0,331772;0,331772;
22;;;;;;;;;;;;;;;;;;;;;;1,000000;0,600095;0,508760;0,000000;0,000000;0,000000;0,000000;0,000000;0,676561;0,000000;0,359346;0,359685;0,000000;0,000000;0,000000;0,522377;0,000000;0,000000;0,000000;0,000000;0,000000;
23;;;;;;;;;;;;;;;;;;;;;;;1,000000;0,314500;0,306553;0,583951;0,583951;0,000000;0,583951;0,604646;0,394527;0,287432;0,287770;0,000000;0,000000;0,000000;0,719778;0,000000;0,000000;0,000000;0,331682;0,331682;
24;;;;;;;;;;;;;;;;;;;;;;;;1,000000;0,453150;0,730549;0,730549;0,000000;0,730549;0,000000;0,541124;0,000000;0,000000;0,000000;0,000000;0,000000;0,467717;0,000000;0,000000;0,000000;0,478279;0,478279;
25;;;;;;;;;;;;;;;;;;;;;;;;;1,000000;0,722601;0,722601;0,000000;0,722601;0,000000;0,533177;0,000000;0,000000;0,000000;0,000000;0,000000;0,459770;0,000000;0,000000;0,000000;0,470332;0,470332;
26;;;;;;;;;;;;;;;;;;;;;;;;;;1,000000;1,000000;0,000000;1,000000;0,000000;0,810575;0,000000;0,000000;0,000000;0,000000;0,000000;0,737168;0,000000;0,000000;0,000000;0,747730;0,747730;
27;;;;;;;;;;;;;;;;;;;;;;;;;;;1,000000;0,000000;1,000000;0,000000;0,810575;0,000000;0,000000;0,000000;0,000000;0,000000;0,737168;0,000000;0,000000;0,000000;0,747730;0,747730;
28;;;;;;;;;;;;;;;;;;;;;;;;;;;;1,000000;0,000000;0,000000;0,000000;0,000000;0,000000;0,000000;0,000000;0,000000;0,000000;0,000000;0,000000;0,000000;0,000000;0,000000;
29;;;;;;;;;;;;;;;;;;;;;;;;;;;;;1,000000;0,000000;0,810575;0,000000;0,000000;0,000000;0,000000;0,000000;0,737168;0,000000;0,000000;0,000000;0,747730;0,747730;
30;;;;;;;;;;;;;;;;;;;;;;;;;;;;;;1,000000;0,000000;0,682785;0,683124;0,000000;0,000000;0,000000;0,000000;0,000000;0,000000;0,000000;0,000000;0,000000;
31;;;;;;;;;;;;;;;;;;;;;;;;;;;;;;;1,000000;0,000000;0,000000;0,000000;0,000000;0,000000;0,547744;0,000000;0,000000;0,000000;0,558306;0,558306;
32;;;;;;;;;;;;;;;;;;;;;;;;;;;;;;;;1,000000;0,751082;0,000000;0,000000;0,000000;0,000000;0,000000;0,000000;0,000000;0,000000;0,000000;
33;;;;;;;;;;;;;;;;;;;;;;;;;;;;;;;;;1,000000;0,000000;0,000000;0,000000;0,000000;0,000000;0,000000;0,000000;0,000000;0,000000;
34;;;;;;;;;;;;;;;;;;;;;;;;;;;;;;;;;;1,000000;0,654635;0,655011;0,000000;0,000000;0,564508;0,564871;0,000000;0,000000;
35;;;;;;;;;;;;;;;;;;;;;;;;;;;;;;;;;;;1,000000;0,774310;0,000000;0,721576;0,540311;0,540311;0,000000;0,000000;
36;;;;;;;;;;;;;;;;;;;;;;;;;;;;;;;;;;;;1,000000;0,000000;0,722016;0,540752;0,540752;0,000000;0,000000;
37;;;;;;;;;;;;;;;;;;;;;;;;;;;;;;;;;;;;;1,000000;0,000000;0,000000;0,000000;0,484899;0,484899;
38;;;;;;;;;;;;;;;;;;;;;;;;;;;;;;;;;;;;;;1,000000;0,818735;0,818735;0,000000;0,000000;
39;;;;;;;;;;;;;;;;;;;;;;;;;;;;;;;;;;;;;;;1,000000;0,637470;0,000000;0,000000;
40;;;;;;;;;;;;;;;;;;;;;;;;;;;;;;;;;;;;;;;;1,000000;0,000000;0,000000;
41;;;;;;;;;;;;;;;;;;;;;;;;;;;;;;;;;;;;;;;;;1,000000;0,495461;
42;;;;;;;;;;;;;;;;;;;;;;;;;;;;;;;;;;;;;;;;;;1,000000;
