;1; 2; 3; 4; 5; 6; 7; 8; 9; 10; 11; 12; 13; 14; 15; 16; 17; 18; 19; 20; 21; 22; 23
1;1,000000;0,276128;0,382469;0,473114;0,473114;0,486765;0,495257;0,321956;0,000000;0,270781;0,270781;0,293279;0,466144;0,270042;0,321376;0,298001;0,000000;0,274858;0,342353;0,381337;0,000000;0,000000;0,298001;
2;;1,000000;0,570480;0,667993;0,667993;0,695217;0,712238;0,603629;0,820480;0,570480;0,570480;0,641908;0,674429;0,620480;0,570480;0,570480;0,820480;0,570480;0,523497;0,487146;0,820480;0,820480;0,570480;
3;;;1,000000;0,833333;0,833333;0,833333;0,833333;0,533149;0,750000;0,500000;0,500000;0,571429;0,879824;0,550000;0,500000;0,500000;0,750000;0,500000;0,453017;0,416667;0,750000;0,750000;0,500000;
4;;;;1,000000;0,666667;0,666667;0,666667;0,449816;0,666667;0,416667;0,416667;0,488095;0,713157;0,466667;0,416667;0,416667;0,666667;0,416667;0,369684;0,333333;0,666667;0,666667;0,416667;
5;;;;;1,000000;0,666667;0,666667;0,449816;0,666667;0,416667;0,416667;0,488095;0,713157;0,466667;0,416667;0,416667;0,666667;0,416667;0,369684;0,333333;0,666667;0,666667;0,416667;
6;;;;;;1,000000;0,666667;0,449816;0,666667;0,416667;0,416667;0,488095;1,000000;0,466667;0,416667;0,416667;0,666667;0,416667;0,369684;0,333333;0,666667;0,666667;0,416667;
7;;;;;;;1,000000;0,449816;0,666667;0,416667;0,416667;0,488095;0,713157;0,466667;0,416667;0,416667;0,666667;0,416667;0,369684;0,333333;0,666667;0,666667;0,416667;
8;;;;;;;;1,000000;0,783149;0,533149;0,533149;0,604578;0,473061;0,583149;0,728404;0,845946;0,783149;0,533149;0,633632;0,726117;0,783149;0,783149;0,845946;
9;;;;;;;;;1,000000;0,750000;0,750000;0,821429;0,689912;0,800000;0,750000;0,750000;1,000000;0,750000;0,703017;0,666667;1,000000;1,000000;0,750000;
10;;;;;;;;;;1,000000;0,500000;0,571429;0,439912;0,550000;0,500000;0,500000;0,750000;0,500000;0,453017;0,416667;0,750000;0,750000;0,500000;
11;;;;;;;;;;;1,000000;0,571429;0,439912;0,550000;0,500000;0,500000;0,750000;0,500000;0,453017;0,416667;0,750000;0,750000;0,500000;
12;;;;;;;;;;;;1,000000;0,511340;0,766945;0,571429;0,571429;0,821429;0,571429;0,766191;0,693489;0,821429;0,821429;0,571429;
13;;;;;;;;;;;;;1,000000;0,489912;0,439912;0,439912;0,689912;0,439912;0,392929;0,356579;0,689912;0,689912;0,439912;
14;;;;;;;;;;;;;;1,000000;0,550000;0,550000;0,800000;0,550000;0,503017;0,466667;0,800000;0,800000;0,550000;
15;;;;;;;;;;;;;;;1,000000;0,882459;0,750000;0,884471;0,453017;0,416667;0,750000;0,750000;0,882459;
16;;;;;;;;;;;;;;;;1,000000;0,750000;0,500000;0,453017;0,416667;0,750000;0,750000;1,000000;
17;;;;;;;;;;;;;;;;;1,000000;0,750000;0,703017;0,666667;1,000000;1,000000;0,750000;
18;;;;;;;;;;;;;;;;;;1,000000;0,453017;0,416667;0,750000;0,750000;0,500000;
19;;;;;;;;;;;;;;;;;;;1,000000;0,739368;0,703017;0,703017;0,453017;
20;;;;;;;;;;;;;;;;;;;;1,000000;0,666667;0,666667;0,416667;
21;;;;;;;;;;;;;;;;;;;;;1,000000;1,000000;0,750000;
22;;;;;;;;;;;;;;;;;;;;;;1,000000;0,750000;
23;;;;;;;;;;;;;;;;;;;;;;;1,000000;
