;1; 2; 3; 4; 5; 6; 7; 8; 9; 10; 11; 12; 13; 14; 15; 16; 17; 18; 19; 20; 21; 22; 23; 24; 25; 26; 27; 28; 29; 30; 31; 32; 33; 34; 35; 36; 37; 38; 39; 40; 41; 42; 43; 44; 45; 46; 47; 48; 49; 50; 51; 52; 53; 54; 55; 56; 57; 58; 59; 60; 61; 62; 63; 64; 65; 66; 67; 68; 69; 70; 71; 72; 73; 74; 75
1;1,000000;0,368606;0,269847;0,467907;0,303248;0,555819;0,555819;0,000000;0,000000;0,230365;0,242541;0,555819;0,313972;0,324463;0,228534;0,555819;0,168605;0,169271;0,268614;0,000000;0,000000;0,256520;0,256520;0,248373;0,555819;0,250212;0,363836;0,462866;0,000000;0,555819;0,555819;0,555819;0,261015;0,276444;0,269081;0,270252;0,360903;0,555819;0,191055;0,191270;0,555819;0,166782;0,000000;0,000000;0,501908;0,267693;0,268138;0,275331;0,964831;0,269429;0,196229;0,196404;0,270653;0,201472;0,201581;0,277422;0,198384;0,198544;0,157396;0,286348;0,273640;0,000000;0,000000;0,000000;0,205514;0,205601;0,555819;0,278380;0,000000;0,204922;0,286036;0,289392;0,289392;0,555819;0,287593;
2;;1,000000;0,288854;0,493412;0,305631;0,558202;0,558202;0,000000;0,000000;0,232748;0,244923;0,558202;0,316354;0,326846;0,230917;0,558202;0,170987;0,171654;0,270996;0,000000;0,000000;0,258903;0,258903;0,250755;0,558202;0,252595;0,366219;0,465249;0,000000;0,558202;0,558202;0,558202;0,263397;0,278827;0,271463;0,272635;0,363286;0,558202;0,193437;0,193652;0,558202;0,169164;0,000000;0,000000;0,965690;0,270075;0,270521;0,277713;0,505182;0,271811;0,198612;0,198787;0,273036;0,203854;0,203964;0,279804;0,200766;0,200927;0,159779;0,288731;0,276023;0,000000;0,000000;0,000000;0,207896;0,207983;0,558202;0,280763;0,000000;0,207304;0,288418;0,291775;0,291775;0,558202;0,289976;
3;;;1,000000;0,325575;0,231729;0,000000;0,000000;0,000000;0,000000;0,265548;0,348141;0,000000;0,268137;0,172689;0,255717;0,000000;0,386871;0,388693;0,396428;0,000000;0,000000;0,356362;0,357633;0,296656;0,000000;0,299280;0,282322;0,105119;0,000000;0,000000;0,000000;0,000000;0,269981;0,311465;0,340108;0,309441;0,292322;0,000000;0,413418;0,414004;0,000000;0,465166;0,000000;0,000000;0,377072;0,280288;0,280935;0,354085;0,378924;0,282783;0,419375;0,419789;0,284505;0,416134;0,416492;0,377052;0,421705;0,422064;0,490760;0,375949;0,288582;0,000000;0,000000;0,000000;0,417755;0,418029;0,000000;0,362648;0,000000;0,403007;0,346283;0,385343;0,385624;0,000000;0,329892;
4;;;;1,000000;0,318241;0,570812;0,570812;0,000000;0,000000;0,245358;0,257533;0,570812;0,328965;0,339456;0,243527;0,570812;0,183598;0,184264;0,283607;0,000000;0,000000;0,271513;0,271513;0,263366;0,570812;0,265205;0,378829;0,477859;0,000000;0,570812;0,570812;0,570812;0,276008;0,291437;0,284074;0,285245;0,375896;0,570812;0,206048;0,206262;0,570812;0,181775;0,000000;0,000000;0,540170;0,282686;0,283131;0,290324;0,531283;0,284422;0,211222;0,211397;0,285646;0,216465;0,216574;0,292414;0,213377;0,213537;0,172389;0,301341;0,288633;0,000000;0,000000;0,000000;0,220507;0,220594;0,570812;0,293373;0,000000;0,219915;0,301029;0,304385;0,304385;0,570812;0,302586;
5;;;;;1,000000;0,747429;0,747429;0,000000;0,000000;0,421975;0,434150;0,747429;0,667274;0,817546;0,420144;0,747429;0,620221;0,622257;0,460224;0,000000;0,000000;0,448130;0,448130;0,439983;0,747429;0,441822;0,555446;0,654476;0,000000;0,747429;0,747429;0,747429;0,452625;0,468054;0,460690;0,461862;0,552513;0,747429;0,382665;0,382879;0,747429;0,703757;0,000000;0,000000;0,374289;0,459302;0,459748;0,466941;0,376508;0,461039;0,387839;0,388014;0,462263;0,393082;0,393191;0,692131;0,389993;0,390154;0,748981;0,477958;0,465250;0,000000;0,000000;0,000000;0,397124;0,397210;0,747429;0,469990;0,000000;0,396531;0,477646;0,481002;0,481002;0,747429;0,479203;
6;;;;;;1,000000;1,000000;0,000000;0,000000;0,674546;0,686721;1,000000;0,758153;0,768644;0,672715;1,000000;0,612785;0,613452;0,712795;0,000000;0,000000;0,700701;0,700701;0,692554;1,000000;0,694393;0,808017;0,907047;0,000000;1,000000;1,000000;1,000000;0,705196;0,720625;0,713261;0,714433;0,805084;1,000000;0,635235;0,635450;1,000000;0,610962;0,000000;0,000000;0,626860;0,711873;0,712319;0,719511;0,629079;0,713609;0,640410;0,640585;0,714834;0,645652;0,645762;0,721602;0,642564;0,642725;0,601577;0,730529;0,717821;0,000000;0,000000;0,000000;0,649694;0,649781;1,000000;0,722561;0,000000;0,649102;0,730216;0,733573;0,733573;1,000000;0,731774;
7;;;;;;;1,000000;0,000000;0,000000;0,674546;0,686721;1,000000;0,758153;0,768644;0,672715;1,000000;0,612785;0,613452;0,712795;0,000000;0,000000;0,700701;0,700701;0,692554;1,000000;0,694393;0,808017;0,907047;0,000000;1,000000;1,000000;1,000000;0,705196;0,720625;0,713261;0,714433;0,805084;1,000000;0,635235;0,635450;1,000000;0,610962;0,000000;0,000000;0,626860;0,711873;0,712319;0,719511;0,629079;0,713609;0,640410;0,640585;0,714834;0,645652;0,645762;0,721602;0,642564;0,642725;0,601577;0,730529;0,717821;0,000000;0,000000;0,000000;0,649694;0,649781;1,000000;0,722561;0,000000;0,649102;0,730216;0,733573;0,733573;1,000000;0,731774;
8;;;;;;;;1,000000;0,000000;0,000000;0,000000;0,000000;0,000000;0,000000;0,000000;0,000000;0,000000;0,000000;0,000000;0,000000;0,000000;0,000000;0,000000;0,000000;0,000000;0,000000;0,000000;0,000000;0,000000;0,000000;0,000000;0,000000;0,000000;0,000000;0,000000;0,000000;0,000000;0,000000;0,000000;0,000000;0,000000;0,000000;0,000000;0,000000;0,000000;0,000000;0,000000;0,000000;0,000000;0,000000;0,000000;0,000000;0,000000;0,000000;0,000000;0,000000;0,000000;0,000000;0,000000;0,000000;0,000000;0,000000;0,000000;0,000000;0,000000;0,000000;0,000000;0,000000;0,000000;0,000000;0,000000;0,000000;0,000000;0,000000;0,000000;
9;;;;;;;;;1,000000;0,000000;0,000000;0,000000;0,000000;0,000000;0,000000;0,000000;0,000000;0,000000;0,000000;0,000000;0,000000;0,000000;0,000000;0,000000;0,000000;0,000000;0,000000;0,000000;0,000000;0,000000;0,000000;0,000000;0,000000;0,000000;0,000000;0,000000;0,000000;0,000000;0,000000;0,000000;0,000000;0,000000;0,000000;0,000000;0,000000;0,000000;0,000000;0,000000;0,000000;0,000000;0,000000;0,000000;0,000000;0,000000;0,000000;0,000000;0,000000;0,000000;0,000000;0,000000;0,000000;0,000000;0,000000;0,000000;0,000000;0,000000;0,000000;0,000000;0,000000;0,000000;0,000000;0,000000;0,000000;0,000000;0,000000;
10;;;;;;;;;;1,000000;0,361267;0,674546;0,432698;0,443189;0,347260;0,674546;0,287331;0,287997;0,387340;0,000000;0,000000;0,375247;0,375247;1,000000;0,674546;1,000000;0,482563;0,581593;0,000000;0,674546;0,674546;0,674546;0,379741;0,395171;0,387807;0,388978;0,479630;0,674546;0,309781;0,309996;0,674546;0,285508;0,000000;0,000000;0,301406;0,386419;0,386865;0,394057;0,303624;0,388155;0,314955;0,315131;0,389380;0,320198;0,320307;0,396148;0,317110;0,317271;0,276123;0,405074;0,392367;0,000000;0,000000;0,000000;0,324240;0,324327;0,674546;0,397107;0,000000;0,323648;0,404762;0,408119;0,408119;0,674546;0,406320;
11;;;;;;;;;;;1,000000;0,686721;0,444874;0,455365;0,359436;0,686721;0,299507;0,300173;0,399516;0,000000;0,000000;0,387422;0,387422;0,379275;0,686721;0,381114;0,494738;0,593768;0,000000;0,686721;0,686721;0,686721;0,391917;0,407346;0,399982;0,401154;0,491805;0,686721;0,321957;0,322171;0,686721;0,297684;0,000000;0,000000;0,313581;0,398594;0,399040;0,406233;0,315800;0,400331;0,327131;0,327306;0,401555;0,332374;0,332483;0,408323;0,329286;0,329446;0,288298;0,417250;0,404542;0,000000;0,000000;0,000000;0,336416;0,336503;0,686721;0,409282;0,000000;0,335823;0,416938;0,420294;0,420294;0,686721;0,418495;
12;;;;;;;;;;;;1,000000;0,758153;0,768644;0,672715;1,000000;0,612785;0,613452;0,712795;0,000000;0,000000;0,700701;0,700701;0,692554;1,000000;0,694393;0,808017;0,907047;0,000000;1,000000;1,000000;1,000000;0,705196;0,720625;0,713261;0,714433;0,805084;1,000000;0,635235;0,635450;1,000000;0,610962;0,000000;0,000000;0,626860;0,711873;0,712319;0,719511;0,629079;0,713609;0,640410;0,640585;0,714834;0,645652;0,645762;0,721602;0,642564;0,642725;0,601577;0,730529;0,717821;0,000000;0,000000;0,000000;0,649694;0,649781;1,000000;0,722561;0,000000;0,649102;0,730216;0,733573;0,733573;1,000000;0,731774;
13;;;;;;;;;;;;;1,000000;0,526796;0,857707;0,758153;0,657279;0,657279;0,470947;0,000000;0,000000;0,458854;0,458854;0,450706;0,758153;0,452546;0,566169;0,665199;0,000000;0,758153;0,758153;0,758153;0,463348;0,478777;0,471414;0,472585;0,563237;0,758153;0,393388;0,393603;0,758153;0,752883;0,000000;0,000000;0,385013;0,470026;0,470472;0,477664;0,387231;0,471762;0,398562;0,398738;0,472987;0,403805;0,403914;0,479755;0,400717;0,400877;0,805084;0,488681;0,475974;0,000000;0,000000;0,000000;0,407847;0,407934;0,758153;0,480713;0,000000;0,407255;0,793457;0,491726;0,491726;0,758153;0,489926;
14;;;;;;;;;;;;;;1,000000;0,441359;0,768644;0,381429;0,382095;0,481438;0,000000;0,000000;0,469345;0,469345;0,461197;0,768644;0,463037;0,576661;0,675691;0,000000;0,768644;0,768644;0,768644;0,473839;0,489269;0,481905;0,483077;0,573728;0,768644;0,403879;0,404094;0,768644;0,772370;0,000000;0,000000;0,395504;0,480517;0,480963;0,488155;0,397723;0,482253;0,409053;0,409229;0,483478;0,414296;0,414406;0,874586;0,411208;0,411369;0,745345;0,499172;0,486465;0,000000;0,000000;0,000000;0,418338;0,418425;0,768644;0,491205;0,000000;0,417746;0,498860;0,502217;0,502217;0,768644;0,500418;
15;;;;;;;;;;;;;;;1,000000;0,672715;0,799572;0,799572;0,385509;0,000000;0,000000;0,373416;0,373416;0,365268;0,672715;0,367108;0,480732;0,579762;0,000000;0,672715;0,672715;0,672715;0,377910;0,393340;0,385976;0,387147;0,477799;0,672715;0,307950;0,308165;0,672715;0,770081;0,000000;0,000000;0,299575;0,384588;0,385034;0,392226;0,301794;0,386324;0,313124;0,313300;0,387549;0,318367;0,318476;0,394317;0,315279;0,315440;0,741357;0,403243;0,390536;0,000000;0,000000;0,000000;0,322409;0,322496;0,672715;0,395276;0,000000;0,321817;0,402931;0,406288;0,406288;0,672715;0,404489;
16;;;;;;;;;;;;;;;;1,000000;0,612785;0,613452;0,712795;0,000000;0,000000;0,700701;0,700701;0,692554;1,000000;0,694393;0,808017;0,907047;0,000000;1,000000;1,000000;1,000000;0,705196;0,720625;0,713261;0,714433;0,805084;1,000000;0,635235;0,635450;1,000000;0,610962;0,000000;0,000000;0,626860;0,711873;0,712319;0,719511;0,629079;0,713609;0,640410;0,640585;0,714834;0,645652;0,645762;0,721602;0,642564;0,642725;0,601577;0,730529;0,717821;0,000000;0,000000;0,000000;0,649694;0,649781;1,000000;0,722561;0,000000;0,649102;0,730216;0,733573;0,733573;1,000000;0,731774;
17;;;;;;;;;;;;;;;;;1,000000;0,599143;0,325580;0,000000;0,000000;0,313486;0,313486;0,305339;0,612785;0,307178;0,420802;0,519832;0,000000;0,612785;0,612785;0,612785;0,317981;0,333410;0,326047;0,327218;0,417869;0,612785;0,248021;0,248236;0,612785;0,569652;0,000000;0,000000;0,239646;0,324659;0,325105;0,332297;0,241864;0,326395;0,253195;0,253371;0,327619;0,258438;0,258547;0,334388;0,255350;0,255510;0,540928;0,343314;0,330606;0,000000;0,000000;0,000000;0,262480;0,262567;0,612785;0,335346;0,000000;0,261888;0,343002;0,346358;0,346358;0,612785;0,344559;
18;;;;;;;;;;;;;;;;;;1,000000;0,326246;0,000000;0,000000;0,314153;0,314153;0,306005;0,613452;0,307845;0,421469;0,520499;0,000000;0,613452;0,613452;0,613452;0,318647;0,334077;0,326713;0,327884;0,418536;0,613452;0,248687;0,248902;0,613452;0,569652;0,000000;0,000000;0,240312;0,325325;0,325771;0,332963;0,242530;0,327061;0,253861;0,254037;0,328286;0,259104;0,259213;0,335054;0,256016;0,256177;0,540928;0,343980;0,331273;0,000000;0,000000;0,000000;0,263146;0,263233;0,613452;0,336013;0,000000;0,262554;0,343668;0,347025;0,347025;0,613452;0,345226;
19;;;;;;;;;;;;;;;;;;;1,000000;0,000000;0,000000;0,413496;0,413496;0,405348;0,712795;0,407188;0,520811;0,619841;0,000000;0,712795;0,712795;0,712795;0,417990;0,433419;0,426056;0,427227;0,517879;0,712795;0,624530;0,624970;0,712795;0,323757;0,000000;0,000000;0,339655;0,424668;0,425114;0,432306;0,341873;0,426404;0,628273;0,628613;0,427629;0,358447;0,358556;0,434397;0,629834;0,630139;0,314371;0,443323;0,430615;0,000000;0,000000;0,000000;0,362489;0,362576;0,712795;0,435355;0,000000;0,361897;0,443011;0,446367;0,446367;0,712795;0,444568;
20;;;;;;;;;;;;;;;;;;;;1,000000;0,000000;0,000000;0,000000;0,000000;0,000000;0,000000;0,000000;0,000000;0,000000;0,000000;0,000000;0,000000;0,000000;0,000000;0,000000;0,000000;0,000000;0,000000;0,000000;0,000000;0,000000;0,000000;0,000000;0,000000;0,000000;0,000000;0,000000;0,000000;0,000000;0,000000;0,000000;0,000000;0,000000;0,000000;0,000000;0,000000;0,000000;0,000000;0,000000;0,000000;0,000000;0,000000;0,000000;0,000000;0,000000;0,000000;0,000000;0,000000;0,689547;0,000000;0,000000;0,000000;0,000000;0,000000;0,000000;
21;;;;;;;;;;;;;;;;;;;;;1,000000;0,000000;0,000000;0,000000;0,000000;0,000000;0,000000;0,000000;0,880170;0,000000;0,000000;0,000000;0,000000;0,000000;0,000000;0,000000;0,000000;0,000000;0,000000;0,000000;0,000000;0,000000;1,000000;1,000000;0,000000;0,000000;0,000000;0,000000;0,000000;0,000000;0,000000;0,000000;0,000000;0,000000;0,000000;0,000000;0,000000;0,000000;0,000000;0,000000;0,000000;0,000000;0,000000;0,000000;0,000000;0,000000;0,000000;0,000000;0,000000;0,000000;0,000000;0,000000;0,000000;0,000000;0,000000;
22;;;;;;;;;;;;;;;;;;;;;;1,000000;0,401402;0,393255;0,700701;0,395094;0,508718;0,607748;0,000000;0,700701;0,700701;0,700701;0,405897;0,421326;0,413962;0,415134;0,505785;0,700701;0,335936;0,336151;0,700701;0,311663;0,000000;0,000000;0,327561;0,412574;0,413020;0,420212;0,329780;0,414310;0,341111;0,341286;0,415535;0,346353;0,346463;0,422303;0,343265;0,343426;0,302278;0,431230;0,418522;0,000000;0,000000;0,000000;0,350395;0,350482;0,700701;0,423262;0,000000;0,349803;0,430917;0,434274;0,434274;0,700701;0,432475;
23;;;;;;;;;;;;;;;;;;;;;;;1,000000;0,393255;0,700701;0,395094;0,508718;0,607748;0,000000;0,700701;0,700701;0,700701;0,405897;0,421326;0,413962;0,415134;0,505785;0,700701;0,335936;0,336151;0,700701;0,311663;0,000000;0,000000;0,327561;0,412574;0,413020;0,420212;0,329780;0,414310;0,341111;0,341286;0,415535;0,346353;0,346463;0,422303;0,343265;0,343426;0,302278;0,431230;0,418522;0,000000;0,000000;0,000000;0,350395;0,350482;0,700701;0,423262;0,000000;0,349803;0,430917;0,434274;0,434274;0,700701;0,432475;
24;;;;;;;;;;;;;;;;;;;;;;;;1,000000;0,692554;1,000000;0,500570;0,599600;0,000000;0,692554;0,692554;0,692554;0,397749;0,413178;0,405815;0,406986;0,497638;0,692554;0,327789;0,328004;0,692554;0,303516;0,000000;0,000000;0,319414;0,404427;0,404873;0,412065;0,321632;0,406163;0,332963;0,333139;0,407388;0,338206;0,338315;0,414156;0,335118;0,335278;0,294130;0,423082;0,410375;0,000000;0,000000;0,000000;0,342248;0,342335;0,692554;0,415114;0,000000;0,341656;0,422770;0,426127;0,426127;0,692554;0,424327;
25;;;;;;;;;;;;;;;;;;;;;;;;;1,000000;0,694393;0,808017;0,907047;0,000000;1,000000;1,000000;1,000000;0,705196;0,720625;0,713261;0,714433;0,805084;1,000000;0,635235;0,635450;1,000000;0,610962;0,000000;0,000000;0,626860;0,711873;0,712319;0,719511;0,629079;0,713609;0,640410;0,640585;0,714834;0,645652;0,645762;0,721602;0,642564;0,642725;0,601577;0,730529;0,717821;0,000000;0,000000;0,000000;0,649694;0,649781;1,000000;0,722561;0,000000;0,649102;0,730216;0,733573;0,733573;1,000000;0,731774;
26;;;;;;;;;;;;;;;;;;;;;;;;;;1,000000;0,502410;0,601440;0,000000;0,694393;0,694393;0,694393;0,399589;0,415018;0,407654;0,408826;0,499477;0,694393;0,329629;0,329843;0,694393;0,305355;0,000000;0,000000;0,321253;0,406266;0,406712;0,413905;0,323472;0,408002;0,334803;0,334978;0,409227;0,340045;0,340155;0,415995;0,336957;0,337118;0,295970;0,424922;0,412214;0,000000;0,000000;0,000000;0,344088;0,344174;0,694393;0,416954;0,000000;0,343495;0,424610;0,427966;0,427966;0,694393;0,426167;
27;;;;;;;;;;;;;;;;;;;;;;;;;;;1,000000;0,715064;0,000000;0,808017;0,808017;0,808017;0,513212;0,528642;0,521278;0,522450;0,613101;0,808017;0,443252;0,443467;0,808017;0,418979;0,000000;0,000000;0,434877;0,519890;0,520336;0,527528;0,437096;0,521626;0,448426;0,448602;0,522851;0,453669;0,453779;0,529619;0,450581;0,450742;0,409594;0,538546;0,525838;0,000000;0,000000;0,000000;0,457711;0,457798;0,808017;0,530578;0,000000;0,457119;0,538233;0,541590;0,541590;0,808017;0,539791;
28;;;;;;;;;;;;;;;;;;;;;;;;;;;;1,000000;0,000000;0,907047;0,907047;0,907047;0,612242;0,627672;0,620308;1,000000;0,712131;0,907047;0,542282;0,542497;0,907047;0,518009;0,000000;0,000000;0,533907;0,618920;0,619366;0,626558;0,536126;0,620656;0,547456;0,547632;0,621881;0,552699;0,552809;0,628649;0,549611;0,549772;0,508624;0,637576;0,624868;0,000000;0,000000;0,000000;0,556741;0,556828;0,907047;0,629608;0,000000;0,556149;0,637263;0,640620;0,640620;0,907047;0,638821;
29;;;;;;;;;;;;;;;;;;;;;;;;;;;;;1,000000;0,000000;0,000000;0,000000;0,000000;0,000000;0,000000;0,000000;0,000000;0,000000;0,000000;0,000000;0,000000;0,000000;0,880170;0,880170;0,000000;0,000000;0,000000;0,000000;0,000000;0,000000;0,000000;0,000000;0,000000;0,000000;0,000000;0,000000;0,000000;0,000000;0,000000;0,000000;0,000000;0,000000;0,000000;0,000000;0,000000;0,000000;0,000000;0,000000;0,000000;0,000000;0,000000;0,000000;0,000000;0,000000;0,000000;
30;;;;;;;;;;;;;;;;;;;;;;;;;;;;;;1,000000;1,000000;1,000000;0,705196;0,720625;0,713261;0,714433;0,805084;1,000000;0,635235;0,635450;1,000000;0,610962;0,000000;0,000000;0,626860;0,711873;0,712319;0,719511;0,629079;0,713609;0,640410;0,640585;0,714834;0,645652;0,645762;0,721602;0,642564;0,642725;0,601577;0,730529;0,717821;0,000000;0,000000;0,000000;0,649694;0,649781;1,000000;0,722561;0,000000;0,649102;0,730216;0,733573;0,733573;1,000000;0,731774;
31;;;;;;;;;;;;;;;;;;;;;;;;;;;;;;;1,000000;1,000000;0,705196;0,720625;0,713261;0,714433;0,805084;1,000000;0,635235;0,635450;1,000000;0,610962;0,000000;0,000000;0,626860;0,711873;0,712319;0,719511;0,629079;0,713609;0,640410;0,640585;0,714834;0,645652;0,645762;0,721602;0,642564;0,642725;0,601577;0,730529;0,717821;0,000000;0,000000;0,000000;0,649694;0,649781;1,000000;0,722561;0,000000;0,649102;0,730216;0,733573;0,733573;1,000000;0,731774;
32;;;;;;;;;;;;;;;;;;;;;;;;;;;;;;;;1,000000;0,705196;0,720625;0,713261;0,714433;0,805084;1,000000;0,635235;0,635450;1,000000;0,610962;0,000000;0,000000;0,626860;0,711873;0,712319;0,719511;0,629079;0,713609;0,640410;0,640585;0,714834;0,645652;0,645762;0,721602;0,642564;0,642725;0,601577;0,730529;0,717821;0,000000;0,000000;0,000000;0,649694;0,649781;1,000000;0,722561;0,000000;0,649102;0,730216;0,733573;0,733573;1,000000;0,731774;
33;;;;;;;;;;;;;;;;;;;;;;;;;;;;;;;;;1,000000;0,425820;0,418457;0,419628;0,510280;0,705196;0,826120;0,826120;0,705196;0,316158;0,000000;0,000000;0,332056;1,000000;1,000000;0,424707;0,334274;1,000000;0,832743;0,832743;1,000000;0,350848;0,350957;0,426798;0,835349;0,835349;0,306772;0,435724;1,000000;0,000000;0,000000;0,000000;0,354890;0,354977;0,705196;0,427756;0,000000;0,354298;0,435412;0,438768;0,438768;0,705196;0,436969;
34;;;;;;;;;;;;;;;;;;;;;;;;;;;;;;;;;;1,000000;0,433886;0,435058;0,525709;0,720625;0,355860;0,356075;0,720625;0,331587;0,000000;0,000000;0,347485;0,432498;0,432944;0,440136;0,349704;0,434234;0,361034;0,361210;0,435459;0,750179;0,750610;0,442227;0,363189;0,363350;0,322202;0,451154;0,438446;0,000000;0,000000;0,000000;0,370319;0,370406;0,720625;0,443186;0,000000;1,000000;0,450841;0,454198;0,454198;0,720625;0,452399;
35;;;;;;;;;;;;;;;;;;;;;;;;;;;;;;;;;;;1,000000;0,427694;0,518345;0,713261;0,348497;0,348711;0,713261;0,324224;0,000000;0,000000;0,340122;0,425135;0,425580;0,432773;0,342340;0,426871;0,353671;0,353846;0,428095;0,358914;0,359023;0,434863;0,355826;0,355986;0,314838;0,443790;0,431082;0,000000;0,000000;0,000000;0,362956;0,363043;0,713261;0,435822;0,000000;0,362364;0,443478;0,446834;0,446834;0,713261;0,445035;
36;;;;;;;;;;;;;;;;;;;;;;;;;;;;;;;;;;;;1,000000;0,519517;0,714433;0,349668;0,349883;0,714433;0,325395;0,000000;0,000000;0,341293;0,426306;0,426752;0,433944;0,343512;0,428042;0,354842;0,355018;0,429267;0,360085;0,360194;0,436035;0,356997;0,357158;0,316010;0,444961;0,432254;0,000000;0,000000;0,000000;0,364127;0,364214;0,714433;0,436994;0,000000;0,363535;0,444649;0,448006;0,448006;0,714433;0,446207;
37;;;;;;;;;;;;;;;;;;;;;;;;;;;;;;;;;;;;;1,000000;0,805084;0,440320;0,440534;0,805084;0,416046;0,000000;0,000000;0,431944;0,516957;0,517403;0,524596;0,434163;0,518693;0,445494;0,445669;0,519918;0,450736;0,450846;0,526686;0,447648;0,447809;0,406661;0,535613;0,522905;0,000000;0,000000;0,000000;0,454779;0,454865;0,805084;0,527645;0,000000;0,454186;0,535300;0,538657;0,538657;0,805084;0,536858;
38;;;;;;;;;;;;;;;;;;;;;;;;;;;;;;;;;;;;;;1,000000;0,635235;0,635450;1,000000;0,610962;0,000000;0,000000;0,626860;0,711873;0,712319;0,719511;0,629079;0,713609;0,640410;0,640585;0,714834;0,645652;0,645762;0,721602;0,642564;0,642725;0,601577;0,730529;0,717821;0,000000;0,000000;0,000000;0,649694;0,649781;1,000000;0,722561;0,000000;0,649102;0,730216;0,733573;0,733573;1,000000;0,731774;
39;;;;;;;;;;;;;;;;;;;;;;;;;;;;;;;;;;;;;;;1,000000;0,652240;0,635235;0,246198;0,000000;0,000000;0,262096;0,826120;0,826120;0,354747;0,264314;0,826120;0,658864;0,658864;0,826120;0,280888;0,280997;0,356838;0,661469;0,661469;0,236812;0,365764;0,826120;0,000000;0,000000;0,000000;0,284930;0,285017;0,635235;0,357796;0,000000;0,284338;0,365452;0,368808;0,368808;0,635235;0,367009;
40;;;;;;;;;;;;;;;;;;;;;;;;;;;;;;;;;;;;;;;;1,000000;0,635450;0,246413;0,000000;0,000000;0,262310;0,826120;0,826120;0,354962;0,264529;0,826120;0,658864;0,658864;0,826120;0,281103;0,281212;0,357052;0,661469;0,661469;0,237027;0,365979;0,826120;0,000000;0,000000;0,000000;0,285145;0,285232;0,635450;0,358011;0,000000;0,284552;0,365667;0,369023;0,369023;0,635450;0,367224;
41;;;;;;;;;;;;;;;;;;;;;;;;;;;;;;;;;;;;;;;;;1,000000;0,610962;0,000000;0,000000;0,626860;0,711873;0,712319;0,719511;0,629079;0,713609;0,640410;0,640585;0,714834;0,645652;0,645762;0,721602;0,642564;0,642725;0,601577;0,730529;0,717821;0,000000;0,000000;0,000000;0,649694;0,649781;1,000000;0,722561;0,000000;0,649102;0,730216;0,733573;0,733573;1,000000;0,731774;
42;;;;;;;;;;;;;;;;;;;;;;;;;;;;;;;;;;;;;;;;;;1,000000;0,000000;0,000000;0,237823;0,322836;0,323281;0,330474;0,240041;0,324572;0,251372;0,251547;0,325796;0,256615;0,256724;0,646956;0,253527;0,253687;0,811490;0,341491;0,328783;0,000000;0,000000;0,000000;0,260657;0,260744;0,610962;0,333523;0,000000;0,260065;0,341179;0,344535;0,344535;0,610962;0,342736;
43;;;;;;;;;;;;;;;;;;;;;;;;;;;;;;;;;;;;;;;;;;;1,000000;1,000000;0,000000;0,000000;0,000000;0,000000;0,000000;0,000000;0,000000;0,000000;0,000000;0,000000;0,000000;0,000000;0,000000;0,000000;0,000000;0,000000;0,000000;0,000000;0,000000;0,000000;0,000000;0,000000;0,000000;0,000000;0,000000;0,000000;0,000000;0,000000;0,000000;0,000000;0,000000;
44;;;;;;;;;;;;;;;;;;;;;;;;;;;;;;;;;;;;;;;;;;;;1,000000;0,000000;0,000000;0,000000;0,000000;0,000000;0,000000;0,000000;0,000000;0,000000;0,000000;0,000000;0,000000;0,000000;0,000000;0,000000;0,000000;0,000000;0,000000;0,000000;0,000000;0,000000;0,000000;0,000000;0,000000;0,000000;0,000000;0,000000;0,000000;0,000000;0,000000;0,000000;
45;;;;;;;;;;;;;;;;;;;;;;;;;;;;;;;;;;;;;;;;;;;;;1,000000;0,338734;0,339179;0,346372;0,638484;0,340470;0,267270;0,267445;0,341694;0,272513;0,272622;0,348463;0,269425;0,269585;0,228437;0,357389;0,344681;0,000000;0,000000;0,000000;0,276555;0,276642;0,626860;0,349421;0,000000;0,275963;0,357077;0,360433;0,360433;0,626860;0,358634;
46;;;;;;;;;;;;;;;;;;;;;;;;;;;;;;;;;;;;;;;;;;;;;;1,000000;1,000000;0,431385;0,340952;1,000000;0,832743;0,832743;1,000000;0,357526;0,357635;0,433476;0,835349;0,835349;0,313450;0,442402;1,000000;0,000000;0,000000;0,000000;0,361568;0,361655;0,711873;0,434434;0,000000;0,360976;0,442090;0,445446;0,445446;0,711873;0,443647;
47;;;;;;;;;;;;;;;;;;;;;;;;;;;;;;;;;;;;;;;;;;;;;;;1,000000;0,431831;0,341398;1,000000;0,832743;0,832743;1,000000;0,357972;0,358081;0,433921;0,835349;0,835349;0,313896;0,442848;1,000000;0,000000;0,000000;0,000000;0,362014;0,362100;0,712319;0,434880;0,000000;0,361421;0,442536;0,445892;0,445892;0,712319;0,444093;
48;;;;;;;;;;;;;;;;;;;;;;;;;;;;;;;;;;;;;;;;;;;;;;;;1,000000;0,348590;0,433121;0,359921;0,360097;0,434345;0,365164;0,365273;0,441114;0,362076;0,362236;0,321088;0,450040;0,437332;0,000000;0,000000;0,000000;0,369206;0,369293;0,719511;0,442072;0,000000;0,368614;0,449728;0,453084;0,453084;0,719511;0,451285;
49;;;;;;;;;;;;;;;;;;;;;;;;;;;;;;;;;;;;;;;;;;;;;;;;;1,000000;0,342688;0,269488;0,269664;0,343913;0,274731;0,274841;0,350681;0,271643;0,271804;0,230656;0,359607;0,346900;0,000000;0,000000;0,000000;0,278773;0,278860;0,629079;0,351640;0,000000;0,278181;0,359295;0,362652;0,362652;0,629079;0,360853;
50;;;;;;;;;;;;;;;;;;;;;;;;;;;;;;;;;;;;;;;;;;;;;;;;;;1,000000;0,832743;0,832743;1,000000;0,359262;0,359371;0,435212;0,835349;0,835349;0,315186;0,444138;1,000000;0,000000;0,000000;0,000000;0,363304;0,363391;0,713609;0,436170;0,000000;0,362712;0,443826;0,447182;0,447182;0,713609;0,445383;
51;;;;;;;;;;;;;;;;;;;;;;;;;;;;;;;;;;;;;;;;;;;;;;;;;;;1,000000;0,665487;0,832743;0,286062;0,286171;0,362012;0,668092;0,668092;0,241986;0,370938;0,832743;0,000000;0,000000;0,000000;0,290104;0,290191;0,640410;0,362971;0,000000;0,289512;0,370626;0,373983;0,373983;0,640410;0,372183;
52;;;;;;;;;;;;;;;;;;;;;;;;;;;;;;;;;;;;;;;;;;;;;;;;;;;;1,000000;0,832743;0,286238;0,286347;0,362187;0,668092;0,668092;0,242162;0,371114;0,832743;0,000000;0,000000;0,000000;0,290280;0,290366;0,640585;0,363146;0,000000;0,289687;0,370802;0,374158;0,374158;0,640585;0,372359;
53;;;;;;;;;;;;;;;;;;;;;;;;;;;;;;;;;;;;;;;;;;;;;;;;;;;;;1,000000;0,360486;0,360596;0,436436;0,835349;0,835349;0,316411;0,445363;1,000000;0,000000;0,000000;0,000000;0,364528;0,364615;0,714834;0,437395;0,000000;0,363936;0,445050;0,448407;0,448407;0,714834;0,446608;
54;;;;;;;;;;;;;;;;;;;;;;;;;;;;;;;;;;;;;;;;;;;;;;;;;;;;;;1,000000;0,765456;0,367255;0,288217;0,288377;0,247229;0,376181;0,363473;0,000000;0,000000;0,000000;0,295347;0,295434;0,645652;0,368213;0,000000;0,732392;0,375869;0,379225;0,379225;0,645652;0,377426;
55;;;;;;;;;;;;;;;;;;;;;;;;;;;;;;;;;;;;;;;;;;;;;;;;;;;;;;;1,000000;0,367364;0,288326;0,288487;0,247339;0,376290;0,363583;0,000000;0,000000;0,000000;0,295456;0,295543;0,645762;0,368323;0,000000;0,732762;0,375978;0,379335;0,379335;0,645762;0,377536;
56;;;;;;;;;;;;;;;;;;;;;;;;;;;;;;;;;;;;;;;;;;;;;;;;;;;;;;;;1,000000;0,364167;0,364327;0,619930;0,452131;0,439423;0,000000;0,000000;0,000000;0,371297;0,371384;0,721602;0,444163;0,000000;0,370705;0,451819;0,455175;0,455175;0,721602;0,453376;
57;;;;;;;;;;;;;;;;;;;;;;;;;;;;;;;;;;;;;;;;;;;;;;;;;;;;;;;;;1,000000;0,670698;0,244141;0,373093;0,835349;0,000000;0,000000;0,000000;0,292259;0,292346;0,642564;0,365125;0,000000;0,291667;0,372781;0,376137;0,376137;0,642564;0,374338;
58;;;;;;;;;;;;;;;;;;;;;;;;;;;;;;;;;;;;;;;;;;;;;;;;;;;;;;;;;;1,000000;0,244302;0,373254;0,835349;0,000000;0,000000;0,000000;0,292419;0,292506;0,642725;0,365286;0,000000;0,291827;0,372941;0,376298;0,376298;0,642725;0,374499;
59;;;;;;;;;;;;;;;;;;;;;;;;;;;;;;;;;;;;;;;;;;;;;;;;;;;;;;;;;;;1,000000;0,332106;0,319398;0,000000;0,000000;0,000000;0,251271;0,251358;0,601577;0,324138;0,000000;0,250679;0,331793;0,335150;0,335150;0,601577;0,333351;
60;;;;;;;;;;;;;;;;;;;;;;;;;;;;;;;;;;;;;;;;;;;;;;;;;;;;;;;;;;;;1,000000;0,448350;0,000000;0,000000;0,000000;0,752781;0,753005;0,730529;0,453090;0,000000;0,379631;0,460745;0,464102;0,464102;0,730529;0,462303;
61;;;;;;;;;;;;;;;;;;;;;;;;;;;;;;;;;;;;;;;;;;;;;;;;;;;;;;;;;;;;;1,000000;0,000000;0,000000;0,000000;0,367515;0,367602;0,717821;0,440382;0,000000;0,366923;0,448037;0,451394;0,451394;0,717821;0,449595;
62;;;;;;;;;;;;;;;;;;;;;;;;;;;;;;;;;;;;;;;;;;;;;;;;;;;;;;;;;;;;;;1,000000;0,776930;0,777215;0,000000;0,000000;0,000000;0,000000;0,000000;0,000000;0,000000;0,000000;0,000000;0,000000;0,000000;
63;;;;;;;;;;;;;;;;;;;;;;;;;;;;;;;;;;;;;;;;;;;;;;;;;;;;;;;;;;;;;;;1,000000;0,777498;0,000000;0,000000;0,000000;0,000000;0,000000;0,000000;0,000000;0,000000;0,000000;0,000000;0,000000;
64;;;;;;;;;;;;;;;;;;;;;;;;;;;;;;;;;;;;;;;;;;;;;;;;;;;;;;;;;;;;;;;;1,000000;0,000000;0,000000;0,000000;0,000000;0,000000;0,000000;0,000000;0,000000;0,000000;0,000000;0,000000;
65;;;;;;;;;;;;;;;;;;;;;;;;;;;;;;;;;;;;;;;;;;;;;;;;;;;;;;;;;;;;;;;;;1,000000;0,738269;0,649694;0,372255;0,000000;0,298797;0,379911;0,383267;0,383267;0,649694;0,869135;
66;;;;;;;;;;;;;;;;;;;;;;;;;;;;;;;;;;;;;;;;;;;;;;;;;;;;;;;;;;;;;;;;;;1,000000;0,649781;0,372342;0,000000;0,298884;0,379998;0,383354;0,383354;0,649781;0,869135;
67;;;;;;;;;;;;;;;;;;;;;;;;;;;;;;;;;;;;;;;;;;;;;;;;;;;;;;;;;;;;;;;;;;;1,000000;0,722561;0,000000;0,649102;0,730216;0,733573;0,733573;1,000000;0,731774;
68;;;;;;;;;;;;;;;;;;;;;;;;;;;;;;;;;;;;;;;;;;;;;;;;;;;;;;;;;;;;;;;;;;;;1,000000;0,000000;0,371663;0,452777;0,456134;0,456134;0,722561;0,454335;
69;;;;;;;;;;;;;;;;;;;;;;;;;;;;;;;;;;;;;;;;;;;;;;;;;;;;;;;;;;;;;;;;;;;;;1,000000;0,000000;0,000000;0,000000;0,000000;0,000000;0,000000;
70;;;;;;;;;;;;;;;;;;;;;;;;;;;;;;;;;;;;;;;;;;;;;;;;;;;;;;;;;;;;;;;;;;;;;;1,000000;0,379319;0,382675;0,382675;0,649102;0,380876;
71;;;;;;;;;;;;;;;;;;;;;;;;;;;;;;;;;;;;;;;;;;;;;;;;;;;;;;;;;;;;;;;;;;;;;;;1,000000;0,463789;0,463789;0,730216;0,461990;
72;;;;;;;;;;;;;;;;;;;;;;;;;;;;;;;;;;;;;;;;;;;;;;;;;;;;;;;;;;;;;;;;;;;;;;;;1,000000;0,467146;0,733573;0,465347;
73;;;;;;;;;;;;;;;;;;;;;;;;;;;;;;;;;;;;;;;;;;;;;;;;;;;;;;;;;;;;;;;;;;;;;;;;;1,000000;0,733573;0,465347;
74;;;;;;;;;;;;;;;;;;;;;;;;;;;;;;;;;;;;;;;;;;;;;;;;;;;;;;;;;;;;;;;;;;;;;;;;;;1,000000;0,731774;
75;;;;;;;;;;;;;;;;;;;;;;;;;;;;;;;;;;;;;;;;;;;;;;;;;;;;;;;;;;;;;;;;;;;;;;;;;;;1,000000;
