;1; 2; 3; 4; 5; 6; 7; 8; 9; 10; 11; 12; 13; 14; 15; 16; 17; 18; 19; 20; 21; 22; 23; 24; 25; 26; 27; 28; 29; 30; 31; 32; 33; 34; 35; 36; 37; 38; 39; 40; 41; 42; 43; 44; 45; 46; 47; 48; 49; 50; 51; 52; 53; 54; 55; 56; 57; 58; 59; 60; 61; 62; 63; 64; 65; 66; 67; 68; 69; 70; 71; 72; 73; 74; 75; 76; 77; 78; 79; 80; 81; 82; 83; 84; 85; 86; 87; 88; 89; 90; 91; 92; 93; 94; 95; 96; 97; 98; 99; 100; 101; 102; 103; 104; 105; 106; 107; 108; 109; 110
1;1,000000;0,271785;0,451412;0,435297;0,525997;0,278741;0,497705;0,425840;0,511112;0,468994;0,448701;0,457301;0,455059;0,446199;0,469824;0,369604;0,371613;0,044855;0,035534;0,055038;0,452730;0,393698;0,514820;0,396246;0,397411;0,000000;0,000000;0,000000;0,000000;0,478206;0,308404;0,423870;0,446741;0,449453;0,321228;0,322112;0,294232;0,227816;0,393930;0,228181;0,000000;0,438358;0,000000;0,000000;0,374645;0,363781;0,436822;0,319838;0,486890;0,487208;0,487518;0,487819;0,412024;0,522263;0,427692;0,427992;0,428285;0,368567;0,391826;0,468374;0,374213;0,000000;0,000000;0,372308;0,228642;0,228768;0,228894;0,229020;0,229145;0,319910;0,421924;0,435872;0,436069;0,436263;0,415918;0,000000;0,000000;0,000000;0,000000;0,000000;0,000000;0,000000;0,000000;0,000000;0,324996;0,454190;0,385407;0,385634;0,402206;0,504881;0,394401;0,416363;0,416569;0,467286;0,000000;0,263816;0,458231;0,458352;0,458471;0,458588;0,000000;0,000000;0,415872;0,503901;0,504027;0,504152;0,000000;0,000000;0,407303;0,274998;
2;;1,000000;0,407291;0,440724;0,380552;0,278738;0,455229;0,526684;0,486348;0,473496;0,354235;0,329657;0,315304;0,552920;0,483784;0,557110;0,559644;0,000000;0,000000;0,000000;0,342976;0,223420;0,441061;0,223900;0,224146;0,000000;0,000000;0,000000;0,000000;0,333510;0,000000;0,435238;0,626326;0,603028;0,332040;0,332040;0,293698;0,000000;0,069919;0,000000;0,000000;0,658190;0,000000;0,000000;0,468524;0,258736;0,369461;0,585463;0,355488;0,355647;0,355807;0,355967;0,222786;0,362011;0,225157;0,225324;0,225490;0,238146;0,249289;0,367990;0,267182;0,000000;0,000000;0,263228;0,086224;0,086312;0,086399;0,086486;0,086572;0,350281;0,271228;0,233727;0,233804;0,233881;0,268970;0,000000;0,000000;0,000000;0,000000;0,000000;0,000000;0,000000;0,000000;0,000000;0,353400;0,406354;0,355568;0,355568;0,758162;0,000000;0,487620;0,509061;0,509061;0,121513;0,000000;0,682938;0,214113;0,214180;0,214246;0,214312;0,000000;0,000000;0,495653;0,368575;0,368675;0,368774;0,000000;0,000000;0,758162;0,686972;
3;;;1,000000;0,472841;0,467771;0,326332;0,449202;0,417650;0,535019;0,364462;0,421688;0,256190;0,241837;0,638494;0,537720;0,158945;0,159767;0,046571;0,037250;0,090840;0,367114;0,152486;0,332028;0,152966;0,153212;0,000000;0,000000;0,000000;0,000000;0,260043;0,340597;0,361771;0,649771;0,493994;0,261106;0,261106;0,336416;0,000000;0,287875;0,000000;0,000000;0,549156;0,000000;0,000000;0,655325;0,187801;0,295994;0,655325;0,282021;0,282180;0,282340;0,282500;0,151852;0,383578;0,563218;0,563561;0,563896;0,167211;0,178355;0,294523;0,196248;0,000000;0,000000;0,192294;0,101774;0,101861;0,101948;0,102035;0,102121;0,279347;0,200293;0,162793;0,162870;0,162947;0,198036;0,000000;0,000000;0,000000;0,000000;0,000000;0,000000;0,000000;0,000000;0,000000;0,282466;0,332887;0,284634;0,284634;0,649128;0,000000;0,655325;0,410454;0,410454;0,458770;0,000000;0,584332;0,143179;0,143245;0,143312;0,143378;0,000000;0,000000;0,422186;0,295108;0,295208;0,295307;0,000000;0,000000;0,649128;0,613505;
4;;;;1,000000;0,561230;0,471751;0,552291;0,692678;0,573507;0,584865;0,513967;0,703612;0,626067;0,594600;0,716105;0,164516;0,165339;0,396650;0,294762;0,252576;0,536851;0,158058;0,365461;0,158537;0,158783;0,210834;0,211197;0,178927;0,146801;0,645242;0,512254;0,718200;0,660694;0,527428;0,266678;0,266678;0,499329;0,398072;0,412262;0,398072;0,000000;0,582590;0,363502;0,363502;0,455069;0,193373;0,356006;0,572008;0,342033;0,342193;0,342353;0,342513;0,157424;0,612822;0,333738;0,333855;0,333974;0,172783;0,183927;0,681334;0,412802;0,272262;0,226296;0,197866;0,248263;0,248389;0,248515;0,248641;0,248766;0,284919;0,205865;0,168365;0,168442;0,168519;0,203608;0,000000;0,000000;0,000000;0,000000;0,000000;0,000000;0,000000;0,000000;0,000000;0,288037;0,572717;0,290206;0,290206;0,682562;0,000000;0,474166;0,394519;0,394519;0,475837;0,000000;0,568396;0,148751;0,148817;0,148884;0,148950;0,196123;0,196195;0,753849;0,355121;0,355220;0,355319;0,285439;0,285439;0,682562;0,673518;
5;;;;;1,000000;0,324593;0,593443;0,490249;0,571506;0,531700;0,518967;0,518772;0,506429;0,534286;0,514328;0,399139;0,399139;0,052150;0,042829;0,063059;0,593104;0,222761;0,402522;0,223316;0,223606;0,000000;0,000000;0,000000;0,000000;0,530134;0,309124;0,473427;0,488522;0,485348;0,279866;0,279866;0,425797;0,388931;0,366129;0,388931;0,000000;0,461001;0,000000;0,000000;0,411589;0,583428;0,395893;0,355077;0,514035;0,514323;0,514603;0,514877;0,170611;0,577460;0,344532;0,344649;0,344768;0,346093;0,372620;0,479706;0,589008;0,000000;0,000000;0,583428;0,468284;0,468452;0,468617;0,468778;0,468936;0,298107;0,219053;0,181552;0,181630;0,181707;0,318964;0,000000;0,000000;0,000000;0,000000;0,000000;0,000000;0,000000;0,000000;0,000000;0,301225;0,488270;0,303394;0,303394;0,431124;0,000000;0,429920;0,447192;0,447192;0,436815;0,000000;0,621069;0,284188;0,284265;0,284343;0,284420;0,000000;0,000000;0,453136;0,515401;0,515522;0,515641;0,000000;0,000000;0,435997;0,292927;
6;;;;;;1,000000;0,389189;0,237031;0,522112;0,212656;0,437370;0,234450;0,220097;0,533040;0,447928;0,141310;0,142132;0,339705;0,281757;0,229802;0,382796;0,134851;0,232056;0,135331;0,135577;0,146297;0,146584;0,131305;0,116064;0,238304;0,282541;0,340031;0,301890;0,290103;0,243472;0,243472;0,352097;0,000000;0,222004;0,000000;0,000000;0,322505;0,220162;0,220391;0,671007;0,170167;0,274254;0,671007;0,260281;0,260440;0,260600;0,260761;0,134217;0,399259;0,385523;0,385640;0,385759;0,149577;0,160720;0,272783;0,178614;0,318794;0,272828;0,174660;0,109141;0,109229;0,109316;0,109403;0,109489;0,261713;0,182659;0,145158;0,145235;0,145313;0,180402;0,000000;0,000000;0,000000;0,000000;0,000000;0,000000;0,000000;0,000000;0,000000;0,264831;0,311147;0,267000;0,267000;0,393228;0,000000;0,671007;0,181307;0,181422;0,335459;0,000000;0,254158;0,125544;0,125611;0,125677;0,125743;0,242655;0,242727;0,400447;0,273368;0,273468;0,273567;0,331971;0,331971;0,397962;0,591766;
7;;;;;;;1,000000;0,525318;0,533236;0,583425;0,648954;0,610200;0,573076;0,600489;0,422689;0,168142;0,168964;0,051682;0,042361;0,036115;0,615459;0,161684;0,379966;0,162163;0,162409;0,000000;0,000000;0,000000;0,000000;0,624623;0,000000;0,527671;0,565231;0,541933;0,270304;0,270304;0,504298;0,000000;0,220632;0,000000;0,000000;0,597095;0,000000;0,000000;0,718182;0,196999;0,350107;0,718182;0,336133;0,336293;0,336453;0,336613;0,161049;0,667373;0,163420;0,163588;0,163753;0,176409;0,187552;0,545267;0,598152;0,000000;0,000000;0,201492;0,264387;0,264514;0,264640;0,264765;0,264891;0,288545;0,209491;0,171991;0,172068;0,172145;0,207234;0,000000;0,000000;0,000000;0,000000;0,000000;0,000000;0,000000;0,000000;0,000000;0,291663;0,736380;0,293832;0,293832;0,697067;0,000000;0,718182;0,412923;0,412923;0,334087;0,000000;0,586800;0,152377;0,152443;0,152509;0,152575;0,000000;0,000000;0,603542;0,349221;0,349320;0,349420;0,000000;0,000000;0,697067;0,667618;
8;;;;;;;;1,000000;0,572965;0,786242;0,485352;0,534346;0,503839;0,563280;0,494144;0,161351;0,162173;0,000000;0,000000;0,000000;0,527277;0,154893;0,451421;0,155372;0,155618;0,000000;0,000000;0,000000;0,000000;0,526399;0,000000;0,649682;0,636686;0,613388;0,263513;0,263513;0,251991;0,000000;0,112659;0,000000;0,000000;0,668550;0,000000;0,000000;0,426817;0,190208;0,327754;0,543756;0,313780;0,313940;0,314100;0,314260;0,154258;0,554850;0,156629;0,156797;0,156962;0,169618;0,180761;0,535861;0,198655;0,000000;0,000000;0,194701;0,128964;0,129052;0,129139;0,129226;0,129312;0,281754;0,202700;0,165200;0,165277;0,165354;0,200443;0,000000;0,000000;0,000000;0,000000;0,000000;0,000000;0,000000;0,000000;0,000000;0,284872;0,364646;0,287041;0,287041;0,768522;0,000000;0,445913;0,475214;0,475214;0,164253;0,000000;0,649091;0,145586;0,145652;0,145718;0,145784;0,000000;0,000000;0,680735;0,326868;0,326968;0,327067;0,000000;0,000000;0,768522;0,645265;
9;;;;;;;;;1,000000;0,629749;0,569892;0,499723;0,469216;0,579175;0,635726;0,419751;0,419751;0,031653;0,022332;0,016086;0,566977;0,250670;0,348479;0,251225;0,251515;0,000000;0,000000;0,000000;0,000000;0,491776;0,000000;0,615059;0,608253;0,590521;0,295799;0,295799;0,397323;0,000000;0,312390;0,000000;0,000000;0,551094;0,000000;0,000000;0,716232;0,427958;0,607881;0,716232;0,376704;0,376864;0,377024;0,377184;0,186545;0,586331;0,361570;0,361687;0,361805;0,374002;0,400529;0,501238;0,230942;0,000000;0,000000;0,432348;0,138554;0,138642;0,138729;0,138816;0,138902;0,314041;0,234987;0,197486;0,197563;0,197640;0,346873;0,000000;0,000000;0,000000;0,000000;0,000000;0,000000;0,000000;0,000000;0,000000;0,317159;0,427570;0,319328;0,319328;0,509652;0,000000;0,716232;0,487128;0,487320;0,483286;0,000000;0,306486;0,312097;0,312175;0,312252;0,312329;0,000000;0,000000;0,646112;0,529628;0,529682;0,529735;0,000000;0,000000;0,514385;0,708189;
10;;;;;;;;;;1,000000;0,429997;0,478990;0,448483;0,510091;0,440955;0,153426;0,154248;0,000000;0,000000;0,000000;0,471921;0,146967;0,398233;0,147447;0,147693;0,000000;0,000000;0,000000;0,000000;0,471044;0,000000;0,594326;0,583497;0,560200;0,255587;0,255587;0,227616;0,000000;0,105685;0,000000;0,000000;0,615362;0,000000;0,000000;0,402442;0,182283;0,303379;0,519381;0,289405;0,289565;0,289725;0,289885;0,146333;0,499495;0,148704;0,148871;0,149036;0,161692;0,172836;0,480506;0,190729;0,000000;0,000000;0,186775;0,121991;0,122078;0,122165;0,122252;0,122338;0,273828;0,194775;0,157274;0,157351;0,157428;0,192517;0,000000;0,000000;0,000000;0,000000;0,000000;0,000000;0,000000;0,000000;0,000000;0,276947;0,340271;0,279115;0,279115;0,715333;0,000000;0,421538;0,451968;0,451968;0,157279;0,000000;0,625845;0,137660;0,137726;0,137793;0,137859;0,000000;0,000000;0,625380;0,302493;0,302593;0,302692;0,000000;0,000000;0,715333;0,620890;
11;;;;;;;;;;;1,000000;0,595010;0,629183;0,476585;0,295746;0,170366;0,171188;0,080959;0,071638;0,065391;0,740312;0,163908;0,307553;0,164387;0,164633;0,000000;0,000000;0,000000;0,000000;0,649323;0,000000;0,587218;0,377387;0,365600;0,272528;0,272528;0,447454;0,269102;0,413210;0,269466;0,000000;0,398002;0,000000;0,000000;0,766363;0,199223;0,349751;0,766363;0,335778;0,335938;0,336098;0,336258;0,163273;0,660303;0,165644;0,165812;0,165977;0,178633;0,189776;0,473398;0,207670;0,000000;0,000000;0,203716;0,138694;0,138782;0,138869;0,138956;0,139042;0,290769;0,211715;0,174215;0,174292;0,174369;0,209458;0,000000;0,000000;0,000000;0,000000;0,000000;0,000000;0,000000;0,000000;0,000000;0,293887;0,386644;0,296056;0,296056;0,468726;0,000000;0,766363;0,210364;0,210479;0,374857;0,000000;0,283214;0,154601;0,154667;0,154733;0,154799;0,000000;0,000000;0,618272;0,348866;0,348965;0,349064;0,000000;0,000000;0,473459;0,667263;
12;;;;;;;;;;;;1,000000;0,678009;0,311241;0,271168;0,162072;0,162894;0,000000;0,000000;0,000000;0,587669;0,155614;0,282975;0,156093;0,156339;0,000000;0,000000;0,000000;0,000000;0,717867;0,000000;0,790825;0,352809;0,341021;0,264234;0,264234;0,388942;0,000000;0,114559;0,000000;0,000000;0,373423;0,000000;0,000000;0,424236;0,190929;0,325173;0,541175;0,311200;0,311359;0,311519;0,311679;0,154979;0,685447;0,157350;0,157518;0,157683;0,170339;0,181482;0,522391;0,199376;0,000000;0,000000;0,195422;0,282554;0,282680;0,282806;0,282932;0,283057;0,282475;0,203421;0,165920;0,165998;0,166075;0,201164;0,000000;0,000000;0,000000;0,000000;0,000000;0,000000;0,000000;0,000000;0,000000;0,285593;0,579091;0,287762;0,287762;0,444147;0,000000;0,443332;0,202070;0,202185;0,166153;0,000000;0,274920;0,146306;0,146373;0,146439;0,146505;0,000000;0,000000;0,667265;0,324287;0,324387;0,324486;0,000000;0,000000;0,448880;0,642684;
13;;;;;;;;;;;;;1,000000;0,296888;0,256814;0,157034;0,157856;0,000000;0,000000;0,000000;0,651220;0,150575;0,268622;0,151055;0,151301;0,000000;0,000000;0,000000;0,000000;0,745844;0,000000;0,605705;0,338456;0,326668;0,259195;0,259195;0,451100;0,000000;0,109750;0,000000;0,000000;0,359070;0,000000;0,000000;0,409883;0,185891;0,310820;0,526822;0,296847;0,297006;0,297166;0,297326;0,149941;0,510873;0,152312;0,152479;0,152645;0,165301;0,176444;0,491884;0,194337;0,000000;0,000000;0,190383;0,126055;0,126142;0,126230;0,126316;0,126402;0,277437;0,198383;0,160882;0,160959;0,161036;0,196125;0,000000;0,000000;0,000000;0,000000;0,000000;0,000000;0,000000;0,000000;0,000000;0,280555;0,347713;0,282723;0,282723;0,429794;0,000000;0,428979;0,197031;0,197146;0,161343;0,000000;0,269882;0,141268;0,141335;0,141401;0,141467;0,000000;0,000000;0,636758;0,309934;0,310034;0,310133;0,000000;0,000000;0,434527;0,628331;
14;;;;;;;;;;;;;;1,000000;0,693364;0,165847;0,166669;0,052414;0,043093;0,036847;0,422010;0,159388;0,477657;0,159868;0,160114;0,000000;0,000000;0,000000;0,000000;0,315095;0,000000;0,416823;0,662922;0,842484;0,268009;0,268009;0,516588;0,246675;0,375039;0,247052;0,000000;0,694786;0,000000;0,000000;0,710221;0,194704;0,351046;0,710221;0,337072;0,337232;0,337392;0,337552;0,158754;0,438474;0,347124;0,347241;0,347360;0,174114;0,185257;0,349574;0,203151;0,000000;0,000000;0,199197;0,147455;0,147543;0,147630;0,147717;0,147803;0,286250;0,207196;0,169695;0,169772;0,169850;0,204939;0,000000;0,000000;0,000000;0,000000;0,000000;0,000000;0,000000;0,000000;0,000000;0,289368;0,387938;0,291537;0,291537;0,794758;0,000000;0,710221;0,483248;0,483248;0,522264;0,000000;0,657125;0,150081;0,150148;0,150214;0,150280;0,000000;0,000000;0,477238;0,350160;0,350259;0,350358;0,000000;0,000000;0,794758;0,668557;
15;;;;;;;;;;;;;;;1,000000;0,157553;0,158376;0,000000;0,000000;0,000000;0,284487;0,151095;0,408521;0,151574;0,151820;0,000000;0,000000;0,000000;0,000000;0,275021;0,000000;0,376749;0,804617;0,570488;0,259715;0,259715;0,235209;0,000000;0,278635;0,000000;0,000000;0,625650;0,000000;0,000000;0,410035;0,186410;0,310972;0,526974;0,296998;0,297158;0,297318;0,297478;0,150461;0,303521;0,428151;0,428269;0,428387;0,165820;0,176964;0,309501;0,194857;0,000000;0,000000;0,190903;0,126802;0,126889;0,126976;0,127063;0,127149;0,277956;0,198902;0,161402;0,161479;0,161556;0,196645;0,000000;0,000000;0,000000;0,000000;0,000000;0,000000;0,000000;0,000000;0,000000;0,281075;0,347864;0,283243;0,283243;0,725622;0,000000;0,429131;0,460581;0,460581;0,394991;0,000000;0,634459;0,141788;0,141854;0,141921;0,141987;0,000000;0,000000;0,437164;0,310086;0,310186;0,310285;0,000000;0,000000;0,725622;0,628483;
16;;;;;;;;;;;;;;;;1,000000;0,639678;0,000000;0,000000;0,000000;0,164886;0,197335;0,217616;0,197814;0,198060;0,000000;0,000000;0,000000;0,000000;0,167025;0,000000;0,206324;0,192412;0,188083;0,305955;0,305955;0,150925;0,000000;0,000000;0,000000;0,000000;0,517024;0,000000;0,000000;0,221836;0,232650;0,231134;0,264307;0,177918;0,178067;0,178214;0,178360;0,196701;0,190786;0,199071;0,199239;0,199404;0,212060;0,223204;0,214880;0,241097;0,000000;0,000000;0,237143;0,000000;0,000000;0,000000;0,000000;0,000000;0,324196;0,245142;0,207642;0,207719;0,207796;0,242885;0,000000;0,000000;0,000000;0,000000;0,000000;0,000000;0,000000;0,000000;0,000000;0,327315;0,202111;0,329483;0,329483;0,236702;0,000000;0,236596;0,243791;0,243906;0,000000;0,000000;0,316641;0,188028;0,188094;0,188161;0,188227;0,000000;0,000000;0,241200;0,186538;0,186619;0,186699;0,000000;0,000000;0,240742;0,319016;
17;;;;;;;;;;;;;;;;;1,000000;0,000000;0,000000;0,000000;0,165709;0,198157;0,218438;0,198637;0,198883;0,000000;0,000000;0,000000;0,000000;0,167847;0,000000;0,207147;0,193235;0,188905;0,306777;0,306777;0,151747;0,000000;0,000000;0,000000;0,000000;0,517024;0,000000;0,000000;0,222659;0,233473;0,231956;0,265130;0,178740;0,178889;0,179036;0,179182;0,197523;0,191609;0,199894;0,200061;0,200226;0,212882;0,224026;0,215702;0,241919;0,000000;0,000000;0,237965;0,000000;0,000000;0,000000;0,000000;0,000000;0,325018;0,245964;0,208464;0,208541;0,208618;0,243707;0,000000;0,000000;0,000000;0,000000;0,000000;0,000000;0,000000;0,000000;0,000000;0,328137;0,202933;0,330305;0,330305;0,237525;0,000000;0,237418;0,244613;0,244728;0,000000;0,000000;0,317463;0,188850;0,188916;0,188983;0,189049;0,000000;0,000000;0,242022;0,187360;0,187441;0,187522;0,000000;0,000000;0,241564;0,319838;
18;;;;;;;;;;;;;;;;;;1,000000;0,409404;0,486615;0,065447;0,000000;0,000000;0,000000;0,000000;0,588117;0,588480;0,556211;0,524085;0,000000;0,428936;0,000000;0,000000;0,000000;0,000000;0,000000;0,089359;0,000000;0,092500;0,000000;0,000000;0,000000;0,635513;0,635927;0,171927;0,000000;0,000000;0,088194;0,000000;0,000000;0,000000;0,000000;0,000000;0,070521;0,000000;0,000000;0,000000;0,000000;0,000000;0,000000;0,000000;0,465189;0,419224;0,000000;0,000000;0,000000;0,000000;0,000000;0,000000;0,000000;0,000000;0,000000;0,000000;0,000000;0,000000;0,000000;0,000000;0,000000;0,000000;0,000000;0,000000;0,000000;0,000000;0,000000;0,000000;0,000000;0,000000;0,000000;0,000000;0,000000;0,188904;0,000000;0,000000;0,151671;0,000000;0,000000;0,000000;0,000000;0,000000;0,000000;0,389051;0,389122;0,000000;0,000000;0,000000;0,000000;0,478367;0,478367;0,000000;0,000000;
19;;;;;;;;;;;;;;;;;;;1,000000;0,597986;0,056126;0,000000;0,000000;0,000000;0,000000;0,716367;0,716955;0,699415;0,637433;0,000000;0,384503;0,000000;0,000000;0,000000;0,000000;0,000000;0,080038;0,000000;0,083179;0,000000;0,543454;0,000000;0,637674;0,637674;0,162606;0,000000;0,000000;0,078873;0,000000;0,000000;0,000000;0,000000;0,000000;0,061200;0,000000;0,000000;0,000000;0,000000;0,000000;0,000000;0,000000;0,420756;0,374790;0,000000;0,000000;0,000000;0,000000;0,000000;0,000000;0,000000;0,000000;0,000000;0,000000;0,000000;0,000000;0,000000;0,000000;0,000000;0,000000;0,000000;0,000000;0,000000;0,000000;0,000000;0,000000;0,000000;0,000000;0,000000;0,000000;0,000000;0,179583;0,000000;0,000000;0,142350;0,000000;0,000000;0,000000;0,000000;0,000000;0,000000;0,344617;0,344689;0,000000;0,000000;0,000000;0,000000;0,433933;0,433933;0,000000;0,000000;
20;;;;;;;;;;;;;;;;;;;;1,000000;0,049880;0,000000;0,000000;0,000000;0,000000;0,624839;0,625318;0,607601;0,545946;0,000000;0,329785;0,000000;0,000000;0,000000;0,000000;0,000000;0,073792;0,000000;0,076933;0,000000;0,510005;0,000000;0,521757;0,522095;0,156360;0,000000;0,000000;0,072627;0,000000;0,000000;0,000000;0,000000;0,000000;0,054954;0,000000;0,000000;0,000000;0,000000;0,000000;0,000000;0,000000;0,377119;0,495974;0,000000;0,000000;0,000000;0,000000;0,000000;0,000000;0,000000;0,000000;0,000000;0,000000;0,000000;0,000000;0,000000;0,000000;0,000000;0,000000;0,000000;0,000000;0,000000;0,000000;0,000000;0,000000;0,000000;0,000000;0,000000;0,000000;0,000000;0,173337;0,000000;0,000000;0,136104;0,000000;0,000000;0,000000;0,000000;0,000000;0,000000;0,490179;0,490305;0,000000;0,000000;0,000000;0,000000;0,428761;0,428902;0,000000;0,000000;
21;;;;;;;;;;;;;;;;;;;;;1,000000;0,158428;0,296294;0,158907;0,159153;0,000000;0,000000;0,000000;0,000000;0,671360;0,000000;0,714284;0,366128;0,354341;0,267048;0,267048;0,392880;0,000000;0,243009;0,000000;0,000000;0,386743;0,000000;0,000000;0,711789;0,193743;0,338492;0,711789;0,324519;0,324679;0,324839;0,324999;0,157794;0,657387;0,160164;0,160332;0,160497;0,173153;0,184297;0,710488;0,424957;0,000000;0,000000;0,198236;0,585860;0,585997;0,586131;0,586263;0,586393;0,285289;0,206235;0,168735;0,168812;0,168889;0,203978;0,000000;0,000000;0,000000;0,000000;0,000000;0,000000;0,000000;0,000000;0,000000;0,288408;0,551177;0,290576;0,290576;0,457467;0,000000;0,711789;0,204884;0,204999;0,356464;0,000000;0,277734;0,149121;0,149187;0,149254;0,149320;0,000000;0,000000;0,783003;0,337607;0,337706;0,337805;0,000000;0,000000;0,462200;0,656004;
22;;;;;;;;;;;;;;;;;;;;;;1,000000;0,567332;0,734367;0,735459;0,000000;0,000000;0,000000;0,000000;0,160566;0,000000;0,199866;0,185954;0,181624;0,299496;0,299496;0,144466;0,000000;0,000000;0,000000;0,000000;0,195542;0,000000;0,000000;0,215378;0,462164;0,458009;0,257849;0,171459;0,171608;0,171755;0,171901;0,804066;0,184328;0,192613;0,192780;0,192946;0,408208;0,434735;0,208421;0,234638;0,000000;0,000000;0,466554;0,000000;0,000000;0,000000;0,000000;0,000000;0,317737;0,238684;0,201183;0,201260;0,201337;0,381079;0,000000;0,000000;0,000000;0,000000;0,000000;0,000000;0,000000;0,000000;0,000000;0,320856;0,195652;0,323024;0,323024;0,230244;0,000000;0,230137;0,237332;0,237447;0,000000;0,000000;0,310183;0,346303;0,346380;0,346458;0,346535;0,000000;0,000000;0,234741;0,342351;0,342469;0,342587;0,000000;0,000000;0,234283;0,312557;
23;;;;;;;;;;;;;;;;;;;;;;;1,000000;0,568007;0,568331;0,000000;0,000000;0,000000;0,000000;0,286828;0,000000;0,388556;0,551063;0,527765;0,319777;0,319777;0,247016;0,000000;0,070566;0,000000;0,000000;0,582927;0,000000;0,000000;0,421842;0,512097;0,550826;0,538781;0,308806;0,308965;0,309125;0,309285;0,669737;0,315329;0,212894;0,213061;0,213226;0,528847;0,552976;0,321308;0,254919;0,000000;0,000000;0,517814;0,086871;0,086959;0,087046;0,087133;0,087219;0,338018;0,258964;0,221464;0,221541;0,221618;0,568806;0,000000;0,000000;0,000000;0,000000;0,000000;0,000000;0,000000;0,000000;0,000000;0,636705;0,359672;0,343305;0,343305;0,682899;0,546173;0,440938;0,482251;0,482251;0,122160;0,000000;0,656128;0,616512;0,616613;0,616714;0,616813;0,000000;0,000000;0,448971;0,610026;0,610134;0,610242;0,000000;0,000000;0,682899;0,640290;
24;;;;;;;;;;;;;;;;;;;;;;;;1,000000;0,737548;0,000000;0,000000;0,000000;0,000000;0,161046;0,000000;0,200345;0,186433;0,182104;0,299976;0,299976;0,144946;0,000000;0,000000;0,000000;0,000000;0,196021;0,000000;0,000000;0,215858;0,462719;0,458564;0,258328;0,171939;0,172088;0,172235;0,172381;0,805214;0,184807;0,193092;0,193260;0,193425;0,408763;0,435290;0,208901;0,235118;0,000000;0,000000;0,467110;0,000000;0,000000;0,000000;0,000000;0,000000;0,318217;0,239163;0,201663;0,201740;0,201817;0,381635;0,000000;0,000000;0,000000;0,000000;0,000000;0,000000;0,000000;0,000000;0,000000;0,321336;0,196132;0,323504;0,323504;0,230723;0,000000;0,230617;0,237812;0,237927;0,000000;0,000000;0,310662;0,346859;0,346936;0,347013;0,347091;0,000000;0,000000;0,235221;0,342906;0,343025;0,343143;0,000000;0,000000;0,234763;0,313037;
25;;;;;;;;;;;;;;;;;;;;;;;;;1,000000;0,000000;0,000000;0,000000;0,000000;0,161292;0,000000;0,200591;0,186679;0,182350;0,300222;0,300222;0,145192;0,000000;0,000000;0,000000;0,000000;0,196267;0,000000;0,000000;0,216104;0,463009;0,458854;0,258574;0,172185;0,172334;0,172481;0,172627;0,805768;0,185053;0,193338;0,193506;0,193671;0,409053;0,435580;0,209147;0,235364;0,000000;0,000000;0,467400;0,000000;0,000000;0,000000;0,000000;0,000000;0,318463;0,239409;0,201909;0,201986;0,202063;0,381925;0,000000;0,000000;0,000000;0,000000;0,000000;0,000000;0,000000;0,000000;0,000000;0,321582;0,196378;0,323750;0,323750;0,230969;0,000000;0,230863;0,238058;0,238173;0,000000;0,000000;0,310908;0,347149;0,347226;0,347303;0,347381;0,000000;0,000000;0,235467;0,343196;0,343315;0,343433;0,000000;0,000000;0,235009;0,313283;
26;;;;;;;;;;;;;;;;;;;;;;;;;;1,000000;0,815719;0,797719;0,733936;0,000000;0,326660;0,000000;0,000000;0,000000;0,000000;0,000000;0,000000;0,000000;0,000000;0,000000;0,659756;0,000000;0,264281;0,264511;0,000000;0,000000;0,000000;0,000000;0,000000;0,000000;0,000000;0,000000;0,000000;0,000000;0,000000;0,000000;0,000000;0,000000;0,000000;0,000000;0,000000;0,362913;0,316948;0,000000;0,000000;0,000000;0,000000;0,000000;0,000000;0,000000;0,000000;0,000000;0,000000;0,000000;0,000000;0,000000;0,000000;0,000000;0,000000;0,000000;0,000000;0,000000;0,000000;0,000000;0,000000;0,000000;0,000000;0,000000;0,000000;0,000000;0,000000;0,000000;0,000000;0,000000;0,000000;0,000000;0,000000;0,000000;0,000000;0,000000;0,286774;0,286846;0,000000;0,000000;0,000000;0,000000;0,376090;0,376090;0,000000;0,000000;
27;;;;;;;;;;;;;;;;;;;;;;;;;;;1,000000;0,798329;0,734441;0,000000;0,326947;0,000000;0,000000;0,000000;0,000000;0,000000;0,000000;0,000000;0,000000;0,000000;0,660228;0,000000;0,264568;0,264798;0,000000;0,000000;0,000000;0,000000;0,000000;0,000000;0,000000;0,000000;0,000000;0,000000;0,000000;0,000000;0,000000;0,000000;0,000000;0,000000;0,000000;0,363201;0,317235;0,000000;0,000000;0,000000;0,000000;0,000000;0,000000;0,000000;0,000000;0,000000;0,000000;0,000000;0,000000;0,000000;0,000000;0,000000;0,000000;0,000000;0,000000;0,000000;0,000000;0,000000;0,000000;0,000000;0,000000;0,000000;0,000000;0,000000;0,000000;0,000000;0,000000;0,000000;0,000000;0,000000;0,000000;0,000000;0,000000;0,000000;0,287062;0,287134;0,000000;0,000000;0,000000;0,000000;0,376378;0,376378;0,000000;0,000000;
28;;;;;;;;;;;;;;;;;;;;;;;;;;;;1,000000;0,814812;0,000000;0,311669;0,000000;0,000000;0,000000;0,000000;0,000000;0,000000;0,000000;0,000000;0,000000;0,503721;0,000000;0,249289;0,249519;0,000000;0,000000;0,000000;0,000000;0,000000;0,000000;0,000000;0,000000;0,000000;0,000000;0,000000;0,000000;0,000000;0,000000;0,000000;0,000000;0,000000;0,347922;0,301956;0,000000;0,000000;0,000000;0,000000;0,000000;0,000000;0,000000;0,000000;0,000000;0,000000;0,000000;0,000000;0,000000;0,000000;0,000000;0,000000;0,000000;0,000000;0,000000;0,000000;0,000000;0,000000;0,000000;0,000000;0,000000;0,000000;0,000000;0,000000;0,000000;0,000000;0,000000;0,563255;0,000000;0,000000;0,000000;0,000000;0,000000;0,271783;0,271855;0,000000;0,000000;0,000000;0,000000;0,361099;0,361099;0,000000;0,000000;
29;;;;;;;;;;;;;;;;;;;;;;;;;;;;;1,000000;0,000000;0,296427;0,000000;0,000000;0,000000;0,000000;0,000000;0,000000;0,000000;0,000000;0,000000;0,228432;0,000000;0,234048;0,234278;0,000000;0,000000;0,000000;0,000000;0,000000;0,000000;0,000000;0,000000;0,000000;0,000000;0,000000;0,000000;0,000000;0,000000;0,000000;0,000000;0,000000;0,332680;0,286715;0,000000;0,000000;0,000000;0,000000;0,000000;0,000000;0,000000;0,000000;0,000000;0,000000;0,000000;0,000000;0,000000;0,000000;0,000000;0,000000;0,000000;0,000000;0,000000;0,000000;0,000000;0,000000;0,000000;0,000000;0,000000;0,000000;0,000000;0,000000;0,000000;0,000000;0,000000;0,683833;0,000000;0,000000;0,000000;0,000000;0,000000;0,256542;0,256613;0,000000;0,000000;0,000000;0,000000;0,345858;0,345858;0,000000;0,000000;
30;;;;;;;;;;;;;;;;;;;;;;;;;;;;;;1,000000;0,000000;0,812734;0,356662;0,344875;0,269186;0,269186;0,253264;0,000000;0,120816;0,000000;0,000000;0,377277;0,000000;0,000000;0,428089;0,195882;0,329027;0,545028;0,315053;0,315213;0,315373;0,315533;0,159932;0,707356;0,162303;0,162470;0,162636;0,175292;0,186435;0,514445;0,204328;0,000000;0,000000;0,200374;0,324669;0,324796;0,324922;0,325047;0,325173;0,287427;0,208374;0,170873;0,170950;0,171027;0,206116;0,000000;0,000000;0,000000;0,000000;0,000000;0,000000;0,000000;0,000000;0,000000;0,290546;0,617082;0,292714;0,292714;0,448001;0,000000;0,447186;0,207022;0,207137;0,172410;0,000000;0,279872;0,151259;0,151326;0,151392;0,151458;0,000000;0,000000;0,659319;0,328141;0,328240;0,328339;0,000000;0,000000;0,452734;0,646538;
31;;;;;;;;;;;;;;;;;;;;;;;;;;;;;;;1,000000;0,000000;0,000000;0,000000;0,000000;0,000000;0,000000;0,000000;0,000000;0,000000;0,000000;0,000000;0,400525;0,400755;0,000000;0,000000;0,000000;0,000000;0,000000;0,000000;0,000000;0,000000;0,000000;0,000000;0,000000;0,000000;0,000000;0,000000;0,000000;0,000000;0,000000;0,499157;0,453192;0,000000;0,000000;0,000000;0,000000;0,000000;0,000000;0,000000;0,000000;0,000000;0,000000;0,000000;0,000000;0,000000;0,000000;0,000000;0,000000;0,000000;0,000000;0,000000;0,000000;0,000000;0,000000;0,000000;0,000000;0,000000;0,000000;0,000000;0,000000;0,000000;0,000000;0,000000;0,000000;0,000000;0,000000;0,000000;0,000000;0,000000;0,423019;0,423091;0,000000;0,000000;0,000000;0,000000;0,512335;0,512335;0,000000;0,000000;
32;;;;;;;;;;;;;;;;;;;;;;;;;;;;;;;;1,000000;0,458390;0,446603;0,308486;0,308486;0,354992;0,000000;0,160618;0,000000;0,000000;0,479005;0,000000;0,000000;0,529817;0,235181;0,430754;0,646756;0,416781;0,416941;0,417101;0,417261;0,199232;0,780314;0,201602;0,201770;0,201935;0,214591;0,225735;0,637727;0,243628;0,000000;0,000000;0,239674;0,320162;0,320288;0,320414;0,320540;0,320666;0,326727;0,247673;0,210173;0,210250;0,210327;0,245416;0,000000;0,000000;0,000000;0,000000;0,000000;0,000000;0,000000;0,000000;0,000000;0,329846;0,672654;0,332014;0,332014;0,549729;0,000000;0,548914;0,246322;0,246437;0,212212;0,000000;0,319172;0,190559;0,190625;0,190692;0,190758;0,000000;0,000000;0,782601;0,429869;0,429968;0,430067;0,000000;0,000000;0,554462;0,748266;
33;;;;;;;;;;;;;;;;;;;;;;;;;;;;;;;;;1,000000;0,713030;0,294574;0,294574;0,316850;0,000000;0,295697;0,000000;0,000000;0,768192;0,000000;0,000000;0,491676;0,221269;0,392613;0,608615;0,378639;0,378799;0,378959;0,379119;0,185320;0,385163;0,187690;0,187858;0,188023;0,200679;0,211823;0,391142;0,229716;0,000000;0,000000;0,225762;0,162962;0,163050;0,163137;0,163224;0,163310;0,312815;0,233761;0,196261;0,196338;0,196415;0,231504;0,000000;0,000000;0,000000;0,000000;0,000000;0,000000;0,000000;0,000000;0,000000;0,315934;0,429505;0,318102;0,318102;0,868164;0,000000;0,510772;0,544264;0,544264;0,412053;0,000000;0,718141;0,176647;0,176713;0,176780;0,176846;0,000000;0,000000;0,518805;0,391727;0,391827;0,391926;0,000000;0,000000;0,868164;0,710124;
34;;;;;;;;;;;;;;;;;;;;;;;;;;;;;;;;;;1,000000;0,290245;0,290245;0,305063;0,000000;0,142314;0,000000;0,000000;0,744894;0,000000;0,000000;0,479889;0,216940;0,380826;0,596827;0,366852;0,367012;0,367172;0,367332;0,180990;0,373375;0,183361;0,183528;0,183694;0,196350;0,207493;0,379355;0,225387;0,000000;0,000000;0,221433;0,158619;0,158707;0,158794;0,158881;0,158967;0,308486;0,229432;0,191931;0,192008;0,192086;0,227175;0,000000;0,000000;0,000000;0,000000;0,000000;0,000000;0,000000;0,000000;0,000000;0,311604;0,417718;0,313773;0,313773;0,844866;0,000000;0,498985;0,532591;0,532591;0,193908;0,000000;0,706468;0,172317;0,172384;0,172450;0,172516;0,000000;0,000000;0,507018;0,379940;0,380039;0,380139;0,000000;0,000000;0,844866;0,698337;
35;;;;;;;;;;;;;;;;;;;;;;;;;;;;;;;;;;;1,000000;0,408116;0,253086;0,000000;0,000000;0,000000;0,000000;0,304162;0,000000;0,000000;0,323998;0,334812;0,333296;0,366469;0,280080;0,280228;0,280375;0,280521;0,298862;0,292948;0,301233;0,301400;0,301566;0,314222;0,325365;0,317041;0,343258;0,000000;0,000000;0,339304;0,000000;0,000000;0,000000;0,000000;0,000000;0,426358;0,347304;0,309803;0,309880;0,309957;0,345047;0,000000;0,000000;0,000000;0,000000;0,000000;0,000000;0,000000;0,000000;0,000000;0,429476;0,304272;0,431645;0,431645;0,338864;0,000000;0,338757;0,345952;0,346067;0,000000;0,000000;0,418803;0,290189;0,290256;0,290322;0,290388;0,000000;0,000000;0,343362;0,288699;0,288780;0,288861;0,000000;0,000000;0,342903;0,421177;
36;;;;;;;;;;;;;;;;;;;;;;;;;;;;;;;;;;;;1,000000;0,253086;0,000000;0,000000;0,000000;0,000000;0,304162;0,000000;0,000000;0,323998;0,334812;0,333296;0,366469;0,280080;0,280228;0,280375;0,280521;0,298862;0,292948;0,301233;0,301400;0,301566;0,314222;0,325365;0,317041;0,343258;0,000000;0,000000;0,339304;0,000000;0,000000;0,000000;0,000000;0,000000;0,426358;0,347304;0,309803;0,309880;0,309957;0,345047;0,000000;0,000000;0,000000;0,000000;0,000000;0,000000;0,000000;0,000000;0,000000;0,429476;0,304272;0,431645;0,431645;0,338864;0,000000;0,338757;0,345952;0,346067;0,000000;0,000000;0,418803;0,290189;0,290256;0,290322;0,290388;0,000000;0,000000;0,343362;0,288699;0,288780;0,288861;0,000000;0,000000;0,342903;0,421177;
37;;;;;;;;;;;;;;;;;;;;;;;;;;;;;;;;;;;;;1,000000;0,610185;0,673342;0,610798;0,000000;0,337465;0,000000;0,000000;0,681091;0,179782;0,289215;0,681091;0,275241;0,275401;0,275561;0,275721;0,143832;0,409343;0,146203;0,146370;0,146536;0,159192;0,170335;0,287744;0,188228;0,000000;0,000000;0,184274;0,120749;0,120836;0,120924;0,121010;0,121096;0,271328;0,192274;0,154773;0,154850;0,154927;0,190016;0,000000;0,000000;0,000000;0,000000;0,000000;0,000000;0,000000;0,000000;0,000000;0,274446;0,326107;0,276615;0,276615;0,408189;0,000000;0,681091;0,190922;0,191037;0,606066;0,000000;0,263773;0,135159;0,135226;0,135292;0,135358;0,000000;0,000000;0,415407;0,288329;0,288429;0,288528;0,000000;0,000000;0,412922;0,606726;
38;;;;;;;;;;;;;;;;;;;;;;;;;;;;;;;;;;;;;;1,000000;0,618924;0,767535;0,000000;0,000000;0,000000;0,000000;0,000000;0,000000;0,000000;0,000000;0,000000;0,000000;0,000000;0,000000;0,000000;0,000000;0,000000;0,000000;0,000000;0,000000;0,000000;0,000000;0,000000;0,000000;0,000000;0,000000;0,000000;0,000000;0,000000;0,000000;0,000000;0,000000;0,000000;0,000000;0,000000;0,000000;0,000000;0,000000;0,000000;0,000000;0,000000;0,000000;0,000000;0,000000;0,000000;0,000000;0,000000;0,000000;0,000000;0,000000;0,000000;0,000000;0,000000;0,000000;0,000000;0,409791;0,000000;0,000000;0,000000;0,000000;0,000000;0,000000;0,000000;0,000000;0,000000;0,000000;0,000000;0,000000;0,000000;0,000000;0,000000;0,000000;
39;;;;;;;;;;;;;;;;;;;;;;;;;;;;;;;;;;;;;;;1,000000;0,619525;0,000000;0,156640;0,000000;0,000000;0,419842;0,000000;0,094215;0,365035;0,132247;0,132409;0,132570;0,132728;0,000000;0,242865;0,000000;0,000000;0,000000;0,000000;0,000000;0,109120;0,000000;0,000000;0,000000;0,000000;0,123420;0,123508;0,123595;0,123682;0,123768;0,000000;0,000000;0,000000;0,000000;0,000000;0,000000;0,000000;0,000000;0,000000;0,000000;0,000000;0,000000;0,000000;0,000000;0,000000;0,000000;0,157245;0,000000;0,000000;0,192480;0,000000;0,439597;0,000000;0,000000;0,583763;0,000000;0,000000;0,000000;0,000000;0,000000;0,000000;0,000000;0,000000;0,197133;0,141345;0,141430;0,141515;0,000000;0,000000;0,196700;0,275451;
40;;;;;;;;;;;;;;;;;;;;;;;;;;;;;;;;;;;;;;;;1,000000;0,000000;0,000000;0,000000;0,000000;0,000000;0,000000;0,000000;0,000000;0,000000;0,000000;0,000000;0,000000;0,000000;0,000000;0,000000;0,000000;0,000000;0,000000;0,000000;0,000000;0,000000;0,000000;0,000000;0,000000;0,000000;0,000000;0,000000;0,000000;0,000000;0,000000;0,000000;0,000000;0,000000;0,000000;0,000000;0,000000;0,000000;0,000000;0,000000;0,000000;0,000000;0,000000;0,000000;0,000000;0,000000;0,000000;0,000000;0,000000;0,000000;0,000000;0,000000;0,000000;0,000000;0,410168;0,000000;0,000000;0,000000;0,000000;0,000000;0,000000;0,000000;0,000000;0,000000;0,000000;0,000000;0,000000;0,000000;0,000000;0,000000;0,000000;
41;;;;;;;;;;;;;;;;;;;;;;;;;;;;;;;;;;;;;;;;;1,000000;0,000000;0,000000;0,000000;0,000000;0,000000;0,000000;0,000000;0,000000;0,000000;0,000000;0,000000;0,000000;0,000000;0,000000;0,000000;0,000000;0,000000;0,000000;0,000000;0,000000;0,000000;0,000000;0,000000;0,000000;0,000000;0,000000;0,000000;0,000000;0,000000;0,000000;0,000000;0,000000;0,000000;0,000000;0,000000;0,000000;0,000000;0,000000;0,000000;0,000000;0,000000;0,000000;0,000000;0,000000;0,000000;0,000000;0,000000;0,000000;0,000000;0,000000;0,000000;0,000000;0,000000;0,000000;0,000000;0,000000;0,000000;0,000000;0,000000;0,000000;0,000000;0,000000;0,000000;0,000000;0,000000;0,000000;0,000000;0,000000;0,000000;
42;;;;;;;;;;;;;;;;;;;;;;;;;;;;;;;;;;;;;;;;;;1,000000;0,000000;0,000000;0,512290;0,230857;0,413228;0,629229;0,399254;0,399414;0,399574;0,399734;0,194907;0,405777;0,197278;0,197446;0,197611;0,210267;0,221411;0,411757;0,239304;0,000000;0,000000;0,235350;0,172945;0,173032;0,173120;0,173206;0,173292;0,322403;0,243349;0,205849;0,205926;0,206003;0,241092;0,000000;0,000000;0,000000;0,000000;0,000000;0,000000;0,000000;0,000000;0,000000;0,325521;0,450120;0,327690;0,327690;0,900028;0,000000;0,531387;0,565281;0,565281;0,208233;0,000000;0,739159;0,186235;0,186301;0,186367;0,186433;0,000000;0,000000;0,539420;0,412342;0,412441;0,412540;0,000000;0,000000;0,900028;0,730739;
43;;;;;;;;;;;;;;;;;;;;;;;;;;;;;;;;;;;;;;;;;;;1,000000;0,706415;0,000000;0,000000;0,000000;0,000000;0,000000;0,000000;0,000000;0,000000;0,000000;0,000000;0,000000;0,000000;0,000000;0,000000;0,000000;0,000000;0,000000;0,436778;0,390812;0,000000;0,000000;0,000000;0,000000;0,000000;0,000000;0,000000;0,000000;0,000000;0,000000;0,000000;0,000000;0,000000;0,000000;0,000000;0,000000;0,000000;0,000000;0,000000;0,000000;0,000000;0,000000;0,000000;0,000000;0,000000;0,000000;0,000000;0,000000;0,000000;0,000000;0,000000;0,000000;0,000000;0,000000;0,000000;0,000000;0,000000;0,360639;0,360711;0,000000;0,000000;0,000000;0,000000;0,449955;0,449955;0,000000;0,000000;
44;;;;;;;;;;;;;;;;;;;;;;;;;;;;;;;;;;;;;;;;;;;;1,000000;0,000000;0,000000;0,000000;0,000000;0,000000;0,000000;0,000000;0,000000;0,000000;0,000000;0,000000;0,000000;0,000000;0,000000;0,000000;0,000000;0,000000;0,437008;0,391042;0,000000;0,000000;0,000000;0,000000;0,000000;0,000000;0,000000;0,000000;0,000000;0,000000;0,000000;0,000000;0,000000;0,000000;0,000000;0,000000;0,000000;0,000000;0,000000;0,000000;0,000000;0,000000;0,000000;0,000000;0,000000;0,000000;0,000000;0,000000;0,000000;0,000000;0,000000;0,000000;0,000000;0,000000;0,000000;0,000000;0,000000;0,360869;0,360941;0,000000;0,000000;0,000000;0,000000;0,450185;0,450185;0,000000;0,000000;
45;;;;;;;;;;;;;;;;;;;;;;;;;;;;;;;;;;;;;;;;;;;;;1,000000;0,250693;0,464040;1,000000;0,450067;0,450226;0,450386;0,450546;0,214744;0,728252;0,217114;0,217282;0,217447;0,230103;0,241247;0,462569;0,259140;0,000000;0,000000;0,255186;0,193065;0,193152;0,193239;0,193326;0,193412;0,342239;0,263185;0,225685;0,225762;0,225839;0,260928;0,000000;0,000000;0,000000;0,000000;0,000000;0,000000;0,000000;0,000000;0,000000;0,345358;0,500933;0,347526;0,347526;0,583014;0,000000;1,000000;0,261834;0,261949;0,533296;0,000000;0,334684;0,206071;0,206137;0,206204;0,206270;0,000000;0,000000;0,590233;0,463154;0,463254;0,463353;0,000000;0,000000;0,587747;0,781551;
46;;;;;;;;;;;;;;;;;;;;;;;;;;;;;;;;;;;;;;;;;;;;;;1,000000;0,635297;0,293164;0,206775;0,206924;0,207071;0,207216;0,225558;0,219643;0,227928;0,228096;0,228261;0,585496;0,612023;0,243737;0,269954;0,000000;0,000000;1,000000;0,000000;0,000000;0,000000;0,000000;0,000000;0,353053;0,273999;0,236499;0,236576;0,236653;0,558367;0,000000;0,000000;0,000000;0,000000;0,000000;0,000000;0,000000;0,000000;0,000000;0,356172;0,230968;0,358340;0,358340;0,265559;0,000000;0,265453;0,272648;0,272763;0,000000;0,000000;0,345498;0,523591;0,523669;0,523746;0,523823;0,000000;0,000000;0,270057;0,519639;0,519757;0,519875;0,000000;0,000000;0,269599;0,347873;
47;;;;;;;;;;;;;;;;;;;;;;;;;;;;;;;;;;;;;;;;;;;;;;;1,000000;0,580979;0,351004;0,351163;0,351323;0,351484;0,224041;0,357527;0,226412;0,226579;0,226745;0,581340;0,607868;0,363506;0,268438;0,000000;0,000000;0,639687;0,110520;0,110608;0,110695;0,110781;0,110868;0,351537;0,272483;0,234982;0,235059;0,235137;0,554212;0,000000;0,000000;0,000000;0,000000;0,000000;0,000000;0,000000;0,000000;0,000000;0,354655;0,401870;0,356824;0,356824;0,483951;0,000000;0,483136;0,271131;0,271246;0,145809;0,000000;0,343982;0,519436;0,519513;0,519591;0,519668;0,000000;0,000000;0,491170;0,677997;0,678050;0,678104;0,000000;0,000000;0,488685;0,682489;
48;;;;;;;;;;;;;;;;;;;;;;;;;;;;;;;;;;;;;;;;;;;;;;;;1,000000;0,567006;0,567165;0,567325;0,567485;0,257214;0,728252;0,259585;0,259753;0,259918;0,272574;0,283718;0,579508;0,301611;0,000000;0,000000;0,297657;0,235720;0,235808;0,235895;0,235982;0,236068;0,384710;0,305656;0,268156;0,268233;0,268310;0,303399;0,000000;0,000000;0,000000;0,000000;0,000000;0,000000;0,000000;0,000000;0,000000;0,387828;0,617872;0,389997;0,389997;0,699953;0,000000;1,000000;0,304305;0,304420;0,478489;0,000000;0,377155;0,248542;0,248608;0,248674;0,248740;0,000000;0,000000;0,707171;0,580093;0,580193;0,580292;0,000000;0,000000;0,704686;0,898490;
49;;;;;;;;;;;;;;;;;;;;;;;;;;;;;;;;;;;;;;;;;;;;;;;;;1,000000;0,846462;0,846746;0,847026;0,170825;0,343554;0,173196;0,173363;0,173529;0,186185;0,197328;0,349533;0,215222;0,000000;0,000000;0,211268;0,148552;0,148640;0,148727;0,148813;0,148900;0,298321;0,219267;0,181766;0,181843;0,181921;0,217010;0,000000;0,000000;0,000000;0,000000;0,000000;0,000000;0,000000;0,000000;0,000000;0,301439;0,387896;0,303608;0,303608;0,469978;0,000000;0,469163;0,217915;0,218030;0,183840;0,000000;0,290766;0,162152;0,162219;0,162285;0,162351;0,000000;0,000000;0,477196;0,350118;0,350218;0,350317;0,000000;0,000000;0,474711;0,668515;
50;;;;;;;;;;;;;;;;;;;;;;;;;;;;;;;;;;;;;;;;;;;;;;;;;;1,000000;0,847026;0,847302;0,170974;0,343713;0,173345;0,173512;0,173678;0,186334;0,197477;0,349692;0,215370;0,000000;0,000000;0,211416;0,148714;0,148802;0,148889;0,148976;0,149062;0,298469;0,219416;0,181915;0,181992;0,182069;0,217158;0,000000;0,000000;0,000000;0,000000;0,000000;0,000000;0,000000;0,000000;0,000000;0,301588;0,388056;0,303756;0,303756;0,470138;0,000000;0,469323;0,218064;0,218179;0,184003;0,000000;0,290915;0,162301;0,162368;0,162434;0,162500;0,000000;0,000000;0,477356;0,350278;0,350377;0,350476;0,000000;0,000000;0,474871;0,668675;
51;;;;;;;;;;;;;;;;;;;;;;;;;;;;;;;;;;;;;;;;;;;;;;;;;;;1,000000;0,847574;0,171121;0,343873;0,173492;0,173659;0,173825;0,186481;0,197624;0,349852;0,215518;0,000000;0,000000;0,211564;0,148875;0,148962;0,149050;0,149136;0,149222;0,298617;0,219563;0,182062;0,182139;0,182216;0,217306;0,000000;0,000000;0,000000;0,000000;0,000000;0,000000;0,000000;0,000000;0,000000;0,301735;0,388216;0,303904;0,303904;0,470298;0,000000;0,469483;0,218211;0,218326;0,184163;0,000000;0,291062;0,162448;0,162515;0,162581;0,162647;0,000000;0,000000;0,477516;0,350438;0,350537;0,350636;0,000000;0,000000;0,475031;0,668835;
52;;;;;;;;;;;;;;;;;;;;;;;;;;;;;;;;;;;;;;;;;;;;;;;;;;;;1,000000;0,171267;0,344033;0,173638;0,173805;0,173970;0,186626;0,197770;0,350013;0,215663;0,000000;0,000000;0,211709;0,149033;0,149121;0,149208;0,149294;0,149381;0,298762;0,219708;0,182208;0,182285;0,182362;0,217451;0,000000;0,000000;0,000000;0,000000;0,000000;0,000000;0,000000;0,000000;0,000000;0,301881;0,388376;0,304049;0,304049;0,470458;0,000000;0,469643;0,218357;0,218472;0,184322;0,000000;0,291207;0,162594;0,162660;0,162727;0,162793;0,000000;0,000000;0,477676;0,350598;0,350697;0,350797;0,000000;0,000000;0,475191;0,668995;
53;;;;;;;;;;;;;;;;;;;;;;;;;;;;;;;;;;;;;;;;;;;;;;;;;;;;;1,000000;0,183694;0,191979;0,192146;0,192311;0,204967;0,216111;0,207787;0,234004;0,000000;0,000000;0,230050;0,000000;0,000000;0,000000;0,000000;0,000000;0,317103;0,238049;0,200549;0,200626;0,200703;0,235792;0,000000;0,000000;0,000000;0,000000;0,000000;0,000000;0,000000;0,000000;0,000000;0,320222;0,195018;0,322390;0,322390;0,229610;0,000000;0,229503;0,236698;0,236813;0,000000;0,000000;0,309548;0,180935;0,181001;0,181068;0,181134;0,000000;0,000000;0,234107;0,179445;0,179526;0,179607;0,000000;0,000000;0,233649;0,311923;
54;;;;;;;;;;;;;;;;;;;;;;;;;;;;;;;;;;;;;;;;;;;;;;;;;;;;;;1,000000;0,186064;0,186232;0,186397;0,199053;0,210197;0,695861;0,520120;0,000000;0,000000;0,224136;0,284678;0,284804;0,284930;0,285056;0,285181;0,311189;0,232135;0,194635;0,194712;0,194789;0,229878;0,000000;0,000000;0,000000;0,000000;0,000000;0,000000;0,000000;0,000000;0,000000;0,314307;0,592860;0,316476;0,316476;0,476501;0,000000;0,728252;0,230784;0,230899;0,356319;0,000000;0,303634;0,175021;0,175087;0,175154;0,175220;0,000000;0,000000;0,687769;0,356641;0,356741;0,356840;0,000000;0,000000;0,481234;0,675038;
55;;;;;;;;;;;;;;;;;;;;;;;;;;;;;;;;;;;;;;;;;;;;;;;;;;;;;;;1,000000;0,817255;0,817539;0,207338;0,218482;0,210158;0,236375;0,000000;0,000000;0,232421;0,000000;0,000000;0,000000;0,000000;0,000000;0,319474;0,240420;0,202920;0,202997;0,203074;0,238163;0,000000;0,000000;0,000000;0,000000;0,000000;0,000000;0,000000;0,000000;0,000000;0,322593;0,197389;0,324761;0,324761;0,231980;0,000000;0,231874;0,239069;0,239184;0,000000;0,000000;0,311919;0,183306;0,183372;0,183439;0,183505;0,000000;0,000000;0,236478;0,181816;0,181897;0,181977;0,000000;0,000000;0,236020;0,314294;
56;;;;;;;;;;;;;;;;;;;;;;;;;;;;;;;;;;;;;;;;;;;;;;;;;;;;;;;;1,000000;0,817819;0,207506;0,218649;0,210325;0,236542;0,000000;0,000000;0,232588;0,000000;0,000000;0,000000;0,000000;0,000000;0,319641;0,240588;0,203087;0,203164;0,203241;0,238330;0,000000;0,000000;0,000000;0,000000;0,000000;0,000000;0,000000;0,000000;0,000000;0,322760;0,197556;0,324928;0,324928;0,232148;0,000000;0,232041;0,239236;0,239351;0,000000;0,000000;0,312086;0,183473;0,183540;0,183606;0,183672;0,000000;0,000000;0,236645;0,181983;0,182064;0,182145;0,000000;0,000000;0,236187;0,314461;
57;;;;;;;;;;;;;;;;;;;;;;;;;;;;;;;;;;;;;;;;;;;;;;;;;;;;;;;;;1,000000;0,207671;0,218815;0,210491;0,236708;0,000000;0,000000;0,232754;0,000000;0,000000;0,000000;0,000000;0,000000;0,319807;0,240753;0,203253;0,203330;0,203407;0,238496;0,000000;0,000000;0,000000;0,000000;0,000000;0,000000;0,000000;0,000000;0,000000;0,322925;0,197722;0,325094;0,325094;0,232313;0,000000;0,232207;0,239402;0,239517;0,000000;0,000000;0,312252;0,183639;0,183705;0,183771;0,183837;0,000000;0,000000;0,236811;0,182149;0,182230;0,182310;0,000000;0,000000;0,236353;0,314627;
58;;;;;;;;;;;;;;;;;;;;;;;;;;;;;;;;;;;;;;;;;;;;;;;;;;;;;;;;;;1,000000;0,684758;0,223147;0,249364;0,000000;0,000000;0,589886;0,000000;0,000000;0,000000;0,000000;0,000000;0,332463;0,253409;0,215909;0,215986;0,216063;0,765762;0,000000;0,000000;0,000000;0,000000;0,000000;0,000000;0,000000;0,000000;0,000000;0,684903;0,210378;0,337750;0,337750;0,244969;0,000000;0,244863;0,252058;0,252173;0,000000;0,000000;0,324908;0,469635;0,469712;0,469790;0,469867;0,000000;0,000000;0,249467;0,465683;0,465801;0,465919;0,000000;0,000000;0,249009;0,327283;
59;;;;;;;;;;;;;;;;;;;;;;;;;;;;;;;;;;;;;;;;;;;;;;;;;;;;;;;;;;;1,000000;0,234290;0,260507;0,000000;0,000000;0,616413;0,000000;0,000000;0,000000;0,000000;0,000000;0,343606;0,264553;0,227052;0,227129;0,227206;0,799537;0,000000;0,000000;0,000000;0,000000;0,000000;0,000000;0,000000;0,000000;0,000000;0,701893;0,221521;0,348893;0,348893;0,256113;0,687493;0,256006;0,263201;0,263316;0,000000;0,000000;0,336051;0,496162;0,496240;0,496317;0,496394;0,000000;0,000000;0,260610;0,492210;0,492329;0,492446;0,000000;0,000000;0,260152;0,338426;
60;;;;;;;;;;;;;;;;;;;;;;;;;;;;;;;;;;;;;;;;;;;;;;;;;;;;;;;;;;;;1,000000;0,614495;0,000000;0,000000;0,248229;0,125425;0,125513;0,125600;0,125687;0,125773;0,335283;0,256229;0,218728;0,218805;0,218882;0,253972;0,000000;0,000000;0,000000;0,000000;0,000000;0,000000;0,000000;0,000000;0,000000;0,338401;0,400399;0,340570;0,340570;0,482480;0,000000;0,481665;0,254877;0,254992;0,160714;0,000000;0,327728;0,199114;0,199181;0,199247;0,199313;0,000000;0,000000;0,927485;0,362620;0,362720;0,362819;0,000000;0,000000;0,487213;0,681018;
61;;;;;;;;;;;;;;;;;;;;;;;;;;;;;;;;;;;;;;;;;;;;;;;;;;;;;;;;;;;;;1,000000;0,000000;0,000000;0,274447;0,000000;0,000000;0,000000;0,000000;0,000000;0,361500;0,282446;0,244945;0,245022;0,245100;0,280189;0,000000;0,000000;0,000000;0,000000;0,000000;0,000000;0,000000;0,000000;0,000000;0,364618;0,239414;0,366787;0,366787;0,274006;0,000000;0,273900;0,281094;0,281209;0,000000;0,000000;0,353945;0,225331;0,225398;0,225464;0,225530;0,000000;0,000000;0,576621;0,223841;0,223922;0,224003;0,000000;0,000000;0,278045;0,356320;
62;;;;;;;;;;;;;;;;;;;;;;;;;;;;;;;;;;;;;;;;;;;;;;;;;;;;;;;;;;;;;;1,000000;0,489445;0,000000;0,000000;0,000000;0,000000;0,000000;0,000000;0,000000;0,000000;0,000000;0,000000;0,000000;0,000000;0,000000;0,000000;0,000000;0,000000;0,000000;0,000000;0,000000;0,000000;0,000000;0,000000;0,000000;0,000000;0,000000;0,000000;0,000000;0,000000;0,000000;0,000000;0,000000;0,000000;0,000000;0,000000;0,000000;0,000000;0,000000;0,890726;0,890726;0,000000;0,000000;0,000000;0,000000;0,548588;0,548588;0,000000;0,000000;
63;;;;;;;;;;;;;;;;;;;;;;;;;;;;;;;;;;;;;;;;;;;;;;;;;;;;;;;;;;;;;;;1,000000;0,000000;0,000000;0,000000;0,000000;0,000000;0,000000;0,000000;0,000000;0,000000;0,000000;0,000000;0,000000;0,000000;0,000000;0,000000;0,000000;0,000000;0,000000;0,000000;0,000000;0,000000;0,000000;0,000000;0,000000;0,000000;0,000000;0,000000;0,000000;0,000000;0,000000;0,000000;0,000000;0,000000;0,000000;0,000000;0,000000;0,000000;0,761127;0,761280;0,000000;0,000000;0,000000;0,000000;0,502622;0,502622;0,000000;0,000000;
64;;;;;;;;;;;;;;;;;;;;;;;;;;;;;;;;;;;;;;;;;;;;;;;;;;;;;;;;;;;;;;;;1,000000;0,000000;0,000000;0,000000;0,000000;0,000000;0,357546;0,278492;0,240991;0,241068;0,241146;0,562758;0,000000;0,000000;0,000000;0,000000;0,000000;0,000000;0,000000;0,000000;0,000000;0,360664;0,235460;0,362833;0,362833;0,270052;0,000000;0,269946;0,277140;0,277255;0,000000;0,000000;0,349991;0,527982;0,528059;0,528136;0,528214;0,000000;0,000000;0,274550;0,524029;0,524148;0,524266;0,000000;0,000000;0,274091;0,352366;
65;;;;;;;;;;;;;;;;;;;;;;;;;;;;;;;;;;;;;;;;;;;;;;;;;;;;;;;;;;;;;;;;;1,000000;0,886676;0,886832;0,886987;0,887141;0,000000;0,000000;0,000000;0,000000;0,000000;0,000000;0,000000;0,000000;0,000000;0,000000;0,000000;0,000000;0,000000;0,000000;0,000000;0,000000;0,402667;0,000000;0,000000;0,208785;0,000000;0,208692;0,000000;0,000000;0,175014;0,000000;0,000000;0,000000;0,000000;0,000000;0,000000;0,000000;0,000000;0,213438;0,157650;0,157735;0,157820;0,000000;0,000000;0,213005;0,291756;
66;;;;;;;;;;;;;;;;;;;;;;;;;;;;;;;;;;;;;;;;;;;;;;;;;;;;;;;;;;;;;;;;;;1,000000;0,886987;0,887141;0,887292;0,000000;0,000000;0,000000;0,000000;0,000000;0,000000;0,000000;0,000000;0,000000;0,000000;0,000000;0,000000;0,000000;0,000000;0,000000;0,000000;0,402793;0,000000;0,000000;0,208872;0,000000;0,208779;0,000000;0,000000;0,175102;0,000000;0,000000;0,000000;0,000000;0,000000;0,000000;0,000000;0,000000;0,213526;0,157738;0,157823;0,157908;0,000000;0,000000;0,213093;0,291843;
67;;;;;;;;;;;;;;;;;;;;;;;;;;;;;;;;;;;;;;;;;;;;;;;;;;;;;;;;;;;;;;;;;;;1,000000;0,887292;0,887443;0,000000;0,000000;0,000000;0,000000;0,000000;0,000000;0,000000;0,000000;0,000000;0,000000;0,000000;0,000000;0,000000;0,000000;0,000000;0,000000;0,402919;0,000000;0,000000;0,208960;0,000000;0,208866;0,000000;0,000000;0,175189;0,000000;0,000000;0,000000;0,000000;0,000000;0,000000;0,000000;0,000000;0,213613;0,157825;0,157910;0,157995;0,000000;0,000000;0,213180;0,291931;
68;;;;;;;;;;;;;;;;;;;;;;;;;;;;;;;;;;;;;;;;;;;;;;;;;;;;;;;;;;;;;;;;;;;;1,000000;0,887592;0,000000;0,000000;0,000000;0,000000;0,000000;0,000000;0,000000;0,000000;0,000000;0,000000;0,000000;0,000000;0,000000;0,000000;0,000000;0,000000;0,403045;0,000000;0,000000;0,209046;0,000000;0,208953;0,000000;0,000000;0,175275;0,000000;0,000000;0,000000;0,000000;0,000000;0,000000;0,000000;0,000000;0,213700;0,157912;0,157997;0,158082;0,000000;0,000000;0,213267;0,292017;
69;;;;;;;;;;;;;;;;;;;;;;;;;;;;;;;;;;;;;;;;;;;;;;;;;;;;;;;;;;;;;;;;;;;;;1,000000;0,000000;0,000000;0,000000;0,000000;0,000000;0,000000;0,000000;0,000000;0,000000;0,000000;0,000000;0,000000;0,000000;0,000000;0,000000;0,000000;0,403171;0,000000;0,000000;0,209132;0,000000;0,209039;0,000000;0,000000;0,175361;0,000000;0,000000;0,000000;0,000000;0,000000;0,000000;0,000000;0,000000;0,213786;0,157998;0,158083;0,158168;0,000000;0,000000;0,213353;0,292103;
70;;;;;;;;;;;;;;;;;;;;;;;;;;;;;;;;;;;;;;;;;;;;;;;;;;;;;;;;;;;;;;;;;;;;;;1,000000;0,365545;0,792089;0,792172;0,792256;0,363288;0,000000;0,000000;0,000000;0,000000;0,000000;0,000000;0,000000;0,000000;0,000000;0,447717;0,322513;0,449886;0,449886;0,357105;0,000000;0,356999;0,364193;0,364308;0,000000;0,000000;0,437044;0,308430;0,308497;0,308563;0,308629;0,000000;0,000000;0,361603;0,306941;0,307022;0,307102;0,000000;0,000000;0,361145;0,439419;
71;;;;;;;;;;;;;;;;;;;;;;;;;;;;;;;;;;;;;;;;;;;;;;;;;;;;;;;;;;;;;;;;;;;;;;;1,000000;0,804488;0,804642;0,804795;0,284234;0,000000;0,000000;0,000000;0,000000;0,000000;0,000000;0,000000;0,000000;0,000000;0,368663;0,243460;0,370832;0,370832;0,278051;0,000000;0,277945;0,285140;0,285255;0,000000;0,000000;0,357990;0,229377;0,229443;0,229509;0,229575;0,000000;0,000000;0,282549;0,227887;0,227968;0,228048;0,000000;0,000000;0,282091;0,360365;
72;;;;;;;;;;;;;;;;;;;;;;;;;;;;;;;;;;;;;;;;;;;;;;;;;;;;;;;;;;;;;;;;;;;;;;;;1,000000;0,838739;0,838925;0,246733;0,000000;0,000000;0,000000;0,000000;0,000000;0,000000;0,000000;0,000000;0,000000;0,331163;0,205959;0,333331;0,333331;0,240551;0,000000;0,240444;0,247639;0,247754;0,000000;0,000000;0,320489;0,191876;0,191943;0,192009;0,192075;0,000000;0,000000;0,245048;0,190386;0,190467;0,190548;0,000000;0,000000;0,244590;0,322864;
73;;;;;;;;;;;;;;;;;;;;;;;;;;;;;;;;;;;;;;;;;;;;;;;;;;;;;;;;;;;;;;;;;;;;;;;;;1,000000;0,839110;0,246810;0,000000;0,000000;0,000000;0,000000;0,000000;0,000000;0,000000;0,000000;0,000000;0,331240;0,206036;0,333408;0,333408;0,240628;0,000000;0,240521;0,247716;0,247831;0,000000;0,000000;0,320566;0,191953;0,192020;0,192086;0,192152;0,000000;0,000000;0,245125;0,190463;0,190544;0,190625;0,000000;0,000000;0,244667;0,322941;
74;;;;;;;;;;;;;;;;;;;;;;;;;;;;;;;;;;;;;;;;;;;;;;;;;;;;;;;;;;;;;;;;;;;;;;;;;;1,000000;0,246888;0,000000;0,000000;0,000000;0,000000;0,000000;0,000000;0,000000;0,000000;0,000000;0,331317;0,206113;0,333486;0,333486;0,240705;0,000000;0,240599;0,247793;0,247908;0,000000;0,000000;0,320644;0,192030;0,192097;0,192163;0,192229;0,000000;0,000000;0,245203;0,190540;0,190621;0,190702;0,000000;0,000000;0,244744;0,323019;
75;;;;;;;;;;;;;;;;;;;;;;;;;;;;;;;;;;;;;;;;;;;;;;;;;;;;;;;;;;;;;;;;;;;;;;;;;;;1,000000;0,000000;0,000000;0,000000;0,000000;0,000000;0,000000;0,000000;0,000000;0,000000;0,366406;0,241202;0,368575;0,368575;0,275794;0,615159;0,275688;0,282882;0,282997;0,000000;0,000000;0,355733;0,442507;0,442584;0,442661;0,442739;0,000000;0,000000;0,280292;0,438554;0,438673;0,438791;0,000000;0,000000;0,279834;0,358108;
76;;;;;;;;;;;;;;;;;;;;;;;;;;;;;;;;;;;;;;;;;;;;;;;;;;;;;;;;;;;;;;;;;;;;;;;;;;;;1,000000;0,903499;0,903612;0,903723;0,903834;0,903944;0,904053;0,934461;0,934537;0,000000;0,000000;0,000000;0,000000;0,000000;0,000000;0,000000;0,000000;0,000000;0,000000;0,000000;0,000000;0,000000;0,000000;0,000000;0,000000;0,000000;0,000000;0,000000;0,000000;0,000000;0,000000;0,000000;0,000000;0,000000;0,000000;
77;;;;;;;;;;;;;;;;;;;;;;;;;;;;;;;;;;;;;;;;;;;;;;;;;;;;;;;;;;;;;;;;;;;;;;;;;;;;;1,000000;0,903723;0,903834;0,903944;0,904053;0,904161;0,934537;0,934611;0,000000;0,000000;0,000000;0,000000;0,000000;0,000000;0,000000;0,000000;0,000000;0,000000;0,000000;0,000000;0,000000;0,000000;0,000000;0,000000;0,000000;0,000000;0,000000;0,000000;0,000000;0,000000;0,000000;0,000000;0,000000;0,000000;
78;;;;;;;;;;;;;;;;;;;;;;;;;;;;;;;;;;;;;;;;;;;;;;;;;;;;;;;;;;;;;;;;;;;;;;;;;;;;;;1,000000;0,903944;0,904053;0,904161;0,904268;0,934611;0,934685;0,000000;0,000000;0,000000;0,000000;0,000000;0,000000;0,000000;0,000000;0,000000;0,000000;0,000000;0,000000;0,000000;0,000000;0,000000;0,000000;0,000000;0,000000;0,000000;0,000000;0,000000;0,000000;0,000000;0,000000;0,000000;0,000000;
79;;;;;;;;;;;;;;;;;;;;;;;;;;;;;;;;;;;;;;;;;;;;;;;;;;;;;;;;;;;;;;;;;;;;;;;;;;;;;;;1,000000;0,904161;0,904268;0,904374;0,934685;0,934759;0,000000;0,000000;0,000000;0,000000;0,000000;0,000000;0,000000;0,000000;0,000000;0,000000;0,000000;0,000000;0,000000;0,000000;0,000000;0,000000;0,000000;0,000000;0,000000;0,000000;0,000000;0,000000;0,000000;0,000000;0,000000;0,000000;
80;;;;;;;;;;;;;;;;;;;;;;;;;;;;;;;;;;;;;;;;;;;;;;;;;;;;;;;;;;;;;;;;;;;;;;;;;;;;;;;;1,000000;0,904374;0,904479;0,934759;0,934831;0,000000;0,000000;0,000000;0,000000;0,000000;0,000000;0,000000;0,000000;0,000000;0,000000;0,000000;0,000000;0,000000;0,000000;0,000000;0,000000;0,000000;0,000000;0,000000;0,000000;0,000000;0,000000;0,000000;0,000000;0,000000;0,000000;
81;;;;;;;;;;;;;;;;;;;;;;;;;;;;;;;;;;;;;;;;;;;;;;;;;;;;;;;;;;;;;;;;;;;;;;;;;;;;;;;;;1,000000;0,904584;0,934831;0,934903;0,000000;0,000000;0,000000;0,000000;0,000000;0,000000;0,000000;0,000000;0,000000;0,000000;0,000000;0,000000;0,000000;0,000000;0,000000;0,000000;0,000000;0,000000;0,000000;0,000000;0,000000;0,000000;0,000000;0,000000;0,000000;0,000000;
82;;;;;;;;;;;;;;;;;;;;;;;;;;;;;;;;;;;;;;;;;;;;;;;;;;;;;;;;;;;;;;;;;;;;;;;;;;;;;;;;;;1,000000;0,934903;0,934975;0,000000;0,000000;0,000000;0,000000;0,000000;0,000000;0,000000;0,000000;0,000000;0,000000;0,000000;0,000000;0,000000;0,000000;0,000000;0,000000;0,000000;0,000000;0,000000;0,000000;0,000000;0,000000;0,000000;0,000000;0,000000;0,000000;
83;;;;;;;;;;;;;;;;;;;;;;;;;;;;;;;;;;;;;;;;;;;;;;;;;;;;;;;;;;;;;;;;;;;;;;;;;;;;;;;;;;;1,000000;0,914904;0,000000;0,000000;0,000000;0,000000;0,000000;0,000000;0,000000;0,000000;0,000000;0,000000;0,000000;0,000000;0,000000;0,000000;0,000000;0,000000;0,000000;0,000000;0,000000;0,000000;0,000000;0,000000;0,000000;0,000000;0,000000;0,000000;
84;;;;;;;;;;;;;;;;;;;;;;;;;;;;;;;;;;;;;;;;;;;;;;;;;;;;;;;;;;;;;;;;;;;;;;;;;;;;;;;;;;;;1,000000;0,000000;0,000000;0,000000;0,000000;0,000000;0,000000;0,000000;0,000000;0,000000;0,000000;0,000000;0,000000;0,000000;0,000000;0,000000;0,000000;0,000000;0,000000;0,000000;0,000000;0,000000;0,000000;0,000000;0,000000;0,000000;0,000000;
85;;;;;;;;;;;;;;;;;;;;;;;;;;;;;;;;;;;;;;;;;;;;;;;;;;;;;;;;;;;;;;;;;;;;;;;;;;;;;;;;;;;;;1,000000;0,325632;0,453004;0,453004;0,360223;0,000000;0,360117;0,367312;0,367427;0,000000;0,000000;0,440162;0,311549;0,311615;0,311682;0,311748;0,000000;0,000000;0,364721;0,310059;0,310140;0,310220;0,000000;0,000000;0,364263;0,442537;
86;;;;;;;;;;;;;;;;;;;;;;;;;;;;;;;;;;;;;;;;;;;;;;;;;;;;;;;;;;;;;;;;;;;;;;;;;;;;;;;;;;;;;;1,000000;0,327800;0,327800;0,520844;0,000000;0,520029;0,242108;0,242223;0,208839;0,000000;0,314958;0,186345;0,186412;0,186478;0,186544;0,000000;0,000000;0,528062;0,400984;0,401084;0,401183;0,000000;0,000000;0,525577;0,719381;
87;;;;;;;;;;;;;;;;;;;;;;;;;;;;;;;;;;;;;;;;;;;;;;;;;;;;;;;;;;;;;;;;;;;;;;;;;;;;;;;;;;;;;;;1,000000;0,455173;0,362392;0,000000;0,362286;0,369480;0,369595;0,000000;0,000000;0,442331;0,313717;0,313784;0,313850;0,313916;0,000000;0,000000;0,366890;0,312228;0,312309;0,312389;0,000000;0,000000;0,366432;0,444706;
88;;;;;;;;;;;;;;;;;;;;;;;;;;;;;;;;;;;;;;;;;;;;;;;;;;;;;;;;;;;;;;;;;;;;;;;;;;;;;;;;;;;;;;;;1,000000;0,362392;0,000000;0,362286;0,369480;0,369595;0,000000;0,000000;0,442331;0,313717;0,313784;0,313850;0,313916;0,000000;0,000000;0,366890;0,312228;0,312309;0,312389;0,000000;0,000000;0,366432;0,444706;
89;;;;;;;;;;;;;;;;;;;;;;;;;;;;;;;;;;;;;;;;;;;;;;;;;;;;;;;;;;;;;;;;;;;;;;;;;;;;;;;;;;;;;;;;;1,000000;0,000000;0,602111;0,636178;0,636178;0,244073;0,000000;0,810055;0,220937;0,221003;0,221070;0,221136;0,000000;0,000000;0,610144;0,483066;0,483165;0,483264;0,000000;0,000000;1,000000;0,801463;
90;;;;;;;;;;;;;;;;;;;;;;;;;;;;;;;;;;;;;;;;;;;;;;;;;;;;;;;;;;;;;;;;;;;;;;;;;;;;;;;;;;;;;;;;;;1,000000;0,000000;0,000000;0,000000;0,000000;0,000000;0,000000;0,000000;0,000000;0,000000;0,000000;0,000000;0,000000;0,000000;0,000000;0,000000;0,000000;0,000000;0,000000;0,000000;0,000000;
91;;;;;;;;;;;;;;;;;;;;;;;;;;;;;;;;;;;;;;;;;;;;;;;;;;;;;;;;;;;;;;;;;;;;;;;;;;;;;;;;;;;;;;;;;;;1,000000;0,276593;0,276708;0,553052;0,000000;0,349444;0,220830;0,220897;0,220963;0,221029;0,000000;0,000000;0,609329;0,482251;0,482350;0,482449;0,000000;0,000000;0,606844;0,800648;
92;;;;;;;;;;;;;;;;;;;;;;;;;;;;;;;;;;;;;;;;;;;;;;;;;;;;;;;;;;;;;;;;;;;;;;;;;;;;;;;;;;;;;;;;;;;;1,000000;0,652246;0,000000;0,000000;0,826123;0,228025;0,228092;0,228158;0,228224;0,000000;0,000000;0,281197;0,226535;0,226616;0,226697;0,000000;0,000000;0,641050;0,359013;
93;;;;;;;;;;;;;;;;;;;;;;;;;;;;;;;;;;;;;;;;;;;;;;;;;;;;;;;;;;;;;;;;;;;;;;;;;;;;;;;;;;;;;;;;;;;;;1,000000;0,000000;0,000000;0,826123;0,228140;0,228207;0,228273;0,228339;0,000000;0,000000;0,281312;0,226650;0,226731;0,226812;0,000000;0,000000;0,641050;0,359128;
94;;;;;;;;;;;;;;;;;;;;;;;;;;;;;;;;;;;;;;;;;;;;;;;;;;;;;;;;;;;;;;;;;;;;;;;;;;;;;;;;;;;;;;;;;;;;;;1,000000;0,000000;0,000000;0,000000;0,000000;0,000000;0,000000;0,000000;0,000000;0,248727;0,192939;0,193024;0,193109;0,000000;0,000000;0,248294;0,327044;
95;;;;;;;;;;;;;;;;;;;;;;;;;;;;;;;;;;;;;;;;;;;;;;;;;;;;;;;;;;;;;;;;;;;;;;;;;;;;;;;;;;;;;;;;;;;;;;;1,000000;0,000000;0,000000;0,000000;0,000000;0,000000;0,000000;0,000000;0,000000;0,000000;0,000000;0,000000;0,000000;0,000000;0,000000;0,000000;
96;;;;;;;;;;;;;;;;;;;;;;;;;;;;;;;;;;;;;;;;;;;;;;;;;;;;;;;;;;;;;;;;;;;;;;;;;;;;;;;;;;;;;;;;;;;;;;;;1,000000;0,300875;0,300942;0,301008;0,301074;0,000000;0,000000;0,354048;0,299386;0,299467;0,299547;0,000000;0,000000;0,814928;0,431864;
97;;;;;;;;;;;;;;;;;;;;;;;;;;;;;;;;;;;;;;;;;;;;;;;;;;;;;;;;;;;;;;;;;;;;;;;;;;;;;;;;;;;;;;;;;;;;;;;;;1,000000;0,869167;0,869277;0,869387;0,000000;0,000000;0,225434;0,403778;0,403897;0,404015;0,000000;0,000000;0,224976;0,303250;
98;;;;;;;;;;;;;;;;;;;;;;;;;;;;;;;;;;;;;;;;;;;;;;;;;;;;;;;;;;;;;;;;;;;;;;;;;;;;;;;;;;;;;;;;;;;;;;;;;;1,000000;0,869387;0,869495;0,000000;0,000000;0,225501;0,403855;0,403974;0,404092;0,000000;0,000000;0,225043;0,303317;
99;;;;;;;;;;;;;;;;;;;;;;;;;;;;;;;;;;;;;;;;;;;;;;;;;;;;;;;;;;;;;;;;;;;;;;;;;;;;;;;;;;;;;;;;;;;;;;;;;;;1,000000;0,869603;0,000000;0,000000;0,225567;0,403933;0,404051;0,404169;0,000000;0,000000;0,225109;0,303383;
100;;;;;;;;;;;;;;;;;;;;;;;;;;;;;;;;;;;;;;;;;;;;;;;;;;;;;;;;;;;;;;;;;;;;;;;;;;;;;;;;;;;;;;;;;;;;;;;;;;;;1,000000;0,000000;0,000000;0,225633;0,404010;0,404129;0,404247;0,000000;0,000000;0,225175;0,303449;
101;;;;;;;;;;;;;;;;;;;;;;;;;;;;;;;;;;;;;;;;;;;;;;;;;;;;;;;;;;;;;;;;;;;;;;;;;;;;;;;;;;;;;;;;;;;;;;;;;;;;;1,000000;0,781453;0,000000;0,000000;0,000000;0,000000;0,472449;0,472449;0,000000;0,000000;
102;;;;;;;;;;;;;;;;;;;;;;;;;;;;;;;;;;;;;;;;;;;;;;;;;;;;;;;;;;;;;;;;;;;;;;;;;;;;;;;;;;;;;;;;;;;;;;;;;;;;;;1,000000;0,000000;0,000000;0,000000;0,000000;0,472521;0,472521;0,000000;0,000000;
103;;;;;;;;;;;;;;;;;;;;;;;;;;;;;;;;;;;;;;;;;;;;;;;;;;;;;;;;;;;;;;;;;;;;;;;;;;;;;;;;;;;;;;;;;;;;;;;;;;;;;;;1,000000;0,490284;0,490383;0,490483;0,000000;0,000000;0,614877;0,808681;
104;;;;;;;;;;;;;;;;;;;;;;;;;;;;;;;;;;;;;;;;;;;;;;;;;;;;;;;;;;;;;;;;;;;;;;;;;;;;;;;;;;;;;;;;;;;;;;;;;;;;;;;;1,000000;0,841662;0,841781;0,000000;0,000000;0,487799;0,681603;
105;;;;;;;;;;;;;;;;;;;;;;;;;;;;;;;;;;;;;;;;;;;;;;;;;;;;;;;;;;;;;;;;;;;;;;;;;;;;;;;;;;;;;;;;;;;;;;;;;;;;;;;;;1,000000;0,841900;0,000000;0,000000;0,487898;0,681702;
106;;;;;;;;;;;;;;;;;;;;;;;;;;;;;;;;;;;;;;;;;;;;;;;;;;;;;;;;;;;;;;;;;;;;;;;;;;;;;;;;;;;;;;;;;;;;;;;;;;;;;;;;;;1,000000;0,000000;0,000000;0,487997;0,681802;
107;;;;;;;;;;;;;;;;;;;;;;;;;;;;;;;;;;;;;;;;;;;;;;;;;;;;;;;;;;;;;;;;;;;;;;;;;;;;;;;;;;;;;;;;;;;;;;;;;;;;;;;;;;;1,000000;0,561765;0,000000;0,000000;
108;;;;;;;;;;;;;;;;;;;;;;;;;;;;;;;;;;;;;;;;;;;;;;;;;;;;;;;;;;;;;;;;;;;;;;;;;;;;;;;;;;;;;;;;;;;;;;;;;;;;;;;;;;;;1,000000;0,000000;0,000000;
109;;;;;;;;;;;;;;;;;;;;;;;;;;;;;;;;;;;;;;;;;;;;;;;;;;;;;;;;;;;;;;;;;;;;;;;;;;;;;;;;;;;;;;;;;;;;;;;;;;;;;;;;;;;;;1,000000;0,806196;
110;;;;;;;;;;;;;;;;;;;;;;;;;;;;;;;;;;;;;;;;;;;;;;;;;;;;;;;;;;;;;;;;;;;;;;;;;;;;;;;;;;;;;;;;;;;;;;;;;;;;;;;;;;;;;;1,000000;
