;1; 2; 3; 4; 5; 6; 7; 8; 9; 10; 11; 12; 13; 14; 15; 16; 17; 18; 19; 20
1;1,000000;0,000000;0,220978;0,000000;0,575272;0,206080;0,273664;0,000000;0,279572;0,708964;0,285134;0,263508;0,333772;0,000000;0,319487;0,000000;0,000000;0,000000;0,326651;0,314059;
2;;1,000000;0,724682;1,000000;0,000000;0,752991;0,279396;0,691918;0,383835;0,000000;0,399564;0,500631;0,415207;0,877817;0,398761;0,000000;0,000000;0,000000;0,388077;0,411968;
3;;;1,000000;0,724682;0,000000;0,477673;0,268868;0,681389;0,373307;0,139163;0,389036;0,490103;0,404678;0,602499;0,288738;0,000000;0,000000;0,000000;0,278054;0,401440;
4;;;;1,000000;0,000000;0,752991;0,286562;0,699083;0,391000;0,000000;0,406729;0,507796;0,422372;0,877817;0,439341;0,000000;0,000000;0,000000;0,428657;0,419134;
5;;;;;1,000000;0,370935;0,441928;0,000000;0,000000;0,273756;0,453397;0,000000;0,000000;0,000000;0,000000;0,000000;0,000000;0,000000;0,000000;0,000000;
6;;;;;;1,000000;0,562146;0,698089;0,390007;0,000000;0,405736;0,506803;0,421379;0,630808;0,302080;0,000000;0,000000;0,000000;0,291396;0,418140;
7;;;;;;;1,000000;0,587479;0,279396;0,262286;0,847650;0,396193;0,310768;0,193976;0,000000;0,000000;0,000000;0,000000;0,000000;0,307530;
8;;;;;;;;1,000000;0,691918;0,000000;0,707647;0,808714;0,723289;0,606497;0,000000;0,000000;0,000000;0,000000;0,000000;0,720051;
9;;;;;;;;;1,000000;0,251004;0,399564;0,500631;0,415207;0,298415;0,000000;0,000000;0,000000;0,000000;0,461162;1,000000;
10;;;;;;;;;;1,000000;0,273756;0,000000;0,000000;0,300224;0,426876;0,000000;0,000000;0,000000;0,298083;0,285491;
11;;;;;;;;;;;1,000000;0,516360;0,430936;0,314144;0,000000;0,000000;0,000000;0,000000;0,000000;0,427697;
12;;;;;;;;;;;;1,000000;0,532003;0,415211;0,000000;0,000000;0,000000;0,000000;0,000000;0,528764;
13;;;;;;;;;;;;;1,000000;0,329787;0,000000;0,000000;0,000000;0,000000;0,000000;0,443340;
14;;;;;;;;;;;;;;1,000000;0,514856;0,000000;0,000000;0,000000;0,504172;0,326548;
15;;;;;;;;;;;;;;;1,000000;0,000000;0,000000;0,000000;0,518513;0,000000;
16;;;;;;;;;;;;;;;;1,000000;0,716086;0,717812;0,000000;0,000000;
17;;;;;;;;;;;;;;;;;1,000000;0,719467;0,000000;0,000000;
18;;;;;;;;;;;;;;;;;;1,000000;0,000000;0,000000;
19;;;;;;;;;;;;;;;;;;;1,000000;0,495649;
20;;;;;;;;;;;;;;;;;;;;1,000000;
