;1; 2; 3; 4; 5; 6; 7; 8; 9; 10; 11; 12; 13; 14; 15; 16; 17; 18; 19; 20; 21; 22; 23; 24; 25; 26; 27; 28; 29; 30; 31; 32; 33; 34; 35; 36; 37; 38; 39; 40; 41; 42; 43; 44; 45; 46; 47; 48; 49; 50; 51; 52
1;1,000000;0,343593;0,205852;0,000000;0,368591;0,173637;0,288895;0,334385;0,000000;0,379731;0,383736;0,182464;0,206503;0,207577;0,395640;0,397954;0,559068;0,229981;0,400147;0,378536;0,259988;0,000000;0,419585;0,274364;0,331467;0,194829;0,195257;0,000000;0,240912;0,315262;0,000000;0,000000;0,392485;0,325107;0,476380;0,216529;0,145188;0,279687;0,380228;0,000000;0,259488;0,399952;0,450897;0,451469;0,456066;0,456600;0,477527;0,477973;0,407950;0,334689;0,381526;0,335788;
2;;1,000000;0,318513;0,611348;0,358316;0,336908;0,388882;0,206358;0,509636;0,435440;0,435440;0,163061;0,188979;0,190120;0,450104;0,450104;0,000000;0,626060;0,474442;0,446758;0,653149;0,611348;0,495610;0,405506;0,319722;0,363041;0,364169;0,611348;0,369754;0,325408;0,266809;0,266809;0,462703;0,266809;0,528349;0,179765;0,135992;0,447128;0,452245;0,611348;0,626060;0,469979;0,556023;0,556653;0,545365;0,545888;0,554336;0,554781;0,475150;0,340686;0,340949;0,341212;
3;;;1,000000;0,707165;0,476144;0,243487;0,301231;0,070092;0,000000;0,561655;0,565140;0,000000;0,000000;0,000000;0,573868;0,576034;0,528497;0,389839;0,666270;0,637725;0,391405;0,707165;0,652681;0,501323;0,415539;0,164258;0,164686;0,707165;0,304086;0,421225;0,000000;0,000000;0,649067;0,000000;0,557441;0,000000;0,000000;0,285410;0,342547;0,707165;0,413553;0,653387;0,575129;0,575307;0,576751;0,577063;0,574315;0,574529;0,654658;0,436503;0,436765;0,437029;
4;;;;1,000000;0,597265;0,536322;0,594065;0,000000;0,000000;0,601780;0,603031;0,000000;0,000000;0,000000;0,611843;0,612715;0,000000;0,682674;0,638313;0,617679;0,684239;1,000000;0,624852;0,794158;0,708374;0,000000;0,000000;1,000000;0,596921;0,714060;0,000000;0,000000;0,628697;0,000000;0,593451;0,000000;0,000000;0,578245;0,635382;1,000000;0,706387;0,633542;0,589750;0,589980;0,603207;0,603501;0,602509;0,602751;0,636012;0,729337;0,729600;0,729864;
5;;;;;1,000000;0,552608;0,427319;0,344452;0,510896;0,199045;0,200296;0,433825;0,480537;0,482093;0,209108;0,209980;0,517762;0,279939;0,517960;0,667407;0,281505;0,597265;0,437362;0,391423;0,305639;0,351380;0,351380;0,597265;0,351319;0,311325;0,268068;0,268068;0,433748;0,268068;0,522179;0,519142;0,462082;0,475922;0,470661;0,597265;0,303653;0,438069;0,412369;0,412486;0,361433;0,361744;0,358997;0,359210;0,667407;0,326603;0,326866;0,327129;
6;;;;;;1,000000;0,385101;0,459243;0,546743;0,138102;0,139353;0,665102;0,630728;0,632420;0,148165;0,149037;0,000000;0,622280;0,319694;0,154001;0,220561;0,536322;0,161174;0,330480;0,244696;0,205004;0,205620;0,536322;0,328553;0,250382;0,303916;0,303916;0,165019;0,303916;0,347373;0,512165;0,538586;0,641133;0,448465;0,536322;0,622280;0,169864;0,212302;0,212575;0,139529;0,139823;0,138831;0,139073;0,172334;0,265659;0,265922;0,266186;
7;;;;;;;1,000000;0,320137;0,000000;0,195845;0,197096;0,423638;0,447677;0,448751;0,205908;0,206780;0,000000;0,762821;0,460235;0,211745;0,278305;0,594065;0,218918;0,388223;0,302439;0,000000;0,000000;0,594065;0,190986;0,308126;0,000000;0,000000;0,222762;0,000000;0,487914;0,219936;0,265307;0,449720;0,589006;0,594065;0,762821;0,227607;0,183815;0,184046;0,197272;0,197566;0,196574;0,196816;0,230078;0,323403;0,323666;0,323929;
8;;;;;;;;1,000000;0,000000;0,000000;0,000000;0,577624;0,527573;0,528857;0,000000;0,000000;0,541595;0,227236;0,236833;0,166175;0,000000;0,000000;0,173726;0,000000;0,000000;0,434227;0,435175;0,000000;0,277746;0,341087;0,405926;0,406621;0,177996;0,350931;0,289133;0,507901;0,529141;0,295484;0,400924;0,000000;0,256743;0,183137;0,334329;0,334914;0,451632;0,452165;0,150908;0,151167;0,185757;0,000000;0,000000;0,000000;
9;;;;;;;;;1,000000;0,000000;0,000000;0,595062;0,582178;0,583027;0,000000;0,000000;0,000000;0,000000;0,000000;0,000000;0,000000;0,000000;0,000000;0,000000;0,000000;0,658261;0,658877;0,000000;0,623341;0,000000;0,757173;0,757173;0,000000;0,757173;0,000000;0,670129;0,626356;0,601679;0,000000;0,000000;0,000000;0,000000;0,528948;0,529050;0,000000;0,000000;0,000000;0,000000;0,000000;0,000000;0,000000;0,000000;
10;;;;;;;;;;1,000000;0,564583;0,000000;0,000000;0,000000;0,579247;0,579247;0,000000;0,284454;0,240093;0,219459;0,782291;0,601780;0,226632;0,395938;0,310154;0,000000;0,000000;0,601780;0,198701;0,315840;0,000000;0,000000;0,230477;0,000000;0,195231;0,000000;0,000000;0,180025;0,237162;0,601780;0,308167;0,235322;0,191530;0,191760;0,204987;0,205281;0,204289;0,204531;0,237792;0,331117;0,331380;0,331644;
11;;;;;;;;;;;1,000000;0,000000;0,000000;0,000000;0,579247;0,579247;0,000000;0,285704;0,241344;0,220710;0,782291;0,603031;0,227883;0,397189;0,311404;0,000000;0,000000;0,603031;0,199952;0,317091;0,000000;0,000000;0,231728;0,000000;0,196482;0,000000;0,000000;0,181276;0,238413;0,603031;0,309418;0,236573;0,192781;0,193011;0,206237;0,206532;0,205539;0,205781;0,239043;0,332368;0,332631;0,332895;
12;;;;;;;;;;;;1,000000;0,740981;0,742442;0,000000;0,000000;0,000000;0,256548;0,089960;0,000000;0,000000;0,000000;0,000000;0,000000;0,000000;0,253323;0,253938;0,000000;0,218402;0,000000;0,352234;0,352234;0,000000;0,352234;0,163044;0,643193;0,668854;0,534474;0,210997;0,000000;0,286054;0,000000;0,124010;0,124111;0,000000;0,000000;0,000000;0,000000;0,000000;0,000000;0,000000;0,000000;
13;;;;;;;;;;;;;1,000000;0,790381;0,000000;0,000000;0,000000;0,292382;0,125795;0,000000;0,000000;0,000000;0,000000;0,000000;0,000000;0,240439;0,241054;0,000000;0,205518;0,000000;0,339350;0,339350;0,000000;0,339350;0,198879;0,645898;0,686591;0,376203;0,246832;0,000000;0,321889;0,000000;0,111126;0,111227;0,000000;0,000000;0,000000;0,000000;0,000000;0,000000;0,000000;0,000000;
14;;;;;;;;;;;;;;1,000000;0,000000;0,000000;0,000000;0,293158;0,126571;0,000000;0,000000;0,000000;0,000000;0,000000;0,000000;0,241288;0,241904;0,000000;0,206367;0,000000;0,340200;0,340200;0,000000;0,340200;0,199655;0,647095;0,687788;0,377344;0,247608;0,000000;0,322665;0,000000;0,111975;0,112076;0,000000;0,000000;0,000000;0,000000;0,000000;0,000000;0,000000;0,000000;
15;;;;;;;;;;;;;;;1,000000;0,593912;0,000000;0,294516;0,250156;0,229522;0,796956;0,611843;0,236695;0,406001;0,320216;0,000000;0,000000;0,611843;0,208764;0,325903;0,000000;0,000000;0,240540;0,000000;0,205294;0,000000;0,000000;0,190088;0,247225;0,611843;0,318230;0,245385;0,201593;0,201823;0,215049;0,215343;0,214351;0,214593;0,247855;0,341180;0,341443;0,341706;
16;;;;;;;;;;;;;;;;1,000000;0,000000;0,295389;0,251028;0,230394;0,796956;0,612715;0,237567;0,406873;0,321089;0,000000;0,000000;0,612715;0,209636;0,326775;0,000000;0,000000;0,241412;0,000000;0,206166;0,000000;0,000000;0,190960;0,248097;0,612715;0,319102;0,246257;0,202465;0,202695;0,215922;0,216216;0,215224;0,215466;0,248727;0,342052;0,342315;0,342579;
17;;;;;;;;;;;;;;;;;1,000000;0,000000;0,621592;0,624580;0,000000;0,000000;0,632130;0,000000;0,000000;0,635761;0,636189;0,000000;0,000000;0,000000;0,000000;0,000000;0,636400;0,000000;0,599747;0,000000;0,000000;0,000000;0,000000;0,000000;0,000000;0,641542;0,621742;0,622015;0,610032;0,610345;0,609313;0,609571;0,644162;0,000000;0,000000;0,000000;
18;;;;;;;;;;;;;;;;;;1,000000;0,697414;0,300353;0,366913;0,682674;0,307526;0,476832;0,391047;0,000000;0,000000;0,682674;0,279595;0,396734;0,000000;0,000000;0,311371;0,000000;0,725093;0,000000;0,000000;0,686899;0,826185;0,682674;1,000000;0,316216;0,272424;0,272654;0,285880;0,286174;0,285182;0,285424;0,318686;0,412011;0,412274;0,412537;
19;;;;;;;;;;;;;;;;;;;1,000000;0,612532;0,322553;0,638313;0,627488;0,432471;0,346687;0,257353;0,257781;0,638313;0,235234;0,352373;0,000000;0,000000;0,623874;0,000000;0,756245;0,000000;0,000000;0,384313;0,523599;0,638313;0,697414;0,628194;0,549937;0,550115;0,551559;0,551870;0,549122;0,549336;0,629465;0,367650;0,367913;0,368177;
20;;;;;;;;;;;;;;;;;;;;1,000000;0,301919;0,617679;0,598943;0,411837;0,326053;0,260341;0,260770;0,617679;0,214600;0,331740;0,000000;0,000000;0,595329;0,000000;0,854773;0,000000;0,000000;0,195925;0,253061;0,617679;0,324067;0,599649;0,521392;0,521570;0,523014;0,523325;0,520578;0,520791;1,000000;0,347017;0,347280;0,347543;
21;;;;;;;;;;;;;;;;;;;;;1,000000;0,684239;0,309092;0,478397;0,392613;0,000000;0,000000;0,684239;0,281160;0,398300;0,000000;0,000000;0,312937;0,000000;0,277691;0,000000;0,000000;0,262485;0,319622;0,684239;0,390627;0,317781;0,273989;0,274220;0,287446;0,287740;0,286748;0,286990;0,320252;0,413577;0,413840;0,414103;
22;;;;;;;;;;;;;;;;;;;;;;1,000000;0,624852;0,794158;0,708374;0,000000;0,000000;1,000000;0,596921;0,714060;0,000000;0,000000;0,628697;0,000000;0,593451;0,000000;0,000000;0,578245;0,635382;1,000000;0,706387;0,633542;0,589750;0,589980;0,603207;0,603501;0,602509;0,602751;0,636012;0,729337;0,729600;0,729864;
23;;;;;;;;;;;;;;;;;;;;;;;1,000000;0,419010;0,333226;0,267891;0,268320;0,624852;0,221773;0,338913;0,000000;0,000000;0,610285;0,000000;0,518659;0,000000;0,000000;0,203098;0,260235;0,624852;0,331240;0,614605;0,536348;0,536526;0,537970;0,538281;0,741208;0,741556;0,615876;0,354190;0,354453;0,354716;
24;;;;;;;;;;;;;;;;;;;;;;;;1,000000;0,502532;0,000000;0,000000;0,794158;0,391079;0,508218;0,000000;0,000000;0,422855;0,000000;0,387609;0,000000;0,000000;0,372403;0,429540;0,794158;0,500545;0,427700;0,383908;0,384138;0,397365;0,397659;0,396667;0,396909;0,430170;0,523495;0,523758;0,524022;
25;;;;;;;;;;;;;;;;;;;;;;;;;1,000000;0,000000;0,000000;0,708374;0,305295;0,422434;0,000000;0,000000;0,337071;0,000000;0,301825;0,000000;0,000000;0,286619;0,343756;0,708374;0,414761;0,341916;0,298124;0,298354;0,311580;0,311875;0,310882;0,311124;0,344386;0,437711;0,437974;0,438238;
26;;;;;;;;;;;;;;;;;;;;;;;;;;1,000000;0,643782;0,000000;0,281602;0,000000;0,415434;0,415434;0,272162;0,415434;0,235508;0,328390;0,284617;0,259941;0,000000;0,000000;0,000000;0,277303;0,474772;0,475067;0,245793;0,246106;0,245074;0,245332;0,279923;0,000000;0,000000;0,000000;
27;;;;;;;;;;;;;;;;;;;;;;;;;;;1,000000;0,000000;0,282217;0,000000;0,416050;0,416050;0,272590;0,416050;0,235937;0,329005;0,285232;0,260556;0,000000;0,000000;0,000000;0,277732;0,474772;0,475067;0,246222;0,246535;0,245502;0,245761;0,280351;0,000000;0,000000;0,000000;
28;;;;;;;;;;;;;;;;;;;;;;;;;;;;1,000000;0,596921;0,714060;0,000000;0,000000;0,628697;0,000000;0,593451;0,000000;0,000000;0,578245;0,635382;1,000000;0,706387;0,633542;0,589750;0,589980;0,603207;0,603501;0,602509;0,602751;0,636012;0,729337;0,729600;0,729864;
29;;;;;;;;;;;;;;;;;;;;;;;;;;;;;1,000000;0,310981;0,380513;0,380513;0,225618;0,380513;0,190372;0,293469;0,249696;0,425282;0,232303;0,596921;0,303308;0,230463;0,358155;0,358428;0,200128;0,200422;0,199430;0,199672;0,232933;0,326258;0,326521;0,326785;
30;;;;;;;;;;;;;;;;;;;;;;;;;;;;;;1,000000;0,000000;0,000000;0,342757;0,632685;0,307512;0,000000;0,000000;0,292306;0,349442;0,714060;0,420448;0,347602;0,303810;0,304041;0,317267;0,317561;0,316569;0,316811;0,350072;0,443398;0,443661;0,443924;
31;;;;;;;;;;;;;;;;;;;;;;;;;;;;;;;1,000000;0,514346;0,000000;0,514346;0,000000;0,427302;0,383528;0,358852;0,000000;0,000000;0,000000;0,000000;0,286121;0,286222;0,000000;0,000000;0,000000;0,000000;0,000000;0,000000;0,000000;0,000000;
32;;;;;;;;;;;;;;;;;;;;;;;;;;;;;;;;1,000000;0,000000;0,514346;0,000000;0,427302;0,383528;0,358852;0,000000;0,000000;0,000000;0,000000;0,286121;0,286222;0,000000;0,000000;0,000000;0,000000;0,000000;0,000000;0,000000;0,000000;
33;;;;;;;;;;;;;;;;;;;;;;;;;;;;;;;;;1,000000;0,000000;0,515045;0,000000;0,000000;0,206942;0,264079;0,628697;0,335084;1,000000;0,532734;0,532912;0,534356;0,534667;0,875489;0,875489;0,612262;0,358034;0,358297;0,358561;
34;;;;;;;;;;;;;;;;;;;;;;;;;;;;;;;;;;1,000000;0,000000;0,427302;0,383528;0,358852;0,000000;0,000000;0,000000;0,000000;0,286121;0,286222;0,000000;0,000000;0,000000;0,000000;0,000000;0,000000;0,000000;0,000000;
35;;;;;;;;;;;;;;;;;;;;;;;;;;;;;;;;;;;1,000000;0,000000;0,000000;0,411992;0,551278;0,593451;0,725093;0,519365;0,441107;0,441285;0,442730;0,443041;0,440293;0,440507;0,854773;0,322789;0,323052;0,323315;
36;;;;;;;;;;;;;;;;;;;;;;;;;;;;;;;;;;;;1,000000;0,752805;0,271808;0,350067;0,000000;0,000000;0,000000;0,199077;0,199178;0,000000;0,000000;0,000000;0,000000;0,000000;0,000000;0,000000;0,000000;
37;;;;;;;;;;;;;;;;;;;;;;;;;;;;;;;;;;;;;1,000000;0,509186;0,000000;0,000000;0,000000;0,000000;0,155303;0,155405;0,000000;0,000000;0,000000;0,000000;0,000000;0,000000;0,000000;0,000000;
38;;;;;;;;;;;;;;;;;;;;;;;;;;;;;;;;;;;;;;1,000000;0,513084;0,578245;0,686899;0,211787;0,309031;0,309304;0,181452;0,181746;0,180754;0,180996;0,214257;0,307583;0,307846;0,308109;
39;;;;;;;;;;;;;;;;;;;;;;;;;;;;;;;;;;;;;;;1,000000;0,635382;0,826185;0,268924;0,225132;0,225362;0,238589;0,238883;0,237891;0,238133;0,271394;0,364720;0,364982;0,365246;
40;;;;;;;;;;;;;;;;;;;;;;;;;;;;;;;;;;;;;;;;1,000000;0,706387;0,633542;0,589750;0,589980;0,603207;0,603501;0,602509;0,602751;0,636012;0,729337;0,729600;0,729864;
41;;;;;;;;;;;;;;;;;;;;;;;;;;;;;;;;;;;;;;;;;1,000000;0,339929;0,296137;0,296368;0,309594;0,309888;0,308896;0,309138;0,342400;0,435725;0,435988;0,436251;
42;;;;;;;;;;;;;;;;;;;;;;;;;;;;;;;;;;;;;;;;;;1,000000;0,537054;0,537232;0,538676;0,538987;0,875489;0,875489;0,616582;0,362879;0,363142;0,363406;
43;;;;;;;;;;;;;;;;;;;;;;;;;;;;;;;;;;;;;;;;;;;1,000000;0,740217;0,759884;0,760122;0,457982;0,458196;0,538325;0,319087;0,319350;0,319614;
44;;;;;;;;;;;;;;;;;;;;;;;;;;;;;;;;;;;;;;;;;;;;1,000000;0,760401;0,760635;0,458160;0,458374;0,538503;0,319318;0,319581;0,319844;
45;;;;;;;;;;;;;;;;;;;;;;;;;;;;;;;;;;;;;;;;;;;;;1,000000;1,000000;0,459604;0,459818;0,539947;0,332544;0,332807;0,333071;
46;;;;;;;;;;;;;;;;;;;;;;;;;;;;;;;;;;;;;;;;;;;;;;1,000000;0,459915;0,460129;0,540258;0,332838;0,333101;0,333365;
47;;;;;;;;;;;;;;;;;;;;;;;;;;;;;;;;;;;;;;;;;;;;;;;1,000000;0,750977;0,537511;0,331846;0,332109;0,332372;
48;;;;;;;;;;;;;;;;;;;;;;;;;;;;;;;;;;;;;;;;;;;;;;;;1,000000;0,537724;0,332088;0,332351;0,332615;
49;;;;;;;;;;;;;;;;;;;;;;;;;;;;;;;;;;;;;;;;;;;;;;;;;1,000000;0,365350;0,365612;0,365876;
50;;;;;;;;;;;;;;;;;;;;;;;;;;;;;;;;;;;;;;;;;;;;;;;;;;1,000000;0,458938;1,000000;
51;;;;;;;;;;;;;;;;;;;;;;;;;;;;;;;;;;;;;;;;;;;;;;;;;;;1,000000;0,459464;
52;;;;;;;;;;;;;;;;;;;;;;;;;;;;;;;;;;;;;;;;;;;;;;;;;;;;1,000000;
