;1; 2; 3; 4; 5; 6; 7; 8; 9; 10; 11; 12; 13; 14; 15; 16; 17; 18; 19; 20; 21; 22; 23; 24; 25; 26; 27; 28; 29; 30; 31; 32; 33; 34; 35; 36; 37; 38; 39; 40; 41; 42
1;1,000000;0,623368;0,000000;0,509091;0,000000;0,710710;0,612820;0,748185;0,540083;0,000000;0,663303;0,666122;0,605470;0,507789;0,982436;0,506173;0,495644;0,506173;0,000000;0,500486;0,666667;0,666667;0,666667;0,000000;0,000000;0,000000;0,000000;0,000000;1,000000;0,664984;0,664984;0,000000;0,665462;0,663464;0,663464;0,000000;0,604798;0,503145;0,000000;0,000000;0,501485;0,667710;
2;;1,000000;0,960481;0,701950;0,851803;0,712557;0,654113;0,750972;0,556415;0,960481;0,520291;0,349370;0,454116;0,629094;0,000000;0,644990;0,880718;0,644990;0,927041;0,502147;0,349370;0,349370;0,349370;0,266667;0,266667;0,266667;0,266667;0,266667;0,000000;0,659155;0,659155;0,927041;0,666281;0,666281;0,666281;0,960481;0,424455;0,502147;0,960481;0,960481;0,502147;0,349370;
3;;;1,000000;0,937500;1,000000;0,762857;0,958299;0,625000;0,953189;1,000000;0,839765;0,666667;0,858644;0,933333;0,000000;0,888889;0,928571;0,888889;1,000000;0,750000;0,666667;0,666667;0,666667;0,000000;0,000000;0,000000;0,000000;0,000000;0,000000;0,666667;0,666667;1,000000;0,666667;0,666667;0,666667;1,000000;0,802012;0,750000;1,000000;1,000000;0,750000;0,666667;
4;;;;1,000000;0,843750;0,473142;0,691578;0,375000;0,703283;0,937500;0,611577;0,437500;0,592287;0,714286;0,000000;0,700000;0,666667;0,700000;0,900000;0,562500;0,437500;0,437500;0,437500;0,000000;0,000000;0,000000;0,000000;0,000000;0,000000;0,437500;0,437500;0,900000;0,437500;0,437500;0,437500;0,937500;0,543621;1,000000;0,937500;0,937500;0,562500;0,437500;
5;;;;;1,000000;0,491836;0,840555;0,375000;0,837963;1,000000;0,656639;0,444444;0,646609;0,814815;0,000000;0,761905;0,772727;0,761905;1,000000;0,583333;0,444444;0,444444;0,444444;0,000000;0,000000;0,000000;0,000000;0,000000;0,000000;0,444444;0,444444;1,000000;0,444444;0,444444;0,444444;1,000000;0,575739;0,583333;1,000000;1,000000;0,583333;0,444444;
6;;;;;;1,000000;0,696458;0,788570;0,346597;0,762857;0,403933;0,318412;0,346972;0,414602;0,644285;0,477618;0,682855;0,477618;0,644285;0,859047;0,318412;0,318412;0,318412;0,000000;0,000000;0,000000;0,000000;0,000000;0,000000;0,636825;0,636825;0,644285;0,955237;0,636825;0,636825;0,762857;0,347303;0,429523;0,762857;0,762857;0,429523;0,318412;
7;;;;;;;1,000000;0,741182;0,530377;0,958299;0,510523;0,342914;0,439237;0,614472;0,900390;0,636841;0,485963;0,636841;0,922555;0,966125;0,342914;0,342914;0,342914;0,000000;0,000000;0,000000;0,000000;0,000000;0,000000;0,658433;0,658433;0,922555;0,658433;0,653517;0,653517;0,958299;0,413442;0,496761;0,958299;0,958299;0,496761;0,342914;
8;;;;;;;;1,000000;0,286523;0,625000;0,339765;0,291667;0,296144;0,333333;0,500000;0,388889;0,571429;0,388889;0,500000;0,750000;0,291667;0,291667;0,291667;0,000000;0,000000;0,000000;0,000000;0,000000;0,000000;0,583333;0,583333;0,500000;0,875000;0,583333;0,583333;0,625000;0,302012;0,375000;0,625000;0,625000;0,375000;0,291667;
9;;;;;;;;;1,000000;0,953189;0,747704;0,674613;0,473882;0,637345;0,000000;0,649074;0,533730;0,649074;0,915741;0,508745;0,360597;0,360597;0,360597;0,000000;0,000000;0,000000;0,000000;0,000000;0,000000;0,360597;0,360597;0,915741;0,360597;0,360597;0,360597;0,953189;0,608833;0,508745;0,953189;0,953189;0,508745;0,672682;
10;;;;;;;;;;1,000000;0,839765;0,666667;0,858644;0,933333;0,000000;0,888889;0,928571;0,888889;1,000000;0,750000;0,666667;0,666667;0,666667;0,000000;0,000000;0,000000;0,000000;0,000000;0,000000;0,666667;0,666667;1,000000;0,666667;0,666667;0,666667;1,000000;0,802012;0,750000;1,000000;1,000000;0,750000;0,666667;
11;;;;;;;;;;;1,000000;0,694473;0,678404;0,568419;0,000000;0,592981;0,514471;0,592981;0,759648;0,506432;0,395321;0,395321;0,395321;0,000000;0,000000;0,000000;0,000000;0,000000;0,000000;0,395321;0,395321;0,759648;0,395321;0,395321;0,395321;0,839765;0,462665;0,506432;0,839765;0,839765;0,506432;0,395321;
12;;;;;;;;;;;;1,000000;0,642890;0,400000;0,000000;0,444444;0,357143;0,444444;0,555556;0,416667;0,333333;0,333333;0,333333;0,000000;0,000000;0,000000;0,000000;0,000000;0,000000;0,333333;0,333333;0,555556;0,333333;0,333333;0,333333;0,666667;0,357567;0,416667;0,666667;0,666667;0,416667;0,333333;
13;;;;;;;;;;;;;1,000000;0,534042;0,000000;0,573830;0,456383;0,573830;0,773830;0,483644;0,358644;0,358644;0,358644;0,000000;0,000000;0,000000;0,000000;0,000000;0,000000;0,358644;0,358644;0,773830;0,358644;0,358644;0,358644;0,858644;0,790458;0,483644;0,858644;0,858644;0,939510;0,689510;
14;;;;;;;;;;;;;;1,000000;0,000000;0,666667;0,600000;0,666667;0,888889;0,533333;0,400000;0,400000;0,400000;0,000000;0,000000;0,000000;0,000000;0,000000;0,000000;0,400000;0,400000;0,888889;0,400000;0,400000;0,400000;0,933333;0,492912;0,533333;0,933333;0,933333;0,533333;0,400000;
15;;;;;;;;;;;;;;;1,000000;0,000000;0,000000;0,000000;0,000000;0,666667;0,000000;0,000000;0,000000;0,800000;0,800000;0,800000;0,800000;0,800000;0,000000;0,555556;0,555556;0,000000;0,555556;0,000000;0,000000;0,000000;0,000000;0,000000;0,000000;0,000000;0,000000;0,000000;
16;;;;;;;;;;;;;;;;1,000000;0,625000;0,666667;0,833333;0,555556;0,444444;0,444444;0,444444;0,000000;0,000000;0,000000;0,000000;0,000000;0,000000;0,444444;0,444444;0,833333;0,444444;0,444444;0,444444;0,888889;0,536351;0,555556;0,888889;0,888889;0,555556;0,444444;
17;;;;;;;;;;;;;;;;;1,000000;0,625000;0,875000;0,500000;0,357143;0,357143;0,357143;0,000000;0,000000;0,000000;0,000000;0,000000;0,000000;0,357143;0,357143;0,875000;0,714286;0,714286;0,714286;0,928571;0,429526;0,500000;0,928571;0,928571;0,500000;0,357143;
18;;;;;;;;;;;;;;;;;;1,000000;0,833333;0,555556;0,444444;0,444444;0,444444;0,000000;0,000000;0,000000;0,000000;0,000000;0,000000;0,444444;0,444444;0,833333;0,444444;0,444444;0,444444;0,888889;0,536351;0,555556;0,888889;0,888889;0,555556;0,444444;
19;;;;;;;;;;;;;;;;;;;1,000000;0,666667;0,555556;0,555556;0,555556;0,000000;0,000000;0,000000;0,000000;0,000000;0,000000;0,555556;0,555556;1,000000;0,555556;0,555556;0,555556;1,000000;0,703017;0,666667;1,000000;1,000000;0,666667;0,555556;
20;;;;;;;;;;;;;;;;;;;;1,000000;0,416667;0,416667;0,416667;0,000000;0,000000;0,000000;0,000000;0,000000;0,000000;0,833333;0,833333;0,666667;0,833333;0,416667;0,416667;0,750000;0,468678;0,500000;0,750000;0,750000;0,500000;0,416667;
21;;;;;;;;;;;;;;;;;;;;;1,000000;0,666667;0,666667;0,000000;0,000000;0,000000;0,000000;0,000000;0,000000;0,333333;0,333333;0,555556;0,333333;0,333333;0,333333;0,666667;0,357567;0,416667;0,666667;0,666667;0,416667;0,333333;
22;;;;;;;;;;;;;;;;;;;;;;1,000000;0,666667;0,000000;0,000000;0,000000;0,000000;0,000000;0,000000;0,333333;0,333333;0,555556;0,333333;0,333333;0,333333;0,666667;0,357567;0,416667;0,666667;0,666667;0,416667;0,333333;
23;;;;;;;;;;;;;;;;;;;;;;;1,000000;0,000000;0,000000;0,000000;0,000000;0,000000;0,000000;0,333333;0,333333;0,555556;0,333333;0,333333;0,333333;0,666667;0,357567;0,416667;0,666667;0,666667;0,416667;0,333333;
24;;;;;;;;;;;;;;;;;;;;;;;;1,000000;0,800000;0,800000;0,800000;0,800000;0,000000;0,000000;0,000000;0,000000;0,000000;0,000000;0,000000;0,000000;0,000000;0,000000;0,000000;0,000000;0,000000;0,000000;
25;;;;;;;;;;;;;;;;;;;;;;;;;1,000000;0,800000;0,800000;0,800000;0,000000;0,000000;0,000000;0,000000;0,000000;0,000000;0,000000;0,000000;0,000000;0,000000;0,000000;0,000000;0,000000;0,000000;
26;;;;;;;;;;;;;;;;;;;;;;;;;;1,000000;0,800000;0,800000;0,000000;0,000000;0,000000;0,000000;0,000000;0,000000;0,000000;0,000000;0,000000;0,000000;0,000000;0,000000;0,000000;0,000000;
27;;;;;;;;;;;;;;;;;;;;;;;;;;;1,000000;0,800000;0,000000;0,000000;0,000000;0,000000;0,000000;0,000000;0,000000;0,000000;0,000000;0,000000;0,000000;0,000000;0,000000;0,000000;
28;;;;;;;;;;;;;;;;;;;;;;;;;;;;1,000000;0,000000;0,000000;0,000000;0,000000;0,000000;0,000000;0,000000;0,000000;0,000000;0,000000;0,000000;0,000000;0,000000;0,000000;
29;;;;;;;;;;;;;;;;;;;;;;;;;;;;;1,000000;0,000000;0,000000;0,000000;0,000000;0,000000;0,000000;0,000000;0,000000;0,000000;0,000000;0,000000;0,000000;0,000000;
30;;;;;;;;;;;;;;;;;;;;;;;;;;;;;;1,000000;0,666667;0,555556;0,666667;0,333333;0,333333;0,666667;0,357567;0,416667;0,666667;0,666667;0,416667;0,333333;
31;;;;;;;;;;;;;;;;;;;;;;;;;;;;;;;1,000000;0,555556;0,666667;0,333333;0,333333;0,666667;0,357567;0,416667;0,666667;0,666667;0,416667;0,333333;
32;;;;;;;;;;;;;;;;;;;;;;;;;;;;;;;;1,000000;0,555556;0,555556;0,555556;1,000000;0,703017;0,666667;1,000000;1,000000;0,666667;0,555556;
33;;;;;;;;;;;;;;;;;;;;;;;;;;;;;;;;;1,000000;0,666667;0,666667;0,666667;0,357567;0,416667;0,666667;0,666667;0,416667;0,333333;
34;;;;;;;;;;;;;;;;;;;;;;;;;;;;;;;;;;1,000000;0,666667;0,666667;0,357567;0,416667;0,666667;0,666667;0,416667;0,333333;
35;;;;;;;;;;;;;;;;;;;;;;;;;;;;;;;;;;;1,000000;0,666667;0,357567;0,416667;0,666667;0,666667;0,416667;0,333333;
36;;;;;;;;;;;;;;;;;;;;;;;;;;;;;;;;;;;;1,000000;0,802012;0,750000;1,000000;1,000000;0,750000;0,666667;
37;;;;;;;;;;;;;;;;;;;;;;;;;;;;;;;;;;;;;1,000000;0,468678;0,802012;0,802012;0,937357;0,715134;
38;;;;;;;;;;;;;;;;;;;;;;;;;;;;;;;;;;;;;;1,000000;0,750000;0,750000;0,500000;0,416667;
39;;;;;;;;;;;;;;;;;;;;;;;;;;;;;;;;;;;;;;;1,000000;1,000000;0,750000;0,666667;
40;;;;;;;;;;;;;;;;;;;;;;;;;;;;;;;;;;;;;;;;1,000000;0,750000;0,666667;
41;;;;;;;;;;;;;;;;;;;;;;;;;;;;;;;;;;;;;;;;;1,000000;0,833333;
42;;;;;;;;;;;;;;;;;;;;;;;;;;;;;;;;;;;;;;;;;;1,000000;
