;1; 2; 3; 4; 5; 6; 7; 8; 9; 10; 11; 12; 13; 14; 15; 16; 17; 18; 19; 20; 21; 22; 23; 24; 25; 26; 27; 28; 29; 30; 31; 32; 33; 34; 35; 36; 37; 38
1;1,000000;0,221087;0,438586;0,457243;0,433945;0,300528;0,444410;0,000000;0,088285;0,412780;0,205123;0,000000;0,280551;0,000000;0,000000;0,000000;0,000000;0,000000;0,000000;0,312930;0,314761;0,000000;0,000000;0,000000;0,410434;0,411407;0,412328;0,000000;0,000000;0,000000;0,000000;0,369878;0,370741;0,000000;0,000000;0,373124;0,373862;0,000000;
2;;1,000000;0,615203;0,630744;0,541567;0,687427;0,466231;0,672320;0,773747;0,545183;0,154989;0,672320;0,353785;0,000000;0,000000;0,000000;0,000000;0,672320;0,672320;0,391612;0,391612;0,000000;0,000000;0,672320;0,318859;0,319107;0,319363;0,672320;0,672320;0,000000;0,000000;0,406101;0,406101;0,672320;0,672320;0,409518;0,409518;0,672320;
3;;;1,000000;0,588924;0,559001;0,398573;0,582966;0,557588;0,648131;0,794462;0,125992;0,557588;0,660127;0,000000;0,000000;0,000000;0,000000;0,557588;0,557588;0,276880;0,276880;0,000000;0,000000;0,557588;0,204126;0,204375;0,204631;0,557588;0,557588;0,000000;0,000000;0,291369;0,291369;0,557588;0,557588;0,294785;0,294785;0,557588;
4;;;;1,000000;0,565986;0,404616;0,582966;0,560537;0,654173;0,794462;0,131235;0,560537;0,662998;0,000000;0,000000;0,000000;0,000000;0,560537;0,560537;0,279830;0,279830;0,000000;0,000000;0,560537;0,207076;0,207325;0,207581;0,560537;0,560537;0,000000;0,000000;0,294319;0,294319;0,560537;0,560537;0,297735;0,297735;0,560537;
5;;;;;1,000000;0,454372;0,607039;0,597230;0,464809;0,470936;0,174876;0,597230;0,691276;0,157272;0,157862;0,158461;0,159063;0,597230;0,597230;0,316522;0,316522;0,530357;0,530357;0,597230;0,243768;0,244017;0,244273;0,597230;0,597230;0,000000;0,000000;0,331011;0,331011;0,597230;0,597230;0,334428;0,334428;0,597230;
6;;;;;;1,000000;0,640720;0,558852;0,750442;0,521878;0,368748;0,558852;0,240317;0,200544;0,201134;0,201733;0,202334;0,558852;0,558852;0,278145;0,278145;0,573629;0,573629;0,558852;0,205391;0,205639;0,205896;0,558852;0,558852;0,000000;0,000000;0,292633;0,292633;0,558852;0,558852;0,296050;0,296050;0,558852;
7;;;;;;;1,000000;0,547677;0,692483;0,788504;0,327299;0,547677;0,616624;0,188642;0,189233;0,189832;0,190433;0,547677;0,547677;0,266969;0,266969;0,561728;0,561728;0,547677;0,194215;0,194464;0,194720;0,547677;0,547677;0,000000;0,000000;0,281458;0,281458;0,547677;0,547677;0,284874;0,284874;0,547677;
8;;;;;;;;1,000000;0,867580;0,607104;0,000000;1,000000;0,681465;0,000000;0,000000;0,000000;0,000000;1,000000;1,000000;0,719293;0,719293;0,000000;0,000000;1,000000;0,646539;0,646787;0,647044;1,000000;1,000000;0,000000;0,000000;0,733781;0,733781;1,000000;1,000000;0,737198;0,737198;1,000000;
9;;;;;;;;;1,000000;0,771436;0,117861;0,867580;0,549045;0,000000;0,000000;0,000000;0,000000;0,867580;0,867580;0,586872;0,586872;0,000000;0,000000;0,867580;0,514119;0,514367;0,514623;0,867580;0,867580;0,000000;0,000000;0,601361;0,601361;0,867580;0,867580;0,604778;0,604778;0,867580;
10;;;;;;;;;;1,000000;0,186079;0,607104;0,779660;0,000000;0,000000;0,000000;0,000000;0,607104;0,607104;0,326397;0,326397;0,000000;0,000000;0,607104;0,253643;0,253892;0,254148;0,607104;0,607104;0,000000;0,000000;0,340886;0,340886;0,607104;0,607104;0,344302;0,344302;0,607104;
11;;;;;;;;;;;1,000000;0,000000;0,000000;0,615055;0,616456;0,617780;0,619032;0,000000;0,000000;0,000000;0,000000;0,000000;0,000000;0,000000;0,000000;0,000000;0,000000;0,000000;0,000000;0,000000;0,000000;0,000000;0,000000;0,000000;0,000000;0,000000;0,000000;0,000000;
12;;;;;;;;;;;;1,000000;0,681465;0,000000;0,000000;0,000000;0,000000;1,000000;1,000000;0,719293;0,719293;0,000000;0,000000;1,000000;0,646539;0,646787;0,647044;1,000000;1,000000;0,000000;0,000000;0,733781;0,733781;1,000000;1,000000;0,737198;0,737198;1,000000;
13;;;;;;;;;;;;;1,000000;0,000000;0,000000;0,000000;0,000000;0,681465;0,681465;0,400757;0,400757;0,000000;0,000000;0,681465;0,328004;0,328252;0,328508;0,681465;0,681465;0,000000;0,000000;0,415246;0,415246;0,681465;0,681465;0,418663;0,418663;0,681465;
14;;;;;;;;;;;;;;1,000000;0,774750;0,776494;0,778155;0,000000;0,000000;0,000000;0,000000;0,626915;0,626915;0,000000;0,000000;0,000000;0,000000;0,000000;0,000000;0,000000;0,000000;0,000000;0,000000;0,000000;0,000000;0,000000;0,000000;0,000000;
15;;;;;;;;;;;;;;;1,000000;0,778155;0,779739;0,000000;0,000000;0,000000;0,000000;0,627505;0,627505;0,000000;0,000000;0,000000;0,000000;0,000000;0,000000;0,000000;0,000000;0,000000;0,000000;0,000000;0,000000;0,000000;0,000000;0,000000;
16;;;;;;;;;;;;;;;;1,000000;0,781254;0,000000;0,000000;0,000000;0,000000;0,628104;0,628104;0,000000;0,000000;0,000000;0,000000;0,000000;0,000000;0,000000;0,000000;0,000000;0,000000;0,000000;0,000000;0,000000;0,000000;0,000000;
17;;;;;;;;;;;;;;;;;1,000000;0,000000;0,000000;0,000000;0,000000;0,628705;0,628705;0,000000;0,000000;0,000000;0,000000;0,000000;0,000000;0,000000;0,000000;0,000000;0,000000;0,000000;0,000000;0,000000;0,000000;0,000000;
18;;;;;;;;;;;;;;;;;;1,000000;1,000000;0,719293;0,719293;0,000000;0,000000;1,000000;0,646539;0,646787;0,647044;1,000000;1,000000;0,000000;0,000000;0,733781;0,733781;1,000000;1,000000;0,737198;0,737198;1,000000;
19;;;;;;;;;;;;;;;;;;;1,000000;0,719293;0,719293;0,000000;0,000000;1,000000;0,646539;0,646787;0,647044;1,000000;1,000000;0,000000;0,000000;0,733781;0,733781;1,000000;1,000000;0,737198;0,737198;1,000000;
20;;;;;;;;;;;;;;;;;;;;1,000000;0,438585;0,000000;0,000000;0,719293;0,365831;0,366080;0,366336;0,719293;0,719293;0,000000;0,000000;0,453074;0,453074;0,719293;0,719293;0,456491;0,456491;0,719293;
21;;;;;;;;;;;;;;;;;;;;;1,000000;0,000000;0,000000;0,719293;0,365831;0,366080;0,366336;0,719293;0,719293;0,000000;0,000000;0,453074;0,453074;0,719293;0,719293;0,456491;0,456491;0,719293;
22;;;;;;;;;;;;;;;;;;;;;;1,000000;1,000000;0,000000;0,000000;0,000000;0,000000;0,000000;0,000000;0,000000;0,000000;0,000000;0,000000;0,000000;0,000000;0,000000;0,000000;0,000000;
23;;;;;;;;;;;;;;;;;;;;;;;1,000000;0,000000;0,000000;0,000000;0,000000;0,000000;0,000000;0,000000;0,000000;0,000000;0,000000;0,000000;0,000000;0,000000;0,000000;0,000000;
24;;;;;;;;;;;;;;;;;;;;;;;;1,000000;0,646539;0,646787;0,647044;1,000000;1,000000;0,000000;0,000000;0,733781;0,733781;1,000000;1,000000;0,737198;0,737198;1,000000;
25;;;;;;;;;;;;;;;;;;;;;;;;;1,000000;0,751338;0,752257;0,646539;0,646539;0,000000;0,000000;0,380320;0,380320;0,646539;0,646539;0,383737;0,383737;0,646539;
26;;;;;;;;;;;;;;;;;;;;;;;;;;1,000000;0,753152;0,646787;0,646787;0,000000;0,000000;0,380568;0,380568;0,646787;0,646787;0,383985;0,383985;0,646787;
27;;;;;;;;;;;;;;;;;;;;;;;;;;;1,000000;0,647044;0,647044;0,000000;0,000000;0,380825;0,380825;0,647044;0,647044;0,384242;0,384242;0,647044;
28;;;;;;;;;;;;;;;;;;;;;;;;;;;;1,000000;1,000000;0,000000;0,000000;0,733781;0,733781;1,000000;1,000000;0,737198;0,737198;1,000000;
29;;;;;;;;;;;;;;;;;;;;;;;;;;;;;1,000000;0,000000;0,000000;0,733781;0,733781;1,000000;1,000000;0,737198;0,737198;1,000000;
30;;;;;;;;;;;;;;;;;;;;;;;;;;;;;;1,000000;0,000000;0,000000;0,000000;0,000000;0,000000;0,000000;0,000000;0,000000;
31;;;;;;;;;;;;;;;;;;;;;;;;;;;;;;;1,000000;0,000000;0,000000;0,000000;0,000000;0,000000;0,000000;0,000000;
32;;;;;;;;;;;;;;;;;;;;;;;;;;;;;;;;1,000000;0,467562;0,733781;0,733781;0,470979;0,470979;0,733781;
33;;;;;;;;;;;;;;;;;;;;;;;;;;;;;;;;;1,000000;0,733781;0,733781;0,470979;0,470979;0,733781;
34;;;;;;;;;;;;;;;;;;;;;;;;;;;;;;;;;;1,000000;1,000000;0,737198;0,737198;1,000000;
35;;;;;;;;;;;;;;;;;;;;;;;;;;;;;;;;;;;1,000000;0,737198;0,737198;1,000000;
36;;;;;;;;;;;;;;;;;;;;;;;;;;;;;;;;;;;;1,000000;0,474396;0,737198;
37;;;;;;;;;;;;;;;;;;;;;;;;;;;;;;;;;;;;;1,000000;0,737198;
38;;;;;;;;;;;;;;;;;;;;;;;;;;;;;;;;;;;;;;1,000000;
