;1; 2; 3; 4; 5; 6; 7; 8; 9; 10; 11; 12; 13; 14; 15; 16; 17; 18; 19; 20; 21; 22; 23; 24; 25; 26; 27; 28; 29; 30; 31; 32; 33; 34; 35; 36; 37; 38; 39; 40; 41; 42; 43; 44; 45; 46; 47; 48; 49; 50; 51; 52; 53; 54; 55; 56; 57; 58; 59; 60; 61; 62; 63; 64; 65; 66; 67; 68
1;1,000000;0,282376;0,282376;0,000000;0,000000;0,000000;0,386134;0,386134;0,386134;0,442962;0,442962;0,442962;0,534317;0,476958;0,476958;0,476958;0,476958;0,385567;0,385567;0,385567;0,388546;0,404295;0,471840;0,296446;0,000000;0,000000;0,000000;0,442962;0,442962;0,442962;0,385344;0,385344;0,385344;0,397558;0,394939;0,394939;0,394939;0,447769;0,441389;0,441389;0,441389;0,441389;0,462916;0,462916;0,462916;0,462916;0,303100;0,000000;0,270652;0,270652;0,281651;0,306188;0,261035;0,282372;0,385164;0,385164;0,385164;0,000000;0,296446;0,394939;0,280999;0,280999;0,281651;0,000000;0,000000;0,000000;0,000000;0,000000;
2;;1,000000;0,500000;0,750000;0,750000;0,750000;0,416667;0,416667;0,416667;0,375000;0,375000;0,375000;0,418529;0,350000;0,350000;0,350000;0,350000;0,416667;0,416667;0,416667;0,467287;0,416667;0,416667;0,500000;0,000000;0,000000;0,000000;0,375000;0,375000;0,375000;0,416667;0,416667;0,416667;0,416667;0,416667;0,416667;0,416667;0,365723;0,375000;0,375000;0,375000;0,375000;0,350000;0,350000;0,350000;0,350000;0,000000;0,509528;0,000000;0,000000;0,500000;0,500000;0,583333;0,500000;0,416667;0,416667;0,416667;0,750000;0,500000;0,416667;0,500000;0,500000;0,500000;0,000000;0,000000;0,000000;0,750000;0,750000;
3;;;1,000000;0,750000;0,750000;0,750000;0,416667;0,416667;0,416667;0,375000;0,375000;0,375000;0,418529;0,350000;0,350000;0,350000;0,350000;0,416667;0,416667;0,416667;0,467287;0,416667;0,416667;0,500000;0,000000;0,000000;0,000000;0,375000;0,375000;0,375000;0,416667;0,416667;0,416667;0,416667;0,416667;0,416667;0,416667;0,365723;0,375000;0,375000;0,375000;0,375000;0,350000;0,350000;0,350000;0,350000;0,000000;0,509528;0,000000;0,000000;0,500000;0,500000;0,583333;0,500000;0,416667;0,416667;0,416667;0,750000;0,500000;0,416667;0,500000;0,500000;0,500000;0,000000;0,000000;0,000000;0,750000;0,750000;
4;;;;1,000000;1,000000;1,000000;0,666667;0,666667;0,666667;0,625000;0,625000;0,625000;0,668529;0,600000;0,600000;0,600000;0,600000;0,666667;0,666667;0,666667;0,717287;0,666667;0,666667;0,750000;0,000000;0,000000;0,000000;0,625000;0,625000;0,625000;0,666667;0,666667;0,666667;0,666667;0,666667;0,666667;0,666667;0,615723;0,625000;0,625000;0,625000;0,625000;0,600000;0,600000;0,600000;0,600000;0,000000;0,759528;0,000000;0,000000;0,750000;0,750000;0,833333;0,750000;0,666667;0,666667;0,666667;1,000000;0,750000;0,666667;0,750000;0,750000;0,750000;0,000000;0,000000;0,000000;1,000000;1,000000;
5;;;;;1,000000;1,000000;0,666667;0,666667;0,666667;0,625000;0,625000;0,625000;0,668529;0,600000;0,600000;0,600000;0,600000;0,666667;0,666667;0,666667;0,717287;0,666667;0,666667;0,750000;0,000000;0,000000;0,000000;0,625000;0,625000;0,625000;0,666667;0,666667;0,666667;0,666667;0,666667;0,666667;0,666667;0,615723;0,625000;0,625000;0,625000;0,625000;0,600000;0,600000;0,600000;0,600000;0,000000;0,759528;0,000000;0,000000;0,750000;0,750000;0,833333;0,750000;0,666667;0,666667;0,666667;1,000000;0,750000;0,666667;0,750000;0,750000;0,750000;0,000000;0,000000;0,000000;1,000000;1,000000;
6;;;;;;1,000000;0,666667;0,666667;0,666667;0,625000;0,625000;0,625000;0,668529;0,600000;0,600000;0,600000;0,600000;0,666667;0,666667;0,666667;0,717287;0,666667;0,666667;0,750000;0,000000;0,000000;0,000000;0,625000;0,625000;0,625000;0,666667;0,666667;0,666667;0,666667;0,666667;0,666667;0,666667;0,615723;0,625000;0,625000;0,625000;0,625000;0,600000;0,600000;0,600000;0,600000;0,000000;0,759528;0,000000;0,000000;0,750000;0,750000;0,833333;0,750000;0,666667;0,666667;0,666667;1,000000;0,750000;0,666667;0,750000;0,750000;0,750000;0,000000;0,000000;0,000000;1,000000;1,000000;
7;;;;;;;1,000000;0,666667;0,666667;0,291667;0,291667;0,291667;0,335196;0,266667;0,266667;0,266667;0,266667;0,333333;0,333333;0,333333;0,383954;0,333333;0,333333;0,416667;0,000000;0,000000;0,000000;0,291667;0,291667;0,291667;0,333333;0,333333;0,333333;0,333333;0,333333;0,333333;0,333333;0,282390;0,291667;0,291667;0,291667;0,291667;0,266667;0,266667;0,266667;0,266667;0,000000;0,426195;0,000000;0,000000;0,416667;0,416667;0,500000;0,416667;0,333333;0,333333;0,333333;0,666667;0,416667;0,333333;0,416667;0,416667;0,416667;0,000000;0,000000;0,000000;0,666667;0,666667;
8;;;;;;;;1,000000;0,666667;0,291667;0,291667;0,291667;0,335196;0,266667;0,266667;0,266667;0,266667;0,333333;0,333333;0,333333;0,383954;0,333333;0,333333;0,416667;0,000000;0,000000;0,000000;0,291667;0,291667;0,291667;0,333333;0,333333;0,333333;0,333333;0,333333;0,333333;0,333333;0,282390;0,291667;0,291667;0,291667;0,291667;0,266667;0,266667;0,266667;0,266667;0,000000;0,426195;0,000000;0,000000;0,416667;0,416667;0,500000;0,416667;0,333333;0,333333;0,333333;0,666667;0,416667;0,333333;0,416667;0,416667;0,416667;0,000000;0,000000;0,000000;0,666667;0,666667;
9;;;;;;;;;1,000000;0,291667;0,291667;0,291667;0,335196;0,266667;0,266667;0,266667;0,266667;0,333333;0,333333;0,333333;0,383954;0,333333;0,333333;0,416667;0,000000;0,000000;0,000000;0,291667;0,291667;0,291667;0,333333;0,333333;0,333333;0,333333;0,333333;0,333333;0,333333;0,282390;0,291667;0,291667;0,291667;0,291667;0,266667;0,266667;0,266667;0,266667;0,000000;0,426195;0,000000;0,000000;0,416667;0,416667;0,500000;0,416667;0,333333;0,333333;0,333333;0,666667;0,416667;0,333333;0,416667;0,416667;0,416667;0,000000;0,000000;0,000000;0,666667;0,666667;
10;;;;;;;;;;1,000000;0,750000;0,750000;0,601976;0,450000;0,450000;0,450000;0,450000;0,291667;0,291667;0,291667;0,551874;0,291667;0,291667;0,750000;0,000000;0,000000;0,000000;0,500000;0,500000;0,500000;0,291667;0,291667;0,291667;0,291667;0,291667;0,291667;0,291667;0,240723;0,250000;0,250000;0,250000;0,250000;0,225000;0,225000;0,225000;0,225000;0,000000;0,384528;0,000000;0,000000;0,375000;0,375000;0,458333;0,375000;0,291667;0,291667;0,291667;0,625000;0,750000;0,291667;0,375000;0,375000;0,375000;0,000000;0,000000;0,000000;0,625000;0,625000;
11;;;;;;;;;;;1,000000;0,750000;0,601976;0,450000;0,450000;0,450000;0,450000;0,291667;0,291667;0,291667;0,551874;0,291667;0,291667;0,750000;0,000000;0,000000;0,000000;0,500000;0,500000;0,500000;0,291667;0,291667;0,291667;0,291667;0,291667;0,291667;0,291667;0,240723;0,250000;0,250000;0,250000;0,250000;0,225000;0,225000;0,225000;0,225000;0,000000;0,384528;0,000000;0,000000;0,375000;0,375000;0,458333;0,375000;0,291667;0,291667;0,291667;0,625000;0,750000;0,291667;0,375000;0,375000;0,375000;0,000000;0,000000;0,000000;0,625000;0,625000;
12;;;;;;;;;;;;1,000000;0,601976;0,450000;0,450000;0,450000;0,450000;0,291667;0,291667;0,291667;0,551874;0,291667;0,291667;0,750000;0,000000;0,000000;0,000000;0,500000;0,500000;0,500000;0,291667;0,291667;0,291667;0,291667;0,291667;0,291667;0,291667;0,240723;0,250000;0,250000;0,250000;0,250000;0,225000;0,225000;0,225000;0,225000;0,000000;0,384528;0,000000;0,000000;0,375000;0,375000;0,458333;0,375000;0,291667;0,291667;0,291667;0,625000;0,750000;0,291667;0,375000;0,375000;0,375000;0,000000;0,000000;0,000000;0,625000;0,625000;
13;;;;;;;;;;;;;1,000000;0,648250;0,648250;0,648250;0,648250;0,335196;0,335196;0,335196;0,385816;0,540928;0,411943;0,418529;0,000000;0,000000;0,000000;0,601976;0,601976;0,601976;0,335196;0,335196;0,335196;0,335196;0,335196;0,335196;0,335196;0,406940;0,293529;0,293529;0,293529;0,293529;0,268529;0,268529;0,268529;0,268529;0,000000;0,428057;0,000000;0,000000;0,418529;0,418529;0,501863;0,418529;0,335196;0,335196;0,335196;0,668529;0,418529;0,335196;0,418529;0,418529;0,418529;0,000000;0,000000;0,000000;0,668529;0,668529;
14;;;;;;;;;;;;;;1,000000;0,800000;0,800000;0,800000;0,266667;0,266667;0,266667;0,501874;0,266667;0,266667;0,700000;0,000000;0,000000;0,000000;0,450000;0,450000;0,450000;0,266667;0,266667;0,266667;0,266667;0,266667;0,266667;0,266667;0,215723;0,225000;0,225000;0,225000;0,225000;0,200000;0,200000;0,200000;0,200000;0,000000;0,359528;0,000000;0,000000;0,350000;0,350000;0,433333;0,350000;0,266667;0,266667;0,266667;0,600000;0,700000;0,266667;0,350000;0,350000;0,350000;0,000000;0,000000;0,000000;0,600000;0,600000;
15;;;;;;;;;;;;;;;1,000000;0,800000;0,800000;0,266667;0,266667;0,266667;0,501874;0,266667;0,266667;0,700000;0,000000;0,000000;0,000000;0,450000;0,450000;0,450000;0,266667;0,266667;0,266667;0,266667;0,266667;0,266667;0,266667;0,215723;0,225000;0,225000;0,225000;0,225000;0,200000;0,200000;0,200000;0,200000;0,000000;0,359528;0,000000;0,000000;0,350000;0,350000;0,433333;0,350000;0,266667;0,266667;0,266667;0,600000;0,700000;0,266667;0,350000;0,350000;0,350000;0,000000;0,000000;0,000000;0,600000;0,600000;
16;;;;;;;;;;;;;;;;1,000000;0,800000;0,266667;0,266667;0,266667;0,501874;0,266667;0,266667;0,700000;0,000000;0,000000;0,000000;0,450000;0,450000;0,450000;0,266667;0,266667;0,266667;0,266667;0,266667;0,266667;0,266667;0,215723;0,225000;0,225000;0,225000;0,225000;0,200000;0,200000;0,200000;0,200000;0,000000;0,359528;0,000000;0,000000;0,350000;0,350000;0,433333;0,350000;0,266667;0,266667;0,266667;0,600000;0,700000;0,266667;0,350000;0,350000;0,350000;0,000000;0,000000;0,000000;0,600000;0,600000;
17;;;;;;;;;;;;;;;;;1,000000;0,266667;0,266667;0,266667;0,501874;0,266667;0,266667;0,700000;0,000000;0,000000;0,000000;0,450000;0,450000;0,450000;0,266667;0,266667;0,266667;0,266667;0,266667;0,266667;0,266667;0,215723;0,225000;0,225000;0,225000;0,225000;0,200000;0,200000;0,200000;0,200000;0,000000;0,359528;0,000000;0,000000;0,350000;0,350000;0,433333;0,350000;0,266667;0,266667;0,266667;0,600000;0,700000;0,266667;0,350000;0,350000;0,350000;0,000000;0,000000;0,000000;0,600000;0,600000;
18;;;;;;;;;;;;;;;;;;1,000000;0,666667;0,666667;0,383954;0,333333;0,333333;0,416667;0,000000;0,000000;0,000000;0,291667;0,291667;0,291667;0,333333;0,333333;0,333333;0,333333;0,333333;0,333333;0,333333;0,282390;0,291667;0,291667;0,291667;0,291667;0,266667;0,266667;0,266667;0,266667;0,000000;0,426195;0,000000;0,000000;0,416667;0,416667;0,500000;0,416667;0,333333;0,333333;0,333333;0,666667;0,416667;0,333333;0,416667;0,416667;0,416667;0,000000;0,000000;0,000000;0,666667;0,666667;
19;;;;;;;;;;;;;;;;;;;1,000000;0,666667;0,383954;0,333333;0,333333;0,416667;0,000000;0,000000;0,000000;0,291667;0,291667;0,291667;0,333333;0,333333;0,333333;0,333333;0,333333;0,333333;0,333333;0,282390;0,291667;0,291667;0,291667;0,291667;0,266667;0,266667;0,266667;0,266667;0,000000;0,426195;0,000000;0,000000;0,416667;0,416667;0,500000;0,416667;0,333333;0,333333;0,333333;0,666667;0,416667;0,333333;0,416667;0,416667;0,416667;0,000000;0,000000;0,000000;0,666667;0,666667;
20;;;;;;;;;;;;;;;;;;;;1,000000;0,383954;0,333333;0,333333;0,416667;0,000000;0,000000;0,000000;0,291667;0,291667;0,291667;0,333333;0,333333;0,333333;0,333333;0,333333;0,333333;0,333333;0,282390;0,291667;0,291667;0,291667;0,291667;0,266667;0,266667;0,266667;0,266667;0,000000;0,426195;0,000000;0,000000;0,416667;0,416667;0,500000;0,416667;0,333333;0,333333;0,333333;0,666667;0,416667;0,333333;0,416667;0,416667;0,416667;0,000000;0,000000;0,000000;0,666667;0,666667;
21;;;;;;;;;;;;;;;;;;;;;1,000000;0,618892;0,490973;0,801874;0,000000;0,000000;0,000000;0,551874;0,551874;0,551874;0,383954;0,383954;0,383954;0,618892;0,618892;0,618892;0,618892;0,333010;0,342287;0,342287;0,342287;0,342287;0,503287;0,503287;0,503287;0,503287;0,000000;0,476815;0,362192;0,362192;0,467287;0,467287;0,550620;0,467287;0,383954;0,383954;0,383954;0,717287;0,801874;0,618892;0,467287;0,467287;0,467287;0,000000;0,000000;0,000000;0,717287;0,717287;
22;;;;;;;;;;;;;;;;;;;;;;1,000000;0,537681;0,416667;0,000000;0,000000;0,000000;0,291667;0,291667;0,291667;0,333333;0,333333;0,333333;0,666667;0,666667;0,666667;0,666667;0,532679;0,291667;0,291667;0,291667;0,291667;0,266667;0,266667;0,266667;0,266667;0,000000;0,426195;0,000000;0,000000;0,416667;0,416667;0,500000;0,416667;0,333333;0,333333;0,333333;0,666667;0,416667;0,666667;0,416667;0,416667;0,416667;0,000000;0,000000;0,000000;0,666667;0,666667;
23;;;;;;;;;;;;;;;;;;;;;;;1,000000;0,416667;0,000000;0,000000;0,000000;0,291667;0,291667;0,291667;0,333333;0,333333;0,333333;0,573619;0,573295;0,573295;0,573295;0,403693;0,291667;0,291667;0,291667;0,291667;0,266667;0,266667;0,266667;0,266667;0,000000;0,426195;0,000000;0,000000;0,416667;0,416667;0,500000;0,416667;0,333333;0,333333;0,333333;0,666667;0,416667;0,573295;0,416667;0,416667;0,416667;0,000000;0,000000;0,000000;0,666667;0,666667;
24;;;;;;;;;;;;;;;;;;;;;;;;1,000000;0,000000;0,000000;0,000000;0,750000;0,750000;0,750000;0,416667;0,416667;0,416667;0,416667;0,416667;0,416667;0,416667;0,365723;0,375000;0,375000;0,375000;0,375000;0,350000;0,350000;0,350000;0,350000;0,000000;0,509528;0,000000;0,000000;0,500000;0,500000;0,583333;0,500000;0,416667;0,416667;0,416667;0,750000;1,000000;0,416667;0,500000;0,500000;0,500000;0,000000;0,000000;0,000000;0,750000;0,750000;
25;;;;;;;;;;;;;;;;;;;;;;;;;1,000000;0,500000;0,500000;0,000000;0,000000;0,000000;0,000000;0,000000;0,000000;0,000000;0,000000;0,000000;0,000000;0,000000;0,000000;0,000000;0,000000;0,000000;0,000000;0,000000;0,000000;0,000000;0,000000;0,000000;0,000000;0,000000;0,000000;0,000000;0,000000;0,000000;0,000000;0,000000;0,000000;0,000000;0,000000;0,000000;0,000000;0,000000;0,000000;0,000000;0,000000;0,000000;0,000000;0,000000;
26;;;;;;;;;;;;;;;;;;;;;;;;;;1,000000;0,500000;0,000000;0,000000;0,000000;0,000000;0,000000;0,000000;0,000000;0,000000;0,000000;0,000000;0,000000;0,000000;0,000000;0,000000;0,000000;0,000000;0,000000;0,000000;0,000000;0,000000;0,000000;0,000000;0,000000;0,000000;0,000000;0,000000;0,000000;0,000000;0,000000;0,000000;0,000000;0,000000;0,000000;0,000000;0,000000;0,000000;0,000000;0,000000;0,000000;0,000000;0,000000;
27;;;;;;;;;;;;;;;;;;;;;;;;;;;1,000000;0,000000;0,000000;0,000000;0,000000;0,000000;0,000000;0,000000;0,000000;0,000000;0,000000;0,000000;0,000000;0,000000;0,000000;0,000000;0,000000;0,000000;0,000000;0,000000;0,000000;0,000000;0,000000;0,000000;0,000000;0,000000;0,000000;0,000000;0,000000;0,000000;0,000000;0,000000;0,000000;0,000000;0,000000;0,000000;0,000000;0,000000;0,000000;0,000000;0,000000;0,000000;
28;;;;;;;;;;;;;;;;;;;;;;;;;;;;1,000000;0,750000;0,750000;0,291667;0,291667;0,291667;0,291667;0,291667;0,291667;0,291667;0,240723;0,250000;0,250000;0,250000;0,250000;0,225000;0,225000;0,225000;0,225000;0,000000;0,384528;0,000000;0,000000;0,375000;0,375000;0,458333;0,375000;0,291667;0,291667;0,291667;0,625000;0,750000;0,291667;0,375000;0,375000;0,375000;0,000000;0,000000;0,000000;0,625000;0,625000;
29;;;;;;;;;;;;;;;;;;;;;;;;;;;;;1,000000;0,750000;0,291667;0,291667;0,291667;0,291667;0,291667;0,291667;0,291667;0,240723;0,250000;0,250000;0,250000;0,250000;0,225000;0,225000;0,225000;0,225000;0,000000;0,384528;0,000000;0,000000;0,375000;0,375000;0,458333;0,375000;0,291667;0,291667;0,291667;0,625000;0,750000;0,291667;0,375000;0,375000;0,375000;0,000000;0,000000;0,000000;0,625000;0,625000;
30;;;;;;;;;;;;;;;;;;;;;;;;;;;;;;1,000000;0,291667;0,291667;0,291667;0,291667;0,291667;0,291667;0,291667;0,240723;0,250000;0,250000;0,250000;0,250000;0,225000;0,225000;0,225000;0,225000;0,000000;0,384528;0,000000;0,000000;0,375000;0,375000;0,458333;0,375000;0,291667;0,291667;0,291667;0,625000;0,750000;0,291667;0,375000;0,375000;0,375000;0,000000;0,000000;0,000000;0,625000;0,625000;
31;;;;;;;;;;;;;;;;;;;;;;;;;;;;;;;1,000000;0,666667;0,666667;0,333333;0,333333;0,333333;0,333333;0,282390;0,291667;0,291667;0,291667;0,291667;0,266667;0,266667;0,266667;0,266667;0,000000;0,426195;0,000000;0,000000;0,416667;0,416667;0,500000;0,416667;0,333333;0,333333;0,333333;0,666667;0,416667;0,333333;0,416667;0,416667;0,416667;0,000000;0,000000;0,000000;0,666667;0,666667;
32;;;;;;;;;;;;;;;;;;;;;;;;;;;;;;;;1,000000;0,666667;0,333333;0,333333;0,333333;0,333333;0,282390;0,291667;0,291667;0,291667;0,291667;0,266667;0,266667;0,266667;0,266667;0,000000;0,426195;0,000000;0,000000;0,416667;0,416667;0,500000;0,416667;0,333333;0,333333;0,333333;0,666667;0,416667;0,333333;0,416667;0,416667;0,416667;0,000000;0,000000;0,000000;0,666667;0,666667;
33;;;;;;;;;;;;;;;;;;;;;;;;;;;;;;;;;1,000000;0,333333;0,333333;0,333333;0,333333;0,282390;0,291667;0,291667;0,291667;0,291667;0,266667;0,266667;0,266667;0,266667;0,000000;0,426195;0,000000;0,000000;0,416667;0,416667;0,500000;0,416667;0,333333;0,333333;0,333333;0,666667;0,416667;0,333333;0,416667;0,416667;0,416667;0,000000;0,000000;0,000000;0,666667;0,666667;
34;;;;;;;;;;;;;;;;;;;;;;;;;;;;;;;;;;1,000000;0,666667;0,666667;0,666667;0,282390;0,291667;0,291667;0,291667;0,291667;0,266667;0,266667;0,266667;0,266667;0,000000;0,426195;0,000000;0,000000;0,416667;0,416667;0,500000;0,416667;0,333333;0,333333;0,333333;0,666667;0,416667;0,666667;0,416667;0,416667;0,416667;0,000000;0,000000;0,000000;0,666667;0,666667;
35;;;;;;;;;;;;;;;;;;;;;;;;;;;;;;;;;;;1,000000;0,666667;0,666667;0,282390;0,291667;0,291667;0,291667;0,291667;0,266667;0,266667;0,266667;0,266667;0,000000;0,426195;0,000000;0,000000;0,416667;0,416667;0,500000;0,416667;0,333333;0,333333;0,333333;0,666667;0,416667;1,000000;0,416667;0,416667;0,416667;0,000000;0,000000;0,000000;0,666667;0,666667;
36;;;;;;;;;;;;;;;;;;;;;;;;;;;;;;;;;;;;1,000000;0,666667;0,282390;0,291667;0,291667;0,291667;0,291667;0,266667;0,266667;0,266667;0,266667;0,000000;0,426195;0,000000;0,000000;0,416667;0,416667;0,500000;0,416667;0,333333;0,333333;0,333333;0,666667;0,416667;0,666667;0,416667;0,416667;0,416667;0,000000;0,000000;0,000000;0,666667;0,666667;
37;;;;;;;;;;;;;;;;;;;;;;;;;;;;;;;;;;;;;1,000000;0,282390;0,291667;0,291667;0,291667;0,291667;0,266667;0,266667;0,266667;0,266667;0,000000;0,426195;0,000000;0,000000;0,416667;0,416667;0,500000;0,416667;0,333333;0,333333;0,333333;0,666667;0,416667;0,666667;0,416667;0,416667;0,416667;0,000000;0,000000;0,000000;0,666667;0,666667;
38;;;;;;;;;;;;;;;;;;;;;;;;;;;;;;;;;;;;;;1,000000;0,240723;0,240723;0,240723;0,240723;0,679201;0,679201;0,679201;0,679201;0,000000;0,375251;0,421607;0,421607;0,365723;0,365723;0,449057;0,365723;0,282390;0,282390;0,282390;0,615723;0,365723;0,282390;0,365723;0,365723;0,365723;0,000000;0,000000;0,000000;0,615723;0,615723;
39;;;;;;;;;;;;;;;;;;;;;;;;;;;;;;;;;;;;;;;1,000000;0,750000;0,750000;0,750000;0,225000;0,225000;0,225000;0,225000;0,000000;0,384528;0,000000;0,000000;0,375000;0,375000;0,458333;0,375000;0,291667;0,291667;0,291667;0,625000;0,375000;0,291667;0,375000;0,375000;0,375000;0,000000;0,000000;0,000000;0,625000;0,625000;
40;;;;;;;;;;;;;;;;;;;;;;;;;;;;;;;;;;;;;;;;1,000000;0,750000;0,750000;0,225000;0,225000;0,225000;0,225000;0,000000;0,384528;0,000000;0,000000;0,375000;0,375000;0,458333;0,375000;0,291667;0,291667;0,291667;0,625000;0,375000;0,291667;0,375000;0,375000;0,375000;0,000000;0,000000;0,000000;0,625000;0,625000;
41;;;;;;;;;;;;;;;;;;;;;;;;;;;;;;;;;;;;;;;;;1,000000;0,750000;0,225000;0,225000;0,225000;0,225000;0,000000;0,384528;0,000000;0,000000;0,375000;0,375000;0,458333;0,375000;0,291667;0,291667;0,291667;0,625000;0,375000;0,291667;0,375000;0,375000;0,375000;0,000000;0,000000;0,000000;0,625000;0,625000;
42;;;;;;;;;;;;;;;;;;;;;;;;;;;;;;;;;;;;;;;;;;1,000000;0,225000;0,225000;0,225000;0,225000;0,000000;0,384528;0,000000;0,000000;0,375000;0,375000;0,458333;0,375000;0,291667;0,291667;0,291667;0,625000;0,375000;0,291667;0,375000;0,375000;0,375000;0,000000;0,000000;0,000000;0,625000;0,625000;
43;;;;;;;;;;;;;;;;;;;;;;;;;;;;;;;;;;;;;;;;;;;1,000000;0,800000;0,800000;0,800000;0,000000;0,359528;0,350000;0,350000;0,350000;0,350000;0,433333;0,350000;0,266667;0,266667;0,266667;0,600000;0,350000;0,266667;0,350000;0,350000;0,350000;0,000000;0,000000;0,000000;0,600000;0,600000;
44;;;;;;;;;;;;;;;;;;;;;;;;;;;;;;;;;;;;;;;;;;;;1,000000;0,800000;0,800000;0,000000;0,359528;0,350000;0,350000;0,350000;0,350000;0,433333;0,350000;0,266667;0,266667;0,266667;0,600000;0,350000;0,266667;0,350000;0,350000;0,350000;0,000000;0,000000;0,000000;0,600000;0,600000;
45;;;;;;;;;;;;;;;;;;;;;;;;;;;;;;;;;;;;;;;;;;;;;1,000000;0,800000;0,000000;0,359528;0,350000;0,350000;0,350000;0,350000;0,433333;0,350000;0,266667;0,266667;0,266667;0,600000;0,350000;0,266667;0,350000;0,350000;0,350000;0,000000;0,000000;0,000000;0,600000;0,600000;
46;;;;;;;;;;;;;;;;;;;;;;;;;;;;;;;;;;;;;;;;;;;;;;1,000000;0,000000;0,359528;0,350000;0,350000;0,350000;0,350000;0,433333;0,350000;0,266667;0,266667;0,266667;0,600000;0,350000;0,266667;0,350000;0,350000;0,350000;0,000000;0,000000;0,000000;0,600000;0,600000;
47;;;;;;;;;;;;;;;;;;;;;;;;;;;;;;;;;;;;;;;;;;;;;;;1,000000;0,000000;0,000000;0,000000;0,000000;0,000000;0,000000;0,000000;0,000000;0,000000;0,000000;0,000000;0,000000;0,000000;0,000000;0,000000;0,000000;0,648130;0,648130;0,648130;0,000000;0,000000;
48;;;;;;;;;;;;;;;;;;;;;;;;;;;;;;;;;;;;;;;;;;;;;;;;1,000000;0,000000;0,000000;0,509528;0,509528;0,592861;0,509528;0,426195;0,426195;0,426195;0,759528;0,509528;0,426195;0,509528;0,509528;0,509528;0,535342;0,535342;0,535342;0,759528;0,759528;
49;;;;;;;;;;;;;;;;;;;;;;;;;;;;;;;;;;;;;;;;;;;;;;;;;1,000000;0,500000;0,000000;0,000000;0,000000;0,000000;0,000000;0,000000;0,000000;0,000000;0,000000;0,000000;0,000000;0,000000;0,000000;0,000000;0,000000;0,000000;0,000000;0,000000;
50;;;;;;;;;;;;;;;;;;;;;;;;;;;;;;;;;;;;;;;;;;;;;;;;;;1,000000;0,000000;0,000000;0,000000;0,000000;0,000000;0,000000;0,000000;0,000000;0,000000;0,000000;0,000000;0,000000;0,000000;0,000000;0,000000;0,000000;0,000000;0,000000;
51;;;;;;;;;;;;;;;;;;;;;;;;;;;;;;;;;;;;;;;;;;;;;;;;;;;1,000000;0,500000;0,583333;0,500000;0,416667;0,416667;0,416667;0,750000;0,500000;0,416667;0,500000;0,500000;1,000000;0,000000;0,000000;0,000000;0,750000;0,750000;
52;;;;;;;;;;;;;;;;;;;;;;;;;;;;;;;;;;;;;;;;;;;;;;;;;;;;1,000000;0,583333;0,500000;0,416667;0,416667;0,416667;0,750000;0,500000;0,416667;0,500000;0,500000;0,500000;0,000000;0,000000;0,000000;0,750000;0,750000;
53;;;;;;;;;;;;;;;;;;;;;;;;;;;;;;;;;;;;;;;;;;;;;;;;;;;;;1,000000;0,583333;0,500000;0,500000;0,500000;0,833333;0,583333;0,500000;0,583333;0,583333;0,583333;0,000000;0,000000;0,000000;0,833333;0,833333;
54;;;;;;;;;;;;;;;;;;;;;;;;;;;;;;;;;;;;;;;;;;;;;;;;;;;;;;1,000000;0,416667;0,416667;0,416667;0,750000;0,500000;0,416667;0,500000;0,500000;0,500000;0,000000;0,000000;0,000000;0,750000;0,750000;
55;;;;;;;;;;;;;;;;;;;;;;;;;;;;;;;;;;;;;;;;;;;;;;;;;;;;;;;1,000000;0,666667;0,666667;0,666667;0,416667;0,333333;0,416667;0,416667;0,416667;0,000000;0,000000;0,000000;0,666667;0,666667;
56;;;;;;;;;;;;;;;;;;;;;;;;;;;;;;;;;;;;;;;;;;;;;;;;;;;;;;;;1,000000;0,666667;0,666667;0,416667;0,333333;0,416667;0,416667;0,416667;0,000000;0,000000;0,000000;0,666667;0,666667;
57;;;;;;;;;;;;;;;;;;;;;;;;;;;;;;;;;;;;;;;;;;;;;;;;;;;;;;;;;1,000000;0,666667;0,416667;0,333333;0,416667;0,416667;0,416667;0,000000;0,000000;0,000000;0,666667;0,666667;
58;;;;;;;;;;;;;;;;;;;;;;;;;;;;;;;;;;;;;;;;;;;;;;;;;;;;;;;;;;1,000000;0,750000;0,666667;0,750000;0,750000;0,750000;0,000000;0,000000;0,000000;1,000000;1,000000;
59;;;;;;;;;;;;;;;;;;;;;;;;;;;;;;;;;;;;;;;;;;;;;;;;;;;;;;;;;;;1,000000;0,416667;0,500000;0,500000;0,500000;0,000000;0,000000;0,000000;0,750000;0,750000;
60;;;;;;;;;;;;;;;;;;;;;;;;;;;;;;;;;;;;;;;;;;;;;;;;;;;;;;;;;;;;1,000000;0,416667;0,416667;0,416667;0,000000;0,000000;0,000000;0,666667;0,666667;
61;;;;;;;;;;;;;;;;;;;;;;;;;;;;;;;;;;;;;;;;;;;;;;;;;;;;;;;;;;;;;1,000000;0,500000;0,500000;0,000000;0,000000;0,000000;0,750000;0,750000;
62;;;;;;;;;;;;;;;;;;;;;;;;;;;;;;;;;;;;;;;;;;;;;;;;;;;;;;;;;;;;;;1,000000;0,500000;0,000000;0,000000;0,000000;0,750000;0,750000;
63;;;;;;;;;;;;;;;;;;;;;;;;;;;;;;;;;;;;;;;;;;;;;;;;;;;;;;;;;;;;;;;1,000000;0,000000;0,000000;0,000000;0,750000;0,750000;
64;;;;;;;;;;;;;;;;;;;;;;;;;;;;;;;;;;;;;;;;;;;;;;;;;;;;;;;;;;;;;;;;1,000000;0,666667;0,666667;0,000000;0,000000;
65;;;;;;;;;;;;;;;;;;;;;;;;;;;;;;;;;;;;;;;;;;;;;;;;;;;;;;;;;;;;;;;;;1,000000;0,666667;0,000000;0,000000;
66;;;;;;;;;;;;;;;;;;;;;;;;;;;;;;;;;;;;;;;;;;;;;;;;;;;;;;;;;;;;;;;;;;1,000000;0,000000;0,000000;
67;;;;;;;;;;;;;;;;;;;;;;;;;;;;;;;;;;;;;;;;;;;;;;;;;;;;;;;;;;;;;;;;;;;1,000000;1,000000;
68;;;;;;;;;;;;;;;;;;;;;;;;;;;;;;;;;;;;;;;;;;;;;;;;;;;;;;;;;;;;;;;;;;;;1,000000;
