;1; 2; 3; 4; 5; 6; 7; 8; 9; 10; 11; 12; 13; 14; 15; 16; 17; 18; 19; 20; 21; 22; 23; 24; 25; 26; 27; 28; 29; 30
1;1,000000;0,336150;0,619042;0,653563;0,677444;0,186444;0,209418;0,100740;0,150633;0,101855;0,264736;0,095850;0,121661;0,122289;0,122902;0,105818;0,178836;0,111481;0,189248;0,189917;0,190255;0,191239;0,149465;0,149987;0,000000;0,000000;0,549823;0,000000;0,000000;0,000000;
2;;1,000000;0,379416;0,390538;0,398740;0,412605;0,307357;0,532300;0,480197;0,573789;0,000000;0,417523;0,533775;0,535728;0,537498;0,549575;0,424604;0,519956;0,380927;0,403866;0,405351;0,385575;0,524030;0,525105;0,644201;0,335376;0,000000;0,218420;0,218675;0,218938;
3;;;1,000000;0,695208;0,709086;0,191219;0,214193;0,105515;0,155408;0,106631;0,269512;0,100625;0,126436;0,127064;0,127677;0,110593;0,183611;0,116257;0,194023;0,194693;0,195031;0,196014;0,154240;0,154762;0,000000;0,000000;0,554598;0,000000;0,000000;0,000000;
4;;;;1,000000;0,720319;0,195033;0,218007;0,109329;0,159222;0,110445;0,273326;0,104439;0,130250;0,130878;0,131491;0,114407;0,187425;0,120071;0,197837;0,198507;0,198845;0,199828;0,158054;0,158576;0,000000;0,000000;0,558412;0,000000;0,000000;0,000000;
5;;;;;1,000000;0,198330;0,221305;0,112626;0,162520;0,113742;0,276623;0,107736;0,133548;0,134176;0,134789;0,117705;0,190722;0,123368;0,201134;0,201804;0,202142;0,203126;0,161352;0,161874;0,000000;0,000000;0,561710;0,000000;0,000000;0,000000;
6;;;;;;1,000000;0,370708;0,656455;0,546777;0,709536;0,670187;0,461186;0,580540;0,581935;0,583227;0,669009;0,477972;0,638522;0,276046;0,276715;0,277053;0,278037;0,567865;0,568750;0,426608;0,298667;0,636621;0,220211;0,220467;0,220730;
7;;;;;;;1,000000;0,736261;0,679358;0,587924;0,374509;0,538647;0,598840;0,599660;0,600483;0,745221;0,739106;0,769083;0,299020;0,299690;0,300028;0,301012;0,658584;0,659155;0,392617;0,378790;0,659595;0,000000;0,000000;0,000000;
8;;;;;;;;1,000000;0,386861;0,718067;0,591459;0,246150;0,306343;0,307163;0,307986;0,737248;0,732185;0,772034;0,190342;0,191012;0,191349;0,192333;0,575772;0,575772;0,641555;0,620053;0,550917;0,000000;0,000000;0,000000;
9;;;;;;;;;1,000000;0,573093;0,315724;0,338962;0,399155;0,399975;0,400798;0,580898;0,539420;0,604831;0,240235;0,240905;0,241243;0,242227;0,717264;0,718505;0,379994;0,329171;0,600810;0,000000;0,000000;0,000000;
10;;;;;;;;;;1,000000;0,593326;0,247527;0,307720;0,308540;0,309363;0,740420;0,733367;0,775130;0,191458;0,192127;0,192465;0,193449;0,367464;0,368035;0,647623;0,622797;0,552033;0,000000;0,000000;0,000000;
11;;;;;;;;;;;1,000000;0,260941;0,286752;0,287380;0,287993;0,599999;0,343927;0,609784;0,354339;0,355008;0,355346;0,356330;0,314556;0,315078;0,000000;0,507717;0,714914;0,000000;0,000000;0,000000;
12;;;;;;;;;;;;1,000000;0,671705;0,673062;0,674343;0,255065;0,398709;0,270989;0,185452;0,186122;0,186459;0,187443;0,318187;0,318759;0,189105;0,276980;0,546027;0,586298;0,586931;0,587542;
13;;;;;;;;;;;;;1,000000;0,801157;0,802900;0,315259;0,458902;0,331182;0,211263;0,211933;0,212271;0,213255;0,378381;0,378952;0,214761;0,302635;0,571838;0,318883;0,319138;0,319401;
14;;;;;;;;;;;;;;1,000000;0,804552;0,316078;0,459722;0,332002;0,211891;0,212561;0,212899;0,213882;0,379200;0,379772;0,215514;0,303388;0,572466;0,320025;0,320280;0,320543;
15;;;;;;;;;;;;;;;1,000000;0,316901;0,460545;0,332825;0,212504;0,213174;0,213512;0,214495;0,380024;0,380595;0,216237;0,304111;0,573079;0,321113;0,321369;0,321631;
16;;;;;;;;;;;;;;;;1,000000;0,455524;0,789827;0,195420;0,196090;0,196428;0,197412;0,375002;0,375574;0,665512;0,631735;0,555995;0,000000;0,000000;0,000000;
17;;;;;;;;;;;;;;;;;1,000000;0,766275;0,268438;0,269108;0,269445;0,270429;0,518646;0,519217;0,509500;0,359111;0,629013;0,000000;0,000000;0,000000;
18;;;;;;;;;;;;;;;;;;1,000000;0,201084;0,201753;0,202091;0,203075;0,390926;0,391497;0,695269;0,644711;0,561659;0,000000;0,000000;0,000000;
19;;;;;;;;;;;;;;;;;;;1,000000;0,671589;0,673084;1,000000;0,239067;0,239589;0,000000;0,000000;0,639425;0,000000;0,000000;0,000000;
20;;;;;;;;;;;;;;;;;;;;1,000000;0,711681;0,673792;0,239737;0,240259;0,000000;0,000000;0,640095;0,000000;0,000000;0,000000;
21;;;;;;;;;;;;;;;;;;;;;1,000000;0,675215;0,240075;0,240597;0,000000;0,000000;0,640433;0,000000;0,000000;0,000000;
22;;;;;;;;;;;;;;;;;;;;;;1,000000;0,241059;0,241581;0,000000;0,000000;0,641417;0,000000;0,000000;0,000000;
23;;;;;;;;;;;;;;;;;;;;;;;1,000000;0,756389;0,243304;0,331179;0,599642;0,000000;0,000000;0,000000;
24;;;;;;;;;;;;;;;;;;;;;;;;1,000000;0,243896;0,331771;0,600164;0,000000;0,000000;0,000000;
25;;;;;;;;;;;;;;;;;;;;;;;;;1,000000;0,372689;0,000000;0,000000;0,000000;0,000000;
26;;;;;;;;;;;;;;;;;;;;;;;;;;1,000000;0,000000;0,000000;0,000000;0,000000;
27;;;;;;;;;;;;;;;;;;;;;;;;;;;1,000000;0,000000;0,000000;0,000000;
28;;;;;;;;;;;;;;;;;;;;;;;;;;;;1,000000;0,787897;0,788614;
29;;;;;;;;;;;;;;;;;;;;;;;;;;;;;1,000000;0,789313;
30;;;;;;;;;;;;;;;;;;;;;;;;;;;;;;1,000000;
