;1; 2; 3; 4; 5; 6; 7; 8; 9; 10; 11; 12; 13; 14; 15; 16; 17; 18; 19; 20; 21; 22; 23; 24; 25; 26; 27; 28; 29; 30; 31; 32; 33; 34; 35; 36; 37; 38; 39; 40; 41; 42; 43; 44; 45; 46; 47; 48; 49; 50; 51; 52; 53; 54; 55; 56; 57; 58
1;1,000000;0,639884;0,593296;0,737793;0,738578;0,641533;0,654393;0,658267;0,743425;0,743425;0,743425;0,554541;0,571058;0,497330;0,662379;0,744381;0,744381;0,568033;0,499349;0,661556;0,611447;0,658686;0,499349;0,664726;0,663037;0,520108;0,624503;0,495248;0,500000;0,574800;0,662253;0,603318;0,603318;0,497240;0,000000;0,000000;0,506472;0,498393;0,500000;0,500000;0,663596;0,663596;0,669696;0,662590;0,662590;0,663409;0,663409;0,750000;0,750000;0,750000;0,750000;0,666667;0,666667;0,666667;0,660369;0,660369;0,503303;0,503303;
2;;1,000000;0,584638;0,591907;0,722209;0,652778;0,634125;0,643730;0,731302;0,731302;0,731302;0,428124;0,426657;0,487159;0,654523;0,495666;0,495666;0,532412;0,493202;0,343553;0,370890;0,339011;0,493202;0,339011;0,336339;0,564252;0,705246;0,732803;0,493202;0,562335;0,653976;0,403634;0,403634;0,493202;0,000000;0,000000;0,277778;0,493202;0,487159;0,487159;0,336339;0,336339;0,336339;0,336339;0,336339;0,651869;0,651869;0,264937;0,264937;0,264937;0,264937;0,336339;0,336339;0,336339;0,339011;0,339011;0,264706;0,264706;
3;;;1,000000;0,589006;0,604023;0,676730;0,728982;0,715134;0,562414;0,562414;0,562414;0,721569;0,422343;0,468678;0,695747;0,281207;0,281207;0,437392;0,481207;0,369684;0,386770;0,357567;0,481207;0,357567;0,347874;0,412765;0,391057;0,468678;0,481207;0,827025;0,695747;0,406035;0,406035;0,481207;0,000000;0,000000;0,000000;0,481207;0,468678;0,468678;0,347874;0,347874;0,347874;0,347874;0,347874;0,347874;0,347874;0,302012;0,302012;0,302012;0,302012;0,347874;0,347874;0,347874;0,357567;0,357567;0,000000;0,000000;
4;;;;1,000000;0,691032;0,640089;0,544187;0,568683;0,480427;0,480427;0,480427;0,445767;0,342287;0,400000;0,605427;0,673811;0,673811;0,540929;0,835387;0,285714;0,300359;0,300000;0,835387;0,300000;0,312500;0,307620;0,314912;0,630620;0,437500;0,580712;0,900645;0,343621;0,343621;0,437500;0,000000;0,000000;0,000000;0,437500;0,400000;0,400000;0,312500;0,312500;0,312500;0,312500;0,312500;0,312500;0,312500;0,250000;0,250000;0,250000;0,250000;0,312500;0,312500;0,312500;0,300000;0,300000;0,000000;0,000000;
5;;;;;1,000000;0,729614;0,566667;0,583333;0,500000;0,500000;0,500000;0,503262;0,323830;0,375000;0,611111;0,500000;0,500000;0,519645;0,416667;0,277778;0,289168;0,291667;0,416667;0,291667;0,305556;0,293215;0,301930;0,634019;0,416667;0,598777;0,916667;0,328017;0,328017;0,416667;0,000000;0,000000;0,000000;0,416667;0,375000;0,375000;0,305556;0,305556;0,305556;0,305556;0,305556;0,305556;0,305556;0,250000;0,250000;0,250000;0,250000;0,305556;0,305556;0,305556;0,291667;0,291667;0,000000;0,000000;
6;;;;;;1,000000;0,612977;0,624908;0,508278;0,508278;0,508278;0,534176;0,384437;0,439196;0,641611;0,492542;0,492542;0,510821;0,463518;0,325461;0,342546;0,328085;0,463518;0,328085;0,330184;0,359696;0,353151;0,439196;0,886017;0,676648;0,641611;0,376552;0,376552;0,463518;0,000000;0,000000;0,000000;0,463518;0,439196;0,439196;0,330184;0,330184;0,330184;0,330184;0,330184;0,330184;0,330184;0,272529;0,272529;0,272529;0,272529;0,330184;0,330184;0,330184;0,328085;0,328085;0,000000;0,000000;
7;;;;;;;1,000000;0,666667;0,541667;0,541667;0,541667;0,629486;0,383954;0,433333;0,666667;0,270833;0,270833;0,391369;0,458333;0,333333;0,347978;0,333333;0,458333;0,333333;0,333333;0,363175;0,356579;0,433333;0,458333;0,733811;0,666667;0,376954;0,376954;0,458333;0,000000;0,000000;0,000000;0,458333;0,433333;0,433333;0,333333;0,333333;0,333333;0,333333;0,333333;0,333333;0,333333;0,283333;0,283333;0,283333;0,283333;0,333333;0,333333;0,333333;0,333333;0,333333;0,000000;0,000000;
8;;;;;;;;1,000000;0,555556;0,555556;0,555556;0,639626;0,373830;0,416667;1,000000;0,277778;0,277778;0,378472;0,444444;0,333333;0,344724;0,333333;0,444444;0,333333;0,333333;0,355715;0,351930;0,416667;0,444444;0,717824;0,666667;0,369684;0,369684;0,444444;0,000000;0,000000;0,000000;0,444444;0,416667;0,416667;0,333333;0,333333;0,333333;0,333333;0,333333;0,333333;0,333333;0,291667;0,291667;0,291667;0,291667;0,333333;0,333333;0,333333;0,333333;0,333333;0,000000;0,000000;
9;;;;;;;;;1,000000;0,750000;0,750000;0,501794;0,296144;0,333333;0,583333;0,250000;0,250000;0,293750;0,375000;0,266667;0,273501;0,277778;0,375000;0,277778;0,291667;0,274694;0,282456;0,333333;0,375000;0,557620;0,583333;0,302012;0,302012;0,375000;0,000000;0,000000;0,000000;0,375000;0,333333;0,333333;0,291667;0,291667;0,291667;0,291667;0,291667;0,291667;0,291667;0,250000;0,250000;0,250000;0,250000;0,291667;0,291667;0,291667;0,277778;0,277778;0,000000;0,000000;
10;;;;;;;;;;1,000000;0,750000;0,501794;0,296144;0,333333;0,583333;0,250000;0,250000;0,293750;0,375000;0,266667;0,273501;0,277778;0,375000;0,277778;0,291667;0,274694;0,282456;0,333333;0,375000;0,557620;0,583333;0,302012;0,302012;0,375000;0,000000;0,000000;0,000000;0,375000;0,333333;0,333333;0,291667;0,291667;0,291667;0,291667;0,291667;0,291667;0,291667;0,250000;0,250000;0,250000;0,250000;0,291667;0,291667;0,291667;0,277778;0,277778;0,000000;0,000000;
11;;;;;;;;;;;1,000000;0,501794;0,296144;0,333333;0,583333;0,250000;0,250000;0,293750;0,375000;0,266667;0,273501;0,277778;0,375000;0,277778;0,291667;0,274694;0,282456;0,333333;0,375000;0,557620;0,583333;0,302012;0,302012;0,375000;0,000000;0,000000;0,000000;0,375000;0,333333;0,333333;0,291667;0,291667;0,291667;0,291667;0,291667;0,291667;0,291667;0,250000;0,250000;0,250000;0,250000;0,291667;0,291667;0,291667;0,277778;0,277778;0,000000;0,000000;
12;;;;;;;;;;;;1,000000;0,439106;0,491400;0,651794;0,270270;0,270270;0,463812;0,495270;0,370062;0,393719;0,355037;0,495270;0,355037;0,345270;0,675407;0,614347;0,491400;0,495270;0,728656;0,651794;0,414520;0,414520;0,495270;0,475000;0,475000;0,707904;0,958371;0,491400;0,491400;0,345270;0,345270;0,345270;0,345270;0,345270;0,650837;0,650837;0,286855;0,286855;0,286855;0,286855;0,345270;0,345270;0,345270;0,355037;0,355037;0,726339;0,726339;
13;;;;;;;;;;;;;1,000000;0,473830;0,358644;0,296144;0,296144;0,449221;0,483644;0,391185;0,405830;0,373830;0,483644;0,536742;0,642917;0,430669;0,407199;0,473830;0,483644;0,430181;0,358644;0,417450;0,417450;0,483644;0,000000;0,000000;0,000000;0,483644;0,473830;0,473830;0,642917;0,642917;0,358644;0,358644;0,358644;0,358644;0,358644;0,323830;0,323830;0,323830;0,323830;0,358644;0,358644;0,358644;0,373830;0,373830;0,000000;0,000000;
14;;;;;;;;;;;;;;1,000000;0,388889;0,333333;0,333333;0,489583;0,500000;0,444444;0,455835;0,416667;0,500000;0,756222;0,777778;0,480715;0,451930;0,500000;0,500000;0,477960;0,388889;0,453017;0,453017;0,500000;0,000000;0,000000;0,000000;0,500000;0,500000;0,500000;0,388889;0,388889;0,388889;0,388889;0,388889;0,388889;0,388889;0,375000;0,375000;0,375000;0,375000;0,388889;0,388889;0,388889;0,416667;0,416667;0,000000;0,000000;
15;;;;;;;;;;;;;;;1,000000;0,291667;0,291667;0,360417;0,416667;0,333333;0,340168;0,333333;0,416667;0,333333;0,333333;0,346123;0,344956;0,388889;0,416667;0,696509;0,666667;0,357567;0,357567;0,416667;0,000000;0,000000;0,000000;0,416667;0,388889;0,388889;0,333333;0,333333;0,333333;0,333333;0,333333;0,333333;0,333333;0,305556;0,305556;0,305556;0,305556;0,333333;0,333333;0,333333;0,333333;0,333333;0,000000;0,000000;
16;;;;;;;;;;;;;;;;1,000000;0,750000;0,733080;0,750000;0,266667;0,273501;0,277778;0,750000;0,277778;0,291667;0,274694;0,282456;0,333333;0,375000;0,278810;0,291667;0,302012;0,302012;0,375000;0,000000;0,000000;0,000000;0,375000;0,333333;0,333333;0,291667;0,291667;0,291667;0,291667;0,291667;0,291667;0,291667;0,250000;0,250000;0,250000;0,250000;0,291667;0,291667;0,291667;0,277778;0,277778;0,000000;0,000000;
17;;;;;;;;;;;;;;;;;1,000000;0,733080;0,750000;0,266667;0,273501;0,277778;0,750000;0,277778;0,291667;0,274694;0,282456;0,333333;0,375000;0,278810;0,291667;0,302012;0,302012;0,375000;0,000000;0,000000;0,000000;0,375000;0,333333;0,333333;0,291667;0,291667;0,291667;0,291667;0,291667;0,291667;0,291667;0,250000;0,250000;0,250000;0,250000;0,291667;0,291667;0,291667;0,277778;0,277778;0,000000;0,000000;
18;;;;;;;;;;;;;;;;;;1,000000;0,493750;0,401042;0,418127;0,378472;0,493750;0,378472;0,360417;0,450394;0,417935;0,489583;0,493750;0,448354;0,360417;0,426940;0,426940;0,493750;0,000000;0,000000;0,000000;0,493750;0,489583;0,489583;0,360417;0,360417;0,360417;0,360417;0,360417;0,360417;0,360417;0,322917;0,322917;0,322917;0,322917;0,360417;0,360417;0,360417;0,378472;0,378472;0,000000;0,000000;
19;;;;;;;;;;;;;;;;;;;1,000000;0,466667;0,473501;0,444444;1,000000;0,444444;0,416667;0,488980;0,469956;0,500000;0,500000;0,487143;0,416667;0,468678;0,468678;0,500000;0,000000;0,000000;0,000000;0,500000;0,500000;0,500000;0,416667;0,416667;0,416667;0,416667;0,416667;0,416667;0,416667;0,416667;0,416667;0,416667;0,416667;0,416667;0,416667;0,416667;0,444444;0,444444;0,000000;0,000000;
20;;;;;;;;;;;;;;;;;;;;1,000000;0,533510;0,615119;0,466667;0,333333;0,333333;0,369144;0,359899;0,444444;0,466667;0,373123;0,333333;0,381801;0,381801;0,902405;0,000000;0,000000;0,000000;0,466667;0,444444;0,444444;0,333333;0,333333;0,333333;0,635738;0,635738;0,333333;0,333333;0,277778;0,277778;0,277778;0,277778;0,333333;0,333333;0,333333;0,615402;0,615402;0,000000;0,000000;
21;;;;;;;;;;;;;;;;;;;;;1,000000;0,628942;0,473501;0,344724;0,340168;0,389646;0,374544;0,455835;0,473501;0,392107;0,340168;0,393191;0,393191;0,473501;0,000000;0,000000;0,000000;0,473501;0,455835;0,455835;0,340168;0,340168;0,340168;0,626355;0,626355;0,340168;0,340168;0,289168;0,289168;0,289168;0,289168;0,340168;0,340168;0,340168;0,628942;0,628942;0,000000;0,000000;
22;;;;;;;;;;;;;;;;;;;;;;1,000000;0,444444;0,333333;0,333333;0,355715;0,351930;0,416667;0,444444;0,358912;0,333333;0,369684;0,369684;0,888889;0,000000;0,000000;0,000000;0,444444;0,416667;0,416667;0,333333;0,333333;0,333333;0,666667;0,666667;0,333333;0,333333;0,291667;0,291667;0,291667;0,291667;0,333333;0,333333;0,333333;0,666667;0,666667;0,000000;0,000000;
23;;;;;;;;;;;;;;;;;;;;;;;1,000000;0,444444;0,416667;0,488980;0,469956;0,500000;0,500000;0,487143;0,416667;0,468678;0,468678;0,500000;0,000000;0,000000;0,000000;0,500000;0,500000;0,500000;0,416667;0,416667;0,416667;0,416667;0,416667;0,416667;0,416667;0,416667;0,416667;0,416667;0,416667;0,416667;0,416667;0,416667;0,444444;0,444444;0,000000;0,000000;
24;;;;;;;;;;;;;;;;;;;;;;;;1,000000;0,615259;0,355715;0,351930;0,416667;0,444444;0,358912;0,333333;0,369684;0,369684;0,444444;0,000000;0,000000;0,000000;0,444444;0,416667;0,416667;0,615549;0,615549;0,333333;0,333333;0,333333;0,333333;0,333333;0,291667;0,291667;0,291667;0,291667;0,333333;0,333333;0,333333;0,333333;0,333333;0,000000;0,000000;
25;;;;;;;;;;;;;;;;;;;;;;;;;1,000000;0,346123;0,344956;0,388889;0,416667;0,348254;0,333333;0,357567;0,357567;0,416667;0,000000;0,000000;0,000000;0,416667;0,388889;0,388889;0,666667;0,666667;0,333333;0,333333;0,333333;0,333333;0,333333;0,305556;0,305556;0,305556;0,305556;0,333333;0,333333;0,333333;0,333333;0,333333;0,000000;0,000000;
26;;;;;;;;;;;;;;;;;;;;;;;;;;1,000000;0,713159;0,480715;0,488980;0,422859;0,346123;0,410241;0,410241;0,488980;0,464286;0,464286;0,691685;0,488980;0,480715;0,480715;0,346123;0,346123;0,346123;0,346123;0,346123;0,660026;0,660026;0,293215;0,293215;0,293215;0,293215;0,346123;0,346123;0,346123;0,355715;0,355715;0,716222;0,716222;
27;;;;;;;;;;;;;;;;;;;;;;;;;;;1,000000;0,451930;0,469956;0,395962;0,344956;0,395550;0,395550;0,469956;0,000000;0,000000;0,548931;0,906140;0,451930;0,451930;0,344956;0,344956;0,344956;0,344956;0,344956;0,689912;0,689912;0,301930;0,301930;0,301930;0,301930;0,344956;0,344956;0,344956;0,351930;0,351930;0,530582;0,530582;
28;;;;;;;;;;;;;;;;;;;;;;;;;;;;1,000000;0,500000;0,477960;0,700457;0,453017;0,453017;0,500000;0,000000;0,000000;0,000000;0,500000;0,500000;0,500000;0,388889;0,388889;0,388889;0,388889;0,388889;0,388889;0,388889;0,375000;0,375000;0,375000;0,375000;0,388889;0,388889;0,388889;0,416667;0,416667;0,000000;0,000000;
29;;;;;;;;;;;;;;;;;;;;;;;;;;;;;1,000000;0,487143;0,416667;0,468678;0,468678;0,500000;0,000000;0,000000;0,000000;0,500000;0,500000;0,500000;0,416667;0,416667;0,416667;0,416667;0,416667;0,416667;0,416667;0,416667;0,416667;0,416667;0,416667;0,416667;0,416667;0,416667;0,444444;0,444444;0,000000;0,000000;
30;;;;;;;;;;;;;;;;;;;;;;;;;;;;;;1,000000;0,696509;0,410842;0,410842;0,487143;0,000000;0,000000;0,000000;0,487143;0,477960;0,477960;0,348254;0,348254;0,348254;0,348254;0,348254;0,348254;0,348254;0,299388;0,299388;0,299388;0,299388;0,348254;0,348254;0,348254;0,358912;0,358912;0,000000;0,000000;
31;;;;;;;;;;;;;;;;;;;;;;;;;;;;;;;1,000000;0,357567;0,357567;0,416667;0,000000;0,000000;0,000000;0,416667;0,388889;0,388889;0,333333;0,333333;0,333333;0,333333;0,333333;0,333333;0,333333;0,305556;0,305556;0,305556;0,305556;0,333333;0,333333;0,333333;0,333333;0,333333;0,000000;0,000000;
32;;;;;;;;;;;;;;;;;;;;;;;;;;;;;;;;1,000000;0,600447;0,468678;0,000000;0,000000;0,000000;0,468678;0,453017;0,453017;0,357567;0,357567;0,715134;0,357567;0,357567;0,357567;0,357567;0,328017;0,328017;0,328017;0,328017;0,357567;0,357567;0,357567;0,369684;0,369684;0,000000;0,000000;
33;;;;;;;;;;;;;;;;;;;;;;;;;;;;;;;;;1,000000;0,468678;0,000000;0,000000;0,000000;0,468678;0,453017;0,453017;0,357567;0,357567;0,715134;0,357567;0,357567;0,357567;0,357567;0,328017;0,328017;0,328017;0,328017;0,357567;0,357567;0,357567;0,369684;0,369684;0,000000;0,000000;
34;;;;;;;;;;;;;;;;;;;;;;;;;;;;;;;;;;1,000000;0,000000;0,000000;0,000000;0,500000;0,500000;0,500000;0,416667;0,416667;0,416667;0,833333;0,833333;0,416667;0,416667;0,416667;0,416667;0,416667;0,416667;0,416667;0,416667;0,416667;0,444444;0,444444;0,000000;0,000000;
35;;;;;;;;;;;;;;;;;;;;;;;;;;;;;;;;;;;1,000000;0,500000;0,500000;0,000000;0,000000;0,000000;0,000000;0,000000;0,000000;0,000000;0,000000;0,000000;0,000000;0,000000;0,000000;0,000000;0,000000;0,000000;0,000000;0,000000;0,000000;0,000000;0,375000;0,375000;
36;;;;;;;;;;;;;;;;;;;;;;;;;;;;;;;;;;;;1,000000;0,500000;0,000000;0,000000;0,000000;0,000000;0,000000;0,000000;0,000000;0,000000;0,000000;0,000000;0,000000;0,000000;0,000000;0,000000;0,000000;0,000000;0,000000;0,000000;0,000000;0,375000;0,375000;
37;;;;;;;;;;;;;;;;;;;;;;;;;;;;;;;;;;;;;1,000000;0,416667;0,000000;0,000000;0,000000;0,000000;0,000000;0,000000;0,000000;0,305556;0,305556;0,000000;0,000000;0,000000;0,000000;0,000000;0,000000;0,000000;0,000000;0,000000;0,750000;0,750000;
38;;;;;;;;;;;;;;;;;;;;;;;;;;;;;;;;;;;;;;1,000000;0,500000;0,500000;0,416667;0,416667;0,416667;0,416667;0,416667;0,416667;0,416667;0,416667;0,416667;0,416667;0,416667;0,416667;0,416667;0,416667;0,444444;0,444444;0,375000;0,375000;
39;;;;;;;;;;;;;;;;;;;;;;;;;;;;;;;;;;;;;;;1,000000;0,500000;0,388889;0,388889;0,388889;0,388889;0,388889;0,388889;0,388889;0,375000;0,375000;0,375000;0,375000;0,388889;0,388889;0,388889;0,416667;0,416667;0,000000;0,000000;
40;;;;;;;;;;;;;;;;;;;;;;;;;;;;;;;;;;;;;;;;1,000000;0,388889;0,388889;0,388889;0,388889;0,388889;0,388889;0,388889;0,375000;0,375000;0,375000;0,375000;0,388889;0,388889;0,388889;0,416667;0,416667;0,000000;0,000000;
41;;;;;;;;;;;;;;;;;;;;;;;;;;;;;;;;;;;;;;;;;1,000000;0,666667;0,333333;0,333333;0,333333;0,333333;0,333333;0,305556;0,305556;0,305556;0,305556;0,333333;0,333333;0,333333;0,333333;0,333333;0,000000;0,000000;
42;;;;;;;;;;;;;;;;;;;;;;;;;;;;;;;;;;;;;;;;;;1,000000;0,333333;0,333333;0,333333;0,333333;0,333333;0,305556;0,305556;0,305556;0,305556;0,333333;0,333333;0,333333;0,333333;0,333333;0,000000;0,000000;
43;;;;;;;;;;;;;;;;;;;;;;;;;;;;;;;;;;;;;;;;;;;1,000000;0,333333;0,333333;0,333333;0,333333;0,305556;0,305556;0,305556;0,305556;0,333333;0,333333;0,333333;0,333333;0,333333;0,000000;0,000000;
44;;;;;;;;;;;;;;;;;;;;;;;;;;;;;;;;;;;;;;;;;;;;1,000000;0,666667;0,333333;0,333333;0,305556;0,305556;0,305556;0,305556;0,333333;0,333333;0,333333;0,333333;0,333333;0,000000;0,000000;
45;;;;;;;;;;;;;;;;;;;;;;;;;;;;;;;;;;;;;;;;;;;;;1,000000;0,333333;0,333333;0,305556;0,305556;0,305556;0,305556;0,333333;0,333333;0,333333;0,333333;0,333333;0,000000;0,000000;
46;;;;;;;;;;;;;;;;;;;;;;;;;;;;;;;;;;;;;;;;;;;;;;1,000000;0,666667;0,305556;0,305556;0,305556;0,305556;0,333333;0,333333;0,333333;0,333333;0,333333;0,291667;0,291667;
47;;;;;;;;;;;;;;;;;;;;;;;;;;;;;;;;;;;;;;;;;;;;;;;1,000000;0,305556;0,305556;0,305556;0,305556;0,333333;0,333333;0,333333;0,333333;0,333333;0,291667;0,291667;
48;;;;;;;;;;;;;;;;;;;;;;;;;;;;;;;;;;;;;;;;;;;;;;;;1,000000;0,750000;0,750000;0,750000;0,305556;0,305556;0,305556;0,291667;0,291667;0,000000;0,000000;
49;;;;;;;;;;;;;;;;;;;;;;;;;;;;;;;;;;;;;;;;;;;;;;;;;1,000000;0,750000;0,750000;0,305556;0,305556;0,305556;0,291667;0,291667;0,000000;0,000000;
50;;;;;;;;;;;;;;;;;;;;;;;;;;;;;;;;;;;;;;;;;;;;;;;;;;1,000000;0,750000;0,305556;0,305556;0,305556;0,291667;0,291667;0,000000;0,000000;
51;;;;;;;;;;;;;;;;;;;;;;;;;;;;;;;;;;;;;;;;;;;;;;;;;;;1,000000;0,305556;0,305556;0,305556;0,291667;0,291667;0,000000;0,000000;
52;;;;;;;;;;;;;;;;;;;;;;;;;;;;;;;;;;;;;;;;;;;;;;;;;;;;1,000000;0,666667;0,666667;0,333333;0,333333;0,000000;0,000000;
53;;;;;;;;;;;;;;;;;;;;;;;;;;;;;;;;;;;;;;;;;;;;;;;;;;;;;1,000000;0,666667;0,333333;0,333333;0,000000;0,000000;
54;;;;;;;;;;;;;;;;;;;;;;;;;;;;;;;;;;;;;;;;;;;;;;;;;;;;;;1,000000;0,333333;0,333333;0,000000;0,000000;
55;;;;;;;;;;;;;;;;;;;;;;;;;;;;;;;;;;;;;;;;;;;;;;;;;;;;;;;1,000000;0,666667;0,000000;0,000000;
56;;;;;;;;;;;;;;;;;;;;;;;;;;;;;;;;;;;;;;;;;;;;;;;;;;;;;;;;1,000000;0,000000;0,000000;
57;;;;;;;;;;;;;;;;;;;;;;;;;;;;;;;;;;;;;;;;;;;;;;;;;;;;;;;;;1,000000;0,750000;
58;;;;;;;;;;;;;;;;;;;;;;;;;;;;;;;;;;;;;;;;;;;;;;;;;;;;;;;;;;1,000000;
