;1; 2; 3; 4; 5; 6; 7; 8; 9; 10; 11; 12; 13; 14; 15; 16; 17; 18; 19; 20; 21; 22; 23; 24; 25; 26; 27; 28; 29; 30; 31; 32; 33; 34; 35; 36; 37; 38; 39; 40; 41; 42; 43; 44; 45; 46; 47; 48; 49; 50; 51; 52; 53; 54; 55; 56; 57; 58; 59; 60; 61; 62; 63; 64; 65; 66; 67; 68; 69; 70; 71; 72; 73; 74; 75; 76; 77; 78; 79; 80; 81; 82; 83; 84; 85; 86; 87; 88
1;1,000000;0,666415;0,575454;0,575454;0,575454;0,769257;0,900908;0,789819;0,571348;0,406035;0,406035;0,906035;0,531035;0,406035;0,406035;0,406035;0,449656;0,750000;0,624508;0,459656;0,343535;0,343535;0,518138;0,549656;0,549656;0,575949;0,406035;0,406035;0,406035;0,531035;0,531035;0,449656;0,406035;0,649656;0,531035;0,406035;0,478736;0,000000;0,700454;0,700454;0,000000;0,849656;0,000000;0,560719;0,000000;0,849656;0,000000;0,000000;0,399656;0,406035;0,343535;0,343535;0,343535;0,343535;0,343535;0,343535;0,549656;0,549656;0,906035;0,906035;0,906035;0,549656;0,531035;0,906035;0,906035;0,531035;0,531035;0,531035;0,849656;0,449656;0,906035;0,531035;0,531035;0,343535;0,343535;0,343535;0,343535;0,000000;0,000000;0,000000;0,906035;0,906035;0,406035;0,406035;0,406035;0,406035;0,531035;0,531035;
2;;1,000000;0,746302;0,746302;0,746302;0,650011;0,497026;0,526816;0,556140;0,664709;0,664709;0,000000;0,499465;0,666667;0,666667;0,666667;0,603383;0,586300;0,745216;0,670352;0,750000;0,750000;0,611052;0,497415;0,499180;0,632847;0,666667;0,666667;0,666667;0,500000;0,500000;0,662261;0,663805;0,500000;0,502604;0,666667;0,604843;0,000000;0,663472;0,663472;0,353846;0,000000;0,343750;0,694715;0,744596;0,000000;0,000000;0,000000;0,746256;0,665992;0,746250;0,746250;0,750000;0,750000;0,750000;0,750000;0,500000;0,500000;0,000000;0,000000;0,000000;0,500000;0,500000;0,000000;0,000000;0,500000;0,500000;0,500000;0,000000;0,662261;0,000000;0,500000;0,500000;0,750000;0,750000;0,750000;0,750000;0,251302;0,251302;0,251302;0,000000;0,000000;0,663805;0,666667;0,666667;0,666667;0,500000;0,500000;
3;;;1,000000;0,750000;0,750000;0,722880;0,312500;0,528647;0,280824;0,291667;0,291667;0,625000;0,375000;0,291667;0,291667;0,291667;0,277778;0,275000;0,325000;0,283333;0,250000;0,250000;0,275361;0,333333;0,333333;0,262438;0,291667;0,291667;0,291667;0,375000;0,375000;0,277778;0,291667;0,388889;0,375000;0,291667;0,270833;0,000000;0,583333;0,583333;0,000000;0,500000;0,000000;0,295232;0,000000;0,500000;0,000000;0,000000;0,250000;0,291667;0,250000;0,250000;0,250000;0,250000;0,250000;0,250000;0,333333;0,333333;0,625000;0,625000;0,625000;0,333333;0,375000;0,625000;0,625000;0,375000;0,375000;0,375000;0,500000;0,277778;0,625000;0,375000;0,375000;0,250000;0,250000;0,250000;0,250000;0,000000;0,000000;0,000000;0,625000;0,625000;0,291667;0,291667;0,291667;0,291667;0,375000;0,375000;
4;;;;1,000000;0,750000;0,722880;0,312500;0,528647;0,280824;0,291667;0,291667;0,625000;0,375000;0,291667;0,291667;0,291667;0,277778;0,275000;0,325000;0,283333;0,250000;0,250000;0,275361;0,333333;0,333333;0,262438;0,291667;0,291667;0,291667;0,375000;0,375000;0,277778;0,291667;0,388889;0,375000;0,291667;0,270833;0,000000;0,583333;0,583333;0,000000;0,500000;0,000000;0,295232;0,000000;0,500000;0,000000;0,000000;0,250000;0,291667;0,250000;0,250000;0,250000;0,250000;0,250000;0,250000;0,333333;0,333333;0,625000;0,625000;0,625000;0,333333;0,375000;0,625000;0,625000;0,375000;0,375000;0,375000;0,500000;0,277778;0,625000;0,375000;0,375000;0,250000;0,250000;0,250000;0,250000;0,000000;0,000000;0,000000;0,625000;0,625000;0,291667;0,291667;0,291667;0,291667;0,375000;0,375000;
5;;;;;1,000000;0,722880;0,312500;0,528647;0,280824;0,291667;0,291667;0,625000;0,375000;0,291667;0,291667;0,291667;0,277778;0,275000;0,325000;0,283333;0,250000;0,250000;0,275361;0,333333;0,333333;0,262438;0,291667;0,291667;0,291667;0,375000;0,375000;0,277778;0,291667;0,388889;0,375000;0,291667;0,270833;0,000000;0,583333;0,583333;0,000000;0,500000;0,000000;0,295232;0,000000;0,500000;0,000000;0,000000;0,250000;0,291667;0,250000;0,250000;0,250000;0,250000;0,250000;0,250000;0,333333;0,333333;0,625000;0,625000;0,625000;0,333333;0,375000;0,625000;0,625000;0,375000;0,375000;0,375000;0,500000;0,277778;0,625000;0,375000;0,375000;0,250000;0,250000;0,250000;0,250000;0,000000;0,000000;0,000000;0,625000;0,625000;0,291667;0,291667;0,291667;0,291667;0,375000;0,375000;
6;;;;;;1,000000;0,781391;0,496405;0,437722;0,340777;0,340777;0,933370;0,488926;0,340777;0,340777;0,340777;0,425377;0,481876;0,550110;0,360066;0,266703;0,266703;0,384646;0,340466;0,480066;0,398413;0,340777;0,340777;0,340777;0,488926;0,488926;0,346733;0,340777;0,613399;0,488926;0,340777;0,308070;0,944444;0,643595;0,643595;0,515436;0,450302;0,351852;0,450883;0,277778;0,880066;0,500000;0,500000;0,280066;0,340777;0,266703;0,266703;0,266703;0,266703;0,266703;0,266703;0,480066;0,480066;0,933370;0,933370;0,933370;0,480066;0,488926;0,933370;0,933370;0,488926;0,488926;0,488926;0,880066;0,346733;0,933370;0,488926;0,488926;0,266703;0,266703;0,266703;0,266703;0,277778;0,277778;0,277778;0,933370;0,933370;0,340777;0,340777;0,340777;0,340777;0,488926;0,488926;
7;;;;;;;1,000000;0,493447;0,488589;0,375000;0,375000;0,875000;0,500000;0,375000;0,375000;0,375000;0,456419;0,500000;0,553571;0,410000;0,312500;0,312500;0,447202;0,392737;0,500000;0,472631;0,375000;0,375000;0,375000;0,500000;0,500000;0,400000;0,375000;0,600000;0,500000;0,625000;0,548393;0,875000;0,375000;0,375000;0,511577;0,475114;0,375000;0,489783;0,312500;0,800000;0,500000;0,500000;0,350000;0,375000;0,312500;0,312500;0,312500;0,312500;0,312500;0,312500;0,500000;0,500000;0,875000;0,875000;0,875000;0,500000;0,500000;0,875000;0,875000;0,500000;0,500000;0,500000;0,800000;0,400000;0,875000;0,500000;0,500000;0,312500;0,312500;0,312500;0,312500;0,312500;0,312500;0,312500;0,875000;0,875000;0,375000;0,375000;0,375000;0,375000;0,500000;0,500000;
8;;;;;;;;1,000000;0,467778;0,348570;0,348570;0,941162;0,496718;0,348570;0,348570;0,348570;0,707411;0,487851;0,573487;0,374092;0,274496;0,274496;0,408023;0,352177;0,494092;0,432313;0,348570;0,348570;0,348570;0,496718;0,496718;0,360759;0,348570;0,627426;0,496718;0,348570;0,324039;0,944444;0,676795;0,676795;0,515436;0,462013;0,351852;0,474260;0,277778;0,894092;0,500000;0,500000;0,294092;0,348570;0,274496;0,274496;0,274496;0,274496;0,274496;0,274496;0,494092;0,494092;0,941162;0,941162;0,941162;0,494092;0,496718;0,941162;0,941162;0,496718;0,496718;0,496718;0,894092;0,360759;0,941162;0,496718;0,496718;0,274496;0,274496;0,274496;0,274496;0,277778;0,277778;0,277778;0,941162;0,941162;0,348570;0,348570;0,348570;0,348570;0,496718;0,496718;
9;;;;;;;;;1,000000;0,648360;0,648360;0,923681;0,495110;0,352252;0,352252;0,352252;0,366442;0,400000;0,561307;0,378942;0,280824;0,280824;0,628988;0,573507;0,491442;0,442291;0,352252;0,352252;0,352252;0,495110;0,495110;0,680154;0,674374;0,616442;0,495110;0,352252;0,426602;0,000000;0,352252;0,352252;0,000000;0,866442;0,000000;0,631171;0,285714;0,866442;0,000000;0,000000;0,555154;0,352252;0,531517;0,531517;0,280824;0,280824;0,280824;0,280824;0,491442;0,491442;0,923681;0,923681;0,923681;0,491442;0,495110;0,923681;0,923681;0,495110;0,495110;0,495110;0,866442;0,680154;0,923681;0,495110;0,495110;0,280824;0,280824;0,280824;0,280824;0,000000;0,000000;0,000000;0,923681;0,923681;0,674374;0,352252;0,352252;0,352252;0,495110;0,495110;
10;;;;;;;;;;1,000000;0,666667;0,666667;0,833333;0,333333;0,333333;0,333333;0,333333;0,000000;0,391667;0,338889;0,291667;0,291667;0,342028;0,388889;0,699977;0,656781;0,333333;0,333333;0,333333;0,416667;0,416667;0,333333;0,333333;0,444444;0,416667;0,333333;0,333333;0,000000;0,333333;0,333333;0,000000;0,555556;0,000000;0,361899;0,000000;0,555556;0,000000;0,000000;0,305556;0,333333;0,291667;0,291667;0,291667;0,291667;0,291667;0,291667;0,388889;0,388889;0,666667;0,666667;0,666667;0,388889;0,416667;0,666667;0,666667;0,416667;0,416667;0,416667;0,555556;0,333333;0,666667;0,416667;0,416667;0,291667;0,291667;0,291667;0,291667;0,000000;0,000000;0,000000;0,666667;0,666667;0,333333;0,333333;0,333333;0,333333;0,416667;0,416667;
11;;;;;;;;;;;1,000000;0,666667;0,833333;0,333333;0,333333;0,333333;0,333333;0,000000;0,391667;0,338889;0,291667;0,291667;0,342028;0,388889;0,699977;0,656781;0,333333;0,333333;0,333333;0,416667;0,416667;0,333333;0,333333;0,444444;0,416667;0,333333;0,333333;0,000000;0,333333;0,333333;0,000000;0,555556;0,000000;0,361899;0,000000;0,555556;0,000000;0,000000;0,305556;0,333333;0,291667;0,291667;0,291667;0,291667;0,291667;0,291667;0,388889;0,388889;0,666667;0,666667;0,666667;0,388889;0,416667;0,666667;0,666667;0,416667;0,416667;0,416667;0,555556;0,333333;0,666667;0,416667;0,416667;0,291667;0,291667;0,291667;0,291667;0,000000;0,000000;0,000000;0,666667;0,666667;0,333333;0,333333;0,333333;0,333333;0,416667;0,416667;
12;;;;;;;;;;;;1,000000;0,750000;0,666667;0,666667;0,666667;0,777778;0,000000;0,925000;0,783333;0,625000;0,625000;0,875361;0,833333;0,833333;0,949938;0,666667;0,666667;0,666667;0,750000;0,750000;0,777778;0,666667;0,888889;0,750000;0,666667;0,833333;0,000000;0,666667;0,666667;0,000000;1,000000;0,000000;0,895232;0,000000;1,000000;0,000000;0,000000;0,750000;0,666667;0,625000;0,625000;0,625000;0,625000;0,625000;0,625000;0,833333;0,833333;1,000000;1,000000;1,000000;0,833333;0,750000;1,000000;1,000000;0,750000;0,750000;0,750000;1,000000;0,777778;1,000000;0,750000;0,750000;0,625000;0,625000;0,625000;0,625000;0,000000;0,000000;0,000000;1,000000;1,000000;0,666667;0,666667;0,666667;0,666667;0,750000;0,750000;
13;;;;;;;;;;;;;1,000000;0,416667;0,416667;0,416667;0,444444;0,000000;0,525000;0,450000;0,375000;0,375000;0,475361;0,500000;0,922199;0,962337;0,416667;0,416667;0,416667;0,500000;0,500000;0,444444;0,416667;0,555556;0,500000;0,416667;0,458333;0,000000;0,416667;0,416667;0,000000;0,666667;0,000000;0,495232;0,000000;0,666667;0,000000;0,000000;0,416667;0,416667;0,375000;0,375000;0,375000;0,375000;0,375000;0,375000;0,500000;0,500000;0,750000;0,750000;0,750000;0,500000;0,500000;0,750000;0,750000;0,500000;0,500000;0,500000;0,666667;0,444444;0,750000;0,500000;0,500000;0,375000;0,375000;0,375000;0,375000;0,000000;0,000000;0,000000;0,750000;0,750000;0,416667;0,416667;0,416667;0,416667;0,500000;0,500000;
14;;;;;;;;;;;;;;1,000000;0,666667;0,666667;0,333333;0,000000;0,391667;0,338889;0,291667;0,291667;0,342028;0,388889;0,388889;0,338827;0,333333;0,333333;0,333333;0,416667;0,416667;0,333333;0,333333;0,444444;0,416667;0,333333;0,333333;0,000000;0,333333;0,333333;0,000000;0,555556;0,000000;0,361899;0,000000;0,555556;0,000000;0,000000;0,305556;0,333333;0,291667;0,291667;0,291667;0,291667;0,291667;0,291667;0,388889;0,388889;0,666667;0,666667;0,666667;0,388889;0,416667;0,666667;0,666667;0,416667;0,416667;0,416667;0,555556;0,333333;0,666667;0,416667;0,416667;0,291667;0,291667;0,291667;0,291667;0,000000;0,000000;0,000000;0,666667;0,666667;0,333333;0,333333;0,333333;0,333333;0,416667;0,416667;
15;;;;;;;;;;;;;;;1,000000;0,666667;0,333333;0,000000;0,391667;0,338889;0,291667;0,291667;0,342028;0,388889;0,388889;0,338827;0,333333;0,333333;0,333333;0,416667;0,416667;0,333333;0,333333;0,444444;0,416667;0,333333;0,333333;0,000000;0,333333;0,333333;0,000000;0,555556;0,000000;0,361899;0,000000;0,555556;0,000000;0,000000;0,305556;0,333333;0,291667;0,291667;0,291667;0,291667;0,291667;0,291667;0,388889;0,388889;0,666667;0,666667;0,666667;0,388889;0,416667;0,666667;0,666667;0,416667;0,416667;0,416667;0,555556;0,333333;0,666667;0,416667;0,416667;0,291667;0,291667;0,291667;0,291667;0,000000;0,000000;0,000000;0,666667;0,666667;0,333333;0,333333;0,333333;0,333333;0,416667;0,416667;
16;;;;;;;;;;;;;;;;1,000000;0,333333;0,000000;0,391667;0,338889;0,291667;0,291667;0,342028;0,388889;0,388889;0,338827;0,333333;0,333333;0,333333;0,416667;0,416667;0,333333;0,333333;0,444444;0,416667;0,333333;0,333333;0,000000;0,333333;0,333333;0,000000;0,555556;0,000000;0,361899;0,000000;0,555556;0,000000;0,000000;0,305556;0,333333;0,291667;0,291667;0,291667;0,291667;0,291667;0,291667;0,388889;0,388889;0,666667;0,666667;0,666667;0,388889;0,416667;0,666667;0,666667;0,416667;0,416667;0,416667;0,555556;0,333333;0,666667;0,416667;0,416667;0,291667;0,291667;0,291667;0,291667;0,000000;0,000000;0,000000;0,666667;0,666667;0,333333;0,333333;0,333333;0,333333;0,416667;0,416667;
17;;;;;;;;;;;;;;;;;1,000000;0,389028;0,430556;0,341667;0,277778;0,277778;0,347824;0,539280;0,416667;0,554140;0,333333;0,333333;0,333333;0,444444;0,444444;0,333333;0,333333;0,500000;0,444444;0,666667;0,485724;0,833333;0,333333;0,333333;0,509648;0,442944;0,388889;0,380942;0,462453;0,666667;0,500000;0,500000;0,291667;0,333333;0,277778;0,277778;0,277778;0,277778;0,277778;0,277778;0,416667;0,416667;0,777778;0,777778;0,777778;0,416667;0,444444;0,777778;0,777778;0,444444;0,444444;0,444444;0,666667;0,333333;0,777778;0,444444;0,444444;0,277778;0,277778;0,277778;0,277778;0,462453;0,462453;0,462453;0,777778;0,777778;0,333333;0,333333;0,333333;0,333333;0,444444;0,444444;
18;;;;;;;;;;;;;;;;;;1,000000;0,000000;0,000000;0,000000;0,000000;0,319231;0,698874;0,454545;0,630043;0,000000;0,000000;0,000000;0,000000;0,000000;0,318182;0,325000;0,000000;0,000000;0,632528;0,660001;0,000000;0,350000;0,350000;0,666667;0,680887;0,675965;0,250000;0,721541;0,000000;0,500000;0,500000;0,250000;0,000000;0,250000;0,250000;0,000000;0,000000;0,000000;0,000000;0,000000;0,000000;0,000000;0,000000;0,000000;0,000000;0,000000;0,000000;0,000000;0,000000;0,000000;0,000000;0,000000;0,318182;0,000000;0,000000;0,000000;0,000000;0,000000;0,000000;0,000000;0,729905;0,729905;0,729905;0,000000;0,000000;0,325000;0,000000;0,000000;0,000000;0,000000;0,000000;
19;;;;;;;;;;;;;;;;;;;1,000000;0,729515;0,771949;0,771949;0,614694;0,541667;0,541667;0,564801;0,391667;0,391667;0,391667;0,525000;0,525000;0,430556;0,391667;0,652778;0,525000;0,391667;0,458333;0,000000;0,391667;0,391667;0,000000;0,875000;0,000000;0,550580;0,000000;0,875000;0,000000;0,000000;0,375000;0,391667;0,325000;0,325000;0,325000;0,325000;0,325000;0,325000;0,541667;0,541667;0,925000;0,925000;0,925000;0,541667;0,525000;0,925000;0,925000;0,525000;0,525000;0,525000;0,875000;0,430556;0,925000;0,525000;0,525000;0,325000;0,325000;0,325000;0,325000;0,000000;0,000000;0,000000;0,925000;0,925000;0,391667;0,391667;0,391667;0,391667;0,525000;0,525000;
20;;;;;;;;;;;;;;;;;;;;1,000000;0,721284;0,721284;0,358935;0,425000;0,425000;0,561322;0,338889;0,338889;0,338889;0,450000;0,450000;0,341667;0,338889;0,508333;0,450000;0,338889;0,343333;0,000000;0,338889;0,338889;0,000000;0,675000;0,000000;0,609516;0,000000;0,675000;0,000000;0,000000;0,479619;0,636280;0,283333;0,283333;0,283333;0,283333;0,283333;0,283333;0,425000;0,425000;0,783333;0,783333;0,783333;0,425000;0,450000;0,783333;0,783333;0,450000;0,450000;0,450000;0,675000;0,341667;0,783333;0,450000;0,450000;0,283333;0,283333;0,283333;0,283333;0,000000;0,000000;0,000000;0,783333;0,783333;0,338889;0,338889;0,338889;0,338889;0,450000;0,450000;
21;;;;;;;;;;;;;;;;;;;;;1,000000;0,750000;0,499550;0,333333;0,333333;0,262438;0,291667;0,291667;0,291667;0,375000;0,375000;0,277778;0,291667;0,388889;0,375000;0,291667;0,270833;0,000000;0,291667;0,291667;0,000000;0,500000;0,000000;0,295232;0,000000;0,500000;0,000000;0,000000;0,250000;0,291667;0,250000;0,250000;0,250000;0,250000;0,250000;0,250000;0,333333;0,333333;0,625000;0,625000;0,625000;0,333333;0,375000;0,625000;0,625000;0,375000;0,375000;0,375000;0,500000;0,277778;0,625000;0,375000;0,375000;0,250000;0,250000;0,250000;0,250000;0,000000;0,000000;0,000000;0,625000;0,625000;0,291667;0,291667;0,291667;0,291667;0,375000;0,375000;
22;;;;;;;;;;;;;;;;;;;;;;1,000000;0,499550;0,333333;0,333333;0,262438;0,291667;0,291667;0,291667;0,375000;0,375000;0,277778;0,291667;0,388889;0,375000;0,291667;0,270833;0,000000;0,291667;0,291667;0,000000;0,500000;0,000000;0,295232;0,000000;0,500000;0,000000;0,000000;0,250000;0,291667;0,250000;0,250000;0,250000;0,250000;0,250000;0,250000;0,333333;0,333333;0,625000;0,625000;0,625000;0,333333;0,375000;0,625000;0,625000;0,375000;0,375000;0,375000;0,500000;0,277778;0,625000;0,375000;0,375000;0,250000;0,250000;0,250000;0,250000;0,000000;0,000000;0,000000;0,625000;0,625000;0,291667;0,291667;0,291667;0,291667;0,375000;0,375000;
23;;;;;;;;;;;;;;;;;;;;;;;1,000000;0,405765;0,458935;0,600035;0,342028;0,342028;0,342028;0,475361;0,475361;0,633745;0,646914;0,570046;0,475361;0,342028;0,403155;0,000000;0,342028;0,342028;0,000000;0,792268;0,000000;0,755720;0,270000;0,792268;0,000000;0,000000;0,664538;0,642841;0,730715;0,730715;0,275361;0,275361;0,275361;0,275361;0,458935;0,458935;0,875361;0,875361;0,875361;0,458935;0,475361;0,875361;0,875361;0,475361;0,475361;0,475361;0,792268;0,633745;0,875361;0,475361;0,475361;0,275361;0,275361;0,275361;0,275361;0,000000;0,000000;0,000000;0,875361;0,875361;0,646914;0,342028;0,342028;0,342028;0,475361;0,475361;
24;;;;;;;;;;;;;;;;;;;;;;;;1,000000;0,500000;0,659814;0,388889;0,388889;0,388889;0,500000;0,500000;0,495681;0,552676;0,583333;0,500000;0,544283;0,600484;0,750000;0,388889;0,388889;0,384648;0,389875;0,305556;0,406977;0,750000;0,750000;0,375000;0,375000;0,412348;0,388889;0,441565;0,441565;0,333333;0,333333;0,333333;0,333333;0,500000;0,500000;0,833333;0,833333;0,833333;0,500000;0,500000;0,833333;0,833333;0,500000;0,500000;0,500000;0,750000;0,495681;0,833333;0,500000;0,500000;0,333333;0,333333;0,333333;0,333333;0,500000;0,500000;0,500000;0,833333;0,833333;0,552676;0,388889;0,388889;0,388889;0,500000;0,500000;
25;;;;;;;;;;;;;;;;;;;;;;;;;1,000000;0,916384;0,388889;0,388889;0,388889;0,500000;0,500000;0,416667;0,388889;0,583333;0,500000;0,388889;0,567621;0,000000;0,388889;0,388889;0,000000;0,750000;0,000000;0,492053;0,333333;0,750000;0,000000;0,000000;0,375000;0,388889;0,333333;0,333333;0,333333;0,333333;0,333333;0,333333;0,500000;0,500000;0,833333;0,833333;0,833333;0,500000;0,500000;0,833333;0,833333;0,500000;0,500000;0,500000;0,750000;0,416667;0,833333;0,500000;0,500000;0,333333;0,333333;0,333333;0,333333;0,000000;0,000000;0,000000;0,833333;0,833333;0,388889;0,388889;0,388889;0,388889;0,500000;0,500000;
26;;;;;;;;;;;;;;;;;;;;;;;;;;1,000000;0,338827;0,338827;0,338827;0,491604;0,491604;0,644227;0,651249;0,625526;0,491604;0,641118;0,499205;0,937500;0,338827;0,338827;0,477865;0,445255;0,326389;0,718752;0,750000;0,907577;0,461538;0,461538;0,725637;0,960251;0,729742;0,729742;0,262438;0,262438;0,262438;0,262438;0,484500;0,484500;0,949938;0,949938;0,949938;0,484500;0,491604;0,949938;0,949938;0,491604;0,491604;0,491604;0,907577;0,644227;0,949938;0,491604;0,491604;0,262438;0,262438;0,262438;0,262438;0,500000;0,500000;0,500000;0,949938;0,949938;0,651249;0,338827;0,338827;0,338827;0,491604;0,491604;
27;;;;;;;;;;;;;;;;;;;;;;;;;;;1,000000;0,666667;0,666667;0,416667;0,416667;0,333333;0,333333;0,444444;0,416667;0,333333;0,333333;0,000000;0,333333;0,333333;0,000000;0,555556;0,000000;0,361899;0,000000;0,555556;0,000000;0,000000;0,305556;0,333333;0,291667;0,291667;0,291667;0,291667;0,291667;0,291667;0,388889;0,388889;0,666667;0,666667;0,666667;0,388889;0,416667;0,666667;0,666667;0,416667;0,416667;0,416667;0,555556;0,333333;0,666667;0,416667;0,416667;0,291667;0,291667;0,291667;0,291667;0,000000;0,000000;0,000000;0,666667;0,666667;0,333333;0,333333;0,333333;0,333333;0,416667;0,416667;
28;;;;;;;;;;;;;;;;;;;;;;;;;;;;1,000000;0,666667;0,416667;0,416667;0,333333;0,333333;0,444444;0,416667;0,333333;0,333333;0,000000;0,333333;0,333333;0,000000;0,555556;0,000000;0,361899;0,000000;0,555556;0,000000;0,000000;0,305556;0,333333;0,291667;0,291667;0,291667;0,291667;0,291667;0,291667;0,388889;0,388889;0,666667;0,666667;0,666667;0,388889;0,416667;0,666667;0,666667;0,416667;0,416667;0,416667;0,555556;0,333333;0,666667;0,416667;0,416667;0,291667;0,291667;0,291667;0,291667;0,000000;0,000000;0,000000;0,666667;0,666667;0,333333;0,333333;0,333333;0,333333;0,416667;0,416667;
29;;;;;;;;;;;;;;;;;;;;;;;;;;;;;1,000000;0,416667;0,416667;0,333333;0,333333;0,444444;0,416667;0,333333;0,333333;0,000000;0,333333;0,333333;0,000000;0,555556;0,000000;0,361899;0,000000;0,555556;0,000000;0,000000;0,305556;0,333333;0,291667;0,291667;0,291667;0,291667;0,291667;0,291667;0,388889;0,388889;0,666667;0,666667;0,666667;0,388889;0,416667;0,666667;0,666667;0,416667;0,416667;0,416667;0,555556;0,333333;0,666667;0,416667;0,416667;0,291667;0,291667;0,291667;0,291667;0,000000;0,000000;0,000000;0,666667;0,666667;0,333333;0,333333;0,333333;0,333333;0,416667;0,416667;
30;;;;;;;;;;;;;;;;;;;;;;;;;;;;;;1,000000;0,500000;0,444444;0,416667;0,555556;0,500000;0,416667;0,458333;0,000000;0,416667;0,416667;0,000000;0,666667;0,000000;0,495232;0,000000;0,666667;0,000000;0,000000;0,416667;0,416667;0,375000;0,375000;0,375000;0,375000;0,375000;0,375000;0,500000;0,500000;0,750000;0,750000;0,750000;0,500000;0,500000;0,750000;0,750000;0,500000;0,500000;0,500000;0,666667;0,444444;0,750000;0,500000;0,500000;0,375000;0,375000;0,375000;0,375000;0,000000;0,000000;0,000000;0,750000;0,750000;0,416667;0,416667;0,416667;0,416667;0,500000;0,500000;
31;;;;;;;;;;;;;;;;;;;;;;;;;;;;;;;1,000000;0,444444;0,416667;0,555556;0,500000;0,416667;0,458333;0,000000;0,416667;0,416667;0,000000;0,666667;0,000000;0,495232;0,000000;0,666667;0,000000;0,000000;0,416667;0,416667;0,375000;0,375000;0,375000;0,375000;0,375000;0,375000;0,500000;0,500000;0,750000;0,750000;0,750000;0,500000;0,500000;0,750000;0,750000;0,500000;0,500000;0,500000;0,666667;0,444444;0,750000;0,500000;0,500000;0,375000;0,375000;0,375000;0,375000;0,000000;0,000000;0,000000;0,750000;0,750000;0,416667;0,416667;0,416667;0,416667;0,500000;0,500000;
32;;;;;;;;;;;;;;;;;;;;;;;;;;;;;;;;1,000000;0,666667;0,500000;0,444444;0,333333;0,511838;0,000000;0,333333;0,333333;0,000000;0,666667;0,000000;0,634958;0,277778;0,666667;0,000000;0,000000;0,583333;0,333333;0,555556;0,555556;0,277778;0,277778;0,277778;0,277778;0,416667;0,416667;0,777778;0,777778;0,777778;0,416667;0,444444;0,777778;0,777778;0,444444;0,444444;0,444444;0,666667;0,666667;0,777778;0,444444;0,444444;0,277778;0,277778;0,277778;0,277778;0,000000;0,000000;0,000000;0,777778;0,777778;0,947002;0,333333;0,333333;0,333333;0,444444;0,444444;
33;;;;;;;;;;;;;;;;;;;;;;;;;;;;;;;;;1,000000;0,444444;0,416667;0,333333;0,569899;0,000000;0,333333;0,333333;0,000000;0,555556;0,000000;0,647641;0,291667;0,555556;0,000000;0,000000;0,611111;0,333333;0,583333;0,583333;0,291667;0,291667;0,291667;0,291667;0,388889;0,388889;0,666667;0,666667;0,666667;0,388889;0,416667;0,666667;0,666667;0,416667;0,416667;0,416667;0,555556;0,947002;0,666667;0,416667;0,416667;0,291667;0,291667;0,291667;0,291667;0,000000;0,000000;0,000000;0,666667;0,666667;0,666667;0,333333;0,333333;0,333333;0,416667;0,416667;
34;;;;;;;;;;;;;;;;;;;;;;;;;;;;;;;;;;1,000000;0,555556;0,444444;0,533333;0,000000;0,444444;0,444444;0,000000;0,833333;0,000000;0,603164;0,000000;0,833333;0,000000;0,000000;0,458333;0,444444;0,388889;0,388889;0,388889;0,388889;0,388889;0,388889;0,583333;0,583333;0,888889;0,888889;0,888889;0,583333;0,555556;0,888889;0,888889;0,555556;0,555556;0,555556;0,833333;0,500000;0,888889;0,555556;0,555556;0,388889;0,388889;0,388889;0,388889;0,000000;0,000000;0,000000;0,888889;0,888889;0,444444;0,444444;0,444444;0,444444;0,555556;0,555556;
35;;;;;;;;;;;;;;;;;;;;;;;;;;;;;;;;;;;1,000000;0,416667;0,458333;0,000000;0,416667;0,416667;0,000000;0,666667;0,000000;0,495232;0,000000;0,666667;0,000000;0,000000;0,416667;0,416667;0,375000;0,375000;0,375000;0,375000;0,375000;0,375000;0,500000;0,500000;0,750000;0,750000;0,750000;0,500000;0,500000;0,750000;0,750000;0,500000;0,500000;0,500000;0,666667;0,444444;0,750000;0,500000;0,500000;0,375000;0,375000;0,375000;0,375000;0,000000;0,000000;0,000000;0,750000;0,750000;0,416667;0,416667;0,416667;0,416667;0,500000;0,500000;
36;;;;;;;;;;;;;;;;;;;;;;;;;;;;;;;;;;;;1,000000;0,666667;0,000000;0,333333;0,333333;0,000000;0,555556;0,000000;0,361899;0,291667;0,555556;0,000000;0,000000;0,305556;0,333333;0,291667;0,291667;0,291667;0,291667;0,291667;0,291667;0,388889;0,388889;0,666667;0,666667;0,666667;0,388889;0,416667;0,666667;0,666667;0,416667;0,416667;0,416667;0,555556;0,333333;0,666667;0,416667;0,416667;0,291667;0,291667;0,291667;0,291667;0,291667;0,291667;0,291667;0,666667;0,666667;0,333333;0,333333;0,333333;0,333333;0,416667;0,416667;
37;;;;;;;;;;;;;;;;;;;;;;;;;;;;;;;;;;;;;1,000000;0,812500;0,333333;0,333333;0,411577;0,381939;0,312500;0,404714;0,689796;0,733333;0,400000;0,400000;0,411838;0,333333;0,444899;0,444899;0,270833;0,270833;0,270833;0,270833;0,433333;0,433333;0,833333;0,833333;0,833333;0,433333;0,458333;0,833333;0,833333;0,458333;0,458333;0,458333;0,733333;0,511838;0,833333;0,458333;0,458333;0,270833;0,270833;0,270833;0,270833;0,698994;0,698994;0,698994;0,833333;0,833333;0,569899;0,333333;0,333333;0,333333;0,458333;0,458333;
38;;;;;;;;;;;;;;;;;;;;;;;;;;;;;;;;;;;;;;1,000000;0,000000;0,000000;0,839765;0,777778;0,666667;0,000000;0,625000;0,000000;0,833333;0,833333;0,000000;0,000000;0,000000;0,000000;0,000000;0,000000;0,000000;0,000000;0,000000;0,000000;0,000000;0,000000;0,000000;0,000000;0,000000;0,000000;0,000000;0,000000;0,000000;0,000000;0,000000;0,000000;0,000000;0,000000;0,000000;0,000000;0,000000;0,000000;0,000000;0,625000;0,625000;0,625000;0,000000;0,000000;0,000000;0,000000;0,000000;0,000000;0,000000;0,000000;
39;;;;;;;;;;;;;;;;;;;;;;;;;;;;;;;;;;;;;;;1,000000;0,666667;0,000000;0,555556;0,000000;0,361899;0,000000;0,555556;0,000000;0,000000;0,305556;0,333333;0,291667;0,291667;0,291667;0,291667;0,291667;0,291667;0,388889;0,388889;0,666667;0,666667;0,666667;0,388889;0,416667;0,666667;0,666667;0,416667;0,416667;0,416667;0,555556;0,333333;0,666667;0,416667;0,416667;0,291667;0,291667;0,291667;0,291667;0,000000;0,000000;0,000000;0,666667;0,666667;0,333333;0,333333;0,333333;0,333333;0,416667;0,416667;
40;;;;;;;;;;;;;;;;;;;;;;;;;;;;;;;;;;;;;;;;1,000000;0,000000;0,555556;0,000000;0,361899;0,000000;0,555556;0,000000;0,000000;0,305556;0,333333;0,291667;0,291667;0,291667;0,291667;0,291667;0,291667;0,388889;0,388889;0,666667;0,666667;0,666667;0,388889;0,416667;0,666667;0,666667;0,416667;0,416667;0,416667;0,555556;0,333333;0,666667;0,416667;0,416667;0,291667;0,291667;0,291667;0,291667;0,000000;0,000000;0,000000;0,666667;0,666667;0,333333;0,333333;0,333333;0,333333;0,416667;0,416667;
41;;;;;;;;;;;;;;;;;;;;;;;;;;;;;;;;;;;;;;;;;1,000000;0,705930;0,693663;0,000000;0,339765;0,000000;0,509648;0,509648;0,000000;0,000000;0,000000;0,000000;0,000000;0,000000;0,000000;0,000000;0,000000;0,000000;0,000000;0,000000;0,000000;0,000000;0,000000;0,000000;0,000000;0,000000;0,000000;0,000000;0,000000;0,000000;0,000000;0,000000;0,000000;0,000000;0,000000;0,000000;0,000000;0,339765;0,339765;0,339765;0,000000;0,000000;0,000000;0,000000;0,000000;0,000000;0,000000;0,000000;
42;;;;;;;;;;;;;;;;;;;;;;;;;;;;;;;;;;;;;;;;;;1,000000;0,666667;0,825387;0,277778;1,000000;0,416667;0,416667;0,625000;0,555556;0,500000;0,500000;0,500000;0,500000;0,500000;0,500000;0,750000;0,750000;1,000000;1,000000;1,000000;0,750000;0,666667;1,000000;1,000000;0,666667;0,666667;0,666667;1,000000;0,666667;1,000000;0,666667;0,666667;0,500000;0,500000;0,500000;0,500000;0,277778;0,277778;0,277778;1,000000;1,000000;0,555556;0,555556;0,555556;0,555556;0,666667;0,666667;
43;;;;;;;;;;;;;;;;;;;;;;;;;;;;;;;;;;;;;;;;;;;1,000000;0,000000;0,291667;0,000000;0,388889;0,388889;0,000000;0,000000;0,000000;0,000000;0,000000;0,000000;0,000000;0,000000;0,000000;0,000000;0,000000;0,000000;0,000000;0,000000;0,000000;0,000000;0,000000;0,000000;0,000000;0,000000;0,000000;0,000000;0,000000;0,000000;0,000000;0,000000;0,000000;0,000000;0,000000;0,291667;0,291667;0,291667;0,000000;0,000000;0,000000;0,000000;0,000000;0,000000;0,000000;0,000000;
44;;;;;;;;;;;;;;;;;;;;;;;;;;;;;;;;;;;;;;;;;;;;1,000000;0,250000;0,825387;0,000000;0,000000;0,679953;0,668841;0,736063;0,736063;0,295232;0,295232;0,295232;0,295232;0,492053;0,492053;0,895232;0,895232;0,895232;0,492053;0,495232;0,895232;0,895232;0,495232;0,495232;0,495232;0,825387;0,634958;0,895232;0,495232;0,495232;0,295232;0,295232;0,295232;0,295232;0,000000;0,000000;0,000000;0,895232;0,895232;0,647641;0,361899;0,361899;0,361899;0,495232;0,495232;
45;;;;;;;;;;;;;;;;;;;;;;;;;;;;;;;;;;;;;;;;;;;;;1,000000;0,000000;0,333333;0,333333;0,250000;0,000000;0,250000;0,250000;0,000000;0,000000;0,000000;0,000000;0,000000;0,000000;0,000000;0,000000;0,000000;0,000000;0,000000;0,000000;0,000000;0,000000;0,000000;0,000000;0,000000;0,277778;0,000000;0,000000;0,000000;0,000000;0,000000;0,000000;0,000000;0,500000;0,500000;0,500000;0,000000;0,000000;0,291667;0,000000;0,000000;0,000000;0,000000;0,000000;
46;;;;;;;;;;;;;;;;;;;;;;;;;;;;;;;;;;;;;;;;;;;;;;1,000000;0,000000;0,000000;0,625000;0,555556;0,500000;0,500000;0,500000;0,500000;0,500000;0,500000;0,750000;0,750000;1,000000;1,000000;1,000000;0,750000;0,666667;1,000000;1,000000;0,666667;0,666667;0,666667;1,000000;0,666667;1,000000;0,666667;0,666667;0,500000;0,500000;0,500000;0,500000;0,000000;0,000000;0,000000;1,000000;1,000000;0,555556;0,555556;0,555556;0,555556;0,666667;0,666667;
47;;;;;;;;;;;;;;;;;;;;;;;;;;;;;;;;;;;;;;;;;;;;;;;1,000000;0,500000;0,000000;0,000000;0,000000;0,000000;0,000000;0,000000;0,000000;0,000000;0,000000;0,000000;0,000000;0,000000;0,000000;0,000000;0,000000;0,000000;0,000000;0,000000;0,000000;0,000000;0,000000;0,000000;0,000000;0,000000;0,000000;0,000000;0,000000;0,000000;0,000000;0,333333;0,333333;0,333333;0,000000;0,000000;0,000000;0,000000;0,000000;0,000000;0,000000;0,000000;
48;;;;;;;;;;;;;;;;;;;;;;;;;;;;;;;;;;;;;;;;;;;;;;;;1,000000;0,000000;0,000000;0,000000;0,000000;0,000000;0,000000;0,000000;0,000000;0,000000;0,000000;0,000000;0,000000;0,000000;0,000000;0,000000;0,000000;0,000000;0,000000;0,000000;0,000000;0,000000;0,000000;0,000000;0,000000;0,000000;0,000000;0,000000;0,000000;0,000000;0,333333;0,333333;0,333333;0,000000;0,000000;0,000000;0,000000;0,000000;0,000000;0,000000;0,000000;
49;;;;;;;;;;;;;;;;;;;;;;;;;;;;;;;;;;;;;;;;;;;;;;;;;1,000000;0,842718;0,710322;0,710322;0,250000;0,250000;0,250000;0,250000;0,375000;0,375000;0,750000;0,750000;0,750000;0,375000;0,416667;0,750000;0,750000;0,416667;0,416667;0,416667;0,625000;0,583333;0,750000;0,416667;0,416667;0,250000;0,250000;0,250000;0,250000;0,000000;0,000000;0,000000;0,750000;0,750000;0,611111;0,305556;0,305556;0,305556;0,416667;0,416667;
50;;;;;;;;;;;;;;;;;;;;;;;;;;;;;;;;;;;;;;;;;;;;;;;;;;1,000000;0,291667;0,291667;0,291667;0,291667;0,291667;0,291667;0,388889;0,388889;0,666667;0,666667;0,666667;0,388889;0,416667;0,666667;0,666667;0,416667;0,416667;0,416667;0,555556;0,333333;0,666667;0,416667;0,416667;0,291667;0,291667;0,291667;0,291667;0,000000;0,000000;0,000000;0,666667;0,666667;0,333333;0,333333;0,333333;0,333333;0,416667;0,416667;
51;;;;;;;;;;;;;;;;;;;;;;;;;;;;;;;;;;;;;;;;;;;;;;;;;;;1,000000;0,750000;0,250000;0,250000;0,250000;0,250000;0,333333;0,333333;0,625000;0,625000;0,625000;0,333333;0,375000;0,625000;0,625000;0,375000;0,375000;0,375000;0,500000;0,555556;0,625000;0,375000;0,375000;0,250000;0,250000;0,250000;0,250000;0,000000;0,000000;0,000000;0,625000;0,625000;0,583333;0,291667;0,291667;0,291667;0,375000;0,375000;
52;;;;;;;;;;;;;;;;;;;;;;;;;;;;;;;;;;;;;;;;;;;;;;;;;;;;1,000000;0,250000;0,250000;0,250000;0,250000;0,333333;0,333333;0,625000;0,625000;0,625000;0,333333;0,375000;0,625000;0,625000;0,375000;0,375000;0,375000;0,500000;0,555556;0,625000;0,375000;0,375000;0,250000;0,250000;0,250000;0,250000;0,000000;0,000000;0,000000;0,625000;0,625000;0,583333;0,291667;0,291667;0,291667;0,375000;0,375000;
53;;;;;;;;;;;;;;;;;;;;;;;;;;;;;;;;;;;;;;;;;;;;;;;;;;;;;1,000000;0,750000;0,750000;0,750000;0,333333;0,333333;0,625000;0,625000;0,625000;0,333333;0,375000;0,625000;0,625000;0,375000;0,375000;0,375000;0,500000;0,277778;0,625000;0,375000;0,375000;0,250000;0,250000;0,250000;0,250000;0,000000;0,000000;0,000000;0,625000;0,625000;0,291667;0,291667;0,291667;0,291667;0,375000;0,375000;
54;;;;;;;;;;;;;;;;;;;;;;;;;;;;;;;;;;;;;;;;;;;;;;;;;;;;;;1,000000;0,750000;0,750000;0,333333;0,333333;0,625000;0,625000;0,625000;0,333333;0,375000;0,625000;0,625000;0,375000;0,375000;0,375000;0,500000;0,277778;0,625000;0,375000;0,375000;0,250000;0,250000;0,250000;0,250000;0,000000;0,000000;0,000000;0,625000;0,625000;0,291667;0,291667;0,291667;0,291667;0,375000;0,375000;
55;;;;;;;;;;;;;;;;;;;;;;;;;;;;;;;;;;;;;;;;;;;;;;;;;;;;;;;1,000000;0,750000;0,333333;0,333333;0,625000;0,625000;0,625000;0,333333;0,375000;0,625000;0,625000;0,375000;0,375000;0,375000;0,500000;0,277778;0,625000;0,375000;0,375000;0,250000;0,250000;0,250000;0,250000;0,000000;0,000000;0,000000;0,625000;0,625000;0,291667;0,291667;0,291667;0,291667;0,375000;0,375000;
56;;;;;;;;;;;;;;;;;;;;;;;;;;;;;;;;;;;;;;;;;;;;;;;;;;;;;;;;1,000000;0,333333;0,333333;0,625000;0,625000;0,625000;0,333333;0,375000;0,625000;0,625000;0,375000;0,375000;0,375000;0,500000;0,277778;0,625000;0,375000;0,375000;0,250000;0,250000;0,250000;0,250000;0,000000;0,000000;0,000000;0,625000;0,625000;0,291667;0,291667;0,291667;0,291667;0,375000;0,375000;
57;;;;;;;;;;;;;;;;;;;;;;;;;;;;;;;;;;;;;;;;;;;;;;;;;;;;;;;;;1,000000;0,500000;0,833333;0,833333;0,833333;0,500000;0,500000;0,833333;0,833333;0,500000;0,500000;0,500000;0,750000;0,416667;0,833333;0,500000;0,500000;0,333333;0,333333;0,333333;0,333333;0,000000;0,000000;0,000000;0,833333;0,833333;0,388889;0,388889;0,388889;0,388889;0,500000;0,500000;
58;;;;;;;;;;;;;;;;;;;;;;;;;;;;;;;;;;;;;;;;;;;;;;;;;;;;;;;;;;1,000000;0,833333;0,833333;0,833333;0,500000;0,500000;0,833333;0,833333;0,500000;0,500000;0,500000;0,750000;0,416667;0,833333;0,500000;0,500000;0,333333;0,333333;0,333333;0,333333;0,000000;0,000000;0,000000;0,833333;0,833333;0,388889;0,388889;0,388889;0,388889;0,500000;0,500000;
59;;;;;;;;;;;;;;;;;;;;;;;;;;;;;;;;;;;;;;;;;;;;;;;;;;;;;;;;;;;1,000000;1,000000;1,000000;0,833333;0,750000;1,000000;1,000000;0,750000;0,750000;0,750000;1,000000;0,777778;1,000000;0,750000;0,750000;0,625000;0,625000;0,625000;0,625000;0,000000;0,000000;0,000000;1,000000;1,000000;0,666667;0,666667;0,666667;0,666667;0,750000;0,750000;
60;;;;;;;;;;;;;;;;;;;;;;;;;;;;;;;;;;;;;;;;;;;;;;;;;;;;;;;;;;;;1,000000;1,000000;0,833333;0,750000;1,000000;1,000000;0,750000;0,750000;0,750000;1,000000;0,777778;1,000000;0,750000;0,750000;0,625000;0,625000;0,625000;0,625000;0,000000;0,000000;0,000000;1,000000;1,000000;0,666667;0,666667;0,666667;0,666667;0,750000;0,750000;
61;;;;;;;;;;;;;;;;;;;;;;;;;;;;;;;;;;;;;;;;;;;;;;;;;;;;;;;;;;;;;1,000000;0,833333;0,750000;1,000000;1,000000;0,750000;0,750000;0,750000;1,000000;0,777778;1,000000;0,750000;0,750000;0,625000;0,625000;0,625000;0,625000;0,000000;0,000000;0,000000;1,000000;1,000000;0,666667;0,666667;0,666667;0,666667;0,750000;0,750000;
62;;;;;;;;;;;;;;;;;;;;;;;;;;;;;;;;;;;;;;;;;;;;;;;;;;;;;;;;;;;;;;1,000000;0,500000;0,833333;0,833333;0,500000;0,500000;0,500000;0,750000;0,416667;0,833333;0,500000;0,500000;0,333333;0,333333;0,333333;0,333333;0,000000;0,000000;0,000000;0,833333;0,833333;0,388889;0,388889;0,388889;0,388889;0,500000;0,500000;
63;;;;;;;;;;;;;;;;;;;;;;;;;;;;;;;;;;;;;;;;;;;;;;;;;;;;;;;;;;;;;;;1,000000;0,750000;0,750000;0,500000;0,500000;1,000000;0,666667;0,444444;0,750000;0,500000;0,500000;0,375000;0,375000;0,375000;0,375000;0,000000;0,000000;0,000000;0,750000;0,750000;0,416667;0,416667;0,416667;0,416667;0,500000;0,500000;
64;;;;;;;;;;;;;;;;;;;;;;;;;;;;;;;;;;;;;;;;;;;;;;;;;;;;;;;;;;;;;;;;1,000000;1,000000;0,750000;0,750000;0,750000;1,000000;0,777778;1,000000;0,750000;0,750000;0,625000;0,625000;0,625000;0,625000;0,000000;0,000000;0,000000;1,000000;1,000000;0,666667;0,666667;0,666667;0,666667;0,750000;0,750000;
65;;;;;;;;;;;;;;;;;;;;;;;;;;;;;;;;;;;;;;;;;;;;;;;;;;;;;;;;;;;;;;;;;1,000000;0,750000;0,750000;0,750000;1,000000;0,777778;1,000000;0,750000;0,750000;0,625000;0,625000;0,625000;0,625000;0,000000;0,000000;0,000000;1,000000;1,000000;0,666667;0,666667;0,666667;0,666667;0,750000;0,750000;
66;;;;;;;;;;;;;;;;;;;;;;;;;;;;;;;;;;;;;;;;;;;;;;;;;;;;;;;;;;;;;;;;;;1,000000;0,500000;0,500000;0,666667;0,444444;0,750000;0,500000;0,500000;0,375000;0,375000;0,375000;0,375000;0,000000;0,000000;0,000000;0,750000;0,750000;0,416667;0,416667;0,416667;0,416667;0,500000;0,500000;
67;;;;;;;;;;;;;;;;;;;;;;;;;;;;;;;;;;;;;;;;;;;;;;;;;;;;;;;;;;;;;;;;;;;1,000000;0,500000;0,666667;0,444444;0,750000;0,500000;0,500000;0,375000;0,375000;0,375000;0,375000;0,000000;0,000000;0,000000;0,750000;0,750000;0,416667;0,416667;0,416667;0,416667;0,500000;0,500000;
68;;;;;;;;;;;;;;;;;;;;;;;;;;;;;;;;;;;;;;;;;;;;;;;;;;;;;;;;;;;;;;;;;;;;1,000000;0,666667;0,444444;0,750000;0,500000;0,500000;0,375000;0,375000;0,375000;0,375000;0,000000;0,000000;0,000000;0,750000;0,750000;0,416667;0,416667;0,416667;0,416667;0,500000;0,500000;
69;;;;;;;;;;;;;;;;;;;;;;;;;;;;;;;;;;;;;;;;;;;;;;;;;;;;;;;;;;;;;;;;;;;;;1,000000;0,666667;1,000000;0,666667;0,666667;0,500000;0,500000;0,500000;0,500000;0,000000;0,000000;0,000000;1,000000;1,000000;0,555556;0,555556;0,555556;0,555556;0,666667;0,666667;
70;;;;;;;;;;;;;;;;;;;;;;;;;;;;;;;;;;;;;;;;;;;;;;;;;;;;;;;;;;;;;;;;;;;;;;1,000000;0,777778;0,444444;0,444444;0,277778;0,277778;0,277778;0,277778;0,000000;0,000000;0,000000;0,777778;0,777778;0,666667;0,333333;0,333333;0,333333;0,444444;0,444444;
71;;;;;;;;;;;;;;;;;;;;;;;;;;;;;;;;;;;;;;;;;;;;;;;;;;;;;;;;;;;;;;;;;;;;;;;1,000000;0,750000;0,750000;0,625000;0,625000;0,625000;0,625000;0,000000;0,000000;0,000000;1,000000;1,000000;0,666667;0,666667;0,666667;0,666667;0,750000;0,750000;
72;;;;;;;;;;;;;;;;;;;;;;;;;;;;;;;;;;;;;;;;;;;;;;;;;;;;;;;;;;;;;;;;;;;;;;;;1,000000;0,500000;0,375000;0,375000;0,375000;0,375000;0,000000;0,000000;0,000000;0,750000;0,750000;0,416667;0,416667;0,416667;0,416667;0,500000;0,500000;
73;;;;;;;;;;;;;;;;;;;;;;;;;;;;;;;;;;;;;;;;;;;;;;;;;;;;;;;;;;;;;;;;;;;;;;;;;1,000000;0,375000;0,375000;0,375000;0,375000;0,000000;0,000000;0,000000;0,750000;0,750000;0,416667;0,416667;0,416667;0,416667;0,500000;0,500000;
74;;;;;;;;;;;;;;;;;;;;;;;;;;;;;;;;;;;;;;;;;;;;;;;;;;;;;;;;;;;;;;;;;;;;;;;;;;1,000000;0,750000;0,750000;0,750000;0,000000;0,000000;0,000000;0,625000;0,625000;0,291667;0,291667;0,291667;0,291667;0,375000;0,375000;
75;;;;;;;;;;;;;;;;;;;;;;;;;;;;;;;;;;;;;;;;;;;;;;;;;;;;;;;;;;;;;;;;;;;;;;;;;;;1,000000;0,750000;0,750000;0,000000;0,000000;0,000000;0,625000;0,625000;0,291667;0,291667;0,291667;0,291667;0,375000;0,375000;
76;;;;;;;;;;;;;;;;;;;;;;;;;;;;;;;;;;;;;;;;;;;;;;;;;;;;;;;;;;;;;;;;;;;;;;;;;;;;1,000000;0,750000;0,000000;0,000000;0,000000;0,625000;0,625000;0,291667;0,291667;0,291667;0,291667;0,375000;0,375000;
77;;;;;;;;;;;;;;;;;;;;;;;;;;;;;;;;;;;;;;;;;;;;;;;;;;;;;;;;;;;;;;;;;;;;;;;;;;;;;1,000000;0,000000;0,000000;0,000000;0,625000;0,625000;0,291667;0,291667;0,291667;0,291667;0,375000;0,375000;
78;;;;;;;;;;;;;;;;;;;;;;;;;;;;;;;;;;;;;;;;;;;;;;;;;;;;;;;;;;;;;;;;;;;;;;;;;;;;;;1,000000;0,750000;0,750000;0,000000;0,000000;0,000000;0,000000;0,000000;0,000000;0,000000;0,000000;
79;;;;;;;;;;;;;;;;;;;;;;;;;;;;;;;;;;;;;;;;;;;;;;;;;;;;;;;;;;;;;;;;;;;;;;;;;;;;;;;1,000000;0,750000;0,000000;0,000000;0,000000;0,000000;0,000000;0,000000;0,000000;0,000000;
80;;;;;;;;;;;;;;;;;;;;;;;;;;;;;;;;;;;;;;;;;;;;;;;;;;;;;;;;;;;;;;;;;;;;;;;;;;;;;;;;1,000000;0,000000;0,000000;0,000000;0,000000;0,000000;0,000000;0,000000;0,000000;
81;;;;;;;;;;;;;;;;;;;;;;;;;;;;;;;;;;;;;;;;;;;;;;;;;;;;;;;;;;;;;;;;;;;;;;;;;;;;;;;;;1,000000;1,000000;0,666667;0,666667;0,666667;0,666667;0,750000;0,750000;
82;;;;;;;;;;;;;;;;;;;;;;;;;;;;;;;;;;;;;;;;;;;;;;;;;;;;;;;;;;;;;;;;;;;;;;;;;;;;;;;;;;1,000000;0,666667;0,666667;0,666667;0,666667;0,750000;0,750000;
83;;;;;;;;;;;;;;;;;;;;;;;;;;;;;;;;;;;;;;;;;;;;;;;;;;;;;;;;;;;;;;;;;;;;;;;;;;;;;;;;;;;1,000000;0,333333;0,333333;0,333333;0,416667;0,416667;
84;;;;;;;;;;;;;;;;;;;;;;;;;;;;;;;;;;;;;;;;;;;;;;;;;;;;;;;;;;;;;;;;;;;;;;;;;;;;;;;;;;;;1,000000;0,666667;0,666667;0,416667;0,416667;
85;;;;;;;;;;;;;;;;;;;;;;;;;;;;;;;;;;;;;;;;;;;;;;;;;;;;;;;;;;;;;;;;;;;;;;;;;;;;;;;;;;;;;1,000000;0,666667;0,416667;0,416667;
86;;;;;;;;;;;;;;;;;;;;;;;;;;;;;;;;;;;;;;;;;;;;;;;;;;;;;;;;;;;;;;;;;;;;;;;;;;;;;;;;;;;;;;1,000000;0,416667;0,416667;
87;;;;;;;;;;;;;;;;;;;;;;;;;;;;;;;;;;;;;;;;;;;;;;;;;;;;;;;;;;;;;;;;;;;;;;;;;;;;;;;;;;;;;;;1,000000;0,500000;
88;;;;;;;;;;;;;;;;;;;;;;;;;;;;;;;;;;;;;;;;;;;;;;;;;;;;;;;;;;;;;;;;;;;;;;;;;;;;;;;;;;;;;;;;1,000000;
