;1; 2; 3; 4; 5; 6; 7; 8; 9; 10; 11; 12; 13; 14; 15; 16; 17; 18; 19; 20; 21; 22; 23; 24; 25; 26; 27; 28; 29; 30; 31; 32; 33; 34; 35; 36; 37; 38; 39; 40; 41; 42; 43; 44; 45; 46; 47; 48; 49; 50; 51; 52; 53; 54; 55; 56; 57; 58; 59; 60; 61; 62; 63; 64; 65; 66; 67; 68; 69; 70; 71; 72; 73; 74; 75; 76; 77; 78; 79; 80; 81; 82; 83; 84; 85; 86; 87; 88; 89; 90; 91; 92; 93; 94; 95; 96; 97; 98; 99; 100; 101; 102; 103; 104; 105
1;1,000000;0,272977;0,376564;0,309076;0,595349;0,391045;0,436463;0,426184;0,507909;0,411110;0,331489;0,304181;0,333041;0,308841;0,407351;0,458483;0,322761;0,269554;0,358341;0,370239;0,284091;0,248218;0,541366;0,380991;0,281508;0,215630;0,282757;0,311084;0,172237;0,359166;0,375457;0,385832;0,508805;0,271769;0,426734;0,429502;0,391970;0,309323;0,383603;0,354137;0,266323;0,266323;0,361352;0,279417;0,433155;0,369579;0,413327;0,367497;0,347840;0,337641;0,316347;0,000000;0,000000;0,423242;0,423579;0,322859;0,177936;0,000000;0,362911;0,386758;0,373162;0,388428;0,383643;0,259302;0,259751;0,291423;0,307439;0,261050;0,396872;0,263976;0,445152;0,293910;0,377492;0,382273;0,382555;0,392768;0,000000;0,000000;0,000000;0,383891;0,384145;0,000000;0,000000;0,000000;0,000000;0,000000;0,422500;0,422675;0,422847;0,390097;0,364670;0,000000;0,000000;0,000000;0,461449;0,461549;0,461648;0,461746;0,461842;0,461937;0,388489;0,388676;0,350435;0,389042;0,389222;
2;;1,000000;0,383056;0,479418;0,273901;0,383216;0,306823;0,412072;0,371962;0,424440;0,447748;0,189076;0,165993;0,186013;0,504245;0,546883;0,380788;0,237572;0,170781;0,167745;0,225669;0,144077;0,000000;0,170309;0,000000;0,167145;0,000000;0,256453;0,341292;0,455969;0,186008;0,186230;0,403931;0,470639;0,173203;0,154132;0,106736;0,269626;0,438335;0,275562;0,000000;0,000000;0,469819;0,262408;0,533995;0,228376;0,194972;0,189193;0,670541;0,258741;0,254929;0,563766;0,563766;0,159706;0,159873;0,303306;0,351006;0,563766;0,213815;0,195457;0,194138;0,194905;0,446915;0,268131;0,268514;0,280624;0,282744;0,269626;0,198763;0,269985;0,000000;0,272991;0,197242;0,286947;0,286947;0,199304;0,268369;0,268448;0,268527;0,288846;0,288846;0,000000;0,000000;0,000000;0,000000;0,000000;0,210734;0,210791;0,210848;0,200833;0,670541;0,000000;0,000000;0,000000;0,136263;0,136312;0,136360;0,136408;0,136457;0,136505;0,294378;0,294378;0,285928;0,295058;0,295058;
3;;;1,000000;0,265093;0,309592;0,605521;0,552197;0,482430;0,527812;0,373614;0,607298;0,340217;0,338790;0,352424;0,481361;0,573102;0,438446;0,379384;0,320443;0,295698;0,459921;0,295944;0,511024;0,352367;0,135882;0,240890;0,136543;0,413118;0,332470;0,579714;0,399385;0,399036;0,273294;0,491895;0,335812;0,285011;0,329578;0,563233;0,469708;0,266740;0,235981;0,235981;0,386542;0,413118;0,431542;0,425411;0,290123;0,370757;0,451306;0,249920;0,246107;0,554944;0,554944;0,150884;0,151051;0,238447;0,572319;0,554944;0,465115;0,381081;0,401621;0,378807;0,407486;0,572319;0,572319;0,271802;0,273922;0,572319;0,385740;0,581258;0,277130;0,574160;0,404651;0,278125;0,278125;0,384575;0,000000;0,000000;0,000000;0,280025;0,280025;0,000000;0,000000;0,000000;0,000000;0,000000;0,201913;0,201969;0,202027;0,408065;0,467921;0,209943;0,210004;0,210065;0,127442;0,127490;0,127539;0,127587;0,127635;0,127683;0,285557;0,285557;0,277107;0,286236;0,286236;
4;;;;1,000000;0,169195;0,192837;0,500201;0,249549;0,216237;0,632338;0,492535;0,158810;0,135727;0,155747;0,316184;0,304772;0,139914;0,136093;0,140515;0,137480;0,195403;0,113811;0,000000;0,140044;0,000000;0,136879;0,000000;0,226187;0,311026;0,280926;0,155742;0,155964;0,000000;0,089656;0,142937;0,123866;0,076470;0,239360;0,249217;0,245296;0,000000;0,000000;0,381257;0,232142;0,297241;0,198110;0,164707;0,158927;0,383831;0,228476;0,224663;0,533500;0,533500;0,129440;0,129607;0,392894;0,320741;0,533500;0,183549;0,165192;0,163873;0,164640;0,524168;0,237866;0,238248;0,250358;0,252478;0,239360;0,168498;0,239720;0,000000;0,242726;0,166977;0,256681;0,256681;0,169038;0,318475;0,318554;0,318634;0,258581;0,258581;0,000000;0,000000;0,000000;0,000000;0,000000;0,180468;0,180525;0,180583;0,170567;0,399316;0,000000;0,000000;0,000000;0,105998;0,106046;0,106094;0,106143;0,106191;0,106239;0,264113;0,264113;0,255662;0,264792;0,264792;
5;;;;;1,000000;0,405726;0,349380;0,309113;0,386495;0,254103;0,181305;0,234495;0,114857;0,105574;0,405539;0,489687;0,362398;0,386705;0,202333;0,291174;0,189972;0,253109;0,508166;0,176870;0,443884;0,376178;0,445445;0,099252;0,177129;0,244427;0,000000;0,000000;0,281313;0,312537;0,270132;0,281977;0,298314;0,325593;0,285854;0,000000;0,233123;0,233123;0,122232;0,240919;0,433334;0,146180;0,076262;0,328999;0,419441;0,000000;0,000000;0,000000;0,000000;0,159222;0,159497;0,124678;0,144736;0,000000;0,113559;0,152144;0,000000;0,151638;0,000000;0,226103;0,226551;0,000000;0,317217;0,227850;0,373163;0,000000;0,420288;0,000000;0,000000;0,000000;0,000000;0,156605;0,000000;0,000000;0,000000;0,000000;0,000000;0,000000;0,000000;0,000000;0,000000;0,000000;0,000000;0,000000;0,000000;0,000000;0,436271;0,463837;0,463992;0,464144;0,000000;0,000000;0,000000;0,000000;0,000000;0,000000;0,000000;0,000000;0,000000;0,000000;0,000000;
6;;;;;;1,000000;0,648320;0,535627;0,616051;0,421216;0,251179;0,309048;0,307621;0,321256;0,762043;0,631549;0,385683;0,367870;0,351092;0,286480;0,428753;0,302331;0,513471;0,358757;0,172849;0,247277;0,173510;0,381950;0,302905;0,745722;0,362837;0,362488;0,000000;0,236388;0,304644;0,253843;0,335968;0,231239;0,717828;0,237175;0,238428;0,238428;0,097241;0,381950;0,471428;0,394243;0,258955;0,339589;0,712674;0,220355;0,216542;0,525379;0,525379;0,121319;0,121486;0,000000;0,541151;0,525379;0,471505;0,349912;0,365073;0,347639;0,156347;0,541151;0,541151;0,242237;0,244357;0,541151;0,354572;0,544710;0,318385;0,234604;0,368103;0,248560;0,248560;0,353407;0,000000;0,000000;0,000000;0,250459;0,250459;0,000000;0,000000;0,000000;0,000000;0,000000;0,172347;0,172404;0,172461;0,371516;0,712674;0,246910;0,246971;0,247032;0,097876;0,097925;0,097973;0,098022;0,098070;0,098118;0,255991;0,255991;0,247541;0,256671;0,256671;
7;;;;;;;1,000000;0,513107;0,544971;0,582003;0,379026;0,336087;0,334660;0,348295;0,554319;0,586072;0,364521;0,319036;0,325102;0,296477;0,455792;0,303431;0,507336;0,351548;0,289364;0,495047;0,289971;0,408989;0,335659;0,617330;0,407135;0,406786;0,227325;0,114289;0,331683;0,280882;0,328760;0,568013;0,504936;0,269929;0,232293;0,232293;0,262679;0,408989;0,541367;0,421282;0,285993;0,366628;0,479385;0,253108;0,249296;0,558133;0,558133;0,154073;0,154240;0,108822;0,568189;0,558133;0,464296;0,376951;0,409371;0,374678;0,405590;0,568189;0,568189;0,274991;0,277111;0,568189;0,381611;0,589008;0,279283;0,573333;0,412400;0,281314;0,281314;0,380446;0,000000;0,000000;0,000000;0,283213;0,283213;0,000000;0,000000;0,000000;0,000000;0,000000;0,205101;0,205158;0,205215;0,415814;0,494870;0,216086;0,216146;0,216207;0,130630;0,130679;0,130727;0,130775;0,130824;0,130872;0,288745;0,288745;0,280295;0,289425;0,289425;
8;;;;;;;;1,000000;0,406325;0,289104;0,138480;0,397256;0,395829;0,409463;0,684267;0,557621;0,442710;0,299494;0,202511;0,199476;0,516960;0,175807;0,521117;0,361377;0,000000;0,198875;0,000000;0,470157;0,373022;0,526958;0,511099;0,530220;0,000000;0,293414;0,392851;0,342050;0,283575;0,301356;0,509324;0,307292;0,246074;0,246074;0,167358;0,470157;0,548469;0,482450;0,347162;0,427797;0,741531;0,290472;0,286659;0,595496;0,595496;0,191436;0,191603;0,000000;0,629358;0,595496;0,412577;0,438120;0,484698;0,435846;0,226464;0,629358;0,629358;0,312354;0,314474;0,629358;0,442779;0,301716;0,130102;0,304722;0,488700;0,318677;0,318677;0,441615;0,000000;0,000000;0,000000;0,320576;0,320576;0,000000;0,000000;0,000000;0,000000;0,000000;0,242464;0,242521;0,242578;0,492362;0,741531;0,000000;0,000000;0,000000;0,167993;0,168042;0,168090;0,168139;0,168187;0,168235;0,326108;0,326108;0,317658;0,326788;0,326788;
9;;;;;;;;;1,000000;0,302319;0,366453;0,491304;0,429120;0,442994;0,534513;0,508841;0,403179;0,309146;0,335127;0,334913;0,436937;0,328932;0,000000;0,588121;0,121085;0,273878;0,121745;0,303672;0,388511;0,653996;0,443391;0,443041;0,272917;0,454468;0,543282;0,522689;0,582258;0,316845;0,533228;0,518540;0,378561;0,379049;0,306801;0,496321;0,493888;0,484350;0,373429;0,459813;0,638728;0,374701;0,381221;0,610985;0,610985;0,206925;0,207092;0,000000;0,398226;0,610985;0,450996;0,466684;0,445626;0,467383;0,241953;0,315350;0,315733;0,327843;0,622959;0,316845;0,470208;0,625264;0,433627;0,616689;0,448656;0,334166;0,334166;0,471969;0,000000;0,000000;0,000000;0,336066;0,336066;0,000000;0,000000;0,000000;0,000000;0,000000;0,257953;0,258010;0,258067;0,452070;0,638728;0,195146;0,195206;0,195268;0,183482;0,183531;0,183579;0,183628;0,183676;0,183724;0,341597;0,341597;0,333147;0,342277;0,342277;
10;;;;;;;;;;1,000000;0,402098;0,330343;0,328916;0,342551;0,440634;0,428405;0,150301;0,211426;0,306296;0,286967;0,450048;0,280182;0,515122;0,336956;0,137353;0,225128;0,138014;0,403245;0,321413;0,258558;0,166129;0,166351;0,396212;0,416714;0,325939;0,275137;0,314168;0,249747;0,364399;0,255683;0,240079;0,240079;0,517375;0,403245;0,427971;0,415538;0,280249;0,360884;0,361463;0,238863;0,235050;0,543887;0,543887;0,139827;0,139994;0,326312;0,562445;0,543887;0,449705;0,371207;0,174259;0,368934;0,634030;0,562445;0,562445;0,260745;0,262865;0,562445;0,375867;0,250107;0,282636;0,253112;0,177364;0,267068;0,267068;0,374702;0,000000;0,000000;0,000000;0,268967;0,268967;0,000000;0,000000;0,000000;0,000000;0,000000;0,190855;0,190912;0,190969;0,180954;0,376947;0,211415;0,211475;0,211536;0,116384;0,116433;0,116481;0,116530;0,116578;0,116626;0,274499;0,274499;0,266049;0,275179;0,275179;
11;;;;;;;;;;;1,000000;0,168293;0,145210;0,165230;0,222769;0,323358;0,149397;0,221613;0,328665;0,297409;0,204886;0,290369;0,000000;0,199083;0,146973;0,235315;0,147634;0,235670;0,320509;0,155262;0,165226;0,165447;0,370598;0,404004;0,152420;0,133349;0,185632;0,248843;0,249853;0,254779;0,000000;0,000000;0,608849;0,241625;0,390537;0,207594;0,174190;0,168410;0,164559;0,237959;0,234146;0,542983;0,542983;0,138923;0,139090;0,374946;0,330224;0,542983;0,301728;0,174675;0,173356;0,174123;0,499612;0,247349;0,247731;0,259841;0,261961;0,248843;0,177981;0,249203;0,161637;0,252209;0,176460;0,266164;0,266164;0,178522;0,297694;0,297772;0,297852;0,268064;0,268064;0,000000;0,000000;0,000000;0,000000;0,000000;0,189952;0,190008;0,190066;0,180050;0,177400;0,221034;0,221095;0,221156;0,115481;0,115529;0,115578;0,115626;0,115674;0,115722;0,273596;0,273596;0,265145;0,274275;0,274275;
12;;;;;;;;;;;;1,000000;0,534369;0,548003;0,404806;0,328901;0,231723;0,227903;0,232324;0,229289;0,912579;0,205621;0,583994;0,546279;0,000000;0,228689;0,000000;0,608697;0,402836;0,237589;0,247552;0,247774;0,000000;0,181466;0,796661;0,480590;0,695388;0,331170;0,193331;0,337105;0,308951;0,308951;0,197172;0,971828;0,470581;0,620990;0,485702;0,971828;0,246885;0,320285;0,316473;0,625310;0,625310;0,221249;0,221416;0,000000;0,767898;0,625310;0,551117;0,576660;0,255682;0,574386;0,256278;0,767898;0,767898;0,342167;0,344288;0,767898;0,581319;0,331529;0,458902;0,334535;0,258786;0,348491;0,348491;0,580155;0,000000;0,000000;0,000000;0,350390;0,350390;0,000000;0,000000;0,000000;0,000000;0,000000;0,272278;0,272335;0,272392;0,262377;0,259726;0,000000;0,000000;0,000000;0,197807;0,197855;0,197904;0,197952;0,198000;0,198048;0,355922;0,355922;0,347472;0,356601;0,356601;
13;;;;;;;;;;;;;1,000000;0,546576;0,403379;0,327474;0,208640;0,204820;0,209242;0,206206;0,654074;0,182538;0,606691;0,498491;0,000000;0,205606;0,000000;0,607270;0,379753;0,214506;0,224469;0,224691;0,000000;0,158383;0,529965;0,479163;0,420688;0,308087;0,170249;0,314023;0,331648;0,331648;0,174089;0,607270;0,469154;0,619563;0,484275;0,564910;0,223803;0,297202;0,293390;0,602227;0,602227;0,198167;0,198334;0,000000;0,766471;0,602227;0,549690;0,575233;0,232599;0,572959;0,233195;0,766471;0,766471;0,319085;0,321205;0,766471;0,579892;0,308446;0,215675;0,311452;0,235703;0,325408;0,325408;0,578728;0,000000;0,000000;0,000000;0,327307;0,327307;0,000000;0,000000;0,000000;0,000000;0,000000;0,249195;0,249252;0,249309;0,239294;0,236644;0,000000;0,000000;0,000000;0,174724;0,174773;0,174821;0,174869;0,174918;0,174966;0,332839;0,332839;0,324389;0,333519;0,333519;
14;;;;;;;;;;;;;;1,000000;0,417014;0,341108;0,228660;0,224840;0,229261;0,226226;0,667708;0,202558;0,597408;0,512125;0,000000;0,225626;0,000000;0,620905;0,399772;0,234526;0,244489;0,244711;0,000000;0,178402;0,543599;0,492798;0,434323;0,328107;0,190268;0,334042;0,322365;0,322365;0,194109;0,620905;0,482789;0,633198;0,497909;0,578544;0,243822;0,317222;0,313410;0,622247;0,622247;0,218186;0,218353;0,000000;0,780105;0,622247;0,563324;0,588867;0,252619;0,586594;0,253215;0,780105;0,780105;0,339104;0,341225;0,780105;0,593527;0,328466;0,206393;0,331472;0,255723;0,345427;0,345427;0,592362;0,000000;0,000000;0,000000;0,347327;0,347327;0,000000;0,000000;0,000000;0,000000;0,000000;0,269215;0,269272;0,269329;0,259314;0,256663;0,000000;0,000000;0,000000;0,194744;0,194792;0,194841;0,194889;0,194937;0,194985;0,352859;0,352859;0,344409;0,353538;0,353538;
15;;;;;;;;;;;;;;;1,000000;0,582127;0,464173;0,320957;0,322198;0,363411;0,524511;0,182310;0,524177;0,368928;0,000000;0,205378;0,000000;0,477708;0,379525;0,619131;0,224242;0,224463;0,000000;0,314877;0,400402;0,349601;0,291126;0,307860;0,601497;0,313795;0,249134;0,249134;0,173862;0,477708;0,620074;0,490001;0,354712;0,435347;0,833703;0,296975;0,293162;0,601999;0,601999;0,197939;0,198106;0,000000;0,636908;0,601999;0,420127;0,445670;0,232372;0,443397;0,232968;0,636908;0,636908;0,318857;0,320977;0,636908;0,450330;0,308219;0,133162;0,311225;0,235476;0,325180;0,325180;0,449165;0,000000;0,000000;0,000000;0,327080;0,327080;0,000000;0,000000;0,000000;0,000000;0,000000;0,248968;0,249024;0,249082;0,239066;0,833703;0,000000;0,000000;0,000000;0,174497;0,174545;0,174594;0,174642;0,174690;0,174738;0,332612;0,332612;0,324162;0,333291;0,333291;
16;;;;;;;;;;;;;;;;1,000000;0,379344;0,341041;0,414162;0,372483;0,448605;0,645243;0,512231;0,368440;0,166161;0,260185;0,166822;0,401802;0,588014;0,457150;0,168775;0,168997;0,287234;0,446730;0,324496;0,273695;0,345652;0,252393;0,631015;0,258328;0,237188;0,237188;0,257250;0,401802;0,653893;0,414095;0,278807;0,359442;0,671722;0,241508;0,237695;0,546533;0,546533;0,527061;0,527061;0,131398;0,561003;0,546533;0,481188;0,369765;0,176905;0,367491;0,177501;0,561003;0,561003;0,263390;0,265510;0,561003;0,374424;0,252752;0,309003;0,569018;0,180009;0,269713;0,269713;0,373260;0,000000;0,000000;0,000000;0,271613;0,271613;0,000000;0,000000;0,000000;0,000000;0,000000;0,193501;0,193558;0,193615;0,183600;0,671722;0,240222;0,240283;0,240344;0,119030;0,119078;0,119127;0,119175;0,119223;0,119271;0,277145;0,277145;0,268695;0,277824;0,277824;
17;;;;;;;;;;;;;;;;;1,000000;0,423504;0,213428;0,210393;0,268316;0,186724;0,000000;0,212957;0,297069;0,640050;0,298068;0,299101;0,383939;0,477161;0,228656;0,228878;0,000000;0,417424;0,215850;0,196779;0,149384;0,312274;0,446157;0,318209;0,000000;0,000000;0,178276;0,305056;0,194010;0,271024;0,237620;0,231840;0,579580;0,301389;0,297576;0,606414;0,606414;0,202353;0,202520;0,000000;0,393654;0,606414;0,256463;0,238105;0,236786;0,237553;0,237382;0,310779;0,311162;0,323271;0,325391;0,312274;0,241411;0,312633;0,000000;0,315639;0,239890;0,329594;0,329594;0,241952;0,000000;0,000000;0,000000;0,331494;0,331494;0,000000;0,000000;0,000000;0,000000;0,000000;0,253382;0,253439;0,253496;0,243481;0,596194;0,000000;0,000000;0,000000;0,178911;0,178959;0,179008;0,179056;0,179104;0,179152;0,337026;0,337026;0,328576;0,337705;0,337705;
18;;;;;;;;;;;;;;;;;;1,000000;0,285853;0,206573;0,264496;0,357306;0,000000;0,266020;0,639782;0,571196;0,640924;0,295280;0,380119;0,333946;0,224835;0,225057;0,000000;0,274209;0,212030;0,192959;0,252568;0,308453;0,458943;0,314389;0,000000;0,000000;0,174455;0,301235;0,190189;0,267203;0,233799;0,228020;0,436364;0,297569;0,293756;0,602593;0,602593;0,198533;0,198700;0,000000;0,389833;0,602593;0,368664;0,234285;0,232965;0,233732;0,233561;0,306958;0,307341;0,319451;0,321571;0,308453;0,237591;0,308813;0,164209;0,311818;0,236070;0,325774;0,325774;0,238131;0,000000;0,000000;0,000000;0,327673;0,327673;0,000000;0,000000;0,000000;0,000000;0,000000;0,249561;0,249618;0,249675;0,239660;0,452979;0,223607;0,223667;0,223728;0,175090;0,175139;0,175187;0,175236;0,175284;0,175332;0,333205;0,333205;0,324755;0,333885;0,333885;
19;;;;;;;;;;;;;;;;;;;1,000000;0,623732;0,268917;0,354610;0,000000;0,263324;0,144150;0,299556;0,144811;0,299702;0,384540;0,219294;0,229257;0,229479;0,000000;0,163170;0,216451;0,197380;0,249872;0,312875;0,314093;0,318810;0,000000;0,000000;0,178877;0,305657;0,194611;0,271625;0,238221;0,232441;0,228590;0,301990;0,298177;0,607015;0,607015;0,676292;0,676586;0,000000;0,394255;0,607015;0,365968;0,238706;0,237387;0,238154;0,237983;0,311380;0,311763;0,323872;0,325992;0,312875;0,242012;0,313234;0,158814;0,316240;0,240491;0,330195;0,330195;0,242553;0,000000;0,000000;0,000000;0,332095;0,332095;0,000000;0,000000;0,000000;0,000000;0,000000;0,253983;0,254040;0,254097;0,244082;0,241431;0,218211;0,218272;0,218333;0,179512;0,179560;0,179609;0,179657;0,179705;0,179753;0,337627;0,337627;0,329177;0,338306;0,338306;
20;;;;;;;;;;;;;;;;;;;;1,000000;0,265882;0,638823;0,000000;0,210523;0,000000;0,207358;0,000000;0,296667;0,784469;0,216258;0,226222;0,226443;0,000000;0,160135;0,213416;0,194345;0,146950;0,309839;0,172001;0,315775;0,000000;0,000000;0,175842;0,302622;0,191576;0,268590;0,235186;0,229406;0,225555;0,298955;0,295142;0,603979;0,603979;0,749273;0,749618;0,000000;0,391220;0,603979;0,254029;0,235671;0,234352;0,235119;0,234947;0,308345;0,308727;0,320837;0,322957;0,309839;0,238977;0,310199;0,000000;0,313205;0,237456;0,327160;0,327160;0,239518;0,000000;0,000000;0,000000;0,329060;0,329060;0,000000;0,000000;0,000000;0,000000;0,000000;0,250948;0,251004;0,251062;0,241046;0,238396;0,000000;0,000000;0,000000;0,176477;0,176525;0,176574;0,176622;0,176670;0,176718;0,334592;0,334592;0,326142;0,335271;0,335271;
21;;;;;;;;;;;;;;;;;;;;;1,000000;0,242214;0,635490;0,824741;0,000000;0,265282;0,000000;0,728402;0,439429;0,274182;0,284145;0,284367;0,000000;0,218059;0,765585;0,600295;0,664312;0,367763;0,229924;0,373698;0,360447;0,360447;0,233765;0,940752;0,590286;0,740695;0,605407;0,940752;0,283479;0,356878;0,353066;0,661903;0,661903;0,257842;0,258009;0,000000;0,887603;0,661903;0,670822;0,696365;0,292275;0,694091;0,292871;0,887603;0,887603;0,378760;0,380881;0,887603;0,701024;0,368122;0,414379;0,371128;0,295379;0,385084;0,385084;0,699860;0,000000;0,000000;0,000000;0,386983;0,386983;0,000000;0,000000;0,000000;0,000000;0,000000;0,308871;0,308928;0,308985;0,298970;0,296320;0,000000;0,000000;0,000000;0,234400;0,234449;0,234497;0,234545;0,234593;0,234642;0,392515;0,392515;0,384065;0,393195;0,393195;
22;;;;;;;;;;;;;;;;;;;;;;1,000000;0,000000;0,334776;0,226800;0,371008;0,227461;0,272998;0,854354;0,192590;0,202553;0,202775;0,000000;0,136467;0,189748;0,170677;0,321325;0,286171;0,385545;0,292107;0,000000;0,000000;0,152173;0,278953;0,167907;0,244921;0,211517;0,205738;0,201887;0,275286;0,271474;0,580311;0,580311;0,605516;0,605719;0,000000;0,367551;0,580311;0,437421;0,212002;0,210683;0,211450;0,211279;0,284676;0,285059;0,297169;0,299289;0,286171;0,215308;0,286530;0,241464;0,289536;0,213787;0,303492;0,303492;0,215849;0,000000;0,000000;0,000000;0,305391;0,305391;0,000000;0,000000;0,000000;0,000000;0,000000;0,227279;0,227336;0,227393;0,217378;0,214728;0,300861;0,300922;0,300983;0,152808;0,152857;0,152905;0,152953;0,153002;0,153050;0,310923;0,310923;0,302473;0,311603;0,311603;
23;;;;;;;;;;;;;;;;;;;;;;;1,000000;0,591993;0,000000;0,000000;0,000000;0,591086;0,000000;0,000000;0,000000;0,000000;0,000000;0,000000;0,619430;0,599545;0,600793;0,000000;0,000000;0,000000;0,724957;0,724957;0,000000;0,597676;0,596995;0,638014;0,568097;0,636930;0,000000;0,000000;0,000000;0,000000;0,000000;0,000000;0,000000;0,000000;0,636570;0,000000;0,605393;0,643978;0,000000;0,643472;0,000000;0,717937;0,718386;0,000000;0,000000;0,719685;0,647704;0,000000;0,608985;0,000000;0,000000;0,000000;0,000000;0,648439;0,000000;0,000000;0,000000;0,000000;0,000000;0,000000;0,000000;0,000000;0,000000;0,000000;0,000000;0,000000;0,000000;0,000000;0,000000;0,000000;0,000000;0,000000;0,000000;0,000000;0,000000;0,000000;0,000000;0,000000;0,000000;0,000000;0,000000;0,000000;0,000000;
24;;;;;;;;;;;;;;;;;;;;;;;;1,000000;0,129979;0,279722;0,130640;0,572819;0,384069;0,218822;0,228785;0,229007;0,000000;0,162699;0,585888;0,771343;0,676073;0,312403;0,294259;0,318339;0,316950;0,316950;0,178406;0,572819;0,434703;0,585112;0,449824;0,530459;0,228119;0,301519;0,297706;0,606543;0,606543;0,202483;0,202650;0,000000;0,732020;0,606543;0,612937;0,540782;0,236916;0,751540;0,237511;0,732020;0,732020;0,323401;0,325521;0,732020;0,545441;0,312763;0,514925;0,315769;0,240020;0,329724;0,329724;0,544277;0,000000;0,000000;0,000000;0,331624;0,331624;0,000000;0,000000;0,000000;0,000000;0,000000;0,253511;0,253568;0,253626;0,243610;0,240960;0,204040;0,204101;0,204162;0,179041;0,179089;0,179137;0,179186;0,179234;0,179282;0,337156;0,337156;0,328705;0,337835;0,337835;
25;;;;;;;;;;;;;;;;;;;;;;;;;1,000000;0,713598;0,776526;0,000000;0,000000;0,000000;0,000000;0,000000;0,000000;0,000000;0,000000;0,000000;0,178827;0,000000;0,211994;0,000000;0,000000;0,000000;0,000000;0,000000;0,000000;0,000000;0,000000;0,000000;0,000000;0,000000;0,000000;0,000000;0,000000;0,000000;0,000000;0,000000;0,000000;0,000000;0,182152;0,000000;0,000000;0,000000;0,000000;0,000000;0,000000;0,000000;0,000000;0,000000;0,000000;0,000000;0,250522;0,000000;0,000000;0,000000;0,000000;0,000000;0,000000;0,000000;0,000000;0,000000;0,000000;0,000000;0,000000;0,000000;0,000000;0,000000;0,000000;0,000000;0,000000;0,000000;0,000000;0,309920;0,309981;0,310042;0,000000;0,000000;0,000000;0,000000;0,000000;0,000000;0,000000;0,000000;0,000000;0,000000;0,000000;
26;;;;;;;;;;;;;;;;;;;;;;;;;;1,000000;0,714618;0,296066;0,380905;0,215658;0,225621;0,225843;0,000000;0,159535;0,212816;0,193745;0,266271;0,309239;0,330491;0,315175;0,000000;0,000000;0,175241;0,302021;0,190975;0,267989;0,234585;0,228806;0,224955;0,298354;0,294542;0,603379;0,603379;0,199319;0,199486;0,000000;0,390619;0,603379;0,382367;0,235070;0,233751;0,234518;0,234347;0,307744;0,308127;0,320236;0,322357;0,309239;0,238376;0,309598;0,176595;0,312604;0,236855;0,326560;0,326560;0,238917;0,000000;0,000000;0,000000;0,328459;0,328459;0,000000;0,000000;0,000000;0,000000;0,000000;0,250347;0,250404;0,250461;0,240446;0,237796;0,235993;0,236054;0,236115;0,175876;0,175925;0,175973;0,176021;0,176070;0,176118;0,333991;0,333991;0,325541;0,334671;0,334671;
27;;;;;;;;;;;;;;;;;;;;;;;;;;;1,000000;0,000000;0,000000;0,000000;0,000000;0,000000;0,000000;0,000000;0,000000;0,000000;0,179488;0,000000;0,212655;0,000000;0,000000;0,000000;0,000000;0,000000;0,000000;0,000000;0,000000;0,000000;0,000000;0,000000;0,000000;0,000000;0,000000;0,000000;0,000000;0,000000;0,000000;0,000000;0,182812;0,000000;0,000000;0,000000;0,000000;0,000000;0,000000;0,000000;0,000000;0,000000;0,000000;0,000000;0,251183;0,000000;0,000000;0,000000;0,000000;0,000000;0,000000;0,000000;0,000000;0,000000;0,000000;0,000000;0,000000;0,000000;0,000000;0,000000;0,000000;0,000000;0,000000;0,000000;0,000000;0,310581;0,310641;0,310702;0,000000;0,000000;0,000000;0,000000;0,000000;0,000000;0,000000;0,000000;0,000000;0,000000;0,000000;
28;;;;;;;;;;;;;;;;;;;;;;;;;;;;1,000000;0,470213;0,304966;0,314929;0,315151;0,000000;0,248843;0,604293;0,553492;0,495017;0,398547;0,260709;0,404483;0,316043;0,316043;0,264549;0,681599;0,543483;0,693892;0,558603;0,639238;0,314263;0,387663;0,383850;0,692687;0,692687;0,288627;0,288794;0,000000;0,840799;0,692687;0,624018;0,649561;0,323059;0,647288;0,323655;0,840799;0,840799;0,409545;0,411665;0,840799;0,654221;0,398907;0,200071;0,401912;0,326164;0,415868;0,415868;0,653056;0,000000;0,000000;0,000000;0,417767;0,417767;0,000000;0,000000;0,000000;0,000000;0,000000;0,339655;0,339712;0,339769;0,329754;0,327104;0,000000;0,000000;0,000000;0,265184;0,265233;0,265281;0,265330;0,265378;0,265426;0,423299;0,423299;0,871797;0,423979;0,423979;
29;;;;;;;;;;;;;;;;;;;;;;;;;;;;;1,000000;0,389805;0,399768;0,399990;0,000000;0,333682;0,386963;0,367891;0,320496;0,483386;0,345547;0,489321;0,000000;0,000000;0,349388;0,476168;0,365122;0,442136;0,408732;0,402953;0,399102;0,472501;0,468689;0,777526;0,777526;0,751162;0,751365;0,000000;0,564766;0,777526;0,427575;0,409217;0,407898;0,408665;0,408494;0,481891;0,482274;0,494383;0,496504;0,483386;0,412523;0,483745;0,000000;0,486751;0,411002;0,500707;0,500707;0,413064;0,000000;0,000000;0,000000;0,502606;0,502606;0,000000;0,000000;0,000000;0,000000;0,000000;0,424494;0,424551;0,424608;0,414593;0,411943;0,000000;0,000000;0,000000;0,350023;0,350072;0,350120;0,350168;0,350216;0,350265;0,508138;0,508138;0,499688;0,508817;0,508817;
30;;;;;;;;;;;;;;;;;;;;;;;;;;;;;;1,000000;0,609609;0,609260;0,000000;0,327866;0,221716;0,202645;0,155249;0,318139;0,553221;0,324075;0,000000;0,000000;0,184141;0,310921;0,404519;0,276889;0,243485;0,237706;0,785427;0,307254;0,303442;0,612279;0,612279;0,208219;0,208386;0,000000;0,399519;0,612279;0,262328;0,243970;0,611845;0,243418;0,243247;0,316644;0,317027;0,329137;0,331257;0,318139;0,247276;0,791482;0,000000;0,321504;0,614875;0,335460;0,335460;0,247817;0,000000;0,000000;0,000000;0,337359;0,337359;0,000000;0,000000;0,000000;0,000000;0,000000;0,259247;0,259304;0,259361;0,618288;0,785427;0,000000;0,000000;0,000000;0,184776;0,184825;0,184873;0,184921;0,184970;0,185018;0,342891;0,342891;0,334441;0,343571;0,343571;
31;;;;;;;;;;;;;;;;;;;;;;;;;;;;;;;1,000000;0,635905;0,000000;0,178398;0,231679;0,212608;0,165212;0,328102;0,190264;0,334038;0,000000;0,000000;0,194104;0,320884;0,209838;0,286852;0,253448;0,247669;0,243818;0,317218;0,313405;0,622242;0,622242;0,218182;0,218349;0,000000;0,409482;0,622242;0,272291;0,253934;0,922277;0,253381;0,253210;0,326607;0,326990;0,339100;0,341220;0,328102;0,257240;0,818127;0,000000;0,331467;0,922277;0,345423;0,345423;0,257780;0,000000;0,000000;0,000000;0,347322;0,347322;0,000000;0,000000;0,000000;0,000000;0,000000;0,269210;0,269267;0,269324;0,644933;0,256659;0,000000;0,000000;0,000000;0,194739;0,194788;0,194836;0,194885;0,194933;0,194981;0,352854;0,352854;0,344404;0,353534;0,353534;
32;;;;;;;;;;;;;;;;;;;;;;;;;;;;;;;;1,000000;0,000000;0,178620;0,231901;0,212830;0,165434;0,328324;0,190486;0,334260;0,000000;0,000000;0,194326;0,321106;0,210060;0,287074;0,253670;0,247891;0,244040;0,317439;0,313627;0,622464;0,622464;0,218404;0,218571;0,000000;0,409704;0,622464;0,272513;0,254155;0,638141;0,253603;0,253432;0,326829;0,327212;0,339322;0,341442;0,328324;0,257461;0,817778;0,000000;0,331689;0,641170;0,345645;0,345645;0,258002;0,000000;0,000000;0,000000;0,347544;0,347544;0,000000;0,000000;0,000000;0,000000;0,000000;0,269432;0,269489;0,269546;0,892113;0,256881;0,000000;0,000000;0,000000;0,194961;0,195010;0,195058;0,195106;0,195155;0,195203;0,353076;0,353076;0,344626;0,353756;0,353756;
33;;;;;;;;;;;;;;;;;;;;;;;;;;;;;;;;;1,000000;0,443721;0,000000;0,000000;0,000000;0,000000;0,000000;0,000000;0,000000;0,000000;0,379500;0,000000;0,400812;0,000000;0,000000;0,000000;0,000000;0,000000;0,000000;0,000000;0,000000;0,000000;0,000000;0,000000;0,000000;0,000000;0,000000;0,000000;0,000000;0,000000;0,364668;0,000000;0,000000;0,000000;0,000000;0,000000;0,000000;0,000000;0,000000;0,000000;0,000000;0,000000;0,000000;0,000000;0,000000;0,000000;0,000000;0,000000;0,000000;0,000000;0,000000;0,000000;0,000000;0,000000;0,000000;0,000000;0,000000;0,000000;0,000000;0,000000;0,000000;0,000000;0,000000;0,000000;0,000000;0,000000;0,000000;0,000000;0,000000;0,000000;0,000000;0,000000;0,000000;
34;;;;;;;;;;;;;;;;;;;;;;;;;;;;;;;;;;1,000000;0,165593;0,146521;0,099126;0,262016;0,296861;0,267951;0,000000;0,000000;0,743236;0,254798;0,474854;0,220766;0,187362;0,181583;0,430284;0,251131;0,247319;0,556156;0,556156;0,152095;0,152262;0,000000;0,343396;0,556156;0,206205;0,187847;0,186528;0,187295;0,187124;0,260521;0,260904;0,273013;0,275134;0,262016;0,191153;0,262375;0,000000;0,265381;0,189632;0,279337;0,279337;0,191694;0,000000;0,000000;0,000000;0,281236;0,281236;0,000000;0,000000;0,000000;0,000000;0,000000;0,203124;0,203181;0,203238;0,193223;0,446899;0,000000;0,000000;0,000000;0,128653;0,128702;0,128750;0,128798;0,128846;0,128895;0,286768;0,286768;0,278318;0,287447;0,287447;
35;;;;;;;;;;;;;;;;;;;;;;;;;;;;;;;;;;;1,000000;0,708940;0,715369;0,315297;0,177458;0,321232;0,344387;0,344387;0,181299;0,824833;0,466177;0,616586;0,481298;0,824833;0,231013;0,304412;0,300600;0,609437;0,609437;0,205376;0,205543;0,000000;0,763494;0,609437;0,546713;0,572256;0,239809;0,569982;0,240405;0,763494;0,763494;0,326294;0,328415;0,763494;0,576915;0,315656;0,621687;0,318662;0,242913;0,332618;0,332618;0,575751;0,000000;0,000000;0,000000;0,334517;0,334517;0,000000;0,000000;0,000000;0,000000;0,000000;0,256405;0,256462;0,256519;0,246504;0,243853;0,000000;0,000000;0,000000;0,181934;0,181983;0,182031;0,182079;0,182127;0,182176;0,340049;0,340049;0,331599;0,340728;0,340728;
36;;;;;;;;;;;;;;;;;;;;;;;;;;;;;;;;;;;;1,000000;0,609704;0,296226;0,158387;0,302161;0,324502;0,324502;0,162228;0,553492;0,415376;0,565785;0,430496;0,511131;0,211941;0,285341;0,281528;0,590366;0,590366;0,186305;0,186472;0,000000;0,712692;0,590366;0,495911;0,521454;0,220738;0,872371;0,221334;0,712692;0,712692;0,307223;0,309343;0,712692;0,526114;0,296585;0,532001;0,299591;0,223842;0,313546;0,313546;0,524949;0,000000;0,000000;0,000000;0,315446;0,315446;0,000000;0,000000;0,000000;0,000000;0,000000;0,237334;0,237391;0,237448;0,227433;0,224782;0,000000;0,000000;0,000000;0,162863;0,162911;0,162960;0,163008;0,163056;0,163104;0,320978;0,320978;0,312528;0,321657;0,321657;
37;;;;;;;;;;;;;;;;;;;;;;;;;;;;;;;;;;;;;1,000000;0,248830;0,280808;0,254766;0,325750;0,325750;0,114832;0,723561;0,356901;0,507310;0,372021;0,723561;0,164546;0,237946;0,234133;0,542970;0,542970;0,138910;0,139077;0,000000;0,654217;0,542970;0,590149;0,462979;0,173342;0,737333;0,173938;0,654217;0,654217;0,259828;0,261948;0,654217;0,467639;0,249190;0,612199;0,252196;0,176447;0,266151;0,266151;0,466474;0,000000;0,000000;0,000000;0,268050;0,268050;0,000000;0,000000;0,000000;0,000000;0,000000;0,189938;0,189995;0,190052;0,180037;0,177387;0,252888;0,252949;0,253010;0,115467;0,115516;0,115564;0,115613;0,115661;0,115709;0,273582;0,273582;0,265132;0,274262;0,274262;
38;;;;;;;;;;;;;;;;;;;;;;;;;;;;;;;;;;;;;;1,000000;0,273882;0,417656;0,000000;0,000000;0,277722;0,404502;0,293456;0,370470;0,337066;0,331287;0,327436;0,400836;0,397023;0,705860;0,705860;0,301800;0,301967;0,000000;0,493100;0,705860;0,355909;0,337552;0,336232;0,336999;0,336828;0,410225;0,410608;0,422718;0,424838;0,411720;0,340858;0,412080;0,000000;0,415085;0,339337;0,429041;0,429041;0,341398;0,000000;0,000000;0,000000;0,430940;0,430940;0,000000;0,000000;0,000000;0,000000;0,000000;0,352828;0,352885;0,352942;0,342927;0,340277;0,000000;0,000000;0,000000;0,278357;0,278406;0,278454;0,278503;0,278551;0,278599;0,436472;0,436472;0,428022;0,437152;0,437152;
39;;;;;;;;;;;;;;;;;;;;;;;;;;;;;;;;;;;;;;;1,000000;0,279817;0,000000;0,000000;0,139884;0,266664;0,372811;0,232632;0,199228;0,193448;0,767794;0,262997;0,259184;0,568022;0,568022;0,163961;0,164128;0,000000;0,355262;0,568022;0,396904;0,199713;0,198394;0,199161;0,198990;0,272387;0,272770;0,284879;0,286999;0,273882;0,203019;0,274241;0,226658;0,277247;0,201498;0,291202;0,291202;0,203560;0,000000;0,000000;0,000000;0,293102;0,293102;0,000000;0,000000;0,000000;0,000000;0,000000;0,214990;0,215047;0,215104;0,205089;0,767794;0,286055;0,286116;0,286177;0,140519;0,140567;0,140616;0,140664;0,140712;0,140760;0,298634;0,298634;0,290184;0,299313;0,299313;
40;;;;;;;;;;;;;;;;;;;;;;;;;;;;;;;;;;;;;;;;1,000000;0,000000;0,000000;0,283658;0,410438;0,299392;0,376406;0,343002;0,337222;0,333371;0,406771;0,402958;0,711796;0,711796;0,307735;0,307902;0,000000;0,499036;0,711796;0,361845;0,343487;0,342168;0,342935;0,342764;0,416161;0,416544;0,428653;0,430773;0,417656;0,346793;0,418015;0,000000;0,421021;0,345272;0,434976;0,434976;0,347334;0,000000;0,000000;0,000000;0,436876;0,436876;0,000000;0,000000;0,000000;0,000000;0,000000;0,358764;0,358821;0,358878;0,348863;0,346212;0,000000;0,000000;0,000000;0,284293;0,284341;0,284390;0,284438;0,284486;0,284534;0,442408;0,442408;0,433958;0,443087;0,443087;
41;;;;;;;;;;;;;;;;;;;;;;;;;;;;;;;;;;;;;;;;;1,000000;0,449914;0,000000;0,322634;0,321952;0,362971;0,293054;0,361887;0,000000;0,000000;0,000000;0,000000;0,000000;0,000000;0,000000;0,000000;0,361527;0,000000;0,330350;0,368935;0,000000;0,368429;0,000000;0,442894;0,443343;0,000000;0,000000;0,444642;0,372661;0,000000;0,333942;0,000000;0,000000;0,000000;0,000000;0,373396;0,000000;0,000000;0,000000;0,000000;0,000000;0,000000;0,000000;0,000000;0,000000;0,000000;0,000000;0,000000;0,000000;0,000000;0,000000;0,000000;0,000000;0,000000;0,000000;0,000000;0,000000;0,000000;0,000000;0,000000;0,000000;0,000000;0,000000;0,000000;0,000000;
42;;;;;;;;;;;;;;;;;;;;;;;;;;;;;;;;;;;;;;;;;;1,000000;0,000000;0,322634;0,321952;0,362971;0,293054;0,361887;0,000000;0,000000;0,000000;0,000000;0,000000;0,000000;0,000000;0,000000;0,361527;0,000000;0,330350;0,368935;0,000000;0,368429;0,000000;0,442894;0,443343;0,000000;0,000000;0,444642;0,372661;0,000000;0,333942;0,000000;0,000000;0,000000;0,000000;0,373396;0,000000;0,000000;0,000000;0,000000;0,000000;0,000000;0,000000;0,000000;0,000000;0,000000;0,000000;0,000000;0,000000;0,000000;0,000000;0,000000;0,000000;0,000000;0,000000;0,000000;0,000000;0,000000;0,000000;0,000000;0,000000;0,000000;0,000000;0,000000;0,000000;
43;;;;;;;;;;;;;;;;;;;;;;;;;;;;;;;;;;;;;;;;;;;1,000000;0,270504;0,421254;0,236472;0,203069;0,197289;0,193438;0,266838;0,263025;0,571862;0,571862;0,167802;0,167969;0,207054;0,359103;0,571862;0,221911;0,203554;0,202235;0,203002;0,523650;0,276228;0,276610;0,288720;0,290840;0,277722;0,206860;0,278082;0,000000;0,281088;0,205339;0,295043;0,295043;0,207400;0,000000;0,000000;0,000000;0,296943;0,296943;0,000000;0,000000;0,000000;0,000000;0,000000;0,218831;0,218887;0,218945;0,208929;0,206279;0,000000;0,000000;0,000000;0,144360;0,144408;0,144456;0,144505;0,144553;0,144601;0,302475;0,302475;0,294024;0,303154;0,303154;
44;;;;;;;;;;;;;;;;;;;;;;;;;;;;;;;;;;;;;;;;;;;;1,000000;0,543483;0,693892;0,558603;1,000000;0,320218;0,393618;0,389805;0,698642;0,698642;0,294582;0,294749;0,000000;0,840799;0,698642;0,624018;0,649561;0,329014;0,647288;0,329610;0,840799;0,840799;0,415500;0,417620;0,840799;0,654221;0,404862;0,465327;0,407867;0,332119;0,421823;0,421823;0,653056;0,000000;0,000000;0,000000;0,423722;0,423722;0,000000;0,000000;0,000000;0,000000;0,000000;0,345610;0,345667;0,345724;0,335709;0,333059;0,000000;0,000000;0,000000;0,271139;0,271188;0,271236;0,271285;0,271333;0,271381;0,429254;0,429254;0,420804;0,429934;0,429934;
45;;;;;;;;;;;;;;;;;;;;;;;;;;;;;;;;;;;;;;;;;;;;;1,000000;0,555776;0,420487;0,501122;0,507425;0,282572;0,278759;0,587596;0,587596;0,183536;0,183703;0,000000;0,702683;0,587596;0,485902;0,511445;0,217969;0,509172;0,218564;0,702683;0,702683;0,304454;0,306574;0,702683;0,516105;0,293816;0,205979;0,296822;0,221073;0,310777;0,310777;0,514940;0,000000;0,000000;0,000000;0,312677;0,312677;0,000000;0,000000;0,000000;0,000000;0,000000;0,234565;0,234621;0,234679;0,224663;0,522909;0,000000;0,000000;0,000000;0,160094;0,160142;0,160190;0,160239;0,160287;0,160335;0,318209;0,318209;0,309758;0,318888;0,318888;
46;;;;;;;;;;;;;;;;;;;;;;;;;;;;;;;;;;;;;;;;;;;;;;1,000000;0,570896;0,651531;0,286186;0,486846;0,493366;0,664610;0,664610;0,260550;0,260717;0,000000;0,853092;0,664610;0,636311;0,661854;0,294982;0,659581;0,295578;0,853092;0,853092;0,381468;0,383588;0,853092;0,666514;0,370830;0,246999;0,373836;0,298087;0,387791;0,387791;0,665349;0,000000;0,000000;0,000000;0,389691;0,389691;0,000000;0,000000;0,000000;0,000000;0,000000;0,311578;0,311635;0,311692;0,301677;0,299027;0,000000;0,000000;0,000000;0,237107;0,237156;0,237204;0,237253;0,237301;0,237349;0,395222;0,395222;0,386772;0,395902;0,395902;
47;;;;;;;;;;;;;;;;;;;;;;;;;;;;;;;;;;;;;;;;;;;;;;;1,000000;0,516243;0,252782;0,670967;0,696361;0,631206;0,631206;0,227146;0,227313;0,000000;0,717804;0,631206;0,501023;0,826527;0,261579;0,524292;0,262174;0,717804;0,717804;0,738987;0,350184;0,717804;0,531225;0,337426;0,177081;0,340432;0,264683;0,354387;0,354387;0,826527;0,000000;0,000000;0,000000;0,356287;0,356287;0,000000;0,000000;0,000000;0,000000;0,000000;0,278175;0,278231;0,278289;0,268273;0,265623;0,000000;0,000000;0,000000;0,203704;0,203752;0,203800;0,203849;0,203897;0,203945;0,361819;0,361819;0,353368;0,362498;0,362498;
48;;;;;;;;;;;;;;;;;;;;;;;;;;;;;;;;;;;;;;;;;;;;;;;;1,000000;0,247003;0,320402;0,316590;0,625427;0,625427;0,221367;0,221534;0,000000;0,798439;0,625427;0,581658;0,607201;0,255799;0,604927;0,256395;0,798439;0,798439;0,342284;0,344405;0,798439;0,611860;0,331646;0,553406;0,334652;0,258903;0,348608;0,348608;0,610696;0,000000;0,000000;0,000000;0,350507;0,350507;0,000000;0,000000;0,000000;0,000000;0,000000;0,272395;0,272452;0,272509;0,262494;0,259844;0,000000;0,000000;0,000000;0,197924;0,197973;0,198021;0,198069;0,198118;0,198166;0,356039;0,356039;0,347589;0,356719;0,356719;
49;;;;;;;;;;;;;;;;;;;;;;;;;;;;;;;;;;;;;;;;;;;;;;;;;1,000000;0,316551;0,312739;0,621576;0,621576;0,217515;0,217682;0,000000;0,408816;0,621576;0,271625;0,253267;0,251948;0,252715;0,252544;0,325941;0,326324;0,338433;0,340554;0,327436;0,256573;0,327795;0,000000;0,330801;0,255052;0,344757;0,344757;0,257114;0,000000;0,000000;0,000000;0,346656;0,346656;0,000000;0,000000;0,000000;0,000000;0,000000;0,268544;0,268601;0,268658;0,258643;1,000000;0,000000;0,000000;0,000000;0,194073;0,194122;0,194170;0,194218;0,194266;0,194315;0,352188;0,352188;0,343738;0,352867;0,352867;
50;;;;;;;;;;;;;;;;;;;;;;;;;;;;;;;;;;;;;;;;;;;;;;;;;;1,000000;0,520675;0,694975;0,694975;0,290915;0,291082;0,000000;0,482216;0,694975;0,345025;0,326667;0,325348;0,326115;0,325944;0,399341;0,399723;0,411833;0,413953;0,400836;0,329973;0,401195;0,000000;0,404201;0,328452;0,418156;0,418156;0,330514;0,000000;0,000000;0,000000;0,420056;0,420056;0,000000;0,000000;0,000000;0,000000;0,000000;0,341944;0,342000;0,342058;0,332042;0,329392;0,000000;0,000000;0,000000;0,267473;0,267521;0,267570;0,267618;0,267666;0,267714;0,425588;0,425588;0,417138;0,426267;0,426267;
51;;;;;;;;;;;;;;;;;;;;;;;;;;;;;;;;;;;;;;;;;;;;;;;;;;;1,000000;0,691163;0,691163;0,287103;0,287270;0,000000;0,478403;0,691163;0,341212;0,322854;0,321535;0,322302;0,322131;0,395528;0,395911;0,957374;0,410141;0,397023;0,326160;0,397382;0,000000;0,400388;0,324639;0,414344;0,414344;0,326701;0,000000;0,000000;0,000000;0,416243;0,416243;0,000000;0,000000;0,000000;0,000000;0,000000;0,338131;0,338188;0,338245;0,328230;0,325580;0,000000;0,000000;0,000000;0,263660;0,263709;0,263757;0,263805;0,263854;0,263902;0,421775;0,421775;0,413325;0,422455;0,422455;
52;;;;;;;;;;;;;;;;;;;;;;;;;;;;;;;;;;;;;;;;;;;;;;;;;;;;1,000000;1,000000;0,595940;0,596107;0,000000;0,787240;1,000000;0,650049;0,631691;0,630372;0,631139;0,630968;0,704365;0,704748;0,716858;0,718978;0,705860;0,634997;0,706219;0,000000;0,709225;0,633476;0,723181;0,723181;0,635538;0,000000;0,000000;0,000000;0,725080;0,725080;0,000000;0,000000;0,000000;0,000000;0,000000;0,646968;0,647025;0,647082;0,637067;0,634417;0,000000;0,000000;0,000000;0,572497;0,572546;0,572594;0,572642;0,572691;0,572739;0,730612;0,730612;0,722162;0,731292;0,731292;
53;;;;;;;;;;;;;;;;;;;;;;;;;;;;;;;;;;;;;;;;;;;;;;;;;;;;;1,000000;0,595940;0,596107;0,000000;0,787240;1,000000;0,650049;0,631691;0,630372;0,631139;0,630968;0,704365;0,704748;0,716858;0,718978;0,705860;0,634997;0,706219;0,000000;0,709225;0,633476;0,723181;0,723181;0,635538;0,000000;0,000000;0,000000;0,725080;0,725080;0,000000;0,000000;0,000000;0,000000;0,000000;0,646968;0,647025;0,647082;0,637067;0,634417;0,000000;0,000000;0,000000;0,572497;0,572546;0,572594;0,572642;0,572691;0,572739;0,730612;0,730612;0,722162;0,731292;0,731292;
54;;;;;;;;;;;;;;;;;;;;;;;;;;;;;;;;;;;;;;;;;;;;;;;;;;;;;;1,000000;0,786120;0,000000;0,383180;0,595940;0,245989;0,227631;0,226312;0,227079;0,226908;0,300305;0,300688;0,312797;0,314917;0,301800;0,230937;0,302159;0,000000;0,305165;0,229416;0,319120;0,319120;0,231478;0,000000;0,000000;0,000000;0,321020;0,321020;0,000000;0,000000;0,000000;0,000000;0,000000;0,242908;0,242965;0,243022;0,233007;0,230356;0,000000;0,000000;0,000000;0,168437;0,168485;0,168534;0,168582;0,168630;0,168678;0,326552;0,326552;0,318102;0,327231;0,327231;
55;;;;;;;;;;;;;;;;;;;;;;;;;;;;;;;;;;;;;;;;;;;;;;;;;;;;;;;1,000000;0,000000;0,383347;0,596107;0,246156;0,227798;0,226479;0,227246;0,227075;0,300472;0,300855;0,312964;0,315084;0,301967;0,231104;0,302326;0,000000;0,305332;0,229583;0,319287;0,319287;0,231645;0,000000;0,000000;0,000000;0,321187;0,321187;0,000000;0,000000;0,000000;0,000000;0,000000;0,243075;0,243132;0,243189;0,233174;0,230523;0,000000;0,000000;0,000000;0,168604;0,168652;0,168701;0,168749;0,168797;0,168845;0,326719;0,326719;0,318269;0,327398;0,327398;
56;;;;;;;;;;;;;;;;;;;;;;;;;;;;;;;;;;;;;;;;;;;;;;;;;;;;;;;;1,000000;0,000000;0,000000;0,000000;0,000000;0,000000;0,000000;0,283380;0,000000;0,000000;0,000000;0,000000;0,000000;0,000000;0,000000;0,000000;0,000000;0,000000;0,000000;0,000000;0,000000;0,694960;0,695102;0,695242;0,000000;0,000000;0,000000;0,000000;0,000000;0,000000;0,000000;0,000000;0,000000;0,000000;0,000000;0,000000;0,000000;0,000000;0,000000;0,000000;0,000000;0,000000;0,000000;0,000000;0,000000;0,000000;0,000000;0,000000;0,000000;0,000000;
57;;;;;;;;;;;;;;;;;;;;;;;;;;;;;;;;;;;;;;;;;;;;;;;;;;;;;;;;;1,000000;0,787240;0,783219;0,808762;0,417613;0,806488;0,418208;1,000000;1,000000;0,504098;0,506218;1,000000;0,813421;0,493460;0,245555;0,496466;0,420717;0,510421;0,510421;0,812257;0,000000;0,000000;0,000000;0,512321;0,512321;0,000000;0,000000;0,000000;0,000000;0,000000;0,434209;0,434265;0,434323;0,424307;0,421657;0,000000;0,000000;0,000000;0,359738;0,359786;0,359835;0,359883;0,359931;0,359979;0,517853;0,517853;0,509402;0,518532;0,518532;
58;;;;;;;;;;;;;;;;;;;;;;;;;;;;;;;;;;;;;;;;;;;;;;;;;;;;;;;;;;1,000000;0,650049;0,631691;0,630372;0,631139;0,630968;0,704365;0,704748;0,716858;0,718978;0,705860;0,634997;0,706219;0,000000;0,709225;0,633476;0,723181;0,723181;0,635538;0,000000;0,000000;0,000000;0,725080;0,725080;0,000000;0,000000;0,000000;0,000000;0,000000;0,646968;0,647025;0,647082;0,637067;0,634417;0,000000;0,000000;0,000000;0,572497;0,572546;0,572594;0,572642;0,572691;0,572739;0,730612;0,730612;0,722162;0,731292;0,731292;
59;;;;;;;;;;;;;;;;;;;;;;;;;;;;;;;;;;;;;;;;;;;;;;;;;;;;;;;;;;;1,000000;0,591981;0,280421;0,589707;0,281017;0,783219;0,783219;0,366907;0,369027;0,783219;0,596640;0,356269;0,420780;0,359275;0,283526;0,373230;0,373230;0,595476;0,000000;0,000000;0,000000;0,375130;0,375130;0,000000;0,000000;0,000000;0,000000;0,000000;0,297017;0,297074;0,297131;0,287116;0,284466;0,256213;0,256273;0,256335;0,222546;0,222595;0,222643;0,222692;0,222740;0,222788;0,380661;0,380661;0,372211;0,381341;0,381341;
60;;;;;;;;;;;;;;;;;;;;;;;;;;;;;;;;;;;;;;;;;;;;;;;;;;;;;;;;;;;;1,000000;0,262064;0,615250;0,262660;0,808762;0,808762;0,348549;0,350669;0,808762;0,622183;0,337911;0,252962;0,340917;0,265168;0,354872;0,354872;1,000000;0,000000;0,000000;0,000000;0,356772;0,356772;0,000000;0,000000;0,000000;0,000000;0,000000;0,278660;0,278716;0,278774;0,268758;0,266108;0,000000;0,000000;0,000000;0,204189;0,204237;0,204286;0,204334;0,204382;0,204430;0,362304;0,362304;0,353854;0,362983;0,362983;
61;;;;;;;;;;;;;;;;;;;;;;;;;;;;;;;;;;;;;;;;;;;;;;;;;;;;;;;;;;;;;1,000000;0,261512;0,261340;0,334738;0,335120;0,347230;0,349350;0,336232;0,265370;0,820363;0,000000;0,339598;1,000000;0,353553;0,353553;0,265910;0,000000;0,000000;0,000000;0,355453;0,355453;0,000000;0,000000;0,000000;0,000000;0,000000;0,277340;0,277397;0,277455;0,647169;0,264789;0,000000;0,000000;0,000000;0,202870;0,202918;0,202966;0,203015;0,203063;0,203111;0,360985;0,360985;0,352534;0,361664;0,361664;
62;;;;;;;;;;;;;;;;;;;;;;;;;;;;;;;;;;;;;;;;;;;;;;;;;;;;;;;;;;;;;;1,000000;0,262107;0,806488;0,806488;0,347997;0,350117;0,806488;0,619910;0,337359;0,252457;0,340365;0,264616;0,354320;0,354320;0,618745;0,000000;0,000000;0,000000;0,356220;0,356220;0,000000;0,000000;0,000000;0,000000;0,000000;0,278107;0,278164;0,278222;0,268206;0,265556;0,000000;0,000000;0,000000;0,203637;0,203685;0,203733;0,203782;0,203830;0,203878;0,361752;0,361752;0,353301;0,362431;0,362431;
63;;;;;;;;;;;;;;;;;;;;;;;;;;;;;;;;;;;;;;;;;;;;;;;;;;;;;;;;;;;;;;;1,000000;0,335333;0,335716;0,347826;0,349946;0,336828;0,265966;0,337187;0,000000;0,340193;0,264445;0,354149;0,354149;0,266506;0,000000;0,000000;0,000000;0,356048;0,356048;0,000000;0,000000;0,000000;0,000000;0,000000;0,277936;0,277993;0,278050;0,268035;0,265385;0,000000;0,000000;0,000000;0,203465;0,203514;0,203562;0,203611;0,203659;0,203707;0,361580;0,361580;0,353130;0,362260;0,362260;
64;;;;;;;;;;;;;;;;;;;;;;;;;;;;;;;;;;;;;;;;;;;;;;;;;;;;;;;;;;;;;;;;1,000000;1,000000;0,421223;0,423343;1,000000;0,813421;0,410585;0,326921;0,413591;0,337842;0,427546;0,427546;0,812257;0,000000;0,000000;0,000000;0,429446;0,429446;0,000000;0,000000;0,000000;0,000000;0,000000;0,351334;0,351390;0,351448;0,341432;0,338782;0,000000;0,000000;0,000000;0,276863;0,276911;0,276959;0,277008;0,277056;0,277104;0,434978;0,434978;0,426527;0,435657;0,435657;
65;;;;;;;;;;;;;;;;;;;;;;;;;;;;;;;;;;;;;;;;;;;;;;;;;;;;;;;;;;;;;;;;;1,000000;0,421606;0,423726;1,000000;0,813421;0,410967;0,327370;0,413973;0,338224;0,427929;0,427929;0,812257;0,000000;0,000000;0,000000;0,429828;0,429828;0,000000;0,000000;0,000000;0,000000;0,000000;0,351716;0,351773;0,351830;0,341815;0,339165;0,000000;0,000000;0,000000;0,277245;0,277294;0,277342;0,277390;0,277439;0,277487;0,435360;0,435360;0,426910;0,436040;0,436040;
66;;;;;;;;;;;;;;;;;;;;;;;;;;;;;;;;;;;;;;;;;;;;;;;;;;;;;;;;;;;;;;;;;;1,000000;0,435835;0,422718;0,351855;0,423077;0,000000;0,426083;0,350334;0,440038;0,440038;0,352396;0,000000;0,000000;0,000000;0,441938;0,441938;0,000000;0,000000;0,000000;0,000000;0,000000;0,363826;0,363883;0,363940;0,353925;0,351274;0,000000;0,000000;0,000000;0,289355;0,289403;0,289452;0,289500;0,289548;0,289596;0,447470;0,447470;0,439020;0,448149;0,448149;
67;;;;;;;;;;;;;;;;;;;;;;;;;;;;;;;;;;;;;;;;;;;;;;;;;;;;;;;;;;;;;;;;;;;1,000000;0,424838;0,847249;0,425197;0,000000;0,428203;0,352454;0,442159;0,442159;0,354516;0,000000;0,000000;0,000000;0,444058;0,444058;0,000000;0,000000;0,000000;0,000000;0,000000;0,365946;0,366003;0,366060;0,356045;0,353395;0,000000;0,000000;0,000000;0,291475;0,291524;0,291572;0,291620;0,291668;0,291717;0,449590;0,449590;0,441140;0,450270;0,450270;
68;;;;;;;;;;;;;;;;;;;;;;;;;;;;;;;;;;;;;;;;;;;;;;;;;;;;;;;;;;;;;;;;;;;;1,000000;0,813421;0,412080;0,328669;0,415085;0,339337;0,429041;0,429041;0,812257;0,000000;0,000000;0,000000;0,430940;0,430940;0,000000;0,000000;0,000000;0,000000;0,000000;0,352828;0,352885;0,352942;0,342927;0,340277;0,000000;0,000000;0,000000;0,278357;0,278406;0,278454;0,278503;0,278551;0,278599;0,436472;0,436472;0,428022;0,437152;0,437152;
69;;;;;;;;;;;;;;;;;;;;;;;;;;;;;;;;;;;;;;;;;;;;;;;;;;;;;;;;;;;;;;;;;;;;;1,000000;0,341217;0,256688;0,344223;0,268474;0,358178;0,358178;0,625678;0,000000;0,000000;0,000000;0,360078;0,360078;0,000000;0,000000;0,000000;0,000000;0,000000;0,281966;0,282022;0,282080;0,272064;0,269414;0,000000;0,000000;0,000000;0,207495;0,207543;0,207592;0,207640;0,207688;0,207736;0,365610;0,365610;0,357160;0,366289;0,366289;
70;;;;;;;;;;;;;;;;;;;;;;;;;;;;;;;;;;;;;;;;;;;;;;;;;;;;;;;;;;;;;;;;;;;;;;1,000000;0,000000;0,415445;0,823393;0,429400;0,429400;0,341758;0,000000;0,000000;0,000000;0,431300;0,431300;0,000000;0,000000;0,000000;0,000000;0,000000;0,353188;0,353244;0,353302;0,826806;0,340636;0,000000;0,000000;0,000000;0,278717;0,278765;0,278814;0,278862;0,278910;0,278958;0,436832;0,436832;0,428382;0,437511;0,437511;
71;;;;;;;;;;;;;;;;;;;;;;;;;;;;;;;;;;;;;;;;;;;;;;;;;;;;;;;;;;;;;;;;;;;;;;;1,000000;0,000000;0,000000;0,000000;0,000000;0,257424;0,000000;0,000000;0,000000;0,000000;0,000000;0,000000;0,000000;0,000000;0,000000;0,000000;0,000000;0,000000;0,000000;0,000000;0,000000;0,324584;0,324644;0,324705;0,000000;0,000000;0,000000;0,000000;0,000000;0,000000;0,000000;0,000000;0,000000;0,000000;0,000000;
72;;;;;;;;;;;;;;;;;;;;;;;;;;;;;;;;;;;;;;;;;;;;;;;;;;;;;;;;;;;;;;;;;;;;;;;;1,000000;0,342702;0,432406;0,432406;0,344764;0,000000;0,000000;0,000000;0,434306;0,434306;0,000000;0,000000;0,000000;0,000000;0,000000;0,356194;0,356250;0,356308;0,346292;0,343642;0,000000;0,000000;0,000000;0,281723;0,281771;0,281820;0,281868;0,281916;0,281964;0,439838;0,439838;0,431387;0,440517;0,440517;
73;;;;;;;;;;;;;;;;;;;;;;;;;;;;;;;;;;;;;;;;;;;;;;;;;;;;;;;;;;;;;;;;;;;;;;;;;1,000000;0,356657;0,356657;0,269015;0,000000;0,000000;0,000000;0,358557;0,358557;0,000000;0,000000;0,000000;0,000000;0,000000;0,280445;0,280501;0,280559;0,650199;0,267893;0,000000;0,000000;0,000000;0,205974;0,206022;0,206071;0,206119;0,206167;0,206215;0,364089;0,364089;0,355639;0,364768;0,364768;
74;;;;;;;;;;;;;;;;;;;;;;;;;;;;;;;;;;;;;;;;;;;;;;;;;;;;;;;;;;;;;;;;;;;;;;;;;;1,000000;0,446362;0,358719;0,000000;0,000000;0,000000;0,448261;0,448261;0,000000;0,000000;0,000000;0,000000;0,000000;0,370149;0,370206;0,370263;0,360248;0,357598;0,000000;0,000000;0,000000;0,295678;0,295727;0,295775;0,295823;0,295871;0,295920;0,453793;0,453793;0,445343;0,454472;0,454472;
75;;;;;;;;;;;;;;;;;;;;;;;;;;;;;;;;;;;;;;;;;;;;;;;;;;;;;;;;;;;;;;;;;;;;;;;;;;;1,000000;0,358719;0,000000;0,000000;0,000000;0,448261;0,448261;0,000000;0,000000;0,000000;0,000000;0,000000;0,370149;0,370206;0,370263;0,360248;0,357598;0,000000;0,000000;0,000000;0,295678;0,295727;0,295775;0,295823;0,295871;0,295920;0,453793;0,453793;0,445343;0,454472;0,454472;
76;;;;;;;;;;;;;;;;;;;;;;;;;;;;;;;;;;;;;;;;;;;;;;;;;;;;;;;;;;;;;;;;;;;;;;;;;;;;1,000000;0,000000;0,000000;0,000000;0,360618;0,360618;0,000000;0,000000;0,000000;0,000000;0,000000;0,282506;0,282563;0,282620;0,272605;0,269955;0,000000;0,000000;0,000000;0,208035;0,208084;0,208132;0,208181;0,208229;0,208277;0,366150;0,366150;0,357700;0,366830;0,366830;
77;;;;;;;;;;;;;;;;;;;;;;;;;;;;;;;;;;;;;;;;;;;;;;;;;;;;;;;;;;;;;;;;;;;;;;;;;;;;;1,000000;0,828896;0,829077;0,000000;0,000000;0,000000;0,000000;0,000000;0,000000;0,000000;0,000000;0,000000;0,000000;0,000000;0,000000;0,000000;0,000000;0,000000;0,000000;0,000000;0,000000;0,000000;0,000000;0,000000;0,000000;0,000000;0,000000;0,000000;0,000000;
78;;;;;;;;;;;;;;;;;;;;;;;;;;;;;;;;;;;;;;;;;;;;;;;;;;;;;;;;;;;;;;;;;;;;;;;;;;;;;;1,000000;0,829256;0,000000;0,000000;0,000000;0,000000;0,000000;0,000000;0,000000;0,000000;0,000000;0,000000;0,000000;0,000000;0,000000;0,000000;0,000000;0,000000;0,000000;0,000000;0,000000;0,000000;0,000000;0,000000;0,000000;0,000000;0,000000;0,000000;
79;;;;;;;;;;;;;;;;;;;;;;;;;;;;;;;;;;;;;;;;;;;;;;;;;;;;;;;;;;;;;;;;;;;;;;;;;;;;;;;1,000000;0,000000;0,000000;0,000000;0,000000;0,000000;0,000000;0,000000;0,000000;0,000000;0,000000;0,000000;0,000000;0,000000;0,000000;0,000000;0,000000;0,000000;0,000000;0,000000;0,000000;0,000000;0,000000;0,000000;0,000000;0,000000;0,000000;
80;;;;;;;;;;;;;;;;;;;;;;;;;;;;;;;;;;;;;;;;;;;;;;;;;;;;;;;;;;;;;;;;;;;;;;;;;;;;;;;;1,000000;0,450161;0,000000;0,000000;0,000000;0,000000;0,000000;0,372049;0,372105;0,372163;0,362147;0,359497;0,000000;0,000000;0,000000;0,297578;0,297626;0,297674;0,297723;0,297771;0,297819;0,455693;0,455693;0,447242;0,456372;0,456372;
81;;;;;;;;;;;;;;;;;;;;;;;;;;;;;;;;;;;;;;;;;;;;;;;;;;;;;;;;;;;;;;;;;;;;;;;;;;;;;;;;;1,000000;0,000000;0,000000;0,000000;0,000000;0,000000;0,372049;0,372105;0,372163;0,362147;0,359497;0,000000;0,000000;0,000000;0,297578;0,297626;0,297674;0,297723;0,297771;0,297819;0,455693;0,455693;0,447242;0,456372;0,456372;
82;;;;;;;;;;;;;;;;;;;;;;;;;;;;;;;;;;;;;;;;;;;;;;;;;;;;;;;;;;;;;;;;;;;;;;;;;;;;;;;;;;1,000000;0,880473;0,880598;0,880721;0,880843;0,000000;0,000000;0,000000;0,000000;0,000000;0,000000;0,000000;0,000000;0,000000;0,000000;0,000000;0,000000;0,000000;0,000000;0,000000;0,000000;0,000000;0,000000;0,000000;
83;;;;;;;;;;;;;;;;;;;;;;;;;;;;;;;;;;;;;;;;;;;;;;;;;;;;;;;;;;;;;;;;;;;;;;;;;;;;;;;;;;;1,000000;0,880721;0,880843;0,880965;0,000000;0,000000;0,000000;0,000000;0,000000;0,000000;0,000000;0,000000;0,000000;0,000000;0,000000;0,000000;0,000000;0,000000;0,000000;0,000000;0,000000;0,000000;0,000000;
84;;;;;;;;;;;;;;;;;;;;;;;;;;;;;;;;;;;;;;;;;;;;;;;;;;;;;;;;;;;;;;;;;;;;;;;;;;;;;;;;;;;;1,000000;0,880965;0,881085;0,000000;0,000000;0,000000;0,000000;0,000000;0,000000;0,000000;0,000000;0,000000;0,000000;0,000000;0,000000;0,000000;0,000000;0,000000;0,000000;0,000000;0,000000;0,000000;
85;;;;;;;;;;;;;;;;;;;;;;;;;;;;;;;;;;;;;;;;;;;;;;;;;;;;;;;;;;;;;;;;;;;;;;;;;;;;;;;;;;;;;1,000000;0,881205;0,000000;0,000000;0,000000;0,000000;0,000000;0,000000;0,000000;0,000000;0,000000;0,000000;0,000000;0,000000;0,000000;0,000000;0,000000;0,000000;0,000000;0,000000;0,000000;
86;;;;;;;;;;;;;;;;;;;;;;;;;;;;;;;;;;;;;;;;;;;;;;;;;;;;;;;;;;;;;;;;;;;;;;;;;;;;;;;;;;;;;;1,000000;0,000000;0,000000;0,000000;0,000000;0,000000;0,000000;0,000000;0,000000;0,000000;0,000000;0,000000;0,000000;0,000000;0,000000;0,000000;0,000000;0,000000;0,000000;0,000000;
87;;;;;;;;;;;;;;;;;;;;;;;;;;;;;;;;;;;;;;;;;;;;;;;;;;;;;;;;;;;;;;;;;;;;;;;;;;;;;;;;;;;;;;;1,000000;0,787896;0,788080;0,284035;0,281385;0,000000;0,000000;0,000000;0,219465;0,219514;0,219562;0,219611;0,219659;0,219707;0,377580;0,377580;0,369130;0,378260;0,378260;
88;;;;;;;;;;;;;;;;;;;;;;;;;;;;;;;;;;;;;;;;;;;;;;;;;;;;;;;;;;;;;;;;;;;;;;;;;;;;;;;;;;;;;;;;1,000000;0,788263;0,284092;0,281442;0,000000;0,000000;0,000000;0,219522;0,219571;0,219619;0,219667;0,219716;0,219764;0,377637;0,377637;0,369187;0,378317;0,378317;
89;;;;;;;;;;;;;;;;;;;;;;;;;;;;;;;;;;;;;;;;;;;;;;;;;;;;;;;;;;;;;;;;;;;;;;;;;;;;;;;;;;;;;;;;;1,000000;0,284149;0,281499;0,000000;0,000000;0,000000;0,219580;0,219628;0,219676;0,219725;0,219773;0,219821;0,377695;0,377695;0,369244;0,378374;0,378374;
90;;;;;;;;;;;;;;;;;;;;;;;;;;;;;;;;;;;;;;;;;;;;;;;;;;;;;;;;;;;;;;;;;;;;;;;;;;;;;;;;;;;;;;;;;;1,000000;0,271484;0,000000;0,000000;0,000000;0,209564;0,209613;0,209661;0,209709;0,209758;0,209806;0,367679;0,367679;0,359229;0,368359;0,368359;
91;;;;;;;;;;;;;;;;;;;;;;;;;;;;;;;;;;;;;;;;;;;;;;;;;;;;;;;;;;;;;;;;;;;;;;;;;;;;;;;;;;;;;;;;;;;1,000000;0,000000;0,000000;0,000000;0,206914;0,206962;0,207011;0,207059;0,207107;0,207155;0,365029;0,365029;0,356579;0,365708;0,365708;
92;;;;;;;;;;;;;;;;;;;;;;;;;;;;;;;;;;;;;;;;;;;;;;;;;;;;;;;;;;;;;;;;;;;;;;;;;;;;;;;;;;;;;;;;;;;;1,000000;0,806185;0,806346;0,000000;0,000000;0,000000;0,000000;0,000000;0,000000;0,000000;0,000000;0,000000;0,000000;0,000000;
93;;;;;;;;;;;;;;;;;;;;;;;;;;;;;;;;;;;;;;;;;;;;;;;;;;;;;;;;;;;;;;;;;;;;;;;;;;;;;;;;;;;;;;;;;;;;;1,000000;0,806506;0,000000;0,000000;0,000000;0,000000;0,000000;0,000000;0,000000;0,000000;0,000000;0,000000;0,000000;
94;;;;;;;;;;;;;;;;;;;;;;;;;;;;;;;;;;;;;;;;;;;;;;;;;;;;;;;;;;;;;;;;;;;;;;;;;;;;;;;;;;;;;;;;;;;;;;1,000000;0,000000;0,000000;0,000000;0,000000;0,000000;0,000000;0,000000;0,000000;0,000000;0,000000;0,000000;
95;;;;;;;;;;;;;;;;;;;;;;;;;;;;;;;;;;;;;;;;;;;;;;;;;;;;;;;;;;;;;;;;;;;;;;;;;;;;;;;;;;;;;;;;;;;;;;;1,000000;0,902921;0,903008;0,903095;0,903181;0,903266;0,303110;0,303110;0,294659;0,303789;0,303789;
96;;;;;;;;;;;;;;;;;;;;;;;;;;;;;;;;;;;;;;;;;;;;;;;;;;;;;;;;;;;;;;;;;;;;;;;;;;;;;;;;;;;;;;;;;;;;;;;;1,000000;0,903095;0,903181;0,903266;0,903351;0,303158;0,303158;0,294708;0,303837;0,303837;
97;;;;;;;;;;;;;;;;;;;;;;;;;;;;;;;;;;;;;;;;;;;;;;;;;;;;;;;;;;;;;;;;;;;;;;;;;;;;;;;;;;;;;;;;;;;;;;;;;1,000000;0,903266;0,903351;0,903435;0,303206;0,303206;0,294756;0,303886;0,303886;
98;;;;;;;;;;;;;;;;;;;;;;;;;;;;;;;;;;;;;;;;;;;;;;;;;;;;;;;;;;;;;;;;;;;;;;;;;;;;;;;;;;;;;;;;;;;;;;;;;;1,000000;0,903435;0,903518;0,303255;0,303255;0,294805;0,303934;0,303934;
99;;;;;;;;;;;;;;;;;;;;;;;;;;;;;;;;;;;;;;;;;;;;;;;;;;;;;;;;;;;;;;;;;;;;;;;;;;;;;;;;;;;;;;;;;;;;;;;;;;;1,000000;0,903601;0,303303;0,303303;0,294853;0,303982;0,303982;
100;;;;;;;;;;;;;;;;;;;;;;;;;;;;;;;;;;;;;;;;;;;;;;;;;;;;;;;;;;;;;;;;;;;;;;;;;;;;;;;;;;;;;;;;;;;;;;;;;;;;1,000000;0,303351;0,303351;0,294901;0,304030;0,304030;
101;;;;;;;;;;;;;;;;;;;;;;;;;;;;;;;;;;;;;;;;;;;;;;;;;;;;;;;;;;;;;;;;;;;;;;;;;;;;;;;;;;;;;;;;;;;;;;;;;;;;;1,000000;0,461225;0,452774;0,461904;0,461904;
102;;;;;;;;;;;;;;;;;;;;;;;;;;;;;;;;;;;;;;;;;;;;;;;;;;;;;;;;;;;;;;;;;;;;;;;;;;;;;;;;;;;;;;;;;;;;;;;;;;;;;;1,000000;0,452774;0,461904;0,461904;
103;;;;;;;;;;;;;;;;;;;;;;;;;;;;;;;;;;;;;;;;;;;;;;;;;;;;;;;;;;;;;;;;;;;;;;;;;;;;;;;;;;;;;;;;;;;;;;;;;;;;;;;1,000000;0,453454;0,453454;
104;;;;;;;;;;;;;;;;;;;;;;;;;;;;;;;;;;;;;;;;;;;;;;;;;;;;;;;;;;;;;;;;;;;;;;;;;;;;;;;;;;;;;;;;;;;;;;;;;;;;;;;;1,000000;0,462583;
105;;;;;;;;;;;;;;;;;;;;;;;;;;;;;;;;;;;;;;;;;;;;;;;;;;;;;;;;;;;;;;;;;;;;;;;;;;;;;;;;;;;;;;;;;;;;;;;;;;;;;;;;;1,000000;
