;1; 2; 3; 4; 5; 6; 7; 8; 9; 10; 11; 12; 13; 14; 15; 16; 17; 18; 19; 20; 21; 22; 23; 24; 25; 26; 27; 28; 29; 30; 31; 32; 33; 34; 35; 36; 37; 38; 39; 40; 41; 42; 43; 44; 45; 46; 47; 48; 49; 50; 51; 52; 53; 54; 55; 56; 57; 58; 59
1;1,000000;0,634176;0,716906;0,712776;0,628019;0,672980;0,649966;0,393532;0,454263;0,454263;0,686949;0,660926;0,639811;0,639811;0,639811;0,704263;0,456622;0,456622;0,628422;0,610298;0,662413;0,559685;0,505340;0,524711;0,305833;0,305833;0,266934;0,264166;0,251029;0,264166;0,389166;0,649966;0,537597;0,264166;0,264166;0,531486;0,531486;0,531486;0,487534;0,487534;0,665093;0,537597;0,481916;0,481916;0,305833;0,617019;0,704263;0,389166;0,520989;0,305833;0,487534;0,704263;0,420099;0,420099;0,420099;0,420099;0,239166;0,239166;0,239166;
2;;1,000000;0,605492;0,616669;0,582710;0,441488;0,499209;0,491651;0,469585;0,377424;0,577375;0,553228;0,481341;0,481341;0,481341;0,325828;0,433709;0,437388;0,548087;0,390426;0,482135;0,680745;0,372966;0,497766;0,349874;0,349874;0,426564;0,398733;0,426549;0,398733;0,291335;0,533668;0,423912;0,402333;0,402333;0,422507;0,422507;0,422507;0,373485;0,373837;0,388667;0,424930;0,377919;0,377919;0,357690;0,438146;0,325828;0,262797;0,412240;0,354381;0,373485;0,325828;0,451613;0,451613;0,451613;0,451613;0,428499;0,428499;0,428499;
3;;;1,000000;0,678471;0,651035;0,674200;0,651185;0,421829;0,482560;0,482560;0,673141;0,687312;0,562252;0,562252;0,562252;0,732560;0,484918;0,484918;0,643502;0,638595;0,801148;0,481973;0,512674;0,559802;0,305646;0,305646;0,266748;0,263980;0,250843;0,263980;0,717808;0,856996;0,565893;0,263980;0,263980;0,467808;0,467808;0,467808;0,550870;0,550870;0,643951;0,565893;0,551141;0,551141;0,305646;0,595877;0,732560;0,388980;0,549286;0,305646;0,550870;0,732560;0,562337;0,562337;0,562337;0,562337;0,238980;0,238980;0,238980;
4;;;;1,000000;0,620924;0,609422;0,586435;0,389538;0,450269;0,450269;0,779091;0,859887;0,668100;0,668100;0,668100;0,700269;0,452627;0,452627;0,631819;0,711435;0,550406;0,365765;0,497323;0,521460;0,296679;0,296679;0,257781;0,255012;0,241876;0,255012;0,728680;0,673082;0,711435;0,255012;0,255012;0,478680;0,478680;0,478680;0,296679;0,296679;0,507622;0,533602;0,562013;0,562013;0,296679;0,566440;0,700269;0,380012;0,516995;0,296679;0,296679;0,700269;0,391487;0,391487;0,391487;0,391487;0,230012;0,230012;0,230012;
5;;;;;1,000000;0,536605;0,597555;0,493986;0,547626;0,483848;0,620416;0,640667;0,536844;0,536844;0,536844;0,412155;0,508097;0,526779;0,804382;0,491164;0,544277;0,443995;0,501150;0,394789;0,328822;0,328822;0,289923;0,287155;0,274018;0,287155;0,703177;0,611844;0,524752;0,547522;0,547522;0,453177;0,453177;0,453177;0,543088;0,543088;0,543868;0,501150;0,536510;0,536510;0,693445;0,443868;0,412155;0,666900;0,467834;0,674763;0,543088;0,412155;0,422375;0,422375;0,422375;0,422375;0,262155;0,262155;0,262155;
6;;;;;;1,000000;0,773014;0,556839;0,617571;0,617571;0,600659;0,617571;0,415591;0,415591;0,415591;0,867571;0,619929;0,619929;0,412069;0,773606;0,657785;0,350452;0,350452;0,558768;0,350452;0,350452;0,311554;0,308785;0,295649;0,308785;0,433785;0,773014;0,700904;0,308785;0,308785;0,308785;0,308785;0,308785;0,350452;0,350452;0,565591;0,700904;0,350452;0,350452;0,350452;0,465591;0,867571;0,433785;0,684297;0,350452;0,350452;0,867571;0,283785;0,283785;0,283785;0,283785;0,283785;0,283785;0,283785;
7;;;;;;;1,000000;0,439269;0,500000;0,500000;0,483088;0,500000;0,450000;0,450000;0,450000;0,750000;0,502358;0,502358;0,446478;0,875000;0,540214;0,291667;0,291667;0,441197;0,291667;0,291667;0,252768;0,250000;0,236863;0,250000;0,375000;0,750000;0,875000;0,250000;0,250000;0,250000;0,250000;0,250000;0,291667;0,291667;0,600000;0,583333;0,291667;0,291667;0,291667;0,500000;0,750000;0,375000;0,566726;0,291667;0,291667;0,750000;0,225000;0,225000;0,225000;0,225000;0,225000;0,225000;0,225000;
8;;;;;;;;1,000000;0,633861;0,567261;0,422357;0,439269;0,225000;0,225000;0,225000;0,689269;0,441627;0,441627;0,394316;0,595303;0,479483;0,225221;0,525084;0,572842;0,291667;0,291667;0,252768;0,250000;0,236863;0,250000;0,375000;0,439269;0,522602;0,639505;0,639505;0,250000;0,250000;0,250000;0,291667;0,291667;0,300000;0,750000;0,291667;0,291667;0,291667;0,250000;0,689269;0,691967;0,505995;0,291667;0,291667;0,689269;0,225000;0,225000;0,225000;0,225000;0,225000;0,225000;0,225000;
9;;;;;;;;;1,000000;0,683030;0,483088;0,500000;0,225000;0,225000;0,225000;0,750000;0,502358;0,502358;0,279032;0,656035;0,540214;0,291667;0,291667;0,595047;0,291667;0,291667;0,252768;0,250000;0,236863;0,250000;0,375000;0,500000;0,583333;0,500000;0,500000;0,250000;0,250000;0,250000;0,291667;0,291667;0,300000;0,583333;0,291667;0,291667;0,291667;0,250000;0,750000;0,750000;0,566726;0,291667;0,291667;0,750000;0,225000;0,225000;0,225000;0,225000;0,225000;0,225000;0,225000;
10;;;;;;;;;;1,000000;0,483088;0,500000;0,296429;0,296429;0,296429;0,750000;0,502358;0,502358;0,350460;0,656035;0,540214;0,216169;0,363095;0,528077;0,363095;0,363095;0,324197;0,321429;0,308292;0,321429;0,446429;0,500000;0,583333;0,500000;0,500000;0,321429;0,321429;0,321429;0,363095;0,363095;0,371429;0,583333;0,363095;0,363095;0,363095;0,321429;0,750000;0,446429;0,566726;0,363095;0,363095;0,750000;0,296429;0,296429;0,296429;0,296429;0,296429;0,296429;0,296429;
11;;;;;;;;;;;1,000000;0,847954;0,357018;0,357018;0,357018;0,733088;0,485447;0,601232;0,584416;0,639123;0,647230;0,540374;0,514033;0,563380;0,305274;0,305274;0,266376;0,263608;0,250471;0,263608;0,657018;0,626639;0,566422;0,263608;0,263608;0,407018;0,407018;0,407018;0,505903;0,506057;0,430700;0,566422;0,490352;0,490352;0,508197;0,430700;0,733088;0,388608;0,549815;0,305274;0,505903;0,733088;0,437543;0,437543;0,437543;0,437543;0,238608;0,238608;0,238608;
12;;;;;;;;;;;;1,000000;0,450000;0,450000;0,450000;0,750000;0,502358;0,502358;0,658876;0,656035;0,540214;0,502340;0,291667;0,441197;0,291667;0,291667;0,252768;0,250000;0,236863;0,250000;0,750000;0,750000;0,583333;0,250000;0,250000;0,500000;0,500000;0,500000;0,291667;0,291667;0,300000;0,583333;0,583333;0,583333;0,291667;0,250000;0,750000;0,375000;0,566726;0,291667;0,291667;0,750000;0,450000;0,450000;0,450000;0,450000;0,225000;0,225000;0,225000;
13;;;;;;;;;;;;;1,000000;0,800000;0,800000;0,350000;0,266667;0,266667;0,554300;0,303017;0,248277;0,000000;0,266667;0,257296;0,266667;0,266667;0,227768;0,225000;0,211863;0,225000;0,700000;0,675000;0,266667;0,225000;0,225000;0,450000;0,450000;0,450000;0,266667;0,266667;0,550000;0,266667;0,533333;0,533333;0,266667;0,450000;0,350000;0,350000;0,303017;0,266667;0,266667;0,350000;0,200000;0,200000;0,200000;0,200000;0,200000;0,200000;0,200000;
14;;;;;;;;;;;;;;1,000000;0,800000;0,350000;0,266667;0,266667;0,554300;0,303017;0,248277;0,000000;0,266667;0,257296;0,266667;0,266667;0,227768;0,225000;0,211863;0,225000;0,700000;0,675000;0,266667;0,225000;0,225000;0,450000;0,450000;0,450000;0,266667;0,266667;0,550000;0,266667;0,533333;0,533333;0,266667;0,450000;0,350000;0,350000;0,303017;0,266667;0,266667;0,350000;0,200000;0,200000;0,200000;0,200000;0,200000;0,200000;0,200000;
15;;;;;;;;;;;;;;;1,000000;0,350000;0,266667;0,266667;0,554300;0,303017;0,248277;0,000000;0,266667;0,257296;0,266667;0,266667;0,227768;0,225000;0,211863;0,225000;0,700000;0,675000;0,266667;0,225000;0,225000;0,450000;0,450000;0,450000;0,266667;0,266667;0,550000;0,266667;0,533333;0,533333;0,266667;0,450000;0,350000;0,350000;0,303017;0,266667;0,266667;0,350000;0,200000;0,200000;0,200000;0,200000;0,200000;0,200000;0,200000;
16;;;;;;;;;;;;;;;;1,000000;0,752358;0,752358;0,404032;0,906035;0,790214;0,416667;0,416667;0,691197;0,416667;0,416667;0,377768;0,375000;0,361863;0,375000;0,500000;0,750000;0,833333;0,375000;0,375000;0,375000;0,375000;0,375000;0,416667;0,416667;0,425000;0,833333;0,416667;0,416667;0,416667;0,375000;1,000000;0,500000;0,816726;0,416667;0,416667;1,000000;0,350000;0,350000;0,350000;0,350000;0,350000;0,350000;0,350000;
17;;;;;;;;;;;;;;;;;1,000000;0,504717;0,320698;0,658393;0,664454;0,248574;0,333333;0,443555;0,333333;0,333333;0,294435;0,291667;0,278530;0,291667;0,416667;0,502358;0,585692;0,291667;0,291667;0,291667;0,291667;0,291667;0,333333;0,333333;0,341667;0,585692;0,333333;0,333333;0,589438;0,291667;0,752358;0,416667;0,735548;0,589438;0,333333;0,752358;0,266667;0,266667;0,266667;0,266667;0,266667;0,266667;0,266667;
18;;;;;;;;;;;;;;;;;;1,000000;0,426088;0,658393;0,652453;0,422258;0,333333;0,443555;0,333333;0,333333;0,294435;0,291667;0,278530;0,291667;0,416667;0,502358;0,585692;0,291667;0,291667;0,291667;0,291667;0,291667;0,333333;0,333333;0,341667;0,585692;0,333333;0,333333;0,588860;0,291667;0,752358;0,416667;0,747707;0,589438;0,333333;0,752358;0,266667;0,266667;0,266667;0,266667;0,266667;0,266667;0,266667;
19;;;;;;;;;;;;;;;;;;;1,000000;0,357049;0,461442;0,470985;0,535899;0,463516;0,320698;0,320698;0,281800;0,279032;0,265895;0,279032;0,711188;0,629300;0,320698;0,452566;0,452566;0,461188;0,461188;0,461188;0,547284;0,547284;0,634086;0,535899;0,544522;0,544522;0,503895;0,586837;0,404032;0,404032;0,357049;0,320698;0,547284;0,404032;0,425977;0,425977;0,425977;0,425977;0,254032;0,254032;0,254032;
20;;;;;;;;;;;;;;;;;;;;1,000000;0,696249;0,369684;0,369684;0,597232;0,369684;0,369684;0,330786;0,328017;0,314881;0,328017;0,453017;0,656035;1,000000;0,328017;0,328017;0,328017;0,328017;0,328017;0,369684;0,369684;0,378017;0,739368;0,369684;0,369684;0,369684;0,328017;0,906035;0,453017;0,722761;0,369684;0,369684;0,906035;0,303017;0,303017;0,303017;0,303017;0,303017;0,303017;0,303017;
21;;;;;;;;;;;;;;;;;;;;;1,000000;0,549886;0,512664;0,609111;0,314944;0,314944;0,276045;0,273277;0,260140;0,273277;0,398277;0,540214;0,623548;0,273277;0,273277;0,273277;0,273277;0,273277;0,580825;0,580825;0,429330;0,623548;0,314944;0,314944;0,513524;0,429330;0,790214;0,398277;0,606941;0,314944;0,580825;0,790214;0,248277;0,248277;0,248277;0,248277;0,248277;0,248277;0,248277;
22;;;;;;;;;;;;;;;;;;;;;;1,000000;0,000000;0,194884;0,000000;0,000000;0,000000;0,000000;0,000000;0,000000;0,000000;0,291667;0,333333;0,000000;0,000000;0,000000;0,000000;0,000000;0,333333;0,333333;0,000000;0,333333;0,000000;0,000000;0,258106;0,000000;0,416667;0,000000;0,273619;0,000000;0,333333;0,416667;0,179746;0,179746;0,179746;0,179746;0,000000;0,000000;0,000000;
23;;;;;;;;;;;;;;;;;;;;;;;1,000000;0,592832;0,333333;0,333333;0,294435;0,291667;0,278530;0,291667;0,416667;0,291667;0,333333;0,583333;0,583333;0,291667;0,291667;0,291667;0,333333;0,333333;0,583333;0,666667;0,333333;0,333333;0,333333;0,583333;0,416667;0,416667;0,369684;0,333333;0,333333;0,416667;0,266667;0,266667;0,266667;0,266667;0,266667;0,266667;0,266667;
24;;;;;;;;;;;;;;;;;;;;;;;;1,000000;0,323963;0,323963;0,285065;0,282296;0,269160;0,282296;0,407296;0,441197;0,524530;0,597992;0,597992;0,282296;0,282296;0,282296;0,323963;0,323963;0,509499;0,524530;0,323963;0,323963;0,323963;0,509499;0,691197;0,407296;0,507923;0,323963;0,323963;0,691197;0,257296;0,257296;0,257296;0,257296;0,257296;0,257296;0,257296;
25;;;;;;;;;;;;;;;;;;;;;;;;;1,000000;0,666667;0,516545;0,583333;0,557060;0,583333;0,416667;0,291667;0,333333;0,291667;0,291667;0,291667;0,291667;0,291667;0,333333;0,333333;0,341667;0,333333;0,333333;0,333333;0,333333;0,291667;0,416667;0,416667;0,369684;0,333333;0,333333;0,416667;0,266667;0,266667;0,266667;0,266667;0,533333;0,533333;0,533333;
26;;;;;;;;;;;;;;;;;;;;;;;;;;1,000000;0,516545;0,583333;0,557060;0,583333;0,416667;0,291667;0,333333;0,291667;0,291667;0,291667;0,291667;0,291667;0,333333;0,333333;0,341667;0,333333;0,333333;0,333333;0,333333;0,291667;0,416667;0,416667;0,369684;0,333333;0,333333;0,416667;0,266667;0,266667;0,266667;0,266667;0,533333;0,533333;0,533333;
27;;;;;;;;;;;;;;;;;;;;;;;;;;;1,000000;0,631932;0,725151;0,631932;0,377768;0,252768;0,294435;0,252768;0,252768;0,252768;0,252768;0,252768;0,294435;0,294435;0,302768;0,294435;0,294435;0,294435;0,294435;0,252768;0,377768;0,377768;0,330786;0,294435;0,294435;0,377768;0,227768;0,227768;0,227768;0,227768;0,694233;0,694233;0,694233;
28;;;;;;;;;;;;;;;;;;;;;;;;;;;;1,000000;0,662307;0,750000;0,375000;0,250000;0,291667;0,250000;0,250000;0,250000;0,250000;0,250000;0,291667;0,291667;0,300000;0,291667;0,291667;0,291667;0,291667;0,250000;0,375000;0,375000;0,328017;0,291667;0,291667;0,375000;0,225000;0,225000;0,225000;0,225000;0,675000;0,675000;0,675000;
29;;;;;;;;;;;;;;;;;;;;;;;;;;;;;1,000000;0,662307;0,361863;0,236863;0,278530;0,236863;0,236863;0,236863;0,236863;0,236863;0,278530;0,278530;0,286863;0,278530;0,278530;0,278530;0,278530;0,236863;0,361863;0,361863;0,314881;0,278530;0,278530;0,361863;0,211863;0,211863;0,211863;0,211863;0,735201;0,735201;0,735201;
30;;;;;;;;;;;;;;;;;;;;;;;;;;;;;;1,000000;0,375000;0,250000;0,291667;0,250000;0,250000;0,250000;0,250000;0,250000;0,291667;0,291667;0,300000;0,291667;0,291667;0,291667;0,291667;0,250000;0,375000;0,375000;0,328017;0,291667;0,291667;0,375000;0,225000;0,225000;0,225000;0,225000;0,675000;0,675000;0,675000;
31;;;;;;;;;;;;;;;;;;;;;;;;;;;;;;;1,000000;0,750000;0,416667;0,375000;0,375000;0,750000;0,750000;0,750000;0,416667;0,416667;0,425000;0,416667;0,833333;0,833333;0,416667;0,375000;0,500000;0,500000;0,453017;0,416667;0,416667;0,500000;0,350000;0,350000;0,350000;0,350000;0,350000;0,350000;0,350000;
32;;;;;;;;;;;;;;;;;;;;;;;;;;;;;;;;1,000000;0,583333;0,250000;0,250000;0,500000;0,500000;0,500000;0,291667;0,291667;0,600000;0,583333;0,583333;0,583333;0,291667;0,500000;0,750000;0,375000;0,566726;0,291667;0,291667;0,750000;0,225000;0,225000;0,225000;0,225000;0,225000;0,225000;0,225000;
33;;;;;;;;;;;;;;;;;;;;;;;;;;;;;;;;;1,000000;0,291667;0,291667;0,291667;0,291667;0,291667;0,333333;0,333333;0,341667;0,666667;0,333333;0,333333;0,333333;0,291667;0,833333;0,416667;0,650059;0,333333;0,333333;0,833333;0,266667;0,266667;0,266667;0,266667;0,266667;0,266667;0,266667;
34;;;;;;;;;;;;;;;;;;;;;;;;;;;;;;;;;;1,000000;0,750000;0,250000;0,250000;0,250000;0,291667;0,291667;0,300000;0,583333;0,291667;0,291667;0,291667;0,250000;0,375000;0,375000;0,328017;0,291667;0,291667;0,375000;0,225000;0,225000;0,225000;0,225000;0,225000;0,225000;0,225000;
35;;;;;;;;;;;;;;;;;;;;;;;;;;;;;;;;;;;1,000000;0,250000;0,250000;0,250000;0,291667;0,291667;0,300000;0,583333;0,291667;0,291667;0,291667;0,250000;0,375000;0,375000;0,328017;0,291667;0,291667;0,375000;0,225000;0,225000;0,225000;0,225000;0,225000;0,225000;0,225000;
36;;;;;;;;;;;;;;;;;;;;;;;;;;;;;;;;;;;;1,000000;0,750000;0,750000;0,291667;0,291667;0,300000;0,291667;0,583333;0,583333;0,291667;0,250000;0,375000;0,375000;0,328017;0,291667;0,291667;0,375000;0,225000;0,225000;0,225000;0,225000;0,225000;0,225000;0,225000;
37;;;;;;;;;;;;;;;;;;;;;;;;;;;;;;;;;;;;;1,000000;0,750000;0,291667;0,291667;0,300000;0,291667;0,583333;0,583333;0,291667;0,250000;0,375000;0,375000;0,328017;0,291667;0,291667;0,375000;0,225000;0,225000;0,225000;0,225000;0,225000;0,225000;0,225000;
38;;;;;;;;;;;;;;;;;;;;;;;;;;;;;;;;;;;;;;1,000000;0,291667;0,291667;0,300000;0,291667;0,583333;0,583333;0,291667;0,250000;0,375000;0,375000;0,328017;0,291667;0,291667;0,375000;0,225000;0,225000;0,225000;0,225000;0,225000;0,225000;0,225000;
39;;;;;;;;;;;;;;;;;;;;;;;;;;;;;;;;;;;;;;;1,000000;0,666667;0,341667;0,333333;0,333333;0,333333;0,333333;0,291667;0,416667;0,416667;0,369684;0,333333;1,000000;0,416667;0,266667;0,266667;0,266667;0,266667;0,266667;0,266667;0,266667;
40;;;;;;;;;;;;;;;;;;;;;;;;;;;;;;;;;;;;;;;;1,000000;0,341667;0,333333;0,333333;0,333333;0,333333;0,291667;0,416667;0,416667;0,369684;0,333333;0,666667;0,416667;0,266667;0,266667;0,266667;0,266667;0,266667;0,266667;0,266667;
41;;;;;;;;;;;;;;;;;;;;;;;;;;;;;;;;;;;;;;;;;1,000000;0,341667;0,341667;0,341667;0,341667;0,798074;0,425000;0,425000;0,378017;0,341667;0,341667;0,425000;0,275000;0,275000;0,275000;0,275000;0,275000;0,275000;0,275000;
42;;;;;;;;;;;;;;;;;;;;;;;;;;;;;;;;;;;;;;;;;;1,000000;0,333333;0,333333;0,333333;0,291667;0,833333;0,416667;0,650059;0,333333;0,333333;0,833333;0,266667;0,266667;0,266667;0,266667;0,266667;0,266667;0,266667;
43;;;;;;;;;;;;;;;;;;;;;;;;;;;;;;;;;;;;;;;;;;;1,000000;0,666667;0,333333;0,291667;0,416667;0,416667;0,369684;0,333333;0,333333;0,416667;0,266667;0,266667;0,266667;0,266667;0,266667;0,266667;0,266667;
44;;;;;;;;;;;;;;;;;;;;;;;;;;;;;;;;;;;;;;;;;;;;1,000000;0,333333;0,291667;0,416667;0,416667;0,369684;0,333333;0,333333;0,416667;0,266667;0,266667;0,266667;0,266667;0,266667;0,266667;0,266667;
45;;;;;;;;;;;;;;;;;;;;;;;;;;;;;;;;;;;;;;;;;;;;;1,000000;0,291667;0,416667;0,416667;0,369684;0,333333;0,333333;0,416667;0,266667;0,266667;0,266667;0,266667;0,266667;0,266667;0,266667;
46;;;;;;;;;;;;;;;;;;;;;;;;;;;;;;;;;;;;;;;;;;;;;;1,000000;0,375000;0,375000;0,328017;0,291667;0,291667;0,375000;0,225000;0,225000;0,225000;0,225000;0,225000;0,225000;0,225000;
47;;;;;;;;;;;;;;;;;;;;;;;;;;;;;;;;;;;;;;;;;;;;;;;1,000000;0,500000;0,816726;0,416667;0,416667;1,000000;0,350000;0,350000;0,350000;0,350000;0,350000;0,350000;0,350000;
48;;;;;;;;;;;;;;;;;;;;;;;;;;;;;;;;;;;;;;;;;;;;;;;;1,000000;0,453017;0,416667;0,416667;0,500000;0,350000;0,350000;0,350000;0,350000;0,350000;0,350000;0,350000;
49;;;;;;;;;;;;;;;;;;;;;;;;;;;;;;;;;;;;;;;;;;;;;;;;;1,000000;0,633291;0,369684;0,816726;0,303017;0,303017;0,303017;0,303017;0,303017;0,303017;0,303017;
50;;;;;;;;;;;;;;;;;;;;;;;;;;;;;;;;;;;;;;;;;;;;;;;;;;1,000000;0,333333;0,416667;0,266667;0,266667;0,266667;0,266667;0,266667;0,266667;0,266667;
51;;;;;;;;;;;;;;;;;;;;;;;;;;;;;;;;;;;;;;;;;;;;;;;;;;;1,000000;0,416667;0,266667;0,266667;0,266667;0,266667;0,266667;0,266667;0,266667;
52;;;;;;;;;;;;;;;;;;;;;;;;;;;;;;;;;;;;;;;;;;;;;;;;;;;;1,000000;0,350000;0,350000;0,350000;0,350000;0,350000;0,350000;0,350000;
53;;;;;;;;;;;;;;;;;;;;;;;;;;;;;;;;;;;;;;;;;;;;;;;;;;;;;1,000000;0,800000;0,800000;0,800000;0,200000;0,200000;0,200000;
54;;;;;;;;;;;;;;;;;;;;;;;;;;;;;;;;;;;;;;;;;;;;;;;;;;;;;;1,000000;0,800000;0,800000;0,200000;0,200000;0,200000;
55;;;;;;;;;;;;;;;;;;;;;;;;;;;;;;;;;;;;;;;;;;;;;;;;;;;;;;;1,000000;0,800000;0,200000;0,200000;0,200000;
56;;;;;;;;;;;;;;;;;;;;;;;;;;;;;;;;;;;;;;;;;;;;;;;;;;;;;;;;1,000000;0,200000;0,200000;0,200000;
57;;;;;;;;;;;;;;;;;;;;;;;;;;;;;;;;;;;;;;;;;;;;;;;;;;;;;;;;;1,000000;0,800000;0,800000;
58;;;;;;;;;;;;;;;;;;;;;;;;;;;;;;;;;;;;;;;;;;;;;;;;;;;;;;;;;;1,000000;0,800000;
59;;;;;;;;;;;;;;;;;;;;;;;;;;;;;;;;;;;;;;;;;;;;;;;;;;;;;;;;;;;1,000000;
