;1; 2; 3; 4; 5; 6; 7; 8; 9; 10; 11; 12; 13; 14; 15; 16; 17; 18; 19
1;1,000000;0,196127;0,241834;0,582874;0,589856;0,589856;0,622170;0,533995;0,533995;0,533995;0,318160;0,318160;0,502878;0,141132;0,000000;0,000000;0,167840;0,167840;0,167840;
2;;1,000000;0,444801;0,470879;0,458333;0,458333;0,496689;0,458333;0,458333;0,458333;0,583333;0,583333;0,500000;0,251578;0,000000;0,000000;0,278287;0,278287;0,278287;
3;;;1,000000;0,249014;0,236468;0,236468;0,274824;0,236468;0,236468;0,236468;0,361468;0,361468;0,278135;0,611395;0,325000;0,325000;0,629811;0,629811;0,629811;
4;;;;1,000000;0,738379;0,738379;0,688075;0,525092;0,525092;0,525092;0,387546;0,387546;0,608425;0,000000;0,000000;0,000000;0,000000;0,000000;0,000000;
5;;;;;1,000000;0,750000;0,698985;0,500000;0,500000;0,500000;0,375000;0,375000;0,875000;0,000000;0,000000;0,000000;0,000000;0,000000;0,000000;
6;;;;;;1,000000;0,698985;0,500000;0,500000;0,500000;0,375000;0,375000;0,875000;0,000000;0,000000;0,000000;0,000000;0,000000;0,000000;
7;;;;;;;1,000000;0,613019;0,613019;0,613019;0,413356;0,413356;0,592243;0,000000;0,000000;0,000000;0,000000;0,000000;0,000000;
8;;;;;;;;1,000000;0,750000;0,750000;0,375000;0,375000;0,583333;0,000000;0,000000;0,000000;0,000000;0,000000;0,000000;
9;;;;;;;;;1,000000;0,750000;0,375000;0,375000;0,583333;0,000000;0,000000;0,000000;0,000000;0,000000;0,000000;
10;;;;;;;;;;1,000000;0,375000;0,375000;0,583333;0,000000;0,000000;0,000000;0,000000;0,000000;0,000000;
11;;;;;;;;;;;1,000000;0,500000;0,416667;0,000000;0,000000;0,000000;0,000000;0,000000;0,000000;
12;;;;;;;;;;;;1,000000;0,416667;0,000000;0,000000;0,000000;0,000000;0,000000;0,000000;
13;;;;;;;;;;;;;1,000000;0,000000;0,000000;0,000000;0,000000;0,000000;0,000000;
14;;;;;;;;;;;;;;1,000000;0,440738;0,440738;0,689531;0,689531;0,689531;
15;;;;;;;;;;;;;;;1,000000;0,500000;0,375000;0,375000;0,375000;
16;;;;;;;;;;;;;;;;1,000000;0,375000;0,375000;0,375000;
17;;;;;;;;;;;;;;;;;1,000000;0,750000;0,750000;
18;;;;;;;;;;;;;;;;;;1,000000;0,750000;
19;;;;;;;;;;;;;;;;;;;1,000000;
