;1; 2; 3; 4; 5; 6; 7; 8; 9; 10; 11; 12; 13; 14; 15; 16; 17; 18; 19; 20; 21; 22; 23; 24; 25; 26; 27; 28; 29; 30; 31; 32; 33; 34; 35; 36; 37; 38; 39; 40; 41; 42; 43; 44; 45; 46; 47; 48; 49; 50; 51; 52; 53; 54; 55; 56; 57; 58; 59; 60; 61; 62; 63; 64; 65; 66; 67; 68; 69; 70; 71; 72; 73; 74; 75; 76; 77; 78; 79; 80; 81; 82; 83; 84; 85; 86; 87; 88; 89; 90; 91; 92; 93; 94; 95; 96; 97; 98; 99; 100; 101; 102; 103; 104; 105; 106; 107; 108; 109; 110; 111; 112; 113; 114; 115; 116; 117; 118; 119
1;1,000000;0,680859;0,684191;0,703676;0,330598;0,252902;0,252902;0,391159;0,367381;0,766571;0,319590;0,281958;0,666926;0,281958;0,207069;0,207069;0,298897;0,298897;0,298897;0,482069;0,482069;0,890871;0,658583;0,350341;0,233127;0,207069;0,207069;0,243464;0,252902;0,329291;0,329291;0,387388;0,424057;0,329291;0,329291;0,329291;0,747558;0,761897;0,756444;0,252902;0,252902;0,414012;0,252902;0,349048;0,482069;0,329291;0,329291;0,281600;0,689006;0,329291;0,414203;0,488588;0,656401;0,357166;0,482069;0,940402;0,287995;0,207069;0,213051;0,265875;0,255612;0,329291;0,387388;0,325871;0,766571;0,243464;0,359468;0,607922;0,329291;0,359468;0,482069;0,482069;0,329291;0,329291;0,630199;0,414138;0,402762;0,414138;0,000000;0,000000;0,000000;0,482069;0,252902;0,255358;0,255358;0,387388;0,252902;0,252902;0,466897;0,482069;0,252902;0,255358;0,252902;0,618944;0,618944;0,252902;0,482069;0,658583;0,658583;0,329291;0,329291;0,325871;0,329291;0,329291;0,482069;0,329291;0,329291;0,252902;0,252902;0,252902;0,252902;0,329291;0,329291;0,940402;0,985611;0,482069;0,329291;0,329291;0,329291;
2;;1,000000;0,710434;0,711884;0,353042;0,251064;0,251064;0,381067;0,395457;0,739524;0,328550;0,535717;0,586869;0,535717;0,396906;0,396906;0,299830;0,299830;0,299830;0,491064;0,491064;0,680487;0,656557;0,362271;0,227794;0,203064;0,203064;0,237118;0,251064;0,331064;0,331064;0,396078;0,455320;0,331064;0,331064;0,331064;0,706171;0,734222;0,742450;0,251064;0,251064;0,425123;0,251064;0,367502;0,491064;0,331064;0,331064;0,278058;0,642435;0,331064;0,341599;0,492513;0,981795;0,370487;0,491064;0,971064;0,287650;0,203064;0,205892;0,259750;0,248240;0,331064;0,396078;0,328969;0,729582;0,237118;0,368355;0,636662;0,331064;0,368355;0,491064;0,491064;0,331064;0,331064;0,705037;0,781099;0,714344;0,781099;0,249461;0,249461;0,249461;0,491064;0,251064;0,252046;0,252046;0,396078;0,251064;0,251064;0,482815;0,491064;0,251064;0,252046;0,251064;0,791096;0,791096;0,251064;0,491064;0,651648;0,651648;0,331064;0,331064;0,328969;0,331064;0,331064;0,491064;0,331064;0,331064;0,251064;0,251064;0,251064;0,251064;0,331064;0,972550;0,971064;0,660847;0,491064;0,331064;0,331064;0,331064;
3;;;1,000000;0,703408;0,350666;0,251231;0,251231;0,380671;0,392730;0,741180;0,327793;0,534297;0,593554;0,534297;0,396895;0,396895;0,299804;0,299804;0,299804;0,490362;0,490362;0,681820;0,985935;0,361268;0,228277;0,203405;0,203405;0,237719;0,251231;0,330942;0,330942;0,395392;0,452498;0,330942;0,330942;0,330942;0,708480;0,736007;0,742909;0,251231;0,251231;0,424235;0,251231;0,365803;0,490362;0,330942;0,330942;0,278558;0,645599;0,330942;0,342828;0,492081;0,651613;0,369358;0,490362;0,968623;0,287716;0,203405;0,206527;0,260420;0,248997;0,330942;0,395392;0,328749;0,731064;0,237719;0,367644;0,634305;0,330942;0,367644;0,490362;0,490362;0,330942;0,330942;0,474091;0,598219;0,622608;0,598219;0,249414;0,249414;0,249414;0,490362;0,251231;0,252360;0,252360;0,395392;0,251231;0,251231;0,481527;0,490362;0,251231;0,252360;0,251231;0,791488;0,791488;0,251231;0,490362;0,661320;0,661320;0,330942;0,330942;0,328749;0,330942;0,330942;0,490362;0,330942;0,330942;0,251231;0,251231;0,251231;0,251231;0,330942;0,650474;0,968623;0,661320;0,490362;0,330942;0,330942;0,330942;
4;;;;1,000000;0,564996;0,749548;0,749548;0,534150;0,559623;0,747296;0,658929;0,720468;0,658233;0,720468;0,797977;0,797977;0,700247;0,700247;0,700247;0,500000;0,500000;0,695015;0,664541;0,600566;0,771511;0,797481;0,797481;0,761723;0,751318;0,666139;0,666139;0,645632;0,498562;0,666667;0,666667;0,666667;0,718810;0,746656;0,748339;0,750398;0,750398;0,750000;0,750398;0,580102;0,499180;0,663752;0,663752;0,696617;0,743877;0,666830;0,596920;0,747397;0,663791;0,615154;0,499386;0,000000;0,712194;0,798606;0,798204;0,740414;0,754528;0,664518;0,570931;0,662537;0,744254;0,765371;0,621168;0,498447;0,664751;0,602384;0,500000;0,500000;0,665024;0,665024;0,702196;0,796313;0,714059;0,796313;0,498039;0,498039;0,498039;0,499001;0,747157;0,744413;0,744413;0,600065;0,747157;0,749012;0,498019;0,499750;0,747895;0,748223;0,747895;0,797715;0,797715;0,748314;0,499750;0,663545;0,663545;0,665410;0,665410;0,666667;0,665439;0,665439;0,498999;0,665439;0,665439;0,750000;0,750000;0,750000;0,750000;0,664798;0,664986;0,000000;0,665376;0,498156;0,666667;0,666667;0,666667;
5;;;;;1,000000;0,752074;0,752074;0,560365;0,773067;0,270342;0,657866;0,297920;0,299012;0,297920;0,209429;0,209429;0,316991;0,316991;0,316991;0,496929;0,496929;0,316991;0,337207;0,456111;0,239933;0,209429;0,209429;0,254580;0,257346;0,337207;0,337207;0,649581;0,955546;0,337207;0,337207;0,337207;0,292539;0,264104;0,257346;0,257346;0,257346;0,436604;0,257346;0,465986;0,496929;0,337207;0,337207;0,323402;0,385898;0,671603;0,467688;0,511881;0,337207;0,549262;0,496929;0,976096;0,299588;0,209429;0,218104;0,290867;0,275183;0,660368;0,592185;0,815314;0,270342;0,254580;0,613649;0,647437;0,337207;0,385186;0,496929;0,496929;0,337207;0,337207;0,297920;0,209429;0,271785;0,209429;0,000000;0,000000;0,000000;0,496929;0,257346;0,264104;0,264104;0,586762;0,257346;0,257346;0,494104;0,991047;0,257346;0,264104;0,257346;0,209429;0,209429;0,257346;0,991047;0,337207;0,337207;0,337207;0,337207;0,340770;0,337207;0,337207;0,496929;0,337207;0,337207;0,257346;0,257346;0,257346;0,257346;0,337207;0,337207;0,976096;0,337207;0,496929;0,337207;0,337207;0,337207;
6;;;;;;1,000000;0,750000;0,749724;0,507186;0,250000;0,745897;0,257794;0,250527;0,257794;0,225000;0,225000;0,263183;0,263183;0,263183;0,375000;0,375000;0,263183;0,291667;0,271687;0,241242;0,225000;0,225000;0,245546;0,250000;0,291667;0,291667;0,545931;0,571429;0,291667;0,291667;0,291667;0,256273;0,250000;0,250000;0,250000;0,250000;0,312500;0,250000;0,265159;0,375000;0,291667;0,291667;0,252606;0,463293;0,875000;0,481570;0,500000;0,291667;0,494651;0,750000;0,625000;0,262857;0,225000;0,233333;0,250791;0,248722;0,291667;0,302012;0,277778;0,250000;0,245546;0,564912;0,388889;0,291667;0,282456;0,375000;0,375000;0,291667;0,291667;0,257794;0,225000;0,252783;0,225000;0,000000;0,000000;0,000000;0,375000;0,250000;0,250000;0,250000;0,302012;0,250000;0,250000;0,333333;0,750000;0,250000;0,250000;0,250000;0,225000;0,225000;0,250000;0,750000;0,291667;0,291667;0,291667;0,291667;0,277778;0,291667;0,291667;0,375000;0,291667;0,291667;0,250000;0,250000;0,250000;0,250000;0,291667;0,291667;0,625000;0,291667;0,375000;0,291667;0,291667;0,291667;
7;;;;;;;1,000000;0,749724;0,507186;0,250000;0,745897;0,257794;0,250527;0,257794;0,225000;0,225000;0,263183;0,263183;0,263183;0,375000;0,375000;0,263183;0,291667;0,271687;0,241242;0,225000;0,225000;0,245546;0,250000;0,291667;0,291667;0,545931;0,571429;0,291667;0,291667;0,291667;0,256273;0,250000;0,250000;0,250000;0,250000;0,312500;0,250000;0,265159;0,375000;0,291667;0,291667;0,252606;0,463293;0,875000;0,481570;0,500000;0,291667;0,494651;0,750000;0,625000;0,262857;0,225000;0,233333;0,250791;0,248722;0,291667;0,302012;0,277778;0,250000;0,245546;0,564912;0,388889;0,291667;0,282456;0,375000;0,375000;0,291667;0,291667;0,257794;0,225000;0,252783;0,225000;0,000000;0,000000;0,000000;0,375000;0,250000;0,250000;0,250000;0,302012;0,250000;0,250000;0,333333;0,750000;0,250000;0,250000;0,250000;0,225000;0,225000;0,250000;0,750000;0,291667;0,291667;0,291667;0,291667;0,277778;0,291667;0,291667;0,375000;0,291667;0,291667;0,250000;0,250000;0,250000;0,250000;0,291667;0,291667;0,625000;0,291667;0,375000;0,291667;0,291667;0,291667;
8;;;;;;;;1,000000;0,503247;0,267372;0,627805;0,296086;0,295579;0,296086;0,207501;0,207501;0,315943;0,315943;0,315943;0,499168;0,499168;0,315943;0,337131;0,391361;0,237042;0,207501;0,207501;0,250961;0,256113;0,661647;0,661647;0,409495;0,495617;0,337131;0,337131;0,337131;0,290483;0,261895;0,256113;0,256113;0,256113;0,439259;0,256113;0,651662;0,499168;0,337131;0,337131;0,321195;0,406337;0,668403;0,572370;0,742873;0,337131;0,729487;0,992477;0,985279;0,573877;0,207501;0,214597;0,286929;0,270797;0,662611;0,594626;0,658774;0,267372;0,250961;0,874959;0,656039;0,337131;0,386947;0,499168;0,499168;0,661498;0,661498;0,296086;0,207501;0,269792;0,207501;0,250000;0,250000;0,250000;0,499168;0,256113;0,261895;0,261895;0,409495;0,256113;0,500466;0,498381;0,499168;0,256113;0,261895;0,256113;0,207501;0,207501;0,256113;0,499168;0,337131;0,337131;0,337131;0,337131;0,340723;0,337131;0,337131;0,499168;0,337131;0,337131;0,256113;0,256113;0,256113;0,256113;0,337131;0,337131;0,985279;0,337131;0,499168;0,337131;0,337131;0,337131;
9;;;;;;;;;1,000000;0,292843;0,706925;0,317337;0,336926;0,317337;0,220828;0,220828;0,334276;0,334276;0,334276;0,495828;0,495828;0,334276;0,343050;0,485649;0,258528;0,220828;0,220828;0,278843;0,266661;0,343050;0,343050;0,629861;0,853964;0,343050;0,343050;0,343050;0,312558;0,280759;0,266661;0,266661;0,266661;0,439413;0,266661;0,582750;0,971197;0,343050;0,343050;0,360221;0,388403;0,659964;0,460556;0,507186;0,343050;0,477930;0,495828;0,954161;0,709450;0,220828;0,238451;0,324147;0,307207;0,652593;0,583303;0,966310;0,292843;0,278843;0,617078;0,633323;0,665642;0,538848;0,495828;0,495828;0,343050;0,343050;0,317337;0,220828;0,287824;0,220828;0,000000;0,000000;0,000000;0,495828;0,266661;0,280759;0,280759;0,800492;0,266661;0,748322;0,492297;0,965519;0,266661;0,280759;0,266661;0,220828;0,220828;0,266661;0,965519;0,343050;0,343050;0,343050;0,343050;0,351272;0,343050;0,343050;0,495828;0,343050;0,343050;0,266661;0,266661;0,266661;0,266661;0,343050;0,343050;0,954161;0,343050;0,495828;0,343050;0,343050;0,343050;
10;;;;;;;;;;1,000000;0,274508;0,265587;0,695527;0,265587;0,212500;0,212500;0,276367;0,276367;0,276367;0,437500;0,437500;0,829100;0,937500;0,298795;0,234236;0,212500;0,212500;0,241091;0,250000;0,312500;0,312500;0,343621;0,333333;0,312500;0,312500;0,312500;0,737901;0,750000;0,750000;0,250000;0,250000;0,362500;0,250000;0,287898;0,437500;0,312500;0,312500;0,256615;0,931122;0,312500;0,269285;0,250000;0,625000;0,302518;0,437500;0,812500;0,273142;0,212500;0,220000;0,251846;0,247124;0,312500;0,343621;0,300000;0,750000;0,241091;0,314912;0,500000;0,312500;0,314912;0,437500;0,437500;0,312500;0,312500;0,663217;0,425000;0,423451;0,425000;0,000000;0,000000;0,000000;0,437500;0,250000;0,250000;0,250000;0,343621;0,250000;0,250000;0,400000;0,437500;0,250000;0,250000;0,250000;0,637500;0,637500;0,250000;0,437500;0,625000;0,625000;0,312500;0,312500;0,300000;0,312500;0,312500;0,437500;0,312500;0,312500;0,250000;0,250000;0,250000;0,250000;0,312500;0,312500;0,812500;0,937500;0,437500;0,312500;0,312500;0,312500;
11;;;;;;;;;;;1,000000;0,297889;0,298641;0,297889;0,214803;0,214803;0,314058;0,314058;0,314058;0,484803;0,484803;0,314058;0,334803;0,434198;0,246328;0,214803;0,214803;0,261144;0,259803;0,334803;0,334803;0,613889;0,802527;0,334803;0,334803;0,334803;0,293327;0,267824;0,259803;0,259803;0,259803;0,421233;0,259803;0,576744;0,939005;0,334803;0,334803;0,315173;0,374882;0,970897;0,446291;0,500632;0,334803;0,761405;0,954521;0,934803;0,788230;0,214803;0,226915;0,292534;0,280081;0,639046;0,561415;0,623833;0,274508;0,261144;0,807996;0,889175;0,639005;0,478020;0,484803;0,484803;0,334803;0,334803;0,297889;0,214803;0,274655;0,214803;0,000000;0,000000;0,000000;0,484803;0,259803;0,267824;0,267824;0,742359;0,259803;0,718956;0,472369;0,950632;0,259803;0,267824;0,259803;0,214803;0,214803;0,259803;0,950632;0,334803;0,334803;0,334803;0,334803;0,336006;0,334803;0,334803;0,484803;0,334803;0,334803;0,259803;0,259803;0,259803;0,259803;0,334803;0,334803;0,934803;0,334803;0,484803;0,334803;0,334803;0,334803;
12;;;;;;;;;;;;1,000000;0,651325;0,723680;0,829664;0,829664;0,291954;0,291954;0,291954;0,445294;0,445294;0,291954;0,320294;0,318279;0,246706;0,220294;0,220294;0,256678;0,257794;0,320294;0,320294;0,356091;0,354116;0,320294;0,320294;0,320294;0,278133;0,262470;0,257794;0,257794;0,257794;0,374970;0,257794;0,311279;0,445294;0,320294;0,320294;0,280595;0,267814;0,320294;0,415536;0,257794;0,320294;0,322002;0,445294;0,820294;0,285612;0,220294;0,232470;0,272629;0,266609;0,320294;0,356091;0,312470;0,531175;0,256678;0,330499;0,512470;0,320294;0,330499;0,445294;0,445294;0,320294;0,320294;0,281175;0,220294;0,267479;0,220294;0,257794;0,257794;0,257794;0,445294;0,257794;0,262470;0,262470;0,356091;0,257794;0,257794;0,412470;0,445294;0,257794;0,262470;0,257794;0,440587;0,440587;0,257794;0,445294;0,320294;0,320294;0,320294;0,320294;0,312470;0,320294;0,320294;0,445294;0,320294;0,320294;0,257794;0,257794;0,257794;0,257794;0,320294;0,320294;0,820294;0,320294;0,445294;0,320294;0,320294;0,320294;
13;;;;;;;;;;;;;1,000000;0,651325;0,772764;0,772764;0,289644;0,289644;0,289644;0,472749;0,472749;0,810582;0,636953;0,331896;0,229929;0,206082;0,206082;0,238334;0,250527;0,324601;0,324601;0,375776;0,394888;0,324601;0,324601;0,324601;0,677928;0,710053;0,727807;0,250527;0,250527;0,400948;0,250527;0,323845;0,472749;0,324601;0,324601;0,265373;0,613774;0,324601;0,622787;0,472588;0,636968;0,338006;0,472749;0,917193;0,281804;0,206082;0,210948;0,255195;0,247104;0,324601;0,375776;0,317614;0,695527;0,238334;0,345710;0,584281;0,324601;0,345710;0,472749;0,472749;0,620736;0,620736;0,569298;0,399916;0,377783;0,399916;0,750000;0,750000;0,750000;0,472749;0,250527;0,250948;0,250948;0,375776;0,250527;0,250527;0,450948;0,472749;0,250527;0,250948;0,250527;0,776271;0,776271;0,250527;0,472749;0,636953;0,636953;0,324601;0,324601;0,317614;0,324601;0,324601;0,472749;0,324601;0,324601;0,250527;0,250527;0,250527;0,250527;0,324601;0,324601;0,917193;0,950030;0,472749;0,324601;0,324601;0,324601;
14;;;;;;;;;;;;;;1,000000;0,829664;0,829664;0,291954;0,291954;0,291954;0,445294;0,445294;0,291954;0,320294;0,318279;0,246706;0,220294;0,220294;0,256678;0,257794;0,320294;0,320294;0,356091;0,354116;0,320294;0,320294;0,320294;0,278133;0,262470;0,257794;0,257794;0,257794;0,374970;0,257794;0,311279;0,445294;0,320294;0,320294;0,280595;0,267814;0,320294;0,415536;0,257794;0,320294;0,322002;0,445294;0,820294;0,285612;0,220294;0,232470;0,272629;0,266609;0,320294;0,356091;0,312470;0,531175;0,256678;0,330499;0,512470;0,320294;0,330499;0,445294;0,445294;0,320294;0,320294;0,281175;0,220294;0,267479;0,220294;0,257794;0,257794;0,257794;0,445294;0,257794;0,262470;0,262470;0,356091;0,257794;0,257794;0,412470;0,445294;0,257794;0,262470;0,257794;0,440587;0,440587;0,257794;0,445294;0,320294;0,320294;0,320294;0,320294;0,312470;0,320294;0,320294;0,445294;0,320294;0,320294;0,257794;0,257794;0,257794;0,257794;0,320294;0,320294;0,820294;0,320294;0,445294;0,320294;0,320294;0,320294;
15;;;;;;;;;;;;;;;1,000000;0,800000;0,225683;0,225683;0,225683;0,350000;0,350000;0,225683;0,266667;0,230020;0,207909;0,200000;0,200000;0,208046;0,225000;0,266667;0,266667;0,268678;0,242857;0,266667;0,266667;0,266667;0,218773;0,216667;0,225000;0,225000;0,225000;0,279167;0,225000;0,220159;0,350000;0,266667;0,266667;0,207151;0,210000;0,266667;0,367180;0,225000;0,266667;0,231675;0,350000;0,600000;0,229523;0,200000;0,200000;0,207934;0,207055;0,266667;0,268678;0,244444;0,425000;0,208046;0,244956;0,355556;0,266667;0,244956;0,350000;0,350000;0,266667;0,266667;0,220294;0,200000;0,219450;0,200000;0,225000;0,225000;0,225000;0,350000;0,225000;0,216667;0,216667;0,268678;0,225000;0,225000;0,300000;0,350000;0,225000;0,216667;0,225000;0,400000;0,400000;0,225000;0,350000;0,266667;0,266667;0,266667;0,266667;0,244444;0,266667;0,266667;0,350000;0,266667;0,266667;0,225000;0,225000;0,225000;0,225000;0,266667;0,266667;0,600000;0,266667;0,350000;0,266667;0,266667;0,266667;
16;;;;;;;;;;;;;;;;1,000000;0,225683;0,225683;0,225683;0,350000;0,350000;0,225683;0,266667;0,230020;0,207909;0,200000;0,200000;0,208046;0,225000;0,266667;0,266667;0,268678;0,242857;0,266667;0,266667;0,266667;0,218773;0,216667;0,225000;0,225000;0,225000;0,279167;0,225000;0,220159;0,350000;0,266667;0,266667;0,207151;0,210000;0,266667;0,367180;0,225000;0,266667;0,231675;0,350000;0,600000;0,229523;0,200000;0,200000;0,207934;0,207055;0,266667;0,268678;0,244444;0,425000;0,208046;0,244956;0,355556;0,266667;0,244956;0,350000;0,350000;0,266667;0,266667;0,220294;0,200000;0,219450;0,200000;0,225000;0,225000;0,225000;0,350000;0,225000;0,216667;0,216667;0,268678;0,225000;0,225000;0,300000;0,350000;0,225000;0,216667;0,225000;0,400000;0,400000;0,225000;0,350000;0,266667;0,266667;0,266667;0,266667;0,244444;0,266667;0,266667;0,350000;0,266667;0,266667;0,225000;0,225000;0,225000;0,225000;0,266667;0,266667;0,600000;0,266667;0,350000;0,266667;0,266667;0,266667;
17;;;;;;;;;;;;;;;;;1,000000;0,698957;0,698957;0,450683;0,450683;0,302733;0,325683;0,331753;0,255329;0,225683;0,225683;0,267458;0,789550;0,325683;0,325683;0,364714;0,368489;0,325683;0,325683;0,325683;0,288913;0,271093;0,263183;0,263183;0,263183;0,383593;0,263183;0,327448;0,450683;0,325683;0,325683;0,297179;0,280133;0,325683;0,295652;0,263183;0,325683;0,335476;0,450683;0,825683;0,294235;0,225683;0,241093;0,287001;0,280083;0,325683;0,364714;0,321093;0,276367;0,267458;0,341279;0,521093;0,325683;0,341279;0,450683;0,450683;0,325683;0,325683;0,291954;0,225683;0,276103;0,225683;0,000000;0,000000;0,000000;0,450683;0,263183;0,271093;0,271093;0,364714;0,263183;0,263183;0,421093;0,450683;0,263183;0,271093;0,263183;0,225683;0,225683;0,263183;0,450683;0,325683;0,325683;0,325683;0,325683;0,321093;0,325683;0,325683;0,450683;0,325683;0,325683;0,263183;0,263183;0,263183;0,263183;0,325683;0,325683;0,825683;0,325683;0,450683;0,325683;0,325683;0,325683;
18;;;;;;;;;;;;;;;;;;1,000000;0,698957;0,450683;0,450683;0,302733;0,325683;0,331753;0,255329;0,225683;0,225683;0,267458;0,789550;0,325683;0,325683;0,364714;0,368489;0,325683;0,325683;0,325683;0,288913;0,271093;0,263183;0,263183;0,263183;0,383593;0,263183;0,327448;0,450683;0,325683;0,325683;0,297179;0,280133;0,325683;0,295652;0,263183;0,325683;0,335476;0,450683;0,825683;0,294235;0,225683;0,241093;0,287001;0,280083;0,325683;0,364714;0,321093;0,276367;0,267458;0,341279;0,521093;0,325683;0,341279;0,450683;0,450683;0,325683;0,325683;0,291954;0,225683;0,276103;0,225683;0,000000;0,000000;0,000000;0,450683;0,263183;0,271093;0,271093;0,364714;0,263183;0,263183;0,421093;0,450683;0,263183;0,271093;0,263183;0,225683;0,225683;0,263183;0,450683;0,325683;0,325683;0,325683;0,325683;0,321093;0,325683;0,325683;0,450683;0,325683;0,325683;0,263183;0,263183;0,263183;0,263183;0,325683;0,325683;0,825683;0,325683;0,450683;0,325683;0,325683;0,325683;
19;;;;;;;;;;;;;;;;;;;1,000000;0,450683;0,450683;0,302733;0,325683;0,331753;0,255329;0,225683;0,225683;0,267458;0,789550;0,325683;0,325683;0,364714;0,368489;0,325683;0,325683;0,325683;0,288913;0,271093;0,263183;0,263183;0,263183;0,383593;0,263183;0,327448;0,450683;0,325683;0,325683;0,297179;0,280133;0,325683;0,295652;0,263183;0,325683;0,335476;0,450683;0,825683;0,294235;0,225683;0,241093;0,287001;0,280083;0,325683;0,364714;0,321093;0,276367;0,267458;0,341279;0,521093;0,325683;0,341279;0,450683;0,450683;0,325683;0,325683;0,291954;0,225683;0,276103;0,225683;0,000000;0,000000;0,000000;0,450683;0,263183;0,271093;0,271093;0,364714;0,263183;0,263183;0,421093;0,450683;0,263183;0,271093;0,263183;0,225683;0,225683;0,263183;0,450683;0,325683;0,325683;0,325683;0,325683;0,321093;0,325683;0,325683;0,450683;0,325683;0,325683;0,263183;0,263183;0,263183;0,263183;0,325683;0,325683;0,825683;0,325683;0,450683;0,325683;0,325683;0,325683;
20;;;;;;;;;;;;;;;;;;;;1,000000;0,500000;0,450683;0,416667;0,480020;0,407909;0,350000;0,350000;0,433046;0,375000;0,416667;0,416667;0,468678;0,500000;0,416667;0,416667;0,416667;0,443773;0,416667;0,375000;0,375000;0,375000;0,479167;0,375000;0,490159;0,500000;0,416667;0,416667;0,479879;0,450000;0,416667;0,447143;0,375000;0,416667;0,481675;0,500000;0,750000;0,429523;0,350000;0,400000;0,465077;0,457055;0,416667;0,468678;0,444444;0,437500;0,433046;0,469956;0,555556;0,416667;0,469956;0,500000;0,500000;0,416667;0,416667;0,445294;0,350000;0,419450;0,350000;0,000000;0,000000;0,000000;0,500000;0,375000;0,416667;0,416667;0,468678;0,375000;0,375000;0,500000;0,500000;0,375000;0,416667;0,375000;0,350000;0,350000;0,375000;0,500000;0,416667;0,416667;0,416667;0,416667;0,444444;0,416667;0,416667;0,500000;0,416667;0,416667;0,375000;0,375000;0,375000;0,375000;0,416667;0,416667;0,750000;0,416667;0,500000;0,416667;0,416667;0,416667;
21;;;;;;;;;;;;;;;;;;;;;1,000000;0,450683;0,416667;0,480020;0,407909;0,350000;0,350000;0,433046;0,375000;0,416667;0,416667;0,468678;0,500000;0,416667;0,416667;0,416667;0,443773;0,416667;0,375000;0,375000;0,375000;0,479167;0,375000;0,490159;0,500000;0,416667;0,416667;0,479879;0,450000;0,416667;0,447143;0,375000;0,416667;0,481675;0,500000;0,750000;0,429523;0,350000;0,400000;0,465077;0,457055;0,416667;0,468678;0,444444;0,437500;0,433046;0,469956;0,555556;0,416667;0,469956;0,500000;0,500000;0,416667;0,416667;0,445294;0,350000;0,419450;0,350000;0,000000;0,000000;0,000000;0,500000;0,375000;0,416667;0,416667;0,468678;0,375000;0,375000;0,500000;0,500000;0,375000;0,416667;0,375000;0,350000;0,350000;0,375000;0,500000;0,416667;0,416667;0,416667;0,416667;0,444444;0,416667;0,416667;0,500000;0,416667;0,416667;0,375000;0,375000;0,375000;0,375000;0,416667;0,416667;0,750000;0,416667;0,500000;0,416667;0,416667;0,416667;
22;;;;;;;;;;;;;;;;;;;;;;1,000000;0,651367;0,331753;0,255329;0,225683;0,225683;0,267458;0,263183;0,325683;0,325683;0,364714;0,368489;0,325683;0,325683;0,325683;0,817001;0,813280;0,789550;0,263183;0,263183;0,383593;0,263183;0,327448;0,450683;0,325683;0,325683;0,297179;0,792702;0,325683;0,295652;0,263183;0,651367;0,335476;0,450683;0,825683;0,294235;0,225683;0,241093;0,287001;0,280083;0,325683;0,364714;0,321093;0,829100;0,267458;0,341279;0,521093;0,325683;0,341279;0,450683;0,450683;0,325683;0,325683;0,742317;0,451367;0,465637;0,451367;0,000000;0,000000;0,000000;0,450683;0,263183;0,271093;0,271093;0,364714;0,263183;0,263183;0,421093;0,450683;0,263183;0,271093;0,263183;0,677050;0,677050;0,263183;0,450683;0,651367;0,651367;0,325683;0,325683;0,321093;0,325683;0,325683;0,450683;0,325683;0,325683;0,263183;0,263183;0,263183;0,263183;0,325683;0,325683;0,825683;0,977050;0,450683;0,325683;0,325683;0,325683;
23;;;;;;;;;;;;;;;;;;;;;;;1,000000;0,341131;0,296798;0,266667;0,266667;0,308046;0,291667;0,333333;0,333333;0,357567;0,357143;0,333333;0,333333;0,333333;0,613294;0,611111;0,583333;0,291667;0,291667;0,368056;0,291667;0,340159;0,416667;0,333333;0,333333;0,328363;0,927996;0,333333;0,322143;0,291667;0,333333;0,342786;0,416667;0,666667;0,318412;0,266667;0,288889;0,322220;0,318166;0,333333;0,357567;0,333333;0,625000;0,308046;0,344956;0,444444;0,333333;0,344956;0,416667;0,416667;0,333333;0,333333;0,616150;0,533333;0,568584;0,533333;0,000000;0,000000;0,000000;0,416667;0,291667;0,305556;0,305556;0,357567;0,291667;0,291667;0,388889;0,416667;0,291667;0,305556;0,291667;0,533333;0,533333;0,291667;0,416667;0,666667;0,666667;0,333333;0,333333;0,333333;0,333333;0,333333;0,416667;0,333333;0,333333;0,291667;0,291667;0,291667;0,291667;0,333333;0,333333;0,666667;0,666667;0,416667;0,333333;0,333333;0,333333;
24;;;;;;;;;;;;;;;;;;;;;;;;1,000000;0,640255;0,761401;0,761401;0,558873;0,271687;0,341131;0,341131;0,398630;0,434611;0,341131;0,341131;0,341131;0,314477;0,287177;0,271687;0,271687;0,271687;0,421106;0,271687;0,458243;0,480020;0,341131;0,341131;0,346301;0,307831;0,341131;0,322901;0,271687;0,341131;0,464158;0,480020;0,896687;0,314727;0,230020;0,251463;0,323491;0,311226;0,341131;0,398630;0,495711;0,298795;0,287659;0,489317;0,584796;0,341131;0,379935;0,480020;0,480020;0,341131;0,341131;0,318279;0,230020;0,293141;0,230020;0,000000;0,000000;0,000000;0,480020;0,271687;0,287177;0,287177;0,558968;0,271687;0,271687;0,465748;0,480020;0,489096;0,592626;0,489096;0,230020;0,230020;0,708083;0,480020;0,341131;0,341131;0,341131;0,341131;0,346701;0,341131;0,341131;0,480020;0,341131;0,341131;0,271687;0,271687;0,271687;0,271687;0,341131;0,341131;0,896687;0,341131;0,480020;0,341131;0,341131;0,341131;
25;;;;;;;;;;;;;;;;;;;;;;;;;1,000000;0,756123;0,756123;0,744157;0,241242;0,296798;0,296798;0,314881;0,292795;0,296798;0,296798;0,296798;0,244273;0,236863;0,241242;0,241242;0,241242;0,330613;0,241242;0,256066;0,407909;0,296798;0,296798;0,232883;0,232485;0,296798;0,249664;0,241242;0,296798;0,372308;0,407909;0,741242;0,256149;0,207909;0,211863;0,231679;0,229043;0,296798;0,314881;0,278530;0,234236;0,227109;0,286166;0,445197;0,296798;0,286166;0,407909;0,407909;0,296798;0,296798;0,246706;0,207909;0,241038;0,207909;0,000000;0,000000;0,000000;0,777848;0,241242;0,236863;0,236863;0,466330;0,241242;0,241242;0,666771;0,407909;0,691158;0,602013;0,691158;0,207909;0,207909;0,691158;0,407909;0,296798;0,296798;0,296798;0,296798;0,278530;0,296798;0,296798;0,407909;0,296798;0,296798;0,241242;0,241242;0,241242;0,241242;0,296798;0,296798;0,741242;0,296798;0,407909;0,296798;0,296798;0,296798;
26;;;;;;;;;;;;;;;;;;;;;;;;;;1,000000;0,800000;0,738047;0,225000;0,266667;0,266667;0,268678;0,242857;0,266667;0,266667;0,266667;0,218773;0,216667;0,225000;0,225000;0,225000;0,279167;0,225000;0,220159;0,350000;0,266667;0,266667;0,207151;0,210000;0,266667;0,222143;0,225000;0,266667;0,411537;0,350000;0,600000;0,229523;0,200000;0,200000;0,207934;0,207055;0,266667;0,268678;0,244444;0,212500;0,208046;0,244956;0,355556;0,266667;0,244956;0,350000;0,350000;0,266667;0,266667;0,220294;0,200000;0,219450;0,200000;0,000000;0,000000;0,000000;0,700000;0,225000;0,216667;0,216667;0,466372;0,225000;0,225000;0,600000;0,350000;0,450000;0,610092;0,450000;0,200000;0,200000;0,675000;0,350000;0,266667;0,266667;0,266667;0,266667;0,244444;0,266667;0,266667;0,350000;0,266667;0,266667;0,225000;0,225000;0,225000;0,225000;0,266667;0,266667;0,600000;0,266667;0,350000;0,266667;0,266667;0,266667;
27;;;;;;;;;;;;;;;;;;;;;;;;;;;1,000000;0,738047;0,225000;0,266667;0,266667;0,268678;0,242857;0,266667;0,266667;0,266667;0,218773;0,216667;0,225000;0,225000;0,225000;0,279167;0,225000;0,220159;0,350000;0,266667;0,266667;0,207151;0,210000;0,266667;0,222143;0,225000;0,266667;0,411537;0,350000;0,600000;0,229523;0,200000;0,200000;0,207934;0,207055;0,266667;0,268678;0,244444;0,212500;0,208046;0,244956;0,355556;0,266667;0,244956;0,350000;0,350000;0,266667;0,266667;0,220294;0,200000;0,219450;0,200000;0,000000;0,000000;0,000000;0,700000;0,225000;0,216667;0,216667;0,466372;0,225000;0,225000;0,600000;0,350000;0,450000;0,610092;0,450000;0,200000;0,200000;0,675000;0,350000;0,266667;0,266667;0,266667;0,266667;0,244444;0,266667;0,266667;0,350000;0,266667;0,266667;0,225000;0,225000;0,225000;0,225000;0,266667;0,266667;0,600000;0,266667;0,350000;0,266667;0,266667;0,266667;
28;;;;;;;;;;;;;;;;;;;;;;;;;;;;1,000000;0,245546;0,308046;0,308046;0,336494;0,321455;0,308046;0,308046;0,308046;0,253637;0,242873;0,245546;0,245546;0,245546;0,355373;0,245546;0,274534;0,433046;0,308046;0,308046;0,242909;0,239818;0,308046;0,260376;0,245546;0,308046;0,368391;0,433046;0,808046;0,266015;0,208046;0,212873;0,239967;0,235988;0,308046;0,336494;0,292873;0,241091;0,232182;0,306003;0,492873;0,308046;0,306003;0,433046;0,433046;0,308046;0,308046;0,256678;0,208046;0,247882;0,208046;0,000000;0,000000;0,000000;0,826973;0,245546;0,242873;0,242873;0,482627;0,245546;0,245546;0,723157;0,433046;0,685985;0,702880;0,685985;0,208046;0,208046;0,700122;0,433046;0,308046;0,308046;0,308046;0,308046;0,292873;0,308046;0,308046;0,433046;0,308046;0,308046;0,245546;0,245546;0,245546;0,245546;0,308046;0,308046;0,808046;0,308046;0,433046;0,308046;0,308046;0,308046;
29;;;;;;;;;;;;;;;;;;;;;;;;;;;;;1,000000;0,291667;0,291667;0,302012;0,285714;0,291667;0,291667;0,291667;0,256273;0,250000;0,250000;0,250000;0,250000;0,312500;0,250000;0,265159;0,375000;0,291667;0,291667;0,252606;0,250000;0,291667;0,259643;0,250000;0,291667;0,273341;0,375000;0,625000;0,262857;0,225000;0,233333;0,250791;0,248722;0,291667;0,302012;0,277778;0,250000;0,245546;0,282456;0,388889;0,291667;0,282456;0,375000;0,375000;0,291667;0,291667;0,257794;0,225000;0,252783;0,225000;0,000000;0,000000;0,000000;0,375000;0,250000;0,250000;0,250000;0,302012;0,250000;0,250000;0,333333;0,375000;0,250000;0,250000;0,250000;0,225000;0,225000;0,250000;0,375000;0,291667;0,291667;0,291667;0,291667;0,277778;0,291667;0,291667;0,375000;0,291667;0,291667;0,250000;0,250000;0,250000;0,250000;0,291667;0,291667;0,625000;0,291667;0,375000;0,291667;0,291667;0,291667;
30;;;;;;;;;;;;;;;;;;;;;;;;;;;;;;1,000000;0,666667;0,644241;0,357143;0,333333;0,333333;0,333333;0,318773;0,305556;0,291667;0,291667;0,291667;0,368056;0,291667;0,340159;0,416667;0,333333;0,333333;0,328363;0,316667;0,333333;0,322143;0,291667;0,333333;0,342786;0,416667;0,666667;0,318412;0,266667;0,288889;0,322220;0,318166;0,333333;0,357567;0,333333;0,312500;0,308046;0,344956;0,444444;0,333333;0,344956;0,416667;0,416667;0,333333;0,333333;0,320294;0,266667;0,308339;0,266667;0,000000;0,000000;0,000000;0,416667;0,291667;0,305556;0,305556;0,357567;0,291667;0,291667;0,388889;0,416667;0,291667;0,305556;0,291667;0,266667;0,266667;0,291667;0,416667;0,333333;0,333333;0,333333;0,333333;0,333333;0,333333;0,333333;0,416667;0,333333;0,333333;0,291667;0,291667;0,291667;0,291667;0,333333;0,333333;0,666667;0,333333;0,416667;0,333333;0,333333;0,333333;
31;;;;;;;;;;;;;;;;;;;;;;;;;;;;;;;1,000000;0,644241;0,357143;0,333333;0,333333;0,333333;0,318773;0,305556;0,291667;0,291667;0,291667;0,368056;0,291667;0,340159;0,416667;0,333333;0,333333;0,328363;0,316667;0,333333;0,322143;0,291667;0,333333;0,342786;0,416667;0,666667;0,318412;0,266667;0,288889;0,322220;0,318166;0,333333;0,357567;0,333333;0,312500;0,308046;0,344956;0,444444;0,333333;0,344956;0,416667;0,416667;0,333333;0,333333;0,320294;0,266667;0,308339;0,266667;0,000000;0,000000;0,000000;0,416667;0,291667;0,305556;0,305556;0,357567;0,291667;0,291667;0,388889;0,416667;0,291667;0,305556;0,291667;0,266667;0,266667;0,291667;0,416667;0,333333;0,333333;0,333333;0,333333;0,333333;0,333333;0,333333;0,416667;0,333333;0,333333;0,291667;0,291667;0,291667;0,291667;0,333333;0,333333;0,666667;0,333333;0,416667;0,333333;0,333333;0,333333;
32;;;;;;;;;;;;;;;;;;;;;;;;;;;;;;;;1,000000;0,728345;0,357567;0,357567;0,357567;0,353658;0,328017;0,302012;0,302012;0,302012;0,421767;0,302012;0,405227;0,468678;0,357567;0,357567;0,384806;0,530684;0,657042;0,553189;0,545931;0,357567;0,401467;0,468678;0,802012;0,347303;0,268678;0,303017;0,368410;0,359262;0,357567;0,406035;0,369684;0,343621;0,336494;0,395550;0,536351;0,357567;0,395550;0,468678;0,468678;0,357567;0,357567;0,356091;0,268678;0,332192;0,268678;0,000000;0,000000;0,000000;0,468678;0,302012;0,328017;0,328017;0,406035;0,302012;0,302012;0,453017;0,879265;0,302012;0,328017;0,302012;0,268678;0,268678;0,302012;0,879265;0,357567;0,357567;0,357567;0,357567;0,369684;0,357567;0,357567;0,468678;0,357567;0,357567;0,302012;0,302012;0,302012;0,302012;0,357567;0,357567;0,802012;0,357567;0,468678;0,357567;0,357567;0,357567;
33;;;;;;;;;;;;;;;;;;;;;;;;;;;;;;;;;1,000000;0,357143;0,357143;0,357143;0,350061;0,312500;0,285714;0,285714;0,285714;0,453125;0,285714;0,460636;0,500000;0,357143;0,357143;0,416999;0,589879;0,714286;0,617521;0,571429;0,357143;0,440026;0,500000;0,928571;0,341428;0,242857;0,275000;0,377768;0,359454;0,357143;0,429526;0,375000;0,333333;0,321455;0,419883;0,625000;0,357143;0,419883;0,500000;0,500000;0,357143;0,357143;0,354116;0,242857;0,318762;0,242857;0,000000;0,000000;0,000000;0,500000;0,285714;0,312500;0,312500;0,429526;0,285714;0,285714;0,500000;1,000000;0,285714;0,312500;0,285714;0,242857;0,242857;0,285714;1,000000;0,357143;0,357143;0,357143;0,357143;0,375000;0,357143;0,357143;0,500000;0,357143;0,357143;0,285714;0,285714;0,285714;0,285714;0,357143;0,357143;0,928571;0,357143;0,500000;0,357143;0,357143;0,357143;
34;;;;;;;;;;;;;;;;;;;;;;;;;;;;;;;;;;1,000000;0,666667;0,666667;0,318773;0,305556;0,291667;0,291667;0,291667;0,368056;0,291667;0,340159;0,416667;0,333333;0,333333;0,328363;0,316667;0,333333;0,322143;0,291667;0,333333;0,342786;0,416667;0,666667;0,318412;0,266667;0,288889;0,322220;0,318166;0,333333;0,357567;0,333333;0,312500;0,308046;0,344956;0,444444;0,333333;0,344956;0,416667;0,416667;0,333333;0,333333;0,320294;0,266667;0,308339;0,266667;0,000000;0,000000;0,000000;0,416667;0,291667;0,305556;0,305556;0,357567;0,291667;0,291667;0,388889;0,416667;0,291667;0,305556;0,291667;0,266667;0,266667;0,291667;0,416667;0,333333;0,333333;0,333333;0,333333;0,333333;0,333333;0,333333;0,416667;0,333333;0,333333;0,291667;0,291667;0,291667;0,291667;0,333333;0,333333;0,666667;0,333333;0,416667;0,333333;0,333333;0,333333;
35;;;;;;;;;;;;;;;;;;;;;;;;;;;;;;;;;;;1,000000;0,666667;0,318773;0,305556;0,291667;0,291667;0,291667;0,368056;0,291667;0,340159;0,416667;0,333333;0,333333;0,328363;0,316667;0,333333;0,322143;0,291667;0,333333;0,342786;0,416667;0,666667;0,318412;0,266667;0,288889;0,322220;0,318166;0,333333;0,357567;0,333333;0,312500;0,308046;0,344956;0,444444;0,333333;0,344956;0,416667;0,416667;0,333333;0,333333;0,320294;0,266667;0,308339;0,266667;0,000000;0,000000;0,000000;0,416667;0,291667;0,305556;0,305556;0,357567;0,291667;0,291667;0,388889;0,416667;0,291667;0,305556;0,291667;0,266667;0,266667;0,291667;0,416667;0,333333;0,333333;0,333333;0,333333;0,333333;0,333333;0,333333;0,416667;0,333333;0,333333;0,291667;0,291667;0,291667;0,291667;0,333333;0,333333;0,666667;0,333333;0,416667;0,333333;0,333333;0,333333;
36;;;;;;;;;;;;;;;;;;;;;;;;;;;;;;;;;;;;1,000000;0,318773;0,305556;0,291667;0,291667;0,291667;0,368056;0,291667;0,340159;0,416667;0,333333;0,333333;0,328363;0,316667;0,333333;0,322143;0,291667;0,333333;0,342786;0,416667;0,666667;0,318412;0,266667;0,288889;0,322220;0,318166;0,333333;0,357567;0,333333;0,312500;0,308046;0,344956;0,444444;0,333333;0,344956;0,416667;0,416667;0,333333;0,333333;0,320294;0,266667;0,308339;0,266667;0,000000;0,000000;0,000000;0,416667;0,291667;0,305556;0,305556;0,357567;0,291667;0,291667;0,388889;0,416667;0,291667;0,305556;0,291667;0,266667;0,266667;0,291667;0,416667;0,333333;0,333333;0,333333;0,333333;0,333333;0,333333;0,333333;0,416667;0,333333;0,333333;0,291667;0,291667;0,291667;0,291667;0,333333;0,333333;0,666667;0,333333;0,416667;0,333333;0,333333;0,333333;
37;;;;;;;;;;;;;;;;;;;;;;;;;;;;;;;;;;;;;1,000000;0,740321;0,743950;0,256273;0,256273;0,372537;0,256273;0,306717;0,443773;0,318773;0,318773;0,275916;0,688475;0,318773;0,281831;0,256273;0,637546;0,318200;0,443773;0,818773;0,283179;0,218773;0,230037;0,268574;0,262807;0,318773;0,353658;0,310037;0,737901;0,253637;0,327458;0,510037;0,318773;0,327458;0,443773;0,443773;0,318773;0,318773;0,651118;0,413294;0,404721;0,413294;0,000000;0,000000;0,000000;0,443773;0,256273;0,260037;0,260037;0,353658;0,256273;0,256273;0,410037;0,443773;0,256273;0,260037;0,256273;0,631450;0,631450;0,256273;0,443773;0,613294;0,613294;0,318773;0,318773;0,310037;0,318773;0,318773;0,443773;0,318773;0,318773;0,256273;0,256273;0,256273;0,256273;0,318773;0,318773;0,818773;0,931450;0,443773;0,318773;0,318773;0,318773;
38;;;;;;;;;;;;;;;;;;;;;;;;;;;;;;;;;;;;;;1,000000;0,750000;0,250000;0,250000;0,343750;0,250000;0,277562;0,416667;0,305556;0,305556;0,254777;0,712902;0,305556;0,265428;0,250000;0,916667;0,290014;0,416667;0,750000;0,269285;0,216667;0,225000;0,251384;0,247809;0,305556;0,328017;0,291667;0,750000;0,242873;0,301930;0,458333;0,305556;0,301930;0,416667;0,416667;0,305556;0,305556;0,680574;0,433333;0,436209;0,433333;0,000000;0,000000;0,000000;0,416667;0,250000;0,250000;0,250000;0,328017;0,250000;0,250000;0,375000;0,416667;0,250000;0,250000;0,250000;0,650000;0,650000;0,250000;0,416667;0,611111;0,611111;0,305556;0,305556;0,291667;0,305556;0,305556;0,416667;0,305556;0,305556;0,250000;0,250000;0,250000;0,250000;0,305556;0,305556;0,750000;0,916667;0,416667;0,305556;0,305556;0,305556;
39;;;;;;;;;;;;;;;;;;;;;;;;;;;;;;;;;;;;;;;1,000000;0,250000;0,250000;0,312500;0,250000;0,265159;0,375000;0,291667;0,291667;0,252606;0,727741;0,291667;0,259643;0,250000;0,583333;0,273341;0,375000;0,625000;0,262857;0,225000;0,233333;0,250791;0,248722;0,291667;0,302012;0,277778;0,750000;0,245546;0,282456;0,388889;0,291667;0,282456;0,375000;0,375000;0,291667;0,291667;0,706609;0,450000;0,457473;0,450000;0,000000;0,000000;0,000000;0,375000;0,250000;0,250000;0,250000;0,302012;0,250000;0,250000;0,333333;0,375000;0,250000;0,250000;0,250000;0,675000;0,675000;0,250000;0,375000;0,583333;0,583333;0,291667;0,291667;0,277778;0,291667;0,291667;0,375000;0,291667;0,291667;0,250000;0,250000;0,250000;0,250000;0,291667;0,291667;0,625000;0,875000;0,375000;0,291667;0,291667;0,291667;
40;;;;;;;;;;;;;;;;;;;;;;;;;;;;;;;;;;;;;;;;1,000000;0,750000;0,767583;0,750000;0,265159;0,375000;0,291667;0,291667;0,252606;0,250000;0,291667;0,259643;0,250000;0,291667;0,273341;0,375000;0,625000;0,262857;0,225000;0,233333;0,250791;0,248722;0,291667;0,302012;0,277778;0,250000;0,245546;0,282456;0,388889;0,291667;0,282456;0,375000;0,375000;0,291667;0,291667;0,257794;0,225000;0,252783;0,225000;0,000000;0,000000;0,000000;0,375000;0,250000;0,250000;0,250000;0,302012;0,250000;0,250000;0,333333;0,375000;0,250000;0,250000;0,250000;0,225000;0,225000;0,250000;0,375000;0,291667;0,291667;0,291667;0,291667;0,277778;0,291667;0,291667;0,375000;0,291667;0,291667;0,250000;0,250000;0,250000;0,250000;0,291667;0,291667;0,625000;0,291667;0,375000;0,291667;0,291667;0,291667;
41;;;;;;;;;;;;;;;;;;;;;;;;;;;;;;;;;;;;;;;;;1,000000;0,767583;0,750000;0,265159;0,375000;0,291667;0,291667;0,252606;0,250000;0,291667;0,259643;0,250000;0,291667;0,273341;0,375000;0,625000;0,262857;0,225000;0,233333;0,250791;0,248722;0,291667;0,302012;0,277778;0,250000;0,245546;0,282456;0,388889;0,291667;0,282456;0,375000;0,375000;0,291667;0,291667;0,257794;0,225000;0,252783;0,225000;0,000000;0,000000;0,000000;0,375000;0,250000;0,250000;0,250000;0,302012;0,250000;0,250000;0,333333;0,375000;0,250000;0,250000;0,250000;0,225000;0,225000;0,250000;0,375000;0,291667;0,291667;0,291667;0,291667;0,277778;0,291667;0,291667;0,375000;0,291667;0,291667;0,250000;0,250000;0,250000;0,250000;0,291667;0,291667;0,625000;0,291667;0,375000;0,291667;0,291667;0,291667;
42;;;;;;;;;;;;;;;;;;;;;;;;;;;;;;;;;;;;;;;;;;1,000000;0,767583;0,430971;0,479167;0,368056;0,368056;0,411027;0,375000;0,368056;0,377928;0,312500;0,368056;0,423942;0,479167;0,812500;0,363035;0,279167;0,318750;0,392009;0,381738;0,368056;0,421767;0,385417;0,362500;0,355373;0,414430;0,552083;0,368056;0,414430;0,479167;0,479167;0,368056;0,368056;0,374970;0,279167;0,347925;0,279167;0,000000;0,000000;0,000000;0,479167;0,312500;0,343750;0,343750;0,421767;0,312500;0,312500;0,468750;0,479167;0,312500;0,343750;0,312500;0,279167;0,279167;0,312500;0,479167;0,368056;0,368056;0,368056;0,368056;0,385417;0,368056;0,368056;0,479167;0,368056;0,368056;0,312500;0,312500;0,312500;0,312500;0,368056;0,368056;0,812500;0,368056;0,479167;0,368056;0,368056;0,368056;
43;;;;;;;;;;;;;;;;;;;;;;;;;;;;;;;;;;;;;;;;;;;1,000000;0,265159;0,375000;0,291667;0,291667;0,252606;0,250000;0,291667;0,259643;0,250000;0,291667;0,273341;0,375000;0,625000;0,262857;0,225000;0,233333;0,250791;0,248722;0,291667;0,302012;0,277778;0,250000;0,245546;0,282456;0,388889;0,291667;0,282456;0,375000;0,375000;0,291667;0,291667;0,257794;0,225000;0,252783;0,225000;0,000000;0,000000;0,000000;0,375000;0,250000;0,250000;0,250000;0,302012;0,250000;0,250000;0,333333;0,375000;0,250000;0,250000;0,250000;0,225000;0,225000;0,250000;0,375000;0,291667;0,291667;0,291667;0,291667;0,277778;0,291667;0,291667;0,375000;0,291667;0,291667;0,250000;0,250000;0,250000;0,250000;0,291667;0,291667;0,625000;0,291667;0,375000;0,291667;0,291667;0,291667;
44;;;;;;;;;;;;;;;;;;;;;;;;;;;;;;;;;;;;;;;;;;;;1,000000;0,490159;0,340159;0,340159;0,343363;0,296643;0,340159;0,316825;0,265159;0,340159;0,784914;0,490159;0,940159;0,706061;0,220159;0,236653;0,313958;0,299210;0,644661;0,571172;0,626656;0,287898;0,274534;0,492159;0,618471;0,644691;0,492885;0,490159;0,490159;0,340159;0,340159;0,311279;0,220159;0,284393;0,220159;0,000000;0,000000;0,000000;0,490159;0,265159;0,277562;0,277562;0,405227;0,265159;0,747019;0,482107;0,490159;0,265159;0,277562;0,265159;0,220159;0,220159;0,265159;0,490159;0,340159;0,340159;0,644691;0,644691;0,345744;0,340159;0,340159;0,944691;0,340159;0,340159;0,265159;0,265159;0,265159;0,265159;0,340159;0,340159;0,940159;0,340159;0,490159;0,340159;0,340159;0,340159;
45;;;;;;;;;;;;;;;;;;;;;;;;;;;;;;;;;;;;;;;;;;;;;1,000000;0,416667;0,416667;0,479879;0,450000;0,416667;0,447143;0,375000;0,416667;0,481675;0,500000;0,750000;0,859047;0,350000;0,400000;0,465077;0,457055;0,416667;0,468678;0,836671;0,437500;0,433046;0,469956;0,555556;0,833333;0,876836;0,500000;0,500000;0,416667;0,416667;0,445294;0,350000;0,419450;0,350000;0,000000;0,000000;0,000000;0,500000;0,375000;0,416667;0,416667;0,881330;0,375000;0,750000;0,500000;0,500000;0,375000;0,416667;0,375000;0,350000;0,350000;0,375000;0,500000;0,416667;0,416667;0,416667;0,416667;0,444444;0,416667;0,416667;0,500000;0,416667;0,416667;0,375000;0,375000;0,375000;0,375000;0,416667;0,416667;0,750000;0,416667;0,500000;0,416667;0,416667;0,416667;
46;;;;;;;;;;;;;;;;;;;;;;;;;;;;;;;;;;;;;;;;;;;;;;1,000000;0,666667;0,634570;0,316667;0,333333;0,322143;0,291667;0,333333;0,342786;0,416667;0,666667;0,318412;0,533333;0,577778;0,644439;0,636333;0,333333;0,357567;0,333333;0,312500;0,616091;0,344956;0,444444;0,333333;0,344956;0,416667;0,416667;0,333333;0,333333;0,320294;0,266667;0,308339;0,266667;0,000000;0,000000;0,000000;0,416667;0,583333;0,611111;0,611111;0,357567;0,583333;0,291667;0,388889;0,416667;0,291667;0,305556;0,291667;0,266667;0,266667;0,291667;0,416667;0,333333;0,333333;0,333333;0,333333;0,333333;0,333333;0,333333;0,416667;0,333333;0,333333;0,291667;0,291667;0,291667;0,291667;0,666667;0,333333;0,666667;0,333333;0,833333;0,333333;0,333333;0,333333;
47;;;;;;;;;;;;;;;;;;;;;;;;;;;;;;;;;;;;;;;;;;;;;;;1,000000;0,634570;0,316667;0,333333;0,322143;0,291667;0,333333;0,342786;0,416667;0,666667;0,318412;0,533333;0,577778;0,644439;0,636333;0,333333;0,357567;0,333333;0,312500;0,616091;0,344956;0,444444;0,333333;0,344956;0,416667;0,416667;0,333333;0,333333;0,320294;0,266667;0,308339;0,266667;0,000000;0,000000;0,000000;0,416667;0,583333;0,611111;0,611111;0,357567;0,583333;0,291667;0,388889;0,416667;0,291667;0,305556;0,291667;0,266667;0,266667;0,291667;0,416667;0,333333;0,333333;0,333333;0,333333;0,333333;0,333333;0,333333;0,416667;0,333333;0,333333;0,291667;0,291667;0,291667;0,291667;0,666667;0,333333;0,666667;0,333333;0,833333;0,333333;0,333333;0,333333;
48;;;;;;;;;;;;;;;;;;;;;;;;;;;;;;;;;;;;;;;;;;;;;;;;1,000000;0,258190;0,328363;0,286284;0,252606;0,328363;0,352920;0,479879;0,934424;0,286919;0,785467;0,783435;0,695232;0,709329;0,328363;0,384806;0,324222;0,256615;0,738914;0,356479;0,602000;0,328363;0,356479;0,479879;0,479879;0,328363;0,328363;0,280595;0,207151;0,261735;0,207151;0,000000;0,000000;0,000000;0,479879;0,718371;0,692040;0,692040;0,384806;0,718371;0,252606;0,463111;0,479879;0,252606;0,254777;0,252606;0,207151;0,207151;0,252606;0,479879;0,328363;0,328363;0,328363;0,328363;0,324222;0,328363;0,328363;0,479879;0,328363;0,328363;0,252606;0,252606;0,252606;0,252606;0,646472;0,328363;0,934424;0,328363;0,479879;0,328363;0,328363;0,328363;
49;;;;;;;;;;;;;;;;;;;;;;;;;;;;;;;;;;;;;;;;;;;;;;;;;1,000000;0,596626;0,495712;0,678172;0,621752;0,312243;0,450000;0,850000;0,275714;0,210000;0,216667;0,252215;0,246592;0,316667;0,354023;0,305556;0,702302;0,239818;0,324185;0,527778;0,316667;0,324185;0,450000;0,450000;0,597094;0,597094;0,603122;0,408394;0,395601;0,408394;0,250000;0,250000;0,250000;0,450000;0,250000;0,250000;0,250000;0,354023;0,250000;0,250000;0,416667;0,863293;0,250000;0,250000;0,250000;0,607741;0,607741;0,250000;0,863293;0,621727;0,621727;0,316667;0,316667;0,305556;0,316667;0,316667;0,450000;0,316667;0,316667;0,250000;0,250000;0,250000;0,250000;0,316667;0,316667;0,850000;0,927741;0,450000;0,316667;0,316667;0,316667;
50;;;;;;;;;;;;;;;;;;;;;;;;;;;;;;;;;;;;;;;;;;;;;;;;;;1,000000;0,606570;0,583333;0,333333;0,633540;0,833333;0,666667;0,318412;0,266667;0,288889;0,322220;0,318166;0,333333;0,357567;0,333333;0,312500;0,308046;0,689912;0,444444;0,333333;0,344956;0,416667;0,416667;0,333333;0,333333;0,320294;0,266667;0,308339;0,266667;0,000000;0,000000;0,000000;0,416667;0,291667;0,305556;0,305556;0,357567;0,291667;0,291667;0,388889;0,833333;0,291667;0,305556;0,291667;0,266667;0,266667;0,291667;0,833333;0,333333;0,333333;0,333333;0,333333;0,333333;0,333333;0,333333;0,416667;0,333333;0,333333;0,291667;0,291667;0,291667;0,291667;0,333333;0,333333;0,666667;0,333333;0,416667;0,333333;0,333333;0,333333;
51;;;;;;;;;;;;;;;;;;;;;;;;;;;;;;;;;;;;;;;;;;;;;;;;;;;1,000000;0,705931;0,322143;0,326624;0,447143;0,822143;0,288570;0,222143;0,235428;0,277559;0,271231;0,322143;0,359049;0,315428;0,384361;0,260376;0,334197;0,515428;0,322143;0,334197;0,447143;0,447143;0,614187;0,614187;0,284872;0,222143;0,270438;0,222143;0,750000;0,750000;0,750000;0,447143;0,259643;0,265428;0,265428;0,359049;0,259643;0,259643;0,415428;0,856570;0,259643;0,265428;0,259643;0,367180;0,367180;0,259643;0,856570;0,322143;0,322143;0,322143;0,322143;0,315428;0,322143;0,322143;0,447143;0,322143;0,322143;0,259643;0,259643;0,259643;0,259643;0,322143;0,322143;0,822143;0,322143;0,447143;0,322143;0,322143;0,322143;
52;;;;;;;;;;;;;;;;;;;;;;;;;;;;;;;;;;;;;;;;;;;;;;;;;;;;1,000000;0,291667;0,273341;0,375000;0,625000;0,262857;0,225000;0,233333;0,250791;0,248722;0,291667;0,302012;0,277778;0,250000;0,245546;0,282456;0,388889;0,291667;0,282456;0,375000;0,375000;0,583333;0,583333;0,257794;0,225000;0,252783;0,225000;0,250000;0,250000;0,250000;0,375000;0,250000;0,250000;0,250000;0,302012;0,250000;0,250000;0,333333;0,750000;0,250000;0,250000;0,250000;0,225000;0,225000;0,250000;0,750000;0,291667;0,291667;0,291667;0,291667;0,277778;0,291667;0,291667;0,375000;0,291667;0,291667;0,250000;0,250000;0,250000;0,250000;0,291667;0,291667;0,625000;0,291667;0,375000;0,291667;0,291667;0,291667;
53;;;;;;;;;;;;;;;;;;;;;;;;;;;;;;;;;;;;;;;;;;;;;;;;;;;;;1,000000;0,342786;0,416667;0,666667;0,318412;0,266667;0,288889;0,322220;0,318166;0,333333;0,357567;0,333333;0,625000;0,308046;0,344956;0,444444;0,333333;0,344956;0,416667;0,416667;0,333333;0,333333;0,597876;0,266667;0,308339;0,266667;0,000000;0,000000;0,000000;0,416667;0,291667;0,305556;0,305556;0,357567;0,291667;0,291667;0,388889;0,416667;0,291667;0,305556;0,291667;0,533333;0,533333;0,291667;0,416667;0,333333;0,333333;0,333333;0,333333;0,333333;0,333333;0,333333;0,416667;0,333333;0,333333;0,291667;0,291667;0,291667;0,291667;0,333333;0,333333;0,666667;0,666667;0,416667;0,333333;0,333333;0,333333;
54;;;;;;;;;;;;;;;;;;;;;;;;;;;;;;;;;;;;;;;;;;;;;;;;;;;;;;1,000000;0,911317;0,898341;0,577394;0,231675;0,254299;0,328906;0,316190;0,633707;0,561726;0,610164;0,302518;0,291382;0,755468;0,587633;0,342786;0,383658;0,481675;0,481675;0,342786;0,342786;0,322002;0,231675;0,295977;0,231675;0,000000;0,000000;0,000000;0,911537;0,273341;0,290014;0,290014;0,562004;0,273341;0,513005;0,848349;0,481675;0,273341;0,290014;0,273341;0,231675;0,231675;0,273341;0,481675;0,342786;0,342786;0,342786;0,342786;0,349537;0,342786;0,342786;0,481675;0,342786;0,342786;0,273341;0,273341;0,273341;0,273341;0,342786;0,342786;0,898341;0,342786;0,481675;0,342786;0,342786;0,342786;
55;;;;;;;;;;;;;;;;;;;;;;;;;;;;;;;;;;;;;;;;;;;;;;;;;;;;;;;1,000000;0,750000;0,429523;0,350000;0,400000;0,465077;0,457055;0,416667;0,468678;0,444444;0,437500;0,433046;0,939912;0,555556;0,416667;0,469956;0,500000;0,500000;0,416667;0,416667;0,445294;0,350000;0,419450;0,350000;0,000000;0,000000;0,000000;0,500000;0,375000;0,416667;0,416667;0,468678;0,375000;0,375000;0,500000;0,500000;0,375000;0,416667;0,375000;0,350000;0,350000;0,375000;0,500000;0,416667;0,416667;0,416667;0,416667;0,444444;0,416667;0,416667;0,500000;0,416667;0,416667;0,375000;0,375000;0,375000;0,375000;0,416667;0,416667;0,750000;0,416667;0,500000;0,416667;0,416667;0,416667;
56;;;;;;;;;;;;;;;;;;;;;;;;;;;;;;;;;;;;;;;;;;;;;;;;;;;;;;;;1,000000;0,762857;0,600000;0,733333;0,893648;0,873722;0,666667;0,802012;0,777778;0,812500;0,808046;0,844956;0,888889;0,666667;0,844956;0,750000;0,750000;0,666667;0,666667;0,820294;0,600000;0,752783;0,600000;0,000000;0,000000;0,000000;0,750000;0,625000;0,750000;0,750000;0,802012;0,625000;0,625000;0,833333;0,750000;0,625000;0,750000;0,625000;0,600000;0,600000;0,625000;0,750000;0,666667;0,666667;0,666667;0,666667;0,777778;0,666667;0,666667;0,750000;0,666667;0,666667;0,625000;0,625000;0,625000;0,625000;0,666667;0,666667;1,000000;0,666667;0,750000;0,666667;0,666667;0,666667;
57;;;;;;;;;;;;;;;;;;;;;;;;;;;;;;;;;;;;;;;;;;;;;;;;;;;;;;;;;1,000000;0,229523;0,244285;0,280312;0,275359;0,318412;0,347303;0,543577;0,273142;0,266015;0,325072;0,477618;0,636825;0,549221;0,429523;0,429523;0,318412;0,318412;0,285612;0,229523;0,273460;0,229523;0,000000;0,000000;0,000000;0,429523;0,262857;0,269285;0,269285;0,610566;0,262857;0,788570;0,394285;0,429523;0,262857;0,269285;0,262857;0,229523;0,229523;0,262857;0,429523;0,318412;0,318412;0,318412;0,318412;0,310952;0,318412;0,318412;0,429523;0,318412;0,318412;0,262857;0,262857;0,262857;0,262857;0,318412;0,318412;0,762857;0,318412;0,429523;0,318412;0,318412;0,318412;
58;;;;;;;;;;;;;;;;;;;;;;;;;;;;;;;;;;;;;;;;;;;;;;;;;;;;;;;;;;1,000000;0,800000;0,799196;0,802310;0,266667;0,268678;0,244444;0,212500;1,000000;0,244956;0,355556;0,266667;0,244956;0,350000;0,350000;0,266667;0,266667;0,220294;0,200000;0,219450;0,200000;0,000000;0,000000;0,000000;0,350000;0,450000;0,433333;0,433333;0,268678;0,450000;0,225000;0,300000;0,350000;0,225000;0,216667;0,225000;0,200000;0,200000;0,225000;0,350000;0,266667;0,266667;0,266667;0,266667;0,244444;0,266667;0,266667;0,350000;0,266667;0,266667;0,225000;0,225000;0,225000;0,225000;0,800000;0,266667;0,600000;0,266667;0,700000;0,266667;0,266667;0,266667;
59;;;;;;;;;;;;;;;;;;;;;;;;;;;;;;;;;;;;;;;;;;;;;;;;;;;;;;;;;;;1,000000;0,819997;0,831936;0,288889;0,303017;0,266667;0,220000;0,851491;0,271930;0,433333;0,288889;0,271930;0,400000;0,400000;0,288889;0,288889;0,232470;0,200000;0,229175;0,200000;0,000000;0,000000;0,000000;0,400000;0,466667;0,450000;0,450000;0,303017;0,466667;0,233333;0,350000;0,400000;0,233333;0,225000;0,233333;0,200000;0,200000;0,233333;0,400000;0,288889;0,288889;0,288889;0,288889;0,266667;0,288889;0,288889;0,400000;0,288889;0,288889;0,233333;0,233333;0,233333;0,233333;0,866667;0,288889;0,733333;0,288889;0,800000;0,288889;0,288889;0,288889;
60;;;;;;;;;;;;;;;;;;;;;;;;;;;;;;;;;;;;;;;;;;;;;;;;;;;;;;;;;;;;1,000000;0,754414;0,322220;0,368410;0,313884;0,251846;0,777152;0,338395;0,563884;0,322220;0,338395;0,465077;0,465077;0,322220;0,322220;0,272629;0,207934;0,257646;0,207934;0,000000;0,000000;0,000000;0,465077;0,501582;0,502768;0,502768;0,368410;0,501582;0,250791;0,438884;0,465077;0,250791;0,251384;0,250791;0,207934;0,207934;0,250791;0,465077;0,322220;0,322220;0,322220;0,322220;0,313884;0,322220;0,322220;0,465077;0,322220;0,322220;0,250791;0,250791;0,250791;0,250791;0,644439;0,322220;0,893648;0,322220;0,930153;0,322220;0,322220;0,322220;
61;;;;;;;;;;;;;;;;;;;;;;;;;;;;;;;;;;;;;;;;;;;;;;;;;;;;;;;;;;;;;1,000000;0,318166;0,359262;0,307333;0,247124;0,785536;0,328264;0,545428;0,318166;0,328264;0,457055;0,457055;0,318166;0,318166;0,266609;0,207055;0,253773;0,207055;0,000000;0,000000;0,000000;0,457055;0,497444;0,495618;0,495618;0,359262;0,497444;0,248722;0,426380;0,457055;0,248722;0,247809;0,248722;0,207055;0,207055;0,248722;0,457055;0,318166;0,318166;0,318166;0,318166;0,307333;0,318166;0,318166;0,457055;0,318166;0,318166;0,248722;0,248722;0,248722;0,248722;0,954499;0,318166;0,873722;0,318166;0,914111;0,318166;0,318166;0,318166;
62;;;;;;;;;;;;;;;;;;;;;;;;;;;;;;;;;;;;;;;;;;;;;;;;;;;;;;;;;;;;;;1,000000;0,644062;0,666667;0,312500;0,308046;0,626836;0,777778;0,333333;0,344956;0,416667;0,416667;0,333333;0,333333;0,320294;0,266667;0,308339;0,266667;0,000000;0,000000;0,000000;0,416667;0,291667;0,305556;0,305556;0,357567;0,291667;0,291667;0,388889;0,416667;0,291667;0,305556;0,291667;0,266667;0,266667;0,291667;0,416667;0,333333;0,333333;0,333333;0,333333;0,333333;0,333333;0,333333;0,416667;0,333333;0,333333;0,291667;0,291667;0,291667;0,291667;0,333333;0,333333;0,666667;0,333333;0,416667;0,333333;0,333333;0,333333;
63;;;;;;;;;;;;;;;;;;;;;;;;;;;;;;;;;;;;;;;;;;;;;;;;;;;;;;;;;;;;;;;1,000000;0,632760;0,343621;0,336494;0,562249;0,536351;0,357567;0,395550;0,468678;0,468678;0,357567;0,357567;0,356091;0,268678;0,332192;0,268678;0,000000;0,000000;0,000000;0,468678;0,302012;0,328017;0,328017;0,406035;0,302012;0,302012;0,453017;0,468678;0,302012;0,328017;0,302012;0,268678;0,268678;0,302012;0,468678;0,357567;0,357567;0,357567;0,357567;0,369684;0,357567;0,357567;0,468678;0,357567;0,357567;0,302012;0,302012;0,302012;0,302012;0,357567;0,357567;0,802012;0,357567;0,468678;0,357567;0,357567;0,357567;
64;;;;;;;;;;;;;;;;;;;;;;;;;;;;;;;;;;;;;;;;;;;;;;;;;;;;;;;;;;;;;;;;1,000000;0,300000;0,292873;0,753614;0,500000;0,614449;0,508945;0,444444;0,444444;0,333333;0,333333;0,312470;0,244444;0,295841;0,244444;0,000000;0,000000;0,000000;0,444444;0,277778;0,291667;0,291667;0,739099;0,277778;0,503338;0,416667;0,444444;0,277778;0,291667;0,277778;0,244444;0,244444;0,277778;0,444444;0,333333;0,333333;0,333333;0,333333;0,333333;0,333333;0,333333;0,444444;0,333333;0,333333;0,277778;0,277778;0,277778;0,277778;0,333333;0,333333;0,777778;0,333333;0,444444;0,333333;0,333333;0,333333;
65;;;;;;;;;;;;;;;;;;;;;;;;;;;;;;;;;;;;;;;;;;;;;;;;;;;;;;;;;;;;;;;;;1,000000;0,241091;0,314912;0,500000;0,312500;0,314912;0,437500;0,437500;0,312500;0,312500;0,663217;0,425000;0,423451;0,425000;0,250000;0,250000;0,250000;0,437500;0,250000;0,250000;0,250000;0,343621;0,250000;0,250000;0,400000;0,437500;0,250000;0,250000;0,250000;0,850000;0,850000;0,250000;0,437500;0,625000;0,625000;0,312500;0,312500;0,300000;0,312500;0,312500;0,437500;0,312500;0,312500;0,250000;0,250000;0,250000;0,250000;0,312500;0,312500;0,812500;0,937500;0,437500;0,312500;0,312500;0,312500;
66;;;;;;;;;;;;;;;;;;;;;;;;;;;;;;;;;;;;;;;;;;;;;;;;;;;;;;;;;;;;;;;;;;1,000000;0,306003;0,492873;0,308046;0,306003;0,433046;0,433046;0,308046;0,308046;0,256678;0,208046;0,247882;0,208046;0,000000;0,000000;0,000000;0,433046;0,491091;0,485746;0,485746;0,336494;0,491091;0,245546;0,392873;0,433046;0,245546;0,242873;0,245546;0,208046;0,208046;0,245546;0,433046;0,308046;0,308046;0,308046;0,308046;0,292873;0,308046;0,308046;0,433046;0,308046;0,308046;0,245546;0,245546;0,245546;0,245546;0,924137;0,308046;0,808046;0,308046;0,866091;0,308046;0,308046;0,308046;
67;;;;;;;;;;;;;;;;;;;;;;;;;;;;;;;;;;;;;;;;;;;;;;;;;;;;;;;;;;;;;;;;;;;1,000000;0,551930;0,344956;0,379824;0,469956;0,469956;0,344956;0,344956;0,330499;0,244956;0,306939;0,244956;0,000000;0,000000;0,000000;0,469956;0,282456;0,301930;0,301930;0,562570;0,282456;0,282456;0,451930;0,469956;0,282456;0,301930;0,282456;0,244956;0,244956;0,282456;0,469956;0,344956;0,344956;0,344956;0,344956;0,351930;0,344956;0,344956;0,469956;0,344956;0,344956;0,282456;0,282456;0,282456;0,282456;0,344956;0,344956;0,844956;0,344956;0,469956;0,344956;0,344956;0,344956;
68;;;;;;;;;;;;;;;;;;;;;;;;;;;;;;;;;;;;;;;;;;;;;;;;;;;;;;;;;;;;;;;;;;;;1,000000;0,444444;0,551930;0,555556;0,555556;0,444444;0,444444;0,512470;0,355556;0,462508;0,355556;0,000000;0,000000;0,000000;0,555556;0,388889;0,458333;0,458333;0,536351;0,388889;0,388889;0,583333;0,555556;0,388889;0,458333;0,388889;0,355556;0,355556;0,388889;0,555556;0,444444;0,444444;0,444444;0,444444;0,500000;0,444444;0,444444;0,555556;0,444444;0,444444;0,388889;0,388889;0,388889;0,388889;0,444444;0,444444;0,888889;0,444444;0,555556;0,444444;0,444444;0,444444;
69;;;;;;;;;;;;;;;;;;;;;;;;;;;;;;;;;;;;;;;;;;;;;;;;;;;;;;;;;;;;;;;;;;;;;1,000000;0,626836;0,416667;0,416667;0,333333;0,333333;0,320294;0,266667;0,308339;0,266667;0,000000;0,000000;0,000000;0,416667;0,291667;0,305556;0,305556;0,659108;0,291667;0,583333;0,388889;0,416667;0,291667;0,305556;0,291667;0,266667;0,266667;0,291667;0,416667;0,333333;0,333333;0,666667;0,666667;0,333333;0,333333;0,333333;0,833333;0,333333;0,333333;0,291667;0,291667;0,291667;0,291667;0,333333;0,333333;0,666667;0,333333;0,416667;0,333333;0,333333;0,333333;
70;;;;;;;;;;;;;;;;;;;;;;;;;;;;;;;;;;;;;;;;;;;;;;;;;;;;;;;;;;;;;;;;;;;;;;1,000000;0,469956;0,469956;0,344956;0,344956;0,330499;0,244956;0,306939;0,244956;0,000000;0,000000;0,000000;0,469956;0,282456;0,301930;0,301930;0,589331;0,282456;0,501836;0,451930;0,469956;0,282456;0,301930;0,282456;0,244956;0,244956;0,282456;0,469956;0,344956;0,344956;0,627043;0,627043;0,351930;0,344956;0,344956;0,469956;0,344956;0,344956;0,282456;0,282456;0,282456;0,282456;0,344956;0,344956;0,844956;0,344956;0,469956;0,344956;0,344956;0,344956;
71;;;;;;;;;;;;;;;;;;;;;;;;;;;;;;;;;;;;;;;;;;;;;;;;;;;;;;;;;;;;;;;;;;;;;;;1,000000;0,500000;0,416667;0,416667;0,445294;0,350000;0,419450;0,350000;0,000000;0,000000;0,000000;0,500000;0,375000;0,416667;0,416667;0,468678;0,375000;0,375000;0,500000;0,500000;0,375000;0,416667;0,375000;0,350000;0,350000;0,375000;0,500000;0,416667;0,416667;0,416667;0,416667;0,444444;0,416667;0,416667;0,500000;0,416667;0,416667;0,375000;0,375000;0,375000;0,375000;0,416667;0,416667;0,750000;0,416667;0,500000;0,416667;0,416667;0,416667;
72;;;;;;;;;;;;;;;;;;;;;;;;;;;;;;;;;;;;;;;;;;;;;;;;;;;;;;;;;;;;;;;;;;;;;;;;1,000000;0,416667;0,416667;0,445294;0,350000;0,419450;0,350000;0,000000;0,000000;0,000000;0,500000;0,375000;0,416667;0,416667;0,468678;0,375000;0,375000;0,500000;0,500000;0,375000;0,416667;0,375000;0,350000;0,350000;0,375000;0,500000;0,416667;0,416667;0,416667;0,416667;0,444444;0,416667;0,416667;0,500000;0,416667;0,416667;0,375000;0,375000;0,375000;0,375000;0,416667;0,416667;0,750000;0,416667;0,500000;0,416667;0,416667;0,416667;
73;;;;;;;;;;;;;;;;;;;;;;;;;;;;;;;;;;;;;;;;;;;;;;;;;;;;;;;;;;;;;;;;;;;;;;;;;1,000000;0,666667;0,320294;0,266667;0,308339;0,266667;0,291667;0,291667;0,291667;0,416667;0,291667;0,305556;0,305556;0,357567;0,291667;0,291667;0,388889;0,416667;0,291667;0,305556;0,291667;0,266667;0,266667;0,291667;0,416667;0,333333;0,333333;0,333333;0,333333;0,333333;0,333333;0,333333;0,416667;0,333333;0,333333;0,291667;0,291667;0,291667;0,291667;0,333333;0,333333;0,666667;0,333333;0,416667;0,333333;0,333333;0,333333;
74;;;;;;;;;;;;;;;;;;;;;;;;;;;;;;;;;;;;;;;;;;;;;;;;;;;;;;;;;;;;;;;;;;;;;;;;;;1,000000;0,320294;0,266667;0,308339;0,266667;0,291667;0,291667;0,291667;0,416667;0,291667;0,305556;0,305556;0,357567;0,291667;0,291667;0,388889;0,416667;0,291667;0,305556;0,291667;0,266667;0,266667;0,291667;0,416667;0,333333;0,333333;0,333333;0,333333;0,333333;0,333333;0,333333;0,416667;0,333333;0,333333;0,291667;0,291667;0,291667;0,291667;0,333333;0,333333;0,666667;0,333333;0,416667;0,333333;0,333333;0,333333;
75;;;;;;;;;;;;;;;;;;;;;;;;;;;;;;;;;;;;;;;;;;;;;;;;;;;;;;;;;;;;;;;;;;;;;;;;;;;1,000000;0,780738;0,736353;0,780738;0,000000;0,000000;0,000000;0,445294;0,257794;0,262470;0,262470;0,356091;0,257794;0,257794;0,412470;0,445294;0,257794;0,262470;0,257794;0,594109;0,594109;0,257794;0,445294;0,616150;0,616150;0,320294;0,320294;0,312470;0,320294;0,320294;0,445294;0,320294;0,320294;0,257794;0,257794;0,257794;0,257794;0,320294;0,616467;0,820294;0,894109;0,445294;0,320294;0,320294;0,320294;
76;;;;;;;;;;;;;;;;;;;;;;;;;;;;;;;;;;;;;;;;;;;;;;;;;;;;;;;;;;;;;;;;;;;;;;;;;;;;1,000000;0,781760;0,800000;0,000000;0,000000;0,000000;0,350000;0,225000;0,216667;0,216667;0,268678;0,225000;0,225000;0,300000;0,350000;0,225000;0,216667;0,225000;0,400000;0,400000;0,225000;0,350000;0,533333;0,533333;0,266667;0,266667;0,244444;0,266667;0,266667;0,350000;0,266667;0,266667;0,225000;0,225000;0,225000;0,225000;0,266667;0,800000;0,600000;0,533333;0,350000;0,266667;0,266667;0,266667;
77;;;;;;;;;;;;;;;;;;;;;;;;;;;;;;;;;;;;;;;;;;;;;;;;;;;;;;;;;;;;;;;;;;;;;;;;;;;;;1,000000;0,781760;0,000000;0,000000;0,000000;0,419450;0,252783;0,254175;0,254175;0,332192;0,252783;0,252783;0,379175;0,419450;0,252783;0,254175;0,252783;0,390806;0,390806;0,252783;0,419450;0,568584;0,568584;0,308339;0,308339;0,295841;0,308339;0,308339;0,419450;0,308339;0,308339;0,252783;0,252783;0,252783;0,252783;0,308339;0,616677;0,752783;0,568584;0,419450;0,308339;0,308339;0,308339;
78;;;;;;;;;;;;;;;;;;;;;;;;;;;;;;;;;;;;;;;;;;;;;;;;;;;;;;;;;;;;;;;;;;;;;;;;;;;;;;1,000000;0,000000;0,000000;0,000000;0,350000;0,225000;0,216667;0,216667;0,268678;0,225000;0,225000;0,300000;0,350000;0,225000;0,216667;0,225000;0,400000;0,400000;0,225000;0,350000;0,533333;0,533333;0,266667;0,266667;0,244444;0,266667;0,266667;0,350000;0,266667;0,266667;0,225000;0,225000;0,225000;0,225000;0,266667;0,800000;0,600000;0,533333;0,350000;0,266667;0,266667;0,266667;
79;;;;;;;;;;;;;;;;;;;;;;;;;;;;;;;;;;;;;;;;;;;;;;;;;;;;;;;;;;;;;;;;;;;;;;;;;;;;;;;1,000000;0,750000;0,750000;0,000000;0,000000;0,000000;0,000000;0,000000;0,000000;0,000000;0,000000;0,000000;0,000000;0,000000;0,000000;0,225000;0,225000;0,000000;0,000000;0,000000;0,000000;0,000000;0,000000;0,000000;0,000000;0,000000;0,000000;0,000000;0,000000;0,000000;0,000000;0,000000;0,000000;0,000000;0,000000;0,000000;0,000000;0,000000;0,000000;0,000000;0,000000;
80;;;;;;;;;;;;;;;;;;;;;;;;;;;;;;;;;;;;;;;;;;;;;;;;;;;;;;;;;;;;;;;;;;;;;;;;;;;;;;;;1,000000;0,750000;0,000000;0,000000;0,000000;0,000000;0,000000;0,000000;0,000000;0,000000;0,000000;0,000000;0,000000;0,000000;0,225000;0,225000;0,000000;0,000000;0,000000;0,000000;0,000000;0,000000;0,000000;0,000000;0,000000;0,000000;0,000000;0,000000;0,000000;0,000000;0,000000;0,000000;0,000000;0,000000;0,000000;0,000000;0,000000;0,000000;0,000000;0,000000;
81;;;;;;;;;;;;;;;;;;;;;;;;;;;;;;;;;;;;;;;;;;;;;;;;;;;;;;;;;;;;;;;;;;;;;;;;;;;;;;;;;1,000000;0,000000;0,000000;0,000000;0,000000;0,000000;0,000000;0,000000;0,000000;0,000000;0,000000;0,000000;0,000000;0,225000;0,225000;0,000000;0,000000;0,000000;0,000000;0,000000;0,000000;0,000000;0,000000;0,000000;0,000000;0,000000;0,000000;0,000000;0,000000;0,000000;0,000000;0,000000;0,000000;0,000000;0,000000;0,000000;0,000000;0,000000;0,000000;
82;;;;;;;;;;;;;;;;;;;;;;;;;;;;;;;;;;;;;;;;;;;;;;;;;;;;;;;;;;;;;;;;;;;;;;;;;;;;;;;;;;1,000000;0,375000;0,416667;0,416667;0,866372;0,375000;0,375000;1,000000;0,500000;0,375000;0,416667;0,375000;0,350000;0,350000;0,375000;0,500000;0,416667;0,416667;0,416667;0,416667;0,444444;0,416667;0,416667;0,500000;0,416667;0,416667;0,375000;0,375000;0,375000;0,375000;0,416667;0,416667;0,750000;0,416667;0,500000;0,416667;0,416667;0,416667;
83;;;;;;;;;;;;;;;;;;;;;;;;;;;;;;;;;;;;;;;;;;;;;;;;;;;;;;;;;;;;;;;;;;;;;;;;;;;;;;;;;;;1,000000;0,750000;0,750000;0,302012;1,000000;0,250000;0,333333;0,375000;0,250000;0,250000;0,250000;0,225000;0,225000;0,250000;0,375000;0,291667;0,291667;0,291667;0,291667;0,277778;0,291667;0,291667;0,375000;0,291667;0,291667;0,250000;0,250000;0,250000;0,250000;0,583333;0,291667;0,625000;0,291667;0,750000;0,291667;0,291667;0,291667;
84;;;;;;;;;;;;;;;;;;;;;;;;;;;;;;;;;;;;;;;;;;;;;;;;;;;;;;;;;;;;;;;;;;;;;;;;;;;;;;;;;;;;1,000000;0,750000;0,328017;0,750000;0,250000;0,375000;0,416667;0,250000;0,250000;0,250000;0,216667;0,216667;0,250000;0,416667;0,305556;0,305556;0,305556;0,305556;0,291667;0,305556;0,305556;0,416667;0,305556;0,305556;0,250000;0,250000;0,250000;0,250000;0,611111;0,305556;0,750000;0,305556;0,833333;0,305556;0,305556;0,305556;
85;;;;;;;;;;;;;;;;;;;;;;;;;;;;;;;;;;;;;;;;;;;;;;;;;;;;;;;;;;;;;;;;;;;;;;;;;;;;;;;;;;;;;1,000000;0,328017;0,750000;0,250000;0,375000;0,416667;0,250000;0,250000;0,250000;0,216667;0,216667;0,250000;0,416667;0,305556;0,305556;0,305556;0,305556;0,291667;0,305556;0,305556;0,416667;0,305556;0,305556;0,250000;0,250000;0,250000;0,250000;0,611111;0,305556;0,750000;0,305556;0,833333;0,305556;0,305556;0,305556;
86;;;;;;;;;;;;;;;;;;;;;;;;;;;;;;;;;;;;;;;;;;;;;;;;;;;;;;;;;;;;;;;;;;;;;;;;;;;;;;;;;;;;;;1,000000;0,302012;0,547997;0,799558;0,468678;0,302012;0,328017;0,302012;0,268678;0,268678;0,302012;0,468678;0,357567;0,357567;0,357567;0,357567;0,369684;0,357567;0,357567;0,468678;0,357567;0,357567;0,302012;0,302012;0,302012;0,302012;0,357567;0,357567;0,802012;0,357567;0,468678;0,357567;0,357567;0,357567;
87;;;;;;;;;;;;;;;;;;;;;;;;;;;;;;;;;;;;;;;;;;;;;;;;;;;;;;;;;;;;;;;;;;;;;;;;;;;;;;;;;;;;;;;1,000000;0,250000;0,333333;0,375000;0,250000;0,250000;0,250000;0,225000;0,225000;0,250000;0,375000;0,291667;0,291667;0,291667;0,291667;0,277778;0,291667;0,291667;0,375000;0,291667;0,291667;0,250000;0,250000;0,250000;0,250000;0,583333;0,291667;0,625000;0,291667;0,750000;0,291667;0,291667;0,291667;
88;;;;;;;;;;;;;;;;;;;;;;;;;;;;;;;;;;;;;;;;;;;;;;;;;;;;;;;;;;;;;;;;;;;;;;;;;;;;;;;;;;;;;;;;1,000000;0,333333;0,375000;0,250000;0,250000;0,250000;0,225000;0,225000;0,250000;0,375000;0,291667;0,291667;0,291667;0,291667;0,277778;0,291667;0,291667;0,375000;0,291667;0,291667;0,250000;0,250000;0,250000;0,250000;0,291667;0,291667;0,625000;0,291667;0,375000;0,291667;0,291667;0,291667;
89;;;;;;;;;;;;;;;;;;;;;;;;;;;;;;;;;;;;;;;;;;;;;;;;;;;;;;;;;;;;;;;;;;;;;;;;;;;;;;;;;;;;;;;;;1,000000;0,500000;0,333333;0,375000;0,333333;0,300000;0,300000;0,333333;0,500000;0,388889;0,388889;0,388889;0,388889;0,416667;0,388889;0,388889;0,500000;0,388889;0,388889;0,333333;0,333333;0,333333;0,333333;0,388889;0,388889;0,833333;0,388889;0,500000;0,388889;0,388889;0,388889;
90;;;;;;;;;;;;;;;;;;;;;;;;;;;;;;;;;;;;;;;;;;;;;;;;;;;;;;;;;;;;;;;;;;;;;;;;;;;;;;;;;;;;;;;;;;1,000000;0,375000;0,416667;0,375000;0,350000;0,350000;0,375000;1,000000;0,416667;0,416667;0,416667;0,416667;0,444444;0,416667;0,416667;0,500000;0,416667;0,416667;0,375000;0,375000;0,375000;0,375000;0,416667;0,416667;0,750000;0,416667;0,500000;0,416667;0,416667;0,416667;
91;;;;;;;;;;;;;;;;;;;;;;;;;;;;;;;;;;;;;;;;;;;;;;;;;;;;;;;;;;;;;;;;;;;;;;;;;;;;;;;;;;;;;;;;;;;1,000000;0,710131;0,750000;0,225000;0,225000;0,750000;0,375000;0,291667;0,291667;0,291667;0,291667;0,277778;0,291667;0,291667;0,375000;0,291667;0,291667;0,250000;0,250000;0,250000;0,250000;0,291667;0,291667;0,625000;0,291667;0,375000;0,291667;0,291667;0,291667;
92;;;;;;;;;;;;;;;;;;;;;;;;;;;;;;;;;;;;;;;;;;;;;;;;;;;;;;;;;;;;;;;;;;;;;;;;;;;;;;;;;;;;;;;;;;;;1,000000;0,710131;0,216667;0,216667;0,710092;0,416667;0,305556;0,305556;0,305556;0,305556;0,291667;0,305556;0,305556;0,416667;0,305556;0,305556;0,250000;0,250000;0,250000;0,250000;0,305556;0,305556;0,750000;0,305556;0,416667;0,305556;0,305556;0,305556;
93;;;;;;;;;;;;;;;;;;;;;;;;;;;;;;;;;;;;;;;;;;;;;;;;;;;;;;;;;;;;;;;;;;;;;;;;;;;;;;;;;;;;;;;;;;;;;1,000000;0,225000;0,225000;0,750000;0,375000;0,291667;0,291667;0,291667;0,291667;0,277778;0,291667;0,291667;0,375000;0,291667;0,291667;0,250000;0,250000;0,250000;0,250000;0,291667;0,291667;0,625000;0,291667;0,375000;0,291667;0,291667;0,291667;
94;;;;;;;;;;;;;;;;;;;;;;;;;;;;;;;;;;;;;;;;;;;;;;;;;;;;;;;;;;;;;;;;;;;;;;;;;;;;;;;;;;;;;;;;;;;;;;1,000000;0,800000;0,225000;0,350000;0,533333;0,533333;0,266667;0,266667;0,244444;0,266667;0,266667;0,350000;0,266667;0,266667;0,225000;0,225000;0,225000;0,225000;0,266667;0,266667;0,600000;0,800000;0,350000;0,266667;0,266667;0,266667;
95;;;;;;;;;;;;;;;;;;;;;;;;;;;;;;;;;;;;;;;;;;;;;;;;;;;;;;;;;;;;;;;;;;;;;;;;;;;;;;;;;;;;;;;;;;;;;;;1,000000;0,225000;0,350000;0,533333;0,533333;0,266667;0,266667;0,244444;0,266667;0,266667;0,350000;0,266667;0,266667;0,225000;0,225000;0,225000;0,225000;0,266667;0,266667;0,600000;0,800000;0,350000;0,266667;0,266667;0,266667;
96;;;;;;;;;;;;;;;;;;;;;;;;;;;;;;;;;;;;;;;;;;;;;;;;;;;;;;;;;;;;;;;;;;;;;;;;;;;;;;;;;;;;;;;;;;;;;;;;1,000000;0,375000;0,291667;0,291667;0,291667;0,291667;0,277778;0,291667;0,291667;0,375000;0,291667;0,291667;0,250000;0,250000;0,250000;0,250000;0,291667;0,291667;0,625000;0,291667;0,375000;0,291667;0,291667;0,291667;
97;;;;;;;;;;;;;;;;;;;;;;;;;;;;;;;;;;;;;;;;;;;;;;;;;;;;;;;;;;;;;;;;;;;;;;;;;;;;;;;;;;;;;;;;;;;;;;;;;1,000000;0,416667;0,416667;0,416667;0,416667;0,444444;0,416667;0,416667;0,500000;0,416667;0,416667;0,375000;0,375000;0,375000;0,375000;0,416667;0,416667;0,750000;0,416667;0,500000;0,416667;0,416667;0,416667;
98;;;;;;;;;;;;;;;;;;;;;;;;;;;;;;;;;;;;;;;;;;;;;;;;;;;;;;;;;;;;;;;;;;;;;;;;;;;;;;;;;;;;;;;;;;;;;;;;;;1,000000;0,666667;0,333333;0,333333;0,333333;0,333333;0,333333;0,416667;0,333333;0,333333;0,291667;0,291667;0,291667;0,291667;0,333333;0,333333;0,666667;0,666667;0,416667;0,333333;0,333333;0,333333;
99;;;;;;;;;;;;;;;;;;;;;;;;;;;;;;;;;;;;;;;;;;;;;;;;;;;;;;;;;;;;;;;;;;;;;;;;;;;;;;;;;;;;;;;;;;;;;;;;;;;1,000000;0,333333;0,333333;0,333333;0,333333;0,333333;0,416667;0,333333;0,333333;0,291667;0,291667;0,291667;0,291667;0,333333;0,333333;0,666667;0,666667;0,416667;0,333333;0,333333;0,333333;
100;;;;;;;;;;;;;;;;;;;;;;;;;;;;;;;;;;;;;;;;;;;;;;;;;;;;;;;;;;;;;;;;;;;;;;;;;;;;;;;;;;;;;;;;;;;;;;;;;;;;1,000000;0,666667;0,333333;0,333333;0,333333;0,833333;0,333333;0,333333;0,291667;0,291667;0,291667;0,291667;0,333333;0,333333;0,666667;0,333333;0,416667;0,333333;0,333333;0,333333;
101;;;;;;;;;;;;;;;;;;;;;;;;;;;;;;;;;;;;;;;;;;;;;;;;;;;;;;;;;;;;;;;;;;;;;;;;;;;;;;;;;;;;;;;;;;;;;;;;;;;;;1,000000;0,333333;0,333333;0,333333;0,833333;0,333333;0,333333;0,291667;0,291667;0,291667;0,291667;0,333333;0,333333;0,666667;0,333333;0,416667;0,333333;0,333333;0,333333;
102;;;;;;;;;;;;;;;;;;;;;;;;;;;;;;;;;;;;;;;;;;;;;;;;;;;;;;;;;;;;;;;;;;;;;;;;;;;;;;;;;;;;;;;;;;;;;;;;;;;;;;1,000000;0,614819;0,614819;0,444444;0,614819;0,614819;0,277778;0,277778;0,277778;0,277778;0,333333;0,333333;0,777778;0,333333;0,444444;0,333333;0,333333;0,333333;
103;;;;;;;;;;;;;;;;;;;;;;;;;;;;;;;;;;;;;;;;;;;;;;;;;;;;;;;;;;;;;;;;;;;;;;;;;;;;;;;;;;;;;;;;;;;;;;;;;;;;;;;1,000000;0,666667;0,416667;0,666667;0,666667;0,291667;0,291667;0,291667;0,291667;0,333333;0,333333;0,666667;0,333333;0,416667;0,333333;0,333333;0,333333;
104;;;;;;;;;;;;;;;;;;;;;;;;;;;;;;;;;;;;;;;;;;;;;;;;;;;;;;;;;;;;;;;;;;;;;;;;;;;;;;;;;;;;;;;;;;;;;;;;;;;;;;;;1,000000;0,416667;0,666667;0,666667;0,291667;0,291667;0,291667;0,291667;0,333333;0,333333;0,666667;0,333333;0,416667;0,333333;0,333333;0,333333;
105;;;;;;;;;;;;;;;;;;;;;;;;;;;;;;;;;;;;;;;;;;;;;;;;;;;;;;;;;;;;;;;;;;;;;;;;;;;;;;;;;;;;;;;;;;;;;;;;;;;;;;;;;1,000000;0,416667;0,416667;0,375000;0,375000;0,375000;0,375000;0,416667;0,416667;0,750000;0,416667;0,500000;0,416667;0,416667;0,416667;
106;;;;;;;;;;;;;;;;;;;;;;;;;;;;;;;;;;;;;;;;;;;;;;;;;;;;;;;;;;;;;;;;;;;;;;;;;;;;;;;;;;;;;;;;;;;;;;;;;;;;;;;;;;1,000000;0,666667;0,291667;0,291667;0,291667;0,291667;0,333333;0,333333;0,666667;0,333333;0,416667;0,333333;0,333333;0,333333;
107;;;;;;;;;;;;;;;;;;;;;;;;;;;;;;;;;;;;;;;;;;;;;;;;;;;;;;;;;;;;;;;;;;;;;;;;;;;;;;;;;;;;;;;;;;;;;;;;;;;;;;;;;;;1,000000;0,291667;0,291667;0,291667;0,291667;0,333333;0,333333;0,666667;0,333333;0,416667;0,333333;0,333333;0,333333;
108;;;;;;;;;;;;;;;;;;;;;;;;;;;;;;;;;;;;;;;;;;;;;;;;;;;;;;;;;;;;;;;;;;;;;;;;;;;;;;;;;;;;;;;;;;;;;;;;;;;;;;;;;;;;1,000000;0,750000;0,750000;0,750000;0,291667;0,291667;0,625000;0,291667;0,375000;0,291667;0,291667;0,291667;
109;;;;;;;;;;;;;;;;;;;;;;;;;;;;;;;;;;;;;;;;;;;;;;;;;;;;;;;;;;;;;;;;;;;;;;;;;;;;;;;;;;;;;;;;;;;;;;;;;;;;;;;;;;;;;1,000000;0,750000;0,750000;0,291667;0,291667;0,625000;0,291667;0,375000;0,291667;0,291667;0,291667;
110;;;;;;;;;;;;;;;;;;;;;;;;;;;;;;;;;;;;;;;;;;;;;;;;;;;;;;;;;;;;;;;;;;;;;;;;;;;;;;;;;;;;;;;;;;;;;;;;;;;;;;;;;;;;;;1,000000;0,750000;0,291667;0,291667;0,625000;0,291667;0,375000;0,291667;0,291667;0,291667;
111;;;;;;;;;;;;;;;;;;;;;;;;;;;;;;;;;;;;;;;;;;;;;;;;;;;;;;;;;;;;;;;;;;;;;;;;;;;;;;;;;;;;;;;;;;;;;;;;;;;;;;;;;;;;;;;1,000000;0,291667;0,291667;0,625000;0,291667;0,375000;0,291667;0,291667;0,291667;
112;;;;;;;;;;;;;;;;;;;;;;;;;;;;;;;;;;;;;;;;;;;;;;;;;;;;;;;;;;;;;;;;;;;;;;;;;;;;;;;;;;;;;;;;;;;;;;;;;;;;;;;;;;;;;;;;1,000000;0,333333;0,666667;0,333333;0,833333;0,333333;0,333333;0,333333;
113;;;;;;;;;;;;;;;;;;;;;;;;;;;;;;;;;;;;;;;;;;;;;;;;;;;;;;;;;;;;;;;;;;;;;;;;;;;;;;;;;;;;;;;;;;;;;;;;;;;;;;;;;;;;;;;;;1,000000;0,666667;0,333333;0,416667;0,333333;0,333333;0,333333;
114;;;;;;;;;;;;;;;;;;;;;;;;;;;;;;;;;;;;;;;;;;;;;;;;;;;;;;;;;;;;;;;;;;;;;;;;;;;;;;;;;;;;;;;;;;;;;;;;;;;;;;;;;;;;;;;;;;1,000000;0,666667;0,750000;0,666667;0,666667;0,666667;
115;;;;;;;;;;;;;;;;;;;;;;;;;;;;;;;;;;;;;;;;;;;;;;;;;;;;;;;;;;;;;;;;;;;;;;;;;;;;;;;;;;;;;;;;;;;;;;;;;;;;;;;;;;;;;;;;;;;1,000000;0,416667;0,333333;0,333333;0,333333;
116;;;;;;;;;;;;;;;;;;;;;;;;;;;;;;;;;;;;;;;;;;;;;;;;;;;;;;;;;;;;;;;;;;;;;;;;;;;;;;;;;;;;;;;;;;;;;;;;;;;;;;;;;;;;;;;;;;;;1,000000;0,416667;0,416667;0,416667;
117;;;;;;;;;;;;;;;;;;;;;;;;;;;;;;;;;;;;;;;;;;;;;;;;;;;;;;;;;;;;;;;;;;;;;;;;;;;;;;;;;;;;;;;;;;;;;;;;;;;;;;;;;;;;;;;;;;;;;1,000000;0,666667;0,666667;
118;;;;;;;;;;;;;;;;;;;;;;;;;;;;;;;;;;;;;;;;;;;;;;;;;;;;;;;;;;;;;;;;;;;;;;;;;;;;;;;;;;;;;;;;;;;;;;;;;;;;;;;;;;;;;;;;;;;;;;1,000000;0,666667;
119;;;;;;;;;;;;;;;;;;;;;;;;;;;;;;;;;;;;;;;;;;;;;;;;;;;;;;;;;;;;;;;;;;;;;;;;;;;;;;;;;;;;;;;;;;;;;;;;;;;;;;;;;;;;;;;;;;;;;;;1,000000;
