;1; 2; 3; 4; 5; 6; 7; 8; 9; 10; 11; 12; 13; 14; 15; 16; 17; 18; 19; 20; 21; 22; 23; 24; 25; 26; 27; 28; 29; 30; 31; 32; 33; 34; 35; 36; 37; 38; 39; 40; 41; 42; 43; 44; 45; 46; 47; 48; 49; 50; 51; 52; 53; 54; 55; 56; 57; 58; 59; 60; 61; 62; 63; 64; 65; 66; 67; 68; 69; 70; 71; 72; 73; 74; 75; 76; 77; 78; 79; 80; 81; 82; 83; 84; 85; 86; 87; 88
1;1,000000;0,632661;0,757386;0,654773;0,706632;0,527853;0,497872;0,557047;0,554438;0,550818;0,743723;0,657467;0,329759;0,356955;0,634189;0,742938;0,252571;0,301867;0,252571;0,254821;0,389759;0,389759;0,437915;0,389759;0,335354;0,571082;0,501911;0,588477;0,453016;0,414370;0,254821;0,327738;0,325434;0,330349;0,231832;0,263682;0,262878;0,231832;0,205905;0,327738;0,000000;0,491229;0,330349;0,252571;0,308277;0,742938;0,581092;0,968578;0,696895;0,485905;0,604319;0,352312;0,485905;0,485905;0,657467;0,485905;0,363720;0,973745;0,252571;0,254821;0,252571;0,205905;0,205905;0,205905;0,252571;0,252571;0,645198;0,330349;0,657467;0,252571;0,722850;0,722850;0,211071;0,211071;0,211071;0,205905;0,205905;0,205905;0,000000;0,000000;0,000000;0,391731;0,391731;0,391731;0,391731;0,643113;0,485905;0,485905;
2;;1,000000;0,756676;0,639260;0,685492;0,521256;0,498230;0,628780;0,560034;0,636170;0,736211;0,658134;0,423103;0,444716;0,627754;0,742498;0,499072;0,460627;0,499072;0,501159;0,396067;0,396067;0,540895;0,396067;0,398975;0,702128;0,742331;0,841331;0,480492;0,440910;0,501159;0,972365;0,332184;0,332928;0,229202;0,263449;0,262457;0,229202;0,203516;0,332546;0,000000;0,649255;0,332928;0,499072;0,313087;0,742498;0,786020;0,494693;0,706075;0,980332;0,554422;0,425908;0,494693;0,494693;0,659488;0,494693;0,374801;0,657811;0,252045;0,253974;0,252045;0,399310;0,399310;0,399310;0,252045;0,252045;0,984618;0,332928;0,660836;0,252045;0,497724;0,497724;0,309088;0,309088;0,309088;0,398321;0,203516;0,203516;0,000000;0,000000;0,000000;0,201471;0,201471;0,201471;0,201471;0,332928;0,494693;0,494693;
3;;;1,000000;0,739133;0,755202;0,555516;0,529409;0,833932;0,563390;0,565134;0,919759;0,641887;0,350451;0,366849;0,582354;1,000000;0,276786;0,340617;0,276786;0,292857;0,262857;0,262857;0,665488;0,262857;0,278571;0,573303;0,516887;0,342857;0,418367;0,395451;0,292857;0,342857;0,345238;0,339286;0,277093;0,307746;0,313597;0,277093;0,239286;0,342857;0,000000;0,732107;0,339286;0,276786;0,334821;1,000000;0,000000;0,891887;0,567784;0,464286;0,345238;0,496962;0,464286;0,464286;0,945501;0,464286;0,368483;0,641887;0,276786;0,292857;0,276786;0,239286;0,239286;0,239286;0,276786;0,276786;0,625000;0,339286;0,641887;0,276786;0,516248;0,516248;0,262857;0,262857;0,262857;0,239286;0,239286;0,239286;0,000000;0,000000;0,000000;0,000000;0,000000;0,000000;0,000000;0,339286;0,464286;0,464286;
4;;;;1,000000;0,671652;0,707401;0,744325;0,635915;0,659585;0,649847;0,742656;0,662415;0,642595;0,572195;0,631882;0,746277;0,745476;0,661553;0,744790;0,739888;0,792316;0,792316;0,692362;0,792316;0,788623;0,705026;0,745803;0,620428;0,497829;0,549528;0,739888;0,659830;0,660536;0,663852;0,774983;0,725438;0,732603;0,774983;0,799269;0,660204;0,993630;0,621175;0,666215;0,744790;0,714996;0,746277;0,793905;0,497494;0,520791;0,499091;0,654587;0,667980;0,500000;0,500000;0,663274;0,498420;0,615436;0,662489;0,747988;0,748747;0,747988;0,793849;0,793849;0,793849;0,747988;0,747988;0,663380;0,666215;0,663390;0,747743;0,744322;0,744322;0,795558;0,795558;0,795558;0,796615;0,798681;0,798681;0,000000;0,000000;0,000000;0,201529;0,201529;0,201529;0,201529;0,665168;0,500000;0,500000;
5;;;;;1,000000;0,505697;0,488428;0,679609;0,495590;0,526253;0,752547;0,646020;0,315102;0,333114;0,501050;0,742637;0,251361;0,288144;0,251361;0,252450;0,212450;0,212450;0,526377;0,212450;0,216977;0,557881;0,497871;0,240973;0,420750;0,383510;0,252450;0,319117;0,313947;0,325435;0,231432;0,259413;0,257775;0,231432;0,206917;0,319117;0,000000;0,673612;0,325435;0,251361;0,298795;0,742637;0,209841;0,942316;0,544246;0,473583;0,313947;0,397392;0,473583;0,473583;0,964859;0,473583;0,347758;0,646020;0,251361;0,252450;0,251361;0,206917;0,206917;0,206917;0,251361;0,251361;0,631109;0,325435;0,646020;0,251361;0,494924;0,494924;0,212450;0,212450;0,212450;0,206917;0,206917;0,206917;0,000000;0,000000;0,000000;0,209841;0,209841;0,209841;0,209841;0,325435;0,473583;0,473583;
6;;;;;;1,000000;0,502124;0,559336;0,807578;0,545141;0,403872;0,649264;0,325456;0,345217;0,570379;0,503431;0,255916;0,451997;0,704917;0,577074;0,385241;0,385241;0,532410;0,385241;0,438422;0,566097;0,728550;0,369395;0,426302;0,391812;0,577074;0,325333;0,497512;0,328833;0,240083;0,270044;0,270735;0,240083;0,212166;0,325333;0,000000;0,312624;0,328833;0,704917;0,307949;0,503431;0,216667;0,940931;0,555849;0,474666;0,322533;0,304773;0,474666;0,474666;0,649264;0,474666;0,633698;0,649264;0,255916;0,260518;0,255916;0,753048;0,753048;0,753048;0,255916;0,255916;0,000000;0,328833;0,649264;0,255916;0,255916;0,255916;0,316268;0,316268;0,316268;0,393571;0,212166;0,212166;0,000000;0,000000;0,000000;0,000000;0,000000;0,000000;0,000000;0,328833;0,474666;0,474666;
7;;;;;;;1,000000;0,557045;0,496650;0,697858;0,417648;0,901261;0,402235;0,407272;0,762327;0,497818;0,472677;0,480745;0,472677;0,498490;0,232470;0,232470;0,447370;0,232470;0,333283;0,804832;0,712882;0,312470;0,374957;0,347971;0,498490;0,556283;0,307254;0,320294;0,246706;0,269762;0,270187;0,246706;0,220294;0,312470;0,000000;0,297619;0,320294;0,472677;0,296837;0,497818;0,000000;0,872818;0,655761;0,445294;0,476472;0,423810;0,445294;0,445294;0,622818;0,445294;0,330499;0,622818;0,257794;0,262470;0,257794;0,398514;0,398514;0,398514;0,257794;0,257794;0,000000;0,320294;0,900382;0,257794;0,257794;0,257794;0,642647;0,642647;0,642647;0,737687;0,737687;0,737687;0,000000;0,000000;0,000000;0,000000;0,000000;0,000000;0,000000;0,320294;0,445294;0,445294;
8;;;;;;;;1,000000;0,535494;0,618323;0,715045;0,666667;0,337886;0,357392;0,728093;0,778413;0,263889;0,321621;0,263889;0,273810;0,366075;0,366075;0,771452;0,366075;0,317385;0,602719;0,527778;0,764876;0,425926;0,396316;0,273810;0,333333;0,333333;0,333333;0,255043;0,286468;0,290113;0,255043;0,222222;0,333333;0,000000;0,630557;0,333333;0,263889;0,320312;0,778413;0,800000;0,944444;0,638941;0,472222;0,333333;0,367966;0,472222;0,472222;0,986747;0,472222;0,362390;0,666667;0,263889;0,273810;0,263889;0,222222;0,222222;0,222222;0,263889;0,263889;0,602066;0,333333;0,666667;0,263889;0,514996;0,514996;0,238095;0,238095;0,238095;0,222222;0,222222;0,222222;0,000000;0,000000;0,000000;0,200000;0,200000;0,200000;0,200000;0,333333;0,472222;0,472222;
9;;;;;;;;;1,000000;0,644119;0,382977;0,660650;0,691192;0,615949;0,600289;0,501559;0,731705;0,556744;0,732360;0,717749;0,210040;0,210040;0,474287;0,210040;0,214432;0,698987;0,740864;0,366530;0,470473;0,431637;0,717749;0,645009;0,537536;0,332521;0,231704;0,265488;0,265124;0,231704;0,205248;0,331779;0,000000;0,248985;0,970341;0,732360;0,440828;0,501559;0,206061;0,978832;0,563807;0,969691;0,627143;0,521267;0,491612;0,491612;0,660650;0,969552;0,707769;0,660650;0,252975;0,255692;0,252975;0,205248;0,205248;0,205248;0,252975;0,252975;0,000000;0,970341;0,660650;0,252975;0,493204;0,493204;0,309313;0,309313;0,309313;0,396963;0,205248;0,205248;0,000000;0,000000;0,000000;0,206061;0,206061;0,206061;0,206061;0,972325;0,491612;0,491612;
10;;;;;;;;;;1,000000;0,416502;0,651473;0,517231;0,553535;0,879151;0,508616;0,523810;0,535212;0,523810;0,452210;0,233333;0,233333;0,459938;0,233333;0,244444;0,756961;0,770075;0,333333;0,433333;0,402041;0,452210;0,666667;0,333333;0,333333;0,251129;0,283344;0,286656;0,251129;0,219048;0,333333;0,000000;0,283333;0,333333;0,523810;0,319444;0,508616;0,000000;0,937187;0,770171;0,476190;0,597048;0,564294;0,476190;0,476190;0,651473;0,476190;0,364327;0,651473;0,261905;0,270833;0,261905;0,219048;0,219048;0,219048;0,261905;0,261905;0,000000;0,333333;0,984360;0,261905;0,261905;0,261905;0,233333;0,233333;0,233333;0,219048;0,219048;0,219048;0,000000;0,000000;0,000000;0,000000;0,000000;0,000000;0,000000;0,333333;0,476190;0,476190;
11;;;;;;;;;;;1,000000;0,567300;0,280509;0,284066;0,504461;0,955421;0,250000;0,264391;0,250000;0,250000;0,225000;0,225000;0,649778;0,225000;0,230000;0,472853;0,456189;0,241409;0,333333;0,309799;0,250000;0,291667;0,283333;0,305556;0,236863;0,253340;0,251846;0,236863;0,216667;0,291667;0,000000;0,736083;0,305556;0,250000;0,275000;0,955421;0,216667;0,789522;0,448348;0,416667;0,283333;0,444902;0,416667;0,416667;0,872388;0,416667;0,301930;0,567300;0,250000;0,250000;0,250000;0,216667;0,216667;0,216667;0,250000;0,250000;0,876671;0,305556;0,567300;0,250000;0,452382;0,452382;0,225000;0,225000;0,225000;0,216667;0,216667;0,216667;0,000000;0,000000;0,000000;0,216667;0,216667;0,216667;0,216667;0,305556;0,416667;0,416667;
12;;;;;;;;;;;;1,000000;0,334972;0,340895;0,973765;0,583333;0,291667;0,622512;0,291667;0,572125;0,288889;0,288889;0,622795;0,288889;0,568128;0,913635;0,583333;0,333333;0,366667;0,354327;0,572125;0,333333;0,333333;0,333333;0,296798;0,314587;0,317774;0,296798;0,266667;0,333333;0,000000;0,316667;0,333333;0,291667;0,328125;0,583333;0,000000;0,833333;0,642006;0,416667;0,333333;0,329459;0,416667;0,416667;0,666667;0,416667;0,344956;0,666667;0,291667;0,305556;0,291667;0,533333;0,533333;0,533333;0,291667;0,291667;0,000000;0,333333;0,666667;0,291667;0,291667;0,291667;0,288889;0,288889;0,288889;0,266667;0,266667;0,266667;0,000000;0,000000;0,000000;0,000000;0,000000;0,000000;0,000000;0,333333;0,416667;0,416667;
13;;;;;;;;;;;;;1,000000;0,647000;0,458930;0,268305;0,751345;0,412068;0,483521;0,393019;0,247176;0,247176;0,322251;0,247176;0,260655;0,423630;0,483521;0,336065;0,420764;0,393870;0,393019;0,583647;0,336845;0,334972;0,262994;0,293997;0,298532;0,262994;0,228305;0,336065;0,000000;0,000000;0,669944;0,483521;0,553675;0,268305;0,000000;0,468305;0,504176;0,468305;0,500253;0,444885;0,468305;0,468305;0,334972;0,936611;0,363411;0,334972;0,268305;0,280509;0,268305;0,228305;0,228305;0,228305;0,268305;0,268305;0,000000;0,669944;0,616855;0,268305;0,268305;0,268305;0,247176;0,247176;0,247176;0,228305;0,228305;0,228305;0,000000;0,000000;0,000000;0,000000;0,000000;0,000000;0,000000;0,334972;0,468305;0,468305;
14;;;;;;;;;;;;;;1,000000;0,486091;0,269466;0,741679;0,422080;0,491486;0,395644;0,246566;0,246566;0,339799;0,246566;0,262087;0,430082;0,491486;0,346566;0,454505;0,426100;0,395644;0,610101;0,350976;0,340895;0,264361;0,300987;0,307827;0,264361;0,226609;0,346566;0,000000;0,000000;0,662334;0,491486;0,337087;0,269466;0,000000;0,483752;0,526202;0,483752;0,521626;0,461446;0,483752;0,483752;0,340895;0,483752;0,381970;0,340895;0,495457;0,492050;0,495457;0,226609;0,226609;0,226609;0,495457;0,495457;0,000000;0,662334;0,634343;0,269466;0,269466;0,269466;0,246566;0,246566;0,246566;0,226609;0,226609;0,226609;0,000000;0,000000;0,000000;0,000000;0,000000;0,000000;0,000000;0,340895;0,483752;0,483752;
15;;;;;;;;;;;;;;;1,000000;0,511974;0,505658;0,518425;0,505658;0,522138;0,389438;0,389438;0,621531;0,389438;0,399968;0,878421;0,760018;0,716779;0,452381;0,417310;0,522138;0,649262;0,333333;0,333333;0,241995;0,275653;0,277764;0,241995;0,212121;0,333333;0,000000;0,594453;0,333333;0,505658;0,317308;0,511974;0,794610;0,966519;0,835114;0,484848;0,562238;0,400656;0,484848;0,484848;0,663489;0,484848;0,369095;0,957696;0,257576;0,263889;0,257576;0,401372;0,401372;0,401372;0,257576;0,257576;0,321212;0,333333;0,987291;0,257576;0,257576;0,257576;0,222222;0,222222;0,222222;0,212121;0,212121;0,212121;0,000000;0,000000;0,000000;0,200000;0,200000;0,200000;0,200000;0,333333;0,484848;0,484848;
16;;;;;;;;;;;;;;;;1,000000;0,250000;0,258224;0,250000;0,250000;0,233333;0,233333;0,704637;0,233333;0,237500;0,525714;0,500000;0,277778;0,300000;0,284883;0,250000;0,277778;0,270833;0,291667;0,241242;0,252087;0,251107;0,241242;0,225000;0,277778;0,000000;0,741650;0,291667;0,250000;0,265625;1,000000;0,000000;0,750000;0,517006;0,375000;0,270833;0,480596;0,375000;0,375000;0,875000;0,375000;0,282456;0,583333;0,250000;0,250000;0,250000;0,225000;0,225000;0,225000;0,250000;0,250000;0,583333;0,291667;0,583333;0,250000;0,500000;0,500000;0,233333;0,233333;0,233333;0,225000;0,225000;0,225000;0,000000;0,000000;0,000000;0,000000;0,000000;0,000000;0,000000;0,291667;0,375000;0,375000;
17;;;;;;;;;;;;;;;;;1,000000;0,486251;0,500000;0,460242;0,233333;0,233333;0,256191;0,233333;0,237500;0,475547;0,500000;0,277778;0,300000;0,284883;0,460242;0,555556;0,270833;0,291667;0,241242;0,252087;0,251107;0,241242;0,225000;0,277778;0,000000;0,000000;0,875000;0,500000;0,489160;0,250000;0,000000;0,375000;0,517276;0,375000;0,515560;0,496497;0,375000;0,375000;0,291667;0,750000;0,282456;0,291667;0,250000;0,250000;0,250000;0,225000;0,225000;0,225000;0,250000;0,250000;0,000000;0,875000;0,583333;0,250000;0,250000;0,250000;0,233333;0,233333;0,233333;0,225000;0,225000;0,225000;0,000000;0,000000;0,000000;0,000000;0,000000;0,000000;0,000000;0,291667;0,375000;0,375000;
18;;;;;;;;;;;;;;;;;;1,000000;0,714584;0,713349;0,226891;0,226891;0,300451;0,226891;0,300868;0,546458;0,486251;0,326891;0,423026;0,490925;0,713349;0,600940;0,541773;0,632257;0,244687;0,274755;0,276348;0,244687;0,215366;0,326891;0,000000;0,000000;0,329652;0,714584;0,310855;0,258224;0,000000;0,472509;0,513987;0,472509;0,509411;0,444790;0,472509;0,472509;0,329652;0,472509;0,558436;0,329652;0,258224;0,264391;0,258224;0,393940;0,393940;0,393940;0,258224;0,258224;0,000000;0,329652;0,629108;0,258224;0,258224;0,258224;0,226891;0,226891;0,226891;0,215366;0,215366;0,215366;0,000000;0,000000;0,000000;0,000000;0,000000;0,000000;0,000000;0,329652;0,472509;0,472509;
19;;;;;;;;;;;;;;;;;;;1,000000;0,709137;0,233333;0,233333;0,256191;0,233333;0,237500;0,475547;0,500000;0,277778;0,300000;0,284883;0,916667;0,555556;0,516274;0,291667;0,241242;0,252087;0,251107;0,241242;0,225000;0,277778;0,000000;0,000000;0,291667;0,750000;0,265625;0,250000;0,000000;0,375000;0,517276;0,375000;0,515560;0,496497;0,375000;0,375000;0,291667;0,375000;0,564912;0,291667;0,250000;0,250000;0,250000;0,225000;0,225000;0,225000;0,250000;0,250000;0,000000;0,291667;0,583333;0,250000;0,250000;0,250000;0,233333;0,233333;0,233333;0,225000;0,225000;0,225000;0,000000;0,000000;0,000000;0,000000;0,000000;0,000000;0,000000;0,291667;0,375000;0,375000;
20;;;;;;;;;;;;;;;;;;;;1,000000;0,225000;0,225000;0,260834;0,225000;0,338829;0,539342;0,460242;0,291667;0,333333;0,309799;0,750000;0,523696;0,526038;0,305556;0,236863;0,253340;0,251846;0,236863;0,216667;0,291667;0,000000;0,000000;0,305556;0,916667;0,275000;0,250000;0,000000;0,416667;0,456076;0,416667;0,453330;0,408798;0,416667;0,416667;0,305556;0,416667;0,603859;0,305556;0,250000;0,250000;0,250000;0,394347;0,394347;0,394347;0,250000;0,250000;0,000000;0,305556;0,571353;0,250000;0,250000;0,250000;0,225000;0,225000;0,225000;0,216667;0,216667;0,216667;0,000000;0,000000;0,000000;0,000000;0,000000;0,000000;0,000000;0,305556;0,416667;0,416667;
21;;;;;;;;;;;;;;;;;;;;;1,000000;0,800000;0,753386;0,800000;0,734745;0,244285;0,233333;0,371873;0,300000;0,274085;0,225000;0,266667;0,253333;0,288889;0,211863;0,223340;0,218512;0,211863;0,200000;0,266667;0,000000;0,200000;0,288889;0,233333;0,245000;0,233333;0,200000;0,400000;0,481363;0,400000;0,253333;0,231454;0,400000;0,400000;0,288889;0,400000;0,271930;0,288889;0,233333;0,225000;0,233333;0,400000;0,400000;0,400000;0,233333;0,233333;0,000000;0,288889;0,288889;0,233333;0,233333;0,233333;0,200000;0,200000;0,200000;0,200000;0,200000;0,200000;0,000000;0,000000;0,000000;0,000000;0,000000;0,000000;0,000000;0,288889;0,400000;0,400000;
22;;;;;;;;;;;;;;;;;;;;;;1,000000;0,753386;0,800000;0,734745;0,244285;0,233333;0,371873;0,300000;0,274085;0,225000;0,266667;0,253333;0,288889;0,211863;0,223340;0,218512;0,211863;0,200000;0,266667;0,000000;0,200000;0,288889;0,233333;0,245000;0,233333;0,200000;0,400000;0,481363;0,400000;0,253333;0,231454;0,400000;0,400000;0,288889;0,400000;0,271930;0,288889;0,233333;0,225000;0,233333;0,400000;0,400000;0,400000;0,233333;0,233333;0,000000;0,288889;0,288889;0,233333;0,233333;0,233333;0,200000;0,200000;0,200000;0,200000;0,200000;0,200000;0,000000;0,000000;0,000000;0,000000;0,000000;0,000000;0,000000;0,288889;0,400000;0,400000;
23;;;;;;;;;;;;;;;;;;;;;;;1,000000;0,753386;0,630299;0,522747;0,479938;0,698464;0,417334;0,383861;0,260834;0,323334;0,320001;0,327619;0,241129;0,270011;0,270657;0,241129;0,213334;0,323334;0,000000;0,655122;0,327619;0,256191;0,306112;0,704637;0,791922;0,908509;0,498537;0,911334;0,320001;0,305707;0,470477;0,470477;0,918923;0,470477;0,350995;0,900799;0,256191;0,260834;0,256191;0,398606;0,398606;0,398606;0,256191;0,256191;0,606226;0,327619;0,622795;0,256191;0,480327;0,480327;0,223334;0,223334;0,223334;0,213334;0,213334;0,213334;0,000000;0,000000;0,000000;0,200000;0,200000;0,200000;0,200000;0,327619;0,470477;0,470477;
24;;;;;;;;;;;;;;;;;;;;;;;;1,000000;0,734745;0,244285;0,233333;0,371873;0,300000;0,274085;0,225000;0,266667;0,253333;0,288889;0,211863;0,223340;0,218512;0,211863;0,200000;0,266667;0,000000;0,200000;0,288889;0,233333;0,245000;0,233333;0,200000;0,400000;0,481363;0,400000;0,253333;0,231454;0,400000;0,400000;0,288889;0,400000;0,271930;0,288889;0,233333;0,225000;0,233333;0,400000;0,400000;0,400000;0,233333;0,233333;0,000000;0,288889;0,288889;0,233333;0,233333;0,233333;0,200000;0,200000;0,200000;0,200000;0,200000;0,200000;0,000000;0,000000;0,000000;0,000000;0,000000;0,000000;0,000000;0,288889;0,400000;0,400000;
25;;;;;;;;;;;;;;;;;;;;;;;;;1,000000;0,382751;0,237500;0,341871;0,328571;0,297237;0,338829;0,280000;0,266667;0,300000;0,214236;0,229175;0,223802;0,214236;0,200000;0,280000;0,000000;0,200000;0,300000;0,237500;0,256250;0,237500;0,200000;0,425000;0,471232;0,425000;0,266667;0,241283;0,425000;0,425000;0,300000;0,425000;0,289912;0,300000;0,237500;0,230000;0,237500;0,710272;0,710272;0,710272;0,237500;0,237500;0,000000;0,300000;0,300000;0,237500;0,237500;0,237500;0,200000;0,200000;0,200000;0,200000;0,200000;0,200000;0,000000;0,000000;0,000000;0,000000;0,000000;0,000000;0,000000;0,300000;0,425000;0,425000;
26;;;;;;;;;;;;;;;;;;;;;;;;;;1,000000;0,737480;0,310952;0,359047;0,337350;0,539342;0,546654;0,306475;0,318412;0,256149;0,276482;0,277559;0,256149;0,229523;0,310952;0,000000;0,275714;0,318412;0,475547;0,298142;0,525714;0,000000;0,859047;0,711463;0,429523;0,480880;0,441596;0,429523;0,429523;0,636825;0,429523;0,325072;0,636825;0,262857;0,269285;0,262857;0,418748;0,418748;0,418748;0,262857;0,262857;0,000000;0,318412;0,904147;0,262857;0,262857;0,262857;0,244285;0,244285;0,244285;0,229523;0,229523;0,229523;0,000000;0,000000;0,000000;0,000000;0,000000;0,000000;0,000000;0,318412;0,429523;0,429523;
27;;;;;;;;;;;;;;;;;;;;;;;;;;;1,000000;0,277778;0,300000;0,284883;0,460242;0,555556;0,270833;0,291667;0,241242;0,252087;0,251107;0,241242;0,225000;0,277778;0,000000;0,250000;0,291667;0,500000;0,265625;0,500000;0,000000;0,750000;0,739999;0,375000;0,515560;0,496497;0,375000;0,375000;0,583333;0,375000;0,282456;0,583333;0,250000;0,250000;0,250000;0,225000;0,225000;0,225000;0,250000;0,250000;0,000000;0,291667;0,875000;0,250000;0,250000;0,250000;0,233333;0,233333;0,233333;0,225000;0,225000;0,225000;0,000000;0,000000;0,000000;0,000000;0,000000;0,000000;0,000000;0,291667;0,375000;0,375000;
28;;;;;;;;;;;;;;;;;;;;;;;;;;;;1,000000;0,388889;0,369323;0,291667;0,333333;0,333333;0,333333;0,278530;0,303340;0,307401;0,278530;0,244444;0,333333;0,000000;0,764243;0,333333;0,277778;0,325000;0,277778;0,781564;0,444444;0,447611;0,444444;0,333333;0,241559;0,444444;0,444444;0,333333;0,444444;0,351930;0,522913;0,277778;0,291667;0,277778;0,244444;0,244444;0,244444;0,277778;0,277778;0,288889;0,333333;0,333333;0,277778;0,277778;0,277778;0,266667;0,266667;0,266667;0,244444;0,244444;0,244444;0,000000;0,000000;0,000000;0,200000;0,200000;0,200000;0,200000;0,333333;0,444444;0,444444;
29;;;;;;;;;;;;;;;;;;;;;;;;;;;;;1,000000;0,481910;0,333333;0,388889;0,688369;0,733333;0,315818;0,361914;0,377768;0,315818;0,260000;0,388889;0,000000;0,000000;0,366667;0,300000;0,392857;0,300000;0,000000;0,500000;0,462614;0,500000;0,404762;0,415595;0,500000;0,500000;0,366667;0,500000;0,431328;0,366667;0,300000;0,333333;0,300000;0,260000;0,260000;0,260000;0,300000;0,300000;0,000000;0,366667;0,366667;0,300000;0,300000;0,300000;0,300000;0,300000;0,300000;0,260000;0,260000;0,260000;0,000000;0,000000;0,000000;0,000000;0,000000;0,000000;0,000000;0,366667;0,500000;0,500000;
30;;;;;;;;;;;;;;;;;;;;;;;;;;;;;;1,000000;0,309799;0,369323;0,489287;0,646421;0,291033;0,333705;0,346098;0,291033;0,243216;0,369323;0,000000;0,000000;0,354327;0,284883;0,367549;0,284883;0,000000;0,493216;0,443846;0,493216;0,380570;0,384693;0,493216;0,493216;0,354327;0,493216;0,594918;0,354327;0,284883;0,309799;0,284883;0,243216;0,243216;0,243216;0,284883;0,284883;0,000000;0,354327;0,354327;0,284883;0,284883;0,284883;0,274085;0,274085;0,274085;0,243216;0,243216;0,243216;0,000000;0,000000;0,000000;0,000000;0,000000;0,000000;0,000000;0,354327;0,493216;0,493216;
31;;;;;;;;;;;;;;;;;;;;;;;;;;;;;;;1,000000;0,523696;0,526038;0,305556;0,236863;0,253340;0,251846;0,236863;0,216667;0,291667;0,000000;0,000000;0,305556;0,709137;0,275000;0,250000;0,000000;0,416667;0,456076;0,416667;0,453330;0,408798;0,416667;0,416667;0,305556;0,416667;0,603859;0,305556;0,250000;0,250000;0,250000;0,394347;0,394347;0,394347;0,250000;0,250000;0,000000;0,305556;0,571353;0,250000;0,250000;0,250000;0,225000;0,225000;0,225000;0,216667;0,216667;0,216667;0,000000;0,000000;0,000000;0,000000;0,000000;0,000000;0,000000;0,305556;0,416667;0,416667;
32;;;;;;;;;;;;;;;;;;;;;;;;;;;;;;;;1,000000;0,333333;0,333333;0,278530;0,303340;0,307401;0,278530;0,244444;0,333333;0,000000;0,000000;0,333333;0,555556;0,325000;0,277778;0,000000;0,444444;0,627641;0,444444;0,624895;0,613043;0,444444;0,444444;0,333333;0,444444;0,351930;0,333333;0,277778;0,291667;0,277778;0,244444;0,244444;0,244444;0,277778;0,277778;0,000000;0,333333;0,666667;0,277778;0,277778;0,277778;0,266667;0,266667;0,266667;0,244444;0,244444;0,244444;0,000000;0,000000;0,000000;0,000000;0,000000;0,000000;0,000000;0,333333;0,444444;0,444444;
33;;;;;;;;;;;;;;;;;;;;;;;;;;;;;;;;;1,000000;0,613661;0,267569;0,295841;0,299992;0,267569;0,233333;0,333333;0,000000;0,000000;0,333333;0,516274;0,322917;0,270833;0,000000;0,458333;0,383954;0,458333;0,333333;0,324616;0,458333;0,458333;0,333333;0,458333;0,662372;0,333333;0,270833;0,283333;0,270833;0,233333;0,233333;0,233333;0,270833;0,270833;0,000000;0,333333;0,333333;0,270833;0,270833;0,270833;0,253333;0,253333;0,253333;0,233333;0,233333;0,233333;0,000000;0,000000;0,000000;0,000000;0,000000;0,000000;0,000000;0,333333;0,458333;0,458333;
34;;;;;;;;;;;;;;;;;;;;;;;;;;;;;;;;;;1,000000;0,296798;0,314587;0,317774;0,296798;0,266667;0,333333;0,000000;0,000000;0,333333;0,291667;0,328125;0,291667;0,000000;0,416667;0,358644;0,416667;0,333333;0,329459;0,416667;0,416667;0,333333;0,416667;0,656188;0,333333;0,291667;0,305556;0,291667;0,266667;0,266667;0,266667;0,291667;0,291667;0,000000;0,333333;0,333333;0,291667;0,291667;0,291667;0,288889;0,288889;0,288889;0,266667;0,266667;0,266667;0,000000;0,000000;0,000000;0,000000;0,000000;0,000000;0,000000;0,333333;0,416667;0,416667;
35;;;;;;;;;;;;;;;;;;;;;;;;;;;;;;;;;;;1,000000;0,690262;0,713829;0,777088;0,792362;0,665704;0,554877;0,000000;0,296798;0,241242;0,259236;0,241242;0,000000;0,407909;0,308066;0,407909;0,267569;0,248402;0,407909;0,407909;0,296798;0,407909;0,286166;0,296798;0,241242;0,236863;0,241242;0,207909;0,207909;0,207909;0,241242;0,241242;0,000000;0,296798;0,296798;0,723727;0,241242;0,241242;0,211863;0,211863;0,211863;0,207909;0,207909;0,207909;0,000000;0,000000;0,000000;0,000000;0,000000;0,000000;0,000000;0,296798;0,407909;0,407909;
36;;;;;;;;;;;;;;;;;;;;;;;;;;;;;;;;;;;;1,000000;0,701818;0,690262;0,739905;0,639073;0,625092;0,000000;0,314587;0,252087;0,285425;0,252087;0,000000;0,439587;0,346462;0,439587;0,295841;0,277751;0,439587;0,439587;0,314587;0,439587;0,319086;0,314587;0,252087;0,253340;0,252087;0,214587;0,214587;0,214587;0,252087;0,252087;0,000000;0,314587;0,314587;0,889905;0,252087;0,252087;0,223340;0,223340;0,223340;0,214587;0,214587;0,214587;0,000000;0,000000;0,000000;0,000000;0,000000;0,000000;0,000000;0,314587;0,439587;0,439587;
37;;;;;;;;;;;;;;;;;;;;;;;;;;;;;;;;;;;;;1,000000;0,713829;0,757401;0,626931;0,632511;0,000000;0,317774;0,251107;0,288087;0,251107;0,000000;0,451107;0,357844;0,451107;0,299992;0,279782;0,451107;0,451107;0,317774;0,451107;0,326558;0,317774;0,251107;0,251846;0,251107;0,211107;0,211107;0,211107;0,251107;0,251107;0,000000;0,317774;0,317774;0,717749;0,251107;0,251107;0,218512;0,218512;0,218512;0,211107;0,211107;0,211107;0,000000;0,000000;0,000000;0,000000;0,000000;0,000000;0,000000;0,317774;0,451107;0,451107;
38;;;;;;;;;;;;;;;;;;;;;;;;;;;;;;;;;;;;;;1,000000;0,792362;0,665704;0,554877;0,000000;0,296798;0,241242;0,259236;0,241242;0,000000;0,407909;0,308066;0,407909;0,267569;0,248402;0,407909;0,407909;0,296798;0,407909;0,286166;0,296798;0,241242;0,236863;0,241242;0,207909;0,207909;0,207909;0,241242;0,241242;0,000000;0,296798;0,296798;0,723727;0,241242;0,241242;0,211863;0,211863;0,211863;0,207909;0,207909;0,207909;0,000000;0,000000;0,000000;0,000000;0,000000;0,000000;0,000000;0,296798;0,407909;0,407909;
39;;;;;;;;;;;;;;;;;;;;;;;;;;;;;;;;;;;;;;;1,000000;0,658886;0,533333;0,000000;0,266667;0,225000;0,228125;0,225000;0,000000;0,350000;0,258644;0,350000;0,233333;0,218348;0,350000;0,350000;0,266667;0,350000;0,244956;0,266667;0,225000;0,216667;0,225000;0,200000;0,200000;0,200000;0,225000;0,225000;0,000000;0,266667;0,266667;0,900000;0,225000;0,225000;0,200000;0,200000;0,200000;0,200000;0,200000;0,200000;0,000000;0,000000;0,000000;0,000000;0,000000;0,000000;0,000000;0,266667;0,350000;0,350000;
40;;;;;;;;;;;;;;;;;;;;;;;;;;;;;;;;;;;;;;;;1,000000;0,666667;0,000000;0,333333;0,277778;0,325000;0,277778;0,000000;0,444444;0,373830;0,444444;0,333333;0,326692;0,444444;0,444444;0,333333;0,444444;0,351930;0,333333;0,277778;0,291667;0,277778;0,244444;0,244444;0,244444;0,277778;0,277778;0,000000;0,333333;0,333333;0,480563;0,277778;0,277778;0,266667;0,266667;0,266667;0,244444;0,244444;0,244444;0,000000;0,000000;0,000000;0,000000;0,000000;0,000000;0,000000;0,333333;0,444444;0,444444;
41;;;;;;;;;;;;;;;;;;;;;;;;;;;;;;;;;;;;;;;;;1,000000;0,000000;0,000000;0,000000;0,000000;0,000000;0,000000;0,000000;0,000000;0,000000;0,000000;0,000000;0,000000;0,000000;0,000000;0,000000;0,000000;0,000000;0,000000;0,000000;0,000000;0,000000;0,000000;0,000000;0,000000;0,000000;0,000000;0,000000;0,000000;0,291667;0,000000;0,000000;0,000000;0,000000;0,000000;0,000000;0,000000;0,000000;0,000000;0,000000;0,000000;0,000000;0,000000;0,000000;0,000000;0,000000;0,000000;0,000000;
42;;;;;;;;;;;;;;;;;;;;;;;;;;;;;;;;;;;;;;;;;;1,000000;0,000000;0,000000;0,000000;0,741650;0,800000;0,450000;0,337576;0,000000;0,276190;0,687722;0,000000;0,000000;0,616704;0,000000;0,000000;0,576650;0,000000;0,000000;0,000000;0,000000;0,000000;0,000000;0,000000;0,000000;0,648761;0,000000;0,316667;0,000000;0,449520;0,449520;0,000000;0,000000;0,000000;0,000000;0,000000;0,000000;0,000000;0,000000;0,000000;0,800000;0,800000;0,800000;0,800000;0,306667;0,000000;0,000000;
43;;;;;;;;;;;;;;;;;;;;;;;;;;;;;;;;;;;;;;;;;;;1,000000;0,291667;0,614160;0,291667;0,000000;0,416667;0,358644;0,416667;0,333333;0,329459;0,416667;0,416667;0,333333;0,833333;0,344956;0,333333;0,291667;0,305556;0,291667;0,266667;0,266667;0,266667;0,291667;0,291667;0,000000;1,000000;0,333333;0,291667;0,291667;0,291667;0,288889;0,288889;0,288889;0,266667;0,266667;0,266667;0,000000;0,000000;0,000000;0,000000;0,000000;0,000000;0,000000;0,333333;0,416667;0,416667;
44;;;;;;;;;;;;;;;;;;;;;;;;;;;;;;;;;;;;;;;;;;;;1,000000;0,265625;0,250000;0,000000;0,375000;0,517276;0,375000;0,515560;0,496497;0,375000;0,375000;0,291667;0,375000;0,564912;0,291667;0,250000;0,250000;0,250000;0,225000;0,225000;0,225000;0,250000;0,250000;0,000000;0,291667;0,583333;0,250000;0,250000;0,250000;0,233333;0,233333;0,233333;0,225000;0,225000;0,225000;0,000000;0,000000;0,000000;0,000000;0,000000;0,000000;0,000000;0,291667;0,375000;0,375000;
45;;;;;;;;;;;;;;;;;;;;;;;;;;;;;;;;;;;;;;;;;;;;;1,000000;0,265625;0,000000;0,453125;0,373537;0,453125;0,322917;0,311596;0,453125;0,453125;0,328125;0,864160;0,346162;0,328125;0,713187;0,729283;0,713187;0,228125;0,228125;0,228125;0,713187;0,713187;0,000000;0,614160;0,328125;0,265625;0,265625;0,265625;0,245000;0,245000;0,245000;0,228125;0,228125;0,228125;0,000000;0,000000;0,000000;0,000000;0,000000;0,000000;0,000000;0,328125;0,453125;0,453125;
46;;;;;;;;;;;;;;;;;;;;;;;;;;;;;;;;;;;;;;;;;;;;;;1,000000;0,000000;0,750000;0,517006;0,375000;0,270833;0,480596;0,375000;0,375000;0,875000;0,375000;0,282456;0,583333;0,250000;0,250000;0,250000;0,225000;0,225000;0,225000;0,250000;0,250000;0,583333;0,291667;0,583333;0,250000;0,500000;0,500000;0,233333;0,233333;0,233333;0,225000;0,225000;0,225000;0,000000;0,000000;0,000000;0,000000;0,000000;0,000000;0,000000;0,291667;0,375000;0,375000;
47;;;;;;;;;;;;;;;;;;;;;;;;;;;;;;;;;;;;;;;;;;;;;;;1,000000;0,000000;0,275000;0,000000;0,000000;0,200000;0,000000;0,000000;0,000000;0,000000;0,000000;0,266667;0,000000;0,000000;0,000000;0,000000;0,000000;0,000000;0,000000;0,000000;0,266667;0,000000;0,000000;0,000000;0,000000;0,000000;0,000000;0,000000;0,000000;0,000000;0,000000;0,000000;0,000000;0,000000;0,000000;0,200000;0,200000;0,200000;0,200000;0,000000;0,000000;0,000000;
48;;;;;;;;;;;;;;;;;;;;;;;;;;;;;;;;;;;;;;;;;;;;;;;;1,000000;0,892006;0,500000;0,458333;0,468348;0,500000;0,500000;0,833333;0,500000;0,469956;0,833333;0,375000;0,416667;0,375000;0,350000;0,350000;0,350000;0,375000;0,375000;0,000000;0,416667;0,833333;0,375000;0,375000;0,375000;0,400000;0,400000;0,400000;0,350000;0,350000;0,350000;0,000000;0,000000;0,000000;0,000000;0,000000;0,000000;0,000000;0,416667;0,500000;0,500000;
49;;;;;;;;;;;;;;;;;;;;;;;;;;;;;;;;;;;;;;;;;;;;;;;;;1,000000;0,483644;0,565670;0,535308;0,483644;0,483644;0,642006;0,483644;0,407199;0,642006;0,296144;0,323830;0,296144;0,258644;0,258644;0,258644;0,296144;0,296144;0,000000;0,358644;0,927499;0,296144;0,296144;0,296144;0,293830;0,293830;0,293830;0,258644;0,258644;0,258644;0,000000;0,000000;0,000000;0,000000;0,000000;0,000000;0,000000;0,358644;0,483644;0,483644;
50;;;;;;;;;;;;;;;;;;;;;;;;;;;;;;;;;;;;;;;;;;;;;;;;;;1,000000;0,458333;0,468348;0,500000;0,500000;0,416667;0,500000;0,469956;0,416667;0,375000;0,416667;0,375000;0,350000;0,350000;0,350000;0,375000;0,375000;0,000000;0,416667;0,416667;0,375000;0,375000;0,375000;0,400000;0,400000;0,400000;0,350000;0,350000;0,350000;0,000000;0,000000;0,000000;0,000000;0,000000;0,000000;0,000000;0,416667;0,500000;0,500000;
51;;;;;;;;;;;;;;;;;;;;;;;;;;;;;;;;;;;;;;;;;;;;;;;;;;;1,000000;0,626471;0,458333;0,458333;0,333333;0,458333;0,356579;0,333333;0,270833;0,283333;0,270833;0,233333;0,233333;0,233333;0,270833;0,270833;0,000000;0,333333;0,640560;0,270833;0,541667;0,541667;0,253333;0,253333;0,253333;0,233333;0,233333;0,233333;0,000000;0,000000;0,000000;0,233333;0,233333;0,233333;0,233333;0,666667;0,458333;0,458333;
52;;;;;;;;;;;;;;;;;;;;;;;;;;;;;;;;;;;;;;;;;;;;;;;;;;;;1,000000;0,468348;0,468348;0,619485;0,468348;0,353673;0,329459;0,260015;0,267168;0,260015;0,218348;0,218348;0,218348;0,260015;0,260015;0,591893;0,329459;0,635386;0,260015;0,702871;0,702871;0,231454;0,231454;0,231454;0,218348;0,218348;0,218348;0,000000;0,000000;0,000000;0,800000;0,800000;0,800000;0,800000;0,649203;0,468348;0,468348;
53;;;;;;;;;;;;;;;;;;;;;;;;;;;;;;;;;;;;;;;;;;;;;;;;;;;;;1,000000;0,500000;0,416667;0,500000;0,469956;0,416667;0,375000;0,416667;0,375000;0,350000;0,350000;0,350000;0,375000;0,375000;0,000000;0,416667;0,416667;0,375000;0,375000;0,375000;0,400000;0,400000;0,400000;0,350000;0,350000;0,350000;0,000000;0,000000;0,000000;0,000000;0,000000;0,000000;0,000000;0,416667;0,500000;0,500000;
54;;;;;;;;;;;;;;;;;;;;;;;;;;;;;;;;;;;;;;;;;;;;;;;;;;;;;;1,000000;0,416667;0,500000;0,469956;0,416667;0,375000;0,416667;0,375000;0,350000;0,350000;0,350000;0,375000;0,375000;0,000000;0,416667;0,416667;0,375000;0,375000;0,375000;0,400000;0,400000;0,400000;0,350000;0,350000;0,350000;0,000000;0,000000;0,000000;0,000000;0,000000;0,000000;0,000000;0,416667;0,500000;0,500000;
55;;;;;;;;;;;;;;;;;;;;;;;;;;;;;;;;;;;;;;;;;;;;;;;;;;;;;;;1,000000;0,416667;0,344956;0,666667;0,291667;0,305556;0,291667;0,266667;0,266667;0,266667;0,291667;0,291667;0,333333;0,333333;0,666667;0,291667;0,583333;0,583333;0,288889;0,288889;0,288889;0,266667;0,266667;0,266667;0,000000;0,000000;0,000000;0,000000;0,000000;0,000000;0,000000;0,333333;0,416667;0,416667;
56;;;;;;;;;;;;;;;;;;;;;;;;;;;;;;;;;;;;;;;;;;;;;;;;;;;;;;;;1,000000;0,469956;0,416667;0,375000;0,416667;0,375000;0,350000;0,350000;0,350000;0,375000;0,375000;0,000000;0,833333;0,416667;0,375000;0,375000;0,375000;0,400000;0,400000;0,400000;0,350000;0,350000;0,350000;0,000000;0,000000;0,000000;0,000000;0,000000;0,000000;0,000000;0,416667;0,500000;0,500000;
57;;;;;;;;;;;;;;;;;;;;;;;;;;;;;;;;;;;;;;;;;;;;;;;;;;;;;;;;;1,000000;0,344956;0,282456;0,301930;0,282456;0,244956;0,244956;0,244956;0,282456;0,282456;0,000000;0,344956;0,344956;0,282456;0,282456;0,282456;0,271930;0,271930;0,271930;0,244956;0,244956;0,244956;0,000000;0,000000;0,000000;0,000000;0,000000;0,000000;0,000000;0,344956;0,469956;0,469956;
58;;;;;;;;;;;;;;;;;;;;;;;;;;;;;;;;;;;;;;;;;;;;;;;;;;;;;;;;;;1,000000;0,291667;0,305556;0,291667;0,266667;0,266667;0,266667;0,291667;0,291667;0,000000;0,333333;0,666667;0,291667;0,291667;0,291667;0,288889;0,288889;0,288889;0,266667;0,266667;0,266667;0,000000;0,000000;0,000000;0,000000;0,000000;0,000000;0,000000;0,333333;0,416667;0,416667;
59;;;;;;;;;;;;;;;;;;;;;;;;;;;;;;;;;;;;;;;;;;;;;;;;;;;;;;;;;;;1,000000;0,710322;0,750000;0,225000;0,225000;0,225000;0,750000;0,750000;0,000000;0,291667;0,291667;0,250000;0,250000;0,250000;0,233333;0,233333;0,233333;0,225000;0,225000;0,225000;0,000000;0,000000;0,000000;0,000000;0,000000;0,000000;0,000000;0,291667;0,375000;0,375000;
60;;;;;;;;;;;;;;;;;;;;;;;;;;;;;;;;;;;;;;;;;;;;;;;;;;;;;;;;;;;;1,000000;0,710322;0,216667;0,216667;0,216667;0,710322;0,710322;0,000000;0,305556;0,305556;0,250000;0,250000;0,250000;0,225000;0,225000;0,225000;0,216667;0,216667;0,216667;0,000000;0,000000;0,000000;0,000000;0,000000;0,000000;0,000000;0,305556;0,416667;0,416667;
61;;;;;;;;;;;;;;;;;;;;;;;;;;;;;;;;;;;;;;;;;;;;;;;;;;;;;;;;;;;;;1,000000;0,225000;0,225000;0,225000;0,750000;0,750000;0,000000;0,291667;0,291667;0,250000;0,250000;0,250000;0,233333;0,233333;0,233333;0,225000;0,225000;0,225000;0,000000;0,000000;0,000000;0,000000;0,000000;0,000000;0,000000;0,291667;0,375000;0,375000;
62;;;;;;;;;;;;;;;;;;;;;;;;;;;;;;;;;;;;;;;;;;;;;;;;;;;;;;;;;;;;;;1,000000;0,800000;0,800000;0,225000;0,225000;0,000000;0,266667;0,266667;0,225000;0,225000;0,225000;0,200000;0,200000;0,200000;0,200000;0,200000;0,200000;0,000000;0,000000;0,000000;0,000000;0,000000;0,000000;0,000000;0,266667;0,350000;0,350000;
63;;;;;;;;;;;;;;;;;;;;;;;;;;;;;;;;;;;;;;;;;;;;;;;;;;;;;;;;;;;;;;;1,000000;0,800000;0,225000;0,225000;0,000000;0,266667;0,266667;0,225000;0,225000;0,225000;0,200000;0,200000;0,200000;0,200000;0,200000;0,200000;0,000000;0,000000;0,000000;0,000000;0,000000;0,000000;0,000000;0,266667;0,350000;0,350000;
64;;;;;;;;;;;;;;;;;;;;;;;;;;;;;;;;;;;;;;;;;;;;;;;;;;;;;;;;;;;;;;;;1,000000;0,225000;0,225000;0,000000;0,266667;0,266667;0,225000;0,225000;0,225000;0,200000;0,200000;0,200000;0,200000;0,200000;0,200000;0,000000;0,000000;0,000000;0,000000;0,000000;0,000000;0,000000;0,266667;0,350000;0,350000;
65;;;;;;;;;;;;;;;;;;;;;;;;;;;;;;;;;;;;;;;;;;;;;;;;;;;;;;;;;;;;;;;;;1,000000;0,750000;0,000000;0,291667;0,291667;0,250000;0,250000;0,250000;0,233333;0,233333;0,233333;0,225000;0,225000;0,225000;0,000000;0,000000;0,000000;0,000000;0,000000;0,000000;0,000000;0,291667;0,375000;0,375000;
66;;;;;;;;;;;;;;;;;;;;;;;;;;;;;;;;;;;;;;;;;;;;;;;;;;;;;;;;;;;;;;;;;;1,000000;0,000000;0,291667;0,291667;0,250000;0,250000;0,250000;0,233333;0,233333;0,233333;0,225000;0,225000;0,225000;0,000000;0,000000;0,000000;0,000000;0,000000;0,000000;0,000000;0,291667;0,375000;0,375000;
67;;;;;;;;;;;;;;;;;;;;;;;;;;;;;;;;;;;;;;;;;;;;;;;;;;;;;;;;;;;;;;;;;;;1,000000;0,000000;0,000000;0,000000;0,291667;0,291667;0,000000;0,000000;0,000000;0,000000;0,000000;0,000000;0,000000;0,000000;0,000000;0,266667;0,266667;0,266667;0,266667;0,000000;0,000000;0,000000;
68;;;;;;;;;;;;;;;;;;;;;;;;;;;;;;;;;;;;;;;;;;;;;;;;;;;;;;;;;;;;;;;;;;;;1,000000;0,333333;0,291667;0,291667;0,291667;0,288889;0,288889;0,288889;0,266667;0,266667;0,266667;0,000000;0,000000;0,000000;0,000000;0,000000;0,000000;0,000000;0,333333;0,416667;0,416667;
69;;;;;;;;;;;;;;;;;;;;;;;;;;;;;;;;;;;;;;;;;;;;;;;;;;;;;;;;;;;;;;;;;;;;;1,000000;0,291667;0,291667;0,291667;0,288889;0,288889;0,288889;0,266667;0,266667;0,266667;0,000000;0,000000;0,000000;0,000000;0,000000;0,000000;0,000000;0,333333;0,416667;0,416667;
70;;;;;;;;;;;;;;;;;;;;;;;;;;;;;;;;;;;;;;;;;;;;;;;;;;;;;;;;;;;;;;;;;;;;;;1,000000;0,250000;0,250000;0,233333;0,233333;0,233333;0,225000;0,225000;0,225000;0,000000;0,000000;0,000000;0,000000;0,000000;0,000000;0,000000;0,291667;0,375000;0,375000;
71;;;;;;;;;;;;;;;;;;;;;;;;;;;;;;;;;;;;;;;;;;;;;;;;;;;;;;;;;;;;;;;;;;;;;;;1,000000;0,750000;0,233333;0,233333;0,233333;0,225000;0,225000;0,225000;0,000000;0,000000;0,000000;0,225000;0,225000;0,225000;0,225000;0,583333;0,375000;0,375000;
72;;;;;;;;;;;;;;;;;;;;;;;;;;;;;;;;;;;;;;;;;;;;;;;;;;;;;;;;;;;;;;;;;;;;;;;;1,000000;0,233333;0,233333;0,233333;0,225000;0,225000;0,225000;0,000000;0,000000;0,000000;0,225000;0,225000;0,225000;0,225000;0,583333;0,375000;0,375000;
73;;;;;;;;;;;;;;;;;;;;;;;;;;;;;;;;;;;;;;;;;;;;;;;;;;;;;;;;;;;;;;;;;;;;;;;;;1,000000;0,800000;0,800000;0,767760;0,767878;0,767878;0,000000;0,000000;0,000000;0,000000;0,000000;0,000000;0,000000;0,288889;0,400000;0,400000;
74;;;;;;;;;;;;;;;;;;;;;;;;;;;;;;;;;;;;;;;;;;;;;;;;;;;;;;;;;;;;;;;;;;;;;;;;;;1,000000;0,800000;0,767760;0,767878;0,767878;0,000000;0,000000;0,000000;0,000000;0,000000;0,000000;0,000000;0,288889;0,400000;0,400000;
75;;;;;;;;;;;;;;;;;;;;;;;;;;;;;;;;;;;;;;;;;;;;;;;;;;;;;;;;;;;;;;;;;;;;;;;;;;;1,000000;0,767760;0,767878;0,767878;0,000000;0,000000;0,000000;0,000000;0,000000;0,000000;0,000000;0,288889;0,400000;0,400000;
76;;;;;;;;;;;;;;;;;;;;;;;;;;;;;;;;;;;;;;;;;;;;;;;;;;;;;;;;;;;;;;;;;;;;;;;;;;;;1,000000;0,800000;0,800000;0,000000;0,000000;0,000000;0,000000;0,000000;0,000000;0,000000;0,266667;0,350000;0,350000;
77;;;;;;;;;;;;;;;;;;;;;;;;;;;;;;;;;;;;;;;;;;;;;;;;;;;;;;;;;;;;;;;;;;;;;;;;;;;;;1,000000;0,800000;0,000000;0,000000;0,000000;0,000000;0,000000;0,000000;0,000000;0,266667;0,350000;0,350000;
78;;;;;;;;;;;;;;;;;;;;;;;;;;;;;;;;;;;;;;;;;;;;;;;;;;;;;;;;;;;;;;;;;;;;;;;;;;;;;;1,000000;0,000000;0,000000;0,000000;0,000000;0,000000;0,000000;0,000000;0,266667;0,350000;0,350000;
79;;;;;;;;;;;;;;;;;;;;;;;;;;;;;;;;;;;;;;;;;;;;;;;;;;;;;;;;;;;;;;;;;;;;;;;;;;;;;;;1,000000;0,500000;0,500000;0,000000;0,000000;0,000000;0,000000;0,000000;0,000000;0,000000;
80;;;;;;;;;;;;;;;;;;;;;;;;;;;;;;;;;;;;;;;;;;;;;;;;;;;;;;;;;;;;;;;;;;;;;;;;;;;;;;;;1,000000;0,500000;0,000000;0,000000;0,000000;0,000000;0,000000;0,000000;0,000000;
81;;;;;;;;;;;;;;;;;;;;;;;;;;;;;;;;;;;;;;;;;;;;;;;;;;;;;;;;;;;;;;;;;;;;;;;;;;;;;;;;;1,000000;0,000000;0,000000;0,000000;0,000000;0,000000;0,000000;0,000000;
82;;;;;;;;;;;;;;;;;;;;;;;;;;;;;;;;;;;;;;;;;;;;;;;;;;;;;;;;;;;;;;;;;;;;;;;;;;;;;;;;;;1,000000;0,800000;0,800000;0,800000;0,266667;0,000000;0,000000;
83;;;;;;;;;;;;;;;;;;;;;;;;;;;;;;;;;;;;;;;;;;;;;;;;;;;;;;;;;;;;;;;;;;;;;;;;;;;;;;;;;;;1,000000;0,800000;0,800000;0,266667;0,000000;0,000000;
84;;;;;;;;;;;;;;;;;;;;;;;;;;;;;;;;;;;;;;;;;;;;;;;;;;;;;;;;;;;;;;;;;;;;;;;;;;;;;;;;;;;;1,000000;0,800000;0,266667;0,000000;0,000000;
85;;;;;;;;;;;;;;;;;;;;;;;;;;;;;;;;;;;;;;;;;;;;;;;;;;;;;;;;;;;;;;;;;;;;;;;;;;;;;;;;;;;;;1,000000;0,266667;0,000000;0,000000;
86;;;;;;;;;;;;;;;;;;;;;;;;;;;;;;;;;;;;;;;;;;;;;;;;;;;;;;;;;;;;;;;;;;;;;;;;;;;;;;;;;;;;;;1,000000;0,416667;0,416667;
87;;;;;;;;;;;;;;;;;;;;;;;;;;;;;;;;;;;;;;;;;;;;;;;;;;;;;;;;;;;;;;;;;;;;;;;;;;;;;;;;;;;;;;;1,000000;0,500000;
88;;;;;;;;;;;;;;;;;;;;;;;;;;;;;;;;;;;;;;;;;;;;;;;;;;;;;;;;;;;;;;;;;;;;;;;;;;;;;;;;;;;;;;;;1,000000;
