;1; 2; 3; 4; 5; 6; 7; 8; 9; 10; 11; 12; 13; 14; 15; 16; 17; 18; 19; 20; 21; 22; 23; 24; 25; 26; 27; 28; 29; 30; 31; 32; 33; 34; 35; 36; 37; 38; 39; 40; 41; 42; 43; 44; 45; 46; 47; 48; 49; 50; 51; 52; 53; 54; 55; 56; 57; 58; 59; 60; 61; 62; 63; 64; 65; 66; 67; 68; 69; 70; 71; 72; 73; 74; 75; 76; 77; 78; 79; 80; 81; 82; 83; 84; 85; 86; 87; 88; 89; 90; 91; 92; 93; 94; 95; 96; 97; 98; 99; 100; 101; 102; 103
1;1,000000;0,727991;0,670779;0,710884;0,743705;0,662779;0,592784;0,610279;0,699773;0,630360;0,683448;0,611615;0,488610;0,500000;0,500000;0,794231;0,794231;0,794231;0,780684;0,527364;0,744270;0,744270;0,659024;0,632037;0,782274;0,563184;0,497170;0,546749;0,666667;0,666667;0,666667;0,720752;0,500000;0,500000;0,436198;0,500000;0,000000;0,000000;0,000000;0,000000;1,000000;0,000000;0,000000;0,000000;0,000000;0,746916;0,746916;0,620331;0,750000;0,750000;0,750000;0,750000;0,000000;0,750000;0,750000;0,750000;0,750000;0,742209;0,666667;0,666667;0,666667;0,574852;0,976091;0,500000;0,500000;0,000000;0,000000;0,000000;0,000000;0,695226;0,662151;0,535565;0,331761;0,000000;0,000000;0,742477;0,742477;0,332198;0,000000;0,336026;0,334705;0,000000;0,000000;0,496532;0,745923;0,745923;0,332755;0,000000;0,000000;0,000000;0,000000;0,986484;0,497923;0,000000;0,000000;0,663728;0,660055;0,498408;0,498408;0,000000;0,000000;0,000000;0,000000;
2;;1,000000;0,723324;0,720894;0,774882;0,326695;0,308052;0,312355;0,713790;0,326799;0,758648;0,454165;0,419082;0,000000;0,000000;0,210882;0,210882;0,210882;0,226763;0,496690;0,250788;0,250788;0,334722;0,270740;0,529220;0,631193;0,940466;0,372484;0,316264;0,316264;0,316264;0,406624;0,479473;0,479473;0,326377;0,462104;0,000000;0,000000;0,000000;0,000000;0,000000;0,000000;0,000000;0,000000;0,000000;0,250307;0,250307;0,859531;0,255529;0,255529;0,255529;0,255529;0,945833;0,250307;0,250307;0,250307;0,250307;0,250788;0,323702;0,323702;0,323702;0,906123;0,000000;0,479473;0,479473;0,265385;0,265385;0,265385;0,265385;0,648695;0,962762;0,552385;0,639407;0,334722;0,334722;0,719260;0,719260;0,552045;0,350000;0,298021;0,334722;0,258333;0,258333;0,940183;0,250307;0,250307;0,635876;0,258333;0,258333;0,258333;0,258333;0,000000;0,487500;0,000000;0,000000;0,334722;0,638073;0,258333;0,258333;0,000000;0,000000;0,000000;0,000000;
3;;;1,000000;0,706284;0,740519;0,328023;0,316994;0,484067;0,721528;0,344000;0,730909;0,374621;0,438360;0,000000;0,000000;0,211817;0,211817;0,211817;0,228847;0,463356;0,331131;0,331131;0,336211;0,435544;0,568037;0,794434;0,483579;0,616698;0,319277;0,319277;0,319277;0,531807;0,483579;0,483579;0,333255;0,469210;0,000000;0,000000;0,000000;0,000000;0,000000;0,000000;0,000000;0,000000;0,000000;0,250245;0,250245;0,727519;0,259897;0,259897;0,259897;0,259897;0,958433;0,250245;0,250245;0,250245;0,250245;0,463763;0,328483;0,328483;0,328483;0,923401;0,470588;0,483579;0,483579;0,265812;0,265812;0,265812;0,265812;0,696570;0,969462;0,573300;0,965896;0,651805;0,651805;0,722552;0,722552;0,562430;0,353312;0,446548;0,646454;0,258433;0,258433;0,954150;0,486310;0,486310;0,642939;0,258433;0,258433;0,258433;0,258433;0,479167;0,491766;0,000000;0,000000;0,650839;0,650839;0,258433;0,258433;0,000000;0,000000;0,000000;0,000000;
4;;;;1,000000;0,707668;0,328363;0,276283;0,312742;0,694030;0,331633;0,802869;0,428873;0,416999;0,000000;0,000000;0,213111;0,213111;0,213111;0,236405;0,559685;0,256615;0,256615;0,000000;0,258190;0,657368;0,641715;0,479879;0,448923;0,320718;0,320718;0,320718;0,411549;0,479879;0,479879;0,448923;0,463111;0,000000;0,000000;0,000000;0,000000;0,000000;0,000000;0,000000;0,000000;0,000000;0,252606;0,252606;0,506596;0,258190;0,258190;0,258190;0,258190;0,000000;0,252606;0,252606;0,252606;0,252606;0,256615;0,324222;0,324222;0,324222;0,674268;0,000000;0,479879;0,479879;0,000000;0,000000;0,000000;0,000000;0,778839;0,648323;0,450600;0,000000;0,000000;0,000000;0,496808;0,496808;0,329039;0,000000;0,000000;0,000000;0,000000;0,000000;0,474141;0,252606;0,252606;0,330991;0,000000;0,000000;0,000000;0,000000;0,000000;0,000000;0,000000;0,000000;0,000000;0,325257;0,000000;0,000000;0,000000;0,000000;0,000000;0,000000;
5;;;;;1,000000;0,331619;0,324838;0,340488;0,848582;0,350775;0,688786;0,450089;0,429808;0,000000;0,000000;0,222640;0,222640;0,222640;0,242208;0,492305;0,266547;0,266547;0,335000;0,287289;0,571345;0,647087;0,936254;0,381305;0,329047;0,329047;0,329047;0,422954;0,481619;0,481619;0,337294;0,466580;0,000000;0,000000;0,000000;0,000000;0,000000;0,000000;0,000000;0,000000;0,000000;0,256619;0,256619;0,735642;0,272929;0,272929;0,272929;0,272929;0,935000;0,256619;0,256619;0,256619;0,256619;0,266547;0,331731;0,331731;0,331731;0,744003;0,000000;0,481619;0,481619;0,268182;0,268182;0,268182;0,268182;0,625600;0,643382;0,542364;0,633955;0,335000;0,335000;0,486958;0,486958;0,395847;0,350000;0,299739;0,335000;0,260000;0,260000;0,485000;0,256619;0,256619;0,335000;0,260000;0,260000;0,260000;0,260000;0,000000;0,485000;0,000000;0,000000;0,335000;0,629421;0,260000;0,260000;0,000000;0,000000;0,000000;0,000000;
6;;;;;;1,000000;0,645358;0,653314;0,330269;0,338047;0,314136;0,658890;0,357143;0,000000;0,000000;0,288889;0,288889;0,288889;0,305932;0,347874;0,917799;0,917799;0,333333;0,589447;0,659829;0,338889;0,416667;0,598207;0,333333;0,333333;0,333333;0,353836;0,416667;0,416667;0,375000;0,388889;0,000000;0,000000;0,000000;0,000000;0,000000;0,000000;0,000000;0,000000;0,000000;0,291667;0,291667;0,305556;0,316667;0,316667;0,316667;0,316667;0,000000;0,291667;0,291667;0,291667;0,291667;0,312500;0,333333;0,333333;0,333333;0,333333;0,375000;0,416667;0,416667;0,000000;0,000000;0,000000;0,000000;0,321429;0,333333;0,000000;0,000000;0,000000;0,000000;0,291667;0,291667;0,000000;0,000000;0,000000;0,000000;0,000000;0,000000;0,000000;0,583333;0,583333;0,000000;0,000000;0,000000;0,000000;0,000000;0,000000;0,000000;0,000000;0,000000;0,333333;0,000000;0,000000;0,000000;0,000000;0,000000;0,000000;0,000000;
7;;;;;;;1,000000;0,600361;0,318361;0,343094;0,305498;0,823509;0,404554;0,000000;0,000000;0,235719;0,235719;0,235719;0,256113;0,354108;0,722866;0,722866;0,655561;0,385705;0,445059;0,328598;0,462515;0,594804;0,311493;0,311493;0,311493;0,438509;0,462515;0,462515;0,335351;0,435741;0,000000;0,000000;0,000000;0,000000;0,000000;0,000000;0,000000;0,000000;0,000000;0,254182;0,254182;0,271433;0,283340;0,283340;0,283340;0,283340;0,901006;0,254182;0,254182;0,254182;0,254182;0,424441;0,330957;0,330957;0,330957;0,387106;0,431595;0,462515;0,462515;0,294581;0,294581;0,294581;0,294581;0,296894;0,323626;0,341471;0,345450;0,345450;0,345450;0,254182;0,254182;0,406035;0,366010;0,322132;0,345450;0,276006;0,276006;0,484339;0,506469;0,506469;0,345450;0,276006;0,276006;0,276006;0,276006;0,000000;0,484339;0,000000;0,000000;0,620288;0,345450;0,276006;0,276006;0,000000;0,000000;0,000000;0,000000;
8;;;;;;;;1,000000;0,329449;0,375149;0,306649;0,554932;0,459598;0,000000;0,000000;0,220666;0,220666;0,220666;0,241340;0,600713;0,737714;0,737714;0,646404;0,580826;0,443833;0,351306;0,490697;0,606188;0,338119;0,338119;0,338119;0,630844;0,490697;0,490697;0,412531;0,485594;0,000000;0,000000;0,000000;0,000000;0,000000;0,000000;0,000000;0,000000;0,000000;0,257363;0,257363;0,264416;0,275628;0,275628;0,275628;0,275628;0,958655;0,257363;0,257363;0,257363;0,257363;0,511824;0,337333;0,337333;0,337333;0,406115;0,482013;0,490697;0,490697;0,272015;0,272015;0,272015;0,272015;0,293801;0,335141;0,316338;0,336433;0,336433;0,336433;0,257363;0,257363;0,402758;0,353728;0,299977;0,336433;0,258655;0,258655;0,491988;0,739432;0,739432;0,336433;0,258655;0,258655;0,258655;0,258655;0,479167;0,491988;0,000000;0,000000;0,653583;0,653583;0,258655;0,258655;0,000000;0,000000;0,000000;0,000000;
9;;;;;;;;;1,000000;0,340801;0,791232;0,400501;0,422553;0,000000;0,000000;0,219342;0,219342;0,219342;0,237674;0,467892;0,263172;0,263172;0,333333;0,281709;0,557254;0,623165;0,480269;0,376772;0,325672;0,325672;0,325672;0,416601;0,480269;0,480269;0,332760;0,464125;0,000000;0,000000;0,000000;0,000000;0,000000;0,000000;0,000000;0,000000;0,000000;0,255269;0,255269;0,729665;0,267349;0,267349;0,267349;0,267349;0,933333;0,255269;0,255269;0,255269;0,255269;0,263172;0,328433;0,328433;0,328433;0,737513;0,000000;0,480269;0,480269;0,265152;0,265152;0,265152;0,265152;0,632837;0,653844;0,611023;0,627894;0,333333;0,333333;0,713497;0,713497;0,613087;0,596390;0,296709;0,333333;0,258333;0,258333;0,483333;0,255269;0,255269;0,666667;0,258333;0,258333;0,258333;0,258333;0,000000;0,483333;0,000000;0,000000;0,333333;0,626601;0,258333;0,258333;0,000000;0,000000;0,000000;0,000000;
10;;;;;;;;;;1,000000;0,314679;0,366735;0,458659;0,500000;0,500000;0,766796;0,766796;0,766796;0,749245;0,378844;0,279978;0,279978;0,337060;0,300642;0,607136;0,356138;0,490825;0,396513;0,345454;0,345454;0,345454;0,463979;0,490825;0,490825;0,628257;0,605017;0,000000;0,000000;0,000000;0,000000;0,000000;0,000000;0,000000;0,000000;0,000000;0,723278;0,723278;0,270441;0,285431;0,285431;0,285431;0,285431;0,948171;0,261658;0,261658;0,261658;0,261658;0,279978;0,340954;0,340954;0,340954;0,407469;0,446429;0,490825;0,490825;0,269700;0,269700;0,269700;0,269700;0,305401;0,338047;0,318872;0,337060;0,337060;0,337060;0,261658;0,261658;0,401729;0,354315;0,302336;0,337060;0,260671;0,260671;0,489837;0,261658;0,261658;0,337060;0,260671;0,260671;0,260671;0,260671;0,000000;0,489837;0,000000;0,000000;0,337060;0,337060;0,729112;0,729112;0,000000;0,000000;0,000000;0,000000;
11;;;;;;;;;;;1,000000;0,403610;0,373930;0,000000;0,000000;0,229961;0,229961;0,229961;0,246962;0,451141;0,244577;0,244577;0,366667;0,280313;0,577624;0,618700;0,447469;0,352941;0,292196;0,292196;0,292196;0,330850;0,447469;0,447469;0,319409;0,412449;0,000000;0,000000;0,000000;0,000000;0,000000;0,000000;0,000000;0,000000;0,000000;0,247469;0,247469;0,698818;0,269942;0,269942;0,269942;0,269942;0,900000;0,247469;0,247469;0,247469;0,247469;0,244577;0,318850;0,318850;0,318850;0,519772;0,000000;0,447469;0,447469;0,333333;0,333333;0,333333;0,333333;0,711524;0,894981;0,338466;0,366667;0,366667;0,366667;0,468499;0,468499;0,529875;0,400000;0,359047;0,366667;0,300000;0,300000;0,850664;0,247469;0,247469;0,611905;0,300000;0,300000;0,300000;0,300000;0,000000;0,500000;0,000000;0,000000;0,366667;0,585302;0,300000;0,300000;0,000000;0,000000;0,000000;0,000000;
12;;;;;;;;;;;;1,000000;0,455640;0,000000;0,000000;0,217028;0,217028;0,217028;0,236433;0,552521;0,719145;0,719145;0,642229;0,624706;0,445894;0,349816;0,490527;0,658301;0,335851;0,335851;0,335851;0,723423;0,490527;0,490527;0,409600;0,484990;0,000000;0,000000;0,000000;0,000000;0,000000;0,000000;0,000000;0,000000;0,000000;0,256152;0,256152;0,488150;0,269945;0,269945;0,269945;0,269945;0,958333;0,256152;0,256152;0,256152;0,256152;0,713118;0,334675;0,334675;0,334675;0,404036;0,483012;0,490527;0,490527;0,266997;0,266997;0,266997;0,266997;0,399043;0,334277;0,400712;0,333333;0,333333;0,333333;0,256152;0,256152;0,397482;0,348039;0,443700;0,645833;0,255208;0,255208;0,489583;0,738438;0,738438;0,333333;0,255208;0,255208;0,255208;0,255208;0,921569;0,489583;0,000000;0,000000;0,653501;0,651069;0,255208;0,255208;0,000000;0,000000;0,000000;0,000000;
13;;;;;;;;;;;;;1,000000;0,500000;0,500000;0,550000;0,550000;0,550000;0,619844;0,426429;0,333333;0,333333;0,357143;0,362445;0,478479;0,387500;0,500000;0,433490;0,388889;0,388889;0,388889;0,507653;0,500000;0,500000;0,666667;0,500000;0,000000;0,000000;0,000000;0,000000;0,000000;0,000000;0,000000;0,000000;0,000000;0,523726;0,523726;0,312500;0,350000;0,350000;0,350000;0,350000;0,928571;0,285714;0,285714;0,285714;0,285714;0,333333;0,375000;0,375000;0,375000;0,433956;0,000000;0,500000;0,500000;0,312500;0,312500;0,312500;0,312500;0,381573;0,357143;0,368489;0,357143;0,357143;0,357143;0,285714;0,285714;0,429526;0,387500;0,341428;0,357143;0,285714;0,285714;0,500000;0,285714;0,285714;0,357143;0,285714;0,285714;0,285714;0,285714;0,000000;0,968472;0,000000;0,000000;0,357143;0,357143;0,539901;0,539901;0,000000;0,000000;0,000000;0,000000;
14;;;;;;;;;;;;;;1,000000;0,500000;0,000000;0,000000;0,000000;0,000000;0,000000;0,000000;0,000000;0,000000;0,000000;0,500000;0,000000;0,000000;0,000000;0,000000;0,000000;0,000000;0,000000;0,000000;0,000000;0,000000;0,000000;0,000000;0,000000;0,000000;0,000000;0,000000;0,000000;0,000000;0,000000;0,000000;0,000000;0,000000;0,000000;0,000000;0,000000;0,000000;0,000000;0,000000;0,000000;0,000000;0,000000;0,000000;0,000000;0,000000;0,000000;0,000000;0,000000;0,000000;0,000000;0,000000;0,000000;0,000000;0,000000;0,000000;0,000000;0,000000;0,000000;0,000000;0,000000;0,000000;0,000000;0,000000;0,000000;0,000000;0,000000;0,000000;0,000000;0,000000;0,000000;0,000000;0,000000;0,000000;0,000000;0,000000;0,000000;0,000000;0,000000;0,000000;0,000000;0,000000;0,000000;0,000000;0,000000;0,000000;0,000000;0,000000;0,000000;0,000000;
15;;;;;;;;;;;;;;;1,000000;0,000000;0,000000;0,000000;0,000000;0,000000;0,000000;0,000000;0,000000;0,000000;0,500000;0,000000;0,000000;0,000000;0,000000;0,000000;0,000000;0,000000;0,000000;0,000000;0,000000;0,000000;0,000000;0,000000;0,000000;0,000000;0,000000;0,000000;0,000000;0,000000;0,000000;0,000000;0,000000;0,000000;0,000000;0,000000;0,000000;0,000000;0,000000;0,000000;0,000000;0,000000;0,000000;0,000000;0,000000;0,000000;0,000000;0,000000;0,000000;0,000000;0,000000;0,000000;0,000000;0,000000;0,000000;0,000000;0,000000;0,000000;0,000000;0,000000;0,000000;0,000000;0,000000;0,000000;0,000000;0,000000;0,000000;0,000000;0,000000;0,000000;0,000000;0,000000;0,000000;0,000000;0,000000;0,000000;0,000000;0,000000;0,000000;0,000000;0,000000;0,000000;0,000000;0,000000;0,000000;0,000000;0,000000;0,000000;0,000000;
16;;;;;;;;;;;;;;;;1,000000;0,800000;0,800000;0,768436;0,259127;0,220000;0,220000;0,288889;0,223581;0,782773;0,275000;0,400000;0,280094;0,253333;0,253333;0,253333;0,263571;0,400000;0,400000;0,440000;0,350000;0,000000;0,000000;0,000000;0,000000;0,000000;0,000000;0,000000;0,000000;0,000000;0,660724;0,660724;0,225000;0,216667;0,216667;0,216667;0,216667;0,733333;0,233333;0,233333;0,233333;0,233333;0,220000;0,266667;0,266667;0,266667;0,305971;0,000000;0,400000;0,400000;0,225000;0,225000;0,225000;0,225000;0,215787;0,288889;0,241093;0,288889;0,288889;0,288889;0,233333;0,233333;0,303017;0,275000;0,244285;0,288889;0,233333;0,233333;0,400000;0,233333;0,233333;0,288889;0,233333;0,233333;0,233333;0,233333;0,000000;0,763841;0,000000;0,000000;0,288889;0,288889;0,430508;0,430508;0,000000;0,000000;0,000000;0,000000;
17;;;;;;;;;;;;;;;;;1,000000;0,800000;0,768436;0,259127;0,220000;0,220000;0,288889;0,223581;0,782773;0,275000;0,400000;0,280094;0,253333;0,253333;0,253333;0,263571;0,400000;0,400000;0,440000;0,350000;0,000000;0,000000;0,000000;0,000000;0,000000;0,000000;0,000000;0,000000;0,000000;0,660724;0,660724;0,225000;0,216667;0,216667;0,216667;0,216667;0,733333;0,233333;0,233333;0,233333;0,233333;0,220000;0,266667;0,266667;0,266667;0,305971;0,000000;0,400000;0,400000;0,225000;0,225000;0,225000;0,225000;0,215787;0,288889;0,241093;0,288889;0,288889;0,288889;0,233333;0,233333;0,303017;0,275000;0,244285;0,288889;0,233333;0,233333;0,400000;0,233333;0,233333;0,288889;0,233333;0,233333;0,233333;0,233333;0,000000;0,763841;0,000000;0,000000;0,288889;0,288889;0,430508;0,430508;0,000000;0,000000;0,000000;0,000000;
18;;;;;;;;;;;;;;;;;;1,000000;0,768436;0,259127;0,220000;0,220000;0,288889;0,223581;0,782773;0,275000;0,400000;0,280094;0,253333;0,253333;0,253333;0,263571;0,400000;0,400000;0,440000;0,350000;0,000000;0,000000;0,000000;0,000000;0,000000;0,000000;0,000000;0,000000;0,000000;0,660724;0,660724;0,225000;0,216667;0,216667;0,216667;0,216667;0,733333;0,233333;0,233333;0,233333;0,233333;0,220000;0,266667;0,266667;0,266667;0,305971;0,000000;0,400000;0,400000;0,225000;0,225000;0,225000;0,225000;0,215787;0,288889;0,241093;0,288889;0,288889;0,288889;0,233333;0,233333;0,303017;0,275000;0,244285;0,288889;0,233333;0,233333;0,400000;0,233333;0,233333;0,288889;0,233333;0,233333;0,233333;0,233333;0,000000;0,763841;0,000000;0,000000;0,288889;0,288889;0,430508;0,430508;0,000000;0,000000;0,000000;0,000000;
19;;;;;;;;;;;;;;;;;;;1,000000;0,284462;0,236863;0,236863;0,300000;0,238759;0,656875;0,299491;0,430932;0,307503;0,278530;0,278530;0,278530;0,303944;0,430932;0,430932;0,464883;0,389491;0,000000;0,000000;0,000000;0,000000;0,000000;0,000000;0,000000;0,000000;0,000000;0,668555;0,668555;0,235909;0,229869;0,229869;0,229869;0,229869;0,800000;0,243432;0,243432;0,243432;0,243432;0,236863;0,285909;0,285909;0,285909;0,333074;0,000000;0,430932;0,430932;0,230000;0,230000;0,230000;0,230000;0,230897;0,305932;0,251367;0,300000;0,300000;0,300000;0,243432;0,243432;0,323621;0,290000;0,253142;0,300000;0,237500;0,237500;0,425000;0,243432;0,243432;0,300000;0,237500;0,237500;0,237500;0,237500;0,000000;0,819468;0,000000;0,000000;0,300000;0,300000;0,444468;0,444468;0,000000;0,000000;0,000000;0,000000;
20;;;;;;;;;;;;;;;;;;;;1,000000;0,449975;0,449975;0,333333;0,479416;0,581143;0,368678;0,481207;0,524937;0,364491;0,364491;0,364491;0,621116;0,481207;0,481207;0,356908;0,468678;0,000000;0,000000;0,000000;0,000000;0,000000;0,000000;0,000000;0,000000;0,000000;0,281207;0,281207;0,499172;0,313691;0,313691;0,313691;0,313691;0,866667;0,281207;0,281207;0,281207;0,281207;0,542006;0,348016;0,348016;0,348016;0,400422;0,428571;0,481207;0,481207;0,277778;0,277778;0,277778;0,277778;0,458090;0,347874;0,369961;0,333333;0,333333;0,333333;0,281207;0,281207;0,381801;0,555556;0,529833;0,666667;0,533333;0,533333;0,466667;0,519603;0,519603;0,333333;0,266667;0,266667;0,266667;0,266667;0,500000;0,466667;0,500000;0,500000;0,600000;0,902967;0,266667;0,266667;0,000000;0,000000;0,000000;0,000000;
21;;;;;;;;;;;;;;;;;;;;;1,000000;0,750000;0,312500;0,475426;0,506654;0,310000;0,437500;0,596427;0,291667;0,291667;0,291667;0,428504;0,437500;0,437500;0,375000;0,400000;0,000000;0,000000;0,000000;0,000000;0,000000;0,000000;0,000000;0,000000;0,000000;0,250000;0,250000;0,250000;0,250000;0,250000;0,250000;0,250000;0,000000;0,250000;0,250000;0,250000;0,250000;0,419474;0,300000;0,300000;0,300000;0,300000;0,666376;0,437500;0,437500;0,000000;0,000000;0,000000;0,000000;0,250000;0,312500;0,000000;0,000000;0,000000;0,000000;0,250000;0,250000;0,000000;0,000000;0,000000;0,000000;0,000000;0,000000;0,000000;0,709021;0,709021;0,000000;0,000000;0,000000;0,000000;0,000000;0,000000;0,000000;0,000000;0,000000;0,583188;0,312500;0,000000;0,000000;0,000000;0,000000;0,000000;0,000000;
22;;;;;;;;;;;;;;;;;;;;;;1,000000;0,312500;0,475426;0,506654;0,310000;0,437500;0,596427;0,291667;0,291667;0,291667;0,428504;0,437500;0,437500;0,375000;0,400000;0,000000;0,000000;0,000000;0,000000;0,000000;0,000000;0,000000;0,000000;0,000000;0,250000;0,250000;0,250000;0,250000;0,250000;0,250000;0,250000;0,000000;0,250000;0,250000;0,250000;0,250000;0,419474;0,300000;0,300000;0,300000;0,300000;0,666376;0,437500;0,437500;0,000000;0,000000;0,000000;0,000000;0,250000;0,312500;0,000000;0,000000;0,000000;0,000000;0,250000;0,250000;0,000000;0,000000;0,000000;0,000000;0,000000;0,000000;0,000000;0,709021;0,709021;0,000000;0,000000;0,000000;0,000000;0,000000;0,000000;0,000000;0,000000;0,000000;0,583188;0,312500;0,000000;0,000000;0,000000;0,000000;0,000000;0,000000;
23;;;;;;;;;;;;;;;;;;;;;;;1,000000;0,666667;0,664226;0,000000;0,000000;0,333333;0,000000;0,000000;0,000000;0,324074;0,000000;0,000000;0,312500;0,000000;0,000000;0,000000;0,000000;0,000000;0,000000;0,000000;0,000000;0,000000;0,000000;0,000000;0,000000;0,305556;0,316667;0,316667;0,316667;0,316667;0,666667;0,000000;0,000000;0,000000;0,000000;0,312500;0,333333;0,333333;0,333333;0,388889;0,000000;0,000000;0,000000;0,305556;0,305556;0,305556;0,305556;0,325013;0,000000;0,325683;0,333333;0,333333;0,333333;0,000000;0,000000;0,357567;0,338889;0,318412;0,333333;0,291667;0,291667;0,416667;0,000000;0,000000;0,333333;0,291667;0,291667;0,291667;0,291667;0,000000;0,416667;0,000000;0,000000;0,333333;0,333333;0,291667;0,291667;0,000000;0,000000;0,000000;0,000000;
24;;;;;;;;;;;;;;;;;;;;;;;;1,000000;0,406090;0,316667;0,450000;0,542067;0,297619;0,297619;0,297619;0,776244;0,450000;0,450000;0,311205;0,416667;0,000000;0,000000;0,000000;0,000000;0,000000;0,000000;0,000000;0,000000;0,000000;0,250000;0,250000;0,256914;0,260371;0,260371;0,260371;0,260371;0,866667;0,250000;0,250000;0,250000;0,250000;0,750000;0,312470;0,312470;0,312470;0,364875;0,392857;0,450000;0,450000;0,277778;0,277778;0,277778;0,277778;0,267704;0,316667;0,315848;0,333333;0,333333;0,333333;0,250000;0,250000;0,381801;0,344444;0,303491;0,333333;0,266667;0,266667;0,466667;0,500000;0,500000;0,333333;0,266667;0,266667;0,266667;0,266667;0,000000;0,466667;0,000000;0,000000;0,586588;0,586588;0,266667;0,266667;0,000000;0,000000;0,000000;0,000000;
25;;;;;;;;;;;;;;;;;;;;;;;;;1,000000;0,730282;0,000000;0,541117;0,000000;0,000000;0,000000;0,462963;0,000000;0,000000;0,726283;0,483333;0,000000;0,000000;0,000000;0,000000;0,000000;0,000000;0,000000;0,000000;0,000000;0,497362;0,497362;0,625665;0,750000;0,750000;0,750000;0,750000;0,000000;0,000000;0,000000;0,000000;0,000000;0,483871;0,666667;0,666667;0,666667;0,574241;0,832888;0,000000;0,000000;0,750000;0,750000;0,750000;0,750000;0,613149;0,333333;0,676650;0,658620;0,658509;0,658509;0,492658;0,492658;0,563085;0,659708;0,717822;0,658046;0,743235;0,743235;0,494828;0,501539;0,501539;0,663377;0,750000;0,750000;0,750000;0,750000;0,955556;0,495795;0,000000;0,000000;0,662458;0,657978;0,741402;0,741402;0,000000;0,000000;0,000000;0,000000;
26;;;;;;;;;;;;;;;;;;;;;;;;;;1,000000;0,450000;0,410000;0,343333;0,343333;0,343333;0,383571;0,450000;0,450000;0,410000;0,425000;0,000000;0,000000;0,000000;0,000000;0,000000;0,000000;0,000000;0,000000;0,000000;0,283333;0,283333;0,375000;0,316667;0,316667;0,316667;0,316667;0,000000;0,283333;0,283333;0,283333;0,283333;0,310000;0,341667;0,341667;0,341667;0,341667;0,000000;0,450000;0,450000;0,000000;0,000000;0,000000;0,000000;0,638197;0,338889;0,265428;0,305556;0,000000;0,000000;0,500000;0,500000;0,000000;0,000000;0,000000;0,000000;0,000000;0,000000;0,416667;0,283333;0,283333;0,000000;0,000000;0,000000;0,000000;0,000000;0,000000;0,000000;0,000000;0,000000;0,000000;0,000000;0,000000;0,000000;0,000000;0,000000;0,000000;0,000000;
27;;;;;;;;;;;;;;;;;;;;;;;;;;;1,000000;0,500000;0,458333;0,458333;0,458333;0,501984;0,500000;0,500000;0,500000;0,500000;0,000000;0,000000;0,000000;0,000000;0,000000;0,000000;0,000000;0,000000;0,000000;0,375000;0,375000;0,416667;0,450000;0,450000;0,450000;0,450000;0,000000;0,375000;0,375000;0,375000;0,375000;0,437500;0,444444;0,444444;0,444444;0,444444;0,000000;0,500000;0,500000;0,000000;0,000000;0,000000;0,000000;0,905998;0,416667;0,000000;0,000000;0,000000;0,000000;0,375000;0,375000;0,000000;0,000000;0,000000;0,000000;0,000000;0,000000;0,000000;0,375000;0,375000;0,000000;0,000000;0,000000;0,000000;0,000000;0,000000;0,000000;0,000000;0,000000;0,000000;0,000000;0,000000;0,000000;0,000000;0,000000;0,000000;0,000000;
28;;;;;;;;;;;;;;;;;;;;;;;;;;;;1,000000;0,416667;0,416667;0,416667;0,468261;0,500000;0,500000;0,370893;0,500000;0,000000;0,000000;0,000000;0,000000;0,000000;0,000000;0,000000;0,000000;0,000000;0,312500;0,312500;0,310094;0,335848;0,335848;0,335848;0,335848;0,833333;0,312500;0,312500;0,312500;0,312500;0,446806;0,360094;0,360094;0,360094;0,407259;0,833333;0,500000;0,500000;0,283333;0,283333;0,283333;0,283333;0,354538;0,375000;0,318033;0,333333;0,333333;0,333333;0,312500;0,312500;0,376954;0,343333;0,458364;0,614571;0,270833;0,270833;0,458333;0,714193;0,714193;0,333333;0,270833;0,270833;0,270833;0,270833;0,500000;0,458333;0,500000;0,500000;1,000000;0,666667;0,270833;0,270833;0,000000;0,000000;0,000000;0,000000;
29;;;;;;;;;;;;;;;;;;;;;;;;;;;;;1,000000;0,666667;0,666667;0,383658;0,458333;0,458333;0,416667;0,433333;0,233333;0,233333;0,233333;0,233333;0,666667;0,233333;0,000000;0,000000;0,000000;0,270833;0,270833;0,283333;0,297619;0,297619;0,297619;0,297619;0,000000;0,270833;0,270833;0,270833;0,270833;0,291667;0,333333;0,333333;0,333333;0,333333;0,000000;0,458333;0,458333;0,000000;0,000000;0,000000;0,000000;0,305556;0,333333;0,000000;0,000000;0,000000;0,000000;0,270833;0,270833;0,000000;0,000000;0,000000;0,000000;0,000000;0,000000;0,000000;0,270833;0,270833;0,000000;0,000000;0,000000;0,000000;0,000000;0,000000;0,000000;0,000000;0,000000;0,000000;0,000000;0,000000;0,000000;0,270833;0,270833;0,270833;0,270833;
30;;;;;;;;;;;;;;;;;;;;;;;;;;;;;;1,000000;0,666667;0,383658;0,458333;0,458333;0,416667;0,433333;0,233333;0,233333;0,233333;0,233333;0,666667;0,233333;0,000000;0,000000;0,000000;0,270833;0,270833;0,283333;0,297619;0,297619;0,297619;0,297619;0,000000;0,270833;0,270833;0,270833;0,270833;0,291667;0,333333;0,333333;0,333333;0,333333;0,000000;0,458333;0,458333;0,000000;0,000000;0,000000;0,000000;0,305556;0,333333;0,000000;0,000000;0,000000;0,000000;0,270833;0,270833;0,000000;0,000000;0,000000;0,000000;0,000000;0,000000;0,000000;0,270833;0,270833;0,000000;0,000000;0,000000;0,000000;0,000000;0,000000;0,000000;0,000000;0,000000;0,000000;0,000000;0,000000;0,000000;0,270833;0,270833;0,270833;0,270833;
31;;;;;;;;;;;;;;;;;;;;;;;;;;;;;;;1,000000;0,383658;0,458333;0,458333;0,416667;0,433333;0,233333;0,233333;0,233333;0,233333;0,666667;0,233333;0,000000;0,000000;0,000000;0,270833;0,270833;0,283333;0,297619;0,297619;0,297619;0,297619;0,000000;0,270833;0,270833;0,270833;0,270833;0,291667;0,333333;0,333333;0,333333;0,333333;0,000000;0,458333;0,458333;0,000000;0,000000;0,000000;0,000000;0,305556;0,333333;0,000000;0,000000;0,000000;0,000000;0,270833;0,270833;0,000000;0,000000;0,000000;0,000000;0,000000;0,000000;0,000000;0,270833;0,270833;0,000000;0,000000;0,000000;0,000000;0,000000;0,000000;0,000000;0,000000;0,000000;0,000000;0,000000;0,000000;0,000000;0,270833;0,270833;0,270833;0,270833;
32;;;;;;;;;;;;;;;;;;;;;;;;;;;;;;;;1,000000;0,501984;0,501984;0,504870;0,503571;0,000000;0,000000;0,000000;0,000000;0,000000;0,000000;0,000000;0,000000;0,000000;0,279762;0,279762;0,303571;0,339286;0,339286;0,339286;0,339286;0,000000;0,279762;0,279762;0,279762;0,279762;0,771527;0,370238;0,370238;0,370238;0,370238;0,431818;0,501984;0,501984;0,000000;0,000000;0,000000;0,000000;0,364796;0,353836;0,000000;0,000000;0,000000;0,000000;0,279762;0,279762;0,000000;0,000000;0,000000;0,000000;0,000000;0,000000;0,000000;0,518591;0,518591;0,000000;0,000000;0,000000;0,000000;0,000000;0,000000;0,000000;0,000000;0,000000;0,324074;0,324074;0,000000;0,000000;0,000000;0,000000;0,000000;0,000000;
33;;;;;;;;;;;;;;;;;;;;;;;;;;;;;;;;;1,000000;0,500000;0,500000;0,500000;0,000000;0,000000;0,000000;0,000000;0,000000;0,000000;0,000000;0,000000;0,000000;0,375000;0,375000;0,416667;0,450000;0,450000;0,450000;0,450000;0,000000;0,375000;0,375000;0,375000;0,375000;0,437500;0,444444;0,444444;0,444444;0,444444;0,000000;0,500000;0,500000;0,000000;0,000000;0,000000;0,000000;0,464286;0,416667;0,000000;0,000000;0,000000;0,000000;0,375000;0,375000;0,000000;0,000000;0,000000;0,000000;0,000000;0,000000;0,000000;0,375000;0,375000;0,000000;0,000000;0,000000;0,000000;0,000000;0,000000;0,000000;0,000000;0,000000;0,000000;0,000000;0,000000;0,000000;0,000000;0,000000;0,000000;0,000000;
34;;;;;;;;;;;;;;;;;;;;;;;;;;;;;;;;;;1,000000;0,500000;0,500000;0,000000;0,000000;0,000000;0,000000;0,000000;0,000000;0,000000;0,000000;0,000000;0,375000;0,375000;0,416667;0,450000;0,450000;0,450000;0,450000;0,000000;0,375000;0,375000;0,375000;0,375000;0,437500;0,444444;0,444444;0,444444;0,444444;0,000000;0,500000;0,500000;0,000000;0,000000;0,000000;0,000000;0,464286;0,416667;0,000000;0,000000;0,000000;0,000000;0,375000;0,375000;0,000000;0,000000;0,000000;0,000000;0,000000;0,000000;0,000000;0,375000;0,375000;0,000000;0,000000;0,000000;0,000000;0,000000;0,000000;0,000000;0,000000;0,000000;0,000000;0,000000;0,000000;0,000000;0,000000;0,000000;0,000000;0,000000;
35;;;;;;;;;;;;;;;;;;;;;;;;;;;;;;;;;;;1,000000;0,500000;0,000000;0,000000;0,000000;0,000000;0,000000;0,000000;0,000000;0,000000;0,000000;0,456708;0,456708;0,286621;0,302316;0,302316;0,302316;0,302316;0,812500;0,312500;0,312500;0,312500;0,312500;0,375000;0,336621;0,336621;0,336621;0,383786;0,500000;0,500000;0,500000;0,309964;0,309964;0,309964;0,309964;0,315417;0,375000;0,276367;0,312500;0,312500;0,312500;0,312500;0,312500;0,343621;0,310000;0,273142;0,312500;0,250000;0,250000;0,437500;0,312500;0,312500;0,312500;0,250000;0,250000;0,250000;0,250000;0,000000;0,875000;0,000000;0,000000;0,312500;0,312500;0,750000;0,750000;0,000000;0,000000;0,000000;0,000000;
36;;;;;;;;;;;;;;;;;;;;;;;;;;;;;;;;;;;;1,000000;0,000000;0,000000;0,000000;0,000000;0,000000;0,000000;0,000000;0,000000;0,000000;0,333333;0,333333;0,375000;0,416667;0,416667;0,416667;0,416667;0,000000;0,333333;0,333333;0,333333;0,333333;0,400000;0,416667;0,416667;0,416667;0,416667;0,500000;0,500000;0,500000;0,375000;0,375000;0,375000;0,375000;0,437500;0,388889;0,000000;0,000000;0,000000;0,000000;0,333333;0,333333;0,000000;0,000000;0,000000;0,000000;0,000000;0,000000;0,000000;0,333333;0,333333;0,000000;0,000000;0,000000;0,000000;0,000000;0,000000;0,000000;0,000000;0,000000;0,000000;0,000000;0,333333;0,333333;0,000000;0,000000;0,000000;0,000000;
37;;;;;;;;;;;;;;;;;;;;;;;;;;;;;;;;;;;;;1,000000;0,800000;0,800000;0,800000;0,800000;0,800000;0,000000;0,000000;0,000000;0,000000;0,000000;0,000000;0,000000;0,000000;0,000000;0,000000;0,000000;0,000000;0,000000;0,000000;0,000000;0,000000;0,000000;0,000000;0,000000;0,000000;0,000000;0,000000;0,000000;0,000000;0,000000;0,000000;0,000000;0,000000;0,000000;0,000000;0,000000;0,000000;0,000000;0,000000;0,000000;0,000000;0,000000;0,000000;0,000000;0,000000;0,000000;0,000000;0,000000;0,000000;0,000000;0,000000;0,000000;0,000000;0,000000;0,000000;0,000000;0,000000;0,000000;0,000000;0,000000;0,000000;0,000000;0,225000;0,225000;0,225000;0,225000;
38;;;;;;;;;;;;;;;;;;;;;;;;;;;;;;;;;;;;;;1,000000;0,800000;0,800000;0,800000;0,800000;0,000000;0,000000;0,000000;0,000000;0,000000;0,000000;0,000000;0,000000;0,000000;0,000000;0,000000;0,000000;0,000000;0,000000;0,000000;0,000000;0,000000;0,000000;0,000000;0,000000;0,000000;0,000000;0,000000;0,000000;0,000000;0,000000;0,000000;0,000000;0,000000;0,000000;0,000000;0,000000;0,000000;0,000000;0,000000;0,000000;0,000000;0,000000;0,000000;0,000000;0,000000;0,000000;0,000000;0,000000;0,000000;0,000000;0,000000;0,000000;0,000000;0,000000;0,000000;0,000000;0,000000;0,000000;0,000000;0,000000;0,000000;0,225000;0,225000;0,225000;0,225000;
39;;;;;;;;;;;;;;;;;;;;;;;;;;;;;;;;;;;;;;;1,000000;0,800000;0,800000;0,800000;0,000000;0,000000;0,000000;0,000000;0,000000;0,000000;0,000000;0,000000;0,000000;0,000000;0,000000;0,000000;0,000000;0,000000;0,000000;0,000000;0,000000;0,000000;0,000000;0,000000;0,000000;0,000000;0,000000;0,000000;0,000000;0,000000;0,000000;0,000000;0,000000;0,000000;0,000000;0,000000;0,000000;0,000000;0,000000;0,000000;0,000000;0,000000;0,000000;0,000000;0,000000;0,000000;0,000000;0,000000;0,000000;0,000000;0,000000;0,000000;0,000000;0,000000;0,000000;0,000000;0,000000;0,000000;0,000000;0,000000;0,000000;0,225000;0,225000;0,225000;0,225000;
40;;;;;;;;;;;;;;;;;;;;;;;;;;;;;;;;;;;;;;;;1,000000;0,800000;0,800000;0,000000;0,000000;0,000000;0,000000;0,000000;0,000000;0,000000;0,000000;0,000000;0,000000;0,000000;0,000000;0,000000;0,000000;0,000000;0,000000;0,000000;0,000000;0,000000;0,000000;0,000000;0,000000;0,000000;0,000000;0,000000;0,000000;0,000000;0,000000;0,000000;0,000000;0,000000;0,000000;0,000000;0,000000;0,000000;0,000000;0,000000;0,000000;0,000000;0,000000;0,000000;0,000000;0,000000;0,000000;0,000000;0,000000;0,000000;0,000000;0,000000;0,000000;0,000000;0,000000;0,000000;0,000000;0,000000;0,000000;0,000000;0,225000;0,225000;0,225000;0,225000;
41;;;;;;;;;;;;;;;;;;;;;;;;;;;;;;;;;;;;;;;;;1,000000;0,800000;0,000000;0,000000;0,000000;0,000000;0,000000;0,000000;0,000000;0,000000;0,000000;0,000000;0,000000;0,000000;0,000000;0,000000;0,000000;0,000000;0,000000;0,000000;0,000000;0,000000;0,000000;0,000000;0,000000;0,000000;0,000000;0,000000;0,000000;0,000000;0,000000;0,000000;0,000000;0,000000;0,000000;0,000000;0,000000;0,000000;0,000000;0,000000;0,000000;0,000000;0,000000;0,000000;0,000000;0,000000;0,000000;0,000000;0,000000;0,000000;0,000000;0,000000;0,000000;0,000000;0,000000;0,000000;0,000000;0,000000;0,000000;0,750000;0,750000;0,750000;0,750000;
42;;;;;;;;;;;;;;;;;;;;;;;;;;;;;;;;;;;;;;;;;;1,000000;0,000000;0,000000;0,000000;0,000000;0,000000;0,000000;0,000000;0,000000;0,000000;0,000000;0,000000;0,000000;0,000000;0,000000;0,000000;0,000000;0,000000;0,000000;0,000000;0,000000;0,000000;0,000000;0,000000;0,000000;0,000000;0,000000;0,000000;0,000000;0,000000;0,000000;0,000000;0,000000;0,000000;0,000000;0,000000;0,000000;0,000000;0,000000;0,000000;0,000000;0,000000;0,000000;0,000000;0,000000;0,000000;0,000000;0,000000;0,000000;0,000000;0,000000;0,000000;0,000000;0,000000;0,000000;0,000000;0,000000;0,000000;0,225000;0,225000;0,225000;0,225000;
43;;;;;;;;;;;;;;;;;;;;;;;;;;;;;;;;;;;;;;;;;;;1,000000;0,500000;0,500000;0,000000;0,000000;0,000000;0,000000;0,000000;0,000000;0,000000;0,000000;0,000000;0,000000;0,000000;0,000000;0,000000;0,000000;0,000000;0,000000;0,000000;0,000000;0,000000;0,000000;0,000000;0,000000;0,000000;0,000000;0,000000;0,000000;0,000000;0,000000;0,000000;0,000000;0,000000;0,000000;0,000000;0,000000;0,000000;0,000000;0,000000;0,000000;0,000000;0,000000;0,000000;0,000000;0,000000;0,000000;0,000000;0,000000;0,000000;0,000000;0,000000;0,000000;0,000000;0,000000;0,000000;0,000000;0,000000;0,000000;0,000000;0,000000;
44;;;;;;;;;;;;;;;;;;;;;;;;;;;;;;;;;;;;;;;;;;;;1,000000;0,500000;0,000000;0,000000;0,000000;0,000000;0,000000;0,000000;0,000000;0,000000;0,000000;0,000000;0,000000;0,000000;0,000000;0,000000;0,000000;0,000000;0,000000;0,000000;0,000000;0,000000;0,000000;0,000000;0,000000;0,000000;0,000000;0,000000;0,000000;0,000000;0,000000;0,000000;0,000000;0,000000;0,000000;0,000000;0,000000;0,000000;0,000000;0,000000;0,000000;0,000000;0,000000;0,000000;0,000000;0,000000;0,000000;0,000000;0,000000;0,000000;0,000000;0,000000;0,000000;0,000000;0,000000;0,000000;0,000000;0,000000;0,000000;0,000000;
45;;;;;;;;;;;;;;;;;;;;;;;;;;;;;;;;;;;;;;;;;;;;;1,000000;0,000000;0,000000;0,000000;0,000000;0,000000;0,000000;0,000000;0,000000;0,000000;0,000000;0,000000;0,000000;0,000000;0,000000;0,000000;0,000000;0,000000;0,000000;0,000000;0,000000;0,000000;0,000000;0,000000;0,000000;0,000000;0,000000;0,000000;0,000000;0,000000;0,000000;0,000000;0,000000;0,000000;0,000000;0,000000;0,000000;0,000000;0,000000;0,000000;0,000000;0,000000;0,000000;0,000000;0,000000;0,000000;0,000000;0,000000;0,000000;0,000000;0,000000;0,000000;0,000000;0,000000;0,000000;0,000000;0,000000;0,000000;0,000000;
46;;;;;;;;;;;;;;;;;;;;;;;;;;;;;;;;;;;;;;;;;;;;;;1,000000;0,750000;0,250000;0,250000;0,250000;0,250000;0,250000;0,000000;0,250000;0,250000;0,250000;0,250000;0,250000;0,277778;0,277778;0,277778;0,277778;0,000000;0,375000;0,375000;0,000000;0,000000;0,000000;0,000000;0,250000;0,291667;0,000000;0,000000;0,000000;0,000000;0,250000;0,250000;0,000000;0,000000;0,000000;0,000000;0,000000;0,000000;0,000000;0,250000;0,250000;0,000000;0,000000;0,000000;0,000000;0,000000;0,000000;0,375000;0,000000;0,000000;0,000000;0,000000;0,250000;0,250000;0,000000;0,000000;0,000000;0,000000;
47;;;;;;;;;;;;;;;;;;;;;;;;;;;;;;;;;;;;;;;;;;;;;;;1,000000;0,250000;0,250000;0,250000;0,250000;0,250000;0,000000;0,250000;0,250000;0,250000;0,250000;0,250000;0,277778;0,277778;0,277778;0,277778;0,000000;0,375000;0,375000;0,000000;0,000000;0,000000;0,000000;0,250000;0,291667;0,000000;0,000000;0,000000;0,000000;0,250000;0,250000;0,000000;0,000000;0,000000;0,000000;0,000000;0,000000;0,000000;0,250000;0,250000;0,000000;0,000000;0,000000;0,000000;0,000000;0,000000;0,375000;0,000000;0,000000;0,000000;0,000000;0,250000;0,250000;0,000000;0,000000;0,000000;0,000000;
48;;;;;;;;;;;;;;;;;;;;;;;;;;;;;;;;;;;;;;;;;;;;;;;;1,000000;0,250000;0,250000;0,250000;0,250000;0,750000;0,250000;0,250000;0,250000;0,250000;0,250000;0,291667;0,291667;0,291667;0,483394;0,000000;0,416667;0,416667;0,250000;0,250000;0,250000;0,250000;0,697683;0,916667;0,538386;0,916667;0,611111;0,611111;0,614728;0,614728;0,424192;0,300000;0,269285;0,305556;0,250000;0,250000;0,416667;0,250000;0,250000;0,527778;0,250000;0,250000;0,250000;0,250000;0,000000;0,416667;0,000000;0,000000;0,305556;0,567055;0,250000;0,250000;0,000000;0,000000;0,000000;0,000000;
49;;;;;;;;;;;;;;;;;;;;;;;;;;;;;;;;;;;;;;;;;;;;;;;;;1,000000;0,750000;0,750000;0,750000;0,850000;0,250000;0,250000;0,250000;0,250000;0,250000;0,305556;0,305556;0,305556;0,357961;0,000000;0,450000;0,450000;0,250000;0,250000;0,250000;0,250000;0,255259;0,316667;0,280133;0,316667;0,316667;0,316667;0,250000;0,250000;0,354023;0,316667;0,275714;0,316667;0,250000;0,250000;0,450000;0,250000;0,250000;0,316667;0,250000;0,250000;0,250000;0,250000;0,000000;0,450000;0,000000;0,000000;0,316667;0,316667;0,250000;0,250000;0,000000;0,000000;0,000000;0,000000;
50;;;;;;;;;;;;;;;;;;;;;;;;;;;;;;;;;;;;;;;;;;;;;;;;;;1,000000;0,750000;0,750000;0,850000;0,250000;0,250000;0,250000;0,250000;0,250000;0,305556;0,305556;0,305556;0,357961;0,000000;0,450000;0,450000;0,250000;0,250000;0,250000;0,250000;0,255259;0,316667;0,280133;0,316667;0,316667;0,316667;0,250000;0,250000;0,354023;0,316667;0,275714;0,316667;0,250000;0,250000;0,450000;0,250000;0,250000;0,316667;0,250000;0,250000;0,250000;0,250000;0,000000;0,450000;0,000000;0,000000;0,316667;0,316667;0,250000;0,250000;0,000000;0,000000;0,000000;0,000000;
51;;;;;;;;;;;;;;;;;;;;;;;;;;;;;;;;;;;;;;;;;;;;;;;;;;;1,000000;0,750000;0,850000;0,250000;0,250000;0,250000;0,250000;0,250000;0,305556;0,305556;0,305556;0,357961;0,000000;0,450000;0,450000;0,250000;0,250000;0,250000;0,250000;0,255259;0,316667;0,280133;0,316667;0,316667;0,316667;0,250000;0,250000;0,354023;0,316667;0,275714;0,316667;0,250000;0,250000;0,450000;0,250000;0,250000;0,316667;0,250000;0,250000;0,250000;0,250000;0,000000;0,450000;0,000000;0,000000;0,316667;0,316667;0,250000;0,250000;0,000000;0,000000;0,000000;0,000000;
52;;;;;;;;;;;;;;;;;;;;;;;;;;;;;;;;;;;;;;;;;;;;;;;;;;;;1,000000;0,850000;0,250000;0,250000;0,250000;0,250000;0,250000;0,305556;0,305556;0,305556;0,357961;0,000000;0,450000;0,450000;0,250000;0,250000;0,250000;0,250000;0,255259;0,316667;0,280133;0,316667;0,316667;0,316667;0,250000;0,250000;0,354023;0,316667;0,275714;0,316667;0,250000;0,250000;0,450000;0,250000;0,250000;0,316667;0,250000;0,250000;0,250000;0,250000;0,000000;0,450000;0,000000;0,000000;0,316667;0,316667;0,250000;0,250000;0,000000;0,000000;0,000000;0,000000;
53;;;;;;;;;;;;;;;;;;;;;;;;;;;;;;;;;;;;;;;;;;;;;;;;;;;;;1,000000;0,000000;0,000000;0,000000;0,000000;0,000000;0,777778;0,777778;0,777778;0,833333;0,000000;0,000000;0,000000;0,750000;0,750000;0,750000;0,750000;0,896442;0,000000;0,825683;0,666667;0,666667;0,666667;0,000000;0,000000;0,802012;0,783333;0,762857;0,666667;0,625000;0,625000;0,750000;0,000000;0,000000;0,666667;0,625000;0,625000;0,625000;0,625000;0,000000;0,750000;0,000000;0,000000;0,666667;0,666667;0,625000;0,625000;0,000000;0,000000;0,000000;0,000000;
54;;;;;;;;;;;;;;;;;;;;;;;;;;;;;;;;;;;;;;;;;;;;;;;;;;;;;;1,000000;0,750000;0,750000;0,750000;0,250000;0,277778;0,277778;0,277778;0,277778;0,000000;0,375000;0,375000;0,000000;0,000000;0,000000;0,000000;0,250000;0,291667;0,000000;0,000000;0,000000;0,000000;0,250000;0,250000;0,000000;0,000000;0,000000;0,000000;0,000000;0,000000;0,000000;0,250000;0,250000;0,000000;0,000000;0,000000;0,000000;0,000000;0,000000;0,000000;0,000000;0,000000;0,000000;0,000000;0,000000;0,000000;0,000000;0,000000;0,000000;0,000000;
55;;;;;;;;;;;;;;;;;;;;;;;;;;;;;;;;;;;;;;;;;;;;;;;;;;;;;;;1,000000;0,750000;0,750000;0,250000;0,277778;0,277778;0,277778;0,277778;0,000000;0,375000;0,375000;0,000000;0,000000;0,000000;0,000000;0,250000;0,291667;0,000000;0,000000;0,000000;0,000000;0,250000;0,250000;0,000000;0,000000;0,000000;0,000000;0,000000;0,000000;0,000000;0,250000;0,250000;0,000000;0,000000;0,000000;0,000000;0,000000;0,000000;0,000000;0,000000;0,000000;0,000000;0,000000;0,000000;0,000000;0,000000;0,000000;0,000000;0,000000;
56;;;;;;;;;;;;;;;;;;;;;;;;;;;;;;;;;;;;;;;;;;;;;;;;;;;;;;;;1,000000;0,750000;0,250000;0,277778;0,277778;0,277778;0,277778;0,000000;0,375000;0,375000;0,000000;0,000000;0,000000;0,000000;0,250000;0,291667;0,000000;0,000000;0,000000;0,000000;0,250000;0,250000;0,000000;0,000000;0,000000;0,000000;0,000000;0,000000;0,000000;0,250000;0,250000;0,000000;0,000000;0,000000;0,000000;0,000000;0,000000;0,000000;0,000000;0,000000;0,000000;0,000000;0,000000;0,000000;0,000000;0,000000;0,000000;0,000000;
57;;;;;;;;;;;;;;;;;;;;;;;;;;;;;;;;;;;;;;;;;;;;;;;;;;;;;;;;;1,000000;0,250000;0,277778;0,277778;0,277778;0,277778;0,000000;0,375000;0,375000;0,000000;0,000000;0,000000;0,000000;0,250000;0,291667;0,000000;0,000000;0,000000;0,000000;0,250000;0,250000;0,000000;0,000000;0,000000;0,000000;0,000000;0,000000;0,000000;0,250000;0,250000;0,000000;0,000000;0,000000;0,000000;0,000000;0,000000;0,000000;0,000000;0,000000;0,000000;0,000000;0,000000;0,000000;0,000000;0,000000;0,000000;0,000000;
58;;;;;;;;;;;;;;;;;;;;;;;;;;;;;;;;;;;;;;;;;;;;;;;;;;;;;;;;;;1,000000;0,300000;0,300000;0,300000;0,300000;0,375000;0,437500;0,437500;0,000000;0,000000;0,000000;0,000000;0,250000;0,312500;0,000000;0,000000;0,000000;0,000000;0,250000;0,250000;0,000000;0,000000;0,000000;0,000000;0,000000;0,000000;0,000000;0,500000;0,500000;0,000000;0,000000;0,000000;0,000000;0,000000;0,000000;0,000000;0,000000;0,000000;0,312500;0,312500;0,000000;0,000000;0,000000;0,000000;0,000000;0,000000;
59;;;;;;;;;;;;;;;;;;;;;;;;;;;;;;;;;;;;;;;;;;;;;;;;;;;;;;;;;;;1,000000;0,666667;0,666667;0,372638;0,000000;0,444444;0,444444;0,291667;0,291667;0,291667;0,291667;0,315787;0,333333;0,321093;0,333333;0,333333;0,333333;0,277778;0,277778;0,369684;0,341667;0,310952;0,333333;0,277778;0,277778;0,444444;0,277778;0,277778;0,333333;0,277778;0,277778;0,277778;0,277778;0,000000;0,444444;0,000000;0,000000;0,333333;0,333333;0,277778;0,277778;0,000000;0,000000;0,000000;0,000000;
60;;;;;;;;;;;;;;;;;;;;;;;;;;;;;;;;;;;;;;;;;;;;;;;;;;;;;;;;;;;;1,000000;0,666667;0,372638;0,000000;0,444444;0,444444;0,291667;0,291667;0,291667;0,291667;0,315787;0,333333;0,321093;0,333333;0,333333;0,333333;0,277778;0,277778;0,369684;0,341667;0,310952;0,333333;0,277778;0,277778;0,444444;0,277778;0,277778;0,333333;0,277778;0,277778;0,277778;0,277778;0,000000;0,444444;0,000000;0,000000;0,333333;0,333333;0,277778;0,277778;0,000000;0,000000;0,000000;0,000000;
61;;;;;;;;;;;;;;;;;;;;;;;;;;;;;;;;;;;;;;;;;;;;;;;;;;;;;;;;;;;;;1,000000;0,372638;0,000000;0,444444;0,444444;0,291667;0,291667;0,291667;0,291667;0,315787;0,333333;0,321093;0,333333;0,333333;0,333333;0,277778;0,277778;0,369684;0,341667;0,310952;0,333333;0,277778;0,277778;0,444444;0,277778;0,277778;0,333333;0,277778;0,277778;0,277778;0,277778;0,000000;0,444444;0,000000;0,000000;0,333333;0,333333;0,277778;0,277778;0,000000;0,000000;0,000000;0,000000;
62;;;;;;;;;;;;;;;;;;;;;;;;;;;;;;;;;;;;;;;;;;;;;;;;;;;;;;;;;;;;;;1,000000;0,000000;0,444444;0,444444;0,375000;0,375000;0,375000;0,375000;0,521526;0,666667;0,421093;0,388889;0,388889;0,388889;0,555556;0,555556;0,495620;0,425000;0,394285;0,388889;0,333333;0,333333;0,500000;0,277778;0,277778;0,575397;0,333333;0,333333;0,333333;0,333333;0,000000;0,500000;0,000000;0,000000;0,388889;0,388889;0,333333;0,333333;0,000000;0,000000;0,000000;0,000000;
63;;;;;;;;;;;;;;;;;;;;;;;;;;;;;;;;;;;;;;;;;;;;;;;;;;;;;;;;;;;;;;;1,000000;0,000000;0,000000;0,750000;0,750000;0,750000;0,750000;0,000000;0,000000;0,000000;0,000000;0,000000;0,000000;0,000000;0,000000;0,000000;0,000000;0,000000;0,000000;0,000000;0,000000;0,000000;0,625000;0,625000;0,000000;0,000000;0,000000;0,000000;0,000000;0,000000;0,000000;0,000000;0,000000;0,750000;0,375000;0,312500;0,312500;0,000000;0,000000;0,000000;0,000000;
64;;;;;;;;;;;;;;;;;;;;;;;;;;;;;;;;;;;;;;;;;;;;;;;;;;;;;;;;;;;;;;;;1,000000;0,500000;0,000000;0,000000;0,000000;0,000000;0,464286;0,416667;0,000000;0,000000;0,000000;0,000000;0,375000;0,375000;0,000000;0,000000;0,000000;0,000000;0,000000;0,000000;0,000000;0,375000;0,375000;0,000000;0,000000;0,000000;0,000000;0,000000;0,000000;0,000000;0,000000;0,000000;0,000000;0,000000;0,000000;0,000000;0,000000;0,000000;0,000000;0,000000;
65;;;;;;;;;;;;;;;;;;;;;;;;;;;;;;;;;;;;;;;;;;;;;;;;;;;;;;;;;;;;;;;;;1,000000;0,000000;0,000000;0,000000;0,000000;0,464286;0,416667;0,000000;0,000000;0,000000;0,000000;0,375000;0,375000;0,000000;0,000000;0,000000;0,000000;0,000000;0,000000;0,000000;0,375000;0,375000;0,000000;0,000000;0,000000;0,000000;0,000000;0,000000;0,000000;0,000000;0,000000;0,000000;0,000000;0,000000;0,000000;0,000000;0,000000;0,000000;0,000000;
66;;;;;;;;;;;;;;;;;;;;;;;;;;;;;;;;;;;;;;;;;;;;;;;;;;;;;;;;;;;;;;;;;;1,000000;0,750000;0,750000;0,750000;0,256273;0,000000;0,271093;0,305556;0,305556;0,305556;0,000000;0,000000;0,328017;0,300000;0,269285;0,305556;0,250000;0,250000;0,416667;0,000000;0,000000;0,305556;0,250000;0,250000;0,250000;0,250000;0,000000;0,416667;0,000000;0,000000;0,305556;0,305556;0,250000;0,250000;0,000000;0,000000;0,000000;0,000000;
67;;;;;;;;;;;;;;;;;;;;;;;;;;;;;;;;;;;;;;;;;;;;;;;;;;;;;;;;;;;;;;;;;;;1,000000;0,750000;0,750000;0,256273;0,000000;0,271093;0,305556;0,305556;0,305556;0,000000;0,000000;0,328017;0,300000;0,269285;0,305556;0,250000;0,250000;0,416667;0,000000;0,000000;0,305556;0,250000;0,250000;0,250000;0,250000;0,000000;0,416667;0,000000;0,000000;0,305556;0,305556;0,250000;0,250000;0,000000;0,000000;0,000000;0,000000;
68;;;;;;;;;;;;;;;;;;;;;;;;;;;;;;;;;;;;;;;;;;;;;;;;;;;;;;;;;;;;;;;;;;;;1,000000;0,750000;0,256273;0,000000;0,271093;0,305556;0,305556;0,305556;0,000000;0,000000;0,328017;0,300000;0,269285;0,305556;0,250000;0,250000;0,416667;0,000000;0,000000;0,305556;0,250000;0,250000;0,250000;0,250000;0,000000;0,416667;0,000000;0,000000;0,305556;0,305556;0,250000;0,250000;0,000000;0,000000;0,000000;0,000000;
69;;;;;;;;;;;;;;;;;;;;;;;;;;;;;;;;;;;;;;;;;;;;;;;;;;;;;;;;;;;;;;;;;;;;;1,000000;0,256273;0,000000;0,271093;0,305556;0,305556;0,305556;0,000000;0,000000;0,328017;0,300000;0,269285;0,305556;0,250000;0,250000;0,416667;0,000000;0,000000;0,305556;0,250000;0,250000;0,250000;0,250000;0,000000;0,416667;0,000000;0,000000;0,305556;0,305556;0,250000;0,250000;0,000000;0,000000;0,000000;0,000000;
70;;;;;;;;;;;;;;;;;;;;;;;;;;;;;;;;;;;;;;;;;;;;;;;;;;;;;;;;;;;;;;;;;;;;;;1,000000;0,620035;0,582864;0,639191;0,639191;0,639191;0,706016;0,706016;0,515507;0,331273;0,285201;0,325013;0,253585;0,253585;0,901547;0,250000;0,250000;0,609554;0,253585;0,253585;0,253585;0,253585;0,000000;0,467870;0,000000;0,000000;0,325013;0,627785;0,253585;0,253585;0,000000;0,000000;0,000000;0,000000;
71;;;;;;;;;;;;;;;;;;;;;;;;;;;;;;;;;;;;;;;;;;;;;;;;;;;;;;;;;;;;;;;;;;;;;;;1,000000;0,000000;0,000000;0,000000;0,000000;0,583333;0,583333;0,333333;0,000000;0,000000;0,000000;0,000000;0,000000;0,000000;0,291667;0,291667;0,333333;0,000000;0,000000;0,000000;0,000000;0,000000;0,000000;0,000000;0,000000;0,000000;0,000000;0,000000;0,000000;0,000000;0,000000;0,000000;0,000000;
72;;;;;;;;;;;;;;;;;;;;;;;;;;;;;;;;;;;;;;;;;;;;;;;;;;;;;;;;;;;;;;;;;;;;;;;;1,000000;0,626701;0,605813;0,605813;0,259643;0,259643;0,364714;0,331093;0,294235;0,325683;0,263183;0,263183;0,450683;0,000000;0,000000;0,325683;0,263183;0,263183;0,263183;0,263183;0,000000;0,450683;0,000000;0,000000;0,325683;0,599358;0,263183;0,263183;0,000000;0,000000;0,000000;0,000000;
73;;;;;;;;;;;;;;;;;;;;;;;;;;;;;;;;;;;;;;;;;;;;;;;;;;;;;;;;;;;;;;;;;;;;;;;;;1,000000;0,666667;0,666667;0,291667;0,291667;0,357567;0,338889;0,318412;0,333333;0,291667;0,291667;0,416667;0,000000;0,000000;0,333333;0,291667;0,291667;0,291667;0,291667;0,000000;0,416667;0,000000;0,000000;0,333333;0,333333;0,291667;0,291667;0,000000;0,000000;0,000000;0,000000;
74;;;;;;;;;;;;;;;;;;;;;;;;;;;;;;;;;;;;;;;;;;;;;;;;;;;;;;;;;;;;;;;;;;;;;;;;;;1,000000;0,666667;0,000000;0,000000;0,357567;0,338889;0,318412;0,333333;0,291667;0,291667;0,416667;0,000000;0,000000;0,333333;0,291667;0,291667;0,291667;0,291667;0,000000;0,416667;0,000000;0,000000;0,333333;0,333333;0,291667;0,291667;0,000000;0,000000;0,000000;0,000000;
75;;;;;;;;;;;;;;;;;;;;;;;;;;;;;;;;;;;;;;;;;;;;;;;;;;;;;;;;;;;;;;;;;;;;;;;;;;;1,000000;0,000000;0,000000;0,357567;0,338889;0,318412;0,333333;0,291667;0,291667;0,416667;0,000000;0,000000;0,333333;0,291667;0,291667;0,291667;0,291667;0,000000;0,416667;0,000000;0,000000;0,333333;0,333333;0,291667;0,291667;0,000000;0,000000;0,000000;0,000000;
76;;;;;;;;;;;;;;;;;;;;;;;;;;;;;;;;;;;;;;;;;;;;;;;;;;;;;;;;;;;;;;;;;;;;;;;;;;;;1,000000;0,750000;0,277778;0,000000;0,000000;0,000000;0,000000;0,000000;0,000000;0,250000;0,250000;0,291667;0,000000;0,000000;0,000000;0,000000;0,000000;0,000000;0,000000;0,000000;0,000000;0,000000;0,000000;0,000000;0,000000;0,000000;0,000000;0,000000;
77;;;;;;;;;;;;;;;;;;;;;;;;;;;;;;;;;;;;;;;;;;;;;;;;;;;;;;;;;;;;;;;;;;;;;;;;;;;;;1,000000;0,277778;0,000000;0,000000;0,000000;0,000000;0,000000;0,000000;0,250000;0,250000;0,291667;0,000000;0,000000;0,000000;0,000000;0,000000;0,000000;0,000000;0,000000;0,000000;0,000000;0,000000;0,000000;0,000000;0,000000;0,000000;0,000000;
78;;;;;;;;;;;;;;;;;;;;;;;;;;;;;;;;;;;;;;;;;;;;;;;;;;;;;;;;;;;;;;;;;;;;;;;;;;;;;;1,000000;0,378017;0,540889;0,357567;0,550665;0,550665;0,468678;0,000000;0,000000;0,643906;0,302012;0,302012;0,302012;0,302012;0,000000;0,468678;0,000000;0,000000;0,357567;0,357567;0,302012;0,302012;0,000000;0,000000;0,000000;0,000000;
79;;;;;;;;;;;;;;;;;;;;;;;;;;;;;;;;;;;;;;;;;;;;;;;;;;;;;;;;;;;;;;;;;;;;;;;;;;;;;;;1,000000;0,627150;0,611111;0,722164;0,722164;0,450000;0,000000;0,000000;0,638035;0,283333;0,283333;0,283333;0,283333;0,000000;0,450000;0,000000;0,000000;0,338889;0,338889;0,283333;0,283333;0,000000;0,000000;0,000000;0,000000;
80;;;;;;;;;;;;;;;;;;;;;;;;;;;;;;;;;;;;;;;;;;;;;;;;;;;;;;;;;;;;;;;;;;;;;;;;;;;;;;;;1,000000;0,597250;0,695374;0,695374;0,429523;0,000000;0,000000;0,318412;0,262857;0,262857;0,262857;0,262857;0,416667;0,429523;0,000000;0,000000;0,318412;0,318412;0,262857;0,262857;0,000000;0,000000;0,000000;0,000000;
81;;;;;;;;;;;;;;;;;;;;;;;;;;;;;;;;;;;;;;;;;;;;;;;;;;;;;;;;;;;;;;;;;;;;;;;;;;;;;;;;;1,000000;0,583333;0,583333;0,416667;0,000000;0,000000;0,333333;0,291667;0,291667;0,291667;0,291667;0,388889;0,416667;0,000000;0,000000;0,333333;0,333333;0,291667;0,291667;0,000000;0,000000;0,000000;0,000000;
82;;;;;;;;;;;;;;;;;;;;;;;;;;;;;;;;;;;;;;;;;;;;;;;;;;;;;;;;;;;;;;;;;;;;;;;;;;;;;;;;;;1,000000;0,750000;0,375000;0,000000;0,000000;0,291667;0,250000;0,250000;0,250000;0,250000;0,000000;0,375000;0,000000;0,000000;0,291667;0,291667;0,250000;0,250000;0,000000;0,000000;0,000000;0,000000;
83;;;;;;;;;;;;;;;;;;;;;;;;;;;;;;;;;;;;;;;;;;;;;;;;;;;;;;;;;;;;;;;;;;;;;;;;;;;;;;;;;;;1,000000;0,375000;0,000000;0,000000;0,291667;0,250000;0,250000;0,250000;0,250000;0,000000;0,375000;0,000000;0,000000;0,291667;0,291667;0,250000;0,250000;0,000000;0,000000;0,000000;0,000000;
84;;;;;;;;;;;;;;;;;;;;;;;;;;;;;;;;;;;;;;;;;;;;;;;;;;;;;;;;;;;;;;;;;;;;;;;;;;;;;;;;;;;;1,000000;0,000000;0,000000;0,416667;0,375000;0,375000;0,375000;0,375000;0,000000;0,500000;0,000000;0,000000;0,416667;0,416667;0,375000;0,375000;0,000000;0,000000;0,000000;0,000000;
85;;;;;;;;;;;;;;;;;;;;;;;;;;;;;;;;;;;;;;;;;;;;;;;;;;;;;;;;;;;;;;;;;;;;;;;;;;;;;;;;;;;;;1,000000;0,750000;0,000000;0,000000;0,000000;0,000000;0,000000;0,000000;0,000000;0,000000;0,000000;0,583333;0,291667;0,000000;0,000000;0,000000;0,000000;0,000000;0,000000;
86;;;;;;;;;;;;;;;;;;;;;;;;;;;;;;;;;;;;;;;;;;;;;;;;;;;;;;;;;;;;;;;;;;;;;;;;;;;;;;;;;;;;;;1,000000;0,000000;0,000000;0,000000;0,000000;0,000000;0,000000;0,000000;0,000000;0,000000;0,583333;0,291667;0,000000;0,000000;0,000000;0,000000;0,000000;0,000000;
87;;;;;;;;;;;;;;;;;;;;;;;;;;;;;;;;;;;;;;;;;;;;;;;;;;;;;;;;;;;;;;;;;;;;;;;;;;;;;;;;;;;;;;;1,000000;0,291667;0,291667;0,291667;0,291667;0,000000;0,416667;0,000000;0,000000;0,333333;0,333333;0,291667;0,291667;0,000000;0,000000;0,000000;0,000000;
88;;;;;;;;;;;;;;;;;;;;;;;;;;;;;;;;;;;;;;;;;;;;;;;;;;;;;;;;;;;;;;;;;;;;;;;;;;;;;;;;;;;;;;;;1,000000;0,750000;0,750000;0,750000;0,000000;0,375000;0,000000;0,000000;0,291667;0,291667;0,250000;0,250000;0,000000;0,000000;0,000000;0,000000;
89;;;;;;;;;;;;;;;;;;;;;;;;;;;;;;;;;;;;;;;;;;;;;;;;;;;;;;;;;;;;;;;;;;;;;;;;;;;;;;;;;;;;;;;;;1,000000;0,750000;0,750000;0,000000;0,375000;0,000000;0,000000;0,291667;0,291667;0,250000;0,250000;0,000000;0,000000;0,000000;0,000000;
90;;;;;;;;;;;;;;;;;;;;;;;;;;;;;;;;;;;;;;;;;;;;;;;;;;;;;;;;;;;;;;;;;;;;;;;;;;;;;;;;;;;;;;;;;;1,000000;0,750000;0,000000;0,375000;0,000000;0,000000;0,291667;0,291667;0,250000;0,250000;0,000000;0,000000;0,000000;0,000000;
91;;;;;;;;;;;;;;;;;;;;;;;;;;;;;;;;;;;;;;;;;;;;;;;;;;;;;;;;;;;;;;;;;;;;;;;;;;;;;;;;;;;;;;;;;;;1,000000;0,000000;0,375000;0,000000;0,000000;0,291667;0,291667;0,250000;0,250000;0,000000;0,000000;0,000000;0,000000;
92;;;;;;;;;;;;;;;;;;;;;;;;;;;;;;;;;;;;;;;;;;;;;;;;;;;;;;;;;;;;;;;;;;;;;;;;;;;;;;;;;;;;;;;;;;;;1,000000;0,000000;0,500000;0,500000;0,000000;0,000000;0,000000;0,000000;0,000000;0,000000;0,000000;0,000000;
93;;;;;;;;;;;;;;;;;;;;;;;;;;;;;;;;;;;;;;;;;;;;;;;;;;;;;;;;;;;;;;;;;;;;;;;;;;;;;;;;;;;;;;;;;;;;;1,000000;0,000000;0,000000;0,416667;0,416667;0,750000;0,750000;0,000000;0,000000;0,000000;0,000000;
94;;;;;;;;;;;;;;;;;;;;;;;;;;;;;;;;;;;;;;;;;;;;;;;;;;;;;;;;;;;;;;;;;;;;;;;;;;;;;;;;;;;;;;;;;;;;;;1,000000;0,500000;0,000000;0,000000;0,000000;0,000000;0,000000;0,000000;0,000000;0,000000;
95;;;;;;;;;;;;;;;;;;;;;;;;;;;;;;;;;;;;;;;;;;;;;;;;;;;;;;;;;;;;;;;;;;;;;;;;;;;;;;;;;;;;;;;;;;;;;;;1,000000;0,000000;0,000000;0,000000;0,000000;0,000000;0,000000;0,000000;0,000000;
96;;;;;;;;;;;;;;;;;;;;;;;;;;;;;;;;;;;;;;;;;;;;;;;;;;;;;;;;;;;;;;;;;;;;;;;;;;;;;;;;;;;;;;;;;;;;;;;;1,000000;0,666667;0,291667;0,291667;0,000000;0,000000;0,000000;0,000000;
97;;;;;;;;;;;;;;;;;;;;;;;;;;;;;;;;;;;;;;;;;;;;;;;;;;;;;;;;;;;;;;;;;;;;;;;;;;;;;;;;;;;;;;;;;;;;;;;;;1,000000;0,291667;0,291667;0,000000;0,000000;0,000000;0,000000;
98;;;;;;;;;;;;;;;;;;;;;;;;;;;;;;;;;;;;;;;;;;;;;;;;;;;;;;;;;;;;;;;;;;;;;;;;;;;;;;;;;;;;;;;;;;;;;;;;;;1,000000;0,750000;0,000000;0,000000;0,000000;0,000000;
99;;;;;;;;;;;;;;;;;;;;;;;;;;;;;;;;;;;;;;;;;;;;;;;;;;;;;;;;;;;;;;;;;;;;;;;;;;;;;;;;;;;;;;;;;;;;;;;;;;;1,000000;0,000000;0,000000;0,000000;0,000000;
100;;;;;;;;;;;;;;;;;;;;;;;;;;;;;;;;;;;;;;;;;;;;;;;;;;;;;;;;;;;;;;;;;;;;;;;;;;;;;;;;;;;;;;;;;;;;;;;;;;;;1,000000;0,750000;0,750000;0,750000;
101;;;;;;;;;;;;;;;;;;;;;;;;;;;;;;;;;;;;;;;;;;;;;;;;;;;;;;;;;;;;;;;;;;;;;;;;;;;;;;;;;;;;;;;;;;;;;;;;;;;;;1,000000;0,750000;0,750000;
102;;;;;;;;;;;;;;;;;;;;;;;;;;;;;;;;;;;;;;;;;;;;;;;;;;;;;;;;;;;;;;;;;;;;;;;;;;;;;;;;;;;;;;;;;;;;;;;;;;;;;;1,000000;0,750000;
103;;;;;;;;;;;;;;;;;;;;;;;;;;;;;;;;;;;;;;;;;;;;;;;;;;;;;;;;;;;;;;;;;;;;;;;;;;;;;;;;;;;;;;;;;;;;;;;;;;;;;;;1,000000;
