;1; 2; 3; 4; 5; 6; 7; 8; 9; 10; 11; 12; 13; 14; 15; 16; 17; 18; 19; 20; 21; 22; 23; 24; 25; 26; 27; 28; 29; 30; 31; 32; 33; 34; 35
1;1,000000;0,412995;0,512968;0,512968;0,660133;0,621817;0,400514;0,387968;0,387968;0,451214;0,678076;0,678076;0,405985;0,346301;0,346301;0,346301;0,346301;0,346301;0,512968;0,512968;0,362968;0,362968;0,362968;0,362968;0,362968;0,387968;0,407253;0,762968;0,512968;0,362968;0,362968;0,362968;0,362968;0,362968;0,512968;
2;;1,000000;0,392786;0,392786;0,525879;0,492430;0,440527;0,438114;0,438114;0,405422;0,543386;0,543386;0,442344;0,482963;0,482963;0,482963;0,482963;0,482963;0,392786;0,392786;0,461480;0,461480;0,461480;0,461480;0,461480;0,446021;0,420361;0,000000;0,283259;0,461335;0,461335;0,461335;0,461335;0,461335;0,269421;
3;;;1,000000;1,000000;0,788570;0,833333;0,387546;0,375000;0,375000;0,438246;0,750000;0,750000;0,393017;0,333333;0,333333;0,333333;0,333333;0,333333;1,000000;1,000000;0,350000;0,350000;0,350000;0,350000;0,350000;0,375000;0,394285;0,750000;0,500000;0,350000;0,350000;0,350000;0,350000;0,350000;0,500000;
4;;;;1,000000;0,788570;0,833333;0,387546;0,375000;0,375000;0,438246;0,750000;0,750000;0,393017;0,333333;0,333333;0,333333;0,333333;0,333333;1,000000;1,000000;0,350000;0,350000;0,350000;0,350000;0,350000;0,375000;0,394285;0,750000;0,500000;0,350000;0,350000;0,350000;0,350000;0,350000;0,500000;
5;;;;;1,000000;0,621904;0,281831;0,269285;0,269285;0,332532;0,731815;0,731815;0,287303;0,227618;0,227618;0,227618;0,227618;0,227618;0,788570;0,788570;0,244285;0,244285;0,244285;0,244285;0,244285;0,269285;0,288570;0,644285;0,394285;0,244285;0,244285;0,244285;0,244285;0,244285;0,394285;
6;;;;;;1,000000;0,304213;0,291667;0,291667;0,354913;0,875000;0,875000;0,309684;0,250000;0,250000;0,250000;0,250000;0,250000;0,833333;0,833333;0,266667;0,266667;0,266667;0,266667;0,266667;0,291667;0,310952;0,666667;0,416667;0,266667;0,266667;0,266667;0,266667;0,266667;0,416667;
7;;;;;;;1,000000;0,696058;0,696058;0,720585;0,262546;0,262546;0,280563;0,220879;0,220879;0,220879;0,220879;0,220879;0,387546;0,387546;0,237546;0,237546;0,237546;0,237546;0,237546;0,748242;0,677952;0,637546;0,775092;0,237546;0,237546;0,237546;0,237546;0,237546;0,387546;
8;;;;;;;;1,000000;0,750000;0,698811;0,250000;0,250000;0,268017;0,208333;0,208333;0,208333;0,208333;0,208333;0,375000;0,375000;0,225000;0,225000;0,225000;0,225000;0,225000;0,750000;0,807855;0,625000;0,750000;0,225000;0,225000;0,225000;0,225000;0,225000;0,375000;
9;;;;;;;;;1,000000;0,698811;0,250000;0,250000;0,268017;0,208333;0,208333;0,208333;0,208333;0,208333;0,375000;0,375000;0,225000;0,225000;0,225000;0,225000;0,225000;0,750000;0,807855;0,625000;0,750000;0,225000;0,225000;0,225000;0,225000;0,225000;0,375000;
10;;;;;;;;;;1,000000;0,313246;0,313246;0,331264;0,271580;0,271580;0,271580;0,271580;0,271580;0,438246;0,438246;0,288246;0,288246;0,288246;0,288246;0,288246;0,739591;0,680722;0,688246;0,438246;0,288246;0,288246;0,288246;0,288246;0,288246;0,438246;
11;;;;;;;;;;;1,000000;0,750000;0,268017;0,208333;0,208333;0,208333;0,208333;0,208333;0,750000;0,750000;0,225000;0,225000;0,225000;0,225000;0,225000;0,250000;0,269285;0,625000;0,375000;0,225000;0,225000;0,225000;0,225000;0,225000;0,375000;
12;;;;;;;;;;;;1,000000;0,268017;0,208333;0,208333;0,208333;0,208333;0,208333;0,750000;0,750000;0,225000;0,225000;0,225000;0,225000;0,225000;0,250000;0,269285;0,625000;0,375000;0,225000;0,225000;0,225000;0,225000;0,225000;0,375000;
13;;;;;;;;;;;;;1,000000;0,789930;0,789930;0,789930;0,789930;0,789930;0,393017;0,393017;0,243017;0,243017;0,243017;0,243017;0,243017;0,268017;0,287303;0,643017;0,393017;0,243017;0,243017;0,243017;0,243017;0,243017;0,393017;
14;;;;;;;;;;;;;;1,000000;0,833333;0,833333;0,833333;0,833333;0,333333;0,333333;0,183333;0,183333;0,183333;0,183333;0,183333;0,208333;0,227618;0,583333;0,333333;0,183333;0,183333;0,183333;0,183333;0,183333;0,666667;
15;;;;;;;;;;;;;;;1,000000;0,833333;0,833333;0,833333;0,333333;0,333333;0,183333;0,183333;0,183333;0,183333;0,183333;0,208333;0,227618;0,583333;0,333333;0,183333;0,183333;0,183333;0,183333;0,183333;0,666667;
16;;;;;;;;;;;;;;;;1,000000;0,833333;0,833333;0,333333;0,333333;0,183333;0,183333;0,183333;0,183333;0,183333;0,208333;0,227618;0,583333;0,333333;0,183333;0,183333;0,183333;0,183333;0,183333;0,666667;
17;;;;;;;;;;;;;;;;;1,000000;0,833333;0,333333;0,333333;0,183333;0,183333;0,183333;0,183333;0,183333;0,208333;0,227618;0,583333;0,333333;0,183333;0,183333;0,183333;0,183333;0,183333;0,666667;
18;;;;;;;;;;;;;;;;;;1,000000;0,333333;0,333333;0,183333;0,183333;0,183333;0,183333;0,183333;0,208333;0,227618;0,583333;0,333333;0,183333;0,183333;0,183333;0,183333;0,183333;0,666667;
19;;;;;;;;;;;;;;;;;;;1,000000;1,000000;0,350000;0,350000;0,350000;0,350000;0,350000;0,375000;0,394285;0,750000;0,500000;0,350000;0,350000;0,350000;0,350000;0,350000;0,500000;
20;;;;;;;;;;;;;;;;;;;;1,000000;0,350000;0,350000;0,350000;0,350000;0,350000;0,375000;0,394285;0,750000;0,500000;0,350000;0,350000;0,350000;0,350000;0,350000;0,500000;
21;;;;;;;;;;;;;;;;;;;;;1,000000;0,800000;0,800000;0,800000;0,800000;0,225000;0,244285;0,600000;0,350000;0,200000;0,200000;0,200000;0,200000;0,200000;0,350000;
22;;;;;;;;;;;;;;;;;;;;;;1,000000;0,800000;0,800000;0,800000;0,225000;0,244285;0,600000;0,350000;0,200000;0,200000;0,200000;0,200000;0,200000;0,350000;
23;;;;;;;;;;;;;;;;;;;;;;;1,000000;0,800000;0,800000;0,225000;0,244285;0,600000;0,350000;0,200000;0,200000;0,200000;0,200000;0,200000;0,350000;
24;;;;;;;;;;;;;;;;;;;;;;;;1,000000;0,800000;0,225000;0,244285;0,600000;0,350000;0,200000;0,200000;0,200000;0,200000;0,200000;0,350000;
25;;;;;;;;;;;;;;;;;;;;;;;;;1,000000;0,225000;0,244285;0,600000;0,350000;0,200000;0,200000;0,200000;0,200000;0,200000;0,350000;
26;;;;;;;;;;;;;;;;;;;;;;;;;;1,000000;0,807855;0,625000;0,750000;0,225000;0,225000;0,225000;0,225000;0,225000;0,375000;
27;;;;;;;;;;;;;;;;;;;;;;;;;;;1,000000;0,644285;0,788570;0,244285;0,244285;0,244285;0,244285;0,244285;0,394285;
28;;;;;;;;;;;;;;;;;;;;;;;;;;;;1,000000;0,750000;0,600000;0,600000;0,600000;0,600000;0,600000;0,750000;
29;;;;;;;;;;;;;;;;;;;;;;;;;;;;;1,000000;0,350000;0,350000;0,350000;0,350000;0,350000;0,500000;
30;;;;;;;;;;;;;;;;;;;;;;;;;;;;;;1,000000;0,800000;0,800000;0,800000;0,800000;0,350000;
31;;;;;;;;;;;;;;;;;;;;;;;;;;;;;;;1,000000;0,800000;0,800000;0,800000;0,350000;
32;;;;;;;;;;;;;;;;;;;;;;;;;;;;;;;;1,000000;0,800000;0,800000;0,350000;
33;;;;;;;;;;;;;;;;;;;;;;;;;;;;;;;;;1,000000;0,800000;0,350000;
34;;;;;;;;;;;;;;;;;;;;;;;;;;;;;;;;;;1,000000;0,350000;
35;;;;;;;;;;;;;;;;;;;;;;;;;;;;;;;;;;;1,000000;
