;1; 2; 3; 4; 5; 6; 7; 8; 9; 10; 11; 12; 13; 14; 15; 16; 17; 18; 19; 20; 21; 22; 23; 24; 25; 26; 27; 28; 29; 30; 31; 32; 33; 34; 35; 36; 37; 38; 39; 40; 41; 42; 43; 44; 45; 46; 47; 48; 49; 50; 51; 52; 53; 54; 55; 56; 57; 58; 59; 60; 61; 62; 63; 64; 65; 66; 67; 68; 69; 70; 71; 72; 73; 74; 75; 76; 77; 78; 79; 80; 81; 82; 83; 84; 85; 86; 87; 88; 89; 90; 91; 92; 93; 94; 95; 96; 97; 98; 99; 100; 101; 102; 103; 104; 105
1;1,000000;0,202066;0,193522;0,262610;0,360524;0,360524;0,361421;0,355815;0,256415;0,256415;0,190906;0,270486;0,312533;0,262552;0,256438;0,081486;0,332959;0,000000;0,000000;0,000000;0,378380;0,244568;0,322332;0,309532;0,400525;0,316894;0,165288;0,248922;0,356769;0,354762;0,354762;0,392141;0,408818;0,424026;0,406158;0,339607;0,334778;0,294480;0,399845;0,365912;0,350711;0,360902;0,360902;0,381631;0,381631;0,397284;0,388411;0,388411;0,388411;0,371574;0,361595;0,414161;0,000000;0,000000;0,000000;0,000000;0,000000;0,307077;0,259107;0,390676;0,259107;0,000000;0,000000;0,000000;0,000000;0,282223;0,298413;0,000000;0,000000;0,000000;0,362714;0,093849;0,256438;0,345715;0,348671;0,348671;0,267926;0,344992;0,315380;0,000000;0,000000;0,000000;0,000000;0,256444;0,256444;0,391315;0,000000;0,333768;0,271120;0,255967;0,343702;0,348593;0,000000;0,267358;0,256419;0,406470;0,406470;0,351756;0,351756;0,213902;0,213902;0,213902;0,429541;0,429541;0,429541;
2;;1,000000;0,603709;0,569412;0,453586;0,453586;0,470305;0,508519;0,536919;0,536919;0,620252;0,543112;0,582237;0,536919;0,536919;0,731631;0,500521;0,000000;0,000000;0,000000;0,532135;0,622968;0,577838;0,556762;0,450583;0,489936;0,489228;0,572633;0,516455;0,453586;0,453586;0,468865;0,368477;0,386919;0,416093;0,384469;0,356863;0,489936;0,427506;0,453586;0,453586;0,747014;0,747014;0,424465;0,424465;0,411919;0,397807;0,397807;0,397807;0,000000;0,367256;0,000000;0,000000;0,000000;0,000000;0,000000;0,000000;0,498349;0,536919;0,411919;0,536919;0,000000;0,000000;0,000000;0,000000;0,465375;0,522060;0,000000;0,000000;0,000000;0,453586;0,388385;0,536919;0,359694;0,453586;0,453586;0,362819;0,453586;0,378684;0,786919;0,000000;0,000000;0,000000;0,465971;0,465971;0,693894;0,000000;0,508519;0,536919;0,536919;0,000000;0,453586;0,000000;0,536919;0,536919;0,747014;0,747014;0,453586;0,453586;0,000000;0,000000;0,000000;0,386919;0,386919;0,386919;
3;;;1,000000;0,599283;0,483457;0,483457;0,646101;0,772090;0,566790;0,566790;0,650124;0,572983;0,575689;0,566790;0,566790;0,824967;0,799919;0,000000;0,000000;0,000000;0,601425;0,711999;0,675692;0,555200;0,634811;0,519808;0,519100;0,728333;0,546327;0,483457;0,483457;0,639172;0,521592;0,536325;0,609717;0,414340;0,386735;0,519808;0,457378;0,637168;0,483457;0,483457;0,483457;0,454336;0,454336;0,441790;0,427679;0,427679;0,427679;0,000000;0,397127;0,000000;0,000000;0,000000;0,000000;0,000000;0,000000;0,528220;0,566790;0,441790;0,566790;0,000000;0,000000;0,000000;0,000000;0,570137;0,551932;0,000000;0,000000;0,000000;0,483457;0,418257;0,566790;0,389566;0,483457;0,483457;0,516443;0,483457;0,408556;0,816790;0,000000;0,000000;0,000000;0,495843;0,495843;0,483457;0,000000;0,695928;0,566790;0,566790;0,000000;0,483457;0,000000;0,748607;0,566790;0,483457;0,483457;0,483457;0,483457;0,000000;0,000000;0,000000;0,416790;0,416790;0,416790;
4;;;;1,000000;0,678297;0,678297;0,465879;0,596704;0,532493;0,532493;0,615826;0,538685;0,541391;0,532493;0,532493;0,727205;0,496095;0,000000;0,000000;0,000000;0,527709;0,618542;0,573412;0,520902;0,446156;0,485510;0,484802;0,568207;0,512029;0,635820;0,635820;0,464438;0,449466;0,382493;0,411667;0,380042;0,352437;0,485510;0,423080;0,449159;0,449159;0,449159;0,449159;0,529431;0,529431;0,552547;0,393381;0,393381;0,393381;0,000000;0,362830;0,035963;0,000000;0,000000;0,000000;0,000000;0,000000;0,593376;0,532493;0,407493;0,532493;0,000000;0,000000;0,000000;0,000000;0,460949;0,731065;0,000000;0,000000;0,000000;0,449159;0,383959;0,532493;0,355268;0,449159;0,449159;0,358393;0,449159;0,568280;0,782493;0,000000;0,000000;0,000000;0,461545;0,461545;0,449159;0,000000;0,636031;0,532493;0,532493;0,000000;0,449159;0,000000;0,532493;0,532493;0,449159;0,449159;0,635820;0,635820;0,000000;0,000000;0,000000;0,382493;0,382493;0,382493;
5;;;;;1,000000;0,666667;0,544419;0,388267;0,416667;0,416667;0,500000;0,422859;0,425565;0,416667;0,416667;0,611379;0,380269;0,000000;0,000000;0,000000;0,411883;0,502716;0,457586;0,405076;0,330330;0,369684;0,368976;0,766307;0,583894;0,333333;0,333333;0,348612;0,248225;0,266667;0,295841;0,264216;0,236611;0,369684;0,307254;0,333333;0,333333;0,333333;0,333333;0,304213;0,304213;0,291667;0,277555;0,277555;0,277555;0,000000;0,247004;0,000000;0,000000;0,000000;0,000000;0,000000;0,000000;0,378096;0,416667;0,291667;0,416667;0,000000;0,000000;0,000000;0,000000;0,345123;0,401808;0,000000;0,000000;0,000000;0,333333;0,268133;0,416667;0,239442;0,333333;0,333333;0,242567;0,333333;0,258432;0,666667;0,000000;0,000000;0,000000;0,345719;0,345719;0,333333;0,000000;0,388267;0,833333;0,416667;0,000000;0,333333;0,000000;0,416667;0,416667;0,333333;0,333333;0,333333;0,333333;0,000000;0,000000;0,000000;0,266667;0,266667;0,266667;
6;;;;;;1,000000;0,544419;0,388267;0,416667;0,416667;0,500000;0,422859;0,425565;0,416667;0,416667;0,611379;0,380269;0,000000;0,000000;0,000000;0,411883;0,502716;0,457586;0,405076;0,330330;0,369684;0,368976;0,766307;0,583894;0,333333;0,333333;0,348612;0,248225;0,266667;0,295841;0,264216;0,236611;0,369684;0,307254;0,333333;0,333333;0,333333;0,333333;0,304213;0,304213;0,291667;0,277555;0,277555;0,277555;0,000000;0,247004;0,000000;0,000000;0,000000;0,000000;0,000000;0,000000;0,378096;0,416667;0,291667;0,416667;0,000000;0,000000;0,000000;0,000000;0,345123;0,401808;0,000000;0,000000;0,000000;0,333333;0,268133;0,416667;0,239442;0,333333;0,333333;0,242567;0,333333;0,258432;0,666667;0,000000;0,000000;0,000000;0,345719;0,345719;0,333333;0,000000;0,388267;0,833333;0,416667;0,000000;0,333333;0,000000;0,416667;0,416667;0,333333;0,333333;0,333333;0,333333;0,000000;0,000000;0,000000;0,266667;0,266667;0,266667;
7;;;;;;;1,000000;0,454317;0,433386;0,433386;0,516719;0,439579;0,442284;0,433386;0,433386;0,628098;0,639282;0,000000;0,000000;0,000000;0,507751;0,573901;0,474305;0,421795;0,384812;0,386403;0,433236;0,738414;0,461646;0,350053;0,350053;0,428334;0,589099;0,402527;0,583272;0,379708;0,378294;0,386403;0,323973;0,350053;0,350053;0,350053;0,350053;0,627057;0,627057;0,638889;0,294274;0,294274;0,294274;0,177090;0,330148;0,181661;0,120719;0,120719;0,120719;0,120719;0,120719;0,394816;0,433386;0,308386;0,433386;0,000000;0,000000;0,000000;0,000000;0,421652;0,418527;0,223737;0,187386;0,187386;0,350053;0,365621;0,433386;0,375559;0,350053;0,350053;0,375559;0,763889;0,559483;0,683386;0,000000;0,000000;0,000000;0,458892;0,458892;0,350053;0,520719;0,404986;0,711086;0,433386;0,187386;0,350053;0,270719;0,593672;0,433386;0,350053;0,350053;0,350053;0,350053;0,120719;0,120719;0,120719;0,283386;0,283386;0,283386;
8;;;;;;;;1,000000;0,471600;0,471600;0,554933;0,477793;0,480498;0,471600;0,471600;0,728017;0,569225;0,000000;0,000000;0,000000;0,543658;0,615049;0,578742;0,460009;0,601064;0,424617;0,423909;0,507314;0,451136;0,388267;0,388267;0,815286;0,539651;0,586427;0,510139;0,319150;0,291544;0,424617;0,362187;0,540218;0,388267;0,388267;0,388267;0,521040;0,521040;0,544157;0,332488;0,332488;0,332488;0,000000;0,301937;0,150228;0,000000;0,000000;0,000000;0,000000;0,000000;0,433030;0,471600;0,346600;0,471600;0,000000;0,000000;0,000000;0,000000;0,473188;0,456741;0,000000;0,000000;0,000000;0,388267;0,323066;0,471600;0,294375;0,388267;0,388267;0,419493;0,388267;0,699683;0,721600;0,000000;0,000000;0,000000;0,400652;0,400652;0,388267;0,000000;0,859072;0,471600;0,471600;0,000000;0,388267;0,000000;0,471600;0,471600;0,388267;0,388267;0,388267;0,388267;0,000000;0,000000;0,000000;0,321600;0,321600;0,321600;
9;;;;;;;;;1,000000;0,500000;0,583333;0,506193;0,508899;0,500000;0,500000;0,694712;0,463602;0,000000;0,000000;0,000000;0,495216;0,586049;0,540919;0,488409;0,413664;0,453017;0,452309;0,535714;0,479537;0,416667;0,416667;0,431946;0,331558;0,350000;0,379175;0,347550;0,319944;0,453017;0,390587;0,416667;0,416667;0,416667;0,416667;0,387546;0,387546;0,375000;0,360888;0,360888;0,360888;0,000000;0,330337;0,000000;0,000000;0,000000;0,000000;0,000000;0,000000;0,461430;0,500000;0,375000;0,500000;0,000000;0,000000;0,000000;0,000000;0,428457;0,485141;0,000000;0,000000;0,000000;0,416667;0,351466;0,500000;0,322775;0,416667;0,416667;0,325900;0,416667;0,341765;0,750000;0,000000;0,000000;0,000000;0,429053;0,429053;0,416667;0,000000;0,471600;0,500000;0,500000;0,000000;0,416667;0,000000;0,500000;0,500000;0,416667;0,416667;0,416667;0,416667;0,000000;0,000000;0,000000;0,350000;0,350000;0,350000;
10;;;;;;;;;;1,000000;0,583333;0,506193;0,508899;0,500000;0,500000;0,694712;0,463602;0,000000;0,000000;0,000000;0,495216;0,586049;0,540919;0,488409;0,413664;0,453017;0,452309;0,535714;0,479537;0,416667;0,416667;0,431946;0,331558;0,350000;0,379175;0,347550;0,319944;0,453017;0,390587;0,416667;0,416667;0,416667;0,416667;0,387546;0,387546;0,375000;0,360888;0,360888;0,360888;0,000000;0,330337;0,000000;0,000000;0,000000;0,000000;0,000000;0,000000;0,461430;0,500000;0,375000;0,500000;0,000000;0,000000;0,000000;0,000000;0,428457;0,485141;0,000000;0,000000;0,000000;0,416667;0,351466;0,500000;0,322775;0,416667;0,416667;0,325900;0,416667;0,341765;0,750000;0,000000;0,000000;0,000000;0,429053;0,429053;0,416667;0,000000;0,471600;0,500000;0,500000;0,000000;0,416667;0,000000;0,500000;0,500000;0,416667;0,416667;0,416667;0,416667;0,000000;0,000000;0,000000;0,350000;0,350000;0,350000;
11;;;;;;;;;;;1,000000;0,589526;0,592232;0,583333;0,583333;0,778046;0,546935;0,000000;0,000000;0,000000;0,578549;0,669383;0,624253;0,571743;0,689893;0,536351;0,535643;0,619048;0,562870;0,500000;0,500000;0,515279;0,414891;0,433333;0,462508;0,430883;0,403278;0,536351;0,473921;0,726798;0,500000;0,500000;0,500000;0,470879;0,470879;0,458333;0,444222;0,444222;0,444222;0,000000;0,413670;0,000000;0,000000;0,000000;0,000000;0,000000;0,000000;0,544763;0,583333;0,458333;0,583333;0,000000;0,000000;0,000000;0,000000;0,511790;0,568475;0,000000;0,000000;0,000000;0,500000;0,434799;0,583333;0,406109;0,500000;0,500000;0,409234;0,500000;0,425099;0,833333;0,000000;0,000000;0,000000;0,512386;0,512386;0,500000;0,000000;0,554933;0,583333;0,583333;0,000000;0,500000;0,000000;0,583333;0,583333;0,500000;0,500000;0,500000;0,500000;0,000000;0,000000;0,000000;0,433333;0,433333;0,433333;
12;;;;;;;;;;;;1,000000;0,515091;0,506193;0,506193;0,700905;0,469795;0,000000;0,000000;0,000000;0,767785;0,592242;0,547112;0,494602;0,572962;0,459210;0,458502;0,541907;0,485729;0,422859;0,422859;0,559189;0,453908;0,533333;0,519700;0,353743;0,326137;0,632699;0,581817;0,666667;0,422859;0,422859;0,422859;0,393739;0,393739;0,381193;0,367081;0,367081;0,367081;0,000000;0,336530;0,000000;0,000000;0,000000;0,000000;0,000000;0,000000;0,467623;0,506193;0,381193;0,506193;0,000000;0,000000;0,000000;0,000000;0,434649;0,491334;0,000000;0,000000;0,000000;0,422859;0,357659;0,506193;0,328968;0,422859;0,422859;0,332093;0,422859;0,347958;0,756193;0,000000;0,000000;0,000000;0,435245;0,435245;0,422859;0,000000;0,477793;0,506193;0,506193;0,000000;0,666667;0,000000;0,506193;0,506193;0,422859;0,422859;0,422859;0,422859;0,000000;0,000000;0,000000;0,356193;0,356193;0,356193;
13;;;;;;;;;;;;;1,000000;0,508899;0,508899;0,703611;0,472501;0,000000;0,000000;0,000000;0,504115;0,594948;0,549818;0,934745;0,422562;0,461916;0,461208;0,544613;0,488435;0,425565;0,425565;0,440844;0,340456;0,358899;0,388073;0,356448;0,328843;0,461916;0,399486;0,425565;0,425565;0,603606;0,603606;0,396444;0,396444;0,383899;0,369787;0,369787;0,369787;0,000000;0,339236;0,000000;0,000000;0,000000;0,000000;0,000000;0,000000;0,470328;0,508899;0,383899;0,508899;0,000000;0,000000;0,000000;0,000000;0,437355;0,494040;0,000000;0,000000;0,000000;0,425565;0,360365;0,508899;0,331674;0,425565;0,425565;0,334799;0,425565;0,350664;0,758899;0,000000;0,000000;0,000000;0,437951;0,437951;0,791259;0,000000;0,480498;0,508899;0,508899;0,000000;0,425565;0,000000;0,508899;0,508899;0,791259;0,791259;0,425565;0,425565;0,000000;0,000000;0,000000;0,358899;0,358899;0,358899;
14;;;;;;;;;;;;;;1,000000;0,500000;0,694712;0,463602;0,000000;0,000000;0,000000;0,495216;0,586049;0,540919;0,488409;0,413664;0,453017;0,452309;0,535714;0,479537;0,416667;0,416667;0,431946;0,331558;0,350000;0,379175;0,347550;0,319944;0,453017;0,390587;0,416667;0,416667;0,416667;0,416667;0,387546;0,387546;0,375000;0,360888;0,360888;0,360888;0,000000;0,330337;0,000000;0,000000;0,000000;0,000000;0,000000;0,000000;0,461430;0,500000;0,375000;0,500000;0,000000;0,000000;0,000000;0,000000;0,428457;0,485141;0,000000;0,000000;0,000000;0,416667;0,351466;0,500000;0,322775;0,416667;0,416667;0,325900;0,416667;0,341765;0,750000;0,000000;0,000000;0,000000;0,429053;0,429053;0,416667;0,000000;0,471600;0,500000;0,500000;0,000000;0,416667;0,000000;0,500000;0,500000;0,416667;0,416667;0,416667;0,416667;0,000000;0,000000;0,000000;0,350000;0,350000;0,350000;
15;;;;;;;;;;;;;;;1,000000;0,694712;0,463602;0,000000;0,000000;0,000000;0,495216;0,586049;0,540919;0,488409;0,413664;0,453017;0,452309;0,535714;0,479537;0,416667;0,416667;0,431946;0,331558;0,350000;0,379175;0,347550;0,319944;0,453017;0,390587;0,416667;0,416667;0,416667;0,416667;0,387546;0,387546;0,375000;0,360888;0,360888;0,360888;0,000000;0,330337;0,000000;0,000000;0,000000;0,000000;0,000000;0,000000;0,461430;0,500000;0,375000;0,500000;0,000000;0,000000;0,000000;0,000000;0,428457;0,485141;0,000000;0,000000;0,000000;0,416667;0,351466;1,000000;0,322775;0,416667;0,416667;0,325900;0,416667;0,341765;0,750000;0,000000;0,000000;0,000000;0,429053;0,429053;0,416667;0,000000;0,471600;0,500000;0,500000;0,000000;0,416667;0,000000;0,500000;0,500000;0,416667;0,416667;0,416667;0,416667;0,000000;0,000000;0,000000;0,350000;0,350000;0,350000;
16;;;;;;;;;;;;;;;;1,000000;0,658315;0,000000;0,000000;0,000000;0,734199;0,826359;0,790052;0,683122;0,714279;0,875628;0,647022;0,730427;0,674249;0,611379;0,611379;0,626658;0,526270;0,544712;0,573887;0,542262;0,514657;0,647730;0,585300;0,751527;0,802926;0,611379;0,611379;0,582258;0,582258;0,569712;0,555601;0,555601;0,555601;0,000000;0,525050;0,000000;0,000000;0,000000;0,000000;0,000000;0,000000;0,656142;0,694712;0,569712;0,694712;0,000000;0,000000;0,000000;0,000000;0,684497;0,679854;0,000000;0,000000;0,000000;0,611379;0,546179;0,694712;0,517488;0,802926;0,802926;0,630803;0,611379;0,536478;0,944712;0,000000;0,000000;0,000000;0,623765;0,623765;0,611379;0,000000;0,666312;0,694712;0,694712;0,000000;0,611379;0,000000;0,694712;0,694712;0,611379;0,611379;0,611379;0,611379;0,000000;0,000000;0,000000;0,544712;0,544712;0,544712;
17;;;;;;;;;;;;;;;;;1,000000;0,000000;0,000000;0,000000;0,714936;0,549651;0,504521;0,452011;0,427742;0,416619;0,415911;0,656625;0,443139;0,380269;0,380269;0,575359;0,499761;0,445458;0,587886;0,311152;0,283547;0,416619;0,354189;0,380269;0,380269;0,380269;0,380269;0,351148;0,351148;0,338602;0,324490;0,324490;0,324490;0,000000;0,293939;0,000000;0,000000;0,000000;0,000000;0,000000;0,000000;0,425032;0,463602;0,338602;0,463602;0,000000;0,000000;0,000000;0,000000;0,392059;0,448744;0,000000;0,000000;0,000000;0,380269;0,315068;0,463602;0,286378;0,380269;0,380269;0,289502;0,380269;0,305368;0,713602;0,000000;0,000000;0,000000;0,392655;0,392655;0,380269;0,000000;0,632481;0,463602;0,463602;0,000000;0,380269;0,000000;0,676899;0,463602;0,380269;0,380269;0,380269;0,380269;0,000000;0,000000;0,000000;0,313602;0,313602;0,313602;
18;;;;;;;;;;;;;;;;;;1,000000;0,500000;0,500000;0,000000;0,000000;0,000000;0,000000;0,000000;0,000000;0,000000;0,000000;0,000000;0,000000;0,000000;0,000000;0,000000;0,000000;0,000000;0,000000;0,000000;0,000000;0,000000;0,000000;0,000000;0,000000;0,000000;0,000000;0,000000;0,000000;0,000000;0,000000;0,000000;0,000000;0,000000;0,000000;0,000000;0,000000;0,000000;0,000000;0,000000;0,000000;0,000000;0,000000;0,000000;0,000000;0,000000;0,000000;0,000000;0,000000;0,000000;0,000000;0,000000;0,000000;0,000000;0,000000;0,000000;0,000000;0,000000;0,000000;0,000000;0,000000;0,000000;0,000000;0,000000;0,000000;0,000000;0,000000;0,000000;0,000000;0,000000;0,000000;0,000000;0,000000;0,000000;0,000000;0,000000;0,000000;0,000000;0,000000;0,000000;0,000000;0,000000;0,000000;0,000000;0,000000;0,000000;0,000000;0,000000;
19;;;;;;;;;;;;;;;;;;;1,000000;0,500000;0,000000;0,000000;0,000000;0,000000;0,000000;0,000000;0,000000;0,000000;0,000000;0,000000;0,000000;0,000000;0,000000;0,000000;0,000000;0,000000;0,000000;0,000000;0,000000;0,000000;0,000000;0,000000;0,000000;0,000000;0,000000;0,000000;0,000000;0,000000;0,000000;0,000000;0,000000;0,000000;0,000000;0,000000;0,000000;0,000000;0,000000;0,000000;0,000000;0,000000;0,000000;0,000000;0,000000;0,000000;0,000000;0,000000;0,000000;0,000000;0,000000;0,000000;0,000000;0,000000;0,000000;0,000000;0,000000;0,000000;0,000000;0,000000;0,000000;0,000000;0,000000;0,000000;0,000000;0,000000;0,000000;0,000000;0,000000;0,000000;0,000000;0,000000;0,000000;0,000000;0,000000;0,000000;0,000000;0,000000;0,000000;0,000000;0,000000;0,000000;0,000000;0,000000;0,000000;0,000000;0,000000;
20;;;;;;;;;;;;;;;;;;;;1,000000;0,000000;0,000000;0,000000;0,000000;0,000000;0,000000;0,000000;0,000000;0,000000;0,000000;0,000000;0,000000;0,000000;0,000000;0,000000;0,000000;0,000000;0,000000;0,000000;0,000000;0,000000;0,000000;0,000000;0,000000;0,000000;0,000000;0,000000;0,000000;0,000000;0,000000;0,000000;0,000000;0,000000;0,000000;0,000000;0,000000;0,000000;0,000000;0,000000;0,000000;0,000000;0,000000;0,000000;0,000000;0,000000;0,000000;0,000000;0,000000;0,000000;0,000000;0,000000;0,000000;0,000000;0,000000;0,000000;0,000000;0,000000;0,000000;0,000000;0,000000;0,000000;0,000000;0,000000;0,000000;0,000000;0,000000;0,000000;0,000000;0,000000;0,000000;0,000000;0,000000;0,000000;0,000000;0,000000;0,000000;0,000000;0,000000;0,000000;0,000000;0,000000;0,000000;0,000000;0,000000;0,000000;
21;;;;;;;;;;;;;;;;;;;;;1,000000;0,633104;0,584950;0,483625;0,523183;0,670641;0,447525;0,530930;0,474753;0,411883;0,411883;0,646858;0,498810;0,506365;0,587106;0,342766;0,315161;0,605730;0,610111;0,639698;0,597939;0,411883;0,411883;0,382762;0,382762;0,370216;0,356104;0,356104;0,356104;0,000000;0,325553;0,149505;0,000000;0,000000;0,000000;0,000000;0,000000;0,456646;0,495216;0,370216;0,495216;0,000000;0,000000;0,000000;0,000000;0,551601;0,480358;0,000000;0,000000;0,000000;0,787766;0,346682;0,495216;0,317992;0,597939;0,597939;0,484681;0,411883;0,336982;0,745216;0,000000;0,000000;0,000000;0,424269;0,424269;0,411883;0,000000;0,606914;0,495216;0,495216;0,387839;0,639698;0,000000;0,495216;0,495216;0,411883;0,411883;0,411883;0,411883;0,000000;0,000000;0,000000;0,468855;0,468855;0,468855;
22;;;;;;;;;;;;;;;;;;;;;;1,000000;0,677084;0,574458;0,657882;0,539067;0,589352;0,621763;0,565586;0,502716;0,502716;0,517995;0,510814;0,436049;0,465224;0,535824;0,534411;0,645911;0,648391;0,638560;0,502716;0,502716;0,502716;0,473595;0,473595;0,461049;0,446937;0,446937;0,446937;0,177590;0,486264;0,067918;0,121220;0,121220;0,121220;0,121220;0,121220;0,547479;0,586049;0,461049;0,586049;0,000000;0,000000;0,000000;0,000000;0,719526;0,571191;0,224237;0,187887;0,187887;0,701807;0,521737;0,586049;0,531676;0,502716;0,502716;0,811171;0,502716;0,556519;0,836049;0,000000;0,000000;0,000000;0,615009;0,615009;0,502716;0,521220;0,557649;0,586049;0,586049;0,394840;0,679800;0,271220;0,586049;0,586049;0,502716;0,502716;0,502716;0,502716;0,121220;0,121220;0,121220;0,775506;0,775506;0,775506;
23;;;;;;;;;;;;;;;;;;;;;;;1,000000;0,529329;0,565004;0,619899;0,493229;0,576634;0,520456;0,457586;0,457586;0,472865;0,372477;0,390919;0,420094;0,388469;0,360864;0,493937;0,431507;0,602253;0,689358;0,457586;0,457586;0,428465;0,428465;0,415919;0,401808;0,401808;0,401808;0,000000;0,371256;0,000000;0,000000;0,000000;0,000000;0,000000;0,000000;0,502349;0,540919;0,415919;0,540919;0,000000;0,000000;0,000000;0,000000;0,535222;0,526061;0,000000;0,000000;0,000000;0,457586;0,392385;0,540919;0,363695;0,653748;0,653748;0,481528;0,457586;0,382685;0,790919;0,000000;0,000000;0,000000;0,469972;0,469972;0,457586;0,000000;0,512519;0,540919;0,540919;0,000000;0,457586;0,000000;0,540919;0,540919;0,457586;0,457586;0,457586;0,457586;0,000000;0,000000;0,000000;0,390919;0,390919;0,390919;
24;;;;;;;;;;;;;;;;;;;;;;;;1,000000;0,402073;0,441427;0,440719;0,524124;0,467946;0,405076;0,405076;0,420355;0,319967;0,338409;0,367584;0,335959;0,308354;0,441427;0,378997;0,405076;0,405076;0,405076;0,405076;0,375955;0,375955;0,363409;0,349298;0,349298;0,349298;0,000000;0,318746;0,000000;0,000000;0,000000;0,000000;0,000000;0,000000;0,449839;0,488409;0,363409;0,488409;0,000000;0,000000;0,000000;0,000000;0,416866;0,473551;0,000000;0,000000;0,000000;0,405076;0,339875;0,488409;0,311185;0,405076;0,405076;0,314309;0,405076;0,330175;0,738409;0,000000;0,000000;0,000000;0,417462;0,417462;0,810152;0,000000;0,460009;0,488409;0,488409;0,000000;0,405076;0,000000;0,488409;0,488409;0,810152;0,810152;0,405076;0,405076;0,000000;0,000000;0,000000;0,338409;0,338409;0,338409;
25;;;;;;;;;;;;;;;;;;;;;;;;;1,000000;0,366681;0,365973;0,449378;0,393200;0,330330;0,330330;0,555321;0,480094;0,627483;0,600574;0,261213;0,233608;0,514643;0,464029;0,601638;0,330330;0,330330;0,330330;0,301210;0,301210;0,288664;0,274552;0,274552;0,274552;0,000000;0,244001;0,065092;0,000000;0,000000;0,000000;0,000000;0,000000;0,375093;0,413664;0,288664;0,413664;0,000000;0,000000;0,000000;0,000000;0,459449;0,398805;0,000000;0,000000;0,000000;0,330330;0,265130;0,413664;0,236439;0,330330;0,330330;0,405755;0,330330;0,364731;0,663664;0,000000;0,000000;0,000000;0,342716;0,342716;0,330330;0,000000;0,385264;0,413664;0,689915;0,000000;0,548532;0,000000;0,413664;0,413664;0,330330;0,330330;0,330330;0,330330;0,000000;0,000000;0,000000;0,415199;0,415199;0,415199;
26;;;;;;;;;;;;;;;;;;;;;;;;;;1,000000;0,405327;0,488732;0,432554;0,369684;0,369684;0,384963;0,284575;0,303017;0,332192;0,300567;0,272962;0,406035;0,343605;0,369684;0,739368;0,369684;0,369684;0,340563;0,340563;0,328017;0,313906;0,313906;0,313906;0,000000;0,283354;0,000000;0,000000;0,000000;0,000000;0,000000;0,000000;0,414447;0,453017;0,328017;0,453017;0,000000;0,000000;0,000000;0,000000;0,381474;0,438159;0,000000;0,000000;0,000000;0,369684;0,304484;0,453017;0,275793;0,739368;0,739368;0,278918;0,369684;0,294783;0,703017;0,000000;0,000000;0,000000;0,382070;0,382070;0,369684;0,000000;0,424617;0,453017;0,453017;0,000000;0,369684;0,000000;0,453017;0,453017;0,369684;0,369684;0,369684;0,369684;0,000000;0,000000;0,000000;0,303017;0,303017;0,303017;
27;;;;;;;;;;;;;;;;;;;;;;;;;;;1,000000;0,488024;0,431846;0,368976;0,368976;0,384255;0,370148;0,302309;0,331484;0,737419;0,747526;0,405327;0,342897;0,368976;0,368976;0,368976;0,368976;0,339855;0,339855;0,327309;0,313198;0,313198;0,313198;0,615588;0,775500;0,579454;0,145326;0,145326;0,145326;0,145326;0,145326;0,413739;0,452309;0,831021;0,452309;0,000000;0,000000;0,000000;0,000000;0,437103;0,437451;0,248344;0,211993;0,211993;0,368976;0,734138;0,452309;0,828117;0,368976;0,368976;0,391010;0,368976;0,415853;0,702309;0,000000;0,000000;0,000000;0,474343;0,474343;0,368976;0,545326;0,423909;0,452309;0,452309;0,211993;0,368976;0,295326;0,452309;0,452309;0,368976;0,368976;0,368976;0,368976;0,543666;0,543666;0,543666;0,302309;0,302309;0,302309;
28;;;;;;;;;;;;;;;;;;;;;;;;;;;;1,000000;0,683535;0,452381;0,452381;0,467660;0,367272;0,385714;0,414889;0,383264;0,355659;0,488732;0,426302;0,452381;0,452381;0,452381;0,452381;0,423260;0,423260;0,410714;0,396603;0,396603;0,396603;0,000000;0,366051;0,000000;0,000000;0,000000;0,000000;0,000000;0,000000;0,497144;0,535714;0,410714;0,535714;0,000000;0,000000;0,000000;0,000000;0,464171;0,520856;0,000000;0,000000;0,000000;0,452381;0,387180;0,535714;0,358490;0,452381;0,452381;0,361615;0,452381;0,377480;0,785714;0,000000;0,000000;0,000000;0,464767;0,464767;0,452381;0,000000;0,507314;0,932974;0,535714;0,000000;0,452381;0,000000;0,744369;0,535714;0,452381;0,452381;0,452381;0,452381;0,000000;0,000000;0,000000;0,385714;0,385714;0,385714;
29;;;;;;;;;;;;;;;;;;;;;;;;;;;;;1,000000;0,613624;0,613624;0,411482;0,311094;0,329537;0,358711;0,327086;0,299481;0,432554;0,370124;0,396203;0,396203;0,396203;0,396203;0,367083;0,367083;0,354537;0,340425;0,340425;0,340425;0,000000;0,309874;0,000000;0,000000;0,000000;0,000000;0,000000;0,000000;0,614887;0,763758;0,354537;0,763758;0,000000;0,000000;0,000000;0,000000;0,407993;0,571099;0,000000;0,000000;0,000000;0,396203;0,331003;0,479537;0,302312;0,396203;0,396203;0,305437;0,396203;0,321302;0,729537;0,000000;0,000000;0,000000;0,408589;0,408589;0,396203;0,000000;0,451136;0,750561;0,479537;0,000000;0,396203;0,000000;0,479537;0,479537;0,396203;0,396203;0,580227;0,580227;0,000000;0,000000;0,000000;0,329537;0,329537;0,329537;
30;;;;;;;;;;;;;;;;;;;;;;;;;;;;;;1,000000;0,666667;0,348612;0,248225;0,266667;0,295841;0,264216;0,236611;0,369684;0,307254;0,333333;0,333333;0,333333;0,333333;0,304213;0,304213;0,291667;0,277555;0,277555;0,277555;0,000000;0,247004;0,000000;0,000000;0,000000;0,000000;0,000000;0,000000;0,624223;0,416667;0,291667;0,416667;0,000000;0,000000;0,000000;0,000000;0,345123;0,761912;0,000000;0,000000;0,000000;0,333333;0,268133;0,416667;0,239442;0,333333;0,333333;0,242567;0,333333;0,258432;0,666667;0,000000;0,000000;0,000000;0,345719;0,345719;0,333333;0,000000;0,388267;0,416667;0,416667;0,000000;0,333333;0,000000;0,416667;0,416667;0,333333;0,333333;0,666667;0,666667;0,000000;0,000000;0,000000;0,266667;0,266667;0,266667;
31;;;;;;;;;;;;;;;;;;;;;;;;;;;;;;;1,000000;0,348612;0,248225;0,266667;0,295841;0,264216;0,236611;0,369684;0,307254;0,333333;0,333333;0,333333;0,333333;0,304213;0,304213;0,291667;0,277555;0,277555;0,277555;0,000000;0,247004;0,000000;0,000000;0,000000;0,000000;0,000000;0,000000;0,624223;0,416667;0,291667;0,416667;0,000000;0,000000;0,000000;0,000000;0,345123;0,761912;0,000000;0,000000;0,000000;0,333333;0,268133;0,416667;0,239442;0,333333;0,333333;0,242567;0,333333;0,258432;0,666667;0,000000;0,000000;0,000000;0,345719;0,345719;0,333333;0,000000;0,388267;0,416667;0,416667;0,000000;0,333333;0,000000;0,416667;0,416667;0,333333;0,333333;0,666667;0,666667;0,000000;0,000000;0,000000;0,266667;0,266667;0,266667;
32;;;;;;;;;;;;;;;;;;;;;;;;;;;;;;;;1,000000;0,579850;0,727505;0,700524;0,279495;0,251890;0,525221;0,474339;0,559189;0,348612;0,348612;0,348612;0,319492;0,319492;0,306946;0,292834;0,292834;0,292834;0,000000;0,262283;0,093612;0,000000;0,000000;0,000000;0,000000;0,000000;0,393375;0,431946;0,306946;0,431946;0,000000;0,000000;0,000000;0,000000;0,360402;0,417087;0,000000;0,000000;0,000000;0,348612;0,283412;0,431946;0,254721;0,348612;0,348612;0,257846;0,348612;0,408253;0,681946;0,000000;0,000000;0,000000;0,360998;0,360998;0,348612;0,000000;0,739446;0,431946;0,431946;0,000000;0,559189;0,000000;0,431946;0,431946;0,348612;0,348612;0,348612;0,348612;0,000000;0,000000;0,000000;0,281946;0,281946;0,281946;
33;;;;;;;;;;;;;;;;;;;;;;;;;;;;;;;;;1,000000;0,652134;0,625130;0,316620;0,315207;0,419940;0,369058;0,453908;0,248225;0,248225;0,248225;0,373803;0,373803;0,396919;0,192446;0,192446;0,192446;0,212956;0,267060;0,188821;0,156586;0,156586;0,156586;0,156586;0,156586;0,292988;0,331558;0,206558;0,331558;0,000000;0,000000;0,000000;0,000000;0,358564;0,316699;0,259603;0,223252;0,223252;0,248225;0,302533;0,331558;0,312471;0,248225;0,248225;0,312471;0,248225;0,607627;0,581558;0,000000;0,000000;0,000000;0,395805;0,395805;0,248225;0,556586;0,405373;0,331558;0,331558;0,223252;0,453908;0,306586;0,331558;0,331558;0,248225;0,248225;0,248225;0,248225;0,156586;0,156586;0,156586;0,181558;0,181558;0,181558;
34;;;;;;;;;;;;;;;;;;;;;;;;;;;;;;;;;;1,000000;0,772943;0,197550;0,169944;0,499366;0,448484;0,533333;0,266667;0,266667;0,266667;0,237546;0,237546;0,225000;0,210888;0,210888;0,210888;0,000000;0,180337;0,132898;0,000000;0,000000;0,000000;0,000000;0,000000;0,311430;0,350000;0,225000;0,350000;0,000000;0,000000;0,000000;0,000000;0,278457;0,335141;0,000000;0,000000;0,000000;0,266667;0,201466;0,350000;0,172775;0,266667;0,266667;0,175900;0,266667;0,382446;0,600000;0,000000;0,000000;0,000000;0,279053;0,279053;0,266667;0,000000;0,321600;0,350000;0,350000;0,000000;0,533333;0,000000;0,350000;0,350000;0,266667;0,266667;0,266667;0,266667;0,000000;0,000000;0,000000;0,200000;0,200000;0,200000;
35;;;;;;;;;;;;;;;;;;;;;;;;;;;;;;;;;;;1,000000;0,226724;0,199119;0,485732;0,434850;0,519700;0,295841;0,295841;0,295841;0,266721;0,266721;0,254175;0,240063;0,240063;0,240063;0,000000;0,209512;0,162073;0,000000;0,000000;0,000000;0,000000;0,000000;0,340604;0,379175;0,254175;0,379175;0,000000;0,000000;0,000000;0,000000;0,307631;0,364316;0,000000;0,000000;0,000000;0,295841;0,230641;0,379175;0,201950;0,295841;0,295841;0,205075;0,295841;0,440795;0,629175;0,000000;0,000000;0,000000;0,308227;0,308227;0,295841;0,000000;0,350774;0,379175;0,379175;0,000000;0,519700;0,000000;0,379175;0,379175;0,295841;0,295841;0,295841;0,295841;0,000000;0,000000;0,000000;0,229175;0,229175;0,229175;
36;;;;;;;;;;;;;;;;;;;;;;;;;;;;;;;;;;;;1,000000;0,716074;0,300567;0,238137;0,264216;0,264216;0,264216;0,264216;0,235096;0,235096;0,222550;0,208438;0,208438;0,208438;0,746109;0,778726;0,500258;0,173342;0,173342;0,173342;0,173342;0,173342;0,308980;0,347550;0,659806;0,347550;0,000000;0,000000;0,000000;0,000000;0,383575;0,332691;0,276359;0,240009;0,240009;0,264216;0,452401;0,347550;0,655163;0,264216;0,264216;0,337482;0,264216;0,362325;0,597550;0,000000;0,000000;0,000000;0,420815;0,420815;0,264216;0,573342;0,319150;0,347550;0,347550;0,240009;0,264216;0,323342;0,347550;0,347550;0,264216;0,264216;0,264216;0,264216;0,316517;0,316517;0,316517;0,197550;0,197550;0,197550;
37;;;;;;;;;;;;;;;;;;;;;;;;;;;;;;;;;;;;;1,000000;0,272962;0,210532;0,236611;0,236611;0,236611;0,236611;0,207490;0,207490;0,194944;0,180833;0,180833;0,180833;0,665790;0,789022;0,480565;0,196242;0,196242;0,196242;0,196242;0,196242;0,281374;0,319944;0,630875;0,319944;0,000000;0,000000;0,000000;0,000000;0,382161;0,305086;0,299259;0,262908;0,262908;0,236611;0,447345;0,319944;0,641037;0,236611;0,236611;0,336069;0,236611;0,360912;0,569944;0,000000;0,000000;0,000000;0,419402;0,419402;0,236611;0,596242;0,291544;0,319944;0,319944;0,262908;0,236611;0,346242;0,319944;0,319944;0,236611;0,236611;0,236611;0,236611;0,335832;0,335832;0,335832;0,169944;0,169944;0,169944;
38;;;;;;;;;;;;;;;;;;;;;;;;;;;;;;;;;;;;;;1,000000;0,547849;0,632699;0,369684;0,369684;0,369684;0,340563;0,340563;0,328017;0,313906;0,313906;0,313906;0,000000;0,283354;0,000000;0,000000;0,000000;0,000000;0,000000;0,000000;0,414447;0,453017;0,328017;0,453017;0,000000;0,000000;0,000000;0,000000;0,381474;0,438159;0,000000;0,000000;0,000000;0,369684;0,304484;0,453017;0,275793;0,369684;0,369684;0,278918;0,369684;0,294783;0,703017;0,000000;0,000000;0,000000;0,382070;0,382070;0,369684;0,000000;0,424617;0,453017;0,453017;0,000000;0,902699;0,000000;0,453017;0,453017;0,369684;0,369684;0,369684;0,369684;0,000000;0,000000;0,000000;0,499444;0,499444;0,499444;
39;;;;;;;;;;;;;;;;;;;;;;;;;;;;;;;;;;;;;;;1,000000;0,581817;0,307254;0,307254;0,307254;0,278133;0,278133;0,265587;0,251476;0,251476;0,251476;0,000000;0,220924;0,063429;0,000000;0,000000;0,000000;0,000000;0,000000;0,352017;0,390587;0,265587;0,390587;0,000000;0,000000;0,000000;0,000000;0,429873;0,375729;0,000000;0,000000;0,000000;0,513891;0,242053;0,390587;0,213363;0,307254;0,307254;0,216488;0,307254;0,232353;0,640587;0,000000;0,000000;0,000000;0,319640;0,319640;0,307254;0,000000;0,362187;0,390587;0,696726;0,000000;0,581817;0,000000;0,390587;0,390587;0,307254;0,307254;0,307254;0,307254;0,000000;0,000000;0,000000;0,671753;0,671753;0,671753;
40;;;;;;;;;;;;;;;;;;;;;;;;;;;;;;;;;;;;;;;;1,000000;0,333333;0,333333;0,333333;0,304213;0,304213;0,291667;0,277555;0,277555;0,277555;0,000000;0,247004;0,000000;0,000000;0,000000;0,000000;0,000000;0,000000;0,378096;0,416667;0,291667;0,416667;0,000000;0,000000;0,000000;0,000000;0,496698;0,401808;0,000000;0,000000;0,000000;0,333333;0,268133;0,416667;0,239442;0,333333;0,333333;0,443004;0,333333;0,258432;0,666667;0,000000;0,000000;0,000000;0,345719;0,345719;0,333333;0,000000;0,388267;0,416667;0,416667;0,000000;0,666667;0,000000;0,416667;0,416667;0,333333;0,333333;0,333333;0,333333;0,000000;0,000000;0,000000;0,266667;0,266667;0,266667;
41;;;;;;;;;;;;;;;;;;;;;;;;;;;;;;;;;;;;;;;;;1,000000;0,333333;0,333333;0,304213;0,304213;0,291667;0,277555;0,277555;0,277555;0,000000;0,247004;0,000000;0,000000;0,000000;0,000000;0,000000;0,000000;0,378096;0,416667;0,291667;0,416667;0,000000;0,000000;0,000000;0,000000;0,345123;0,401808;0,000000;0,000000;0,000000;0,333333;0,268133;0,416667;0,239442;0,666667;0,666667;0,242567;0,333333;0,258432;0,666667;0,000000;0,000000;0,000000;0,345719;0,345719;0,333333;0,000000;0,388267;0,416667;0,416667;0,000000;0,333333;0,000000;0,416667;0,416667;0,333333;0,333333;0,333333;0,333333;0,000000;0,000000;0,000000;0,266667;0,266667;0,266667;
42;;;;;;;;;;;;;;;;;;;;;;;;;;;;;;;;;;;;;;;;;;1,000000;0,666667;0,304213;0,304213;0,291667;0,277555;0,277555;0,277555;0,000000;0,247004;0,000000;0,000000;0,000000;0,000000;0,000000;0,000000;0,378096;0,416667;0,291667;0,416667;0,000000;0,000000;0,000000;0,000000;0,345123;0,401808;0,000000;0,000000;0,000000;0,333333;0,268133;0,416667;0,239442;0,333333;0,333333;0,242567;0,333333;0,258432;0,666667;0,000000;0,000000;0,000000;0,345719;0,345719;0,333333;0,000000;0,388267;0,416667;0,416667;0,000000;0,333333;0,000000;0,416667;0,416667;0,666667;0,666667;0,333333;0,333333;0,000000;0,000000;0,000000;0,266667;0,266667;0,266667;
43;;;;;;;;;;;;;;;;;;;;;;;;;;;;;;;;;;;;;;;;;;;1,000000;0,304213;0,304213;0,291667;0,277555;0,277555;0,277555;0,000000;0,247004;0,000000;0,000000;0,000000;0,000000;0,000000;0,000000;0,378096;0,416667;0,291667;0,416667;0,000000;0,000000;0,000000;0,000000;0,345123;0,401808;0,000000;0,000000;0,000000;0,333333;0,268133;0,416667;0,239442;0,333333;0,333333;0,242567;0,333333;0,258432;0,666667;0,000000;0,000000;0,000000;0,345719;0,345719;0,333333;0,000000;0,388267;0,416667;0,416667;0,000000;0,333333;0,000000;0,416667;0,416667;0,666667;0,666667;0,333333;0,333333;0,000000;0,000000;0,000000;0,266667;0,266667;0,266667;
44;;;;;;;;;;;;;;;;;;;;;;;;;;;;;;;;;;;;;;;;;;;;1,000000;0,726116;0,738066;0,248434;0,248434;0,248434;0,000000;0,217883;0,119625;0,000000;0,000000;0,000000;0,000000;0,000000;0,348976;0,387546;0,262546;0,387546;0,000000;0,000000;0,000000;0,000000;0,316003;0,372687;0,000000;0,000000;0,000000;0,304213;0,239012;0,387546;0,210321;0,304213;0,304213;0,213446;0,608425;0,492617;0,637546;0,000000;0,000000;0,000000;0,316599;0,316599;0,304213;0,000000;0,485337;0,387546;0,387546;0,000000;0,304213;0,000000;0,387546;0,387546;0,304213;0,304213;0,304213;0,304213;0,000000;0,000000;0,000000;0,237546;0,237546;0,237546;
45;;;;;;;;;;;;;;;;;;;;;;;;;;;;;;;;;;;;;;;;;;;;;1,000000;0,738066;0,248434;0,248434;0,248434;0,000000;0,217883;0,119625;0,000000;0,000000;0,000000;0,000000;0,000000;0,348976;0,387546;0,262546;0,387546;0,000000;0,000000;0,000000;0,000000;0,316003;0,372687;0,000000;0,000000;0,000000;0,304213;0,239012;0,387546;0,210321;0,304213;0,304213;0,213446;0,608425;0,492617;0,637546;0,000000;0,000000;0,000000;0,316599;0,316599;0,304213;0,000000;0,485337;0,387546;0,387546;0,000000;0,304213;0,000000;0,387546;0,387546;0,304213;0,304213;0,304213;0,304213;0,000000;0,000000;0,000000;0,237546;0,237546;0,237546;
46;;;;;;;;;;;;;;;;;;;;;;;;;;;;;;;;;;;;;;;;;;;;;;1,000000;0,235888;0,235888;0,235888;0,000000;0,205337;0,147048;0,000000;0,000000;0,000000;0,000000;0,000000;0,336430;0,375000;0,250000;0,375000;0,000000;0,000000;0,000000;0,000000;0,303457;0,360141;0,000000;0,000000;0,000000;0,291667;0,226466;0,375000;0,197775;0,291667;0,291667;0,200900;0,875000;0,515733;0,625000;0,000000;0,000000;0,000000;0,304053;0,304053;0,291667;0,000000;0,508454;0,375000;0,375000;0,000000;0,291667;0,000000;0,375000;0,375000;0,291667;0,291667;0,291667;0,291667;0,000000;0,000000;0,000000;0,225000;0,225000;0,225000;
47;;;;;;;;;;;;;;;;;;;;;;;;;;;;;;;;;;;;;;;;;;;;;;;1,000000;0,578059;0,578059;0,000000;0,191225;0,000000;0,000000;0,000000;0,000000;0,000000;0,000000;0,322318;0,360888;0,235888;0,360888;0,000000;0,000000;0,000000;0,000000;0,289345;0,346030;0,000000;0,000000;0,000000;0,277555;0,212354;0,360888;0,183664;0,277555;0,277555;0,186789;0,277555;0,202654;0,610888;0,000000;0,000000;0,000000;0,289941;0,289941;0,277555;0,000000;0,332488;0,360888;0,360888;0,000000;0,277555;0,000000;0,360888;0,360888;0,277555;0,277555;0,277555;0,277555;0,000000;0,000000;0,000000;0,210888;0,210888;0,210888;
48;;;;;;;;;;;;;;;;;;;;;;;;;;;;;;;;;;;;;;;;;;;;;;;;1,000000;0,578059;0,000000;0,191225;0,000000;0,000000;0,000000;0,000000;0,000000;0,000000;0,322318;0,360888;0,235888;0,360888;0,000000;0,000000;0,000000;0,000000;0,289345;0,346030;0,000000;0,000000;0,000000;0,277555;0,212354;0,360888;0,183664;0,277555;0,277555;0,186789;0,277555;0,202654;0,610888;0,000000;0,000000;0,000000;0,289941;0,289941;0,277555;0,000000;0,332488;0,360888;0,360888;0,000000;0,277555;0,000000;0,360888;0,360888;0,277555;0,277555;0,277555;0,277555;0,000000;0,000000;0,000000;0,210888;0,210888;0,210888;
49;;;;;;;;;;;;;;;;;;;;;;;;;;;;;;;;;;;;;;;;;;;;;;;;;1,000000;0,000000;0,191225;0,000000;0,000000;0,000000;0,000000;0,000000;0,000000;0,322318;0,360888;0,235888;0,360888;0,000000;0,000000;0,000000;0,000000;0,289345;0,346030;0,000000;0,000000;0,000000;0,277555;0,212354;0,360888;0,183664;0,277555;0,277555;0,186789;0,277555;0,202654;0,610888;0,000000;0,000000;0,000000;0,289941;0,289941;0,277555;0,000000;0,332488;0,360888;0,360888;0,000000;0,277555;0,000000;0,360888;0,360888;0,277555;0,277555;0,277555;0,277555;0,000000;0,000000;0,000000;0,210888;0,210888;0,210888;
50;;;;;;;;;;;;;;;;;;;;;;;;;;;;;;;;;;;;;;;;;;;;;;;;;;1,000000;0,765374;0,521140;0,256371;0,256371;0,256371;0,256371;0,256371;0,000000;0,000000;0,657230;0,000000;0,000000;0,000000;0,000000;0,000000;0,199945;0,000000;0,359388;0,323037;0,323037;0,000000;0,382532;0,000000;0,787790;0,000000;0,000000;0,252248;0,000000;0,259199;0,000000;0,000000;0,000000;0,000000;0,237902;0,237902;0,000000;0,656371;0,000000;0,000000;0,000000;0,323037;0,000000;0,406371;0,000000;0,000000;0,000000;0,000000;0,000000;0,000000;0,418177;0,418177;0,418177;0,000000;0,000000;0,000000;
51;;;;;;;;;;;;;;;;;;;;;;;;;;;;;;;;;;;;;;;;;;;;;;;;;;;1,000000;0,534779;0,143540;0,143540;0,143540;0,143540;0,143540;0,291767;0,330337;0,688314;0,330337;0,000000;0,000000;0,000000;0,000000;0,334015;0,315479;0,246558;0,210207;0,210207;0,247004;0,414650;0,330337;0,866844;0,247004;0,247004;0,287922;0,247004;0,312765;0,580337;0,000000;0,000000;0,000000;0,371255;0,371255;0,247004;0,543540;0,301937;0,330337;0,330337;0,210207;0,247004;0,293540;0,330337;0,330337;0,247004;0,247004;0,247004;0,247004;0,289676;0,289676;0,289676;0,180337;0,180337;0,180337;
52;;;;;;;;;;;;;;;;;;;;;;;;;;;;;;;;;;;;;;;;;;;;;;;;;;;;1,000000;0,582023;0,582023;0,582023;0,582023;0,582023;0,000000;0,000000;0,531992;0,000000;0,000000;0,000000;0,000000;0,000000;0,328600;0,000000;0,458974;0,456346;0,456346;0,377679;0,461868;0,000000;0,472978;0,000000;0,000000;0,321173;0,000000;0,350252;0,000000;0,000000;0,000000;0,000000;0,284308;0,284308;0,000000;0,000000;0,067381;0,000000;0,000000;0,391129;0,000000;0,326132;0,000000;0,000000;0,000000;0,000000;0,000000;0,000000;0,503615;0,503615;0,503615;0,121180;0,121180;0,121180;
53;;;;;;;;;;;;;;;;;;;;;;;;;;;;;;;;;;;;;;;;;;;;;;;;;;;;;1,000000;0,800000;0,800000;0,800000;0,800000;0,000000;0,000000;0,000000;0,000000;0,000000;0,000000;0,000000;0,000000;0,143574;0,000000;0,303017;0,266667;0,266667;0,000000;0,181394;0,000000;0,194860;0,000000;0,000000;0,195878;0,000000;0,202829;0,000000;0,000000;0,000000;0,000000;0,181531;0,181531;0,000000;0,600000;0,000000;0,000000;0,000000;0,266667;0,000000;0,350000;0,000000;0,000000;0,000000;0,000000;0,000000;0,000000;0,200000;0,200000;0,200000;0,000000;0,000000;0,000000;
54;;;;;;;;;;;;;;;;;;;;;;;;;;;;;;;;;;;;;;;;;;;;;;;;;;;;;;1,000000;0,800000;0,800000;0,800000;0,000000;0,000000;0,000000;0,000000;0,000000;0,000000;0,000000;0,000000;0,143574;0,000000;0,303017;0,266667;0,266667;0,000000;0,181394;0,000000;0,194860;0,000000;0,000000;0,195878;0,000000;0,202829;0,000000;0,000000;0,000000;0,000000;0,181531;0,181531;0,000000;0,600000;0,000000;0,000000;0,000000;0,266667;0,000000;0,350000;0,000000;0,000000;0,000000;0,000000;0,000000;0,000000;0,200000;0,200000;0,200000;0,000000;0,000000;0,000000;
55;;;;;;;;;;;;;;;;;;;;;;;;;;;;;;;;;;;;;;;;;;;;;;;;;;;;;;;1,000000;0,800000;0,800000;0,000000;0,000000;0,000000;0,000000;0,000000;0,000000;0,000000;0,000000;0,143574;0,000000;0,303017;0,266667;0,266667;0,000000;0,181394;0,000000;0,194860;0,000000;0,000000;0,195878;0,000000;0,202829;0,000000;0,000000;0,000000;0,000000;0,181531;0,181531;0,000000;0,600000;0,000000;0,000000;0,000000;0,266667;0,000000;0,350000;0,000000;0,000000;0,000000;0,000000;0,000000;0,000000;0,200000;0,200000;0,200000;0,000000;0,000000;0,000000;
56;;;;;;;;;;;;;;;;;;;;;;;;;;;;;;;;;;;;;;;;;;;;;;;;;;;;;;;;1,000000;0,800000;0,000000;0,000000;0,000000;0,000000;0,000000;0,000000;0,000000;0,000000;0,143574;0,000000;0,303017;0,266667;0,266667;0,000000;0,181394;0,000000;0,194860;0,000000;0,000000;0,195878;0,000000;0,202829;0,000000;0,000000;0,000000;0,000000;0,181531;0,181531;0,000000;0,600000;0,000000;0,000000;0,000000;0,266667;0,000000;0,350000;0,000000;0,000000;0,000000;0,000000;0,000000;0,000000;0,200000;0,200000;0,200000;0,000000;0,000000;0,000000;
57;;;;;;;;;;;;;;;;;;;;;;;;;;;;;;;;;;;;;;;;;;;;;;;;;;;;;;;;;1,000000;0,000000;0,000000;0,000000;0,000000;0,000000;0,000000;0,000000;0,000000;0,143574;0,000000;0,303017;0,266667;0,266667;0,000000;0,181394;0,000000;0,194860;0,000000;0,000000;0,195878;0,000000;0,202829;0,000000;0,000000;0,000000;0,000000;0,181531;0,181531;0,000000;0,600000;0,000000;0,000000;0,000000;0,266667;0,000000;0,350000;0,000000;0,000000;0,000000;0,000000;0,000000;0,000000;0,200000;0,200000;0,200000;0,000000;0,000000;0,000000;
58;;;;;;;;;;;;;;;;;;;;;;;;;;;;;;;;;;;;;;;;;;;;;;;;;;;;;;;;;;1,000000;0,461430;0,336430;0,461430;0,000000;0,000000;0,000000;0,000000;0,389886;0,719468;0,000000;0,000000;0,000000;0,378096;0,312896;0,461430;0,284205;0,378096;0,378096;0,287330;0,378096;0,303195;0,711430;0,000000;0,000000;0,000000;0,390482;0,390482;0,378096;0,000000;0,433030;0,461430;0,461430;0,000000;0,378096;0,000000;0,461430;0,461430;0,378096;0,378096;0,624223;0,624223;0,000000;0,000000;0,000000;0,311430;0,311430;0,311430;
59;;;;;;;;;;;;;;;;;;;;;;;;;;;;;;;;;;;;;;;;;;;;;;;;;;;;;;;;;;;1,000000;0,375000;1,000000;0,000000;0,000000;0,000000;0,000000;0,428457;0,807342;0,000000;0,000000;0,000000;0,416667;0,351466;0,500000;0,322775;0,416667;0,416667;0,325900;0,416667;0,341765;0,750000;0,000000;0,000000;0,000000;0,429053;0,429053;0,416667;0,000000;0,471600;0,500000;0,500000;0,000000;0,416667;0,000000;0,500000;0,500000;0,416667;0,416667;0,416667;0,416667;0,000000;0,000000;0,000000;0,350000;0,350000;0,350000;
60;;;;;;;;;;;;;;;;;;;;;;;;;;;;;;;;;;;;;;;;;;;;;;;;;;;;;;;;;;;;1,000000;0,375000;0,000000;0,000000;0,000000;0,000000;0,303457;0,360141;0,000000;0,000000;0,000000;0,291667;0,226466;0,375000;0,768423;0,291667;0,291667;0,200900;0,291667;0,216765;0,625000;0,000000;0,000000;0,000000;0,304053;0,304053;0,291667;0,000000;0,346600;0,375000;0,375000;0,000000;0,291667;0,000000;0,375000;0,375000;0,291667;0,291667;0,291667;0,291667;0,000000;0,000000;0,000000;0,225000;0,225000;0,225000;
61;;;;;;;;;;;;;;;;;;;;;;;;;;;;;;;;;;;;;;;;;;;;;;;;;;;;;;;;;;;;;1,000000;0,000000;0,000000;0,000000;0,000000;0,428457;0,807342;0,000000;0,000000;0,000000;0,416667;0,351466;0,500000;0,322775;0,416667;0,416667;0,325900;0,416667;0,341765;0,750000;0,000000;0,000000;0,000000;0,429053;0,429053;0,416667;0,000000;0,471600;0,500000;0,500000;0,000000;0,416667;0,000000;0,500000;0,500000;0,416667;0,416667;0,416667;0,416667;0,000000;0,000000;0,000000;0,350000;0,350000;0,350000;
62;;;;;;;;;;;;;;;;;;;;;;;;;;;;;;;;;;;;;;;;;;;;;;;;;;;;;;;;;;;;;;1,000000;0,666667;0,666667;0,666667;0,000000;0,000000;0,000000;0,000000;0,000000;0,000000;0,000000;0,000000;0,000000;0,000000;0,000000;0,000000;0,000000;0,000000;0,000000;0,000000;0,000000;0,000000;0,000000;0,000000;0,000000;0,000000;0,000000;0,000000;0,000000;0,000000;0,000000;0,000000;0,000000;0,000000;0,000000;0,000000;0,000000;0,000000;0,000000;0,000000;0,000000;0,000000;0,000000;0,000000;
63;;;;;;;;;;;;;;;;;;;;;;;;;;;;;;;;;;;;;;;;;;;;;;;;;;;;;;;;;;;;;;;1,000000;0,666667;0,666667;0,000000;0,000000;0,000000;0,000000;0,000000;0,000000;0,000000;0,000000;0,000000;0,000000;0,000000;0,000000;0,000000;0,000000;0,000000;0,000000;0,000000;0,000000;0,000000;0,000000;0,000000;0,000000;0,000000;0,000000;0,000000;0,000000;0,000000;0,000000;0,000000;0,000000;0,000000;0,000000;0,000000;0,000000;0,000000;0,000000;0,000000;0,000000;0,000000;0,000000;
64;;;;;;;;;;;;;;;;;;;;;;;;;;;;;;;;;;;;;;;;;;;;;;;;;;;;;;;;;;;;;;;;1,000000;0,666667;0,000000;0,000000;0,000000;0,000000;0,000000;0,000000;0,000000;0,000000;0,000000;0,000000;0,000000;0,000000;0,000000;0,000000;0,000000;0,000000;0,000000;0,000000;0,000000;0,000000;0,000000;0,000000;0,000000;0,000000;0,000000;0,000000;0,000000;0,000000;0,000000;0,000000;0,000000;0,000000;0,000000;0,000000;0,000000;0,000000;0,000000;0,000000;0,000000;0,000000;
65;;;;;;;;;;;;;;;;;;;;;;;;;;;;;;;;;;;;;;;;;;;;;;;;;;;;;;;;;;;;;;;;;1,000000;0,000000;0,000000;0,000000;0,000000;0,000000;0,000000;0,000000;0,000000;0,000000;0,000000;0,000000;0,000000;0,000000;0,000000;0,000000;0,000000;0,000000;0,000000;0,000000;0,000000;0,000000;0,000000;0,000000;0,000000;0,000000;0,000000;0,000000;0,000000;0,000000;0,000000;0,000000;0,000000;0,000000;0,000000;0,000000;0,000000;0,000000;0,000000;0,000000;0,000000;
66;;;;;;;;;;;;;;;;;;;;;;;;;;;;;;;;;;;;;;;;;;;;;;;;;;;;;;;;;;;;;;;;;;1,000000;0,413598;0,246592;0,210241;0,210241;0,582649;0,369488;0,428457;0,379426;0,345123;0,345123;0,633389;0,345123;0,404269;0,678457;0,000000;0,000000;0,000000;0,462759;0,462759;0,345123;0,543574;0,400057;0,428457;0,428457;0,473893;0,345123;0,293574;0,428457;0,428457;0,345123;0,345123;0,345123;0,345123;0,143574;0,143574;0,143574;0,449316;0,449316;0,449316;
67;;;;;;;;;;;;;;;;;;;;;;;;;;;;;;;;;;;;;;;;;;;;;;;;;;;;;;;;;;;;;;;;;;;1,000000;0,000000;0,000000;0,000000;0,401808;0,336608;0,485141;0,307917;0,401808;0,401808;0,311042;0,401808;0,326907;0,735141;0,000000;0,000000;0,000000;0,414194;0,414194;0,401808;0,000000;0,456741;0,485141;0,485141;0,000000;0,401808;0,000000;0,485141;0,485141;0,401808;0,401808;0,761912;0,761912;0,000000;0,000000;0,000000;0,335141;0,335141;0,335141;
68;;;;;;;;;;;;;;;;;;;;;;;;;;;;;;;;;;;;;;;;;;;;;;;;;;;;;;;;;;;;;;;;;;;;1,000000;0,634562;0,634562;0,000000;0,284411;0,000000;0,297877;0,000000;0,000000;0,298895;0,000000;0,305846;0,000000;0,000000;0,000000;0,000000;0,284549;0,284549;0,000000;0,703017;0,000000;0,000000;0,000000;0,369684;0,000000;0,453017;0,000000;0,000000;0,000000;0,000000;0,000000;0,000000;0,303017;0,303017;0,303017;0,000000;0,000000;0,000000;
69;;;;;;;;;;;;;;;;;;;;;;;;;;;;;;;;;;;;;;;;;;;;;;;;;;;;;;;;;;;;;;;;;;;;;1,000000;0,666667;0,000000;0,248060;0,000000;0,261526;0,000000;0,000000;0,262544;0,000000;0,269495;0,000000;0,000000;0,000000;0,000000;0,248198;0,248198;0,000000;0,666667;0,000000;0,000000;0,000000;0,333333;0,000000;0,833333;0,000000;0,000000;0,000000;0,000000;0,000000;0,000000;0,266667;0,266667;0,266667;0,000000;0,000000;0,000000;
70;;;;;;;;;;;;;;;;;;;;;;;;;;;;;;;;;;;;;;;;;;;;;;;;;;;;;;;;;;;;;;;;;;;;;;1,000000;0,000000;0,248060;0,000000;0,261526;0,000000;0,000000;0,262544;0,000000;0,269495;0,000000;0,000000;0,000000;0,000000;0,248198;0,248198;0,000000;0,666667;0,000000;0,000000;0,000000;0,333333;0,000000;0,833333;0,000000;0,000000;0,000000;0,000000;0,000000;0,000000;0,266667;0,266667;0,266667;0,000000;0,000000;0,000000;
71;;;;;;;;;;;;;;;;;;;;;;;;;;;;;;;;;;;;;;;;;;;;;;;;;;;;;;;;;;;;;;;;;;;;;;;1,000000;0,268133;0,416667;0,239442;0,333333;0,333333;0,553384;0,333333;0,258432;0,666667;0,000000;0,000000;0,000000;0,345719;0,345719;0,333333;0,000000;0,388267;0,416667;0,416667;0,333333;0,333333;0,000000;0,416667;0,416667;0,333333;0,333333;0,333333;0,333333;0,000000;0,000000;0,000000;0,533333;0,533333;0,533333;
72;;;;;;;;;;;;;;;;;;;;;;;;;;;;;;;;;;;;;;;;;;;;;;;;;;;;;;;;;;;;;;;;;;;;;;;;1,000000;0,351466;0,323395;0,268133;0,268133;0,323395;0,268133;0,348238;0,601466;0,000000;0,000000;0,000000;0,406728;0,406728;0,268133;0,581394;0,323066;0,351466;0,351466;0,248060;0,268133;0,331394;0,351466;0,351466;0,268133;0,268133;0,268133;0,268133;0,740615;0,740615;0,740615;0,201466;0,201466;0,201466;
73;;;;;;;;;;;;;;;;;;;;;;;;;;;;;;;;;;;;;;;;;;;;;;;;;;;;;;;;;;;;;;;;;;;;;;;;;1,000000;0,322775;0,416667;0,416667;0,325900;0,416667;0,341765;0,750000;0,000000;0,000000;0,000000;0,429053;0,429053;0,416667;0,000000;0,471600;0,500000;0,500000;0,000000;0,416667;0,000000;0,500000;0,500000;0,416667;0,416667;0,416667;0,416667;0,000000;0,000000;0,000000;0,350000;0,350000;0,350000;
74;;;;;;;;;;;;;;;;;;;;;;;;;;;;;;;;;;;;;;;;;;;;;;;;;;;;;;;;;;;;;;;;;;;;;;;;;;1,000000;0,239442;0,239442;0,333333;0,239442;0,358177;0,572775;0,000000;0,000000;0,000000;0,416667;0,416667;0,239442;0,594860;0,294375;0,322775;0,322775;0,261526;0,239442;0,344860;0,322775;0,322775;0,239442;0,239442;0,239442;0,239442;0,194860;0,194860;0,194860;0,172775;0,172775;0,172775;
75;;;;;;;;;;;;;;;;;;;;;;;;;;;;;;;;;;;;;;;;;;;;;;;;;;;;;;;;;;;;;;;;;;;;;;;;;;;1,000000;0,666667;0,242567;0,333333;0,258432;0,666667;0,000000;0,000000;0,000000;0,345719;0,345719;0,333333;0,000000;0,388267;0,416667;0,416667;0,000000;0,333333;0,000000;0,416667;0,416667;0,333333;0,333333;0,333333;0,333333;0,000000;0,000000;0,000000;0,266667;0,266667;0,266667;
76;;;;;;;;;;;;;;;;;;;;;;;;;;;;;;;;;;;;;;;;;;;;;;;;;;;;;;;;;;;;;;;;;;;;;;;;;;;;1,000000;0,242567;0,333333;0,258432;0,666667;0,000000;0,000000;0,000000;0,345719;0,345719;0,333333;0,000000;0,388267;0,416667;0,416667;0,000000;0,333333;0,000000;0,416667;0,416667;0,333333;0,333333;0,333333;0,333333;0,000000;0,000000;0,000000;0,266667;0,266667;0,266667;
77;;;;;;;;;;;;;;;;;;;;;;;;;;;;;;;;;;;;;;;;;;;;;;;;;;;;;;;;;;;;;;;;;;;;;;;;;;;;;1,000000;0,242567;0,358177;0,575900;0,000000;0,000000;0,000000;0,416667;0,416667;0,242567;0,595878;0,297500;0,325900;0,325900;0,576280;0,242567;0,345878;0,325900;0,325900;0,242567;0,242567;0,242567;0,242567;0,195878;0,195878;0,195878;0,175900;0,175900;0,175900;
78;;;;;;;;;;;;;;;;;;;;;;;;;;;;;;;;;;;;;;;;;;;;;;;;;;;;;;;;;;;;;;;;;;;;;;;;;;;;;;1,000000;0,258432;0,666667;0,000000;0,000000;0,000000;0,345719;0,345719;0,333333;0,000000;0,388267;0,416667;0,416667;0,000000;0,333333;0,000000;0,416667;0,416667;0,333333;0,333333;0,333333;0,333333;0,000000;0,000000;0,000000;0,266667;0,266667;0,266667;
79;;;;;;;;;;;;;;;;;;;;;;;;;;;;;;;;;;;;;;;;;;;;;;;;;;;;;;;;;;;;;;;;;;;;;;;;;;;;;;;1,000000;0,591765;0,000000;0,000000;0,000000;0,441510;0,441510;0,258432;0,602829;0,524187;0,341765;0,341765;0,269495;0,258432;0,352829;0,341765;0,341765;0,258432;0,258432;0,258432;0,258432;0,202829;0,202829;0,202829;0,191765;0,191765;0,191765;
80;;;;;;;;;;;;;;;;;;;;;;;;;;;;;;;;;;;;;;;;;;;;;;;;;;;;;;;;;;;;;;;;;;;;;;;;;;;;;;;;1,000000;0,000000;0,000000;0,000000;0,679053;0,679053;0,666667;0,000000;0,721600;0,750000;0,750000;0,000000;0,666667;0,000000;0,750000;0,750000;0,666667;0,666667;0,666667;0,666667;0,000000;0,000000;0,000000;0,600000;0,600000;0,600000;
81;;;;;;;;;;;;;;;;;;;;;;;;;;;;;;;;;;;;;;;;;;;;;;;;;;;;;;;;;;;;;;;;;;;;;;;;;;;;;;;;;1,000000;0,500000;0,500000;0,000000;0,000000;0,000000;0,000000;0,000000;0,000000;0,000000;0,000000;0,000000;0,000000;0,000000;0,000000;0,000000;0,000000;0,000000;0,000000;0,000000;0,000000;0,000000;0,000000;0,000000;0,000000;
82;;;;;;;;;;;;;;;;;;;;;;;;;;;;;;;;;;;;;;;;;;;;;;;;;;;;;;;;;;;;;;;;;;;;;;;;;;;;;;;;;;1,000000;0,500000;0,000000;0,000000;0,000000;0,000000;0,000000;0,000000;0,000000;0,000000;0,000000;0,000000;0,000000;0,000000;0,000000;0,000000;0,000000;0,000000;0,000000;0,000000;0,000000;0,000000;0,000000;0,000000;
83;;;;;;;;;;;;;;;;;;;;;;;;;;;;;;;;;;;;;;;;;;;;;;;;;;;;;;;;;;;;;;;;;;;;;;;;;;;;;;;;;;;1,000000;0,000000;0,000000;0,000000;0,000000;0,000000;0,000000;0,000000;0,000000;0,000000;0,000000;0,000000;0,000000;0,000000;0,000000;0,000000;0,000000;0,000000;0,000000;0,000000;0,000000;0,000000;0,000000;
84;;;;;;;;;;;;;;;;;;;;;;;;;;;;;;;;;;;;;;;;;;;;;;;;;;;;;;;;;;;;;;;;;;;;;;;;;;;;;;;;;;;;1,000000;0,500000;0,345719;0,581531;0,400652;0,429053;0,429053;0,248198;0,345719;0,331531;0,429053;0,429053;0,345719;0,345719;0,345719;0,345719;0,181531;0,181531;0,181531;0,279053;0,279053;0,279053;
85;;;;;;;;;;;;;;;;;;;;;;;;;;;;;;;;;;;;;;;;;;;;;;;;;;;;;;;;;;;;;;;;;;;;;;;;;;;;;;;;;;;;;1,000000;0,345719;0,581531;0,400652;0,429053;0,429053;0,248198;0,345719;0,331531;0,429053;0,429053;0,345719;0,345719;0,345719;0,345719;0,181531;0,181531;0,181531;0,279053;0,279053;0,279053;
86;;;;;;;;;;;;;;;;;;;;;;;;;;;;;;;;;;;;;;;;;;;;;;;;;;;;;;;;;;;;;;;;;;;;;;;;;;;;;;;;;;;;;;1,000000;0,000000;0,388267;0,416667;0,416667;0,000000;0,333333;0,000000;0,416667;0,416667;0,666667;0,666667;0,333333;0,333333;0,000000;0,000000;0,000000;0,266667;0,266667;0,266667;
87;;;;;;;;;;;;;;;;;;;;;;;;;;;;;;;;;;;;;;;;;;;;;;;;;;;;;;;;;;;;;;;;;;;;;;;;;;;;;;;;;;;;;;;1,000000;0,000000;0,000000;0,000000;0,666667;0,000000;0,750000;0,000000;0,000000;0,000000;0,000000;0,000000;0,000000;0,600000;0,600000;0,600000;0,000000;0,000000;0,000000;
88;;;;;;;;;;;;;;;;;;;;;;;;;;;;;;;;;;;;;;;;;;;;;;;;;;;;;;;;;;;;;;;;;;;;;;;;;;;;;;;;;;;;;;;;1,000000;0,471600;0,471600;0,000000;0,388267;0,000000;0,471600;0,758695;0,388267;0,388267;0,388267;0,388267;0,000000;0,000000;0,000000;0,321600;0,321600;0,321600;
89;;;;;;;;;;;;;;;;;;;;;;;;;;;;;;;;;;;;;;;;;;;;;;;;;;;;;;;;;;;;;;;;;;;;;;;;;;;;;;;;;;;;;;;;;1,000000;0,500000;0,000000;0,416667;0,000000;0,500000;0,500000;0,416667;0,416667;0,416667;0,416667;0,000000;0,000000;0,000000;0,350000;0,350000;0,350000;
90;;;;;;;;;;;;;;;;;;;;;;;;;;;;;;;;;;;;;;;;;;;;;;;;;;;;;;;;;;;;;;;;;;;;;;;;;;;;;;;;;;;;;;;;;;1,000000;0,000000;0,416667;0,000000;0,500000;0,500000;0,416667;0,416667;0,416667;0,416667;0,000000;0,000000;0,000000;0,350000;0,350000;0,350000;
91;;;;;;;;;;;;;;;;;;;;;;;;;;;;;;;;;;;;;;;;;;;;;;;;;;;;;;;;;;;;;;;;;;;;;;;;;;;;;;;;;;;;;;;;;;;1,000000;0,000000;0,416667;0,000000;0,000000;0,000000;0,000000;0,000000;0,000000;0,266667;0,266667;0,266667;0,000000;0,000000;0,000000;
92;;;;;;;;;;;;;;;;;;;;;;;;;;;;;;;;;;;;;;;;;;;;;;;;;;;;;;;;;;;;;;;;;;;;;;;;;;;;;;;;;;;;;;;;;;;;1,000000;0,000000;0,416667;0,416667;0,333333;0,333333;0,333333;0,333333;0,000000;0,000000;0,000000;0,533333;0,533333;0,533333;
93;;;;;;;;;;;;;;;;;;;;;;;;;;;;;;;;;;;;;;;;;;;;;;;;;;;;;;;;;;;;;;;;;;;;;;;;;;;;;;;;;;;;;;;;;;;;;1,000000;0,000000;0,000000;0,000000;0,000000;0,000000;0,000000;0,350000;0,350000;0,350000;0,000000;0,000000;0,000000;
94;;;;;;;;;;;;;;;;;;;;;;;;;;;;;;;;;;;;;;;;;;;;;;;;;;;;;;;;;;;;;;;;;;;;;;;;;;;;;;;;;;;;;;;;;;;;;;1,000000;0,500000;0,416667;0,416667;0,416667;0,416667;0,000000;0,000000;0,000000;0,350000;0,350000;0,350000;
95;;;;;;;;;;;;;;;;;;;;;;;;;;;;;;;;;;;;;;;;;;;;;;;;;;;;;;;;;;;;;;;;;;;;;;;;;;;;;;;;;;;;;;;;;;;;;;;1,000000;0,416667;0,416667;0,416667;0,416667;0,000000;0,000000;0,000000;0,350000;0,350000;0,350000;
96;;;;;;;;;;;;;;;;;;;;;;;;;;;;;;;;;;;;;;;;;;;;;;;;;;;;;;;;;;;;;;;;;;;;;;;;;;;;;;;;;;;;;;;;;;;;;;;;1,000000;1,000000;0,333333;0,333333;0,000000;0,000000;0,000000;0,266667;0,266667;0,266667;
97;;;;;;;;;;;;;;;;;;;;;;;;;;;;;;;;;;;;;;;;;;;;;;;;;;;;;;;;;;;;;;;;;;;;;;;;;;;;;;;;;;;;;;;;;;;;;;;;;1,000000;0,333333;0,333333;0,000000;0,000000;0,000000;0,266667;0,266667;0,266667;
98;;;;;;;;;;;;;;;;;;;;;;;;;;;;;;;;;;;;;;;;;;;;;;;;;;;;;;;;;;;;;;;;;;;;;;;;;;;;;;;;;;;;;;;;;;;;;;;;;;1,000000;0,666667;0,000000;0,000000;0,000000;0,266667;0,266667;0,266667;
99;;;;;;;;;;;;;;;;;;;;;;;;;;;;;;;;;;;;;;;;;;;;;;;;;;;;;;;;;;;;;;;;;;;;;;;;;;;;;;;;;;;;;;;;;;;;;;;;;;;1,000000;0,000000;0,000000;0,000000;0,266667;0,266667;0,266667;
100;;;;;;;;;;;;;;;;;;;;;;;;;;;;;;;;;;;;;;;;;;;;;;;;;;;;;;;;;;;;;;;;;;;;;;;;;;;;;;;;;;;;;;;;;;;;;;;;;;;;1,000000;0,800000;0,800000;0,000000;0,000000;0,000000;
101;;;;;;;;;;;;;;;;;;;;;;;;;;;;;;;;;;;;;;;;;;;;;;;;;;;;;;;;;;;;;;;;;;;;;;;;;;;;;;;;;;;;;;;;;;;;;;;;;;;;;1,000000;0,800000;0,000000;0,000000;0,000000;
102;;;;;;;;;;;;;;;;;;;;;;;;;;;;;;;;;;;;;;;;;;;;;;;;;;;;;;;;;;;;;;;;;;;;;;;;;;;;;;;;;;;;;;;;;;;;;;;;;;;;;;1,000000;0,000000;0,000000;0,000000;
103;;;;;;;;;;;;;;;;;;;;;;;;;;;;;;;;;;;;;;;;;;;;;;;;;;;;;;;;;;;;;;;;;;;;;;;;;;;;;;;;;;;;;;;;;;;;;;;;;;;;;;;1,000000;0,800000;0,800000;
104;;;;;;;;;;;;;;;;;;;;;;;;;;;;;;;;;;;;;;;;;;;;;;;;;;;;;;;;;;;;;;;;;;;;;;;;;;;;;;;;;;;;;;;;;;;;;;;;;;;;;;;;1,000000;0,800000;
105;;;;;;;;;;;;;;;;;;;;;;;;;;;;;;;;;;;;;;;;;;;;;;;;;;;;;;;;;;;;;;;;;;;;;;;;;;;;;;;;;;;;;;;;;;;;;;;;;;;;;;;;;1,000000;
