;1; 2; 3; 4; 5; 6; 7; 8; 9; 10; 11; 12; 13; 14; 15; 16; 17; 18; 19; 20; 21; 22; 23; 24; 25; 26; 27; 28; 29; 30; 31; 32; 33; 34; 35; 36; 37; 38; 39; 40; 41; 42; 43; 44; 45; 46; 47; 48; 49; 50; 51; 52; 53; 54; 55; 56; 57; 58; 59; 60; 61; 62; 63; 64; 65; 66; 67; 68; 69; 70; 71; 72; 73; 74; 75; 76; 77; 78; 79; 80; 81; 82; 83; 84; 85; 86; 87; 88; 89; 90; 91; 92; 93; 94; 95; 96; 97; 98; 99; 100; 101; 102; 103; 104; 105; 106; 107; 108; 109; 110; 111; 112; 113; 114; 115; 116; 117; 118; 119; 120; 121; 122; 123; 124; 125; 126; 127; 128; 129; 130; 131
1;1,000000;0,000000;1,000000;0,000000;0,000000;0,000000;0,000000;0,000000;0,000000;0,000000;0,000000;0,000000;0,000000;0,000000;0,000000;0,000000;0,000000;0,000000;0,000000;0,000000;0,000000;0,000000;1,000000;0,000000;0,000000;0,000000;0,000000;0,000000;0,000000;0,000000;0,000000;0,000000;0,000000;0,000000;0,000000;0,000000;0,000000;0,000000;0,000000;0,000000;0,000000;0,000000;0,000000;0,000000;0,000000;0,000000;0,000000;0,000000;0,000000;0,000000;0,000000;0,000000;0,000000;0,000000;0,000000;0,000000;0,000000;0,000000;0,000000;0,000000;0,000000;0,000000;0,000000;0,000000;0,000000;0,000000;0,000000;0,000000;0,000000;0,000000;0,000000;0,000000;0,000000;0,000000;0,000000;0,000000;0,000000;0,000000;0,000000;0,000000;0,000000;0,000000;0,000000;0,000000;0,000000;0,000000;0,000000;0,000000;0,000000;0,000000;0,000000;0,000000;0,000000;0,000000;0,000000;0,000000;0,000000;0,000000;0,000000;0,000000;0,000000;0,000000;0,000000;0,000000;0,000000;0,000000;0,000000;0,000000;0,000000;0,000000;0,000000;0,000000;0,000000;0,000000;0,000000;0,000000;0,000000;0,000000;0,000000;0,000000;0,000000;0,000000;0,000000;0,000000;0,000000;0,000000;0,000000;0,000000;0,000000;0,000000;0,000000;
2;;1,000000;0,000000;0,876923;0,751861;0,554526;0,625000;0,625000;0,800000;0,733333;0,000000;0,000000;0,000000;0,000000;0,000000;0,834311;0,571429;0,428571;0,428571;0,554526;1,000000;0,805021;0,000000;0,629461;0,741804;1,000000;0,629461;0,535156;0,573142;0,571429;0,666667;0,705472;0,626083;0,357143;0,357143;0,512500;0,571429;0,666667;1,000000;0,839151;0,926200;1,000000;0,428571;0,428571;0,802439;0,733333;0,357143;1,000000;0,428571;1,000000;0,750000;1,000000;0,571429;0,571429;0,800000;0,000000;0,000000;0,700000;0,625000;0,733333;1,000000;1,000000;0,428571;0,571429;0,571429;0,571429;0,833333;0,428571;0,428571;0,000000;0,000000;0,571429;0,571429;1,000000;1,000000;0,571429;0,571429;0,571429;0,428571;0,428571;0,571429;0,571429;0,000000;0,000000;0,000000;0,357143;0,357143;0,357143;0,357143;0,500000;0,500000;0,500000;0,357143;0,357143;0,357143;0,357143;0,571429;0,571429;0,357143;0,357143;0,000000;0,000000;0,000000;0,700000;0,357143;0,357143;0,000000;0,000000;1,000000;0,571429;0,500000;0,428571;0,428571;0,639471;1,000000;1,000000;1,000000;0,571429;0,428571;0,428571;1,000000;1,000000;0,571429;0,571429;0,571429;1,000000;0,571429;0,357143;0,357143;0,428571;0,428571;
3;;;1,000000;0,500000;0,603318;0,605968;0,500000;0,500000;0,501548;0,501984;0,000000;0,000000;0,000000;0,000000;0,000000;0,540946;0,500024;0,666156;0,666156;0,628431;0,000000;0,619552;0,995513;0,689252;0,643427;0,000000;0,650746;0,698436;0,715233;0,500000;0,501307;0,572861;0,656467;0,748328;0,748328;0,606079;0,498554;0,504579;0,000000;0,596900;0,500115;0,000000;0,666138;0,666138;0,571158;0,499693;0,750083;0,000000;0,668253;0,000000;0,498361;0,000000;0,500000;0,500000;0,500092;0,000000;0,000000;0,500092;0,500624;0,498805;0,000000;0,000000;0,666984;0,500806;0,500000;0,500000;0,502381;0,666869;0,666869;0,000000;0,000000;0,500000;0,500000;0,000000;0,000000;0,500000;0,500000;0,501344;0,666199;0,666199;0,500000;0,500000;0,000000;0,000000;0,000000;0,750000;0,750000;0,750000;0,750000;0,000000;0,000000;0,000000;0,000000;0,000000;0,000000;0,000000;0,500000;0,501551;0,749392;0,749392;0,000000;0,000000;0,000000;0,500907;0,749013;0,749013;0,000000;0,000000;0,000000;0,500000;0,666090;0,666199;0,666199;0,666667;0,000000;0,000000;0,000000;0,500024;0,667297;0,667297;0,000000;0,000000;0,498790;0,500000;0,500000;0,000000;0,500806;0,749392;0,749392;0,665667;0,665667;
4;;;;1,000000;0,619011;0,458084;0,534965;0,534965;0,674556;0,623077;0,000000;0,000000;0,000000;0,000000;0,000000;0,611147;0,519231;0,369231;0,369231;0,458084;0,969231;0,614347;0,000000;0,453403;0,536255;0,969231;0,453403;0,400127;0,412797;0,519231;0,548077;0,565485;0,473882;0,294231;0,294231;0,412238;0,519231;0,548077;0,969231;0,656508;0,761538;0,923077;0,369231;0,369231;0,611158;0,623077;0,294231;0,969231;0,369231;0,969231;0,671329;0,969231;0,519231;0,519231;0,674556;0,000000;0,000000;0,559172;0,534965;0,623077;0,969231;0,969231;0,369231;0,519231;0,519231;0,519231;0,735577;0,369231;0,369231;0,000000;0,000000;0,519231;0,519231;0,969231;0,969231;0,519231;0,519231;0,519231;0,369231;0,369231;0,519231;0,519231;0,000000;0,000000;0,000000;0,294231;0,294231;0,294231;0,294231;0,000000;0,000000;0,000000;0,000000;0,000000;0,000000;0,000000;0,519231;0,519231;0,294231;0,294231;0,000000;0,000000;0,000000;0,559172;0,294231;0,294231;0,000000;0,000000;0,969231;0,519231;0,398601;0,369231;0,369231;0,550752;0,969231;0,969231;0,969231;0,519231;0,369231;0,369231;0,969231;0,969231;0,519231;0,519231;0,519231;0,969231;0,519231;0,294231;0,294231;0,369231;0,369231;
5;;;;;1,000000;0,637776;0,528812;0,528812;0,626551;0,594187;0,000000;0,000000;0,000000;0,000000;0,000000;0,565560;0,517287;0,383954;0,383954;0,466168;0,917287;0,572640;0,000000;0,468321;0,523471;0,917287;0,468321;0,424320;0,437503;0,517287;0,537044;0,547777;0,481620;0,317287;0,317287;0,428812;0,517287;0,537044;0,917287;0,599186;0,681353;0,822758;0,383954;0,383954;0,570632;0,594187;0,317287;0,917287;0,706148;0,917287;0,639923;0,917287;0,517287;0,517287;0,626551;0,000000;0,000000;0,543218;0,528812;0,594187;0,917287;0,917287;0,383954;0,517287;0,517287;0,517287;0,679901;0,383954;0,383954;0,000000;0,000000;0,517287;0,517287;0,917287;0,917287;0,517287;0,517287;0,517287;0,383954;0,383954;0,517287;0,517287;0,000000;0,000000;0,000000;0,317287;0,317287;0,317287;0,317287;0,000000;0,000000;0,000000;0,000000;0,000000;0,000000;0,000000;0,517287;0,517287;0,317287;0,317287;0,000000;0,000000;0,000000;0,543218;0,317287;0,317287;0,000000;0,000000;0,917287;0,517287;0,417701;0,383954;0,383954;0,541675;0,917287;0,917287;0,917287;0,517287;0,383954;0,383954;0,917287;0,917287;0,517287;0,517287;0,517287;0,917287;0,517287;0,317287;0,317287;0,383954;0,383954;
6;;;;;;1,000000;0,453017;0,453017;0,492912;0,483621;0,000000;0,000000;0,000000;0,000000;0,000000;0,419877;0,468678;0,357567;0,357567;0,406035;0,802012;0,433838;0,000000;0,381647;0,404336;0,802012;0,381647;0,364714;0,366880;0,468678;0,443621;0,440396;0,396291;0,302012;0,302012;0,378017;0,468678;0,443621;0,802012;0,449765;0,518596;0,643621;0,357567;0,357567;0,432633;0,483621;0,302012;0,802012;0,715134;0,802012;0,536351;0,802012;0,468678;0,468678;0,492912;0,000000;0,000000;0,437357;0,453017;0,483621;0,802012;0,802012;0,357567;0,468678;0,468678;0,468678;0,543621;0,357567;0,357567;0,000000;0,000000;0,468678;0,468678;0,802012;0,802012;0,468678;0,468678;0,468678;0,357567;0,357567;0,468678;0,468678;0,000000;0,000000;0,000000;0,302012;0,302012;0,302012;0,302012;0,000000;0,000000;0,000000;0,000000;0,000000;0,000000;0,000000;0,468678;0,468678;0,302012;0,302012;0,000000;0,000000;0,000000;0,437357;0,302012;0,302012;0,000000;0,000000;0,802012;0,468678;0,369684;0,357567;0,357567;0,462665;0,802012;0,802012;0,802012;0,468678;0,357567;0,357567;0,802012;0,802012;0,468678;0,468678;0,468678;0,802012;0,468678;0,302012;0,302012;0,357567;0,357567;
7;;;;;;;1,000000;0,500000;0,555556;0,540000;0,000000;0,000000;0,000000;0,000000;0,000000;0,500419;0,500000;0,388889;0,388889;0,453017;0,833333;0,509010;0,000000;0,448765;0,479508;0,833333;0,448765;0,421093;0,429523;0,500000;0,500000;0,503040;0,458935;0,333333;0,333333;0,425000;0,500000;0,500000;0,833333;0,524937;0,585714;0,700000;0,388889;0,388889;0,507805;0,540000;0,333333;0,833333;0,388889;0,833333;0,583333;0,833333;0,500000;0,500000;0,555556;0,000000;0,000000;0,500000;0,500000;0,540000;0,833333;0,833333;0,388889;0,500000;0,500000;0,500000;0,600000;0,388889;0,388889;0,000000;0,000000;0,500000;0,500000;0,833333;0,833333;0,500000;0,500000;0,500000;0,388889;0,388889;0,500000;0,500000;0,000000;0,000000;0,000000;0,333333;0,333333;0,333333;0,333333;0,000000;0,000000;0,000000;0,000000;0,000000;0,000000;0,000000;0,500000;0,500000;0,333333;0,333333;0,000000;0,000000;0,000000;0,500000;0,333333;0,333333;0,000000;0,000000;0,833333;0,500000;0,416667;0,388889;0,388889;0,509648;0,833333;0,833333;0,833333;0,500000;0,388889;0,388889;0,833333;0,833333;0,500000;0,500000;0,500000;0,833333;0,500000;0,333333;0,333333;0,388889;0,388889;
8;;;;;;;;1,000000;0,555556;0,540000;0,000000;0,000000;0,000000;0,000000;0,000000;0,500419;0,500000;0,388889;0,388889;0,453017;0,833333;0,509010;0,000000;0,448765;0,479508;0,833333;0,448765;0,421093;0,429523;0,500000;0,500000;0,503040;0,458935;0,333333;0,333333;0,425000;0,500000;0,500000;0,833333;0,524937;0,585714;0,700000;0,388889;0,388889;0,507805;0,540000;0,333333;0,833333;0,388889;0,833333;0,583333;0,833333;0,500000;0,500000;0,555556;0,000000;0,000000;0,500000;0,500000;0,540000;0,833333;0,833333;0,388889;0,500000;0,500000;0,500000;0,600000;0,388889;0,388889;0,000000;0,000000;0,500000;0,500000;0,833333;0,833333;0,500000;0,500000;0,500000;0,388889;0,388889;0,500000;0,500000;0,000000;0,000000;0,000000;0,333333;0,333333;0,333333;0,333333;0,000000;0,000000;0,000000;0,000000;0,000000;0,000000;0,000000;0,500000;0,500000;0,333333;0,333333;0,000000;0,000000;0,000000;0,500000;0,333333;0,333333;0,000000;0,000000;0,833333;0,500000;0,416667;0,388889;0,388889;0,509648;0,833333;0,833333;0,833333;0,500000;0,388889;0,388889;0,833333;0,833333;0,500000;0,500000;0,500000;0,833333;0,500000;0,333333;0,333333;0,388889;0,388889;
9;;;;;;;;;1,000000;0,628571;0,000000;0,000000;0,000000;0,000000;0,000000;0,625733;0,533333;0,400000;0,400000;0,492912;0,933333;0,626128;0,000000;0,512894;0,576958;0,933333;0,512894;0,458705;0,477618;0,533333;0,571429;0,587893;0,521735;0,333333;0,333333;0,455556;0,533333;0,571429;0,933333;0,652673;0,725926;0,857143;0,400000;0,400000;0,624119;0,628571;0,333333;0,933333;0,400000;0,933333;0,666667;0,933333;0,533333;0,533333;0,666667;0,000000;0,000000;0,583333;0,555556;0,628571;0,933333;0,933333;0,400000;0,968136;0,533333;0,533333;0,714286;0,400000;0,400000;0,000000;0,000000;0,533333;0,533333;0,933333;0,933333;0,533333;0,533333;0,533333;0,400000;0,400000;0,533333;0,533333;0,000000;0,000000;0,000000;0,333333;0,333333;0,333333;0,333333;0,000000;0,000000;0,000000;0,000000;0,000000;0,000000;0,000000;0,533333;0,533333;0,333333;0,333333;0,000000;0,000000;0,000000;0,583333;0,333333;0,333333;0,000000;0,000000;0,933333;0,533333;0,444444;0,400000;0,400000;0,568419;0,933333;0,933333;0,933333;0,533333;0,400000;0,400000;0,933333;0,933333;0,533333;0,533333;0,533333;0,933333;0,533333;0,333333;0,333333;0,400000;0,400000;
10;;;;;;;;;;1,000000;0,000000;0,000000;0,000000;0,000000;0,000000;0,580587;0,525000;0,400000;0,400000;0,483621;0,900000;0,585013;0,000000;0,495254;0,544784;0,900000;0,495254;0,451367;0,466530;0,525000;0,550000;0,561051;0,504345;0,337500;0,337500;0,450000;0,525000;0,550000;0,900000;0,606733;0,675000;0,800000;0,400000;0,400000;0,583370;0,600000;0,337500;0,900000;0,400000;0,900000;0,640000;0,900000;0,525000;0,525000;0,628571;0,000000;0,000000;0,557143;0,540000;0,600000;0,900000;0,900000;0,400000;0,525000;0,525000;0,525000;0,675000;0,400000;0,400000;0,000000;0,000000;0,525000;0,525000;0,900000;0,900000;0,525000;0,525000;0,952588;0,400000;0,400000;0,525000;0,525000;0,000000;0,000000;0,000000;0,337500;0,337500;0,337500;0,337500;0,000000;0,000000;0,000000;0,000000;0,000000;0,000000;0,000000;0,525000;0,525000;0,337500;0,337500;0,000000;0,000000;0,000000;0,557143;0,337500;0,337500;0,000000;0,000000;0,900000;0,525000;0,440000;0,400000;0,400000;0,551577;0,900000;0,900000;0,900000;0,525000;0,400000;0,400000;0,900000;0,900000;0,525000;0,525000;0,525000;0,900000;0,525000;0,337500;0,337500;0,400000;0,400000;
11;;;;;;;;;;;1,000000;0,750000;0,750000;0,750000;0,750000;0,000000;0,000000;0,000000;0,000000;0,000000;0,000000;0,000000;0,000000;0,000000;0,000000;0,000000;0,000000;0,000000;0,000000;0,000000;0,000000;0,000000;0,000000;0,000000;0,000000;0,000000;0,000000;0,000000;0,000000;0,000000;0,000000;0,000000;0,000000;0,000000;0,000000;0,000000;0,000000;0,000000;0,000000;0,000000;0,000000;0,000000;0,000000;0,000000;0,000000;0,000000;0,000000;0,000000;0,000000;0,000000;0,000000;0,000000;0,000000;0,000000;0,000000;0,000000;0,000000;0,000000;0,000000;0,000000;0,000000;0,000000;0,000000;0,000000;0,000000;0,000000;0,000000;0,000000;0,000000;0,000000;0,000000;0,000000;0,000000;0,000000;0,000000;0,000000;0,000000;0,000000;0,000000;0,000000;0,000000;0,000000;0,000000;0,000000;0,000000;0,000000;0,000000;0,000000;0,000000;0,000000;0,000000;0,000000;0,000000;0,000000;0,000000;0,000000;0,000000;0,000000;0,000000;0,000000;0,000000;0,000000;0,000000;0,000000;0,000000;0,000000;0,000000;0,000000;0,000000;0,000000;0,000000;0,000000;0,000000;0,000000;0,000000;0,000000;0,000000;0,000000;0,000000;0,000000;0,000000;
12;;;;;;;;;;;;1,000000;0,750000;0,750000;0,750000;0,000000;0,000000;0,000000;0,000000;0,000000;0,000000;0,000000;0,000000;0,000000;0,000000;0,000000;0,000000;0,000000;0,000000;0,000000;0,000000;0,000000;0,000000;0,000000;0,000000;0,000000;0,000000;0,000000;0,000000;0,000000;0,000000;0,000000;0,000000;0,000000;0,000000;0,000000;0,000000;0,000000;0,000000;0,000000;0,000000;0,000000;0,000000;0,000000;0,000000;0,000000;0,000000;0,000000;0,000000;0,000000;0,000000;0,000000;0,000000;0,000000;0,000000;0,000000;0,000000;0,000000;0,000000;0,000000;0,000000;0,000000;0,000000;0,000000;0,000000;0,000000;0,000000;0,000000;0,000000;0,000000;0,000000;0,000000;0,000000;0,000000;0,000000;0,000000;0,000000;0,000000;0,000000;0,000000;0,000000;0,000000;0,000000;0,000000;0,000000;0,000000;0,000000;0,000000;0,000000;0,000000;0,000000;0,000000;0,000000;0,000000;0,000000;0,000000;0,000000;0,000000;0,000000;0,000000;0,000000;0,000000;0,000000;0,000000;0,000000;0,000000;0,000000;0,000000;0,000000;0,000000;0,000000;0,000000;0,000000;0,000000;0,000000;0,000000;0,000000;0,000000;0,000000;0,000000;0,000000;
13;;;;;;;;;;;;;1,000000;0,750000;0,750000;0,000000;0,000000;0,000000;0,000000;0,000000;0,000000;0,000000;0,000000;0,000000;0,000000;0,000000;0,000000;0,000000;0,000000;0,000000;0,000000;0,000000;0,000000;0,000000;0,000000;0,000000;0,000000;0,000000;0,000000;0,000000;0,000000;0,000000;0,000000;0,000000;0,000000;0,000000;0,000000;0,000000;0,000000;0,000000;0,000000;0,000000;0,000000;0,000000;0,000000;0,000000;0,000000;0,000000;0,000000;0,000000;0,000000;0,000000;0,000000;0,000000;0,000000;0,000000;0,000000;0,000000;0,000000;0,000000;0,000000;0,000000;0,000000;0,000000;0,000000;0,000000;0,000000;0,000000;0,000000;0,000000;0,000000;0,000000;0,000000;0,000000;0,000000;0,000000;0,000000;0,000000;0,000000;0,000000;0,000000;0,000000;0,000000;0,000000;0,000000;0,000000;0,000000;0,000000;0,000000;0,000000;0,000000;0,000000;0,000000;0,000000;0,000000;0,000000;0,000000;0,000000;0,000000;0,000000;0,000000;0,000000;0,000000;0,000000;0,000000;0,000000;0,000000;0,000000;0,000000;0,000000;0,000000;0,000000;0,000000;0,000000;0,000000;0,000000;0,000000;0,000000;0,000000;0,000000;0,000000;
14;;;;;;;;;;;;;;1,000000;0,750000;0,000000;0,000000;0,000000;0,000000;0,000000;0,000000;0,000000;0,000000;0,000000;0,000000;0,000000;0,000000;0,000000;0,000000;0,000000;0,000000;0,000000;0,000000;0,000000;0,000000;0,000000;0,000000;0,000000;0,000000;0,000000;0,000000;0,000000;0,000000;0,000000;0,000000;0,000000;0,000000;0,000000;0,000000;0,000000;0,000000;0,000000;0,000000;0,000000;0,000000;0,000000;0,000000;0,000000;0,000000;0,000000;0,000000;0,000000;0,000000;0,000000;0,000000;0,000000;0,000000;0,000000;0,000000;0,000000;0,000000;0,000000;0,000000;0,000000;0,000000;0,000000;0,000000;0,000000;0,000000;0,000000;0,000000;0,000000;0,000000;0,000000;0,000000;0,000000;0,000000;0,000000;0,000000;0,000000;0,000000;0,000000;0,000000;0,000000;0,000000;0,000000;0,000000;0,000000;0,000000;0,000000;0,000000;0,000000;0,000000;0,000000;0,000000;0,000000;0,000000;0,000000;0,000000;0,000000;0,000000;0,000000;0,000000;0,000000;0,000000;0,000000;0,000000;0,000000;0,000000;0,000000;0,000000;0,000000;0,000000;0,000000;0,000000;0,000000;0,000000;0,000000;0,000000;0,000000;0,000000;
15;;;;;;;;;;;;;;;1,000000;0,000000;0,000000;0,000000;0,000000;0,000000;0,000000;0,000000;0,000000;0,000000;0,000000;0,000000;0,000000;0,000000;0,000000;0,000000;0,000000;0,000000;0,000000;0,000000;0,000000;0,000000;0,000000;0,000000;0,000000;0,000000;0,000000;0,000000;0,000000;0,000000;0,000000;0,000000;0,000000;0,000000;0,000000;0,000000;0,000000;0,000000;0,000000;0,000000;0,000000;0,000000;0,000000;0,000000;0,000000;0,000000;0,000000;0,000000;0,000000;0,000000;0,000000;0,000000;0,000000;0,000000;0,000000;0,000000;0,000000;0,000000;0,000000;0,000000;0,000000;0,000000;0,000000;0,000000;0,000000;0,000000;0,000000;0,000000;0,000000;0,000000;0,000000;0,000000;0,000000;0,000000;0,000000;0,000000;0,000000;0,000000;0,000000;0,000000;0,000000;0,000000;0,000000;0,000000;0,000000;0,000000;0,000000;0,000000;0,000000;0,000000;0,000000;0,000000;0,000000;0,000000;0,000000;0,000000;0,000000;0,000000;0,000000;0,000000;0,000000;0,000000;0,000000;0,000000;0,000000;0,000000;0,000000;0,000000;0,000000;0,000000;0,000000;0,000000;0,000000;0,000000;0,000000;0,000000;0,000000;
16;;;;;;;;;;;;;;;;1,000000;0,500226;0,346379;0,346379;0,419877;0,961764;0,528203;0,852941;0,374283;0,439698;0,961764;0,374283;0,342773;0,342161;0,500226;0,500587;0,507573;0,408336;0,269456;0,269456;0,371848;0,500226;0,500587;0,961764;0,695392;0,712627;0,900587;0,657712;0,657712;0,524588;0,580587;0,269456;0,961764;0,346379;0,961764;0,643276;0,961764;0,500226;0,500226;0,625733;0,000000;0,000000;0,500733;0,935752;0,580587;0,961764;0,961764;0,346379;0,500226;0,500226;0,500226;0,700587;0,346379;0,346379;0,000000;0,000000;0,500226;0,500226;0,961764;0,961764;0,500226;0,500226;0,500226;0,346379;0,346379;0,500226;0,500226;0,000000;0,000000;0,000000;0,269456;0,269456;0,269456;0,269456;0,000000;0,000000;0,000000;0,000000;0,000000;0,000000;0,000000;0,500226;0,500226;0,269456;0,269456;0,000000;0,000000;0,000000;0,500733;0,269456;0,269456;0,000000;0,000000;0,961764;0,500226;0,357562;0,346379;0,346379;0,516958;0,961764;0,961764;0,961764;0,500226;0,346379;0,346379;0,961764;0,961764;0,500226;0,500226;0,500226;0,961764;0,500226;0,269456;0,269456;0,657032;0,657032;
17;;;;;;;;;;;;;;;;;1,000000;0,416667;0,416667;0,468678;0,750000;0,505005;0,000000;0,470113;0,488616;0,750000;0,470113;0,450683;0,457714;0,500000;0,500000;0,501824;0,475361;0,375000;0,375000;0,450000;0,500000;0,500000;0,750000;0,513854;1,000000;0,625000;0,416667;0,416667;0,957118;0,525000;0,375000;0,750000;0,416667;0,750000;0,555556;0,750000;0,500000;0,500000;1,000000;0,000000;0,000000;1,000000;0,500000;0,525000;0,750000;0,750000;0,416667;0,500000;0,500000;0,500000;0,562500;0,416667;0,416667;0,000000;0,000000;0,500000;0,500000;0,750000;0,750000;0,500000;0,500000;0,500000;0,416667;0,416667;0,500000;0,500000;0,000000;0,000000;0,000000;0,375000;0,375000;0,375000;0,375000;0,000000;0,000000;0,000000;0,000000;0,000000;0,000000;0,000000;0,500000;0,500000;0,375000;0,375000;0,000000;0,000000;0,000000;0,500000;0,375000;0,375000;0,000000;0,000000;0,750000;0,500000;0,444444;0,416667;0,416667;0,506432;0,750000;0,750000;0,750000;1,000000;0,416667;0,416667;0,750000;0,750000;0,500000;0,500000;0,500000;0,750000;0,500000;0,375000;0,375000;0,833333;0,833333;
18;;;;;;;;;;;;;;;;;;1,000000;0,666667;0,644231;0,666667;0,356857;0,000000;0,331224;0,340468;0,666667;0,331224;0,325683;0,324381;0,416667;0,375000;0,368491;0,342028;0,291667;0,291667;0,338889;0,416667;0,375000;0,666667;0,365706;0,411111;0,500000;0,333333;0,333333;0,356188;0,400000;0,291667;0,666667;0,333333;0,666667;0,444444;0,666667;0,416667;0,416667;0,400000;0,000000;0,000000;0,366667;0,388889;0,702655;0,666667;0,666667;0,333333;0,416667;0,416667;0,416667;0,437500;0,333333;0,333333;0,000000;0,000000;0,416667;0,416667;0,666667;0,666667;0,416667;0,416667;0,416667;0,333333;0,333333;0,416667;0,416667;0,000000;0,000000;0,000000;0,291667;0,291667;0,291667;0,291667;0,000000;0,000000;0,000000;0,000000;0,000000;0,000000;0,000000;0,416667;0,416667;0,291667;0,291667;0,000000;0,000000;0,000000;0,366667;0,291667;0,291667;0,000000;0,000000;0,666667;0,416667;0,333333;0,333333;0,333333;0,395321;0,666667;0,666667;0,666667;0,416667;0,333333;0,333333;0,666667;0,666667;0,416667;0,416667;0,416667;0,666667;0,416667;0,291667;0,291667;0,333333;0,333333;
19;;;;;;;;;;;;;;;;;;;1,000000;0,644231;0,666667;0,356857;0,000000;0,331224;0,340468;0,666667;0,331224;0,325683;0,324381;0,416667;0,375000;0,368491;0,342028;0,291667;0,291667;0,338889;0,416667;0,375000;0,666667;0,365706;0,411111;0,500000;0,333333;0,333333;0,356188;0,400000;0,291667;0,666667;0,333333;0,666667;0,444444;0,666667;0,416667;0,416667;0,400000;0,000000;0,000000;0,366667;0,388889;0,702655;0,666667;0,666667;0,333333;0,416667;0,416667;0,416667;0,437500;0,333333;0,333333;0,000000;0,000000;0,416667;0,416667;0,666667;0,666667;0,416667;0,416667;0,416667;0,333333;0,333333;0,416667;0,416667;0,000000;0,000000;0,000000;0,291667;0,291667;0,291667;0,291667;0,000000;0,000000;0,000000;0,000000;0,000000;0,000000;0,000000;0,416667;0,416667;0,291667;0,291667;0,000000;0,000000;0,000000;0,366667;0,291667;0,291667;0,000000;0,000000;0,666667;0,416667;0,333333;0,333333;0,333333;0,395321;0,666667;0,666667;0,666667;0,416667;0,333333;0,333333;0,666667;0,666667;0,416667;0,416667;0,416667;0,666667;0,416667;0,291667;0,291667;0,333333;0,333333;
20;;;;;;;;;;;;;;;;;;;;1,000000;0,802012;0,433838;0,000000;0,381647;0,404336;0,802012;0,381647;0,364714;0,366880;0,468678;0,443621;0,440396;0,396291;0,302012;0,302012;0,378017;0,468678;0,443621;0,802012;0,449765;0,518596;0,643621;0,357567;0,357567;0,432633;0,483621;0,302012;0,802012;0,357567;0,802012;0,536351;0,802012;0,468678;0,468678;0,492912;0,000000;0,000000;0,437357;0,453017;0,483621;0,802012;0,802012;0,357567;0,468678;0,468678;0,468678;0,543621;0,357567;0,357567;0,000000;0,000000;0,468678;0,468678;0,802012;0,802012;0,468678;0,468678;0,468678;0,357567;0,357567;0,468678;0,468678;0,000000;0,000000;0,000000;0,302012;0,302012;0,302012;0,302012;0,000000;0,000000;0,000000;0,000000;0,000000;0,000000;0,000000;0,468678;0,468678;0,302012;0,302012;0,000000;0,000000;0,000000;0,437357;0,302012;0,302012;0,000000;0,000000;0,802012;0,468678;0,369684;0,357567;0,357567;0,462665;0,802012;0,802012;0,802012;0,468678;0,357567;0,357567;0,802012;0,802012;0,468678;0,468678;0,468678;0,802012;0,881843;0,302012;0,302012;0,357567;0,357567;
21;;;;;;;;;;;;;;;;;;;;;1,000000;0,949450;0,000000;0,886780;0,933060;1,000000;0,886780;0,825683;0,857714;0,750000;0,875000;0,901824;0,875361;0,625000;0,625000;0,783333;0,750000;0,875000;1,000000;0,958298;0,966667;1,000000;0,666667;0,666667;0,948781;0,900000;0,625000;1,000000;0,666667;1,000000;0,888889;1,000000;0,750000;0,750000;0,933333;0,000000;0,000000;0,900000;0,833333;0,900000;1,000000;1,000000;0,666667;0,750000;0,750000;0,750000;0,937500;0,666667;0,666667;0,000000;0,000000;0,750000;0,750000;1,000000;1,000000;0,750000;0,750000;0,750000;0,666667;0,666667;0,750000;0,750000;0,000000;0,000000;0,000000;0,625000;0,625000;0,625000;0,625000;0,000000;0,000000;0,000000;0,000000;0,000000;0,000000;0,000000;0,750000;0,750000;0,625000;0,625000;0,000000;0,000000;0,000000;0,900000;0,625000;0,625000;0,000000;0,000000;1,000000;0,750000;0,777778;0,666667;0,666667;0,839765;1,000000;1,000000;1,000000;0,750000;0,666667;0,666667;1,000000;1,000000;0,750000;0,750000;0,750000;1,000000;0,750000;0,625000;0,625000;0,666667;0,666667;
22;;;;;;;;;;;;;;;;;;;;;;1,000000;0,000000;0,406975;0,471296;0,949450;0,406975;0,368819;0,374063;0,505005;0,512286;0,521096;0,432886;0,282783;0,282783;0,389010;0,505005;0,512286;0,949450;0,584868;0,701942;0,875923;0,356857;0,356857;0,542037;0,585013;0,282783;0,949450;0,356857;0,949450;0,642343;0,949450;0,505005;0,505005;0,626128;0,000000;0,000000;0,515016;0,509010;0,585013;0,949450;0,949450;0,356857;0,505005;0,505005;0,505005;0,694104;0,356857;0,356857;0,000000;0,000000;0,505005;0,505005;0,949450;0,949450;0,505005;0,505005;0,505005;0,660081;0,660081;0,505005;0,505005;0,000000;0,000000;0,000000;0,282783;0,282783;0,282783;0,282783;0,000000;0,000000;0,000000;0,000000;0,000000;0,000000;0,000000;0,505005;0,505005;0,282783;0,282783;0,000000;0,000000;0,000000;0,515016;0,282783;0,282783;0,000000;0,000000;0,949450;0,974450;0,375677;0,660081;0,660081;0,524446;0,949450;0,949450;0,949450;0,505005;0,356857;0,356857;0,949450;0,949450;0,505005;0,505005;0,505005;0,949450;0,505005;0,282783;0,282783;0,356857;0,356857;
23;;;;;;;;;;;;;;;;;;;;;;;1,000000;0,000000;0,000000;0,000000;0,000000;0,000000;0,000000;0,000000;0,000000;0,000000;0,000000;0,000000;0,000000;0,000000;0,000000;0,000000;0,000000;0,000000;0,000000;0,000000;0,000000;0,000000;0,000000;0,000000;0,000000;0,000000;0,000000;0,000000;0,000000;0,000000;0,000000;0,000000;0,000000;0,000000;0,000000;0,000000;0,000000;0,000000;0,000000;0,000000;0,000000;0,000000;0,000000;0,000000;0,000000;0,000000;0,000000;0,000000;0,000000;0,000000;0,000000;0,000000;0,000000;0,000000;0,000000;0,000000;0,000000;0,000000;0,000000;0,000000;0,000000;0,000000;0,000000;0,000000;0,000000;0,000000;0,000000;0,666667;0,666667;0,666667;0,750000;0,750000;0,750000;0,750000;0,000000;0,000000;0,000000;0,000000;0,000000;0,000000;0,000000;0,000000;0,000000;0,000000;0,000000;0,000000;0,000000;0,000000;0,000000;0,000000;0,000000;0,000000;0,000000;0,000000;0,000000;0,000000;0,000000;0,000000;0,000000;0,000000;0,000000;0,000000;0,000000;0,000000;0,000000;0,000000;0,000000;0,000000;0,000000;
24;;;;;;;;;;;;;;;;;;;;;;;;1,000000;0,677408;0,886780;0,320678;0,309463;0,302840;0,470113;0,432754;0,425368;0,351859;0,261780;0,261780;0,341622;0,470113;0,432754;0,886780;0,437604;0,560339;0,745254;0,331224;0,331224;0,404658;0,746654;0,261780;0,886780;0,331224;0,886780;0,897530;0,886780;0,470113;0,470113;0,512894;0,000000;0,000000;0,420301;0,448765;0,495254;0,886780;0,886780;0,331224;0,470113;0,470113;0,470113;0,589004;0,331224;0,331224;0,000000;0,000000;0,470113;0,470113;0,886780;0,886780;0,470113;0,470113;0,470113;0,331224;0,331224;0,470113;0,470113;0,000000;0,000000;0,000000;0,261780;0,261780;0,261780;0,261780;0,000000;0,000000;0,000000;0,000000;0,000000;0,000000;0,000000;0,470113;0,470113;0,741555;0,741555;0,000000;0,000000;0,000000;0,420301;0,261780;0,261780;0,000000;0,000000;0,886780;0,470113;0,659435;0,331224;0,331224;0,462548;0,886780;0,886780;0,886780;0,470113;0,331224;0,331224;0,886780;0,886780;0,470113;0,470113;0,470113;0,886780;0,470113;0,741555;0,741555;0,331224;0,331224;
25;;;;;;;;;;;;;;;;;;;;;;;;;1,000000;0,933060;0,350241;0,328590;0,324894;0,488616;0,472057;0,471927;0,383717;0,266394;0,266394;0,359508;0,488616;0,472057;0,933060;0,511114;0,645208;0,835693;0,340468;0,340468;0,468283;0,544784;0,266394;0,933060;0,340468;0,933060;0,612842;0,933060;0,488616;0,488616;0,576958;0,000000;0,000000;0,465847;0,479508;0,544784;0,933060;0,933060;0,340468;0,488616;0,488616;0,488616;0,852942;0,340468;0,340468;0,000000;0,000000;0,488616;0,488616;0,933060;0,933060;0,488616;0,488616;0,488616;0,340468;0,340468;0,488616;0,488616;0,000000;0,000000;0,000000;0,266394;0,266394;0,266394;0,266394;0,000000;0,000000;0,000000;0,000000;0,000000;0,000000;0,000000;0,488616;0,488616;0,741645;0,741645;0,000000;0,000000;0,000000;0,465847;0,266394;0,266394;0,000000;0,000000;0,933060;0,488616;0,659531;0,340468;0,340468;0,494945;0,933060;0,933060;0,933060;0,488616;0,340468;0,340468;0,933060;0,933060;0,488616;0,488616;0,488616;0,933060;0,488616;0,741645;0,741645;0,340468;0,340468;
26;;;;;;;;;;;;;;;;;;;;;;;;;;1,000000;0,886780;0,825683;0,857714;0,750000;0,875000;0,901824;0,875361;0,625000;0,625000;0,783333;0,750000;0,875000;1,000000;0,958298;0,966667;1,000000;0,666667;0,666667;0,948781;0,900000;0,625000;1,000000;0,666667;1,000000;0,888889;1,000000;0,750000;0,750000;0,933333;0,000000;0,000000;0,900000;0,833333;0,900000;1,000000;1,000000;0,666667;0,750000;0,750000;0,750000;0,937500;0,666667;0,666667;0,000000;0,000000;0,750000;0,750000;1,000000;1,000000;0,750000;0,750000;0,750000;0,666667;0,666667;0,750000;0,750000;0,000000;0,000000;0,000000;0,625000;0,625000;0,625000;0,625000;0,000000;0,000000;0,000000;0,000000;0,000000;0,000000;0,000000;0,750000;0,750000;0,625000;0,625000;0,000000;0,000000;0,000000;0,900000;0,625000;0,625000;0,000000;0,000000;1,000000;0,750000;0,777778;0,666667;0,666667;0,839765;1,000000;1,000000;1,000000;0,750000;0,666667;0,666667;1,000000;1,000000;0,750000;0,750000;0,750000;1,000000;0,750000;0,625000;0,625000;0,666667;0,666667;
27;;;;;;;;;;;;;;;;;;;;;;;;;;;1,000000;0,672038;0,700881;0,470113;0,432754;0,425368;0,351859;0,261780;0,261780;0,341622;0,470113;0,432754;0,886780;0,437604;0,560339;0,745254;0,331224;0,331224;0,404658;0,495254;0,752607;0,886780;0,331224;0,886780;0,567813;0,886780;0,470113;0,470113;0,512894;0,000000;0,000000;0,420301;0,448765;0,495254;0,886780;0,886780;0,331224;0,470113;0,470113;0,470113;0,589004;0,331224;0,331224;0,000000;0,000000;0,470113;0,470113;0,886780;0,886780;0,470113;0,470113;0,470113;0,331224;0,331224;0,470113;0,470113;0,000000;0,000000;0,000000;0,261780;0,261780;0,261780;0,261780;0,000000;0,000000;0,000000;0,000000;0,000000;0,000000;0,000000;0,470113;0,470113;0,261780;0,261780;0,000000;0,000000;0,000000;0,420301;0,729533;0,729533;0,000000;0,000000;0,886780;0,470113;0,329718;0,331224;0,331224;0,462548;0,886780;0,886780;0,886780;0,470113;0,331224;0,331224;0,886780;0,886780;0,470113;0,470113;0,470113;0,886780;0,470113;0,261780;0,261780;0,331224;0,331224;
28;;;;;;;;;;;;;;;;;;;;;;;;;;;;1,000000;0,676578;0,450683;0,401367;0,391185;0,334478;0,263183;0,263183;0,331093;0,901367;0,401367;0,825683;0,390539;0,489208;0,651367;0,325683;0,325683;0,367176;0,451367;0,789550;0,825683;0,325683;0,825683;0,521093;0,825683;0,450683;0,450683;0,458705;0,000000;0,000000;0,387276;0,421093;0,451367;0,825683;0,825683;0,325683;0,450683;0,450683;0,450683;0,526367;0,325683;0,325683;0,000000;0,000000;0,450683;0,450683;0,825683;0,825683;0,450683;0,450683;0,450683;0,325683;0,325683;0,450683;0,450683;0,000000;0,000000;0,000000;0,263183;0,263183;0,263183;0,263183;0,000000;0,000000;0,000000;0,000000;0,000000;0,000000;0,000000;0,450683;0,450683;0,263183;0,263183;0,000000;0,000000;0,000000;0,387276;0,789550;0,789550;0,000000;0,000000;0,825683;0,450683;0,321093;0,325683;0,325683;0,432670;0,825683;0,825683;0,825683;0,450683;0,325683;0,325683;0,825683;0,825683;0,450683;0,450683;0,450683;0,825683;0,450683;0,263183;0,263183;0,325683;0,325683;
29;;;;;;;;;;;;;;;;;;;;;;;;;;;;;1,000000;0,457714;0,409387;0,398845;0,332687;0,257714;0,257714;0,329523;0,915428;0,409387;0,857714;0,400609;0,515872;0,695102;0,324381;0,324381;0,372055;0,466530;0,761004;0,857714;0,324381;0,857714;0,540635;0,857714;0,457714;0,457714;0,477618;0,000000;0,000000;0,394285;0,429523;0,466530;0,857714;0,857714;0,324381;0,457714;0,457714;0,457714;0,552244;0,324381;0,324381;0,000000;0,000000;0,457714;0,457714;0,857714;0,857714;0,457714;0,457714;0,457714;0,324381;0,324381;0,457714;0,457714;0,000000;0,000000;0,000000;0,257714;0,257714;0,257714;0,257714;0,000000;0,000000;0,000000;0,000000;0,000000;0,000000;0,000000;0,457714;0,457714;0,257714;0,257714;0,000000;0,000000;0,000000;0,394285;0,729352;0,729352;0,000000;0,000000;0,857714;0,457714;0,318412;0,324381;0,324381;0,442387;0,857714;0,857714;0,857714;0,457714;0,324381;0,324381;0,857714;0,857714;0,457714;0,457714;0,457714;0,857714;0,457714;0,257714;0,257714;0,324381;0,324381;
30;;;;;;;;;;;;;;;;;;;;;;;;;;;;;;1,000000;0,500000;0,501824;0,475361;0,375000;0,375000;0,450000;0,500000;0,500000;0,750000;0,967835;0,550000;0,625000;0,416667;0,416667;0,504336;0,525000;0,375000;0,750000;0,416667;0,750000;0,555556;0,750000;0,500000;0,500000;0,533333;0,000000;0,000000;0,500000;0,500000;0,525000;0,750000;0,750000;0,416667;0,500000;0,500000;0,500000;0,562500;0,416667;0,416667;0,000000;0,000000;0,500000;0,500000;0,750000;0,750000;0,500000;0,500000;0,500000;0,416667;0,416667;0,500000;0,500000;0,000000;0,000000;0,000000;0,375000;0,375000;0,375000;0,375000;0,000000;0,000000;0,000000;0,000000;0,000000;0,000000;0,000000;1,000000;0,500000;0,375000;0,375000;0,000000;0,000000;0,000000;0,500000;0,375000;0,375000;0,000000;0,000000;0,750000;0,500000;0,444444;0,416667;0,416667;0,506432;0,750000;0,750000;0,750000;0,500000;0,416667;0,416667;0,750000;0,750000;0,500000;0,500000;0,500000;0,750000;0,500000;0,375000;0,375000;0,416667;0,416667;
31;;;;;;;;;;;;;;;;;;;;;;;;;;;;;;;1,000000;0,503908;0,447202;0,312500;0,312500;0,410000;0,500000;0,500000;0,875000;0,534005;0,612500;0,750000;0,375000;0,375000;0,682291;0,550000;0,312500;0,875000;0,375000;0,875000;0,600000;0,875000;0,500000;0,500000;0,571429;0,000000;0,000000;0,500000;0,500000;0,550000;0,875000;0,875000;0,375000;0,500000;0,500000;0,500000;0,625000;0,670109;0,670109;0,000000;0,000000;0,500000;0,500000;0,875000;0,875000;0,500000;0,500000;0,500000;0,375000;0,375000;0,500000;0,500000;0,000000;0,000000;0,000000;0,312500;0,312500;0,312500;0,312500;0,000000;0,000000;0,000000;0,000000;0,000000;0,000000;0,000000;0,500000;0,500000;0,312500;0,312500;0,000000;0,000000;0,000000;0,500000;0,312500;0,312500;0,000000;0,000000;0,875000;0,500000;0,400000;0,375000;0,375000;0,511577;0,875000;0,875000;0,875000;0,500000;0,375000;0,375000;0,875000;0,875000;0,500000;0,500000;0,500000;0,875000;0,500000;0,312500;0,312500;0,375000;0,375000;
32;;;;;;;;;;;;;;;;;;;;;;;;;;;;;;;;1,000000;0,549416;0,576914;0,576914;0,628191;0,501824;0,503908;0,901824;0,547642;0,638400;0,789623;0,368491;0,368491;0,519088;0,561051;0,301824;0,901824;0,368491;0,901824;0,614151;0,901824;0,501824;0,501824;0,587893;0,000000;0,000000;0,504560;0,503040;0,561051;0,901824;0,901824;0,710248;0,501824;0,501824;0,501824;0,646766;0,368491;0,368491;0,000000;0,000000;0,501824;0,501824;0,901824;0,901824;0,501824;0,501824;0,501824;0,368491;0,368491;0,501824;0,501824;0,000000;0,000000;0,000000;0,301824;0,301824;0,301824;0,301824;0,000000;0,000000;0,000000;0,000000;0,000000;0,000000;0,000000;0,501824;0,501824;0,301824;0,301824;0,000000;0,000000;0,000000;0,504560;0,301824;0,301824;0,000000;0,000000;0,901824;0,501824;0,391929;0,368491;0,368491;0,515903;0,901824;0,901824;0,901824;0,501824;0,368491;0,368491;0,901824;0,901824;0,501824;0,501824;0,501824;0,901824;0,501824;0,301824;0,301824;0,368491;0,368491;
33;;;;;;;;;;;;;;;;;;;;;;;;;;;;;;;;;1,000000;0,709717;0,709717;0,624776;0,475361;0,447202;0,875361;0,459432;0,564891;0,732916;0,342028;0,342028;0,430878;0,504345;0,275361;0,875361;0,342028;0,875361;0,570046;0,875361;0,475361;0,475361;0,521735;0,000000;0,000000;0,438402;0,458935;0,504345;0,875361;0,875361;0,671728;0,475361;0,475361;0,475361;0,590059;0,342028;0,342028;0,000000;0,000000;0,475361;0,475361;0,875361;0,875361;0,475361;0,475361;0,475361;0,342028;0,342028;0,475361;0,475361;0,000000;0,000000;0,000000;0,275361;0,275361;0,275361;0,275361;0,000000;0,000000;0,000000;0,000000;0,000000;0,000000;0,000000;0,475361;0,475361;0,275361;0,275361;0,000000;0,000000;0,000000;0,438402;0,275361;0,275361;0,000000;0,000000;0,875361;0,475361;0,347824;0,342028;0,342028;0,471798;0,875361;0,875361;0,875361;0,475361;0,342028;0,342028;0,875361;0,875361;0,891388;0,475361;0,475361;0,875361;0,475361;0,275361;0,275361;0,342028;0,342028;
34;;;;;;;;;;;;;;;;;;;;;;;;;;;;;;;;;;1,000000;0,750000;0,720834;0,375000;0,312500;0,625000;0,291632;0,341667;0,437500;0,291667;0,291667;0,282114;0,337500;0,250000;0,625000;0,291667;0,625000;0,388889;0,625000;0,375000;0,375000;0,333333;0,000000;0,000000;0,300000;0,333333;0,337500;0,625000;0,625000;0,583333;0,375000;0,375000;0,375000;0,375000;0,291667;0,291667;0,000000;0,000000;0,375000;0,375000;0,625000;0,625000;0,375000;0,375000;0,375000;0,291667;0,291667;0,375000;0,375000;0,000000;0,000000;0,000000;0,250000;0,250000;0,250000;0,250000;0,000000;0,000000;0,000000;0,000000;0,000000;0,000000;0,000000;0,375000;0,375000;0,250000;0,250000;0,000000;0,000000;0,000000;0,300000;0,250000;0,250000;0,000000;0,000000;0,625000;0,375000;0,277778;0,291667;0,291667;0,339765;0,625000;0,625000;0,625000;0,375000;0,291667;0,291667;0,625000;0,625000;0,750000;0,375000;0,375000;0,625000;0,375000;0,250000;0,250000;0,291667;0,291667;
35;;;;;;;;;;;;;;;;;;;;;;;;;;;;;;;;;;;1,000000;0,720834;0,375000;0,312500;0,625000;0,291632;0,341667;0,437500;0,291667;0,291667;0,282114;0,337500;0,250000;0,625000;0,291667;0,625000;0,388889;0,625000;0,375000;0,375000;0,333333;0,000000;0,000000;0,300000;0,333333;0,337500;0,625000;0,625000;0,583333;0,375000;0,375000;0,375000;0,375000;0,291667;0,291667;0,000000;0,000000;0,375000;0,375000;0,625000;0,625000;0,375000;0,375000;0,375000;0,291667;0,291667;0,375000;0,375000;0,000000;0,000000;0,000000;0,250000;0,250000;0,250000;0,250000;0,000000;0,000000;0,000000;0,000000;0,000000;0,000000;0,000000;0,375000;0,375000;0,250000;0,250000;0,000000;0,000000;0,000000;0,300000;0,250000;0,250000;0,000000;0,000000;0,625000;0,375000;0,277778;0,291667;0,291667;0,339765;0,625000;0,625000;0,625000;0,375000;0,291667;0,291667;0,625000;0,625000;0,750000;0,375000;0,375000;0,625000;0,375000;0,250000;0,250000;0,291667;0,291667;
36;;;;;;;;;;;;;;;;;;;;;;;;;;;;;;;;;;;;1,000000;0,450000;0,410000;0,783333;0,404937;0,478571;0,610000;0,338889;0,338889;0,387805;0,450000;0,283333;0,783333;0,338889;0,783333;0,508333;0,783333;0,450000;0,450000;0,455556;0,000000;0,000000;0,400000;0,425000;0,450000;0,783333;0,783333;0,611111;0,450000;0,450000;0,450000;0,510000;0,338889;0,338889;0,000000;0,000000;0,450000;0,450000;0,783333;0,783333;0,450000;0,450000;0,450000;0,338889;0,338889;0,450000;0,450000;0,000000;0,000000;0,000000;0,283333;0,283333;0,283333;0,283333;0,000000;0,000000;0,000000;0,000000;0,000000;0,000000;0,000000;0,450000;0,450000;0,283333;0,283333;0,000000;0,000000;0,000000;0,400000;0,283333;0,283333;0,000000;0,000000;0,783333;0,450000;0,341667;0,338889;0,338889;0,434648;0,783333;0,783333;0,783333;0,450000;0,338889;0,338889;0,783333;0,783333;0,450000;0,450000;0,450000;0,783333;0,450000;0,283333;0,283333;0,338889;0,338889;
37;;;;;;;;;;;;;;;;;;;;;;;;;;;;;;;;;;;;;1,000000;0,500000;0,750000;0,513854;0,550000;0,625000;0,416667;0,416667;0,504336;0,525000;0,750000;0,750000;0,416667;0,750000;0,555556;0,750000;0,500000;0,500000;0,533333;0,000000;0,000000;0,500000;0,500000;0,525000;0,750000;0,750000;0,416667;0,500000;0,500000;0,500000;0,562500;0,416667;0,416667;0,000000;0,000000;0,500000;0,500000;0,750000;0,750000;0,500000;0,500000;0,500000;0,416667;0,416667;0,500000;0,500000;0,000000;0,000000;0,000000;0,375000;0,375000;0,375000;0,375000;0,000000;0,000000;0,000000;0,000000;0,000000;0,000000;0,000000;0,500000;0,500000;0,375000;0,375000;0,000000;0,000000;0,000000;0,500000;0,750000;0,750000;0,000000;0,000000;0,750000;0,500000;0,444444;0,416667;0,416667;0,506432;0,750000;0,750000;0,750000;0,500000;0,416667;0,416667;0,750000;0,750000;0,500000;0,500000;0,500000;0,750000;0,500000;0,375000;0,375000;0,416667;0,416667;
38;;;;;;;;;;;;;;;;;;;;;;;;;;;;;;;;;;;;;;1,000000;0,875000;0,534005;0,612500;0,750000;0,375000;0,375000;0,510643;0,550000;0,312500;0,875000;0,375000;0,875000;0,600000;0,875000;0,500000;0,500000;0,571429;0,000000;0,000000;0,500000;0,500000;0,550000;0,875000;0,875000;0,375000;0,500000;0,500000;0,500000;0,625000;0,375000;0,375000;0,000000;0,000000;0,500000;0,500000;0,875000;0,875000;0,500000;0,500000;0,500000;0,375000;0,375000;0,500000;0,500000;0,000000;0,000000;0,000000;0,312500;0,312500;0,312500;0,312500;0,000000;0,000000;0,000000;0,000000;0,000000;0,000000;0,000000;0,500000;1,000000;0,312500;0,312500;0,000000;0,000000;0,000000;0,500000;0,312500;0,312500;0,000000;0,000000;0,875000;0,500000;0,400000;0,375000;0,375000;0,511577;0,875000;0,875000;0,875000;0,500000;0,375000;0,375000;0,875000;0,875000;0,500000;0,500000;0,500000;0,875000;0,500000;0,312500;0,312500;0,375000;0,375000;
39;;;;;;;;;;;;;;;;;;;;;;;;;;;;;;;;;;;;;;;1,000000;0,958298;0,966667;1,000000;0,666667;0,666667;0,948781;0,900000;0,625000;1,000000;0,666667;1,000000;0,888889;1,000000;0,750000;0,750000;0,933333;0,000000;0,000000;0,900000;0,833333;0,900000;1,000000;1,000000;0,666667;0,750000;0,750000;0,750000;0,937500;0,666667;0,666667;0,000000;0,000000;0,750000;0,750000;1,000000;1,000000;0,750000;0,750000;0,750000;0,666667;0,666667;0,750000;0,750000;0,000000;0,000000;0,000000;0,625000;0,625000;0,625000;0,625000;0,000000;0,000000;0,000000;0,000000;0,000000;0,000000;0,000000;0,750000;0,750000;0,625000;0,625000;0,000000;0,000000;0,000000;0,900000;0,625000;0,625000;0,000000;0,000000;1,000000;0,750000;0,777778;0,666667;0,666667;0,839765;1,000000;1,000000;1,000000;0,750000;0,666667;0,666667;1,000000;1,000000;0,750000;0,750000;0,750000;1,000000;0,750000;0,625000;0,625000;0,666667;0,666667;
40;;;;;;;;;;;;;;;;;;;;;;;;;;;;;;;;;;;;;;;;1,000000;0,732572;0,897642;0,680609;0,680609;0,581855;0,606733;0,291632;0,958298;0,365706;0,958298;0,658271;0,958298;0,513854;0,513854;0,652673;0,000000;0,000000;0,541562;0,958429;0,606733;0,958298;0,958298;0,365706;0,513854;0,513854;0,513854;0,715824;0,669526;0,669526;0,000000;0,000000;0,513854;0,513854;0,958298;0,958298;0,513854;0,513854;0,513854;0,365706;0,365706;0,513854;0,513854;0,000000;0,000000;0,000000;0,291632;0,291632;0,291632;0,291632;0,000000;0,000000;0,000000;0,000000;0,000000;0,000000;0,000000;0,967835;0,513854;0,291632;0,291632;0,000000;0,000000;0,000000;0,541562;0,291632;0,291632;0,000000;0,000000;0,958298;0,513854;0,391604;0,365706;0,365706;0,540374;0,958298;0,958298;0,958298;0,513854;0,365706;0,365706;0,958298;0,958298;0,513854;0,513854;0,513854;0,958298;0,513854;0,291632;0,291632;0,365706;0,365706;
41;;;;;;;;;;;;;;;;;;;;;;;;;;;;;;;;;;;;;;;;;1,000000;0,925000;0,411111;0,411111;0,851562;0,675000;0,341667;0,966667;0,411111;0,966667;0,704762;0,966667;0,550000;0,550000;1,000000;0,000000;0,000000;1,000000;0,585714;0,675000;0,966667;0,966667;0,411111;0,550000;0,550000;0,550000;0,768750;0,411111;0,411111;0,000000;0,000000;0,550000;0,550000;0,966667;0,966667;0,550000;0,550000;0,550000;0,411111;0,411111;0,550000;0,550000;0,000000;0,000000;0,000000;0,341667;0,341667;0,341667;0,341667;0,523810;0,523810;0,523810;0,375000;0,375000;0,375000;0,375000;0,550000;0,550000;0,341667;0,341667;0,000000;0,000000;0,000000;0,633333;0,341667;0,341667;0,000000;0,000000;0,966667;0,550000;0,466667;0,411111;0,411111;0,599497;0,966667;0,966667;0,966667;1,000000;0,411111;0,411111;0,966667;0,966667;0,550000;0,550000;0,550000;0,966667;0,550000;0,341667;0,341667;0,722222;0,722222;
42;;;;;;;;;;;;;;;;;;;;;;;;;;;;;;;;;;;;;;;;;;1,000000;0,500000;0,500000;0,874279;0,800000;0,437500;1,000000;0,500000;1,000000;0,800000;1,000000;0,625000;0,625000;0,857143;0,000000;0,000000;0,785714;0,700000;0,800000;1,000000;1,000000;0,500000;0,625000;0,625000;0,625000;0,875000;0,500000;0,500000;0,000000;0,000000;0,625000;0,625000;1,000000;1,000000;0,625000;0,625000;0,625000;0,500000;0,500000;0,625000;0,625000;0,000000;0,000000;0,000000;0,437500;0,437500;0,437500;0,437500;0,000000;0,000000;0,000000;0,000000;0,000000;0,000000;0,000000;0,625000;0,625000;0,437500;0,437500;0,000000;0,000000;0,000000;0,785714;0,437500;0,437500;0,000000;0,000000;1,000000;0,625000;0,600000;0,500000;0,500000;0,711577;1,000000;1,000000;1,000000;0,625000;0,500000;0,500000;1,000000;1,000000;0,625000;0,625000;0,625000;1,000000;0,625000;0,437500;0,437500;0,500000;0,500000;
43;;;;;;;;;;;;;;;;;;;;;;;;;;;;;;;;;;;;;;;;;;;1,000000;0,666667;0,659236;0,400000;0,291667;0,666667;0,333333;0,666667;0,444444;0,666667;0,416667;0,416667;0,400000;0,000000;0,000000;0,366667;0,777778;0,400000;0,666667;0,666667;0,333333;0,416667;0,416667;0,416667;0,437500;0,333333;0,333333;0,000000;0,000000;0,416667;0,416667;0,666667;0,666667;0,416667;0,416667;0,416667;0,333333;0,333333;0,416667;0,416667;0,000000;0,000000;0,000000;0,291667;0,291667;0,291667;0,291667;0,000000;0,000000;0,000000;0,000000;0,000000;0,000000;0,000000;0,416667;0,416667;0,291667;0,291667;0,000000;0,000000;0,000000;0,366667;0,291667;0,291667;0,000000;0,000000;0,666667;0,416667;0,333333;0,333333;0,333333;0,395321;0,666667;0,666667;0,666667;0,416667;0,333333;0,333333;0,666667;0,666667;0,416667;0,416667;0,416667;0,666667;0,416667;0,291667;0,291667;0,333333;0,333333;
44;;;;;;;;;;;;;;;;;;;;;;;;;;;;;;;;;;;;;;;;;;;;1,000000;0,659236;0,400000;0,291667;0,666667;0,333333;0,666667;0,444444;0,666667;0,416667;0,416667;0,400000;0,000000;0,000000;0,366667;0,777778;0,400000;0,666667;0,666667;0,333333;0,416667;0,416667;0,416667;0,437500;0,333333;0,333333;0,000000;0,000000;0,416667;0,416667;0,666667;0,666667;0,416667;0,416667;0,416667;0,333333;0,333333;0,416667;0,416667;0,000000;0,000000;0,000000;0,291667;0,291667;0,291667;0,291667;0,000000;0,000000;0,000000;0,000000;0,000000;0,000000;0,000000;0,416667;0,416667;0,291667;0,291667;0,000000;0,000000;0,000000;0,366667;0,291667;0,291667;0,000000;0,000000;0,666667;0,416667;0,333333;0,333333;0,333333;0,395321;0,666667;0,666667;0,666667;0,416667;0,333333;0,333333;0,666667;0,666667;0,416667;0,416667;0,416667;0,666667;0,416667;0,291667;0,291667;0,333333;0,333333;
45;;;;;;;;;;;;;;;;;;;;;;;;;;;;;;;;;;;;;;;;;;;;;1,000000;0,583370;0,282114;0,948781;0,356188;0,948781;0,641138;0,948781;0,504336;0,504336;0,871354;0,000000;0,000000;0,871354;0,507805;0,583370;0,948781;0,948781;0,356188;0,504336;0,504336;0,504336;0,692461;0,668952;0,668952;0,000000;0,000000;0,504336;0,504336;0,948781;0,948781;0,504336;0,504336;0,504336;0,356188;0,356188;0,504336;0,504336;0,000000;0,000000;0,000000;0,282114;0,282114;0,282114;0,282114;0,000000;0,000000;0,000000;0,000000;0,000000;0,000000;0,000000;0,504336;0,504336;0,282114;0,282114;0,000000;0,000000;0,000000;0,513008;0,282114;0,282114;0,000000;0,000000;0,948781;0,504336;0,374472;0,356188;0,356188;0,523241;0,948781;0,948781;0,948781;0,957118;0,356188;0,356188;0,948781;0,948781;0,504336;0,504336;0,504336;0,948781;0,504336;0,282114;0,282114;0,660822;0,660822;
46;;;;;;;;;;;;;;;;;;;;;;;;;;;;;;;;;;;;;;;;;;;;;;1,000000;0,337500;0,900000;0,400000;0,900000;0,923933;0,900000;0,525000;0,525000;0,628571;0,000000;0,000000;0,557143;0,540000;0,600000;0,900000;0,900000;0,400000;0,525000;0,525000;0,525000;0,675000;0,400000;0,400000;0,000000;0,000000;0,525000;0,525000;0,900000;0,900000;0,525000;0,525000;0,525000;0,400000;0,400000;0,525000;0,525000;0,000000;0,000000;0,000000;0,337500;0,337500;0,337500;0,337500;0,000000;0,000000;0,000000;0,000000;0,000000;0,000000;0,000000;0,525000;0,525000;0,577458;0,577458;0,000000;0,000000;0,000000;0,557143;0,337500;0,337500;0,000000;0,000000;0,900000;0,525000;0,723933;0,400000;0,400000;0,551577;0,900000;0,900000;0,900000;0,525000;0,400000;0,400000;0,900000;0,900000;0,525000;0,525000;0,525000;0,900000;0,525000;0,577458;0,577458;0,400000;0,400000;
47;;;;;;;;;;;;;;;;;;;;;;;;;;;;;;;;;;;;;;;;;;;;;;;1,000000;0,625000;0,291667;0,625000;0,388889;0,625000;0,375000;0,375000;0,333333;0,000000;0,000000;0,300000;0,333333;0,337500;0,625000;0,625000;0,291667;0,375000;0,375000;0,375000;0,375000;0,291667;0,291667;0,000000;0,000000;0,375000;0,375000;0,625000;0,625000;0,375000;0,375000;0,375000;0,291667;0,291667;0,375000;0,375000;0,000000;0,000000;0,000000;0,250000;0,250000;0,250000;0,250000;0,000000;0,000000;0,000000;0,000000;0,000000;0,000000;0,000000;0,375000;0,375000;0,250000;0,250000;0,000000;0,000000;0,000000;0,300000;0,750000;0,750000;0,000000;0,000000;0,625000;0,375000;0,277778;0,291667;0,291667;0,339765;0,625000;0,625000;0,625000;0,375000;0,291667;0,291667;0,625000;0,625000;0,375000;0,375000;0,375000;0,625000;0,375000;0,250000;0,250000;0,291667;0,291667;
48;;;;;;;;;;;;;;;;;;;;;;;;;;;;;;;;;;;;;;;;;;;;;;;;1,000000;0,666667;1,000000;0,888889;1,000000;0,750000;0,750000;0,933333;0,000000;0,000000;0,900000;0,833333;0,900000;1,000000;1,000000;0,666667;0,750000;0,750000;0,750000;0,937500;0,666667;0,666667;0,000000;0,000000;0,750000;0,750000;1,000000;1,000000;0,750000;0,750000;0,750000;0,666667;0,666667;0,750000;0,750000;0,000000;0,000000;0,000000;0,625000;0,625000;0,625000;0,625000;0,000000;0,000000;0,000000;0,000000;0,000000;0,000000;0,000000;0,750000;0,750000;0,625000;0,625000;0,000000;0,000000;0,000000;0,900000;0,625000;0,625000;0,000000;0,000000;1,000000;0,750000;0,777778;0,666667;0,666667;0,839765;1,000000;1,000000;1,000000;0,750000;0,666667;0,666667;1,000000;1,000000;0,750000;0,750000;0,750000;1,000000;0,750000;0,625000;0,625000;0,666667;0,666667;
49;;;;;;;;;;;;;;;;;;;;;;;;;;;;;;;;;;;;;;;;;;;;;;;;;1,000000;0,666667;0,444444;0,666667;0,416667;0,416667;0,400000;0,000000;0,000000;0,366667;0,388889;0,400000;0,666667;0,666667;0,333333;0,416667;0,416667;0,416667;0,437500;0,333333;0,333333;0,000000;0,000000;0,416667;0,416667;0,666667;0,666667;0,416667;0,416667;0,416667;0,333333;0,333333;0,416667;0,416667;0,000000;0,000000;0,000000;0,291667;0,291667;0,291667;0,291667;0,000000;0,000000;0,000000;0,000000;0,000000;0,000000;0,000000;0,416667;0,416667;0,291667;0,291667;0,000000;0,000000;0,000000;0,366667;0,291667;0,291667;0,000000;0,000000;0,666667;0,416667;0,333333;0,333333;0,333333;0,395321;0,666667;0,666667;0,666667;0,416667;0,333333;0,333333;0,666667;0,666667;0,416667;0,416667;0,416667;0,666667;0,416667;0,291667;0,291667;0,333333;0,333333;
50;;;;;;;;;;;;;;;;;;;;;;;;;;;;;;;;;;;;;;;;;;;;;;;;;;1,000000;0,888889;1,000000;0,750000;0,750000;0,933333;0,000000;0,000000;0,900000;0,833333;0,900000;1,000000;1,000000;0,666667;0,750000;0,750000;0,750000;0,937500;0,666667;0,666667;0,000000;0,000000;0,750000;0,750000;1,000000;1,000000;0,750000;0,750000;0,750000;0,666667;0,666667;0,750000;0,750000;0,000000;0,000000;0,000000;0,625000;0,625000;0,625000;0,625000;0,000000;0,000000;0,000000;0,000000;0,000000;0,000000;0,000000;0,750000;0,750000;0,625000;0,625000;0,000000;0,000000;0,000000;0,900000;0,625000;0,625000;0,000000;0,000000;1,000000;0,750000;0,777778;0,666667;0,666667;0,839765;1,000000;1,000000;1,000000;0,750000;0,666667;0,666667;1,000000;1,000000;0,750000;0,750000;0,750000;1,000000;0,750000;0,625000;0,625000;0,666667;0,666667;
51;;;;;;;;;;;;;;;;;;;;;;;;;;;;;;;;;;;;;;;;;;;;;;;;;;;1,000000;0,888889;0,555556;0,555556;0,666667;0,000000;0,000000;0,611111;0,583333;0,640000;0,888889;0,888889;0,444444;0,555556;0,555556;0,555556;0,700000;0,444444;0,444444;0,000000;0,000000;0,555556;0,555556;0,888889;0,888889;0,555556;0,555556;0,555556;0,444444;0,444444;0,555556;0,555556;0,000000;0,000000;0,000000;0,388889;0,388889;0,388889;0,388889;0,000000;0,000000;0,000000;0,000000;0,000000;0,000000;0,000000;0,555556;0,555556;0,666667;0,666667;0,000000;0,000000;0,000000;0,611111;0,388889;0,388889;0,000000;0,000000;0,888889;0,555556;0,833333;0,444444;0,444444;0,592981;0,888889;0,888889;0,888889;0,555556;0,444444;0,444444;0,888889;0,888889;0,555556;0,555556;0,555556;0,888889;0,555556;0,666667;0,666667;0,444444;0,444444;
52;;;;;;;;;;;;;;;;;;;;;;;;;;;;;;;;;;;;;;;;;;;;;;;;;;;;1,000000;0,750000;0,750000;0,933333;0,000000;0,000000;0,900000;0,833333;0,900000;1,000000;1,000000;0,666667;0,750000;0,750000;0,750000;0,937500;0,666667;0,666667;0,000000;0,000000;0,750000;0,750000;1,000000;1,000000;0,750000;0,750000;0,750000;0,666667;0,666667;0,750000;0,750000;0,000000;0,000000;0,000000;0,625000;0,625000;0,625000;0,625000;0,000000;0,000000;0,000000;0,000000;0,000000;0,000000;0,000000;0,750000;0,750000;0,625000;0,625000;0,000000;0,000000;0,000000;0,900000;0,625000;0,625000;0,000000;0,000000;1,000000;0,750000;0,777778;0,666667;0,666667;0,839765;1,000000;1,000000;1,000000;0,750000;0,666667;0,666667;1,000000;1,000000;0,750000;0,750000;0,750000;1,000000;0,750000;0,625000;0,625000;0,666667;0,666667;
53;;;;;;;;;;;;;;;;;;;;;;;;;;;;;;;;;;;;;;;;;;;;;;;;;;;;;1,000000;0,500000;0,533333;0,000000;0,000000;0,500000;0,500000;0,525000;0,750000;0,750000;0,416667;0,500000;0,500000;0,500000;0,562500;0,416667;0,416667;0,000000;0,000000;0,500000;0,500000;0,750000;0,750000;0,500000;0,500000;0,500000;0,416667;0,416667;0,500000;0,500000;0,000000;0,000000;0,000000;0,375000;0,375000;0,375000;0,375000;0,000000;0,000000;0,000000;0,000000;0,000000;0,000000;0,000000;0,500000;0,500000;0,375000;0,375000;0,000000;0,000000;0,000000;0,500000;0,375000;0,375000;0,000000;0,000000;0,750000;0,500000;0,444444;0,416667;0,416667;0,506432;0,750000;0,750000;0,750000;0,500000;0,416667;0,416667;0,750000;0,750000;0,500000;0,500000;0,500000;0,750000;0,500000;0,375000;0,375000;0,416667;0,416667;
54;;;;;;;;;;;;;;;;;;;;;;;;;;;;;;;;;;;;;;;;;;;;;;;;;;;;;;1,000000;0,533333;0,000000;0,000000;0,500000;0,500000;0,525000;0,750000;0,750000;0,416667;0,500000;0,500000;0,500000;0,562500;0,416667;0,416667;0,000000;0,000000;0,500000;0,500000;0,750000;0,750000;0,500000;0,500000;0,500000;0,416667;0,416667;0,500000;0,500000;0,000000;0,000000;0,000000;0,375000;0,375000;0,375000;0,375000;0,000000;0,000000;0,000000;0,000000;0,000000;0,000000;0,000000;0,500000;0,500000;0,375000;0,375000;0,000000;0,000000;0,000000;0,500000;0,375000;0,375000;0,000000;0,000000;0,750000;0,500000;0,444444;0,416667;0,416667;0,506432;0,750000;0,750000;0,750000;0,500000;0,416667;0,416667;0,750000;0,750000;0,500000;0,500000;0,500000;0,750000;0,500000;0,375000;0,375000;0,416667;0,416667;
55;;;;;;;;;;;;;;;;;;;;;;;;;;;;;;;;;;;;;;;;;;;;;;;;;;;;;;;1,000000;0,000000;0,000000;1,000000;0,555556;0,628571;0,933333;0,933333;0,400000;0,533333;0,533333;0,533333;0,714286;0,400000;0,400000;0,000000;0,000000;0,533333;0,533333;0,933333;0,933333;0,533333;0,533333;0,533333;0,400000;0,400000;0,533333;0,533333;0,000000;0,000000;0,000000;0,333333;0,333333;0,333333;0,333333;0,000000;0,000000;0,000000;0,000000;0,000000;0,000000;0,000000;0,533333;0,533333;0,333333;0,333333;0,000000;0,000000;0,000000;0,583333;0,333333;0,333333;0,000000;0,000000;0,933333;0,533333;0,444444;0,400000;0,400000;0,568419;0,933333;0,933333;0,933333;1,000000;0,400000;0,400000;0,933333;0,933333;0,533333;0,533333;0,533333;0,933333;0,533333;0,333333;0,333333;0,733333;0,733333;
56;;;;;;;;;;;;;;;;;;;;;;;;;;;;;;;;;;;;;;;;;;;;;;;;;;;;;;;;1,000000;0,000000;0,000000;0,000000;0,000000;0,000000;0,000000;0,000000;0,000000;0,000000;0,000000;0,000000;0,000000;0,000000;0,000000;0,000000;0,000000;0,000000;0,000000;0,000000;0,000000;0,000000;0,000000;0,000000;0,000000;0,000000;0,000000;0,000000;0,000000;0,000000;0,000000;0,000000;0,000000;0,000000;0,000000;0,000000;0,000000;0,000000;0,000000;0,000000;0,000000;0,000000;0,000000;0,000000;0,000000;0,000000;0,000000;0,000000;0,000000;0,000000;0,000000;0,000000;0,000000;0,000000;0,000000;0,000000;0,000000;0,000000;0,000000;0,000000;0,000000;0,000000;0,000000;0,000000;0,000000;0,000000;0,000000;0,000000;0,000000;0,000000;0,000000;0,000000;0,000000;0,000000;0,000000;0,000000;
57;;;;;;;;;;;;;;;;;;;;;;;;;;;;;;;;;;;;;;;;;;;;;;;;;;;;;;;;;1,000000;0,000000;0,000000;0,000000;0,000000;0,000000;0,000000;0,000000;0,000000;0,000000;0,000000;0,000000;0,000000;0,000000;0,000000;0,000000;0,000000;0,000000;0,000000;0,000000;0,000000;0,000000;0,000000;0,000000;0,000000;0,000000;0,000000;0,000000;0,000000;0,000000;0,000000;0,000000;0,000000;0,000000;0,000000;0,000000;0,000000;0,000000;0,000000;0,000000;0,000000;0,000000;0,000000;0,000000;0,000000;0,000000;0,000000;0,000000;0,000000;0,000000;0,000000;0,000000;0,000000;0,000000;0,000000;0,000000;0,000000;0,000000;0,000000;0,000000;0,000000;0,000000;0,000000;0,000000;0,000000;0,000000;0,000000;0,000000;0,000000;0,000000;0,000000;0,000000;0,000000;0,000000;0,000000;
58;;;;;;;;;;;;;;;;;;;;;;;;;;;;;;;;;;;;;;;;;;;;;;;;;;;;;;;;;;1,000000;0,500000;0,557143;0,900000;0,900000;0,366667;0,500000;0,500000;0,500000;0,642857;0,366667;0,366667;0,000000;0,000000;0,500000;0,500000;0,900000;0,900000;0,500000;0,500000;0,500000;0,366667;0,366667;0,500000;0,500000;0,000000;0,000000;0,000000;0,300000;0,300000;0,300000;0,300000;0,000000;0,000000;0,000000;0,000000;0,000000;0,000000;0,000000;0,500000;0,500000;0,300000;0,300000;0,000000;0,000000;0,000000;0,500000;0,300000;0,300000;0,000000;0,000000;0,900000;0,500000;0,388889;0,366667;0,366667;0,512864;0,900000;0,900000;0,900000;1,000000;0,366667;0,366667;0,900000;0,900000;0,500000;0,500000;0,500000;0,900000;0,500000;0,300000;0,300000;0,733333;0,733333;
59;;;;;;;;;;;;;;;;;;;;;;;;;;;;;;;;;;;;;;;;;;;;;;;;;;;;;;;;;;;1,000000;0,540000;0,833333;0,833333;0,388889;0,500000;0,500000;0,500000;0,600000;0,388889;0,388889;0,000000;0,000000;0,500000;0,500000;0,833333;0,833333;0,500000;0,500000;0,500000;0,388889;0,388889;0,500000;0,500000;0,000000;0,000000;0,000000;0,333333;0,333333;0,333333;0,333333;0,000000;0,000000;0,000000;0,000000;0,000000;0,000000;0,000000;0,500000;0,500000;0,333333;0,333333;0,000000;0,000000;0,000000;0,500000;0,333333;0,333333;0,000000;0,000000;0,833333;0,500000;0,416667;0,388889;0,388889;0,509648;0,833333;0,833333;0,833333;0,500000;0,388889;0,388889;0,833333;0,833333;0,500000;0,500000;0,500000;0,833333;0,500000;0,333333;0,333333;0,388889;0,388889;
60;;;;;;;;;;;;;;;;;;;;;;;;;;;;;;;;;;;;;;;;;;;;;;;;;;;;;;;;;;;;1,000000;0,900000;0,900000;0,400000;0,525000;0,525000;0,525000;0,675000;0,400000;0,400000;0,000000;0,000000;0,525000;0,525000;0,900000;0,900000;0,525000;0,525000;0,525000;0,400000;0,400000;0,525000;0,525000;0,000000;0,000000;0,000000;0,337500;0,337500;0,337500;0,337500;0,000000;0,000000;0,000000;0,000000;0,000000;0,000000;0,000000;0,525000;0,525000;0,337500;0,337500;0,000000;0,000000;0,000000;0,557143;0,337500;0,337500;0,000000;0,000000;0,900000;0,525000;0,440000;0,400000;0,400000;0,551577;0,900000;0,900000;0,900000;0,525000;0,400000;0,400000;0,900000;0,900000;0,525000;0,525000;0,525000;0,900000;0,525000;0,337500;0,337500;0,400000;0,400000;
61;;;;;;;;;;;;;;;;;;;;;;;;;;;;;;;;;;;;;;;;;;;;;;;;;;;;;;;;;;;;;1,000000;1,000000;0,666667;0,750000;0,750000;0,750000;0,937500;0,666667;0,666667;0,000000;0,000000;0,750000;0,750000;1,000000;1,000000;0,750000;0,750000;0,750000;0,666667;0,666667;0,750000;0,750000;0,000000;0,000000;0,000000;0,625000;0,625000;0,625000;0,625000;0,000000;0,000000;0,000000;0,000000;0,000000;0,000000;0,000000;0,750000;0,750000;0,625000;0,625000;0,000000;0,000000;0,000000;0,900000;0,625000;0,625000;0,000000;0,000000;1,000000;0,750000;0,777778;0,666667;0,666667;0,839765;1,000000;1,000000;1,000000;0,750000;0,666667;0,666667;1,000000;1,000000;0,750000;0,750000;0,750000;1,000000;0,750000;0,625000;0,625000;0,666667;0,666667;
62;;;;;;;;;;;;;;;;;;;;;;;;;;;;;;;;;;;;;;;;;;;;;;;;;;;;;;;;;;;;;;1,000000;0,666667;0,750000;0,750000;0,750000;0,937500;0,666667;0,666667;0,000000;0,000000;0,750000;0,750000;1,000000;1,000000;0,750000;0,750000;0,750000;0,666667;0,666667;0,750000;0,750000;0,000000;0,000000;0,000000;0,625000;0,625000;0,625000;0,625000;0,000000;0,000000;0,000000;0,000000;0,000000;0,000000;0,000000;0,750000;0,750000;0,625000;0,625000;0,000000;0,000000;0,000000;0,900000;0,625000;0,625000;0,000000;0,000000;1,000000;0,750000;0,777778;0,666667;0,666667;0,839765;1,000000;1,000000;1,000000;0,750000;0,666667;0,666667;1,000000;1,000000;0,750000;0,750000;0,750000;1,000000;0,750000;0,625000;0,625000;0,666667;0,666667;
63;;;;;;;;;;;;;;;;;;;;;;;;;;;;;;;;;;;;;;;;;;;;;;;;;;;;;;;;;;;;;;;1,000000;0,416667;0,416667;0,416667;0,437500;0,333333;0,333333;0,000000;0,000000;0,416667;0,416667;0,666667;0,666667;0,416667;0,416667;0,416667;0,333333;0,333333;0,416667;0,416667;0,000000;0,000000;0,000000;0,291667;0,291667;0,291667;0,291667;0,000000;0,000000;0,000000;0,000000;0,000000;0,000000;0,000000;0,416667;0,416667;0,291667;0,291667;0,000000;0,000000;0,000000;0,366667;0,291667;0,291667;0,000000;0,000000;0,666667;0,416667;0,333333;0,333333;0,333333;0,395321;0,666667;0,666667;0,666667;0,416667;0,333333;0,333333;0,666667;0,666667;0,416667;0,416667;0,416667;0,666667;0,416667;0,291667;0,291667;0,333333;0,333333;
64;;;;;;;;;;;;;;;;;;;;;;;;;;;;;;;;;;;;;;;;;;;;;;;;;;;;;;;;;;;;;;;;1,000000;0,500000;0,500000;0,562500;0,416667;0,416667;0,000000;0,000000;0,500000;0,500000;0,750000;0,750000;0,500000;0,500000;0,500000;0,416667;0,416667;0,500000;0,500000;0,000000;0,000000;0,000000;0,375000;0,375000;0,375000;0,375000;0,000000;0,000000;0,000000;0,000000;0,000000;0,000000;0,000000;0,500000;0,500000;0,375000;0,375000;0,000000;0,000000;0,000000;0,500000;0,375000;0,375000;0,000000;0,000000;0,750000;0,500000;0,444444;0,416667;0,416667;0,506432;0,750000;0,750000;0,750000;0,500000;0,416667;0,416667;0,750000;0,750000;0,500000;0,500000;0,500000;0,750000;0,500000;0,375000;0,375000;0,416667;0,416667;
65;;;;;;;;;;;;;;;;;;;;;;;;;;;;;;;;;;;;;;;;;;;;;;;;;;;;;;;;;;;;;;;;;1,000000;0,500000;0,562500;0,416667;0,416667;0,000000;0,000000;0,500000;0,500000;0,750000;0,750000;0,500000;0,500000;0,500000;0,416667;0,416667;0,500000;0,500000;0,000000;0,000000;0,000000;0,375000;0,375000;0,375000;0,375000;0,000000;0,000000;0,000000;0,000000;0,000000;0,000000;0,000000;0,500000;0,500000;0,375000;0,375000;0,000000;0,000000;0,000000;0,500000;0,375000;0,375000;0,000000;0,000000;0,750000;0,500000;0,444444;0,416667;0,416667;0,506432;0,750000;0,750000;0,750000;0,500000;0,416667;0,416667;0,750000;0,750000;0,500000;0,500000;0,500000;0,750000;0,500000;0,375000;0,375000;0,416667;0,416667;
66;;;;;;;;;;;;;;;;;;;;;;;;;;;;;;;;;;;;;;;;;;;;;;;;;;;;;;;;;;;;;;;;;;1,000000;0,562500;0,416667;0,416667;0,000000;0,000000;0,500000;0,500000;0,750000;0,750000;0,500000;0,500000;0,500000;0,416667;0,416667;0,500000;0,500000;0,000000;0,000000;0,000000;0,375000;0,375000;0,375000;0,375000;0,000000;0,000000;0,000000;0,000000;0,000000;0,000000;0,000000;0,500000;0,500000;0,375000;0,375000;0,000000;0,000000;0,000000;0,500000;0,375000;0,375000;0,000000;0,000000;0,750000;0,500000;0,444444;0,416667;0,416667;0,506432;0,750000;0,750000;0,750000;0,500000;0,416667;0,416667;0,750000;0,750000;0,500000;0,500000;0,500000;0,750000;0,500000;0,375000;0,375000;0,416667;0,416667;
67;;;;;;;;;;;;;;;;;;;;;;;;;;;;;;;;;;;;;;;;;;;;;;;;;;;;;;;;;;;;;;;;;;;1,000000;0,437500;0,437500;0,000000;0,000000;0,562500;0,562500;0,937500;0,937500;0,562500;0,562500;0,562500;0,437500;0,437500;0,562500;0,562500;0,000000;0,000000;0,000000;0,375000;0,375000;0,375000;0,375000;0,000000;0,000000;0,000000;0,000000;0,000000;0,000000;0,000000;0,562500;0,562500;0,375000;0,375000;0,000000;0,000000;0,000000;0,642857;0,375000;0,375000;0,000000;0,000000;0,937500;0,562500;0,500000;0,437500;0,437500;0,611577;0,937500;0,937500;0,937500;0,562500;0,437500;0,437500;0,937500;0,937500;0,562500;0,562500;0,562500;0,937500;0,562500;0,375000;0,375000;0,437500;0,437500;
68;;;;;;;;;;;;;;;;;;;;;;;;;;;;;;;;;;;;;;;;;;;;;;;;;;;;;;;;;;;;;;;;;;;;1,000000;0,666667;0,000000;0,000000;0,416667;0,416667;0,666667;0,666667;0,416667;0,416667;0,416667;0,333333;0,333333;0,416667;0,416667;0,000000;0,000000;0,000000;0,291667;0,291667;0,291667;0,291667;0,000000;0,000000;0,000000;0,000000;0,000000;0,000000;0,000000;0,416667;0,416667;0,291667;0,291667;0,000000;0,000000;0,000000;0,366667;0,291667;0,291667;0,000000;0,000000;0,666667;0,416667;0,333333;0,333333;0,333333;0,395321;0,666667;0,666667;0,666667;0,416667;0,333333;0,333333;0,666667;0,666667;0,416667;0,416667;0,416667;0,666667;0,416667;0,291667;0,291667;0,333333;0,333333;
69;;;;;;;;;;;;;;;;;;;;;;;;;;;;;;;;;;;;;;;;;;;;;;;;;;;;;;;;;;;;;;;;;;;;;1,000000;0,000000;0,000000;0,416667;0,416667;0,666667;0,666667;0,416667;0,416667;0,416667;0,333333;0,333333;0,416667;0,416667;0,000000;0,000000;0,000000;0,291667;0,291667;0,291667;0,291667;0,000000;0,000000;0,000000;0,000000;0,000000;0,000000;0,000000;0,416667;0,416667;0,291667;0,291667;0,000000;0,000000;0,000000;0,366667;0,291667;0,291667;0,000000;0,000000;0,666667;0,416667;0,333333;0,333333;0,333333;0,395321;0,666667;0,666667;0,666667;0,416667;0,333333;0,333333;0,666667;0,666667;0,416667;0,416667;0,416667;0,666667;0,416667;0,291667;0,291667;0,333333;0,333333;
70;;;;;;;;;;;;;;;;;;;;;;;;;;;;;;;;;;;;;;;;;;;;;;;;;;;;;;;;;;;;;;;;;;;;;;1,000000;0,000000;0,000000;0,000000;0,000000;0,000000;0,000000;0,000000;0,000000;0,000000;0,000000;0,000000;0,000000;0,000000;0,000000;0,000000;0,000000;0,000000;0,000000;0,000000;0,000000;0,000000;0,000000;0,000000;0,000000;0,000000;0,000000;0,000000;0,000000;0,000000;0,000000;0,000000;0,000000;0,000000;0,000000;0,000000;0,000000;0,000000;0,000000;0,000000;0,000000;0,000000;0,000000;0,000000;0,000000;0,000000;0,000000;0,000000;0,000000;0,000000;0,000000;0,000000;0,000000;0,000000;0,000000;0,000000;0,000000;0,000000;0,000000;0,000000;0,000000;0,000000;
71;;;;;;;;;;;;;;;;;;;;;;;;;;;;;;;;;;;;;;;;;;;;;;;;;;;;;;;;;;;;;;;;;;;;;;;1,000000;0,000000;0,000000;0,000000;0,000000;0,000000;0,000000;0,000000;0,000000;0,000000;0,000000;0,000000;0,000000;0,000000;0,000000;0,000000;0,000000;0,000000;0,000000;0,000000;0,000000;0,000000;0,000000;0,000000;0,000000;0,000000;0,000000;0,000000;0,000000;0,000000;0,000000;0,000000;0,000000;0,000000;0,000000;0,000000;0,000000;0,000000;0,000000;0,000000;0,000000;0,000000;0,000000;0,000000;0,000000;0,000000;0,000000;0,000000;0,000000;0,000000;0,000000;0,000000;0,000000;0,000000;0,000000;0,000000;0,000000;0,000000;0,000000;0,000000;0,000000;
72;;;;;;;;;;;;;;;;;;;;;;;;;;;;;;;;;;;;;;;;;;;;;;;;;;;;;;;;;;;;;;;;;;;;;;;;1,000000;0,500000;0,750000;0,750000;0,500000;0,500000;0,500000;0,416667;0,416667;0,500000;0,500000;0,000000;0,000000;0,000000;0,375000;0,375000;0,375000;0,375000;0,000000;0,000000;0,000000;0,000000;0,000000;0,000000;0,000000;0,500000;0,500000;0,375000;0,375000;0,000000;0,000000;0,000000;0,500000;0,375000;0,375000;0,000000;0,000000;0,750000;0,500000;0,444444;0,416667;0,416667;0,506432;0,750000;0,750000;0,750000;0,500000;0,416667;0,416667;0,750000;0,750000;0,500000;0,500000;0,500000;0,750000;0,500000;0,375000;0,375000;0,416667;0,416667;
73;;;;;;;;;;;;;;;;;;;;;;;;;;;;;;;;;;;;;;;;;;;;;;;;;;;;;;;;;;;;;;;;;;;;;;;;;1,000000;0,750000;0,750000;0,500000;0,500000;0,500000;0,416667;0,416667;0,500000;0,500000;0,000000;0,000000;0,000000;0,375000;0,375000;0,375000;0,375000;0,000000;0,000000;0,000000;0,000000;0,000000;0,000000;0,000000;0,500000;0,500000;0,375000;0,375000;0,000000;0,000000;0,000000;0,500000;0,375000;0,375000;0,000000;0,000000;0,750000;0,500000;0,444444;0,416667;0,416667;0,506432;0,750000;0,750000;0,750000;0,500000;0,416667;0,416667;0,750000;0,750000;0,500000;0,500000;0,500000;0,750000;0,500000;0,375000;0,375000;0,416667;0,416667;
74;;;;;;;;;;;;;;;;;;;;;;;;;;;;;;;;;;;;;;;;;;;;;;;;;;;;;;;;;;;;;;;;;;;;;;;;;;1,000000;1,000000;0,750000;0,750000;0,750000;0,666667;0,666667;0,750000;0,750000;0,000000;0,000000;0,000000;0,625000;0,625000;0,625000;0,625000;0,000000;0,000000;0,000000;0,000000;0,000000;0,000000;0,000000;0,750000;0,750000;0,625000;0,625000;0,000000;0,000000;0,000000;0,900000;0,625000;0,625000;0,000000;0,000000;1,000000;0,750000;0,777778;0,666667;0,666667;0,839765;1,000000;1,000000;1,000000;0,750000;0,666667;0,666667;1,000000;1,000000;0,750000;0,750000;0,750000;1,000000;0,750000;0,625000;0,625000;0,666667;0,666667;
75;;;;;;;;;;;;;;;;;;;;;;;;;;;;;;;;;;;;;;;;;;;;;;;;;;;;;;;;;;;;;;;;;;;;;;;;;;;1,000000;0,750000;0,750000;0,750000;0,666667;0,666667;0,750000;0,750000;0,000000;0,000000;0,000000;0,625000;0,625000;0,625000;0,625000;0,000000;0,000000;0,000000;0,000000;0,000000;0,000000;0,000000;0,750000;0,750000;0,625000;0,625000;0,000000;0,000000;0,000000;0,900000;0,625000;0,625000;0,000000;0,000000;1,000000;0,750000;0,777778;0,666667;0,666667;0,839765;1,000000;1,000000;1,000000;0,750000;0,666667;0,666667;1,000000;1,000000;0,750000;0,750000;0,750000;1,000000;0,750000;0,625000;0,625000;0,666667;0,666667;
76;;;;;;;;;;;;;;;;;;;;;;;;;;;;;;;;;;;;;;;;;;;;;;;;;;;;;;;;;;;;;;;;;;;;;;;;;;;;1,000000;0,500000;0,500000;0,416667;0,416667;0,500000;0,500000;0,000000;0,000000;0,000000;0,375000;0,375000;0,375000;0,375000;0,000000;0,000000;0,000000;0,000000;0,000000;0,000000;0,000000;0,500000;0,500000;0,375000;0,375000;0,000000;0,000000;0,000000;0,500000;0,375000;0,375000;0,000000;0,000000;0,750000;0,500000;0,444444;0,416667;0,416667;0,506432;0,750000;0,750000;0,750000;0,500000;0,416667;0,416667;0,750000;0,750000;0,500000;0,500000;0,500000;0,750000;0,500000;0,375000;0,375000;0,416667;0,416667;
77;;;;;;;;;;;;;;;;;;;;;;;;;;;;;;;;;;;;;;;;;;;;;;;;;;;;;;;;;;;;;;;;;;;;;;;;;;;;;1,000000;0,500000;0,416667;0,416667;0,500000;0,500000;0,000000;0,000000;0,000000;0,375000;0,375000;0,375000;0,375000;0,000000;0,000000;0,000000;0,000000;0,000000;0,000000;0,000000;0,500000;0,500000;0,375000;0,375000;0,000000;0,000000;0,000000;0,500000;0,375000;0,375000;0,000000;0,000000;0,750000;0,500000;0,444444;0,416667;0,416667;0,506432;0,750000;0,750000;0,750000;0,500000;0,416667;0,416667;0,750000;0,750000;0,500000;0,500000;0,500000;0,750000;0,500000;0,375000;0,375000;0,416667;0,416667;
78;;;;;;;;;;;;;;;;;;;;;;;;;;;;;;;;;;;;;;;;;;;;;;;;;;;;;;;;;;;;;;;;;;;;;;;;;;;;;;1,000000;0,416667;0,416667;0,500000;0,500000;0,000000;0,000000;0,000000;0,375000;0,375000;0,375000;0,375000;0,000000;0,000000;0,000000;0,000000;0,000000;0,000000;0,000000;0,500000;0,500000;0,375000;0,375000;0,000000;0,000000;0,000000;0,500000;0,375000;0,375000;0,000000;0,000000;0,750000;0,500000;0,444444;0,416667;0,416667;0,506432;0,750000;0,750000;0,750000;0,500000;0,416667;0,416667;0,750000;0,750000;0,500000;0,500000;0,500000;0,750000;0,500000;0,375000;0,375000;0,416667;0,416667;
79;;;;;;;;;;;;;;;;;;;;;;;;;;;;;;;;;;;;;;;;;;;;;;;;;;;;;;;;;;;;;;;;;;;;;;;;;;;;;;;1,000000;0,666667;0,416667;0,416667;0,000000;0,000000;0,000000;0,291667;0,291667;0,291667;0,291667;0,000000;0,000000;0,000000;0,000000;0,000000;0,000000;0,000000;0,416667;0,416667;0,291667;0,291667;0,000000;0,000000;0,000000;0,710543;0,291667;0,291667;0,000000;0,000000;0,666667;0,416667;0,333333;0,666667;0,666667;0,395321;0,666667;0,666667;0,666667;0,416667;0,333333;0,333333;0,666667;0,666667;0,416667;0,416667;0,416667;0,666667;0,416667;0,291667;0,291667;0,333333;0,333333;
80;;;;;;;;;;;;;;;;;;;;;;;;;;;;;;;;;;;;;;;;;;;;;;;;;;;;;;;;;;;;;;;;;;;;;;;;;;;;;;;;1,000000;0,416667;0,416667;0,000000;0,000000;0,000000;0,291667;0,291667;0,291667;0,291667;0,000000;0,000000;0,000000;0,000000;0,000000;0,000000;0,000000;0,416667;0,416667;0,291667;0,291667;0,000000;0,000000;0,000000;0,710543;0,291667;0,291667;0,000000;0,000000;0,666667;0,416667;0,333333;0,666667;0,666667;0,395321;0,666667;0,666667;0,666667;0,416667;0,333333;0,333333;0,666667;0,666667;0,416667;0,416667;0,416667;0,666667;0,416667;0,291667;0,291667;0,333333;0,333333;
81;;;;;;;;;;;;;;;;;;;;;;;;;;;;;;;;;;;;;;;;;;;;;;;;;;;;;;;;;;;;;;;;;;;;;;;;;;;;;;;;;1,000000;0,500000;0,000000;0,000000;0,000000;0,375000;0,375000;0,375000;0,375000;0,000000;0,000000;0,000000;0,000000;0,000000;0,000000;0,000000;0,500000;0,500000;0,375000;0,375000;0,000000;0,000000;0,000000;0,500000;0,375000;0,375000;0,000000;0,000000;0,750000;0,500000;0,444444;0,416667;0,416667;0,506432;0,750000;0,750000;0,750000;0,500000;0,416667;0,416667;0,750000;0,750000;0,500000;0,500000;0,500000;0,750000;0,500000;0,375000;0,375000;0,416667;0,416667;
82;;;;;;;;;;;;;;;;;;;;;;;;;;;;;;;;;;;;;;;;;;;;;;;;;;;;;;;;;;;;;;;;;;;;;;;;;;;;;;;;;;1,000000;0,000000;0,000000;0,000000;0,375000;0,375000;0,375000;0,375000;0,000000;0,000000;0,000000;0,000000;0,000000;0,000000;0,000000;0,500000;0,500000;0,375000;0,375000;0,000000;0,000000;0,000000;0,500000;0,375000;0,375000;0,000000;0,000000;0,750000;0,500000;0,444444;0,416667;0,416667;0,506432;0,750000;0,750000;0,750000;0,500000;0,416667;0,416667;0,750000;0,750000;0,500000;0,500000;0,500000;0,750000;0,500000;0,375000;0,375000;0,416667;0,416667;
83;;;;;;;;;;;;;;;;;;;;;;;;;;;;;;;;;;;;;;;;;;;;;;;;;;;;;;;;;;;;;;;;;;;;;;;;;;;;;;;;;;;1,000000;0,500000;0,500000;0,000000;0,000000;0,000000;0,000000;0,000000;0,000000;0,000000;0,000000;0,000000;0,000000;0,000000;0,000000;0,000000;0,000000;0,000000;0,000000;0,000000;0,000000;0,000000;0,000000;0,000000;0,000000;0,000000;0,000000;0,000000;0,000000;0,000000;0,000000;0,000000;0,000000;0,000000;0,000000;0,000000;0,000000;0,000000;0,000000;0,000000;0,000000;0,000000;0,000000;0,000000;0,000000;0,000000;0,000000;0,000000;0,000000;
84;;;;;;;;;;;;;;;;;;;;;;;;;;;;;;;;;;;;;;;;;;;;;;;;;;;;;;;;;;;;;;;;;;;;;;;;;;;;;;;;;;;;1,000000;0,500000;0,000000;0,000000;0,000000;0,000000;0,000000;0,000000;0,000000;0,000000;0,000000;0,000000;0,000000;0,000000;0,000000;0,000000;0,000000;0,000000;0,000000;0,000000;0,000000;0,000000;0,000000;0,000000;0,000000;0,000000;0,000000;0,000000;0,000000;0,000000;0,000000;0,000000;0,000000;0,000000;0,000000;0,000000;0,000000;0,000000;0,000000;0,000000;0,000000;0,000000;0,000000;0,000000;0,000000;0,000000;0,000000;0,000000;
85;;;;;;;;;;;;;;;;;;;;;;;;;;;;;;;;;;;;;;;;;;;;;;;;;;;;;;;;;;;;;;;;;;;;;;;;;;;;;;;;;;;;;1,000000;0,000000;0,000000;0,000000;0,000000;0,000000;0,000000;0,000000;0,000000;0,000000;0,000000;0,000000;0,000000;0,000000;0,000000;0,000000;0,000000;0,000000;0,000000;0,000000;0,000000;0,000000;0,000000;0,000000;0,000000;0,000000;0,000000;0,000000;0,000000;0,000000;0,000000;0,000000;0,000000;0,000000;0,000000;0,000000;0,000000;0,000000;0,000000;0,000000;0,000000;0,000000;0,000000;0,000000;0,000000;0,000000;0,000000;
86;;;;;;;;;;;;;;;;;;;;;;;;;;;;;;;;;;;;;;;;;;;;;;;;;;;;;;;;;;;;;;;;;;;;;;;;;;;;;;;;;;;;;;1,000000;0,750000;0,750000;0,750000;0,000000;0,000000;0,000000;0,000000;0,000000;0,000000;0,000000;0,375000;0,375000;0,250000;0,250000;0,000000;0,000000;0,000000;0,300000;0,250000;0,250000;0,000000;0,000000;0,625000;0,375000;0,277778;0,291667;0,291667;0,339765;0,625000;0,625000;0,625000;0,375000;0,291667;0,291667;0,625000;0,625000;0,375000;0,375000;0,375000;0,625000;0,375000;0,250000;0,250000;0,291667;0,291667;
87;;;;;;;;;;;;;;;;;;;;;;;;;;;;;;;;;;;;;;;;;;;;;;;;;;;;;;;;;;;;;;;;;;;;;;;;;;;;;;;;;;;;;;;1,000000;0,750000;0,750000;0,000000;0,000000;0,000000;0,000000;0,000000;0,000000;0,000000;0,375000;0,375000;0,250000;0,250000;0,000000;0,000000;0,000000;0,300000;0,250000;0,250000;0,000000;0,000000;0,625000;0,375000;0,277778;0,291667;0,291667;0,339765;0,625000;0,625000;0,625000;0,375000;0,291667;0,291667;0,625000;0,625000;0,375000;0,375000;0,375000;0,625000;0,375000;0,250000;0,250000;0,291667;0,291667;
88;;;;;;;;;;;;;;;;;;;;;;;;;;;;;;;;;;;;;;;;;;;;;;;;;;;;;;;;;;;;;;;;;;;;;;;;;;;;;;;;;;;;;;;;1,000000;0,750000;0,000000;0,000000;0,000000;0,000000;0,000000;0,000000;0,000000;0,375000;0,375000;0,250000;0,250000;0,000000;0,000000;0,000000;0,300000;0,250000;0,250000;0,000000;0,000000;0,625000;0,375000;0,277778;0,291667;0,291667;0,339765;0,625000;0,625000;0,625000;0,375000;0,291667;0,291667;0,625000;0,625000;0,375000;0,375000;0,375000;0,625000;0,375000;0,250000;0,250000;0,291667;0,291667;
89;;;;;;;;;;;;;;;;;;;;;;;;;;;;;;;;;;;;;;;;;;;;;;;;;;;;;;;;;;;;;;;;;;;;;;;;;;;;;;;;;;;;;;;;;1,000000;0,000000;0,000000;0,000000;0,000000;0,000000;0,000000;0,000000;0,375000;0,375000;0,250000;0,250000;0,000000;0,000000;0,000000;0,300000;0,250000;0,250000;0,000000;0,000000;0,625000;0,375000;0,277778;0,291667;0,291667;0,339765;0,625000;0,625000;0,625000;0,375000;0,291667;0,291667;0,625000;0,625000;0,375000;0,375000;0,375000;0,625000;0,375000;0,250000;0,250000;0,291667;0,291667;
90;;;;;;;;;;;;;;;;;;;;;;;;;;;;;;;;;;;;;;;;;;;;;;;;;;;;;;;;;;;;;;;;;;;;;;;;;;;;;;;;;;;;;;;;;;1,000000;0,666667;0,666667;0,277778;0,277778;0,277778;0,277778;0,000000;0,000000;0,000000;0,000000;0,000000;0,000000;0,000000;0,000000;0,000000;0,000000;0,000000;0,000000;0,000000;0,000000;0,000000;0,000000;0,000000;0,000000;0,000000;0,000000;0,000000;0,000000;0,000000;0,000000;0,000000;0,000000;0,000000;0,000000;0,000000;0,000000;0,000000;0,000000;0,000000;0,000000;0,000000;
91;;;;;;;;;;;;;;;;;;;;;;;;;;;;;;;;;;;;;;;;;;;;;;;;;;;;;;;;;;;;;;;;;;;;;;;;;;;;;;;;;;;;;;;;;;;1,000000;0,666667;0,277778;0,277778;0,277778;0,277778;0,000000;0,000000;0,000000;0,000000;0,000000;0,000000;0,000000;0,000000;0,000000;0,000000;0,000000;0,000000;0,000000;0,000000;0,000000;0,000000;0,000000;0,000000;0,000000;0,000000;0,000000;0,000000;0,000000;0,000000;0,000000;0,000000;0,000000;0,000000;0,000000;0,000000;0,000000;0,000000;0,000000;0,000000;0,000000;
92;;;;;;;;;;;;;;;;;;;;;;;;;;;;;;;;;;;;;;;;;;;;;;;;;;;;;;;;;;;;;;;;;;;;;;;;;;;;;;;;;;;;;;;;;;;;1,000000;0,277778;0,277778;0,277778;0,277778;0,000000;0,000000;0,000000;0,000000;0,000000;0,000000;0,000000;0,000000;0,000000;0,000000;0,000000;0,000000;0,000000;0,000000;0,000000;0,000000;0,000000;0,000000;0,000000;0,000000;0,000000;0,000000;0,000000;0,000000;0,000000;0,000000;0,000000;0,000000;0,000000;0,000000;0,000000;0,000000;0,000000;0,000000;0,000000;
93;;;;;;;;;;;;;;;;;;;;;;;;;;;;;;;;;;;;;;;;;;;;;;;;;;;;;;;;;;;;;;;;;;;;;;;;;;;;;;;;;;;;;;;;;;;;;1,000000;0,750000;0,750000;0,750000;0,000000;0,000000;0,000000;0,000000;0,000000;0,000000;0,000000;0,000000;0,000000;0,000000;0,000000;0,000000;0,000000;0,000000;0,000000;0,000000;0,000000;0,000000;0,000000;0,000000;0,000000;0,000000;0,000000;0,000000;0,000000;0,000000;0,000000;0,000000;0,000000;0,000000;0,000000;0,000000;0,000000;0,000000;0,000000;
94;;;;;;;;;;;;;;;;;;;;;;;;;;;;;;;;;;;;;;;;;;;;;;;;;;;;;;;;;;;;;;;;;;;;;;;;;;;;;;;;;;;;;;;;;;;;;;1,000000;0,750000;0,750000;0,000000;0,000000;0,000000;0,000000;0,000000;0,000000;0,000000;0,000000;0,000000;0,000000;0,000000;0,000000;0,000000;0,000000;0,000000;0,000000;0,000000;0,000000;0,000000;0,000000;0,000000;0,000000;0,000000;0,000000;0,000000;0,000000;0,000000;0,000000;0,000000;0,000000;0,000000;0,000000;0,000000;0,000000;0,000000;
95;;;;;;;;;;;;;;;;;;;;;;;;;;;;;;;;;;;;;;;;;;;;;;;;;;;;;;;;;;;;;;;;;;;;;;;;;;;;;;;;;;;;;;;;;;;;;;;1,000000;0,750000;0,000000;0,000000;0,000000;0,000000;0,000000;0,000000;0,000000;0,000000;0,000000;0,000000;0,000000;0,000000;0,000000;0,000000;0,000000;0,000000;0,000000;0,000000;0,000000;0,000000;0,000000;0,000000;0,000000;0,000000;0,000000;0,000000;0,000000;0,000000;0,000000;0,000000;0,000000;0,000000;0,000000;0,000000;0,000000;
96;;;;;;;;;;;;;;;;;;;;;;;;;;;;;;;;;;;;;;;;;;;;;;;;;;;;;;;;;;;;;;;;;;;;;;;;;;;;;;;;;;;;;;;;;;;;;;;;1,000000;0,000000;0,000000;0,000000;0,000000;0,000000;0,000000;0,000000;0,000000;0,000000;0,000000;0,000000;0,000000;0,000000;0,000000;0,000000;0,000000;0,000000;0,000000;0,000000;0,000000;0,000000;0,000000;0,000000;0,000000;0,000000;0,000000;0,000000;0,000000;0,000000;0,000000;0,000000;0,000000;0,000000;0,000000;0,000000;
97;;;;;;;;;;;;;;;;;;;;;;;;;;;;;;;;;;;;;;;;;;;;;;;;;;;;;;;;;;;;;;;;;;;;;;;;;;;;;;;;;;;;;;;;;;;;;;;;;1,000000;0,500000;0,375000;0,375000;0,000000;0,000000;0,000000;0,500000;0,375000;0,375000;0,000000;0,000000;0,750000;0,500000;0,444444;0,416667;0,416667;0,506432;0,750000;0,750000;0,750000;0,500000;0,416667;0,416667;0,750000;0,750000;0,500000;0,500000;0,500000;0,750000;0,500000;0,375000;0,375000;0,416667;0,416667;
98;;;;;;;;;;;;;;;;;;;;;;;;;;;;;;;;;;;;;;;;;;;;;;;;;;;;;;;;;;;;;;;;;;;;;;;;;;;;;;;;;;;;;;;;;;;;;;;;;;1,000000;0,375000;0,375000;0,000000;0,000000;0,000000;0,500000;0,375000;0,375000;0,000000;0,000000;0,750000;0,500000;0,444444;0,416667;0,416667;0,506432;0,750000;0,750000;0,750000;0,500000;0,416667;0,416667;0,750000;0,750000;0,500000;0,500000;0,500000;0,750000;0,500000;0,375000;0,375000;0,416667;0,416667;
99;;;;;;;;;;;;;;;;;;;;;;;;;;;;;;;;;;;;;;;;;;;;;;;;;;;;;;;;;;;;;;;;;;;;;;;;;;;;;;;;;;;;;;;;;;;;;;;;;;;1,000000;0,750000;0,000000;0,000000;0,000000;0,300000;0,250000;0,250000;0,000000;0,000000;0,625000;0,375000;0,833333;0,291667;0,291667;0,339765;0,625000;0,625000;0,625000;0,375000;0,291667;0,291667;0,625000;0,625000;0,375000;0,375000;0,375000;0,625000;0,375000;0,750000;0,750000;0,291667;0,291667;
100;;;;;;;;;;;;;;;;;;;;;;;;;;;;;;;;;;;;;;;;;;;;;;;;;;;;;;;;;;;;;;;;;;;;;;;;;;;;;;;;;;;;;;;;;;;;;;;;;;;;1,000000;0,000000;0,000000;0,000000;0,300000;0,250000;0,250000;0,000000;0,000000;0,625000;0,375000;0,833333;0,291667;0,291667;0,339765;0,625000;0,625000;0,625000;0,375000;0,291667;0,291667;0,625000;0,625000;0,375000;0,375000;0,375000;0,625000;0,375000;0,750000;0,750000;0,291667;0,291667;
101;;;;;;;;;;;;;;;;;;;;;;;;;;;;;;;;;;;;;;;;;;;;;;;;;;;;;;;;;;;;;;;;;;;;;;;;;;;;;;;;;;;;;;;;;;;;;;;;;;;;;1,000000;0,500000;0,500000;0,000000;0,000000;0,000000;0,000000;0,000000;0,000000;0,000000;0,000000;0,000000;0,000000;0,000000;0,000000;0,000000;0,000000;0,000000;0,000000;0,000000;0,000000;0,000000;0,000000;0,000000;0,000000;0,000000;0,000000;0,000000;0,000000;0,000000;0,000000;
102;;;;;;;;;;;;;;;;;;;;;;;;;;;;;;;;;;;;;;;;;;;;;;;;;;;;;;;;;;;;;;;;;;;;;;;;;;;;;;;;;;;;;;;;;;;;;;;;;;;;;;1,000000;0,500000;0,000000;0,000000;0,000000;0,000000;0,000000;0,000000;0,000000;0,000000;0,000000;0,000000;0,000000;0,000000;0,000000;0,000000;0,000000;0,000000;0,000000;0,000000;0,000000;0,000000;0,000000;0,000000;0,000000;0,000000;0,000000;0,000000;0,000000;0,000000;
103;;;;;;;;;;;;;;;;;;;;;;;;;;;;;;;;;;;;;;;;;;;;;;;;;;;;;;;;;;;;;;;;;;;;;;;;;;;;;;;;;;;;;;;;;;;;;;;;;;;;;;;1,000000;0,000000;0,000000;0,000000;0,000000;0,000000;0,000000;0,000000;0,000000;0,000000;0,000000;0,000000;0,000000;0,000000;0,000000;0,000000;0,000000;0,000000;0,000000;0,000000;0,000000;0,000000;0,000000;0,000000;0,000000;0,000000;0,000000;0,000000;0,000000;
104;;;;;;;;;;;;;;;;;;;;;;;;;;;;;;;;;;;;;;;;;;;;;;;;;;;;;;;;;;;;;;;;;;;;;;;;;;;;;;;;;;;;;;;;;;;;;;;;;;;;;;;;1,000000;0,300000;0,300000;0,000000;0,000000;0,900000;0,500000;0,388889;0,710543;0,710543;0,512864;0,900000;0,900000;0,900000;0,500000;0,366667;0,366667;0,900000;0,900000;0,500000;0,500000;0,500000;0,900000;0,500000;0,300000;0,300000;0,366667;0,366667;
105;;;;;;;;;;;;;;;;;;;;;;;;;;;;;;;;;;;;;;;;;;;;;;;;;;;;;;;;;;;;;;;;;;;;;;;;;;;;;;;;;;;;;;;;;;;;;;;;;;;;;;;;;1,000000;0,750000;0,000000;0,000000;0,625000;0,375000;0,277778;0,291667;0,291667;0,339765;0,625000;0,625000;0,625000;0,375000;0,291667;0,291667;0,625000;0,625000;0,375000;0,375000;0,375000;0,625000;0,375000;0,250000;0,250000;0,291667;0,291667;
106;;;;;;;;;;;;;;;;;;;;;;;;;;;;;;;;;;;;;;;;;;;;;;;;;;;;;;;;;;;;;;;;;;;;;;;;;;;;;;;;;;;;;;;;;;;;;;;;;;;;;;;;;;1,000000;0,000000;0,000000;0,625000;0,375000;0,277778;0,291667;0,291667;0,339765;0,625000;0,625000;0,625000;0,375000;0,291667;0,291667;0,625000;0,625000;0,375000;0,375000;0,375000;0,625000;0,375000;0,250000;0,250000;0,291667;0,291667;
107;;;;;;;;;;;;;;;;;;;;;;;;;;;;;;;;;;;;;;;;;;;;;;;;;;;;;;;;;;;;;;;;;;;;;;;;;;;;;;;;;;;;;;;;;;;;;;;;;;;;;;;;;;;1,000000;0,000000;0,000000;0,000000;0,000000;0,000000;0,000000;0,000000;0,000000;0,000000;0,000000;0,000000;0,000000;0,000000;0,000000;0,000000;0,000000;0,000000;0,000000;0,000000;0,000000;0,000000;0,000000;0,000000;0,000000;
108;;;;;;;;;;;;;;;;;;;;;;;;;;;;;;;;;;;;;;;;;;;;;;;;;;;;;;;;;;;;;;;;;;;;;;;;;;;;;;;;;;;;;;;;;;;;;;;;;;;;;;;;;;;;1,000000;0,000000;0,000000;0,000000;0,000000;0,000000;0,000000;0,000000;0,000000;0,000000;0,000000;0,000000;0,000000;0,000000;0,000000;0,000000;0,000000;0,000000;0,000000;0,000000;0,000000;0,000000;0,000000;0,000000;
109;;;;;;;;;;;;;;;;;;;;;;;;;;;;;;;;;;;;;;;;;;;;;;;;;;;;;;;;;;;;;;;;;;;;;;;;;;;;;;;;;;;;;;;;;;;;;;;;;;;;;;;;;;;;;1,000000;0,750000;0,777778;0,666667;0,666667;0,839765;1,000000;1,000000;1,000000;0,750000;0,666667;0,666667;1,000000;1,000000;0,750000;0,750000;0,750000;1,000000;0,750000;0,625000;0,625000;0,666667;0,666667;
110;;;;;;;;;;;;;;;;;;;;;;;;;;;;;;;;;;;;;;;;;;;;;;;;;;;;;;;;;;;;;;;;;;;;;;;;;;;;;;;;;;;;;;;;;;;;;;;;;;;;;;;;;;;;;;1,000000;0,444444;0,416667;0,416667;0,506432;0,750000;0,750000;0,750000;0,500000;0,416667;0,416667;0,750000;0,750000;0,500000;0,500000;0,500000;0,750000;0,500000;0,375000;0,375000;0,416667;0,416667;
111;;;;;;;;;;;;;;;;;;;;;;;;;;;;;;;;;;;;;;;;;;;;;;;;;;;;;;;;;;;;;;;;;;;;;;;;;;;;;;;;;;;;;;;;;;;;;;;;;;;;;;;;;;;;;;;1,000000;0,333333;0,333333;0,426314;0,777778;0,777778;0,777778;0,444444;0,333333;0,333333;0,777778;0,777778;0,444444;0,444444;0,444444;0,777778;0,444444;0,833333;0,833333;0,333333;0,333333;
112;;;;;;;;;;;;;;;;;;;;;;;;;;;;;;;;;;;;;;;;;;;;;;;;;;;;;;;;;;;;;;;;;;;;;;;;;;;;;;;;;;;;;;;;;;;;;;;;;;;;;;;;;;;;;;;;1,000000;0,666667;0,395321;0,666667;0,666667;0,666667;0,416667;0,333333;0,333333;0,666667;0,666667;0,416667;0,416667;0,416667;0,666667;0,416667;0,291667;0,291667;0,333333;0,333333;
113;;;;;;;;;;;;;;;;;;;;;;;;;;;;;;;;;;;;;;;;;;;;;;;;;;;;;;;;;;;;;;;;;;;;;;;;;;;;;;;;;;;;;;;;;;;;;;;;;;;;;;;;;;;;;;;;;1,000000;0,395321;0,666667;0,666667;0,666667;0,416667;0,333333;0,333333;0,666667;0,666667;0,416667;0,416667;0,416667;0,666667;0,416667;0,291667;0,291667;0,333333;0,333333;
114;;;;;;;;;;;;;;;;;;;;;;;;;;;;;;;;;;;;;;;;;;;;;;;;;;;;;;;;;;;;;;;;;;;;;;;;;;;;;;;;;;;;;;;;;;;;;;;;;;;;;;;;;;;;;;;;;;1,000000;0,839765;0,839765;0,839765;0,506432;0,694779;0,694779;0,839765;0,839765;0,506432;0,506432;0,506432;0,839765;0,506432;0,339765;0,339765;0,395321;0,395321;
115;;;;;;;;;;;;;;;;;;;;;;;;;;;;;;;;;;;;;;;;;;;;;;;;;;;;;;;;;;;;;;;;;;;;;;;;;;;;;;;;;;;;;;;;;;;;;;;;;;;;;;;;;;;;;;;;;;;1,000000;1,000000;1,000000;0,750000;0,666667;0,666667;1,000000;1,000000;0,750000;0,750000;0,750000;1,000000;0,750000;0,625000;0,625000;0,666667;0,666667;
116;;;;;;;;;;;;;;;;;;;;;;;;;;;;;;;;;;;;;;;;;;;;;;;;;;;;;;;;;;;;;;;;;;;;;;;;;;;;;;;;;;;;;;;;;;;;;;;;;;;;;;;;;;;;;;;;;;;;1,000000;1,000000;0,750000;0,666667;0,666667;1,000000;1,000000;0,750000;0,750000;0,750000;1,000000;0,750000;0,625000;0,625000;0,666667;0,666667;
117;;;;;;;;;;;;;;;;;;;;;;;;;;;;;;;;;;;;;;;;;;;;;;;;;;;;;;;;;;;;;;;;;;;;;;;;;;;;;;;;;;;;;;;;;;;;;;;;;;;;;;;;;;;;;;;;;;;;;1,000000;0,750000;0,666667;0,666667;1,000000;1,000000;0,750000;0,750000;0,750000;1,000000;0,750000;0,625000;0,625000;0,666667;0,666667;
118;;;;;;;;;;;;;;;;;;;;;;;;;;;;;;;;;;;;;;;;;;;;;;;;;;;;;;;;;;;;;;;;;;;;;;;;;;;;;;;;;;;;;;;;;;;;;;;;;;;;;;;;;;;;;;;;;;;;;;1,000000;0,416667;0,416667;0,750000;0,750000;0,500000;0,500000;0,500000;0,750000;0,500000;0,375000;0,375000;0,833333;0,833333;
119;;;;;;;;;;;;;;;;;;;;;;;;;;;;;;;;;;;;;;;;;;;;;;;;;;;;;;;;;;;;;;;;;;;;;;;;;;;;;;;;;;;;;;;;;;;;;;;;;;;;;;;;;;;;;;;;;;;;;;;1,000000;0,666667;0,666667;0,666667;0,416667;0,416667;0,416667;0,666667;0,416667;0,291667;0,291667;0,333333;0,333333;
120;;;;;;;;;;;;;;;;;;;;;;;;;;;;;;;;;;;;;;;;;;;;;;;;;;;;;;;;;;;;;;;;;;;;;;;;;;;;;;;;;;;;;;;;;;;;;;;;;;;;;;;;;;;;;;;;;;;;;;;;1,000000;0,666667;0,666667;0,416667;0,416667;0,416667;0,666667;0,416667;0,291667;0,291667;0,333333;0,333333;
121;;;;;;;;;;;;;;;;;;;;;;;;;;;;;;;;;;;;;;;;;;;;;;;;;;;;;;;;;;;;;;;;;;;;;;;;;;;;;;;;;;;;;;;;;;;;;;;;;;;;;;;;;;;;;;;;;;;;;;;;;1,000000;1,000000;0,750000;0,750000;0,750000;1,000000;0,750000;0,625000;0,625000;0,666667;0,666667;
122;;;;;;;;;;;;;;;;;;;;;;;;;;;;;;;;;;;;;;;;;;;;;;;;;;;;;;;;;;;;;;;;;;;;;;;;;;;;;;;;;;;;;;;;;;;;;;;;;;;;;;;;;;;;;;;;;;;;;;;;;;1,000000;0,750000;0,750000;0,750000;1,000000;0,750000;0,625000;0,625000;0,666667;0,666667;
123;;;;;;;;;;;;;;;;;;;;;;;;;;;;;;;;;;;;;;;;;;;;;;;;;;;;;;;;;;;;;;;;;;;;;;;;;;;;;;;;;;;;;;;;;;;;;;;;;;;;;;;;;;;;;;;;;;;;;;;;;;;1,000000;0,500000;0,500000;0,750000;0,500000;0,375000;0,375000;0,416667;0,416667;
124;;;;;;;;;;;;;;;;;;;;;;;;;;;;;;;;;;;;;;;;;;;;;;;;;;;;;;;;;;;;;;;;;;;;;;;;;;;;;;;;;;;;;;;;;;;;;;;;;;;;;;;;;;;;;;;;;;;;;;;;;;;;1,000000;0,500000;0,750000;0,500000;0,375000;0,375000;0,416667;0,416667;
125;;;;;;;;;;;;;;;;;;;;;;;;;;;;;;;;;;;;;;;;;;;;;;;;;;;;;;;;;;;;;;;;;;;;;;;;;;;;;;;;;;;;;;;;;;;;;;;;;;;;;;;;;;;;;;;;;;;;;;;;;;;;;1,000000;0,750000;0,500000;0,375000;0,375000;0,416667;0,416667;
126;;;;;;;;;;;;;;;;;;;;;;;;;;;;;;;;;;;;;;;;;;;;;;;;;;;;;;;;;;;;;;;;;;;;;;;;;;;;;;;;;;;;;;;;;;;;;;;;;;;;;;;;;;;;;;;;;;;;;;;;;;;;;;1,000000;0,750000;0,625000;0,625000;0,666667;0,666667;
127;;;;;;;;;;;;;;;;;;;;;;;;;;;;;;;;;;;;;;;;;;;;;;;;;;;;;;;;;;;;;;;;;;;;;;;;;;;;;;;;;;;;;;;;;;;;;;;;;;;;;;;;;;;;;;;;;;;;;;;;;;;;;;;1,000000;0,375000;0,375000;0,416667;0,416667;
128;;;;;;;;;;;;;;;;;;;;;;;;;;;;;;;;;;;;;;;;;;;;;;;;;;;;;;;;;;;;;;;;;;;;;;;;;;;;;;;;;;;;;;;;;;;;;;;;;;;;;;;;;;;;;;;;;;;;;;;;;;;;;;;;1,000000;0,750000;0,291667;0,291667;
129;;;;;;;;;;;;;;;;;;;;;;;;;;;;;;;;;;;;;;;;;;;;;;;;;;;;;;;;;;;;;;;;;;;;;;;;;;;;;;;;;;;;;;;;;;;;;;;;;;;;;;;;;;;;;;;;;;;;;;;;;;;;;;;;;1,000000;0,291667;0,291667;
130;;;;;;;;;;;;;;;;;;;;;;;;;;;;;;;;;;;;;;;;;;;;;;;;;;;;;;;;;;;;;;;;;;;;;;;;;;;;;;;;;;;;;;;;;;;;;;;;;;;;;;;;;;;;;;;;;;;;;;;;;;;;;;;;;;1,000000;0,666667;
131;;;;;;;;;;;;;;;;;;;;;;;;;;;;;;;;;;;;;;;;;;;;;;;;;;;;;;;;;;;;;;;;;;;;;;;;;;;;;;;;;;;;;;;;;;;;;;;;;;;;;;;;;;;;;;;;;;;;;;;;;;;;;;;;;;;1,000000;
