;1; 2; 3; 4; 5; 6; 7; 8; 9; 10; 11; 12; 13; 14; 15; 16; 17; 18; 19; 20; 21; 22; 23; 24; 25; 26; 27; 28; 29; 30; 31; 32; 33; 34; 35; 36; 37; 38; 39; 40; 41; 42; 43; 44; 45; 46; 47; 48; 49; 50; 51; 52; 53; 54; 55; 56; 57; 58; 59; 60; 61; 62; 63; 64; 65; 66; 67; 68; 69; 70; 71
1;1,000000;0,500000;0,494912;0,490474;0,764449;0,755769;0,000000;0,000000;0,700000;0,000000;0,000000;0,000000;0,000000;0,470588;0,000000;0,000000;0,696367;0,696367;0,000000;0,000000;0,000000;0,000000;0,000000;0,000000;0,000000;0,000000;0,000000;0,000000;0,000000;0,000000;0,000000;0,000000;0,000000;0,000000;0,585256;0,585256;0,000000;0,000000;0,000000;0,000000;0,500000;0,000000;0,000000;0,000000;0,000000;0,000000;0,000000;0,000000;0,000000;0,000000;0,000000;0,500000;0,000000;0,000000;0,000000;0,000000;0,000000;0,000000;0,333333;0,333333;0,333333;0,000000;0,000000;0,000000;0,000000;0,000000;0,000000;0,000000;0,000000;0,000000;0,000000;
2;;1,000000;0,500000;0,960242;0,492736;0,500000;0,000000;0,000000;0,625000;0,000000;0,000000;0,000000;0,000000;0,484375;0,000000;0,000000;0,416667;0,416667;0,000000;0,000000;0,000000;0,000000;0,000000;0,000000;0,000000;0,000000;0,000000;0,000000;0,000000;0,000000;0,000000;0,000000;0,000000;0,000000;0,375000;0,375000;0,000000;0,000000;0,000000;0,000000;0,500000;0,000000;0,000000;0,000000;0,000000;0,000000;0,000000;0,000000;0,000000;0,000000;0,000000;0,000000;0,000000;0,000000;0,000000;0,000000;0,000000;0,000000;0,375000;0,375000;0,375000;0,000000;0,000000;0,000000;0,000000;0,000000;0,000000;0,000000;0,000000;0,000000;0,000000;
3;;;1,000000;0,560104;0,584115;0,494912;0,000000;0,000000;0,000000;0,300203;0,250000;0,000000;0,250000;0,750000;0,250000;0,371429;0,673251;0,673251;0,000000;0,462500;0,000000;0,473684;0,000000;0,000000;0,000000;0,000000;0,000000;0,000000;0,000000;0,000000;0,000000;0,000000;0,000000;0,000000;0,753627;0,753627;0,284510;0,376314;0,000000;0,000000;0,500000;0,000000;0,000000;0,000000;0,000000;0,000000;0,000000;0,000000;0,000000;0,486111;0,000000;0,988066;0,000000;0,000000;0,000000;0,000000;0,000000;0,000000;0,750000;0,750000;0,750000;0,000000;0,000000;0,250000;0,328704;0,000000;0,000000;0,000000;0,000000;0,000000;0,000000;
4;;;;1,000000;0,560923;0,490474;0,000000;0,000000;0,886664;0,000000;0,000000;0,000000;0,000000;0,351844;0,000000;0,000000;0,674062;0,674062;0,000000;0,000000;0,000000;0,000000;0,000000;0,000000;0,000000;0,000000;0,000000;0,000000;0,000000;0,000000;0,000000;0,000000;0,000000;0,000000;0,753149;0,753149;0,000000;0,000000;0,000000;0,000000;0,960242;0,000000;0,000000;0,000000;0,000000;0,000000;0,000000;0,000000;0,000000;0,000000;0,000000;0,494408;0,000000;0,000000;0,000000;0,000000;0,000000;0,000000;0,264102;0,264102;0,264102;0,000000;0,000000;0,000000;0,000000;0,000000;0,000000;0,000000;0,000000;0,000000;0,000000;
5;;;;;1,000000;0,764449;0,000000;0,000000;0,866176;0,000000;0,000000;0,000000;0,000000;0,352058;0,000000;0,000000;0,679501;0,679501;0,000000;0,000000;0,000000;0,000000;0,000000;0,000000;0,000000;0,000000;0,000000;0,000000;0,000000;0,000000;0,000000;0,000000;0,000000;0,000000;0,758181;0,758181;0,000000;0,000000;0,000000;0,000000;0,492736;0,000000;0,000000;0,000000;0,000000;0,000000;0,000000;0,000000;0,000000;0,000000;0,000000;0,493391;0,000000;0,000000;0,000000;0,000000;0,000000;0,000000;0,265463;0,265463;0,265463;0,000000;0,000000;0,000000;0,000000;0,000000;0,000000;0,000000;0,000000;0,000000;0,000000;
6;;;;;;1,000000;0,000000;0,000000;0,700000;0,000000;0,000000;0,000000;0,000000;0,470588;0,000000;0,000000;0,696367;0,696367;0,000000;0,000000;0,000000;0,000000;0,000000;0,000000;0,000000;0,000000;0,000000;0,000000;0,000000;0,000000;0,000000;0,000000;0,000000;0,000000;0,585256;0,585256;0,000000;0,000000;0,000000;0,000000;0,500000;0,000000;0,000000;0,000000;0,000000;0,000000;0,000000;0,000000;0,000000;0,000000;0,000000;0,500000;0,000000;0,000000;0,000000;0,000000;0,000000;0,000000;0,333333;0,333333;0,333333;0,000000;0,000000;0,000000;0,000000;0,000000;0,000000;0,000000;0,000000;0,000000;0,000000;
7;;;;;;;1,000000;0,000000;0,000000;0,000000;0,000000;0,000000;0,000000;0,000000;0,000000;0,000000;0,000000;0,000000;0,000000;0,000000;0,000000;0,000000;0,000000;0,000000;0,000000;0,000000;0,000000;0,000000;0,000000;0,000000;0,000000;0,000000;0,000000;0,000000;0,000000;0,000000;0,000000;0,000000;0,000000;0,000000;0,000000;0,000000;0,000000;0,000000;0,000000;0,000000;0,000000;0,000000;0,000000;0,000000;0,000000;0,000000;0,000000;0,000000;0,000000;0,000000;0,000000;0,000000;0,000000;0,000000;0,000000;0,000000;0,000000;0,000000;0,000000;0,000000;0,000000;0,000000;0,000000;0,000000;0,000000;
8;;;;;;;;1,000000;0,000000;0,000000;0,000000;0,000000;0,000000;0,000000;0,000000;0,000000;0,000000;0,000000;0,000000;0,000000;0,000000;0,000000;0,000000;0,000000;0,000000;0,000000;0,000000;0,000000;0,000000;0,000000;0,000000;0,000000;0,000000;0,000000;0,000000;0,000000;0,000000;0,000000;0,000000;0,000000;0,000000;0,000000;0,000000;0,000000;0,000000;0,000000;0,000000;0,000000;0,000000;0,000000;0,000000;0,000000;0,000000;0,000000;0,000000;0,000000;0,000000;0,000000;0,000000;0,000000;0,000000;0,000000;0,000000;0,000000;0,000000;0,000000;0,000000;0,000000;0,000000;0,000000;0,000000;
9;;;;;;;;;1,000000;0,000000;0,000000;0,000000;0,000000;0,875000;0,000000;0,000000;0,500000;0,500000;0,000000;0,000000;0,000000;0,000000;0,000000;0,000000;0,000000;0,000000;0,000000;0,000000;0,000000;0,000000;0,000000;0,000000;0,000000;0,000000;0,437500;0,437500;0,000000;0,000000;0,000000;0,000000;0,625000;0,000000;0,000000;0,000000;0,000000;0,000000;0,000000;0,000000;0,000000;0,000000;0,000000;0,000000;0,000000;0,000000;0,000000;0,000000;0,000000;0,000000;0,437500;0,437500;0,437500;0,000000;0,000000;0,000000;0,000000;0,000000;0,000000;0,000000;0,000000;0,000000;0,000000;
10;;;;;;;;;;1,000000;0,547292;0,496924;0,743838;0,574512;0,743838;0,618933;0,000000;0,000000;0,000000;0,494949;0,000000;0,496556;0,500000;0,500000;0,593965;0,497815;0,000000;0,665193;0,665193;0,000000;0,000000;0,000000;0,500000;0,500000;0,000000;0,000000;0,712561;0,593711;0,000000;0,498062;0,000000;0,500000;0,500000;0,000000;0,000000;0,000000;0,000000;0,500000;0,500000;0,498238;0,580769;0,000000;0,500212;0,500000;0,500000;0,500000;0,500000;0,000000;0,254052;0,254052;0,254052;0,603318;0,603318;0,746052;0,664079;0,670048;0,500000;0,665737;0,665737;0,500000;0,500000;
11;;;;;;;;;;;1,000000;0,453704;0,718869;0,574044;0,718869;0,663265;0,000000;0,000000;0,883333;0,785714;0,883333;0,833333;0,483333;0,483333;0,409579;0,483333;0,805556;0,350000;0,350000;0,000000;0,000000;0,000000;0,483333;0,483333;0,000000;0,000000;0,551427;0,656035;0,883333;0,483333;0,000000;0,483333;0,483333;0,000000;0,000000;0,000000;0,000000;0,483333;0,768423;0,900000;0,658133;0,000000;0,483333;0,464286;0,472222;0,483333;0,483333;0,883333;0,250000;0,250000;0,250000;0,409579;0,409579;0,500000;0,633333;0,350000;0,483333;0,350000;0,350000;0,483333;0,483333;
12;;;;;;;;;;;;1,000000;0,536293;0,650584;0,536293;0,433036;0,000000;0,000000;0,916667;0,500000;0,916667;0,500000;0,500000;0,500000;0,432882;0,500000;0,857143;0,361111;0,361111;0,000000;0,000000;0,000000;0,500000;0,500000;0,000000;0,000000;0,348979;0,447797;0,916667;0,952959;0,000000;0,500000;0,500000;0,000000;0,000000;0,000000;0,000000;0,953077;0,500000;0,500000;0,505067;0,000000;0,935366;0,500000;0,500000;0,500000;0,500000;0,916667;0,000000;0,000000;0,000000;0,432882;0,432882;0,291667;0,361111;0,361111;0,500000;0,657589;0,657589;0,500000;0,500000;
13;;;;;;;;;;;;;1,000000;0,733113;0,750000;0,571429;0,000000;0,000000;0,625000;0,625000;0,625000;0,666667;0,375000;0,375000;0,302012;0,375000;0,500000;0,291667;0,291667;0,000000;0,000000;0,000000;0,375000;0,375000;0,000000;0,000000;0,525714;0,562414;0,625000;0,750000;0,000000;0,375000;0,375000;0,000000;0,000000;0,000000;0,000000;0,375000;0,312500;0,750000;0,301824;0,000000;0,375000;0,312500;0,333333;0,375000;0,375000;0,625000;0,250000;0,250000;0,250000;0,302012;0,302012;0,500000;0,583333;0,291667;0,375000;0,291667;0,291667;0,375000;0,375000;
14;;;;;;;;;;;;;;1,000000;0,733113;0,604498;0,328125;0,328125;0,964015;0,487372;0,964015;0,491086;0,495265;0,495265;0,408176;0,495265;0,932263;0,339015;0,339015;0,000000;0,000000;0,000000;0,495265;0,495265;0,250000;0,250000;0,708780;0,581015;0,964015;0,965567;0,484375;0,495265;0,495265;0,000000;0,000000;0,000000;0,000000;0,495265;0,487372;0,495265;0,491249;0,000000;0,495265;0,487372;0,491086;0,495265;0,495265;0,964015;0,750000;0,750000;0,750000;0,408176;0,408176;0,739311;0,659722;0,339015;0,495265;0,339015;0,339015;0,495265;0,495265;
15;;;;;;;;;;;;;;;1,000000;0,571429;0,000000;0,000000;0,625000;0,625000;0,625000;0,666667;0,375000;0,375000;0,302012;0,375000;0,500000;0,291667;0,291667;0,000000;0,000000;0,000000;0,375000;0,375000;0,000000;0,000000;0,525714;0,562414;0,625000;0,750000;0,000000;0,375000;0,375000;0,000000;0,000000;0,000000;0,000000;0,375000;0,312500;0,750000;0,301824;0,000000;0,375000;0,312500;0,333333;0,375000;0,375000;0,625000;0,250000;0,250000;0,250000;0,302012;0,302012;0,500000;0,583333;0,291667;0,375000;0,291667;0,291667;0,375000;0,375000;
16;;;;;;;;;;;;;;;;1,000000;0,000000;0,000000;0,848214;0,892857;0,848214;0,914286;0,473214;0,473214;0,400764;0,473214;0,757143;0,348214;0,348214;0,000000;0,000000;0,000000;0,473214;0,473214;0,000000;0,000000;0,782762;0,896232;0,848214;0,473214;0,000000;0,473214;0,473214;0,000000;0,000000;0,000000;0,000000;0,473214;0,446429;0,946429;0,442684;0,000000;0,473214;0,446429;0,457143;0,473214;0,473214;0,848214;0,285714;0,285714;0,285714;0,400764;0,400764;0,784232;0,696429;0,348214;0,473214;0,348214;0,348214;0,473214;0,473214;
17;;;;;;;;;;;;;;;;;1,000000;1,000000;0,000000;0,000000;0,000000;0,000000;0,000000;0,000000;0,000000;0,000000;0,000000;0,000000;0,000000;0,000000;0,000000;0,000000;0,000000;0,000000;0,875000;0,875000;0,000000;0,000000;0,000000;0,000000;0,416667;0,000000;0,000000;0,000000;0,000000;0,000000;0,000000;0,000000;0,000000;0,000000;0,000000;0,833333;0,000000;0,000000;0,000000;0,000000;0,000000;0,000000;0,291667;0,291667;0,291667;0,000000;0,000000;0,000000;0,000000;0,000000;0,000000;0,000000;0,000000;0,000000;0,000000;
18;;;;;;;;;;;;;;;;;;1,000000;0,000000;0,000000;0,000000;0,000000;0,000000;0,000000;0,000000;0,000000;0,000000;0,000000;0,000000;0,000000;0,000000;0,000000;0,000000;0,000000;0,875000;0,875000;0,000000;0,000000;0,000000;0,000000;0,416667;0,000000;0,000000;0,000000;0,000000;0,000000;0,000000;0,000000;0,000000;0,000000;0,000000;0,833333;0,000000;0,000000;0,000000;0,000000;0,000000;0,000000;0,291667;0,291667;0,291667;0,000000;0,000000;0,000000;0,000000;0,000000;0,000000;0,000000;0,000000;0,000000;0,000000;
19;;;;;;;;;;;;;;;;;;;1,000000;0,875000;1,000000;0,833333;0,750000;0,750000;0,802012;0,750000;1,000000;0,666667;0,666667;0,000000;0,000000;0,000000;0,750000;0,750000;0,000000;0,000000;0,762857;0,881207;1,000000;0,750000;0,000000;0,750000;0,750000;0,000000;0,000000;0,000000;0,000000;0,750000;0,875000;0,750000;0,901824;0,000000;0,750000;0,875000;0,833333;0,750000;0,750000;1,000000;0,000000;0,000000;0,000000;0,802012;0,802012;0,625000;0,666667;0,666667;0,750000;0,666667;0,666667;0,750000;0,750000;
20;;;;;;;;;;;;;;;;;;;;1,000000;0,875000;1,000000;0,500000;0,500000;0,443621;0,500000;0,800000;0,375000;0,375000;0,000000;0,000000;0,000000;0,500000;0,500000;0,000000;0,000000;0,746284;0,919458;0,875000;0,500000;0,000000;0,500000;0,500000;0,000000;0,000000;0,000000;0,000000;0,500000;0,500000;1,000000;0,503908;0,000000;0,500000;0,500000;0,500000;0,500000;0,500000;0,875000;0,312500;0,312500;0,312500;0,443621;0,443621;0,625000;0,750000;0,375000;0,500000;0,375000;0,375000;0,500000;0,500000;
21;;;;;;;;;;;;;;;;;;;;;1,000000;0,833333;0,750000;0,750000;0,802012;0,750000;1,000000;0,666667;0,666667;0,000000;0,000000;0,000000;0,750000;0,750000;0,000000;0,000000;0,762857;0,881207;1,000000;0,750000;0,000000;0,750000;0,750000;0,000000;0,000000;0,000000;0,000000;0,750000;0,875000;0,750000;0,901824;0,000000;0,750000;0,875000;0,833333;0,750000;0,750000;1,000000;0,000000;0,000000;0,000000;0,802012;0,802012;0,625000;0,666667;0,666667;0,750000;0,666667;0,666667;0,750000;0,750000;
22;;;;;;;;;;;;;;;;;;;;;;1,000000;0,500000;0,500000;0,453017;0,500000;0,750000;0,388889;0,388889;0,000000;0,000000;0,000000;0,500000;0,500000;0,000000;0,000000;0,788570;0,937357;0,833333;0,500000;0,000000;0,500000;0,500000;0,000000;0,000000;0,000000;0,000000;0,500000;0,500000;1,000000;0,503040;0,000000;0,500000;0,500000;0,500000;0,500000;0,500000;0,833333;0,333333;0,333333;0,333333;0,453017;0,453017;0,666667;0,777778;0,388889;0,500000;0,388889;0,388889;0,500000;0,500000;
23;;;;;;;;;;;;;;;;;;;;;;;1,000000;0,500000;0,468678;0,500000;0,666667;0,416667;0,416667;0,000000;0,000000;0,000000;0,500000;0,500000;0,000000;0,000000;0,429523;0,481207;0,750000;0,500000;0,000000;0,500000;0,500000;0,000000;0,000000;0,000000;0,000000;0,500000;0,500000;0,500000;0,501824;0,000000;0,500000;0,500000;0,500000;0,500000;0,500000;0,750000;0,000000;0,000000;0,000000;0,468678;0,468678;0,375000;0,416667;0,416667;0,500000;0,416667;0,416667;0,500000;0,500000;
24;;;;;;;;;;;;;;;;;;;;;;;;1,000000;0,468678;0,500000;0,666667;0,416667;0,416667;0,000000;0,000000;0,000000;0,500000;0,500000;0,000000;0,000000;0,429523;0,481207;0,750000;0,500000;0,000000;0,500000;0,500000;0,000000;0,000000;0,000000;0,000000;0,500000;0,500000;0,500000;0,501824;0,000000;0,500000;0,500000;0,500000;0,500000;0,500000;0,750000;0,000000;0,000000;0,000000;0,468678;0,468678;0,375000;0,416667;0,416667;0,500000;0,416667;0,416667;0,500000;0,500000;
25;;;;;;;;;;;;;;;;;;;;;;;;;1,000000;0,468678;0,703017;0,644643;0,644643;0,000000;0,000000;0,000000;0,468678;0,468678;0,000000;0,000000;0,347303;0,406035;0,802012;0,468678;0,000000;0,468678;0,468678;0,000000;0,000000;0,000000;0,000000;0,468678;0,443621;0,468678;0,440396;0,000000;0,468678;0,443621;0,453017;0,468678;0,468678;0,802012;0,000000;0,000000;0,000000;0,406035;0,406035;0,302012;0,357567;0,357567;0,468678;0,357567;0,357567;0,468678;0,468678;
26;;;;;;;;;;;;;;;;;;;;;;;;;;1,000000;0,666667;0,833333;0,833333;0,000000;0,000000;0,000000;0,500000;0,500000;0,000000;0,000000;0,429523;0,481207;0,750000;0,500000;0,000000;0,500000;0,500000;0,000000;0,000000;0,000000;0,000000;0,500000;0,500000;0,500000;0,501824;0,000000;0,500000;0,500000;0,500000;0,500000;0,500000;0,750000;0,000000;0,000000;0,000000;0,468678;0,468678;0,375000;0,416667;0,416667;0,500000;0,416667;0,416667;0,500000;0,500000;
27;;;;;;;;;;;;;;;;;;;;;;;;;;;1,000000;0,555556;0,555556;0,000000;0,000000;0,000000;0,666667;0,666667;0,000000;0,000000;0,644285;0,802012;1,000000;0,666667;0,000000;0,666667;0,666667;0,000000;0,000000;0,000000;0,000000;0,666667;0,800000;0,666667;0,836373;0,000000;0,666667;0,800000;0,750000;0,666667;0,666667;1,000000;0,000000;0,000000;0,000000;0,703017;0,703017;0,500000;0,555556;0,555556;0,666667;0,555556;0,555556;0,666667;0,666667;
28;;;;;;;;;;;;;;;;;;;;;;;;;;;;1,000000;0,666667;0,000000;0,000000;0,000000;0,416667;0,416667;0,000000;0,000000;0,318412;0,347874;0,666667;0,416667;0,000000;0,416667;0,416667;0,000000;0,000000;0,000000;0,000000;0,416667;0,375000;0,416667;0,368491;0,000000;0,416667;0,375000;0,388889;0,416667;0,416667;0,666667;0,000000;0,000000;0,000000;0,357567;0,357567;0,291667;0,333333;0,333333;0,416667;0,333333;0,333333;0,416667;0,416667;
29;;;;;;;;;;;;;;;;;;;;;;;;;;;;;1,000000;0,000000;0,000000;0,000000;0,416667;0,416667;0,000000;0,000000;0,318412;0,347874;0,666667;0,416667;0,000000;0,416667;0,416667;0,000000;0,000000;0,000000;0,000000;0,416667;0,375000;0,416667;0,368491;0,000000;0,416667;0,375000;0,388889;0,416667;0,416667;0,666667;0,000000;0,000000;0,000000;0,357567;0,357567;0,291667;0,333333;0,333333;0,416667;0,333333;0,333333;0,416667;0,416667;
30;;;;;;;;;;;;;;;;;;;;;;;;;;;;;;1,000000;0,500000;0,500000;0,000000;0,000000;0,000000;0,000000;0,000000;0,000000;0,000000;0,000000;0,000000;0,000000;0,000000;0,000000;0,000000;0,000000;0,000000;0,000000;0,000000;0,000000;0,000000;0,000000;0,000000;0,000000;0,000000;0,000000;0,000000;0,000000;0,000000;0,000000;0,000000;0,000000;0,000000;0,000000;0,000000;0,000000;0,000000;0,000000;0,000000;0,000000;0,000000;
31;;;;;;;;;;;;;;;;;;;;;;;;;;;;;;;1,000000;0,500000;0,000000;0,000000;0,000000;0,000000;0,000000;0,000000;0,000000;0,000000;0,000000;0,000000;0,000000;0,000000;0,000000;0,000000;0,000000;0,000000;0,000000;0,000000;0,000000;0,000000;0,000000;0,000000;0,000000;0,000000;0,000000;0,000000;0,000000;0,000000;0,000000;0,000000;0,000000;0,000000;0,000000;0,000000;0,000000;0,000000;0,000000;0,000000;0,000000;
32;;;;;;;;;;;;;;;;;;;;;;;;;;;;;;;;1,000000;0,000000;0,000000;0,000000;0,000000;0,000000;0,000000;0,000000;0,000000;0,000000;0,000000;0,000000;0,000000;0,000000;0,000000;0,000000;0,000000;0,000000;0,000000;0,000000;0,000000;0,000000;0,000000;0,000000;0,000000;0,000000;0,000000;0,000000;0,000000;0,000000;0,000000;0,000000;0,000000;0,000000;0,000000;0,000000;0,000000;0,000000;0,000000;0,000000;
33;;;;;;;;;;;;;;;;;;;;;;;;;;;;;;;;;1,000000;0,500000;0,000000;0,000000;0,429523;0,481207;0,750000;0,500000;0,000000;0,500000;0,500000;0,000000;0,000000;0,000000;0,000000;0,500000;0,500000;0,500000;0,501824;0,000000;0,500000;0,500000;0,500000;0,500000;0,500000;0,750000;0,000000;0,000000;0,000000;0,468678;0,468678;0,375000;0,416667;0,416667;0,500000;0,416667;0,416667;0,500000;0,500000;
34;;;;;;;;;;;;;;;;;;;;;;;;;;;;;;;;;;1,000000;0,000000;0,000000;0,429523;0,481207;0,750000;0,500000;0,000000;0,500000;0,500000;0,000000;0,000000;0,000000;0,000000;0,500000;0,500000;0,500000;0,501824;0,000000;0,500000;0,500000;0,500000;0,500000;0,500000;0,750000;0,000000;0,000000;0,000000;0,468678;0,468678;0,375000;0,416667;0,416667;0,500000;0,416667;0,416667;0,500000;0,500000;
35;;;;;;;;;;;;;;;;;;;;;;;;;;;;;;;;;;;1,000000;0,750000;0,000000;0,000000;0,000000;0,000000;0,375000;0,000000;0,000000;0,000000;0,000000;0,000000;0,000000;0,000000;0,000000;0,000000;0,000000;0,750000;0,000000;0,000000;0,000000;0,000000;0,000000;0,000000;0,250000;0,250000;0,250000;0,000000;0,000000;0,000000;0,000000;0,000000;0,000000;0,000000;0,000000;0,000000;0,000000;
36;;;;;;;;;;;;;;;;;;;;;;;;;;;;;;;;;;;;1,000000;0,000000;0,000000;0,000000;0,000000;0,375000;0,000000;0,000000;0,000000;0,000000;0,000000;0,000000;0,000000;0,000000;0,000000;0,000000;0,750000;0,000000;0,000000;0,000000;0,000000;0,000000;0,000000;0,250000;0,250000;0,250000;0,000000;0,000000;0,000000;0,000000;0,000000;0,000000;0,000000;0,000000;0,000000;0,000000;
37;;;;;;;;;;;;;;;;;;;;;;;;;;;;;;;;;;;;;1,000000;0,655450;0,762857;0,429523;0,000000;0,429523;0,429523;0,000000;0,000000;0,000000;0,000000;0,429523;0,373142;0,859047;0,362087;0,000000;0,429523;0,373142;0,394285;0,429523;0,429523;0,762857;0,262857;0,262857;0,262857;0,347303;0,347303;0,737774;0,914097;0,318412;0,429523;0,318412;0,318412;0,429523;0,429523;
38;;;;;;;;;;;;;;;;;;;;;;;;;;;;;;;;;;;;;;1,000000;0,881207;0,481207;0,000000;0,481207;0,481207;0,000000;0,000000;0,000000;0,000000;0,481207;0,459729;0,962414;0,457577;0,000000;0,481207;0,459729;0,468678;0,481207;0,481207;0,881207;0,281207;0,281207;0,281207;0,406035;0,406035;0,781727;0,695747;0,347874;0,481207;0,347874;0,347874;0,481207;0,481207;
39;;;;;;;;;;;;;;;;;;;;;;;;;;;;;;;;;;;;;;;1,000000;0,750000;0,000000;0,750000;0,750000;0,000000;0,000000;0,000000;0,000000;0,750000;0,875000;0,750000;0,901824;0,000000;0,750000;0,875000;0,833333;0,750000;0,750000;1,000000;0,000000;0,000000;0,000000;0,802012;0,802012;0,625000;0,666667;0,666667;0,750000;0,666667;0,666667;0,750000;0,750000;
40;;;;;;;;;;;;;;;;;;;;;;;;;;;;;;;;;;;;;;;;1,000000;0,000000;0,500000;0,500000;0,000000;0,000000;0,000000;0,000000;0,500000;0,500000;0,500000;0,501824;0,000000;0,500000;0,500000;0,500000;0,500000;0,500000;0,750000;0,000000;0,000000;0,000000;0,468678;0,468678;0,375000;0,416667;0,416667;0,500000;0,416667;0,416667;0,500000;0,500000;
41;;;;;;;;;;;;;;;;;;;;;;;;;;;;;;;;;;;;;;;;;1,000000;0,000000;0,000000;0,000000;0,000000;0,000000;0,000000;0,000000;0,000000;0,000000;0,000000;0,000000;0,000000;0,000000;0,000000;0,000000;0,000000;0,000000;0,375000;0,375000;0,375000;0,000000;0,000000;0,000000;0,000000;0,000000;0,000000;0,000000;0,000000;0,000000;0,000000;
42;;;;;;;;;;;;;;;;;;;;;;;;;;;;;;;;;;;;;;;;;;1,000000;0,500000;0,000000;0,000000;0,000000;0,000000;0,500000;0,500000;0,500000;0,501824;0,000000;0,500000;0,500000;0,500000;0,500000;0,500000;0,750000;0,000000;0,000000;0,000000;0,468678;0,468678;0,375000;0,416667;0,416667;0,500000;0,416667;0,416667;0,500000;0,500000;
43;;;;;;;;;;;;;;;;;;;;;;;;;;;;;;;;;;;;;;;;;;;1,000000;0,000000;0,000000;0,000000;0,000000;0,500000;0,500000;0,500000;0,501824;0,000000;0,500000;0,500000;0,500000;0,500000;0,500000;0,750000;0,000000;0,000000;0,000000;0,468678;0,468678;0,375000;0,416667;0,416667;0,500000;0,416667;0,416667;0,500000;0,500000;
44;;;;;;;;;;;;;;;;;;;;;;;;;;;;;;;;;;;;;;;;;;;;1,000000;0,666667;0,666667;0,666667;0,000000;0,000000;0,000000;0,000000;0,000000;0,000000;0,000000;0,000000;0,000000;0,000000;0,000000;0,000000;0,000000;0,000000;0,000000;0,000000;0,000000;0,000000;0,000000;0,000000;0,000000;0,000000;0,000000;0,000000;
45;;;;;;;;;;;;;;;;;;;;;;;;;;;;;;;;;;;;;;;;;;;;;1,000000;0,666667;0,666667;0,000000;0,000000;0,000000;0,000000;0,000000;0,000000;0,000000;0,000000;0,000000;0,000000;0,000000;0,000000;0,000000;0,000000;0,000000;0,000000;0,000000;0,000000;0,000000;0,000000;0,000000;0,000000;0,000000;0,000000;
46;;;;;;;;;;;;;;;;;;;;;;;;;;;;;;;;;;;;;;;;;;;;;;1,000000;0,666667;0,000000;0,000000;0,000000;0,000000;0,000000;0,000000;0,000000;0,000000;0,000000;0,000000;0,000000;0,000000;0,000000;0,000000;0,000000;0,000000;0,000000;0,000000;0,000000;0,000000;0,000000;0,000000;0,000000;0,000000;
47;;;;;;;;;;;;;;;;;;;;;;;;;;;;;;;;;;;;;;;;;;;;;;;1,000000;0,000000;0,000000;0,000000;0,000000;0,000000;0,000000;0,000000;0,000000;0,000000;0,000000;0,000000;0,000000;0,000000;0,000000;0,000000;0,000000;0,000000;0,000000;0,000000;0,000000;0,000000;0,000000;0,000000;0,000000;
48;;;;;;;;;;;;;;;;;;;;;;;;;;;;;;;;;;;;;;;;;;;;;;;;1,000000;0,500000;0,500000;0,501824;0,000000;0,500000;0,500000;0,500000;0,500000;0,500000;0,750000;0,000000;0,000000;0,000000;0,468678;0,468678;0,375000;0,416667;0,416667;0,500000;0,416667;0,416667;0,500000;0,500000;
49;;;;;;;;;;;;;;;;;;;;;;;;;;;;;;;;;;;;;;;;;;;;;;;;;1,000000;0,500000;0,765473;0,000000;0,500000;0,500000;0,500000;0,500000;0,500000;0,875000;0,000000;0,000000;0,000000;0,443621;0,443621;0,312500;0,375000;0,375000;0,500000;0,375000;0,375000;0,500000;0,500000;
50;;;;;;;;;;;;;;;;;;;;;;;;;;;;;;;;;;;;;;;;;;;;;;;;;;1,000000;0,501824;0,000000;0,500000;0,500000;0,500000;0,500000;0,500000;0,750000;0,375000;0,375000;0,375000;0,468678;0,468678;0,750000;0,833333;0,416667;0,500000;0,416667;0,416667;0,500000;0,500000;
51;;;;;;;;;;;;;;;;;;;;;;;;;;;;;;;;;;;;;;;;;;;;;;;;;;;1,000000;0,000000;0,501824;0,503908;0,503040;0,501824;0,501824;0,901824;0,000000;0,000000;0,000000;0,440396;0,440396;0,301824;0,368491;0,368491;0,501824;0,658380;0,658380;0,501824;0,501824;
52;;;;;;;;;;;;;;;;;;;;;;;;;;;;;;;;;;;;;;;;;;;;;;;;;;;;1,000000;0,000000;0,000000;0,000000;0,000000;0,000000;0,000000;0,000000;0,000000;0,000000;0,000000;0,000000;0,000000;0,000000;0,000000;0,000000;0,000000;0,000000;0,000000;0,000000;
53;;;;;;;;;;;;;;;;;;;;;;;;;;;;;;;;;;;;;;;;;;;;;;;;;;;;;1,000000;0,500000;0,500000;0,500000;0,500000;0,750000;0,000000;0,000000;0,000000;0,468678;0,468678;0,375000;0,416667;0,416667;0,500000;0,833333;0,833333;0,500000;0,500000;
54;;;;;;;;;;;;;;;;;;;;;;;;;;;;;;;;;;;;;;;;;;;;;;;;;;;;;;1,000000;0,500000;0,500000;0,500000;0,875000;0,000000;0,000000;0,000000;0,443621;0,443621;0,312500;0,375000;0,375000;0,500000;0,375000;0,375000;0,500000;0,500000;
55;;;;;;;;;;;;;;;;;;;;;;;;;;;;;;;;;;;;;;;;;;;;;;;;;;;;;;;1,000000;0,500000;0,500000;0,833333;0,000000;0,000000;0,000000;0,453017;0,453017;0,333333;0,388889;0,388889;1,000000;0,388889;0,388889;0,500000;0,500000;
56;;;;;;;;;;;;;;;;;;;;;;;;;;;;;;;;;;;;;;;;;;;;;;;;;;;;;;;;1,000000;0,500000;0,750000;0,000000;0,000000;0,000000;0,468678;0,468678;0,375000;0,416667;0,416667;0,500000;0,416667;0,416667;0,500000;0,500000;
57;;;;;;;;;;;;;;;;;;;;;;;;;;;;;;;;;;;;;;;;;;;;;;;;;;;;;;;;;1,000000;0,750000;0,000000;0,000000;0,000000;0,468678;0,468678;0,375000;0,416667;0,416667;0,500000;0,416667;0,416667;0,500000;0,500000;
58;;;;;;;;;;;;;;;;;;;;;;;;;;;;;;;;;;;;;;;;;;;;;;;;;;;;;;;;;;1,000000;0,000000;0,000000;0,000000;0,802012;0,802012;0,625000;0,666667;0,666667;0,750000;0,666667;0,666667;0,750000;0,750000;
59;;;;;;;;;;;;;;;;;;;;;;;;;;;;;;;;;;;;;;;;;;;;;;;;;;;;;;;;;;;1,000000;0,750000;0,750000;0,000000;0,000000;0,250000;0,291667;0,000000;0,000000;0,000000;0,000000;0,000000;0,000000;
60;;;;;;;;;;;;;;;;;;;;;;;;;;;;;;;;;;;;;;;;;;;;;;;;;;;;;;;;;;;;1,000000;0,750000;0,000000;0,000000;0,250000;0,291667;0,000000;0,000000;0,000000;0,000000;0,000000;0,000000;
61;;;;;;;;;;;;;;;;;;;;;;;;;;;;;;;;;;;;;;;;;;;;;;;;;;;;;;;;;;;;;1,000000;0,000000;0,000000;0,250000;0,291667;0,000000;0,000000;0,000000;0,000000;0,000000;0,000000;
62;;;;;;;;;;;;;;;;;;;;;;;;;;;;;;;;;;;;;;;;;;;;;;;;;;;;;;;;;;;;;;1,000000;0,600597;0,302012;0,357567;0,715134;0,468678;0,357567;0,357567;0,468678;0,468678;
63;;;;;;;;;;;;;;;;;;;;;;;;;;;;;;;;;;;;;;;;;;;;;;;;;;;;;;;;;;;;;;;1,000000;0,302012;0,357567;0,715134;0,468678;0,357567;0,357567;0,468678;0,468678;
64;;;;;;;;;;;;;;;;;;;;;;;;;;;;;;;;;;;;;;;;;;;;;;;;;;;;;;;;;;;;;;;;1,000000;0,583333;0,291667;0,375000;0,291667;0,291667;0,375000;0,375000;
65;;;;;;;;;;;;;;;;;;;;;;;;;;;;;;;;;;;;;;;;;;;;;;;;;;;;;;;;;;;;;;;;;1,000000;0,333333;0,416667;0,333333;0,333333;0,416667;0,416667;
66;;;;;;;;;;;;;;;;;;;;;;;;;;;;;;;;;;;;;;;;;;;;;;;;;;;;;;;;;;;;;;;;;;1,000000;0,416667;0,333333;0,333333;0,416667;0,416667;
67;;;;;;;;;;;;;;;;;;;;;;;;;;;;;;;;;;;;;;;;;;;;;;;;;;;;;;;;;;;;;;;;;;;1,000000;0,416667;0,416667;0,500000;0,500000;
68;;;;;;;;;;;;;;;;;;;;;;;;;;;;;;;;;;;;;;;;;;;;;;;;;;;;;;;;;;;;;;;;;;;;1,000000;0,666667;0,416667;0,416667;
69;;;;;;;;;;;;;;;;;;;;;;;;;;;;;;;;;;;;;;;;;;;;;;;;;;;;;;;;;;;;;;;;;;;;;1,000000;0,416667;0,416667;
70;;;;;;;;;;;;;;;;;;;;;;;;;;;;;;;;;;;;;;;;;;;;;;;;;;;;;;;;;;;;;;;;;;;;;;1,000000;0,500000;
71;;;;;;;;;;;;;;;;;;;;;;;;;;;;;;;;;;;;;;;;;;;;;;;;;;;;;;;;;;;;;;;;;;;;;;;1,000000;
