;1; 2; 3; 4; 5; 6; 7; 8; 9; 10; 11; 12; 13; 14; 15; 16; 17; 18; 19; 20; 21; 22; 23; 24; 25; 26; 27; 28; 29; 30; 31; 32; 33; 34; 35; 36; 37
1;1,000000;0,522627;0,581312;0,606623;0,591500;0,548051;0,504480;0,502906;0,413094;0,372959;0,374483;0,505812;0,505812;0,633433;0,435338;0,435338;0,435338;0,435338;0,583563;0,505002;0,533409;0,359689;0,359689;0,359689;0,372959;0,594025;0,594025;0,570764;0,000000;0,000000;0,532291;0,413094;0,413094;0,501172;0,501172;0,551481;0,551481;
2;;1,000000;0,539613;0,654259;0,632911;0,613902;0,563727;0,562193;0,464763;0,568897;0,568897;0,559817;0,559817;0,504519;0,419556;0,419556;0,419556;0,419556;0,646761;0,558720;0,588238;0,381429;0,381429;0,381429;0,568897;0,660907;0,660907;0,632665;0,714763;0,714763;0,568897;0,464763;0,464763;0,554010;0,554010;0,606378;0,606378;
3;;;1,000000;0,617255;0,681413;0,572549;0,627194;0,725228;0,739215;0,562026;0,562360;0,572549;0,572549;0,411157;0,253456;0,253456;0,253456;0,253456;0,681413;0,572549;0,527786;0,320123;0,320123;0,320123;0,562026;0,489215;0,489215;0,489215;0,653456;0,653456;0,572549;0,739215;0,739215;0,572549;0,572549;0,489215;0,489215;
4;;;;1,000000;0,747858;0,601928;0,656573;0,721516;0,768594;0,573185;0,573185;0,601928;0,601928;0,539826;0,234297;0,234297;0,234297;0,234297;0,677507;0,601928;0,557165;0,300964;0,300964;0,300964;0,573185;0,518594;0,518594;0,677507;0,634297;0,634297;0,872858;0,768594;0,768594;0,601928;0,601928;0,518594;0,518594;
5;;;;;1,000000;0,583333;0,637979;0,793815;0,750000;0,583333;0,583333;0,583333;0,583333;0,421941;0,225000;0,225000;0,225000;0,225000;0,750000;0,583333;0,538570;0,291667;0,291667;0,291667;0,583333;0,500000;0,500000;0,500000;0,625000;0,625000;0,875000;0,750000;0,750000;0,583333;0,583333;0,500000;0,500000;
6;;;;;;1,000000;0,721312;0,726190;0,833333;0,333333;0,333333;0,666667;0,666667;0,505275;0,266667;0,266667;0,266667;0,266667;0,583333;0,666667;0,621904;0,333333;0,333333;0,333333;0,333333;0,875000;0,875000;0,583333;0,666667;0,666667;0,666667;0,833333;0,833333;0,666667;0,666667;0,583333;0,583333;
7;;;;;;;1,000000;0,780836;0,887979;0,360656;0,360656;0,721312;0,721312;0,559920;0,293989;0,293989;0,293989;0,293989;0,637979;0,721312;0,676549;0,360656;0,360656;0,360656;0,360656;0,777137;0,777137;0,637979;0,693989;0,693989;0,721312;0,887979;0,887979;0,721312;0,721312;0,637979;0,637979;
8;;;;;;;;1,000000;0,892857;0,363095;0,363095;0,726190;0,726190;0,657015;0,424145;0,424145;0,424145;0,424145;0,793815;0,726190;0,681427;0,363095;0,363095;0,363095;0,363095;0,642857;0,642857;0,793758;0,696429;0,696429;0,726190;0,892857;0,892857;0,726190;0,726190;0,642857;0,642857;
9;;;;;;;;;1,000000;0,416667;0,416667;0,833333;0,833333;0,671941;0,350000;0,350000;0,350000;0,350000;0,750000;0,833333;0,788570;0,416667;0,416667;0,416667;0,416667;0,750000;0,750000;0,750000;0,750000;0,750000;0,833333;1,000000;1,000000;0,833333;0,833333;0,750000;0,750000;
10;;;;;;;;;;1,000000;0,666667;0,333333;0,333333;0,278530;0,266667;0,266667;0,266667;0,266667;0,291667;0,333333;0,310952;0,333333;0,333333;0,333333;1,000000;0,291667;0,291667;0,291667;0,666667;0,666667;0,666667;0,416667;0,416667;0,333333;0,333333;0,291667;0,291667;
11;;;;;;;;;;;1,000000;0,333333;0,333333;0,278530;0,266667;0,266667;0,266667;0,266667;0,291667;0,333333;0,310952;0,333333;0,333333;0,333333;0,666667;0,291667;0,291667;0,291667;0,666667;0,666667;0,666667;0,416667;0,416667;0,333333;0,333333;0,291667;0,291667;
12;;;;;;;;;;;;1,000000;0,666667;0,505275;0,266667;0,266667;0,266667;0,266667;0,583333;0,666667;0,621904;0,333333;0,333333;0,333333;0,333333;0,583333;0,583333;0,583333;0,666667;0,666667;0,666667;0,833333;0,833333;0,666667;0,666667;0,583333;0,583333;
13;;;;;;;;;;;;;1,000000;0,505275;0,266667;0,266667;0,266667;0,266667;0,583333;0,666667;0,621904;0,333333;0,333333;0,333333;0,333333;0,583333;0,583333;0,583333;0,666667;0,666667;0,666667;0,833333;0,833333;0,666667;0,666667;0,583333;0,583333;
14;;;;;;;;;;;;;;1,000000;0,692802;0,692802;0,692802;0,692802;0,612319;0,505275;0,460512;0,278530;0,278530;0,278530;0,278530;0,421941;0,421941;0,612319;0,611863;0,611863;0,505275;0,671941;0,671941;0,505275;0,505275;0,421941;0,421941;
15;;;;;;;;;;;;;;;1,000000;0,800000;0,800000;0,800000;0,225000;0,266667;0,244285;0,266667;0,266667;0,266667;0,266667;0,225000;0,225000;0,450000;0,600000;0,600000;0,266667;0,350000;0,350000;0,266667;0,266667;0,225000;0,225000;
16;;;;;;;;;;;;;;;;1,000000;0,800000;0,800000;0,225000;0,266667;0,244285;0,266667;0,266667;0,266667;0,266667;0,225000;0,225000;0,450000;0,600000;0,600000;0,266667;0,350000;0,350000;0,266667;0,266667;0,225000;0,225000;
17;;;;;;;;;;;;;;;;;1,000000;0,800000;0,225000;0,266667;0,244285;0,266667;0,266667;0,266667;0,266667;0,225000;0,225000;0,450000;0,600000;0,600000;0,266667;0,350000;0,350000;0,266667;0,266667;0,225000;0,225000;
18;;;;;;;;;;;;;;;;;;1,000000;0,225000;0,266667;0,244285;0,266667;0,266667;0,266667;0,266667;0,225000;0,225000;0,450000;0,600000;0,600000;0,266667;0,350000;0,350000;0,266667;0,266667;0,225000;0,225000;
19;;;;;;;;;;;;;;;;;;;1,000000;0,583333;0,538570;0,291667;0,291667;0,291667;0,291667;0,500000;0,500000;0,750000;0,625000;0,625000;0,583333;0,750000;0,750000;0,583333;0,583333;0,500000;0,500000;
20;;;;;;;;;;;;;;;;;;;;1,000000;0,621904;0,333333;0,333333;0,333333;0,333333;0,583333;0,583333;0,583333;0,666667;0,666667;0,666667;0,833333;0,833333;0,666667;0,666667;0,875000;0,875000;
21;;;;;;;;;;;;;;;;;;;;;1,000000;0,310952;0,310952;0,310952;0,310952;0,538570;0,538570;0,538570;0,644285;0,644285;0,621904;0,788570;0,788570;0,621904;0,621904;0,731675;0,731675;
22;;;;;;;;;;;;;;;;;;;;;;1,000000;0,666667;0,666667;0,333333;0,291667;0,291667;0,291667;0,666667;0,666667;0,333333;0,416667;0,416667;0,333333;0,333333;0,291667;0,291667;
23;;;;;;;;;;;;;;;;;;;;;;;1,000000;0,666667;0,333333;0,291667;0,291667;0,291667;0,666667;0,666667;0,333333;0,416667;0,416667;0,333333;0,333333;0,291667;0,291667;
24;;;;;;;;;;;;;;;;;;;;;;;;1,000000;0,333333;0,291667;0,291667;0,291667;0,666667;0,666667;0,333333;0,416667;0,416667;0,333333;0,333333;0,291667;0,291667;
25;;;;;;;;;;;;;;;;;;;;;;;;;1,000000;0,291667;0,291667;0,291667;0,666667;0,666667;0,666667;0,416667;0,416667;0,333333;0,333333;0,291667;0,291667;
26;;;;;;;;;;;;;;;;;;;;;;;;;;1,000000;0,750000;0,500000;0,625000;0,625000;0,583333;0,750000;0,750000;0,583333;0,583333;0,500000;0,500000;
27;;;;;;;;;;;;;;;;;;;;;;;;;;;1,000000;0,500000;0,625000;0,625000;0,583333;0,750000;0,750000;0,583333;0,583333;0,500000;0,500000;
28;;;;;;;;;;;;;;;;;;;;;;;;;;;;1,000000;0,625000;0,625000;0,583333;0,750000;0,750000;0,583333;0,583333;0,500000;0,500000;
29;;;;;;;;;;;;;;;;;;;;;;;;;;;;;1,000000;1,000000;0,666667;0,750000;0,750000;0,666667;0,666667;0,625000;0,625000;
30;;;;;;;;;;;;;;;;;;;;;;;;;;;;;;1,000000;0,666667;0,750000;0,750000;0,666667;0,666667;0,625000;0,625000;
31;;;;;;;;;;;;;;;;;;;;;;;;;;;;;;;1,000000;0,833333;0,833333;0,666667;0,666667;0,583333;0,583333;
32;;;;;;;;;;;;;;;;;;;;;;;;;;;;;;;;1,000000;1,000000;0,833333;0,833333;0,750000;0,750000;
33;;;;;;;;;;;;;;;;;;;;;;;;;;;;;;;;;1,000000;0,833333;0,833333;0,750000;0,750000;
34;;;;;;;;;;;;;;;;;;;;;;;;;;;;;;;;;;1,000000;0,666667;0,583333;0,583333;
35;;;;;;;;;;;;;;;;;;;;;;;;;;;;;;;;;;;1,000000;0,583333;0,583333;
36;;;;;;;;;;;;;;;;;;;;;;;;;;;;;;;;;;;;1,000000;0,750000;
37;;;;;;;;;;;;;;;;;;;;;;;;;;;;;;;;;;;;;1,000000;
