;1; 2; 3; 4; 5; 6; 7; 8; 9; 10; 11; 12; 13; 14; 15; 16; 17; 18; 19; 20; 21; 22; 23; 24; 25; 26; 27; 28; 29; 30; 31; 32; 33; 34; 35; 36; 37; 38; 39; 40; 41; 42; 43; 44; 45; 46; 47; 48; 49; 50; 51; 52; 53; 54; 55; 56; 57; 58; 59; 60; 61; 62; 63; 64; 65; 66; 67; 68; 69; 70; 71; 72; 73; 74; 75; 76; 77; 78
1;1,000000;0,529180;0,563823;0,537418;0,563823;0,000000;0,000000;0,259878;0,259878;0,590010;0,404984;0,362678;0,232759;0,389299;0,491328;0,531643;0,485571;0,482109;0,538758;0,547787;0,507808;0,547787;0,547787;0,560388;0,453683;0,531643;0,533755;0,479857;0,477145;0,557943;0,588351;0,000000;0,000000;0,000000;0,000000;0,000000;0,531643;0,577575;0,434258;0,434258;0,434258;0,588351;0,400076;0,443717;0,499410;0,379081;0,410651;0,400512;0,379081;0,333557;0,264299;0,264299;0,264299;0,553020;0,550554;0,554611;0,554611;0,389299;0,413303;0,412690;0,413429;0,412690;0,412690;0,477145;0,423774;0,391559;0,391559;0,389299;0,389299;0,348293;0,348293;0,346998;0,346998;0,588351;0,000000;0,000000;0,000000;0,000000;
2;;1,000000;0,629256;0,604213;0,629256;0,000000;0,000000;0,443080;0,443080;0,397860;0,452804;0,529345;0,628297;0,443080;0,554489;0,606243;0,518104;0,539002;0,604332;0,600653;0,515452;0,600653;0,600653;0,545558;0,652442;0,606243;0,608944;0,535983;0,532365;0,634346;0,667884;0,000000;0,000000;0,000000;0,000000;0,000000;0,606243;0,643787;0,396012;0,396012;0,396012;0,667884;0,631307;0,498821;0,529345;0,400959;0,387059;0,318080;0,400959;0,421478;0,397518;0,397518;0,397518;0,619416;0,616149;0,621532;0,621532;0,443080;0,512025;0,446012;0,446012;0,446012;0,446012;0,532365;0,651435;0,398849;0,398849;0,443080;0,443080;0,359746;0,359746;0,528477;0,528477;0,667884;0,000000;0,000000;0,000000;0,000000;
3;;;1,000000;0,715236;0,777032;0,000000;0,000000;0,361863;0,361863;0,392149;0,258537;0,278530;0,405081;0,723727;0,607826;0,557060;0,600531;0,557060;0,748228;0,423727;0,409318;0,423727;0,423727;0,412042;0,473727;0,557060;0,557060;0,557060;0,557060;0,518280;0,473727;0,000000;0,000000;0,000000;0,000000;0,000000;0,557060;0,847454;0,211863;0,211863;0,211863;0,473727;0,256149;0,629762;0,557060;0,268113;0,236863;0,236863;0,268113;0,236863;0,236863;0,236863;0,236863;0,710590;0,710590;0,710590;0,710590;0,723727;0,254721;0,236863;0,236863;0,236863;0,236863;0,557060;0,443858;0,236863;0,236863;0,723727;0,723727;0,278530;0,278530;0,278530;0,278530;0,473727;0,000000;0,000000;0,000000;0,000000;
4;;;;1,000000;0,715236;0,000000;0,000000;0,400049;0,400049;0,468519;0,296722;0,316715;0,443266;0,800097;0,684196;0,633430;0,676901;0,633430;0,691581;0,500097;0,485688;0,500097;0,500097;0,488413;0,550097;0,633430;0,633430;0,633430;0,633430;0,594650;0,550097;0,000000;0,000000;0,000000;0,000000;0,000000;0,633430;0,737253;0,250049;0,250049;0,250049;0,550097;0,294334;0,706132;0,633430;0,306299;0,275049;0,275049;0,306299;0,275049;0,275049;0,275049;0,275049;0,714615;0,703443;0,721758;0,721758;0,800097;0,292906;0,275049;0,275049;0,275049;0,275049;0,633430;0,520228;0,275049;0,275049;0,800097;0,800097;0,316715;0,316715;0,316715;0,316715;0,550097;0,000000;0,000000;0,000000;0,000000;
5;;;;;1,000000;0,000000;0,000000;0,361863;0,361863;0,392149;0,258537;0,278530;0,405081;0,723727;0,607826;0,557060;0,600531;0,557060;0,748228;0,423727;0,409318;0,423727;0,423727;0,412042;0,473727;0,557060;0,557060;0,557060;0,557060;0,518280;0,473727;0,000000;0,000000;0,000000;0,000000;0,000000;0,557060;0,847454;0,211863;0,211863;0,211863;0,473727;0,256149;0,629762;0,557060;0,268113;0,236863;0,236863;0,268113;0,236863;0,236863;0,236863;0,236863;0,710590;0,710590;0,710590;0,710590;0,723727;0,254721;0,236863;0,236863;0,236863;0,236863;0,557060;0,443858;0,236863;0,236863;0,723727;0,723727;0,278530;0,278530;0,278530;0,278530;0,473727;0,000000;0,000000;0,000000;0,000000;
6;;;;;;1,000000;0,000000;0,000000;0,000000;0,000000;0,000000;0,000000;0,000000;0,000000;0,000000;0,000000;0,000000;0,000000;0,000000;0,000000;0,000000;0,000000;0,000000;0,000000;0,000000;0,000000;0,000000;0,000000;0,000000;0,000000;0,000000;0,000000;0,000000;0,000000;0,000000;0,000000;0,000000;0,000000;0,000000;0,000000;0,000000;0,000000;0,000000;0,000000;0,000000;0,000000;0,000000;0,000000;0,000000;0,000000;0,000000;0,000000;0,000000;0,000000;0,000000;0,000000;0,000000;0,000000;0,000000;0,000000;0,000000;0,000000;0,000000;0,000000;0,000000;0,000000;0,000000;0,000000;0,000000;0,000000;0,000000;0,000000;0,000000;0,000000;0,000000;0,000000;0,000000;0,000000;
7;;;;;;;1,000000;0,000000;0,000000;0,000000;0,000000;0,000000;0,000000;0,000000;0,000000;0,000000;0,000000;0,000000;0,000000;0,000000;0,000000;0,000000;0,000000;0,000000;0,000000;0,000000;0,000000;0,000000;0,000000;0,000000;0,000000;0,000000;0,000000;0,000000;0,000000;0,000000;0,000000;0,000000;0,000000;0,000000;0,000000;0,000000;0,000000;0,000000;0,000000;0,000000;0,000000;0,000000;0,000000;0,000000;0,000000;0,000000;0,000000;0,000000;0,000000;0,000000;0,000000;0,000000;0,000000;0,000000;0,000000;0,000000;0,000000;0,000000;0,000000;0,000000;0,000000;0,000000;0,000000;0,000000;0,000000;0,000000;0,000000;0,000000;0,000000;0,000000;0,000000;0,000000;
8;;;;;;;;1,000000;0,500000;0,403582;0,396673;0,416667;0,543218;0,500000;0,442050;0,416667;0,438402;0,416667;0,387546;0,350000;0,379175;0,350000;0,350000;0,413993;0,446429;0,416667;0,416667;0,416667;0,416667;0,397277;0,375000;0,000000;0,000000;0,000000;0,000000;0,000000;0,416667;0,350000;0,350000;0,350000;0,350000;0,375000;0,394285;0,453017;0,416667;0,406250;0,375000;0,375000;0,406250;0,000000;0,000000;0,000000;0,000000;0,375000;0,375000;0,375000;0,375000;0,500000;0,392857;0,375000;0,375000;0,375000;0,375000;0,416667;0,322191;0,000000;0,000000;0,500000;0,500000;0,416667;0,416667;0,416667;0,416667;0,375000;0,000000;0,000000;0,000000;0,000000;
9;;;;;;;;;1,000000;0,403582;0,396673;0,416667;0,543218;0,500000;0,442050;0,416667;0,438402;0,416667;0,387546;0,350000;0,379175;0,350000;0,350000;0,413993;0,446429;0,416667;0,416667;0,416667;0,416667;0,397277;0,375000;0,000000;0,000000;0,000000;0,000000;0,000000;0,416667;0,350000;0,350000;0,350000;0,350000;0,375000;0,394285;0,453017;0,416667;0,406250;0,375000;0,375000;0,406250;0,000000;0,000000;0,000000;0,000000;0,375000;0,375000;0,375000;0,375000;0,500000;0,392857;0,375000;0,375000;0,375000;0,375000;0,416667;0,322191;0,000000;0,000000;0,500000;0,500000;0,416667;0,416667;0,416667;0,416667;0,375000;0,000000;0,000000;0,000000;0,000000;
10;;;;;;;;;;1,000000;0,567243;0,530599;0,554564;0,668422;0,552521;0,501755;0,612833;0,501755;0,443514;0,368422;0,354012;0,368422;0,368422;0,538018;0,645288;0,501755;0,501755;0,501755;0,501755;0,462975;0,418422;0,000000;0,000000;0,000000;0,000000;0,000000;0,501755;0,368422;0,625584;0,625584;0,625584;0,418422;0,610682;0,574456;0,501755;0,388901;0,375001;0,278582;0,388901;0,135912;0,135912;0,135912;0,135912;0,418422;0,418422;0,418422;0,418422;0,668422;0,656431;0,643682;0,643863;0,643682;0,643682;0,501755;0,388553;0,135912;0,135912;0,668422;0,668422;0,530599;0,530599;0,320248;0,320248;0,418422;0,000000;0,000000;0,000000;0,000000;
11;;;;;;;;;;;1,000000;0,590126;0,689078;0,396673;0,338723;0,313340;0,335075;0,313340;0,284219;0,246673;0,275848;0,246673;0,246673;0,475620;0,343102;0,313340;0,313340;0,313340;0,313340;0,293950;0,271673;0,000000;0,000000;0,000000;0,000000;0,000000;0,313340;0,246673;0,722452;0,722452;0,722452;0,271673;0,545363;0,349691;0,590126;0,302923;0,271673;0,271673;0,302923;0,000000;0,000000;0,000000;0,000000;0,271673;0,271673;0,271673;0,271673;0,396673;0,542507;0,506793;0,506793;0,506793;0,506793;0,313340;0,218864;0,000000;0,000000;0,396673;0,396673;0,523938;0,523938;0,313340;0,313340;0,271673;0,000000;0,000000;0,000000;0,000000;
12;;;;;;;;;;;;1,000000;1,000000;0,416667;0,358716;0,333333;0,355069;0,333333;0,304213;0,266667;0,295841;0,266667;0,266667;0,552161;0,363095;0,333333;0,333333;0,333333;0,333333;0,313943;0,291667;0,000000;0,000000;0,000000;0,000000;0,000000;0,333333;0,266667;0,800000;0,800000;0,800000;0,291667;0,621904;0,369684;0,666667;0,322917;0,291667;0,291667;0,322917;0,000000;0,000000;0,000000;0,000000;0,291667;0,291667;0,291667;0,291667;0,416667;0,619048;0,583333;0,583333;0,583333;0,583333;0,333333;0,238858;0,000000;0,000000;0,416667;0,416667;0,666667;0,666667;0,333333;0,333333;0,291667;0,000000;0,000000;0,000000;0,000000;
13;;;;;;;;;;;;;1,000000;0,543218;0,485267;0,459884;0,481620;0,459884;0,430764;0,393218;0,422392;0,393218;0,393218;0,651113;0,489646;0,459884;0,459884;0,459884;0,459884;0,440494;0,418218;0,000000;0,000000;0,000000;0,000000;0,000000;0,459884;0,393218;0,800000;0,800000;0,800000;0,418218;0,720856;0,496235;0,765619;0,449468;0,418218;0,418218;0,449468;0,000000;0,000000;0,000000;0,000000;0,418218;0,418218;0,418218;0,418218;0,543218;0,718000;0,682286;0,682286;0,682286;0,682286;0,459884;0,365409;0,000000;0,000000;0,543218;0,543218;0,690632;0,690632;0,459884;0,459884;0,418218;0,000000;0,000000;0,000000;0,000000;
14;;;;;;;;;;;;;;1,000000;0,884099;0,833333;0,876804;0,833333;0,775092;0,700000;0,685591;0,700000;0,700000;0,688315;0,750000;0,833333;0,833333;0,833333;0,833333;0,794553;0,750000;0,000000;0,000000;0,000000;0,000000;0,000000;0,833333;0,700000;0,350000;0,350000;0,350000;0,750000;0,394285;0,906035;0,833333;0,406250;0,375000;0,375000;0,406250;0,375000;0,375000;0,375000;0,375000;0,750000;0,750000;0,750000;0,750000;1,000000;0,392857;0,375000;0,375000;0,375000;0,375000;0,833333;0,720131;0,375000;0,375000;1,000000;1,000000;0,416667;0,416667;0,416667;0,416667;0,750000;0,000000;0,000000;0,000000;0,000000;
15;;;;;;;;;;;;;;;1,000000;0,717432;0,760903;0,717432;0,659191;0,584099;0,569690;0,584099;0,584099;0,572415;0,634099;0,717432;0,717432;0,717432;0,717432;0,754930;0,803891;0,000000;0,000000;0,000000;0,000000;0,000000;0,717432;0,584099;0,292050;0,292050;0,292050;0,803891;0,336335;0,790134;0,717432;0,348300;0,317050;0,317050;0,348300;0,391614;0,317050;0,317050;0,317050;0,634099;0,634099;0,634099;0,634099;0,884099;0,334907;0,317050;0,317050;0,317050;0,317050;0,891197;0,604230;0,449616;0,449616;0,884099;0,884099;0,358716;0,358716;0,358716;0,358716;0,803891;0,000000;0,000000;0,000000;0,000000;
16;;;;;;;;;;;;;;;;1,000000;0,710138;0,666667;0,608425;0,533333;0,518924;0,533333;0,533333;0,521649;0,583333;1,000000;0,918772;0,666667;0,666667;0,941830;0,875000;0,000000;0,000000;0,000000;0,000000;0,000000;1,000000;0,533333;0,266667;0,266667;0,266667;0,875000;0,310952;0,739368;0,666667;0,322917;0,291667;0,291667;0,322917;0,291667;0,291667;0,291667;0,291667;0,583333;0,583333;0,583333;0,583333;0,833333;0,309524;0,291667;0,291667;0,291667;0,291667;0,666667;0,800947;0,291667;0,291667;0,833333;0,833333;0,333333;0,333333;0,333333;0,333333;0,875000;0,000000;0,000000;0,000000;0,000000;
17;;;;;;;;;;;;;;;;;1,000000;0,710138;0,651896;0,576804;0,562395;0,576804;0,576804;0,700995;0,862354;0,710138;0,710138;0,710138;0,710138;0,671358;0,626804;0,000000;0,000000;0,000000;0,000000;0,000000;0,710138;0,576804;0,288402;0,288402;0,288402;0,626804;0,517025;0,782839;0,710138;0,433882;0,419981;0,313402;0,433882;0,313402;0,313402;0,313402;0,313402;0,626804;0,626804;0,626804;0,626804;0,876804;0,400401;0,313402;0,313402;0,313402;0,313402;0,710138;0,596935;0,313402;0,313402;0,876804;0,876804;0,355069;0,355069;0,355069;0,355069;0,626804;0,000000;0,000000;0,000000;0,000000;
18;;;;;;;;;;;;;;;;;;1,000000;0,608425;0,533333;0,518924;0,533333;0,533333;0,715337;0,806641;0,666667;0,666667;0,666667;0,666667;0,627887;0,583333;0,000000;0,000000;0,000000;0,000000;0,000000;0,666667;0,533333;0,266667;0,266667;0,266667;0,583333;0,310952;0,739368;0,666667;0,322917;0,291667;0,291667;0,322917;0,291667;0,291667;0,291667;0,291667;0,583333;0,583333;0,583333;0,583333;0,833333;0,309524;0,291667;0,291667;0,291667;0,291667;0,666667;0,553464;0,291667;0,291667;0,833333;0,833333;0,333333;0,333333;0,333333;0,333333;0,583333;0,000000;0,000000;0,000000;0,000000;
19;;;;;;;;;;;;;;;;;;;1,000000;0,475092;0,460683;0,475092;0,475092;0,463407;0,525092;0,608425;0,608425;0,608425;0,608425;0,569645;0,525092;0,000000;0,000000;0,000000;0,000000;0,000000;0,608425;0,712638;0,237546;0,237546;0,237546;0,525092;0,281831;0,681127;0,608425;0,293796;0,262546;0,262546;0,293796;0,262546;0,262546;0,262546;0,262546;0,787638;1,000000;0,787638;0,787638;0,775092;0,280403;0,262546;0,262546;0,262546;0,262546;0,608425;0,495223;0,262546;0,262546;0,775092;0,775092;0,304213;0,304213;0,304213;0,304213;0,525092;0,000000;0,000000;0,000000;0,000000;
20;;;;;;;;;;;;;;;;;;;;1,000000;0,707278;0,800000;0,800000;0,388315;0,450000;0,533333;0,533333;0,533333;0,533333;0,494553;0,450000;0,000000;0,000000;0,000000;0,000000;0,000000;0,533333;0,400000;0,200000;0,200000;0,200000;0,450000;0,244285;0,606035;0,533333;0,256250;0,225000;0,225000;0,256250;0,225000;0,225000;0,225000;0,225000;0,450000;0,450000;0,450000;0,450000;0,700000;0,242857;0,225000;0,225000;0,225000;0,225000;0,533333;0,420131;0,225000;0,225000;0,700000;0,700000;0,266667;0,266667;0,533333;0,533333;0,450000;0,000000;0,000000;0,000000;0,000000;
21;;;;;;;;;;;;;;;;;;;;;1,000000;0,707278;0,707278;0,373906;0,435591;0,518924;0,518924;0,518924;0,518924;0,480144;0,435591;0,000000;0,000000;0,000000;0,000000;0,000000;0,518924;0,385591;0,229175;0,229175;0,229175;0,435591;0,273460;0,591625;0,518924;0,285425;0,254175;0,254175;0,285425;0,178432;0,178432;0,178432;0,178432;0,435591;0,435591;0,435591;0,435591;0,685591;0,272032;0,254175;0,254175;0,254175;0,254175;0,518924;0,405721;0,178432;0,178432;0,685591;0,685591;0,295841;0,295841;0,543589;0,543589;0,435591;0,000000;0,000000;0,000000;0,000000;
22;;;;;;;;;;;;;;;;;;;;;;1,000000;0,800000;0,388315;0,450000;0,533333;0,533333;0,533333;0,533333;0,494553;0,450000;0,000000;0,000000;0,000000;0,000000;0,000000;0,533333;0,400000;0,200000;0,200000;0,200000;0,450000;0,244285;0,606035;0,533333;0,256250;0,225000;0,225000;0,256250;0,225000;0,225000;0,225000;0,225000;0,450000;0,450000;0,450000;0,450000;0,700000;0,242857;0,225000;0,225000;0,225000;0,225000;0,533333;0,420131;0,225000;0,225000;0,700000;0,700000;0,266667;0,266667;0,533333;0,533333;0,450000;0,000000;0,000000;0,000000;0,000000;
23;;;;;;;;;;;;;;;;;;;;;;;1,000000;0,388315;0,450000;0,533333;0,533333;0,533333;0,533333;0,494553;0,450000;0,000000;0,000000;0,000000;0,000000;0,000000;0,533333;0,400000;0,200000;0,200000;0,200000;0,450000;0,244285;0,606035;0,533333;0,256250;0,225000;0,225000;0,256250;0,225000;0,225000;0,225000;0,225000;0,450000;0,450000;0,450000;0,450000;0,700000;0,242857;0,225000;0,225000;0,225000;0,225000;0,533333;0,420131;0,225000;0,225000;0,700000;0,700000;0,266667;0,266667;0,533333;0,533333;0,450000;0,000000;0,000000;0,000000;0,000000;
24;;;;;;;;;;;;;;;;;;;;;;;;1,000000;0,521977;0,521649;0,521649;0,521649;0,521649;0,482869;0,438315;0,000000;0,000000;0,000000;0,000000;0,000000;0,521649;0,388315;0,418828;0,418828;0,418828;0,438315;0,603512;0,594350;0,741889;0,623867;0,594556;0,752130;0,623867;0,144328;0,144328;0,144328;0,144328;0,438315;0,438315;0,438315;0,438315;0,688315;0,593593;0,621966;0,621966;0,621966;0,621966;0,521649;0,408446;0,144328;0,144328;0,688315;0,688315;0,330660;0,330660;0,330660;0,330660;0,438315;0,000000;0,000000;0,000000;0,000000;
25;;;;;;;;;;;;;;;;;;;;;;;;;1,000000;0,583333;0,583333;0,583333;0,583333;0,544553;0,500000;0,000000;0,000000;0,000000;0,000000;0,000000;0,583333;0,450000;0,296429;0,296429;0,296429;0,500000;0,681427;0,656035;0,583333;0,598284;0,584384;0,321429;0,598284;0,168337;0,168337;0,168337;0,168337;0,500000;0,500000;0,500000;0,500000;0,750000;0,564803;0,321429;0,321429;0,321429;0,321429;0,583333;0,470131;0,168337;0,168337;0,750000;0,750000;0,363095;0,363095;0,363095;0,363095;0,500000;0,000000;0,000000;0,000000;0,000000;
26;;;;;;;;;;;;;;;;;;;;;;;;;;1,000000;0,918772;0,666667;0,666667;0,941830;0,875000;0,000000;0,000000;0,000000;0,000000;0,000000;1,000000;0,533333;0,266667;0,266667;0,266667;0,875000;0,310952;0,739368;0,666667;0,322917;0,291667;0,291667;0,322917;0,291667;0,291667;0,291667;0,291667;0,583333;0,583333;0,583333;0,583333;0,833333;0,309524;0,291667;0,291667;0,291667;0,291667;0,666667;0,800947;0,291667;0,291667;0,833333;0,833333;0,333333;0,333333;0,333333;0,333333;0,875000;0,000000;0,000000;0,000000;0,000000;
27;;;;;;;;;;;;;;;;;;;;;;;;;;;1,000000;0,666667;0,666667;0,860602;0,793772;0,000000;0,000000;0,000000;0,000000;0,000000;0,918772;0,533333;0,266667;0,266667;0,266667;0,793772;0,310952;0,739368;0,666667;0,322917;0,291667;0,291667;0,322917;0,291667;0,291667;0,291667;0,291667;0,583333;0,583333;0,583333;0,583333;0,833333;0,309524;0,291667;0,291667;0,291667;0,291667;0,666667;0,719719;0,291667;0,291667;0,833333;0,833333;0,333333;0,333333;0,333333;0,333333;0,793772;0,000000;0,000000;0,000000;0,000000;
28;;;;;;;;;;;;;;;;;;;;;;;;;;;;1,000000;0,666667;0,627887;0,583333;0,000000;0,000000;0,000000;0,000000;0,000000;0,666667;0,533333;0,266667;0,266667;0,266667;0,583333;0,310952;0,739368;0,666667;0,322917;0,291667;0,291667;0,322917;0,291667;0,291667;0,291667;0,291667;0,583333;0,583333;0,583333;0,583333;0,833333;0,309524;0,291667;0,291667;0,291667;0,291667;0,666667;0,553464;0,291667;0,291667;0,833333;0,833333;0,333333;0,333333;0,333333;0,333333;0,583333;0,000000;0,000000;0,000000;0,000000;
29;;;;;;;;;;;;;;;;;;;;;;;;;;;;;1,000000;0,627887;0,583333;0,000000;0,000000;0,000000;0,000000;0,000000;0,666667;0,533333;0,266667;0,266667;0,266667;0,583333;0,310952;1,000000;0,666667;0,322917;0,291667;0,291667;0,322917;0,291667;0,291667;0,291667;0,291667;0,583333;0,583333;0,583333;0,583333;0,833333;0,309524;0,291667;0,291667;0,291667;0,291667;0,666667;0,553464;0,291667;0,291667;0,833333;0,833333;0,333333;0,333333;0,333333;0,333333;0,583333;0,000000;0,000000;0,000000;0,000000;
30;;;;;;;;;;;;;;;;;;;;;;;;;;;;;;1,000000;0,816830;0,000000;0,000000;0,000000;0,000000;0,000000;0,941830;0,494553;0,247277;0,247277;0,247277;0,816830;0,291562;0,700588;0,627887;0,303527;0,272277;0,272277;0,303527;0,272277;0,272277;0,272277;0,272277;0,544553;0,544553;0,544553;0,544553;0,794553;0,290134;0,272277;0,272277;0,272277;0,272277;0,627887;0,742777;0,272277;0,272277;0,794553;0,794553;0,313943;0,313943;0,313943;0,313943;0,816830;0,000000;0,000000;0,000000;0,000000;
31;;;;;;;;;;;;;;;;;;;;;;;;;;;;;;;1,000000;0,000000;0,000000;0,000000;0,000000;0,000000;0,875000;0,450000;0,225000;0,225000;0,225000;1,000000;0,269285;0,656035;0,583333;0,281250;0,250000;0,250000;0,281250;0,250000;0,250000;0,250000;0,250000;0,500000;0,500000;0,500000;0,500000;0,750000;0,267857;0,250000;0,250000;0,250000;0,250000;0,583333;0,675947;0,250000;0,250000;0,750000;0,750000;0,291667;0,291667;0,291667;0,291667;1,000000;0,000000;0,000000;0,000000;0,000000;
32;;;;;;;;;;;;;;;;;;;;;;;;;;;;;;;;1,000000;0,750000;0,750000;0,750000;0,750000;0,000000;0,000000;0,000000;0,000000;0,000000;0,000000;0,000000;0,000000;0,000000;0,000000;0,000000;0,000000;0,000000;0,000000;0,000000;0,000000;0,000000;0,000000;0,000000;0,000000;0,000000;0,000000;0,000000;0,000000;0,000000;0,000000;0,000000;0,000000;0,000000;0,000000;0,000000;0,000000;0,000000;0,000000;0,000000;0,000000;0,000000;0,000000;0,000000;0,000000;0,000000;0,000000;
33;;;;;;;;;;;;;;;;;;;;;;;;;;;;;;;;;1,000000;0,750000;0,750000;0,750000;0,000000;0,000000;0,000000;0,000000;0,000000;0,000000;0,000000;0,000000;0,000000;0,000000;0,000000;0,000000;0,000000;0,000000;0,000000;0,000000;0,000000;0,000000;0,000000;0,000000;0,000000;0,000000;0,000000;0,000000;0,000000;0,000000;0,000000;0,000000;0,000000;0,000000;0,000000;0,000000;0,000000;0,000000;0,000000;0,000000;0,000000;0,000000;0,000000;0,000000;0,000000;0,000000;
34;;;;;;;;;;;;;;;;;;;;;;;;;;;;;;;;;;1,000000;0,750000;0,750000;0,000000;0,000000;0,000000;0,000000;0,000000;0,000000;0,000000;0,000000;0,000000;0,000000;0,000000;0,000000;0,000000;0,000000;0,000000;0,000000;0,000000;0,000000;0,000000;0,000000;0,000000;0,000000;0,000000;0,000000;0,000000;0,000000;0,000000;0,000000;0,000000;0,000000;0,000000;0,000000;0,000000;0,000000;0,000000;0,000000;0,000000;0,000000;0,000000;0,000000;0,000000;0,000000;
35;;;;;;;;;;;;;;;;;;;;;;;;;;;;;;;;;;;1,000000;0,750000;0,000000;0,000000;0,000000;0,000000;0,000000;0,000000;0,000000;0,000000;0,000000;0,000000;0,000000;0,000000;0,000000;0,000000;0,000000;0,000000;0,000000;0,000000;0,000000;0,000000;0,000000;0,000000;0,000000;0,000000;0,000000;0,000000;0,000000;0,000000;0,000000;0,000000;0,000000;0,000000;0,000000;0,000000;0,000000;0,000000;0,000000;0,000000;0,000000;0,000000;0,000000;0,000000;
36;;;;;;;;;;;;;;;;;;;;;;;;;;;;;;;;;;;;1,000000;0,000000;0,000000;0,000000;0,000000;0,000000;0,000000;0,000000;0,000000;0,000000;0,000000;0,000000;0,000000;0,000000;0,000000;0,000000;0,000000;0,000000;0,000000;0,000000;0,000000;0,000000;0,000000;0,000000;0,000000;0,000000;0,000000;0,000000;0,000000;0,000000;0,000000;0,000000;0,000000;0,000000;0,000000;0,000000;0,000000;0,000000;0,000000;0,000000;0,000000;0,000000;0,000000;
37;;;;;;;;;;;;;;;;;;;;;;;;;;;;;;;;;;;;;1,000000;0,533333;0,266667;0,266667;0,266667;0,875000;0,310952;0,739368;0,666667;0,322917;0,291667;0,291667;0,322917;0,291667;0,291667;0,291667;0,291667;0,583333;0,583333;0,583333;0,583333;0,833333;0,309524;0,291667;0,291667;0,291667;0,291667;0,666667;0,800947;0,291667;0,291667;0,833333;0,833333;0,333333;0,333333;0,333333;0,333333;0,875000;0,000000;0,000000;0,000000;0,000000;
38;;;;;;;;;;;;;;;;;;;;;;;;;;;;;;;;;;;;;;1,000000;0,200000;0,200000;0,200000;0,450000;0,244285;0,606035;0,533333;0,256250;0,225000;0,225000;0,256250;0,225000;0,225000;0,225000;0,225000;0,675000;0,675000;0,675000;0,675000;0,700000;0,242857;0,225000;0,225000;0,225000;0,225000;0,533333;0,420131;0,225000;0,225000;0,700000;0,700000;0,266667;0,266667;0,266667;0,266667;0,450000;0,000000;0,000000;0,000000;0,000000;
39;;;;;;;;;;;;;;;;;;;;;;;;;;;;;;;;;;;;;;;1,000000;0,800000;0,800000;0,225000;0,488570;0,303017;0,533333;0,256250;0,225000;0,225000;0,256250;0,000000;0,000000;0,000000;0,000000;0,225000;0,225000;0,225000;0,225000;0,350000;0,485714;0,450000;0,450000;0,450000;0,450000;0,266667;0,172191;0,000000;0,000000;0,350000;0,350000;0,533333;0,533333;0,266667;0,266667;0,225000;0,000000;0,000000;0,000000;0,000000;
40;;;;;;;;;;;;;;;;;;;;;;;;;;;;;;;;;;;;;;;;1,000000;0,800000;0,225000;0,488570;0,303017;0,533333;0,256250;0,225000;0,225000;0,256250;0,000000;0,000000;0,000000;0,000000;0,225000;0,225000;0,225000;0,225000;0,350000;0,485714;0,450000;0,450000;0,450000;0,450000;0,266667;0,172191;0,000000;0,000000;0,350000;0,350000;0,533333;0,533333;0,266667;0,266667;0,225000;0,000000;0,000000;0,000000;0,000000;
41;;;;;;;;;;;;;;;;;;;;;;;;;;;;;;;;;;;;;;;;;1,000000;0,225000;0,488570;0,303017;0,533333;0,256250;0,225000;0,225000;0,256250;0,000000;0,000000;0,000000;0,000000;0,225000;0,225000;0,225000;0,225000;0,350000;0,485714;0,450000;0,450000;0,450000;0,450000;0,266667;0,172191;0,000000;0,000000;0,350000;0,350000;0,533333;0,533333;0,266667;0,266667;0,225000;0,000000;0,000000;0,000000;0,000000;
42;;;;;;;;;;;;;;;;;;;;;;;;;;;;;;;;;;;;;;;;;;1,000000;0,269285;0,656035;0,583333;0,281250;0,250000;0,250000;0,281250;0,250000;0,250000;0,250000;0,250000;0,500000;0,500000;0,500000;0,500000;0,750000;0,267857;0,250000;0,250000;0,250000;0,250000;0,583333;0,675947;0,250000;0,250000;0,750000;0,750000;0,291667;0,291667;0,291667;0,291667;1,000000;0,000000;0,000000;0,000000;0,000000;
43;;;;;;;;;;;;;;;;;;;;;;;;;;;;;;;;;;;;;;;;;;;1,000000;0,347303;0,621904;0,493997;0,480097;0,269285;0,493997;0,000000;0,000000;0,000000;0,000000;0,269285;0,269285;0,269285;0,269285;0,394285;0,746428;0,731546;0,731546;0,731546;0,731546;0,310952;0,216476;0,000000;0,000000;0,394285;0,394285;0,310952;0,310952;0,310952;0,310952;0,269285;0,000000;0,000000;0,000000;0,000000;
44;;;;;;;;;;;;;;;;;;;;;;;;;;;;;;;;;;;;;;;;;;;;1,000000;0,739368;0,359267;0,328017;0,328017;0,359267;0,328017;0,328017;0,328017;0,328017;0,656035;0,656035;0,656035;0,656035;0,906035;0,345875;0,328017;0,328017;0,328017;0,328017;0,739368;0,626166;0,328017;0,328017;0,906035;0,906035;0,369684;0,369684;0,369684;0,369684;0,656035;0,000000;0,000000;0,000000;0,000000;
45;;;;;;;;;;;;;;;;;;;;;;;;;;;;;;;;;;;;;;;;;;;;;1,000000;0,322917;0,291667;0,291667;0,322917;0,291667;0,291667;0,291667;0,291667;0,583333;0,583333;0,583333;0,583333;0,833333;0,619048;0,583333;0,583333;0,583333;0,583333;0,666667;0,553464;0,291667;0,291667;0,833333;0,833333;0,333333;0,333333;0,333333;0,333333;0,583333;0,000000;0,000000;0,000000;0,000000;
46;;;;;;;;;;;;;;;;;;;;;;;;;;;;;;;;;;;;;;;;;;;;;;1,000000;0,779302;0,779220;0,697381;0,000000;0,000000;0,000000;0,000000;0,281250;0,281250;0,281250;0,281250;0,406250;0,377373;0,281250;0,281250;0,281250;0,281250;0,322917;0,228441;0,000000;0,000000;0,406250;0,406250;0,322917;0,322917;0,322917;0,322917;0,281250;0,000000;0,000000;0,000000;0,000000;
47;;;;;;;;;;;;;;;;;;;;;;;;;;;;;;;;;;;;;;;;;;;;;;;1,000000;0,750000;0,779302;0,000000;0,000000;0,000000;0,000000;0,250000;0,250000;0,250000;0,250000;0,375000;0,363473;0,250000;0,250000;0,250000;0,250000;0,291667;0,197191;0,000000;0,000000;0,375000;0,375000;0,291667;0,291667;0,291667;0,291667;0,250000;0,000000;0,000000;0,000000;0,000000;
48;;;;;;;;;;;;;;;;;;;;;;;;;;;;;;;;;;;;;;;;;;;;;;;;1,000000;0,779220;0,000000;0,000000;0,000000;0,000000;0,250000;0,250000;0,250000;0,250000;0,375000;0,267857;0,250000;0,250000;0,250000;0,250000;0,291667;0,197191;0,000000;0,000000;0,375000;0,375000;0,291667;0,291667;0,291667;0,291667;0,250000;0,000000;0,000000;0,000000;0,000000;
49;;;;;;;;;;;;;;;;;;;;;;;;;;;;;;;;;;;;;;;;;;;;;;;;;1,000000;0,000000;0,000000;0,000000;0,000000;0,281250;0,281250;0,281250;0,281250;0,406250;0,377373;0,281250;0,281250;0,281250;0,281250;0,322917;0,228441;0,000000;0,000000;0,406250;0,406250;0,322917;0,322917;0,322917;0,322917;0,281250;0,000000;0,000000;0,000000;0,000000;
50;;;;;;;;;;;;;;;;;;;;;;;;;;;;;;;;;;;;;;;;;;;;;;;;;;1,000000;0,640140;0,640140;0,640140;0,250000;0,250000;0,250000;0,250000;0,375000;0,000000;0,000000;0,000000;0,000000;0,000000;0,291667;0,556150;0,639925;0,639925;0,375000;0,375000;0,000000;0,000000;0,000000;0,000000;0,250000;0,000000;0,000000;0,000000;0,000000;
51;;;;;;;;;;;;;;;;;;;;;;;;;;;;;;;;;;;;;;;;;;;;;;;;;;;1,000000;0,750000;0,750000;0,250000;0,250000;0,250000;0,250000;0,375000;0,000000;0,000000;0,000000;0,000000;0,000000;0,291667;0,464396;0,500000;0,500000;0,375000;0,375000;0,000000;0,000000;0,000000;0,000000;0,250000;0,000000;0,000000;0,000000;0,000000;
52;;;;;;;;;;;;;;;;;;;;;;;;;;;;;;;;;;;;;;;;;;;;;;;;;;;;1,000000;0,750000;0,250000;0,250000;0,250000;0,250000;0,375000;0,000000;0,000000;0,000000;0,000000;0,000000;0,291667;0,464396;0,500000;0,500000;0,375000;0,375000;0,000000;0,000000;0,000000;0,000000;0,250000;0,000000;0,000000;0,000000;0,000000;
53;;;;;;;;;;;;;;;;;;;;;;;;;;;;;;;;;;;;;;;;;;;;;;;;;;;;;1,000000;0,250000;0,250000;0,250000;0,250000;0,375000;0,000000;0,000000;0,000000;0,000000;0,000000;0,291667;0,464396;0,500000;0,500000;0,375000;0,375000;0,000000;0,000000;0,000000;0,000000;0,250000;0,000000;0,000000;0,000000;0,000000;
54;;;;;;;;;;;;;;;;;;;;;;;;;;;;;;;;;;;;;;;;;;;;;;;;;;;;;;1,000000;0,750000;0,750000;0,750000;0,750000;0,267857;0,250000;0,250000;0,250000;0,250000;0,583333;0,470131;0,250000;0,250000;0,750000;0,750000;0,291667;0,291667;0,291667;0,291667;0,500000;0,000000;0,000000;0,000000;0,000000;
55;;;;;;;;;;;;;;;;;;;;;;;;;;;;;;;;;;;;;;;;;;;;;;;;;;;;;;;1,000000;0,750000;0,750000;0,750000;0,267857;0,250000;0,250000;0,250000;0,250000;0,583333;0,470131;0,250000;0,250000;0,750000;0,750000;0,291667;0,291667;0,291667;0,291667;0,500000;0,000000;0,000000;0,000000;0,000000;
56;;;;;;;;;;;;;;;;;;;;;;;;;;;;;;;;;;;;;;;;;;;;;;;;;;;;;;;;1,000000;0,750000;0,750000;0,267857;0,250000;0,250000;0,250000;0,250000;0,583333;0,470131;0,250000;0,250000;0,750000;0,750000;0,291667;0,291667;0,291667;0,291667;0,500000;0,000000;0,000000;0,000000;0,000000;
57;;;;;;;;;;;;;;;;;;;;;;;;;;;;;;;;;;;;;;;;;;;;;;;;;;;;;;;;;1,000000;0,750000;0,267857;0,250000;0,250000;0,250000;0,250000;0,583333;0,470131;0,250000;0,250000;0,750000;0,750000;0,291667;0,291667;0,291667;0,291667;0,500000;0,000000;0,000000;0,000000;0,000000;
58;;;;;;;;;;;;;;;;;;;;;;;;;;;;;;;;;;;;;;;;;;;;;;;;;;;;;;;;;;1,000000;0,392857;0,375000;0,375000;0,375000;0,375000;0,833333;0,720131;0,375000;0,375000;1,000000;1,000000;0,416667;0,416667;0,416667;0,416667;0,750000;0,000000;0,000000;0,000000;0,000000;
59;;;;;;;;;;;;;;;;;;;;;;;;;;;;;;;;;;;;;;;;;;;;;;;;;;;;;;;;;;;1,000000;0,741553;0,741579;0,741553;0,741553;0,309524;0,215048;0,000000;0,000000;0,392857;0,392857;0,309524;0,309524;0,309524;0,309524;0,267857;0,000000;0,000000;0,000000;0,000000;
60;;;;;;;;;;;;;;;;;;;;;;;;;;;;;;;;;;;;;;;;;;;;;;;;;;;;;;;;;;;;1,000000;0,750000;1,000000;1,000000;0,291667;0,197191;0,000000;0,000000;0,375000;0,375000;0,291667;0,291667;0,291667;0,291667;0,250000;0,000000;0,000000;0,000000;0,000000;
61;;;;;;;;;;;;;;;;;;;;;;;;;;;;;;;;;;;;;;;;;;;;;;;;;;;;;;;;;;;;;1,000000;0,750000;0,750000;0,291667;0,197191;0,000000;0,000000;0,375000;0,375000;0,291667;0,291667;0,291667;0,291667;0,250000;0,000000;0,000000;0,000000;0,000000;
62;;;;;;;;;;;;;;;;;;;;;;;;;;;;;;;;;;;;;;;;;;;;;;;;;;;;;;;;;;;;;;1,000000;1,000000;0,291667;0,197191;0,000000;0,000000;0,375000;0,375000;0,291667;0,291667;0,291667;0,291667;0,250000;0,000000;0,000000;0,000000;0,000000;
63;;;;;;;;;;;;;;;;;;;;;;;;;;;;;;;;;;;;;;;;;;;;;;;;;;;;;;;;;;;;;;;1,000000;0,291667;0,197191;0,000000;0,000000;0,375000;0,375000;0,291667;0,291667;0,291667;0,291667;0,250000;0,000000;0,000000;0,000000;0,000000;
64;;;;;;;;;;;;;;;;;;;;;;;;;;;;;;;;;;;;;;;;;;;;;;;;;;;;;;;;;;;;;;;;1,000000;0,553464;0,291667;0,291667;0,833333;0,833333;0,333333;0,333333;0,333333;0,333333;0,583333;0,000000;0,000000;0,000000;0,000000;
65;;;;;;;;;;;;;;;;;;;;;;;;;;;;;;;;;;;;;;;;;;;;;;;;;;;;;;;;;;;;;;;;;1,000000;0,665834;0,665834;0,720131;0,720131;0,238858;0,238858;0,238858;0,238858;0,675947;0,000000;0,000000;0,000000;0,000000;
66;;;;;;;;;;;;;;;;;;;;;;;;;;;;;;;;;;;;;;;;;;;;;;;;;;;;;;;;;;;;;;;;;;1,000000;0,750000;0,375000;0,375000;0,000000;0,000000;0,000000;0,000000;0,250000;0,000000;0,000000;0,000000;0,000000;
67;;;;;;;;;;;;;;;;;;;;;;;;;;;;;;;;;;;;;;;;;;;;;;;;;;;;;;;;;;;;;;;;;;;1,000000;0,375000;0,375000;0,000000;0,000000;0,000000;0,000000;0,250000;0,000000;0,000000;0,000000;0,000000;
68;;;;;;;;;;;;;;;;;;;;;;;;;;;;;;;;;;;;;;;;;;;;;;;;;;;;;;;;;;;;;;;;;;;;1,000000;1,000000;0,416667;0,416667;0,416667;0,416667;0,750000;0,000000;0,000000;0,000000;0,000000;
69;;;;;;;;;;;;;;;;;;;;;;;;;;;;;;;;;;;;;;;;;;;;;;;;;;;;;;;;;;;;;;;;;;;;;1,000000;0,416667;0,416667;0,416667;0,416667;0,750000;0,000000;0,000000;0,000000;0,000000;
70;;;;;;;;;;;;;;;;;;;;;;;;;;;;;;;;;;;;;;;;;;;;;;;;;;;;;;;;;;;;;;;;;;;;;;1,000000;0,666667;0,333333;0,333333;0,291667;0,000000;0,000000;0,000000;0,000000;
71;;;;;;;;;;;;;;;;;;;;;;;;;;;;;;;;;;;;;;;;;;;;;;;;;;;;;;;;;;;;;;;;;;;;;;;1,000000;0,333333;0,333333;0,291667;0,000000;0,000000;0,000000;0,000000;
72;;;;;;;;;;;;;;;;;;;;;;;;;;;;;;;;;;;;;;;;;;;;;;;;;;;;;;;;;;;;;;;;;;;;;;;;1,000000;0,666667;0,291667;0,000000;0,000000;0,000000;0,000000;
73;;;;;;;;;;;;;;;;;;;;;;;;;;;;;;;;;;;;;;;;;;;;;;;;;;;;;;;;;;;;;;;;;;;;;;;;;1,000000;0,291667;0,000000;0,000000;0,000000;0,000000;
74;;;;;;;;;;;;;;;;;;;;;;;;;;;;;;;;;;;;;;;;;;;;;;;;;;;;;;;;;;;;;;;;;;;;;;;;;;1,000000;0,000000;0,000000;0,000000;0,000000;
75;;;;;;;;;;;;;;;;;;;;;;;;;;;;;;;;;;;;;;;;;;;;;;;;;;;;;;;;;;;;;;;;;;;;;;;;;;;1,000000;0,000000;0,000000;0,000000;
76;;;;;;;;;;;;;;;;;;;;;;;;;;;;;;;;;;;;;;;;;;;;;;;;;;;;;;;;;;;;;;;;;;;;;;;;;;;;1,000000;0,000000;0,000000;
77;;;;;;;;;;;;;;;;;;;;;;;;;;;;;;;;;;;;;;;;;;;;;;;;;;;;;;;;;;;;;;;;;;;;;;;;;;;;;1,000000;0,000000;
78;;;;;;;;;;;;;;;;;;;;;;;;;;;;;;;;;;;;;;;;;;;;;;;;;;;;;;;;;;;;;;;;;;;;;;;;;;;;;;1,000000;
