;1; 2; 3; 4; 5; 6; 7; 8; 9; 10; 11; 12; 13; 14; 15; 16; 17; 18; 19; 20; 21; 22; 23; 24; 25; 26; 27; 28; 29; 30; 31; 32; 33; 34; 35; 36; 37; 38; 39; 40; 41; 42; 43; 44; 45; 46; 47; 48; 49; 50
1;1,000000;0,706579;0,756685;0,749641;0,756685;0,756685;0,623912;0,682130;0,682130;0,682130;0,284629;0,306936;0,284629;0,259705;0,250828;0,250828;0,317495;0,317495;0,282115;0,277094;0,250828;0,263589;0,705147;0,705147;0,317495;0,317495;0,317495;0,210828;0,210828;0,210828;0,210828;0,210828;0,210828;0,210828;0,210828;0,232855;0,232092;0,232092;0,210828;0,233865;0,233865;0,210828;0,233865;0,317495;0,218047;0,250828;0,250828;0,250828;0,250828;0,250828;
2;;1,000000;0,767830;0,739617;0,767830;0,767830;0,627768;0,502768;0,502768;0,502768;0,280271;0,302215;0,280271;0,259708;0,251384;0,251384;0,313884;0,313884;0,278916;0,275357;0,251384;0,263037;0,712883;0,712883;0,313884;0,313884;0,313884;0,213884;0,213884;0,213884;0,213884;0,213884;0,213884;0,213884;0,213884;0,236694;0,235545;0,235545;0,213884;0,236451;0,236451;0,213884;0,236451;0,313884;0,222215;0,251384;0,251384;0,251384;0,251384;0,251384;
3;;;1,000000;0,791210;0,800000;0,800000;0,800000;0,450000;0,450000;0,450000;0,217248;0,244444;0,217248;0,209721;0,225000;0,225000;0,266667;0,266667;0,222018;0,229523;0,225000;0,214607;0,675000;0,675000;0,266667;0,266667;0,266667;0,200000;0,200000;0,200000;0,200000;0,200000;0,200000;0,200000;0,200000;0,202314;0,203888;0,203888;0,200000;0,207909;0,207909;0,200000;0,207909;0,266667;0,200000;0,225000;0,225000;0,225000;0,225000;0,225000;
4;;;;1,000000;0,791210;0,791210;0,657940;0,736860;0,736860;0,736860;0,634413;0,667382;0,634413;0,726729;0,748743;0,748743;0,656334;0,656334;0,674538;0,699602;0,743400;0,741841;0,740881;0,740881;0,666667;0,666667;0,666667;0,788124;0,788124;0,788124;0,788124;0,785126;0,785126;0,785126;0,785126;0,776494;0,757475;0,757475;0,799101;0,777411;0,777411;0,799101;0,777411;0,658392;0,782518;0,746847;0,750000;0,750000;0,750000;0,750000;
5;;;;;1,000000;0,800000;0,800000;0,450000;0,450000;0,450000;0,217248;0,244444;0,217248;0,209721;0,225000;0,225000;0,266667;0,266667;0,222018;0,229523;0,225000;0,214607;0,675000;0,675000;0,266667;0,266667;0,266667;0,200000;0,200000;0,200000;0,200000;0,200000;0,200000;0,200000;0,200000;0,202314;0,203888;0,203888;0,200000;0,207909;0,207909;0,200000;0,207909;0,266667;0,200000;0,225000;0,225000;0,225000;0,225000;0,225000;
6;;;;;;1,000000;0,800000;0,450000;0,450000;0,450000;0,217248;0,244444;0,217248;0,209721;0,225000;0,225000;0,266667;0,266667;0,222018;0,229523;0,225000;0,214607;0,675000;0,675000;0,266667;0,266667;0,266667;0,200000;0,200000;0,200000;0,200000;0,200000;0,200000;0,200000;0,200000;0,202314;0,203888;0,203888;0,200000;0,207909;0,207909;0,200000;0,207909;0,266667;0,200000;0,225000;0,225000;0,225000;0,225000;0,225000;
7;;;;;;;1,000000;0,583333;0,583333;0,583333;0,333914;0,333333;0,333914;0,324007;0,291667;0,291667;0,333333;0,333333;0,328684;0,318412;0,291667;0,321274;0,875000;0,875000;0,333333;0,333333;0,333333;0,266667;0,266667;0,266667;0,266667;0,266667;0,266667;0,266667;0,266667;0,308980;0,303888;0,303888;0,266667;0,296798;0,296798;0,266667;0,296798;0,333333;0,288889;0,291667;0,291667;0,291667;0,291667;0,291667;
8;;;;;;;;1,000000;0,750000;0,750000;0,260998;0,277778;0,260998;0,252579;0,250000;0,250000;0,291667;0,291667;0,262018;0,262857;0,250000;0,254607;0,500000;0,500000;0,291667;0,291667;0,291667;0,225000;0,225000;0,225000;0,225000;0,225000;0,225000;0,225000;0,225000;0,242314;0,241388;0,241388;0,225000;0,241242;0,241242;0,225000;0,241242;0,291667;0,233333;0,250000;0,250000;0,250000;0,250000;0,250000;
9;;;;;;;;;1,000000;0,750000;0,260998;0,277778;0,260998;0,252579;0,250000;0,250000;0,291667;0,291667;0,262018;0,262857;0,250000;0,254607;0,500000;0,500000;0,291667;0,291667;0,291667;0,225000;0,225000;0,225000;0,225000;0,225000;0,225000;0,225000;0,225000;0,242314;0,241388;0,241388;0,225000;0,241242;0,241242;0,225000;0,241242;0,291667;0,233333;0,250000;0,250000;0,250000;0,250000;0,250000;
10;;;;;;;;;;1,000000;0,260998;0,277778;0,260998;0,252579;0,250000;0,250000;0,291667;0,291667;0,262018;0,262857;0,250000;0,254607;0,500000;0,500000;0,291667;0,291667;0,291667;0,225000;0,225000;0,225000;0,225000;0,225000;0,225000;0,225000;0,225000;0,242314;0,241388;0,241388;0,225000;0,241242;0,241242;0,225000;0,241242;0,291667;0,233333;0,250000;0,250000;0,250000;0,250000;0,250000;
11;;;;;;;;;;;1,000000;0,668733;0,666949;0,543549;0,746056;0,746056;0,333914;0,333914;0,320231;0,299551;0,260998;0,296653;0,260998;0,260998;0,333914;0,333914;0,333914;0,217248;0,217248;0,217248;0,217248;0,217248;0,217248;0,217248;0,217248;0,419301;0,449556;0,449556;0,217248;0,249117;0,249117;0,217248;0,249117;0,333914;0,420578;0,260998;0,260998;0,260998;0,260998;0,260998;
12;;;;;;;;;;;;1,000000;0,668733;0,900102;0,833333;0,833333;0,333333;0,333333;0,325585;0,310952;0,277778;0,313234;0,277778;0,277778;0,333333;0,333333;0,333333;0,244444;0,244444;0,244444;0,244444;0,244444;0,244444;0,244444;0,244444;0,292745;0,286222;0,286222;0,244444;0,278530;0,278530;0,244444;0,278530;0,333333;0,266667;0,277778;0,277778;0,277778;0,277778;0,277778;
13;;;;;;;;;;;;;1,000000;0,543549;0,746056;0,746056;0,333914;0,333914;0,320231;0,299551;0,260998;0,296653;0,260998;0,260998;0,333914;0,333914;0,333914;0,217248;0,217248;0,217248;0,217248;0,217248;0,217248;0,217248;0,217248;0,419301;0,449556;0,449556;0,217248;0,249117;0,249117;0,217248;0,249117;0,333914;0,420578;0,260998;0,260998;0,260998;0,260998;0,260998;
14;;;;;;;;;;;;;;1,000000;0,728630;0,728630;0,324007;0,324007;0,293273;0,283440;0,252579;0,271042;0,252579;0,252579;0,324007;0,324007;0,324007;0,209721;0,209721;0,209721;0,209721;0,398731;0,398731;0,398731;0,398731;0,647409;0,729001;0,729001;0,209721;0,234808;0,234808;0,209721;0,234808;0,324007;0,766569;0,252579;0,252579;0,252579;0,252579;0,252579;
15;;;;;;;;;;;;;;;1,000000;0,750000;0,291667;0,291667;0,262018;0,262857;0,250000;0,254607;0,250000;0,250000;0,291667;0,291667;0,291667;0,225000;0,225000;0,225000;0,225000;0,225000;0,225000;0,225000;0,225000;0,242314;0,241388;0,241388;0,225000;0,241242;0,241242;0,225000;0,241242;0,291667;0,233333;0,250000;0,250000;0,250000;0,250000;0,250000;
16;;;;;;;;;;;;;;;;1,000000;0,291667;0,291667;0,262018;0,262857;0,250000;0,254607;0,250000;0,250000;0,291667;0,291667;0,291667;0,225000;0,225000;0,225000;0,225000;0,225000;0,225000;0,225000;0,225000;0,242314;0,241388;0,241388;0,225000;0,241242;0,241242;0,225000;0,241242;0,291667;0,233333;0,250000;0,250000;0,250000;0,250000;0,250000;
17;;;;;;;;;;;;;;;;;1,000000;0,666667;0,613943;0,636825;0,583333;0,633403;0,291667;0,291667;0,333333;0,333333;0,333333;0,266667;0,266667;0,266667;0,266667;0,266667;0,266667;0,266667;0,266667;0,308980;0,303888;0,303888;0,266667;0,296798;0,296798;0,266667;0,296798;0,666667;0,288889;0,291667;0,291667;0,291667;0,291667;0,291667;
18;;;;;;;;;;;;;;;;;;1,000000;0,613943;0,636825;0,583333;0,633403;0,291667;0,291667;0,333333;0,333333;0,333333;0,266667;0,266667;0,266667;0,266667;0,266667;0,266667;0,266667;0,266667;0,308980;0,303888;0,303888;0,266667;0,296798;0,296798;0,266667;0,296798;0,666667;0,288889;0,291667;0,291667;0,291667;0,291667;0,291667;
19;;;;;;;;;;;;;;;;;;;1,000000;0,683877;0,742312;0,601113;0,262018;0,262018;0,328684;0,328684;0,328684;0,429443;0,429443;0,429443;0,429443;0,222018;0,222018;0,222018;0,222018;0,260828;0,256069;0,256069;0,222018;0,252514;0,252514;0,222018;0,252514;0,642777;0,236696;0,262018;0,262018;0,262018;0,262018;0,262018;
20;;;;;;;;;;;;;;;;;;;;1,000000;0,788570;0,667346;0,262857;0,262857;0,318412;0,318412;0,318412;0,459047;0,459047;0,459047;0,459047;0,229523;0,229523;0,229523;0,229523;0,262903;0,259364;0,259364;0,229523;0,256149;0,256149;0,229523;0,256149;0,955237;0,244285;0,262857;0,262857;0,262857;0,262857;0,262857;
21;;;;;;;;;;;;;;;;;;;;;1,000000;0,731654;0,250000;0,250000;0,291667;0,291667;0,291667;0,450000;0,450000;0,450000;0,450000;0,225000;0,225000;0,225000;0,225000;0,242314;0,241388;0,241388;0,225000;0,241242;0,241242;0,225000;0,241242;0,875000;0,233333;0,250000;0,250000;0,250000;0,250000;0,250000;
22;;;;;;;;;;;;;;;;;;;;;;1,000000;0,254607;0,254607;0,321274;0,321274;0,321274;0,738027;0,738027;0,738027;0,738027;0,214607;0,214607;0,214607;0,214607;0,242303;0,240189;0,240189;0,214607;0,240163;0,240163;0,214607;0,240163;0,633403;0,224345;0,254607;0,254607;0,254607;0,254607;0,254607;
23;;;;;;;;;;;;;;;;;;;;;;;1,000000;0,750000;0,291667;0,291667;0,291667;0,225000;0,225000;0,225000;0,225000;0,225000;0,225000;0,225000;0,225000;0,242314;0,241388;0,241388;0,225000;0,241242;0,241242;0,225000;0,241242;0,291667;0,233333;0,250000;0,250000;0,250000;0,250000;0,250000;
24;;;;;;;;;;;;;;;;;;;;;;;;1,000000;0,291667;0,291667;0,291667;0,225000;0,225000;0,225000;0,225000;0,225000;0,225000;0,225000;0,225000;0,242314;0,241388;0,241388;0,225000;0,241242;0,241242;0,225000;0,241242;0,291667;0,233333;0,250000;0,250000;0,250000;0,250000;0,250000;
25;;;;;;;;;;;;;;;;;;;;;;;;;1,000000;0,666667;0,666667;0,266667;0,266667;0,266667;0,266667;0,266667;0,266667;0,266667;0,266667;0,308980;0,303888;0,303888;0,266667;0,296798;0,296798;0,266667;0,296798;0,333333;0,288889;0,291667;0,291667;0,291667;0,291667;0,291667;
26;;;;;;;;;;;;;;;;;;;;;;;;;;1,000000;0,666667;0,266667;0,266667;0,266667;0,266667;0,266667;0,266667;0,266667;0,266667;0,308980;0,303888;0,303888;0,266667;0,296798;0,296798;0,266667;0,296798;0,333333;0,288889;0,291667;0,291667;0,291667;0,291667;0,291667;
27;;;;;;;;;;;;;;;;;;;;;;;;;;;1,000000;0,266667;0,266667;0,266667;0,266667;0,266667;0,266667;0,266667;0,266667;0,308980;0,303888;0,303888;0,266667;0,296798;0,296798;0,266667;0,296798;0,333333;0,288889;0,291667;0,291667;0,291667;0,291667;0,291667;
28;;;;;;;;;;;;;;;;;;;;;;;;;;;;1,000000;0,800000;0,800000;0,800000;0,200000;0,200000;0,200000;0,200000;0,202314;0,203888;0,203888;0,200000;0,207909;0,207909;0,200000;0,207909;0,533333;0,200000;0,225000;0,225000;0,225000;0,225000;0,225000;
29;;;;;;;;;;;;;;;;;;;;;;;;;;;;;1,000000;0,800000;0,800000;0,200000;0,200000;0,200000;0,200000;0,202314;0,203888;0,203888;0,200000;0,207909;0,207909;0,200000;0,207909;0,533333;0,200000;0,225000;0,225000;0,225000;0,225000;0,225000;
30;;;;;;;;;;;;;;;;;;;;;;;;;;;;;;1,000000;0,800000;0,200000;0,200000;0,200000;0,200000;0,202314;0,203888;0,203888;0,200000;0,207909;0,207909;0,200000;0,207909;0,533333;0,200000;0,225000;0,225000;0,225000;0,225000;0,225000;
31;;;;;;;;;;;;;;;;;;;;;;;;;;;;;;;1,000000;0,200000;0,200000;0,200000;0,200000;0,202314;0,203888;0,203888;0,200000;0,207909;0,207909;0,200000;0,207909;0,533333;0,200000;0,225000;0,225000;0,225000;0,225000;0,225000;
32;;;;;;;;;;;;;;;;;;;;;;;;;;;;;;;;1,000000;0,800000;0,800000;0,800000;0,722710;0,407777;0,407777;0,200000;0,207909;0,207909;0,200000;0,207909;0,266667;0,400000;0,225000;0,225000;0,225000;0,225000;0,225000;
33;;;;;;;;;;;;;;;;;;;;;;;;;;;;;;;;;1,000000;0,800000;0,800000;0,722710;0,407777;0,407777;0,200000;0,207909;0,207909;0,200000;0,207909;0,266667;0,400000;0,225000;0,225000;0,225000;0,225000;0,225000;
34;;;;;;;;;;;;;;;;;;;;;;;;;;;;;;;;;;1,000000;0,800000;0,722710;0,407777;0,407777;0,200000;0,207909;0,207909;0,200000;0,207909;0,266667;0,400000;0,225000;0,225000;0,225000;0,225000;0,225000;
35;;;;;;;;;;;;;;;;;;;;;;;;;;;;;;;;;;;1,000000;0,722710;0,407777;0,407777;0,200000;0,207909;0,207909;0,200000;0,207909;0,266667;0,400000;0,225000;0,225000;0,225000;0,225000;0,225000;
36;;;;;;;;;;;;;;;;;;;;;;;;;;;;;;;;;;;;1,000000;0,733393;0,733393;0,202314;0,219674;0,219674;0,202314;0,219674;0,308980;0,775581;0,242314;0,242314;0,242314;0,242314;0,242314;
37;;;;;;;;;;;;;;;;;;;;;;;;;;;;;;;;;;;;;1,000000;0,785256;0,203888;0,220458;0,220458;0,203888;0,220458;0,303888;0,824886;0,241388;0,241388;0,241388;0,241388;0,241388;
38;;;;;;;;;;;;;;;;;;;;;;;;;;;;;;;;;;;;;;1,000000;0,203888;0,220458;0,220458;0,203888;0,220458;0,303888;0,824886;0,241388;0,241388;0,241388;0,241388;0,241388;
39;;;;;;;;;;;;;;;;;;;;;;;;;;;;;;;;;;;;;;;1,000000;0,792465;0,792465;0,800000;0,792465;0,266667;0,200000;0,900000;0,225000;0,225000;0,225000;0,225000;
40;;;;;;;;;;;;;;;;;;;;;;;;;;;;;;;;;;;;;;;;1,000000;0,777404;0,792465;0,777404;0,296798;0,211863;0,723727;0,241242;0,241242;0,241242;0,241242;
41;;;;;;;;;;;;;;;;;;;;;;;;;;;;;;;;;;;;;;;;;1,000000;0,792465;0,777404;0,296798;0,211863;0,723727;0,241242;0,241242;0,241242;0,241242;
42;;;;;;;;;;;;;;;;;;;;;;;;;;;;;;;;;;;;;;;;;;1,000000;0,792465;0,266667;0,200000;0,900000;0,225000;0,225000;0,225000;0,225000;
43;;;;;;;;;;;;;;;;;;;;;;;;;;;;;;;;;;;;;;;;;;;1,000000;0,296798;0,211863;0,723727;0,241242;0,241242;0,241242;0,241242;
44;;;;;;;;;;;;;;;;;;;;;;;;;;;;;;;;;;;;;;;;;;;;1,000000;0,288889;0,291667;0,291667;0,291667;0,291667;0,291667;
45;;;;;;;;;;;;;;;;;;;;;;;;;;;;;;;;;;;;;;;;;;;;;1,000000;0,233333;0,233333;0,233333;0,233333;0,233333;
46;;;;;;;;;;;;;;;;;;;;;;;;;;;;;;;;;;;;;;;;;;;;;;1,000000;0,250000;0,250000;0,250000;0,250000;
47;;;;;;;;;;;;;;;;;;;;;;;;;;;;;;;;;;;;;;;;;;;;;;;1,000000;0,750000;0,750000;0,750000;
48;;;;;;;;;;;;;;;;;;;;;;;;;;;;;;;;;;;;;;;;;;;;;;;;1,000000;0,750000;0,750000;
49;;;;;;;;;;;;;;;;;;;;;;;;;;;;;;;;;;;;;;;;;;;;;;;;;1,000000;0,750000;
50;;;;;;;;;;;;;;;;;;;;;;;;;;;;;;;;;;;;;;;;;;;;;;;;;;1,000000;
