;1; 2; 3; 4; 5; 6; 7; 8; 9; 10; 11; 12; 13; 14; 15
1;1,000000;0,000000;0,000000;0,000000;0,500000;0,500000;0,000000;0,000000;0,000000;0,500000;0,500000;0,000000;0,000000;0,000000;0,000000;
2;;1,000000;1,000000;1,000000;0,750000;0,750000;1,000000;1,000000;1,000000;0,750000;0,750000;1,000000;1,000000;1,000000;1,000000;
3;;;1,000000;1,000000;0,750000;0,750000;1,000000;1,000000;1,000000;0,750000;0,750000;1,000000;1,000000;1,000000;1,000000;
4;;;;1,000000;0,750000;0,750000;1,000000;1,000000;1,000000;0,750000;0,750000;1,000000;1,000000;1,000000;1,000000;
5;;;;;1,000000;0,500000;0,750000;0,750000;0,750000;0,500000;0,500000;0,750000;0,750000;0,750000;0,750000;
6;;;;;;1,000000;0,750000;0,750000;0,750000;0,500000;0,500000;0,750000;0,750000;0,750000;0,750000;
7;;;;;;;1,000000;1,000000;1,000000;0,750000;0,750000;1,000000;1,000000;1,000000;1,000000;
8;;;;;;;;1,000000;1,000000;0,750000;0,750000;1,000000;1,000000;1,000000;1,000000;
9;;;;;;;;;1,000000;0,750000;0,750000;1,000000;1,000000;1,000000;1,000000;
10;;;;;;;;;;1,000000;0,500000;0,750000;0,750000;0,750000;0,750000;
11;;;;;;;;;;;1,000000;0,750000;0,750000;0,750000;0,750000;
12;;;;;;;;;;;;1,000000;1,000000;1,000000;1,000000;
13;;;;;;;;;;;;;1,000000;1,000000;1,000000;
14;;;;;;;;;;;;;;1,000000;1,000000;
15;;;;;;;;;;;;;;;1,000000;
