;1; 2; 3; 4; 5; 6; 7; 8; 9; 10; 11; 12; 13; 14; 15; 16; 17; 18; 19; 20; 21; 22; 23; 24; 25; 26; 27; 28; 29; 30; 31; 32; 33; 34; 35; 36; 37; 38; 39; 40; 41; 42; 43; 44; 45; 46; 47; 48; 49; 50; 51; 52; 53; 54; 55; 56; 57; 58; 59; 60; 61; 62; 63; 64; 65; 66; 67; 68; 69; 70; 71; 72; 73; 74; 75; 76; 77; 78; 79; 80; 81; 82; 83; 84; 85; 86; 87; 88; 89; 90; 91; 92; 93; 94; 95; 96; 97; 98; 99; 100; 101; 102; 103; 104; 105; 106; 107; 108; 109; 110; 111; 112; 113; 114; 115; 116; 117; 118; 119; 120; 121; 122; 123; 124; 125; 126; 127; 128; 129; 130
1;1,000000;0,358789;0,666667;0,666667;0,482900;0,391575;0,310952;0,310952;0,310952;0,271271;0,266667;0,274444;0,283613;0,218031;0,291667;0,291667;0,291667;0,277591;0,266667;0,266667;0,307254;0,307254;0,333333;0,416667;0,300964;0,291667;0,291667;0,291667;0,000000;0,000000;0,000000;0,333333;0,278272;0,333333;0,291667;0,291667;0,401042;0,291667;0,291667;0,291667;0,291667;0,207875;0,291667;0,333333;0,333333;0,333333;0,000000;0,000000;0,000000;0,291667;0,291667;0,291667;0,291667;0,291667;0,291667;0,333333;0,333333;0,416667;0,416667;0,478736;0,666667;0,416667;0,416667;0,241108;0,227126;0,000000;0,000000;0,416667;0,416667;0,278530;0,266667;0,333333;0,333333;0,333333;0,291667;0,291667;0,416667;0,369684;0,333333;0,333333;0,333333;0,000000;0,000000;0,000000;0,266667;0,266667;0,347453;0,336050;0,323963;0,416667;0,416667;0,291667;0,291667;0,291667;0,291667;0,416667;0,291667;0,310952;0,291667;0,291667;0,333333;0,333333;0,333333;0,416667;0,500000;0,416667;0,416667;0,333333;0,333333;0,333333;0,291667;0,291667;0,416667;0,333333;0,333333;0,333333;0,291667;0,291667;0,291667;0,333333;0,333333;0,333333;0,333333;0,333333;0,291667;0,291667;0,333333;0,000000;0,000000;0,333333;
2;;1,000000;0,358789;0,358789;0,310026;0,339176;0,388733;0,388733;0,388733;0,487652;0,472773;0,482480;0,521111;0,308984;0,402420;0,402420;0,402420;0,484397;0,485114;0,485114;0,441148;0,441148;0,405994;0,306703;0,426843;0,421319;0,407911;0,407911;0,000000;0,000000;0,000000;0,360432;0,490504;0,360432;0,418553;0,418553;0,323730;0,417748;0,417748;0,394270;0,394270;0,324627;0,394270;0,358281;0,358281;0,358281;0,000000;0,000000;0,000000;0,429030;0,429030;0,411113;0,438529;0,433154;0,413224;0,393844;0,393844;0,264680;0,264680;0,299515;0,000000;0,264813;0,264813;0,320068;0,370748;0,402082;0,402082;0,264675;0,264675;0,464186;0,464361;0,358250;0,358250;0,358250;0,411854;0,411854;0,280846;0,334497;0,385823;0,362825;0,359670;0,259167;0,259167;0,280564;0,464003;0,466430;0,366156;0,388208;0,416576;0,264667;0,264667;0,407177;0,407177;0,407177;0,407177;0,271629;0,410616;0,424187;0,421458;0,421458;0,355435;0,355435;0,371912;0,264948;0,247402;0,264663;0,264663;0,358228;0,358228;0,358228;0,406309;0,406309;0,268534;0,377971;0,354881;0,354881;0,406271;0,406271;0,406271;0,358223;0,358223;0,358223;0,360360;0,362750;0,408641;0,408641;0,360360;0,276571;0,276571;0,359670;
3;;;1,000000;0,666667;0,482900;0,391575;0,310952;0,310952;0,310952;0,271271;0,266667;0,274444;0,283613;0,218031;0,291667;0,291667;0,291667;0,277591;0,266667;0,266667;0,307254;0,307254;0,333333;0,416667;0,300964;0,291667;0,291667;0,291667;0,000000;0,000000;0,000000;0,333333;0,278272;0,333333;0,291667;0,291667;0,401042;0,291667;0,291667;0,291667;0,291667;0,207875;0,291667;0,333333;0,333333;0,333333;0,000000;0,000000;0,000000;0,291667;0,291667;0,291667;0,291667;0,291667;0,291667;0,333333;0,333333;0,416667;0,416667;0,478736;0,666667;0,416667;0,416667;0,241108;0,227126;0,000000;0,000000;0,416667;0,416667;0,278530;0,266667;0,333333;0,333333;0,333333;0,291667;0,291667;0,416667;0,369684;0,333333;0,333333;0,333333;0,000000;0,000000;0,000000;0,266667;0,266667;0,347453;0,336050;0,323963;0,416667;0,416667;0,291667;0,291667;0,291667;0,291667;0,416667;0,291667;0,310952;0,291667;0,291667;0,333333;0,333333;0,333333;0,416667;0,500000;0,416667;0,416667;0,333333;0,333333;0,333333;0,291667;0,291667;0,416667;0,333333;0,333333;0,333333;0,291667;0,291667;0,291667;0,333333;0,333333;0,333333;0,333333;0,333333;0,291667;0,291667;0,333333;0,000000;0,000000;0,333333;
4;;;;1,000000;0,482900;0,391575;0,310952;0,310952;0,310952;0,271271;0,266667;0,274444;0,283613;0,218031;0,291667;0,291667;0,291667;0,277591;0,266667;0,266667;0,307254;0,307254;0,333333;0,416667;0,300964;0,291667;0,291667;0,291667;0,000000;0,000000;0,000000;0,333333;0,278272;0,333333;0,291667;0,291667;0,401042;0,291667;0,291667;0,291667;0,291667;0,207875;0,291667;0,333333;0,333333;0,333333;0,000000;0,000000;0,000000;0,291667;0,291667;0,291667;0,291667;0,291667;0,291667;0,333333;0,333333;0,416667;0,416667;0,478736;0,666667;0,416667;0,416667;0,241108;0,227126;0,000000;0,000000;0,416667;0,416667;0,278530;0,266667;0,333333;0,333333;0,333333;0,291667;0,291667;0,416667;0,369684;0,333333;0,333333;0,333333;0,000000;0,000000;0,000000;0,266667;0,266667;0,347453;0,336050;0,323963;0,416667;0,416667;0,291667;0,291667;0,291667;0,291667;0,416667;0,291667;0,310952;0,291667;0,291667;0,333333;0,333333;0,333333;0,416667;0,500000;0,416667;0,416667;0,333333;0,333333;0,333333;0,291667;0,291667;0,416667;0,333333;0,333333;0,333333;0,291667;0,291667;0,291667;0,333333;0,333333;0,333333;0,333333;0,333333;0,291667;0,291667;0,333333;0,000000;0,000000;0,333333;
5;;;;;1,000000;0,609632;0,460519;0,460519;0,460519;0,420838;0,416234;0,424011;0,433180;0,367598;0,441234;0,441234;0,441234;0,427158;0,754399;0,754399;0,716528;0,716528;0,722566;0,566234;0,450531;0,441234;0,441234;0,441234;0,000000;0,000000;0,000000;0,482900;0,427839;0,482900;0,441234;0,441234;0,550609;0,441234;0,441234;0,441234;0,441234;0,357442;0,441234;0,482900;0,482900;0,482900;0,000000;0,000000;0,000000;0,441234;0,441234;0,441234;0,441234;0,441234;0,441234;0,665259;0,665259;0,566234;0,566234;0,628303;0,816234;0,566234;0,566234;0,390675;0,376693;0,000000;0,000000;0,566234;0,566234;0,428097;0,416234;0,482900;0,482900;0,482900;0,441234;0,441234;0,566234;0,519251;0,482900;0,482900;0,482900;0,000000;0,000000;0,000000;0,416234;0,416234;0,497020;0,485616;0,473530;0,566234;0,566234;0,441234;0,441234;0,441234;0,441234;0,566234;0,441234;0,460519;0,441234;0,441234;0,482900;0,482900;0,482900;0,566234;0,649567;0,566234;0,566234;0,482900;0,482900;0,482900;0,441234;0,441234;0,566234;0,482900;0,482900;0,482900;0,441234;0,441234;0,441234;0,482900;0,482900;0,482900;0,839192;0,482900;0,441234;0,441234;0,839192;0,000000;0,000000;0,482900;
6;;;;;;1,000000;0,369193;0,369193;0,369193;0,329513;0,324908;0,332685;0,341854;0,276272;0,349908;0,349908;0,349908;0,335832;0,649816;0,649816;0,630331;0,630331;0,783149;0,949816;0,359205;0,349908;0,349908;0,349908;0,000000;0,000000;0,000000;0,391575;0,336513;0,391575;0,349908;0,349908;0,459283;0,349908;0,349908;0,349908;0,349908;0,266117;0,349908;0,391575;0,391575;0,391575;0,000000;0,000000;0,000000;0,349908;0,349908;0,349908;0,349908;0,349908;0,349908;0,783149;0,783149;0,474908;0,474908;0,536978;0,724908;0,474908;0,474908;0,299350;0,285368;0,000000;0,000000;0,474908;0,474908;0,336772;0,324908;0,391575;0,391575;0,391575;0,349908;0,349908;0,474908;0,427925;0,391575;0,391575;0,391575;0,000000;0,000000;0,000000;0,324908;0,324908;0,405694;0,394291;0,382204;0,474908;0,474908;0,349908;0,349908;0,349908;0,349908;0,474908;0,349908;0,369193;0,349908;0,349908;0,391575;0,391575;0,391575;0,474908;0,558241;0,474908;0,474908;0,391575;0,391575;0,391575;0,349908;0,349908;0,474908;0,391575;0,391575;0,391575;0,349908;0,349908;0,349908;0,391575;0,391575;0,391575;0,391575;0,391575;0,349908;0,349908;0,391575;0,000000;0,000000;0,391575;
7;;;;;;;1,000000;0,713374;0,713374;0,248890;0,244285;0,252062;0,261231;0,195649;0,269285;0,269285;0,269285;0,255209;0,244285;0,244285;0,284872;0,284872;0,310952;0,394285;0,278582;0,269285;0,269285;0,269285;0,000000;0,000000;0,000000;0,310952;0,255890;0,310952;0,269285;0,269285;0,378660;0,269285;0,269285;0,269285;0,269285;0,185494;0,269285;0,310952;0,310952;0,310952;0,000000;0,000000;0,000000;0,269285;0,269285;0,269285;0,269285;0,269285;0,269285;0,310952;0,310952;0,394285;0,394285;0,456355;0,644285;0,394285;0,394285;0,218727;0,204745;0,000000;0,000000;0,394285;0,394285;0,256149;0,244285;0,310952;0,310952;0,310952;0,269285;0,269285;0,394285;0,347303;0,310952;0,310952;0,310952;0,000000;0,000000;0,000000;0,244285;0,244285;0,325071;0,313668;0,301581;0,394285;0,394285;0,269285;0,269285;0,269285;0,269285;0,394285;0,807855;0,288570;0,269285;0,269285;0,310952;0,310952;0,310952;0,394285;0,477618;0,394285;0,394285;0,310952;0,310952;0,310952;0,269285;0,269285;0,394285;0,310952;0,310952;0,310952;0,269285;0,269285;0,269285;0,310952;0,310952;0,310952;0,310952;0,310952;0,269285;0,269285;0,310952;0,000000;0,000000;0,310952;
8;;;;;;;;1,000000;0,713374;0,248890;0,244285;0,252062;0,261231;0,195649;0,269285;0,269285;0,269285;0,255209;0,244285;0,244285;0,284872;0,284872;0,310952;0,394285;0,278582;0,269285;0,269285;0,269285;0,000000;0,000000;0,000000;0,310952;0,255890;0,310952;0,269285;0,269285;0,378660;0,269285;0,269285;0,269285;0,269285;0,185494;0,269285;0,310952;0,310952;0,310952;0,000000;0,000000;0,000000;0,269285;0,269285;0,269285;0,269285;0,269285;0,269285;0,310952;0,310952;0,394285;0,394285;0,456355;0,644285;0,394285;0,394285;0,218727;0,204745;0,000000;0,000000;0,394285;0,394285;0,256149;0,244285;0,310952;0,310952;0,310952;0,269285;0,269285;0,394285;0,347303;0,310952;0,310952;0,310952;0,000000;0,000000;0,000000;0,244285;0,244285;0,325071;0,313668;0,301581;0,394285;0,394285;0,269285;0,269285;0,269285;0,269285;0,394285;0,807855;0,288570;0,269285;0,269285;0,310952;0,310952;0,310952;0,394285;0,477618;0,394285;0,394285;0,310952;0,310952;0,310952;0,269285;0,269285;0,394285;0,310952;0,310952;0,310952;0,269285;0,269285;0,269285;0,310952;0,310952;0,310952;0,310952;0,310952;0,269285;0,269285;0,310952;0,000000;0,000000;0,310952;
9;;;;;;;;;1,000000;0,248890;0,244285;0,252062;0,261231;0,195649;0,269285;0,269285;0,269285;0,255209;0,244285;0,244285;0,284872;0,284872;0,310952;0,394285;0,278582;0,269285;0,269285;0,269285;0,000000;0,000000;0,000000;0,310952;0,255890;0,310952;0,269285;0,269285;0,378660;0,269285;0,269285;0,269285;0,269285;0,185494;0,269285;0,310952;0,310952;0,310952;0,000000;0,000000;0,000000;0,269285;0,269285;0,269285;0,269285;0,269285;0,269285;0,310952;0,310952;0,394285;0,394285;0,456355;0,644285;0,394285;0,394285;0,218727;0,204745;0,000000;0,000000;0,394285;0,394285;0,256149;0,244285;0,310952;0,310952;0,310952;0,269285;0,269285;0,394285;0,347303;0,310952;0,310952;0,310952;0,000000;0,000000;0,000000;0,244285;0,244285;0,325071;0,313668;0,301581;0,394285;0,394285;0,269285;0,269285;0,269285;0,269285;0,394285;0,807855;0,288570;0,269285;0,269285;0,310952;0,310952;0,310952;0,394285;0,477618;0,394285;0,394285;0,310952;0,310952;0,310952;0,269285;0,269285;0,394285;0,310952;0,310952;0,310952;0,269285;0,269285;0,269285;0,310952;0,310952;0,310952;0,310952;0,310952;0,269285;0,269285;0,310952;0,000000;0,000000;0,310952;
10;;;;;;;;;;1,000000;0,755374;0,684951;0,699250;0,508974;0,380636;0,380636;0,380636;0,412222;0,204605;0,204605;0,245192;0,245192;0,271271;0,354605;0,238902;0,229605;0,229605;0,229605;0,000000;0,000000;0,000000;0,524250;0,684334;0,524250;0,440916;0,440916;0,470736;0,591849;0,591849;0,229605;0,229605;0,334168;0,229605;0,271271;0,271271;0,271271;0,000000;0,000000;0,000000;0,459249;0,459249;0,380636;0,586282;0,459249;0,437518;0,271271;0,271271;0,354605;0,354605;0,416674;0,604605;0,354605;0,354605;0,326293;0,380755;0,155170;0,155170;0,354605;0,354605;0,705196;0,716758;0,271271;0,271271;0,271271;0,229605;0,229605;0,354605;0,307622;0,271271;0,271271;0,271271;0,167583;0,167583;0,228723;0,713144;0,713102;0,285391;0,273988;0,336041;0,354605;0,354605;0,229605;0,229605;0,229605;0,229605;0,354605;0,229605;0,651145;0,229605;0,229605;0,271271;0,271271;0,271271;0,354605;0,437938;0,354605;0,354605;0,271271;0,271271;0,271271;0,380636;0,380636;0,354605;0,771638;0,271271;0,271271;0,437518;0,437518;0,437518;0,271271;0,271271;0,271271;0,271271;0,271271;0,398533;0,398533;0,271271;0,209396;0,209396;0,271271;
11;;;;;;;;;;;1,000000;0,729028;0,689711;0,583653;0,225000;0,225000;0,225000;0,424689;0,200000;0,200000;0,240587;0,240587;0,266667;0,350000;0,234297;0,225000;0,225000;0,225000;0,000000;0,000000;0,000000;0,486338;0,651489;0,486338;0,403005;0,403005;0,432825;0,403005;0,403005;0,225000;0,225000;0,325000;0,225000;0,266667;0,266667;0,266667;0,000000;0,000000;0,000000;0,391336;0,391336;0,225000;0,566359;0,391336;0,450000;0,266667;0,266667;0,350000;0,350000;0,412070;0,600000;0,350000;0,350000;0,174442;0,328600;0,000000;0,000000;0,350000;0,350000;0,739580;0,751142;0,266667;0,266667;0,266667;0,225000;0,225000;0,350000;0,303017;0,266667;0,266667;0,266667;0,198965;0,198965;0,225000;0,751142;0,900000;0,280786;0,269383;0,340985;0,350000;0,350000;0,225000;0,225000;0,225000;0,225000;0,350000;0,225000;0,540111;0,225000;0,225000;0,266667;0,266667;0,266667;0,350000;0,433333;0,350000;0,350000;0,266667;0,266667;0,266667;0,225000;0,225000;0,350000;0,751715;0,266667;0,266667;0,450000;0,450000;0,450000;0,266667;0,266667;0,266667;0,266667;0,266667;0,403477;0,403477;0,266667;0,175272;0,175272;0,266667;
12;;;;;;;;;;;;1,000000;0,619922;0,524518;0,232777;0,232777;0,232777;0,389694;0,207777;0,207777;0,248364;0,248364;0,274444;0,357777;0,242074;0,232777;0,232777;0,232777;0,000000;0,000000;0,000000;0,477994;0,581200;0,477994;0,394660;0,394660;0,424481;0,394660;0,394660;0,232777;0,232777;0,303726;0,232777;0,274444;0,274444;0,274444;0,000000;0,000000;0,000000;0,369934;0,369934;0,232777;0,531094;0,369934;0,428598;0,274444;0,274444;0,357777;0,357777;0,419847;0,607777;0,357777;0,357777;0,182219;0,307197;0,000000;0,000000;0,357777;0,357777;0,679765;0,691327;0,274444;0,274444;0,274444;0,232777;0,232777;0,357777;0,310794;0,274444;0,274444;0,274444;0,187359;0,187359;0,210266;0,829028;0,691327;0,423987;0,437326;0,423045;0,357777;0,357777;0,232777;0,232777;0,232777;0,232777;0,357777;0,232777;0,504846;0,232777;0,232777;0,274444;0,274444;0,484397;0,357777;0,441110;0,357777;0,357777;0,274444;0,274444;0,274444;0,232777;0,232777;0,357777;0,716450;0,274444;0,274444;0,428598;0,428598;0,428598;0,274444;0,274444;0,274444;0,274444;0,274444;0,574473;0,574473;0,274444;0,164442;0,164442;0,274444;
13;;;;;;;;;;;;;1,000000;0,457514;0,241946;0,241946;0,241946;0,565155;0,216946;0,216946;0,257533;0,257533;0,283613;0,366946;0,251243;0,241946;0,241946;0,241946;0,000000;0,000000;0,000000;0,518288;0,619807;0,518288;0,434954;0,434954;0,464774;0,434954;0,434954;0,241946;0,241946;0,321144;0,241946;0,283613;0,283613;0,283613;0,000000;0,000000;0,000000;0,465555;0,465555;0,525210;0,604671;0,429450;0,539659;0,283613;0,283613;0,366946;0,366946;0,429016;0,616946;0,366946;0,366946;0,316960;0,353419;0,157530;0,157530;0,366946;0,366946;0,638199;0,649572;0,283613;0,283613;0,283613;0,241946;0,241946;0,366946;0,319963;0,283613;0,283613;0,283613;0,154397;0,154397;0,212700;0,662031;0,661965;0,297732;0,286329;0,330327;0,366946;0,366946;0,241946;0,241946;0,241946;0,241946;0,366946;0,241946;0,503265;0,241946;0,241946;0,283613;0,283613;0,283613;0,366946;0,450279;0,366946;0,366946;0,283613;0,283613;0,283613;0,382335;0,382335;0,366946;0,518288;0,283613;0,283613;0,525398;0,525398;0,525398;0,283613;0,283613;0,283613;0,283613;0,283613;0,392820;0,392820;0,283613;0,197547;0,197547;0,283613;
14;;;;;;;;;;;;;;1,000000;0,176364;0,176364;0,176364;0,240797;0,151364;0,151364;0,191952;0,191952;0,218031;0,301364;0,185661;0,176364;0,176364;0,176364;0,000000;0,000000;0,000000;0,218031;0,601494;0,218031;0,176364;0,176364;0,285739;0,176364;0,176364;0,367935;0,367935;0,582645;0,367935;0,218031;0,218031;0,218031;0,000000;0,000000;0,000000;0,300189;0,300189;0,176364;0,358852;0,300189;0,358852;0,218031;0,218031;0,301364;0,301364;0,363434;0,551364;0,301364;0,301364;0,125806;0,237452;0,000000;0,000000;0,301364;0,301364;0,446478;0,469323;0,218031;0,218031;0,218031;0,176364;0,176364;0,301364;0,254382;0,218031;0,218031;0,218031;0,623861;0,623861;0,534906;0,632320;0,632049;0,232151;0,220747;0,297171;0,301364;0,301364;0,176364;0,176364;0,176364;0,176364;0,301364;0,176364;0,322814;0,176364;0,176364;0,218031;0,218031;0,218031;0,301364;0,384698;0,301364;0,301364;0,218031;0,218031;0,218031;0,176364;0,176364;0,301364;0,442185;0,218031;0,218031;0,358852;0,358852;0,358852;0,218031;0,218031;0,218031;0,218031;0,218031;0,359664;0,359664;0,218031;0,407386;0,407386;0,218031;
15;;;;;;;;;;;;;;;1,000000;0,750000;0,750000;0,530575;0,225000;0,225000;0,265587;0,265587;0,291667;0,375000;0,259297;0,250000;0,250000;0,250000;0,000000;0,000000;0,000000;0,291667;0,389543;0,291667;0,250000;0,250000;0,359375;0,500000;0,500000;0,250000;0,250000;0,166209;0,250000;0,291667;0,291667;0,291667;0,000000;0,000000;0,000000;0,441501;0,441501;0,500000;0,250000;0,441501;0,250000;0,291667;0,291667;0,375000;0,375000;0,437070;0,625000;0,375000;0,375000;0,445657;0,375000;0,250000;0,250000;0,375000;0,375000;0,425986;0,225000;0,291667;0,291667;0,291667;0,250000;0,250000;0,375000;0,328017;0,291667;0,291667;0,291667;0,000000;0,000000;0,000000;0,225000;0,225000;0,305786;0,294383;0,282296;0,375000;0,375000;0,250000;0,250000;0,250000;0,250000;0,375000;0,250000;0,478089;0,250000;0,250000;0,291667;0,291667;0,291667;0,375000;0,458333;0,375000;0,375000;0,291667;0,291667;0,291667;0,500000;0,500000;0,375000;0,291667;0,291667;0,291667;0,250000;0,250000;0,250000;0,291667;0,291667;0,291667;0,291667;0,291667;0,250000;0,250000;0,291667;0,000000;0,000000;0,291667;
16;;;;;;;;;;;;;;;;1,000000;0,750000;0,530575;0,225000;0,225000;0,265587;0,265587;0,291667;0,375000;0,259297;0,250000;0,250000;0,250000;0,000000;0,000000;0,000000;0,291667;0,389543;0,291667;0,250000;0,250000;0,359375;0,500000;0,500000;0,250000;0,250000;0,166209;0,250000;0,291667;0,291667;0,291667;0,000000;0,000000;0,000000;0,441501;0,441501;0,500000;0,250000;0,441501;0,250000;0,291667;0,291667;0,375000;0,375000;0,437070;0,625000;0,375000;0,375000;0,445657;0,375000;0,250000;0,250000;0,375000;0,375000;0,425986;0,225000;0,291667;0,291667;0,291667;0,250000;0,250000;0,375000;0,328017;0,291667;0,291667;0,291667;0,000000;0,000000;0,000000;0,225000;0,225000;0,305786;0,294383;0,282296;0,375000;0,375000;0,250000;0,250000;0,250000;0,250000;0,375000;0,250000;0,478089;0,250000;0,250000;0,291667;0,291667;0,291667;0,375000;0,458333;0,375000;0,375000;0,291667;0,291667;0,291667;0,500000;0,500000;0,375000;0,291667;0,291667;0,291667;0,250000;0,250000;0,250000;0,291667;0,291667;0,291667;0,291667;0,291667;0,250000;0,250000;0,291667;0,000000;0,000000;0,291667;
17;;;;;;;;;;;;;;;;;1,000000;0,530575;0,225000;0,225000;0,265587;0,265587;0,291667;0,375000;0,259297;0,250000;0,250000;0,250000;0,000000;0,000000;0,000000;0,291667;0,389543;0,291667;0,250000;0,250000;0,359375;0,500000;0,500000;0,250000;0,250000;0,166209;0,250000;0,291667;0,291667;0,291667;0,000000;0,000000;0,000000;0,441501;0,441501;0,500000;0,250000;0,441501;0,250000;0,291667;0,291667;0,375000;0,375000;0,437070;0,625000;0,375000;0,375000;0,445657;0,375000;0,250000;0,250000;0,375000;0,375000;0,425986;0,225000;0,291667;0,291667;0,291667;0,250000;0,250000;0,375000;0,328017;0,291667;0,291667;0,291667;0,000000;0,000000;0,000000;0,225000;0,225000;0,305786;0,294383;0,282296;0,375000;0,375000;0,250000;0,250000;0,250000;0,250000;0,375000;0,250000;0,478089;0,250000;0,250000;0,291667;0,291667;0,291667;0,375000;0,458333;0,375000;0,375000;0,291667;0,291667;0,291667;0,500000;0,500000;0,375000;0,291667;0,291667;0,291667;0,250000;0,250000;0,250000;0,291667;0,291667;0,291667;0,291667;0,291667;0,250000;0,250000;0,291667;0,000000;0,000000;0,291667;
18;;;;;;;;;;;;;;;;;;1,000000;0,210924;0,210924;0,251511;0,251511;0,277591;0,360924;0,245221;0,235924;0,235924;0,235924;0,000000;0,000000;0,000000;0,484003;0,445110;0,484003;0,400670;0,400670;0,430490;0,548355;0,548355;0,235924;0,235924;0,240531;0,235924;0,277591;0,277591;0,277591;0,000000;0,000000;0,000000;0,536117;0,536117;0,530332;0,506499;0,420476;0,381575;0,277591;0,277591;0,360924;0,360924;0,422994;0,610924;0,360924;0,360924;0,627206;0,658581;0,528447;0,528447;0,360924;0,360924;0,508575;0,597508;0,277591;0,277591;0,277591;0,235924;0,235924;0,360924;0,313941;0,277591;0,277591;0,277591;0,000000;0,000000;0,122877;0,472985;0,472985;0,291710;0,280307;0,268220;0,360924;0,360924;0,235924;0,235924;0,235924;0,235924;0,360924;0,235924;0,463495;0,235924;0,235924;0,277591;0,277591;0,277591;0,360924;0,444257;0,360924;0,360924;0,277591;0,277591;0,277591;0,530453;0,530453;0,360924;0,484003;0,277591;0,277591;0,235924;0,235924;0,235924;0,277591;0,277591;0,277591;0,277591;0,277591;0,235924;0,235924;0,277591;0,170887;0,170887;0,277591;
19;;;;;;;;;;;;;;;;;;;1,000000;0,800000;0,761276;0,761276;0,533333;0,700000;0,234297;0,225000;0,225000;0,225000;0,000000;0,000000;0,000000;0,266667;0,211605;0,266667;0,225000;0,225000;0,334375;0,225000;0,225000;0,225000;0,225000;0,141209;0,225000;0,266667;0,266667;0,266667;0,000000;0,000000;0,000000;0,225000;0,225000;0,225000;0,225000;0,225000;0,225000;0,533333;0,533333;0,350000;0,350000;0,412070;0,600000;0,350000;0,350000;0,174442;0,160460;0,000000;0,000000;0,350000;0,350000;0,211863;0,200000;0,266667;0,266667;0,266667;0,225000;0,225000;0,350000;0,303017;0,266667;0,266667;0,266667;0,000000;0,000000;0,000000;0,200000;0,200000;0,280786;0,269383;0,257296;0,350000;0,350000;0,225000;0,225000;0,225000;0,225000;0,350000;0,225000;0,244285;0,225000;0,225000;0,266667;0,266667;0,266667;0,350000;0,433333;0,350000;0,350000;0,266667;0,266667;0,266667;0,225000;0,225000;0,350000;0,266667;0,266667;0,266667;0,225000;0,225000;0,225000;0,266667;0,266667;0,266667;0,800000;0,266667;0,225000;0,225000;0,800000;0,000000;0,000000;0,266667;
20;;;;;;;;;;;;;;;;;;;;1,000000;0,761276;0,761276;0,533333;0,700000;0,234297;0,225000;0,225000;0,225000;0,000000;0,000000;0,000000;0,266667;0,211605;0,266667;0,225000;0,225000;0,334375;0,225000;0,225000;0,225000;0,225000;0,141209;0,225000;0,266667;0,266667;0,266667;0,000000;0,000000;0,000000;0,225000;0,225000;0,225000;0,225000;0,225000;0,225000;0,533333;0,533333;0,350000;0,350000;0,412070;0,600000;0,350000;0,350000;0,174442;0,160460;0,000000;0,000000;0,350000;0,350000;0,211863;0,200000;0,266667;0,266667;0,266667;0,225000;0,225000;0,350000;0,303017;0,266667;0,266667;0,266667;0,000000;0,000000;0,000000;0,200000;0,200000;0,280786;0,269383;0,257296;0,350000;0,350000;0,225000;0,225000;0,225000;0,225000;0,350000;0,225000;0,244285;0,225000;0,225000;0,266667;0,266667;0,266667;0,350000;0,433333;0,350000;0,350000;0,266667;0,266667;0,266667;0,225000;0,225000;0,350000;0,266667;0,266667;0,266667;0,225000;0,225000;0,225000;0,266667;0,266667;0,266667;0,800000;0,266667;0,225000;0,225000;0,800000;0,000000;0,000000;0,266667;
21;;;;;;;;;;;;;;;;;;;;;1,000000;0,722535;0,513848;0,680515;0,274884;0,265587;0,265587;0,265587;0,000000;0,000000;0,000000;0,307254;0,252193;0,307254;0,265587;0,265587;0,374962;0,265587;0,265587;0,265587;0,265587;0,181796;0,265587;0,307254;0,307254;0,307254;0,000000;0,000000;0,000000;0,265587;0,265587;0,265587;0,265587;0,265587;0,265587;0,513848;0,513848;0,390587;0,390587;0,452657;0,640587;0,390587;0,390587;0,215029;0,201047;0,000000;0,000000;0,390587;0,390587;0,252451;0,240587;0,307254;0,307254;0,307254;0,265587;0,265587;0,390587;0,343605;0,307254;0,307254;0,307254;0,000000;0,000000;0,000000;0,240587;0,240587;0,321374;0,309970;0,297884;0,390587;0,390587;0,265587;0,265587;0,265587;0,265587;0,390587;0,265587;0,284872;0,265587;0,265587;0,307254;0,307254;0,307254;0,390587;0,473921;0,390587;0,390587;0,307254;0,307254;0,307254;0,265587;0,265587;0,390587;0,307254;0,307254;0,307254;0,265587;0,265587;0,265587;0,307254;0,307254;0,307254;0,614508;0,307254;0,265587;0,265587;0,614508;0,000000;0,000000;0,307254;
22;;;;;;;;;;;;;;;;;;;;;;1,000000;0,513848;0,680515;0,274884;0,265587;0,265587;0,265587;0,000000;0,000000;0,000000;0,307254;0,252193;0,307254;0,265587;0,265587;0,374962;0,265587;0,265587;0,265587;0,265587;0,181796;0,265587;0,307254;0,307254;0,307254;0,000000;0,000000;0,000000;0,265587;0,265587;0,265587;0,265587;0,265587;0,265587;0,513848;0,513848;0,390587;0,390587;0,452657;0,640587;0,390587;0,390587;0,215029;0,201047;0,000000;0,000000;0,390587;0,390587;0,252451;0,240587;0,307254;0,307254;0,307254;0,265587;0,265587;0,390587;0,343605;0,307254;0,307254;0,307254;0,000000;0,000000;0,000000;0,240587;0,240587;0,321374;0,309970;0,297884;0,390587;0,390587;0,265587;0,265587;0,265587;0,265587;0,390587;0,265587;0,284872;0,265587;0,265587;0,307254;0,307254;0,307254;0,390587;0,473921;0,390587;0,390587;0,307254;0,307254;0,307254;0,265587;0,265587;0,390587;0,307254;0,307254;0,307254;0,265587;0,265587;0,265587;0,307254;0,307254;0,307254;0,614508;0,307254;0,265587;0,265587;0,614508;0,000000;0,000000;0,307254;
23;;;;;;;;;;;;;;;;;;;;;;;1,000000;0,833333;0,300964;0,291667;0,291667;0,291667;0,000000;0,000000;0,000000;0,333333;0,278272;0,333333;0,291667;0,291667;0,401042;0,291667;0,291667;0,291667;0,291667;0,207875;0,291667;0,333333;0,333333;0,333333;0,000000;0,000000;0,000000;0,291667;0,291667;0,291667;0,291667;0,291667;0,291667;0,666667;0,666667;0,416667;0,416667;0,478736;0,666667;0,416667;0,416667;0,241108;0,227126;0,000000;0,000000;0,416667;0,416667;0,278530;0,266667;0,333333;0,333333;0,333333;0,291667;0,291667;0,416667;0,369684;0,333333;0,333333;0,333333;0,000000;0,000000;0,000000;0,266667;0,266667;0,347453;0,336050;0,323963;0,416667;0,416667;0,291667;0,291667;0,291667;0,291667;0,416667;0,291667;0,310952;0,291667;0,291667;0,333333;0,333333;0,333333;0,416667;0,500000;0,416667;0,416667;0,333333;0,333333;0,333333;0,291667;0,291667;0,416667;0,333333;0,333333;0,333333;0,291667;0,291667;0,291667;0,333333;0,333333;0,333333;0,333333;0,333333;0,291667;0,291667;0,333333;0,000000;0,000000;0,333333;
24;;;;;;;;;;;;;;;;;;;;;;;;1,000000;0,384297;0,375000;0,375000;0,375000;0,000000;0,000000;0,000000;0,416667;0,361605;0,416667;0,375000;0,375000;0,484375;0,375000;0,375000;0,375000;0,375000;0,291209;0,375000;0,416667;0,416667;0,416667;0,000000;0,000000;0,000000;0,375000;0,375000;0,375000;0,375000;0,375000;0,375000;0,833333;0,833333;0,500000;0,500000;0,562070;0,750000;0,500000;0,500000;0,324442;0,310460;0,000000;0,000000;0,500000;0,500000;0,361863;0,350000;0,416667;0,416667;0,416667;0,375000;0,375000;0,500000;0,453017;0,416667;0,416667;0,416667;0,000000;0,000000;0,000000;0,350000;0,350000;0,430786;0,419383;0,407296;0,500000;0,500000;0,375000;0,375000;0,375000;0,375000;0,500000;0,375000;0,394285;0,375000;0,375000;0,416667;0,416667;0,416667;0,500000;0,583333;0,500000;0,500000;0,416667;0,416667;0,416667;0,375000;0,375000;0,500000;0,416667;0,416667;0,416667;0,375000;0,375000;0,375000;0,416667;0,416667;0,416667;0,416667;0,416667;0,375000;0,375000;0,416667;0,000000;0,000000;0,416667;
25;;;;;;;;;;;;;;;;;;;;;;;;;1,000000;0,711460;0,644450;0,644450;0,000000;0,000000;0,000000;0,300964;0,245902;0,300964;0,259297;0,259297;0,368672;0,259297;0,259297;0,259297;0,259297;0,175506;0,259297;0,300964;0,300964;0,300964;0,000000;0,000000;0,000000;0,259297;0,259297;0,259297;0,259297;0,259297;0,259297;0,300964;0,300964;0,384297;0,384297;0,446367;0,634297;0,384297;0,384297;0,208739;0,194757;0,000000;0,000000;0,384297;0,384297;0,246161;0,234297;0,300964;0,300964;0,300964;0,678636;0,678636;0,384297;0,337315;0,300964;0,300964;0,300964;0,000000;0,000000;0,000000;0,234297;0,234297;0,315083;0,303680;0,291593;0,384297;0,384297;0,259297;0,259297;0,259297;0,259297;0,384297;0,259297;0,278582;0,259297;0,259297;0,300964;0,300964;0,300964;0,384297;0,467630;0,384297;0,384297;0,300964;0,300964;0,300964;0,259297;0,259297;0,384297;0,300964;0,510268;0,510268;0,259297;0,259297;0,259297;0,300964;0,300964;0,300964;0,300964;0,300964;0,259297;0,259297;0,300964;0,000000;0,000000;0,300964;
26;;;;;;;;;;;;;;;;;;;;;;;;;;1,000000;0,669310;0,669310;0,000000;0,000000;0,000000;0,291667;0,236605;0,291667;0,250000;0,250000;0,359375;0,250000;0,250000;0,250000;0,250000;0,166209;0,250000;0,291667;0,291667;0,291667;0,000000;0,000000;0,000000;0,250000;0,250000;0,250000;0,250000;0,250000;0,250000;0,291667;0,291667;0,375000;0,375000;0,437070;0,625000;0,375000;0,375000;0,199442;0,185460;0,000000;0,000000;0,375000;0,375000;0,236863;0,225000;0,291667;0,291667;0,291667;0,710814;0,710814;0,375000;0,328017;0,291667;0,291667;0,291667;0,000000;0,000000;0,000000;0,225000;0,225000;0,305786;0,294383;0,282296;0,375000;0,375000;0,250000;0,250000;0,250000;0,250000;0,375000;0,250000;0,269285;0,250000;0,250000;0,291667;0,291667;0,291667;0,375000;0,458333;0,375000;0,375000;0,291667;0,291667;0,291667;0,250000;0,250000;0,375000;0,291667;0,583333;0,583333;0,250000;0,250000;0,250000;0,291667;0,291667;0,291667;0,291667;0,291667;0,250000;0,250000;0,291667;0,000000;0,000000;0,291667;
27;;;;;;;;;;;;;;;;;;;;;;;;;;;1,000000;0,750000;0,000000;0,000000;0,000000;0,291667;0,236605;0,291667;0,250000;0,250000;0,359375;0,250000;0,250000;0,250000;0,250000;0,166209;0,250000;0,291667;0,291667;0,291667;0,000000;0,000000;0,000000;0,250000;0,250000;0,250000;0,250000;0,250000;0,250000;0,291667;0,291667;0,375000;0,375000;0,437070;0,625000;0,375000;0,375000;0,199442;0,185460;0,000000;0,000000;0,375000;0,375000;0,236863;0,225000;0,291667;0,291667;0,291667;0,750000;0,750000;0,375000;0,328017;0,291667;0,291667;0,291667;0,000000;0,000000;0,000000;0,225000;0,225000;0,305786;0,294383;0,282296;0,375000;0,375000;0,250000;0,250000;0,250000;0,250000;0,375000;0,250000;0,269285;0,250000;0,250000;0,291667;0,291667;0,291667;0,375000;0,458333;0,375000;0,375000;0,291667;0,291667;0,291667;0,250000;0,250000;0,375000;0,291667;0,583333;0,583333;0,250000;0,250000;0,250000;0,291667;0,291667;0,291667;0,291667;0,291667;0,250000;0,250000;0,291667;0,000000;0,000000;0,291667;
28;;;;;;;;;;;;;;;;;;;;;;;;;;;;1,000000;0,000000;0,000000;0,000000;0,291667;0,236605;0,291667;0,250000;0,250000;0,359375;0,250000;0,250000;0,250000;0,250000;0,166209;0,250000;0,291667;0,291667;0,291667;0,000000;0,000000;0,000000;0,250000;0,250000;0,250000;0,250000;0,250000;0,250000;0,291667;0,291667;0,375000;0,375000;0,437070;0,625000;0,375000;0,375000;0,199442;0,185460;0,000000;0,000000;0,375000;0,375000;0,236863;0,225000;0,291667;0,291667;0,291667;0,750000;0,750000;0,375000;0,328017;0,291667;0,291667;0,291667;0,000000;0,000000;0,000000;0,225000;0,225000;0,305786;0,294383;0,282296;0,375000;0,375000;0,250000;0,250000;0,250000;0,250000;0,375000;0,250000;0,269285;0,250000;0,250000;0,291667;0,291667;0,291667;0,375000;0,458333;0,375000;0,375000;0,291667;0,291667;0,291667;0,250000;0,250000;0,375000;0,291667;0,583333;0,583333;0,250000;0,250000;0,250000;0,291667;0,291667;0,291667;0,291667;0,291667;0,250000;0,250000;0,291667;0,000000;0,000000;0,291667;
29;;;;;;;;;;;;;;;;;;;;;;;;;;;;;1,000000;0,500000;0,500000;0,000000;0,000000;0,000000;0,000000;0,000000;0,000000;0,000000;0,000000;0,000000;0,000000;0,000000;0,000000;0,000000;0,000000;0,000000;0,000000;0,000000;0,000000;0,000000;0,000000;0,000000;0,000000;0,000000;0,000000;0,000000;0,000000;0,000000;0,000000;0,000000;0,000000;0,000000;0,000000;0,000000;0,000000;0,000000;0,000000;0,000000;0,000000;0,000000;0,000000;0,000000;0,000000;0,000000;0,000000;0,000000;0,000000;0,000000;0,000000;0,000000;0,000000;0,000000;0,000000;0,000000;0,000000;0,000000;0,000000;0,000000;0,000000;0,000000;0,000000;0,000000;0,000000;0,000000;0,000000;0,000000;0,000000;0,000000;0,000000;0,000000;0,000000;0,000000;0,000000;0,000000;0,000000;0,000000;0,000000;0,000000;0,000000;0,000000;0,000000;0,000000;0,000000;0,000000;0,000000;0,000000;0,000000;0,000000;0,000000;0,000000;0,000000;0,000000;0,000000;0,000000;0,000000;0,000000;0,000000;0,000000;0,000000;0,000000;
30;;;;;;;;;;;;;;;;;;;;;;;;;;;;;;1,000000;0,500000;0,000000;0,000000;0,000000;0,000000;0,000000;0,000000;0,000000;0,000000;0,000000;0,000000;0,000000;0,000000;0,000000;0,000000;0,000000;0,000000;0,000000;0,000000;0,000000;0,000000;0,000000;0,000000;0,000000;0,000000;0,000000;0,000000;0,000000;0,000000;0,000000;0,000000;0,000000;0,000000;0,000000;0,000000;0,000000;0,000000;0,000000;0,000000;0,000000;0,000000;0,000000;0,000000;0,000000;0,000000;0,000000;0,000000;0,000000;0,000000;0,000000;0,000000;0,000000;0,000000;0,000000;0,000000;0,000000;0,000000;0,000000;0,000000;0,000000;0,000000;0,000000;0,000000;0,000000;0,000000;0,000000;0,000000;0,000000;0,000000;0,000000;0,000000;0,000000;0,000000;0,000000;0,000000;0,000000;0,000000;0,000000;0,000000;0,000000;0,000000;0,000000;0,000000;0,000000;0,000000;0,000000;0,000000;0,000000;0,000000;0,000000;0,000000;0,000000;0,000000;0,000000;0,000000;0,000000;0,000000;0,000000;0,000000;0,000000;
31;;;;;;;;;;;;;;;;;;;;;;;;;;;;;;;1,000000;0,000000;0,000000;0,000000;0,000000;0,000000;0,000000;0,000000;0,000000;0,000000;0,000000;0,000000;0,000000;0,000000;0,000000;0,000000;0,000000;0,000000;0,000000;0,000000;0,000000;0,000000;0,000000;0,000000;0,000000;0,000000;0,000000;0,000000;0,000000;0,000000;0,000000;0,000000;0,000000;0,000000;0,000000;0,000000;0,000000;0,000000;0,000000;0,000000;0,000000;0,000000;0,000000;0,000000;0,000000;0,000000;0,000000;0,000000;0,000000;0,000000;0,000000;0,000000;0,000000;0,000000;0,000000;0,000000;0,000000;0,000000;0,000000;0,000000;0,000000;0,000000;0,000000;0,000000;0,000000;0,000000;0,000000;0,000000;0,000000;0,000000;0,000000;0,000000;0,000000;0,000000;0,000000;0,000000;0,000000;0,000000;0,000000;0,000000;0,000000;0,000000;0,000000;0,000000;0,000000;0,000000;0,000000;0,000000;0,000000;0,000000;0,000000;0,000000;0,000000;0,000000;0,000000;0,000000;0,000000;0,000000;0,000000;0,000000;
32;;;;;;;;;;;;;;;;;;;;;;;;;;;;;;;;1,000000;0,462002;0,666667;0,583333;0,583333;0,613153;0,583333;0,583333;0,291667;0,291667;0,423195;0,291667;0,333333;0,333333;0,333333;0,000000;0,000000;0,000000;0,291667;0,291667;0,291667;0,524589;0,291667;0,291667;0,333333;0,333333;0,416667;0,416667;0,478736;0,666667;0,416667;0,416667;0,241108;0,227126;0,000000;0,000000;0,416667;0,416667;0,557060;0,533333;0,333333;0,333333;0,333333;0,291667;0,291667;0,416667;0,369684;0,333333;0,333333;0,333333;0,000000;0,000000;0,243657;0,533333;0,533333;0,347453;0,336050;0,323963;0,416667;0,416667;0,291667;0,291667;0,291667;0,291667;0,416667;0,291667;0,547242;0,291667;0,291667;0,333333;0,333333;0,333333;0,416667;0,500000;0,416667;0,416667;0,333333;0,333333;0,333333;0,291667;0,291667;0,416667;0,666667;0,333333;0,333333;0,291667;0,291667;0,291667;0,333333;0,333333;0,333333;0,333333;0,333333;0,291667;0,291667;0,333333;0,291667;0,291667;0,333333;
33;;;;;;;;;;;;;;;;;;;;;;;;;;;;;;;;;1,000000;0,462002;0,517529;0,517529;0,475241;0,530694;0,530694;0,374052;0,374052;0,471166;0,374052;0,278272;0,278272;0,278272;0,000000;0,000000;0,000000;0,449949;0,449949;0,389543;0,505659;0,529512;0,565355;0,278272;0,278272;0,361605;0,361605;0,423675;0,611605;0,361605;0,361605;0,412977;0,371455;0,160478;0,160478;0,361605;0,361605;0,651302;0,652053;0,278272;0,278272;0,278272;0,236605;0,236605;0,509393;0,314623;0,278272;0,278272;0,278272;0,304641;0,304641;0,376578;0,638187;0,638129;0,292391;0,280988;0,311409;0,361605;0,361605;0,236605;0,236605;0,236605;0,236605;0,361605;0,236605;0,570961;0,236605;0,236605;0,278272;0,278272;0,278272;0,361605;0,444939;0,361605;0,361605;0,278272;0,278272;0,278272;0,389543;0,389543;0,625877;0,508657;0,278272;0,278272;0,425323;0,425323;0,425323;0,278272;0,278272;0,278272;0,278272;0,278272;0,373901;0,373901;0,278272;0,466921;0,466921;0,278272;
34;;;;;;;;;;;;;;;;;;;;;;;;;;;;;;;;;;1,000000;0,583333;0,583333;0,613153;0,583333;0,583333;0,291667;0,291667;0,423195;0,291667;0,333333;0,333333;0,333333;0,000000;0,000000;0,000000;0,291667;0,291667;0,291667;0,524589;0,291667;0,291667;0,333333;0,333333;0,416667;0,416667;0,478736;0,666667;0,416667;0,416667;0,241108;0,227126;0,000000;0,000000;0,416667;0,416667;0,557060;0,533333;0,333333;0,333333;0,333333;0,291667;0,291667;0,416667;0,369684;0,333333;0,333333;0,333333;0,000000;0,000000;0,243657;0,533333;0,533333;0,347453;0,336050;0,323963;0,416667;0,416667;0,291667;0,291667;0,291667;0,291667;0,416667;0,291667;0,547242;0,291667;0,291667;0,333333;0,333333;0,333333;0,416667;0,500000;0,416667;0,416667;0,333333;0,333333;0,333333;0,291667;0,291667;0,416667;0,666667;0,333333;0,333333;0,291667;0,291667;0,291667;0,333333;0,333333;0,333333;0,333333;0,333333;0,291667;0,291667;0,333333;0,291667;0,291667;0,333333;
35;;;;;;;;;;;;;;;;;;;;;;;;;;;;;;;;;;;1,000000;0,750000;0,706951;0,500000;0,500000;0,250000;0,250000;0,339862;0,250000;0,291667;0,291667;0,291667;0,000000;0,000000;0,000000;0,250000;0,250000;0,250000;0,441256;0,250000;0,250000;0,291667;0,291667;0,375000;0,375000;0,437070;0,625000;0,375000;0,375000;0,199442;0,185460;0,000000;0,000000;0,375000;0,375000;0,473727;0,450000;0,291667;0,291667;0,291667;0,250000;0,250000;0,633515;0,328017;0,291667;0,291667;0,291667;0,000000;0,000000;0,201990;0,450000;0,450000;0,305786;0,294383;0,282296;0,375000;0,375000;0,250000;0,250000;0,250000;0,250000;0,375000;0,250000;0,463909;0,250000;0,250000;0,291667;0,291667;0,291667;0,375000;0,458333;0,375000;0,375000;0,291667;0,291667;0,291667;0,250000;0,250000;0,750000;0,583333;0,291667;0,291667;0,250000;0,250000;0,250000;0,291667;0,291667;0,291667;0,291667;0,291667;0,250000;0,250000;0,291667;0,250000;0,250000;0,291667;
36;;;;;;;;;;;;;;;;;;;;;;;;;;;;;;;;;;;;1,000000;0,706951;0,500000;0,500000;0,250000;0,250000;0,339862;0,250000;0,291667;0,291667;0,291667;0,000000;0,000000;0,000000;0,250000;0,250000;0,250000;0,441256;0,250000;0,250000;0,291667;0,291667;0,375000;0,375000;0,437070;0,625000;0,375000;0,375000;0,199442;0,185460;0,000000;0,000000;0,375000;0,375000;0,473727;0,450000;0,291667;0,291667;0,291667;0,250000;0,250000;0,633515;0,328017;0,291667;0,291667;0,291667;0,000000;0,000000;0,201990;0,450000;0,450000;0,305786;0,294383;0,282296;0,375000;0,375000;0,250000;0,250000;0,250000;0,250000;0,375000;0,250000;0,463909;0,250000;0,250000;0,291667;0,291667;0,291667;0,375000;0,458333;0,375000;0,375000;0,291667;0,291667;0,291667;0,250000;0,250000;0,750000;0,583333;0,291667;0,291667;0,250000;0,250000;0,250000;0,291667;0,291667;0,291667;0,291667;0,291667;0,250000;0,250000;0,291667;0,250000;0,250000;0,291667;
37;;;;;;;;;;;;;;;;;;;;;;;;;;;;;;;;;;;;;1,000000;0,529820;0,529820;0,359375;0,359375;0,369682;0,359375;0,401042;0,401042;0,401042;0,000000;0,000000;0,000000;0,359375;0,359375;0,359375;0,471076;0,359375;0,359375;0,401042;0,401042;0,484375;0,484375;0,546445;0,734375;0,484375;0,484375;0,308817;0,294835;0,000000;0,000000;0,484375;0,484375;0,503547;0,479820;0,401042;0,401042;0,401042;0,359375;0,359375;0,484375;0,628158;0,401042;0,401042;0,401042;0,000000;0,000000;0,134745;0,479820;0,479820;0,415161;0,403758;0,391671;0,484375;0,484375;0,359375;0,359375;0,359375;0,359375;0,484375;0,359375;0,493729;0,359375;0,359375;0,401042;0,401042;0,401042;0,484375;0,567708;0,484375;0,484375;0,401042;0,401042;0,401042;0,359375;0,359375;0,484375;0,613153;0,401042;0,401042;0,359375;0,359375;0,359375;0,401042;0,401042;0,401042;0,401042;0,401042;0,359375;0,359375;0,401042;0,182755;0,182755;0,401042;
38;;;;;;;;;;;;;;;;;;;;;;;;;;;;;;;;;;;;;;1,000000;0,750000;0,250000;0,250000;0,339862;0,250000;0,291667;0,291667;0,291667;0,000000;0,000000;0,000000;0,441501;0,441501;0,500000;0,441256;0,441501;0,250000;0,291667;0,291667;0,375000;0,375000;0,437070;0,625000;0,375000;0,375000;0,445657;0,375000;0,250000;0,250000;0,375000;0,375000;0,661379;0,450000;0,291667;0,291667;0,291667;0,250000;0,250000;0,375000;0,328017;0,291667;0,291667;0,291667;0,000000;0,000000;0,201990;0,450000;0,450000;0,305786;0,294383;0,282296;0,375000;0,375000;0,250000;0,250000;0,250000;0,250000;0,375000;0,250000;0,663734;0,250000;0,250000;0,291667;0,291667;0,291667;0,375000;0,458333;0,375000;0,375000;0,291667;0,291667;0,291667;0,500000;0,500000;0,375000;0,583333;0,291667;0,291667;0,250000;0,250000;0,250000;0,291667;0,291667;0,291667;0,291667;0,291667;0,250000;0,250000;0,291667;0,250000;0,250000;0,291667;
39;;;;;;;;;;;;;;;;;;;;;;;;;;;;;;;;;;;;;;;1,000000;0,250000;0,250000;0,339862;0,250000;0,291667;0,291667;0,291667;0,000000;0,000000;0,000000;0,441501;0,441501;0,500000;0,441256;0,441501;0,250000;0,291667;0,291667;0,375000;0,375000;0,437070;0,625000;0,375000;0,375000;0,445657;0,375000;0,250000;0,250000;0,375000;0,375000;0,661379;0,450000;0,291667;0,291667;0,291667;0,250000;0,250000;0,375000;0,328017;0,291667;0,291667;0,291667;0,000000;0,000000;0,201990;0,450000;0,450000;0,305786;0,294383;0,282296;0,375000;0,375000;0,250000;0,250000;0,250000;0,250000;0,375000;0,250000;0,663734;0,250000;0,250000;0,291667;0,291667;0,291667;0,375000;0,458333;0,375000;0,375000;0,291667;0,291667;0,291667;0,500000;0,500000;0,375000;0,583333;0,291667;0,291667;0,250000;0,250000;0,250000;0,291667;0,291667;0,291667;0,291667;0,291667;0,250000;0,250000;0,291667;0,250000;0,250000;0,291667;
40;;;;;;;;;;;;;;;;;;;;;;;;;;;;;;;;;;;;;;;;1,000000;0,750000;0,519220;0,750000;0,291667;0,291667;0,291667;0,000000;0,000000;0,000000;0,250000;0,250000;0,250000;0,250000;0,250000;0,250000;0,291667;0,291667;0,375000;0,375000;0,437070;0,625000;0,375000;0,375000;0,199442;0,185460;0,000000;0,000000;0,375000;0,375000;0,236863;0,225000;0,291667;0,291667;0,291667;0,250000;0,250000;0,375000;0,328017;0,291667;0,291667;0,291667;0,250000;0,250000;0,250000;0,225000;0,225000;0,305786;0,294383;0,282296;0,375000;0,375000;0,250000;0,250000;0,250000;0,250000;0,375000;0,250000;0,269285;0,250000;0,250000;0,291667;0,291667;0,291667;0,375000;0,458333;0,375000;0,375000;0,291667;0,291667;0,291667;0,250000;0,250000;0,375000;0,291667;0,291667;0,291667;0,250000;0,250000;0,250000;0,291667;0,291667;0,291667;0,291667;0,291667;0,250000;0,250000;0,291667;0,250000;0,250000;0,291667;
41;;;;;;;;;;;;;;;;;;;;;;;;;;;;;;;;;;;;;;;;;1,000000;0,519220;0,750000;0,291667;0,291667;0,291667;0,000000;0,000000;0,000000;0,250000;0,250000;0,250000;0,250000;0,250000;0,250000;0,291667;0,291667;0,375000;0,375000;0,437070;0,625000;0,375000;0,375000;0,199442;0,185460;0,000000;0,000000;0,375000;0,375000;0,236863;0,225000;0,291667;0,291667;0,291667;0,250000;0,250000;0,375000;0,328017;0,291667;0,291667;0,291667;0,250000;0,250000;0,250000;0,225000;0,225000;0,305786;0,294383;0,282296;0,375000;0,375000;0,250000;0,250000;0,250000;0,250000;0,375000;0,250000;0,269285;0,250000;0,250000;0,291667;0,291667;0,291667;0,375000;0,458333;0,375000;0,375000;0,291667;0,291667;0,291667;0,250000;0,250000;0,375000;0,291667;0,291667;0,291667;0,250000;0,250000;0,250000;0,291667;0,291667;0,291667;0,291667;0,291667;0,250000;0,250000;0,291667;0,250000;0,250000;0,291667;
42;;;;;;;;;;;;;;;;;;;;;;;;;;;;;;;;;;;;;;;;;;1,000000;0,519220;0,207875;0,207875;0,207875;0,000000;0,000000;0,000000;0,166209;0,166209;0,166209;0,281117;0,166209;0,166209;0,207875;0,207875;0,291209;0,291209;0,353278;0,541209;0,291209;0,291209;0,115650;0,101668;0,000000;0,000000;0,291209;0,291209;0,313589;0,289862;0,207875;0,207875;0,207875;0,166209;0,166209;0,291209;0,244226;0,207875;0,207875;0,207875;0,599430;0,599430;0,698724;0,289862;0,289862;0,221995;0,210592;0,198505;0,291209;0,291209;0,166209;0,166209;0,166209;0,166209;0,291209;0,166209;0,303770;0,166209;0,166209;0,207875;0,207875;0,207875;0,291209;0,374542;0,291209;0,291209;0,207875;0,207875;0,207875;0,166209;0,166209;0,291209;0,423195;0,207875;0,207875;0,166209;0,166209;0,166209;0,207875;0,207875;0,207875;0,207875;0,207875;0,166209;0,166209;0,207875;0,560517;0,560517;0,207875;
43;;;;;;;;;;;;;;;;;;;;;;;;;;;;;;;;;;;;;;;;;;;1,000000;0,291667;0,291667;0,291667;0,000000;0,000000;0,000000;0,250000;0,250000;0,250000;0,250000;0,250000;0,250000;0,291667;0,291667;0,375000;0,375000;0,437070;0,625000;0,375000;0,375000;0,199442;0,185460;0,000000;0,000000;0,375000;0,375000;0,236863;0,225000;0,291667;0,291667;0,291667;0,250000;0,250000;0,375000;0,328017;0,291667;0,291667;0,291667;0,250000;0,250000;0,250000;0,225000;0,225000;0,305786;0,294383;0,282296;0,375000;0,375000;0,250000;0,250000;0,250000;0,250000;0,375000;0,250000;0,269285;0,250000;0,250000;0,291667;0,291667;0,291667;0,375000;0,458333;0,375000;0,375000;0,291667;0,291667;0,291667;0,250000;0,250000;0,375000;0,291667;0,291667;0,291667;0,250000;0,250000;0,250000;0,291667;0,291667;0,291667;0,291667;0,291667;0,250000;0,250000;0,291667;0,250000;0,250000;0,291667;
44;;;;;;;;;;;;;;;;;;;;;;;;;;;;;;;;;;;;;;;;;;;;1,000000;0,666667;0,666667;0,000000;0,000000;0,000000;0,291667;0,291667;0,291667;0,291667;0,291667;0,291667;0,333333;0,333333;0,416667;0,416667;0,478736;0,666667;0,416667;0,416667;0,241108;0,227126;0,000000;0,000000;0,416667;0,416667;0,278530;0,266667;0,333333;0,333333;0,333333;0,291667;0,291667;0,416667;0,369684;0,333333;0,333333;0,333333;0,000000;0,000000;0,000000;0,266667;0,266667;0,347453;0,336050;0,323963;0,416667;0,416667;0,291667;0,291667;0,291667;0,291667;0,416667;0,291667;0,310952;0,291667;0,291667;0,333333;0,333333;0,333333;0,416667;0,500000;0,416667;0,416667;0,333333;0,333333;0,333333;0,291667;0,291667;0,416667;0,333333;0,333333;0,333333;0,291667;0,291667;0,291667;0,333333;0,333333;0,333333;0,333333;0,333333;0,291667;0,291667;0,333333;0,000000;0,000000;0,333333;
45;;;;;;;;;;;;;;;;;;;;;;;;;;;;;;;;;;;;;;;;;;;;;1,000000;0,666667;0,000000;0,000000;0,000000;0,291667;0,291667;0,291667;0,291667;0,291667;0,291667;0,333333;0,333333;0,416667;0,416667;0,478736;0,666667;0,416667;0,416667;0,241108;0,227126;0,000000;0,000000;0,416667;0,416667;0,278530;0,266667;0,333333;0,333333;0,333333;0,291667;0,291667;0,416667;0,369684;0,333333;0,333333;0,333333;0,000000;0,000000;0,000000;0,266667;0,266667;0,347453;0,336050;0,323963;0,416667;0,416667;0,291667;0,291667;0,291667;0,291667;0,416667;0,291667;0,310952;0,291667;0,291667;0,333333;0,333333;0,333333;0,416667;0,500000;0,416667;0,416667;0,333333;0,333333;0,333333;0,291667;0,291667;0,416667;0,333333;0,333333;0,333333;0,291667;0,291667;0,291667;0,333333;0,333333;0,333333;0,333333;0,333333;0,291667;0,291667;0,333333;0,000000;0,000000;0,333333;
46;;;;;;;;;;;;;;;;;;;;;;;;;;;;;;;;;;;;;;;;;;;;;;1,000000;0,000000;0,000000;0,000000;0,291667;0,291667;0,291667;0,291667;0,291667;0,291667;0,333333;0,333333;0,416667;0,416667;0,478736;0,666667;0,416667;0,416667;0,241108;0,227126;0,000000;0,000000;0,416667;0,416667;0,278530;0,266667;0,333333;0,333333;0,333333;0,291667;0,291667;0,416667;0,369684;0,333333;0,333333;0,333333;0,000000;0,000000;0,000000;0,266667;0,266667;0,347453;0,336050;0,323963;0,416667;0,416667;0,291667;0,291667;0,291667;0,291667;0,416667;0,291667;0,310952;0,291667;0,291667;0,333333;0,333333;0,333333;0,416667;0,500000;0,416667;0,416667;0,333333;0,333333;0,333333;0,291667;0,291667;0,416667;0,333333;0,333333;0,333333;0,291667;0,291667;0,291667;0,333333;0,333333;0,333333;0,333333;0,333333;0,291667;0,291667;0,333333;0,000000;0,000000;0,333333;
47;;;;;;;;;;;;;;;;;;;;;;;;;;;;;;;;;;;;;;;;;;;;;;;1,000000;0,500000;0,500000;0,000000;0,000000;0,000000;0,000000;0,000000;0,000000;0,000000;0,000000;0,000000;0,000000;0,000000;0,000000;0,000000;0,000000;0,000000;0,000000;0,000000;0,000000;0,000000;0,000000;0,000000;0,000000;0,000000;0,000000;0,000000;0,000000;0,000000;0,000000;0,000000;0,000000;0,000000;0,000000;0,000000;0,000000;0,000000;0,000000;0,000000;0,000000;0,000000;0,000000;0,000000;0,000000;0,000000;0,000000;0,000000;0,000000;0,000000;0,000000;0,000000;0,000000;0,000000;0,000000;0,000000;0,000000;0,000000;0,000000;0,000000;0,000000;0,000000;0,000000;0,000000;0,000000;0,000000;0,000000;0,000000;0,000000;0,000000;0,000000;0,000000;0,000000;0,000000;0,000000;0,000000;0,000000;0,000000;0,000000;0,000000;0,000000;0,000000;0,000000;0,000000;
48;;;;;;;;;;;;;;;;;;;;;;;;;;;;;;;;;;;;;;;;;;;;;;;;1,000000;0,500000;0,000000;0,000000;0,000000;0,000000;0,000000;0,000000;0,000000;0,000000;0,000000;0,000000;0,000000;0,000000;0,000000;0,000000;0,000000;0,000000;0,000000;0,000000;0,000000;0,000000;0,000000;0,000000;0,000000;0,000000;0,000000;0,000000;0,000000;0,000000;0,000000;0,000000;0,000000;0,000000;0,000000;0,000000;0,000000;0,000000;0,000000;0,000000;0,000000;0,000000;0,000000;0,000000;0,000000;0,000000;0,000000;0,000000;0,000000;0,000000;0,000000;0,000000;0,000000;0,000000;0,000000;0,000000;0,000000;0,000000;0,000000;0,000000;0,000000;0,000000;0,000000;0,000000;0,000000;0,000000;0,000000;0,000000;0,000000;0,000000;0,000000;0,000000;0,000000;0,000000;0,000000;0,000000;0,000000;0,000000;0,000000;0,000000;0,000000;0,000000;0,000000;
49;;;;;;;;;;;;;;;;;;;;;;;;;;;;;;;;;;;;;;;;;;;;;;;;;1,000000;0,000000;0,000000;0,000000;0,000000;0,000000;0,000000;0,000000;0,000000;0,000000;0,000000;0,000000;0,000000;0,000000;0,000000;0,000000;0,000000;0,000000;0,000000;0,000000;0,000000;0,000000;0,000000;0,000000;0,000000;0,000000;0,000000;0,000000;0,000000;0,000000;0,000000;0,000000;0,000000;0,000000;0,000000;0,000000;0,000000;0,000000;0,000000;0,000000;0,000000;0,000000;0,000000;0,000000;0,000000;0,000000;0,000000;0,000000;0,000000;0,000000;0,000000;0,000000;0,000000;0,000000;0,000000;0,000000;0,000000;0,000000;0,000000;0,000000;0,000000;0,000000;0,000000;0,000000;0,000000;0,000000;0,000000;0,000000;0,000000;0,000000;0,000000;0,000000;0,000000;0,000000;0,000000;0,000000;0,000000;0,000000;0,000000;0,000000;0,000000;0,000000;
50;;;;;;;;;;;;;;;;;;;;;;;;;;;;;;;;;;;;;;;;;;;;;;;;;;1,000000;0,750000;0,689880;0,441336;0,500000;0,441336;0,291667;0,291667;0,375000;0,375000;0,437070;0,625000;0,375000;0,375000;0,524948;0,598312;0,375000;0,375000;0,375000;0,375000;0,473793;0,391336;0,291667;0,291667;0,291667;0,250000;0,250000;0,375000;0,328017;0,291667;0,291667;0,291667;0,000000;0,000000;0,000000;0,391336;0,391336;0,305786;0,294383;0,282296;0,375000;0,375000;0,250000;0,250000;0,250000;0,250000;0,375000;0,250000;0,538680;0,250000;0,250000;0,291667;0,291667;0,291667;0,375000;0,458333;0,375000;0,375000;0,291667;0,291667;0,291667;0,441501;0,441501;0,375000;0,524670;0,291667;0,291667;0,441336;0,441336;0,441336;0,291667;0,291667;0,291667;0,291667;0,291667;0,250000;0,250000;0,291667;0,000000;0,000000;0,291667;
51;;;;;;;;;;;;;;;;;;;;;;;;;;;;;;;;;;;;;;;;;;;;;;;;;;;1,000000;0,689880;0,441336;0,500000;0,441336;0,291667;0,291667;0,375000;0,375000;0,437070;0,625000;0,375000;0,375000;0,524948;0,598312;0,375000;0,375000;0,375000;0,375000;0,473793;0,391336;0,291667;0,291667;0,291667;0,250000;0,250000;0,375000;0,328017;0,291667;0,291667;0,291667;0,000000;0,000000;0,000000;0,391336;0,391336;0,305786;0,294383;0,282296;0,375000;0,375000;0,250000;0,250000;0,250000;0,250000;0,375000;0,250000;0,538680;0,250000;0,250000;0,291667;0,291667;0,291667;0,375000;0,458333;0,375000;0,375000;0,291667;0,291667;0,291667;0,441501;0,441501;0,375000;0,524670;0,291667;0,291667;0,441336;0,441336;0,441336;0,291667;0,291667;0,291667;0,291667;0,291667;0,250000;0,250000;0,291667;0,000000;0,000000;0,291667;
52;;;;;;;;;;;;;;;;;;;;;;;;;;;;;;;;;;;;;;;;;;;;;;;;;;;;1,000000;0,250000;0,441501;0,250000;0,291667;0,291667;0,375000;0,375000;0,437070;0,625000;0,375000;0,375000;0,445657;0,724541;0,250000;0,250000;0,375000;0,375000;0,425986;0,225000;0,291667;0,291667;0,291667;0,250000;0,250000;0,375000;0,328017;0,291667;0,291667;0,291667;0,000000;0,000000;0,000000;0,225000;0,225000;0,305786;0,294383;0,282296;0,375000;0,375000;0,250000;0,250000;0,250000;0,250000;0,375000;0,250000;0,478089;0,250000;0,250000;0,291667;0,291667;0,291667;0,375000;0,458333;0,375000;0,375000;0,291667;0,291667;0,291667;0,500000;0,500000;0,375000;0,291667;0,291667;0,291667;0,250000;0,250000;0,250000;0,291667;0,291667;0,291667;0,291667;0,291667;0,250000;0,250000;0,291667;0,000000;0,000000;0,291667;
53;;;;;;;;;;;;;;;;;;;;;;;;;;;;;;;;;;;;;;;;;;;;;;;;;;;;;1,000000;0,578809;0,690304;0,291667;0,291667;0,375000;0,375000;0,437070;0,625000;0,375000;0,375000;0,352601;0,378600;0,000000;0,000000;0,375000;0,375000;0,591803;0,614644;0,291667;0,291667;0,291667;0,250000;0,250000;0,375000;0,328017;0,291667;0,291667;0,291667;0,000000;0,000000;0,150379;0,614644;0,614644;0,305786;0,294383;0,282296;0,375000;0,375000;0,250000;0,250000;0,250000;0,250000;0,375000;0,250000;0,603040;0,250000;0,250000;0,291667;0,291667;0,291667;0,375000;0,458333;0,375000;0,375000;0,291667;0,291667;0,291667;0,441935;0,441935;0,375000;0,814644;0,291667;0,291667;0,500000;0,500000;0,500000;0,291667;0,291667;0,291667;0,291667;0,291667;0,250000;0,250000;0,291667;0,198389;0,198389;0,291667;
54;;;;;;;;;;;;;;;;;;;;;;;;;;;;;;;;;;;;;;;;;;;;;;;;;;;;;;1,000000;0,638244;0,291667;0,291667;0,375000;0,375000;0,437070;0,625000;0,375000;0,375000;0,387159;0,421505;0,202183;0,202183;0,375000;0,375000;0,473793;0,391336;0,291667;0,291667;0,291667;0,250000;0,250000;0,375000;0,328017;0,291667;0,291667;0,291667;0,000000;0,000000;0,000000;0,391336;0,391336;0,305786;0,294383;0,282296;0,375000;0,375000;0,250000;0,250000;0,250000;0,250000;0,375000;0,250000;0,671725;0,250000;0,250000;0,291667;0,291667;0,291667;0,375000;0,458333;0,375000;0,375000;0,291667;0,291667;0,291667;0,638772;0,638772;0,375000;0,524670;0,291667;0,291667;0,441336;0,441336;0,441336;0,291667;0,291667;0,291667;0,291667;0,291667;0,250000;0,250000;0,291667;0,000000;0,000000;0,291667;
55;;;;;;;;;;;;;;;;;;;;;;;;;;;;;;;;;;;;;;;;;;;;;;;;;;;;;;;1,000000;0,291667;0,291667;0,375000;0,375000;0,437070;0,625000;0,375000;0,375000;0,199442;0,378600;0,000000;0,000000;0,375000;0,375000;0,416698;0,450000;0,291667;0,291667;0,291667;0,250000;0,250000;0,375000;0,328017;0,291667;0,291667;0,291667;0,000000;0,000000;0,000000;0,450000;0,450000;0,305786;0,294383;0,282296;0,375000;0,375000;0,250000;0,250000;0,250000;0,250000;0,375000;0,250000;0,664464;0,250000;0,250000;0,291667;0,291667;0,291667;0,375000;0,458333;0,375000;0,375000;0,291667;0,291667;0,291667;0,500000;0,500000;0,375000;0,583333;0,291667;0,291667;0,500000;0,500000;0,500000;0,291667;0,291667;0,291667;0,291667;0,291667;0,250000;0,250000;0,291667;0,000000;0,000000;0,291667;
56;;;;;;;;;;;;;;;;;;;;;;;;;;;;;;;;;;;;;;;;;;;;;;;;;;;;;;;;1,000000;0,666667;0,416667;0,416667;0,478736;0,666667;0,416667;0,416667;0,241108;0,227126;0,000000;0,000000;0,416667;0,416667;0,278530;0,266667;0,333333;0,333333;0,333333;0,291667;0,291667;0,416667;0,369684;0,333333;0,333333;0,333333;0,000000;0,000000;0,000000;0,266667;0,266667;0,347453;0,336050;0,323963;0,416667;0,416667;0,291667;0,291667;0,291667;0,291667;0,416667;0,291667;0,310952;0,291667;0,291667;0,333333;0,333333;0,333333;0,416667;0,500000;0,416667;0,416667;0,333333;0,333333;0,333333;0,291667;0,291667;0,416667;0,333333;0,333333;0,333333;0,291667;0,291667;0,291667;0,333333;0,333333;0,333333;0,333333;0,333333;0,291667;0,291667;0,333333;0,000000;0,000000;0,333333;
57;;;;;;;;;;;;;;;;;;;;;;;;;;;;;;;;;;;;;;;;;;;;;;;;;;;;;;;;;1,000000;0,416667;0,416667;0,478736;0,666667;0,416667;0,416667;0,241108;0,227126;0,000000;0,000000;0,416667;0,416667;0,278530;0,266667;0,333333;0,333333;0,333333;0,291667;0,291667;0,416667;0,369684;0,333333;0,333333;0,333333;0,000000;0,000000;0,000000;0,266667;0,266667;0,347453;0,336050;0,323963;0,416667;0,416667;0,291667;0,291667;0,291667;0,291667;0,416667;0,291667;0,310952;0,291667;0,291667;0,333333;0,333333;0,333333;0,416667;0,500000;0,416667;0,416667;0,333333;0,333333;0,333333;0,291667;0,291667;0,416667;0,333333;0,333333;0,333333;0,291667;0,291667;0,291667;0,333333;0,333333;0,333333;0,333333;0,333333;0,291667;0,291667;0,333333;0,000000;0,000000;0,333333;
58;;;;;;;;;;;;;;;;;;;;;;;;;;;;;;;;;;;;;;;;;;;;;;;;;;;;;;;;;;1,000000;0,500000;0,562070;0,750000;0,500000;0,500000;0,324442;0,310460;0,000000;0,000000;0,500000;0,500000;0,361863;0,350000;0,416667;0,416667;0,416667;0,375000;0,375000;0,500000;0,453017;0,416667;0,416667;0,416667;0,000000;0,000000;0,000000;0,350000;0,350000;0,430786;0,419383;0,407296;0,500000;0,500000;0,375000;0,375000;0,375000;0,375000;0,500000;0,375000;0,394285;0,375000;0,375000;0,416667;0,416667;0,416667;0,500000;0,583333;0,500000;0,500000;0,416667;0,416667;0,416667;0,375000;0,375000;0,500000;0,416667;0,416667;0,416667;0,375000;0,375000;0,375000;0,416667;0,416667;0,416667;0,416667;0,416667;0,375000;0,375000;0,416667;0,000000;0,000000;0,416667;
59;;;;;;;;;;;;;;;;;;;;;;;;;;;;;;;;;;;;;;;;;;;;;;;;;;;;;;;;;;;1,000000;0,562070;0,750000;0,500000;0,500000;0,324442;0,310460;0,000000;0,000000;0,500000;0,500000;0,361863;0,350000;0,416667;0,416667;0,416667;0,375000;0,375000;0,500000;0,453017;0,416667;0,416667;0,416667;0,000000;0,000000;0,000000;0,350000;0,350000;0,430786;0,419383;0,407296;0,500000;0,500000;0,375000;0,375000;0,375000;0,375000;0,500000;0,375000;0,394285;0,375000;0,375000;0,416667;0,416667;0,416667;0,500000;0,583333;0,500000;0,500000;0,416667;0,416667;0,416667;0,375000;0,375000;0,500000;0,416667;0,416667;0,416667;0,375000;0,375000;0,375000;0,416667;0,416667;0,416667;0,416667;0,416667;0,375000;0,375000;0,416667;0,000000;0,000000;0,416667;
60;;;;;;;;;;;;;;;;;;;;;;;;;;;;;;;;;;;;;;;;;;;;;;;;;;;;;;;;;;;;1,000000;0,812070;0,562070;0,562070;0,386511;0,372529;0,000000;0,000000;0,562070;0,562070;0,423933;0,412070;0,478736;0,478736;0,478736;0,437070;0,437070;0,784140;0,700076;0,478736;0,478736;0,478736;0,000000;0,000000;0,000000;0,412070;0,412070;0,492856;0,481452;0,469366;0,562070;0,562070;0,437070;0,437070;0,437070;0,437070;0,562070;0,437070;0,456355;0,437070;0,437070;0,478736;0,478736;0,478736;0,562070;0,645403;0,562070;0,562070;0,478736;0,478736;0,478736;0,437070;0,437070;0,562070;0,478736;0,478736;0,478736;0,437070;0,437070;0,437070;0,478736;0,478736;0,478736;0,478736;0,733603;0,437070;0,437070;0,478736;0,000000;0,000000;0,478736;
61;;;;;;;;;;;;;;;;;;;;;;;;;;;;;;;;;;;;;;;;;;;;;;;;;;;;;;;;;;;;;1,000000;0,750000;0,750000;0,574442;0,560460;0,000000;0,000000;0,750000;0,750000;0,611863;0,600000;0,666667;0,666667;0,666667;0,625000;0,625000;0,750000;0,703017;0,666667;0,666667;0,666667;0,000000;0,000000;0,000000;0,600000;0,600000;0,680786;0,669383;0,657296;0,750000;0,750000;0,625000;0,625000;0,625000;0,625000;0,750000;0,625000;0,644285;0,625000;0,625000;0,666667;0,666667;0,666667;0,750000;0,833333;0,750000;0,750000;0,666667;0,666667;0,666667;0,625000;0,625000;0,750000;0,666667;0,666667;0,666667;0,625000;0,625000;0,625000;0,666667;0,666667;0,666667;0,666667;0,666667;0,625000;0,625000;0,666667;0,000000;0,000000;0,666667;
62;;;;;;;;;;;;;;;;;;;;;;;;;;;;;;;;;;;;;;;;;;;;;;;;;;;;;;;;;;;;;;1,000000;0,500000;0,324442;0,310460;0,000000;0,000000;0,500000;0,500000;0,361863;0,350000;0,416667;0,416667;0,416667;0,375000;0,375000;0,500000;0,453017;0,416667;0,416667;0,416667;0,000000;0,000000;0,000000;0,350000;0,350000;0,430786;0,419383;0,407296;0,500000;0,500000;0,375000;0,375000;0,375000;0,375000;0,500000;0,375000;0,394285;0,375000;0,375000;0,416667;0,416667;0,416667;0,500000;0,583333;0,500000;0,500000;0,416667;0,416667;0,416667;0,375000;0,375000;0,500000;0,416667;0,416667;0,416667;0,375000;0,375000;0,375000;0,416667;0,416667;0,416667;0,416667;0,416667;0,375000;0,375000;0,416667;0,000000;0,000000;0,416667;
63;;;;;;;;;;;;;;;;;;;;;;;;;;;;;;;;;;;;;;;;;;;;;;;;;;;;;;;;;;;;;;;1,000000;0,324442;0,310460;0,000000;0,000000;0,500000;0,500000;0,361863;0,350000;0,416667;0,416667;0,416667;0,375000;0,375000;0,500000;0,453017;0,416667;0,416667;0,416667;0,000000;0,000000;0,000000;0,350000;0,350000;0,430786;0,419383;0,407296;0,500000;0,500000;0,375000;0,375000;0,375000;0,375000;0,500000;0,375000;0,394285;0,375000;0,375000;0,416667;0,416667;0,416667;0,500000;0,583333;0,500000;0,500000;0,416667;0,416667;0,416667;0,375000;0,375000;0,500000;0,416667;0,416667;0,416667;0,375000;0,375000;0,375000;0,416667;0,416667;0,416667;0,416667;0,416667;0,375000;0,375000;0,416667;0,000000;0,000000;0,416667;
64;;;;;;;;;;;;;;;;;;;;;;;;;;;;;;;;;;;;;;;;;;;;;;;;;;;;;;;;;;;;;;;;1,000000;0,673637;0,670314;0,670314;0,324442;0,324442;0,371643;0,174442;0,241108;0,241108;0,241108;0,199442;0,199442;0,324442;0,277459;0,241108;0,241108;0,241108;0,000000;0,000000;0,000000;0,174442;0,174442;0,255228;0,243825;0,231738;0,324442;0,324442;0,199442;0,199442;0,199442;0,199442;0,324442;0,199442;0,423747;0,199442;0,199442;0,241108;0,241108;0,241108;0,324442;0,407775;0,324442;0,324442;0,241108;0,241108;0,241108;0,445657;0,445657;0,324442;0,241108;0,241108;0,241108;0,199442;0,199442;0,199442;0,241108;0,241108;0,241108;0,241108;0,241108;0,199442;0,199442;0,241108;0,000000;0,000000;0,241108;
65;;;;;;;;;;;;;;;;;;;;;;;;;;;;;;;;;;;;;;;;;;;;;;;;;;;;;;;;;;;;;;;;;1,000000;0,634871;0,634871;0,310460;0,310460;0,395298;0,328600;0,227126;0,227126;0,227126;0,185460;0,185460;0,310460;0,263477;0,227126;0,227126;0,227126;0,000000;0,000000;0,000000;0,328600;0,328600;0,241246;0,229843;0,217756;0,310460;0,310460;0,185460;0,185460;0,185460;0,185460;0,310460;0,185460;0,621659;0,185460;0,185460;0,227126;0,227126;0,227126;0,310460;0,393793;0,310460;0,310460;0,227126;0,227126;0,227126;0,375000;0,375000;0,310460;0,461933;0,227126;0,227126;0,378600;0,378600;0,378600;0,227126;0,227126;0,227126;0,227126;0,227126;0,185460;0,185460;0,227126;0,000000;0,000000;0,227126;
66;;;;;;;;;;;;;;;;;;;;;;;;;;;;;;;;;;;;;;;;;;;;;;;;;;;;;;;;;;;;;;;;;;1,000000;0,750000;0,000000;0,000000;0,198674;0,000000;0,000000;0,000000;0,000000;0,000000;0,000000;0,000000;0,000000;0,000000;0,000000;0,000000;0,000000;0,000000;0,000000;0,000000;0,000000;0,000000;0,000000;0,000000;0,000000;0,000000;0,000000;0,000000;0,000000;0,000000;0,000000;0,000000;0,460625;0,000000;0,000000;0,000000;0,000000;0,000000;0,000000;0,000000;0,000000;0,000000;0,000000;0,000000;0,000000;0,250000;0,250000;0,000000;0,000000;0,000000;0,000000;0,000000;0,000000;0,000000;0,000000;0,000000;0,000000;0,000000;0,000000;0,000000;0,000000;0,000000;0,000000;0,000000;0,000000;
67;;;;;;;;;;;;;;;;;;;;;;;;;;;;;;;;;;;;;;;;;;;;;;;;;;;;;;;;;;;;;;;;;;;1,000000;0,000000;0,000000;0,198674;0,000000;0,000000;0,000000;0,000000;0,000000;0,000000;0,000000;0,000000;0,000000;0,000000;0,000000;0,000000;0,000000;0,000000;0,000000;0,000000;0,000000;0,000000;0,000000;0,000000;0,000000;0,000000;0,000000;0,000000;0,000000;0,000000;0,000000;0,460625;0,000000;0,000000;0,000000;0,000000;0,000000;0,000000;0,000000;0,000000;0,000000;0,000000;0,000000;0,000000;0,250000;0,250000;0,000000;0,000000;0,000000;0,000000;0,000000;0,000000;0,000000;0,000000;0,000000;0,000000;0,000000;0,000000;0,000000;0,000000;0,000000;0,000000;0,000000;0,000000;
68;;;;;;;;;;;;;;;;;;;;;;;;;;;;;;;;;;;;;;;;;;;;;;;;;;;;;;;;;;;;;;;;;;;;1,000000;0,500000;0,361863;0,350000;0,416667;0,416667;0,416667;0,375000;0,375000;0,500000;0,453017;0,416667;0,416667;0,416667;0,000000;0,000000;0,000000;0,350000;0,350000;0,430786;0,419383;0,407296;0,500000;0,500000;0,375000;0,375000;0,375000;0,375000;0,500000;0,375000;0,394285;0,375000;0,375000;0,416667;0,416667;0,416667;0,500000;0,583333;0,500000;0,500000;0,416667;0,416667;0,416667;0,375000;0,375000;0,500000;0,416667;0,416667;0,416667;0,375000;0,375000;0,375000;0,416667;0,416667;0,416667;0,416667;0,416667;0,375000;0,375000;0,416667;0,000000;0,000000;0,416667;
69;;;;;;;;;;;;;;;;;;;;;;;;;;;;;;;;;;;;;;;;;;;;;;;;;;;;;;;;;;;;;;;;;;;;;1,000000;0,361863;0,350000;0,416667;0,416667;0,416667;0,375000;0,375000;0,500000;0,453017;0,416667;0,416667;0,416667;0,000000;0,000000;0,000000;0,350000;0,350000;0,430786;0,419383;0,407296;0,500000;0,500000;0,375000;0,375000;0,375000;0,375000;0,500000;0,375000;0,394285;0,375000;0,375000;0,416667;0,416667;0,416667;0,500000;0,583333;0,500000;0,500000;0,416667;0,416667;0,416667;0,375000;0,375000;0,500000;0,416667;0,416667;0,416667;0,375000;0,375000;0,375000;0,416667;0,416667;0,416667;0,416667;0,416667;0,375000;0,375000;0,416667;0,000000;0,000000;0,416667;
70;;;;;;;;;;;;;;;;;;;;;;;;;;;;;;;;;;;;;;;;;;;;;;;;;;;;;;;;;;;;;;;;;;;;;;1,000000;0,788438;0,278530;0,278530;0,278530;0,236863;0,236863;0,361863;0,314881;0,278530;0,278530;0,278530;0,000000;0,000000;0,188853;0,788438;0,788438;0,292650;0,281246;0,269160;0,361863;0,361863;0,236863;0,236863;0,236863;0,236863;0,361863;0,236863;0,692055;0,236863;0,236863;0,278530;0,278530;0,278530;0,361863;0,445197;0,361863;0,361863;0,278530;0,278530;0,278530;0,425986;0,425986;0,361863;0,777159;0,278530;0,278530;0,416698;0,416698;0,416698;0,278530;0,278530;0,278530;0,278530;0,278530;0,236863;0,236863;0,278530;0,236863;0,236863;0,278530;
71;;;;;;;;;;;;;;;;;;;;;;;;;;;;;;;;;;;;;;;;;;;;;;;;;;;;;;;;;;;;;;;;;;;;;;;1,000000;0,266667;0,266667;0,266667;0,225000;0,225000;0,350000;0,303017;0,266667;0,266667;0,266667;0,000000;0,000000;0,176990;0,800000;0,800000;0,280786;0,269383;0,257296;0,350000;0,350000;0,225000;0,225000;0,225000;0,225000;0,350000;0,225000;0,588396;0,225000;0,225000;0,266667;0,266667;0,266667;0,350000;0,433333;0,350000;0,350000;0,266667;0,266667;0,266667;0,225000;0,225000;0,350000;0,800000;0,266667;0,266667;0,450000;0,450000;0,450000;0,266667;0,266667;0,266667;0,266667;0,266667;0,225000;0,225000;0,266667;0,225000;0,225000;0,266667;
72;;;;;;;;;;;;;;;;;;;;;;;;;;;;;;;;;;;;;;;;;;;;;;;;;;;;;;;;;;;;;;;;;;;;;;;;1,000000;0,666667;0,666667;0,291667;0,291667;0,416667;0,369684;0,333333;0,333333;0,333333;0,000000;0,000000;0,000000;0,266667;0,266667;0,347453;0,336050;0,323963;0,416667;0,416667;0,291667;0,291667;0,291667;0,291667;0,416667;0,291667;0,310952;0,291667;0,291667;0,333333;0,333333;0,333333;0,416667;0,500000;0,416667;0,416667;0,333333;0,333333;0,333333;0,291667;0,291667;0,416667;0,333333;0,333333;0,333333;0,291667;0,291667;0,291667;0,333333;0,333333;0,333333;0,333333;0,333333;0,291667;0,291667;0,333333;0,000000;0,000000;0,333333;
73;;;;;;;;;;;;;;;;;;;;;;;;;;;;;;;;;;;;;;;;;;;;;;;;;;;;;;;;;;;;;;;;;;;;;;;;;1,000000;0,666667;0,291667;0,291667;0,416667;0,369684;0,333333;0,333333;0,333333;0,000000;0,000000;0,000000;0,266667;0,266667;0,347453;0,336050;0,323963;0,416667;0,416667;0,291667;0,291667;0,291667;0,291667;0,416667;0,291667;0,310952;0,291667;0,291667;0,333333;0,333333;0,333333;0,416667;0,500000;0,416667;0,416667;0,333333;0,333333;0,333333;0,291667;0,291667;0,416667;0,333333;0,333333;0,333333;0,291667;0,291667;0,291667;0,333333;0,333333;0,333333;0,333333;0,333333;0,291667;0,291667;0,333333;0,000000;0,000000;0,333333;
74;;;;;;;;;;;;;;;;;;;;;;;;;;;;;;;;;;;;;;;;;;;;;;;;;;;;;;;;;;;;;;;;;;;;;;;;;;1,000000;0,291667;0,291667;0,416667;0,369684;0,333333;0,333333;0,333333;0,000000;0,000000;0,000000;0,266667;0,266667;0,347453;0,336050;0,323963;0,416667;0,416667;0,291667;0,291667;0,291667;0,291667;0,416667;0,291667;0,310952;0,291667;0,291667;0,333333;0,333333;0,333333;0,416667;0,500000;0,416667;0,416667;0,333333;0,333333;0,333333;0,291667;0,291667;0,416667;0,333333;0,333333;0,333333;0,291667;0,291667;0,291667;0,333333;0,333333;0,333333;0,333333;0,333333;0,291667;0,291667;0,333333;0,000000;0,000000;0,333333;
75;;;;;;;;;;;;;;;;;;;;;;;;;;;;;;;;;;;;;;;;;;;;;;;;;;;;;;;;;;;;;;;;;;;;;;;;;;;1,000000;0,750000;0,375000;0,328017;0,291667;0,291667;0,291667;0,000000;0,000000;0,000000;0,225000;0,225000;0,305786;0,294383;0,282296;0,375000;0,375000;0,250000;0,250000;0,250000;0,250000;0,375000;0,250000;0,269285;0,250000;0,250000;0,291667;0,291667;0,291667;0,375000;0,458333;0,375000;0,375000;0,291667;0,291667;0,291667;0,250000;0,250000;0,375000;0,291667;0,583333;0,583333;0,250000;0,250000;0,250000;0,291667;0,291667;0,291667;0,291667;0,291667;0,250000;0,250000;0,291667;0,000000;0,000000;0,291667;
76;;;;;;;;;;;;;;;;;;;;;;;;;;;;;;;;;;;;;;;;;;;;;;;;;;;;;;;;;;;;;;;;;;;;;;;;;;;;1,000000;0,375000;0,328017;0,291667;0,291667;0,291667;0,000000;0,000000;0,000000;0,225000;0,225000;0,305786;0,294383;0,282296;0,375000;0,375000;0,250000;0,250000;0,250000;0,250000;0,375000;0,250000;0,269285;0,250000;0,250000;0,291667;0,291667;0,291667;0,375000;0,458333;0,375000;0,375000;0,291667;0,291667;0,291667;0,250000;0,250000;0,375000;0,291667;0,583333;0,583333;0,250000;0,250000;0,250000;0,291667;0,291667;0,291667;0,291667;0,291667;0,250000;0,250000;0,291667;0,000000;0,000000;0,291667;
77;;;;;;;;;;;;;;;;;;;;;;;;;;;;;;;;;;;;;;;;;;;;;;;;;;;;;;;;;;;;;;;;;;;;;;;;;;;;;1,000000;0,453017;0,416667;0,416667;0,416667;0,000000;0,000000;0,000000;0,350000;0,350000;0,430786;0,419383;0,407296;0,500000;0,500000;0,375000;0,375000;0,375000;0,375000;0,500000;0,375000;0,394285;0,375000;0,375000;0,416667;0,416667;0,416667;0,500000;0,583333;0,500000;0,500000;0,416667;0,416667;0,416667;0,375000;0,375000;0,883515;0,416667;0,416667;0,416667;0,375000;0,375000;0,375000;0,416667;0,416667;0,416667;0,416667;0,717204;0,375000;0,375000;0,416667;0,000000;0,000000;0,416667;
78;;;;;;;;;;;;;;;;;;;;;;;;;;;;;;;;;;;;;;;;;;;;;;;;;;;;;;;;;;;;;;;;;;;;;;;;;;;;;;1,000000;0,369684;0,369684;0,369684;0,000000;0,000000;0,000000;0,303017;0,303017;0,383804;0,372400;0,360314;0,453017;0,453017;0,328017;0,328017;0,328017;0,328017;0,453017;0,328017;0,347303;0,328017;0,328017;0,369684;0,369684;0,369684;0,453017;0,536351;0,453017;0,453017;0,369684;0,369684;0,369684;0,328017;0,328017;0,453017;0,369684;0,369684;0,369684;0,328017;0,328017;0,328017;0,369684;0,369684;0,369684;0,369684;0,633141;0,328017;0,328017;0,369684;0,000000;0,000000;0,369684;
79;;;;;;;;;;;;;;;;;;;;;;;;;;;;;;;;;;;;;;;;;;;;;;;;;;;;;;;;;;;;;;;;;;;;;;;;;;;;;;;1,000000;0,616349;0,616246;0,000000;0,000000;0,000000;0,266667;0,266667;0,347453;0,336050;0,323963;0,416667;0,416667;0,291667;0,291667;0,291667;0,291667;0,416667;0,291667;0,310952;0,291667;0,291667;0,561052;0,561052;0,333333;0,416667;0,500000;0,416667;0,416667;0,333333;0,333333;0,333333;0,291667;0,291667;0,416667;0,333333;0,333333;0,333333;0,291667;0,291667;0,291667;0,333333;0,333333;0,333333;0,333333;0,333333;0,291667;0,291667;0,333333;0,000000;0,000000;0,616246;
80;;;;;;;;;;;;;;;;;;;;;;;;;;;;;;;;;;;;;;;;;;;;;;;;;;;;;;;;;;;;;;;;;;;;;;;;;;;;;;;;1,000000;0,666667;0,000000;0,000000;0,000000;0,266667;0,266667;0,347453;0,336050;0,323963;0,416667;0,416667;0,291667;0,291667;0,291667;0,291667;0,416667;0,291667;0,310952;0,291667;0,291667;0,666667;0,666667;0,333333;0,416667;0,500000;0,416667;0,416667;0,333333;0,333333;0,333333;0,291667;0,291667;0,416667;0,333333;0,333333;0,333333;0,291667;0,291667;0,291667;0,333333;0,333333;0,333333;0,333333;0,333333;0,291667;0,291667;0,333333;0,000000;0,000000;0,666667;
81;;;;;;;;;;;;;;;;;;;;;;;;;;;;;;;;;;;;;;;;;;;;;;;;;;;;;;;;;;;;;;;;;;;;;;;;;;;;;;;;;1,000000;0,000000;0,000000;0,000000;0,266667;0,266667;0,347453;0,336050;0,323963;0,416667;0,416667;0,291667;0,291667;0,291667;0,291667;0,416667;0,291667;0,310952;0,291667;0,291667;0,666667;0,666667;0,333333;0,416667;0,500000;0,416667;0,416667;0,333333;0,333333;0,333333;0,291667;0,291667;0,416667;0,333333;0,333333;0,333333;0,291667;0,291667;0,291667;0,333333;0,333333;0,333333;0,333333;0,333333;0,291667;0,291667;0,333333;0,000000;0,000000;1,000000;
82;;;;;;;;;;;;;;;;;;;;;;;;;;;;;;;;;;;;;;;;;;;;;;;;;;;;;;;;;;;;;;;;;;;;;;;;;;;;;;;;;;1,000000;0,750000;0,640948;0,000000;0,000000;0,000000;0,000000;0,000000;0,000000;0,000000;0,000000;0,000000;0,000000;0,000000;0,000000;0,000000;0,000000;0,000000;0,000000;0,000000;0,000000;0,000000;0,000000;0,000000;0,000000;0,000000;0,000000;0,000000;0,000000;0,000000;0,000000;0,000000;0,000000;0,000000;0,000000;0,000000;0,000000;0,000000;0,000000;0,000000;0,000000;0,000000;0,000000;0,000000;0,000000;0,000000;0,500000;0,500000;0,000000;
83;;;;;;;;;;;;;;;;;;;;;;;;;;;;;;;;;;;;;;;;;;;;;;;;;;;;;;;;;;;;;;;;;;;;;;;;;;;;;;;;;;;1,000000;0,640948;0,000000;0,000000;0,000000;0,000000;0,000000;0,000000;0,000000;0,000000;0,000000;0,000000;0,000000;0,000000;0,000000;0,000000;0,000000;0,000000;0,000000;0,000000;0,000000;0,000000;0,000000;0,000000;0,000000;0,000000;0,000000;0,000000;0,000000;0,000000;0,000000;0,000000;0,000000;0,000000;0,000000;0,000000;0,000000;0,000000;0,000000;0,000000;0,000000;0,000000;0,000000;0,000000;0,000000;0,500000;0,500000;0,000000;
84;;;;;;;;;;;;;;;;;;;;;;;;;;;;;;;;;;;;;;;;;;;;;;;;;;;;;;;;;;;;;;;;;;;;;;;;;;;;;;;;;;;;1,000000;0,176990;0,176990;0,000000;0,000000;0,000000;0,000000;0,000000;0,000000;0,000000;0,000000;0,000000;0,000000;0,000000;0,156494;0,000000;0,000000;0,000000;0,000000;0,000000;0,000000;0,000000;0,000000;0,000000;0,000000;0,000000;0,000000;0,000000;0,000000;0,000000;0,243657;0,000000;0,000000;0,000000;0,000000;0,000000;0,000000;0,000000;0,000000;0,000000;0,000000;0,000000;0,000000;0,000000;0,611280;0,611280;0,000000;
85;;;;;;;;;;;;;;;;;;;;;;;;;;;;;;;;;;;;;;;;;;;;;;;;;;;;;;;;;;;;;;;;;;;;;;;;;;;;;;;;;;;;;1,000000;0,800000;0,280786;0,269383;0,257296;0,350000;0,350000;0,225000;0,225000;0,225000;0,225000;0,350000;0,225000;0,588396;0,225000;0,225000;0,266667;0,266667;0,266667;0,350000;0,433333;0,350000;0,350000;0,266667;0,266667;0,266667;0,225000;0,225000;0,350000;0,800000;0,266667;0,266667;0,450000;0,450000;0,450000;0,266667;0,266667;0,266667;0,266667;0,266667;0,225000;0,225000;0,266667;0,225000;0,225000;0,266667;
86;;;;;;;;;;;;;;;;;;;;;;;;;;;;;;;;;;;;;;;;;;;;;;;;;;;;;;;;;;;;;;;;;;;;;;;;;;;;;;;;;;;;;;1,000000;0,280786;0,269383;0,387508;0,350000;0,350000;0,225000;0,225000;0,225000;0,225000;0,350000;0,225000;0,588396;0,225000;0,225000;0,266667;0,266667;0,266667;0,350000;0,433333;0,350000;0,350000;0,266667;0,266667;0,266667;0,225000;0,225000;0,350000;0,800000;0,266667;0,266667;0,450000;0,450000;0,450000;0,266667;0,266667;0,266667;0,266667;0,266667;0,450000;0,450000;0,266667;0,225000;0,225000;0,266667;
87;;;;;;;;;;;;;;;;;;;;;;;;;;;;;;;;;;;;;;;;;;;;;;;;;;;;;;;;;;;;;;;;;;;;;;;;;;;;;;;;;;;;;;;1,000000;0,655758;0,620064;0,430786;0,430786;0,305786;0,305786;0,305786;0,305786;0,430786;0,305786;0,325071;0,730244;0,730244;0,347453;0,347453;0,921647;0,430786;0,514120;0,430786;0,430786;0,347453;0,347453;0,347453;0,305786;0,305786;0,430786;0,347453;0,347453;0,347453;0,305786;0,305786;0,305786;0,347453;0,347453;0,347453;0,347453;0,347453;0,522924;0,522924;0,347453;0,000000;0,000000;0,347453;
88;;;;;;;;;;;;;;;;;;;;;;;;;;;;;;;;;;;;;;;;;;;;;;;;;;;;;;;;;;;;;;;;;;;;;;;;;;;;;;;;;;;;;;;;1,000000;0,629937;0,419383;0,419383;0,294383;0,294383;0,294383;0,294383;0,813721;0,294383;0,313668;0,714379;0,714379;0,336050;0,336050;0,619596;0,419383;0,502716;0,419383;0,419383;0,336050;0,336050;0,336050;0,294383;0,294383;0,419383;0,336050;0,336050;0,336050;0,294383;0,294383;0,294383;0,336050;0,336050;0,336050;0,336050;0,336050;0,536262;0,536262;0,336050;0,000000;0,000000;0,336050;
89;;;;;;;;;;;;;;;;;;;;;;;;;;;;;;;;;;;;;;;;;;;;;;;;;;;;;;;;;;;;;;;;;;;;;;;;;;;;;;;;;;;;;;;;;1,000000;0,407296;0,407296;0,282296;0,282296;0,282296;0,282296;0,760137;0,282296;0,301581;0,770823;0,770823;0,323963;0,323963;0,624398;0,407296;0,490630;0,407296;0,407296;0,323963;0,323963;0,323963;0,282296;0,282296;0,407296;0,323963;0,323963;0,323963;0,282296;0,282296;0,282296;0,323963;0,323963;0,323963;0,323963;0,323963;0,597527;0,597527;0,323963;0,000000;0,000000;0,323963;
90;;;;;;;;;;;;;;;;;;;;;;;;;;;;;;;;;;;;;;;;;;;;;;;;;;;;;;;;;;;;;;;;;;;;;;;;;;;;;;;;;;;;;;;;;;1,000000;0,500000;0,375000;0,375000;0,375000;0,375000;0,500000;0,375000;0,394285;0,375000;0,375000;0,416667;0,416667;0,416667;0,500000;0,583333;0,500000;0,500000;0,416667;0,416667;0,416667;0,375000;0,375000;0,500000;0,416667;0,416667;0,416667;0,375000;0,375000;0,375000;0,416667;0,416667;0,416667;0,416667;0,416667;0,375000;0,375000;0,416667;0,000000;0,000000;0,416667;
91;;;;;;;;;;;;;;;;;;;;;;;;;;;;;;;;;;;;;;;;;;;;;;;;;;;;;;;;;;;;;;;;;;;;;;;;;;;;;;;;;;;;;;;;;;;1,000000;0,375000;0,375000;0,375000;0,375000;0,500000;0,375000;0,394285;0,375000;0,375000;0,416667;0,416667;0,416667;0,500000;0,583333;0,500000;0,500000;0,416667;0,416667;0,416667;0,375000;0,375000;0,500000;0,416667;0,416667;0,416667;0,375000;0,375000;0,375000;0,416667;0,416667;0,416667;0,416667;0,416667;0,375000;0,375000;0,416667;0,000000;0,000000;0,416667;
92;;;;;;;;;;;;;;;;;;;;;;;;;;;;;;;;;;;;;;;;;;;;;;;;;;;;;;;;;;;;;;;;;;;;;;;;;;;;;;;;;;;;;;;;;;;;1,000000;0,750000;0,750000;0,750000;0,375000;0,250000;0,269285;0,250000;0,250000;0,291667;0,291667;0,291667;0,375000;0,458333;0,375000;0,375000;0,291667;0,291667;0,291667;0,250000;0,250000;0,375000;0,291667;0,291667;0,291667;0,250000;0,250000;0,250000;0,291667;0,291667;0,291667;0,291667;0,291667;0,250000;0,250000;0,291667;0,000000;0,000000;0,291667;
93;;;;;;;;;;;;;;;;;;;;;;;;;;;;;;;;;;;;;;;;;;;;;;;;;;;;;;;;;;;;;;;;;;;;;;;;;;;;;;;;;;;;;;;;;;;;;1,000000;0,750000;0,750000;0,375000;0,250000;0,269285;0,250000;0,250000;0,291667;0,291667;0,291667;0,375000;0,458333;0,375000;0,375000;0,291667;0,291667;0,291667;0,250000;0,250000;0,375000;0,291667;0,291667;0,291667;0,250000;0,250000;0,250000;0,291667;0,291667;0,291667;0,291667;0,291667;0,250000;0,250000;0,291667;0,000000;0,000000;0,291667;
94;;;;;;;;;;;;;;;;;;;;;;;;;;;;;;;;;;;;;;;;;;;;;;;;;;;;;;;;;;;;;;;;;;;;;;;;;;;;;;;;;;;;;;;;;;;;;;1,000000;0,750000;0,375000;0,250000;0,269285;0,250000;0,250000;0,291667;0,291667;0,291667;0,375000;0,458333;0,375000;0,375000;0,291667;0,291667;0,291667;0,250000;0,250000;0,375000;0,291667;0,291667;0,291667;0,250000;0,250000;0,250000;0,291667;0,291667;0,291667;0,291667;0,291667;0,250000;0,250000;0,291667;0,000000;0,000000;0,291667;
95;;;;;;;;;;;;;;;;;;;;;;;;;;;;;;;;;;;;;;;;;;;;;;;;;;;;;;;;;;;;;;;;;;;;;;;;;;;;;;;;;;;;;;;;;;;;;;;1,000000;0,375000;0,250000;0,269285;0,250000;0,250000;0,291667;0,291667;0,291667;0,375000;0,458333;0,375000;0,375000;0,291667;0,291667;0,291667;0,250000;0,250000;0,375000;0,291667;0,291667;0,291667;0,250000;0,250000;0,250000;0,291667;0,291667;0,291667;0,291667;0,291667;0,250000;0,250000;0,291667;0,000000;0,000000;0,291667;
96;;;;;;;;;;;;;;;;;;;;;;;;;;;;;;;;;;;;;;;;;;;;;;;;;;;;;;;;;;;;;;;;;;;;;;;;;;;;;;;;;;;;;;;;;;;;;;;;1,000000;0,375000;0,394285;0,750000;0,750000;0,416667;0,416667;0,416667;0,500000;0,583333;0,500000;0,500000;0,416667;0,416667;0,416667;0,375000;0,375000;0,500000;0,416667;0,416667;0,416667;0,375000;0,375000;0,375000;0,416667;0,416667;0,416667;0,416667;0,416667;0,375000;0,375000;0,416667;0,000000;0,000000;0,416667;
97;;;;;;;;;;;;;;;;;;;;;;;;;;;;;;;;;;;;;;;;;;;;;;;;;;;;;;;;;;;;;;;;;;;;;;;;;;;;;;;;;;;;;;;;;;;;;;;;;1,000000;0,269285;0,250000;0,250000;0,291667;0,291667;0,291667;0,375000;0,458333;0,375000;0,375000;0,291667;0,291667;0,291667;0,250000;0,250000;0,375000;0,291667;0,291667;0,291667;0,250000;0,250000;0,250000;0,291667;0,291667;0,291667;0,291667;0,291667;0,250000;0,250000;0,291667;0,000000;0,000000;0,291667;
98;;;;;;;;;;;;;;;;;;;;;;;;;;;;;;;;;;;;;;;;;;;;;;;;;;;;;;;;;;;;;;;;;;;;;;;;;;;;;;;;;;;;;;;;;;;;;;;;;;1,000000;0,269285;0,269285;0,310952;0,310952;0,310952;0,394285;0,477618;0,394285;0,394285;0,310952;0,310952;0,310952;0,478089;0,478089;0,394285;0,788396;0,310952;0,310952;0,463962;0,463962;0,463962;0,310952;0,310952;0,310952;0,310952;0,310952;0,269285;0,269285;0,310952;0,204505;0,204505;0,310952;
99;;;;;;;;;;;;;;;;;;;;;;;;;;;;;;;;;;;;;;;;;;;;;;;;;;;;;;;;;;;;;;;;;;;;;;;;;;;;;;;;;;;;;;;;;;;;;;;;;;;1,000000;0,750000;0,291667;0,291667;0,583333;0,375000;0,458333;0,375000;0,375000;0,291667;0,291667;0,291667;0,250000;0,250000;0,375000;0,291667;0,291667;0,291667;0,250000;0,250000;0,250000;0,291667;0,291667;0,291667;0,291667;0,291667;0,250000;0,250000;0,291667;0,000000;0,000000;0,291667;
100;;;;;;;;;;;;;;;;;;;;;;;;;;;;;;;;;;;;;;;;;;;;;;;;;;;;;;;;;;;;;;;;;;;;;;;;;;;;;;;;;;;;;;;;;;;;;;;;;;;;1,000000;0,291667;0,291667;0,583333;0,375000;0,458333;0,375000;0,375000;0,291667;0,291667;0,291667;0,250000;0,250000;0,375000;0,291667;0,291667;0,291667;0,250000;0,250000;0,250000;0,291667;0,291667;0,291667;0,291667;0,291667;0,250000;0,250000;0,291667;0,000000;0,000000;0,291667;
101;;;;;;;;;;;;;;;;;;;;;;;;;;;;;;;;;;;;;;;;;;;;;;;;;;;;;;;;;;;;;;;;;;;;;;;;;;;;;;;;;;;;;;;;;;;;;;;;;;;;;1,000000;0,666667;0,333333;0,416667;0,500000;0,416667;0,416667;0,333333;0,333333;0,333333;0,291667;0,291667;0,416667;0,333333;0,333333;0,333333;0,291667;0,291667;0,291667;0,333333;0,333333;0,333333;0,333333;0,333333;0,291667;0,291667;0,333333;0,000000;0,000000;0,666667;
102;;;;;;;;;;;;;;;;;;;;;;;;;;;;;;;;;;;;;;;;;;;;;;;;;;;;;;;;;;;;;;;;;;;;;;;;;;;;;;;;;;;;;;;;;;;;;;;;;;;;;;1,000000;0,333333;0,416667;0,500000;0,416667;0,416667;0,333333;0,333333;0,333333;0,291667;0,291667;0,416667;0,333333;0,333333;0,333333;0,291667;0,291667;0,291667;0,333333;0,333333;0,333333;0,333333;0,333333;0,291667;0,291667;0,333333;0,000000;0,000000;0,666667;
103;;;;;;;;;;;;;;;;;;;;;;;;;;;;;;;;;;;;;;;;;;;;;;;;;;;;;;;;;;;;;;;;;;;;;;;;;;;;;;;;;;;;;;;;;;;;;;;;;;;;;;;1,000000;0,416667;0,500000;0,416667;0,416667;0,333333;0,333333;0,333333;0,291667;0,291667;0,416667;0,333333;0,333333;0,333333;0,291667;0,291667;0,291667;0,333333;0,333333;0,333333;0,333333;0,333333;0,583333;0,583333;0,333333;0,000000;0,000000;0,333333;
104;;;;;;;;;;;;;;;;;;;;;;;;;;;;;;;;;;;;;;;;;;;;;;;;;;;;;;;;;;;;;;;;;;;;;;;;;;;;;;;;;;;;;;;;;;;;;;;;;;;;;;;;1,000000;0,583333;0,500000;0,500000;0,416667;0,416667;0,416667;0,375000;0,375000;0,500000;0,416667;0,416667;0,416667;0,375000;0,375000;0,375000;0,416667;0,416667;0,416667;0,416667;0,416667;0,375000;0,375000;0,416667;0,000000;0,000000;0,416667;
105;;;;;;;;;;;;;;;;;;;;;;;;;;;;;;;;;;;;;;;;;;;;;;;;;;;;;;;;;;;;;;;;;;;;;;;;;;;;;;;;;;;;;;;;;;;;;;;;;;;;;;;;;1,000000;0,583333;0,583333;0,500000;0,500000;0,500000;0,458333;0,458333;0,583333;0,500000;0,500000;0,500000;0,458333;0,458333;0,458333;0,500000;0,500000;0,500000;0,500000;0,500000;0,458333;0,458333;0,500000;0,000000;0,000000;0,500000;
106;;;;;;;;;;;;;;;;;;;;;;;;;;;;;;;;;;;;;;;;;;;;;;;;;;;;;;;;;;;;;;;;;;;;;;;;;;;;;;;;;;;;;;;;;;;;;;;;;;;;;;;;;;1,000000;0,500000;0,416667;0,416667;0,416667;0,375000;0,375000;0,500000;0,416667;0,416667;0,416667;0,375000;0,375000;0,375000;0,416667;0,416667;0,416667;0,416667;0,416667;0,375000;0,375000;0,416667;0,000000;0,000000;0,416667;
107;;;;;;;;;;;;;;;;;;;;;;;;;;;;;;;;;;;;;;;;;;;;;;;;;;;;;;;;;;;;;;;;;;;;;;;;;;;;;;;;;;;;;;;;;;;;;;;;;;;;;;;;;;;1,000000;0,416667;0,416667;0,416667;0,375000;0,375000;0,500000;0,416667;0,416667;0,416667;0,375000;0,375000;0,375000;0,416667;0,416667;0,416667;0,416667;0,416667;0,375000;0,375000;0,416667;0,000000;0,000000;0,416667;
108;;;;;;;;;;;;;;;;;;;;;;;;;;;;;;;;;;;;;;;;;;;;;;;;;;;;;;;;;;;;;;;;;;;;;;;;;;;;;;;;;;;;;;;;;;;;;;;;;;;;;;;;;;;;1,000000;0,666667;0,666667;0,291667;0,291667;0,416667;0,333333;0,333333;0,333333;0,291667;0,291667;0,291667;0,333333;0,333333;0,333333;0,333333;0,333333;0,291667;0,291667;0,333333;0,000000;0,000000;0,333333;
109;;;;;;;;;;;;;;;;;;;;;;;;;;;;;;;;;;;;;;;;;;;;;;;;;;;;;;;;;;;;;;;;;;;;;;;;;;;;;;;;;;;;;;;;;;;;;;;;;;;;;;;;;;;;;1,000000;0,666667;0,291667;0,291667;0,416667;0,333333;0,333333;0,333333;0,291667;0,291667;0,291667;0,333333;0,333333;0,333333;0,333333;0,333333;0,291667;0,291667;0,333333;0,000000;0,000000;0,333333;
110;;;;;;;;;;;;;;;;;;;;;;;;;;;;;;;;;;;;;;;;;;;;;;;;;;;;;;;;;;;;;;;;;;;;;;;;;;;;;;;;;;;;;;;;;;;;;;;;;;;;;;;;;;;;;;1,000000;0,291667;0,291667;0,416667;0,333333;0,333333;0,333333;0,291667;0,291667;0,291667;0,333333;0,333333;0,333333;0,333333;0,333333;0,291667;0,291667;0,333333;0,000000;0,000000;0,333333;
111;;;;;;;;;;;;;;;;;;;;;;;;;;;;;;;;;;;;;;;;;;;;;;;;;;;;;;;;;;;;;;;;;;;;;;;;;;;;;;;;;;;;;;;;;;;;;;;;;;;;;;;;;;;;;;;1,000000;0,750000;0,375000;0,291667;0,291667;0,291667;0,250000;0,250000;0,250000;0,291667;0,291667;0,291667;0,291667;0,291667;0,250000;0,250000;0,291667;0,000000;0,000000;0,291667;
112;;;;;;;;;;;;;;;;;;;;;;;;;;;;;;;;;;;;;;;;;;;;;;;;;;;;;;;;;;;;;;;;;;;;;;;;;;;;;;;;;;;;;;;;;;;;;;;;;;;;;;;;;;;;;;;;1,000000;0,375000;0,291667;0,291667;0,291667;0,250000;0,250000;0,250000;0,291667;0,291667;0,291667;0,291667;0,291667;0,250000;0,250000;0,291667;0,000000;0,000000;0,291667;
113;;;;;;;;;;;;;;;;;;;;;;;;;;;;;;;;;;;;;;;;;;;;;;;;;;;;;;;;;;;;;;;;;;;;;;;;;;;;;;;;;;;;;;;;;;;;;;;;;;;;;;;;;;;;;;;;;1,000000;0,416667;0,416667;0,416667;0,375000;0,375000;0,375000;0,416667;0,416667;0,416667;0,416667;0,416667;0,375000;0,375000;0,416667;0,000000;0,000000;0,416667;
114;;;;;;;;;;;;;;;;;;;;;;;;;;;;;;;;;;;;;;;;;;;;;;;;;;;;;;;;;;;;;;;;;;;;;;;;;;;;;;;;;;;;;;;;;;;;;;;;;;;;;;;;;;;;;;;;;;1,000000;0,333333;0,333333;0,583333;0,583333;0,583333;0,333333;0,333333;0,333333;0,333333;0,333333;0,291667;0,291667;0,333333;0,291667;0,291667;0,333333;
115;;;;;;;;;;;;;;;;;;;;;;;;;;;;;;;;;;;;;;;;;;;;;;;;;;;;;;;;;;;;;;;;;;;;;;;;;;;;;;;;;;;;;;;;;;;;;;;;;;;;;;;;;;;;;;;;;;;1,000000;0,666667;0,291667;0,291667;0,291667;0,333333;0,333333;0,333333;0,333333;0,333333;0,291667;0,291667;0,333333;0,000000;0,000000;0,333333;
116;;;;;;;;;;;;;;;;;;;;;;;;;;;;;;;;;;;;;;;;;;;;;;;;;;;;;;;;;;;;;;;;;;;;;;;;;;;;;;;;;;;;;;;;;;;;;;;;;;;;;;;;;;;;;;;;;;;;1,000000;0,291667;0,291667;0,291667;0,333333;0,333333;0,333333;0,333333;0,333333;0,291667;0,291667;0,333333;0,000000;0,000000;0,333333;
117;;;;;;;;;;;;;;;;;;;;;;;;;;;;;;;;;;;;;;;;;;;;;;;;;;;;;;;;;;;;;;;;;;;;;;;;;;;;;;;;;;;;;;;;;;;;;;;;;;;;;;;;;;;;;;;;;;;;;1,000000;0,750000;0,750000;0,291667;0,291667;0,291667;0,291667;0,291667;0,250000;0,250000;0,291667;0,000000;0,000000;0,291667;
118;;;;;;;;;;;;;;;;;;;;;;;;;;;;;;;;;;;;;;;;;;;;;;;;;;;;;;;;;;;;;;;;;;;;;;;;;;;;;;;;;;;;;;;;;;;;;;;;;;;;;;;;;;;;;;;;;;;;;;1,000000;0,750000;0,291667;0,291667;0,291667;0,291667;0,291667;0,250000;0,250000;0,291667;0,000000;0,000000;0,291667;
119;;;;;;;;;;;;;;;;;;;;;;;;;;;;;;;;;;;;;;;;;;;;;;;;;;;;;;;;;;;;;;;;;;;;;;;;;;;;;;;;;;;;;;;;;;;;;;;;;;;;;;;;;;;;;;;;;;;;;;;1,000000;0,291667;0,291667;0,291667;0,291667;0,291667;0,250000;0,250000;0,291667;0,000000;0,000000;0,291667;
120;;;;;;;;;;;;;;;;;;;;;;;;;;;;;;;;;;;;;;;;;;;;;;;;;;;;;;;;;;;;;;;;;;;;;;;;;;;;;;;;;;;;;;;;;;;;;;;;;;;;;;;;;;;;;;;;;;;;;;;;1,000000;0,666667;0,666667;0,333333;0,333333;0,291667;0,291667;0,333333;0,000000;0,000000;0,333333;
121;;;;;;;;;;;;;;;;;;;;;;;;;;;;;;;;;;;;;;;;;;;;;;;;;;;;;;;;;;;;;;;;;;;;;;;;;;;;;;;;;;;;;;;;;;;;;;;;;;;;;;;;;;;;;;;;;;;;;;;;;1,000000;0,666667;0,333333;0,333333;0,291667;0,291667;0,333333;0,000000;0,000000;0,333333;
122;;;;;;;;;;;;;;;;;;;;;;;;;;;;;;;;;;;;;;;;;;;;;;;;;;;;;;;;;;;;;;;;;;;;;;;;;;;;;;;;;;;;;;;;;;;;;;;;;;;;;;;;;;;;;;;;;;;;;;;;;;1,000000;0,333333;0,333333;0,291667;0,291667;0,333333;0,000000;0,000000;0,333333;
123;;;;;;;;;;;;;;;;;;;;;;;;;;;;;;;;;;;;;;;;;;;;;;;;;;;;;;;;;;;;;;;;;;;;;;;;;;;;;;;;;;;;;;;;;;;;;;;;;;;;;;;;;;;;;;;;;;;;;;;;;;;1,000000;0,333333;0,291667;0,291667;1,000000;0,000000;0,000000;0,333333;
124;;;;;;;;;;;;;;;;;;;;;;;;;;;;;;;;;;;;;;;;;;;;;;;;;;;;;;;;;;;;;;;;;;;;;;;;;;;;;;;;;;;;;;;;;;;;;;;;;;;;;;;;;;;;;;;;;;;;;;;;;;;;1,000000;0,291667;0,291667;0,333333;0,000000;0,000000;0,333333;
125;;;;;;;;;;;;;;;;;;;;;;;;;;;;;;;;;;;;;;;;;;;;;;;;;;;;;;;;;;;;;;;;;;;;;;;;;;;;;;;;;;;;;;;;;;;;;;;;;;;;;;;;;;;;;;;;;;;;;;;;;;;;;1,000000;0,750000;0,291667;0,000000;0,000000;0,291667;
126;;;;;;;;;;;;;;;;;;;;;;;;;;;;;;;;;;;;;;;;;;;;;;;;;;;;;;;;;;;;;;;;;;;;;;;;;;;;;;;;;;;;;;;;;;;;;;;;;;;;;;;;;;;;;;;;;;;;;;;;;;;;;;1,000000;0,291667;0,000000;0,000000;0,291667;
127;;;;;;;;;;;;;;;;;;;;;;;;;;;;;;;;;;;;;;;;;;;;;;;;;;;;;;;;;;;;;;;;;;;;;;;;;;;;;;;;;;;;;;;;;;;;;;;;;;;;;;;;;;;;;;;;;;;;;;;;;;;;;;;1,000000;0,000000;0,000000;0,333333;
128;;;;;;;;;;;;;;;;;;;;;;;;;;;;;;;;;;;;;;;;;;;;;;;;;;;;;;;;;;;;;;;;;;;;;;;;;;;;;;;;;;;;;;;;;;;;;;;;;;;;;;;;;;;;;;;;;;;;;;;;;;;;;;;;1,000000;0,750000;0,000000;
129;;;;;;;;;;;;;;;;;;;;;;;;;;;;;;;;;;;;;;;;;;;;;;;;;;;;;;;;;;;;;;;;;;;;;;;;;;;;;;;;;;;;;;;;;;;;;;;;;;;;;;;;;;;;;;;;;;;;;;;;;;;;;;;;;1,000000;0,000000;
130;;;;;;;;;;;;;;;;;;;;;;;;;;;;;;;;;;;;;;;;;;;;;;;;;;;;;;;;;;;;;;;;;;;;;;;;;;;;;;;;;;;;;;;;;;;;;;;;;;;;;;;;;;;;;;;;;;;;;;;;;;;;;;;;;;1,000000;
