;1; 2; 3; 4; 5; 6; 7; 8; 9; 10; 11; 12; 13; 14; 15; 16; 17; 18; 19; 20; 21; 22; 23; 24; 25; 26; 27; 28; 29; 30; 31; 32; 33; 34; 35; 36; 37; 38; 39; 40; 41; 42; 43; 44; 45; 46; 47; 48; 49; 50; 51; 52; 53; 54; 55; 56; 57; 58; 59; 60; 61; 62; 63; 64; 65; 66; 67; 68; 69; 70; 71; 72; 73; 74; 75; 76; 77; 78; 79; 80; 81; 82; 83; 84; 85; 86; 87; 88; 89; 90; 91; 92; 93; 94; 95; 96; 97; 98; 99; 100; 101; 102; 103; 104; 105; 106; 107; 108; 109; 110; 111; 112; 113; 114; 115; 116; 117; 118; 119; 120; 121; 122; 123; 124; 125; 126; 127; 128; 129; 130
1;1,000000;0,284220;0,500757;0,537997;0,268632;0,180797;0,137309;0,137967;0,138710;0,121467;0,115440;0,125860;0,135673;0,090725;0,135058;0,135446;0,135839;0,136656;0,118795;0,119169;0,152441;0,152734;0,163321;0,233723;0,158180;0,149280;0,144758;0,144993;0,000000;0,000000;0,000000;0,183349;0,136840;0,183694;0,149826;0,149997;0,241272;0,148981;0,149180;0,152590;0,152733;0,087396;0,153020;0,190342;0,190463;0,190586;0,000000;0,000000;0,000000;0,153930;0,154083;0,154167;0,154523;0,156888;0,154601;0,188207;0,188413;0,275170;0,275170;0,333344;0,554845;0,276871;0,276871;0,112599;0,104731;0,000000;0,000000;0,279195;0,279195;0,143284;0,134679;0,200719;0,200789;0,200861;0,158423;0,158543;0,278313;0,234565;0,204327;0,203982;0,202743;0,000000;0,000000;0,000000;0,135007;0,135189;0,214146;0,204962;0,194584;0,286023;0,286023;0,166694;0,166753;0,166812;0,166872;0,286286;0,156955;0,176972;0,167095;0,167154;0,206278;0,206334;0,206328;0,289419;0,374178;0,289860;0,289860;0,208867;0,208912;0,208958;0,164838;0,164920;0,281455;0,199387;0,204816;0,204895;0,167066;0,167137;0,167208;0,210927;0,210968;0,211008;0,200576;0,206454;0,167224;0,167295;0,201142;0,000000;0,000000;0,208123;
2;;1,000000;0,330053;0,342191;0,233161;0,264034;0,359152;0,364155;0,368413;0,446499;0,430821;0,453870;0,484322;0,335649;0,406775;0,408512;0,410106;0,464909;0,458369;0,459575;0,446663;0,447867;0,377380;0,259096;0,427446;0,420335;0,413351;0,414192;0,000000;0,000000;0,000000;0,387884;0,502042;0,389447;0,426743;0,427349;0,379669;0,421910;0,422483;0,423346;0,423795;0,318310;0,424649;0,413906;0,414336;0,414753;0,000000;0,000000;0,000000;0,441960;0,442344;0,420743;0,444843;0,456405;0,424806;0,424641;0,425019;0,379172;0,379553;0,299721;0,000000;0,340858;0,341272;0,348955;0,397962;0,432180;0,432180;0,382631;0,382940;0,461099;0,459712;0,422567;0,422789;0,423006;0,426348;0,426579;0,332698;0,403504;0,431553;0,416388;0,398280;0,319164;0,319233;0,327147;0,461876;0,461689;0,410286;0,412995;0,431520;0,388320;0,388535;0,445049;0,445183;0,445315;0,445444;0,295964;0,437680;0,439097;0,443977;0,444129;0,416110;0,416272;0,387010;0,369921;0,319447;0,391420;0,391593;0,428663;0,428793;0,428920;0,440215;0,440342;0,321583;0,375565;0,414751;0,414892;0,449440;0,449551;0,449661;0,430116;0,430229;0,430340;0,394053;0,420716;0,441240;0,441349;0,394650;0,316782;0,316836;0,406940;
3;;;1,000000;0,584707;0,272839;0,185004;0,141516;0,142174;0,142916;0,125674;0,119647;0,130067;0,139880;0,094932;0,139265;0,139653;0,140046;0,140863;0,123002;0,123376;0,156648;0,156941;0,167528;0,237930;0,162387;0,153487;0,148965;0,149200;0,000000;0,000000;0,000000;0,187555;0,141046;0,187901;0,154033;0,154204;0,245479;0,153188;0,153387;0,156797;0,156940;0,091602;0,157226;0,194549;0,194670;0,194793;0,000000;0,000000;0,000000;0,158137;0,158290;0,158373;0,158730;0,161095;0,158808;0,192414;0,192620;0,279377;0,279377;0,337551;0,559052;0,281078;0,281078;0,116806;0,108937;0,000000;0,000000;0,283402;0,283402;0,147491;0,138886;0,204926;0,204996;0,205068;0,162629;0,162750;0,282519;0,238772;0,208534;0,208188;0,206950;0,000000;0,000000;0,000000;0,139214;0,139396;0,218353;0,209169;0,198791;0,290230;0,290230;0,170901;0,170960;0,171019;0,171079;0,290493;0,161161;0,181179;0,171302;0,171361;0,210484;0,210541;0,210534;0,293626;0,378385;0,294067;0,294067;0,213074;0,213119;0,213165;0,169045;0,169127;0,285662;0,203594;0,209022;0,209102;0,171273;0,171344;0,171414;0,215134;0,215175;0,215215;0,204783;0,210661;0,171431;0,171502;0,205349;0,000000;0,000000;0,212330;
4;;;;1,000000;0,277380;0,189545;0,146056;0,146714;0,147457;0,130214;0,124188;0,134608;0,144421;0,099472;0,143806;0,144193;0,144586;0,145404;0,127543;0,127917;0,161189;0,161481;0,172069;0,242470;0,166928;0,158027;0,153506;0,153741;0,000000;0,000000;0,000000;0,192096;0,145587;0,192442;0,158574;0,158745;0,250020;0,157729;0,157928;0,161338;0,161480;0,096143;0,161767;0,199090;0,199211;0,199334;0,000000;0,000000;0,000000;0,162678;0,162831;0,162914;0,163271;0,165636;0,163349;0,196954;0,197161;0,283918;0,283918;0,342092;0,563593;0,285619;0,285619;0,121347;0,113478;0,000000;0,000000;0,287943;0,287943;0,152032;0,143427;0,209466;0,209537;0,209608;0,167170;0,167291;0,287060;0,243312;0,213075;0,212729;0,211490;0,000000;0,000000;0,000000;0,143755;0,143937;0,222894;0,213709;0,203332;0,294771;0,294771;0,175442;0,175501;0,175560;0,175619;0,295033;0,165702;0,185720;0,175842;0,175902;0,215025;0,215082;0,215075;0,298166;0,382926;0,298608;0,298608;0,217615;0,217660;0,217706;0,173586;0,173668;0,290203;0,208135;0,213563;0,213642;0,175814;0,175885;0,175955;0,219675;0,219715;0,219756;0,209323;0,215202;0,175972;0,176042;0,209889;0,000000;0,000000;0,216871;
5;;;;;1,000000;0,455979;0,296250;0,296908;0,297651;0,280408;0,274382;0,284802;0,294614;0,249666;0,294000;0,294387;0,294780;0,295598;0,684104;0,685287;0,672118;0,672772;0,641567;0,392664;0,317122;0,308221;0,303700;0,303934;0,000000;0,000000;0,000000;0,342290;0,295781;0,342636;0,308767;0,308939;0,400214;0,307922;0,308122;0,311531;0,311674;0,246337;0,311961;0,349284;0,349405;0,349528;0,000000;0,000000;0,000000;0,312872;0,313025;0,313108;0,313465;0,315830;0,313542;0,617039;0,617442;0,434112;0,434112;0,492286;0,713787;0,435813;0,435813;0,271541;0,263672;0,000000;0,000000;0,438137;0,438137;0,302226;0,293621;0,359660;0,359731;0,359802;0,317364;0,317485;0,437254;0,393506;0,363269;0,362923;0,361684;0,000000;0,000000;0,000000;0,293949;0,294131;0,373088;0,363903;0,353525;0,444965;0,444965;0,325636;0,325695;0,325754;0,325813;0,445227;0,315896;0,335914;0,326036;0,326096;0,365219;0,365276;0,365269;0,448360;0,533120;0,448802;0,448802;0,367809;0,367854;0,367899;0,323780;0,323861;0,440397;0,358329;0,363757;0,363836;0,326008;0,326079;0,326149;0,369869;0,369909;0,369950;0,758878;0,365396;0,326166;0,326236;0,758878;0,000000;0,000000;0,367065;
6;;;;;;1,000000;0,208415;0,209073;0,209816;0,192573;0,186547;0,196967;0,206779;0,161831;0,206165;0,206552;0,206945;0,207763;0,590773;0,591259;0,572596;0,572842;0,713156;0,923288;0,229287;0,220386;0,215865;0,216099;0,000000;0,000000;0,000000;0,254455;0,207946;0,254801;0,220932;0,221104;0,312379;0,220087;0,220287;0,223697;0,223839;0,158502;0,224126;0,261449;0,261570;0,261693;0,000000;0,000000;0,000000;0,225037;0,225190;0,225273;0,225630;0,227995;0,225707;0,753025;0,753025;0,346277;0,346277;0,404451;0,625952;0,347978;0,347978;0,183706;0,175837;0,000000;0,000000;0,350302;0,350302;0,214391;0,205786;0,271825;0,271896;0,271967;0,229529;0,229650;0,349419;0,305671;0,275434;0,275088;0,273849;0,000000;0,000000;0,000000;0,206114;0,206296;0,285253;0,276068;0,265690;0,357130;0,357130;0,237801;0,237860;0,237919;0,237978;0,357392;0,228061;0,248079;0,238201;0,238261;0,277384;0,277441;0,277434;0,360525;0,445285;0,360967;0,360967;0,279974;0,280019;0,280064;0,235945;0,236026;0,352562;0,270494;0,275922;0,276001;0,238173;0,238244;0,238314;0,282034;0,282074;0,282115;0,271682;0,277561;0,238331;0,238401;0,272248;0,000000;0,000000;0,279230;
7;;;;;;;1,000000;0,680028;0,685131;0,149085;0,143058;0,153478;0,163291;0,118343;0,162676;0,163064;0,163457;0,164274;0,146413;0,146787;0,180059;0,180352;0,190939;0,261341;0,185798;0,176898;0,172376;0,172611;0,000000;0,000000;0,000000;0,210966;0,164457;0,211312;0,177444;0,177615;0,268890;0,176599;0,176798;0,180208;0,180351;0,115013;0,180638;0,217960;0,218081;0,218204;0,000000;0,000000;0,000000;0,181548;0,181701;0,181784;0,182141;0,184506;0,182219;0,215825;0,216031;0,302788;0,302788;0,360962;0,582463;0,304489;0,304489;0,140217;0,132348;0,000000;0,000000;0,306813;0,306813;0,170902;0,162297;0,228337;0,228407;0,228479;0,186041;0,186161;0,305930;0,262183;0,231945;0,231600;0,230361;0,000000;0,000000;0,000000;0,162625;0,162807;0,241764;0,232580;0,222202;0,313641;0,313641;0,194312;0,194371;0,194430;0,194490;0,313904;0,853233;0,204590;0,194713;0,194772;0,233896;0,233952;0,233946;0,317037;0,401796;0,317478;0,317478;0,236485;0,236530;0,236576;0,192456;0,192538;0,309073;0,227005;0,232433;0,232513;0,194684;0,194755;0,194826;0,238545;0,238586;0,238626;0,228194;0,234072;0,194842;0,194913;0,228760;0,000000;0,000000;0,235741;
8;;;;;;;;1,000000;0,689778;0,149743;0,143716;0,154136;0,163949;0,119001;0,163334;0,163722;0,164115;0,164932;0,147071;0,147445;0,180717;0,181010;0,191597;0,261999;0,186456;0,177556;0,173034;0,173269;0,000000;0,000000;0,000000;0,211624;0,165115;0,211970;0,178102;0,178273;0,269548;0,177257;0,177456;0,180866;0,181009;0,115671;0,181295;0,218618;0,218739;0,218862;0,000000;0,000000;0,000000;0,182206;0,182359;0,182442;0,182799;0,185164;0,182877;0,216483;0,216689;0,303446;0,303446;0,361620;0,583121;0,305147;0,305147;0,140875;0,133006;0,000000;0,000000;0,307471;0,307471;0,171560;0,162955;0,228995;0,229065;0,229137;0,186698;0,186819;0,306588;0,262841;0,232603;0,232257;0,231019;0,000000;0,000000;0,000000;0,163283;0,163465;0,242422;0,233238;0,222860;0,314299;0,314299;0,194970;0,195029;0,195088;0,195148;0,314562;0,853487;0,205248;0,195371;0,195430;0,234553;0,234610;0,234603;0,317695;0,402454;0,318136;0,318136;0,237143;0,237188;0,237234;0,193114;0,193196;0,309731;0,227663;0,233091;0,233171;0,195342;0,195413;0,195483;0,239203;0,239244;0,239284;0,228852;0,234730;0,195500;0,195571;0,229418;0,000000;0,000000;0,236399;
9;;;;;;;;;1,000000;0,150485;0,144459;0,154879;0,164692;0,119744;0,164077;0,164464;0,164857;0,165675;0,147814;0,148188;0,181460;0,181753;0,192340;0,262742;0,187199;0,178298;0,173777;0,174012;0,000000;0,000000;0,000000;0,212367;0,165858;0,212713;0,178845;0,179016;0,270291;0,178000;0,178199;0,181609;0,181751;0,116414;0,182038;0,219361;0,219482;0,219605;0,000000;0,000000;0,000000;0,182949;0,183102;0,183185;0,183542;0,185907;0,183620;0,217226;0,217432;0,304189;0,304189;0,362363;0,583864;0,305890;0,305890;0,141618;0,133749;0,000000;0,000000;0,308214;0,308214;0,172303;0,163698;0,229737;0,229808;0,229880;0,187441;0,187562;0,307331;0,263583;0,233346;0,233000;0,231761;0,000000;0,000000;0,000000;0,164026;0,164208;0,243165;0,233981;0,223603;0,315042;0,315042;0,195713;0,195772;0,195831;0,195890;0,315304;0,853738;0,205991;0,196113;0,196173;0,235296;0,235353;0,235346;0,318438;0,403197;0,318879;0,318879;0,237886;0,237931;0,237977;0,193857;0,193939;0,310474;0,228406;0,233834;0,233913;0,196085;0,196156;0,196226;0,239946;0,239986;0,240027;0,229594;0,235473;0,196243;0,196314;0,230160;0,000000;0,000000;0,237142;
10;;;;;;;;;;1,000000;0,722932;0,666474;0,684628;0,487991;0,296432;0,296966;0,297531;0,339089;0,130571;0,130945;0,164217;0,164510;0,175097;0,245499;0,169956;0,161055;0,156534;0,156769;0,000000;0,000000;0,000000;0,454209;0,685969;0,454209;0,371236;0,371435;0,394888;0,533578;0,533578;0,164366;0,164509;0,311184;0,164795;0,202118;0,202239;0,202362;0,000000;0,000000;0,000000;0,414676;0,414798;0,332833;0,542256;0,420884;0,389495;0,199983;0,200189;0,286946;0,286946;0,345120;0,566621;0,288647;0,288647;0,312829;0,363920;0,161854;0,161961;0,290971;0,290971;0,679350;0,686860;0,212495;0,212565;0,212637;0,170198;0,170319;0,290088;0,246341;0,216103;0,215757;0,214518;0,206376;0,206488;0,249868;0,697601;0,692017;0,225922;0,216738;0,301057;0,297799;0,297799;0,178470;0,178529;0,178588;0,178647;0,298062;0,168730;0,619150;0,178871;0,178930;0,218053;0,218110;0,218103;0,301195;0,385954;0,301636;0,301636;0,220643;0,220688;0,220734;0,348592;0,348668;0,293231;0,732948;0,216591;0,216670;0,408614;0,408663;0,408711;0,222703;0,222744;0,222784;0,212351;0,218230;0,395311;0,395366;0,212917;0,206605;0,206675;0,219899;
11;;;;;;;;;;;1,000000;0,707757;0,665778;0,554475;0,140808;0,141195;0,141588;0,353254;0,124544;0,124919;0,158191;0,158483;0,169071;0,239472;0,163930;0,155029;0,150508;0,150742;0,000000;0,000000;0,000000;0,414452;0,630707;0,414452;0,331479;0,331678;0,355131;0,328806;0,329087;0,158339;0,158482;0,305799;0,158769;0,196092;0,196213;0,196336;0,000000;0,000000;0,000000;0,323317;0,323486;0,159916;0,510867;0,328019;0,394625;0,193956;0,194163;0,280919;0,280919;0,339094;0,560595;0,282621;0,282621;0,118349;0,273395;0,000000;0,000000;0,284945;0,284945;0,713136;0,728511;0,206468;0,206539;0,206610;0,164172;0,164293;0,284062;0,240314;0,210077;0,209731;0,208492;0,236895;0,237006;0,253792;0,722216;0,887922;0,219896;0,210711;0,301578;0,291773;0,291773;0,172443;0,172503;0,172562;0,172621;0,292035;0,162704;0,484043;0,172844;0,172904;0,212027;0,212084;0,212077;0,295168;0,379928;0,295609;0,295609;0,214617;0,214662;0,214707;0,170588;0,170669;0,287205;0,701559;0,210565;0,210644;0,413744;0,413792;0,413840;0,216677;0,216717;0,216758;0,206325;0,212204;0,395833;0,395887;0,206891;0,180008;0,180078;0,213873;
12;;;;;;;;;;;;1,000000;0,607770;0,505234;0,151227;0,151615;0,152008;0,329057;0,134964;0,135339;0,168610;0,168903;0,179490;0,249892;0,174349;0,165449;0,160928;0,161162;0,000000;0,000000;0,000000;0,415437;0,567878;0,415437;0,332464;0,332663;0,356116;0,329790;0,330072;0,168759;0,168902;0,293006;0,169189;0,206511;0,206632;0,206756;0,000000;0,000000;0,000000;0,312386;0,312555;0,170336;0,488649;0,317087;0,383693;0,204376;0,204583;0,291339;0,291339;0,349513;0,571015;0,293041;0,293041;0,128768;0,262464;0,000000;0,000000;0,295364;0,295364;0,659595;0,674971;0,216888;0,216959;0,217030;0,174592;0,174713;0,294482;0,250734;0,220496;0,220151;0,218912;0,224522;0,224634;0,232850;0,819546;0,669034;0,383241;0,401133;0,432066;0,302193;0,302193;0,182863;0,182922;0,182982;0,183041;0,302455;0,173124;0,461825;0,183264;0,183324;0,222447;0,222504;0,462301;0,305588;0,390348;0,306029;0,306029;0,225036;0,225082;0,225127;0,181008;0,181089;0,297625;0,679341;0,220985;0,221064;0,402812;0,402860;0,402909;0,227097;0,227137;0,227178;0,216745;0,222624;0,575342;0,575463;0,217311;0,171572;0,171643;0,224293;
13;;;;;;;;;;;;;1,000000;0,444359;0,161040;0,161428;0,161821;0,590096;0,144777;0,145151;0,178423;0,178716;0,189303;0,259705;0,184162;0,175262;0,170740;0,170975;0,000000;0,000000;0,000000;0,456005;0,637565;0,456005;0,373032;0,373231;0,396684;0,370358;0,370640;0,178572;0,178715;0,303649;0,179002;0,216324;0,216445;0,216568;0,000000;0,000000;0,000000;0,452010;0,452370;0,512069;0,594976;0,426734;0,528777;0,214189;0,214395;0,301152;0,301152;0,359326;0,580827;0,302853;0,302853;0,372928;0,343361;0,197144;0,197312;0,305177;0,305177;0,624277;0,632152;0,226701;0,226771;0,226843;0,184405;0,184525;0,304294;0,260547;0,230309;0,229964;0,228725;0,198678;0,198789;0,231444;0,654061;0,649430;0,240128;0,230944;0,298891;0,312005;0,312005;0,192676;0,192735;0,192794;0,192854;0,312268;0,182937;0,478808;0,193077;0,193136;0,232260;0,232316;0,232310;0,315401;0,400160;0,315842;0,315842;0,234849;0,234894;0,234940;0,386006;0,386108;0,307437;0,472748;0,230797;0,230877;0,548441;0,548548;0,548654;0,236909;0,236950;0,236990;0,226558;0,232436;0,393145;0,393200;0,227124;0,196067;0,196137;0,234105;
14;;;;;;;;;;;;;;1,000000;0,116092;0,116480;0,116873;0,198026;0,099829;0,100203;0,133475;0,133768;0,144355;0,214757;0,139214;0,130314;0,125792;0,126027;0,000000;0,000000;0,000000;0,164382;0,678511;0,164728;0,130860;0,131031;0,222306;0,130015;0,130214;0,358237;0,358405;0,522478;0,358752;0,171376;0,171497;0,171620;0,000000;0,000000;0,000000;0,257523;0,257692;0,135200;0,329135;0,262224;0,328830;0,169241;0,169447;0,256204;0,256204;0,314378;0,535879;0,257905;0,257905;0,093633;0,207600;0,000000;0,000000;0,260229;0,260229;0,428621;0,455253;0,181753;0,181823;0,181895;0,139457;0,139577;0,259346;0,215599;0,185361;0,185015;0,183777;0,614892;0,615077;0,539019;0,636938;0,629861;0,195180;0,185996;0,286487;0,267057;0,267057;0,147728;0,147787;0,147846;0,147906;0,267320;0,137989;0,292759;0,148129;0,148188;0,187311;0,187368;0,187362;0,270453;0,355212;0,270894;0,270894;0,189901;0,189946;0,189992;0,145872;0,145954;0,262489;0,420206;0,185849;0,185929;0,347949;0,347997;0,348046;0,191961;0,192002;0,192042;0,181610;0,187488;0,380741;0,380796;0,182176;0,445502;0,445575;0,189157;
15;;;;;;;;;;;;;;;1,000000;0,754922;0,756621;0,550005;0,144162;0,144537;0,177808;0,178101;0,188688;0,259090;0,183547;0,174647;0,170125;0,170360;0,000000;0,000000;0,000000;0,208716;0,318617;0,209061;0,175193;0,175364;0,266640;0,445105;0,445310;0,177957;0,178100;0,112763;0,178387;0,215709;0,215830;0,215953;0,000000;0,000000;0,000000;0,381668;0,381848;0,454246;0,179890;0,386438;0,179968;0,213574;0,213780;0,300537;0,300537;0,358711;0,580213;0,302238;0,302238;0,434242;0,332586;0,250705;0,250812;0,304562;0,304562;0,362133;0,160047;0,226086;0,226157;0,226228;0,183790;0,183910;0,303680;0,259932;0,229694;0,229349;0,228110;0,000000;0,000000;0,000000;0,160374;0,160557;0,239513;0,230329;0,219951;0,311390;0,311390;0,192061;0,192120;0,192180;0,192239;0,311653;0,182322;0,417381;0,192462;0,192521;0,231645;0,231702;0,231695;0,314786;0,399545;0,315227;0,315227;0,234234;0,234279;0,234325;0,470005;0,470081;0,306822;0,224754;0,230183;0,230262;0,192433;0,192504;0,192575;0,236295;0,236335;0,236375;0,225943;0,231821;0,192591;0,192662;0,226509;0,000000;0,000000;0,233491;
16;;;;;;;;;;;;;;;;1,000000;0,758245;0,550746;0,144550;0,144924;0,178196;0,178489;0,189076;0,259478;0,183935;0,175035;0,170513;0,170748;0,000000;0,000000;0,000000;0,209103;0,319151;0,209449;0,175581;0,175752;0,267027;0,445639;0,445844;0,178345;0,178488;0,113150;0,178774;0,216097;0,216218;0,216341;0,000000;0,000000;0,000000;0,382202;0,382382;0,454781;0,180278;0,386972;0,180356;0,213962;0,214168;0,300925;0,300925;0,359099;0,580600;0,302626;0,302626;0,434776;0,333120;0,251563;0,251671;0,304950;0,304950;0,362667;0,160434;0,226474;0,226544;0,226616;0,184177;0,184298;0,304067;0,260320;0,230082;0,229736;0,228498;0,000000;0,000000;0,000000;0,160762;0,160944;0,239901;0,230717;0,220339;0,311778;0,311778;0,192449;0,192508;0,192567;0,192627;0,312041;0,182709;0,417915;0,192850;0,192909;0,232032;0,232089;0,232082;0,315174;0,399933;0,315615;0,315615;0,234622;0,234667;0,234713;0,470539;0,470615;0,307210;0,225142;0,230570;0,230650;0,192821;0,192892;0,192962;0,236682;0,236723;0,236763;0,226331;0,232209;0,192979;0,193050;0,226897;0,000000;0,000000;0,233878;
17;;;;;;;;;;;;;;;;;1,000000;0,551456;0,144943;0,145317;0,178589;0,178882;0,189469;0,259871;0,184328;0,175428;0,170906;0,171141;0,000000;0,000000;0,000000;0,209496;0,319715;0,209842;0,175974;0,176145;0,267420;0,446203;0,446409;0,178738;0,178881;0,113543;0,179167;0,216490;0,216611;0,216734;0,000000;0,000000;0,000000;0,382766;0,382947;0,455345;0,180671;0,387536;0,180749;0,214355;0,214561;0,301318;0,301318;0,359492;0,580993;0,303019;0,303019;0,435340;0,333684;0,252390;0,252498;0,305343;0,305343;0,363231;0,160827;0,226867;0,226937;0,227009;0,184571;0,184691;0,304460;0,260713;0,230475;0,230129;0,228891;0,000000;0,000000;0,000000;0,161155;0,161337;0,240294;0,231110;0,220732;0,312171;0,312171;0,192842;0,192901;0,192960;0,193020;0,312434;0,183102;0,418479;0,193243;0,193302;0,232425;0,232482;0,232475;0,315567;0,400326;0,316008;0,316008;0,235015;0,235060;0,235106;0,471103;0,471179;0,307603;0,225535;0,230963;0,231043;0,193214;0,193285;0,193355;0,237075;0,237116;0,237156;0,226724;0,232602;0,193372;0,193443;0,227290;0,000000;0,000000;0,234271;
18;;;;;;;;;;;;;;;;;;1,000000;0,145760;0,146135;0,179406;0,179699;0,190286;0,260688;0,185145;0,176245;0,171723;0,171958;0,000000;0,000000;0,000000;0,431186;0,444863;0,431186;0,348213;0,348412;0,371865;0,543571;0,543976;0,179555;0,179698;0,197650;0,179985;0,217307;0,217428;0,217551;0,000000;0,000000;0,000000;0,566189;0,566501;0,530837;0,499556;0,442610;0,378587;0,215172;0,215378;0,302135;0,302135;0,360309;0,581811;0,303836;0,303836;0,597993;0,655865;0,524884;0,525068;0,306160;0,306160;0,475938;0,575986;0,227684;0,227755;0,227826;0,185388;0,185508;0,305278;0,261530;0,231292;0,230947;0,229708;0,000000;0,000000;0,102237;0,441843;0,442247;0,241111;0,231927;0,221549;0,312988;0,312988;0,193659;0,193718;0,193778;0,193837;0,313251;0,183920;0,474988;0,194060;0,194119;0,233243;0,233300;0,233293;0,316384;0,401143;0,316825;0,316825;0,235832;0,235877;0,235923;0,556940;0,557059;0,308421;0,447930;0,231781;0,231860;0,194031;0,194102;0,194173;0,237893;0,237933;0,237973;0,227541;0,233419;0,194189;0,194260;0,228107;0,176209;0,176280;0,235089;
19;;;;;;;;;;;;;;;;;;;1,000000;0,794715;0,786463;0,787290;0,457354;0,667485;0,167284;0,158384;0,153862;0,154097;0,000000;0,000000;0,000000;0,192453;0,145944;0,192798;0,158930;0,159101;0,250376;0,158085;0,158284;0,161694;0,161837;0,096500;0,162124;0,199446;0,199567;0,199690;0,000000;0,000000;0,000000;0,163034;0,163187;0,163271;0,163627;0,165993;0,163705;0,497223;0,497223;0,284274;0,284274;0,342448;0,563950;0,285975;0,285975;0,121703;0,113835;0,000000;0,000000;0,288299;0,288299;0,152388;0,143783;0,209823;0,209893;0,209965;0,167527;0,167647;0,287417;0,243669;0,213431;0,213086;0,211847;0,000000;0,000000;0,000000;0,144111;0,144293;0,223250;0,214066;0,203688;0,295127;0,295127;0,175798;0,175857;0,175916;0,175976;0,295390;0,166059;0,186076;0,176199;0,176258;0,215382;0,215439;0,215432;0,298523;0,383282;0,298964;0,298964;0,217971;0,218016;0,218062;0,173942;0,174024;0,290559;0,208491;0,213920;0,213999;0,176170;0,176241;0,176312;0,220031;0,220072;0,220112;0,790148;0,215558;0,176328;0,176399;0,790148;0,000000;0,000000;0,217227;
20;;;;;;;;;;;;;;;;;;;;1,000000;0,787216;0,788016;0,457840;0,667971;0,167659;0,158758;0,154237;0,154471;0,000000;0,000000;0,000000;0,192827;0,146318;0,193173;0,159304;0,159476;0,250751;0,158459;0,158659;0,162068;0,162211;0,096874;0,162498;0,199821;0,199942;0,200065;0,000000;0,000000;0,000000;0,163409;0,163562;0,163645;0,164001;0,166367;0,164079;0,497709;0,497709;0,284649;0,284649;0,342823;0,564324;0,286350;0,286350;0,122078;0,114209;0,000000;0,000000;0,288674;0,288674;0,152763;0,144158;0,210197;0,210268;0,210339;0,167901;0,168022;0,287791;0,244043;0,213806;0,213460;0,212221;0,000000;0,000000;0,000000;0,144486;0,144668;0,223625;0,214440;0,204062;0,295502;0,295502;0,176173;0,176232;0,176291;0,176350;0,295764;0,166433;0,186451;0,176573;0,176633;0,215756;0,215813;0,215806;0,298897;0,383657;0,299339;0,299339;0,218346;0,218391;0,218436;0,174317;0,174398;0,290934;0,208866;0,214294;0,214373;0,176545;0,176616;0,176686;0,220406;0,220446;0,220487;0,790977;0,215933;0,176703;0,176773;0,790977;0,000000;0,000000;0,217602;
21;;;;;;;;;;;;;;;;;;;;;1,000000;0,773593;0,439177;0,649308;0,200930;0,192030;0,187508;0,187743;0,000000;0,000000;0,000000;0,226099;0,179590;0,226444;0,192576;0,192748;0,284023;0,191731;0,191930;0,195340;0,195483;0,130146;0,195770;0,233092;0,233213;0,233336;0,000000;0,000000;0,000000;0,196681;0,196833;0,196917;0,197273;0,199639;0,197351;0,479046;0,479046;0,317920;0,317920;0,376094;0,597596;0,319621;0,319621;0,155349;0,147481;0,000000;0,000000;0,321945;0,321945;0,186035;0,177430;0,243469;0,243540;0,243611;0,201173;0,201294;0,321063;0,277315;0,247077;0,246732;0,245493;0,000000;0,000000;0,000000;0,177757;0,177940;0,256897;0,247712;0,237334;0,328774;0,328774;0,209444;0,209503;0,209563;0,209622;0,329036;0,199705;0,219722;0,209845;0,209905;0,249028;0,249085;0,249078;0,332169;0,416929;0,332610;0,332610;0,251617;0,251663;0,251708;0,207589;0,207670;0,324206;0,242137;0,247566;0,247645;0,209817;0,209887;0,209958;0,253678;0,253718;0,253758;0,624314;0,249204;0,209975;0,210045;0,624881;0,000000;0,000000;0,250874;
22;;;;;;;;;;;;;;;;;;;;;;1,000000;0,439423;0,649555;0,201223;0,192323;0,187801;0,188036;0,000000;0,000000;0,000000;0,226391;0,179882;0,226737;0,192869;0,193040;0,284315;0,192024;0,192223;0,195633;0,195776;0,130438;0,196063;0,233385;0,233506;0,233629;0,000000;0,000000;0,000000;0,196973;0,197126;0,197209;0,197566;0,199931;0,197644;0,479292;0,479292;0,318213;0,318213;0,376387;0,597888;0,319914;0,319914;0,155642;0,147774;0,000000;0,000000;0,322238;0,322238;0,186327;0,177722;0,243762;0,243832;0,243904;0,201466;0,201586;0,321355;0,277608;0,247370;0,247025;0,245786;0,000000;0,000000;0,000000;0,178050;0,178232;0,257189;0,248005;0,237627;0,329066;0,329066;0,209737;0,209796;0,209855;0,209915;0,329329;0,199998;0,220015;0,210138;0,210197;0,249321;0,249377;0,249371;0,332462;0,417221;0,332903;0,332903;0,251910;0,251955;0,252001;0,207881;0,207963;0,324498;0,242430;0,247858;0,247938;0,210109;0,210180;0,210251;0,253970;0,254011;0,254051;0,625216;0,249497;0,210267;0,210338;0,625778;0,000000;0,000000;0,251166;
23;;;;;;;;;;;;;;;;;;;;;;;1,000000;0,789869;0,211810;0,202910;0,198388;0,198623;0,000000;0,000000;0,000000;0,236979;0,190470;0,237324;0,203456;0,203628;0,294903;0,202611;0,202810;0,206220;0,206363;0,141026;0,206650;0,243972;0,244093;0,244216;0,000000;0,000000;0,000000;0,207561;0,207713;0,207797;0,208153;0,210519;0,208231;0,619606;0,619606;0,328800;0,328800;0,386974;0,608476;0,330501;0,330501;0,166229;0,158361;0,000000;0,000000;0,332825;0,332825;0,196915;0,188310;0,254349;0,254420;0,254491;0,212053;0,212174;0,331943;0,288195;0,257957;0,257612;0,256373;0,000000;0,000000;0,000000;0,188637;0,188820;0,267777;0,258592;0,248214;0,339654;0,339654;0,220324;0,220383;0,220443;0,220502;0,339916;0,210585;0,230602;0,220725;0,220785;0,259908;0,259965;0,259958;0,343049;0,427809;0,343490;0,343490;0,262497;0,262543;0,262588;0,218469;0,218550;0,335086;0,253017;0,258446;0,258525;0,220697;0,220767;0,220838;0,264558;0,264598;0,264639;0,254206;0,260084;0,220855;0,220925;0,254772;0,000000;0,000000;0,261754;
24;;;;;;;;;;;;;;;;;;;;;;;;1,000000;0,282212;0,273312;0,268790;0,269025;0,000000;0,000000;0,000000;0,307380;0,260871;0,307726;0,273858;0,274029;0,365304;0,273013;0,273212;0,276622;0,276765;0,211427;0,277052;0,314374;0,314495;0,314618;0,000000;0,000000;0,000000;0,277962;0,278115;0,278198;0,278555;0,280920;0,278633;0,829738;0,829738;0,399202;0,399202;0,457376;0,678877;0,400903;0,400903;0,236631;0,228762;0,000000;0,000000;0,403227;0,403227;0,267316;0,258711;0,324751;0,324821;0,324893;0,282455;0,282575;0,402344;0,358597;0,328359;0,328013;0,326775;0,000000;0,000000;0,000000;0,259039;0,259221;0,338178;0,328994;0,318616;0,410055;0,410055;0,290726;0,290785;0,290844;0,290904;0,410318;0,280987;0,301004;0,291127;0,291186;0,330309;0,330366;0,330360;0,413451;0,498210;0,413892;0,413892;0,332899;0,332944;0,332990;0,288870;0,288952;0,405487;0,323419;0,328847;0,328927;0,291098;0,291169;0,291239;0,334959;0,335000;0,335040;0,324608;0,330486;0,291256;0,291327;0,325174;0,000000;0,000000;0,332155;
25;;;;;;;;;;;;;;;;;;;;;;;;;1,000000;0,757995;0,684630;0,685123;0,000000;0,000000;0,000000;0,231838;0,185329;0,232183;0,198315;0,198487;0,289762;0,197470;0,197669;0,201079;0,201222;0,135885;0,201509;0,238831;0,238952;0,239075;0,000000;0,000000;0,000000;0,202420;0,202572;0,202656;0,203012;0,205378;0,203090;0,236696;0,236902;0,323659;0,323659;0,381833;0,603335;0,325360;0,325360;0,161088;0,153220;0,000000;0,000000;0,327684;0,327684;0,191774;0,183169;0,249208;0,249279;0,249350;0,714341;0,714598;0,326802;0,283054;0,252816;0,252471;0,251232;0,000000;0,000000;0,000000;0,183496;0,183679;0,262636;0,253451;0,243073;0,334513;0,334513;0,215183;0,215242;0,215302;0,215361;0,334775;0,205444;0,225461;0,215584;0,215644;0,254767;0,254824;0,254817;0,337908;0,422668;0,338349;0,338349;0,257356;0,257402;0,257447;0,213327;0,213409;0,329945;0,247876;0,562150;0,562287;0,215556;0,215626;0,215697;0,259417;0,259457;0,259497;0,249065;0,254943;0,215714;0,215784;0,249631;0,000000;0,000000;0,256613;
26;;;;;;;;;;;;;;;;;;;;;;;;;;1,000000;0,706644;0,707159;0,000000;0,000000;0,000000;0,222937;0,176428;0,223283;0,189415;0,189586;0,280861;0,188570;0,188769;0,192179;0,192321;0,126984;0,192608;0,229931;0,230052;0,230175;0,000000;0,000000;0,000000;0,193519;0,193672;0,193755;0,194112;0,196477;0,194190;0,227796;0,228002;0,314759;0,314759;0,372933;0,594434;0,316460;0,316460;0,152188;0,144319;0,000000;0,000000;0,318784;0,318784;0,182873;0,174268;0,240308;0,240378;0,240450;0,741347;0,741629;0,317901;0,274154;0,243916;0,243570;0,242331;0,000000;0,000000;0,000000;0,174596;0,174778;0,253735;0,244551;0,234173;0,325612;0,325612;0,206283;0,206342;0,206401;0,206460;0,325875;0,196543;0,216561;0,206684;0,206743;0,245866;0,245923;0,245916;0,329008;0,413767;0,329449;0,329449;0,248456;0,248501;0,248547;0,204427;0,204509;0,321044;0,238976;0,608069;0,608069;0,206655;0,206726;0,206796;0,250516;0,250556;0,250597;0,240164;0,246043;0,206813;0,206884;0,240730;0,000000;0,000000;0,247712;
27;;;;;;;;;;;;;;;;;;;;;;;;;;;1,000000;0,756221;0,000000;0,000000;0,000000;0,218416;0,171907;0,218761;0,184893;0,185065;0,276340;0,184048;0,184247;0,187657;0,187800;0,122463;0,188087;0,225409;0,225530;0,225654;0,000000;0,000000;0,000000;0,188998;0,189150;0,189234;0,189590;0,191956;0,189668;0,223274;0,223481;0,310237;0,310237;0,368411;0,589913;0,311939;0,311939;0,147666;0,139798;0,000000;0,000000;0,314262;0,314262;0,178352;0,169747;0,235786;0,235857;0,235928;0,775732;0,775732;0,313380;0,269632;0,239395;0,239049;0,237810;0,000000;0,000000;0,000000;0,170074;0,170257;0,249214;0,240029;0,229651;0,321091;0,321091;0,201761;0,201821;0,201880;0,201939;0,321353;0,192022;0,212040;0,202162;0,202222;0,241345;0,241402;0,241395;0,324486;0,409246;0,324927;0,324927;0,243934;0,243980;0,244025;0,199906;0,199987;0,316523;0,234455;0,596241;0,596241;0,202134;0,202204;0,202275;0,245995;0,246035;0,246076;0,235643;0,241522;0,202292;0,202362;0,236209;0,000000;0,000000;0,243191;
28;;;;;;;;;;;;;;;;;;;;;;;;;;;;1,000000;0,000000;0,000000;0,000000;0,218650;0,172141;0,218996;0,185128;0,185299;0,276574;0,184283;0,184482;0,187892;0,188035;0,122697;0,188322;0,225644;0,225765;0,225888;0,000000;0,000000;0,000000;0,189232;0,189385;0,189469;0,189825;0,192190;0,189903;0,223509;0,223715;0,310472;0,310472;0,368646;0,590147;0,312173;0,312173;0,147901;0,140033;0,000000;0,000000;0,314497;0,314497;0,178586;0,169981;0,236021;0,236091;0,236163;0,775732;0,775732;0,313614;0,269867;0,239629;0,239284;0,238045;0,000000;0,000000;0,000000;0,170309;0,170491;0,249448;0,240264;0,229886;0,321325;0,321325;0,201996;0,202055;0,202114;0,202174;0,321588;0,192257;0,212274;0,202397;0,202456;0,241580;0,241636;0,241630;0,324721;0,409480;0,325162;0,325162;0,244169;0,244214;0,244260;0,200140;0,200222;0,316757;0,234689;0,596535;0,596535;0,202368;0,202439;0,202510;0,246229;0,246270;0,246310;0,235878;0,241756;0,202526;0,202597;0,236444;0,000000;0,000000;0,243425;
29;;;;;;;;;;;;;;;;;;;;;;;;;;;;;1,000000;0,746278;0,747056;0,000000;0,000000;0,000000;0,000000;0,000000;0,000000;0,000000;0,000000;0,000000;0,000000;0,000000;0,000000;0,000000;0,000000;0,000000;0,000000;0,000000;0,000000;0,000000;0,000000;0,000000;0,000000;0,000000;0,000000;0,000000;0,000000;0,000000;0,000000;0,000000;0,000000;0,000000;0,000000;0,000000;0,000000;0,000000;0,000000;0,000000;0,000000;0,000000;0,000000;0,000000;0,000000;0,000000;0,000000;0,000000;0,000000;0,000000;0,000000;0,000000;0,000000;0,000000;0,000000;0,000000;0,000000;0,000000;0,000000;0,000000;0,000000;0,000000;0,000000;0,000000;0,000000;0,000000;0,000000;0,000000;0,000000;0,000000;0,000000;0,000000;0,000000;0,000000;0,000000;0,000000;0,000000;0,000000;0,000000;0,000000;0,000000;0,000000;0,000000;0,000000;0,000000;0,000000;0,000000;0,000000;0,000000;0,000000;0,000000;0,000000;0,000000;0,000000;0,000000;0,000000;0,000000;0,000000;0,000000;0,000000;0,000000;0,000000;
30;;;;;;;;;;;;;;;;;;;;;;;;;;;;;;1,000000;0,747817;0,000000;0,000000;0,000000;0,000000;0,000000;0,000000;0,000000;0,000000;0,000000;0,000000;0,000000;0,000000;0,000000;0,000000;0,000000;0,000000;0,000000;0,000000;0,000000;0,000000;0,000000;0,000000;0,000000;0,000000;0,000000;0,000000;0,000000;0,000000;0,000000;0,000000;0,000000;0,000000;0,000000;0,000000;0,000000;0,000000;0,000000;0,000000;0,000000;0,000000;0,000000;0,000000;0,000000;0,000000;0,000000;0,000000;0,000000;0,000000;0,000000;0,000000;0,000000;0,000000;0,000000;0,000000;0,000000;0,000000;0,000000;0,000000;0,000000;0,000000;0,000000;0,000000;0,000000;0,000000;0,000000;0,000000;0,000000;0,000000;0,000000;0,000000;0,000000;0,000000;0,000000;0,000000;0,000000;0,000000;0,000000;0,000000;0,000000;0,000000;0,000000;0,000000;0,000000;0,000000;0,000000;0,000000;0,000000;0,000000;0,000000;0,000000;0,000000;0,000000;0,000000;0,000000;0,000000;0,000000;0,000000;0,000000;0,000000;
31;;;;;;;;;;;;;;;;;;;;;;;;;;;;;;;1,000000;0,000000;0,000000;0,000000;0,000000;0,000000;0,000000;0,000000;0,000000;0,000000;0,000000;0,000000;0,000000;0,000000;0,000000;0,000000;0,000000;0,000000;0,000000;0,000000;0,000000;0,000000;0,000000;0,000000;0,000000;0,000000;0,000000;0,000000;0,000000;0,000000;0,000000;0,000000;0,000000;0,000000;0,000000;0,000000;0,000000;0,000000;0,000000;0,000000;0,000000;0,000000;0,000000;0,000000;0,000000;0,000000;0,000000;0,000000;0,000000;0,000000;0,000000;0,000000;0,000000;0,000000;0,000000;0,000000;0,000000;0,000000;0,000000;0,000000;0,000000;0,000000;0,000000;0,000000;0,000000;0,000000;0,000000;0,000000;0,000000;0,000000;0,000000;0,000000;0,000000;0,000000;0,000000;0,000000;0,000000;0,000000;0,000000;0,000000;0,000000;0,000000;0,000000;0,000000;0,000000;0,000000;0,000000;0,000000;0,000000;0,000000;0,000000;0,000000;0,000000;0,000000;0,000000;0,000000;0,000000;0,000000;0,000000;0,000000;
32;;;;;;;;;;;;;;;;;;;;;;;;;;;;;;;;1,000000;0,484521;0,621759;0,538786;0,538986;0,562438;0,536113;0,536395;0,226248;0,226390;0,388224;0,226677;0,264000;0,264121;0,264244;0,000000;0,000000;0,000000;0,227588;0,227741;0,227824;0,478679;0,230546;0,228259;0,261864;0,262071;0,348828;0,348828;0,407002;0,628503;0,350529;0,350529;0,186257;0,178388;0,000000;0,000000;0,352853;0,352853;0,518162;0,498129;0,274376;0,274447;0,274518;0,232080;0,232201;0,351970;0,308222;0,277985;0,277639;0,276400;0,000000;0,000000;0,221367;0,497867;0,498219;0,287804;0,278619;0,268241;0,359681;0,359681;0,240352;0,240411;0,240470;0,240529;0,359943;0,230612;0,513509;0,240752;0,240812;0,279935;0,279992;0,279985;0,363076;0,447836;0,363518;0,363518;0,282525;0,282570;0,282615;0,238496;0,238578;0,355113;0,638503;0,278473;0,278552;0,240724;0,240795;0,240865;0,284585;0,284625;0,284666;0,274233;0,280112;0,240882;0,240952;0,274799;0,295339;0,295410;0,281781;
33;;;;;;;;;;;;;;;;;;;;;;;;;;;;;;;;;1,000000;0,485216;0,526335;0,526614;0,485733;0,528934;0,529214;0,355442;0,355610;0,413603;0,355957;0,217491;0,217612;0,217735;0,000000;0,000000;0,000000;0,418654;0,418776;0,355018;0,486731;0,523115;0,555452;0,215355;0,215562;0,302319;0,302319;0,360493;0,581994;0,304020;0,304020;0,442713;0,367898;0,169570;0,169678;0,306344;0,306344;0,654625;0,649685;0,227867;0,227938;0,228009;0,185571;0,185692;0,486544;0,261713;0,231476;0,231130;0,229891;0,342316;0,342458;0,389321;0,635835;0,632344;0,241295;0,232110;0,283335;0,313172;0,313172;0,193843;0,193902;0,193961;0,194020;0,313434;0,184103;0,565656;0,194243;0,194303;0,233426;0,233483;0,233476;0,316567;0,401327;0,317009;0,317009;0,236016;0,236061;0,236106;0,370777;0,370853;0,599832;0,479482;0,231964;0,232043;0,407225;0,407273;0,407322;0,238076;0,238116;0,238157;0,227724;0,233603;0,377590;0,377644;0,228290;0,481612;0,481689;0,235272;
34;;;;;;;;;;;;;;;;;;;;;;;;;;;;;;;;;;1,000000;0,538786;0,538986;0,562438;0,536113;0,536395;0,226593;0,226736;0,388224;0,227023;0,264345;0,264466;0,264589;0,000000;0,000000;0,000000;0,227934;0,228086;0,228170;0,478679;0,230892;0,228604;0,262210;0,262416;0,349173;0,349173;0,407347;0,628849;0,350874;0,350874;0,186602;0,178734;0,000000;0,000000;0,353198;0,353198;0,518162;0,498129;0,274722;0,274793;0,274864;0,232426;0,232547;0,352316;0,308568;0,278330;0,277985;0,276746;0,000000;0,000000;0,222287;0,497867;0,498219;0,288149;0,278965;0,268587;0,360026;0,360026;0,240697;0,240756;0,240816;0,240875;0,360289;0,230958;0,513509;0,241098;0,241158;0,280281;0,280338;0,280331;0,363422;0,448181;0,363863;0,363863;0,282870;0,282916;0,282961;0,238841;0,238923;0,355459;0,638503;0,278819;0,278898;0,241070;0,241140;0,241211;0,284931;0,284971;0,285011;0,274579;0,280457;0,241227;0,241298;0,275145;0,296259;0,296330;0,282127;
35;;;;;;;;;;;;;;;;;;;;;;;;;;;;;;;;;;;1,000000;0,758877;0,734385;0,453140;0,453422;0,192725;0,192868;0,305251;0,193155;0,230477;0,230598;0,230721;0,000000;0,000000;0,000000;0,194065;0,194218;0,194302;0,395706;0,197023;0,194736;0,228342;0,228548;0,315305;0,315305;0,373479;0,594980;0,317006;0,317006;0,152734;0,144866;0,000000;0,000000;0,319330;0,319330;0,435189;0,415156;0,240854;0,240924;0,240996;0,198558;0,198678;0,646838;0,274700;0,244462;0,244117;0,242878;0,000000;0,000000;0,186616;0,414894;0,415246;0,254281;0,245097;0,234719;0,326158;0,326158;0,206829;0,206888;0,206947;0,207007;0,326421;0,197090;0,430536;0,207230;0,207289;0,246413;0,246469;0,246463;0,329554;0,414313;0,329995;0,329995;0,249002;0,249047;0,249093;0,204973;0,205055;0,760126;0,555530;0,244950;0,245030;0,207201;0,207272;0,207343;0,251062;0,251103;0,251143;0,240711;0,246589;0,207359;0,207430;0,241277;0,260588;0,260659;0,248258;
36;;;;;;;;;;;;;;;;;;;;;;;;;;;;;;;;;;;;1,000000;0,734779;0,453339;0,453621;0,192896;0,193039;0,305450;0,193326;0,230649;0,230770;0,230893;0,000000;0,000000;0,000000;0,194237;0,194390;0,194473;0,395905;0,197195;0,194907;0,228513;0,228720;0,315476;0,315476;0,373651;0,595152;0,317178;0,317178;0,152906;0,145037;0,000000;0,000000;0,319501;0,319501;0,435389;0,415355;0,241025;0,241096;0,241167;0,198729;0,198850;0,647054;0,274871;0,244634;0,244288;0,243049;0,000000;0,000000;0,186951;0,415094;0,415446;0,254453;0,245268;0,234890;0,326330;0,326330;0,207000;0,207060;0,207119;0,207178;0,326592;0,197261;0,430736;0,207401;0,207461;0,246584;0,246641;0,246634;0,329725;0,414485;0,330166;0,330166;0,249173;0,249219;0,249264;0,205145;0,205226;0,760342;0,555729;0,245122;0,245201;0,207373;0,207444;0,207514;0,251234;0,251274;0,251315;0,240882;0,246761;0,207531;0,207601;0,241448;0,260923;0,260994;0,248430;
37;;;;;;;;;;;;;;;;;;;;;;;;;;;;;;;;;;;;;1,000000;0,476792;0,477074;0,284171;0,284314;0,328903;0,284601;0,321924;0,322045;0,322168;0,000000;0,000000;0,000000;0,285512;0,285665;0,285748;0,419358;0,288470;0,286182;0,319788;0,319995;0,406752;0,406752;0,464926;0,686427;0,408453;0,408453;0,244181;0,236312;0,000000;0,000000;0,410777;0,410777;0,458841;0,438808;0,332300;0,332371;0,332442;0,290004;0,290125;0,409894;0,616800;0,335909;0,335563;0,334324;0,000000;0,000000;0,121578;0,438546;0,438898;0,345728;0,336543;0,326165;0,417605;0,417605;0,298276;0,298335;0,298394;0,298453;0,417867;0,288536;0,454188;0,298676;0,298736;0,337859;0,337916;0,337909;0,421000;0,505760;0,421442;0,421442;0,340449;0,340494;0,340539;0,296420;0,296501;0,413037;0,579182;0,336397;0,336476;0,298648;0,298719;0,298789;0,342509;0,342549;0,342590;0,332157;0,338036;0,298806;0,298876;0,332723;0,195550;0,195621;0,339705;
38;;;;;;;;;;;;;;;;;;;;;;;;;;;;;;;;;;;;;;1,000000;0,736374;0,191880;0,192023;0,302577;0,192310;0,229632;0,229753;0,229876;0,000000;0,000000;0,000000;0,408928;0,409108;0,481506;0,393033;0,413698;0,193891;0,227497;0,227703;0,314460;0,314460;0,372634;0,594135;0,316161;0,316161;0,461501;0,359845;0,271834;0,271942;0,318485;0,318485;0,637796;0,412482;0,240009;0,240079;0,240151;0,197713;0,197833;0,317603;0,273855;0,243617;0,243272;0,242033;0,000000;0,000000;0,186095;0,412221;0,412573;0,253436;0,244252;0,233874;0,325313;0,325313;0,205984;0,206043;0,206102;0,206162;0,325576;0,196245;0,653528;0,206385;0,206444;0,245568;0,245624;0,245618;0,328709;0,413468;0,329150;0,329150;0,248157;0,248202;0,248248;0,497264;0,497340;0,320745;0,552857;0,244106;0,244185;0,206356;0,206427;0,206498;0,250217;0,250258;0,250298;0,239866;0,245744;0,206514;0,206585;0,240432;0,260067;0,260137;0,247413;
39;;;;;;;;;;;;;;;;;;;;;;;;;;;;;;;;;;;;;;;1,000000;0,192079;0,192222;0,302859;0,192509;0,229831;0,229952;0,230075;0,000000;0,000000;0,000000;0,409133;0,409313;0,481711;0,393314;0,413903;0,194090;0,227696;0,227902;0,314659;0,314659;0,372833;0,594335;0,316360;0,316360;0,461707;0,360051;0,272166;0,272273;0,318684;0,318684;0,637796;0,412764;0,240208;0,240279;0,240350;0,197912;0,198032;0,317802;0,274054;0,243816;0,243471;0,242232;0,000000;0,000000;0,186439;0,412503;0,412854;0,253635;0,244451;0,234073;0,325512;0,325512;0,206183;0,206242;0,206302;0,206361;0,325775;0,196444;0,653528;0,206584;0,206643;0,245767;0,245824;0,245817;0,328908;0,413667;0,329349;0,329349;0,248356;0,248401;0,248447;0,497470;0,497546;0,320944;0,553138;0,244305;0,244384;0,206555;0,206626;0,206697;0,250417;0,250457;0,250497;0,240065;0,245943;0,206713;0,206784;0,240631;0,260412;0,260482;0,247613;
40;;;;;;;;;;;;;;;;;;;;;;;;;;;;;;;;;;;;;;;;1,000000;0,808539;0,600910;0,809394;0,233241;0,233362;0,233485;0,000000;0,000000;0,000000;0,196829;0,196982;0,197066;0,197422;0,199788;0,197500;0,231106;0,231312;0,318069;0,318069;0,376243;0,597744;0,319770;0,319770;0,155498;0,147630;0,000000;0,000000;0,322094;0,322094;0,186183;0,177578;0,243618;0,243688;0,243760;0,201322;0,201442;0,321212;0,277464;0,247226;0,246881;0,245642;0,321898;0,322031;0,324587;0,177906;0,178088;0,257045;0,247861;0,237483;0,328922;0,328922;0,209593;0,209652;0,209711;0,209771;0,329185;0,199854;0,219871;0,209994;0,210053;0,249177;0,249234;0,249227;0,332318;0,417077;0,332759;0,332759;0,251766;0,251811;0,251857;0,207737;0,207819;0,324354;0,242286;0,247715;0,247794;0,209965;0,210036;0,210107;0,253826;0,253867;0,253907;0,243475;0,249353;0,210123;0,210194;0,244041;0,330971;0,331053;0,251022;
41;;;;;;;;;;;;;;;;;;;;;;;;;;;;;;;;;;;;;;;;;1,000000;0,601140;0,809811;0,233384;0,233505;0,233628;0,000000;0,000000;0,000000;0,196972;0,197125;0,197208;0,197565;0,199930;0,197643;0,231249;0,231455;0,318212;0,318212;0,376386;0,597887;0,319913;0,319913;0,155641;0,147772;0,000000;0,000000;0,322237;0,322237;0,186326;0,177721;0,243761;0,243831;0,243903;0,201464;0,201585;0,321354;0,277607;0,247369;0,247023;0,245784;0,322233;0,322367;0,324923;0,178049;0,178231;0,257188;0,248004;0,237626;0,329065;0,329065;0,209736;0,209795;0,209854;0,209913;0,329328;0,199996;0,220014;0,210137;0,210196;0,249319;0,249376;0,249369;0,332461;0,417220;0,332902;0,332902;0,251909;0,251954;0,252000;0,207880;0,207962;0,324497;0,242429;0,247857;0,247936;0,210108;0,210179;0,210249;0,253969;0,254010;0,254050;0,243617;0,249496;0,210266;0,210337;0,244183;0,331306;0,331389;0,251165;
42;;;;;;;;;;;;;;;;;;;;;;;;;;;;;;;;;;;;;;;;;;1,000000;0,601586;0,168047;0,168168;0,168291;0,000000;0,000000;0,000000;0,131635;0,131788;0,131871;0,245144;0,134593;0,132306;0,165911;0,166118;0,252875;0,252875;0,311049;0,532550;0,254576;0,254576;0,090304;0,082435;0,000000;0,000000;0,256900;0,256900;0,284627;0,264593;0,178423;0,178494;0,178565;0,136127;0,136248;0,256017;0,212269;0,182032;0,181686;0,180447;0,658874;0,659004;0,752946;0,264332;0,264684;0,191851;0,182666;0,172289;0,263728;0,263728;0,144399;0,144458;0,144517;0,144576;0,263990;0,134659;0,279974;0,144799;0,144859;0,183982;0,184039;0,184032;0,267123;0,351883;0,267565;0,267565;0,186572;0,186617;0,186662;0,142543;0,142625;0,259160;0,404967;0,182520;0,182599;0,144771;0,144842;0,144912;0,188632;0,188672;0,188713;0,178280;0,184159;0,144929;0,144999;0,178846;0,644201;0,644291;0,185828;
43;;;;;;;;;;;;;;;;;;;;;;;;;;;;;;;;;;;;;;;;;;;1,000000;0,233671;0,233792;0,233915;0,000000;0,000000;0,000000;0,197259;0,197412;0,197495;0,197852;0,200217;0,197930;0,231535;0,231742;0,318499;0,318499;0,376673;0,598174;0,320200;0,320200;0,155928;0,148059;0,000000;0,000000;0,322524;0,322524;0,186613;0,178008;0,244047;0,244118;0,244189;0,201751;0,201872;0,321641;0,277893;0,247656;0,247310;0,246071;0,322889;0,323022;0,325578;0,178336;0,178518;0,257475;0,248290;0,237913;0,329352;0,329352;0,210023;0,210082;0,210141;0,210200;0,329614;0,200283;0,220301;0,210423;0,210483;0,249606;0,249663;0,249656;0,332748;0,417507;0,333189;0,333189;0,252196;0,252241;0,252287;0,208167;0,208249;0,324784;0,242716;0,248144;0,248223;0,210395;0,210466;0,210536;0,254256;0,254296;0,254337;0,243904;0,249783;0,210553;0,210623;0,244470;0,331962;0,332044;0,251452;
44;;;;;;;;;;;;;;;;;;;;;;;;;;;;;;;;;;;;;;;;;;;;1,000000;0,764578;0,765025;0,000000;0,000000;0,000000;0,234582;0,234734;0,234818;0,235174;0,237540;0,235252;0,268858;0,269064;0,355821;0,355821;0,413995;0,635497;0,357522;0,357522;0,193250;0,185382;0,000000;0,000000;0,359846;0,359846;0,223936;0,215331;0,281370;0,281441;0,281512;0,239074;0,239195;0,358964;0,315216;0,284978;0,284633;0,283394;0,000000;0,000000;0,000000;0,215658;0,215841;0,294798;0,285613;0,275235;0,366675;0,366675;0,247345;0,247404;0,247464;0,247523;0,366937;0,237606;0,257623;0,247746;0,247806;0,286929;0,286986;0,286979;0,370070;0,454830;0,370511;0,370511;0,289518;0,289564;0,289609;0,245490;0,245571;0,362107;0,280038;0,285467;0,285546;0,247718;0,247788;0,247859;0,291579;0,291619;0,291659;0,281227;0,287105;0,247876;0,247946;0,281793;0,000000;0,000000;0,288775;
45;;;;;;;;;;;;;;;;;;;;;;;;;;;;;;;;;;;;;;;;;;;;;1,000000;0,765466;0,000000;0,000000;0,000000;0,234703;0,234855;0,234939;0,235295;0,237661;0,235373;0,268979;0,269185;0,355942;0,355942;0,414116;0,635618;0,357643;0,357643;0,193371;0,185503;0,000000;0,000000;0,359967;0,359967;0,224057;0,215452;0,281491;0,281562;0,281633;0,239195;0,239316;0,359085;0,315337;0,285099;0,284754;0,283515;0,000000;0,000000;0,000000;0,215779;0,215962;0,294918;0,285734;0,275356;0,366795;0,366795;0,247466;0,247525;0,247585;0,247644;0,367058;0,237727;0,257744;0,247867;0,247927;0,287050;0,287107;0,287100;0,370191;0,454950;0,370632;0,370632;0,289639;0,289685;0,289730;0,245610;0,245692;0,362228;0,280159;0,285588;0,285667;0,247839;0,247909;0,247980;0,291700;0,291740;0,291780;0,281348;0,287226;0,247996;0,248067;0,281914;0,000000;0,000000;0,288896;
46;;;;;;;;;;;;;;;;;;;;;;;;;;;;;;;;;;;;;;;;;;;;;;1,000000;0,000000;0,000000;0,000000;0,234826;0,234978;0,235062;0,235418;0,237784;0,235496;0,269102;0,269309;0,356065;0,356065;0,414239;0,635741;0,357767;0,357767;0,193494;0,185626;0,000000;0,000000;0,360090;0,360090;0,224180;0,215575;0,281614;0,281685;0,281756;0,239318;0,239439;0,359208;0,315460;0,285223;0,284877;0,283638;0,000000;0,000000;0,000000;0,215902;0,216085;0,295042;0,285857;0,275479;0,366919;0,366919;0,247589;0,247648;0,247708;0,247767;0,367181;0,237850;0,257868;0,247990;0,248050;0,287173;0,287230;0,287223;0,370314;0,455074;0,370755;0,370755;0,289762;0,289808;0,289853;0,245734;0,245815;0,362351;0,280283;0,285711;0,285790;0,247962;0,248032;0,248103;0,291823;0,291863;0,291904;0,281471;0,287350;0,248120;0,248190;0,282037;0,000000;0,000000;0,289019;
47;;;;;;;;;;;;;;;;;;;;;;;;;;;;;;;;;;;;;;;;;;;;;;;1,000000;0,766624;0,767035;0,000000;0,000000;0,000000;0,000000;0,000000;0,000000;0,000000;0,000000;0,000000;0,000000;0,000000;0,000000;0,000000;0,000000;0,000000;0,000000;0,000000;0,000000;0,000000;0,000000;0,000000;0,000000;0,000000;0,000000;0,000000;0,000000;0,000000;0,000000;0,000000;0,000000;0,000000;0,000000;0,000000;0,000000;0,000000;0,000000;0,000000;0,000000;0,000000;0,000000;0,000000;0,000000;0,000000;0,000000;0,000000;0,000000;0,000000;0,000000;0,000000;0,000000;0,000000;0,000000;0,000000;0,000000;0,000000;0,000000;0,000000;0,000000;0,000000;0,000000;0,000000;0,000000;0,000000;0,000000;0,000000;0,000000;0,000000;0,000000;0,000000;0,000000;0,000000;0,000000;0,000000;0,000000;0,000000;0,000000;0,000000;0,000000;0,000000;0,000000;0,000000;
48;;;;;;;;;;;;;;;;;;;;;;;;;;;;;;;;;;;;;;;;;;;;;;;;1,000000;0,767440;0,000000;0,000000;0,000000;0,000000;0,000000;0,000000;0,000000;0,000000;0,000000;0,000000;0,000000;0,000000;0,000000;0,000000;0,000000;0,000000;0,000000;0,000000;0,000000;0,000000;0,000000;0,000000;0,000000;0,000000;0,000000;0,000000;0,000000;0,000000;0,000000;0,000000;0,000000;0,000000;0,000000;0,000000;0,000000;0,000000;0,000000;0,000000;0,000000;0,000000;0,000000;0,000000;0,000000;0,000000;0,000000;0,000000;0,000000;0,000000;0,000000;0,000000;0,000000;0,000000;0,000000;0,000000;0,000000;0,000000;0,000000;0,000000;0,000000;0,000000;0,000000;0,000000;0,000000;0,000000;0,000000;0,000000;0,000000;0,000000;0,000000;0,000000;0,000000;0,000000;0,000000;0,000000;0,000000;0,000000;0,000000;0,000000;0,000000;0,000000;0,000000;
49;;;;;;;;;;;;;;;;;;;;;;;;;;;;;;;;;;;;;;;;;;;;;;;;;1,000000;0,000000;0,000000;0,000000;0,000000;0,000000;0,000000;0,000000;0,000000;0,000000;0,000000;0,000000;0,000000;0,000000;0,000000;0,000000;0,000000;0,000000;0,000000;0,000000;0,000000;0,000000;0,000000;0,000000;0,000000;0,000000;0,000000;0,000000;0,000000;0,000000;0,000000;0,000000;0,000000;0,000000;0,000000;0,000000;0,000000;0,000000;0,000000;0,000000;0,000000;0,000000;0,000000;0,000000;0,000000;0,000000;0,000000;0,000000;0,000000;0,000000;0,000000;0,000000;0,000000;0,000000;0,000000;0,000000;0,000000;0,000000;0,000000;0,000000;0,000000;0,000000;0,000000;0,000000;0,000000;0,000000;0,000000;0,000000;0,000000;0,000000;0,000000;0,000000;0,000000;0,000000;0,000000;0,000000;0,000000;0,000000;0,000000;0,000000;0,000000;0,000000;
50;;;;;;;;;;;;;;;;;;;;;;;;;;;;;;;;;;;;;;;;;;;;;;;;;;1,000000;0,792254;0,721608;0,409660;0,491474;0,409355;0,232446;0,232653;0,319409;0,319409;0,377584;0,599085;0,321111;0,321111;0,571284;0,665582;0,451506;0,451600;0,323435;0,323435;0,455952;0,358925;0,244958;0,245029;0,245100;0,202662;0,202783;0,322552;0,278804;0,248567;0,248221;0,246982;0,000000;0,000000;0,000000;0,358315;0,358653;0,258386;0,249201;0,238823;0,330263;0,330263;0,210933;0,210993;0,211052;0,211111;0,330525;0,201194;0,529828;0,211334;0,211394;0,250517;0,250574;0,250567;0,333658;0,418418;0,334099;0,334099;0,253107;0,253152;0,253197;0,433828;0,433904;0,325695;0,500731;0,249055;0,249134;0,428474;0,428522;0,428571;0,255167;0,255207;0,255248;0,244815;0,250694;0,211464;0,211534;0,245381;0,000000;0,000000;0,252363;
51;;;;;;;;;;;;;;;;;;;;;;;;;;;;;;;;;;;;;;;;;;;;;;;;;;;1,000000;0,722081;0,409829;0,491595;0,409524;0,232599;0,232805;0,319562;0,319562;0,377736;0,599238;0,321263;0,321263;0,571476;0,665807;0,451794;0,451889;0,323587;0,323587;0,456074;0,359094;0,245111;0,245182;0,245253;0,202815;0,202936;0,322705;0,278957;0,248719;0,248374;0,247135;0,000000;0,000000;0,000000;0,358484;0,358822;0,258539;0,249354;0,238976;0,330416;0,330416;0,211086;0,211145;0,211205;0,211264;0,330678;0,201347;0,529950;0,211487;0,211547;0,250670;0,250727;0,250720;0,333811;0,418571;0,334252;0,334252;0,253259;0,253305;0,253350;0,434008;0,434084;0,325848;0,500900;0,249208;0,249287;0,428643;0,428691;0,428740;0,255320;0,255360;0,255400;0,244968;0,250846;0,211617;0,211687;0,245534;0,000000;0,000000;0,252516;
52;;;;;;;;;;;;;;;;;;;;;;;;;;;;;;;;;;;;;;;;;;;;;;;;;;;;1,000000;0,198999;0,422839;0,199077;0,232682;0,232889;0,319646;0,319646;0,377820;0,599321;0,321347;0,321347;0,470643;0,786849;0,279079;0,279186;0,323671;0,323671;0,398534;0,179155;0,245194;0,245265;0,245336;0,202898;0,203019;0,322788;0,279040;0,248803;0,248457;0,247218;0,000000;0,000000;0,000000;0,179483;0,179665;0,258622;0,249437;0,239060;0,330499;0,330499;0,211170;0,211229;0,211288;0,211347;0,330761;0,201430;0,453782;0,211570;0,211630;0,250753;0,250810;0,250803;0,333894;0,418654;0,334336;0,334336;0,253343;0,253388;0,253434;0,506406;0,506482;0,325931;0,243863;0,249291;0,249370;0,211542;0,211613;0,211683;0,255403;0,255443;0,255484;0,245051;0,250930;0,211700;0,211770;0,245617;0,000000;0,000000;0,252599;
53;;;;;;;;;;;;;;;;;;;;;;;;;;;;;;;;;;;;;;;;;;;;;;;;;;;;;1,000000;0,609764;0,711575;0,233039;0,233245;0,320002;0,320002;0,378176;0,599678;0,321703;0,321703;0,361533;0,359737;0,000000;0,000000;0,324027;0,324027;0,576766;0,605017;0,245551;0,245622;0,245693;0,203255;0,203375;0,323145;0,279397;0,249159;0,248814;0,247575;0,000000;0,000000;0,131911;0,602493;0,602905;0,258978;0,249794;0,239416;0,330855;0,330855;0,211526;0,211585;0,211644;0,211704;0,331118;0,201787;0,591793;0,211927;0,211986;0,251110;0,251167;0,251160;0,334251;0,419010;0,334692;0,334692;0,253699;0,253744;0,253790;0,478342;0,478444;0,326287;0,809308;0,249648;0,249727;0,500086;0,500134;0,500183;0,255759;0,255800;0,255840;0,245408;0,251286;0,212056;0,212127;0,245974;0,205884;0,205954;0,252955;
54;;;;;;;;;;;;;;;;;;;;;;;;;;;;;;;;;;;;;;;;;;;;;;;;;;;;;;1,000000;0,651724;0,235404;0,235611;0,322368;0,322368;0,380542;0,602043;0,324069;0,324069;0,402835;0,440717;0,214266;0,214374;0,326393;0,326393;0,462160;0,363627;0,247916;0,247987;0,248058;0,205620;0,205741;0,325510;0,281762;0,251525;0,251179;0,249940;0,000000;0,000000;0,000000;0,363017;0,363354;0,261344;0,252159;0,241781;0,333221;0,333221;0,213892;0,213951;0,214010;0,214069;0,333483;0,204152;0,702170;0,214292;0,214352;0,253475;0,253532;0,253525;0,336616;0,421376;0,337058;0,337058;0,256065;0,256110;0,256155;0,686601;0,686721;0,328653;0,505432;0,252013;0,252092;0,433175;0,433224;0,433272;0,258125;0,258165;0,258206;0,247773;0,253652;0,214422;0,214492;0,248339;0,000000;0,000000;0,255321;
55;;;;;;;;;;;;;;;;;;;;;;;;;;;;;;;;;;;;;;;;;;;;;;;;;;;;;;;1,000000;0,233117;0,233323;0,320080;0,320080;0,378254;0,599755;0,321781;0,321781;0,157509;0,359433;0,000000;0,000000;0,324105;0,324105;0,389867;0,430232;0,245629;0,245699;0,245771;0,203333;0,203453;0,323223;0,279475;0,249237;0,248892;0,247653;0,000000;0,000000;0,000000;0,429622;0,429960;0,259056;0,249872;0,239494;0,330933;0,330933;0,211604;0,211663;0,211722;0,211782;0,331196;0,201865;0,690377;0,212005;0,212064;0,251188;0,251244;0,251238;0,334329;0,419088;0,334770;0,334770;0,253777;0,253822;0,253868;0,556252;0,556354;0,326365;0,572038;0,249726;0,249805;0,499781;0,499829;0,499878;0,255837;0,255878;0,255918;0,245486;0,251364;0,212134;0,212205;0,246052;0,000000;0,000000;0,253033;
56;;;;;;;;;;;;;;;;;;;;;;;;;;;;;;;;;;;;;;;;;;;;;;;;;;;;;;;;1,000000;0,659475;0,353686;0,353686;0,411860;0,633361;0,355387;0,355387;0,191115;0,183246;0,000000;0,000000;0,357711;0,357711;0,221800;0,213195;0,279235;0,279305;0,279377;0,236939;0,237059;0,356828;0,313081;0,282843;0,282497;0,281259;0,000000;0,000000;0,000000;0,213523;0,213705;0,292662;0,283478;0,273100;0,364539;0,364539;0,245210;0,245269;0,245328;0,245388;0,364802;0,235471;0,255488;0,245611;0,245670;0,284793;0,284850;0,284844;0,367935;0,452694;0,368376;0,368376;0,287383;0,287428;0,287474;0,243354;0,243436;0,359971;0,277903;0,283331;0,283411;0,245582;0,245653;0,245723;0,289443;0,289484;0,289524;0,279092;0,284970;0,245740;0,245811;0,279658;0,000000;0,000000;0,286639;
57;;;;;;;;;;;;;;;;;;;;;;;;;;;;;;;;;;;;;;;;;;;;;;;;;;;;;;;;;1,000000;0,353892;0,353892;0,412066;0,633568;0,355594;0,355594;0,191321;0,183453;0,000000;0,000000;0,357917;0,357917;0,222007;0,213402;0,279441;0,279512;0,279583;0,237145;0,237266;0,357035;0,313287;0,283050;0,282704;0,281465;0,000000;0,000000;0,000000;0,213729;0,213912;0,292869;0,283684;0,273306;0,364746;0,364746;0,245416;0,245476;0,245535;0,245594;0,365008;0,235677;0,255695;0,245817;0,245877;0,285000;0,285057;0,285050;0,368141;0,452901;0,368582;0,368582;0,287589;0,287635;0,287680;0,243561;0,243642;0,360178;0,278110;0,283538;0,283617;0,245789;0,245859;0,245930;0,289650;0,289690;0,289731;0,279298;0,285177;0,245947;0,246017;0,279864;0,000000;0,000000;0,286846;
58;;;;;;;;;;;;;;;;;;;;;;;;;;;;;;;;;;;;;;;;;;;;;;;;;;;;;;;;;;1,000000;0,440649;0,498823;0,720325;0,442350;0,442350;0,278078;0,270210;0,000000;0,000000;0,444674;0,444674;0,308764;0,300158;0,366198;0,366269;0,366340;0,323902;0,324022;0,443792;0,400044;0,369806;0,369461;0,368222;0,000000;0,000000;0,000000;0,300486;0,300669;0,379625;0,370441;0,360063;0,451502;0,451502;0,332173;0,332232;0,332291;0,332351;0,451765;0,322434;0,342451;0,332574;0,332633;0,371757;0,371814;0,371807;0,454898;0,539657;0,455339;0,455339;0,374346;0,374391;0,374437;0,330317;0,330399;0,446934;0,364866;0,370295;0,370374;0,332545;0,332616;0,332687;0,376407;0,376447;0,376487;0,366055;0,371933;0,332703;0,332774;0,366621;0,000000;0,000000;0,373603;
59;;;;;;;;;;;;;;;;;;;;;;;;;;;;;;;;;;;;;;;;;;;;;;;;;;;;;;;;;;;1,000000;0,498823;0,720325;0,442350;0,442350;0,278078;0,270210;0,000000;0,000000;0,444674;0,444674;0,308764;0,300158;0,366198;0,366269;0,366340;0,323902;0,324022;0,443792;0,400044;0,369806;0,369461;0,368222;0,000000;0,000000;0,000000;0,300486;0,300669;0,379625;0,370441;0,360063;0,451502;0,451502;0,332173;0,332232;0,332291;0,332351;0,451765;0,322434;0,342451;0,332574;0,332633;0,371757;0,371814;0,371807;0,454898;0,539657;0,455339;0,455339;0,374346;0,374391;0,374437;0,330317;0,330399;0,446934;0,364866;0,370295;0,370374;0,332545;0,332616;0,332687;0,376407;0,376447;0,376487;0,366055;0,371933;0,332703;0,332774;0,366621;0,000000;0,000000;0,373603;
60;;;;;;;;;;;;;;;;;;;;;;;;;;;;;;;;;;;;;;;;;;;;;;;;;;;;;;;;;;;;1,000000;0,778499;0,500524;0,500524;0,336252;0,328384;0,000000;0,000000;0,502848;0,502848;0,366938;0,358333;0,424372;0,424443;0,424514;0,382076;0,382197;0,806438;0,763800;0,427980;0,427635;0,426396;0,000000;0,000000;0,000000;0,358660;0,358843;0,437799;0,428615;0,418237;0,509676;0,509676;0,390347;0,390406;0,390466;0,390525;0,509939;0,380608;0,400625;0,390748;0,390808;0,429931;0,429988;0,429981;0,513072;0,597831;0,513513;0,513513;0,432520;0,432566;0,432611;0,388491;0,388573;0,505109;0,423040;0,428469;0,428548;0,390720;0,390790;0,390861;0,434581;0,434621;0,434661;0,424229;0,793433;0,390877;0,390948;0,424795;0,000000;0,000000;0,431777;
61;;;;;;;;;;;;;;;;;;;;;;;;;;;;;;;;;;;;;;;;;;;;;;;;;;;;;;;;;;;;;1,000000;0,722026;0,722026;0,557754;0,549885;0,000000;0,000000;0,724350;0,724350;0,588439;0,579834;0,645873;0,645944;0,646015;0,603577;0,603698;0,723467;0,679719;0,649482;0,649136;0,647897;0,000000;0,000000;0,000000;0,580162;0,580344;0,659301;0,650116;0,639738;0,731178;0,731178;0,611849;0,611908;0,611967;0,612026;0,731440;0,602109;0,622127;0,612249;0,612309;0,651432;0,651489;0,651482;0,734573;0,819333;0,735015;0,735015;0,654022;0,654067;0,654112;0,609993;0,610074;0,726610;0,644542;0,649970;0,650049;0,612221;0,612292;0,612362;0,656082;0,656122;0,656163;0,645730;0,651609;0,612379;0,612449;0,646296;0,000000;0,000000;0,653278;
62;;;;;;;;;;;;;;;;;;;;;;;;;;;;;;;;;;;;;;;;;;;;;;;;;;;;;;;;;;;;;;1,000000;0,444052;0,279779;0,271911;0,000000;0,000000;0,446375;0,446375;0,310465;0,301860;0,367899;0,367970;0,368041;0,325603;0,325724;0,445493;0,401745;0,371508;0,371162;0,369923;0,000000;0,000000;0,000000;0,302187;0,302370;0,381327;0,372142;0,361764;0,453204;0,453204;0,333874;0,333933;0,333993;0,334052;0,453466;0,324135;0,344153;0,334275;0,334335;0,373458;0,373515;0,373508;0,456599;0,541359;0,457040;0,457040;0,376047;0,376093;0,376138;0,332019;0,332100;0,448636;0,366568;0,371996;0,372075;0,334247;0,334317;0,334388;0,378108;0,378148;0,378189;0,367756;0,373635;0,334405;0,334475;0,368322;0,000000;0,000000;0,375304;
63;;;;;;;;;;;;;;;;;;;;;;;;;;;;;;;;;;;;;;;;;;;;;;;;;;;;;;;;;;;;;;;1,000000;0,279779;0,271911;0,000000;0,000000;0,446375;0,446375;0,310465;0,301860;0,367899;0,367970;0,368041;0,325603;0,325724;0,445493;0,401745;0,371508;0,371162;0,369923;0,000000;0,000000;0,000000;0,302187;0,302370;0,381327;0,372142;0,361764;0,453204;0,453204;0,333874;0,333933;0,333993;0,334052;0,453466;0,324135;0,344153;0,334275;0,334335;0,373458;0,373515;0,373508;0,456599;0,541359;0,457040;0,457040;0,376047;0,376093;0,376138;0,332019;0,332100;0,448636;0,366568;0,371996;0,372075;0,334247;0,334317;0,334388;0,378108;0,378148;0,378189;0,367756;0,373635;0,334405;0,334475;0,368322;0,000000;0,000000;0,375304;
64;;;;;;;;;;;;;;;;;;;;;;;;;;;;;;;;;;;;;;;;;;;;;;;;;;;;;;;;;;;;;;;;1,000000;0,709300;0,759352;0,759512;0,282103;0,282103;0,378530;0,137588;0,203627;0,203698;0,203769;0,161331;0,161452;0,281221;0,237473;0,207235;0,206890;0,205651;0,000000;0,000000;0,000000;0,137915;0,138098;0,217055;0,207870;0,197492;0,288932;0,288932;0,169602;0,169661;0,169721;0,169780;0,289194;0,159863;0,433777;0,170003;0,170063;0,209186;0,209243;0,209236;0,292327;0,377087;0,292768;0,292768;0,211775;0,211821;0,211866;0,486401;0,486477;0,284364;0,202295;0,207724;0,207803;0,169975;0,170045;0,170116;0,213836;0,213876;0,213916;0,203484;0,209362;0,170133;0,170203;0,204050;0,000000;0,000000;0,211032;
65;;;;;;;;;;;;;;;;;;;;;;;;;;;;;;;;;;;;;;;;;;;;;;;;;;;;;;;;;;;;;;;;;1,000000;0,673963;0,674102;0,274235;0,274235;0,405196;0,309003;0,195758;0,195829;0,195900;0,153462;0,153583;0,273352;0,229604;0,199367;0,199021;0,197782;0,000000;0,000000;0,000000;0,308393;0,308730;0,209186;0,200001;0,189624;0,281063;0,281063;0,161734;0,161793;0,161852;0,161911;0,281325;0,151994;0,649247;0,162134;0,162194;0,201317;0,201374;0,201367;0,284459;0,369218;0,284900;0,284900;0,203907;0,203952;0,203998;0,384746;0,384822;0,276495;0,450808;0,199855;0,199934;0,378551;0,378600;0,378648;0,205967;0,206007;0,206048;0,195615;0,201494;0,162264;0,162334;0,196181;0,000000;0,000000;0,203163;
66;;;;;;;;;;;;;;;;;;;;;;;;;;;;;;;;;;;;;;;;;;;;;;;;;;;;;;;;;;;;;;;;;;1,000000;0,828851;0,000000;0,000000;0,206389;0,000000;0,000000;0,000000;0,000000;0,000000;0,000000;0,000000;0,000000;0,000000;0,000000;0,000000;0,000000;0,000000;0,000000;0,000000;0,000000;0,000000;0,000000;0,000000;0,000000;0,000000;0,000000;0,000000;0,000000;0,000000;0,000000;0,000000;0,490236;0,000000;0,000000;0,000000;0,000000;0,000000;0,000000;0,000000;0,000000;0,000000;0,000000;0,000000;0,000000;0,293471;0,293582;0,000000;0,000000;0,000000;0,000000;0,000000;0,000000;0,000000;0,000000;0,000000;0,000000;0,000000;0,000000;0,000000;0,000000;0,000000;0,000000;0,000000;0,000000;
67;;;;;;;;;;;;;;;;;;;;;;;;;;;;;;;;;;;;;;;;;;;;;;;;;;;;;;;;;;;;;;;;;;;1,000000;0,000000;0,000000;0,206497;0,000000;0,000000;0,000000;0,000000;0,000000;0,000000;0,000000;0,000000;0,000000;0,000000;0,000000;0,000000;0,000000;0,000000;0,000000;0,000000;0,000000;0,000000;0,000000;0,000000;0,000000;0,000000;0,000000;0,000000;0,000000;0,000000;0,000000;0,490330;0,000000;0,000000;0,000000;0,000000;0,000000;0,000000;0,000000;0,000000;0,000000;0,000000;0,000000;0,000000;0,293579;0,293689;0,000000;0,000000;0,000000;0,000000;0,000000;0,000000;0,000000;0,000000;0,000000;0,000000;0,000000;0,000000;0,000000;0,000000;0,000000;0,000000;0,000000;0,000000;
68;;;;;;;;;;;;;;;;;;;;;;;;;;;;;;;;;;;;;;;;;;;;;;;;;;;;;;;;;;;;;;;;;;;;1,000000;0,448699;0,312789;0,304184;0,370223;0,370294;0,370365;0,327927;0,328048;0,447817;0,404069;0,373831;0,373486;0,372247;0,000000;0,000000;0,000000;0,304511;0,304694;0,383650;0,374466;0,364088;0,455527;0,455527;0,336198;0,336257;0,336317;0,336376;0,455790;0,326459;0,346476;0,336599;0,336658;0,375782;0,375839;0,375832;0,458923;0,543682;0,459364;0,459364;0,378371;0,378416;0,378462;0,334342;0,334424;0,450960;0,368891;0,374320;0,374399;0,336571;0,336641;0,336712;0,380432;0,380472;0,380512;0,370080;0,375958;0,336728;0,336799;0,370646;0,000000;0,000000;0,377628;
69;;;;;;;;;;;;;;;;;;;;;;;;;;;;;;;;;;;;;;;;;;;;;;;;;;;;;;;;;;;;;;;;;;;;;1,000000;0,312789;0,304184;0,370223;0,370294;0,370365;0,327927;0,328048;0,447817;0,404069;0,373831;0,373486;0,372247;0,000000;0,000000;0,000000;0,304511;0,304694;0,383650;0,374466;0,364088;0,455527;0,455527;0,336198;0,336257;0,336317;0,336376;0,455790;0,326459;0,346476;0,336599;0,336658;0,375782;0,375839;0,375832;0,458923;0,543682;0,459364;0,459364;0,378371;0,378416;0,378462;0,334342;0,334424;0,450960;0,368891;0,374320;0,374399;0,336571;0,336641;0,336712;0,380432;0,380472;0,380512;0,370080;0,375958;0,336728;0,336799;0,370646;0,000000;0,000000;0,377628;
70;;;;;;;;;;;;;;;;;;;;;;;;;;;;;;;;;;;;;;;;;;;;;;;;;;;;;;;;;;;;;;;;;;;;;;1,000000;0,797914;0,234312;0,234383;0,234454;0,192016;0,192137;0,311906;0,268158;0,237921;0,237575;0,236336;0,000000;0,000000;0,181725;0,791619;0,791978;0,247740;0,238555;0,228177;0,319617;0,319617;0,200288;0,200347;0,200406;0,200465;0,319879;0,190548;0,690782;0,200688;0,200748;0,239871;0,239928;0,239921;0,323012;0,407772;0,323454;0,323454;0,242461;0,242506;0,242551;0,414293;0,414369;0,315049;0,767458;0,238409;0,238488;0,408986;0,409034;0,409083;0,244521;0,244561;0,244602;0,234169;0,240048;0,200818;0,200888;0,234735;0,255697;0,255768;0,241717;
71;;;;;;;;;;;;;;;;;;;;;;;;;;;;;;;;;;;;;;;;;;;;;;;;;;;;;;;;;;;;;;;;;;;;;;;1,000000;0,225707;0,225778;0,225849;0,183411;0,183532;0,303301;0,259553;0,229316;0,228970;0,227731;0,000000;0,000000;0,171650;0,806995;0,807354;0,239135;0,229950;0,219572;0,311012;0,311012;0,191683;0,191742;0,191801;0,191860;0,311274;0,181943;0,578193;0,192083;0,192143;0,231266;0,231323;0,231316;0,314407;0,399167;0,314849;0,314849;0,233856;0,233901;0,233946;0,189827;0,189908;0,306444;0,795708;0,229804;0,229883;0,449351;0,449399;0,449448;0,235916;0,235956;0,235997;0,225564;0,231443;0,192213;0,192283;0,226130;0,245622;0,245693;0,233112;
72;;;;;;;;;;;;;;;;;;;;;;;;;;;;;;;;;;;;;;;;;;;;;;;;;;;;;;;;;;;;;;;;;;;;;;;;1,000000;0,782649;0,782883;0,249450;0,249571;0,369340;0,325593;0,295355;0,295009;0,293771;0,000000;0,000000;0,000000;0,226035;0,226217;0,305174;0,295990;0,285612;0,377051;0,377051;0,257722;0,257781;0,257840;0,257900;0,377314;0,247982;0,268000;0,258123;0,258182;0,297305;0,297362;0,297355;0,380447;0,465206;0,380888;0,380888;0,299895;0,299940;0,299986;0,255866;0,255948;0,372483;0,290415;0,295843;0,295923;0,258094;0,258165;0,258235;0,301955;0,301996;0,302036;0,291604;0,297482;0,258252;0,258323;0,292170;0,000000;0,000000;0,299151;
73;;;;;;;;;;;;;;;;;;;;;;;;;;;;;;;;;;;;;;;;;;;;;;;;;;;;;;;;;;;;;;;;;;;;;;;;;1,000000;0,783116;0,249521;0,249642;0,369411;0,325663;0,295426;0,295080;0,293841;0,000000;0,000000;0,000000;0,226106;0,226288;0,305245;0,296060;0,285682;0,377122;0,377122;0,257793;0,257852;0,257911;0,257970;0,377384;0,248053;0,268071;0,258193;0,258253;0,297376;0,297433;0,297426;0,380517;0,465277;0,380959;0,380959;0,299966;0,300011;0,300056;0,255937;0,256018;0,372554;0,290486;0,295914;0,295993;0,258165;0,258236;0,258306;0,302026;0,302066;0,302107;0,291674;0,297553;0,258323;0,258393;0,292240;0,000000;0,000000;0,299222;
74;;;;;;;;;;;;;;;;;;;;;;;;;;;;;;;;;;;;;;;;;;;;;;;;;;;;;;;;;;;;;;;;;;;;;;;;;;1,000000;0,249593;0,249713;0,369482;0,325735;0,295497;0,295151;0,293913;0,000000;0,000000;0,000000;0,226177;0,226359;0,305316;0,296132;0,285754;0,377193;0,377193;0,257864;0,257923;0,257982;0,258042;0,377456;0,248125;0,268142;0,258265;0,258324;0,297447;0,297504;0,297498;0,380589;0,465348;0,381030;0,381030;0,300037;0,300082;0,300128;0,256008;0,256090;0,372625;0,290557;0,295985;0,296065;0,258236;0,258307;0,258377;0,302097;0,302138;0,302178;0,291746;0,297624;0,258394;0,258465;0,292312;0,000000;0,000000;0,299293;
75;;;;;;;;;;;;;;;;;;;;;;;;;;;;;;;;;;;;;;;;;;;;;;;;;;;;;;;;;;;;;;;;;;;;;;;;;;;1,000000;0,795244;0,327044;0,283296;0,253059;0,252713;0,251474;0,000000;0,000000;0,000000;0,183739;0,183921;0,262878;0,253694;0,243316;0,334755;0,334755;0,215426;0,215485;0,215544;0,215603;0,335017;0,205686;0,225704;0,215826;0,215886;0,255009;0,255066;0,255059;0,338151;0,422910;0,338592;0,338592;0,257599;0,257644;0,257690;0,213570;0,213652;0,330187;0,248119;0,619570;0,619570;0,215798;0,215869;0,215939;0,259659;0,259699;0,259740;0,249307;0,255186;0,215956;0,216027;0,249873;0,000000;0,000000;0,256855;
76;;;;;;;;;;;;;;;;;;;;;;;;;;;;;;;;;;;;;;;;;;;;;;;;;;;;;;;;;;;;;;;;;;;;;;;;;;;;1,000000;0,327165;0,283417;0,253180;0,252834;0,251595;0,000000;0,000000;0,000000;0,183860;0,184042;0,262999;0,253814;0,243436;0,334876;0,334876;0,215546;0,215606;0,215665;0,215724;0,335138;0,205807;0,225825;0,215947;0,216007;0,255130;0,255187;0,255180;0,338271;0,423031;0,338712;0,338712;0,257720;0,257765;0,257810;0,213691;0,213772;0,330308;0,248240;0,619708;0,619708;0,215919;0,215990;0,216060;0,259780;0,259820;0,259861;0,249428;0,255307;0,216077;0,216147;0,249994;0,000000;0,000000;0,256976;
77;;;;;;;;;;;;;;;;;;;;;;;;;;;;;;;;;;;;;;;;;;;;;;;;;;;;;;;;;;;;;;;;;;;;;;;;;;;;;1,000000;0,403186;0,372949;0,372603;0,371364;0,000000;0,000000;0,000000;0,303629;0,303811;0,382768;0,373583;0,363206;0,454645;0,454645;0,335316;0,335375;0,335434;0,335493;0,454907;0,325576;0,345594;0,335716;0,335776;0,374899;0,374956;0,374949;0,458040;0,542800;0,458482;0,458482;0,377489;0,377534;0,377579;0,333460;0,333542;0,886712;0,368009;0,373437;0,373516;0,335688;0,335759;0,335829;0,379549;0,379589;0,379630;0,369197;0,770727;0,335846;0,335916;0,369763;0,000000;0,000000;0,376745;
78;;;;;;;;;;;;;;;;;;;;;;;;;;;;;;;;;;;;;;;;;;;;;;;;;;;;;;;;;;;;;;;;;;;;;;;;;;;;;;1,000000;0,329201;0,328855;0,327617;0,000000;0,000000;0,000000;0,259881;0,260063;0,339020;0,329836;0,319458;0,410897;0,410897;0,291568;0,291627;0,291686;0,291746;0,411160;0,281828;0,301846;0,291969;0,292028;0,331151;0,331208;0,331201;0,414293;0,499052;0,414734;0,414734;0,333741;0,333786;0,333832;0,289712;0,289794;0,406329;0,324261;0,329689;0,329769;0,291940;0,292011;0,292081;0,335801;0,335842;0,335882;0,325450;0,712632;0,292098;0,292169;0,326016;0,000000;0,000000;0,332997;
79;;;;;;;;;;;;;;;;;;;;;;;;;;;;;;;;;;;;;;;;;;;;;;;;;;;;;;;;;;;;;;;;;;;;;;;;;;;;;;;1,000000;0,729939;0,685439;0,000000;0,000000;0,000000;0,229643;0,229826;0,308783;0,299598;0,289220;0,380660;0,380660;0,261330;0,261389;0,261449;0,261508;0,380922;0,251591;0,271609;0,261731;0,261791;0,655146;0,655261;0,300964;0,384055;0,468815;0,384496;0,384496;0,303503;0,303549;0,303594;0,259475;0,259556;0,376092;0,294024;0,299452;0,299531;0,261703;0,261773;0,261844;0,305564;0,305604;0,305645;0,295212;0,301091;0,261861;0,261931;0,295778;0,000000;0,000000;0,690284;
80;;;;;;;;;;;;;;;;;;;;;;;;;;;;;;;;;;;;;;;;;;;;;;;;;;;;;;;;;;;;;;;;;;;;;;;;;;;;;;;;1,000000;0,724627;0,000000;0,000000;0,000000;0,229298;0,229480;0,308437;0,299252;0,288875;0,380314;0,380314;0,260985;0,261044;0,261103;0,261162;0,380576;0,251245;0,271263;0,261385;0,261445;0,729058;0,729058;0,300618;0,383710;0,468469;0,384151;0,384151;0,303158;0,303203;0,303249;0,259129;0,259211;0,375746;0,293678;0,299106;0,299185;0,261357;0,261428;0,261498;0,305218;0,305258;0,305299;0,294866;0,300745;0,261515;0,261585;0,295432;0,000000;0,000000;0,729683;
81;;;;;;;;;;;;;;;;;;;;;;;;;;;;;;;;;;;;;;;;;;;;;;;;;;;;;;;;;;;;;;;;;;;;;;;;;;;;;;;;;1,000000;0,000000;0,000000;0,000000;0,228059;0,228241;0,307198;0,298014;0,287636;0,379075;0,379075;0,259746;0,259805;0,259864;0,259923;0,379338;0,250006;0,270024;0,260147;0,260206;0,726548;0,726548;0,299379;0,382471;0,467230;0,382912;0,382912;0,301919;0,301964;0,302010;0,257890;0,257972;0,374507;0,292439;0,297867;0,297946;0,260118;0,260189;0,260259;0,303979;0,304019;0,304060;0,293627;0,299506;0,260276;0,260347;0,294193;0,000000;0,000000;1,000000;
82;;;;;;;;;;;;;;;;;;;;;;;;;;;;;;;;;;;;;;;;;;;;;;;;;;;;;;;;;;;;;;;;;;;;;;;;;;;;;;;;;;1,000000;0,839092;0,752621;0,000000;0,000000;0,000000;0,000000;0,000000;0,000000;0,000000;0,000000;0,000000;0,000000;0,000000;0,000000;0,000000;0,000000;0,000000;0,000000;0,000000;0,000000;0,000000;0,000000;0,000000;0,000000;0,000000;0,000000;0,000000;0,000000;0,000000;0,000000;0,000000;0,000000;0,000000;0,000000;0,000000;0,000000;0,000000;0,000000;0,000000;0,000000;0,000000;0,000000;0,000000;0,000000;0,000000;0,630580;0,630653;0,000000;
83;;;;;;;;;;;;;;;;;;;;;;;;;;;;;;;;;;;;;;;;;;;;;;;;;;;;;;;;;;;;;;;;;;;;;;;;;;;;;;;;;;;1,000000;0,752728;0,000000;0,000000;0,000000;0,000000;0,000000;0,000000;0,000000;0,000000;0,000000;0,000000;0,000000;0,000000;0,000000;0,000000;0,000000;0,000000;0,000000;0,000000;0,000000;0,000000;0,000000;0,000000;0,000000;0,000000;0,000000;0,000000;0,000000;0,000000;0,000000;0,000000;0,000000;0,000000;0,000000;0,000000;0,000000;0,000000;0,000000;0,000000;0,000000;0,000000;0,000000;0,000000;0,000000;0,630721;0,630794;0,000000;
84;;;;;;;;;;;;;;;;;;;;;;;;;;;;;;;;;;;;;;;;;;;;;;;;;;;;;;;;;;;;;;;;;;;;;;;;;;;;;;;;;;;;1,000000;0,172356;0,172592;0,000000;0,000000;0,000000;0,000000;0,000000;0,000000;0,000000;0,000000;0,000000;0,000000;0,000000;0,146594;0,000000;0,000000;0,000000;0,000000;0,000000;0,000000;0,000000;0,000000;0,000000;0,000000;0,000000;0,000000;0,000000;0,000000;0,000000;0,246178;0,000000;0,000000;0,000000;0,000000;0,000000;0,000000;0,000000;0,000000;0,000000;0,000000;0,000000;0,000000;0,000000;0,736254;0,736336;0,000000;
85;;;;;;;;;;;;;;;;;;;;;;;;;;;;;;;;;;;;;;;;;;;;;;;;;;;;;;;;;;;;;;;;;;;;;;;;;;;;;;;;;;;;;1,000000;0,801058;0,239463;0,230278;0,219900;0,311340;0,311340;0,192010;0,192069;0,192129;0,192188;0,311602;0,182271;0,575669;0,192411;0,192471;0,231594;0,231651;0,231644;0,314735;0,399495;0,315176;0,315176;0,234183;0,234229;0,234274;0,190155;0,190236;0,306772;0,793185;0,230132;0,230211;0,448741;0,448789;0,448838;0,236244;0,236284;0,236324;0,225892;0,231770;0,192541;0,192611;0,226458;0,246329;0,246399;0,233440;
86;;;;;;;;;;;;;;;;;;;;;;;;;;;;;;;;;;;;;;;;;;;;;;;;;;;;;;;;;;;;;;;;;;;;;;;;;;;;;;;;;;;;;;1,000000;0,239645;0,230460;0,394635;0,311522;0,311522;0,192193;0,192252;0,192311;0,192370;0,311784;0,182453;0,576081;0,192593;0,192653;0,231776;0,231833;0,231826;0,314917;0,399677;0,315359;0,315359;0,234366;0,234411;0,234456;0,190337;0,190418;0,306954;0,793597;0,230314;0,230393;0,449079;0,449127;0,449176;0,236426;0,236466;0,236507;0,226074;0,231953;0,488890;0,488944;0,226640;0,246564;0,246635;0,233622;
87;;;;;;;;;;;;;;;;;;;;;;;;;;;;;;;;;;;;;;;;;;;;;;;;;;;;;;;;;;;;;;;;;;;;;;;;;;;;;;;;;;;;;;;1,000000;0,718516;0,631202;0,390479;0,390479;0,271149;0,271209;0,271268;0,271327;0,390741;0,261410;0,281428;0,788608;0,788700;0,310733;0,310790;0,924962;0,393874;0,478634;0,394315;0,394315;0,313322;0,313368;0,313413;0,269294;0,269375;0,385911;0,303843;0,309271;0,309350;0,271522;0,271592;0,271663;0,315383;0,315423;0,315464;0,305031;0,310910;0,543998;0,544095;0,305597;0,000000;0,000000;0,312579;
88;;;;;;;;;;;;;;;;;;;;;;;;;;;;;;;;;;;;;;;;;;;;;;;;;;;;;;;;;;;;;;;;;;;;;;;;;;;;;;;;;;;;;;;;1,000000;0,670685;0,381294;0,381294;0,261965;0,262024;0,262083;0,262143;0,820901;0,252226;0,272243;0,772078;0,772167;0,301548;0,301605;0,643354;0,384690;0,469449;0,385131;0,385131;0,304138;0,304183;0,304229;0,260109;0,260191;0,376726;0,294658;0,300086;0,300166;0,262337;0,262408;0,262478;0,306198;0,306239;0,306279;0,295847;0,301725;0,561891;0,561988;0,296413;0,000000;0,000000;0,303394;
89;;;;;;;;;;;;;;;;;;;;;;;;;;;;;;;;;;;;;;;;;;;;;;;;;;;;;;;;;;;;;;;;;;;;;;;;;;;;;;;;;;;;;;;;;1,000000;0,370916;0,370916;0,251587;0,251646;0,251705;0,251765;0,759725;0,241848;0,261865;0,787931;0,787931;0,291171;0,291227;0,644337;0,374312;0,459071;0,374753;0,374753;0,293760;0,293805;0,293851;0,249731;0,249813;0,366348;0,284280;0,289709;0,289788;0,251959;0,252030;0,252101;0,295820;0,295861;0,295901;0,285469;0,291347;0,658648;0,658719;0,286035;0,000000;0,000000;0,293016;
90;;;;;;;;;;;;;;;;;;;;;;;;;;;;;;;;;;;;;;;;;;;;;;;;;;;;;;;;;;;;;;;;;;;;;;;;;;;;;;;;;;;;;;;;;;1,000000;0,462356;0,343026;0,343086;0,343145;0,343204;0,462618;0,333287;0,353305;0,343427;0,343487;0,382610;0,382667;0,382660;0,465751;0,550511;0,466192;0,466192;0,385199;0,385245;0,385290;0,341171;0,341252;0,457788;0,375720;0,381148;0,381227;0,343399;0,343469;0,343540;0,387260;0,387300;0,387341;0,376908;0,382787;0,343557;0,343627;0,377474;0,000000;0,000000;0,384456;
91;;;;;;;;;;;;;;;;;;;;;;;;;;;;;;;;;;;;;;;;;;;;;;;;;;;;;;;;;;;;;;;;;;;;;;;;;;;;;;;;;;;;;;;;;;;1,000000;0,343026;0,343086;0,343145;0,343204;0,462618;0,333287;0,353305;0,343427;0,343487;0,382610;0,382667;0,382660;0,465751;0,550511;0,466192;0,466192;0,385199;0,385245;0,385290;0,341171;0,341252;0,457788;0,375720;0,381148;0,381227;0,343399;0,343469;0,343540;0,387260;0,387300;0,387341;0,376908;0,382787;0,343557;0,343627;0,377474;0,000000;0,000000;0,384456;
92;;;;;;;;;;;;;;;;;;;;;;;;;;;;;;;;;;;;;;;;;;;;;;;;;;;;;;;;;;;;;;;;;;;;;;;;;;;;;;;;;;;;;;;;;;;;1,000000;0,854746;0,854874;0,855002;0,343289;0,213958;0,233975;0,224098;0,224157;0,263281;0,263338;0,263331;0,346422;0,431181;0,346863;0,346863;0,265870;0,265915;0,265961;0,221841;0,221923;0,338458;0,256390;0,261819;0,261898;0,224069;0,224140;0,224211;0,267931;0,267971;0,268011;0,257579;0,263457;0,224227;0,224298;0,258145;0,000000;0,000000;0,265127;
93;;;;;;;;;;;;;;;;;;;;;;;;;;;;;;;;;;;;;;;;;;;;;;;;;;;;;;;;;;;;;;;;;;;;;;;;;;;;;;;;;;;;;;;;;;;;;1,000000;0,855002;0,855128;0,343348;0,214017;0,234034;0,224157;0,224217;0,263340;0,263397;0,263390;0,346481;0,431241;0,346922;0,346922;0,265929;0,265975;0,266020;0,221901;0,221982;0,338518;0,256450;0,261878;0,261957;0,224129;0,224199;0,224270;0,267990;0,268030;0,268071;0,257638;0,263517;0,224287;0,224357;0,258204;0,000000;0,000000;0,265186;
94;;;;;;;;;;;;;;;;;;;;;;;;;;;;;;;;;;;;;;;;;;;;;;;;;;;;;;;;;;;;;;;;;;;;;;;;;;;;;;;;;;;;;;;;;;;;;;1,000000;0,855253;0,343407;0,214076;0,234094;0,224216;0,224276;0,263399;0,263456;0,263449;0,346540;0,431300;0,346982;0,346982;0,265989;0,266034;0,266079;0,221960;0,222041;0,338577;0,256509;0,261937;0,262016;0,224188;0,224259;0,224329;0,268049;0,268089;0,268130;0,257697;0,263576;0,224346;0,224416;0,258263;0,000000;0,000000;0,265245;
95;;;;;;;;;;;;;;;;;;;;;;;;;;;;;;;;;;;;;;;;;;;;;;;;;;;;;;;;;;;;;;;;;;;;;;;;;;;;;;;;;;;;;;;;;;;;;;;1,000000;0,343467;0,214135;0,234153;0,224276;0,224335;0,263458;0,263515;0,263508;0,346600;0,431359;0,347041;0,347041;0,266048;0,266093;0,266139;0,222019;0,222101;0,338636;0,256568;0,261996;0,262075;0,224247;0,224318;0,224388;0,268108;0,268148;0,268189;0,257756;0,263635;0,224405;0,224476;0,258322;0,000000;0,000000;0,265304;
96;;;;;;;;;;;;;;;;;;;;;;;;;;;;;;;;;;;;;;;;;;;;;;;;;;;;;;;;;;;;;;;;;;;;;;;;;;;;;;;;;;;;;;;;;;;;;;;;1,000000;0,333549;0,353567;0,770783;0,770846;0,382872;0,382929;0,382922;0,466014;0,550773;0,466455;0,466455;0,385462;0,385507;0,385553;0,341433;0,341515;0,458050;0,375982;0,381410;0,381490;0,343661;0,343732;0,343802;0,387522;0,387563;0,387603;0,377171;0,383049;0,343819;0,343890;0,377737;0,000000;0,000000;0,384718;
97;;;;;;;;;;;;;;;;;;;;;;;;;;;;;;;;;;;;;;;;;;;;;;;;;;;;;;;;;;;;;;;;;;;;;;;;;;;;;;;;;;;;;;;;;;;;;;;;;1,000000;0,224236;0,214358;0,214418;0,253541;0,253598;0,253591;0,336683;0,421442;0,337124;0,337124;0,256131;0,256176;0,256222;0,212102;0,212184;0,328719;0,246651;0,252079;0,252158;0,214330;0,214401;0,214471;0,258191;0,258231;0,258272;0,247839;0,253718;0,214488;0,214559;0,248405;0,000000;0,000000;0,255387;
98;;;;;;;;;;;;;;;;;;;;;;;;;;;;;;;;;;;;;;;;;;;;;;;;;;;;;;;;;;;;;;;;;;;;;;;;;;;;;;;;;;;;;;;;;;;;;;;;;;1,000000;0,234376;0,234436;0,273559;0,273616;0,273609;0,356700;0,441460;0,357141;0,357141;0,276148;0,276194;0,276239;0,469541;0,469616;0,348737;0,782484;0,272097;0,272176;0,463710;0,463758;0,463807;0,278209;0,278249;0,278290;0,267857;0,273736;0,234506;0,234576;0,268423;0,220566;0,220637;0,275405;
99;;;;;;;;;;;;;;;;;;;;;;;;;;;;;;;;;;;;;;;;;;;;;;;;;;;;;;;;;;;;;;;;;;;;;;;;;;;;;;;;;;;;;;;;;;;;;;;;;;;1,000000;0,793978;0,263681;0,263738;0,619620;0,346823;0,431582;0,347264;0,347264;0,266271;0,266316;0,266362;0,222242;0,222324;0,338859;0,256791;0,262219;0,262299;0,224470;0,224541;0,224611;0,268331;0,268372;0,268412;0,257980;0,263858;0,224628;0,224699;0,258546;0,000000;0,000000;0,265527;
100;;;;;;;;;;;;;;;;;;;;;;;;;;;;;;;;;;;;;;;;;;;;;;;;;;;;;;;;;;;;;;;;;;;;;;;;;;;;;;;;;;;;;;;;;;;;;;;;;;;;1,000000;0,263741;0,263798;0,619684;0,346882;0,431642;0,347323;0,347323;0,266330;0,266376;0,266421;0,222302;0,222383;0,338919;0,256851;0,262279;0,262358;0,224530;0,224601;0,224671;0,268391;0,268431;0,268472;0,258039;0,263918;0,224688;0,224758;0,258605;0,000000;0,000000;0,265587;
101;;;;;;;;;;;;;;;;;;;;;;;;;;;;;;;;;;;;;;;;;;;;;;;;;;;;;;;;;;;;;;;;;;;;;;;;;;;;;;;;;;;;;;;;;;;;;;;;;;;;;1,000000;0,730979;0,302914;0,386006;0,470765;0,386447;0,386447;0,305454;0,305499;0,305545;0,261425;0,261507;0,378042;0,295974;0,301402;0,301481;0,263653;0,263724;0,263794;0,307514;0,307554;0,307595;0,297162;0,303041;0,263811;0,263881;0,297728;0,000000;0,000000;0,731604;
102;;;;;;;;;;;;;;;;;;;;;;;;;;;;;;;;;;;;;;;;;;;;;;;;;;;;;;;;;;;;;;;;;;;;;;;;;;;;;;;;;;;;;;;;;;;;;;;;;;;;;;1,000000;0,302971;0,386062;0,470822;0,386504;0,386504;0,305511;0,305556;0,305601;0,261482;0,261563;0,378099;0,296031;0,301459;0,301538;0,263710;0,263781;0,263851;0,307571;0,307611;0,307652;0,297219;0,303098;0,263868;0,263938;0,297785;0,000000;0,000000;0,731604;
103;;;;;;;;;;;;;;;;;;;;;;;;;;;;;;;;;;;;;;;;;;;;;;;;;;;;;;;;;;;;;;;;;;;;;;;;;;;;;;;;;;;;;;;;;;;;;;;;;;;;;;;1,000000;0,386056;0,470815;0,386497;0,386497;0,305504;0,305549;0,305595;0,261475;0,261557;0,378092;0,296024;0,301452;0,301531;0,263703;0,263774;0,263844;0,307564;0,307604;0,307645;0,297212;0,303091;0,623059;0,623156;0,297778;0,000000;0,000000;0,304760;
104;;;;;;;;;;;;;;;;;;;;;;;;;;;;;;;;;;;;;;;;;;;;;;;;;;;;;;;;;;;;;;;;;;;;;;;;;;;;;;;;;;;;;;;;;;;;;;;;;;;;;;;;1,000000;0,553906;0,469588;0,469588;0,388595;0,388640;0,388686;0,344566;0,344648;0,461183;0,379115;0,384543;0,384623;0,346794;0,346865;0,346936;0,390655;0,390696;0,390736;0,380304;0,386182;0,346952;0,347023;0,380870;0,000000;0,000000;0,387851;
105;;;;;;;;;;;;;;;;;;;;;;;;;;;;;;;;;;;;;;;;;;;;;;;;;;;;;;;;;;;;;;;;;;;;;;;;;;;;;;;;;;;;;;;;;;;;;;;;;;;;;;;;;1,000000;0,554347;0,554347;0,473354;0,473400;0,473445;0,429326;0,429407;0,545943;0,463875;0,469303;0,469382;0,431554;0,431624;0,431695;0,475415;0,475455;0,475496;0,465063;0,470942;0,431712;0,431782;0,465629;0,000000;0,000000;0,472611;
106;;;;;;;;;;;;;;;;;;;;;;;;;;;;;;;;;;;;;;;;;;;;;;;;;;;;;;;;;;;;;;;;;;;;;;;;;;;;;;;;;;;;;;;;;;;;;;;;;;;;;;;;;;1,000000;0,470029;0,389036;0,389081;0,389127;0,345007;0,345089;0,461624;0,379556;0,384985;0,385064;0,347235;0,347306;0,347377;0,391097;0,391137;0,391177;0,380745;0,386623;0,347393;0,347464;0,381311;0,000000;0,000000;0,388293;
107;;;;;;;;;;;;;;;;;;;;;;;;;;;;;;;;;;;;;;;;;;;;;;;;;;;;;;;;;;;;;;;;;;;;;;;;;;;;;;;;;;;;;;;;;;;;;;;;;;;;;;;;;;;1,000000;0,389036;0,389081;0,389127;0,345007;0,345089;0,461624;0,379556;0,384985;0,385064;0,347235;0,347306;0,347377;0,391097;0,391137;0,391177;0,380745;0,386623;0,347393;0,347464;0,381311;0,000000;0,000000;0,388293;
108;;;;;;;;;;;;;;;;;;;;;;;;;;;;;;;;;;;;;;;;;;;;;;;;;;;;;;;;;;;;;;;;;;;;;;;;;;;;;;;;;;;;;;;;;;;;;;;;;;;;;;;;;;;;1,000000;0,795608;0,795747;0,264014;0,264096;0,380632;0,298563;0,303992;0,304071;0,266243;0,266313;0,266384;0,310104;0,310144;0,310184;0,299752;0,305630;0,266400;0,266471;0,300318;0,000000;0,000000;0,307300;
109;;;;;;;;;;;;;;;;;;;;;;;;;;;;;;;;;;;;;;;;;;;;;;;;;;;;;;;;;;;;;;;;;;;;;;;;;;;;;;;;;;;;;;;;;;;;;;;;;;;;;;;;;;;;;1,000000;0,795885;0,264060;0,264141;0,380677;0,298609;0,304037;0,304116;0,266288;0,266359;0,266429;0,310149;0,310189;0,310230;0,299797;0,305676;0,266446;0,266516;0,300363;0,000000;0,000000;0,307345;
110;;;;;;;;;;;;;;;;;;;;;;;;;;;;;;;;;;;;;;;;;;;;;;;;;;;;;;;;;;;;;;;;;;;;;;;;;;;;;;;;;;;;;;;;;;;;;;;;;;;;;;;;;;;;;;1,000000;0,264105;0,264187;0,380722;0,298654;0,304082;0,304162;0,266333;0,266404;0,266475;0,310194;0,310235;0,310275;0,299843;0,305721;0,266491;0,266562;0,300409;0,000000;0,000000;0,307390;
111;;;;;;;;;;;;;;;;;;;;;;;;;;;;;;;;;;;;;;;;;;;;;;;;;;;;;;;;;;;;;;;;;;;;;;;;;;;;;;;;;;;;;;;;;;;;;;;;;;;;;;;;;;;;;;;1,000000;0,807701;0,336603;0,254535;0,259963;0,260042;0,222214;0,222284;0,222355;0,266075;0,266115;0,266156;0,255723;0,261602;0,222372;0,222442;0,256289;0,000000;0,000000;0,263271;
112;;;;;;;;;;;;;;;;;;;;;;;;;;;;;;;;;;;;;;;;;;;;;;;;;;;;;;;;;;;;;;;;;;;;;;;;;;;;;;;;;;;;;;;;;;;;;;;;;;;;;;;;;;;;;;;;1,000000;0,336684;0,254616;0,260045;0,260124;0,222295;0,222366;0,222437;0,266156;0,266197;0,266237;0,255805;0,261683;0,222453;0,222524;0,256371;0,000000;0,000000;0,263352;
113;;;;;;;;;;;;;;;;;;;;;;;;;;;;;;;;;;;;;;;;;;;;;;;;;;;;;;;;;;;;;;;;;;;;;;;;;;;;;;;;;;;;;;;;;;;;;;;;;;;;;;;;;;;;;;;;;1,000000;0,371152;0,376580;0,376659;0,338831;0,338902;0,338972;0,382692;0,382732;0,382773;0,372340;0,378219;0,338989;0,339059;0,372906;0,000000;0,000000;0,379888;
114;;;;;;;;;;;;;;;;;;;;;;;;;;;;;;;;;;;;;;;;;;;;;;;;;;;;;;;;;;;;;;;;;;;;;;;;;;;;;;;;;;;;;;;;;;;;;;;;;;;;;;;;;;;;;;;;;;1,000000;0,294512;0,294591;0,591157;0,591205;0,591254;0,300624;0,300664;0,300705;0,290272;0,296151;0,256921;0,256991;0,290838;0,320151;0,320221;0,297820;
115;;;;;;;;;;;;;;;;;;;;;;;;;;;;;;;;;;;;;;;;;;;;;;;;;;;;;;;;;;;;;;;;;;;;;;;;;;;;;;;;;;;;;;;;;;;;;;;;;;;;;;;;;;;;;;;;;;;1,000000;0,714324;0,262191;0,262262;0,262332;0,306052;0,306092;0,306133;0,295700;0,301579;0,262349;0,262419;0,296266;0,000000;0,000000;0,303248;
116;;;;;;;;;;;;;;;;;;;;;;;;;;;;;;;;;;;;;;;;;;;;;;;;;;;;;;;;;;;;;;;;;;;;;;;;;;;;;;;;;;;;;;;;;;;;;;;;;;;;;;;;;;;;;;;;;;;;1,000000;0,262270;0,262341;0,262411;0,306131;0,306171;0,306212;0,295779;0,301658;0,262428;0,262499;0,296345;0,000000;0,000000;0,303327;
117;;;;;;;;;;;;;;;;;;;;;;;;;;;;;;;;;;;;;;;;;;;;;;;;;;;;;;;;;;;;;;;;;;;;;;;;;;;;;;;;;;;;;;;;;;;;;;;;;;;;;;;;;;;;;;;;;;;;;1,000000;0,827044;0,827155;0,268303;0,268343;0,268384;0,257951;0,263830;0,224600;0,224670;0,258517;0,000000;0,000000;0,265499;
118;;;;;;;;;;;;;;;;;;;;;;;;;;;;;;;;;;;;;;;;;;;;;;;;;;;;;;;;;;;;;;;;;;;;;;;;;;;;;;;;;;;;;;;;;;;;;;;;;;;;;;;;;;;;;;;;;;;;;;1,000000;0,827265;0,268374;0,268414;0,268454;0,258022;0,263900;0,224670;0,224741;0,258588;0,000000;0,000000;0,265570;
119;;;;;;;;;;;;;;;;;;;;;;;;;;;;;;;;;;;;;;;;;;;;;;;;;;;;;;;;;;;;;;;;;;;;;;;;;;;;;;;;;;;;;;;;;;;;;;;;;;;;;;;;;;;;;;;;;;;;;;;1,000000;0,268444;0,268484;0,268525;0,258092;0,263971;0,224741;0,224811;0,258658;0,000000;0,000000;0,265640;
120;;;;;;;;;;;;;;;;;;;;;;;;;;;;;;;;;;;;;;;;;;;;;;;;;;;;;;;;;;;;;;;;;;;;;;;;;;;;;;;;;;;;;;;;;;;;;;;;;;;;;;;;;;;;;;;;;;;;;;;;1,000000;0,798730;0,798851;0,301812;0,307691;0,268461;0,268531;0,302378;0,000000;0,000000;0,309360;
121;;;;;;;;;;;;;;;;;;;;;;;;;;;;;;;;;;;;;;;;;;;;;;;;;;;;;;;;;;;;;;;;;;;;;;;;;;;;;;;;;;;;;;;;;;;;;;;;;;;;;;;;;;;;;;;;;;;;;;;;;1,000000;0,798972;0,301852;0,307731;0,268501;0,268572;0,302418;0,000000;0,000000;0,309400;
122;;;;;;;;;;;;;;;;;;;;;;;;;;;;;;;;;;;;;;;;;;;;;;;;;;;;;;;;;;;;;;;;;;;;;;;;;;;;;;;;;;;;;;;;;;;;;;;;;;;;;;;;;;;;;;;;;;;;;;;;;;1,000000;0,301893;0,307772;0,268542;0,268612;0,302459;0,000000;0,000000;0,309441;
123;;;;;;;;;;;;;;;;;;;;;;;;;;;;;;;;;;;;;;;;;;;;;;;;;;;;;;;;;;;;;;;;;;;;;;;;;;;;;;;;;;;;;;;;;;;;;;;;;;;;;;;;;;;;;;;;;;;;;;;;;;;1,000000;0,297339;0,258109;0,258180;1,000000;0,000000;0,000000;0,299008;
124;;;;;;;;;;;;;;;;;;;;;;;;;;;;;;;;;;;;;;;;;;;;;;;;;;;;;;;;;;;;;;;;;;;;;;;;;;;;;;;;;;;;;;;;;;;;;;;;;;;;;;;;;;;;;;;;;;;;;;;;;;;;1,000000;0,263988;0,264058;0,297905;0,000000;0,000000;0,304887;
125;;;;;;;;;;;;;;;;;;;;;;;;;;;;;;;;;;;;;;;;;;;;;;;;;;;;;;;;;;;;;;;;;;;;;;;;;;;;;;;;;;;;;;;;;;;;;;;;;;;;;;;;;;;;;;;;;;;;;;;;;;;;;1,000000;0,806448;0,258675;0,000000;0,000000;0,265657;
126;;;;;;;;;;;;;;;;;;;;;;;;;;;;;;;;;;;;;;;;;;;;;;;;;;;;;;;;;;;;;;;;;;;;;;;;;;;;;;;;;;;;;;;;;;;;;;;;;;;;;;;;;;;;;;;;;;;;;;;;;;;;;;1,000000;0,258746;0,000000;0,000000;0,265727;
127;;;;;;;;;;;;;;;;;;;;;;;;;;;;;;;;;;;;;;;;;;;;;;;;;;;;;;;;;;;;;;;;;;;;;;;;;;;;;;;;;;;;;;;;;;;;;;;;;;;;;;;;;;;;;;;;;;;;;;;;;;;;;;;1,000000;0,000000;0,000000;0,299574;
128;;;;;;;;;;;;;;;;;;;;;;;;;;;;;;;;;;;;;;;;;;;;;;;;;;;;;;;;;;;;;;;;;;;;;;;;;;;;;;;;;;;;;;;;;;;;;;;;;;;;;;;;;;;;;;;;;;;;;;;;;;;;;;;;1,000000;0,833519;0,000000;
129;;;;;;;;;;;;;;;;;;;;;;;;;;;;;;;;;;;;;;;;;;;;;;;;;;;;;;;;;;;;;;;;;;;;;;;;;;;;;;;;;;;;;;;;;;;;;;;;;;;;;;;;;;;;;;;;;;;;;;;;;;;;;;;;;1,000000;0,000000;
130;;;;;;;;;;;;;;;;;;;;;;;;;;;;;;;;;;;;;;;;;;;;;;;;;;;;;;;;;;;;;;;;;;;;;;;;;;;;;;;;;;;;;;;;;;;;;;;;;;;;;;;;;;;;;;;;;;;;;;;;;;;;;;;;;;1,000000;
