;1; 2; 3; 4; 5; 6; 7; 8; 9; 10; 11; 12; 13; 14; 15; 16; 17; 18; 19; 20; 21; 22; 23; 24; 25; 26; 27; 28; 29; 30; 31; 32; 33; 34; 35; 36; 37; 38; 39; 40; 41; 42; 43; 44; 45; 46; 47; 48; 49; 50; 51; 52; 53; 54; 55; 56; 57; 58; 59; 60; 61; 62; 63; 64; 65; 66; 67; 68; 69; 70; 71; 72; 73; 74; 75; 76; 77; 78; 79; 80; 81; 82; 83; 84; 85; 86; 87; 88; 89; 90; 91; 92; 93; 94; 95; 96; 97; 98; 99; 100; 101; 102; 103; 104; 105; 106; 107; 108; 109; 110; 111; 112
1;1,000000;0,213788;0,277866;0,477284;0,183738;0,191159;0,246942;0,254175;0,259179;0,241844;0,290812;0,652404;0,643062;0,000000;0,000000;0,000000;0,000000;0,000000;0,000000;0,180124;0,000000;0,192305;0,213429;0,212674;0,213897;0,225824;0,235989;0,270473;0,270672;0,270877;0,222429;0,238538;0,234231;0,330588;0,331514;0,000000;0,276748;0,276895;0,277046;0,340013;0,272288;0,306597;0,317847;0,444282;0,444282;0,425651;0,279029;0,279188;0,322070;0,361474;0,240756;0,283216;0,502244;0,292970;0,364504;0,303110;0,279214;0,278600;0,263698;0,246957;0,280610;0,246340;0,367987;0,367987;0,246724;0,246862;0,226269;0,226380;0,235994;0,248070;0,248198;0,414668;0,414963;0,357655;0,249384;0,643062;0,368751;0,000000;0,000000;0,000000;0,000000;0,000000;0,000000;0,375097;0,375097;0,643062;0,000000;0,000000;0,000000;0,000000;0,000000;0,000000;0,000000;0,643062;0,287458;0,643062;0,294523;0,294593;0,327664;0,379001;0,372825;0,256787;0,231022;0,231101;0,292254;0,234199;0,234255;0,234311;0,296193;0,296260;0,372664;0,374953;
2;;1,000000;0,205602;0,102452;0,313045;0,315391;0,453512;0,351584;0,384714;0,324795;0,229637;0,260930;0,000000;0,000000;0,000000;0,000000;0,000000;0,000000;0,426987;0,390511;0,430503;0,414693;0,432436;0,465104;0,434153;0,466337;0,435343;0,404428;0,405217;0,405971;0,483547;0,457856;0,427777;0,271155;0,272107;0,434081;0,410421;0,410963;0,411487;0,251686;0,386328;0,389145;0,400593;0,266930;0,267630;0,196156;0,400683;0,401125;0,394778;0,289379;0,425071;0,466024;0,250966;0,400632;0,282728;0,445939;0,382312;0,365088;0,428970;0,430201;0,378945;0,463722;0,380956;0,381298;0,443639;0,443910;0,467616;0,467836;0,472335;0,445157;0,445397;0,311722;0,311722;0,313452;0,440007;0,000000;0,319313;0,000000;0,000000;0,000000;0,000000;0,000000;0,000000;0,386930;0,387165;0,000000;0,000000;0,000000;0,000000;0,000000;0,000000;0,000000;0,000000;0,000000;0,384097;0,000000;0,415527;0,415705;0,404961;0,340567;0,356324;0,462491;0,468721;0,468843;0,394741;0,460585;0,460686;0,460786;0,417229;0,417385;0,316468;0,302232;
3;;;1,000000;0,469025;0,175479;0,182901;0,238684;0,245916;0,250920;0,233585;0,732612;0,328708;0,634804;0,000000;0,000000;0,000000;0,000000;0,000000;0,000000;0,171866;0,000000;0,184046;0,205170;0,204415;0,205639;0,217566;0,227730;0,262215;0,262414;0,262618;0,214171;0,230279;0,225973;0,732612;0,732612;0,000000;0,268490;0,268637;0,268787;0,331754;0,264029;0,298338;0,309588;0,436024;0,436024;0,732612;0,270771;0,270929;0,313811;0,353216;0,232497;0,274957;0,493985;0,284711;0,356246;0,294851;0,270956;0,270342;0,255439;0,238698;0,272351;0,238082;0,359729;0,359729;0,238465;0,238604;0,218011;0,218122;0,227736;0,239812;0,239939;0,331911;0,331911;0,851847;0,241126;0,634804;0,360493;0,000000;0,000000;0,000000;0,000000;0,000000;0,000000;0,366839;0,366839;0,634804;0,000000;0,000000;0,000000;0,000000;0,000000;0,000000;0,000000;0,634804;0,279200;0,634804;0,286264;0,286334;0,319406;0,370742;0,364566;0,248528;0,222764;0,222843;0,283996;0,225940;0,225997;0,226053;0,287935;0,288001;0,364406;0,366695;
4;;;;1,000000;0,374897;0,382319;0,510053;0,445334;0,450338;0,433003;0,481971;0,528126;0,834221;0,000000;0,000000;0,000000;0,000000;0,000000;0,000000;0,466228;0,000000;0,383464;0,404588;0,528223;0,405056;0,527618;0,427148;0,461632;0,461831;0,462036;0,687076;0,725489;0,828011;0,521748;0,522673;0,000000;0,467907;0,468055;0,468205;0,531172;0,463447;0,497756;0,509006;0,635441;0,635441;0,616810;0,470189;0,470347;0,634785;0,552634;0,431915;0,474375;0,693403;0,484129;0,555663;0,494269;0,470373;0,469759;0,619908;0,671056;0,471769;0,437500;0,559147;0,559147;0,437883;0,438021;0,417428;0,417539;0,427153;0,439229;0,439357;0,000000;0,000000;0,548814;0,440544;0,834221;0,559910;0,000000;0,000000;0,000000;0,000000;0,000000;0,000000;0,566256;0,566256;0,834221;0,000000;0,000000;0,000000;0,000000;0,000000;0,000000;0,000000;0,834221;0,478618;0,834221;0,485682;0,485752;0,518824;0,570160;0,563984;0,447946;0,422182;0,422260;0,483414;0,425358;0,425414;0,425470;0,487352;0,487419;0,563823;0,566112;
5;;;;;1,000000;0,663846;0,477528;0,151788;0,156792;0,139457;0,188425;0,234580;0,540675;0,000000;0,000000;0,000000;0,000000;0,000000;0,633660;0,793540;0,649247;0,797167;0,111042;0,330771;0,111510;0,415718;0,133602;0,168086;0,168285;0,168490;0,353689;0,136151;0,131844;0,228202;0,229127;0,646193;0,174361;0,174509;0,174659;0,602322;0,417954;0,382035;0,325746;0,341895;0,341895;0,323264;0,176643;0,176801;0,219683;0,259088;0,528379;0,342315;0,399857;0,190583;0,262117;0,200723;0,176827;0,415562;0,161311;0,144570;0,427609;0,344400;0,265601;0,265601;0,344604;0,344705;0,295756;0,295877;0,318378;0,346693;0,346784;0,000000;0,000000;0,255268;0,146998;0,540675;0,266364;0,000000;0,000000;0,000000;0,000000;0,000000;0,000000;0,272710;0,272710;0,540675;0,000000;0,000000;0,000000;0,000000;0,000000;0,000000;0,000000;0,540675;0,185072;0,540675;0,192136;0,192206;0,225278;0,276614;0,270438;0,154400;0,128635;0,128714;0,189868;0,131812;0,131868;0,131924;0,193806;0,193873;0,270277;0,272566;
6;;;;;;1,000000;0,468403;0,159210;0,164214;0,146879;0,195847;0,242002;0,548097;0,000000;0,000000;0,000000;0,000000;0,000000;0,623284;0,802547;0,638089;0,754043;0,118464;0,345214;0,118932;0,447519;0,141024;0,175508;0,175707;0,175912;0,368132;0,143573;0,139266;0,235623;0,236549;0,635176;0,181783;0,181930;0,182081;0,622206;0,437838;0,401919;0,345630;0,349317;0,349317;0,330686;0,184064;0,184223;0,227105;0,266509;0,565553;0,379489;0,407279;0,198005;0,269539;0,208145;0,184249;0,437814;0,168732;0,151992;0,447493;0,364284;0,273022;0,273022;0,364487;0,364589;0,315639;0,315761;0,338261;0,366577;0,366667;0,000000;0,000000;0,262690;0,154419;0,548097;0,273786;0,000000;0,000000;0,000000;0,000000;0,000000;0,000000;0,280132;0,280132;0,548097;0,000000;0,000000;0,000000;0,000000;0,000000;0,000000;0,000000;0,548097;0,192493;0,548097;0,199558;0,199628;0,232699;0,284035;0,277860;0,161821;0,136057;0,136136;0,197289;0,139234;0,139290;0,139346;0,201228;0,201295;0,277699;0,279988;
7;;;;;;;1,000000;0,214993;0,345741;0,202662;0,251630;0,297785;0,603880;0,000000;0,000000;0,000000;0,000000;0,000000;0,497148;0,580273;0,500665;0,586028;0,435329;0,452345;0,435917;0,486656;0,380219;0,231291;0,231490;0,231694;0,427477;0,299911;0,366973;0,291406;0,292332;0,504243;0,237566;0,237713;0,237864;0,300830;0,469803;0,498388;0,499295;0,405100;0,405100;0,386469;0,239847;0,240005;0,352597;0,322292;0,506779;0,348951;0,463062;0,253787;0,325322;0,319757;0,240032;0,639068;0,224515;0,207774;0,475429;0,616066;0,328805;0,328805;0,558571;0,558833;0,601350;0,601565;0,620629;0,552325;0,552559;0,000000;0,000000;0,318473;0,366881;0,603880;0,329569;0,000000;0,000000;0,000000;0,000000;0,000000;0,000000;0,335915;0,335915;0,603880;0,000000;0,000000;0,000000;0,000000;0,000000;0,000000;0,000000;0,603880;0,446778;0,603880;0,255340;0,255410;0,420456;0,339818;0,333643;0,307326;0,323817;0,323942;0,471577;0,195016;0,195073;0,195129;0,462921;0,462921;0,629635;0,335771;
8;;;;;;;;1,000000;0,518135;0,529735;0,258863;0,305017;0,611113;0,000000;0,000000;0,000000;0,000000;0,000000;0,000000;0,148175;0,000000;0,160355;0,181479;0,180724;0,181948;0,193875;0,204039;0,238524;0,238722;0,238927;0,190480;0,206588;0,202282;0,298639;0,299565;0,000000;0,244799;0,244946;0,245096;0,308063;0,240338;0,274647;0,455954;0,412333;0,412333;0,393702;0,247080;0,247238;0,290120;0,329525;0,208806;0,496567;0,470294;0,261020;0,728107;0,590911;0,556233;0,246651;0,231748;0,215007;0,248660;0,214391;0,336038;0,336038;0,214774;0,214912;0,194320;0,194431;0,204045;0,216121;0,216248;0,000000;0,000000;0,325705;0,511961;0,611113;0,336802;0,000000;0,000000;0,000000;0,000000;0,000000;0,000000;0,343148;0,343148;0,611113;0,000000;0,000000;0,000000;0,000000;0,000000;0,000000;0,000000;0,611113;0,593240;0,611113;0,581546;0,581546;0,295715;0,347051;0,340875;0,224837;0,465769;0,465867;0,575919;0,202249;0,202306;0,202362;0,264244;0,264310;0,340715;0,728107;
9;;;;;;;;;1,000000;0,497327;0,263867;0,310021;0,616117;0,000000;0,000000;0,000000;0,000000;0,000000;0,000000;0,153179;0,000000;0,305374;0,186483;0,185728;0,186952;0,198879;0,209043;0,243528;0,243726;0,243931;0,195484;0,211592;0,207286;0,303643;0,304569;0,000000;0,249803;0,249950;0,250100;0,313067;0,245342;0,279651;0,375387;0,417337;0,417337;0,398706;0,252084;0,252242;0,295124;0,334529;0,466979;0,585335;0,475298;0,266024;0,647541;0,448626;0,726710;0,251655;0,236752;0,220011;0,253664;0,219395;0,341042;0,341042;0,219778;0,219916;0,199324;0,199435;0,209049;0,221125;0,221252;0,000000;0,000000;0,330709;0,695660;0,616117;0,341806;0,000000;0,000000;0,000000;0,000000;0,000000;0,000000;0,348152;0,348152;0,616117;0,000000;0,000000;0,000000;0,000000;0,000000;0,000000;0,000000;0,616117;0,563808;0,616117;0,500979;0,500979;0,537487;0,352055;0,345879;0,424356;0,751876;0,752021;0,495353;0,207253;0,207310;0,207366;0,579951;0,579951;0,345719;0,647541;
10;;;;;;;;;;1,000000;0,246532;0,292686;0,598782;0,000000;0,000000;0,000000;0,000000;0,000000;0,000000;0,135844;0,000000;0,148024;0,169148;0,168393;0,169617;0,181544;0,191708;0,226193;0,226392;0,226596;0,178149;0,194257;0,189951;0,286308;0,287234;0,000000;0,232468;0,232615;0,232765;0,295732;0,228007;0,262316;0,273566;0,400002;0,400002;0,381371;0,234749;0,234907;0,277789;0,317194;0,196475;0,528710;0,457963;0,248689;0,320224;0,790235;0,655627;0,234320;0,219417;0,202676;0,236329;0,202060;0,323707;0,323707;0,202443;0,202581;0,181989;0,182100;0,191714;0,203790;0,203917;0,000000;0,000000;0,313375;0,544104;0,598782;0,324471;0,000000;0,000000;0,000000;0,000000;0,000000;0,000000;0,330817;0,330817;0,598782;0,000000;0,000000;0,000000;0,000000;0,000000;0,000000;0,000000;0,598782;0,625384;0,598782;0,250242;0,250312;0,283384;0,334720;0,328544;0,212506;0,497913;0,498010;0,247974;0,189918;0,189975;0,190031;0,251913;0,251979;0,328384;0,330673;
11;;;;;;;;;;;1,000000;0,341655;0,647750;0,000000;0,000000;0,000000;0,000000;0,000000;0,000000;0,184812;0,000000;0,196993;0,218116;0,217361;0,218585;0,230512;0,240676;0,275161;0,275360;0,275565;0,227117;0,243225;0,238919;1,000000;1,000000;0,000000;0,281436;0,281583;0,281734;0,344700;0,276975;0,311285;0,322534;0,448970;0,448970;1,000000;0,283717;0,283876;0,326758;0,366162;0,245443;0,287903;0,506932;0,297658;0,369192;0,307798;0,283902;0,283288;0,268385;0,251644;0,285297;0,251028;0,372675;0,372675;0,251411;0,251550;0,230957;0,231068;0,240682;0,252758;0,252886;0,507402;0,507402;0,362343;0,254072;0,647750;0,373439;0,000000;0,000000;0,000000;0,000000;0,000000;0,000000;0,379785;0,379785;0,647750;0,000000;0,000000;0,000000;0,000000;0,000000;0,000000;0,000000;0,647750;0,292146;0,647750;0,299210;0,299280;0,332352;0,383688;0,377513;0,261474;0,235710;0,235789;0,296942;0,238887;0,238943;0,238999;0,300881;0,300947;0,377352;0,379641;
12;;;;;;;;;;;;1,000000;0,693905;0,000000;0,000000;0,000000;0,000000;0,000000;0,000000;0,230967;0,000000;0,243147;0,264271;0,263516;0,264740;0,276667;0,286831;0,321316;0,321515;0,321719;0,273272;0,289380;0,285074;0,381431;0,382357;0,000000;0,327591;0,327738;0,327888;0,390855;0,323130;0,357439;0,368689;0,495125;0,495125;0,476494;0,329872;0,330030;0,372912;0,412317;0,291598;0,334058;0,553086;0,343812;0,415347;0,353952;0,330057;0,329443;0,314540;0,297799;0,331452;0,297183;0,418830;0,418830;0,297566;0,297704;0,277112;0,277223;0,286837;0,298913;0,299040;0,000000;0,000000;0,408497;0,300227;0,693905;0,419594;0,000000;0,000000;0,000000;0,000000;0,000000;0,000000;0,425940;0,425940;0,693905;0,000000;0,000000;0,000000;0,000000;0,000000;0,000000;0,000000;0,693905;0,338301;0,693905;0,345365;0,345435;0,378507;0,429843;0,423667;0,307629;0,281865;0,281944;0,343097;0,285041;0,285098;0,285154;0,347036;0,347102;0,423507;0,425796;
13;;;;;;;;;;;;;1,000000;0,000000;0,000000;0,000000;0,000000;0,000000;0,000000;0,537062;0,000000;0,549243;0,570367;0,569611;0,570835;0,582762;0,592927;0,627411;0,627610;0,627815;0,579367;0,595475;0,591169;0,687526;0,688452;0,000000;0,633686;0,633833;0,633984;0,696951;0,629225;0,663535;0,674784;0,801220;0,801220;0,782589;0,635967;0,636126;0,679008;0,718412;0,597694;0,640153;0,859182;0,649908;0,721442;0,660048;0,636152;0,635538;0,620635;0,603895;0,637547;0,603278;0,724925;0,724925;0,603661;0,603800;0,583207;0,583318;0,592932;0,605008;0,605136;0,000000;0,000000;0,714593;0,606322;1,000000;0,725689;0,000000;0,000000;0,000000;0,000000;0,000000;0,000000;0,732035;0,732035;1,000000;0,000000;0,000000;0,000000;0,000000;0,000000;0,000000;0,000000;1,000000;0,644396;1,000000;0,651461;0,651530;0,684602;0,735938;0,729763;0,613724;0,587960;0,588039;0,649192;0,591137;0,591193;0,591249;0,653131;0,653198;0,729602;0,731891;
14;;;;;;;;;;;;;;1,000000;0,829293;0,830706;0,832051;0,833333;0,000000;0,000000;0,000000;0,000000;0,000000;0,000000;0,000000;0,000000;0,000000;0,000000;0,000000;0,000000;0,000000;0,000000;0,000000;0,000000;0,000000;0,000000;0,000000;0,000000;0,000000;0,000000;0,000000;0,000000;0,000000;0,000000;0,000000;0,000000;0,000000;0,000000;0,000000;0,000000;0,000000;0,000000;0,000000;0,000000;0,000000;0,000000;0,000000;0,000000;0,000000;0,000000;0,000000;0,000000;0,000000;0,000000;0,000000;0,000000;0,000000;0,000000;0,000000;0,000000;0,000000;0,000000;0,000000;0,000000;0,000000;0,000000;0,000000;0,000000;0,000000;0,000000;0,000000;0,000000;0,000000;0,000000;0,000000;0,000000;0,000000;0,000000;0,000000;0,000000;0,000000;0,000000;0,000000;0,000000;0,000000;0,000000;0,000000;0,000000;0,000000;0,000000;0,000000;0,000000;0,000000;0,000000;0,000000;0,000000;0,000000;0,000000;0,000000;0,000000;0,000000;0,000000;
15;;;;;;;;;;;;;;;1,000000;0,832051;0,833333;0,834557;0,000000;0,000000;0,000000;0,000000;0,000000;0,000000;0,000000;0,000000;0,000000;0,000000;0,000000;0,000000;0,000000;0,000000;0,000000;0,000000;0,000000;0,000000;0,000000;0,000000;0,000000;0,000000;0,000000;0,000000;0,000000;0,000000;0,000000;0,000000;0,000000;0,000000;0,000000;0,000000;0,000000;0,000000;0,000000;0,000000;0,000000;0,000000;0,000000;0,000000;0,000000;0,000000;0,000000;0,000000;0,000000;0,000000;0,000000;0,000000;0,000000;0,000000;0,000000;0,000000;0,000000;0,000000;0,000000;0,000000;0,000000;0,000000;0,000000;0,000000;0,000000;0,000000;0,000000;0,000000;0,000000;0,000000;0,000000;0,000000;0,000000;0,000000;0,000000;0,000000;0,000000;0,000000;0,000000;0,000000;0,000000;0,000000;0,000000;0,000000;0,000000;0,000000;0,000000;0,000000;0,000000;0,000000;0,000000;0,000000;0,000000;0,000000;0,000000;0,000000;0,000000;0,000000;
16;;;;;;;;;;;;;;;;1,000000;0,834557;0,835728;0,000000;0,000000;0,000000;0,000000;0,000000;0,000000;0,000000;0,000000;0,000000;0,000000;0,000000;0,000000;0,000000;0,000000;0,000000;0,000000;0,000000;0,000000;0,000000;0,000000;0,000000;0,000000;0,000000;0,000000;0,000000;0,000000;0,000000;0,000000;0,000000;0,000000;0,000000;0,000000;0,000000;0,000000;0,000000;0,000000;0,000000;0,000000;0,000000;0,000000;0,000000;0,000000;0,000000;0,000000;0,000000;0,000000;0,000000;0,000000;0,000000;0,000000;0,000000;0,000000;0,000000;0,000000;0,000000;0,000000;0,000000;0,000000;0,000000;0,000000;0,000000;0,000000;0,000000;0,000000;0,000000;0,000000;0,000000;0,000000;0,000000;0,000000;0,000000;0,000000;0,000000;0,000000;0,000000;0,000000;0,000000;0,000000;0,000000;0,000000;0,000000;0,000000;0,000000;0,000000;0,000000;0,000000;0,000000;0,000000;0,000000;0,000000;0,000000;0,000000;0,000000;0,000000;
17;;;;;;;;;;;;;;;;;1,000000;0,836849;0,000000;0,000000;0,000000;0,000000;0,000000;0,000000;0,000000;0,000000;0,000000;0,000000;0,000000;0,000000;0,000000;0,000000;0,000000;0,000000;0,000000;0,000000;0,000000;0,000000;0,000000;0,000000;0,000000;0,000000;0,000000;0,000000;0,000000;0,000000;0,000000;0,000000;0,000000;0,000000;0,000000;0,000000;0,000000;0,000000;0,000000;0,000000;0,000000;0,000000;0,000000;0,000000;0,000000;0,000000;0,000000;0,000000;0,000000;0,000000;0,000000;0,000000;0,000000;0,000000;0,000000;0,000000;0,000000;0,000000;0,000000;0,000000;0,000000;0,000000;0,000000;0,000000;0,000000;0,000000;0,000000;0,000000;0,000000;0,000000;0,000000;0,000000;0,000000;0,000000;0,000000;0,000000;0,000000;0,000000;0,000000;0,000000;0,000000;0,000000;0,000000;0,000000;0,000000;0,000000;0,000000;0,000000;0,000000;0,000000;0,000000;0,000000;0,000000;0,000000;0,000000;0,000000;
18;;;;;;;;;;;;;;;;;;1,000000;0,000000;0,000000;0,000000;0,000000;0,000000;0,000000;0,000000;0,000000;0,000000;0,000000;0,000000;0,000000;0,000000;0,000000;0,000000;0,000000;0,000000;0,000000;0,000000;0,000000;0,000000;0,000000;0,000000;0,000000;0,000000;0,000000;0,000000;0,000000;0,000000;0,000000;0,000000;0,000000;0,000000;0,000000;0,000000;0,000000;0,000000;0,000000;0,000000;0,000000;0,000000;0,000000;0,000000;0,000000;0,000000;0,000000;0,000000;0,000000;0,000000;0,000000;0,000000;0,000000;0,000000;0,000000;0,000000;0,000000;0,000000;0,000000;0,000000;0,000000;0,000000;0,000000;0,000000;0,000000;0,000000;0,000000;0,000000;0,000000;0,000000;0,000000;0,000000;0,000000;0,000000;0,000000;0,000000;0,000000;0,000000;0,000000;0,000000;0,000000;0,000000;0,000000;0,000000;0,000000;0,000000;0,000000;0,000000;0,000000;0,000000;0,000000;0,000000;0,000000;0,000000;0,000000;
19;;;;;;;;;;;;;;;;;;;1,000000;0,639908;0,804907;0,636401;0,000000;0,149955;0,000000;0,270623;0,000000;0,000000;0,000000;0,000000;0,157150;0,000000;0,000000;0,000000;0,000000;1,000000;0,000000;0,000000;0,000000;0,000000;0,000000;0,000000;0,000000;0,000000;0,000000;0,000000;0,000000;0,000000;0,000000;0,000000;0,231704;0,118690;0,000000;0,000000;0,000000;0,000000;0,000000;0,277011;0,000000;0,000000;0,000000;0,000000;0,000000;0,000000;0,000000;0,000000;0,000000;0,000000;0,000000;0,000000;0,000000;0,000000;0,000000;0,000000;0,000000;0,000000;0,000000;0,000000;0,000000;0,000000;0,000000;0,000000;0,000000;0,000000;0,000000;0,000000;0,000000;0,000000;0,000000;0,000000;0,000000;0,000000;0,000000;0,000000;0,000000;0,000000;0,000000;0,000000;0,000000;0,000000;0,000000;0,000000;0,000000;0,000000;0,000000;0,000000;0,000000;0,000000;0,000000;0,000000;0,000000;0,000000;
20;;;;;;;;;;;;;;;;;;;;1,000000;0,656954;0,774379;0,410589;0,454849;0,411177;0,527444;0,355479;0,164473;0,164672;0,164877;0,427418;0,256086;0,323147;0,224588;0,225514;0,647020;0,170748;0,170895;0,171046;0,588257;0,403889;0,367970;0,311681;0,338282;0,338282;0,319651;0,173029;0,173188;0,216070;0,255474;0,526383;0,340319;0,396244;0,186970;0,258504;0,197110;0,173214;0,628785;0,157698;0,140957;0,413544;0,330335;0,261987;0,261987;0,330538;0,330640;0,281690;0,281812;0,304312;0,332628;0,332718;0,000000;0,000000;0,251655;0,143384;0,537062;0,262751;0,000000;0,000000;0,000000;0,000000;0,000000;0,000000;0,269097;0,269097;0,537062;0,000000;0,000000;0,000000;0,000000;0,000000;0,000000;0,000000;0,537062;0,181458;0,537062;0,188523;0,188593;0,221664;0,273001;0,266825;0,150787;0,125022;0,125101;0,186254;0,128199;0,128255;0,128311;0,190193;0,190260;0,266664;0,268953;
21;;;;;;;;;;;;;;;;;;;;;1,000000;0,652223;0,000000;0,152042;0,000000;0,274227;0,000000;0,000000;0,000000;0,000000;0,159237;0,000000;0,000000;0,000000;0,000000;0,812001;0,000000;0,000000;0,000000;0,000000;0,000000;0,000000;0,000000;0,000000;0,000000;0,000000;0,000000;0,000000;0,000000;0,000000;0,233742;0,120728;0,000000;0,000000;0,000000;0,000000;0,000000;0,279049;0,000000;0,000000;0,000000;0,000000;0,000000;0,000000;0,000000;0,000000;0,000000;0,000000;0,000000;0,000000;0,000000;0,000000;0,000000;0,000000;0,000000;0,000000;0,000000;0,000000;0,000000;0,000000;0,000000;0,000000;0,000000;0,000000;0,000000;0,000000;0,000000;0,000000;0,000000;0,000000;0,000000;0,000000;0,000000;0,000000;0,000000;0,000000;0,000000;0,000000;0,000000;0,000000;0,000000;0,000000;0,000000;0,000000;0,000000;0,000000;0,000000;0,000000;0,000000;0,000000;0,000000;0,000000;
22;;;;;;;;;;;;;;;;;;;;;;1,000000;0,268730;0,473064;0,269544;0,427424;0,250541;0,176654;0,176852;0,177057;0,444816;0,144718;0,140412;0,236769;0,237695;0,643052;0,182929;0,183076;0,183226;0,594561;0,410194;0,374275;0,317986;0,350463;0,350463;0,331832;0,185210;0,185368;0,228250;0,267655;0,487165;0,338729;0,408424;0,199150;0,270685;0,209290;0,185395;0,416255;0,169878;0,153137;0,419849;0,336640;0,274168;0,274168;0,336843;0,336944;0,287995;0,288117;0,310617;0,338932;0,339023;0,000000;0,000000;0,263835;0,326514;0,549243;0,274932;0,000000;0,000000;0,000000;0,000000;0,000000;0,000000;0,281278;0,281278;0,549243;0,000000;0,000000;0,000000;0,000000;0,000000;0,000000;0,000000;0,549243;0,406411;0,549243;0,200703;0,200773;0,380089;0,285181;0,279005;0,266959;0,283450;0,283575;0,198435;0,140379;0,140436;0,140492;0,422554;0,422554;0,278845;0,281134;
23;;;;;;;;;;;;;;;;;;;;;;;1,000000;0,725767;0,819172;0,698279;0,746021;0,197777;0,197976;0,198181;0,521266;0,165842;0,161535;0,257893;0,258819;0,000000;0,204052;0,204200;0,204350;0,267317;0,199592;0,233901;0,245151;0,371586;0,371586;0,352955;0,556367;0,556367;0,249374;0,288779;0,168060;0,210520;0,429548;0,220274;0,291808;0,230414;0,206518;0,528289;0,191002;0,174261;0,207914;0,173645;0,295292;0,295292;0,174028;0,174166;0,153573;0,153685;0,163298;0,175374;0,175502;0,000000;0,000000;0,284959;0,176689;0,570367;0,296055;0,000000;0,000000;0,000000;0,000000;0,000000;0,000000;0,302401;0,302401;0,570367;0,000000;0,000000;0,000000;0,000000;0,000000;0,000000;0,000000;0,570367;0,214763;0,570367;0,221827;0,221897;0,254969;0,306305;0,300129;0,184091;0,158327;0,158405;0,219559;0,161503;0,161559;0,161616;0,223497;0,223564;0,299968;0,302257;
24;;;;;;;;;;;;;;;;;;;;;;;;1,000000;0,726831;0,773573;0,655097;0,197022;0,197221;0,197426;0,559187;0,318081;0,385143;0,257137;0,258063;0,160025;0,203297;0,203444;0,203595;0,618146;0,433778;0,397859;0,341570;0,370831;0,370831;0,352200;0,491354;0,491354;0,248619;0,288023;0,349618;0,281858;0,428793;0,219519;0,291053;0,229659;0,205763;0,526128;0,190247;0,173506;0,443433;0,360224;0,294536;0,294536;0,360427;0,360528;0,311579;0,311701;0,334201;0,362516;0,362607;0,000000;0,000000;0,284204;0,175933;0,569611;0,295300;0,000000;0,000000;0,000000;0,000000;0,000000;0,000000;0,301646;0,301646;0,569611;0,000000;0,000000;0,000000;0,000000;0,000000;0,000000;0,000000;0,569611;0,214007;0,569611;0,221072;0,221142;0,254213;0,305550;0,299374;0,183336;0,157571;0,157650;0,218803;0,160748;0,160804;0,160860;0,222742;0,222809;0,299213;0,301502;
25;;;;;;;;;;;;;;;;;;;;;;;;;1,000000;0,699191;0,747119;0,198246;0,198445;0,198650;0,521854;0,166310;0,162004;0,258361;0,259287;0,000000;0,204521;0,204668;0,204819;0,267786;0,200060;0,234370;0,245619;0,372055;0,372055;0,353424;0,557210;0,557210;0,249843;0,289247;0,168529;0,210989;0,430017;0,220743;0,292277;0,230883;0,206987;0,529103;0,191470;0,174730;0,208382;0,174113;0,295760;0,295760;0,174496;0,174635;0,154042;0,154153;0,163767;0,175843;0,175971;0,000000;0,000000;0,285428;0,177157;0,570835;0,296524;0,000000;0,000000;0,000000;0,000000;0,000000;0,000000;0,302870;0,302870;0,570835;0,000000;0,000000;0,000000;0,000000;0,000000;0,000000;0,000000;0,570835;0,215231;0,570835;0,222296;0,222365;0,255437;0,306773;0,300598;0,184559;0,158795;0,158874;0,220027;0,161972;0,162028;0,162084;0,223966;0,224033;0,300437;0,302726;
26;;;;;;;;;;;;;;;;;;;;;;;;;;1,000000;0,627175;0,210173;0,210372;0,210577;0,532913;0,317476;0,384538;0,270288;0,271214;0,286646;0,216448;0,216595;0,216746;0,621095;0,436727;0,400809;0,344519;0,383982;0,383982;0,365351;0,490264;0,490264;0,261770;0,301174;0,542229;0,356165;0,441944;0,232670;0,304204;0,242810;0,218914;0,456992;0,203397;0,186657;0,446383;0,363174;0,307687;0,307687;0,363377;0,363478;0,314529;0,314651;0,337151;0,365466;0,365557;0,000000;0,000000;0,297355;0,189084;0,582762;0,308451;0,000000;0,000000;0,000000;0,000000;0,000000;0,000000;0,314797;0,314797;0,582762;0,000000;0,000000;0,000000;0,000000;0,000000;0,000000;0,000000;0,582762;0,227158;0,582762;0,234223;0,234293;0,267364;0,318700;0,312525;0,196487;0,170722;0,170801;0,231954;0,173899;0,173955;0,174011;0,235893;0,235960;0,312364;0,314653;
27;;;;;;;;;;;;;;;;;;;;;;;;;;;1,000000;0,220337;0,220536;0,220741;0,466156;0,188402;0,184095;0,280453;0,281379;0,000000;0,226612;0,226760;0,226910;0,289877;0,222152;0,256461;0,267711;0,394146;0,394146;0,375516;0,587884;0,588240;0,271934;0,311339;0,190620;0,233080;0,452108;0,242834;0,314368;0,252974;0,229078;0,510099;0,213562;0,196821;0,230474;0,196205;0,317852;0,317852;0,196588;0,196726;0,176134;0,176245;0,185858;0,197934;0,198062;0,000000;0,000000;0,307519;0,199249;0,592927;0,318615;0,000000;0,000000;0,000000;0,000000;0,000000;0,000000;0,324961;0,324961;0,592927;0,000000;0,000000;0,000000;0,000000;0,000000;0,000000;0,000000;0,592927;0,237323;0,592927;0,244387;0,244457;0,277529;0,328865;0,322689;0,206651;0,180887;0,180965;0,242119;0,184063;0,184119;0,184176;0,246058;0,246124;0,322528;0,324817;
28;;;;;;;;;;;;;;;;;;;;;;;;;;;;1,000000;0,746124;0,746936;0,206778;0,222886;0,218580;0,314937;0,315863;0,000000;0,261097;0,261244;0,261395;0,324361;0,256636;0,290946;0,302195;0,428631;0,428631;0,410000;0,263378;0,263536;0,306419;0,345823;0,225104;0,267564;0,486593;0,277319;0,348853;0,287459;0,263563;0,262949;0,248046;0,231305;0,264958;0,230689;0,352336;0,352336;0,231072;0,231211;0,210618;0,210729;0,220343;0,232419;0,232547;0,000000;0,000000;0,342004;0,233733;0,627411;0,353100;0,000000;0,000000;0,000000;0,000000;0,000000;0,000000;0,359446;0,359446;0,627411;0,000000;0,000000;0,000000;0,000000;0,000000;0,000000;0,000000;0,627411;0,271807;0,627411;0,278871;0,278941;0,312013;0,363349;0,357174;0,241135;0,215371;0,215450;0,276603;0,218548;0,218604;0,218660;0,280542;0,280608;0,357013;0,359302;
29;;;;;;;;;;;;;;;;;;;;;;;;;;;;;1,000000;0,747729;0,206977;0,223085;0,218779;0,315136;0,316062;0,000000;0,261296;0,261443;0,261594;0,324560;0,256835;0,291145;0,302394;0,428830;0,428830;0,410199;0,263577;0,263735;0,306618;0,346022;0,225303;0,267763;0,486792;0,277517;0,349052;0,287658;0,263762;0,263148;0,248245;0,231504;0,265157;0,230888;0,352535;0,352535;0,231271;0,231410;0,210817;0,210928;0,220542;0,232618;0,232745;0,000000;0,000000;0,342203;0,233932;0,627610;0,353299;0,000000;0,000000;0,000000;0,000000;0,000000;0,000000;0,359645;0,359645;0,627610;0,000000;0,000000;0,000000;0,000000;0,000000;0,000000;0,000000;0,627610;0,272006;0,627610;0,279070;0,279140;0,312212;0,363548;0,357372;0,241334;0,215570;0,215649;0,276802;0,218746;0,218803;0,218859;0,280741;0,280807;0,357212;0,359501;
30;;;;;;;;;;;;;;;;;;;;;;;;;;;;;;1,000000;0,207182;0,223290;0,218983;0,315341;0,316267;0,000000;0,261500;0,261648;0,261798;0,324765;0,257040;0,291349;0,302599;0,429034;0,429034;0,410404;0,263782;0,263940;0,306822;0,346227;0,225508;0,267968;0,486996;0,277722;0,349256;0,287862;0,263966;0,263353;0,248450;0,231709;0,265362;0,231093;0,352740;0,352740;0,231476;0,231614;0,211022;0,211133;0,220746;0,232823;0,232950;0,000000;0,000000;0,342407;0,234137;0,627815;0,353503;0,000000;0,000000;0,000000;0,000000;0,000000;0,000000;0,359849;0,359849;0,627815;0,000000;0,000000;0,000000;0,000000;0,000000;0,000000;0,000000;0,627815;0,272211;0,627815;0,279275;0,279345;0,312417;0,363753;0,357577;0,241539;0,215775;0,215853;0,277007;0,218951;0,219007;0,219064;0,280946;0,281012;0,357416;0,359705;
31;;;;;;;;;;;;;;;;;;;;;;;;;;;;;;;1,000000;0,511378;0,609592;0,266893;0,267819;0,167220;0,213053;0,213200;0,213351;0,634227;0,449860;0,413941;0,357651;0,380587;0,380587;0,361956;0,215334;0,215493;0,397289;0,297779;0,365700;0,297940;0,438549;0,229275;0,300809;0,239415;0,215519;0,485301;0,382412;0,433561;0,459515;0,376306;0,304292;0,304292;0,376509;0,376610;0,327661;0,327783;0,350283;0,378598;0,378689;0,000000;0,000000;0,293960;0,185689;0,579367;0,305056;0,000000;0,000000;0,000000;0,000000;0,000000;0,000000;0,311402;0,311402;0,579367;0,000000;0,000000;0,000000;0,000000;0,000000;0,000000;0,000000;0,579367;0,223763;0,579367;0,230828;0,230898;0,263969;0,315305;0,309130;0,193091;0,167327;0,167406;0,228559;0,170504;0,170560;0,170616;0,232498;0,232565;0,308969;0,311258;
32;;;;;;;;;;;;;;;;;;;;;;;;;;;;;;;;1,000000;0,647731;0,283002;0,283927;0,000000;0,229161;0,229309;0,229459;0,292426;0,224701;0,259010;0,406805;0,396695;0,396695;0,378064;0,231443;0,231601;0,626323;0,675803;0,193169;0,235629;0,454657;0,245383;0,316917;0,255523;0,231627;0,231013;0,654392;0,654167;0,233023;0,198754;0,320401;0,320401;0,199137;0,199275;0,178682;0,178793;0,188407;0,200483;0,200611;0,000000;0,000000;0,310068;0,201798;0,595475;0,756218;0,000000;0,000000;0,000000;0,000000;0,000000;0,000000;0,327510;0,327510;0,595475;0,000000;0,000000;0,000000;0,000000;0,000000;0,000000;0,000000;0,595475;0,239872;0,595475;0,246936;0,247006;0,280078;0,331414;0,325238;0,209200;0,183436;0,183514;0,244668;0,186612;0,186668;0,186724;0,248606;0,248673;0,325077;0,327366;
33;;;;;;;;;;;;;;;;;;;;;;;;;;;;;;;;;1,000000;0,278695;0,279621;0,000000;0,224855;0,225002;0,225153;0,288119;0,220394;0,254704;0,265953;0,392389;0,392389;0,373758;0,227136;0,227294;0,494735;0,309581;0,188862;0,231322;0,450351;0,241077;0,312611;0,251217;0,227321;0,226707;0,479858;0,531007;0,228716;0,194447;0,316094;0,316094;0,194830;0,194969;0,174376;0,174487;0,184101;0,196177;0,196305;0,000000;0,000000;0,305762;0,197491;0,591169;0,316858;0,000000;0,000000;0,000000;0,000000;0,000000;0,000000;0,323204;0,323204;0,591169;0,000000;0,000000;0,000000;0,000000;0,000000;0,000000;0,000000;0,591169;0,235565;0,591169;0,242629;0,242699;0,275771;0,327107;0,320932;0,204893;0,179129;0,179208;0,240361;0,182306;0,182362;0,182418;0,244300;0,244366;0,320771;0,323060;
34;;;;;;;;;;;;;;;;;;;;;;;;;;;;;;;;;;1,000000;1,000000;0,000000;0,321212;0,321359;0,321510;0,384477;0,316752;0,351061;0,362311;0,488746;0,488746;1,000000;0,323493;0,323652;0,366534;0,405938;0,285220;0,327680;0,546708;0,337434;0,408968;0,347574;0,323678;0,323064;0,308162;0,291421;0,325074;0,290804;0,412451;0,412451;0,291188;0,291326;0,270733;0,270844;0,280458;0,292534;0,292662;0,548921;0,548921;0,402119;0,293848;0,687526;0,413215;0,000000;0,000000;0,000000;0,000000;0,000000;0,000000;0,419561;0,419561;0,687526;0,000000;0,000000;0,000000;0,000000;0,000000;0,000000;0,000000;0,687526;0,331922;0,687526;0,338987;0,339057;0,372128;0,423465;0,417289;0,301251;0,275486;0,275565;0,336718;0,278663;0,278719;0,278775;0,340657;0,340724;0,417128;0,419417;
35;;;;;;;;;;;;;;;;;;;;;;;;;;;;;;;;;;;1,000000;0,000000;0,322138;0,322285;0,322436;0,385403;0,317677;0,351987;0,363236;0,489672;0,489672;1,000000;0,324419;0,324578;0,367460;0,406864;0,286146;0,328606;0,547634;0,338360;0,409894;0,348500;0,324604;0,323990;0,309087;0,292347;0,325999;0,291730;0,413377;0,413377;0,292113;0,292252;0,271659;0,271770;0,281384;0,293460;0,293588;0,549873;0,549873;0,403045;0,294774;0,688452;0,414141;0,000000;0,000000;0,000000;0,000000;0,000000;0,000000;0,420487;0,420487;0,688452;0,000000;0,000000;0,000000;0,000000;0,000000;0,000000;0,000000;0,688452;0,332848;0,688452;0,339913;0,339982;0,373054;0,424390;0,418215;0,302176;0,276412;0,276491;0,337644;0,279589;0,279645;0,279701;0,341583;0,341650;0,418054;0,420343;
36;;;;;;;;;;;;;;;;;;;;;;;;;;;;;;;;;;;;1,000000;0,000000;0,000000;0,000000;0,000000;0,000000;0,000000;0,000000;0,000000;0,000000;0,000000;0,000000;0,000000;0,000000;0,000000;0,241576;0,128563;0,000000;0,000000;0,000000;0,000000;0,000000;0,286884;0,000000;0,000000;0,000000;0,000000;0,000000;0,000000;0,000000;0,000000;0,000000;0,000000;0,000000;0,000000;0,000000;0,000000;0,000000;0,000000;0,000000;0,000000;0,000000;0,000000;0,000000;0,000000;0,000000;0,000000;0,000000;0,000000;0,000000;0,000000;0,000000;0,000000;0,000000;0,000000;0,000000;0,000000;0,000000;0,000000;0,000000;0,000000;0,000000;0,000000;0,000000;0,000000;0,000000;0,000000;0,000000;0,000000;0,000000;0,000000;0,000000;0,000000;0,000000;0,000000;0,000000;0,000000;
37;;;;;;;;;;;;;;;;;;;;;;;;;;;;;;;;;;;;;1,000000;0,758362;0,758923;0,330636;0,262911;0,297221;0,308470;0,434906;0,434906;0,416275;0,269653;0,269811;0,312694;0,352098;0,231379;0,273839;0,492868;0,283594;0,355128;0,293734;0,269838;0,269224;0,254321;0,237580;0,271233;0,236964;0,358611;0,358611;0,237347;0,237486;0,216893;0,217004;0,226618;0,238694;0,238821;0,000000;0,000000;0,348279;0,240008;0,633686;0,359375;0,000000;0,000000;0,000000;0,000000;0,000000;0,000000;0,365721;0,365721;0,633686;0,000000;0,000000;0,000000;0,000000;0,000000;0,000000;0,000000;0,633686;0,278082;0,633686;0,285146;0,285216;0,318288;0,369624;0,363449;0,247410;0,221646;0,221725;0,282878;0,224823;0,224879;0,224935;0,286817;0,286883;0,363288;0,365577;
38;;;;;;;;;;;;;;;;;;;;;;;;;;;;;;;;;;;;;;1,000000;0,759474;0,330784;0,263059;0,297368;0,308618;0,435053;0,435053;0,416422;0,269800;0,269959;0,312841;0,352245;0,231527;0,273987;0,493015;0,283741;0,355275;0,293881;0,269985;0,269371;0,254469;0,237728;0,271381;0,237111;0,358758;0,358758;0,237495;0,237633;0,217040;0,217151;0,226765;0,238841;0,238969;0,000000;0,000000;0,348426;0,240155;0,633833;0,359522;0,000000;0,000000;0,000000;0,000000;0,000000;0,000000;0,365868;0,365868;0,633833;0,000000;0,000000;0,000000;0,000000;0,000000;0,000000;0,000000;0,633833;0,278229;0,633833;0,285294;0,285364;0,318435;0,369772;0,363596;0,247558;0,221793;0,221872;0,283025;0,224970;0,225026;0,225082;0,286964;0,287031;0,363435;0,365724;
39;;;;;;;;;;;;;;;;;;;;;;;;;;;;;;;;;;;;;;;1,000000;0,330934;0,263209;0,297518;0,308768;0,435204;0,435204;0,416573;0,269951;0,270109;0,312991;0,352396;0,231677;0,274137;0,493165;0,283891;0,355426;0,294031;0,270136;0,269522;0,254619;0,237878;0,271531;0,237262;0,358909;0,358909;0,237645;0,237784;0,217191;0,217302;0,226916;0,238992;0,239119;0,000000;0,000000;0,348577;0,240306;0,633984;0,359673;0,000000;0,000000;0,000000;0,000000;0,000000;0,000000;0,366019;0,366019;0,633984;0,000000;0,000000;0,000000;0,000000;0,000000;0,000000;0,000000;0,633984;0,278380;0,633984;0,285444;0,285514;0,318586;0,369922;0,363746;0,247708;0,221944;0,222023;0,283176;0,225120;0,225177;0,225233;0,287115;0,287181;0,363586;0,365875;
40;;;;;;;;;;;;;;;;;;;;;;;;;;;;;;;;;;;;;;;;1,000000;0,815632;0,779713;0,723424;0,498170;0,498170;0,479539;0,332918;0,333076;0,375958;0,415363;0,731473;0,663712;0,556132;0,346858;0,418392;0,356998;0,333102;0,332489;0,317586;0,300845;0,825287;0,742078;0,421876;0,421876;0,742282;0,742383;0,693434;0,693555;0,716056;0,744371;0,744462;0,000000;0,000000;0,411543;0,303273;0,696951;0,422639;0,000000;0,000000;0,000000;0,000000;0,000000;0,000000;0,428985;0,428985;0,696951;0,000000;0,000000;0,000000;0,000000;0,000000;0,000000;0,000000;0,696951;0,341347;0,696951;0,348411;0,348481;0,381553;0,432889;0,426713;0,310675;0,284911;0,284989;0,346143;0,288087;0,288143;0,288200;0,350081;0,350148;0,426552;0,428841;
41;;;;;;;;;;;;;;;;;;;;;;;;;;;;;;;;;;;;;;;;;1,000000;0,815800;0,748733;0,430445;0,430445;0,411814;0,265193;0,265351;0,470121;0,347638;0,547105;0,479345;0,488407;0,279133;0,350667;0,437281;0,265377;0,264763;0,249861;0,233120;0,640920;0,557710;0,354150;0,354150;0,557914;0,558015;0,509066;0,509188;0,531688;0,560003;0,560094;0,000000;0,000000;0,343818;0,235548;0,629225;0,354914;0,000000;0,000000;0,000000;0,000000;0,000000;0,000000;0,361260;0,361260;0,629225;0,000000;0,000000;0,000000;0,000000;0,000000;0,000000;0,000000;0,629225;0,273622;0,629225;0,280686;0,280756;0,313827;0,365164;0,358988;0,242950;0,217185;0,217264;0,589101;0,220362;0,220418;0,220474;0,282356;0,282423;0,737458;0,361116;
42;;;;;;;;;;;;;;;;;;;;;;;;;;;;;;;;;;;;;;;;;;1,000000;0,636727;0,464755;0,464755;0,446124;0,299502;0,299660;0,527101;0,381947;0,511186;0,443426;0,522716;0,313442;0,384977;0,494261;0,299687;0,299073;0,284170;0,267429;0,605001;0,521792;0,388460;0,388460;0,521995;0,522096;0,473147;0,473269;0,495769;0,524084;0,524175;0,000000;0,000000;0,378128;0,269857;0,663535;0,389224;0,000000;0,000000;0,000000;0,000000;0,000000;0,000000;0,395570;0,395570;0,663535;0,000000;0,000000;0,000000;0,000000;0,000000;0,000000;0,000000;0,663535;0,307931;0,663535;0,314995;0,315065;0,348137;0,399473;0,393297;0,277259;0,251495;0,251574;0,646081;0,254671;0,254728;0,254784;0,316666;0,316732;0,393137;0,395426;
43;;;;;;;;;;;;;;;;;;;;;;;;;;;;;;;;;;;;;;;;;;;1,000000;0,476004;0,476004;0,457373;0,310752;0,310910;0,353792;0,731001;0,454897;0,387137;0,533966;0,324692;0,727846;0,475672;0,555972;0,310322;0,532897;0,495517;0,548712;0,465502;0,399710;0,399710;0,465706;0,465807;0,416858;0,416980;0,439480;0,467795;0,467886;0,000000;0,000000;0,389377;0,281107;0,674784;0,612075;0,000000;0,000000;0,000000;0,000000;0,000000;0,000000;0,406819;0,406819;0,674784;0,000000;0,000000;0,000000;0,000000;0,000000;0,000000;0,000000;0,674784;0,319181;0,674784;0,581285;0,581285;0,359386;0,410723;0,404547;0,288509;0,262744;0,262823;0,575658;0,265921;0,265977;0,266033;0,327915;0,327982;0,787180;0,727846;
44;;;;;;;;;;;;;;;;;;;;;;;;;;;;;;;;;;;;;;;;;;;;1,000000;0,602440;0,583809;0,437187;0,437345;0,480228;0,519632;0,398913;0,441373;0,660402;0,451127;0,522662;0,461268;0,437372;0,436758;0,421855;0,405114;0,438767;0,404498;0,526145;0,526145;0,404881;0,405020;0,384427;0,384538;0,394152;0,406228;0,406355;0,000000;0,000000;0,515813;0,407542;0,801220;0,526909;0,000000;0,000000;0,000000;0,000000;0,000000;0,000000;0,533255;0,533255;0,801220;0,000000;0,000000;0,000000;0,000000;0,000000;0,000000;0,000000;0,801220;0,445616;0,801220;0,452680;0,452750;0,485822;0,537158;0,530983;0,414944;0,389180;0,389259;0,450412;0,392356;0,392413;0,392469;0,454351;0,454417;0,530822;0,533111;
45;;;;;;;;;;;;;;;;;;;;;;;;;;;;;;;;;;;;;;;;;;;;;1,000000;0,583809;0,437187;0,437345;0,480228;0,519632;0,398913;0,441373;0,660402;0,451127;0,522662;0,461268;0,437372;0,436758;0,421855;0,405114;0,438767;0,404498;0,526145;0,526145;0,404881;0,405020;0,384427;0,384538;0,394152;0,406228;0,406355;0,000000;0,000000;0,515813;0,407542;0,801220;0,526909;0,000000;0,000000;0,000000;0,000000;0,000000;0,000000;0,533255;0,533255;0,801220;0,000000;0,000000;0,000000;0,000000;0,000000;0,000000;0,000000;0,801220;0,445616;0,801220;0,452680;0,452750;0,485822;0,537158;0,530983;0,414944;0,389180;0,389259;0,450412;0,392356;0,392413;0,392469;0,454351;0,454417;0,530822;0,533111;
46;;;;;;;;;;;;;;;;;;;;;;;;;;;;;;;;;;;;;;;;;;;;;;1,000000;0,418556;0,418715;0,461597;0,501001;0,380282;0,422742;0,641771;0,432497;0,504031;0,442637;0,418741;0,418127;0,403224;0,386483;0,420136;0,385867;0,507514;0,507514;0,386250;0,386389;0,365796;0,365907;0,375521;0,387597;0,387725;0,473922;0,473922;0,497182;0,388911;0,782589;0,508278;0,000000;0,000000;0,000000;0,000000;0,000000;0,000000;0,514624;0,514624;0,782589;0,000000;0,000000;0,000000;0,000000;0,000000;0,000000;0,000000;0,782589;0,426985;0,782589;0,434050;0,434119;0,467191;0,518527;0,512352;0,396313;0,370549;0,370628;0,431781;0,373726;0,373782;0,373838;0,435720;0,435786;0,512191;0,514480;
47;;;;;;;;;;;;;;;;;;;;;;;;;;;;;;;;;;;;;;;;;;;;;;;1,000000;0,706843;0,314975;0,354379;0,233661;0,276121;0,495149;0,285875;0,357409;0,296015;0,272119;0,271505;0,256603;0,239862;0,273515;0,239245;0,360892;0,360892;0,239629;0,239767;0,219174;0,219285;0,228899;0,240975;0,241103;0,000000;0,000000;0,350560;0,242289;0,635967;0,361656;0,000000;0,000000;0,000000;0,000000;0,000000;0,000000;0,368002;0,368002;0,635967;0,000000;0,000000;0,000000;0,000000;0,000000;0,000000;0,000000;0,635967;0,280363;0,635967;0,287428;0,287498;0,320569;0,371905;0,365730;0,249692;0,223927;0,224006;0,285159;0,227104;0,227160;0,227216;0,289098;0,289165;0,365569;0,367858;
48;;;;;;;;;;;;;;;;;;;;;;;;;;;;;;;;;;;;;;;;;;;;;;;;1,000000;0,315133;0,354538;0,233819;0,276279;0,495307;0,286033;0,357567;0,296173;0,272277;0,271664;0,256761;0,240020;0,273673;0,239404;0,361051;0,361051;0,239787;0,239925;0,219333;0,219444;0,229058;0,241134;0,241261;0,000000;0,000000;0,350718;0,242448;0,636126;0,361814;0,000000;0,000000;0,000000;0,000000;0,000000;0,000000;0,368160;0,368160;0,636126;0,000000;0,000000;0,000000;0,000000;0,000000;0,000000;0,000000;0,636126;0,280522;0,636126;0,287586;0,287656;0,320728;0,372064;0,365888;0,249850;0,224086;0,224164;0,285318;0,227262;0,227318;0,227375;0,289257;0,289323;0,365728;0,368017;
49;;;;;;;;;;;;;;;;;;;;;;;;;;;;;;;;;;;;;;;;;;;;;;;;;1,000000;0,397420;0,276701;0,319161;0,538189;0,328915;0,400450;0,439901;0,315160;0,314546;0,754893;0,752785;0,316555;0,282286;0,403933;0,403933;0,282669;0,282808;0,262215;0,262326;0,271940;0,284016;0,284143;0,000000;0,000000;0,393601;0,285330;0,679008;0,685975;0,000000;0,000000;0,000000;0,000000;0,000000;0,000000;0,411043;0,411043;0,679008;0,000000;0,000000;0,000000;0,000000;0,000000;0,000000;0,000000;0,679008;0,323404;0,679008;0,330468;0,330538;0,363610;0,414946;0,408770;0,292732;0,266968;0,267047;0,591721;0,270144;0,270201;0,270257;0,332139;0,332205;0,408610;0,410899;
50;;;;;;;;;;;;;;;;;;;;;;;;;;;;;;;;;;;;;;;;;;;;;;;;;;1,000000;0,316106;0,358566;0,577594;0,368320;0,439854;0,378460;0,354564;0,353950;0,801896;0,764516;0,355960;0,321690;0,443337;0,443337;0,322074;0,322212;0,301619;0,301730;0,311344;0,323420;0,323548;0,000000;0,000000;0,433005;0,324734;0,718412;0,881074;0,000000;0,000000;0,000000;0,000000;0,000000;0,000000;0,450447;0,450447;0,718412;0,000000;0,000000;0,000000;0,000000;0,000000;0,000000;0,000000;0,718412;0,362808;0,718412;0,369873;0,369943;0,403014;0,454351;0,448175;0,332137;0,306372;0,306451;0,367604;0,309549;0,309605;0,309661;0,371543;0,371610;0,448014;0,450303;
51;;;;;;;;;;;;;;;;;;;;;;;;;;;;;;;;;;;;;;;;;;;;;;;;;;;1,000000;0,566997;0,456875;0,247601;0,319135;0,257741;0,233845;0,574311;0,218329;0,201588;0,556760;0,473551;0,322619;0,322619;0,473754;0,473856;0,424906;0,425028;0,447528;0,475843;0,475934;0,000000;0,000000;0,312286;0,488119;0,597694;0,323382;0,000000;0,000000;0,000000;0,000000;0,000000;0,000000;0,329728;0,329728;0,597694;0,000000;0,000000;0,000000;0,000000;0,000000;0,000000;0,000000;0,597694;0,568015;0,597694;0,249154;0,249224;0,541694;0,333632;0,327456;0,428563;0,445055;0,445180;0,246886;0,188830;0,188886;0,188943;0,584158;0,584158;0,327295;0,329584;
52;;;;;;;;;;;;;;;;;;;;;;;;;;;;;;;;;;;;;;;;;;;;;;;;;;;;1,000000;0,499335;0,442733;0,361595;0,449013;0,276305;0,497399;0,260789;0,244048;0,489000;0,405791;0,365079;0,365079;0,405994;0,406095;0,357146;0,357268;0,379768;0,408083;0,408174;0,000000;0,000000;0,354746;0,711168;0,640153;0,365842;0,000000;0,000000;0,000000;0,000000;0,000000;0,000000;0,372188;0,372188;0,640153;0,000000;0,000000;0,000000;0,000000;0,000000;0,000000;0,000000;0,640153;0,592215;0,640153;0,291614;0,291684;0,493144;0,676613;0,369916;0,399703;0,759459;0,759550;0,289346;0,412607;0,412695;0,412784;0,577725;0,577836;0,369755;0,372044;
53;;;;;;;;;;;;;;;;;;;;;;;;;;;;;;;;;;;;;;;;;;;;;;;;;;;;;1,000000;0,509089;0,580624;0,519229;0,495334;0,494720;0,479817;0,463076;0,496729;0,462460;0,584107;0,584107;0,462843;0,462982;0,442389;0,442500;0,452114;0,464190;0,464317;0,000000;0,000000;0,573775;0,465504;0,859182;0,584871;0,000000;0,000000;0,000000;0,000000;0,000000;0,000000;0,591217;0,591217;0,859182;0,000000;0,000000;0,000000;0,000000;0,000000;0,000000;0,000000;0,859182;0,503578;0,859182;0,510642;0,510712;0,543784;0,595120;0,588944;0,472906;0,447142;0,447221;0,508374;0,450318;0,450375;0,450431;0,512313;0,512379;0,588784;0,591073;
54;;;;;;;;;;;;;;;;;;;;;;;;;;;;;;;;;;;;;;;;;;;;;;;;;;;;;;1,000000;0,371349;0,309955;0,286060;0,285446;0,270543;0,253802;0,287455;0,253186;0,374833;0,374833;0,253569;0,253707;0,233115;0,233226;0,242840;0,254916;0,255043;0,000000;0,000000;0,364500;0,256230;0,649908;0,375597;0,000000;0,000000;0,000000;0,000000;0,000000;0,000000;0,381942;0,381942;0,649908;0,000000;0,000000;0,000000;0,000000;0,000000;0,000000;0,000000;0,649908;0,294304;0,649908;0,301368;0,301438;0,592268;0,385846;0,379670;0,814693;0,237868;0,237947;0,299100;0,882384;0,882511;0,882637;0,303039;0,303105;0,379510;0,381799;
55;;;;;;;;;;;;;;;;;;;;;;;;;;;;;;;;;;;;;;;;;;;;;;;;;;;;;;;1,000000;0,381490;0,828126;0,356980;0,342077;0,325336;0,358989;0,324720;0,446367;0,446367;0,325103;0,325242;0,304649;0,304760;0,314374;0,326450;0,326577;0,000000;0,000000;0,436035;0,327764;0,721442;0,447131;0,000000;0,000000;0,000000;0,000000;0,000000;0,000000;0,453477;0,453477;0,721442;0,000000;0,000000;0,000000;0,000000;0,000000;0,000000;0,000000;0,721442;0,365838;0,721442;0,853438;0,853438;0,406044;0,457380;0,451204;0,335166;0,309402;0,309481;0,847812;0,312578;0,312635;0,312691;0,374573;0,374639;0,451044;1,000000;
56;;;;;;;;;;;;;;;;;;;;;;;;;;;;;;;;;;;;;;;;;;;;;;;;;;;;;;;;1,000000;0,606926;0,295586;0,280683;0,263942;0,297595;0,263326;0,384973;0,384973;0,263709;0,263848;0,243255;0,243366;0,252980;0,265056;0,265183;0,000000;0,000000;0,374641;0,464407;0,660048;0,385737;0,000000;0,000000;0,000000;0,000000;0,000000;0,000000;0,392083;0,392083;0,660048;0,000000;0,000000;0,000000;0,000000;0,000000;0,000000;0,000000;0,660048;0,545686;0,660048;0,615538;0,615664;0,344650;0,395986;0,389810;0,273772;0,418215;0,418313;0,558881;0,251184;0,251241;0,251297;0,313179;0,313245;0,389650;0,391939;
57;;;;;;;;;;;;;;;;;;;;;;;;;;;;;;;;;;;;;;;;;;;;;;;;;;;;;;;;;1,000000;0,271690;0,256787;0,240046;0,273699;0,239430;0,361077;0,361077;0,239813;0,239952;0,219359;0,219470;0,229084;0,241160;0,241287;0,000000;0,000000;0,350745;0,242474;0,636152;0,361841;0,000000;0,000000;0,000000;0,000000;0,000000;0,000000;0,368187;0,368187;0,636152;0,000000;0,000000;0,000000;0,000000;0,000000;0,000000;0,000000;0,636152;0,280548;0,636152;0,681564;0,681564;0,320754;0,372090;0,365915;0,249876;0,224112;0,224191;0,675937;0,227288;0,227345;0,227401;0,289283;0,289349;0,365754;0,828126;
58;;;;;;;;;;;;;;;;;;;;;;;;;;;;;;;;;;;;;;;;;;;;;;;;;;;;;;;;;;1,000000;0,256173;0,239433;0,273085;0,238816;0,360463;0,360463;0,239199;0,239338;0,218745;0,218856;0,228470;0,240546;0,240674;0,000000;0,000000;0,350131;0,241860;0,635538;0,361227;0,000000;0,000000;0,000000;0,000000;0,000000;0,000000;0,367573;0,367573;0,635538;0,000000;0,000000;0,000000;0,000000;0,000000;0,000000;0,000000;0,635538;0,279934;0,635538;0,286999;0,287068;0,320140;0,371476;0,365301;0,249262;0,223498;0,223577;0,284730;0,226675;0,226731;0,226787;0,288669;0,288736;0,365140;0,367429;
59;;;;;;;;;;;;;;;;;;;;;;;;;;;;;;;;;;;;;;;;;;;;;;;;;;;;;;;;;;;1,000000;0,782085;0,258183;0,223914;0,345561;0,345561;0,224297;0,224435;0,203842;0,203953;0,213567;0,225643;0,225771;0,000000;0,000000;0,335228;0,226958;0,620635;0,682970;0,000000;0,000000;0,000000;0,000000;0,000000;0,000000;0,352670;0,352670;0,620635;0,000000;0,000000;0,000000;0,000000;0,000000;0,000000;0,000000;0,620635;0,265032;0,620635;0,272096;0,272166;0,305238;0,356574;0,350398;0,234360;0,208595;0,208674;0,269828;0,211772;0,211828;0,211884;0,273766;0,273833;0,350237;0,352526;
60;;;;;;;;;;;;;;;;;;;;;;;;;;;;;;;;;;;;;;;;;;;;;;;;;;;;;;;;;;;;1,000000;0,241442;0,207173;0,328820;0,328820;0,207556;0,207694;0,187101;0,187213;0,196826;0,208902;0,209030;0,000000;0,000000;0,318487;0,210217;0,603895;0,897949;0,000000;0,000000;0,000000;0,000000;0,000000;0,000000;0,335929;0,335929;0,603895;0,000000;0,000000;0,000000;0,000000;0,000000;0,000000;0,000000;0,603895;0,248291;0,603895;0,255355;0,255425;0,288497;0,339833;0,333657;0,217619;0,191855;0,191933;0,253087;0,195031;0,195087;0,195144;0,257025;0,257092;0,333496;0,335785;
61;;;;;;;;;;;;;;;;;;;;;;;;;;;;;;;;;;;;;;;;;;;;;;;;;;;;;;;;;;;;;1,000000;0,567366;0,362473;0,362473;0,886884;0,886884;0,816309;0,816396;0,786394;0,569658;0,569749;0,000000;0,000000;0,352140;0,243870;0,637547;0,363236;0,000000;0,000000;0,000000;0,000000;0,000000;0,000000;0,369582;0,369582;0,637547;0,000000;0,000000;0,000000;0,000000;0,000000;0,000000;0,000000;0,637547;0,281944;0,637547;0,289008;0,289078;0,322150;0,373486;0,367310;0,251272;0,225507;0,225586;0,286740;0,228684;0,228740;0,228796;0,290678;0,290745;0,367149;0,369438;
62;;;;;;;;;;;;;;;;;;;;;;;;;;;;;;;;;;;;;;;;;;;;;;;;;;;;;;;;;;;;;;1,000000;0,328203;0,328203;0,711082;0,711246;0,775789;0,775931;0,719990;0,688732;0,688732;0,000000;0,000000;0,317871;0,209600;0,603278;0,328967;0,000000;0,000000;0,000000;0,000000;0,000000;0,000000;0,335313;0,335313;0,603278;0,000000;0,000000;0,000000;0,000000;0,000000;0,000000;0,000000;0,603278;0,247674;0,603278;0,254739;0,254809;0,287880;0,339217;0,333041;0,217003;0,191238;0,191317;0,252470;0,194415;0,194471;0,194527;0,256409;0,256476;0,332880;0,335169;
63;;;;;;;;;;;;;;;;;;;;;;;;;;;;;;;;;;;;;;;;;;;;;;;;;;;;;;;;;;;;;;;1,000000;0,449850;0,328587;0,328725;0,308132;0,308243;0,317857;0,329933;0,330061;0,000000;0,000000;0,439518;0,331247;0,724925;0,450614;0,000000;0,000000;0,000000;0,000000;0,000000;0,000000;0,456960;0,456960;0,724925;0,000000;0,000000;0,000000;0,000000;0,000000;0,000000;0,000000;0,724925;0,369321;0,724925;0,376386;0,376456;0,409527;0,460863;0,454688;0,338650;0,312885;0,312964;0,374117;0,316062;0,316118;0,316174;0,378056;0,378123;0,454527;0,456816;
64;;;;;;;;;;;;;;;;;;;;;;;;;;;;;;;;;;;;;;;;;;;;;;;;;;;;;;;;;;;;;;;;1,000000;0,328587;0,328725;0,308132;0,308243;0,317857;0,329933;0,330061;0,000000;0,000000;0,439518;0,331247;0,724925;0,450614;0,000000;0,000000;0,000000;0,000000;0,000000;0,000000;0,456960;0,456960;0,724925;0,000000;0,000000;0,000000;0,000000;0,000000;0,000000;0,000000;0,724925;0,369321;0,724925;0,376386;0,376456;0,409527;0,460863;0,454688;0,338650;0,312885;0,312964;0,374117;0,316062;0,316118;0,316174;0,378056;0,378123;0,454527;0,456816;
65;;;;;;;;;;;;;;;;;;;;;;;;;;;;;;;;;;;;;;;;;;;;;;;;;;;;;;;;;;;;;;;;;1,000000;0,773768;0,703193;0,703280;0,673278;0,486652;0,486743;0,000000;0,000000;0,318254;0,209984;0,603661;0,329350;0,000000;0,000000;0,000000;0,000000;0,000000;0,000000;0,335696;0,335696;0,603661;0,000000;0,000000;0,000000;0,000000;0,000000;0,000000;0,000000;0,603661;0,248058;0,603661;0,255122;0,255192;0,288264;0,339600;0,333424;0,217386;0,191621;0,191700;0,252854;0,194798;0,194854;0,194910;0,256792;0,256859;0,333263;0,335552;
66;;;;;;;;;;;;;;;;;;;;;;;;;;;;;;;;;;;;;;;;;;;;;;;;;;;;;;;;;;;;;;;;;;1,000000;0,703193;0,703280;0,673278;0,486754;0,486844;0,000000;0,000000;0,318393;0,210122;0,603800;0,329489;0,000000;0,000000;0,000000;0,000000;0,000000;0,000000;0,335835;0,335835;0,603800;0,000000;0,000000;0,000000;0,000000;0,000000;0,000000;0,000000;0,603800;0,248196;0,603800;0,255260;0,255330;0,288402;0,339738;0,333562;0,217524;0,191760;0,191839;0,252992;0,194936;0,194993;0,195049;0,256931;0,256997;0,333402;0,335691;
67;;;;;;;;;;;;;;;;;;;;;;;;;;;;;;;;;;;;;;;;;;;;;;;;;;;;;;;;;;;;;;;;;;;1,000000;0,837092;0,781244;0,712666;0,712666;0,000000;0,000000;0,297800;0,189529;0,583207;0,308896;0,000000;0,000000;0,000000;0,000000;0,000000;0,000000;0,315242;0,315242;0,583207;0,000000;0,000000;0,000000;0,000000;0,000000;0,000000;0,000000;0,583207;0,227603;0,583207;0,234668;0,234737;0,267809;0,319145;0,312970;0,196931;0,171167;0,171246;0,232399;0,174344;0,174400;0,174456;0,236338;0,236405;0,312809;0,315098;
68;;;;;;;;;;;;;;;;;;;;;;;;;;;;;;;;;;;;;;;;;;;;;;;;;;;;;;;;;;;;;;;;;;;;1,000000;0,781391;0,712758;0,712758;0,000000;0,000000;0,297911;0,189640;0,583318;0,309007;0,000000;0,000000;0,000000;0,000000;0,000000;0,000000;0,315353;0,315353;0,583318;0,000000;0,000000;0,000000;0,000000;0,000000;0,000000;0,000000;0,583318;0,227714;0,583318;0,234779;0,234848;0,267920;0,319256;0,313081;0,197042;0,171278;0,171357;0,232510;0,174455;0,174511;0,174567;0,236449;0,236516;0,312920;0,315209;
69;;;;;;;;;;;;;;;;;;;;;;;;;;;;;;;;;;;;;;;;;;;;;;;;;;;;;;;;;;;;;;;;;;;;;1,000000;0,708514;0,708668;0,000000;0,000000;0,307525;0,199254;0,592932;0,318621;0,000000;0,000000;0,000000;0,000000;0,000000;0,000000;0,324967;0,324967;0,592932;0,000000;0,000000;0,000000;0,000000;0,000000;0,000000;0,000000;0,592932;0,237328;0,592932;0,244392;0,244462;0,277534;0,328870;0,322695;0,206656;0,180892;0,180971;0,242124;0,184069;0,184125;0,184181;0,246063;0,246129;0,322534;0,324823;
70;;;;;;;;;;;;;;;;;;;;;;;;;;;;;;;;;;;;;;;;;;;;;;;;;;;;;;;;;;;;;;;;;;;;;;1,000000;0,783870;0,000000;0,000000;0,319601;0,211330;0,605008;0,330697;0,000000;0,000000;0,000000;0,000000;0,000000;0,000000;0,337043;0,337043;0,605008;0,000000;0,000000;0,000000;0,000000;0,000000;0,000000;0,000000;0,605008;0,249404;0,605008;0,256468;0,256538;0,289610;0,340946;0,334771;0,218732;0,192968;0,193047;0,254200;0,196145;0,196201;0,196257;0,258139;0,258205;0,334610;0,336899;
71;;;;;;;;;;;;;;;;;;;;;;;;;;;;;;;;;;;;;;;;;;;;;;;;;;;;;;;;;;;;;;;;;;;;;;;1,000000;0,000000;0,000000;0,319728;0,211458;0,605136;0,330824;0,000000;0,000000;0,000000;0,000000;0,000000;0,000000;0,337170;0,337170;0,605136;0,000000;0,000000;0,000000;0,000000;0,000000;0,000000;0,000000;0,605136;0,249532;0,605136;0,256596;0,256666;0,289738;0,341074;0,334898;0,218860;0,193096;0,193174;0,254328;0,196272;0,196328;0,196385;0,258267;0,258333;0,334738;0,337027;
72;;;;;;;;;;;;;;;;;;;;;;;;;;;;;;;;;;;;;;;;;;;;;;;;;;;;;;;;;;;;;;;;;;;;;;;;1,000000;0,589488;0,000000;0,000000;0,000000;0,000000;0,000000;0,000000;0,000000;0,000000;0,000000;0,000000;0,000000;0,000000;0,000000;0,000000;0,000000;0,000000;0,000000;0,000000;0,000000;0,000000;0,000000;0,000000;0,000000;0,000000;0,000000;0,000000;0,000000;0,000000;0,000000;0,000000;0,000000;0,000000;0,000000;0,000000;0,000000;0,000000;0,000000;0,000000;0,000000;
73;;;;;;;;;;;;;;;;;;;;;;;;;;;;;;;;;;;;;;;;;;;;;;;;;;;;;;;;;;;;;;;;;;;;;;;;;1,000000;0,000000;0,000000;0,000000;0,000000;0,000000;0,000000;0,000000;0,000000;0,000000;0,000000;0,000000;0,000000;0,000000;0,000000;0,000000;0,000000;0,000000;0,000000;0,000000;0,000000;0,000000;0,000000;0,000000;0,000000;0,000000;0,000000;0,000000;0,000000;0,000000;0,000000;0,000000;0,000000;0,000000;0,000000;0,000000;0,000000;0,000000;0,000000;0,000000;
74;;;;;;;;;;;;;;;;;;;;;;;;;;;;;;;;;;;;;;;;;;;;;;;;;;;;;;;;;;;;;;;;;;;;;;;;;;1,000000;0,320915;0,714593;0,440282;0,000000;0,000000;0,000000;0,000000;0,000000;0,000000;0,446628;0,446628;0,714593;0,000000;0,000000;0,000000;0,000000;0,000000;0,000000;0,000000;0,714593;0,358989;0,714593;0,366053;0,366123;0,399195;0,450531;0,444355;0,328317;0,302553;0,302632;0,363785;0,305729;0,305786;0,305842;0,367724;0,367790;0,444195;0,446484;
75;;;;;;;;;;;;;;;;;;;;;;;;;;;;;;;;;;;;;;;;;;;;;;;;;;;;;;;;;;;;;;;;;;;;;;;;;;;1,000000;0,606322;0,332011;0,000000;0,000000;0,000000;0,000000;0,000000;0,000000;0,338357;0,338357;0,606322;0,000000;0,000000;0,000000;0,000000;0,000000;0,000000;0,000000;0,606322;0,892234;0,606322;0,257783;0,257853;0,558627;0,342261;0,336085;0,445496;0,879910;0,880023;0,255514;0,197459;0,197515;0,197571;0,601091;0,601091;0,335924;0,338213;
76;;;;;;;;;;;;;;;;;;;;;;;;;;;;;;;;;;;;;;;;;;;;;;;;;;;;;;;;;;;;;;;;;;;;;;;;;;;;1,000000;0,725689;0,000000;0,000000;0,000000;0,000000;0,000000;0,000000;0,732035;0,732035;1,000000;0,000000;0,000000;0,000000;0,000000;0,000000;0,000000;0,000000;1,000000;0,644396;1,000000;0,651461;0,651530;0,684602;0,735938;0,729763;0,613724;0,587960;0,588039;0,649192;0,591137;0,591193;0,591249;0,653131;0,653198;0,729602;0,731891;
77;;;;;;;;;;;;;;;;;;;;;;;;;;;;;;;;;;;;;;;;;;;;;;;;;;;;;;;;;;;;;;;;;;;;;;;;;;;;;1,000000;0,000000;0,000000;0,000000;0,000000;0,000000;0,000000;0,457724;0,457724;0,725689;0,000000;0,000000;0,000000;0,000000;0,000000;0,000000;0,000000;0,725689;0,370085;0,725689;0,377149;0,377219;0,410291;0,461627;0,455452;0,339413;0,313649;0,313728;0,374881;0,316825;0,316882;0,316938;0,378820;0,378886;0,455291;0,457580;
78;;;;;;;;;;;;;;;;;;;;;;;;;;;;;;;;;;;;;;;;;;;;;;;;;;;;;;;;;;;;;;;;;;;;;;;;;;;;;;1,000000;0,897788;0,897903;0,898017;0,898130;0,898243;0,000000;0,000000;0,000000;0,000000;0,000000;0,000000;0,000000;0,000000;0,000000;0,000000;0,000000;0,000000;0,000000;0,000000;0,000000;0,000000;0,000000;0,000000;0,000000;0,000000;0,000000;0,000000;0,000000;0,000000;0,000000;0,000000;0,000000;0,000000;0,000000;
79;;;;;;;;;;;;;;;;;;;;;;;;;;;;;;;;;;;;;;;;;;;;;;;;;;;;;;;;;;;;;;;;;;;;;;;;;;;;;;;1,000000;0,898017;0,898130;0,898243;0,898354;0,000000;0,000000;0,000000;0,000000;0,000000;0,000000;0,000000;0,000000;0,000000;0,000000;0,000000;0,000000;0,000000;0,000000;0,000000;0,000000;0,000000;0,000000;0,000000;0,000000;0,000000;0,000000;0,000000;0,000000;0,000000;0,000000;0,000000;0,000000;0,000000;
80;;;;;;;;;;;;;;;;;;;;;;;;;;;;;;;;;;;;;;;;;;;;;;;;;;;;;;;;;;;;;;;;;;;;;;;;;;;;;;;;1,000000;0,898243;0,898354;0,898464;0,000000;0,000000;0,000000;0,000000;0,000000;0,000000;0,000000;0,000000;0,000000;0,000000;0,000000;0,000000;0,000000;0,000000;0,000000;0,000000;0,000000;0,000000;0,000000;0,000000;0,000000;0,000000;0,000000;0,000000;0,000000;0,000000;0,000000;0,000000;0,000000;
81;;;;;;;;;;;;;;;;;;;;;;;;;;;;;;;;;;;;;;;;;;;;;;;;;;;;;;;;;;;;;;;;;;;;;;;;;;;;;;;;;1,000000;0,898464;0,898574;0,000000;0,000000;0,000000;0,000000;0,000000;0,000000;0,000000;0,000000;0,000000;0,000000;0,000000;0,000000;0,000000;0,000000;0,000000;0,000000;0,000000;0,000000;0,000000;0,000000;0,000000;0,000000;0,000000;0,000000;0,000000;0,000000;0,000000;0,000000;0,000000;
82;;;;;;;;;;;;;;;;;;;;;;;;;;;;;;;;;;;;;;;;;;;;;;;;;;;;;;;;;;;;;;;;;;;;;;;;;;;;;;;;;;1,000000;0,898682;0,000000;0,000000;0,000000;0,000000;0,000000;0,000000;0,000000;0,000000;0,000000;0,000000;0,000000;0,000000;0,000000;0,000000;0,000000;0,000000;0,000000;0,000000;0,000000;0,000000;0,000000;0,000000;0,000000;0,000000;0,000000;0,000000;0,000000;0,000000;0,000000;
83;;;;;;;;;;;;;;;;;;;;;;;;;;;;;;;;;;;;;;;;;;;;;;;;;;;;;;;;;;;;;;;;;;;;;;;;;;;;;;;;;;;1,000000;0,000000;0,000000;0,000000;0,000000;0,000000;0,000000;0,000000;0,000000;0,000000;0,000000;0,000000;0,000000;0,000000;0,000000;0,000000;0,000000;0,000000;0,000000;0,000000;0,000000;0,000000;0,000000;0,000000;0,000000;0,000000;0,000000;0,000000;0,000000;0,000000;
84;;;;;;;;;;;;;;;;;;;;;;;;;;;;;;;;;;;;;;;;;;;;;;;;;;;;;;;;;;;;;;;;;;;;;;;;;;;;;;;;;;;;1,000000;0,464070;0,732035;0,000000;0,000000;0,000000;0,000000;0,000000;0,000000;0,000000;0,732035;0,376431;0,732035;0,383495;0,383565;0,416637;0,467973;0,461798;0,345759;0,319995;0,320074;0,381227;0,323171;0,323228;0,323284;0,385166;0,385232;0,461637;0,463926;
85;;;;;;;;;;;;;;;;;;;;;;;;;;;;;;;;;;;;;;;;;;;;;;;;;;;;;;;;;;;;;;;;;;;;;;;;;;;;;;;;;;;;;1,000000;0,732035;0,000000;0,000000;0,000000;0,000000;0,000000;0,000000;0,000000;0,732035;0,376431;0,732035;0,383495;0,383565;0,416637;0,467973;0,461798;0,345759;0,319995;0,320074;0,381227;0,323171;0,323228;0,323284;0,385166;0,385232;0,461637;0,463926;
86;;;;;;;;;;;;;;;;;;;;;;;;;;;;;;;;;;;;;;;;;;;;;;;;;;;;;;;;;;;;;;;;;;;;;;;;;;;;;;;;;;;;;;1,000000;0,000000;0,000000;0,000000;0,000000;0,000000;0,000000;0,000000;1,000000;0,644396;1,000000;0,651461;0,651530;0,684602;0,735938;0,729763;0,613724;0,587960;0,588039;0,649192;0,591137;0,591193;0,591249;0,653131;0,653198;0,729602;0,731891;
87;;;;;;;;;;;;;;;;;;;;;;;;;;;;;;;;;;;;;;;;;;;;;;;;;;;;;;;;;;;;;;;;;;;;;;;;;;;;;;;;;;;;;;;1,000000;0,788387;0,788571;0,000000;0,000000;0,000000;0,000000;0,000000;0,000000;0,000000;0,000000;0,000000;0,000000;0,000000;0,000000;0,000000;0,000000;0,000000;0,000000;0,000000;0,000000;0,000000;0,000000;0,000000;0,000000;0,000000;
88;;;;;;;;;;;;;;;;;;;;;;;;;;;;;;;;;;;;;;;;;;;;;;;;;;;;;;;;;;;;;;;;;;;;;;;;;;;;;;;;;;;;;;;;1,000000;0,788753;0,000000;0,000000;0,000000;0,000000;0,000000;0,000000;0,000000;0,000000;0,000000;0,000000;0,000000;0,000000;0,000000;0,000000;0,000000;0,000000;0,000000;0,000000;0,000000;0,000000;0,000000;0,000000;0,000000;
89;;;;;;;;;;;;;;;;;;;;;;;;;;;;;;;;;;;;;;;;;;;;;;;;;;;;;;;;;;;;;;;;;;;;;;;;;;;;;;;;;;;;;;;;;1,000000;0,000000;0,000000;0,000000;0,000000;0,000000;0,000000;0,000000;0,000000;0,000000;0,000000;0,000000;0,000000;0,000000;0,000000;0,000000;0,000000;0,000000;0,000000;0,000000;0,000000;0,000000;0,000000;0,000000;
90;;;;;;;;;;;;;;;;;;;;;;;;;;;;;;;;;;;;;;;;;;;;;;;;;;;;;;;;;;;;;;;;;;;;;;;;;;;;;;;;;;;;;;;;;;1,000000;0,852999;0,853132;0,853264;0,000000;0,000000;0,000000;0,000000;0,000000;0,000000;0,000000;0,000000;0,000000;0,000000;0,000000;0,000000;0,000000;0,000000;0,000000;0,000000;0,000000;0,000000;0,000000;
91;;;;;;;;;;;;;;;;;;;;;;;;;;;;;;;;;;;;;;;;;;;;;;;;;;;;;;;;;;;;;;;;;;;;;;;;;;;;;;;;;;;;;;;;;;;1,000000;0,853264;0,853394;0,000000;0,000000;0,000000;0,000000;0,000000;0,000000;0,000000;0,000000;0,000000;0,000000;0,000000;0,000000;0,000000;0,000000;0,000000;0,000000;0,000000;0,000000;0,000000;
92;;;;;;;;;;;;;;;;;;;;;;;;;;;;;;;;;;;;;;;;;;;;;;;;;;;;;;;;;;;;;;;;;;;;;;;;;;;;;;;;;;;;;;;;;;;;1,000000;0,853524;0,000000;0,000000;0,000000;0,000000;0,000000;0,000000;0,000000;0,000000;0,000000;0,000000;0,000000;0,000000;0,000000;0,000000;0,000000;0,000000;0,000000;0,000000;0,000000;
93;;;;;;;;;;;;;;;;;;;;;;;;;;;;;;;;;;;;;;;;;;;;;;;;;;;;;;;;;;;;;;;;;;;;;;;;;;;;;;;;;;;;;;;;;;;;;1,000000;0,000000;0,000000;0,000000;0,000000;0,000000;0,000000;0,000000;0,000000;0,000000;0,000000;0,000000;0,000000;0,000000;0,000000;0,000000;0,000000;0,000000;0,000000;0,000000;
94;;;;;;;;;;;;;;;;;;;;;;;;;;;;;;;;;;;;;;;;;;;;;;;;;;;;;;;;;;;;;;;;;;;;;;;;;;;;;;;;;;;;;;;;;;;;;;1,000000;0,644396;1,000000;0,651461;0,651530;0,684602;0,735938;0,729763;0,613724;0,587960;0,588039;0,649192;0,591137;0,591193;0,591249;0,653131;0,653198;0,729602;0,731891;
95;;;;;;;;;;;;;;;;;;;;;;;;;;;;;;;;;;;;;;;;;;;;;;;;;;;;;;;;;;;;;;;;;;;;;;;;;;;;;;;;;;;;;;;;;;;;;;;1,000000;0,644396;0,295857;0,295927;0,638523;0,380335;0,374159;0,525393;0,824252;0,824314;0,293588;0,235533;0,235589;0,235645;0,680988;0,680988;0,373998;0,376287;
96;;;;;;;;;;;;;;;;;;;;;;;;;;;;;;;;;;;;;;;;;;;;;;;;;;;;;;;;;;;;;;;;;;;;;;;;;;;;;;;;;;;;;;;;;;;;;;;;1,000000;0,651461;0,651530;0,684602;0,735938;0,729763;0,613724;0,587960;0,588039;0,649192;0,591137;0,591193;0,591249;0,653131;0,653198;0,729602;0,731891;
97;;;;;;;;;;;;;;;;;;;;;;;;;;;;;;;;;;;;;;;;;;;;;;;;;;;;;;;;;;;;;;;;;;;;;;;;;;;;;;;;;;;;;;;;;;;;;;;;;1,000000;0,706877;0,336063;0,387399;0,381223;0,265185;0,239421;0,239499;0,701250;0,242597;0,242653;0,242710;0,304592;0,304658;0,381062;0,853438;
98;;;;;;;;;;;;;;;;;;;;;;;;;;;;;;;;;;;;;;;;;;;;;;;;;;;;;;;;;;;;;;;;;;;;;;;;;;;;;;;;;;;;;;;;;;;;;;;;;;1,000000;0,336133;0,387469;0,381293;0,265255;0,239491;0,239569;0,701250;0,242667;0,242723;0,242779;0,304661;0,304728;0,381132;0,853438;
99;;;;;;;;;;;;;;;;;;;;;;;;;;;;;;;;;;;;;;;;;;;;;;;;;;;;;;;;;;;;;;;;;;;;;;;;;;;;;;;;;;;;;;;;;;;;;;;;;;;1,000000;0,420540;0,414365;0,499071;0,515563;0,515688;0,333794;0,562141;0,562230;0,562318;0,654666;0,654666;0,414204;0,416493;
100;;;;;;;;;;;;;;;;;;;;;;;;;;;;;;;;;;;;;;;;;;;;;;;;;;;;;;;;;;;;;;;;;;;;;;;;;;;;;;;;;;;;;;;;;;;;;;;;;;;;1,000000;0,465701;0,723089;0,323898;0,323977;0,385131;0,327075;0,327131;0,327187;0,389069;0,389136;0,465540;0,467829;
101;;;;;;;;;;;;;;;;;;;;;;;;;;;;;;;;;;;;;;;;;;;;;;;;;;;;;;;;;;;;;;;;;;;;;;;;;;;;;;;;;;;;;;;;;;;;;;;;;;;;;1,000000;0,343487;0,317723;0,317802;0,378955;0,320899;0,320956;0,321012;0,382894;0,382960;0,459365;0,461654;
102;;;;;;;;;;;;;;;;;;;;;;;;;;;;;;;;;;;;;;;;;;;;;;;;;;;;;;;;;;;;;;;;;;;;;;;;;;;;;;;;;;;;;;;;;;;;;;;;;;;;;;1,000000;0,402432;0,402557;0,262917;0,810861;0,810935;0,811009;0,541536;0,541536;0,343326;0,345615;
103;;;;;;;;;;;;;;;;;;;;;;;;;;;;;;;;;;;;;;;;;;;;;;;;;;;;;;;;;;;;;;;;;;;;;;;;;;;;;;;;;;;;;;;;;;;;;;;;;;;;;;;1,000000;0,850009;0,237152;0,179097;0,179153;0,179209;0,558028;0,558028;0,317562;0,319851;
104;;;;;;;;;;;;;;;;;;;;;;;;;;;;;;;;;;;;;;;;;;;;;;;;;;;;;;;;;;;;;;;;;;;;;;;;;;;;;;;;;;;;;;;;;;;;;;;;;;;;;;;;1,000000;0,237231;0,179176;0,179232;0,179288;0,558152;0,558152;0,317641;0,319930;
105;;;;;;;;;;;;;;;;;;;;;;;;;;;;;;;;;;;;;;;;;;;;;;;;;;;;;;;;;;;;;;;;;;;;;;;;;;;;;;;;;;;;;;;;;;;;;;;;;;;;;;;;;1,000000;0,240329;0,240385;0,240441;0,302323;0,302390;0,378794;0,847812;
106;;;;;;;;;;;;;;;;;;;;;;;;;;;;;;;;;;;;;;;;;;;;;;;;;;;;;;;;;;;;;;;;;;;;;;;;;;;;;;;;;;;;;;;;;;;;;;;;;;;;;;;;;;1,000000;0,879874;0,879966;0,244268;0,244334;0,320739;0,323028;
107;;;;;;;;;;;;;;;;;;;;;;;;;;;;;;;;;;;;;;;;;;;;;;;;;;;;;;;;;;;;;;;;;;;;;;;;;;;;;;;;;;;;;;;;;;;;;;;;;;;;;;;;;;;1,000000;0,880058;0,244324;0,244390;0,320795;0,323084;
108;;;;;;;;;;;;;;;;;;;;;;;;;;;;;;;;;;;;;;;;;;;;;;;;;;;;;;;;;;;;;;;;;;;;;;;;;;;;;;;;;;;;;;;;;;;;;;;;;;;;;;;;;;;;1,000000;0,244380;0,244447;0,320851;0,323140;
109;;;;;;;;;;;;;;;;;;;;;;;;;;;;;;;;;;;;;;;;;;;;;;;;;;;;;;;;;;;;;;;;;;;;;;;;;;;;;;;;;;;;;;;;;;;;;;;;;;;;;;;;;;;;;1,000000;0,697131;0,382733;0,385022;
110;;;;;;;;;;;;;;;;;;;;;;;;;;;;;;;;;;;;;;;;;;;;;;;;;;;;;;;;;;;;;;;;;;;;;;;;;;;;;;;;;;;;;;;;;;;;;;;;;;;;;;;;;;;;;;1,000000;0,382799;0,385088;
111;;;;;;;;;;;;;;;;;;;;;;;;;;;;;;;;;;;;;;;;;;;;;;;;;;;;;;;;;;;;;;;;;;;;;;;;;;;;;;;;;;;;;;;;;;;;;;;;;;;;;;;;;;;;;;;1,000000;0,461493;
112;;;;;;;;;;;;;;;;;;;;;;;;;;;;;;;;;;;;;;;;;;;;;;;;;;;;;;;;;;;;;;;;;;;;;;;;;;;;;;;;;;;;;;;;;;;;;;;;;;;;;;;;;;;;;;;;1,000000;
