;1; 2; 3; 4; 5; 6; 7; 8; 9; 10; 11; 12; 13; 14; 15; 16; 17; 18; 19; 20; 21; 22; 23; 24; 25; 26; 27; 28; 29; 30; 31; 32; 33; 34; 35; 36; 37; 38; 39; 40; 41; 42; 43; 44; 45; 46; 47; 48; 49; 50; 51; 52; 53; 54; 55; 56; 57; 58; 59; 60; 61; 62; 63; 64; 65; 66; 67; 68
1;1,000000;0,461135;0,532649;0,554067;0,554067;0,273621;0,273621;0,273621;0,357906;0,703523;0,699446;0,668829;0,703523;0,562192;0,398621;0,266881;0,273621;0,274800;0,398621;0,239970;0,285342;0,250937;0,250937;0,231954;0,304919;0,297354;0,248621;0,306352;0,273621;0,273621;0,587985;0,315288;0,315288;0,273621;0,000000;0,000000;0,398621;0,000000;0,000000;0,000000;0,660226;0,660226;0,398621;0,398621;0,273621;0,273621;0,273621;0,273621;0,323831;0,323831;0,660226;0,660226;0,660226;0,660226;0,584727;0,584727;0,584727;0,584727;0,248621;0,470733;0,470733;0,273621;0,273621;0,273621;0,273621;0,273621;0,398621;0,398621;
2;;1,000000;0,415459;0,663863;0,663863;0,314048;0,314048;0,314048;0,448622;0,532372;0,497196;0,535161;0,532372;0,457730;0,877815;0,307308;0,314048;0,315228;0,439048;0,280398;0,325769;0,291364;0,291364;0,272382;0,345346;0,304064;0,289048;0,312640;0,495906;0,495906;0,499669;0,355715;0,355715;0,314048;0,000000;0,000000;0,830529;0,000000;0,000000;0,000000;0,530529;0,530529;0,439048;0,439048;0,314048;0,314048;0,314048;0,314048;0,272382;0,272382;0,530529;0,530529;0,530529;0,530529;0,530529;0,530529;0,530529;0,530529;0,289048;0,647688;0,647688;0,314048;0,314048;0,314048;0,314048;0,314048;0,439048;0,439048;
3;;;1,000000;0,408825;0,408825;0,514657;0,524520;0,482454;0,538559;0,504633;0,510227;0,488557;0,504633;0,635933;0,318631;0,537886;0,430382;0,553709;0,330469;0,544623;0,475558;0,505740;0,505740;0,527191;0,479919;0,527259;0,511530;0,496732;0,480552;0,480552;0,468619;0,426162;0,435177;0,494512;0,000000;0,000000;0,295123;0,000000;0,000000;0,000000;0,483992;0,483992;0,267072;0,267072;0,412318;0,412318;0,412318;0,412318;0,530655;0,530655;0,483992;0,483992;0,483992;0,483992;0,459086;0,459086;0,459086;0,459086;0,533661;0,436863;0,436863;0,465776;0,465776;0,410069;0,410069;0,410069;0,267053;0,267053;
4;;;;1,000000;1,000000;0,291667;0,291667;0,291667;0,362732;0,535176;0,500000;0,537965;0,535176;0,460534;0,672640;0,284927;0,291667;0,292846;0,416667;0,258016;0,303388;0,268983;0,268983;0,250000;0,322965;0,281683;0,266667;0,290258;0,291667;0,291667;0,598655;0,333333;0,333333;0,291667;0,000000;0,000000;0,833333;0,000000;0,000000;0,000000;0,533333;0,533333;0,416667;0,416667;0,291667;0,291667;0,291667;0,291667;0,250000;0,250000;0,533333;0,533333;0,533333;0,533333;0,533333;0,533333;0,533333;0,533333;0,266667;0,583333;0,583333;0,291667;0,291667;0,291667;0,291667;0,291667;0,416667;0,416667;
5;;;;;1,000000;0,291667;0,291667;0,291667;0,362732;0,535176;0,500000;0,537965;0,535176;0,460534;0,672640;0,284927;0,291667;0,292846;0,416667;0,258016;0,303388;0,268983;0,268983;0,250000;0,322965;0,281683;0,266667;0,290258;0,291667;0,291667;0,598655;0,333333;0,333333;0,291667;0,000000;0,000000;0,833333;0,000000;0,000000;0,000000;0,533333;0,533333;0,416667;0,416667;0,291667;0,291667;0,291667;0,291667;0,250000;0,250000;0,533333;0,533333;0,533333;0,533333;0,533333;0,533333;0,533333;0,533333;0,266667;0,583333;0,583333;0,291667;0,291667;0,291667;0,291667;0,291667;0,416667;0,416667;
6;;;;;;1,000000;0,657271;0,630323;0,661908;0,225921;0,208333;0,227316;0,225921;0,376217;0,375000;0,820793;0,625000;0,663799;0,750000;0,432699;0,523443;0,454632;0,454632;0,416667;0,706319;0,577618;0,450000;0,497183;0,500000;0,500000;0,469213;0,583333;0,814878;0,883421;0,000000;0,000000;0,375000;0,000000;0,000000;0,000000;0,225000;0,225000;0,375000;0,375000;0,250000;0,250000;0,250000;0,250000;0,416667;0,416667;0,225000;0,225000;0,225000;0,225000;0,225000;0,225000;0,225000;0,225000;0,783421;0,250000;0,250000;0,690357;0,690357;0,441562;0,441562;0,441562;0,375000;0,375000;
7;;;;;;;1,000000;0,540539;0,659736;0,225921;0,208333;0,227316;0,225921;0,397564;0,375000;0,702667;0,665022;0,685103;0,689325;0,458557;0,462768;0,393957;0,393957;0,355992;0,820851;0,544358;0,524923;0,560055;0,439325;0,439325;0,408538;0,522659;0,750000;0,625000;0,000000;0,000000;0,375000;0,000000;0,000000;0,000000;0,225000;0,225000;0,375000;0,375000;0,250000;0,250000;0,250000;0,250000;0,474923;0,474923;0,225000;0,225000;0,225000;0,225000;0,225000;0,225000;0,225000;0,225000;0,746806;0,250000;0,250000;0,600182;0,600182;0,441562;0,441562;0,441562;0,375000;0,375000;
8;;;;;;;;1,000000;0,612971;0,225921;0,208333;0,227316;0,225921;0,376217;0,375000;0,583623;0,441981;0,639517;0,750000;0,432699;0,523443;0,454632;0,454632;0,416667;0,656826;0,577618;0,450000;0,497183;0,500000;0,500000;0,469213;0,583333;0,583333;0,500000;0,000000;0,000000;0,375000;0,000000;0,000000;0,000000;0,225000;0,225000;0,375000;0,375000;0,250000;0,250000;0,250000;0,250000;0,416667;0,416667;0,225000;0,225000;0,225000;0,225000;0,225000;0,225000;0,225000;0,225000;0,450000;0,250000;0,250000;0,690458;0,690458;0,250000;0,250000;0,250000;0,375000;0,375000;
9;;;;;;;;;1,000000;0,321364;0,367408;0,349994;0,321364;0,543565;0,626921;0,685051;0,748809;0,641109;0,446065;0,717566;0,613152;0,649061;0,649061;0,675303;0,614193;0,670336;0,660590;0,645730;0,585905;0,585905;0,469810;0,555247;0,555682;0,637417;0,000000;0,000000;0,446065;0,000000;0,000000;0,000000;0,296065;0,296065;0,446065;0,446065;0,321065;0,321065;0,321065;0,321065;0,679607;0,679607;0,296065;0,296065;0,296065;0,296065;0,296065;0,296065;0,296065;0,296065;0,675286;0,452716;0,452716;0,592536;0,592536;0,472349;0,472349;0,472349;0,446065;0,446065;
10;;;;;;;;;;1,000000;0,781488;0,740177;0,799236;0,641257;0,541150;0,219182;0,225921;0,227101;0,350921;0,192271;0,237643;0,203237;0,203237;0,184255;0,257220;0,260812;0,200921;0,269810;0,225921;0,225921;0,288421;0,267588;0,267588;0,225921;0,000000;0,000000;0,701843;0,000000;0,000000;0,000000;0,724012;0,724012;0,350921;0,350921;0,225921;0,225921;0,225921;0,225921;0,287289;0,287289;0,724012;0,724012;0,724012;0,724012;0,401843;0,401843;0,401843;0,401843;0,200921;0,225921;0,225921;0,225921;0,225921;0,225921;0,225921;0,225921;0,350921;0,350921;
11;;;;;;;;;;;1,000000;0,870143;0,781488;0,691729;0,505973;0,201593;0,208333;0,209513;0,333333;0,174683;0,220055;0,185649;0,185649;0,166667;0,239631;0,306856;0,183333;0,315854;0,208333;0,208333;0,270833;0,250000;0,250000;0,208333;0,000000;0,000000;0,666667;0,000000;0,000000;0,000000;0,733333;0,733333;0,333333;0,333333;0,208333;0,208333;0,208333;0,208333;0,333333;0,333333;0,733333;0,733333;0,733333;0,733333;0,366667;0,366667;0,366667;0,366667;0,183333;0,208333;0,208333;0,208333;0,208333;0,208333;0,208333;0,208333;0,333333;0,333333;
12;;;;;;;;;;;;1,000000;0,740177;0,728780;0,543939;0,220576;0,227316;0,228495;0,352316;0,193665;0,239037;0,204632;0,204632;0,185649;0,258614;0,289442;0,202316;0,298441;0,227316;0,227316;0,289816;0,268983;0,268983;0,227316;0,000000;0,000000;0,704632;0,000000;0,000000;0,000000;0,809264;0,809264;0,352316;0,352316;0,227316;0,227316;0,227316;0,227316;0,315920;0,315920;0,809264;0,809264;0,809264;0,809264;0,404632;0,404632;0,404632;0,404632;0,202316;0,227316;0,227316;0,227316;0,227316;0,227316;0,227316;0,227316;0,352316;0,352316;
13;;;;;;;;;;;;;1,000000;0,641257;0,541150;0,219182;0,225921;0,227101;0,350921;0,192271;0,237643;0,203237;0,203237;0,184255;0,257220;0,260812;0,200921;0,269810;0,225921;0,225921;0,288421;0,267588;0,267588;0,225921;0,000000;0,000000;0,701843;0,000000;0,000000;0,000000;0,724012;0,724012;0,350921;0,350921;0,225921;0,225921;0,225921;0,225921;0,287289;0,287289;0,724012;0,724012;0,724012;0,724012;0,401843;0,401843;0,401843;0,401843;0,200921;0,225921;0,225921;0,225921;0,225921;0,225921;0,225921;0,225921;0,350921;0,350921;
14;;;;;;;;;;;;;;1,000000;0,466507;0,384663;0,208333;0,326608;0,626217;0,508604;0,399659;0,330849;0,330849;0,292884;0,438813;0,639798;0,621136;0,659409;0,376217;0,376217;0,345430;0,672642;0,459550;0,376217;0,000000;0,000000;0,627201;0,000000;0,000000;0,000000;0,623692;0,623692;0,333333;0,333333;0,208333;0,208333;0,208333;0,208333;0,688507;0,688507;0,623692;0,623692;0,623692;0,623692;0,327201;0,327201;0,327201;0,327201;0,326217;0,208333;0,208333;0,376217;0,376217;0,208333;0,208333;0,208333;0,333333;0,333333;
15;;;;;;;;;;;;;;;1,000000;0,368260;0,375000;0,376179;0,500000;0,341349;0,386721;0,352316;0,352316;0,333333;0,406298;0,365016;0,350000;0,373592;0,674205;0,674205;0,437500;0,416667;0,416667;0,375000;0,000000;0,000000;0,839307;0,000000;0,000000;0,000000;0,539307;0,539307;0,500000;0,500000;0,375000;0,375000;0,375000;0,375000;0,333333;0,333333;0,539307;0,539307;0,539307;0,539307;0,539307;0,539307;0,539307;0,539307;0,350000;0,674205;0,674205;0,375000;0,375000;0,375000;0,375000;0,375000;0,500000;0,500000;
16;;;;;;;;;;;;;;;;1,000000;0,675525;0,725523;0,677093;0,445655;0,450535;0,381725;0,381725;0,343759;0,710046;0,530918;0,512021;0,547154;0,427093;0,427093;0,396306;0,510426;0,763755;0,793046;0,000000;0,000000;0,368260;0,000000;0,000000;0,000000;0,218260;0,218260;0,368260;0,368260;0,243260;0,243260;0,243260;0,243260;0,462021;0,462021;0,218260;0,218260;0,218260;0,218260;0,218260;0,218260;0,218260;0,218260;0,693046;0,243260;0,243260;0,427093;0,427093;0,458570;0,458570;0,458570;0,368260;0,368260;
17;;;;;;;;;;;;;;;;;1,000000;0,599448;0,375000;0,216349;0,261721;0,227316;0,227316;0,208333;0,638796;0,561805;0,225000;0,248592;0,250000;0,250000;0,312500;0,291667;0,583333;0,500000;0,000000;0,000000;0,375000;0,000000;0,000000;0,000000;0,225000;0,225000;0,375000;0,375000;0,250000;0,250000;0,250000;0,250000;0,208333;0,208333;0,225000;0,225000;0,225000;0,225000;0,225000;0,225000;0,225000;0,225000;0,675000;0,250000;0,250000;0,250000;0,250000;0,500000;0,500000;0,500000;0,375000;0,375000;
18;;;;;;;;;;;;;;;;;;1,000000;0,700391;0,383089;0,473833;0,405023;0,405023;0,367057;0,722810;0,589908;0,400391;0,447574;0,450391;0,450391;0,419604;0,533724;0,533724;0,632020;0,000000;0,000000;0,376179;0,000000;0,000000;0,000000;0,226179;0,226179;0,376179;0,376179;0,251179;0,251179;0,251179;0,251179;0,367057;0,367057;0,226179;0,226179;0,226179;0,226179;0,226179;0,226179;0,226179;0,226179;0,706119;0,251179;0,251179;0,450391;0,450391;0,545807;0,545807;0,545807;0,376179;0,376179;
19;;;;;;;;;;;;;;;;;;;1,000000;0,682699;0,773443;0,704632;0,704632;0,666667;0,812596;0,730033;0,700000;0,747183;0,750000;0,750000;0,719213;0,833333;0,833333;0,750000;0,000000;0,000000;0,500000;0,000000;0,000000;0,000000;0,350000;0,350000;0,500000;0,500000;0,375000;0,375000;0,375000;0,375000;0,666667;0,666667;0,350000;0,350000;0,350000;0,350000;0,350000;0,350000;0,350000;0,350000;0,700000;0,375000;0,375000;0,750000;0,750000;0,375000;0,375000;0,375000;0,500000;0,500000;
20;;;;;;;;;;;;;;;;;;;;1,000000;0,786949;0,777436;0,777436;0,740496;0,495295;0,632600;0,687469;0,651908;0,432699;0,432699;0,401912;0,733634;0,516032;0,432699;0,000000;0,000000;0,341349;0,000000;0,000000;0,000000;0,191349;0,191349;0,341349;0,341349;0,216349;0,216349;0,216349;0,216349;0,620802;0,620802;0,191349;0,191349;0,191349;0,191349;0,191349;0,191349;0,191349;0,191349;0,382699;0,216349;0,216349;0,432699;0,432699;0,216349;0,216349;0,216349;0,341349;0,341349;
21;;;;;;;;;;;;;;;;;;;;;1,000000;0,818702;0,818702;0,879493;0,586039;0,563704;0,606001;0,581341;0,523443;0,523443;0,492656;0,606776;0,606776;0,523443;0,000000;0,000000;0,386721;0,000000;0,000000;0,000000;0,236721;0,236721;0,386721;0,386721;0,261721;0,261721;0,261721;0,261721;0,440109;0,440109;0,236721;0,236721;0,236721;0,236721;0,236721;0,236721;0,236721;0,236721;0,473443;0,261721;0,261721;0,523443;0,523443;0,261721;0,261721;0,261721;0,386721;0,386721;
22;;;;;;;;;;;;;;;;;;;;;;1,000000;0,797973;0,870163;0,517228;0,507703;0,550000;0,525340;0,454632;0,454632;0,423845;0,537965;0,537965;0,454632;0,000000;0,000000;0,352316;0,000000;0,000000;0,000000;0,202316;0,202316;0,352316;0,352316;0,227316;0,227316;0,227316;0,227316;0,371299;0,371299;0,202316;0,202316;0,202316;0,202316;0,202316;0,202316;0,202316;0,202316;0,404632;0,227316;0,227316;0,454632;0,454632;0,227316;0,227316;0,227316;0,352316;0,352316;
23;;;;;;;;;;;;;;;;;;;;;;;1,000000;0,870163;0,517228;0,507703;0,550000;0,525340;0,454632;0,454632;0,423845;0,537965;0,537965;0,454632;0,000000;0,000000;0,352316;0,000000;0,000000;0,000000;0,202316;0,202316;0,352316;0,352316;0,227316;0,227316;0,227316;0,227316;0,371299;0,371299;0,202316;0,202316;0,202316;0,202316;0,202316;0,202316;0,202316;0,202316;0,404632;0,227316;0,227316;0,454632;0,454632;0,227316;0,227316;0,227316;0,352316;0,352316;
24;;;;;;;;;;;;;;;;;;;;;;;;1,000000;0,479263;0,507703;0,550000;0,525340;0,416667;0,416667;0,385880;0,500000;0,500000;0,416667;0,000000;0,000000;0,333333;0,000000;0,000000;0,000000;0,183333;0,183333;0,333333;0,333333;0,208333;0,208333;0,208333;0,208333;0,333333;0,333333;0,183333;0,183333;0,183333;0,183333;0,183333;0,183333;0,183333;0,183333;0,366667;0,208333;0,208333;0,416667;0,416667;0,208333;0,208333;0,208333;0,333333;0,333333;
25;;;;;;;;;;;;;;;;;;;;;;;;;1,000000;0,599174;0,512596;0,559780;0,562596;0,562596;0,531809;0,645930;0,891441;0,766441;0,000000;0,000000;0,406298;0,000000;0,000000;0,000000;0,256298;0,256298;0,406298;0,406298;0,281298;0,281298;0,281298;0,281298;0,479263;0,479263;0,256298;0,256298;0,256298;0,256298;0,256298;0,256298;0,256298;0,256298;0,816667;0,281298;0,281298;0,562596;0,562596;0,487058;0,487058;0,487058;0,406298;0,406298;
26;;;;;;;;;;;;;;;;;;;;;;;;;;1,000000;0,744519;0,740888;0,480033;0,480033;0,449246;0,816331;0,563366;0,480033;0,000000;0,000000;0,365016;0,000000;0,000000;0,000000;0,215016;0,215016;0,365016;0,365016;0,240016;0,240016;0,240016;0,240016;0,783745;0,783745;0,215016;0,215016;0,215016;0,215016;0,215016;0,215016;0,215016;0,215016;0,562456;0,240016;0,240016;0,480033;0,480033;0,240016;0,240016;0,240016;0,365016;0,365016;
27;;;;;;;;;;;;;;;;;;;;;;;;;;;1,000000;0,763844;0,450000;0,450000;0,419213;0,800000;0,533333;0,450000;0,000000;0,000000;0,350000;0,000000;0,000000;0,000000;0,200000;0,200000;0,350000;0,350000;0,225000;0,225000;0,225000;0,225000;0,733333;0,733333;0,200000;0,200000;0,200000;0,200000;0,200000;0,200000;0,200000;0,200000;0,400000;0,225000;0,225000;0,450000;0,450000;0,225000;0,225000;0,225000;0,350000;0,350000;
28;;;;;;;;;;;;;;;;;;;;;;;;;;;;1,000000;0,497183;0,497183;0,466396;0,580517;0,580517;0,497183;0,000000;0,000000;0,373592;0,000000;0,000000;0,000000;0,223592;0,223592;0,373592;0,373592;0,248592;0,248592;0,248592;0,248592;0,803376;0,803376;0,223592;0,223592;0,223592;0,223592;0,223592;0,223592;0,223592;0,223592;0,447183;0,248592;0,248592;0,497183;0,497183;0,248592;0,248592;0,248592;0,373592;0,373592;
29;;;;;;;;;;;;;;;;;;;;;;;;;;;;;1,000000;0,750000;0,629966;0,583333;0,583333;0,500000;0,000000;0,000000;0,375000;0,000000;0,000000;0,000000;0,225000;0,225000;0,375000;0,375000;0,250000;0,250000;0,250000;0,250000;0,416667;0,416667;0,225000;0,225000;0,225000;0,225000;0,225000;0,225000;0,225000;0,225000;0,450000;0,500000;0,500000;0,500000;0,500000;0,250000;0,250000;0,250000;0,375000;0,375000;
30;;;;;;;;;;;;;;;;;;;;;;;;;;;;;;1,000000;0,629966;0,583333;0,583333;0,500000;0,000000;0,000000;0,375000;0,000000;0,000000;0,000000;0,225000;0,225000;0,375000;0,375000;0,250000;0,250000;0,250000;0,250000;0,416667;0,416667;0,225000;0,225000;0,225000;0,225000;0,225000;0,225000;0,225000;0,225000;0,450000;0,500000;0,500000;0,500000;0,500000;0,250000;0,250000;0,250000;0,375000;0,375000;
31;;;;;;;;;;;;;;;;;;;;;;;;;;;;;;;1,000000;0,552546;0,552546;0,469213;0,000000;0,000000;0,437500;0,000000;0,000000;0,000000;0,287500;0,287500;0,437500;0,437500;0,312500;0,312500;0,312500;0,312500;0,385880;0,385880;0,287500;0,287500;0,287500;0,287500;0,287500;0,287500;0,287500;0,287500;0,419213;0,676080;0,676080;0,469213;0,469213;0,312500;0,312500;0,312500;0,437500;0,437500;
32;;;;;;;;;;;;;;;;;;;;;;;;;;;;;;;;1,000000;0,666667;0,583333;0,000000;0,000000;0,416667;0,000000;0,000000;0,000000;0,266667;0,266667;0,416667;0,416667;0,291667;0,291667;0,291667;0,291667;0,750000;0,750000;0,266667;0,266667;0,266667;0,266667;0,266667;0,266667;0,266667;0,266667;0,533333;0,291667;0,291667;0,583333;0,583333;0,291667;0,291667;0,291667;0,416667;0,416667;
33;;;;;;;;;;;;;;;;;;;;;;;;;;;;;;;;;1,000000;0,875000;0,000000;0,000000;0,416667;0,000000;0,000000;0,000000;0,266667;0,266667;0,416667;0,416667;0,291667;0,291667;0,291667;0,291667;0,500000;0,500000;0,266667;0,266667;0,266667;0,266667;0,266667;0,266667;0,266667;0,266667;0,800000;0,291667;0,291667;0,583333;0,583333;0,583333;0,583333;0,583333;0,416667;0,416667;
34;;;;;;;;;;;;;;;;;;;;;;;;;;;;;;;;;;1,000000;0,000000;0,000000;0,375000;0,000000;0,000000;0,000000;0,225000;0,225000;0,375000;0,375000;0,250000;0,250000;0,250000;0,250000;0,416667;0,416667;0,225000;0,225000;0,225000;0,225000;0,225000;0,225000;0,225000;0,225000;0,900000;0,250000;0,250000;0,500000;0,500000;0,500000;0,500000;0,500000;0,375000;0,375000;
35;;;;;;;;;;;;;;;;;;;;;;;;;;;;;;;;;;;1,000000;0,000000;0,000000;0,000000;0,000000;0,000000;0,000000;0,000000;0,000000;0,000000;0,000000;0,000000;0,000000;0,000000;0,000000;0,000000;0,000000;0,000000;0,000000;0,000000;0,000000;0,000000;0,000000;0,000000;0,000000;0,000000;0,000000;0,000000;0,000000;0,000000;0,000000;0,000000;0,000000;0,000000;
36;;;;;;;;;;;;;;;;;;;;;;;;;;;;;;;;;;;;1,000000;0,000000;0,000000;0,000000;0,000000;0,000000;0,000000;0,000000;0,000000;0,000000;0,000000;0,000000;0,000000;0,000000;0,000000;0,000000;0,000000;0,000000;0,000000;0,000000;0,000000;0,000000;0,000000;0,000000;0,000000;0,000000;0,000000;0,000000;0,000000;0,000000;0,000000;0,000000;0,000000;
37;;;;;;;;;;;;;;;;;;;;;;;;;;;;;;;;;;;;;1,000000;0,000000;0,000000;0,000000;0,700000;0,700000;0,500000;0,500000;0,375000;0,375000;0,375000;0,375000;0,333333;0,333333;0,700000;0,700000;0,700000;0,700000;0,700000;0,700000;0,700000;0,700000;0,350000;0,375000;0,375000;0,375000;0,375000;0,375000;0,375000;0,375000;0,500000;0,500000;
38;;;;;;;;;;;;;;;;;;;;;;;;;;;;;;;;;;;;;;1,000000;0,500000;0,500000;0,000000;0,000000;0,000000;0,000000;0,000000;0,000000;0,000000;0,000000;0,000000;0,000000;0,000000;0,000000;0,000000;0,000000;0,000000;0,000000;0,000000;0,000000;0,000000;0,000000;0,000000;0,000000;0,000000;0,000000;0,000000;0,000000;0,000000;0,000000;
39;;;;;;;;;;;;;;;;;;;;;;;;;;;;;;;;;;;;;;;1,000000;0,500000;0,000000;0,000000;0,000000;0,000000;0,000000;0,000000;0,000000;0,000000;0,000000;0,000000;0,000000;0,000000;0,000000;0,000000;0,000000;0,000000;0,000000;0,000000;0,000000;0,000000;0,000000;0,000000;0,000000;0,000000;0,000000;0,000000;0,000000;0,000000;
40;;;;;;;;;;;;;;;;;;;;;;;;;;;;;;;;;;;;;;;;1,000000;0,000000;0,000000;0,000000;0,000000;0,000000;0,000000;0,000000;0,000000;0,000000;0,000000;0,000000;0,000000;0,000000;0,000000;0,000000;0,000000;0,000000;0,000000;0,000000;0,000000;0,000000;0,000000;0,000000;0,000000;0,000000;0,000000;0,000000;0,000000;
41;;;;;;;;;;;;;;;;;;;;;;;;;;;;;;;;;;;;;;;;;1,000000;0,800000;0,350000;0,350000;0,225000;0,225000;0,225000;0,225000;0,183333;0,183333;0,800000;0,800000;0,800000;0,800000;0,400000;0,400000;0,400000;0,400000;0,200000;0,225000;0,225000;0,225000;0,225000;0,225000;0,225000;0,225000;0,350000;0,350000;
42;;;;;;;;;;;;;;;;;;;;;;;;;;;;;;;;;;;;;;;;;;1,000000;0,350000;0,350000;0,225000;0,225000;0,225000;0,225000;0,183333;0,183333;0,800000;0,800000;0,800000;0,800000;0,400000;0,400000;0,400000;0,400000;0,200000;0,225000;0,225000;0,225000;0,225000;0,225000;0,225000;0,225000;0,350000;0,350000;
43;;;;;;;;;;;;;;;;;;;;;;;;;;;;;;;;;;;;;;;;;;;1,000000;0,500000;0,375000;0,375000;0,375000;0,375000;0,333333;0,333333;0,350000;0,350000;0,350000;0,350000;0,350000;0,350000;0,350000;0,350000;0,350000;0,375000;0,375000;0,375000;0,375000;0,375000;0,375000;0,375000;0,500000;0,500000;
44;;;;;;;;;;;;;;;;;;;;;;;;;;;;;;;;;;;;;;;;;;;;1,000000;0,375000;0,375000;0,375000;0,375000;0,333333;0,333333;0,350000;0,350000;0,350000;0,350000;0,350000;0,350000;0,350000;0,350000;0,350000;0,375000;0,375000;0,375000;0,375000;0,375000;0,375000;0,375000;0,500000;0,500000;
45;;;;;;;;;;;;;;;;;;;;;;;;;;;;;;;;;;;;;;;;;;;;;1,000000;0,750000;0,750000;0,750000;0,208333;0,208333;0,225000;0,225000;0,225000;0,225000;0,225000;0,225000;0,225000;0,225000;0,225000;0,250000;0,250000;0,250000;0,250000;0,250000;0,250000;0,250000;0,375000;0,375000;
46;;;;;;;;;;;;;;;;;;;;;;;;;;;;;;;;;;;;;;;;;;;;;;1,000000;0,750000;0,750000;0,208333;0,208333;0,225000;0,225000;0,225000;0,225000;0,225000;0,225000;0,225000;0,225000;0,225000;0,250000;0,250000;0,250000;0,250000;0,250000;0,250000;0,250000;0,375000;0,375000;
47;;;;;;;;;;;;;;;;;;;;;;;;;;;;;;;;;;;;;;;;;;;;;;;1,000000;0,750000;0,208333;0,208333;0,225000;0,225000;0,225000;0,225000;0,225000;0,225000;0,225000;0,225000;0,225000;0,250000;0,250000;0,250000;0,250000;0,250000;0,250000;0,250000;0,375000;0,375000;
48;;;;;;;;;;;;;;;;;;;;;;;;;;;;;;;;;;;;;;;;;;;;;;;;1,000000;0,208333;0,208333;0,225000;0,225000;0,225000;0,225000;0,225000;0,225000;0,225000;0,225000;0,225000;0,250000;0,250000;0,250000;0,250000;0,250000;0,250000;0,250000;0,375000;0,375000;
49;;;;;;;;;;;;;;;;;;;;;;;;;;;;;;;;;;;;;;;;;;;;;;;;;1,000000;0,833333;0,183333;0,183333;0,183333;0,183333;0,183333;0,183333;0,183333;0,183333;0,366667;0,208333;0,208333;0,416667;0,416667;0,208333;0,208333;0,208333;0,333333;0,333333;
50;;;;;;;;;;;;;;;;;;;;;;;;;;;;;;;;;;;;;;;;;;;;;;;;;;1,000000;0,183333;0,183333;0,183333;0,183333;0,183333;0,183333;0,183333;0,183333;0,366667;0,208333;0,208333;0,416667;0,416667;0,208333;0,208333;0,208333;0,333333;0,333333;
51;;;;;;;;;;;;;;;;;;;;;;;;;;;;;;;;;;;;;;;;;;;;;;;;;;;1,000000;0,800000;0,800000;0,800000;0,400000;0,400000;0,400000;0,400000;0,200000;0,225000;0,225000;0,225000;0,225000;0,225000;0,225000;0,225000;0,350000;0,350000;
52;;;;;;;;;;;;;;;;;;;;;;;;;;;;;;;;;;;;;;;;;;;;;;;;;;;;1,000000;0,800000;0,800000;0,400000;0,400000;0,400000;0,400000;0,200000;0,225000;0,225000;0,225000;0,225000;0,225000;0,225000;0,225000;0,350000;0,350000;
53;;;;;;;;;;;;;;;;;;;;;;;;;;;;;;;;;;;;;;;;;;;;;;;;;;;;;1,000000;0,800000;0,400000;0,400000;0,400000;0,400000;0,200000;0,225000;0,225000;0,225000;0,225000;0,225000;0,225000;0,225000;0,350000;0,350000;
54;;;;;;;;;;;;;;;;;;;;;;;;;;;;;;;;;;;;;;;;;;;;;;;;;;;;;;1,000000;0,400000;0,400000;0,400000;0,400000;0,200000;0,225000;0,225000;0,225000;0,225000;0,225000;0,225000;0,225000;0,350000;0,350000;
55;;;;;;;;;;;;;;;;;;;;;;;;;;;;;;;;;;;;;;;;;;;;;;;;;;;;;;;1,000000;0,800000;0,800000;0,800000;0,200000;0,225000;0,225000;0,225000;0,225000;0,225000;0,225000;0,225000;0,350000;0,350000;
56;;;;;;;;;;;;;;;;;;;;;;;;;;;;;;;;;;;;;;;;;;;;;;;;;;;;;;;;1,000000;0,800000;0,800000;0,200000;0,225000;0,225000;0,225000;0,225000;0,225000;0,225000;0,225000;0,350000;0,350000;
57;;;;;;;;;;;;;;;;;;;;;;;;;;;;;;;;;;;;;;;;;;;;;;;;;;;;;;;;;1,000000;0,800000;0,200000;0,225000;0,225000;0,225000;0,225000;0,225000;0,225000;0,225000;0,350000;0,350000;
58;;;;;;;;;;;;;;;;;;;;;;;;;;;;;;;;;;;;;;;;;;;;;;;;;;;;;;;;;;1,000000;0,200000;0,225000;0,225000;0,225000;0,225000;0,225000;0,225000;0,225000;0,350000;0,350000;
59;;;;;;;;;;;;;;;;;;;;;;;;;;;;;;;;;;;;;;;;;;;;;;;;;;;;;;;;;;;1,000000;0,225000;0,225000;0,450000;0,450000;0,450000;0,450000;0,450000;0,350000;0,350000;
60;;;;;;;;;;;;;;;;;;;;;;;;;;;;;;;;;;;;;;;;;;;;;;;;;;;;;;;;;;;;1,000000;0,750000;0,250000;0,250000;0,250000;0,250000;0,250000;0,375000;0,375000;
61;;;;;;;;;;;;;;;;;;;;;;;;;;;;;;;;;;;;;;;;;;;;;;;;;;;;;;;;;;;;;1,000000;0,250000;0,250000;0,250000;0,250000;0,250000;0,375000;0,375000;
62;;;;;;;;;;;;;;;;;;;;;;;;;;;;;;;;;;;;;;;;;;;;;;;;;;;;;;;;;;;;;;1,000000;0,750000;0,250000;0,250000;0,250000;0,375000;0,375000;
63;;;;;;;;;;;;;;;;;;;;;;;;;;;;;;;;;;;;;;;;;;;;;;;;;;;;;;;;;;;;;;;1,000000;0,250000;0,250000;0,250000;0,375000;0,375000;
64;;;;;;;;;;;;;;;;;;;;;;;;;;;;;;;;;;;;;;;;;;;;;;;;;;;;;;;;;;;;;;;;1,000000;0,750000;0,750000;0,375000;0,375000;
65;;;;;;;;;;;;;;;;;;;;;;;;;;;;;;;;;;;;;;;;;;;;;;;;;;;;;;;;;;;;;;;;;1,000000;0,750000;0,375000;0,375000;
66;;;;;;;;;;;;;;;;;;;;;;;;;;;;;;;;;;;;;;;;;;;;;;;;;;;;;;;;;;;;;;;;;;1,000000;0,375000;0,375000;
67;;;;;;;;;;;;;;;;;;;;;;;;;;;;;;;;;;;;;;;;;;;;;;;;;;;;;;;;;;;;;;;;;;;1,000000;0,500000;
68;;;;;;;;;;;;;;;;;;;;;;;;;;;;;;;;;;;;;;;;;;;;;;;;;;;;;;;;;;;;;;;;;;;;1,000000;
