;1; 2; 3; 4; 5; 6; 7; 8; 9; 10; 11; 12; 13; 14; 15; 16; 17; 18; 19; 20; 21; 22; 23; 24; 25; 26; 27; 28; 29; 30; 31; 32; 33; 34; 35; 36; 37; 38; 39; 40; 41; 42; 43; 44; 45; 46; 47; 48; 49; 50; 51; 52; 53; 54; 55; 56; 57; 58; 59; 60; 61; 62; 63; 64; 65; 66; 67; 68; 69; 70; 71; 72; 73
1;1,000000;0,617878;0,656702;0,624748;0,489664;0,742744;0,231579;0,231579;0,216667;0,368722;0,216667;0,476764;0,977173;0,754159;0,580996;0,742757;0,750575;0,750575;0,744803;0,593845;0,593845;0,454350;0,397997;0,454350;0,515038;0,575779;0,964664;0,641531;0,333987;0,333987;0,651266;0,722755;0,986686;0,651266;0,651266;0,745905;0,750575;0,972426;0,651636;0,649849;0,649849;0,491394;0,491394;0,649867;0,649867;0,500203;0,333987;0,333987;0,333987;0,972426;0,000000;0,000000;0,000000;0,963616;0,500203;0,657611;0,972426;0,568115;0,000000;0,000000;0,000000;0,000000;0,000000;0,000000;0,000000;0,491394;0,491394;0,333987;0,333987;0,333987;0,333987;0,491394;0,491394;
2;;1,000000;0,621234;0,635047;0,832508;0,744658;0,211594;0,211594;0,206061;0,754102;0,206061;0,473631;0,589390;0,735308;0,576973;0,744658;0,739418;0,739418;0,984754;0,657281;0,657281;0,646148;0,780976;0,646148;0,606281;0,781152;0,492285;0,614619;0,333194;0,333194;0,640895;0,590452;0,659160;0,639003;0,639003;0,639780;0,744658;0,492285;0,657114;0,333194;0,333194;0,492285;0,492285;0,333194;0,333194;0,732432;0,333194;0,333194;0,333194;0,492285;0,000000;0,000000;0,000000;0,969558;0,732442;0,652206;0,492285;0,554742;0,000000;0,000000;0,000000;0,000000;0,000000;0,000000;0,000000;0,492285;0,492285;0,333194;0,333194;0,333194;0,333194;0,492285;0,492285;
3;;;1,000000;0,657476;0,464913;0,739861;0,000000;0,000000;0,000000;0,583959;0,000000;0,936866;0,587991;0,749213;0,574877;0,739878;0,737937;0,737937;0,741642;0,594114;0,594114;0,453718;0,396199;0,453718;0,514763;0,784918;0,964620;0,594156;0,650053;0,650053;0,651792;0,724107;0,658070;0,651792;0,651792;0,748258;0,748895;0,973859;0,660029;0,648831;0,648831;0,490047;0,490047;0,648850;0,648850;0,500175;0,332152;0,332152;0,332152;0,973859;0,000000;0,000000;0,000000;0,963731;0,500175;0,658070;0,973859;0,621572;0,000000;0,000000;0,000000;0,000000;0,000000;0,000000;0,000000;0,490047;0,490047;0,332152;0,332152;0,332152;0,968294;0,490047;0,490047;
4;;;;1,000000;0,637643;0,745519;0,401661;0,401661;0,400844;0,380396;0,400844;0,356493;0,561025;0,742939;0,679697;0,746167;0,745184;0,745184;0,747032;0,680280;0,680280;0,767754;0,793867;0,767754;0,743526;0,594234;0,497381;0,636690;0,665694;0,665694;0,656976;0,616372;0,663065;0,656528;0,656528;0,526686;0,747393;0,497123;0,662108;0,661923;0,661923;0,500000;0,500000;0,663283;0,663283;0,744296;0,666667;0,666667;0,666667;0,497123;0,000000;0,000000;0,000000;0,000000;0,743554;0,660928;0,497123;0,655231;0,000000;0,000000;0,000000;0,000000;0,000000;0,000000;0,000000;0,500000;0,500000;0,666667;0,666667;0,666667;0,667488;0,500000;0,500000;
5;;;;;1,000000;0,719184;0,000000;0,000000;0,000000;0,725708;0,000000;0,673095;0,560905;0,671775;0,544910;0,719184;0,488785;0,488785;0,719184;0,563036;0,563036;0,632340;0,767450;0,632340;0,600013;0,739505;0,485954;0,527402;0,334439;0,334439;0,619580;0,569459;0,640300;0,619602;0,619602;0,453310;0,719184;0,485954;0,640305;0,641008;0,641008;0,485954;0,485954;0,334439;0,334439;0,728074;0,334439;0,334439;0,334439;0,485954;0,000000;0,000000;0,000000;0,940500;0,718658;0,639915;0,485954;0,519490;0,000000;0,000000;0,000000;0,000000;0,000000;0,000000;0,000000;0,485954;0,485954;0,334439;0,334439;0,334439;0,334439;0,485954;0,485954;
6;;;;;;1,000000;0,000000;0,000000;0,000000;0,289009;0,000000;0,565505;0,532586;0,750000;0,690562;0,750000;0,500000;0,500000;0,750000;0,506253;0,506253;0,444419;0,450000;0,444419;0,457588;0,604023;0,750000;0,516309;0,291667;0,291667;0,503307;0,501818;0,583333;0,503307;0,503307;0,538355;0,750000;0,375000;0,583333;0,583333;0,583333;0,375000;0,375000;0,291667;0,291667;0,250000;0,291667;0,291667;0,291667;0,375000;0,000000;0,000000;0,000000;0,625000;0,250000;0,291667;0,375000;0,515587;0,000000;0,000000;0,000000;0,000000;0,000000;0,000000;0,000000;0,375000;0,375000;0,291667;0,291667;0,291667;0,291667;0,375000;0,375000;
7;;;;;;;1,000000;0,767818;0,709268;0,651708;0,709268;0,651708;0,350000;0,000000;0,000000;0,000000;0,000000;0,000000;0,000000;0,000000;0,000000;0,000000;0,000000;0,000000;0,000000;0,000000;0,000000;0,000000;0,000000;0,000000;0,000000;0,000000;0,000000;0,000000;0,000000;0,258867;0,000000;0,000000;0,000000;0,000000;0,000000;0,000000;0,000000;0,000000;0,000000;0,000000;0,000000;0,000000;0,000000;0,000000;0,669464;0,669464;0,669464;0,000000;0,000000;0,000000;0,000000;0,000000;0,000000;0,000000;0,000000;0,000000;0,000000;0,000000;0,000000;0,000000;0,000000;0,000000;0,000000;0,000000;0,000000;0,000000;0,000000;
8;;;;;;;;1,000000;0,709268;0,651708;0,709268;0,651708;0,350000;0,000000;0,000000;0,000000;0,000000;0,000000;0,000000;0,000000;0,000000;0,000000;0,000000;0,000000;0,000000;0,000000;0,000000;0,000000;0,000000;0,000000;0,000000;0,000000;0,000000;0,000000;0,000000;0,258867;0,000000;0,000000;0,000000;0,000000;0,000000;0,000000;0,000000;0,000000;0,000000;0,000000;0,000000;0,000000;0,000000;0,000000;0,669464;0,669464;0,669464;0,000000;0,000000;0,000000;0,000000;0,000000;0,000000;0,000000;0,000000;0,000000;0,000000;0,000000;0,000000;0,000000;0,000000;0,000000;0,000000;0,000000;0,000000;0,000000;0,000000;
9;;;;;;;;;1,000000;0,800000;0,800000;0,800000;0,300000;0,000000;0,000000;0,000000;0,000000;0,000000;0,000000;0,000000;0,000000;0,000000;0,000000;0,000000;0,000000;0,000000;0,000000;0,000000;0,000000;0,000000;0,000000;0,000000;0,000000;0,000000;0,000000;0,234339;0,000000;0,000000;0,000000;0,000000;0,000000;0,000000;0,000000;0,000000;0,000000;0,000000;0,000000;0,000000;0,000000;0,000000;0,450000;0,450000;0,450000;0,000000;0,000000;0,000000;0,000000;0,000000;0,000000;0,000000;0,000000;0,000000;0,000000;0,000000;0,000000;0,000000;0,000000;0,000000;0,000000;0,000000;0,000000;0,000000;0,000000;
10;;;;;;;;;;1,000000;0,800000;0,719706;0,626394;0,509340;0,335556;0,289009;0,524350;0,524350;0,289009;0,497615;0,497615;0,448164;0,251509;0,448164;0,487326;0,406035;0,476509;0,442184;0,351509;0,351509;0,543170;0,623028;0,649350;0,543170;0,543170;0,597896;0,524350;0,899350;0,351509;0,351509;0,351509;0,476509;0,476509;0,351509;0,351509;0,524350;0,351509;0,351509;0,351509;0,899350;0,475000;0,475000;0,475000;0,851509;0,524350;0,649350;0,899350;0,369684;0,000000;0,000000;0,000000;0,000000;0,000000;0,000000;0,000000;0,476509;0,476509;0,351509;0,351509;0,351509;0,351509;0,476509;0,476509;
11;;;;;;;;;;;1,000000;0,800000;0,300000;0,000000;0,000000;0,000000;0,000000;0,000000;0,000000;0,000000;0,000000;0,000000;0,000000;0,000000;0,000000;0,000000;0,000000;0,000000;0,000000;0,000000;0,000000;0,000000;0,000000;0,000000;0,000000;0,234339;0,000000;0,000000;0,000000;0,000000;0,000000;0,000000;0,000000;0,000000;0,000000;0,000000;0,000000;0,000000;0,000000;0,000000;0,450000;0,450000;0,450000;0,000000;0,000000;0,000000;0,000000;0,000000;0,000000;0,000000;0,000000;0,000000;0,000000;0,000000;0,000000;0,000000;0,000000;0,000000;0,000000;0,000000;0,000000;0,000000;0,000000;
12;;;;;;;;;;;;1,000000;0,443621;0,631010;0,560905;0,565505;0,312500;0,312500;0,565505;0,401367;0,401367;0,334236;0,275000;0,334236;0,355009;0,792049;0,500000;0,512658;0,375000;0,375000;0,400000;0,439912;0,375000;0,400000;0,400000;0,449461;0,565505;0,500000;0,690505;0,375000;0,375000;0,500000;0,500000;0,375000;0,375000;0,312500;0,375000;0,375000;0,375000;0,500000;0,475000;0,475000;0,475000;0,875000;0,312500;0,375000;0,500000;0,416667;0,000000;0,000000;0,000000;0,000000;0,000000;0,000000;0,000000;0,500000;0,500000;0,375000;0,375000;0,375000;0,375000;0,500000;0,500000;
13;;;;;;;;;;;;;1,000000;0,746226;0,512231;0,532586;0,765956;0,765956;0,532586;0,517572;0,517572;0,473037;0,268678;0,473037;0,505672;0,406035;0,468678;0,609637;0,357567;0,357567;0,552208;0,617902;0,932623;0,552208;0,552208;0,597777;0,765956;0,865800;0,357567;0,357567;0,357567;0,468678;0,468678;0,357567;0,357567;0,532466;0,357567;0,357567;0,357567;0,865800;0,000000;0,000000;0,000000;0,802012;0,532466;0,643577;0,865800;0,583594;0,000000;0,000000;0,000000;0,000000;0,000000;0,000000;0,000000;0,468678;0,468678;0,357567;0,357567;0,357567;0,357567;0,468678;0,468678;
14;;;;;;;;;;;;;;1,000000;0,643012;0,750000;0,729691;0,729691;0,750000;0,409556;0,409556;0,377717;0,212500;0,377717;0,416879;0,687242;0,437500;0,540773;0,312500;0,312500;0,472723;0,534969;0,917191;0,472723;0,472723;0,487822;0,979452;0,855320;0,625000;0,312500;0,312500;0,437500;0,437500;0,312500;0,312500;0,480320;0,312500;0,312500;0,312500;0,855320;0,000000;0,000000;0,000000;0,812500;0,480320;0,605320;0,855320;0,531173;0,000000;0,000000;0,000000;0,000000;0,000000;0,000000;0,000000;0,437500;0,437500;0,312500;0,312500;0,312500;0,312500;0,437500;0,437500;
15;;;;;;;;;;;;;;;1,000000;0,690562;0,475568;0,475568;0,690562;0,294235;0,294235;0,256149;0,229523;0,256149;0,273460;0,619450;0,429523;0,469683;0,318412;0,318412;0,310952;0,325072;0,586679;0,310952;0,310952;0,351041;0,690562;0,429523;0,586721;0,318412;0,318412;0,429523;0,429523;0,597379;0,597379;0,262857;0,318412;0,318412;0,318412;0,429523;0,000000;0,000000;0,000000;0,762857;0,262857;0,318412;0,429523;0,480961;0,000000;0,000000;0,000000;0,000000;0,000000;0,000000;0,000000;0,429523;0,429523;0,318412;0,318412;0,318412;0,318412;0,429523;0,429523;
16;;;;;;;;;;;;;;;;1,000000;0,500000;0,500000;0,750000;0,263183;0,263183;0,241242;0,225000;0,241242;0,252783;0,604023;0,375000;0,516309;0,291667;0,291667;0,277778;0,282456;0,583333;0,277778;0,277778;0,292869;0,750000;0,375000;0,583333;0,291667;0,291667;0,375000;0,375000;0,583333;0,583333;0,250000;0,291667;0,291667;0,291667;0,375000;0,000000;0,000000;0,000000;0,625000;0,250000;0,291667;0,375000;0,515587;0,000000;0,000000;0,000000;0,000000;0,000000;0,000000;0,000000;0,375000;0,375000;0,291667;0,291667;0,291667;0,291667;0,375000;0,375000;
17;;;;;;;;;;;;;;;;;1,000000;0,750000;0,500000;0,474458;0,474458;0,449558;0,225000;0,449558;0,471315;0,302012;0,375000;0,516309;0,291667;0,291667;0,502339;0,537165;0,875000;0,502339;0,502339;0,516454;0,750000;0,750000;0,291667;0,291667;0,291667;0,375000;0,375000;0,291667;0,291667;0,500000;0,291667;0,291667;0,291667;0,750000;0,000000;0,000000;0,000000;0,625000;0,500000;0,583333;0,750000;0,515587;0,000000;0,000000;0,000000;0,000000;0,000000;0,000000;0,000000;0,375000;0,375000;0,291667;0,291667;0,291667;0,291667;0,375000;0,375000;
18;;;;;;;;;;;;;;;;;;1,000000;0,500000;0,474458;0,474458;0,449558;0,225000;0,449558;0,471315;0,302012;0,375000;0,516309;0,291667;0,291667;0,502339;0,537165;0,875000;0,502339;0,502339;0,516454;0,750000;0,750000;0,291667;0,291667;0,291667;0,375000;0,375000;0,291667;0,291667;0,500000;0,291667;0,291667;0,291667;0,750000;0,000000;0,000000;0,000000;0,625000;0,500000;0,583333;0,750000;0,515587;0,000000;0,000000;0,000000;0,000000;0,000000;0,000000;0,000000;0,375000;0,375000;0,291667;0,291667;0,291667;0,291667;0,375000;0,375000;
19;;;;;;;;;;;;;;;;;;;1,000000;0,263183;0,263183;0,241242;0,225000;0,241242;0,252783;0,604023;0,375000;0,516309;0,291667;0,291667;0,277778;0,282456;0,583333;0,277778;0,277778;0,292869;0,750000;0,375000;0,583333;0,291667;0,291667;0,375000;0,375000;0,291667;0,291667;0,250000;0,291667;0,291667;0,291667;0,375000;0,000000;0,000000;0,000000;0,625000;0,250000;0,291667;0,375000;0,515587;0,000000;0,000000;0,000000;0,000000;0,000000;0,000000;0,000000;0,375000;0,375000;0,291667;0,291667;0,291667;0,291667;0,375000;0,375000;
20;;;;;;;;;;;;;;;;;;;;1,000000;0,698424;0,510675;0,431253;0,510675;0,551372;0,364714;0,881253;0,364708;0,325683;0,325683;0,642725;0,682642;0,599458;0,642725;0,642725;0,683848;0,474458;0,849458;0,325683;0,631253;0,631253;0,450683;0,450683;0,325683;0,325683;0,736948;0,325683;0,325683;0,325683;0,849458;0,000000;0,000000;0,000000;0,825683;0,474458;0,599458;0,849458;0,318033;0,000000;0,000000;0,000000;0,000000;0,000000;0,000000;0,000000;0,450683;0,450683;0,325683;0,325683;0,325683;0,325683;0,450683;0,450683;
21;;;;;;;;;;;;;;;;;;;;;1,000000;0,510675;0,431253;0,510675;0,551372;0,364714;0,881253;0,364708;0,325683;0,325683;0,642725;0,682642;0,599458;0,642725;0,642725;0,683848;0,474458;0,849458;0,325683;0,631253;0,631253;0,450683;0,450683;0,325683;0,325683;0,736948;0,325683;0,325683;0,325683;0,849458;0,000000;0,000000;0,000000;0,825683;0,474458;0,599458;0,849458;0,318033;0,000000;0,000000;0,000000;0,000000;0,000000;0,000000;0,000000;0,450683;0,450683;0,325683;0,325683;0,325683;0,325683;0,450683;0,450683;
22;;;;;;;;;;;;;;;;;;;;;;1,000000;0,755853;0,777614;0,762917;0,314881;0,777753;0,283164;0,296798;0,296798;0,556625;0,571339;0,560669;0,556625;0,556625;0,551057;0,449558;0,782892;0,296798;0,555531;0,555531;0,407909;0,407909;0,296798;0,296798;0,449558;0,296798;0,296798;0,296798;0,782892;0,000000;0,000000;0,000000;0,741242;0,689455;0,815279;0,782892;0,267569;0,000000;0,000000;0,000000;0,000000;0,000000;0,000000;0,000000;0,407909;0,407909;0,296798;0,296798;0,296798;0,296798;0,407909;0,407909;
23;;;;;;;;;;;;;;;;;;;;;;;1,000000;0,755853;0,742487;0,268678;0,700000;0,235063;0,266667;0,266667;0,436640;0,426818;0,266667;0,436640;0,436640;0,455022;0,225000;0,350000;0,266667;0,533333;0,533333;0,350000;0,350000;0,266667;0,266667;0,225000;0,266667;0,266667;0,266667;0,350000;0,000000;0,000000;0,000000;0,600000;0,675000;0,533333;0,350000;0,233333;0,000000;0,000000;0,000000;0,000000;0,000000;0,000000;0,000000;0,350000;0,350000;0,266667;0,266667;0,266667;0,266667;0,350000;0,350000;
24;;;;;;;;;;;;;;;;;;;;;;;;1,000000;0,762917;0,314881;0,777753;0,283164;0,296798;0,296798;0,556625;0,571339;0,560669;0,556625;0,556625;0,551057;0,449558;0,782892;0,296798;0,555531;0,555531;0,407909;0,407909;0,296798;0,296798;0,449558;0,296798;0,296798;0,296798;0,782892;0,000000;0,000000;0,000000;0,741242;0,689455;0,815279;0,782892;0,267569;0,000000;0,000000;0,000000;0,000000;0,000000;0,000000;0,000000;0,407909;0,407909;0,296798;0,296798;0,296798;0,296798;0,407909;0,407909;
25;;;;;;;;;;;;;;;;;;;;;;;;;1,000000;0,332192;0,790921;0,311491;0,308339;0,308339;0,590539;0,612036;0,582426;0,590539;0,590539;0,599505;0,471315;0,804648;0,308339;0,568699;0,568699;0,419450;0,419450;0,308339;0,308339;0,471315;0,308339;0,308339;0,308339;0,804648;0,000000;0,000000;0,000000;0,752783;0,875524;0,582426;0,804648;0,288343;0,000000;0,000000;0,000000;0,000000;0,000000;0,000000;0,000000;0,419450;0,419450;0,308339;0,308339;0,308339;0,308339;0,419450;0,419450;
26;;;;;;;;;;;;;;;;;;;;;;;;;;1,000000;0,468678;0,432325;0,357567;0,357567;0,369684;0,395550;0,357567;0,369684;0,369684;0,434944;0,604023;0,468678;0,715134;0,357567;0,357567;0,468678;0,468678;0,357567;0,357567;0,302012;0,357567;0,357567;0,357567;0,468678;0,000000;0,000000;0,000000;0,802012;0,302012;0,357567;0,468678;0,376954;0,000000;0,000000;0,000000;0,000000;0,000000;0,000000;0,000000;0,468678;0,468678;0,357567;0,357567;0,357567;0,357567;0,468678;0,468678;
27;;;;;;;;;;;;;;;;;;;;;;;;;;;1,000000;0,505063;0,416667;0,416667;0,836640;0,876818;0,416667;0,836640;0,836640;0,955022;0,375000;0,500000;0,416667;0,833333;0,833333;0,500000;0,500000;0,416667;0,416667;0,375000;0,416667;0,416667;0,416667;0,500000;0,000000;0,000000;0,000000;0,750000;0,375000;0,416667;0,500000;0,458333;0,000000;0,000000;0,000000;0,000000;0,000000;0,000000;0,000000;0,500000;0,500000;0,416667;0,416667;0,416667;0,416667;0,500000;0,500000;
28;;;;;;;;;;;;;;;;;;;;;;;;;;;;1,000000;0,660843;0,660843;0,372842;0,422526;0,666309;0,372842;0,372842;0,522722;0,516309;0,505063;0,355063;0,355063;0,355063;0,505063;0,505063;0,355063;0,355063;0,280063;0,355063;0,355063;0,355063;0,505063;0,000000;0,000000;0,000000;0,955063;0,280063;0,355063;0,505063;0,679034;0,000000;0,000000;0,000000;0,000000;0,000000;0,000000;0,000000;0,505063;0,505063;0,355063;0,355063;0,355063;0,671530;0,505063;0,505063;
29;;;;;;;;;;;;;;;;;;;;;;;;;;;;;1,000000;0,666667;0,333333;0,344956;0,333333;0,333333;0,333333;0,362314;0,291667;0,416667;0,333333;0,333333;0,333333;0,416667;0,416667;0,333333;0,333333;0,291667;0,333333;0,333333;0,333333;0,416667;0,000000;0,000000;0,000000;0,666667;0,291667;0,333333;0,416667;0,666667;0,000000;0,000000;0,000000;0,000000;0,000000;0,000000;0,000000;0,416667;0,416667;0,333333;0,333333;0,333333;0,666667;0,416667;0,416667;
30;;;;;;;;;;;;;;;;;;;;;;;;;;;;;;1,000000;0,333333;0,344956;0,333333;0,333333;0,333333;0,362314;0,291667;0,416667;0,333333;0,333333;0,333333;0,416667;0,416667;0,333333;0,333333;0,291667;0,333333;0,333333;0,333333;0,416667;0,000000;0,000000;0,000000;0,666667;0,291667;0,333333;0,416667;0,666667;0,000000;0,000000;0,000000;0,000000;0,000000;0,000000;0,000000;0,416667;0,416667;0,333333;0,333333;0,333333;0,666667;0,416667;0,416667;
31;;;;;;;;;;;;;;;;;;;;;;;;;;;;;;;1,000000;0,703389;0,613450;0,666667;0,666667;0,708259;0,502339;0,835673;0,333333;0,614418;0,614418;0,444444;0,444444;0,333333;0,333333;0,502339;0,333333;0,333333;0,333333;0,835673;0,000000;0,000000;0,000000;0,777778;0,502339;0,613450;0,835673;0,333333;0,000000;0,000000;0,000000;0,000000;0,000000;0,000000;0,000000;0,444444;0,444444;0,333333;0,333333;0,333333;0,333333;0,444444;0,444444;
32;;;;;;;;;;;;;;;;;;;;;;;;;;;;;;;;1,000000;0,662165;0,703389;0,703389;0,778635;0,537165;0,912165;0,344956;0,626818;0,626818;0,469956;0,469956;0,344956;0,344956;0,537165;0,344956;0,344956;0,344956;0,912165;0,000000;0,000000;0,000000;0,844956;0,537165;0,662165;0,912165;0,356579;0,000000;0,000000;0,000000;0,000000;0,000000;0,000000;0,000000;0,469956;0,469956;0,344956;0,344956;0,344956;0,344956;0,469956;0,469956;
33;;;;;;;;;;;;;;;;;;;;;;;;;;;;;;;;;1,000000;0,613450;0,613450;0,655343;0,875000;0,833333;0,333333;0,333333;0,333333;0,416667;0,416667;0,333333;0,333333;0,583333;0,333333;0,333333;0,333333;0,833333;0,000000;0,000000;0,000000;0,666667;0,583333;0,666667;0,833333;0,640587;0,000000;0,000000;0,000000;0,000000;0,000000;0,000000;0,000000;0,416667;0,416667;0,333333;0,333333;0,333333;0,333333;0,416667;0,416667;
34;;;;;;;;;;;;;;;;;;;;;;;;;;;;;;;;;;1,000000;0,666667;0,708259;0,502339;0,835673;0,333333;0,614418;0,614418;0,444444;0,444444;0,333333;0,333333;0,502339;0,333333;0,333333;0,333333;0,835673;0,000000;0,000000;0,000000;0,777778;0,502339;0,613450;0,835673;0,333333;0,000000;0,000000;0,000000;0,000000;0,000000;0,000000;0,000000;0,444444;0,444444;0,333333;0,333333;0,333333;0,333333;0,444444;0,444444;
35;;;;;;;;;;;;;;;;;;;;;;;;;;;;;;;;;;;1,000000;0,708259;0,502339;0,835673;0,333333;0,614418;0,614418;0,444444;0,444444;0,333333;0,333333;0,502339;0,333333;0,333333;0,333333;0,835673;0,000000;0,000000;0,000000;0,777778;0,502339;0,613450;0,835673;0,333333;0,000000;0,000000;0,000000;0,000000;0,000000;0,000000;0,000000;0,444444;0,444444;0,333333;0,333333;0,333333;0,333333;0,444444;0,444444;
36;;;;;;;;;;;;;;;;;;;;;;;;;;;;;;;;;;;;1,000000;0,516454;0,933121;0,362314;0,677244;0,677244;0,501203;0,501203;0,362314;0,362314;0,516454;0,362314;0,362314;0,362314;0,933121;0,000000;0,000000;0,000000;0,917869;0,516454;0,655343;0,933121;0,398540;0,000000;0,000000;0,000000;0,000000;0,000000;0,000000;0,000000;0,501203;0,501203;0,362314;0,362314;0,362314;0,362314;0,501203;0,501203;
37;;;;;;;;;;;;;;;;;;;;;;;;;;;;;;;;;;;;;1,000000;0,750000;0,583333;0,291667;0,291667;0,375000;0,375000;0,291667;0,291667;0,500000;0,291667;0,291667;0,291667;0,750000;0,000000;0,000000;0,000000;0,625000;0,500000;0,583333;0,750000;0,515587;0,000000;0,000000;0,000000;0,000000;0,000000;0,000000;0,000000;0,375000;0,375000;0,291667;0,291667;0,291667;0,291667;0,375000;0,375000;
38;;;;;;;;;;;;;;;;;;;;;;;;;;;;;;;;;;;;;;1,000000;0,416667;0,416667;0,416667;0,500000;0,500000;0,416667;0,416667;0,750000;0,416667;0,416667;0,416667;1,000000;0,000000;0,000000;0,000000;0,750000;0,750000;0,833333;1,000000;0,458333;0,000000;0,000000;0,000000;0,000000;0,000000;0,000000;0,000000;0,500000;0,500000;0,416667;0,416667;0,416667;0,416667;0,500000;0,500000;
39;;;;;;;;;;;;;;;;;;;;;;;;;;;;;;;;;;;;;;;1,000000;0,333333;0,333333;0,416667;0,416667;0,333333;0,333333;0,291667;0,333333;0,333333;0,333333;0,416667;0,000000;0,000000;0,000000;0,666667;0,291667;0,333333;0,416667;0,333333;0,000000;0,000000;0,000000;0,000000;0,000000;0,000000;0,000000;0,416667;0,416667;0,333333;0,333333;0,333333;0,333333;0,416667;0,416667;
40;;;;;;;;;;;;;;;;;;;;;;;;;;;;;;;;;;;;;;;;1,000000;0,666667;0,416667;0,416667;0,333333;0,333333;0,291667;0,333333;0,333333;0,333333;0,416667;0,000000;0,000000;0,000000;0,666667;0,291667;0,333333;0,416667;0,333333;0,000000;0,000000;0,000000;0,000000;0,000000;0,000000;0,000000;0,416667;0,416667;0,333333;0,333333;0,333333;0,333333;0,416667;0,416667;
41;;;;;;;;;;;;;;;;;;;;;;;;;;;;;;;;;;;;;;;;;1,000000;0,416667;0,416667;0,333333;0,333333;0,291667;0,333333;0,333333;0,333333;0,416667;0,000000;0,000000;0,000000;0,666667;0,291667;0,333333;0,416667;0,333333;0,000000;0,000000;0,000000;0,000000;0,000000;0,000000;0,000000;0,416667;0,416667;0,333333;0,333333;0,333333;0,333333;0,416667;0,416667;
42;;;;;;;;;;;;;;;;;;;;;;;;;;;;;;;;;;;;;;;;;;1,000000;0,500000;0,416667;0,416667;0,375000;0,416667;0,416667;0,416667;0,500000;0,000000;0,000000;0,000000;0,750000;0,375000;0,416667;0,500000;0,458333;0,000000;0,000000;0,000000;0,000000;0,000000;0,000000;0,000000;0,500000;0,500000;0,416667;0,416667;0,416667;0,416667;0,500000;0,500000;
43;;;;;;;;;;;;;;;;;;;;;;;;;;;;;;;;;;;;;;;;;;;1,000000;0,416667;0,416667;0,375000;0,416667;0,416667;0,416667;0,500000;0,000000;0,000000;0,000000;0,750000;0,375000;0,416667;0,500000;0,458333;0,000000;0,000000;0,000000;0,000000;0,000000;0,000000;0,000000;0,500000;0,500000;0,416667;0,416667;0,416667;0,416667;0,500000;0,500000;
44;;;;;;;;;;;;;;;;;;;;;;;;;;;;;;;;;;;;;;;;;;;;1,000000;0,666667;0,291667;0,333333;0,333333;0,333333;0,416667;0,000000;0,000000;0,000000;0,666667;0,291667;0,333333;0,416667;0,333333;0,000000;0,000000;0,000000;0,000000;0,000000;0,000000;0,000000;0,416667;0,416667;0,333333;0,333333;0,333333;0,333333;0,416667;0,416667;
45;;;;;;;;;;;;;;;;;;;;;;;;;;;;;;;;;;;;;;;;;;;;;1,000000;0,291667;0,333333;0,333333;0,333333;0,416667;0,000000;0,000000;0,000000;0,666667;0,291667;0,333333;0,416667;0,333333;0,000000;0,000000;0,000000;0,000000;0,000000;0,000000;0,000000;0,416667;0,416667;0,333333;0,333333;0,333333;0,333333;0,416667;0,416667;
46;;;;;;;;;;;;;;;;;;;;;;;;;;;;;;;;;;;;;;;;;;;;;;1,000000;0,291667;0,291667;0,291667;0,750000;0,000000;0,000000;0,000000;0,625000;0,500000;0,583333;0,750000;0,270833;0,000000;0,000000;0,000000;0,000000;0,000000;0,000000;0,000000;0,375000;0,375000;0,291667;0,291667;0,291667;0,291667;0,375000;0,375000;
47;;;;;;;;;;;;;;;;;;;;;;;;;;;;;;;;;;;;;;;;;;;;;;;1,000000;0,666667;0,666667;0,416667;0,000000;0,000000;0,000000;0,666667;0,291667;0,333333;0,416667;0,333333;0,000000;0,000000;0,000000;0,000000;0,000000;0,000000;0,000000;0,416667;0,416667;0,333333;0,333333;0,333333;0,333333;0,416667;0,416667;
48;;;;;;;;;;;;;;;;;;;;;;;;;;;;;;;;;;;;;;;;;;;;;;;;1,000000;0,666667;0,416667;0,000000;0,000000;0,000000;0,666667;0,291667;0,333333;0,416667;0,333333;0,000000;0,000000;0,000000;0,000000;0,000000;0,000000;0,000000;0,416667;0,416667;0,333333;0,333333;0,333333;0,333333;0,416667;0,416667;
49;;;;;;;;;;;;;;;;;;;;;;;;;;;;;;;;;;;;;;;;;;;;;;;;;1,000000;0,416667;0,000000;0,000000;0,000000;0,666667;0,291667;0,333333;0,416667;0,333333;0,000000;0,000000;0,000000;0,000000;0,000000;0,000000;0,000000;0,416667;0,416667;0,333333;0,333333;0,333333;0,333333;0,416667;0,416667;
50;;;;;;;;;;;;;;;;;;;;;;;;;;;;;;;;;;;;;;;;;;;;;;;;;;1,000000;0,000000;0,000000;0,000000;0,750000;0,750000;0,833333;1,000000;0,458333;0,000000;0,000000;0,000000;0,000000;0,000000;0,000000;0,000000;0,500000;0,500000;0,416667;0,416667;0,416667;0,416667;0,500000;0,500000;
51;;;;;;;;;;;;;;;;;;;;;;;;;;;;;;;;;;;;;;;;;;;;;;;;;;;1,000000;0,750000;0,750000;0,000000;0,000000;0,000000;0,000000;0,000000;0,000000;0,000000;0,000000;0,000000;0,000000;0,000000;0,000000;0,000000;0,000000;0,000000;0,000000;0,000000;0,000000;0,000000;0,000000;
52;;;;;;;;;;;;;;;;;;;;;;;;;;;;;;;;;;;;;;;;;;;;;;;;;;;;1,000000;0,750000;0,000000;0,000000;0,000000;0,000000;0,000000;0,000000;0,000000;0,000000;0,000000;0,000000;0,000000;0,000000;0,000000;0,000000;0,000000;0,000000;0,000000;0,000000;0,000000;0,000000;
53;;;;;;;;;;;;;;;;;;;;;;;;;;;;;;;;;;;;;;;;;;;;;;;;;;;;;1,000000;0,000000;0,000000;0,000000;0,000000;0,000000;0,000000;0,000000;0,000000;0,000000;0,000000;0,000000;0,000000;0,000000;0,000000;0,000000;0,000000;0,000000;0,000000;0,000000;0,000000;
54;;;;;;;;;;;;;;;;;;;;;;;;;;;;;;;;;;;;;;;;;;;;;;;;;;;;;;1,000000;0,625000;0,666667;0,750000;0,833333;0,000000;0,000000;0,000000;0,000000;0,000000;0,000000;0,000000;0,750000;0,750000;0,666667;0,666667;0,666667;0,666667;0,750000;0,750000;
55;;;;;;;;;;;;;;;;;;;;;;;;;;;;;;;;;;;;;;;;;;;;;;;;;;;;;;;1,000000;0,583333;0,750000;0,270833;0,000000;0,000000;0,000000;0,000000;0,000000;0,000000;0,000000;0,375000;0,375000;0,291667;0,291667;0,291667;0,291667;0,375000;0,375000;
56;;;;;;;;;;;;;;;;;;;;;;;;;;;;;;;;;;;;;;;;;;;;;;;;;;;;;;;;1,000000;0,833333;0,333333;0,000000;0,000000;0,000000;0,000000;0,000000;0,000000;0,000000;0,416667;0,416667;0,333333;0,333333;0,333333;0,333333;0,416667;0,416667;
57;;;;;;;;;;;;;;;;;;;;;;;;;;;;;;;;;;;;;;;;;;;;;;;;;;;;;;;;;1,000000;0,458333;0,000000;0,000000;0,000000;0,000000;0,000000;0,000000;0,000000;0,500000;0,500000;0,416667;0,416667;0,416667;0,416667;0,500000;0,500000;
58;;;;;;;;;;;;;;;;;;;;;;;;;;;;;;;;;;;;;;;;;;;;;;;;;;;;;;;;;;1,000000;0,000000;0,000000;0,000000;0,000000;0,000000;0,000000;0,000000;0,458333;0,458333;0,333333;0,333333;0,333333;0,666667;0,458333;0,458333;
59;;;;;;;;;;;;;;;;;;;;;;;;;;;;;;;;;;;;;;;;;;;;;;;;;;;;;;;;;;;1,000000;0,500000;0,500000;0,000000;0,000000;0,000000;0,000000;0,000000;0,000000;0,000000;0,000000;0,000000;0,000000;0,000000;0,000000;
60;;;;;;;;;;;;;;;;;;;;;;;;;;;;;;;;;;;;;;;;;;;;;;;;;;;;;;;;;;;;1,000000;0,500000;0,000000;0,000000;0,000000;0,000000;0,000000;0,000000;0,000000;0,000000;0,000000;0,000000;0,000000;0,000000;
61;;;;;;;;;;;;;;;;;;;;;;;;;;;;;;;;;;;;;;;;;;;;;;;;;;;;;;;;;;;;;1,000000;0,000000;0,000000;0,000000;0,000000;0,000000;0,000000;0,000000;0,000000;0,000000;0,000000;0,000000;0,000000;
62;;;;;;;;;;;;;;;;;;;;;;;;;;;;;;;;;;;;;;;;;;;;;;;;;;;;;;;;;;;;;;1,000000;0,666667;0,666667;0,666667;0,000000;0,000000;0,000000;0,000000;0,000000;0,000000;0,000000;0,000000;
63;;;;;;;;;;;;;;;;;;;;;;;;;;;;;;;;;;;;;;;;;;;;;;;;;;;;;;;;;;;;;;;1,000000;0,666667;0,666667;0,000000;0,000000;0,000000;0,000000;0,000000;0,000000;0,000000;0,000000;
64;;;;;;;;;;;;;;;;;;;;;;;;;;;;;;;;;;;;;;;;;;;;;;;;;;;;;;;;;;;;;;;;1,000000;0,666667;0,000000;0,000000;0,000000;0,000000;0,000000;0,000000;0,000000;0,000000;
65;;;;;;;;;;;;;;;;;;;;;;;;;;;;;;;;;;;;;;;;;;;;;;;;;;;;;;;;;;;;;;;;;1,000000;0,000000;0,000000;0,000000;0,000000;0,000000;0,000000;0,000000;0,000000;
66;;;;;;;;;;;;;;;;;;;;;;;;;;;;;;;;;;;;;;;;;;;;;;;;;;;;;;;;;;;;;;;;;;1,000000;0,500000;0,416667;0,416667;0,416667;0,416667;0,500000;0,500000;
67;;;;;;;;;;;;;;;;;;;;;;;;;;;;;;;;;;;;;;;;;;;;;;;;;;;;;;;;;;;;;;;;;;;1,000000;0,416667;0,416667;0,416667;0,416667;0,500000;0,500000;
68;;;;;;;;;;;;;;;;;;;;;;;;;;;;;;;;;;;;;;;;;;;;;;;;;;;;;;;;;;;;;;;;;;;;1,000000;0,666667;0,666667;0,333333;0,416667;0,416667;
69;;;;;;;;;;;;;;;;;;;;;;;;;;;;;;;;;;;;;;;;;;;;;;;;;;;;;;;;;;;;;;;;;;;;;1,000000;0,666667;0,333333;0,416667;0,416667;
70;;;;;;;;;;;;;;;;;;;;;;;;;;;;;;;;;;;;;;;;;;;;;;;;;;;;;;;;;;;;;;;;;;;;;;1,000000;0,333333;0,416667;0,416667;
71;;;;;;;;;;;;;;;;;;;;;;;;;;;;;;;;;;;;;;;;;;;;;;;;;;;;;;;;;;;;;;;;;;;;;;;1,000000;0,416667;0,416667;
72;;;;;;;;;;;;;;;;;;;;;;;;;;;;;;;;;;;;;;;;;;;;;;;;;;;;;;;;;;;;;;;;;;;;;;;;1,000000;0,500000;
73;;;;;;;;;;;;;;;;;;;;;;;;;;;;;;;;;;;;;;;;;;;;;;;;;;;;;;;;;;;;;;;;;;;;;;;;;1,000000;
