;1; 2; 3; 4; 5; 6; 7; 8; 9; 10; 11; 12; 13; 14; 15; 16; 17; 18; 19; 20; 21; 22; 23; 24; 25; 26; 27; 28; 29; 30; 31; 32; 33; 34; 35; 36; 37; 38; 39; 40; 41; 42; 43; 44; 45; 46; 47; 48; 49
1;1,000000;0,404301;0,529762;0,775449;0,321429;0,321429;0,321429;0,321429;0,433440;0,410081;0,775449;0,512978;0,296429;0,296429;0,296429;0,352799;0,470402;0,429312;0,575843;0,321429;0,347795;0,321429;0,516908;0,685725;0,685725;0,685725;0,446429;0,696429;0,363095;0,446429;0,696429;0,363095;0,363095;0,450037;0,696429;0,446429;0,363095;0,446429;0,473314;0,446429;0,529762;0,696429;0,363095;0,363095;0,446429;0,446429;0,696429;0,446429;0,446429;
2;;1,000000;0,211819;0,295148;0,404227;0,404227;0,404227;0,404227;0,305372;0,360702;0,295148;0,363684;0,458828;0,458828;0,458828;0,412981;0,386842;0,323268;0,276644;0,419464;0,419319;0,419464;0,315304;0,402516;0,402516;0,402516;0,300217;0,000000;0,402752;0,292037;0,000000;0,358115;0,358115;0,331267;0,000000;0,264365;0,373923;0,269501;0,360421;0,269725;0,218730;0,000000;0,360041;0,360041;0,263152;0,263152;0,000000;0,263151;0,263151;
3;;;1,000000;0,583333;0,458333;0,458333;0,458333;0,458333;0,570345;0,546986;0,583333;0,649883;0,433333;0,433333;0,433333;0,489704;0,607307;0,566217;0,712748;0,458333;0,484700;0,458333;0,653813;0,609088;0,609088;0,609088;0,583333;0,833333;0,500000;0,583333;0,833333;0,500000;0,500000;0,586942;0,833333;0,859088;0,500000;0,583333;0,610219;0,583333;0,666667;0,833333;0,500000;0,500000;0,583333;0,583333;0,833333;0,583333;0,583333;
4;;;;1,000000;0,375000;0,375000;0,375000;0,375000;0,487012;0,463652;1,000000;0,566549;0,350000;0,350000;0,350000;0,406371;0,523974;0,482883;0,629415;0,375000;0,401367;0,375000;0,570480;0,375000;0,375000;0,375000;0,500000;0,750000;0,416667;0,500000;0,750000;0,416667;0,416667;0,503608;0,750000;0,500000;0,416667;0,500000;0,526886;0,500000;0,583333;0,750000;0,416667;0,416667;0,500000;0,500000;0,750000;0,500000;0,500000;
5;;;;;1,000000;0,750000;0,750000;0,750000;0,362012;0,338652;0,375000;0,441549;0,225000;0,225000;0,225000;0,281371;0,398974;0,357883;0,504415;0,250000;0,276367;0,250000;0,445480;0,250000;0,250000;0,250000;0,375000;0,625000;0,291667;0,375000;0,625000;0,291667;0,291667;0,378608;0,625000;0,375000;0,291667;0,375000;0,401886;0,375000;0,458333;0,625000;0,291667;0,291667;0,375000;0,375000;0,625000;0,375000;0,375000;
6;;;;;;1,000000;0,750000;0,750000;0,362012;0,338652;0,375000;0,441549;0,225000;0,225000;0,225000;0,281371;0,398974;0,357883;0,504415;0,250000;0,276367;0,250000;0,445480;0,250000;0,250000;0,250000;0,375000;0,625000;0,291667;0,375000;0,625000;0,291667;0,291667;0,378608;0,625000;0,375000;0,291667;0,375000;0,401886;0,375000;0,458333;0,625000;0,291667;0,291667;0,375000;0,375000;0,625000;0,375000;0,375000;
7;;;;;;;1,000000;0,750000;0,362012;0,338652;0,375000;0,441549;0,225000;0,225000;0,225000;0,281371;0,398974;0,357883;0,504415;0,250000;0,276367;0,250000;0,445480;0,250000;0,250000;0,250000;0,375000;0,625000;0,291667;0,375000;0,625000;0,291667;0,291667;0,378608;0,625000;0,375000;0,291667;0,375000;0,401886;0,375000;0,458333;0,625000;0,291667;0,291667;0,375000;0,375000;0,625000;0,375000;0,375000;
8;;;;;;;;1,000000;0,362012;0,338652;0,375000;0,441549;0,225000;0,225000;0,225000;0,281371;0,398974;0,357883;0,504415;0,250000;0,276367;0,250000;0,445480;0,250000;0,250000;0,250000;0,375000;0,625000;0,291667;0,375000;0,625000;0,291667;0,291667;0,378608;0,625000;0,375000;0,291667;0,375000;0,401886;0,375000;0,458333;0,625000;0,291667;0,291667;0,375000;0,375000;0,625000;0,375000;0,375000;
9;;;;;;;;;1,000000;0,535663;0,487012;0,553561;0,337012;0,337012;0,337012;0,393382;0,510985;0,469895;0,616426;0,875000;0,776756;0,875000;0,557491;0,362012;0,362012;0,362012;0,487012;0,737012;0,403678;0,487012;0,737012;0,403678;0,403678;0,490620;0,737012;0,487012;1,000000;0,487012;0,513897;0,487012;0,570345;0,737012;0,403678;0,403678;0,487012;0,487012;0,737012;0,487012;0,487012;
10;;;;;;;;;;1,000000;0,463652;0,530202;0,313652;0,313652;0,313652;0,370023;0,487626;0,446536;0,593067;0,665680;0,792583;0,665680;0,534132;0,338652;0,338652;0,338652;0,463652;0,713652;0,380319;0,463652;0,713652;0,380319;0,380319;0,467261;0,713652;0,463652;0,604454;0,463652;0,490538;0,463652;0,546986;0,713652;0,380319;0,380319;0,463652;0,463652;0,713652;0,463652;0,463652;
11;;;;;;;;;;;1,000000;0,566549;0,350000;0,350000;0,350000;0,406371;0,523974;0,482883;0,629415;0,375000;0,401367;0,375000;0,570480;0,375000;0,375000;0,375000;0,500000;0,750000;0,416667;0,500000;0,750000;0,416667;0,416667;0,503608;0,750000;0,500000;0,416667;0,500000;0,526886;0,500000;0,583333;0,750000;0,416667;0,416667;0,500000;0,500000;0,750000;0,500000;0,500000;
12;;;;;;;;;;;;1,000000;0,775853;0,775853;0,775853;0,710073;0,644052;0,842328;0,777021;0,441549;0,467916;0,441549;0,852942;0,441549;0,441549;0,441549;0,876561;0,816549;0,709894;0,857063;0,816549;0,483216;0,483216;0,702876;0,816549;0,566549;0,483216;0,566549;0,593435;0,566549;0,876561;0,816549;0,670576;0,670576;0,566549;0,566549;0,816549;0,566549;0,566549;
13;;;;;;;;;;;;;1,000000;0,800000;0,800000;0,834019;0,521377;0,332883;0,632026;0,225000;0,251367;0,225000;0,420480;0,225000;0,225000;0,225000;0,350000;0,600000;0,266667;0,350000;0,600000;0,266667;0,266667;0,353608;0,600000;0,350000;0,266667;0,350000;0,527759;0,350000;0,433333;0,600000;0,266667;0,266667;0,350000;0,350000;0,600000;0,350000;0,350000;
14;;;;;;;;;;;;;;1,000000;0,800000;0,834019;0,521377;0,332883;0,632026;0,225000;0,251367;0,225000;0,420480;0,225000;0,225000;0,225000;0,350000;0,600000;0,266667;0,350000;0,600000;0,266667;0,266667;0,353608;0,600000;0,350000;0,266667;0,350000;0,527759;0,350000;0,433333;0,600000;0,266667;0,266667;0,350000;0,350000;0,600000;0,350000;0,350000;
15;;;;;;;;;;;;;;;1,000000;0,834019;0,521377;0,332883;0,632026;0,225000;0,251367;0,225000;0,420480;0,225000;0,225000;0,225000;0,350000;0,600000;0,266667;0,350000;0,600000;0,266667;0,266667;0,353608;0,600000;0,350000;0,266667;0,350000;0,527759;0,350000;0,433333;0,600000;0,266667;0,266667;0,350000;0,350000;0,600000;0,350000;0,350000;
16;;;;;;;;;;;;;;;;1,000000;0,634118;0,389254;0,744767;0,281371;0,307737;0,281371;0,476850;0,281371;0,281371;0,281371;0,406371;0,656371;0,323037;0,406371;0,656371;0,323037;0,323037;0,409979;0,656371;0,406371;0,323037;0,406371;0,640501;0,406371;0,489704;0,656371;0,323037;0,323037;0,406371;0,406371;0,656371;0,406371;0,406371;
17;;;;;;;;;;;;;;;;;1,000000;0,556206;0,785142;0,398974;0,425340;0,398974;0,662596;0,398974;0,398974;0,398974;0,523974;0,773974;0,698180;0,786989;0,773974;0,440640;0,440640;0,527582;0,773974;0,523974;0,440640;0,523974;0,649136;0,787071;0,607307;0,773974;0,440640;0,440640;0,523974;0,523974;0,773974;0,523974;0,523974;
18;;;;;;;;;;;;;;;;;;1,000000;0,866227;0,357883;0,384250;0,357883;0,841493;0,357883;0,357883;0,357883;0,965767;0,732883;0,799100;0,482883;0,732883;0,399550;0,399550;0,486492;0,732883;0,482883;0,399550;0,482883;0,509769;0,482883;0,965767;0,732883;0,399550;0,399550;0,482883;0,482883;0,732883;0,482883;0,482883;
19;;;;;;;;;;;;;;;;;;;1,000000;0,504415;0,530782;0,504415;0,776187;0,504415;0,504415;0,504415;0,900460;0,879415;0,733794;0,629415;0,879415;0,546082;0,546082;0,633023;0,879415;0,629415;0,546082;0,629415;0,759785;0,900180;0,900460;0,879415;0,546082;0,546082;0,629415;0,629415;0,879415;0,629415;0,629415;
20;;;;;;;;;;;;;;;;;;;;1,000000;0,724507;0,750000;0,445480;0,250000;0,250000;0,250000;0,375000;0,625000;0,291667;0,375000;0,625000;0,291667;0,291667;0,378608;0,625000;0,375000;0,875000;0,375000;0,401886;0,375000;0,458333;0,625000;0,291667;0,291667;0,375000;0,375000;0,625000;0,375000;0,375000;
21;;;;;;;;;;;;;;;;;;;;;1,000000;0,724507;0,471846;0,276367;0,276367;0,276367;0,401367;0,651367;0,318033;0,401367;0,651367;0,318033;0,318033;0,404975;0,651367;0,401367;0,636067;0,401367;0,428253;0,401367;0,484700;0,651367;0,318033;0,318033;0,401367;0,401367;0,651367;0,401367;0,401367;
22;;;;;;;;;;;;;;;;;;;;;;1,000000;0,445480;0,250000;0,250000;0,250000;0,375000;0,625000;0,291667;0,375000;0,625000;0,291667;0,291667;0,378608;0,625000;0,375000;0,875000;0,375000;0,401886;0,375000;0,458333;0,625000;0,291667;0,291667;0,375000;0,375000;0,625000;0,375000;0,375000;
23;;;;;;;;;;;;;;;;;;;;;;;1,000000;0,445480;0,445480;0,445480;0,875727;0,820480;0,709060;0,875607;0,820480;0,487146;0,487146;0,574088;0,820480;0,570480;0,487146;0,570480;0,597366;0,570480;0,875727;0,820480;0,487146;0,487146;0,570480;0,570480;0,820480;0,570480;0,570480;
24;;;;;;;;;;;;;;;;;;;;;;;;1,000000;0,750000;0,750000;0,375000;0,625000;0,291667;0,375000;0,625000;0,291667;0,291667;0,378608;0,625000;0,750000;0,291667;0,375000;0,401886;0,375000;0,458333;0,625000;0,291667;0,291667;0,375000;0,375000;0,625000;0,375000;0,375000;
25;;;;;;;;;;;;;;;;;;;;;;;;;1,000000;0,750000;0,375000;0,625000;0,291667;0,375000;0,625000;0,291667;0,291667;0,378608;0,625000;0,750000;0,291667;0,375000;0,401886;0,375000;0,458333;0,625000;0,291667;0,291667;0,375000;0,375000;0,625000;0,375000;0,375000;
26;;;;;;;;;;;;;;;;;;;;;;;;;;1,000000;0,375000;0,625000;0,291667;0,375000;0,625000;0,291667;0,291667;0,378608;0,625000;0,750000;0,291667;0,375000;0,401886;0,375000;0,458333;0,625000;0,291667;0,291667;0,375000;0,375000;0,625000;0,375000;0,375000;
27;;;;;;;;;;;;;;;;;;;;;;;;;;;1,000000;0,750000;0,833333;0,500000;0,750000;0,416667;0,416667;0,503608;0,750000;0,500000;0,416667;0,500000;0,526886;0,500000;1,000000;0,750000;0,416667;0,416667;0,500000;0,500000;0,750000;0,500000;0,500000;
28;;;;;;;;;;;;;;;;;;;;;;;;;;;;1,000000;0,666667;0,750000;1,000000;0,666667;0,666667;0,753608;1,000000;0,750000;0,666667;0,750000;0,776886;0,750000;0,833333;1,000000;0,666667;0,666667;0,750000;0,750000;1,000000;0,750000;0,750000;
29;;;;;;;;;;;;;;;;;;;;;;;;;;;;;1,000000;0,416667;0,666667;0,333333;0,333333;0,420275;0,666667;0,416667;0,333333;0,416667;0,443553;0,416667;0,833333;0,666667;0,333333;0,333333;0,416667;0,416667;0,666667;0,416667;0,416667;
30;;;;;;;;;;;;;;;;;;;;;;;;;;;;;;1,000000;0,750000;0,416667;0,416667;0,503608;0,750000;0,500000;0,416667;0,500000;0,526886;0,500000;0,583333;0,750000;0,416667;0,416667;0,500000;0,500000;0,750000;0,500000;0,500000;
31;;;;;;;;;;;;;;;;;;;;;;;;;;;;;;;1,000000;0,666667;0,666667;0,753608;1,000000;0,750000;0,666667;0,750000;0,776886;0,750000;0,833333;1,000000;0,666667;0,666667;0,750000;0,750000;1,000000;0,750000;0,750000;
32;;;;;;;;;;;;;;;;;;;;;;;;;;;;;;;;1,000000;0,666667;0,633244;0,666667;0,416667;0,333333;0,833333;0,711146;0,416667;0,500000;0,666667;0,333333;0,333333;0,416667;0,416667;0,666667;0,416667;0,416667;
33;;;;;;;;;;;;;;;;;;;;;;;;;;;;;;;;;1,000000;0,633244;0,666667;0,416667;0,333333;0,833333;0,711146;0,416667;0,500000;0,666667;0,333333;0,333333;0,416667;0,416667;0,666667;0,416667;0,416667;
34;;;;;;;;;;;;;;;;;;;;;;;;;;;;;;;;;;1,000000;0,753608;0,503608;0,420275;0,503608;0,530494;0,503608;0,586942;0,753608;0,698967;0,698967;0,503608;0,503608;0,753608;0,503608;0,503608;
35;;;;;;;;;;;;;;;;;;;;;;;;;;;;;;;;;;;1,000000;0,750000;0,666667;0,750000;0,776886;0,750000;0,833333;1,000000;0,666667;0,666667;0,750000;0,750000;1,000000;0,750000;0,750000;
36;;;;;;;;;;;;;;;;;;;;;;;;;;;;;;;;;;;;1,000000;0,416667;0,500000;0,526886;0,500000;0,583333;0,750000;0,416667;0,416667;0,500000;0,500000;0,750000;0,500000;0,500000;
37;;;;;;;;;;;;;;;;;;;;;;;;;;;;;;;;;;;;;1,000000;0,416667;0,443553;0,416667;0,500000;0,666667;0,333333;0,333333;0,416667;0,416667;0,666667;0,416667;0,416667;
38;;;;;;;;;;;;;;;;;;;;;;;;;;;;;;;;;;;;;;1,000000;0,877813;0,500000;0,583333;0,750000;0,416667;0,416667;0,500000;0,500000;0,750000;0,500000;0,500000;
39;;;;;;;;;;;;;;;;;;;;;;;;;;;;;;;;;;;;;;;1,000000;0,526886;0,610219;0,776886;0,651478;0,651478;0,526886;0,526886;0,776886;0,526886;0,526886;
40;;;;;;;;;;;;;;;;;;;;;;;;;;;;;;;;;;;;;;;;1,000000;0,583333;0,750000;0,416667;0,416667;0,500000;0,500000;0,750000;0,500000;0,500000;
41;;;;;;;;;;;;;;;;;;;;;;;;;;;;;;;;;;;;;;;;;1,000000;0,833333;0,500000;0,500000;0,583333;0,583333;0,833333;0,583333;0,583333;
42;;;;;;;;;;;;;;;;;;;;;;;;;;;;;;;;;;;;;;;;;;1,000000;0,666667;0,666667;0,750000;0,750000;1,000000;0,750000;0,750000;
43;;;;;;;;;;;;;;;;;;;;;;;;;;;;;;;;;;;;;;;;;;;1,000000;0,666667;0,416667;0,416667;0,666667;0,416667;0,416667;
44;;;;;;;;;;;;;;;;;;;;;;;;;;;;;;;;;;;;;;;;;;;;1,000000;0,416667;0,416667;0,666667;0,416667;0,416667;
45;;;;;;;;;;;;;;;;;;;;;;;;;;;;;;;;;;;;;;;;;;;;;1,000000;0,500000;0,750000;0,500000;0,500000;
46;;;;;;;;;;;;;;;;;;;;;;;;;;;;;;;;;;;;;;;;;;;;;;1,000000;0,750000;0,500000;0,500000;
47;;;;;;;;;;;;;;;;;;;;;;;;;;;;;;;;;;;;;;;;;;;;;;;1,000000;0,750000;0,750000;
48;;;;;;;;;;;;;;;;;;;;;;;;;;;;;;;;;;;;;;;;;;;;;;;;1,000000;0,500000;
49;;;;;;;;;;;;;;;;;;;;;;;;;;;;;;;;;;;;;;;;;;;;;;;;;1,000000;
