;1; 2; 3; 4; 5; 6; 7; 8; 9; 10; 11; 12; 13; 14; 15; 16; 17; 18; 19; 20; 21; 22; 23; 24; 25; 26; 27; 28; 29; 30; 31; 32; 33; 34; 35; 36; 37; 38; 39; 40; 41; 42; 43; 44; 45; 46
1;1,000000;0,000000;0,634162;0,000000;0,390355;0,393810;0,300829;0,000000;0,000000;0,249898;0,384162;0,718147;0,000000;0,000000;0,000000;0,000000;0,000000;0,000000;0,000000;0,384162;0,634162;0,000000;0,000000;0,000000;0,000000;0,718147;0,718147;0,000000;0,000000;0,000000;0,000000;0,000000;0,000000;0,000000;0,000000;0,000000;0,000000;0,000000;0,634162;0,000000;0,000000;0,000000;0,000000;0,000000;0,000000;0,000000;
2;;1,000000;0,000000;0,277546;0,000000;0,000000;0,000000;0,000000;0,000000;0,000000;0,000000;0,000000;0,000000;0,000000;0,000000;0,000000;0,000000;0,000000;0,000000;0,000000;0,000000;0,000000;0,000000;0,000000;0,000000;0,000000;0,000000;0,000000;0,000000;0,000000;0,000000;0,000000;0,000000;0,000000;0,000000;0,000000;0,000000;0,000000;0,000000;0,000000;0,000000;0,000000;0,000000;0,000000;0,000000;0,000000;
3;;;1,000000;0,000000;0,756193;0,759648;0,666667;0,000000;0,000000;0,615735;0,750000;0,000000;0,000000;0,000000;0,000000;0,000000;0,000000;0,000000;0,000000;0,750000;1,000000;0,000000;0,000000;0,000000;0,000000;0,000000;0,000000;0,000000;0,000000;0,000000;0,000000;0,000000;0,000000;0,000000;0,000000;0,000000;0,000000;0,000000;1,000000;0,000000;0,000000;0,000000;0,000000;0,000000;0,000000;0,000000;
4;;;;1,000000;0,466957;0,444487;0,547074;0,000000;0,140946;0,234826;0,322357;0,000000;0,000000;0,133531;0,000000;0,000000;0,000000;0,000000;0,000000;0,375700;0,000000;0,000000;0,128035;0,128035;0,000000;0,000000;0,000000;0,000000;0,000000;0,000000;0,000000;0,000000;0,000000;0,000000;0,000000;0,275374;0,000000;0,000000;0,000000;0,000000;0,000000;0,000000;0,000000;0,000000;0,000000;0,000000;
5;;;;;1,000000;0,706073;0,666667;0,000000;0,000000;0,371928;0,506193;0,000000;0,000000;0,000000;0,000000;0,000000;0,000000;0,000000;0,000000;0,506193;0,756193;0,000000;0,000000;0,000000;0,000000;0,000000;0,000000;0,000000;0,000000;0,000000;0,000000;0,000000;0,000000;0,000000;0,000000;0,000000;0,000000;0,000000;0,756193;0,000000;0,000000;0,000000;0,000000;0,000000;0,000000;0,000000;
6;;;;;;1,000000;0,708135;0,000000;0,000000;0,375383;0,509648;0,000000;0,000000;0,000000;0,000000;0,000000;0,000000;0,000000;0,000000;0,874802;0,759648;0,000000;0,000000;0,000000;0,000000;0,000000;0,000000;0,000000;0,000000;0,000000;0,000000;0,000000;0,000000;0,000000;0,000000;0,000000;0,000000;0,000000;0,759648;0,000000;0,000000;0,000000;0,000000;0,000000;0,000000;0,000000;
7;;;;;;;1,000000;0,000000;0,000000;0,282402;0,416667;0,000000;0,000000;0,000000;0,000000;0,000000;0,000000;0,000000;0,000000;0,833333;0,666667;0,000000;0,000000;0,000000;0,000000;0,000000;0,000000;0,000000;0,000000;0,000000;0,000000;0,000000;0,000000;0,000000;0,000000;0,000000;0,000000;0,000000;0,666667;0,000000;0,000000;0,000000;0,000000;0,000000;0,000000;0,000000;
8;;;;;;;;1,000000;0,000000;0,495993;0,000000;0,000000;0,000000;0,000000;0,000000;0,387532;0,423246;0,379259;0,637532;0,000000;0,000000;0,684712;0,565581;0,565581;0,684712;0,000000;0,000000;0,436080;0,436080;0,000000;0,000000;0,387532;0,387532;0,000000;0,000000;0,599642;0,325693;0,000000;0,000000;0,000000;0,000000;0,000000;0,000000;0,000000;0,534193;0,534193;
9;;;;;;;;;1,000000;0,188908;0,318589;0,000000;0,000000;0,305418;0,000000;0,390069;0,388001;0,270219;0,000000;0,000000;0,000000;0,185891;0,309720;0,309720;0,185891;0,000000;0,000000;0,000000;0,000000;0,000000;0,000000;0,390069;0,384260;0,000000;0,000000;0,271607;0,000000;0,000000;0,000000;0,259260;0,259260;0,259260;0,259260;0,000000;0,000000;0,000000;
10;;;;;;;;;;1,000000;0,365735;0,000000;0,309741;0,000000;0,309741;0,352360;0,388074;0,344087;0,602360;0,365735;0,615735;0,366972;0,382025;0,382025;0,366972;0,000000;0,000000;0,468460;0,468460;0,309741;0,309741;0,352360;0,352360;0,276837;0,000000;0,507923;0,660046;0,000000;0,615735;0,000000;0,000000;0,000000;0,000000;0,309741;0,450305;0,450305;
11;;;;;;;;;;;1,000000;0,000000;0,000000;0,311175;0,000000;0,000000;0,000000;0,000000;0,000000;0,500000;0,750000;0,000000;0,305679;0,305679;0,000000;0,000000;0,000000;0,000000;0,000000;0,000000;0,000000;0,000000;0,000000;0,000000;0,000000;0,453017;0,000000;0,000000;0,750000;0,000000;0,000000;0,000000;0,000000;0,000000;0,000000;0,000000;
12;;;;;;;;;;;;1,000000;0,000000;0,000000;0,000000;0,000000;0,000000;0,000000;0,000000;0,000000;0,000000;0,000000;0,000000;0,000000;0,000000;1,000000;1,000000;0,000000;0,000000;0,000000;0,000000;0,000000;0,000000;0,000000;0,000000;0,000000;0,000000;0,000000;0,000000;0,000000;0,000000;0,000000;0,000000;0,000000;0,000000;0,000000;
13;;;;;;;;;;;;;1,000000;0,381474;0,500000;0,000000;0,000000;0,000000;0,000000;0,000000;0,000000;0,000000;0,000000;0,000000;0,000000;0,000000;0,000000;0,381100;0,381100;0,500000;0,500000;0,000000;0,000000;0,467096;0,000000;0,000000;0,617084;0,000000;0,000000;0,000000;0,000000;0,000000;0,000000;0,500000;0,000000;0,000000;
14;;;;;;;;;;;;;;1,000000;0,381474;0,000000;0,000000;0,000000;0,000000;0,000000;0,000000;0,000000;0,402787;0,402787;0,000000;0,000000;0,000000;0,290441;0,290441;0,391837;0,430990;0,000000;0,000000;0,000000;0,579703;0,264192;0,000000;0,579703;0,000000;0,000000;0,000000;0,000000;0,000000;0,391837;0,000000;0,000000;
15;;;;;;;;;;;;;;;1,000000;0,000000;0,000000;0,000000;0,000000;0,000000;0,000000;0,000000;0,000000;0,000000;0,000000;0,000000;0,000000;0,381100;0,381100;0,500000;0,500000;0,000000;0,000000;0,467096;0,000000;0,000000;0,617084;0,000000;0,000000;0,000000;0,000000;0,000000;0,000000;0,500000;0,000000;0,000000;
16;;;;;;;;;;;;;;;;1,000000;0,535714;0,491727;0,750000;0,000000;0,000000;0,000000;0,000000;0,000000;0,000000;0,000000;0,000000;0,000000;0,000000;0,000000;0,000000;1,000000;0,500000;0,000000;0,000000;0,369231;0,438161;0,000000;0,000000;0,000000;0,000000;0,000000;0,000000;0,000000;0,000000;0,000000;
17;;;;;;;;;;;;;;;;;1,000000;0,527441;0,785714;0,000000;0,000000;0,000000;0,000000;0,000000;0,000000;0,000000;0,000000;0,000000;0,000000;0,000000;0,000000;0,535714;0,535714;0,000000;0,000000;0,404945;0,473876;0,000000;0,000000;0,000000;0,000000;0,000000;0,000000;0,000000;0,000000;0,000000;
18;;;;;;;;;;;;;;;;;;1,000000;0,741727;0,000000;0,000000;0,000000;0,000000;0,000000;0,000000;0,000000;0,000000;0,000000;0,000000;0,000000;0,000000;0,491727;0,491727;0,000000;0,000000;0,360957;0,429888;0,000000;0,000000;0,644640;0,644640;0,644640;0,644640;0,000000;0,000000;0,000000;
19;;;;;;;;;;;;;;;;;;;1,000000;0,000000;0,000000;0,000000;0,000000;0,000000;0,000000;0,000000;0,000000;0,000000;0,000000;0,000000;0,000000;0,750000;0,750000;0,000000;0,000000;0,619231;0,688161;0,000000;0,000000;0,000000;0,000000;0,000000;0,000000;0,000000;0,000000;0,000000;
20;;;;;;;;;;;;;;;;;;;;1,000000;0,750000;0,000000;0,000000;0,000000;0,000000;0,000000;0,000000;0,000000;0,000000;0,000000;0,000000;0,000000;0,000000;0,000000;0,000000;0,000000;0,000000;0,000000;0,750000;0,000000;0,000000;0,000000;0,000000;0,000000;0,000000;0,000000;
21;;;;;;;;;;;;;;;;;;;;;1,000000;0,000000;0,000000;0,000000;0,000000;0,000000;0,000000;0,000000;0,000000;0,000000;0,000000;0,000000;0,000000;0,000000;0,000000;0,000000;0,000000;0,000000;1,000000;0,000000;0,000000;0,000000;0,000000;0,000000;0,000000;0,000000;
22;;;;;;;;;;;;;;;;;;;;;;1,000000;0,613138;0,613138;0,750000;0,000000;0,000000;0,485221;0,485221;0,000000;0,000000;0,000000;0,000000;0,000000;0,000000;0,480413;0,000000;0,000000;0,000000;0,000000;0,000000;0,000000;0,000000;0,000000;0,583333;0,583333;
23;;;;;;;;;;;;;;;;;;;;;;;1,000000;0,692424;0,613138;0,000000;0,000000;0,491906;0,491906;0,000000;0,000000;0,000000;0,000000;0,000000;0,000000;0,490342;0,000000;0,000000;0,000000;0,000000;0,000000;0,000000;0,000000;0,000000;0,537502;0,537502;
24;;;;;;;;;;;;;;;;;;;;;;;;1,000000;0,613138;0,000000;0,000000;0,491906;0,491906;0,000000;0,000000;0,000000;0,000000;0,000000;0,000000;0,490342;0,000000;0,000000;0,000000;0,000000;0,000000;0,000000;0,000000;0,000000;0,537502;0,537502;
25;;;;;;;;;;;;;;;;;;;;;;;;;1,000000;0,000000;0,000000;0,485221;0,485221;0,000000;0,000000;0,000000;0,000000;0,000000;0,000000;0,480413;0,000000;0,000000;0,000000;0,000000;0,000000;0,000000;0,000000;0,000000;0,583333;0,583333;
26;;;;;;;;;;;;;;;;;;;;;;;;;;1,000000;1,000000;0,000000;0,000000;0,000000;0,000000;0,000000;0,000000;0,000000;0,000000;0,000000;0,000000;0,000000;0,000000;0,000000;0,000000;0,000000;0,000000;0,000000;0,000000;0,000000;
27;;;;;;;;;;;;;;;;;;;;;;;;;;;1,000000;0,000000;0,000000;0,000000;0,000000;0,000000;0,000000;0,000000;0,000000;0,000000;0,000000;0,000000;0,000000;0,000000;0,000000;0,000000;0,000000;0,000000;0,000000;0,000000;
28;;;;;;;;;;;;;;;;;;;;;;;;;;;;1,000000;0,605467;0,381100;0,381100;0,000000;0,000000;0,348196;0,000000;0,465634;0,498185;0,000000;0,000000;0,000000;0,000000;0,000000;0,000000;0,381100;0,568554;0,568554;
29;;;;;;;;;;;;;;;;;;;;;;;;;;;;;1,000000;0,381100;0,381100;0,000000;0,000000;0,348196;0,000000;0,465634;0,498185;0,000000;0,000000;0,000000;0,000000;0,000000;0,000000;0,381100;0,568554;0,568554;
30;;;;;;;;;;;;;;;;;;;;;;;;;;;;;;1,000000;0,500000;0,000000;0,000000;0,467096;0,000000;0,000000;0,617084;0,000000;0,000000;0,000000;0,000000;0,000000;0,000000;1,000000;0,000000;0,000000;
31;;;;;;;;;;;;;;;;;;;;;;;;;;;;;;;1,000000;0,000000;0,000000;0,467096;0,000000;0,000000;0,617084;0,000000;0,000000;0,000000;0,000000;0,000000;0,000000;0,500000;0,000000;0,000000;
32;;;;;;;;;;;;;;;;;;;;;;;;;;;;;;;;1,000000;0,500000;0,000000;0,000000;0,369231;0,438161;0,000000;0,000000;0,000000;0,000000;0,000000;0,000000;0,000000;0,000000;0,000000;
33;;;;;;;;;;;;;;;;;;;;;;;;;;;;;;;;;1,000000;0,000000;0,000000;0,369231;0,438161;0,000000;0,000000;0,375000;0,375000;0,375000;0,375000;0,000000;0,000000;0,000000;
34;;;;;;;;;;;;;;;;;;;;;;;;;;;;;;;;;;1,000000;0,000000;0,000000;0,584180;0,000000;0,000000;0,000000;0,000000;0,000000;0,000000;0,467096;0,000000;0,000000;
35;;;;;;;;;;;;;;;;;;;;;;;;;;;;;;;;;;;1,000000;0,000000;0,000000;1,000000;0,000000;0,000000;0,000000;0,000000;0,000000;0,000000;0,000000;0,000000;
36;;;;;;;;;;;;;;;;;;;;;;;;;;;;;;;;;;;;1,000000;0,307392;0,000000;0,000000;0,000000;0,000000;0,000000;0,000000;0,000000;0,563746;0,563746;
37;;;;;;;;;;;;;;;;;;;;;;;;;;;;;;;;;;;;;1,000000;0,000000;0,000000;0,000000;0,000000;0,000000;0,000000;0,617084;0,000000;0,000000;
38;;;;;;;;;;;;;;;;;;;;;;;;;;;;;;;;;;;;;;1,000000;0,000000;0,000000;0,000000;0,000000;0,000000;0,000000;0,000000;0,000000;
39;;;;;;;;;;;;;;;;;;;;;;;;;;;;;;;;;;;;;;;1,000000;0,000000;0,000000;0,000000;0,000000;0,000000;0,000000;0,000000;
40;;;;;;;;;;;;;;;;;;;;;;;;;;;;;;;;;;;;;;;;1,000000;0,750000;0,750000;0,750000;0,000000;0,000000;0,000000;
41;;;;;;;;;;;;;;;;;;;;;;;;;;;;;;;;;;;;;;;;;1,000000;0,750000;0,750000;0,000000;0,000000;0,000000;
42;;;;;;;;;;;;;;;;;;;;;;;;;;;;;;;;;;;;;;;;;;1,000000;0,750000;0,000000;0,000000;0,000000;
43;;;;;;;;;;;;;;;;;;;;;;;;;;;;;;;;;;;;;;;;;;;1,000000;0,000000;0,000000;0,000000;
44;;;;;;;;;;;;;;;;;;;;;;;;;;;;;;;;;;;;;;;;;;;;1,000000;0,000000;0,000000;
45;;;;;;;;;;;;;;;;;;;;;;;;;;;;;;;;;;;;;;;;;;;;;1,000000;0,666667;
46;;;;;;;;;;;;;;;;;;;;;;;;;;;;;;;;;;;;;;;;;;;;;;1,000000;
