;1; 2; 3; 4; 5; 6; 7; 8; 9; 10; 11; 12; 13; 14; 15; 16; 17; 18; 19; 20; 21; 22; 23; 24; 25; 26
1;1,000000;0,000000;0,596305;0,762972;0,762972;0,679638;0,762972;0,512972;0,512972;0,762972;0,762972;0,762972;0,512972;0,512972;0,512972;0,378443;0,378443;0,762972;0,762972;0,512972;0,596305;0,762972;0,762972;0,762972;0,512972;0,512972;
2;;1,000000;0,201166;0,000000;0,000000;0,184581;0,000000;0,284673;0,284673;0,000000;0,000000;0,000000;0,299284;0,344952;0,308196;0,291412;0,291412;0,000000;0,000000;0,286147;0,259473;0,000000;0,000000;0,000000;0,284299;0,284299;
3;;;1,000000;0,833333;0,833333;0,750000;0,833333;0,583333;0,583333;0,833333;0,833333;0,833333;1,000000;0,583333;0,583333;0,000000;0,000000;0,833333;0,833333;0,583333;0,666667;0,833333;0,833333;0,833333;0,583333;0,583333;
4;;;;1,000000;1,000000;0,916667;1,000000;0,750000;0,750000;1,000000;1,000000;1,000000;0,750000;0,750000;0,750000;0,000000;0,000000;1,000000;1,000000;0,750000;0,833333;1,000000;1,000000;1,000000;0,750000;0,750000;
5;;;;;1,000000;0,916667;1,000000;0,750000;0,750000;1,000000;1,000000;1,000000;0,750000;0,750000;0,750000;0,000000;0,000000;1,000000;1,000000;0,750000;0,833333;1,000000;1,000000;1,000000;0,750000;0,750000;
6;;;;;;1,000000;0,916667;0,666667;0,666667;0,916667;0,916667;0,916667;0,666667;0,666667;0,666667;0,000000;0,000000;0,916667;0,916667;0,666667;0,750000;0,916667;0,916667;0,916667;0,666667;0,666667;
7;;;;;;;1,000000;0,750000;0,750000;1,000000;1,000000;1,000000;0,750000;0,750000;0,750000;0,000000;0,000000;1,000000;1,000000;0,750000;0,833333;1,000000;1,000000;1,000000;0,750000;0,750000;
8;;;;;;;;1,000000;0,500000;0,750000;0,750000;0,750000;0,500000;0,500000;0,500000;0,000000;0,000000;0,750000;0,750000;0,500000;0,583333;0,750000;0,750000;0,750000;0,500000;0,500000;
9;;;;;;;;;1,000000;0,750000;0,750000;0,750000;0,500000;0,500000;0,500000;0,000000;0,000000;0,750000;0,750000;0,500000;0,583333;0,750000;0,750000;0,750000;0,500000;0,500000;
10;;;;;;;;;;1,000000;1,000000;1,000000;0,750000;0,750000;0,750000;0,000000;0,000000;1,000000;1,000000;0,750000;0,833333;1,000000;1,000000;1,000000;0,750000;0,750000;
11;;;;;;;;;;;1,000000;1,000000;0,750000;0,750000;0,750000;0,000000;0,000000;1,000000;1,000000;0,750000;0,833333;1,000000;1,000000;1,000000;0,750000;0,750000;
12;;;;;;;;;;;;1,000000;0,750000;0,750000;0,750000;0,000000;0,000000;1,000000;1,000000;0,750000;0,833333;1,000000;1,000000;1,000000;0,750000;0,750000;
13;;;;;;;;;;;;;1,000000;0,500000;0,500000;0,000000;0,000000;0,750000;0,750000;0,500000;0,583333;0,750000;0,750000;0,750000;0,500000;0,500000;
14;;;;;;;;;;;;;;1,000000;0,500000;0,000000;0,000000;0,750000;0,750000;0,500000;0,583333;0,750000;0,750000;0,750000;0,500000;0,500000;
15;;;;;;;;;;;;;;;1,000000;0,000000;0,000000;0,750000;0,750000;0,500000;0,583333;0,750000;0,750000;0,750000;0,500000;0,500000;
16;;;;;;;;;;;;;;;;1,000000;0,500000;0,000000;0,000000;0,000000;0,000000;0,000000;0,000000;0,000000;0,000000;0,000000;
17;;;;;;;;;;;;;;;;;1,000000;0,000000;0,000000;0,000000;0,000000;0,000000;0,000000;0,000000;0,000000;0,000000;
18;;;;;;;;;;;;;;;;;;1,000000;1,000000;0,750000;0,833333;1,000000;1,000000;1,000000;0,750000;0,750000;
19;;;;;;;;;;;;;;;;;;;1,000000;0,750000;0,833333;1,000000;1,000000;1,000000;0,750000;0,750000;
20;;;;;;;;;;;;;;;;;;;;1,000000;0,583333;0,750000;0,750000;0,750000;0,500000;0,500000;
21;;;;;;;;;;;;;;;;;;;;;1,000000;0,833333;0,833333;0,833333;0,583333;0,583333;
22;;;;;;;;;;;;;;;;;;;;;;1,000000;1,000000;1,000000;0,750000;0,750000;
23;;;;;;;;;;;;;;;;;;;;;;;1,000000;1,000000;0,750000;0,750000;
24;;;;;;;;;;;;;;;;;;;;;;;;1,000000;0,750000;0,750000;
25;;;;;;;;;;;;;;;;;;;;;;;;;1,000000;0,500000;
26;;;;;;;;;;;;;;;;;;;;;;;;;;1,000000;
