;1; 2; 3; 4; 5; 6; 7; 8; 9; 10; 11; 12; 13; 14; 15; 16; 17; 18; 19; 20; 21
1;1,000000;0,213707;0,558838;0,000000;0,000000;0,000000;0,000000;0,417186;0,417186;0,390656;0,432228;0,432228;0,514561;0,000000;0,000000;0,000000;0,000000;0,418571;0,000000;0,419001;0,000000;
2;;1,000000;0,000000;0,462547;0,562547;0,312547;0,318740;0,534192;0,534192;0,546298;0,162547;0,162547;0,504409;0,229214;0,229214;0,562547;0,562547;0,558078;0,312547;0,229214;0,562547;
3;;;1,000000;0,209946;0,000000;0,306519;0,387453;0,492622;0,492622;0,492254;0,479689;0,479689;0,281629;0,414404;0,414404;0,000000;0,000000;0,437921;0,322190;0,382477;0,000000;
4;;;;1,000000;0,900000;0,650000;0,656193;0,445186;0,445186;0,476788;0,500000;0,500000;0,000000;0,566667;0,566667;0,900000;0,900000;0,465132;0,650000;0,566667;0,900000;
5;;;;;1,000000;0,750000;0,756193;0,545186;0,545186;0,576788;0,600000;0,600000;0,000000;0,666667;0,666667;1,000000;1,000000;0,565132;0,750000;0,666667;1,000000;
6;;;;;;1,000000;0,506193;0,295186;0,295186;0,326788;0,350000;0,350000;0,000000;0,833333;0,833333;0,750000;0,750000;0,315132;0,500000;0,416667;0,750000;
7;;;;;;;1,000000;0,301379;0,301379;0,332981;0,356193;0,356193;0,000000;0,666667;0,666667;0,756193;0,756193;0,321324;0,506193;0,422859;0,756193;
8;;;;;;;;1,000000;0,771842;0,760209;0,709103;0,709103;0,316212;0,211853;0,211853;0,545186;0,545186;0,705373;0,295186;0,732577;0,545186;
9;;;;;;;;;1,000000;0,760209;0,709103;0,709103;0,316212;0,211853;0,211853;0,545186;0,545186;0,705373;0,295186;0,732577;0,545186;
10;;;;;;;;;;1,000000;0,681825;0,681825;0,299991;0,243455;0,243455;0,576788;0,576788;0,703958;0,326788;0,495771;0,576788;
11;;;;;;;;;;;1,000000;0,800000;0,000000;0,266667;0,266667;0,600000;0,600000;0,763131;0,350000;0,533333;0,600000;
12;;;;;;;;;;;;1,000000;0,000000;0,266667;0,266667;0,600000;0,600000;0,763131;0,350000;0,533333;0,600000;
13;;;;;;;;;;;;;1,000000;0,000000;0,000000;0,000000;0,000000;0,327514;0,000000;0,000000;0,000000;
14;;;;;;;;;;;;;;1,000000;0,666667;0,666667;0,666667;0,231798;0,416667;0,333333;0,666667;
15;;;;;;;;;;;;;;;1,000000;0,666667;0,666667;0,231798;0,416667;0,333333;0,666667;
16;;;;;;;;;;;;;;;;1,000000;1,000000;0,565132;0,750000;0,666667;1,000000;
17;;;;;;;;;;;;;;;;;1,000000;0,565132;0,750000;0,666667;1,000000;
18;;;;;;;;;;;;;;;;;;1,000000;0,315132;0,524296;0,565132;
19;;;;;;;;;;;;;;;;;;;1,000000;0,416667;0,750000;
20;;;;;;;;;;;;;;;;;;;;1,000000;0,666667;
21;;;;;;;;;;;;;;;;;;;;;1,000000;
