;1; 2; 3; 4; 5; 6; 7; 8; 9; 10; 11; 12; 13; 14; 15; 16; 17; 18; 19; 20; 21; 22; 23; 24; 25; 26; 27; 28; 29; 30; 31; 32; 33; 34; 35; 36; 37; 38; 39; 40; 41; 42; 43; 44; 45; 46; 47; 48; 49; 50; 51; 52; 53; 54; 55; 56; 57; 58; 59; 60; 61; 62; 63; 64; 65; 66; 67; 68; 69; 70; 71; 72; 73; 74; 75; 76; 77; 78; 79; 80; 81; 82; 83; 84; 85; 86; 87; 88; 89; 90; 91; 92; 93; 94; 95; 96; 97; 98; 99; 100; 101; 102; 103; 104; 105; 106; 107
1;1,000000;0,289606;0,512733;0,352249;0,324696;0,433203;0,190365;0,345931;0,347471;0,320655;0,423475;0,475738;0,447071;0,486923;0,439208;0,468111;0,439208;0,472869;0,200185;0,385210;0,307860;0,478571;0,471991;0,423965;0,383799;0,433483;0,364334;0,400723;0,256728;0,256728;0,257060;0,314800;0,318313;0,343200;0,352340;0,307860;0,256720;0,263087;0,257055;0,314789;0,447477;0,376701;0,465264;0,263404;0,237148;0,448411;0,315356;0,345835;0,345835;0,411995;0,431455;0,261937;0,345827;0,345827;0,000000;0,407786;0,401962;0,401962;0,279029;0,303150;0,401479;0,367930;0,261369;0,345303;0,345303;0,271196;0,307860;0,258006;0,388975;0,327665;0,402197;0,307860;0,000000;0,261566;0,331136;0,355694;0,379510;0,318054;0,332223;0,434211;0,434211;0,480300;0,434211;0,379510;0,307860;0,382460;0,000000;0,393782;0,393782;0,396253;0,396253;0,396253;0,000000;0,345931;0,000000;0,000000;0,443157;0,000000;0,000000;0,000000;0,379510;0,256720;0,000000;0,456653;0,456653;0,456653;0,000000;
2;;1,000000;0,561144;0,954036;0,475745;0,599806;0,606061;0,439394;0,439394;0,493419;0,586412;0,555338;0,582936;0,544103;0,570686;0,539452;0,570686;0,700321;0,647727;0,602856;0,820686;0,520686;0,579035;0,665006;0,478997;0,397727;0,466169;0,654020;0,522727;0,522727;0,522727;0,462639;0,456479;0,752352;0,439394;0,820686;0,522727;0,522727;0,522727;0,462639;0,601861;0,427327;0,677032;0,522727;0,584797;0,553139;0,475745;0,439394;0,439394;0,638274;0,595778;0,522727;0,439394;0,439394;0,772727;0,411927;0,397727;0,397727;0,522727;0,684624;0,713544;0,439394;0,522727;0,439394;0,439394;0,522727;0,820686;0,522727;0,410273;0,775317;0,397727;0,820686;0,772727;0,522727;0,481709;0,439394;0,439394;0,475745;0,475745;0,372727;0,372727;0,364077;0,372727;0,439394;0,820686;0,439394;0,772727;0,654020;0,654020;0,619282;0,619282;0,619282;0,772727;0,439394;0,772727;0,772727;0,570686;0,772727;0,772727;0,772727;0,439394;0,522727;0,772727;0,356061;0,356061;0,356061;0,772727;
3;;;1,000000;0,548665;0,705894;0,580077;0,655469;0,352499;0,352499;0,406524;0,619270;0,644479;0,595612;0,523405;0,573001;0,623947;0,573001;0,607684;0,636129;0,517718;0,435832;0,637739;0,641693;0,582949;0,440735;0,454349;0,451354;0,530038;0,435832;0,435832;0,435832;0,375744;0,369584;0,448332;0,352499;0,435832;0,435832;0,435832;0,435832;0,375744;0,593784;0,370548;0,548790;0,710745;0,497901;0,599404;0,705604;0,352499;0,352499;0,550224;0,572993;0,435832;0,352499;0,352499;0,685832;0,325032;0,310832;0,310832;0,435832;0,597955;0,560713;0,751699;0,435832;0,525217;0,525217;0,725976;0,435832;0,435832;0,323378;0,597897;0,310832;0,435832;0,685832;0,435832;0,562112;0,352499;0,352499;0,388849;0,388849;0,285832;0,285832;0,436108;0,285832;0,352499;0,435832;0,352499;0,685832;0,526459;0,526459;0,441862;0,441862;0,441862;0,685832;0,352499;0,685832;0,685832;0,578905;0,685832;0,685832;0,685832;0,352499;0,435832;0,685832;0,501699;0,501699;0,501699;0,685832;
4;;;;1,000000;0,453017;0,582146;0,583333;0,416667;0,416667;0,470692;0,568752;0,537678;0,565276;0,526443;0,553026;0,611026;0,553026;0,692231;0,625000;0,585196;0,803026;0,503026;0,561375;0,647346;0,456270;0,375000;0,443442;0,636360;0,500000;0,500000;0,500000;0,439912;0,433752;0,700865;0,416667;0,803026;0,500000;0,500000;0,500000;0,439912;0,584201;0,404599;0,668942;0,500000;0,562070;0,535479;0,453017;0,416667;0,416667;0,620614;0,578118;0,500000;0,416667;0,416667;0,750000;0,389200;0,375000;0,375000;0,500000;0,751106;0,695884;0,416667;0,500000;0,416667;0,416667;0,500000;0,803026;0,500000;0,387546;0,762838;0,375000;0,803026;0,750000;0,500000;0,458982;0,416667;0,416667;0,453017;0,453017;0,350000;0,350000;0,341349;0,350000;0,416667;0,803026;0,416667;0,750000;0,636360;0,636360;0,606803;0,606803;0,606803;0,750000;0,416667;0,750000;0,750000;0,553026;0,750000;0,750000;0,750000;0,416667;0,500000;0,750000;0,333333;0,333333;0,333333;0,750000;
5;;;;;1,000000;0,364637;0,699644;0,369684;0,369684;0,423710;0,602216;0,433442;0,334142;0,343220;0,549456;0,467104;0,549456;0,368683;0,578017;0,392929;0,453017;0,452496;0,458250;0,375177;0,409287;0,328017;0,396459;0,369684;0,453017;0,453017;0,453017;0,392929;0,386770;0,427797;0,369684;0,453017;0,453017;0,453017;0,453017;0,392929;0,547863;0,357617;0,364395;0,453017;0,515087;0,468826;0,406035;0,369684;0,369684;0,361811;0,340563;0,453017;0,369684;0,369684;0,703017;0,342217;0,328017;0,328017;0,453017;0,630626;0,399446;0,369684;0,453017;0,369684;0,369684;0,453017;0,453017;0,453017;0,340563;0,406035;0,328017;0,453017;0,703017;0,453017;0,411999;0,369684;0,369684;0,406035;0,406035;0,303017;0,303017;0,294367;0,303017;0,369684;0,453017;0,369684;0,703017;0,369684;0,369684;0,328017;0,328017;0,328017;0,703017;0,369684;0,703017;0,703017;0,549456;0,703017;0,703017;0,703017;0,369684;0,453017;0,703017;0,286351;0,286351;0,286351;0,703017;
6;;;;;;1,000000;0,494953;0,328286;0,328286;0,382312;0,659442;0,513772;0,541370;0,502536;0,529120;0,497885;0,529120;0,750506;0,536620;0,561289;0,779120;0,479120;0,697356;0,811257;0,384773;0,286620;0,355061;0,612453;0,411620;0,411620;0,411620;0,351532;0,345372;0,386399;0,328286;0,779120;0,411620;0,411620;0,411620;0,351532;0,560294;0,316219;0,676743;0,411620;0,473689;0,511573;0,364637;0,328286;0,328286;0,596707;0,554212;0,411620;0,328286;0,328286;0,661620;0,300820;0,286620;0,286620;0,411620;0,643057;0,806019;0,580048;0,411620;0,328286;0,328286;0,746715;0,779120;0,411620;0,299166;0,364637;0,286620;0,779120;0,661620;0,411620;0,512857;0,328286;0,328286;0,364637;0,364637;0,372922;0,372922;0,573192;0,372922;0,328286;0,779120;0,328286;0,661620;0,612453;0,612453;0,286620;0,286620;0,286620;0,661620;0,328286;0,661620;0,661620;0,529120;0,661620;0,661620;0,661620;0,328286;0,411620;0,661620;0,702513;0,702513;0,702513;0,661620;
7;;;;;;;1,000000;0,500000;0,500000;0,554026;0,838106;0,450659;0,464458;0,473535;0,458333;0,460404;0,458333;0,498999;0,708333;0,523245;0,583333;0,433333;0,462508;0,505493;0,539603;0,458333;0,526775;0,500000;0,583333;0,583333;0,583333;0,523245;0,695369;0,558113;0,710901;0,583333;0,583333;0,583333;0,583333;0,523245;0,473921;0,487933;0,494711;0,583333;0,645403;0,467630;0,536351;0,500000;0,500000;0,492127;0,470879;0,583333;0,500000;0,500000;0,833333;0,472533;0,458333;0,458333;0,583333;0,630669;0,529762;0,500000;0,583333;0,500000;0,500000;0,583333;0,583333;0,583333;0,470879;0,676959;0,458333;0,583333;0,833333;0,583333;0,542315;0,500000;0,500000;0,536351;0,536351;0,433333;0,433333;0,424683;0,433333;0,500000;0,583333;0,500000;0,833333;0,500000;0,500000;0,458333;0,458333;0,458333;0,833333;0,500000;0,833333;0,833333;0,458333;0,833333;0,833333;0,833333;0,500000;0,583333;0,833333;0,416667;0,416667;0,416667;0,833333;
8;;;;;;;;1,000000;0,666667;0,690990;0,403361;0,283993;0,297792;0,306869;0,291667;0,293738;0,291667;0,332332;0,541667;0,356579;0,416667;0,266667;0,295841;0,338827;0,372936;0,291667;0,360108;0,333333;0,416667;0,416667;0,416667;0,356579;0,350419;0,391446;0,333333;0,416667;0,416667;0,416667;0,416667;0,356579;0,307254;0,321266;0,328044;0,416667;0,478736;0,300964;0,369684;0,333333;0,333333;0,325461;0,304213;0,416667;0,333333;0,333333;0,666667;0,305867;0,291667;0,291667;0,416667;0,464002;0,363095;0,333333;0,416667;0,333333;0,333333;0,416667;0,416667;0,416667;0,304213;0,369684;0,291667;0,416667;0,666667;0,416667;0,375648;0,333333;0,333333;0,369684;0,369684;0,266667;0,266667;0,258016;0,266667;0,333333;0,416667;0,333333;0,666667;0,333333;0,333333;0,291667;0,291667;0,291667;0,666667;1,000000;0,666667;0,666667;0,291667;0,666667;0,666667;0,666667;0,333333;0,416667;0,666667;0,250000;0,250000;0,250000;0,666667;
9;;;;;;;;;1,000000;0,690967;0,403361;0,283993;0,297792;0,306869;0,291667;0,293738;0,291667;0,332332;0,541667;0,356579;0,416667;0,266667;0,295841;0,338827;0,372936;0,291667;0,360108;0,333333;0,416667;0,416667;0,416667;0,356579;0,350419;0,391446;0,333333;0,416667;0,416667;0,416667;0,416667;0,356579;0,307254;0,321266;0,328044;0,416667;0,478736;0,300964;0,369684;0,333333;0,333333;0,325461;0,304213;0,416667;0,333333;0,333333;0,666667;0,305867;0,291667;0,291667;0,416667;0,464002;0,363095;0,333333;0,416667;0,333333;0,333333;0,416667;0,416667;0,416667;0,304213;0,369684;0,291667;0,416667;0,666667;0,416667;0,375648;0,333333;0,333333;0,369684;0,369684;0,266667;0,266667;0,258016;0,266667;0,333333;0,416667;0,333333;0,666667;0,333333;0,333333;0,291667;0,291667;0,291667;0,666667;0,666667;0,666667;0,666667;0,291667;0,666667;0,666667;0,666667;0,333333;0,416667;0,666667;0,250000;0,250000;0,250000;0,666667;
10;;;;;;;;;;1,000000;0,457387;0,338018;0,351817;0,360894;0,345692;0,347763;0,345692;0,386357;0,595692;0,410604;0,470692;0,320692;0,349867;0,392852;0,426962;0,345692;0,414134;0,387359;0,470692;0,470692;0,470692;0,410604;0,404444;0,445472;0,387359;0,470692;0,470692;0,470692;0,470692;0,410604;0,361280;0,375292;0,382069;0,470692;0,532762;0,354989;0,423710;0,387359;0,387359;0,379486;0,358238;0,470692;0,387359;0,387359;0,720692;0,359892;0,345692;0,345692;0,470692;0,518028;0,417121;0,387359;0,470692;0,387359;0,387359;0,470692;0,470692;0,470692;0,358238;0,423710;0,345692;0,470692;0,720692;0,470692;0,429674;0,387359;0,387359;0,423710;0,423710;0,320692;0,320692;0,312041;0,320692;0,387359;0,470692;0,387359;0,720692;0,387359;0,387359;0,345692;0,345692;0,345692;0,720692;0,690990;0,720692;0,720692;0,345692;0,720692;0,720692;0,720692;0,387359;0,470692;0,720692;0,304026;0,304026;0,304026;0,720692;
11;;;;;;;;;;;1,000000;0,500377;0,527975;0,489142;0,515726;0,484491;0,515726;0,601612;0,611695;0,547895;0,765726;0,465726;0,633817;0,747718;0,442964;0,361695;0,430136;0,599059;0,486695;0,486695;0,486695;0,426607;0,572337;0,532797;0,587869;0,765726;0,486695;0,486695;0,486695;0,426607;0,546900;0,444210;0,613204;0,486695;0,548764;0,498179;0,439712;0,403361;0,403361;0,583313;0,540818;0,486695;0,403361;0,403361;0,736695;0,375895;0,361695;0,361695;0,486695;0,629663;0,742480;0,598932;0,486695;0,598879;0,598879;0,765599;0,765726;0,486695;0,374241;0,553926;0,361695;0,765726;0,736695;0,486695;0,628259;0,403361;0,403361;0,439712;0,439712;0,336695;0,336695;0,401964;0,336695;0,403361;0,765726;0,403361;0,736695;0,599059;0,599059;0,643852;0,643852;0,643852;0,736695;0,403361;0,736695;0,736695;0,515726;0,736695;0,736695;0,736695;0,403361;0,486695;0,736695;0,432266;0,432266;0,432266;0,736695;
12;;;;;;;;;;;;1,000000;0,717194;0,634933;0,625584;0,580529;0,625584;0,555803;0,492326;0,516821;0,734652;0,700286;0,673309;0,578972;0,443938;0,457552;0,454557;0,567985;0,367326;0,367326;0,367326;0,307238;0,301078;0,342106;0,283993;0,734652;0,367326;0,367326;0,367326;0,307238;0,661852;0,271925;0,444799;0,367326;0,429395;0,518107;0,320343;0,283993;0,283993;0,552240;0,509744;0,367326;0,283993;0,283993;0,617326;0,256526;0,242326;0,242326;0,367326;0,731196;0,627509;0,283993;0,367326;0,283993;0,283993;0,367326;0,734652;0,367326;0,254872;0,320343;0,242326;0,734652;0,617326;0,367326;0,326308;0,283993;0,283993;0,320343;0,320343;0,217326;0,217326;0,208675;0,217326;0,283993;0,734652;0,283993;0,617326;0,567985;0,567985;0,242326;0,242326;0,242326;0,617326;0,283993;0,617326;0,617326;0,625584;0,617326;0,617326;0,617326;0,283993;0,367326;0,617326;0,200659;0,200659;0,200659;0,617326;
13;;;;;;;;;;;;;1,000000;0,663904;0,512250;0,617434;0,512250;0,532009;0,506125;0,544420;0,762250;0,669240;0,683242;0,606570;0,498636;0,512250;0,509255;0,595583;0,381125;0,381125;0,381125;0,321037;0,314877;0,355905;0,297792;0,762250;0,381125;0,381125;0,381125;0,321037;0,688961;0,285724;0,472397;0,381125;0,443194;0,494703;0,334142;0,297792;0,297792;0,579838;0,537342;0,381125;0,297792;0,297792;0,631125;0,270325;0,256125;0,256125;0,381125;0,626187;0,655107;0,297792;0,381125;0,297792;0,297792;0,381125;0,762250;0,381125;0,268671;0,334142;0,256125;0,762250;0,631125;0,381125;0,340107;0,297792;0,297792;0,334142;0,334142;0,231125;0,231125;0,222474;0,231125;0,297792;0,762250;0,297792;0,631125;0,595583;0,595583;0,256125;0,256125;0,256125;0,631125;0,297792;0,631125;0,631125;0,512250;0,631125;0,631125;0,631125;0,297792;0,381125;0,631125;0,214458;0,214458;0,214458;0,631125;
14;;;;;;;;;;;;;;1,000000;0,473417;0,542858;0,473417;0,493175;0,515202;0,505586;0,723417;0,594664;0,608666;0,567737;0,535729;0,646112;0,601433;0,556750;0,390202;0,390202;0,390202;0,330114;0,323954;0,364982;0,306869;0,723417;0,390202;0,390202;0,390202;0,330114;0,614385;0,294801;0,433564;0,390202;0,771112;0,455870;0,343220;0,306869;0,306869;0,541004;0,498509;0,390202;0,306869;0,306869;0,640202;0,279402;0,265202;0,265202;0,703277;0,587354;0,616274;0,306869;0,390202;0,306869;0,306869;0,390202;0,723417;0,390202;0,277748;0,343220;0,265202;0,723417;0,640202;0,390202;0,349184;0,306869;0,771112;0,343220;0,609311;0,403277;0,403277;0,345620;0,403277;0,771112;0,723417;0,690522;0,640202;0,556750;0,556750;0,265202;0,265202;0,265202;0,640202;0,306869;0,640202;0,640202;0,473417;0,640202;0,640202;0,640202;0,771112;0,390202;0,640202;0,223535;0,223535;0,223535;0,640202;
15;;;;;;;;;;;;;;;1,000000;0,628241;0,750000;0,519759;0,500000;0,532170;0,750000;0,626853;0,661755;0,594320;0,331270;0,250000;0,318442;0,583333;0,375000;0,375000;0,375000;0,314912;0,308752;0,349780;0,291667;0,750000;0,375000;0,375000;0,375000;0,314912;0,531175;0,279599;0,460148;0,375000;0,437070;0,642523;0,328017;0,291667;0,291667;0,567588;0,525092;0,375000;0,291667;0,291667;0,625000;0,264200;0,250000;0,250000;0,375000;0,770122;0,642857;0,291667;0,375000;0,291667;0,291667;0,375000;0,750000;0,375000;0,262546;0,328017;0,250000;0,750000;0,625000;0,375000;0,333982;0,291667;0,291667;0,328017;0,328017;0,225000;0,225000;0,216349;0,225000;0,291667;0,750000;0,291667;0,625000;0,583333;0,583333;0,250000;0,250000;0,250000;0,625000;0,291667;0,625000;0,625000;0,750000;0,625000;0,625000;0,625000;0,291667;0,375000;0,625000;0,208333;0,208333;0,208333;0,625000;
16;;;;;;;;;;;;;;;;1,000000;0,628241;0,537888;0,502071;0,564661;0,718766;0,680034;0,653012;0,563086;0,333341;0,252071;0,320513;0,552099;0,377071;0,377071;0,377071;0,316983;0,310823;0,351851;0,293738;0,718766;0,377071;0,377071;0,377071;0,316983;0,845824;0,281670;0,428913;0,377071;0,439140;0,520842;0,460910;0,293738;0,293738;0,641037;0,616251;0,377071;0,293738;0,293738;0,627071;0,266271;0,252071;0,252071;0,377071;0,650106;0,611623;0,293738;0,377071;0,293738;0,293738;0,377071;0,718766;0,377071;0,264617;0,330088;0,252071;0,718766;0,627071;0,377071;0,336053;0,293738;0,293738;0,330088;0,330088;0,227071;0,227071;0,218420;0,227071;0,293738;0,718766;0,293738;0,627071;0,552099;0,552099;0,252071;0,252071;0,252071;0,627071;0,293738;0,627071;0,627071;0,628156;0,627071;0,627071;0,627071;0,293738;0,377071;0,627071;0,210404;0,210404;0,210404;0,627071;
17;;;;;;;;;;;;;;;;;1,000000;0,519759;0,500000;0,532170;0,750000;0,626853;0,661755;0,594320;0,331270;0,250000;0,318442;0,583333;0,375000;0,375000;0,375000;0,314912;0,308752;0,349780;0,291667;0,750000;0,375000;0,375000;0,375000;0,314912;0,531175;0,279599;0,460148;0,375000;0,437070;0,642523;0,328017;0,291667;0,291667;0,567588;0,525092;0,375000;0,291667;0,291667;0,625000;0,264200;0,250000;0,250000;0,375000;0,770122;0,642857;0,291667;0,375000;0,291667;0,291667;0,375000;0,750000;0,375000;0,262546;0,328017;0,250000;0,750000;0,625000;0,375000;0,333982;0,291667;0,291667;0,328017;0,328017;0,225000;0,225000;0,216349;0,225000;0,291667;0,750000;0,291667;0,625000;0,583333;0,583333;0,250000;0,250000;0,250000;0,625000;0,291667;0,625000;0,625000;0,750000;0,625000;0,625000;0,625000;0,291667;0,375000;0,625000;0,208333;0,208333;0,208333;0,625000;
18;;;;;;;;;;;;;;;;;;1,000000;0,540665;0,551928;0,769759;0,589655;0,528108;0,708742;0,383604;0,290665;0,359107;0,603092;0,415665;0,415665;0,415665;0,355577;0,349417;0,438536;0,332332;0,769759;0,415665;0,415665;0,415665;0,355577;0,609356;0,379981;0,618830;0,712948;0,477735;0,502212;0,368683;0,332332;0,332332;0,587346;0,544851;0,415665;0,332332;0,332332;0,665665;0,345946;0,290665;0,290665;0,415665;0,633696;0,759802;0,546281;0,415665;0,534650;0,534650;0,415665;0,769759;0,415665;0,303211;0,588101;0,290665;0,769759;0,665665;0,685344;0,467777;0,332332;0,332332;0,591378;0,368683;0,371753;0,371753;0,523849;0,371753;0,332332;0,769759;0,332332;0,665665;0,603092;0,603092;0,432067;0,432067;0,432067;0,665665;0,332332;0,665665;0,665665;0,519759;0,665665;0,665665;0,665665;0,332332;0,415665;0,665665;0,652341;0,652341;0,652341;0,665665;
19;;;;;;;;;;;;;;;;;;;1,000000;0,564912;0,625000;0,475000;0,504175;0,547160;0,581270;0,500000;0,568442;0,772757;0,625000;0,625000;0,625000;0,564912;0,558752;0,599780;0,541667;0,625000;0,625000;0,625000;0,625000;0,564912;0,515587;0,529599;0,536377;0,625000;0,687070;0,615371;0,845459;0,541667;0,541667;0,533794;0,512546;0,625000;0,541667;0,541667;0,875000;0,514200;0,500000;0,500000;0,625000;0,672336;0,571429;0,541667;0,625000;0,541667;0,541667;0,625000;0,625000;0,625000;0,512546;0,578017;0,500000;0,625000;0,875000;0,625000;0,583982;0,541667;0,541667;0,578017;0,578017;0,475000;0,475000;0,466349;0,475000;0,541667;0,625000;0,541667;0,875000;0,541667;0,541667;0,500000;0,500000;0,500000;0,875000;0,541667;0,875000;0,875000;0,500000;0,875000;0,875000;0,875000;0,541667;0,625000;0,875000;0,458333;0,458333;0,458333;0,875000;
20;;;;;;;;;;;;;;;;;;;;1,000000;0,782170;0,482170;0,540519;0,626490;0,396182;0,314912;0,383354;0,615503;0,439912;0,439912;0,439912;0,379824;0,373664;0,414692;0,356579;0,782170;0,439912;0,439912;0,439912;0,379824;0,563344;0,344511;0,492317;0,439912;0,501981;0,616215;0,521998;0,356579;0,356579;0,699385;0,674599;0,439912;0,356579;0,356579;0,689912;0,329112;0,314912;0,314912;0,439912;0,646107;0,675027;0,356579;0,729572;0,356579;0,356579;0,439912;0,782170;0,439912;0,327458;0,392929;0,314912;0,782170;0,689912;0,439912;0,398893;0,356579;0,356579;0,392929;0,392929;0,289912;0,289912;0,281261;0,289912;0,356579;0,782170;0,356579;0,689912;0,615503;0,615503;0,314912;0,314912;0,314912;0,689912;0,356579;0,689912;0,689912;0,686505;0,689912;0,689912;0,689912;0,356579;0,439912;0,689912;0,273245;0,273245;0,273245;0,689912;
21;;;;;;;;;;;;;;;;;;;;;1,000000;0,700000;0,758349;0,844320;0,456270;0,375000;0,443442;0,833333;0,500000;0,500000;0,500000;0,439912;0,433752;0,474780;0,416667;1,000000;0,500000;0,500000;0,500000;0,439912;0,781175;0,404599;0,710148;0,500000;0,562070;0,732453;0,453017;0,416667;0,416667;0,817588;0,775092;0,500000;0,416667;0,416667;0,750000;0,389200;0,375000;0,375000;0,500000;0,863937;0,892857;0,416667;0,500000;0,416667;0,416667;0,500000;1,000000;0,500000;0,387546;0,453017;0,375000;1,000000;0,750000;0,500000;0,458982;0,416667;0,416667;0,453017;0,453017;0,350000;0,350000;0,341349;0,350000;0,416667;1,000000;0,416667;0,750000;0,833333;0,833333;0,375000;0,375000;0,375000;0,750000;0,416667;0,750000;0,750000;0,750000;0,750000;0,750000;0,750000;0,416667;0,500000;0,750000;0,333333;0,333333;0,333333;0,750000;
22;;;;;;;;;;;;;;;;;;;;;;1,000000;0,772892;0,544320;0,306270;0,225000;0,293442;0,533333;0,350000;0,350000;0,350000;0,289912;0,283752;0,324780;0,266667;0,700000;0,350000;0,350000;0,350000;0,289912;0,761449;0,254599;0,410148;0,350000;0,412070;0,519376;0,303017;0,266667;0,266667;0,517588;0,475092;0,350000;0,266667;0,266667;0,600000;0,239200;0,225000;0,225000;0,350000;0,765043;0,592857;0,266667;0,350000;0,266667;0,266667;0,350000;0,700000;0,350000;0,237546;0,303017;0,225000;0,700000;0,600000;0,350000;0,308982;0,266667;0,266667;0,303017;0,303017;0,200000;0,200000;0,191349;0,200000;0,266667;0,700000;0,266667;0,600000;0,533333;0,533333;0,225000;0,225000;0,225000;0,600000;0,266667;0,600000;0,600000;0,626853;0,600000;0,600000;0,600000;0,266667;0,350000;0,600000;0,183333;0,183333;0,183333;0,600000;
23;;;;;;;;;;;;;;;;;;;;;;;1,000000;0,785631;0,335444;0,254175;0,322616;0,591682;0,379175;0,379175;0,379175;0,319086;0,312927;0,353954;0,295841;0,758349;0,379175;0,379175;0,379175;0,319086;0,734391;0,283774;0,651117;0,379175;0,441244;0,554278;0,332192;0,295841;0,295841;0,575937;0,533441;0,379175;0,295841;0,295841;0,629175;0,268375;0,254175;0,254175;0,379175;0,779022;0,780394;0,541576;0,379175;0,295841;0,295841;0,708243;0,758349;0,379175;0,266721;0,332192;0,254175;0,758349;0,629175;0,379175;0,474386;0,295841;0,295841;0,332192;0,332192;0,229175;0,229175;0,344608;0,229175;0,295841;0,758349;0,295841;0,629175;0,591682;0,591682;0,254175;0,254175;0,254175;0,629175;0,295841;0,629175;0,629175;0,661755;0,629175;0,629175;0,629175;0,295841;0,379175;0,629175;0,374910;0,374910;0,374910;0,629175;
24;;;;;;;;;;;;;;;;;;;;;;;;1,000000;0,378430;0,297160;0,365602;0,677653;0,422160;0,422160;0,422160;0,362072;0,355912;0,396940;0,338827;0,844320;0,422160;0,422160;0,422160;0,362072;0,625495;0,326759;0,765018;0,722910;0,484230;0,576773;0,375177;0,338827;0,338827;0,661908;0,619412;0,422160;0,338827;0,338827;0,672160;0,311360;0,297160;0,297160;0,422160;0,708257;1,000000;0,831250;0,422160;0,338827;0,338827;0,779175;0,844320;0,422160;0,309706;0,375177;0,297160;0,844320;0,672160;0,422160;0,545318;0,338827;0,338827;0,375177;0,375177;0,272160;0,272160;0,515659;0,272160;0,338827;0,844320;0,338827;0,672160;0,677653;0,677653;0,297160;0,297160;0,297160;0,672160;0,338827;0,672160;0,672160;0,594320;0,672160;0,672160;0,672160;0,338827;0,422160;0,672160;0,581250;0,581250;0,581250;0,672160;
25;;;;;;;;;;;;;;;;;;;;;;;;;1,000000;0,715981;0,612168;0,372936;0,456270;0,456270;0,456270;0,396182;0,390022;0,431049;0,372936;0,456270;0,456270;0,456270;0,456270;0,396182;0,346857;0,360869;0,367647;0,456270;0,710852;0,340567;0,409287;0,372936;0,372936;0,365064;0,343816;0,456270;0,372936;0,372936;0,706270;0,345470;0,331270;0,331270;0,456270;0,503605;0,402698;0,372936;0,456270;0,372936;0,372936;0,456270;0,456270;0,456270;0,343816;0,409287;0,331270;0,456270;0,706270;0,456270;0,415251;0,372936;0,642672;0,409287;0,521771;0,626276;0,626276;0,483002;0,626276;0,642672;0,456270;0,658396;0,706270;0,372936;0,372936;0,331270;0,331270;0,331270;0,706270;0,372936;0,706270;0,706270;0,331270;0,706270;0,706270;0,706270;0,642672;0,456270;0,706270;0,378518;0,378518;0,378518;0,706270;
26;;;;;;;;;;;;;;;;;;;;;;;;;;1,000000;0,798379;0,291667;0,375000;0,375000;0,375000;0,314912;0,308752;0,349780;0,291667;0,375000;0,375000;0,375000;0,375000;0,314912;0,265587;0,279599;0,286377;0,375000;0,875000;0,259297;0,328017;0,291667;0,291667;0,283794;0,262546;0,375000;0,291667;0,291667;0,625000;0,264200;0,250000;0,250000;0,750000;0,422336;0,321429;0,291667;0,375000;0,291667;0,291667;0,375000;0,375000;0,375000;0,262546;0,328017;0,250000;0,375000;0,625000;0,375000;0,333982;0,291667;0,875000;0,328017;0,656035;0,450000;0,450000;0,392343;0,450000;0,875000;0,375000;0,794411;0,625000;0,291667;0,291667;0,250000;0,250000;0,250000;0,625000;0,291667;0,625000;0,625000;0,250000;0,625000;0,625000;0,625000;0,875000;0,375000;0,625000;0,208333;0,208333;0,208333;0,625000;
27;;;;;;;;;;;;;;;;;;;;;;;;;;;1,000000;0,360108;0,443442;0,443442;0,443442;0,383354;0,377194;0,418221;0,360108;0,443442;0,443442;0,443442;0,443442;0,383354;0,334029;0,348041;0,354819;0,443442;0,773200;0,327739;0,396459;0,360108;0,360108;0,352236;0,330988;0,443442;0,360108;0,360108;0,693442;0,332642;0,318442;0,318442;0,871211;0,490777;0,389870;0,360108;0,443442;0,360108;0,360108;0,443442;0,443442;0,443442;0,330988;0,396459;0,318442;0,443442;0,693442;0,443442;0,402423;0,360108;0,704544;0,396459;0,885168;0,571211;0,571211;0,513553;0,571211;0,704544;0,443442;0,704544;0,693442;0,360108;0,360108;0,318442;0,318442;0,318442;0,693442;0,360108;0,693442;0,693442;0,318442;0,693442;0,693442;0,693442;0,704544;0,443442;0,693442;0,276775;0,276775;0,276775;0,693442;
28;;;;;;;;;;;;;;;;;;;;;;;;;;;;1,000000;0,416667;0,416667;0,416667;0,356579;0,350419;0,391446;0,333333;0,833333;0,416667;0,416667;0,416667;0,356579;0,614508;0,321266;0,543481;0,416667;0,478736;0,769261;0,739368;0,333333;0,333333;0,650921;0,608425;0,416667;0,333333;0,333333;0,666667;0,305867;0,291667;0,291667;0,416667;0,697271;0,726190;0,333333;0,416667;0,333333;0,333333;0,416667;0,833333;0,416667;0,304213;0,369684;0,291667;0,833333;0,666667;0,416667;0,375648;0,333333;0,333333;0,369684;0,369684;0,266667;0,266667;0,258016;0,266667;0,333333;0,833333;0,333333;0,666667;0,666667;0,666667;0,291667;0,291667;0,291667;0,666667;0,333333;0,666667;0,666667;0,583333;0,666667;0,666667;0,666667;0,333333;0,416667;0,666667;0,250000;0,250000;0,250000;0,666667;
29;;;;;;;;;;;;;;;;;;;;;;;;;;;;;1,000000;0,500000;0,500000;0,439912;0,433752;0,474780;0,416667;0,500000;0,500000;0,500000;0,500000;0,439912;0,390587;0,404599;0,411377;0,500000;0,562070;0,384297;0,453017;0,416667;0,416667;0,408794;0,387546;0,500000;0,416667;0,416667;0,750000;0,389200;0,375000;0,375000;0,500000;0,547336;0,446429;0,416667;0,500000;0,416667;0,416667;0,500000;0,500000;0,500000;0,387546;0,453017;0,375000;0,500000;0,750000;0,500000;0,458982;0,416667;0,416667;0,453017;0,453017;0,350000;0,350000;0,341349;0,350000;0,416667;0,500000;0,416667;0,750000;0,416667;0,416667;0,375000;0,375000;0,375000;0,750000;0,416667;0,750000;0,750000;0,375000;0,750000;0,750000;0,750000;0,416667;0,500000;0,750000;0,333333;0,333333;0,333333;0,750000;
30;;;;;;;;;;;;;;;;;;;;;;;;;;;;;;1,000000;0,500000;0,439912;0,433752;0,474780;0,416667;0,500000;0,500000;0,500000;0,500000;0,439912;0,390587;0,404599;0,411377;0,500000;0,562070;0,384297;0,453017;0,416667;0,416667;0,408794;0,387546;0,500000;0,416667;0,416667;0,750000;0,389200;0,375000;0,375000;0,500000;0,547336;0,446429;0,416667;0,500000;0,416667;0,416667;0,500000;0,500000;0,500000;0,387546;0,453017;0,375000;0,500000;0,750000;0,500000;0,458982;0,416667;0,416667;0,453017;0,453017;0,350000;0,350000;0,341349;0,350000;0,416667;0,500000;0,416667;0,750000;0,416667;0,416667;0,375000;0,375000;0,375000;0,750000;0,416667;0,750000;0,750000;0,375000;0,750000;0,750000;0,750000;0,416667;0,500000;0,750000;0,333333;0,333333;0,333333;0,750000;
31;;;;;;;;;;;;;;;;;;;;;;;;;;;;;;;1,000000;0,439912;0,433752;0,474780;0,416667;0,500000;0,500000;0,500000;0,500000;0,439912;0,390587;0,404599;0,411377;0,500000;0,562070;0,384297;0,453017;0,833333;0,833333;0,408794;0,387546;0,500000;0,416667;0,416667;0,750000;0,389200;0,375000;0,375000;0,500000;0,547336;0,446429;0,416667;0,500000;0,416667;0,416667;0,500000;0,500000;0,500000;0,387546;0,453017;0,375000;0,500000;0,750000;0,500000;0,458982;0,416667;0,416667;0,453017;0,453017;0,350000;0,350000;0,341349;0,350000;0,416667;0,500000;0,416667;0,750000;0,416667;0,416667;0,375000;0,375000;0,375000;0,750000;0,416667;0,750000;0,750000;0,375000;0,750000;0,750000;0,750000;0,416667;0,500000;0,750000;0,333333;0,333333;0,333333;0,750000;
32;;;;;;;;;;;;;;;;;;;;;;;;;;;;;;;;1,000000;0,373664;0,414692;0,356579;0,439912;0,439912;0,439912;0,439912;0,379824;0,330499;0,344511;0,351289;0,439912;0,501981;0,324209;0,392929;0,645441;0,645441;0,348706;0,327458;0,439912;0,356579;0,356579;0,689912;0,329112;0,314912;0,314912;0,439912;0,487247;0,386340;0,356579;0,439912;0,356579;0,356579;0,439912;0,439912;0,439912;0,327458;0,392929;0,314912;0,439912;0,689912;0,439912;0,398893;0,356579;0,356579;0,392929;0,392929;0,289912;0,289912;0,281261;0,289912;0,356579;0,439912;0,356579;0,689912;0,356579;0,356579;0,314912;0,314912;0,314912;0,689912;0,356579;0,689912;0,689912;0,314912;0,689912;0,689912;0,689912;0,356579;0,439912;0,689912;0,273245;0,273245;0,273245;0,689912;
33;;;;;;;;;;;;;;;;;;;;;;;;;;;;;;;;;1,000000;0,633985;0,651135;0,433752;0,433752;0,433752;0,433752;0,373664;0,324339;0,338351;0,345129;0,433752;0,495822;0,318049;0,386770;0,350419;0,350419;0,342546;0,321298;0,433752;0,350419;0,350419;0,683752;0,322952;0,308752;0,308752;0,433752;0,481088;0,380181;0,350419;0,433752;0,350419;0,350419;0,433752;0,433752;0,433752;0,321298;0,617192;0,308752;0,433752;0,683752;0,433752;0,392734;0,350419;0,350419;0,386770;0,386770;0,283752;0,283752;0,275101;0,283752;0,350419;0,433752;0,350419;0,683752;0,350419;0,350419;0,308752;0,308752;0,308752;0,683752;0,350419;0,683752;0,683752;0,308752;0,683752;0,683752;0,683752;0,350419;0,433752;0,683752;0,267085;0,267085;0,267085;0,683752;
34;;;;;;;;;;;;;;;;;;;;;;;;;;;;;;;;;;1,000000;0,649451;0,474780;0,474780;0,474780;0,474780;0,414692;0,365367;0,379379;0,467226;0,474780;0,536849;0,359077;0,427797;0,391446;0,391446;0,383574;0,362326;0,474780;0,391446;0,391446;0,724780;0,363980;0,349780;0,349780;0,474780;0,522115;0,421208;0,391446;0,474780;0,391446;0,391446;0,474780;0,474780;0,816118;0,362326;0,662504;0,349780;0,474780;0,724780;0,474780;0,433761;0,391446;0,391446;0,427797;0,427797;0,324780;0,324780;0,316129;0,324780;0,391446;0,474780;0,391446;0,724780;0,391446;0,391446;0,506470;0,506470;0,506470;0,724780;0,391446;0,724780;0,724780;0,349780;0,724780;0,724780;0,724780;0,391446;0,474780;0,724780;0,308113;0,308113;0,308113;0,724780;
35;;;;;;;;;;;;;;;;;;;;;;;;;;;;;;;;;;;1,000000;0,416667;0,416667;0,416667;0,416667;0,356579;0,307254;0,321266;0,328044;0,416667;0,478736;0,300964;0,369684;0,333333;0,333333;0,325461;0,304213;0,416667;0,333333;0,333333;0,666667;0,305867;0,291667;0,291667;0,416667;0,464002;0,363095;0,333333;0,416667;0,333333;0,333333;0,416667;0,416667;0,833333;0,304213;0,632724;0,291667;0,416667;0,666667;0,416667;0,375648;0,333333;0,333333;0,369684;0,369684;0,266667;0,266667;0,258016;0,266667;0,333333;0,416667;0,333333;0,666667;0,333333;0,333333;0,291667;0,291667;0,291667;0,666667;0,333333;0,666667;0,666667;0,291667;0,666667;0,666667;0,666667;0,333333;0,416667;0,666667;0,250000;0,250000;0,250000;0,666667;
36;;;;;;;;;;;;;;;;;;;;;;;;;;;;;;;;;;;;1,000000;0,500000;0,500000;0,500000;0,439912;0,781175;0,404599;0,710148;0,500000;0,562070;0,732453;0,453017;0,416667;0,416667;0,817588;0,775092;0,500000;0,416667;0,416667;0,750000;0,389200;0,375000;0,375000;0,500000;0,863937;0,892857;0,416667;0,500000;0,416667;0,416667;0,500000;1,000000;0,500000;0,387546;0,453017;0,375000;1,000000;0,750000;0,500000;0,458982;0,416667;0,416667;0,453017;0,453017;0,350000;0,350000;0,341349;0,350000;0,416667;1,000000;0,416667;0,750000;0,833333;0,833333;0,375000;0,375000;0,375000;0,750000;0,416667;0,750000;0,750000;0,750000;0,750000;0,750000;0,750000;0,416667;0,500000;0,750000;0,333333;0,333333;0,333333;0,750000;
37;;;;;;;;;;;;;;;;;;;;;;;;;;;;;;;;;;;;;1,000000;0,500000;0,500000;0,439912;0,390587;0,404599;0,411377;0,500000;0,562070;0,384297;0,453017;0,416667;0,416667;0,408794;0,387546;0,500000;0,416667;0,416667;0,750000;0,389200;0,375000;0,375000;0,500000;0,547336;0,446429;0,416667;0,500000;0,416667;0,416667;0,500000;0,500000;0,500000;0,387546;0,453017;0,375000;0,500000;0,750000;0,500000;0,458982;0,416667;0,416667;0,453017;0,453017;0,350000;0,350000;0,341349;0,350000;0,416667;0,500000;0,416667;0,750000;0,416667;0,416667;0,375000;0,375000;0,375000;0,750000;0,416667;0,750000;0,750000;0,375000;0,750000;0,750000;0,750000;0,416667;1,000000;0,750000;0,333333;0,333333;0,333333;0,750000;
38;;;;;;;;;;;;;;;;;;;;;;;;;;;;;;;;;;;;;;1,000000;0,500000;0,439912;0,390587;0,404599;0,411377;0,500000;0,562070;0,384297;0,453017;0,416667;0,416667;0,408794;0,387546;0,500000;0,416667;0,416667;0,750000;0,389200;0,375000;0,375000;0,500000;0,547336;0,446429;0,416667;0,500000;0,416667;0,416667;0,500000;0,500000;0,500000;0,387546;0,453017;0,375000;0,500000;0,750000;0,500000;0,458982;0,416667;0,416667;0,453017;0,453017;0,350000;0,350000;0,341349;0,350000;0,416667;0,500000;0,416667;0,750000;0,416667;0,416667;0,375000;0,375000;0,375000;0,750000;0,416667;0,750000;0,750000;0,375000;0,750000;0,750000;0,750000;0,416667;0,500000;0,750000;0,333333;0,333333;0,333333;0,750000;
39;;;;;;;;;;;;;;;;;;;;;;;;;;;;;;;;;;;;;;;1,000000;0,439912;0,390587;0,404599;0,411377;0,500000;0,562070;0,384297;0,453017;0,416667;0,416667;0,408794;0,387546;0,500000;0,833333;0,833333;0,750000;0,389200;0,375000;0,375000;0,500000;0,547336;0,446429;0,416667;0,500000;0,416667;0,416667;0,500000;0,500000;0,500000;0,387546;0,453017;0,375000;0,500000;0,750000;0,500000;0,458982;0,416667;0,416667;0,453017;0,453017;0,350000;0,350000;0,341349;0,350000;0,416667;0,500000;0,416667;0,750000;0,416667;0,416667;0,375000;0,375000;0,375000;0,750000;0,416667;0,750000;0,750000;0,375000;0,750000;0,750000;0,750000;0,416667;0,500000;0,750000;0,333333;0,333333;0,333333;0,750000;
40;;;;;;;;;;;;;;;;;;;;;;;;;;;;;;;;;;;;;;;;1,000000;0,330499;0,344511;0,351289;0,439912;0,501981;0,324209;0,392929;0,356579;0,356579;0,348706;0,327458;0,439912;0,645441;0,645441;0,689912;0,329112;0,314912;0,314912;0,439912;0,487247;0,386340;0,356579;0,439912;0,356579;0,356579;0,439912;0,439912;0,439912;0,327458;0,392929;0,314912;0,439912;0,689912;0,439912;0,398893;0,356579;0,356579;0,392929;0,392929;0,289912;0,289912;0,281261;0,289912;0,356579;0,439912;0,356579;0,689912;0,356579;0,356579;0,314912;0,314912;0,314912;0,689912;0,356579;0,689912;0,689912;0,314912;0,689912;0,689912;0,689912;0,356579;0,439912;0,689912;0,273245;0,273245;0,273245;0,689912;
41;;;;;;;;;;;;;;;;;;;;;;;;;;;;;;;;;;;;;;;;;1,000000;0,295187;0,491322;0,390587;0,452657;0,513628;0,343605;0,307254;0,307254;0,598762;0,556267;0,390587;0,307254;0,307254;0,640587;0,279787;0,265587;0,265587;0,390587;0,645112;0,674032;0,307254;0,390587;0,307254;0,307254;0,390587;0,781175;0,390587;0,278133;0,343605;0,265587;0,781175;0,640587;0,390587;0,349569;0,307254;0,307254;0,343605;0,343605;0,240587;0,240587;0,231937;0,240587;0,307254;0,781175;0,307254;0,640587;0,614508;0,614508;0,265587;0,265587;0,265587;0,640587;0,307254;0,640587;0,640587;0,531175;0,640587;0,640587;0,640587;0,307254;0,390587;0,640587;0,223921;0,223921;0,223921;0,640587;
42;;;;;;;;;;;;;;;;;;;;;;;;;;;;;;;;;;;;;;;;;;1,000000;0,315977;0,404599;0,466669;0,288896;0,357617;0,321266;0,321266;0,313393;0,292145;0,404599;0,321266;0,321266;0,654599;0,694413;0,692342;0,692342;0,404599;0,451935;0,351028;0,321266;0,404599;0,511998;0,511998;0,404599;0,404599;0,404599;0,664433;0,357617;0,695619;0,404599;0,654599;0,404599;0,582400;0,601491;0,321266;0,567527;0,357617;0,254599;0,254599;0,245949;0,254599;0,321266;0,404599;0,321266;0,654599;0,321266;0,321266;0,279599;0,279599;0,279599;0,654599;0,321266;0,654599;0,654599;0,279599;0,654599;0,654599;0,654599;0,321266;0,404599;0,654599;0,237933;0,237933;0,237933;0,654599;
43;;;;;;;;;;;;;;;;;;;;;;;;;;;;;;;;;;;;;;;;;;;1,000000;0,411377;0,473447;0,442600;0,364395;0,328044;0,328044;0,527735;0,485239;0,697849;0,328044;0,328044;0,661377;0,533299;0,447849;0,447849;0,411377;0,574085;0,759781;0,598838;0,411377;0,525150;0,525150;0,765505;0,710148;0,411377;0,472941;0,616791;0,447849;0,710148;0,661377;0,720719;0,531647;0,531182;0,328044;0,626754;0,364395;0,261377;0,261377;0,401869;0,261377;0,328044;0,710148;0,328044;0,661377;0,543481;0,543481;0,460757;0,460757;0,460757;0,661377;0,328044;0,661377;0,661377;0,460148;0,661377;0,661377;0,661377;0,328044;0,411377;0,661377;0,432171;0,432171;0,432171;0,661377;
44;;;;;;;;;;;;;;;;;;;;;;;;;;;;;;;;;;;;;;;;;;;;1,000000;0,562070;0,384297;0,453017;0,416667;0,416667;0,408794;0,387546;0,500000;0,416667;0,416667;0,750000;0,389200;0,375000;0,375000;0,500000;0,547336;0,750000;0,833333;0,500000;0,416667;0,416667;0,500000;0,500000;0,500000;0,387546;0,453017;0,375000;0,500000;0,750000;0,500000;0,458982;0,416667;0,416667;0,453017;0,453017;0,350000;0,350000;0,636516;0,350000;0,416667;0,500000;0,416667;0,750000;0,416667;0,416667;0,375000;0,375000;0,375000;0,750000;0,416667;0,750000;0,750000;0,375000;0,750000;0,750000;0,750000;0,416667;0,500000;0,750000;0,666667;0,666667;0,666667;0,750000;
45;;;;;;;;;;;;;;;;;;;;;;;;;;;;;;;;;;;;;;;;;;;;;1,000000;0,446367;0,515087;0,478736;0,478736;0,470863;0,449616;0,562070;0,478736;0,478736;0,812070;0,451270;0,437070;0,437070;0,901990;0,609405;0,508498;0,478736;0,562070;0,478736;0,478736;0,562070;0,562070;0,562070;0,449616;0,515087;0,437070;0,562070;0,812070;0,562070;0,521051;0,478736;1,000000;0,515087;0,808025;0,601990;0,601990;0,544333;0,601990;1,000000;0,562070;0,919411;0,812070;0,478736;0,478736;0,437070;0,437070;0,437070;0,812070;0,478736;0,812070;0,812070;0,437070;0,812070;0,812070;0,812070;1,000000;0,562070;0,812070;0,395403;0,395403;0,395403;0,812070;
46;;;;;;;;;;;;;;;;;;;;;;;;;;;;;;;;;;;;;;;;;;;;;;1,000000;0,581982;0,300964;0,300964;0,729426;0,713866;0,384297;0,300964;0,300964;0,634297;0,273497;0,259297;0,259297;0,384297;0,662645;0,625310;0,300964;0,384297;0,300964;0,300964;0,384297;0,732453;0,384297;0,271843;0,337315;0,259297;0,732453;0,634297;0,384297;0,343279;0,300964;0,300964;0,337315;0,337315;0,234297;0,234297;0,225646;0,234297;0,300964;0,732453;0,300964;0,634297;0,565786;0,565786;0,259297;0,259297;0,259297;0,634297;0,300964;0,634297;0,634297;0,642523;0,634297;0,634297;0,634297;0,300964;0,384297;0,634297;0,217630;0,217630;0,217630;0,634297;
47;;;;;;;;;;;;;;;;;;;;;;;;;;;;;;;;;;;;;;;;;;;;;;;1,000000;0,369684;0,369684;0,530497;0,526446;0,453017;0,369684;0,369684;0,703017;0,342217;0,328017;0,328017;0,453017;0,500353;0,399446;0,369684;0,453017;0,369684;0,369684;0,453017;0,453017;0,453017;0,340563;0,406035;0,328017;0,453017;0,703017;0,453017;0,411999;0,369684;0,369684;0,406035;0,406035;0,303017;0,303017;0,294367;0,303017;0,369684;0,453017;0,369684;0,703017;0,369684;0,369684;0,328017;0,328017;0,328017;0,703017;0,369684;0,703017;0,703017;0,549456;0,703017;0,703017;0,703017;0,369684;0,453017;0,703017;0,286351;0,286351;0,286351;0,703017;
48;;;;;;;;;;;;;;;;;;;;;;;;;;;;;;;;;;;;;;;;;;;;;;;;1,000000;0,666667;0,325461;0,304213;0,416667;0,333333;0,333333;0,666667;0,305867;0,291667;0,291667;0,416667;0,464002;0,363095;0,333333;0,416667;0,333333;0,333333;0,416667;0,416667;0,416667;0,304213;0,369684;0,291667;0,416667;0,666667;0,416667;0,375648;0,333333;0,333333;0,369684;0,369684;0,266667;0,266667;0,258016;0,266667;0,333333;0,416667;0,333333;0,666667;0,333333;0,333333;0,291667;0,291667;0,291667;0,666667;0,333333;0,666667;0,666667;0,291667;0,666667;0,666667;0,666667;0,333333;0,416667;0,666667;0,250000;0,250000;0,250000;0,666667;
49;;;;;;;;;;;;;;;;;;;;;;;;;;;;;;;;;;;;;;;;;;;;;;;;;1,000000;0,325461;0,304213;0,416667;0,333333;0,333333;0,666667;0,305867;0,291667;0,291667;0,416667;0,464002;0,363095;0,333333;0,416667;0,333333;0,333333;0,416667;0,416667;0,416667;0,304213;0,369684;0,291667;0,416667;0,666667;0,416667;0,375648;0,333333;0,333333;0,369684;0,369684;0,266667;0,266667;0,258016;0,266667;0,333333;0,416667;0,333333;0,666667;0,333333;0,333333;0,291667;0,291667;0,291667;0,666667;0,333333;0,666667;0,666667;0,291667;0,666667;0,666667;0,666667;0,333333;0,416667;0,666667;0,250000;0,250000;0,250000;0,666667;
50;;;;;;;;;;;;;;;;;;;;;;;;;;;;;;;;;;;;;;;;;;;;;;;;;;1,000000;0,750975;0,408794;0,325461;0,325461;0,658794;0,297994;0,283794;0,283794;0,408794;0,681525;0,710445;0,325461;0,408794;0,325461;0,325461;0,408794;0,817588;0,408794;0,296340;0,361811;0,283794;0,817588;0,658794;0,408794;0,367775;0,325461;0,325461;0,361811;0,361811;0,258794;0,258794;0,250143;0,258794;0,325461;0,817588;0,325461;0,658794;0,650921;0,650921;0,283794;0,283794;0,283794;0,658794;0,325461;0,658794;0,658794;0,762881;0,658794;0,658794;0,658794;0,325461;0,408794;0,658794;0,242127;0,242127;0,242127;0,658794;
51;;;;;;;;;;;;;;;;;;;;;;;;;;;;;;;;;;;;;;;;;;;;;;;;;;;1,000000;0,387546;0,304213;0,304213;0,637546;0,276746;0,262546;0,262546;0,387546;0,639029;0,667949;0,304213;0,387546;0,304213;0,304213;0,387546;0,775092;0,387546;0,275092;0,340563;0,262546;0,775092;0,637546;0,387546;0,346528;0,304213;0,304213;0,340563;0,340563;0,237546;0,237546;0,228895;0,237546;0,304213;0,775092;0,304213;0,637546;0,608425;0,608425;0,262546;0,262546;0,262546;0,637546;0,304213;0,637546;0,637546;0,738095;0,637546;0,637546;0,637546;0,304213;0,387546;0,637546;0,220879;0,220879;0,220879;0,637546;
52;;;;;;;;;;;;;;;;;;;;;;;;;;;;;;;;;;;;;;;;;;;;;;;;;;;;1,000000;0,416667;0,416667;0,750000;0,760640;0,750000;0,750000;0,500000;0,547336;0,446429;0,416667;0,500000;0,416667;0,416667;0,500000;0,500000;0,500000;0,775092;0,453017;0,750000;0,500000;0,750000;0,500000;0,458982;0,833333;0,416667;0,453017;0,453017;0,350000;0,350000;0,341349;0,350000;0,416667;0,500000;0,416667;0,750000;0,416667;0,416667;0,375000;0,375000;0,375000;0,750000;0,416667;0,750000;0,750000;0,375000;0,750000;0,750000;0,750000;0,416667;0,500000;0,750000;0,333333;0,333333;0,333333;0,750000;
53;;;;;;;;;;;;;;;;;;;;;;;;;;;;;;;;;;;;;;;;;;;;;;;;;;;;;1,000000;0,666667;0,666667;0,305867;0,291667;0,291667;0,416667;0,464002;0,363095;0,333333;0,416667;0,333333;0,333333;0,416667;0,416667;0,416667;0,304213;0,369684;0,291667;0,416667;0,666667;0,416667;0,375648;0,333333;0,333333;0,369684;0,369684;0,266667;0,266667;0,258016;0,266667;0,333333;0,416667;0,333333;0,666667;0,333333;0,333333;0,291667;0,291667;0,291667;0,666667;0,333333;0,666667;0,666667;0,291667;0,666667;0,666667;0,666667;0,333333;0,416667;0,666667;0,250000;0,250000;0,250000;0,666667;
54;;;;;;;;;;;;;;;;;;;;;;;;;;;;;;;;;;;;;;;;;;;;;;;;;;;;;;1,000000;0,666667;0,305867;0,291667;0,291667;0,416667;0,464002;0,363095;0,333333;0,416667;0,333333;0,333333;0,416667;0,416667;0,416667;0,304213;0,369684;0,291667;0,416667;0,666667;0,416667;0,375648;0,333333;0,333333;0,369684;0,369684;0,266667;0,266667;0,258016;0,266667;0,333333;0,416667;0,333333;0,666667;0,333333;0,333333;0,291667;0,291667;0,291667;0,666667;0,333333;0,666667;0,666667;0,291667;0,666667;0,666667;0,666667;0,333333;0,416667;0,666667;0,250000;0,250000;0,250000;0,666667;
55;;;;;;;;;;;;;;;;;;;;;;;;;;;;;;;;;;;;;;;;;;;;;;;;;;;;;;;1,000000;0,639200;0,625000;0,625000;0,750000;0,797336;0,696429;0,666667;0,750000;0,666667;0,666667;0,750000;0,750000;0,750000;0,637546;0,703017;0,625000;0,750000;1,000000;0,750000;0,708982;0,666667;0,666667;0,703017;0,703017;0,600000;0,600000;0,591349;0,600000;0,666667;0,750000;0,666667;1,000000;0,666667;0,666667;0,625000;0,625000;0,625000;1,000000;0,666667;1,000000;1,000000;0,625000;1,000000;1,000000;1,000000;0,666667;0,750000;1,000000;0,583333;0,583333;0,583333;1,000000;
56;;;;;;;;;;;;;;;;;;;;;;;;;;;;;;;;;;;;;;;;;;;;;;;;;;;;;;;;1,000000;0,687720;0,687720;0,389200;0,436536;0,335629;0,305867;0,389200;0,305867;0,305867;0,389200;0,389200;0,389200;0,658886;0,342217;0,691168;0,389200;0,639200;0,660603;0,433888;0,593973;0,305867;0,566637;0,342217;0,239200;0,239200;0,230549;0,239200;0,305867;0,389200;0,305867;0,639200;0,305867;0,305867;0,264200;0,264200;0,264200;0,639200;0,305867;0,639200;0,639200;0,264200;0,639200;0,639200;0,639200;0,305867;0,389200;0,639200;0,222533;0,222533;0,222533;0,639200;
57;;;;;;;;;;;;;;;;;;;;;;;;;;;;;;;;;;;;;;;;;;;;;;;;;;;;;;;;;1,000000;0,750000;0,375000;0,422336;0,321429;0,291667;0,375000;0,291667;0,291667;0,375000;0,375000;0,375000;0,787638;0,328017;0,750000;0,375000;0,625000;0,375000;0,488271;0,875000;0,291667;0,549369;0,328017;0,225000;0,225000;0,216349;0,225000;0,291667;0,375000;0,291667;0,625000;0,291667;0,291667;0,250000;0,250000;0,250000;0,625000;0,291667;0,625000;0,625000;0,250000;0,625000;0,625000;0,625000;0,291667;0,375000;0,625000;0,208333;0,208333;0,208333;0,625000;
58;;;;;;;;;;;;;;;;;;;;;;;;;;;;;;;;;;;;;;;;;;;;;;;;;;;;;;;;;;1,000000;0,375000;0,422336;0,321429;0,291667;0,375000;0,291667;0,291667;0,375000;0,375000;0,375000;0,787638;0,328017;0,750000;0,375000;0,625000;0,375000;0,488271;0,875000;0,291667;0,549369;0,328017;0,225000;0,225000;0,216349;0,225000;0,291667;0,375000;0,291667;0,625000;0,291667;0,291667;0,250000;0,250000;0,250000;0,625000;0,291667;0,625000;0,625000;0,250000;0,625000;0,625000;0,625000;0,291667;0,375000;0,625000;0,208333;0,208333;0,208333;0,625000;
59;;;;;;;;;;;;;;;;;;;;;;;;;;;;;;;;;;;;;;;;;;;;;;;;;;;;;;;;;;;1,000000;0,547336;0,446429;0,416667;0,500000;0,416667;0,416667;0,500000;0,500000;0,500000;0,387546;0,453017;0,375000;0,500000;0,750000;0,500000;0,458982;0,416667;0,833333;0,453017;0,906035;0,700000;0,700000;0,642343;0,700000;0,833333;0,500000;0,833333;0,750000;0,416667;0,416667;0,375000;0,375000;0,375000;0,750000;0,416667;0,750000;0,750000;0,375000;0,750000;0,750000;0,750000;0,833333;0,500000;0,750000;0,333333;0,333333;0,333333;0,750000;
60;;;;;;;;;;;;;;;;;;;;;;;;;;;;;;;;;;;;;;;;;;;;;;;;;;;;;;;;;;;;1,000000;0,756795;0,464002;0,547336;0,464002;0,464002;0,547336;0,863937;0,547336;0,434882;0,500353;0,422336;0,863937;0,797336;0,547336;0,506317;0,464002;0,464002;0,500353;0,500353;0,397336;0,397336;0,388685;0,397336;0,464002;0,863937;0,464002;0,797336;0,697271;0,697271;0,422336;0,422336;0,422336;0,797336;0,464002;0,797336;0,797336;0,770122;0,797336;0,797336;0,797336;0,464002;0,547336;0,797336;0,380669;0,380669;0,380669;0,797336;
61;;;;;;;;;;;;;;;;;;;;;;;;;;;;;;;;;;;;;;;;;;;;;;;;;;;;;;;;;;;;;1,000000;0,809014;0,446429;0,363095;0,363095;0,750000;0,892857;0,446429;0,333975;0,399446;0,321429;0,892857;0,696429;0,446429;0,516143;0,363095;0,363095;0,399446;0,399446;0,296429;0,296429;0,493423;0,296429;0,363095;0,892857;0,363095;0,696429;0,726190;0,726190;0,321429;0,321429;0,321429;0,696429;0,363095;0,696429;0,696429;0,642857;0,696429;0,696429;0,696429;0,363095;0,446429;0,696429;0,559014;0,559014;0,559014;0,696429;
62;;;;;;;;;;;;;;;;;;;;;;;;;;;;;;;;;;;;;;;;;;;;;;;;;;;;;;;;;;;;;;1,000000;0,416667;0,333333;0,333333;0,833333;0,416667;0,416667;0,304213;0,369684;0,291667;0,416667;0,666667;0,416667;0,599476;0,333333;0,333333;0,369684;0,369684;0,266667;0,266667;0,684409;0,266667;0,333333;0,416667;0,333333;0,666667;0,333333;0,333333;0,291667;0,291667;0,291667;0,666667;0,333333;0,666667;0,666667;0,291667;0,666667;0,666667;0,666667;0,333333;0,416667;0,666667;0,750000;0,750000;0,750000;0,666667;
63;;;;;;;;;;;;;;;;;;;;;;;;;;;;;;;;;;;;;;;;;;;;;;;;;;;;;;;;;;;;;;;1,000000;0,416667;0,416667;0,500000;0,500000;0,500000;0,387546;0,453017;0,375000;0,500000;0,750000;0,500000;0,458982;0,416667;0,416667;0,453017;0,453017;0,350000;0,350000;0,341349;0,350000;0,416667;0,500000;0,416667;0,750000;0,416667;0,416667;0,375000;0,375000;0,375000;0,750000;0,416667;0,750000;0,750000;0,375000;0,750000;0,750000;0,750000;0,416667;0,500000;0,750000;0,333333;0,333333;0,333333;0,750000;
64;;;;;;;;;;;;;;;;;;;;;;;;;;;;;;;;;;;;;;;;;;;;;;;;;;;;;;;;;;;;;;;;1,000000;0,666667;0,416667;0,416667;0,416667;0,304213;0,369684;0,291667;0,416667;0,666667;0,416667;0,599794;0,333333;0,333333;0,369684;0,369684;0,266667;0,266667;0,258016;0,266667;0,333333;0,416667;0,333333;0,666667;0,333333;0,333333;0,291667;0,291667;0,291667;0,666667;0,333333;0,666667;0,666667;0,291667;0,666667;0,666667;0,666667;0,333333;0,416667;0,666667;0,250000;0,250000;0,250000;0,666667;
65;;;;;;;;;;;;;;;;;;;;;;;;;;;;;;;;;;;;;;;;;;;;;;;;;;;;;;;;;;;;;;;;;1,000000;0,416667;0,416667;0,416667;0,304213;0,369684;0,291667;0,416667;0,666667;0,416667;0,599794;0,333333;0,333333;0,369684;0,369684;0,266667;0,266667;0,258016;0,266667;0,333333;0,416667;0,333333;0,666667;0,333333;0,333333;0,291667;0,291667;0,291667;0,666667;0,333333;0,666667;0,666667;0,291667;0,666667;0,666667;0,666667;0,333333;0,416667;0,666667;0,250000;0,250000;0,250000;0,666667;
66;;;;;;;;;;;;;;;;;;;;;;;;;;;;;;;;;;;;;;;;;;;;;;;;;;;;;;;;;;;;;;;;;;1,000000;0,500000;0,500000;0,387546;0,453017;0,375000;0,500000;0,750000;0,500000;0,766143;0,416667;0,416667;0,453017;0,453017;0,350000;0,350000;0,636365;0,350000;0,416667;0,500000;0,416667;0,750000;0,416667;0,416667;0,375000;0,375000;0,375000;0,750000;0,416667;0,750000;0,750000;0,375000;0,750000;0,750000;0,750000;0,416667;0,500000;0,750000;0,666667;0,666667;0,666667;0,750000;
67;;;;;;;;;;;;;;;;;;;;;;;;;;;;;;;;;;;;;;;;;;;;;;;;;;;;;;;;;;;;;;;;;;;1,000000;0,500000;0,387546;0,453017;0,375000;1,000000;0,750000;0,500000;0,458982;0,416667;0,416667;0,453017;0,453017;0,350000;0,350000;0,341349;0,350000;0,416667;1,000000;0,416667;0,750000;0,833333;0,833333;0,375000;0,375000;0,375000;0,750000;0,416667;0,750000;0,750000;0,750000;0,750000;0,750000;0,750000;0,416667;0,500000;0,750000;0,333333;0,333333;0,333333;0,750000;
68;;;;;;;;;;;;;;;;;;;;;;;;;;;;;;;;;;;;;;;;;;;;;;;;;;;;;;;;;;;;;;;;;;;;1,000000;0,387546;0,453017;0,375000;0,500000;0,750000;0,500000;0,458982;0,416667;0,416667;0,453017;0,453017;0,350000;0,350000;0,341349;0,350000;0,416667;0,500000;0,416667;0,750000;0,416667;0,416667;0,375000;0,375000;0,375000;0,750000;0,416667;0,750000;0,750000;0,375000;0,750000;0,750000;0,750000;0,416667;0,500000;0,750000;0,333333;0,333333;0,333333;0,750000;
69;;;;;;;;;;;;;;;;;;;;;;;;;;;;;;;;;;;;;;;;;;;;;;;;;;;;;;;;;;;;;;;;;;;;;1,000000;0,340563;0,787638;0,387546;0,637546;0,387546;0,513363;0,912638;0,304213;0,574461;0,340563;0,237546;0,237546;0,228895;0,237546;0,304213;0,387546;0,304213;0,637546;0,304213;0,304213;0,262546;0,262546;0,262546;0,637546;0,304213;0,637546;0,637546;0,262546;0,637546;0,637546;0,637546;0,304213;0,387546;0,637546;0,220879;0,220879;0,220879;0,637546;
70;;;;;;;;;;;;;;;;;;;;;;;;;;;;;;;;;;;;;;;;;;;;;;;;;;;;;;;;;;;;;;;;;;;;;;1,000000;0,328017;0,453017;0,703017;0,453017;0,411999;0,369684;0,369684;0,406035;0,406035;0,303017;0,303017;0,294367;0,303017;0,369684;0,453017;0,369684;0,703017;0,369684;0,369684;0,656035;0,656035;0,656035;0,703017;0,369684;0,703017;0,703017;0,328017;0,703017;0,703017;0,703017;0,369684;0,453017;0,703017;0,286351;0,286351;0,286351;0,703017;
71;;;;;;;;;;;;;;;;;;;;;;;;;;;;;;;;;;;;;;;;;;;;;;;;;;;;;;;;;;;;;;;;;;;;;;;1,000000;0,375000;0,625000;0,375000;0,488271;0,875000;0,291667;0,549369;0,328017;0,225000;0,225000;0,216349;0,225000;0,291667;0,375000;0,291667;0,625000;0,291667;0,291667;0,250000;0,250000;0,250000;0,625000;0,291667;0,625000;0,625000;0,250000;0,625000;0,625000;0,625000;0,291667;0,375000;0,625000;0,208333;0,208333;0,208333;0,625000;
72;;;;;;;;;;;;;;;;;;;;;;;;;;;;;;;;;;;;;;;;;;;;;;;;;;;;;;;;;;;;;;;;;;;;;;;;1,000000;0,750000;0,500000;0,458982;0,416667;0,416667;0,453017;0,453017;0,350000;0,350000;0,341349;0,350000;0,416667;1,000000;0,416667;0,750000;0,833333;0,833333;0,375000;0,375000;0,375000;0,750000;0,416667;0,750000;0,750000;0,750000;0,750000;0,750000;0,750000;0,416667;0,500000;0,750000;0,333333;0,333333;0,333333;0,750000;
73;;;;;;;;;;;;;;;;;;;;;;;;;;;;;;;;;;;;;;;;;;;;;;;;;;;;;;;;;;;;;;;;;;;;;;;;;1,000000;0,750000;0,708982;0,666667;0,666667;0,703017;0,703017;0,600000;0,600000;0,591349;0,600000;0,666667;0,750000;0,666667;1,000000;0,666667;0,666667;0,625000;0,625000;0,625000;1,000000;0,666667;1,000000;1,000000;0,625000;1,000000;1,000000;1,000000;0,666667;0,750000;1,000000;0,583333;0,583333;0,583333;1,000000;
74;;;;;;;;;;;;;;;;;;;;;;;;;;;;;;;;;;;;;;;;;;;;;;;;;;;;;;;;;;;;;;;;;;;;;;;;;;1,000000;0,458982;0,416667;0,416667;0,906035;0,453017;0,350000;0,350000;0,341349;0,350000;0,416667;0,500000;0,416667;0,750000;0,416667;0,416667;0,375000;0,375000;0,375000;0,750000;0,416667;0,750000;0,750000;0,375000;0,750000;0,750000;0,750000;0,416667;0,500000;0,750000;0,333333;0,333333;0,333333;0,750000;
75;;;;;;;;;;;;;;;;;;;;;;;;;;;;;;;;;;;;;;;;;;;;;;;;;;;;;;;;;;;;;;;;;;;;;;;;;;;1,000000;0,571605;0,375648;0,537641;0,411999;0,308982;0,308982;0,402507;0,308982;0,375648;0,458982;0,375648;0,708982;0,375648;0,375648;0,333982;0,333982;0,333982;0,708982;0,375648;0,708982;0,708982;0,333982;0,708982;0,708982;0,708982;0,375648;0,458982;0,708982;0,432809;0,432809;0,432809;0,708982;
76;;;;;;;;;;;;;;;;;;;;;;;;;;;;;;;;;;;;;;;;;;;;;;;;;;;;;;;;;;;;;;;;;;;;;;;;;;;;1,000000;0,333333;0,632703;0,369684;0,266667;0,266667;0,258016;0,266667;0,333333;0,416667;0,333333;0,666667;0,333333;0,333333;0,291667;0,291667;0,291667;0,666667;0,333333;0,666667;0,666667;0,291667;0,666667;0,666667;0,666667;0,333333;0,416667;0,666667;0,250000;0,250000;0,250000;0,666667;
77;;;;;;;;;;;;;;;;;;;;;;;;;;;;;;;;;;;;;;;;;;;;;;;;;;;;;;;;;;;;;;;;;;;;;;;;;;;;;1,000000;0,369684;0,739368;0,533333;0,533333;0,475676;0,533333;1,000000;0,416667;0,919411;0,666667;0,333333;0,333333;0,291667;0,291667;0,291667;0,666667;0,333333;0,666667;0,666667;0,291667;0,666667;0,666667;0,666667;1,000000;0,416667;0,666667;0,250000;0,250000;0,250000;0,666667;
78;;;;;;;;;;;;;;;;;;;;;;;;;;;;;;;;;;;;;;;;;;;;;;;;;;;;;;;;;;;;;;;;;;;;;;;;;;;;;;1,000000;0,406035;0,303017;0,303017;0,294367;0,303017;0,369684;0,453017;0,369684;0,703017;0,369684;0,369684;0,328017;0,328017;0,328017;0,703017;0,369684;0,703017;0,703017;0,328017;0,703017;0,703017;0,703017;0,369684;0,453017;0,703017;0,286351;0,286351;0,286351;0,703017;
79;;;;;;;;;;;;;;;;;;;;;;;;;;;;;;;;;;;;;;;;;;;;;;;;;;;;;;;;;;;;;;;;;;;;;;;;;;;;;;;1,000000;0,606035;0,606035;0,548378;0,606035;0,739368;0,453017;0,739368;0,703017;0,369684;0,369684;0,328017;0,328017;0,328017;0,703017;0,369684;0,703017;0,703017;0,328017;0,703017;0,703017;0,703017;0,739368;0,453017;0,703017;0,286351;0,286351;0,286351;0,703017;
80;;;;;;;;;;;;;;;;;;;;;;;;;;;;;;;;;;;;;;;;;;;;;;;;;;;;;;;;;;;;;;;;;;;;;;;;;;;;;;;;1,000000;0,800000;0,654414;0,800000;0,533333;0,350000;0,533333;0,600000;0,266667;0,266667;0,225000;0,225000;0,225000;0,600000;0,266667;0,600000;0,600000;0,225000;0,600000;0,600000;0,600000;0,533333;0,350000;0,600000;0,366667;0,366667;0,366667;0,600000;
81;;;;;;;;;;;;;;;;;;;;;;;;;;;;;;;;;;;;;;;;;;;;;;;;;;;;;;;;;;;;;;;;;;;;;;;;;;;;;;;;;1,000000;0,654414;0,800000;0,533333;0,350000;0,533333;0,600000;0,266667;0,266667;0,225000;0,225000;0,225000;0,600000;0,266667;0,600000;0,600000;0,225000;0,600000;0,600000;0,600000;0,533333;0,350000;0,600000;0,366667;0,366667;0,366667;0,600000;
82;;;;;;;;;;;;;;;;;;;;;;;;;;;;;;;;;;;;;;;;;;;;;;;;;;;;;;;;;;;;;;;;;;;;;;;;;;;;;;;;;;1,000000;0,654414;0,475676;0,341349;0,475676;0,591349;0,258016;0,258016;0,216349;0,216349;0,216349;0,591349;0,258016;0,591349;0,591349;0,216349;0,591349;0,591349;0,591349;0,475676;0,341349;0,591349;0,703197;0,703197;0,703197;0,591349;
83;;;;;;;;;;;;;;;;;;;;;;;;;;;;;;;;;;;;;;;;;;;;;;;;;;;;;;;;;;;;;;;;;;;;;;;;;;;;;;;;;;;1,000000;0,533333;0,350000;0,533333;0,600000;0,266667;0,266667;0,225000;0,225000;0,225000;0,600000;0,266667;0,600000;0,600000;0,225000;0,600000;0,600000;0,600000;0,533333;0,350000;0,600000;0,366667;0,366667;0,366667;0,600000;
84;;;;;;;;;;;;;;;;;;;;;;;;;;;;;;;;;;;;;;;;;;;;;;;;;;;;;;;;;;;;;;;;;;;;;;;;;;;;;;;;;;;;1,000000;0,416667;0,919411;0,666667;0,333333;0,333333;0,291667;0,291667;0,291667;0,666667;0,333333;0,666667;0,666667;0,291667;0,666667;0,666667;0,666667;1,000000;0,416667;0,666667;0,250000;0,250000;0,250000;0,666667;
85;;;;;;;;;;;;;;;;;;;;;;;;;;;;;;;;;;;;;;;;;;;;;;;;;;;;;;;;;;;;;;;;;;;;;;;;;;;;;;;;;;;;;1,000000;0,416667;0,750000;0,833333;0,833333;0,375000;0,375000;0,375000;0,750000;0,416667;0,750000;0,750000;0,750000;0,750000;0,750000;0,750000;0,416667;0,500000;0,750000;0,333333;0,333333;0,333333;0,750000;
86;;;;;;;;;;;;;;;;;;;;;;;;;;;;;;;;;;;;;;;;;;;;;;;;;;;;;;;;;;;;;;;;;;;;;;;;;;;;;;;;;;;;;;1,000000;0,666667;0,333333;0,333333;0,291667;0,291667;0,291667;0,666667;0,333333;0,666667;0,666667;0,291667;0,666667;0,666667;0,666667;0,919411;0,416667;0,666667;0,250000;0,250000;0,250000;0,666667;
87;;;;;;;;;;;;;;;;;;;;;;;;;;;;;;;;;;;;;;;;;;;;;;;;;;;;;;;;;;;;;;;;;;;;;;;;;;;;;;;;;;;;;;;1,000000;0,666667;0,666667;0,625000;0,625000;0,625000;1,000000;0,666667;1,000000;1,000000;0,625000;1,000000;1,000000;1,000000;0,666667;0,750000;1,000000;0,583333;0,583333;0,583333;1,000000;
88;;;;;;;;;;;;;;;;;;;;;;;;;;;;;;;;;;;;;;;;;;;;;;;;;;;;;;;;;;;;;;;;;;;;;;;;;;;;;;;;;;;;;;;;1,000000;0,666667;0,291667;0,291667;0,291667;0,666667;0,333333;0,666667;0,666667;0,583333;0,666667;0,666667;0,666667;0,333333;0,416667;0,666667;0,250000;0,250000;0,250000;0,666667;
89;;;;;;;;;;;;;;;;;;;;;;;;;;;;;;;;;;;;;;;;;;;;;;;;;;;;;;;;;;;;;;;;;;;;;;;;;;;;;;;;;;;;;;;;;1,000000;0,291667;0,291667;0,291667;0,666667;0,333333;0,666667;0,666667;0,583333;0,666667;0,666667;0,666667;0,333333;0,416667;0,666667;0,250000;0,250000;0,250000;0,666667;
90;;;;;;;;;;;;;;;;;;;;;;;;;;;;;;;;;;;;;;;;;;;;;;;;;;;;;;;;;;;;;;;;;;;;;;;;;;;;;;;;;;;;;;;;;;1,000000;0,750000;0,750000;0,625000;0,291667;0,625000;0,625000;0,250000;0,625000;0,625000;0,625000;0,291667;0,375000;0,625000;0,208333;0,208333;0,208333;0,625000;
91;;;;;;;;;;;;;;;;;;;;;;;;;;;;;;;;;;;;;;;;;;;;;;;;;;;;;;;;;;;;;;;;;;;;;;;;;;;;;;;;;;;;;;;;;;;1,000000;0,750000;0,625000;0,291667;0,625000;0,625000;0,250000;0,625000;0,625000;0,625000;0,291667;0,375000;0,625000;0,208333;0,208333;0,208333;0,625000;
92;;;;;;;;;;;;;;;;;;;;;;;;;;;;;;;;;;;;;;;;;;;;;;;;;;;;;;;;;;;;;;;;;;;;;;;;;;;;;;;;;;;;;;;;;;;;1,000000;0,625000;0,291667;0,625000;0,625000;0,250000;0,625000;0,625000;0,625000;0,291667;0,375000;0,625000;0,208333;0,208333;0,208333;0,625000;
93;;;;;;;;;;;;;;;;;;;;;;;;;;;;;;;;;;;;;;;;;;;;;;;;;;;;;;;;;;;;;;;;;;;;;;;;;;;;;;;;;;;;;;;;;;;;;1,000000;0,666667;1,000000;1,000000;0,625000;1,000000;1,000000;1,000000;0,666667;0,750000;1,000000;0,583333;0,583333;0,583333;1,000000;
94;;;;;;;;;;;;;;;;;;;;;;;;;;;;;;;;;;;;;;;;;;;;;;;;;;;;;;;;;;;;;;;;;;;;;;;;;;;;;;;;;;;;;;;;;;;;;;1,000000;0,666667;0,666667;0,291667;0,666667;0,666667;0,666667;0,333333;0,416667;0,666667;0,250000;0,250000;0,250000;0,666667;
95;;;;;;;;;;;;;;;;;;;;;;;;;;;;;;;;;;;;;;;;;;;;;;;;;;;;;;;;;;;;;;;;;;;;;;;;;;;;;;;;;;;;;;;;;;;;;;;1,000000;1,000000;0,625000;1,000000;1,000000;1,000000;0,666667;0,750000;1,000000;0,583333;0,583333;0,583333;1,000000;
96;;;;;;;;;;;;;;;;;;;;;;;;;;;;;;;;;;;;;;;;;;;;;;;;;;;;;;;;;;;;;;;;;;;;;;;;;;;;;;;;;;;;;;;;;;;;;;;;1,000000;0,625000;1,000000;1,000000;1,000000;0,666667;0,750000;1,000000;0,583333;0,583333;0,583333;1,000000;
97;;;;;;;;;;;;;;;;;;;;;;;;;;;;;;;;;;;;;;;;;;;;;;;;;;;;;;;;;;;;;;;;;;;;;;;;;;;;;;;;;;;;;;;;;;;;;;;;;1,000000;0,625000;0,625000;0,625000;0,291667;0,375000;0,625000;0,208333;0,208333;0,208333;0,625000;
98;;;;;;;;;;;;;;;;;;;;;;;;;;;;;;;;;;;;;;;;;;;;;;;;;;;;;;;;;;;;;;;;;;;;;;;;;;;;;;;;;;;;;;;;;;;;;;;;;;1,000000;1,000000;1,000000;0,666667;0,750000;1,000000;0,583333;0,583333;0,583333;1,000000;
99;;;;;;;;;;;;;;;;;;;;;;;;;;;;;;;;;;;;;;;;;;;;;;;;;;;;;;;;;;;;;;;;;;;;;;;;;;;;;;;;;;;;;;;;;;;;;;;;;;;1,000000;1,000000;0,666667;0,750000;1,000000;0,583333;0,583333;0,583333;1,000000;
100;;;;;;;;;;;;;;;;;;;;;;;;;;;;;;;;;;;;;;;;;;;;;;;;;;;;;;;;;;;;;;;;;;;;;;;;;;;;;;;;;;;;;;;;;;;;;;;;;;;;1,000000;0,666667;0,750000;1,000000;0,583333;0,583333;0,583333;1,000000;
101;;;;;;;;;;;;;;;;;;;;;;;;;;;;;;;;;;;;;;;;;;;;;;;;;;;;;;;;;;;;;;;;;;;;;;;;;;;;;;;;;;;;;;;;;;;;;;;;;;;;;1,000000;0,416667;0,666667;0,250000;0,250000;0,250000;0,666667;
102;;;;;;;;;;;;;;;;;;;;;;;;;;;;;;;;;;;;;;;;;;;;;;;;;;;;;;;;;;;;;;;;;;;;;;;;;;;;;;;;;;;;;;;;;;;;;;;;;;;;;;1,000000;0,750000;0,333333;0,333333;0,333333;0,750000;
103;;;;;;;;;;;;;;;;;;;;;;;;;;;;;;;;;;;;;;;;;;;;;;;;;;;;;;;;;;;;;;;;;;;;;;;;;;;;;;;;;;;;;;;;;;;;;;;;;;;;;;;1,000000;0,583333;0,583333;0,583333;1,000000;
104;;;;;;;;;;;;;;;;;;;;;;;;;;;;;;;;;;;;;;;;;;;;;;;;;;;;;;;;;;;;;;;;;;;;;;;;;;;;;;;;;;;;;;;;;;;;;;;;;;;;;;;;1,000000;0,833333;0,833333;0,583333;
105;;;;;;;;;;;;;;;;;;;;;;;;;;;;;;;;;;;;;;;;;;;;;;;;;;;;;;;;;;;;;;;;;;;;;;;;;;;;;;;;;;;;;;;;;;;;;;;;;;;;;;;;;1,000000;0,833333;0,583333;
106;;;;;;;;;;;;;;;;;;;;;;;;;;;;;;;;;;;;;;;;;;;;;;;;;;;;;;;;;;;;;;;;;;;;;;;;;;;;;;;;;;;;;;;;;;;;;;;;;;;;;;;;;;1,000000;0,583333;
107;;;;;;;;;;;;;;;;;;;;;;;;;;;;;;;;;;;;;;;;;;;;;;;;;;;;;;;;;;;;;;;;;;;;;;;;;;;;;;;;;;;;;;;;;;;;;;;;;;;;;;;;;;;1,000000;
