;1; 2; 3; 4; 5; 6; 7; 8; 9; 10; 11; 12; 13; 14; 15; 16; 17; 18; 19; 20; 21; 22; 23; 24; 25; 26; 27; 28; 29; 30; 31; 32; 33; 34; 35; 36; 37; 38; 39; 40; 41; 42; 43; 44; 45; 46; 47; 48; 49; 50; 51; 52; 53; 54; 55; 56; 57; 58; 59; 60; 61; 62; 63; 64; 65; 66; 67; 68; 69; 70; 71; 72; 73; 74; 75; 76; 77; 78; 79; 80; 81; 82; 83; 84; 85; 86; 87; 88; 89; 90; 91; 92; 93; 94; 95; 96; 97; 98; 99; 100; 101; 102
1;1,000000;0,666667;0,666667;0,666667;0,500000;0,501961;0,500000;0,506977;0,569912;0,000000;0,644971;0,503854;0,332353;0,332353;0,750000;0,332353;0,502924;0,600594;0,662460;0,705012;0,495796;0,000000;0,584953;0,747393;0,646992;0,725325;0,000000;0,000000;0,000000;0,628599;0,660429;0,593965;0,665921;0,665921;0,747474;0,747474;0,743868;0,000000;0,000000;0,500000;0,500000;0,667436;0,500000;0,504997;0,498895;0,995115;0,666431;0,665854;0,000000;0,000000;0,640881;0,665742;0,665742;0,750000;0,750000;0,750000;0,667436;0,663211;0,715674;0,664764;0,664153;0,500000;0,497059;0,746330;0,504013;0,750000;0,505882;0,747393;0,747393;0,000000;0,000000;0,000000;0,000000;0,000000;0,000000;0,501961;0,664933;0,664933;0,500840;0,000000;0,777941;0,777941;0,777941;0,748606;0,799736;0,799736;0,000000;0,000000;0,000000;0,000000;0,000000;0,000000;0,000000;0,000000;0,748263;0,748263;0,748263;0,000000;0,000000;0,000000;0,747902;0,747902;
2;;1,000000;0,666667;0,666667;0,388889;0,416667;0,411111;0,388889;0,345906;0,466667;0,356200;0,380952;0,000000;0,000000;0,312500;0,000000;0,400000;0,338307;0,333333;0,328684;0,375000;0,000000;0,000000;0,291667;0,322143;0,000000;0,666667;0,555556;0,500000;0,344956;0,406035;0,357567;0,333333;0,333333;0,291667;0,291667;0,368056;0,666667;0,666667;0,416667;0,416667;0,333333;0,000000;0,380952;0,416667;0,000000;0,333333;0,333333;0,500000;0,666667;0,344956;0,333333;0,333333;0,305556;0,291667;0,305556;0,333333;0,333333;0,318412;0,333333;0,333333;0,444444;0,000000;0,305556;0,396825;0,291667;0,000000;0,000000;0,000000;0,000000;0,000000;0,000000;0,000000;0,000000;0,666667;0,416667;0,333333;0,333333;0,416667;0,666667;0,296798;0,296798;0,296798;0,339286;0,266667;0,266667;0,000000;0,666667;0,666667;0,000000;0,000000;0,000000;0,000000;0,000000;0,291667;0,291667;0,291667;0,000000;0,000000;0,000000;0,291667;0,291667;
3;;;1,000000;0,666667;0,388889;0,416667;0,411111;0,388889;0,345906;0,466667;0,356200;0,380952;0,000000;0,000000;0,312500;0,000000;0,400000;0,338307;0,333333;0,328684;0,375000;0,000000;0,000000;0,291667;0,322143;0,000000;0,666667;0,555556;0,500000;0,344956;0,406035;0,357567;0,333333;0,333333;0,291667;0,291667;0,368056;0,666667;0,666667;0,416667;0,416667;0,333333;0,000000;0,380952;0,416667;0,000000;0,333333;0,333333;0,500000;0,666667;0,344956;0,333333;0,333333;0,305556;0,291667;0,305556;0,333333;0,333333;0,318412;0,333333;0,333333;0,444444;0,000000;0,305556;0,396825;0,291667;0,000000;0,000000;0,000000;0,000000;0,000000;0,000000;0,000000;0,000000;0,666667;0,416667;0,333333;0,333333;0,416667;0,666667;0,296798;0,296798;0,296798;0,339286;0,266667;0,266667;0,000000;0,666667;0,666667;0,000000;0,000000;0,000000;0,000000;0,000000;0,291667;0,291667;0,291667;0,000000;0,000000;0,000000;0,291667;0,291667;
4;;;;1,000000;0,388889;0,416667;0,411111;0,388889;0,345906;0,466667;0,356200;0,380952;0,000000;0,000000;0,312500;0,000000;0,400000;0,338307;0,333333;0,328684;0,375000;0,000000;0,000000;0,291667;0,322143;0,000000;0,666667;0,555556;0,500000;0,344956;0,406035;0,357567;0,333333;0,333333;0,291667;0,291667;0,368056;0,666667;0,666667;0,416667;0,416667;0,333333;0,000000;0,380952;0,416667;0,000000;0,333333;0,333333;0,500000;0,666667;0,344956;0,333333;0,333333;0,305556;0,291667;0,305556;0,333333;0,333333;0,318412;0,333333;0,333333;0,444444;0,000000;0,305556;0,396825;0,291667;0,000000;0,000000;0,000000;0,000000;0,000000;0,000000;0,000000;0,000000;0,666667;0,416667;0,333333;0,333333;0,416667;0,666667;0,296798;0,296798;0,296798;0,339286;0,266667;0,266667;0,000000;0,666667;0,666667;0,000000;0,000000;0,000000;0,000000;0,000000;0,291667;0,291667;0,291667;0,000000;0,000000;0,000000;0,291667;0,291667;
5;;;;;1,000000;0,527778;0,859014;0,582994;0,649608;0,851852;0,604001;0,613757;0,000000;0,000000;0,406250;0,000000;0,625000;0,555678;0,428571;0,468567;0,562500;1,000000;0,000000;0,319444;0,430356;0,000000;0,944444;0,904762;0,721632;0,487390;0,640087;0,480501;0,388889;0,388889;0,319444;0,319444;0,502976;0,944444;0,944444;0,527778;0,527778;0,388889;0,583333;0,613757;0,527778;0,000000;0,388889;0,428571;0,875000;0,944444;0,487390;0,388889;0,388889;0,369048;0,319444;0,369048;0,388889;0,388889;0,396598;0,428571;0,388889;0,666667;0,583333;0,527554;0,690476;0,319444;0,583333;0,000000;0,000000;0,444444;0,523810;0,444444;1,000000;1,000000;0,944444;0,527778;0,388889;0,388889;0,527778;0,944444;0,350281;0,350281;0,350281;0,473214;0,277778;0,277778;1,000000;0,944444;0,944444;0,000000;0,000000;0,000000;0,000000;0,000000;0,319444;0,319444;0,319444;1,000000;0,444444;0,444444;0,319444;0,319444;
6;;;;;;1,000000;0,550000;0,500000;0,504239;0,600000;0,502034;0,514286;0,000000;0,000000;0,437500;0,000000;0,525000;0,486455;0,444444;0,462018;0,500000;0,000000;0,550000;0,375000;0,447143;0,571429;0,750000;0,666667;0,625000;0,469956;0,531035;0,468678;0,416667;0,416667;0,375000;0,375000;0,479167;0,750000;0,750000;0,500000;0,500000;0,416667;0,000000;0,514286;0,500000;0,000000;0,416667;0,444444;0,625000;0,750000;0,469956;0,416667;0,416667;0,416667;0,375000;0,416667;0,416667;0,416667;0,429523;0,444444;0,416667;0,555556;0,000000;0,416667;0,535714;0,375000;0,000000;0,000000;0,000000;0,000000;0,000000;0,000000;0,000000;0,000000;0,750000;0,500000;0,416667;0,416667;0,500000;0,750000;0,407909;0,407909;0,407909;0,464286;0,350000;0,350000;0,000000;0,750000;0,750000;0,000000;0,000000;0,000000;0,000000;0,000000;0,375000;0,375000;0,375000;0,000000;0,000000;0,000000;0,375000;0,375000;
7;;;;;;;1,000000;0,585714;0,755163;0,911111;0,681779;0,673016;0,000000;0,000000;0,456250;0,000000;0,675000;0,637729;0,466667;0,527827;0,612500;0,000000;0,500000;0,341667;0,480356;0,000000;0,966667;0,942857;0,925000;0,537390;0,690087;0,518596;0,411111;0,411111;0,341667;0,341667;0,541071;0,966667;0,966667;0,550000;0,550000;0,411111;0,500000;0,673016;0,550000;0,000000;0,411111;0,466667;0,925000;0,966667;0,537390;0,411111;0,411111;0,407143;0,341667;0,407143;0,411111;0,411111;0,434693;0,466667;0,411111;0,704762;0,583333;0,527202;0,757143;0,341667;0,000000;0,000000;0,000000;0,444444;0,523810;0,444444;0,000000;0,000000;0,966667;0,550000;0,411111;0,411111;0,550000;0,966667;0,388376;0,388376;0,388376;0,523214;0,300000;0,300000;1,000000;0,966667;0,966667;0,000000;0,000000;0,000000;0,000000;0,000000;0,341667;0,341667;0,341667;0,000000;0,000000;0,000000;0,341667;0,341667;
8;;;;;;;;1,000000;0,508075;0,666667;0,503615;0,523810;0,000000;0,000000;0,400000;0,000000;0,540000;0,475619;0,416667;0,436696;0,500000;0,833333;0,500000;0,333333;0,415428;0,625000;0,833333;0,750000;0,572130;0,451930;0,549656;0,453017;0,388889;0,388889;0,333333;0,333333;0,468750;0,833333;0,833333;0,500000;0,500000;0,388889;0,500000;0,523810;0,500000;0,000000;0,388889;0,416667;0,700000;0,833333;0,451930;0,388889;0,388889;0,375000;0,333333;0,375000;0,388889;0,388889;0,394285;0,416667;0,388889;0,583333;0,000000;0,375000;0,561224;0,333333;0,500000;0,000000;0,000000;0,000000;0,416667;0,000000;0,750000;0,833333;0,833333;0,500000;0,388889;0,388889;0,500000;0,833333;0,361863;0,361863;0,361863;0,442857;0,300000;0,300000;0,000000;0,833333;0,833333;0,000000;0,000000;0,000000;0,000000;0,000000;0,333333;0,333333;0,333333;0,833333;0,388889;0,388889;0,333333;0,333333;
9;;;;;;;;;1,000000;0,927788;0,534716;0,573751;0,000000;0,000000;0,295652;0,000000;0,597925;0,617707;0,655686;0,559013;0,938823;0,000000;0,000000;0,743260;0,673833;0,000000;0,979239;0,960456;0,943380;0,407773;0,767749;0,423058;0,345906;0,345906;0,266739;0,266739;0,451527;0,979239;0,979239;0,504239;0,504239;0,345906;0,000000;0,573751;0,504239;0,000000;0,665659;0,668344;0,943380;0,979239;0,527379;0,345906;0,345906;0,281884;0,266739;0,281884;0,345906;0,659669;0,463767;0,525076;0,666066;0,658868;0,000000;0,281884;0,687306;0,266739;0,000000;0,744195;0,744195;0,000000;0,000000;0,000000;0,000000;0,000000;0,979239;0,504239;0,345906;0,345906;0,504239;0,979239;0,258113;0,258113;0,258113;0,388185;0,219239;0,219239;0,000000;0,979239;0,979239;0,000000;0,000000;0,000000;0,000000;0,000000;0,266739;0,266739;0,266739;0,000000;0,000000;0,000000;0,266739;0,266739;
10;;;;;;;;;;1,000000;0,824098;0,785714;0,000000;0,000000;0,571429;0,000000;0,771429;0,792699;0,555556;0,655044;0,714286;0,000000;0,000000;0,400000;0,593469;0,000000;1,000000;1,000000;1,000000;0,645614;0,785222;0,604023;0,466667;0,466667;0,400000;0,400000;0,625000;1,000000;1,000000;0,600000;0,600000;0,466667;0,000000;0,785714;0,600000;0,000000;0,466667;0,555556;1,000000;1,000000;0,645614;0,466667;0,466667;0,500000;0,400000;0,500000;0,466667;0,466667;0,525714;0,555556;0,466667;0,777778;0,000000;0,500000;0,873016;0,400000;0,000000;0,000000;0,000000;0,000000;0,000000;0,000000;0,000000;0,000000;1,000000;0,600000;0,466667;0,466667;0,600000;1,000000;0,482485;0,482485;0,482485;0,632653;0,360000;0,360000;0,000000;1,000000;1,000000;0,000000;0,000000;0,000000;0,000000;0,000000;0,400000;0,400000;0,400000;0,000000;0,000000;0,000000;0,400000;0,400000;
11;;;;;;;;;;;1,000000;0,551371;0,000000;0,000000;0,329881;0,000000;0,574881;0,451789;0,373986;0,385063;0,504881;0,000000;0,000000;0,283284;0,356880;0,000000;0,939534;0,892504;0,854881;0,633046;0,591778;0,430531;0,356200;0,356200;0,283284;0,283284;0,455004;0,939534;0,939534;0,502034;0,502034;0,674842;0,000000;0,551371;0,502034;0,000000;0,356200;0,373986;0,854881;0,939534;0,420758;0,656624;0,656624;0,309171;0,283284;0,309171;0,674842;0,356200;0,339170;0,373986;0,356200;0,633245;0,000000;0,309171;0,631779;0,283284;0,000000;0,000000;0,000000;0,000000;0,000000;0,000000;0,000000;0,000000;0,939534;0,502034;0,356200;0,356200;0,502034;0,939534;0,288736;0,288736;0,288736;0,404881;0,239534;0,239534;0,000000;0,939534;0,939534;0,000000;0,000000;0,000000;0,000000;0,000000;0,283284;0,283284;0,283284;0,000000;0,000000;0,000000;0,283284;0,283284;
12;;;;;;;;;;;;1,000000;0,000000;0,000000;0,387755;0,000000;1,000000;0,796569;0,412698;0,440758;0,530612;0,000000;0,000000;0,600000;0,630368;0,000000;0,914286;0,857143;0,816327;0,461940;0,601549;0,461166;0,380952;0,380952;0,314286;0,314286;0,482143;0,914286;0,914286;0,514286;0,514286;0,380952;0,000000;0,571429;0,514286;0,900000;0,733333;0,777778;0,816327;0,914286;0,800220;0,380952;0,380952;0,357143;0,314286;0,357143;0,380952;0,380952;0,382856;0,412698;0,380952;0,634921;0,000000;0,357143;0,634921;0,314286;0,000000;0,300000;0,300000;0,000000;0,000000;0,000000;0,000000;0,000000;0,914286;0,514286;0,380952;0,380952;0,514286;0,914286;0,339627;0,339627;0,339627;0,448980;0,274286;0,274286;0,000000;0,914286;0,914286;0,000000;0,000000;0,000000;0,000000;0,000000;0,314286;0,314286;0,314286;0,000000;0,000000;0,000000;0,314286;0,314286;
13;;;;;;;;;;;;;1,000000;0,666667;0,666667;0,666667;0,000000;0,000000;0,000000;0,000000;0,000000;0,000000;0,000000;0,000000;0,000000;0,000000;0,000000;0,000000;0,000000;0,000000;0,000000;0,000000;0,000000;0,000000;0,000000;0,000000;0,000000;0,000000;0,000000;0,000000;0,000000;0,000000;0,000000;0,000000;0,000000;0,000000;0,000000;0,000000;0,000000;0,000000;0,000000;0,000000;0,000000;0,305556;0,291667;0,305556;0,000000;0,000000;0,000000;0,000000;0,000000;0,000000;0,000000;0,000000;0,000000;0,291667;0,000000;0,000000;0,000000;0,000000;0,000000;0,000000;0,000000;0,000000;0,000000;0,000000;0,000000;0,000000;0,000000;0,000000;0,000000;0,000000;0,000000;0,000000;0,000000;0,000000;0,000000;0,000000;0,000000;0,000000;0,000000;0,000000;0,000000;0,000000;0,000000;0,000000;0,000000;0,000000;0,000000;0,000000;0,000000;0,000000;
14;;;;;;;;;;;;;;1,000000;0,666667;0,666667;0,000000;0,000000;0,000000;0,000000;0,000000;0,000000;0,000000;0,000000;0,000000;0,000000;0,000000;0,000000;0,000000;0,000000;0,000000;0,000000;0,000000;0,000000;0,000000;0,000000;0,000000;0,000000;0,000000;0,000000;0,000000;0,000000;0,000000;0,000000;0,000000;0,000000;0,000000;0,000000;0,000000;0,000000;0,000000;0,000000;0,000000;0,305556;0,291667;0,305556;0,000000;0,000000;0,000000;0,000000;0,000000;0,000000;0,000000;0,000000;0,000000;0,291667;0,000000;0,000000;0,000000;0,000000;0,000000;0,000000;0,000000;0,000000;0,000000;0,000000;0,000000;0,000000;0,000000;0,000000;0,000000;0,000000;0,000000;0,000000;0,000000;0,000000;0,000000;0,000000;0,000000;0,000000;0,000000;0,000000;0,000000;0,000000;0,000000;0,000000;0,000000;0,000000;0,000000;0,000000;0,000000;0,000000;
15;;;;;;;;;;;;;;;1,000000;0,666667;0,425000;0,284935;0,300000;0,275752;0,375000;0,000000;0,000000;0,250000;0,269285;0,000000;0,812500;0,700000;0,625000;0,314912;0,437070;0,343621;0,312500;0,312500;0,250000;0,250000;0,362500;0,812500;0,812500;0,437500;0,437500;0,312500;0,000000;0,387755;0,437500;0,000000;0,312500;0,300000;0,625000;0,812500;0,314912;0,312500;0,312500;0,750000;0,750000;0,750000;0,312500;0,312500;0,273142;0,300000;0,312500;0,500000;0,000000;0,250000;0,424107;0,750000;0,000000;0,000000;0,000000;0,000000;0,000000;0,000000;0,000000;0,000000;0,812500;0,437500;0,312500;0,312500;0,437500;0,812500;0,234236;0,234236;0,234236;0,303571;0,212500;0,212500;0,000000;0,812500;0,812500;0,000000;0,000000;0,000000;0,000000;0,000000;0,250000;0,250000;0,250000;0,000000;0,000000;0,000000;0,250000;0,250000;
16;;;;;;;;;;;;;;;;1,000000;0,000000;0,000000;0,000000;0,000000;0,000000;0,000000;0,000000;0,000000;0,000000;0,000000;0,000000;0,000000;0,000000;0,000000;0,000000;0,000000;0,000000;0,000000;0,000000;0,000000;0,000000;0,000000;0,000000;0,000000;0,000000;0,000000;0,000000;0,000000;0,000000;0,000000;0,000000;0,000000;0,000000;0,000000;0,000000;0,000000;0,000000;0,305556;0,291667;0,305556;0,000000;0,000000;0,000000;0,000000;0,000000;0,000000;0,000000;0,000000;0,000000;0,291667;0,000000;0,000000;0,000000;0,000000;0,000000;0,000000;0,000000;0,000000;0,000000;0,000000;0,000000;0,000000;0,000000;0,000000;0,000000;0,000000;0,000000;0,000000;0,000000;0,000000;0,000000;0,000000;0,000000;0,000000;0,000000;0,000000;0,000000;0,000000;0,000000;0,000000;0,000000;0,000000;0,000000;0,000000;0,000000;0,000000;
17;;;;;;;;;;;;;;;;;1,000000;0,833557;0,440000;0,475752;0,550000;0,000000;0,000000;0,625000;0,676572;0,000000;0,900000;0,840000;0,800000;0,489912;0,612070;0,483621;0,400000;0,400000;0,337500;0,337500;0,502500;0,900000;0,900000;0,525000;0,525000;0,400000;0,000000;0,587755;0,525000;0,875000;0,750000;0,800000;0,800000;0,900000;0,825193;0,400000;0,400000;0,390000;0,337500;0,390000;0,400000;0,400000;0,413142;0,440000;0,400000;0,640000;0,000000;0,390000;0,642857;0,337500;0,000000;0,312500;0,312500;0,000000;0,000000;0,000000;0,000000;0,000000;0,900000;0,525000;0,400000;0,400000;0,525000;0,900000;0,374236;0,374236;0,374236;0,478571;0,300000;0,300000;0,000000;0,900000;0,900000;0,000000;0,000000;0,000000;0,000000;0,000000;0,337500;0,337500;0,337500;0,000000;0,000000;0,000000;0,337500;0,337500;
18;;;;;;;;;;;;;;;;;;1,000000;0,641492;0,554846;0,466754;0,000000;0,000000;0,720283;0,629316;0,000000;0,930900;0,875619;0,830390;0,379353;0,730123;0,400447;0,338307;0,338307;0,504532;0,504532;0,598385;0,930900;0,930900;0,486455;0,486455;0,338307;0,000000;0,506985;0,486455;0,916667;0,635893;0,611275;0,830390;0,930900;0,579291;0,338307;0,338307;0,275619;0,264233;0,275619;0,338307;0,633331;0,439043;0,342286;0,338307;0,608953;0,000000;0,275619;0,584982;0,264233;0,000000;0,736972;0,736972;0,000000;0,000000;0,000000;0,000000;0,000000;0,930900;0,486455;0,338307;0,338307;0,486455;0,930900;0,254601;0,254601;0,254601;0,362857;0,219788;0,219788;0,000000;0,930900;0,930900;0,000000;0,000000;0,000000;0,000000;0,000000;0,264233;0,264233;0,264233;0,000000;0,000000;0,000000;0,264233;0,264233;
19;;;;;;;;;;;;;;;;;;;1,000000;0,631319;0,800000;0,000000;0,000000;0,555556;0,536961;0,000000;0,777778;0,666667;0,600000;0,351930;1,000000;0,369684;0,333333;0,333333;0,555556;0,555556;0,639725;0,777778;0,777778;0,444444;0,444444;0,333333;0,000000;0,412698;0,444444;0,000000;0,333333;0,333333;0,600000;0,777778;0,351930;0,333333;0,333333;0,291667;0,277778;0,291667;0,333333;0,333333;0,310952;0,333333;0,333333;0,500000;0,000000;0,291667;0,442177;0,277778;0,000000;0,277778;0,277778;0,000000;0,000000;0,000000;0,000000;0,000000;0,777778;0,444444;0,333333;0,333333;0,444444;0,777778;0,278530;0,278530;0,278530;0,342857;0,244444;0,244444;0,000000;0,777778;0,777778;0,000000;0,000000;0,000000;0,000000;0,000000;0,277778;0,277778;0,277778;0,000000;0,000000;0,000000;0,277778;0,277778;
20;;;;;;;;;;;;;;;;;;;;1,000000;0,811696;0,000000;0,000000;0,512125;0,435926;0,000000;0,862018;0,770029;0,704323;0,349937;0,698504;0,374053;0,328684;0,328684;0,694003;0,694003;0,691506;0,862018;0,862018;0,462018;0,462018;0,328684;0,000000;0,440758;0,462018;0,000000;0,328684;0,325585;0,704323;0,862018;0,349937;0,328684;0,328684;0,270029;0,262018;0,270029;0,328684;0,328684;0,295743;0,325585;0,328684;0,547807;0,000000;0,270029;0,489731;0,262018;0,000000;0,266667;0,266667;0,000000;0,000000;0,000000;0,000000;0,000000;0,862018;0,462018;0,328684;0,328684;0,462018;0,862018;0,252514;0,252514;0,252514;0,336977;0,222018;0,222018;0,000000;0,862018;0,862018;0,000000;0,000000;0,000000;0,000000;0,000000;0,262018;0,262018;0,262018;0,000000;0,000000;0,000000;0,262018;0,262018;
21;;;;;;;;;;;;;;;;;;;;;1,000000;0,000000;0,000000;0,625000;0,671202;0,000000;0,875000;0,800000;0,750000;0,439912;0,900957;0,443621;0,375000;0,375000;0,312500;0,312500;0,462500;0,875000;0,875000;0,500000;0,500000;0,375000;0,000000;0,530612;0,500000;0,000000;0,375000;0,400000;0,750000;0,875000;0,439912;0,375000;0,375000;0,350000;0,312500;0,350000;0,375000;0,375000;0,373142;0,400000;0,375000;0,600000;0,000000;0,350000;0,580357;0,312500;0,000000;0,312500;0,312500;0,000000;0,000000;0,000000;0,000000;0,000000;0,875000;0,500000;0,375000;0,375000;0,500000;0,875000;0,334236;0,334236;0,334236;0,428571;0,275000;0,275000;0,000000;0,875000;0,875000;0,000000;0,000000;0,000000;0,000000;0,000000;0,312500;0,312500;0,312500;0,000000;0,000000;0,000000;0,312500;0,312500;
22;;;;;;;;;;;;;;;;;;;;;;1,000000;0,000000;0,000000;0,000000;0,000000;0,000000;0,000000;0,875000;0,000000;0,000000;0,000000;0,000000;0,000000;0,000000;0,000000;0,000000;0,000000;0,000000;0,000000;0,000000;0,000000;0,750000;0,000000;0,000000;0,000000;0,000000;0,000000;0,000000;0,000000;0,000000;0,000000;0,000000;0,000000;0,000000;0,000000;0,000000;0,000000;0,000000;0,000000;0,000000;0,000000;0,000000;0,000000;0,000000;0,000000;0,750000;0,000000;0,000000;0,000000;0,777778;0,000000;1,000000;1,000000;0,000000;0,000000;0,000000;0,000000;0,000000;0,000000;0,000000;0,000000;0,000000;0,000000;0,000000;0,000000;0,000000;0,000000;0,000000;0,000000;0,000000;0,000000;0,000000;0,000000;0,000000;0,000000;0,000000;1,000000;0,666667;0,666667;0,000000;0,000000;
23;;;;;;;;;;;;;;;;;;;;;;;1,000000;0,000000;0,000000;0,510824;0,000000;0,000000;0,500000;0,000000;0,000000;0,000000;0,000000;0,000000;0,000000;0,000000;0,000000;0,000000;0,000000;0,000000;0,000000;0,000000;0,500000;0,000000;0,000000;0,000000;0,000000;0,000000;0,000000;0,000000;0,000000;0,000000;0,000000;0,000000;0,000000;0,000000;0,000000;0,000000;0,000000;0,000000;0,000000;0,000000;0,000000;0,000000;0,000000;0,000000;0,500000;0,000000;0,000000;0,333333;0,666667;0,333333;0,000000;0,000000;0,000000;0,000000;0,000000;0,000000;0,000000;0,000000;0,000000;0,000000;0,000000;0,000000;0,000000;0,000000;0,000000;0,000000;0,000000;0,000000;0,000000;0,000000;0,000000;0,000000;0,000000;0,000000;0,000000;0,000000;0,666667;0,666667;0,000000;0,000000;
24;;;;;;;;;;;;;;;;;;;;;;;;1,000000;0,698175;0,000000;0,625000;0,500000;0,437500;0,282456;0,575479;0,302012;0,291667;0,291667;0,250000;0,250000;0,312500;0,625000;0,625000;0,375000;0,375000;0,291667;0,000000;0,314286;0,375000;0,625000;0,583333;0,555556;0,437500;0,625000;0,537596;0,291667;0,291667;0,250000;0,250000;0,250000;0,291667;0,583333;0,485714;0,277778;0,291667;0,388889;0,000000;0,250000;0,327381;0,250000;0,000000;0,750000;0,750000;0,000000;0,000000;0,000000;0,000000;0,000000;0,625000;0,375000;0,291667;0,291667;0,375000;0,625000;0,241242;0,241242;0,241242;0,276786;0,225000;0,225000;0,000000;0,625000;0,625000;0,000000;0,000000;0,000000;0,000000;0,000000;0,250000;0,250000;0,250000;0,000000;0,000000;0,000000;0,250000;0,250000;
25;;;;;;;;;;;;;;;;;;;;;;;;;1,000000;0,000000;0,822143;0,715428;0,644285;0,334197;0,572159;0,359049;0,322143;0,322143;0,259643;0,259643;0,377928;0,822143;0,822143;0,447143;0,447143;0,322143;0,000000;0,409795;0,447143;0,812500;0,588286;0,541257;0,644285;0,822143;0,501764;0,322143;0,322143;0,265428;0,259643;0,265428;0,322143;0,614353;0,457685;0,315428;0,322143;0,515428;0,000000;0,482964;0,448214;0,259643;0,000000;0,720604;0,720604;0,000000;0,000000;0,000000;0,000000;0,000000;0,822143;0,447143;0,322143;0,322143;0,447143;0,822143;0,249664;0,249664;0,249664;0,322857;0,222143;0,222143;0,000000;0,822143;0,822143;0,000000;0,000000;0,000000;0,000000;0,000000;0,259643;0,259643;0,259643;0,000000;0,000000;0,000000;0,489353;0,489353;
26;;;;;;;;;;;;;;;;;;;;;;;;;;1,000000;0,000000;0,000000;0,000000;0,000000;0,000000;0,000000;0,000000;0,000000;0,000000;0,000000;0,000000;0,000000;0,000000;0,000000;0,000000;0,000000;0,000000;0,000000;0,000000;0,000000;0,000000;0,000000;0,000000;0,000000;0,000000;0,000000;0,000000;0,000000;0,000000;0,000000;0,000000;0,000000;0,312500;0,000000;0,000000;0,000000;0,500000;0,500000;0,000000;0,000000;0,000000;0,000000;0,000000;0,666667;0,666667;0,666667;0,000000;0,000000;0,000000;0,000000;0,000000;0,000000;0,000000;0,000000;0,000000;0,000000;0,000000;0,000000;0,000000;0,000000;0,000000;0,000000;0,000000;0,000000;0,000000;0,000000;0,000000;0,000000;0,000000;0,000000;0,000000;0,000000;0,333333;0,333333;0,285714;0,285714;
27;;;;;;;;;;;;;;;;;;;;;;;;;;;1,000000;1,000000;1,000000;0,844956;0,906035;0,802012;0,666667;0,666667;0,625000;0,625000;0,812500;1,000000;1,000000;0,750000;0,750000;0,666667;0,000000;0,914286;0,750000;0,000000;0,666667;0,777778;1,000000;1,000000;0,844956;0,666667;0,666667;0,750000;0,625000;0,750000;0,666667;0,666667;0,762857;0,777778;0,666667;0,888889;0,000000;0,750000;0,952381;0,625000;0,000000;0,000000;0,000000;0,000000;0,000000;0,000000;0,000000;0,000000;1,000000;0,750000;0,666667;0,666667;0,750000;1,000000;0,741242;0,741242;0,741242;0,839286;0,600000;0,600000;0,000000;1,000000;1,000000;0,000000;0,000000;0,000000;0,000000;0,000000;0,625000;0,625000;0,625000;0,000000;0,000000;0,000000;0,625000;0,625000;
28;;;;;;;;;;;;;;;;;;;;;;;;;;;;1,000000;1,000000;0,751930;0,849656;0,703017;0,555556;0,555556;0,500000;0,500000;0,718750;1,000000;1,000000;0,666667;0,666667;0,555556;0,000000;0,857143;0,666667;0,000000;0,555556;0,666667;1,000000;1,000000;0,751930;0,555556;0,555556;0,625000;0,500000;0,625000;0,555556;0,555556;0,644285;0,666667;0,555556;0,833333;0,000000;0,625000;0,918367;0,500000;0,000000;0,000000;0,000000;0,000000;0,000000;0,000000;0,000000;0,000000;1,000000;0,666667;0,555556;0,555556;0,666667;1,000000;0,611863;0,611863;0,611863;0,742857;0,466667;0,466667;0,000000;1,000000;1,000000;0,000000;0,000000;0,000000;0,000000;0,000000;0,500000;0,500000;0,500000;0,000000;0,000000;0,000000;0,500000;0,500000;
29;;;;;;;;;;;;;;;;;;;;;;;;;;;;;1,000000;0,689912;0,812070;0,643621;0,500000;0,500000;0,437500;0,437500;0,662500;1,000000;1,000000;0,625000;0,625000;0,500000;0,500000;0,816327;0,625000;0,000000;0,500000;0,600000;1,000000;1,000000;0,689912;0,500000;0,500000;0,550000;0,437500;0,550000;0,500000;0,500000;0,573142;0,600000;0,500000;0,800000;0,000000;0,550000;0,892857;0,437500;0,500000;0,000000;0,000000;0,000000;0,400000;0,000000;0,800000;0,875000;1,000000;0,625000;0,500000;0,500000;0,625000;1,000000;0,534236;0,534236;0,534236;0,678571;0,400000;0,400000;0,000000;1,000000;1,000000;0,000000;0,000000;0,000000;0,000000;0,000000;0,437500;0,437500;0,437500;0,875000;0,375000;0,375000;0,437500;0,437500;
30;;;;;;;;;;;;;;;;;;;;;;;;;;;;;;1,000000;0,501981;0,395550;0,344956;0,344956;0,282456;0,282456;0,414430;0,844956;0,844956;0,469956;0,469956;0,689912;0,000000;0,461940;0,469956;0,000000;0,344956;0,351930;0,689912;0,844956;0,379824;0,689912;0,689912;0,301930;0,282456;0,301930;0,689912;0,344956;0,325072;0,351930;0,344956;0,551930;0,000000;0,301930;0,505247;0,282456;0,000000;0,000000;0,000000;0,000000;0,000000;0,000000;0,000000;0,000000;0,844956;0,469956;0,344956;0,344956;0,469956;0,844956;0,286166;0,286166;0,286166;0,368483;0,244956;0,244956;0,000000;0,844956;0,844956;0,000000;0,000000;0,000000;0,000000;0,000000;0,282456;0,282456;0,282456;0,000000;0,000000;0,000000;0,282456;0,282456;
31;;;;;;;;;;;;;;;;;;;;;;;;;;;;;;;1,000000;0,493276;0,406035;0,406035;0,575280;0,575280;0,688119;0,906035;0,906035;0,531035;0,531035;0,406035;0,000000;0,601549;0,531035;0,000000;0,406035;0,449656;0,812070;0,906035;0,501981;0,406035;0,406035;0,399656;0,343535;0,399656;0,406035;0,406035;0,422798;0,449656;0,406035;0,649656;0,000000;0,399656;0,657944;0,343535;0,000000;0,270833;0,270833;0,000000;0,000000;0,000000;0,000000;0,000000;0,906035;0,531035;0,406035;0,406035;0,531035;0,906035;0,383892;0,383892;0,383892;0,490641;0,306035;0,306035;0,000000;0,906035;0,906035;0,000000;0,000000;0,000000;0,000000;0,000000;0,343535;0,343535;0,343535;0,000000;0,000000;0,000000;0,343535;0,343535;
32;;;;;;;;;;;;;;;;;;;;;;;;;;;;;;;;1,000000;0,644361;0,644361;0,302012;0,302012;0,421767;0,802012;0,802012;0,468678;0,468678;0,357567;0,000000;0,461166;0,468678;0,000000;0,357567;0,369684;0,643621;0,802012;0,395550;0,357567;0,357567;0,328017;0,302012;0,328017;0,357567;0,357567;0,347303;0,369684;0,357567;0,536351;0,000000;0,328017;0,494106;0,302012;0,000000;0,000000;0,000000;0,000000;0,000000;0,000000;0,000000;0,000000;0,802012;0,468678;0,357567;0,357567;0,468678;0,802012;0,314881;0,314881;0,314881;0,386478;0,268678;0,268678;0,000000;0,802012;0,802012;0,000000;0,000000;0,000000;0,000000;0,000000;0,302012;0,302012;0,302012;0,000000;0,000000;0,000000;0,302012;0,302012;
33;;;;;;;;;;;;;;;;;;;;;;;;;;;;;;;;;1,000000;0,666667;0,291667;0,291667;0,368056;0,666667;0,666667;0,416667;0,416667;0,333333;0,000000;0,380952;0,833333;0,000000;0,333333;0,333333;0,500000;0,666667;0,344956;0,333333;0,333333;0,305556;0,291667;0,305556;0,333333;0,333333;0,318412;0,333333;0,333333;0,444444;0,000000;0,305556;0,396825;0,291667;0,000000;0,000000;0,000000;0,000000;0,000000;0,000000;0,000000;0,000000;0,666667;0,416667;0,333333;0,333333;0,416667;0,666667;0,296798;0,296798;0,296798;0,339286;0,266667;0,266667;0,000000;0,666667;0,666667;0,000000;0,000000;0,000000;0,000000;0,000000;0,291667;0,291667;0,291667;0,000000;0,000000;0,000000;0,291667;0,291667;
34;;;;;;;;;;;;;;;;;;;;;;;;;;;;;;;;;;1,000000;0,291667;0,291667;0,368056;0,666667;0,666667;0,416667;0,416667;0,333333;0,000000;0,380952;0,833333;0,000000;0,333333;0,333333;0,500000;0,666667;0,344956;0,333333;0,333333;0,305556;0,291667;0,305556;0,333333;0,333333;0,318412;0,333333;0,333333;0,444444;0,000000;0,305556;0,396825;0,291667;0,000000;0,000000;0,000000;0,000000;0,000000;0,000000;0,000000;0,000000;0,666667;0,416667;0,333333;0,333333;0,416667;0,666667;0,296798;0,296798;0,296798;0,339286;0,266667;0,266667;0,000000;0,666667;0,666667;0,000000;0,000000;0,000000;0,000000;0,000000;0,291667;0,291667;0,291667;0,000000;0,000000;0,000000;0,291667;0,291667;
35;;;;;;;;;;;;;;;;;;;;;;;;;;;;;;;;;;;1,000000;0,750000;0,767490;0,625000;0,625000;0,375000;0,375000;0,291667;0,000000;0,314286;0,375000;0,000000;0,291667;0,277778;0,437500;0,625000;0,282456;0,291667;0,291667;0,250000;0,250000;0,250000;0,291667;0,291667;0,262857;0,277778;0,291667;0,388889;0,000000;0,250000;0,327381;0,250000;0,000000;0,000000;0,000000;0,000000;0,000000;0,000000;0,000000;0,000000;0,625000;0,375000;0,291667;0,291667;0,375000;0,625000;0,241242;0,241242;0,241242;0,276786;0,225000;0,225000;0,000000;0,625000;0,625000;0,000000;0,000000;0,000000;0,000000;0,000000;0,250000;0,250000;0,250000;0,000000;0,000000;0,000000;0,250000;0,250000;
36;;;;;;;;;;;;;;;;;;;;;;;;;;;;;;;;;;;;1,000000;0,767490;0,625000;0,625000;0,375000;0,375000;0,291667;0,000000;0,314286;0,375000;0,000000;0,291667;0,277778;0,437500;0,625000;0,282456;0,291667;0,291667;0,250000;0,250000;0,250000;0,291667;0,291667;0,262857;0,277778;0,291667;0,388889;0,000000;0,250000;0,327381;0,250000;0,000000;0,000000;0,000000;0,000000;0,000000;0,000000;0,000000;0,000000;0,625000;0,375000;0,291667;0,291667;0,375000;0,625000;0,241242;0,241242;0,241242;0,276786;0,225000;0,225000;0,000000;0,625000;0,625000;0,000000;0,000000;0,000000;0,000000;0,000000;0,250000;0,250000;0,250000;0,000000;0,000000;0,000000;0,250000;0,250000;
37;;;;;;;;;;;;;;;;;;;;;;;;;;;;;;;;;;;;;1,000000;0,812500;0,812500;0,479167;0,479167;0,368056;0,000000;0,482143;0,479167;0,000000;0,368056;0,385417;0,662500;0,812500;0,414430;0,368056;0,368056;0,343750;0,312500;0,343750;0,368056;0,368056;0,363035;0,385417;0,368056;0,552083;0,000000;0,343750;0,516582;0,312500;0,000000;0,000000;0,000000;0,000000;0,000000;0,000000;0,000000;0,000000;0,812500;0,479167;0,368056;0,368056;0,479167;0,812500;0,330613;0,330613;0,330613;0,405357;0,279167;0,279167;0,000000;0,812500;0,812500;0,000000;0,000000;0,000000;0,000000;0,000000;0,312500;0,312500;0,312500;0,000000;0,000000;0,000000;0,312500;0,312500;
38;;;;;;;;;;;;;;;;;;;;;;;;;;;;;;;;;;;;;;1,000000;1,000000;0,750000;0,750000;0,666667;0,000000;0,914286;0,750000;0,000000;0,666667;0,777778;1,000000;1,000000;0,844956;0,666667;0,666667;0,750000;0,625000;0,750000;0,666667;0,666667;0,762857;0,777778;0,666667;0,888889;0,000000;0,750000;0,952381;0,625000;0,000000;0,000000;0,000000;0,000000;0,000000;0,000000;0,000000;0,000000;1,000000;0,750000;0,666667;0,666667;0,750000;1,000000;0,741242;0,741242;0,741242;0,839286;0,600000;0,600000;0,000000;1,000000;1,000000;0,000000;0,000000;0,000000;0,000000;0,000000;0,625000;0,625000;0,625000;0,000000;0,000000;0,000000;0,625000;0,625000;
39;;;;;;;;;;;;;;;;;;;;;;;;;;;;;;;;;;;;;;;1,000000;0,750000;0,750000;0,666667;0,000000;0,914286;0,750000;0,000000;0,666667;0,777778;1,000000;1,000000;0,844956;0,666667;0,666667;0,750000;0,625000;0,750000;0,666667;0,666667;0,762857;0,777778;0,666667;0,888889;0,000000;0,750000;0,952381;0,625000;0,000000;0,000000;0,000000;0,000000;0,000000;0,000000;0,000000;0,000000;1,000000;0,750000;0,666667;0,666667;0,750000;1,000000;0,741242;0,741242;0,741242;0,839286;0,600000;0,600000;0,000000;1,000000;1,000000;0,000000;0,000000;0,000000;0,000000;0,000000;0,625000;0,625000;0,625000;0,000000;0,000000;0,000000;0,625000;0,625000;
40;;;;;;;;;;;;;;;;;;;;;;;;;;;;;;;;;;;;;;;;1,000000;0,500000;0,416667;0,000000;0,514286;0,500000;0,000000;0,416667;0,444444;0,625000;0,750000;0,469956;0,416667;0,416667;0,416667;0,375000;0,416667;0,416667;0,416667;0,429523;0,444444;0,416667;0,555556;0,000000;0,416667;0,535714;0,375000;0,000000;0,000000;0,000000;0,000000;0,000000;0,000000;0,000000;0,000000;0,750000;0,500000;0,416667;0,416667;0,500000;0,750000;0,407909;0,407909;0,407909;0,464286;0,350000;0,350000;0,000000;0,750000;0,750000;0,000000;0,000000;0,000000;0,000000;0,000000;0,375000;0,375000;0,375000;0,000000;0,000000;0,000000;0,375000;0,375000;
41;;;;;;;;;;;;;;;;;;;;;;;;;;;;;;;;;;;;;;;;;1,000000;0,416667;0,000000;0,514286;0,500000;0,000000;0,416667;0,444444;0,625000;0,750000;0,469956;0,416667;0,416667;0,416667;0,375000;0,416667;0,416667;0,416667;0,429523;0,444444;0,416667;0,555556;0,000000;0,416667;0,535714;0,375000;0,000000;0,000000;0,000000;0,000000;0,000000;0,000000;0,000000;0,000000;0,750000;0,500000;0,416667;0,416667;0,500000;0,750000;0,407909;0,407909;0,407909;0,464286;0,350000;0,350000;0,000000;0,750000;0,750000;0,000000;0,000000;0,000000;0,000000;0,000000;0,375000;0,375000;0,375000;0,000000;0,000000;0,000000;0,375000;0,375000;
42;;;;;;;;;;;;;;;;;;;;;;;;;;;;;;;;;;;;;;;;;;1,000000;0,000000;0,380952;0,416667;0,000000;0,333333;0,333333;0,500000;0,666667;0,344956;0,666667;0,666667;0,305556;0,291667;0,305556;1,000000;0,333333;0,318412;0,333333;0,333333;0,444444;0,000000;0,305556;0,396825;0,291667;0,000000;0,000000;0,000000;0,000000;0,000000;0,000000;0,000000;0,000000;0,666667;0,416667;0,333333;0,333333;0,416667;0,666667;0,296798;0,296798;0,296798;0,339286;0,266667;0,266667;0,000000;0,666667;0,666667;0,000000;0,000000;0,000000;0,000000;0,000000;0,291667;0,291667;0,291667;0,000000;0,000000;0,000000;0,291667;0,291667;
43;;;;;;;;;;;;;;;;;;;;;;;;;;;;;;;;;;;;;;;;;;;1,000000;0,000000;0,000000;0,000000;0,000000;0,000000;0,000000;0,000000;0,000000;0,000000;0,000000;0,000000;0,000000;0,000000;0,000000;0,000000;0,000000;0,000000;0,000000;0,000000;0,000000;0,000000;0,000000;0,000000;0,500000;0,000000;0,000000;0,000000;0,444444;0,000000;0,666667;0,750000;0,000000;0,000000;0,000000;0,000000;0,000000;0,000000;0,000000;0,000000;0,000000;0,000000;0,000000;0,000000;0,000000;0,000000;0,000000;0,000000;0,000000;0,000000;0,000000;0,000000;0,000000;0,000000;0,000000;0,750000;0,416667;0,416667;0,000000;0,000000;
44;;;;;;;;;;;;;;;;;;;;;;;;;;;;;;;;;;;;;;;;;;;;1,000000;0,514286;0,000000;0,380952;0,412698;0,816327;0,914286;0,461940;0,380952;0,380952;0,357143;0,314286;0,357143;0,380952;0,380952;0,382856;0,412698;0,380952;0,634921;0,000000;0,357143;0,634921;0,314286;0,000000;0,000000;0,000000;0,000000;0,000000;0,000000;0,000000;0,000000;0,914286;0,514286;0,380952;0,380952;0,514286;0,914286;0,339627;0,339627;0,339627;0,448980;0,274286;0,274286;0,000000;0,914286;0,914286;0,000000;0,000000;0,000000;0,000000;0,000000;0,314286;0,314286;0,314286;0,000000;0,000000;0,000000;0,314286;0,314286;
45;;;;;;;;;;;;;;;;;;;;;;;;;;;;;;;;;;;;;;;;;;;;;1,000000;0,000000;0,416667;0,444444;0,625000;0,750000;0,469956;0,416667;0,416667;0,416667;0,375000;0,416667;0,416667;0,416667;0,429523;0,444444;0,416667;0,555556;0,000000;0,416667;0,535714;0,375000;0,000000;0,000000;0,000000;0,000000;0,000000;0,000000;0,000000;0,000000;0,750000;0,500000;0,416667;0,416667;0,500000;0,750000;0,407909;0,407909;0,407909;0,464286;0,350000;0,350000;0,000000;0,750000;0,750000;0,000000;0,000000;0,000000;0,000000;0,000000;0,375000;0,375000;0,375000;0,000000;0,000000;0,000000;0,375000;0,375000;
46;;;;;;;;;;;;;;;;;;;;;;;;;;;;;;;;;;;;;;;;;;;;;;1,000000;0,666667;0,777778;0,000000;0,000000;0,851509;0,000000;0,000000;0,000000;0,000000;0,000000;0,000000;0,000000;0,000000;0,000000;0,000000;0,000000;0,000000;0,000000;0,000000;0,000000;0,000000;0,625000;0,625000;0,000000;0,000000;0,000000;0,000000;0,000000;0,000000;0,000000;0,000000;0,000000;0,000000;0,000000;0,000000;0,000000;0,000000;0,000000;0,000000;0,000000;0,000000;0,000000;0,000000;0,000000;0,000000;0,000000;0,000000;0,000000;0,000000;0,000000;0,000000;0,000000;0,000000;0,000000;0,000000;0,000000;
47;;;;;;;;;;;;;;;;;;;;;;;;;;;;;;;;;;;;;;;;;;;;;;;1,000000;0,666667;0,500000;0,666667;0,945559;0,333333;0,333333;0,305556;0,291667;0,305556;0,333333;0,333333;0,318412;0,333333;0,333333;0,444444;0,000000;0,305556;0,396825;0,291667;0,000000;0,291667;0,291667;0,000000;0,000000;0,000000;0,000000;0,000000;0,666667;0,416667;0,333333;0,333333;0,416667;0,666667;0,296798;0,296798;0,296798;0,339286;0,266667;0,266667;0,000000;0,666667;0,666667;0,000000;0,000000;0,000000;0,000000;0,000000;0,291667;0,291667;0,291667;0,000000;0,000000;0,000000;0,291667;0,291667;
48;;;;;;;;;;;;;;;;;;;;;;;;;;;;;;;;;;;;;;;;;;;;;;;;1,000000;0,600000;0,777778;0,660154;0,333333;0,333333;0,291667;0,277778;0,291667;0,333333;0,333333;0,310952;0,511437;0,614923;0,500000;0,000000;0,291667;0,442177;0,277778;0,000000;0,277778;0,277778;0,000000;0,000000;0,000000;0,000000;0,000000;0,777778;0,444444;0,333333;0,333333;0,444444;0,777778;0,278530;0,278530;0,278530;0,342857;0,244444;0,244444;0,000000;0,777778;0,777778;0,000000;0,000000;0,000000;0,000000;0,000000;0,277778;0,277778;0,277778;0,000000;0,000000;0,000000;0,277778;0,277778;
49;;;;;;;;;;;;;;;;;;;;;;;;;;;;;;;;;;;;;;;;;;;;;;;;;1,000000;1,000000;0,689912;0,500000;0,500000;0,550000;0,437500;0,550000;0,500000;0,500000;0,573142;0,600000;0,500000;0,800000;0,000000;0,550000;0,892857;0,437500;0,000000;0,000000;0,000000;0,000000;0,000000;0,000000;0,000000;0,000000;1,000000;0,625000;0,500000;0,500000;0,625000;1,000000;0,534236;0,534236;0,534236;0,678571;0,400000;0,400000;0,000000;1,000000;1,000000;0,000000;0,000000;0,000000;0,000000;0,000000;0,437500;0,437500;0,437500;0,000000;0,000000;0,000000;0,437500;0,437500;
50;;;;;;;;;;;;;;;;;;;;;;;;;;;;;;;;;;;;;;;;;;;;;;;;;;1,000000;0,844956;0,666667;0,666667;0,750000;0,625000;0,750000;0,666667;0,666667;0,762857;0,777778;0,666667;0,888889;0,000000;0,750000;0,952381;0,625000;0,000000;0,000000;0,000000;0,000000;0,000000;0,000000;0,000000;0,000000;1,000000;0,750000;0,666667;0,666667;0,750000;1,000000;0,741242;0,741242;0,741242;0,839286;0,600000;0,600000;0,000000;1,000000;1,000000;0,000000;0,000000;0,000000;0,000000;0,000000;0,625000;0,625000;0,625000;0,000000;0,000000;0,000000;0,625000;0,625000;
51;;;;;;;;;;;;;;;;;;;;;;;;;;;;;;;;;;;;;;;;;;;;;;;;;;;1,000000;0,344956;0,344956;0,301930;0,282456;0,301930;0,344956;0,344956;0,325072;0,510615;0,627142;0,551930;0,000000;0,301930;0,505247;0,282456;0,000000;0,289009;0,289009;0,000000;0,000000;0,000000;0,000000;0,000000;0,844956;0,469956;0,627142;0,627142;0,469956;0,844956;0,286166;0,286166;0,286166;0,368483;0,244956;0,244956;0,000000;0,844956;0,844956;0,000000;0,000000;0,000000;0,000000;0,000000;0,282456;0,282456;0,282456;0,000000;0,000000;0,000000;0,282456;0,282456;
52;;;;;;;;;;;;;;;;;;;;;;;;;;;;;;;;;;;;;;;;;;;;;;;;;;;;1,000000;0,666667;0,305556;0,291667;0,305556;0,666667;0,333333;0,318412;0,333333;0,333333;0,444444;0,000000;0,305556;0,396825;0,291667;0,000000;0,000000;0,000000;0,000000;0,000000;0,000000;0,000000;0,000000;0,666667;0,416667;0,333333;0,333333;0,416667;0,666667;0,296798;0,296798;0,296798;0,339286;0,266667;0,266667;0,000000;0,666667;0,666667;0,000000;0,000000;0,000000;0,000000;0,000000;0,291667;0,291667;0,291667;0,000000;0,000000;0,000000;0,291667;0,291667;
53;;;;;;;;;;;;;;;;;;;;;;;;;;;;;;;;;;;;;;;;;;;;;;;;;;;;;1,000000;0,305556;0,291667;0,305556;0,666667;0,333333;0,318412;0,333333;0,333333;0,444444;0,000000;0,305556;0,396825;0,291667;0,000000;0,000000;0,000000;0,000000;0,000000;0,000000;0,000000;0,000000;0,666667;0,416667;0,333333;0,333333;0,416667;0,666667;0,296798;0,296798;0,296798;0,339286;0,266667;0,266667;0,000000;0,666667;0,666667;0,000000;0,000000;0,000000;0,000000;0,000000;0,291667;0,291667;0,291667;0,000000;0,000000;0,000000;0,291667;0,291667;
54;;;;;;;;;;;;;;;;;;;;;;;;;;;;;;;;;;;;;;;;;;;;;;;;;;;;;;1,000000;0,750000;0,750000;0,305556;0,305556;0,269285;0,291667;0,305556;0,458333;0,000000;0,250000;0,382653;0,750000;0,000000;0,000000;0,000000;0,000000;0,000000;0,000000;0,000000;0,000000;0,750000;0,416667;0,305556;0,305556;0,416667;0,750000;0,236863;0,236863;0,236863;0,292857;0,216667;0,216667;0,000000;0,750000;0,750000;0,000000;0,000000;0,000000;0,000000;0,000000;0,250000;0,250000;0,250000;0,000000;0,000000;0,000000;0,250000;0,250000;
55;;;;;;;;;;;;;;;;;;;;;;;;;;;;;;;;;;;;;;;;;;;;;;;;;;;;;;;1,000000;0,750000;0,291667;0,291667;0,262857;0,277778;0,291667;0,388889;0,000000;0,250000;0,327381;1,000000;0,000000;0,000000;0,000000;0,000000;0,000000;0,000000;0,000000;0,000000;0,625000;0,375000;0,291667;0,291667;0,375000;0,625000;0,241242;0,241242;0,241242;0,276786;0,225000;0,225000;0,000000;0,625000;0,625000;0,000000;0,000000;0,000000;0,000000;0,000000;0,250000;0,250000;0,250000;0,000000;0,000000;0,000000;0,250000;0,250000;
56;;;;;;;;;;;;;;;;;;;;;;;;;;;;;;;;;;;;;;;;;;;;;;;;;;;;;;;;1,000000;0,305556;0,305556;0,269285;0,291667;0,305556;0,458333;0,000000;0,250000;0,382653;0,750000;0,000000;0,000000;0,000000;0,000000;0,000000;0,000000;0,000000;0,000000;0,750000;0,416667;0,305556;0,305556;0,416667;0,750000;0,236863;0,236863;0,236863;0,292857;0,216667;0,216667;0,000000;0,750000;0,750000;0,000000;0,000000;0,000000;0,000000;0,000000;0,250000;0,250000;0,250000;0,000000;0,000000;0,000000;0,250000;0,250000;
57;;;;;;;;;;;;;;;;;;;;;;;;;;;;;;;;;;;;;;;;;;;;;;;;;;;;;;;;;1,000000;0,333333;0,318412;0,333333;0,333333;0,444444;0,000000;0,305556;0,396825;0,291667;0,000000;0,000000;0,000000;0,000000;0,000000;0,000000;0,000000;0,000000;0,666667;0,416667;0,333333;0,333333;0,416667;0,666667;0,296798;0,296798;0,296798;0,339286;0,266667;0,266667;0,000000;0,666667;0,666667;0,000000;0,000000;0,000000;0,000000;0,000000;0,291667;0,291667;0,291667;0,000000;0,000000;0,000000;0,291667;0,291667;
58;;;;;;;;;;;;;;;;;;;;;;;;;;;;;;;;;;;;;;;;;;;;;;;;;;;;;;;;;;1,000000;0,596825;0,333333;0,333333;0,444444;0,000000;0,611111;0,396825;0,291667;0,000000;0,291667;0,291667;0,000000;0,000000;0,000000;0,000000;0,000000;0,666667;0,416667;0,333333;0,333333;0,416667;0,666667;0,296798;0,296798;0,296798;0,339286;0,266667;0,266667;0,000000;0,666667;0,666667;0,000000;0,000000;0,000000;0,000000;0,000000;0,291667;0,291667;0,291667;0,000000;0,000000;0,000000;0,583333;0,583333;
59;;;;;;;;;;;;;;;;;;;;;;;;;;;;;;;;;;;;;;;;;;;;;;;;;;;;;;;;;;;1,000000;0,310952;0,318412;0,477618;0,416667;0,665611;0,410203;0,262857;0,000000;0,277778;0,277778;0,000000;0,000000;0,000000;0,000000;0,000000;0,762857;0,429523;0,318412;0,318412;0,429523;0,762857;0,256149;0,256149;0,256149;0,315999;0,229523;0,229523;0,000000;0,762857;0,762857;0,000000;0,000000;0,000000;0,000000;0,000000;0,262857;0,262857;0,262857;0,000000;0,000000;0,000000;0,693645;0,693645;
60;;;;;;;;;;;;;;;;;;;;;;;;;;;;;;;;;;;;;;;;;;;;;;;;;;;;;;;;;;;;1,000000;0,614923;0,500000;0,000000;0,291667;0,442177;0,277778;0,000000;0,000000;0,000000;0,000000;0,000000;0,000000;0,000000;0,000000;0,777778;0,444444;0,615068;0,615068;0,444444;0,777778;0,278530;0,278530;0,278530;0,342857;0,244444;0,244444;0,000000;0,777778;0,777778;0,000000;0,000000;0,000000;0,000000;0,000000;0,277778;0,277778;0,277778;0,000000;0,000000;0,000000;0,277778;0,277778;
61;;;;;;;;;;;;;;;;;;;;;;;;;;;;;;;;;;;;;;;;;;;;;;;;;;;;;;;;;;;;;1,000000;0,444444;0,000000;0,305556;0,396825;0,291667;0,000000;0,000000;0,000000;0,000000;0,000000;0,000000;0,000000;0,000000;0,666667;0,416667;0,666667;0,666667;0,416667;0,666667;0,296798;0,296798;0,296798;0,339286;0,266667;0,266667;0,000000;0,666667;0,666667;0,000000;0,000000;0,000000;0,000000;0,000000;0,291667;0,291667;0,291667;0,000000;0,000000;0,000000;0,291667;0,291667;
62;;;;;;;;;;;;;;;;;;;;;;;;;;;;;;;;;;;;;;;;;;;;;;;;;;;;;;;;;;;;;;1,000000;0,000000;0,458333;0,680272;0,388889;0,000000;0,000000;0,000000;0,000000;0,000000;0,000000;0,000000;0,000000;0,888889;0,555556;0,444444;0,444444;0,555556;0,888889;0,445197;0,445197;0,445197;0,542857;0,355556;0,355556;0,000000;0,888889;0,888889;0,000000;0,000000;0,000000;0,000000;0,000000;0,388889;0,388889;0,388889;0,000000;0,000000;0,000000;0,388889;0,388889;
63;;;;;;;;;;;;;;;;;;;;;;;;;;;;;;;;;;;;;;;;;;;;;;;;;;;;;;;;;;;;;;;1,000000;0,500000;0,000000;0,000000;0,000000;0,000000;0,000000;0,416667;0,444444;0,416667;0,000000;0,000000;0,000000;0,000000;0,000000;0,000000;0,000000;0,000000;0,000000;0,000000;0,000000;0,000000;0,000000;0,000000;0,750000;0,000000;0,000000;0,000000;0,000000;0,000000;0,000000;0,000000;0,000000;0,000000;0,000000;0,000000;0,000000;0,000000;0,375000;0,375000;
64;;;;;;;;;;;;;;;;;;;;;;;;;;;;;;;;;;;;;;;;;;;;;;;;;;;;;;;;;;;;;;;;1,000000;0,382653;0,250000;0,000000;0,000000;0,000000;0,388889;0,416667;0,388889;0,000000;0,000000;0,750000;0,416667;0,305556;0,305556;0,416667;0,750000;0,236863;0,236863;0,236863;0,292857;0,216667;0,216667;0,833333;0,750000;0,750000;0,000000;0,000000;0,000000;0,000000;0,000000;0,250000;0,250000;0,250000;0,000000;0,000000;0,000000;0,750000;0,750000;
65;;;;;;;;;;;;;;;;;;;;;;;;;;;;;;;;;;;;;;;;;;;;;;;;;;;;;;;;;;;;;;;;;1,000000;0,327381;0,000000;0,000000;0,000000;0,000000;0,000000;0,000000;0,000000;0,000000;0,952381;0,535714;0,396825;0,396825;1,000000;0,952381;0,363887;0,363887;0,363887;0,491071;0,285714;0,285714;0,000000;0,952381;0,952381;0,000000;0,000000;0,000000;0,000000;0,000000;0,327381;0,327381;0,327381;0,000000;0,000000;0,000000;0,327381;0,327381;
66;;;;;;;;;;;;;;;;;;;;;;;;;;;;;;;;;;;;;;;;;;;;;;;;;;;;;;;;;;;;;;;;;;1,000000;0,000000;0,000000;0,000000;0,000000;0,000000;0,000000;0,000000;0,000000;0,625000;0,375000;0,291667;0,291667;0,375000;0,625000;0,241242;0,241242;0,241242;0,276786;0,225000;0,225000;0,000000;0,625000;0,625000;0,000000;0,000000;0,000000;0,000000;0,000000;0,250000;0,250000;0,250000;0,000000;0,000000;0,000000;0,250000;0,250000;
67;;;;;;;;;;;;;;;;;;;;;;;;;;;;;;;;;;;;;;;;;;;;;;;;;;;;;;;;;;;;;;;;;;;1,000000;0,000000;0,000000;0,000000;0,444444;0,000000;0,666667;0,750000;0,000000;0,000000;0,000000;0,000000;0,000000;0,000000;0,000000;0,000000;0,000000;0,000000;0,000000;0,000000;0,000000;0,000000;0,000000;0,000000;0,000000;0,000000;0,000000;0,000000;0,000000;0,000000;0,000000;0,750000;0,416667;0,416667;0,000000;0,000000;
68;;;;;;;;;;;;;;;;;;;;;;;;;;;;;;;;;;;;;;;;;;;;;;;;;;;;;;;;;;;;;;;;;;;;1,000000;0,750000;0,000000;0,000000;0,000000;0,000000;0,000000;0,000000;0,000000;0,000000;0,000000;0,000000;0,000000;0,000000;0,000000;0,000000;0,000000;0,000000;0,000000;0,000000;0,000000;0,000000;0,000000;0,000000;0,000000;0,000000;0,000000;0,000000;0,000000;0,000000;0,000000;0,000000;0,000000;0,000000;0,000000;
69;;;;;;;;;;;;;;;;;;;;;;;;;;;;;;;;;;;;;;;;;;;;;;;;;;;;;;;;;;;;;;;;;;;;;1,000000;0,000000;0,000000;0,000000;0,000000;0,000000;0,000000;0,000000;0,000000;0,000000;0,000000;0,000000;0,000000;0,000000;0,000000;0,000000;0,000000;0,000000;0,000000;0,000000;0,000000;0,000000;0,000000;0,000000;0,000000;0,000000;0,000000;0,000000;0,000000;0,000000;0,000000;0,000000;0,000000;0,000000;
70;;;;;;;;;;;;;;;;;;;;;;;;;;;;;;;;;;;;;;;;;;;;;;;;;;;;;;;;;;;;;;;;;;;;;;1,000000;0,666667;0,666667;0,000000;0,000000;0,000000;0,000000;0,000000;0,000000;0,000000;0,000000;0,000000;0,000000;0,000000;0,000000;0,000000;0,000000;0,666667;0,000000;0,000000;0,000000;0,000000;0,000000;0,000000;0,000000;0,000000;0,000000;0,000000;0,000000;0,333333;0,333333;0,000000;0,000000;
71;;;;;;;;;;;;;;;;;;;;;;;;;;;;;;;;;;;;;;;;;;;;;;;;;;;;;;;;;;;;;;;;;;;;;;;1,000000;0,666667;0,666667;0,777778;0,000000;0,000000;0,000000;0,000000;0,000000;0,000000;0,000000;0,000000;0,000000;0,000000;0,000000;0,000000;0,777778;0,000000;0,000000;0,000000;0,000000;0,000000;0,000000;0,000000;0,000000;0,000000;0,000000;0,777778;0,666667;0,666667;0,000000;0,000000;
72;;;;;;;;;;;;;;;;;;;;;;;;;;;;;;;;;;;;;;;;;;;;;;;;;;;;;;;;;;;;;;;;;;;;;;;;1,000000;0,000000;0,000000;0,000000;0,000000;0,000000;0,000000;0,000000;0,000000;0,000000;0,000000;0,000000;0,000000;0,000000;0,000000;0,666667;0,000000;0,000000;0,000000;0,000000;0,000000;0,000000;0,000000;0,000000;0,000000;0,000000;0,000000;0,333333;0,333333;0,000000;0,000000;
73;;;;;;;;;;;;;;;;;;;;;;;;;;;;;;;;;;;;;;;;;;;;;;;;;;;;;;;;;;;;;;;;;;;;;;;;;1,000000;1,000000;0,000000;0,000000;0,000000;0,000000;0,000000;0,000000;0,000000;0,000000;0,000000;0,000000;0,000000;0,000000;0,000000;0,000000;0,000000;0,000000;0,000000;0,000000;0,000000;0,000000;0,000000;0,000000;0,000000;1,000000;0,555556;0,555556;0,000000;0,000000;
74;;;;;;;;;;;;;;;;;;;;;;;;;;;;;;;;;;;;;;;;;;;;;;;;;;;;;;;;;;;;;;;;;;;;;;;;;;1,000000;0,000000;0,000000;0,000000;0,000000;0,000000;0,000000;0,000000;0,000000;0,000000;0,000000;0,000000;0,000000;0,000000;0,000000;0,000000;0,000000;0,000000;0,000000;0,000000;0,000000;0,000000;0,000000;0,000000;1,000000;0,666667;0,666667;0,000000;0,000000;
75;;;;;;;;;;;;;;;;;;;;;;;;;;;;;;;;;;;;;;;;;;;;;;;;;;;;;;;;;;;;;;;;;;;;;;;;;;;1,000000;0,750000;0,666667;0,666667;0,750000;1,000000;0,741242;0,741242;0,741242;0,839286;0,600000;0,600000;0,000000;1,000000;1,000000;0,000000;0,000000;0,000000;0,000000;0,000000;0,625000;0,625000;0,625000;0,000000;0,000000;0,000000;0,625000;0,625000;
76;;;;;;;;;;;;;;;;;;;;;;;;;;;;;;;;;;;;;;;;;;;;;;;;;;;;;;;;;;;;;;;;;;;;;;;;;;;;1,000000;0,416667;0,416667;0,500000;0,750000;0,407909;0,407909;0,407909;0,464286;0,350000;0,350000;0,000000;0,750000;0,750000;0,000000;0,000000;0,000000;0,000000;0,000000;0,375000;0,375000;0,375000;0,000000;0,000000;0,000000;0,375000;0,375000;
77;;;;;;;;;;;;;;;;;;;;;;;;;;;;;;;;;;;;;;;;;;;;;;;;;;;;;;;;;;;;;;;;;;;;;;;;;;;;;1,000000;0,666667;0,416667;0,666667;0,296798;0,296798;0,296798;0,339286;0,266667;0,266667;0,000000;0,666667;0,666667;0,000000;0,000000;0,000000;0,000000;0,000000;0,291667;0,291667;0,291667;0,000000;0,000000;0,000000;0,291667;0,291667;
78;;;;;;;;;;;;;;;;;;;;;;;;;;;;;;;;;;;;;;;;;;;;;;;;;;;;;;;;;;;;;;;;;;;;;;;;;;;;;;1,000000;0,416667;0,666667;0,296798;0,296798;0,296798;0,339286;0,266667;0,266667;0,000000;0,666667;0,666667;0,000000;0,000000;0,000000;0,000000;0,000000;0,291667;0,291667;0,291667;0,000000;0,000000;0,000000;0,291667;0,291667;
79;;;;;;;;;;;;;;;;;;;;;;;;;;;;;;;;;;;;;;;;;;;;;;;;;;;;;;;;;;;;;;;;;;;;;;;;;;;;;;;1,000000;0,750000;0,407909;0,407909;0,407909;0,464286;0,350000;0,350000;0,000000;0,750000;0,750000;0,000000;0,000000;0,000000;0,000000;0,000000;0,375000;0,375000;0,375000;0,000000;0,000000;0,000000;0,375000;0,375000;
80;;;;;;;;;;;;;;;;;;;;;;;;;;;;;;;;;;;;;;;;;;;;;;;;;;;;;;;;;;;;;;;;;;;;;;;;;;;;;;;;1,000000;0,741242;0,741242;0,741242;0,839286;0,600000;0,600000;0,000000;1,000000;1,000000;0,000000;0,000000;0,000000;0,000000;0,000000;0,625000;0,625000;0,625000;0,000000;0,000000;0,000000;0,625000;0,625000;
81;;;;;;;;;;;;;;;;;;;;;;;;;;;;;;;;;;;;;;;;;;;;;;;;;;;;;;;;;;;;;;;;;;;;;;;;;;;;;;;;;1,000000;0,777219;0,777219;0,638401;0,792382;0,792382;0,000000;0,741242;0,741242;0,000000;0,000000;0,000000;0,000000;0,000000;0,450888;0,450888;0,450888;0,000000;0,000000;0,000000;0,241242;0,241242;
82;;;;;;;;;;;;;;;;;;;;;;;;;;;;;;;;;;;;;;;;;;;;;;;;;;;;;;;;;;;;;;;;;;;;;;;;;;;;;;;;;;1,000000;0,777219;0,638401;0,792382;0,792382;0,000000;0,741242;0,741242;0,000000;0,000000;0,000000;0,000000;0,000000;0,450888;0,450888;0,450888;0,000000;0,000000;0,000000;0,241242;0,241242;
83;;;;;;;;;;;;;;;;;;;;;;;;;;;;;;;;;;;;;;;;;;;;;;;;;;;;;;;;;;;;;;;;;;;;;;;;;;;;;;;;;;;1,000000;0,638401;0,792382;0,792382;0,000000;0,741242;0,741242;0,000000;0,000000;0,000000;0,000000;0,000000;0,450888;0,450888;0,450888;0,000000;0,000000;0,000000;0,241242;0,241242;
84;;;;;;;;;;;;;;;;;;;;;;;;;;;;;;;;;;;;;;;;;;;;;;;;;;;;;;;;;;;;;;;;;;;;;;;;;;;;;;;;;;;;1,000000;0,780021;0,780021;0,000000;0,839286;0,839286;0,000000;0,000000;0,000000;0,000000;0,000000;0,709918;0,709918;0,709918;0,000000;0,000000;0,000000;0,276786;0,276786;
85;;;;;;;;;;;;;;;;;;;;;;;;;;;;;;;;;;;;;;;;;;;;;;;;;;;;;;;;;;;;;;;;;;;;;;;;;;;;;;;;;;;;;1,000000;0,800000;0,000000;0,600000;0,600000;0,000000;0,000000;0,000000;0,000000;0,000000;0,225000;0,225000;0,225000;0,000000;0,000000;0,000000;0,225000;0,225000;
86;;;;;;;;;;;;;;;;;;;;;;;;;;;;;;;;;;;;;;;;;;;;;;;;;;;;;;;;;;;;;;;;;;;;;;;;;;;;;;;;;;;;;;1,000000;0,000000;0,600000;0,600000;0,000000;0,000000;0,000000;0,000000;0,000000;0,225000;0,225000;0,225000;0,000000;0,000000;0,000000;0,225000;0,225000;
87;;;;;;;;;;;;;;;;;;;;;;;;;;;;;;;;;;;;;;;;;;;;;;;;;;;;;;;;;;;;;;;;;;;;;;;;;;;;;;;;;;;;;;;1,000000;0,000000;0,000000;0,000000;0,000000;0,000000;0,000000;0,000000;0,000000;0,000000;0,000000;0,000000;0,000000;0,000000;0,000000;0,000000;
88;;;;;;;;;;;;;;;;;;;;;;;;;;;;;;;;;;;;;;;;;;;;;;;;;;;;;;;;;;;;;;;;;;;;;;;;;;;;;;;;;;;;;;;;1,000000;1,000000;0,000000;0,000000;0,000000;0,000000;0,000000;0,625000;0,625000;0,625000;0,000000;0,000000;0,000000;0,625000;0,625000;
89;;;;;;;;;;;;;;;;;;;;;;;;;;;;;;;;;;;;;;;;;;;;;;;;;;;;;;;;;;;;;;;;;;;;;;;;;;;;;;;;;;;;;;;;;1,000000;0,000000;0,000000;0,000000;0,000000;0,000000;0,625000;0,625000;0,625000;0,000000;0,000000;0,000000;0,625000;0,625000;
90;;;;;;;;;;;;;;;;;;;;;;;;;;;;;;;;;;;;;;;;;;;;;;;;;;;;;;;;;;;;;;;;;;;;;;;;;;;;;;;;;;;;;;;;;;1,000000;0,750000;0,750000;0,750000;0,750000;0,000000;0,000000;0,000000;0,000000;0,000000;0,000000;0,000000;0,000000;
91;;;;;;;;;;;;;;;;;;;;;;;;;;;;;;;;;;;;;;;;;;;;;;;;;;;;;;;;;;;;;;;;;;;;;;;;;;;;;;;;;;;;;;;;;;;1,000000;0,750000;0,750000;0,750000;0,000000;0,000000;0,000000;0,000000;0,000000;0,000000;0,000000;0,000000;
92;;;;;;;;;;;;;;;;;;;;;;;;;;;;;;;;;;;;;;;;;;;;;;;;;;;;;;;;;;;;;;;;;;;;;;;;;;;;;;;;;;;;;;;;;;;;1,000000;0,750000;0,750000;0,000000;0,000000;0,000000;0,000000;0,000000;0,000000;0,000000;0,000000;
93;;;;;;;;;;;;;;;;;;;;;;;;;;;;;;;;;;;;;;;;;;;;;;;;;;;;;;;;;;;;;;;;;;;;;;;;;;;;;;;;;;;;;;;;;;;;;1,000000;0,750000;0,000000;0,000000;0,000000;0,000000;0,000000;0,000000;0,000000;0,000000;
94;;;;;;;;;;;;;;;;;;;;;;;;;;;;;;;;;;;;;;;;;;;;;;;;;;;;;;;;;;;;;;;;;;;;;;;;;;;;;;;;;;;;;;;;;;;;;;1,000000;0,000000;0,000000;0,000000;0,000000;0,000000;0,000000;0,000000;0,000000;
95;;;;;;;;;;;;;;;;;;;;;;;;;;;;;;;;;;;;;;;;;;;;;;;;;;;;;;;;;;;;;;;;;;;;;;;;;;;;;;;;;;;;;;;;;;;;;;;1,000000;0,750000;0,750000;0,000000;0,000000;0,000000;0,250000;0,250000;
96;;;;;;;;;;;;;;;;;;;;;;;;;;;;;;;;;;;;;;;;;;;;;;;;;;;;;;;;;;;;;;;;;;;;;;;;;;;;;;;;;;;;;;;;;;;;;;;;1,000000;0,750000;0,000000;0,000000;0,000000;0,250000;0,250000;
97;;;;;;;;;;;;;;;;;;;;;;;;;;;;;;;;;;;;;;;;;;;;;;;;;;;;;;;;;;;;;;;;;;;;;;;;;;;;;;;;;;;;;;;;;;;;;;;;;1,000000;0,000000;0,000000;0,000000;0,250000;0,250000;
98;;;;;;;;;;;;;;;;;;;;;;;;;;;;;;;;;;;;;;;;;;;;;;;;;;;;;;;;;;;;;;;;;;;;;;;;;;;;;;;;;;;;;;;;;;;;;;;;;;1,000000;0,666667;0,666667;0,000000;0,000000;
99;;;;;;;;;;;;;;;;;;;;;;;;;;;;;;;;;;;;;;;;;;;;;;;;;;;;;;;;;;;;;;;;;;;;;;;;;;;;;;;;;;;;;;;;;;;;;;;;;;;1,000000;0,666667;0,000000;0,000000;
100;;;;;;;;;;;;;;;;;;;;;;;;;;;;;;;;;;;;;;;;;;;;;;;;;;;;;;;;;;;;;;;;;;;;;;;;;;;;;;;;;;;;;;;;;;;;;;;;;;;;1,000000;0,000000;0,000000;
101;;;;;;;;;;;;;;;;;;;;;;;;;;;;;;;;;;;;;;;;;;;;;;;;;;;;;;;;;;;;;;;;;;;;;;;;;;;;;;;;;;;;;;;;;;;;;;;;;;;;;1,000000;0,750000;
102;;;;;;;;;;;;;;;;;;;;;;;;;;;;;;;;;;;;;;;;;;;;;;;;;;;;;;;;;;;;;;;;;;;;;;;;;;;;;;;;;;;;;;;;;;;;;;;;;;;;;;1,000000;
