;1; 2; 3; 4; 5; 6; 7; 8; 9; 10; 11; 12; 13; 14; 15; 16; 17; 18; 19; 20; 21; 22; 23; 24; 25; 26; 27; 28; 29; 30; 31; 32; 33; 34; 35; 36; 37; 38; 39; 40; 41; 42; 43; 44; 45; 46; 47; 48; 49; 50; 51; 52; 53; 54
1;1,000000;0,565245;0,397725;0,578218;0,553647;0,553647;0,614168;0,629541;0,584544;0,615747;0,578013;0,578013;0,578013;0,501818;0,493723;0,493723;0,365012;0,578562;0,593841;0,578562;0,397725;0,517507;0,517507;0,554795;0,397725;0,528276;0,537627;0,537627;0,524114;0,620283;0,360026;0,360026;0,422296;0,422296;0,422296;0,486398;0,486398;0,610880;0,610880;0,343722;0,267340;0,409521;0,409521;0,409521;0,362534;0,362534;0,364679;0,364679;0,364679;0,486398;0,486398;0,486398;0,486398;0,417196;
2;;1,000000;0,444052;0,636300;0,607396;0,607396;0,595591;0,643160;0,725856;0,712511;0,631480;0,631480;0,631480;0,553050;0,369401;0,369401;0,545348;0,631415;0,523016;0,631415;0,444052;0,568721;0,568721;0,609295;0,444052;0,498802;0,581281;0,581281;0,565328;0,718101;0,532810;0,532810;0,481995;0,481995;0,481995;0,534043;0,534043;0,643307;0,643307;0,397069;0,444052;0,448557;0,448557;0,448557;0,360718;0,360718;0,360718;0,360718;0,360718;0,534043;0,534043;0,534043;0,534043;0,582688;
3;;;1,000000;0,742332;0,750000;0,750000;0,761842;0,700000;0,669301;0,652134;0,700000;0,700000;0,700000;0,833333;0,416667;0,416667;0,867001;0,700000;0,664850;0,700000;1,000000;0,802733;0,802733;0,750000;1,000000;0,711918;0,750000;0,750000;0,833333;0,652134;0,416667;0,416667;0,375000;0,375000;0,375000;0,833333;0,833333;0,700000;0,700000;0,453017;0,500000;0,375000;0,375000;0,375000;0,416667;0,416667;0,416667;0,416667;0,416667;0,833333;0,833333;0,833333;0,833333;0,876473;
4;;;;1,000000;0,669636;0,669636;0,504173;0,442332;0,411633;0,394465;0,690341;0,690341;0,690341;0,575665;0,287833;0,287833;0,609332;0,690244;0,572892;0,690244;0,742332;0,545065;0,545065;0,492332;0,742332;0,454249;0,492332;0,492332;0,575665;0,394465;0,287833;0,287833;0,246166;0,246166;0,246166;0,575665;0,575665;0,442332;0,442332;0,324183;0,371166;0,395037;0,395037;0,395037;0,287833;0,287833;0,287833;0,287833;0,287833;0,575665;0,575665;0,575665;0,575665;0,618805;
5;;;;;1,000000;0,750000;0,511842;0,450000;0,419301;0,402134;0,675000;0,675000;0,675000;0,875000;0,291667;0,291667;0,617001;0,675000;0,596559;0,675000;0,750000;0,552733;0,552733;0,500000;0,750000;0,461918;0,500000;0,500000;0,583333;0,402134;0,291667;0,291667;0,250000;0,250000;0,250000;0,583333;0,583333;0,450000;0,450000;0,328017;0,375000;0,250000;0,250000;0,250000;0,291667;0,291667;0,291667;0,291667;0,291667;0,583333;0,583333;0,583333;0,583333;0,626473;
6;;;;;;1,000000;0,511842;0,450000;0,419301;0,402134;0,675000;0,675000;0,675000;0,875000;0,291667;0,291667;0,617001;0,675000;0,596559;0,675000;0,750000;0,552733;0,552733;0,500000;0,750000;0,461918;0,500000;0,500000;0,583333;0,402134;0,291667;0,291667;0,250000;0,250000;0,250000;0,583333;0,583333;0,450000;0,450000;0,328017;0,375000;0,250000;0,250000;0,250000;0,291667;0,291667;0,291667;0,291667;0,291667;0,583333;0,583333;0,583333;0,583333;0,626473;
7;;;;;;;1,000000;0,753013;0,729039;0,748558;0,461842;0,461842;0,461842;0,595175;0,264268;0,264268;0,628842;0,461842;0,426692;0,461842;0,761842;0,564575;0,564575;0,511842;0,761842;0,473759;0,511842;0,511842;0,595175;0,762542;0,320212;0,320212;0,566611;0,566611;0,566611;0,595175;0,595175;0,719178;0,719178;0,356562;0,403545;0,278545;0,278545;0,278545;0,320212;0,320212;0,320212;0,320212;0,320212;0,595175;0,595175;0,595175;0,595175;0,804041;
8;;;;;;;;1,000000;0,763527;0,783616;0,400000;0,400000;0,400000;0,533333;0,266667;0,266667;0,567001;0,400000;0,364850;0,400000;0,700000;0,502733;0,502733;0,450000;0,700000;0,411918;0,450000;0,450000;0,800000;0,936787;0,266667;0,266667;0,450000;0,450000;0,450000;0,533333;0,533333;0,600000;0,600000;0,303017;0,350000;0,225000;0,225000;0,225000;0,266667;0,266667;0,266667;0,266667;0,266667;0,533333;0,533333;0,533333;0,533333;0,800000;
9;;;;;;;;;1,000000;0,747233;0,369301;0,369301;0,369301;0,502635;0,191103;0,191103;0,536302;0,369301;0,334151;0,369301;0,669301;0,472035;0,472035;0,419301;0,669301;0,381219;0,419301;0,419301;0,764700;0,713802;0,306413;0,306413;0,485033;0,485033;0,485033;0,502635;0,502635;0,734925;0,734925;0,342763;0,389746;0,264746;0,264746;0,264746;0,306413;0,306413;0,306413;0,306413;0,306413;0,502635;0,502635;0,502635;0,502635;0,545774;
10;;;;;;;;;;1,000000;0,352134;0,352134;0,352134;0,485467;0,195905;0,195905;0,519134;0,352134;0,316984;0,352134;0,652134;0,454867;0,454867;0,402134;0,652134;0,364051;0,402134;0,402134;0,767526;0,733805;0,282758;0,282758;0,482182;0,482182;0,482182;0,485467;0,485467;0,750276;0,750276;0,319108;0,366091;0,241091;0,241091;0,241091;0,282758;0,282758;0,282758;0,282758;0,282758;0,485467;0,485467;0,485467;0,485467;0,767393;
11;;;;;;;;;;;1,000000;0,800000;0,800000;0,800000;0,266667;0,266667;0,567001;0,600000;0,521559;0,600000;0,700000;0,502733;0,502733;0,450000;0,700000;0,411918;0,450000;0,450000;0,533333;0,352134;0,266667;0,266667;0,225000;0,225000;0,225000;0,533333;0,533333;0,400000;0,400000;0,303017;0,350000;0,225000;0,225000;0,225000;0,266667;0,266667;0,266667;0,266667;0,266667;0,533333;0,533333;0,533333;0,533333;0,576473;
12;;;;;;;;;;;;1,000000;0,800000;0,800000;0,266667;0,266667;0,567001;0,600000;0,521559;0,600000;0,700000;0,502733;0,502733;0,450000;0,700000;0,411918;0,450000;0,450000;0,533333;0,352134;0,266667;0,266667;0,225000;0,225000;0,225000;0,533333;0,533333;0,400000;0,400000;0,303017;0,350000;0,225000;0,225000;0,225000;0,266667;0,266667;0,266667;0,266667;0,266667;0,533333;0,533333;0,533333;0,533333;0,576473;
13;;;;;;;;;;;;;1,000000;0,800000;0,266667;0,266667;0,567001;0,600000;0,521559;0,600000;0,700000;0,502733;0,502733;0,450000;0,700000;0,411918;0,450000;0,450000;0,533333;0,352134;0,266667;0,266667;0,225000;0,225000;0,225000;0,533333;0,533333;0,400000;0,400000;0,303017;0,350000;0,225000;0,225000;0,225000;0,266667;0,266667;0,266667;0,266667;0,266667;0,533333;0,533333;0,533333;0,533333;0,576473;
14;;;;;;;;;;;;;;1,000000;0,333333;0,333333;0,700334;0,800000;0,721559;0,800000;0,833333;0,636067;0,636067;0,583333;0,833333;0,545251;0,583333;0,583333;0,666667;0,485467;0,333333;0,333333;0,291667;0,291667;0,291667;0,666667;0,666667;0,533333;0,533333;0,369684;0,416667;0,291667;0,291667;0,291667;0,333333;0,333333;0,333333;0,333333;0,333333;0,666667;0,666667;0,666667;0,666667;0,709806;
15;;;;;;;;;;;;;;;1,000000;0,666667;0,619527;0,266667;0,218598;0,266667;0,416667;0,318033;0,318033;0,291667;0,416667;0,230824;0,291667;0,291667;0,333333;0,195905;0,000000;0,000000;0,000000;0,000000;0,000000;0,333333;0,333333;0,266667;0,266667;0,000000;0,000000;0,000000;0,000000;0,000000;0,000000;0,000000;0,000000;0,000000;0,000000;0,333333;0,333333;0,333333;0,333333;0,284802;
16;;;;;;;;;;;;;;;;1,000000;0,619527;0,266667;0,218598;0,266667;0,416667;0,318033;0,318033;0,291667;0,416667;0,230824;0,291667;0,291667;0,333333;0,195905;0,000000;0,000000;0,000000;0,000000;0,000000;0,333333;0,333333;0,266667;0,266667;0,000000;0,000000;0,000000;0,000000;0,000000;0,000000;0,000000;0,000000;0,000000;0,000000;0,333333;0,333333;0,333333;0,333333;0,284802;
17;;;;;;;;;;;;;;;;;1,000000;0,567001;0,531851;0,567001;0,867001;0,669734;0,669734;0,617001;0,867001;0,578918;0,617001;0,617001;0,700334;0,519134;0,299312;0,299312;0,257646;0,257646;0,257646;0,700334;0,700334;0,567001;0,567001;0,335663;0,382646;0,257646;0,257646;0,257646;0,299312;0,299312;0,299312;0,299312;0,299312;0,700334;0,700334;0,700334;0,700334;0,743474;
18;;;;;;;;;;;;;;;;;;1,000000;0,681608;0,800000;0,700000;0,502733;0,502733;0,450000;0,700000;0,411918;0,450000;0,450000;0,533333;0,352134;0,266667;0,266667;0,225000;0,225000;0,225000;0,533333;0,533333;0,400000;0,400000;0,303017;0,350000;0,450000;0,450000;0,450000;0,266667;0,266667;0,266667;0,266667;0,266667;0,533333;0,533333;0,533333;0,533333;0,576473;
19;;;;;;;;;;;;;;;;;;;1,000000;0,681608;0,664850;0,467583;0,467583;0,414850;0,664850;0,376768;0,414850;0,414850;0,498183;0,316984;0,278530;0,278530;0,236863;0,236863;0,236863;0,498183;0,498183;0,364850;0,364850;0,314881;0,361863;0,624195;0,624195;0,624195;0,278530;0,278530;0,278530;0,278530;0,278530;0,498183;0,498183;0,498183;0,498183;0,541323;
20;;;;;;;;;;;;;;;;;;;;1,000000;0,700000;0,502733;0,502733;0,450000;0,700000;0,411918;0,450000;0,450000;0,533333;0,352134;0,266667;0,266667;0,225000;0,225000;0,225000;0,533333;0,533333;0,400000;0,400000;0,303017;0,350000;0,450000;0,450000;0,450000;0,266667;0,266667;0,266667;0,266667;0,266667;0,533333;0,533333;0,533333;0,533333;0,576473;
21;;;;;;;;;;;;;;;;;;;;;1,000000;0,802733;0,802733;0,750000;1,000000;0,711918;0,750000;0,750000;0,833333;0,652134;0,416667;0,416667;0,375000;0,375000;0,375000;0,833333;0,833333;0,700000;0,700000;0,453017;0,500000;0,375000;0,375000;0,375000;0,416667;0,416667;0,416667;0,416667;0,416667;0,833333;0,833333;0,833333;0,833333;0,876473;
22;;;;;;;;;;;;;;;;;;;;;;1,000000;0,699138;0,829100;0,802733;0,514651;0,552733;0,552733;0,636067;0,454867;0,318033;0,318033;0,276367;0,276367;0,276367;0,636067;0,636067;0,502733;0,502733;0,354384;0,401367;0,276367;0,276367;0,276367;0,318033;0,318033;0,318033;0,318033;0,318033;0,636067;0,636067;0,636067;0,636067;0,679206;
23;;;;;;;;;;;;;;;;;;;;;;;1,000000;0,829100;0,802733;0,514651;0,552733;0,552733;0,636067;0,454867;0,318033;0,318033;0,276367;0,276367;0,276367;0,636067;0,636067;0,502733;0,502733;0,354384;0,401367;0,276367;0,276367;0,276367;0,318033;0,318033;0,318033;0,318033;0,318033;0,636067;0,636067;0,636067;0,636067;0,679206;
24;;;;;;;;;;;;;;;;;;;;;;;;1,000000;0,750000;0,461918;0,500000;0,500000;0,583333;0,402134;0,291667;0,291667;0,250000;0,250000;0,250000;0,583333;0,583333;0,450000;0,450000;0,328017;0,375000;0,250000;0,250000;0,250000;0,291667;0,291667;0,291667;0,291667;0,291667;0,583333;0,583333;0,583333;0,583333;0,626473;
25;;;;;;;;;;;;;;;;;;;;;;;;;1,000000;0,711918;0,750000;0,750000;0,833333;0,652134;0,416667;0,416667;0,375000;0,375000;0,375000;0,833333;0,833333;0,700000;0,700000;0,453017;0,500000;0,375000;0,375000;0,375000;0,416667;0,416667;0,416667;0,416667;0,416667;0,833333;0,833333;0,833333;0,833333;0,876473;
26;;;;;;;;;;;;;;;;;;;;;;;;;;1,000000;0,659708;0,659708;0,545251;0,364051;0,563321;0,563321;0,269285;0,269285;0,269285;0,545251;0,545251;0,411918;0,411918;0,347303;0,394285;0,269285;0,269285;0,269285;0,310952;0,310952;0,310952;0,310952;0,310952;0,545251;0,545251;0,545251;0,545251;0,588391;
27;;;;;;;;;;;;;;;;;;;;;;;;;;;1,000000;0,750000;0,583333;0,402134;0,583333;0,583333;0,250000;0,250000;0,250000;0,583333;0,583333;0,450000;0,450000;0,328017;0,375000;0,250000;0,250000;0,250000;0,291667;0,291667;0,291667;0,291667;0,291667;0,583333;0,583333;0,583333;0,583333;0,626473;
28;;;;;;;;;;;;;;;;;;;;;;;;;;;;1,000000;0,583333;0,402134;0,583333;0,583333;0,250000;0,250000;0,250000;0,583333;0,583333;0,450000;0,450000;0,328017;0,375000;0,250000;0,250000;0,250000;0,291667;0,291667;0,291667;0,291667;0,291667;0,583333;0,583333;0,583333;0,583333;0,626473;
29;;;;;;;;;;;;;;;;;;;;;;;;;;;;;1,000000;0,767526;0,333333;0,333333;0,583333;0,583333;0,583333;0,666667;0,666667;0,800000;0,800000;0,369684;0,416667;0,291667;0,291667;0,291667;0,333333;0,333333;0,333333;0,333333;0,333333;0,666667;0,666667;0,666667;0,666667;0,709806;
30;;;;;;;;;;;;;;;;;;;;;;;;;;;;;;1,000000;0,282758;0,282758;0,482182;0,482182;0,482182;0,485467;0,485467;0,705032;0,705032;0,319108;0,366091;0,241091;0,241091;0,241091;0,282758;0,282758;0,282758;0,282758;0,282758;0,485467;0,485467;0,485467;0,485467;0,733564;
31;;;;;;;;;;;;;;;;;;;;;;;;;;;;;;;1,000000;0,666667;0,291667;0,291667;0,291667;0,333333;0,333333;0,266667;0,266667;0,369684;0,416667;0,291667;0,291667;0,291667;0,333333;0,333333;0,333333;0,333333;0,333333;0,333333;0,333333;0,333333;0,333333;0,416667;
32;;;;;;;;;;;;;;;;;;;;;;;;;;;;;;;;1,000000;0,291667;0,291667;0,291667;0,333333;0,333333;0,266667;0,266667;0,369684;0,416667;0,291667;0,291667;0,291667;0,333333;0,333333;0,333333;0,333333;0,333333;0,333333;0,333333;0,333333;0,333333;0,416667;
33;;;;;;;;;;;;;;;;;;;;;;;;;;;;;;;;;1,000000;0,750000;0,750000;0,291667;0,291667;0,450000;0,450000;0,328017;0,375000;0,250000;0,250000;0,250000;0,291667;0,291667;0,291667;0,291667;0,291667;0,291667;0,291667;0,291667;0,291667;0,375000;
34;;;;;;;;;;;;;;;;;;;;;;;;;;;;;;;;;;1,000000;0,750000;0,291667;0,291667;0,450000;0,450000;0,328017;0,375000;0,250000;0,250000;0,250000;0,291667;0,291667;0,291667;0,291667;0,291667;0,291667;0,291667;0,291667;0,291667;0,375000;
35;;;;;;;;;;;;;;;;;;;;;;;;;;;;;;;;;;;1,000000;0,291667;0,291667;0,450000;0,450000;0,328017;0,375000;0,250000;0,250000;0,250000;0,291667;0,291667;0,291667;0,291667;0,291667;0,291667;0,291667;0,291667;0,291667;0,375000;
36;;;;;;;;;;;;;;;;;;;;;;;;;;;;;;;;;;;;1,000000;0,666667;0,533333;0,533333;0,369684;0,416667;0,291667;0,291667;0,291667;0,333333;0,333333;0,333333;0,333333;0,333333;0,666667;0,666667;0,666667;0,666667;0,709806;
37;;;;;;;;;;;;;;;;;;;;;;;;;;;;;;;;;;;;;1,000000;0,533333;0,533333;0,369684;0,416667;0,291667;0,291667;0,291667;0,333333;0,333333;0,333333;0,333333;0,333333;0,666667;0,666667;0,666667;0,666667;0,709806;
38;;;;;;;;;;;;;;;;;;;;;;;;;;;;;;;;;;;;;;1,000000;0,800000;0,303017;0,350000;0,225000;0,225000;0,225000;0,266667;0,266667;0,266667;0,266667;0,266667;0,533333;0,533333;0,533333;0,533333;0,576473;
39;;;;;;;;;;;;;;;;;;;;;;;;;;;;;;;;;;;;;;;1,000000;0,303017;0,350000;0,225000;0,225000;0,225000;0,266667;0,266667;0,266667;0,266667;0,266667;0,533333;0,533333;0,533333;0,533333;0,576473;
40;;;;;;;;;;;;;;;;;;;;;;;;;;;;;;;;;;;;;;;;1,000000;0,453017;0,328017;0,328017;0,328017;0,633648;0,633648;0,369684;0,369684;0,369684;0,369684;0,369684;0,369684;0,369684;0,453017;
41;;;;;;;;;;;;;;;;;;;;;;;;;;;;;;;;;;;;;;;;;1,000000;0,375000;0,375000;0,375000;0,833333;0,833333;0,416667;0,416667;0,416667;0,416667;0,416667;0,416667;0,416667;0,500000;
42;;;;;;;;;;;;;;;;;;;;;;;;;;;;;;;;;;;;;;;;;;1,000000;0,750000;0,750000;0,291667;0,291667;0,291667;0,291667;0,291667;0,291667;0,291667;0,291667;0,291667;0,375000;
43;;;;;;;;;;;;;;;;;;;;;;;;;;;;;;;;;;;;;;;;;;;1,000000;0,750000;0,291667;0,291667;0,291667;0,291667;0,291667;0,291667;0,291667;0,291667;0,291667;0,375000;
44;;;;;;;;;;;;;;;;;;;;;;;;;;;;;;;;;;;;;;;;;;;;1,000000;0,291667;0,291667;0,291667;0,291667;0,291667;0,291667;0,291667;0,291667;0,291667;0,375000;
45;;;;;;;;;;;;;;;;;;;;;;;;;;;;;;;;;;;;;;;;;;;;;1,000000;0,666667;0,333333;0,333333;0,333333;0,333333;0,333333;0,333333;0,333333;0,416667;
46;;;;;;;;;;;;;;;;;;;;;;;;;;;;;;;;;;;;;;;;;;;;;;1,000000;0,333333;0,333333;0,333333;0,333333;0,333333;0,333333;0,333333;0,416667;
47;;;;;;;;;;;;;;;;;;;;;;;;;;;;;;;;;;;;;;;;;;;;;;;1,000000;0,666667;0,666667;0,333333;0,333333;0,333333;0,333333;0,416667;
48;;;;;;;;;;;;;;;;;;;;;;;;;;;;;;;;;;;;;;;;;;;;;;;;1,000000;0,666667;0,333333;0,333333;0,333333;0,333333;0,416667;
49;;;;;;;;;;;;;;;;;;;;;;;;;;;;;;;;;;;;;;;;;;;;;;;;;1,000000;0,333333;0,333333;0,333333;0,333333;0,416667;
50;;;;;;;;;;;;;;;;;;;;;;;;;;;;;;;;;;;;;;;;;;;;;;;;;;1,000000;0,666667;0,666667;0,666667;0,709806;
51;;;;;;;;;;;;;;;;;;;;;;;;;;;;;;;;;;;;;;;;;;;;;;;;;;;1,000000;0,666667;0,666667;0,709806;
52;;;;;;;;;;;;;;;;;;;;;;;;;;;;;;;;;;;;;;;;;;;;;;;;;;;;1,000000;0,666667;0,709806;
53;;;;;;;;;;;;;;;;;;;;;;;;;;;;;;;;;;;;;;;;;;;;;;;;;;;;;1,000000;0,709806;
54;;;;;;;;;;;;;;;;;;;;;;;;;;;;;;;;;;;;;;;;;;;;;;;;;;;;;;1,000000;
