;1; 2; 3; 4; 5; 6; 7; 8; 9; 10; 11; 12; 13; 14; 15; 16; 17; 18; 19; 20; 21; 22; 23; 24; 25; 26; 27; 28; 29; 30; 31; 32; 33; 34; 35; 36; 37; 38; 39; 40; 41; 42; 43; 44; 45; 46; 47; 48; 49; 50; 51; 52; 53; 54
1;1,000000;0,642988;0,497800;0,733182;0,737781;0,737781;0,695463;0,793445;0,676944;0,748888;0,792510;0,792510;0,792510;0,661766;0,661303;0,661303;0,432736;0,791891;0,749853;0,791891;0,495703;0,683114;0,683114;0,743851;0,497800;0,673929;0,742223;0,742223;0,661515;0,749765;0,661914;0,661914;0,741408;0,741408;0,741408;0,660831;0,660831;0,792759;0,792759;0,593965;0,497763;0,744247;0,744247;0,744247;0,665158;0,665158;0,666667;0,666667;0,666667;0,660831;0,660831;0,660831;0,660831;0,495237;
2;;1,000000;0,497283;0,731165;0,734983;0,734983;0,674080;0,791468;0,896082;0,894279;0,790743;0,790743;0,790743;0,660613;0,663996;0,663996;0,619259;0,790739;0,577483;0,790739;0,494721;0,679379;0,679379;0,742394;0,497283;0,576248;0,740678;0,740678;0,661373;0,894594;0,659378;0,659378;0,499609;0,499609;0,499609;0,659455;0,659455;0,791477;0,791477;0,406125;0,497283;0,497556;0,497556;0,497556;0,335518;0,335518;0,335518;0,335518;0,335518;0,659455;0,659455;0,659455;0,659455;0,748188;
3;;;1,000000;0,914111;0,833333;0,833333;0,952368;0,700000;0,867721;0,826067;0,700000;0,700000;0,700000;0,833333;0,416667;0,416667;0,933500;0,700000;0,776567;0,700000;1,000000;0,901367;0,901367;0,750000;1,000000;0,807945;0,750000;0,750000;0,833333;0,826067;0,416667;0,416667;0,375000;0,375000;0,375000;0,833333;0,833333;0,700000;0,700000;0,468678;0,500000;0,375000;0,375000;0,375000;0,416667;0,416667;0,416667;0,416667;0,416667;0,833333;0,833333;0,833333;0,833333;0,917649;
4;;;;1,000000;0,704078;0,704078;0,498599;0,414111;0,403519;0,371916;0,763447;0,763447;0,763447;0,636333;0,318166;0,318166;0,640500;0,763415;0,569553;0,763415;0,852761;0,560165;0,560165;0,497444;0,914111;0,441215;0,497444;0,497444;0,636333;0,371916;0,318166;0,318166;0,248722;0,248722;0,248722;0,636333;0,636333;0,414111;0,414111;0,359262;0,457055;0,465012;0,465012;0,465012;0,318166;0,318166;0,318166;0,318166;0,318166;0,636333;0,636333;0,636333;0,636333;0,676294;
5;;;;;1,000000;0,750000;0,504306;0,433333;0,446201;0,421707;0,650000;0,650000;0,650000;0,916667;0,305556;0,305556;0,593601;0,650000;0,596559;0,650000;0,750000;0,542187;0,542187;0,500000;0,833333;0,461918;0,500000;0,500000;0,611111;0,421707;0,305556;0,305556;0,250000;0,250000;0,250000;0,611111;0,611111;0,433333;0,433333;0,328017;0,416667;0,250000;0,250000;0,250000;0,305556;0,305556;0,305556;0,305556;0,305556;0,611111;0,611111;0,611111;0,611111;0,626473;
6;;;;;;1,000000;0,504306;0,433333;0,446201;0,421707;0,650000;0,650000;0,650000;0,916667;0,305556;0,305556;0,593601;0,650000;0,596559;0,650000;0,750000;0,542187;0,542187;0,500000;0,833333;0,461918;0,500000;0,500000;0,611111;0,421707;0,305556;0,305556;0,250000;0,250000;0,250000;0,611111;0,611111;0,433333;0,433333;0,328017;0,416667;0,250000;0,250000;0,250000;0,305556;0,305556;0,305556;0,305556;0,305556;0,611111;0,611111;0,611111;0,611111;0,626473;
7;;;;;;;1,000000;0,790603;0,728655;0,757852;0,412368;0,412368;0,412368;0,652368;0,334083;0,334083;0,681422;0,412368;0,364970;0,412368;0,913397;0,585021;0,585021;0,502368;0,952368;0,441989;0,502368;0,502368;0,652368;0,764905;0,330709;0,330709;0,713322;0,713322;0,713322;0,652368;0,652368;0,783836;0,783836;0,388045;0,480709;0,255709;0,255709;0,255709;0,330709;0,330709;0,330709;0,330709;0,330709;0,652368;0,652368;0,652368;0,652368;0,928742;
8;;;;;;;;1,000000;0,785411;0,791808;0,400000;0,400000;0,400000;0,533333;0,266667;0,266667;0,483500;0,400000;0,376567;0,400000;0,600000;0,451367;0,451367;0,450000;0,700000;0,407945;0,450000;0,450000;0,800000;0,968394;0,266667;0,266667;0,450000;0,450000;0,450000;0,533333;0,533333;0,600000;0,600000;0,268678;0,350000;0,225000;0,225000;0,225000;0,266667;0,266667;0,266667;0,266667;0,266667;0,533333;0,533333;0,533333;0,533333;0,733333;
9;;;;;;;;;1,000000;0,750097;0,387721;0,387721;0,387721;0,601054;0,306667;0,306667;0,564545;0,387721;0,332668;0,387721;0,779534;0,491096;0,491096;0,467721;0,867721;0,395424;0,467721;0,467721;0,905880;0,711909;0,322565;0,322565;0,494013;0,494013;0,494013;0,601054;0,601054;0,773970;0,773970;0,363854;0,455898;0,255898;0,255898;0,255898;0,322565;0,322565;0,322565;0,322565;0,322565;0,601054;0,601054;0,601054;0,601054;0,614832;
10;;;;;;;;;;1,000000;0,376067;0,376067;0,376067;0,576067;0,300000;0,300000;0,519134;0,376067;0,319527;0,376067;0,721707;0,454867;0,454867;0,451067;0,826067;0,376008;0,451067;0,451067;0,883763;0,733805;0,308046;0,308046;0,491091;0,491091;0,491091;0,576067;0,576067;0,775138;0,775138;0,336494;0,433046;0,245546;0,245546;0,245546;0,308046;0,308046;0,308046;0,308046;0,308046;0,576067;0,576067;0,576067;0,576067;0,813914;
11;;;;;;;;;;;1,000000;0,800000;0,800000;0,800000;0,266667;0,266667;0,483500;0,600000;0,547706;0,600000;0,600000;0,451367;0,451367;0,450000;0,700000;0,407945;0,450000;0,450000;0,533333;0,376067;0,266667;0,266667;0,225000;0,225000;0,225000;0,533333;0,533333;0,400000;0,400000;0,268678;0,350000;0,225000;0,225000;0,225000;0,266667;0,266667;0,266667;0,266667;0,266667;0,533333;0,533333;0,533333;0,533333;0,517649;
12;;;;;;;;;;;;1,000000;0,800000;0,800000;0,266667;0,266667;0,483500;0,600000;0,547706;0,600000;0,600000;0,451367;0,451367;0,450000;0,700000;0,407945;0,450000;0,450000;0,533333;0,376067;0,266667;0,266667;0,225000;0,225000;0,225000;0,533333;0,533333;0,400000;0,400000;0,268678;0,350000;0,225000;0,225000;0,225000;0,266667;0,266667;0,266667;0,266667;0,266667;0,533333;0,533333;0,533333;0,533333;0,517649;
13;;;;;;;;;;;;;1,000000;0,800000;0,266667;0,266667;0,483500;0,600000;0,547706;0,600000;0,600000;0,451367;0,451367;0,450000;0,700000;0,407945;0,450000;0,450000;0,533333;0,376067;0,266667;0,266667;0,225000;0,225000;0,225000;0,533333;0,533333;0,400000;0,400000;0,268678;0,350000;0,225000;0,225000;0,225000;0,266667;0,266667;0,266667;0,266667;0,266667;0,533333;0,533333;0,533333;0,533333;0,517649;
14;;;;;;;;;;;;;;1,000000;0,333333;0,333333;0,683500;0,800000;0,814373;0,800000;0,777778;0,651367;0,651367;0,583333;0,833333;0,585723;0,583333;0,583333;0,666667;0,576067;0,333333;0,333333;0,291667;0,291667;0,291667;0,666667;0,666667;0,533333;0,533333;0,357567;0,416667;0,291667;0,291667;0,291667;0,333333;0,333333;0,333333;0,333333;0,333333;0,666667;0,666667;0,666667;0,666667;0,695427;
15;;;;;;;;;;;;;;;1,000000;0,666667;0,643097;0,266667;0,288889;0,266667;0,388889;0,325683;0,325683;0,291667;0,416667;0,305556;0,291667;0,291667;0,333333;0,300000;0,000000;0,000000;0,000000;0,000000;0,000000;0,333333;0,333333;0,266667;0,266667;0,000000;0,000000;0,000000;0,000000;0,000000;0,000000;0,000000;0,000000;0,000000;0,000000;0,333333;0,333333;0,333333;0,333333;0,388889;
16;;;;;;;;;;;;;;;;1,000000;0,643097;0,266667;0,288889;0,266667;0,388889;0,325683;0,325683;0,291667;0,416667;0,305556;0,291667;0,291667;0,333333;0,300000;0,000000;0,000000;0,000000;0,000000;0,000000;0,333333;0,333333;0,266667;0,266667;0,000000;0,000000;0,000000;0,000000;0,000000;0,000000;0,000000;0,000000;0,000000;0,000000;0,333333;0,333333;0,333333;0,333333;0,388889;
17;;;;;;;;;;;;;;;;;1,000000;0,483500;0,491421;0,483500;0,893601;0,669734;0,669734;0,558500;0,933500;0,547902;0,558500;0,558500;0,683500;0,519134;0,375000;0,375000;0,312500;0,312500;0,312500;0,683500;0,683500;0,483500;0,483500;0,443621;0,500000;0,312500;0,312500;0,312500;0,375000;0,375000;0,375000;0,375000;0,375000;0,683500;0,683500;0,683500;0,683500;0,745368;
18;;;;;;;;;;;;;;;;;;1,000000;0,721072;0,800000;0,600000;0,451367;0,451367;0,450000;0,700000;0,407945;0,450000;0,450000;0,533333;0,376067;0,266667;0,266667;0,225000;0,225000;0,225000;0,533333;0,533333;0,400000;0,400000;0,268678;0,350000;0,450000;0,450000;0,450000;0,266667;0,266667;0,266667;0,266667;0,266667;0,533333;0,533333;0,533333;0,533333;0,517649;
19;;;;;;;;;;;;;;;;;;;1,000000;0,721072;0,664850;0,440007;0,440007;0,443233;0,776567;0,376768;0,443233;0,443233;0,554345;0,319527;0,296798;0,296798;0,241242;0,241242;0,241242;0,554345;0,554345;0,376567;0,376567;0,314881;0,407909;0,666130;0,666130;0,666130;0,296798;0,296798;0,296798;0,296798;0,296798;0,554345;0,554345;0,554345;0,554345;0,541323;
20;;;;;;;;;;;;;;;;;;;;1,000000;0,600000;0,451367;0,451367;0,450000;0,700000;0,407945;0,450000;0,450000;0,533333;0,376067;0,266667;0,266667;0,225000;0,225000;0,225000;0,533333;0,533333;0,400000;0,400000;0,268678;0,350000;0,450000;0,450000;0,450000;0,266667;0,266667;0,266667;0,266667;0,266667;0,533333;0,533333;0,533333;0,533333;0,517649;
21;;;;;;;;;;;;;;;;;;;;;1,000000;0,842187;0,842187;0,666667;1,000000;0,711918;0,666667;0,666667;0,777778;0,721707;0,388889;0,388889;0,333333;0,333333;0,333333;0,777778;0,777778;0,600000;0,600000;0,453017;0,500000;0,333333;0,333333;0,333333;0,388889;0,388889;0,388889;0,388889;0,388889;0,777778;0,777778;0,777778;0,777778;0,876473;
22;;;;;;;;;;;;;;;;;;;;;;1,000000;0,699138;0,789550;0,901367;0,496488;0,526367;0,526367;0,651367;0,454867;0,325683;0,325683;0,263183;0,263183;0,263183;0,651367;0,651367;0,451367;0,451367;0,364714;0,450683;0,263183;0,263183;0,263183;0,325683;0,325683;0,325683;0,325683;0,325683;0,651367;0,651367;0,651367;0,651367;0,693954;
23;;;;;;;;;;;;;;;;;;;;;;;1,000000;0,789550;0,901367;0,496488;0,526367;0,526367;0,651367;0,454867;0,325683;0,325683;0,263183;0,263183;0,263183;0,651367;0,651367;0,451367;0,451367;0,364714;0,450683;0,263183;0,263183;0,263183;0,325683;0,325683;0,325683;0,325683;0,325683;0,651367;0,651367;0,651367;0,651367;0,693954;
24;;;;;;;;;;;;;;;;;;;;;;;;1,000000;0,750000;0,474612;0,500000;0,500000;0,583333;0,451067;0,291667;0,291667;0,250000;0,250000;0,250000;0,583333;0,583333;0,450000;0,450000;0,302012;0,375000;0,250000;0,250000;0,250000;0,291667;0,291667;0,291667;0,291667;0,291667;0,583333;0,583333;0,583333;0,583333;0,584315;
25;;;;;;;;;;;;;;;;;;;;;;;;;1,000000;0,807945;0,750000;0,750000;0,833333;0,826067;0,416667;0,416667;0,375000;0,375000;0,375000;0,833333;0,833333;0,700000;0,700000;0,468678;0,500000;0,375000;0,375000;0,375000;0,416667;0,416667;0,416667;0,416667;0,416667;0,833333;0,833333;0,833333;0,833333;0,917649;
26;;;;;;;;;;;;;;;;;;;;;;;;;;1,000000;0,689805;0,689805;0,585723;0,376008;0,597770;0,597770;0,262857;0,262857;0,262857;0,585723;0,585723;0,407945;0,407945;0,347303;0,429523;0,262857;0,262857;0,262857;0,318412;0,318412;0,318412;0,318412;0,318412;0,585723;0,585723;0,585723;0,585723;0,588391;
27;;;;;;;;;;;;;;;;;;;;;;;;;;;1,000000;0,750000;0,583333;0,451067;0,583333;0,583333;0,250000;0,250000;0,250000;0,583333;0,583333;0,450000;0,450000;0,302012;0,375000;0,250000;0,250000;0,250000;0,291667;0,291667;0,291667;0,291667;0,291667;0,583333;0,583333;0,583333;0,583333;0,584315;
28;;;;;;;;;;;;;;;;;;;;;;;;;;;;1,000000;0,583333;0,451067;0,583333;0,583333;0,250000;0,250000;0,250000;0,583333;0,583333;0,450000;0,450000;0,302012;0,375000;0,250000;0,250000;0,250000;0,291667;0,291667;0,291667;0,291667;0,291667;0,583333;0,583333;0,583333;0,583333;0,584315;
29;;;;;;;;;;;;;;;;;;;;;;;;;;;;;1,000000;0,883763;0,333333;0,333333;0,583333;0,583333;0,583333;0,666667;0,666667;0,800000;0,800000;0,357567;0,416667;0,291667;0,291667;0,291667;0,333333;0,333333;0,333333;0,333333;0,333333;0,666667;0,666667;0,666667;0,666667;0,695427;
30;;;;;;;;;;;;;;;;;;;;;;;;;;;;;;1,000000;0,308046;0,308046;0,491091;0,491091;0,491091;0,576067;0,576067;0,752516;0,752516;0,336494;0,433046;0,245546;0,245546;0,245546;0,308046;0,308046;0,308046;0,308046;0,308046;0,576067;0,576067;0,576067;0,576067;0,786852;
31;;;;;;;;;;;;;;;;;;;;;;;;;;;;;;;1,000000;0,666667;0,291667;0,291667;0,291667;0,333333;0,333333;0,266667;0,266667;0,357567;0,416667;0,291667;0,291667;0,291667;0,333333;0,333333;0,333333;0,333333;0,333333;0,333333;0,333333;0,333333;0,333333;0,388889;
32;;;;;;;;;;;;;;;;;;;;;;;;;;;;;;;;1,000000;0,291667;0,291667;0,291667;0,333333;0,333333;0,266667;0,266667;0,357567;0,416667;0,291667;0,291667;0,291667;0,333333;0,333333;0,333333;0,333333;0,333333;0,333333;0,333333;0,333333;0,333333;0,388889;
33;;;;;;;;;;;;;;;;;;;;;;;;;;;;;;;;;1,000000;0,750000;0,750000;0,291667;0,291667;0,450000;0,450000;0,302012;0,375000;0,250000;0,250000;0,250000;0,291667;0,291667;0,291667;0,291667;0,291667;0,291667;0,291667;0,291667;0,291667;0,333333;
34;;;;;;;;;;;;;;;;;;;;;;;;;;;;;;;;;;1,000000;0,750000;0,291667;0,291667;0,450000;0,450000;0,302012;0,375000;0,250000;0,250000;0,250000;0,291667;0,291667;0,291667;0,291667;0,291667;0,291667;0,291667;0,291667;0,291667;0,333333;
35;;;;;;;;;;;;;;;;;;;;;;;;;;;;;;;;;;;1,000000;0,291667;0,291667;0,450000;0,450000;0,302012;0,375000;0,250000;0,250000;0,250000;0,291667;0,291667;0,291667;0,291667;0,291667;0,291667;0,291667;0,291667;0,291667;0,333333;
36;;;;;;;;;;;;;;;;;;;;;;;;;;;;;;;;;;;;1,000000;0,666667;0,533333;0,533333;0,357567;0,416667;0,291667;0,291667;0,291667;0,333333;0,333333;0,333333;0,333333;0,333333;0,666667;0,666667;0,666667;0,666667;0,695427;
37;;;;;;;;;;;;;;;;;;;;;;;;;;;;;;;;;;;;;1,000000;0,533333;0,533333;0,357567;0,416667;0,291667;0,291667;0,291667;0,333333;0,333333;0,333333;0,333333;0,333333;0,666667;0,666667;0,666667;0,666667;0,695427;
38;;;;;;;;;;;;;;;;;;;;;;;;;;;;;;;;;;;;;;1,000000;0,800000;0,268678;0,350000;0,225000;0,225000;0,225000;0,266667;0,266667;0,266667;0,266667;0,266667;0,533333;0,533333;0,533333;0,533333;0,517649;
39;;;;;;;;;;;;;;;;;;;;;;;;;;;;;;;;;;;;;;;1,000000;0,268678;0,350000;0,225000;0,225000;0,225000;0,266667;0,266667;0,266667;0,266667;0,266667;0,533333;0,533333;0,533333;0,533333;0,517649;
40;;;;;;;;;;;;;;;;;;;;;;;;;;;;;;;;;;;;;;;;1,000000;0,468678;0,302012;0,302012;0,302012;0,644654;0,644654;0,357567;0,357567;0,357567;0,357567;0,357567;0,357567;0,357567;0,453017;
41;;;;;;;;;;;;;;;;;;;;;;;;;;;;;;;;;;;;;;;;;1,000000;0,375000;0,375000;0,375000;0,833333;0,833333;0,416667;0,416667;0,416667;0,416667;0,416667;0,416667;0,416667;0,500000;
42;;;;;;;;;;;;;;;;;;;;;;;;;;;;;;;;;;;;;;;;;;1,000000;0,750000;0,750000;0,291667;0,291667;0,291667;0,291667;0,291667;0,291667;0,291667;0,291667;0,291667;0,333333;
43;;;;;;;;;;;;;;;;;;;;;;;;;;;;;;;;;;;;;;;;;;;1,000000;0,750000;0,291667;0,291667;0,291667;0,291667;0,291667;0,291667;0,291667;0,291667;0,291667;0,333333;
44;;;;;;;;;;;;;;;;;;;;;;;;;;;;;;;;;;;;;;;;;;;;1,000000;0,291667;0,291667;0,291667;0,291667;0,291667;0,291667;0,291667;0,291667;0,291667;0,333333;
45;;;;;;;;;;;;;;;;;;;;;;;;;;;;;;;;;;;;;;;;;;;;;1,000000;0,666667;0,333333;0,333333;0,333333;0,333333;0,333333;0,333333;0,333333;0,388889;
46;;;;;;;;;;;;;;;;;;;;;;;;;;;;;;;;;;;;;;;;;;;;;;1,000000;0,333333;0,333333;0,333333;0,333333;0,333333;0,333333;0,333333;0,388889;
47;;;;;;;;;;;;;;;;;;;;;;;;;;;;;;;;;;;;;;;;;;;;;;;1,000000;0,666667;0,666667;0,333333;0,333333;0,333333;0,333333;0,388889;
48;;;;;;;;;;;;;;;;;;;;;;;;;;;;;;;;;;;;;;;;;;;;;;;;1,000000;0,666667;0,333333;0,333333;0,333333;0,333333;0,388889;
49;;;;;;;;;;;;;;;;;;;;;;;;;;;;;;;;;;;;;;;;;;;;;;;;;1,000000;0,333333;0,333333;0,333333;0,333333;0,388889;
50;;;;;;;;;;;;;;;;;;;;;;;;;;;;;;;;;;;;;;;;;;;;;;;;;;1,000000;0,666667;0,666667;0,666667;0,695427;
51;;;;;;;;;;;;;;;;;;;;;;;;;;;;;;;;;;;;;;;;;;;;;;;;;;;1,000000;0,666667;0,666667;0,695427;
52;;;;;;;;;;;;;;;;;;;;;;;;;;;;;;;;;;;;;;;;;;;;;;;;;;;;1,000000;0,666667;0,695427;
53;;;;;;;;;;;;;;;;;;;;;;;;;;;;;;;;;;;;;;;;;;;;;;;;;;;;;1,000000;0,695427;
54;;;;;;;;;;;;;;;;;;;;;;;;;;;;;;;;;;;;;;;;;;;;;;;;;;;;;;1,000000;
