;1; 2; 3; 4; 5; 6; 7; 8; 9; 10; 11; 12; 13; 14; 15; 16; 17; 18; 19; 20; 21; 22; 23; 24; 25; 26; 27
1;1,000000;0,323832;0,303985;0,335989;0,000000;0,356250;0,364610;0,270247;0,276108;0,401378;0,405415;0,418045;0,435217;0,437555;0,439660;0,327146;0,421492;0,397002;0,398782;0,416024;0,259936;0,397433;0,398754;0,409774;0,410989;0,412118;0,413207;
2;;1,000000;0,318558;0,444335;0,625793;0,441585;0,449117;0,307997;0,307997;0,475330;0,479063;0,527115;0,216413;0,216974;0,217538;0,316705;0,364357;0,493750;0,493750;0,475313;0,332978;0,535433;0,535433;0,262827;0,263221;0,264561;0,264933;
3;;;1,000000;0,548313;0,609299;0,582782;0,582782;0,291502;0,291502;0,603963;0,603963;0,277654;0,199918;0,200479;0,201044;0,688479;0,606482;0,242332;0,242720;0,624527;0,316483;0,515841;0,517208;0,246332;0,246726;0,248066;0,248438;
4;;;;1,000000;0,579397;0,496324;0,496324;0,261600;0,261600;0,517505;0,517505;0,247752;0,170017;0,170577;0,171142;0,602021;0,520024;0,212430;0,212818;0,538069;0,286581;0,571988;0,571988;0,216430;0,216824;0,218164;0,218536;
5;;;;;1,000000;0,594286;0,596606;0,682204;0,682204;0,608418;0,609897;0,668356;0,590620;0,591181;0,591745;0,690912;0,674956;0,633034;0,633422;0,626033;0,707184;0,630434;0,631066;0,637034;0,637428;0,638767;0,639139;
6;;;;;;1,000000;0,530794;0,276489;0,276489;0,551974;0,551974;0,262641;0,184905;0,185466;0,186031;0,636491;0,554493;0,227319;0,227707;0,572539;0,301470;0,224719;0,225351;0,231319;0,231713;0,233053;0,233425;
7;;;;;;;1,000000;0,278810;0,278810;0,551974;0,551974;0,264962;0,187226;0,187787;0,188351;0,636491;0,554493;0,229640;0,230028;0,572539;0,303791;0,227040;0,227672;0,233640;0,234034;0,235374;0,235746;
8;;;;;;;;1,000000;0,364407;0,290621;0,292100;0,350559;0,272823;0,273384;0,273948;0,373115;0,357159;0,315237;0,315625;0,308236;0,389388;0,312637;0,313269;0,319237;0,319631;0,320971;0,321343;
9;;;;;;;;;1,000000;0,290621;0,292100;0,350559;0,272823;0,273384;0,273948;0,373115;0,357159;0,315237;0,315625;0,308236;0,389388;0,312637;0,313269;0,319237;0,319631;0,320971;0,321343;
10;;;;;;;;;;1,000000;0,573155;0,276773;0,199038;0,199598;0,200163;0,657671;0,575674;0,241452;0,241839;0,593719;0,315602;0,238852;0,239483;0,245451;0,245845;0,247185;0,247557;
11;;;;;;;;;;;1,000000;0,278252;0,200516;0,201077;0,201642;0,657671;0,575674;0,242930;0,243318;0,593719;0,317081;0,240330;0,240962;0,246930;0,247324;0,248664;0,249036;
12;;;;;;;;;;;;1,000000;0,623605;0,624731;0,625794;0,359267;0,343311;0,569820;0,569820;0,551383;0,375540;0,298789;0,299421;0,567754;0,568563;0,569103;0,569853;
13;;;;;;;;;;;;;1,000000;0,755264;0,757287;0,511999;0,496750;0,223653;0,224041;0,216652;0,715044;0,221053;0,221685;0,534703;0,534703;0,536998;0,536998;
14;;;;;;;;;;;;;;1,000000;0,759207;0,512636;0,497387;0,224214;0,224602;0,217213;0,715681;0,221614;0,222246;0,535339;0,535339;0,537635;0,537635;
15;;;;;;;;;;;;;;;1,000000;0,513315;0,498066;0,224779;0,225166;0,217778;0,716360;0,222179;0,222811;0,536018;0,536018;0,538313;0,538313;
16;;;;;;;;;;;;;;;;1,000000;0,909497;0,323945;0,324333;0,678236;0,796955;0,321345;0,321977;0,616613;0,616613;0,618909;0,618909;
17;;;;;;;;;;;;;;;;;1,000000;0,581940;0,582804;0,596238;0,781706;0,305390;0,306021;0,601365;0,601365;0,603660;0,603660;
18;;;;;;;;;;;;;;;;;;1,000000;0,630939;0,612502;0,340218;0,263467;0,264099;0,270067;0,270461;0,271801;0,272173;
19;;;;;;;;;;;;;;;;;;;1,000000;0,612502;0,340606;0,263855;0,264487;0,270455;0,270849;0,272189;0,272561;
20;;;;;;;;;;;;;;;;;;;;1,000000;0,333217;0,256466;0,257098;0,263066;0,263460;0,264800;0,265172;
21;;;;;;;;;;;;;;;;;;;;;1,000000;0,337618;0,338250;0,819658;0,819658;0,821954;0,821954;
22;;;;;;;;;;;;;;;;;;;;;;1,000000;0,663086;0,267467;0,267861;0,269201;0,269573;
23;;;;;;;;;;;;;;;;;;;;;;;1,000000;0,268099;0,268493;0,269833;0,270205;
24;;;;;;;;;;;;;;;;;;;;;;;;1,000000;0,639317;0,641612;0,641612;
25;;;;;;;;;;;;;;;;;;;;;;;;;1,000000;0,641612;0,641612;
26;;;;;;;;;;;;;;;;;;;;;;;;;;1,000000;0,643907;
27;;;;;;;;;;;;;;;;;;;;;;;;;;;1,000000;
