<?xml version="1.0" encoding="UTF-8" standalone="no"?>
<!-- Created by igraph (http://igraph.org/) for use in Inkscape (http://www.inkscape.org/) -->

<svg xmlns:dc="http://purl.org/dc/elements/1.1/" xmlns:cc="http://creativecommons.org/ns#" xmlns:rdf="http://www.w3.org/1999/02/22-rdf-syntax-ns#" xmlns:svg="http://www.w3.org/2000/svg" xmlns="http://www.w3.org/2000/svg" xmlns:sodipodi="http://sodipodi.sourceforge.net/DTD/sodipodi-0.dtd" xmlns:inkscape="http://www.inkscape.org/namespaces/inkscape"
width="400px" height="400px"> <defs id="defs3">
<marker
   inkscape:stockid="Arrow2Lend0"
   orient="auto"
   refY="0.0"
   refX="0.0"
   id="Arrow2Lend0"
   style="overflow:visible;">
  <path
     id="pathArrow0"
     style="font-size:12.0;fill-rule:evenodd;stroke-width:0.62500000;stroke-linejoin:round;fill:black"
     d="M 8.7185878,4.0337352 L -2.2072895,0.016013256 L 8.7185884,-4.0017078 C 6.9730900,-1.6296469 6.9831476,1.6157441 8.7185878,4.0337352 z "
     transform="scale(1.1) rotate(180) translate(1,0)" />
</marker>
</defs>
<g inkscape:groupmode="layer" id="layer2" inkscape:label="Lines" sodipodi:insensitive="true">
<path
    style="fill:none;stroke:black;stroke-width:2;stroke-linecap:butt;stroke-linejoin:miter;stroke-miterlimit:4;stroke-opacity:1;stroke-dasharray:none"
    d="M 376.56151281498893,177.37085934742717 327.00468429359086,213.51633330240628"
    id="path0"
    inkscape:connector-type="polyline"
    inkscape:connector-curvature="0"
    inkscape:connection-start="#g0"
    inkscape:connection-start-point="d4"
    inkscape:connection-end="#g1"
    inkscape:connection-end-point="d4" />
<path
    style="fill:none;stroke:black;stroke-width:2;stroke-linecap:butt;stroke-linejoin:miter;stroke-miterlimit:4;stroke-opacity:1;stroke-dasharray:none"
    d="M 376.56151281498893,177.37085934742717 335.6718096507237,187.4900596693212"
    id="path1"
    inkscape:connector-type="polyline"
    inkscape:connector-curvature="0"
    inkscape:connection-start="#g0"
    inkscape:connection-start-point="d4"
    inkscape:connection-end="#g2"
    inkscape:connection-end-point="d4" />
<path
    style="fill:none;stroke:black;stroke-width:2;stroke-linecap:butt;stroke-linejoin:miter;stroke-miterlimit:4;stroke-opacity:1;stroke-dasharray:none"
    d="M 376.56151281498893,177.37085934742717 378.7244554898233,189.8060317715206"
    id="path2"
    inkscape:connector-type="polyline"
    inkscape:connector-curvature="0"
    inkscape:connection-start="#g0"
    inkscape:connection-start-point="d4"
    inkscape:connection-end="#g3"
    inkscape:connection-end-point="d4" />
<path
    style="fill:none;stroke:black;stroke-width:2;stroke-linecap:butt;stroke-linejoin:miter;stroke-miterlimit:4;stroke-opacity:1;stroke-dasharray:none"
    d="M 376.56151281498893,177.37085934742717 333.3373329545536,172.6859992900953"
    id="path3"
    inkscape:connector-type="polyline"
    inkscape:connector-curvature="0"
    inkscape:connection-start="#g0"
    inkscape:connection-start-point="d4"
    inkscape:connection-end="#g4"
    inkscape:connection-end-point="d4" />
<path
    style="fill:none;stroke:black;stroke-width:2;stroke-linecap:butt;stroke-linejoin:miter;stroke-miterlimit:4;stroke-opacity:1;stroke-dasharray:none"
    d="M 318.92540741661867,219.40914970419777 323.6448768974759,199.61955789182525"
    id="path4"
    inkscape:connector-type="polyline"
    inkscape:connector-curvature="0"
    inkscape:connection-start="#g1"
    inkscape:connection-start-point="d4"
    inkscape:connection-end="#g2"
    inkscape:connection-end-point="d4" />
<path
    style="fill:none;stroke:black;stroke-width:2;stroke-linecap:butt;stroke-linejoin:miter;stroke-miterlimit:4;stroke-opacity:1;stroke-dasharray:none"
    d="M 318.92540741661867,219.40914970419777 370.91687357105127,202.71526878426516"
    id="path5"
    inkscape:connector-type="polyline"
    inkscape:connector-curvature="0"
    inkscape:connection-start="#g1"
    inkscape:connection-start-point="d4"
    inkscape:connection-end="#g3"
    inkscape:connection-end-point="d4" />
<path
    style="fill:none;stroke:black;stroke-width:2;stroke-linecap:butt;stroke-linejoin:miter;stroke-miterlimit:4;stroke-opacity:1;stroke-dasharray:none"
    d="M 318.92540741661867,219.40914970419777 322.46445547307314,181.5650163593309"
    id="path6"
    inkscape:connector-type="polyline"
    inkscape:connector-curvature="0"
    inkscape:connection-start="#g1"
    inkscape:connection-start-point="d4"
    inkscape:connection-end="#g4"
    inkscape:connection-end-point="d4" />
<path
    style="fill:none;stroke:black;stroke-width:2;stroke-linecap:butt;stroke-linejoin:miter;stroke-miterlimit:4;stroke-opacity:1;stroke-dasharray:none"
    d="M 325.96464604307585,189.8923449759319 370.59502709035115,197.89348525073282"
    id="path7"
    inkscape:connector-type="polyline"
    inkscape:connector-curvature="0"
    inkscape:connection-start="#g2"
    inkscape:connection-start-point="d4"
    inkscape:connection-end="#g3"
    inkscape:connection-end-point="d4" />
<path
    style="fill:none;stroke:black;stroke-width:2;stroke-linecap:butt;stroke-linejoin:miter;stroke-miterlimit:4;stroke-opacity:1;stroke-dasharray:none"
    d="M 325.96464604307585,189.8923449759319 324.78699935148273,181.51117951841312"
    id="path8"
    inkscape:connector-type="polyline"
    inkscape:connector-curvature="0"
    inkscape:connection-start="#g2"
    inkscape:connection-start-point="d4"
    inkscape:connection-end="#g4"
    inkscape:connection-end-point="d4" />
<path
    style="fill:none;stroke:black;stroke-width:2;stroke-linecap:butt;stroke-linejoin:miter;stroke-miterlimit:4;stroke-opacity:1;stroke-dasharray:none"
    d="M 380.43810101173904,199.65810866044194 332.36930975764267,176.02114052116588"
    id="path9"
    inkscape:connector-type="polyline"
    inkscape:connector-curvature="0"
    inkscape:connection-start="#g3"
    inkscape:connection-start-point="d4"
    inkscape:connection-end="#g4"
    inkscape:connection-end-point="d4" />
<path
    style="fill:none;stroke:black;stroke-width:2;stroke-linecap:butt;stroke-linejoin:miter;stroke-miterlimit:4;stroke-opacity:1;stroke-dasharray:none"
    d="M 318.92540741661867,219.40914970419777 329.3687030991511,261.4132153089069"
    id="path10"
    inkscape:connector-type="polyline"
    inkscape:connector-curvature="0"
    inkscape:connection-start="#g1"
    inkscape:connection-start-point="d4"
    inkscape:connection-end="#g5"
    inkscape:connection-end-point="d4" />
<path
    style="fill:none;stroke:black;stroke-width:2;stroke-linecap:butt;stroke-linejoin:miter;stroke-miterlimit:4;stroke-opacity:1;stroke-dasharray:none"
    d="M 318.92540741661867,219.40914970419777 284.6460633349103,253.46215870442083"
    id="path11"
    inkscape:connector-type="polyline"
    inkscape:connector-curvature="0"
    inkscape:connection-start="#g1"
    inkscape:connection-start-point="d4"
    inkscape:connection-end="#g6"
    inkscape:connection-end-point="d4" />
<path
    style="fill:none;stroke:black;stroke-width:2;stroke-linecap:butt;stroke-linejoin:miter;stroke-miterlimit:4;stroke-opacity:1;stroke-dasharray:none"
    d="M 331.78150606699694,271.11777000442765 287.3656144937795,262.4295004067725"
    id="path12"
    inkscape:connector-type="polyline"
    inkscape:connector-curvature="0"
    inkscape:connection-start="#g5"
    inkscape:connection-start-point="d4"
    inkscape:connection-end="#g6"
    inkscape:connection-end-point="d4" />
<path
    style="fill:none;stroke:black;stroke-width:2;stroke-linecap:butt;stroke-linejoin:miter;stroke-miterlimit:4;stroke-opacity:1;stroke-dasharray:none"
    d="M 318.92540741661867,219.40914970419777 380.0408387340933,224.94947666965652"
    id="path13"
    inkscape:connector-type="polyline"
    inkscape:connector-curvature="0"
    inkscape:connection-start="#g1"
    inkscape:connection-start-point="d4"
    inkscape:connection-end="#g7"
    inkscape:connection-end-point="d4" />
<path
    style="fill:none;stroke:black;stroke-width:2;stroke-linecap:butt;stroke-linejoin:miter;stroke-miterlimit:4;stroke-opacity:1;stroke-dasharray:none"
    d="M 390.0,225.85230936715035 371.2974265312728,250.12531080058727"
    id="path14"
    inkscape:connector-type="polyline"
    inkscape:connector-curvature="0"
    inkscape:connection-start="#g7"
    inkscape:connection-start-point="d4"
    inkscape:connection-end="#g8"
    inkscape:connection-end-point="d4" />
<path
    style="fill:none;stroke:black;stroke-width:2;stroke-linecap:butt;stroke-linejoin:miter;stroke-miterlimit:4;stroke-opacity:1;stroke-dasharray:none"
    d="M 318.92540741661867,219.40914970419777 357.5183071826262,251.63694366597454"
    id="path15"
    inkscape:connector-type="polyline"
    inkscape:connector-curvature="0"
    inkscape:connection-start="#g1"
    inkscape:connection-start-point="d4"
    inkscape:connection-end="#g8"
    inkscape:connection-end-point="d4" />
<path
    style="fill:none;stroke:black;stroke-width:2;stroke-linecap:butt;stroke-linejoin:miter;stroke-miterlimit:4;stroke-opacity:1;stroke-dasharray:none"
    d="M 254.4064637163387,187.53568682548396 285.73726255862874,196.13289951459362"
    id="path16"
    inkscape:connector-type="polyline"
    inkscape:connector-curvature="0"
    inkscape:connection-start="#g9"
    inkscape:connection-start-point="d4"
    inkscape:connection-end="#g10"
    inkscape:connection-end-point="d4" />
<path
    style="fill:none;stroke:black;stroke-width:2;stroke-linecap:butt;stroke-linejoin:miter;stroke-miterlimit:4;stroke-opacity:1;stroke-dasharray:none"
    d="M 318.92540741661867,219.40914970419777 263.3720887817355,191.96485911686403"
    id="path17"
    inkscape:connector-type="polyline"
    inkscape:connector-curvature="0"
    inkscape:connection-start="#g1"
    inkscape:connection-start-point="d4"
    inkscape:connection-end="#g9"
    inkscape:connection-end-point="d4" />
<path
    style="fill:none;stroke:black;stroke-width:2;stroke-linecap:butt;stroke-linejoin:miter;stroke-miterlimit:4;stroke-opacity:1;stroke-dasharray:none"
    d="M 325.96464604307585,189.8923449759319 264.4010450616292,187.86484291667904"
    id="path18"
    inkscape:connector-type="polyline"
    inkscape:connector-curvature="0"
    inkscape:connection-start="#g2"
    inkscape:connection-start-point="d4"
    inkscape:connection-end="#g9"
    inkscape:connection-end-point="d4" />
<path
    style="fill:none;stroke:black;stroke-width:2;stroke-linecap:butt;stroke-linejoin:miter;stroke-miterlimit:4;stroke-opacity:1;stroke-dasharray:none"
    d="M 323.3955571934002,171.6084582398599 264.1501692749279,185.28619755288952"
    id="path19"
    inkscape:connector-type="polyline"
    inkscape:connector-curvature="0"
    inkscape:connection-start="#g4"
    inkscape:connection-start-point="d4"
    inkscape:connection-end="#g9"
    inkscape:connection-end-point="d4" />
<path
    style="fill:none;stroke:black;stroke-width:2;stroke-linecap:butt;stroke-linejoin:miter;stroke-miterlimit:4;stroke-opacity:1;stroke-dasharray:none"
    d="M 318.92540741661867,219.40914970419777 302.9020421879923,205.36929991968293"
    id="path20"
    inkscape:connector-type="polyline"
    inkscape:connector-curvature="0"
    inkscape:connection-start="#g1"
    inkscape:connection-start-point="d4"
    inkscape:connection-end="#g10"
    inkscape:connection-end-point="d4" />
<path
    style="fill:none;stroke:black;stroke-width:2;stroke-linecap:butt;stroke-linejoin:miter;stroke-miterlimit:4;stroke-opacity:1;stroke-dasharray:none"
    d="M 325.96464604307585,189.8923449759319 304.98361682570356,195.9888031664383"
    id="path21"
    inkscape:connector-type="polyline"
    inkscape:connector-curvature="0"
    inkscape:connection-start="#g2"
    inkscape:connection-start-point="d4"
    inkscape:connection-end="#g10"
    inkscape:connection-end-point="d4" />
<path
    style="fill:none;stroke:black;stroke-width:2;stroke-linecap:butt;stroke-linejoin:miter;stroke-miterlimit:4;stroke-opacity:1;stroke-dasharray:none"
    d="M 323.3955571934002,171.6084582398599 302.5591797039817,191.81700369897055"
    id="path22"
    inkscape:connector-type="polyline"
    inkscape:connector-curvature="0"
    inkscape:connection-start="#g4"
    inkscape:connection-start-point="d4"
    inkscape:connection-end="#g10"
    inkscape:connection-end-point="d4" />
<path
    style="fill:none;stroke:black;stroke-width:2;stroke-linecap:butt;stroke-linejoin:miter;stroke-miterlimit:4;stroke-opacity:1;stroke-dasharray:none"
    d="M 318.92540741661867,219.40914970419777 323.6448768974759,199.61955789182525"
    id="path23"
    inkscape:connector-type="polyline"
    inkscape:connector-curvature="0"
    inkscape:connection-start="#g1"
    inkscape:connection-start-point="d4"
    inkscape:connection-end="#g2"
    inkscape:connection-end-point="d4" />
<path
    style="fill:none;stroke:black;stroke-width:2;stroke-linecap:butt;stroke-linejoin:miter;stroke-miterlimit:4;stroke-opacity:1;stroke-dasharray:none"
    d="M 318.92540741661867,219.40914970419777 322.46445547307314,181.5650163593309"
    id="path24"
    inkscape:connector-type="polyline"
    inkscape:connector-curvature="0"
    inkscape:connection-start="#g1"
    inkscape:connection-start-point="d4"
    inkscape:connection-end="#g4"
    inkscape:connection-end-point="d4" />
<path
    style="fill:none;stroke:black;stroke-width:2;stroke-linecap:butt;stroke-linejoin:miter;stroke-miterlimit:4;stroke-opacity:1;stroke-dasharray:none"
    d="M 325.96464604307585,189.8923449759319 324.78699935148273,181.51117951841312"
    id="path25"
    inkscape:connector-type="polyline"
    inkscape:connector-curvature="0"
    inkscape:connection-start="#g2"
    inkscape:connection-start-point="d4"
    inkscape:connection-end="#g4"
    inkscape:connection-end-point="d4" />
<path
    style="fill:none;stroke:black;stroke-width:2;stroke-linecap:butt;stroke-linejoin:miter;stroke-miterlimit:4;stroke-opacity:1;stroke-dasharray:none"
    d="M 129.70415164416448,92.40981950160169 79.90432022749744,112.80730763919824"
    id="path26"
    inkscape:connector-type="polyline"
    inkscape:connector-curvature="0"
    inkscape:connection-start="#g11"
    inkscape:connection-start-point="d4"
    inkscape:connection-end="#g12"
    inkscape:connection-end-point="d4" />
<path
    style="fill:none;stroke:black;stroke-width:2;stroke-linecap:butt;stroke-linejoin:miter;stroke-miterlimit:4;stroke-opacity:1;stroke-dasharray:none"
    d="M 129.70415164416448,92.40981950160169 104.15909862468196,96.78508133632873"
    id="path27"
    inkscape:connector-type="polyline"
    inkscape:connector-curvature="0"
    inkscape:connection-start="#g11"
    inkscape:connection-start-point="d4"
    inkscape:connection-end="#g13"
    inkscape:connection-end-point="d4" />
<path
    style="fill:none;stroke:black;stroke-width:2;stroke-linecap:butt;stroke-linejoin:miter;stroke-miterlimit:4;stroke-opacity:1;stroke-dasharray:none"
    d="M 129.70415164416448,92.40981950160169 133.23516260206216,127.11089449633646"
    id="path28"
    inkscape:connector-type="polyline"
    inkscape:connector-curvature="0"
    inkscape:connection-start="#g11"
    inkscape:connection-start-point="d4"
    inkscape:connection-end="#g14"
    inkscape:connection-end-point="d4" />
<path
    style="fill:none;stroke:black;stroke-width:2;stroke-linecap:butt;stroke-linejoin:miter;stroke-miterlimit:4;stroke-opacity:1;stroke-dasharray:none"
    d="M 70.65046841684244,116.59758819166892 86.36510539608383,104.55567559102262"
    id="path29"
    inkscape:connector-type="polyline"
    inkscape:connector-curvature="0"
    inkscape:connection-start="#g12"
    inkscape:connection-start-point="d4"
    inkscape:connection-end="#g13"
    inkscape:connection-end-point="d4" />
<path
    style="fill:none;stroke:black;stroke-width:2;stroke-linecap:butt;stroke-linejoin:miter;stroke-miterlimit:4;stroke-opacity:1;stroke-dasharray:none"
    d="M 70.65046841684244,116.59758819166892 124.7280746167709,133.9967127183515"
    id="path30"
    inkscape:connector-type="polyline"
    inkscape:connector-curvature="0"
    inkscape:connection-start="#g12"
    inkscape:connection-start-point="d4"
    inkscape:connection-end="#g14"
    inkscape:connection-end-point="d4" />
<path
    style="fill:none;stroke:black;stroke-width:2;stroke-linecap:butt;stroke-linejoin:miter;stroke-miterlimit:4;stroke-opacity:1;stroke-dasharray:none"
    d="M 94.30262621839894,98.47326133389461 127.0551641570947,130.11182480705483"
    id="path31"
    inkscape:connector-type="polyline"
    inkscape:connector-curvature="0"
    inkscape:connection-start="#g13"
    inkscape:connection-start-point="d4"
    inkscape:connection-end="#g14"
    inkscape:connection-end-point="d4" />
<path
    style="fill:none;stroke:black;stroke-width:2;stroke-linecap:butt;stroke-linejoin:miter;stroke-miterlimit:4;stroke-opacity:1;stroke-dasharray:none"
    d="M 10.0,191.27864978876764 17.995294756347867,181.4640892838299"
    id="path32"
    inkscape:connector-type="polyline"
    inkscape:connector-curvature="0"
    inkscape:connection-start="#g15"
    inkscape:connection-start-point="d4"
    inkscape:connection-end="#g16"
    inkscape:connection-end-point="d4" />
<path
    style="fill:none;stroke:black;stroke-width:2;stroke-linecap:butt;stroke-linejoin:miter;stroke-miterlimit:4;stroke-opacity:1;stroke-dasharray:none"
    d="M 10.0,191.27864978876764 70.34215653710517,197.45338189848064"
    id="path33"
    inkscape:connector-type="polyline"
    inkscape:connector-curvature="0"
    inkscape:connection-start="#g15"
    inkscape:connection-start-point="d4"
    inkscape:connection-end="#g17"
    inkscape:connection-end-point="d4" />
<path
    style="fill:none;stroke:black;stroke-width:2;stroke-linecap:butt;stroke-linejoin:miter;stroke-miterlimit:4;stroke-opacity:1;stroke-dasharray:none"
    d="M 10.0,191.27864978876764 11.40323366449792,202.20464200164784"
    id="path34"
    inkscape:connector-type="polyline"
    inkscape:connector-curvature="0"
    inkscape:connection-start="#g15"
    inkscape:connection-start-point="d4"
    inkscape:connection-end="#g18"
    inkscape:connection-end-point="d4" />
<path
    style="fill:none;stroke:black;stroke-width:2;stroke-linecap:butt;stroke-linejoin:miter;stroke-miterlimit:4;stroke-opacity:1;stroke-dasharray:none"
    d="M 10.0,191.27864978876764 25.57226637342882,219.5056813849774"
    id="path35"
    inkscape:connector-type="polyline"
    inkscape:connector-curvature="0"
    inkscape:connection-start="#g15"
    inkscape:connection-start-point="d4"
    inkscape:connection-end="#g19"
    inkscape:connection-end-point="d4" />
<path
    style="fill:none;stroke:black;stroke-width:2;stroke-linecap:butt;stroke-linejoin:miter;stroke-miterlimit:4;stroke-opacity:1;stroke-dasharray:none"
    d="M 24.311191257384152,173.7110607537523 71.14487567363332,194.4262458363535"
    id="path36"
    inkscape:connector-type="polyline"
    inkscape:connector-curvature="0"
    inkscape:connection-start="#g16"
    inkscape:connection-start-point="d4"
    inkscape:connection-end="#g17"
    inkscape:connection-end-point="d4" />
<path
    style="fill:none;stroke:black;stroke-width:2;stroke-linecap:butt;stroke-linejoin:miter;stroke-miterlimit:4;stroke-opacity:1;stroke-dasharray:none"
    d="M 24.311191257384152,173.7110607537523 15.575801122473793,202.55252261265957"
    id="path37"
    inkscape:connector-type="polyline"
    inkscape:connector-curvature="0"
    inkscape:connection-start="#g16"
    inkscape:connection-start-point="d4"
    inkscape:connection-end="#g18"
    inkscape:connection-end-point="d4" />
<path
    style="fill:none;stroke:black;stroke-width:2;stroke-linecap:butt;stroke-linejoin:miter;stroke-miterlimit:4;stroke-opacity:1;stroke-dasharray:none"
    d="M 24.311191257384152,173.7110607537523 29.292957076662148,218.32339611842812"
    id="path38"
    inkscape:connector-type="polyline"
    inkscape:connector-curvature="0"
    inkscape:connection-start="#g16"
    inkscape:connection-start-point="d4"
    inkscape:connection-end="#g19"
    inkscape:connection-end-point="d4" />
<path
    style="fill:none;stroke:black;stroke-width:2;stroke-linecap:butt;stroke-linejoin:miter;stroke-miterlimit:4;stroke-opacity:1;stroke-dasharray:none"
    d="M 80.29020837608942,198.47135272757245 22.47926692917418,210.14400811120115"
    id="path39"
    inkscape:connector-type="polyline"
    inkscape:connector-curvature="0"
    inkscape:connection-start="#g17"
    inkscape:connection-start-point="d4"
    inkscape:connection-end="#g18"
    inkscape:connection-end-point="d4" />
<path
    style="fill:none;stroke:black;stroke-width:2;stroke-linecap:butt;stroke-linejoin:miter;stroke-miterlimit:4;stroke-opacity:1;stroke-dasharray:none"
    d="M 80.29020837608942,198.47135272757245 38.988446173590624,223.1346744249183"
    id="path40"
    inkscape:connector-type="polyline"
    inkscape:connector-curvature="0"
    inkscape:connection-start="#g17"
    inkscape:connection-start-point="d4"
    inkscape:connection-end="#g19"
    inkscape:connection-end-point="d4" />
<path
    style="fill:none;stroke:black;stroke-width:2;stroke-linecap:butt;stroke-linejoin:miter;stroke-miterlimit:4;stroke-opacity:1;stroke-dasharray:none"
    d="M 12.677078702040584,212.12317610807344 23.00836689280986,221.5293684553217"
    id="path41"
    inkscape:connector-type="polyline"
    inkscape:connector-curvature="0"
    inkscape:connection-start="#g18"
    inkscape:connection-start-point="d4"
    inkscape:connection-end="#g19"
    inkscape:connection-end-point="d4" />
<path
    style="fill:none;stroke:black;stroke-width:2;stroke-linecap:butt;stroke-linejoin:miter;stroke-miterlimit:4;stroke-opacity:1;stroke-dasharray:none"
    d="M 134.24748613501185,137.05952259596086 169.53072730909648,137.99473444198048"
    id="path42"
    inkscape:connector-type="polyline"
    inkscape:connector-curvature="0"
    inkscape:connection-start="#g14"
    inkscape:connection-start-point="d4"
    inkscape:connection-end="#g20"
    inkscape:connection-end-point="d4" />
<path
    style="fill:none;stroke:black;stroke-width:2;stroke-linecap:butt;stroke-linejoin:miter;stroke-miterlimit:4;stroke-opacity:1;stroke-dasharray:none"
    d="M 134.24748613501185,137.05952259596086 135.6805220039464,150.7065321502325"
    id="path43"
    inkscape:connector-type="polyline"
    inkscape:connector-curvature="0"
    inkscape:connection-start="#g14"
    inkscape:connection-start-point="d4"
    inkscape:connection-end="#g21"
    inkscape:connection-end-point="d4" />
<path
    style="fill:none;stroke:black;stroke-width:2;stroke-linecap:butt;stroke-linejoin:miter;stroke-miterlimit:4;stroke-opacity:1;stroke-dasharray:none"
    d="M 134.24748613501185,137.05952259596086 165.3400601859465,184.35062573457262"
    id="path44"
    inkscape:connector-type="polyline"
    inkscape:connector-curvature="0"
    inkscape:connection-start="#g14"
    inkscape:connection-start-point="d4"
    inkscape:connection-end="#g22"
    inkscape:connection-end-point="d4" />
<path
    style="fill:none;stroke:black;stroke-width:2;stroke-linecap:butt;stroke-linejoin:miter;stroke-miterlimit:4;stroke-opacity:1;stroke-dasharray:none"
    d="M 134.24748613501185,137.05952259596086 159.89711963138694,150.3103608391511"
    id="path45"
    inkscape:connector-type="polyline"
    inkscape:connector-curvature="0"
    inkscape:connection-start="#g14"
    inkscape:connection-start-point="d4"
    inkscape:connection-end="#g23"
    inkscape:connection-end-point="d4" />
<path
    style="fill:none;stroke:black;stroke-width:2;stroke-linecap:butt;stroke-linejoin:miter;stroke-miterlimit:4;stroke-opacity:1;stroke-dasharray:none"
    d="M 179.52721636194977,138.25969975326544 145.58556136458037,156.0163521075317"
    id="path46"
    inkscape:connector-type="polyline"
    inkscape:connector-curvature="0"
    inkscape:connection-start="#g20"
    inkscape:connection-start-point="d4"
    inkscape:connection-end="#g21"
    inkscape:connection-end-point="d4" />
<path
    style="fill:none;stroke:black;stroke-width:2;stroke-linecap:butt;stroke-linejoin:miter;stroke-miterlimit:4;stroke-opacity:1;stroke-dasharray:none"
    d="M 179.52721636194977,138.25969975326544 172.41047802849877,182.83150263440766"
    id="path47"
    inkscape:connector-type="polyline"
    inkscape:connector-curvature="0"
    inkscape:connection-start="#g20"
    inkscape:connection-start-point="d4"
    inkscape:connection-end="#g22"
    inkscape:connection-end-point="d4" />
<path
    style="fill:none;stroke:black;stroke-width:2;stroke-linecap:butt;stroke-linejoin:miter;stroke-miterlimit:4;stroke-opacity:1;stroke-dasharray:none"
    d="M 179.52721636194977,138.25969975326544 174.20636594436078,146.4994582473324"
    id="path48"
    inkscape:connector-type="polyline"
    inkscape:connector-curvature="0"
    inkscape:connection-start="#g20"
    inkscape:connection-start-point="d4"
    inkscape:connection-end="#g23"
    inkscape:connection-end-point="d4" />
<path
    style="fill:none;stroke:black;stroke-width:2;stroke-linecap:butt;stroke-linejoin:miter;stroke-miterlimit:4;stroke-opacity:1;stroke-dasharray:none"
    d="M 136.7248532879364,160.65185125870156 163.54665067328017,185.85820345225056"
    id="path49"
    inkscape:connector-type="polyline"
    inkscape:connector-curvature="0"
    inkscape:connection-start="#g21"
    inkscape:connection-start-point="d4"
    inkscape:connection-end="#g22"
    inkscape:connection-end-point="d4" />
<path
    style="fill:none;stroke:black;stroke-width:2;stroke-linecap:butt;stroke-linejoin:miter;stroke-miterlimit:4;stroke-opacity:1;stroke-dasharray:none"
    d="M 136.7248532879364,160.65185125870156 158.9387635603049,156.66618064986147"
    id="path50"
    inkscape:connector-type="polyline"
    inkscape:connector-curvature="0"
    inkscape:connection-start="#g21"
    inkscape:connection-start-point="d4"
    inkscape:connection-end="#g23"
    inkscape:connection-end-point="d4" />
<path
    style="fill:none;stroke:black;stroke-width:2;stroke-linecap:butt;stroke-linejoin:miter;stroke-miterlimit:4;stroke-opacity:1;stroke-dasharray:none"
    d="M 170.8337594311734,192.70641825252048 169.32360170800436,164.88545898631193"
    id="path51"
    inkscape:connector-type="polyline"
    inkscape:connector-curvature="0"
    inkscape:connection-start="#g22"
    inkscape:connection-start-point="d4"
    inkscape:connection-end="#g23"
    inkscape:connection-end-point="d4" />
<path
    style="fill:none;stroke:black;stroke-width:2;stroke-linecap:butt;stroke-linejoin:miter;stroke-miterlimit:4;stroke-opacity:1;stroke-dasharray:none"
    d="M 114.428822563657,227.58970248802763 151.18229668629476,238.0735515812399"
    id="path52"
    inkscape:connector-type="polyline"
    inkscape:connector-curvature="0"
    inkscape:connection-start="#g24"
    inkscape:connection-start-point="d4"
    inkscape:connection-end="#g25"
    inkscape:connection-end-point="d4" />
<path
    style="fill:none;stroke:black;stroke-width:2;stroke-linecap:butt;stroke-linejoin:miter;stroke-miterlimit:4;stroke-opacity:1;stroke-dasharray:none"
    d="M 114.428822563657,227.58970248802763 125.81334896204424,238.90605292084945"
    id="path53"
    inkscape:connector-type="polyline"
    inkscape:connector-curvature="0"
    inkscape:connection-start="#g24"
    inkscape:connection-start-point="d4"
    inkscape:connection-end="#g26"
    inkscape:connection-end-point="d4" />
<path
    style="fill:none;stroke:black;stroke-width:2;stroke-linecap:butt;stroke-linejoin:miter;stroke-miterlimit:4;stroke-opacity:1;stroke-dasharray:none"
    d="M 114.428822563657,227.58970248802763 134.8167833797753,220.2069148699805"
    id="path54"
    inkscape:connector-type="polyline"
    inkscape:connector-curvature="0"
    inkscape:connection-start="#g24"
    inkscape:connection-start-point="d4"
    inkscape:connection-end="#g27"
    inkscape:connection-end-point="d4" />
<path
    style="fill:none;stroke:black;stroke-width:2;stroke-linecap:butt;stroke-linejoin:miter;stroke-miterlimit:4;stroke-opacity:1;stroke-dasharray:none"
    d="M 170.8337594311734,192.70641825252048 122.93377149445526,222.32986944081847"
    id="path55"
    inkscape:connector-type="polyline"
    inkscape:connector-curvature="0"
    inkscape:connection-start="#g22"
    inkscape:connection-start-point="d4"
    inkscape:connection-end="#g24"
    inkscape:connection-end-point="d4" />
<path
    style="fill:none;stroke:black;stroke-width:2;stroke-linecap:butt;stroke-linejoin:miter;stroke-miterlimit:4;stroke-opacity:1;stroke-dasharray:none"
    d="M 160.79872012878218,240.81661559339463 142.7400877132457,244.14387572796733"
    id="path56"
    inkscape:connector-type="polyline"
    inkscape:connector-curvature="0"
    inkscape:connection-start="#g25"
    inkscape:connection-start-point="d4"
    inkscape:connection-end="#g26"
    inkscape:connection-end-point="d4" />
<path
    style="fill:none;stroke:black;stroke-width:2;stroke-linecap:butt;stroke-linejoin:miter;stroke-miterlimit:4;stroke-opacity:1;stroke-dasharray:none"
    d="M 160.79872012878218,240.81661559339463 149.90074160150212,225.03141349910854"
    id="path57"
    inkscape:connector-type="polyline"
    inkscape:connector-curvature="0"
    inkscape:connection-start="#g25"
    inkscape:connection-start-point="d4"
    inkscape:connection-end="#g27"
    inkscape:connection-end-point="d4" />
<path
    style="fill:none;stroke:black;stroke-width:2;stroke-linecap:butt;stroke-linejoin:miter;stroke-miterlimit:4;stroke-opacity:1;stroke-dasharray:none"
    d="M 170.8337594311734,192.70641825252048 162.84061866232798,231.02730252358714"
    id="path58"
    inkscape:connector-type="polyline"
    inkscape:connector-curvature="0"
    inkscape:connection-start="#g22"
    inkscape:connection-start-point="d4"
    inkscape:connection-end="#g25"
    inkscape:connection-end-point="d4" />
<path
    style="fill:none;stroke:black;stroke-width:2;stroke-linecap:butt;stroke-linejoin:miter;stroke-miterlimit:4;stroke-opacity:1;stroke-dasharray:none"
    d="M 132.9056208364724,245.95585289384127 140.60147455742924,226.12474477627055"
    id="path59"
    inkscape:connector-type="polyline"
    inkscape:connector-curvature="0"
    inkscape:connection-start="#g26"
    inkscape:connection-start-point="d4"
    inkscape:connection-end="#g27"
    inkscape:connection-end-point="d4" />
<path
    style="fill:none;stroke:black;stroke-width:2;stroke-linecap:butt;stroke-linejoin:miter;stroke-miterlimit:4;stroke-opacity:1;stroke-dasharray:none"
    d="M 170.8337594311734,192.70641825252048 138.70714270923003,237.81077192678424"
    id="path60"
    inkscape:connector-type="polyline"
    inkscape:connector-curvature="0"
    inkscape:connection-start="#g22"
    inkscape:connection-start-point="d4"
    inkscape:connection-end="#g26"
    inkscape:connection-end-point="d4" />
<path
    style="fill:none;stroke:black;stroke-width:2;stroke-linecap:butt;stroke-linejoin:miter;stroke-miterlimit:4;stroke-opacity:1;stroke-dasharray:none"
    d="M 170.8337594311734,192.70641825252048 151.63244937110693,210.0905440905537"
    id="path61"
    inkscape:connector-type="polyline"
    inkscape:connector-curvature="0"
    inkscape:connection-start="#g22"
    inkscape:connection-start-point="d4"
    inkscape:connection-end="#g27"
    inkscape:connection-end-point="d4" />
<path
    style="fill:none;stroke:black;stroke-width:2;stroke-linecap:butt;stroke-linejoin:miter;stroke-miterlimit:4;stroke-opacity:1;stroke-dasharray:none"
    d="M 133.05397566676984,357.47940882635066 132.28142609936367,380.00587561944525"
    id="path62"
    inkscape:connector-type="polyline"
    inkscape:connector-curvature="0"
    inkscape:connection-start="#g28"
    inkscape:connection-start-point="d4"
    inkscape:connection-end="#g29"
    inkscape:connection-end-point="d4" />
<path
    style="fill:none;stroke:black;stroke-width:2;stroke-linecap:butt;stroke-linejoin:miter;stroke-miterlimit:4;stroke-opacity:1;stroke-dasharray:none"
    d="M 133.05397566676984,357.47940882635066 157.05627027836113,371.67287999242023"
    id="path63"
    inkscape:connector-type="polyline"
    inkscape:connector-curvature="0"
    inkscape:connection-start="#g28"
    inkscape:connection-start-point="d4"
    inkscape:connection-end="#g30"
    inkscape:connection-end-point="d4" />
<path
    style="fill:none;stroke:black;stroke-width:2;stroke-linecap:butt;stroke-linejoin:miter;stroke-miterlimit:4;stroke-opacity:1;stroke-dasharray:none"
    d="M 133.05397566676984,357.47940882635066 97.88909913103423,355.7628690864659"
    id="path64"
    inkscape:connector-type="polyline"
    inkscape:connector-curvature="0"
    inkscape:connection-start="#g28"
    inkscape:connection-start-point="d4"
    inkscape:connection-end="#g31"
    inkscape:connection-end-point="d4" />
<path
    style="fill:none;stroke:black;stroke-width:2;stroke-linecap:butt;stroke-linejoin:miter;stroke-miterlimit:4;stroke-opacity:1;stroke-dasharray:none"
    d="M 133.05397566676984,357.47940882635066 99.86038301226648,375.06885147398845"
    id="path65"
    inkscape:connector-type="polyline"
    inkscape:connector-curvature="0"
    inkscape:connection-start="#g28"
    inkscape:connection-start-point="d4"
    inkscape:connection-end="#g32"
    inkscape:connection-end-point="d4" />
<path
    style="fill:none;stroke:black;stroke-width:2;stroke-linecap:butt;stroke-linejoin:miter;stroke-miterlimit:4;stroke-opacity:1;stroke-dasharray:none"
    d="M 131.93867565661924,390.0 156.35526554081815,380.41653727837263"
    id="path66"
    inkscape:connector-type="polyline"
    inkscape:connector-curvature="0"
    inkscape:connection-start="#g29"
    inkscape:connection-start-point="d4"
    inkscape:connection-end="#g30"
    inkscape:connection-end-point="d4" />
<path
    style="fill:none;stroke:black;stroke-width:2;stroke-linecap:butt;stroke-linejoin:miter;stroke-miterlimit:4;stroke-opacity:1;stroke-dasharray:none"
    d="M 131.93867565661924,390.0 95.7534520262906,361.46714823294684"
    id="path67"
    inkscape:connector-type="polyline"
    inkscape:connector-curvature="0"
    inkscape:connection-start="#g29"
    inkscape:connection-start-point="d4"
    inkscape:connection-end="#g31"
    inkscape:connection-end-point="d4" />
<path
    style="fill:none;stroke:black;stroke-width:2;stroke-linecap:butt;stroke-linejoin:miter;stroke-miterlimit:4;stroke-opacity:1;stroke-dasharray:none"
    d="M 131.93867565661924,390.0 100.7245986194961,382.1810113751837"
    id="path68"
    inkscape:connector-type="polyline"
    inkscape:connector-curvature="0"
    inkscape:connection-start="#g29"
    inkscape:connection-start-point="d4"
    inkscape:connection-end="#g32"
    inkscape:connection-end-point="d4" />
<path
    style="fill:none;stroke:black;stroke-width:2;stroke-linecap:butt;stroke-linejoin:miter;stroke-miterlimit:4;stroke-opacity:1;stroke-dasharray:none"
    d="M 165.66391779580985,376.7629098759631 97.53978098322185,357.9387178658661"
    id="path69"
    inkscape:connector-type="polyline"
    inkscape:connector-curvature="0"
    inkscape:connection-start="#g30"
    inkscape:connection-start-point="d4"
    inkscape:connection-end="#g31"
    inkscape:connection-end-point="d4" />
<path
    style="fill:none;stroke:black;stroke-width:2;stroke-linecap:butt;stroke-linejoin:miter;stroke-miterlimit:4;stroke-opacity:1;stroke-dasharray:none"
    d="M 165.66391779580985,376.7629098759631 101.01630130305864,379.3510980507341"
    id="path70"
    inkscape:connector-type="polyline"
    inkscape:connector-curvature="0"
    inkscape:connection-start="#g30"
    inkscape:connection-start-point="d4"
    inkscape:connection-end="#g32"
    inkscape:connection-end-point="d4" />
<path
    style="fill:none;stroke:black;stroke-width:2;stroke-linecap:butt;stroke-linejoin:miter;stroke-miterlimit:4;stroke-opacity:1;stroke-dasharray:none"
    d="M 87.90099193472584,355.2753092080381 89.75848905186882,369.83156893108736"
    id="path71"
    inkscape:connector-type="polyline"
    inkscape:connector-curvature="0"
    inkscape:connection-start="#g31"
    inkscape:connection-start-point="d4"
    inkscape:connection-end="#g32"
    inkscape:connection-end-point="d4" />
<path
    style="fill:none;stroke:black;stroke-width:2;stroke-linecap:butt;stroke-linejoin:miter;stroke-miterlimit:4;stroke-opacity:1;stroke-dasharray:none"
    d="M 240.08936287647512,216.2192320989958 278.14630753229204,238.89944012581233"
    id="path72"
    inkscape:connector-type="polyline"
    inkscape:connector-curvature="0"
    inkscape:connection-start="#g33"
    inkscape:connection-start-point="d4"
    inkscape:connection-end="#g34"
    inkscape:connection-end-point="d4" />
<path
    style="fill:none;stroke:black;stroke-width:2;stroke-linecap:butt;stroke-linejoin:miter;stroke-miterlimit:4;stroke-opacity:1;stroke-dasharray:none"
    d="M 318.92540741661867,219.40914970419777 250.08118677254737,216.62352806716717"
    id="path73"
    inkscape:connector-type="polyline"
    inkscape:connector-curvature="0"
    inkscape:connection-start="#g1"
    inkscape:connection-start-point="d4"
    inkscape:connection-end="#g33"
    inkscape:connection-end-point="d4" />
<path
    style="fill:none;stroke:black;stroke-width:2;stroke-linecap:butt;stroke-linejoin:miter;stroke-miterlimit:4;stroke-opacity:1;stroke-dasharray:none"
    d="M 318.92540741661867,219.40914970419777 294.6807458642363,237.945154491026"
    id="path74"
    inkscape:connector-type="polyline"
    inkscape:connector-curvature="0"
    inkscape:connection-start="#g1"
    inkscape:connection-start-point="d4"
    inkscape:connection-end="#g34"
    inkscape:connection-end-point="d4" />
<path
    style="fill:none;stroke:black;stroke-width:2;stroke-linecap:butt;stroke-linejoin:miter;stroke-miterlimit:4;stroke-opacity:1;stroke-dasharray:none"
    d="M 228.2520354596703,20.599204372184914 262.05003987586747,12.366622229183623"
    id="path75"
    inkscape:connector-type="polyline"
    inkscape:connector-curvature="0"
    inkscape:connection-start="#g35"
    inkscape:connection-start-point="d4"
    inkscape:connection-end="#g36"
    inkscape:connection-end-point="d4" />
<path
    style="fill:none;stroke:black;stroke-width:2;stroke-linecap:butt;stroke-linejoin:miter;stroke-miterlimit:4;stroke-opacity:1;stroke-dasharray:none"
    d="M 228.2520354596703,20.599204372184914 301.33721738550724,31.19886209617851"
    id="path76"
    inkscape:connector-type="polyline"
    inkscape:connector-curvature="0"
    inkscape:connection-start="#g35"
    inkscape:connection-start-point="d4"
    inkscape:connection-end="#g37"
    inkscape:connection-end-point="d4" />
<path
    style="fill:none;stroke:black;stroke-width:2;stroke-linecap:butt;stroke-linejoin:miter;stroke-miterlimit:4;stroke-opacity:1;stroke-dasharray:none"
    d="M 228.2520354596703,20.599204372184914 261.09583510373034,36.524912836185685"
    id="path77"
    inkscape:connector-type="polyline"
    inkscape:connector-curvature="0"
    inkscape:connection-start="#g35"
    inkscape:connection-start-point="d4"
    inkscape:connection-end="#g38"
    inkscape:connection-end-point="d4" />
<path
    style="fill:none;stroke:black;stroke-width:2;stroke-linecap:butt;stroke-linejoin:miter;stroke-miterlimit:4;stroke-opacity:1;stroke-dasharray:none"
    d="M 271.76595976151566,10.0 302.5589423001701,27.659326960984323"
    id="path78"
    inkscape:connector-type="polyline"
    inkscape:connector-curvature="0"
    inkscape:connection-start="#g36"
    inkscape:connection-start-point="d4"
    inkscape:connection-end="#g37"
    inkscape:connection-end-point="d4" />
<path
    style="fill:none;stroke:black;stroke-width:2;stroke-linecap:butt;stroke-linejoin:miter;stroke-miterlimit:4;stroke-opacity:1;stroke-dasharray:none"
    d="M 271.76595976151566,10.0 270.6343855637539,30.9025889405864"
    id="path79"
    inkscape:connector-type="polyline"
    inkscape:connector-curvature="0"
    inkscape:connection-start="#g36"
    inkscape:connection-start-point="d4"
    inkscape:connection-end="#g38"
    inkscape:connection-end-point="d4" />
<path
    style="fill:none;stroke:black;stroke-width:2;stroke-linecap:butt;stroke-linejoin:miter;stroke-miterlimit:4;stroke-opacity:1;stroke-dasharray:none"
    d="M 311.23367719961493,32.634161071218955 279.89844197862834,38.920886362061516"
    id="path80"
    inkscape:connector-type="polyline"
    inkscape:connector-curvature="0"
    inkscape:connection-start="#g37"
    inkscape:connection-start-point="d4"
    inkscape:connection-end="#g38"
    inkscape:connection-end-point="d4" />
<path
    style="fill:none;stroke:black;stroke-width:2;stroke-linecap:butt;stroke-linejoin:miter;stroke-miterlimit:4;stroke-opacity:1;stroke-dasharray:none"
    d="M 254.4064637163387,187.53568682548396 292.3729375146296,169.1688050944855"
    id="path81"
    inkscape:connector-type="polyline"
    inkscape:connector-curvature="0"
    inkscape:connection-start="#g9"
    inkscape:connection-start-point="d4"
    inkscape:connection-end="#g39"
    inkscape:connection-end-point="d4" />
<path
    style="fill:none;stroke:black;stroke-width:2;stroke-linecap:butt;stroke-linejoin:miter;stroke-miterlimit:4;stroke-opacity:1;stroke-dasharray:none"
    d="M 325.96464604307585,189.8923449759319 264.4010450616292,187.86484291667904"
    id="path82"
    inkscape:connector-type="polyline"
    inkscape:connector-curvature="0"
    inkscape:connection-start="#g2"
    inkscape:connection-start-point="d4"
    inkscape:connection-end="#g9"
    inkscape:connection-end-point="d4" />
<path
    style="fill:none;stroke:black;stroke-width:2;stroke-linecap:butt;stroke-linejoin:miter;stroke-miterlimit:4;stroke-opacity:1;stroke-dasharray:none"
    d="M 318.92540741661867,219.40914970419777 263.3720887817355,191.96485911686403"
    id="path83"
    inkscape:connector-type="polyline"
    inkscape:connector-curvature="0"
    inkscape:connection-start="#g1"
    inkscape:connection-start-point="d4"
    inkscape:connection-end="#g9"
    inkscape:connection-end-point="d4" />
<path
    style="fill:none;stroke:black;stroke-width:2;stroke-linecap:butt;stroke-linejoin:miter;stroke-miterlimit:4;stroke-opacity:1;stroke-dasharray:none"
    d="M 325.96464604307585,189.8923449759319 308.37606470123666,171.9542506580696"
    id="path84"
    inkscape:connector-type="polyline"
    inkscape:connector-curvature="0"
    inkscape:connection-start="#g2"
    inkscape:connection-start-point="d4"
    inkscape:connection-end="#g39"
    inkscape:connection-end-point="d4" />
<path
    style="fill:none;stroke:black;stroke-width:2;stroke-linecap:butt;stroke-linejoin:miter;stroke-miterlimit:4;stroke-opacity:1;stroke-dasharray:none"
    d="M 318.92540741661867,219.40914970419777 304.43531749639425,174.33414420402352"
    id="path85"
    inkscape:connector-type="polyline"
    inkscape:connector-curvature="0"
    inkscape:connection-start="#g1"
    inkscape:connection-start-point="d4"
    inkscape:connection-end="#g39"
    inkscape:connection-end-point="d4" />
<path
    style="fill:none;stroke:black;stroke-width:2;stroke-linecap:butt;stroke-linejoin:miter;stroke-miterlimit:4;stroke-opacity:1;stroke-dasharray:none"
    d="M 318.92540741661867,219.40914970419777 323.6448768974759,199.61955789182525"
    id="path86"
    inkscape:connector-type="polyline"
    inkscape:connector-curvature="0"
    inkscape:connection-start="#g1"
    inkscape:connection-start-point="d4"
    inkscape:connection-end="#g2"
    inkscape:connection-end-point="d4" />
<path
    style="fill:none;stroke:black;stroke-width:2;stroke-linecap:butt;stroke-linejoin:miter;stroke-miterlimit:4;stroke-opacity:1;stroke-dasharray:none"
    d="M 240.08936287647512,216.2192320989958 215.37990190041063,237.27009191341423"
    id="path87"
    inkscape:connector-type="polyline"
    inkscape:connector-curvature="0"
    inkscape:connection-start="#g33"
    inkscape:connection-start-point="d4"
    inkscape:connection-end="#g40"
    inkscape:connection-end-point="d4" />
<path
    style="fill:none;stroke:black;stroke-width:2;stroke-linecap:butt;stroke-linejoin:miter;stroke-miterlimit:4;stroke-opacity:1;stroke-dasharray:none"
    d="M 170.8337594311734,192.70641825252048 230.62021575537062,213.00438330023738"
    id="path88"
    inkscape:connector-type="polyline"
    inkscape:connector-curvature="0"
    inkscape:connection-start="#g22"
    inkscape:connection-start-point="d4"
    inkscape:connection-end="#g33"
    inkscape:connection-end-point="d4" />
<path
    style="fill:none;stroke:black;stroke-width:2;stroke-linecap:butt;stroke-linejoin:miter;stroke-miterlimit:4;stroke-opacity:1;stroke-dasharray:none"
    d="M 240.08936287647512,216.2192320989958 207.00134794102948,218.97489971591003"
    id="path89"
    inkscape:connector-type="polyline"
    inkscape:connector-curvature="0"
    inkscape:connection-start="#g33"
    inkscape:connection-start-point="d4"
    inkscape:connection-end="#g41"
    inkscape:connection-end-point="d4" />
<path
    style="fill:none;stroke:black;stroke-width:2;stroke-linecap:butt;stroke-linejoin:miter;stroke-miterlimit:4;stroke-opacity:1;stroke-dasharray:none"
    d="M 170.8337594311734,192.70641825252048 201.90604609713463,235.65326990679208"
    id="path90"
    inkscape:connector-type="polyline"
    inkscape:connector-curvature="0"
    inkscape:connection-start="#g22"
    inkscape:connection-start-point="d4"
    inkscape:connection-end="#g40"
    inkscape:connection-end-point="d4" />
<path
    style="fill:none;stroke:black;stroke-width:2;stroke-linecap:butt;stroke-linejoin:miter;stroke-miterlimit:4;stroke-opacity:1;stroke-dasharray:none"
    d="M 207.76778283361296,243.75512416567753 201.1250139979358,228.93057387107916"
    id="path91"
    inkscape:connector-type="polyline"
    inkscape:connector-curvature="0"
    inkscape:connection-start="#g40"
    inkscape:connection-start-point="d4"
    inkscape:connection-end="#g41"
    inkscape:connection-end-point="d4" />
<path
    style="fill:none;stroke:black;stroke-width:2;stroke-linecap:butt;stroke-linejoin:miter;stroke-miterlimit:4;stroke-opacity:1;stroke-dasharray:none"
    d="M 170.8337594311734,192.70641825252048 190.08467712112292,212.6158913198894"
    id="path92"
    inkscape:connector-type="polyline"
    inkscape:connector-curvature="0"
    inkscape:connection-start="#g22"
    inkscape:connection-start-point="d4"
    inkscape:connection-end="#g41"
    inkscape:connection-end-point="d4" />
<path
    style="fill:none;stroke:black;stroke-width:2;stroke-linecap:butt;stroke-linejoin:miter;stroke-miterlimit:4;stroke-opacity:1;stroke-dasharray:none"
    d="M 318.92540741661867,219.40914970419777 371.5283213622216,240.08793564854517"
    id="path93"
    inkscape:connector-type="polyline"
    inkscape:connector-curvature="0"
    inkscape:connection-start="#g1"
    inkscape:connection-start-point="d4"
    inkscape:connection-end="#g42"
    inkscape:connection-end-point="d4" />
<path
    style="fill:none;stroke:black;stroke-width:2;stroke-linecap:butt;stroke-linejoin:miter;stroke-miterlimit:4;stroke-opacity:1;stroke-dasharray:none"
    d="M 254.4064637163387,187.53568682548396 223.40126101711283,179.93089281605003"
    id="path94"
    inkscape:connector-type="polyline"
    inkscape:connector-curvature="0"
    inkscape:connection-start="#g9"
    inkscape:connection-start-point="d4"
    inkscape:connection-end="#g43"
    inkscape:connection-end-point="d4" />
<path
    style="fill:none;stroke:black;stroke-width:2;stroke-linecap:butt;stroke-linejoin:miter;stroke-miterlimit:4;stroke-opacity:1;stroke-dasharray:none"
    d="M 254.4064637163387,187.53568682548396 230.15060838359142,163.82554966391402"
    id="path95"
    inkscape:connector-type="polyline"
    inkscape:connector-curvature="0"
    inkscape:connection-start="#g9"
    inkscape:connection-start-point="d4"
    inkscape:connection-end="#g44"
    inkscape:connection-end-point="d4" />
<path
    style="fill:none;stroke:black;stroke-width:2;stroke-linecap:butt;stroke-linejoin:miter;stroke-miterlimit:4;stroke-opacity:1;stroke-dasharray:none"
    d="M 254.4064637163387,187.53568682548396 180.81467407063346,192.0888885286919"
    id="path96"
    inkscape:connector-type="polyline"
    inkscape:connector-curvature="0"
    inkscape:connection-start="#g9"
    inkscape:connection-start-point="d4"
    inkscape:connection-end="#g22"
    inkscape:connection-end-point="d4" />
<path
    style="fill:none;stroke:black;stroke-width:2;stroke-linecap:butt;stroke-linejoin:miter;stroke-miterlimit:4;stroke-opacity:1;stroke-dasharray:none"
    d="M 213.68913404449214,177.54875309141306 218.89978824235126,165.95634341068777"
    id="path97"
    inkscape:connector-type="polyline"
    inkscape:connector-curvature="0"
    inkscape:connection-start="#g43"
    inkscape:connection-start-point="d4"
    inkscape:connection-end="#g44"
    inkscape:connection-end-point="d4" />
<path
    style="fill:none;stroke:black;stroke-width:2;stroke-linecap:butt;stroke-linejoin:miter;stroke-miterlimit:4;stroke-opacity:1;stroke-dasharray:none"
    d="M 170.8337594311734,192.70641825252048 204.2614586648277,180.8832600918059"
    id="path98"
    inkscape:connector-type="polyline"
    inkscape:connector-curvature="0"
    inkscape:connection-start="#g22"
    inkscape:connection-start-point="d4"
    inkscape:connection-end="#g43"
    inkscape:connection-end-point="d4" />
<path
    style="fill:none;stroke:black;stroke-width:2;stroke-linecap:butt;stroke-linejoin:miter;stroke-miterlimit:4;stroke-opacity:1;stroke-dasharray:none"
    d="M 170.8337594311734,192.70641825252048 214.75965523865528,162.50142761131656"
    id="path99"
    inkscape:connector-type="polyline"
    inkscape:connector-curvature="0"
    inkscape:connection-start="#g22"
    inkscape:connection-start-point="d4"
    inkscape:connection-end="#g44"
    inkscape:connection-end-point="d4" />
<path
    style="fill:none;stroke:black;stroke-width:2;stroke-linecap:butt;stroke-linejoin:miter;stroke-miterlimit:4;stroke-opacity:1;stroke-dasharray:none"
    d="M 80.29020837608942,198.47135272757245 105.72913133726526,199.88329049437652"
    id="path100"
    inkscape:connector-type="polyline"
    inkscape:connector-curvature="0"
    inkscape:connection-start="#g17"
    inkscape:connection-start-point="d4"
    inkscape:connection-end="#g45"
    inkscape:connection-end-point="d4" />
<path
    style="fill:none;stroke:black;stroke-width:2;stroke-linecap:butt;stroke-linejoin:miter;stroke-miterlimit:4;stroke-opacity:1;stroke-dasharray:none"
    d="M 115.71376389195697,200.4374680361359 111.9819475456615,185.09314706612793"
    id="path101"
    inkscape:connector-type="polyline"
    inkscape:connector-curvature="0"
    inkscape:connection-start="#g45"
    inkscape:connection-start-point="d4"
    inkscape:connection-end="#g46"
    inkscape:connection-end-point="d4" />
<path
    style="fill:none;stroke:black;stroke-width:2;stroke-linecap:butt;stroke-linejoin:miter;stroke-miterlimit:4;stroke-opacity:1;stroke-dasharray:none"
    d="M 170.8337594311734,192.70641825252048 125.61682949125071,199.04847857034252"
    id="path102"
    inkscape:connector-type="polyline"
    inkscape:connector-curvature="0"
    inkscape:connection-start="#g22"
    inkscape:connection-start-point="d4"
    inkscape:connection-end="#g45"
    inkscape:connection-end-point="d4" />
<path
    style="fill:none;stroke:black;stroke-width:2;stroke-linecap:butt;stroke-linejoin:miter;stroke-miterlimit:4;stroke-opacity:1;stroke-dasharray:none"
    d="M 80.29020837608942,198.47135272757245 101.7622516908737,181.56305933611117"
    id="path103"
    inkscape:connector-type="polyline"
    inkscape:connector-curvature="0"
    inkscape:connection-start="#g17"
    inkscape:connection-start-point="d4"
    inkscape:connection-end="#g46"
    inkscape:connection-end-point="d4" />
<path
    style="fill:none;stroke:black;stroke-width:2;stroke-linecap:butt;stroke-linejoin:miter;stroke-miterlimit:4;stroke-opacity:1;stroke-dasharray:none"
    d="M 80.29020837608942,198.47135272757245 160.8539675419534,193.3418345317098"
    id="path104"
    inkscape:connector-type="polyline"
    inkscape:connector-curvature="0"
    inkscape:connection-start="#g17"
    inkscape:connection-start-point="d4"
    inkscape:connection-end="#g22"
    inkscape:connection-end-point="d4" />
<path
    style="fill:none;stroke:black;stroke-width:2;stroke-linecap:butt;stroke-linejoin:miter;stroke-miterlimit:4;stroke-opacity:1;stroke-dasharray:none"
    d="M 170.8337594311734,192.70641825252048 119.24063503865935,178.1003437426589"
    id="path105"
    inkscape:connector-type="polyline"
    inkscape:connector-curvature="0"
    inkscape:connection-start="#g22"
    inkscape:connection-start-point="d4"
    inkscape:connection-end="#g46"
    inkscape:connection-end-point="d4" />
<path
    style="fill:none;stroke:black;stroke-width:2;stroke-linecap:butt;stroke-linejoin:miter;stroke-miterlimit:4;stroke-opacity:1;stroke-dasharray:none"
    d="M 277.55161316678084,260.50976658312175 217.49144955231364,246.0897131110023"
    id="path106"
    inkscape:connector-type="polyline"
    inkscape:connector-curvature="0"
    inkscape:connection-start="#g6"
    inkscape:connection-start-point="d4"
    inkscape:connection-end="#g40"
    inkscape:connection-end-point="d4" />
<path
    style="fill:none;stroke:black;stroke-width:2;stroke-linecap:butt;stroke-linejoin:miter;stroke-miterlimit:4;stroke-opacity:1;stroke-dasharray:none"
    d="M 207.76778283361296,243.75512416567753 229.65257870709303,277.26075122159955"
    id="path107"
    inkscape:connector-type="polyline"
    inkscape:connector-curvature="0"
    inkscape:connection-start="#g40"
    inkscape:connection-start-point="d4"
    inkscape:connection-end="#g47"
    inkscape:connection-end-point="d4" />
<path
    style="fill:none;stroke:black;stroke-width:2;stroke-linecap:butt;stroke-linejoin:miter;stroke-miterlimit:4;stroke-opacity:1;stroke-dasharray:none"
    d="M 277.55161316678084,260.50976658312175 243.72585166687816,280.5381357371554"
    id="path108"
    inkscape:connector-type="polyline"
    inkscape:connector-curvature="0"
    inkscape:connection-start="#g6"
    inkscape:connection-start-point="d4"
    inkscape:connection-end="#g47"
    inkscape:connection-end-point="d4" />
  </g>

  <g inkscape:label="Nodes"                     inkscape:groupmode="layer" id="layer1">
  <!-- Vertices -->
    <g id="g0" transform="translate(376.56151281498893,177.37085934742717)">
     <circle cx="0" cy="0" r="10" fill="red"/>
      <text sodipodi:linespacing="125%" y="5.0" x="0" id="text0" style="font-size:16pxpx;font-style:normal;font-weight:normal;text-align:center;line-height:125%;letter-spacing:0px;word-spacing:0px;text-anchor:middle;fill:#000000;fill-opacity:1;stroke:none;font-family:Sans">
<tspan y="5.0" x="0" id="tspan0" sodipodi:role="line">1</tspan></text>
    </g>
    <g id="g1" transform="translate(318.92540741661867,219.40914970419777)">
     <circle cx="0" cy="0" r="10" fill="red"/>
      <text sodipodi:linespacing="125%" y="5.0" x="0" id="text1" style="font-size:16pxpx;font-style:normal;font-weight:normal;text-align:center;line-height:125%;letter-spacing:0px;word-spacing:0px;text-anchor:middle;fill:#000000;fill-opacity:1;stroke:none;font-family:Sans">
<tspan y="5.0" x="0" id="tspan1" sodipodi:role="line">2</tspan></text>
    </g>
    <g id="g2" transform="translate(325.96464604307585,189.8923449759319)">
     <circle cx="0" cy="0" r="10" fill="red"/>
      <text sodipodi:linespacing="125%" y="5.0" x="0" id="text2" style="font-size:16pxpx;font-style:normal;font-weight:normal;text-align:center;line-height:125%;letter-spacing:0px;word-spacing:0px;text-anchor:middle;fill:#000000;fill-opacity:1;stroke:none;font-family:Sans">
<tspan y="5.0" x="0" id="tspan2" sodipodi:role="line">3</tspan></text>
    </g>
    <g id="g3" transform="translate(380.43810101173904,199.65810866044194)">
     <circle cx="0" cy="0" r="10" fill="red"/>
      <text sodipodi:linespacing="125%" y="5.0" x="0" id="text3" style="font-size:16pxpx;font-style:normal;font-weight:normal;text-align:center;line-height:125%;letter-spacing:0px;word-spacing:0px;text-anchor:middle;fill:#000000;fill-opacity:1;stroke:none;font-family:Sans">
<tspan y="5.0" x="0" id="tspan3" sodipodi:role="line">4</tspan></text>
    </g>
    <g id="g4" transform="translate(323.3955571934002,171.6084582398599)">
     <circle cx="0" cy="0" r="10" fill="red"/>
      <text sodipodi:linespacing="125%" y="5.0" x="0" id="text4" style="font-size:16pxpx;font-style:normal;font-weight:normal;text-align:center;line-height:125%;letter-spacing:0px;word-spacing:0px;text-anchor:middle;fill:#000000;fill-opacity:1;stroke:none;font-family:Sans">
<tspan y="5.0" x="0" id="tspan4" sodipodi:role="line">5</tspan></text>
    </g>
    <g id="g5" transform="translate(331.78150606699694,271.11777000442765)">
     <circle cx="0" cy="0" r="10" fill="red"/>
      <text sodipodi:linespacing="125%" y="5.0" x="0" id="text5" style="font-size:16pxpx;font-style:normal;font-weight:normal;text-align:center;line-height:125%;letter-spacing:0px;word-spacing:0px;text-anchor:middle;fill:#000000;fill-opacity:1;stroke:none;font-family:Sans">
<tspan y="5.0" x="0" id="tspan5" sodipodi:role="line">6</tspan></text>
    </g>
    <g id="g6" transform="translate(277.55161316678084,260.50976658312175)">
     <circle cx="0" cy="0" r="10" fill="red"/>
      <text sodipodi:linespacing="125%" y="5.0" x="0" id="text6" style="font-size:16pxpx;font-style:normal;font-weight:normal;text-align:center;line-height:125%;letter-spacing:0px;word-spacing:0px;text-anchor:middle;fill:#000000;fill-opacity:1;stroke:none;font-family:Sans">
<tspan y="5.0" x="0" id="tspan6" sodipodi:role="line">7</tspan></text>
    </g>
    <g id="g7" transform="translate(390.0,225.85230936715035)">
     <circle cx="0" cy="0" r="10" fill="red"/>
      <text sodipodi:linespacing="125%" y="5.0" x="0" id="text7" style="font-size:16pxpx;font-style:normal;font-weight:normal;text-align:center;line-height:125%;letter-spacing:0px;word-spacing:0px;text-anchor:middle;fill:#000000;fill-opacity:1;stroke:none;font-family:Sans">
<tspan y="5.0" x="0" id="tspan7" sodipodi:role="line">8</tspan></text>
    </g>
    <g id="g8" transform="translate(365.1939581179818,258.0466536998664)">
     <circle cx="0" cy="0" r="10" fill="red"/>
      <text sodipodi:linespacing="125%" y="5.0" x="0" id="text8" style="font-size:16pxpx;font-style:normal;font-weight:normal;text-align:center;line-height:125%;letter-spacing:0px;word-spacing:0px;text-anchor:middle;fill:#000000;fill-opacity:1;stroke:none;font-family:Sans">
<tspan y="5.0" x="0" id="tspan8" sodipodi:role="line">9</tspan></text>
    </g>
    <g id="g9" transform="translate(254.4064637163387,187.53568682548396)">
     <circle cx="0" cy="0" r="10" fill="red"/>
      <text sodipodi:linespacing="125%" y="5.0" x="0" id="text9" style="font-size:16pxpx;font-style:normal;font-weight:normal;text-align:center;line-height:125%;letter-spacing:0px;word-spacing:0px;text-anchor:middle;fill:#000000;fill-opacity:1;stroke:none;font-family:Sans">
<tspan y="5.0" x="0" id="tspan9" sodipodi:role="line">10</tspan></text>
    </g>
    <g id="g10" transform="translate(295.38079103742604,198.77909649868707)">
     <circle cx="0" cy="0" r="10" fill="red"/>
      <text sodipodi:linespacing="125%" y="5.0" x="0" id="text10" style="font-size:16pxpx;font-style:normal;font-weight:normal;text-align:center;line-height:125%;letter-spacing:0px;word-spacing:0px;text-anchor:middle;fill:#000000;fill-opacity:1;stroke:none;font-family:Sans">
<tspan y="5.0" x="0" id="tspan10" sodipodi:role="line">11</tspan></text>
    </g>
    <g id="g11" transform="translate(129.70415164416448,92.40981950160169)">
     <circle cx="0" cy="0" r="10" fill="red"/>
      <text sodipodi:linespacing="125%" y="5.0" x="0" id="text11" style="font-size:16pxpx;font-style:normal;font-weight:normal;text-align:center;line-height:125%;letter-spacing:0px;word-spacing:0px;text-anchor:middle;fill:#000000;fill-opacity:1;stroke:none;font-family:Sans">
<tspan y="5.0" x="0" id="tspan11" sodipodi:role="line">12</tspan></text>
    </g>
    <g id="g12" transform="translate(70.65046841684244,116.59758819166892)">
     <circle cx="0" cy="0" r="10" fill="red"/>
      <text sodipodi:linespacing="125%" y="5.0" x="0" id="text12" style="font-size:16pxpx;font-style:normal;font-weight:normal;text-align:center;line-height:125%;letter-spacing:0px;word-spacing:0px;text-anchor:middle;fill:#000000;fill-opacity:1;stroke:none;font-family:Sans">
<tspan y="5.0" x="0" id="tspan12" sodipodi:role="line">13</tspan></text>
    </g>
    <g id="g13" transform="translate(94.30262621839894,98.47326133389461)">
     <circle cx="0" cy="0" r="10" fill="red"/>
      <text sodipodi:linespacing="125%" y="5.0" x="0" id="text13" style="font-size:16pxpx;font-style:normal;font-weight:normal;text-align:center;line-height:125%;letter-spacing:0px;word-spacing:0px;text-anchor:middle;fill:#000000;fill-opacity:1;stroke:none;font-family:Sans">
<tspan y="5.0" x="0" id="tspan13" sodipodi:role="line">14</tspan></text>
    </g>
    <g id="g14" transform="translate(134.24748613501185,137.05952259596086)">
     <circle cx="0" cy="0" r="10" fill="red"/>
      <text sodipodi:linespacing="125%" y="5.0" x="0" id="text14" style="font-size:16pxpx;font-style:normal;font-weight:normal;text-align:center;line-height:125%;letter-spacing:0px;word-spacing:0px;text-anchor:middle;fill:#000000;fill-opacity:1;stroke:none;font-family:Sans">
<tspan y="5.0" x="0" id="tspan14" sodipodi:role="line">15</tspan></text>
    </g>
    <g id="g15" transform="translate(10.0,191.27864978876764)">
     <circle cx="0" cy="0" r="10" fill="red"/>
      <text sodipodi:linespacing="125%" y="5.0" x="0" id="text15" style="font-size:16pxpx;font-style:normal;font-weight:normal;text-align:center;line-height:125%;letter-spacing:0px;word-spacing:0px;text-anchor:middle;fill:#000000;fill-opacity:1;stroke:none;font-family:Sans">
<tspan y="5.0" x="0" id="tspan15" sodipodi:role="line">16</tspan></text>
    </g>
    <g id="g16" transform="translate(24.311191257384152,173.7110607537523)">
     <circle cx="0" cy="0" r="10" fill="red"/>
      <text sodipodi:linespacing="125%" y="5.0" x="0" id="text16" style="font-size:16pxpx;font-style:normal;font-weight:normal;text-align:center;line-height:125%;letter-spacing:0px;word-spacing:0px;text-anchor:middle;fill:#000000;fill-opacity:1;stroke:none;font-family:Sans">
<tspan y="5.0" x="0" id="tspan16" sodipodi:role="line">17</tspan></text>
    </g>
    <g id="g17" transform="translate(80.29020837608942,198.47135272757245)">
     <circle cx="0" cy="0" r="10" fill="red"/>
      <text sodipodi:linespacing="125%" y="5.0" x="0" id="text17" style="font-size:16pxpx;font-style:normal;font-weight:normal;text-align:center;line-height:125%;letter-spacing:0px;word-spacing:0px;text-anchor:middle;fill:#000000;fill-opacity:1;stroke:none;font-family:Sans">
<tspan y="5.0" x="0" id="tspan17" sodipodi:role="line">18</tspan></text>
    </g>
    <g id="g18" transform="translate(12.677078702040584,212.12317610807344)">
     <circle cx="0" cy="0" r="10" fill="red"/>
      <text sodipodi:linespacing="125%" y="5.0" x="0" id="text18" style="font-size:16pxpx;font-style:normal;font-weight:normal;text-align:center;line-height:125%;letter-spacing:0px;word-spacing:0px;text-anchor:middle;fill:#000000;fill-opacity:1;stroke:none;font-family:Sans">
<tspan y="5.0" x="0" id="tspan18" sodipodi:role="line">19</tspan></text>
    </g>
    <g id="g19" transform="translate(30.40273818726653,228.26162462689712)">
     <circle cx="0" cy="0" r="10" fill="red"/>
      <text sodipodi:linespacing="125%" y="5.0" x="0" id="text19" style="font-size:16pxpx;font-style:normal;font-weight:normal;text-align:center;line-height:125%;letter-spacing:0px;word-spacing:0px;text-anchor:middle;fill:#000000;fill-opacity:1;stroke:none;font-family:Sans">
<tspan y="5.0" x="0" id="tspan19" sodipodi:role="line">20</tspan></text>
    </g>
    <g id="g20" transform="translate(179.52721636194977,138.25969975326544)">
     <circle cx="0" cy="0" r="10" fill="red"/>
      <text sodipodi:linespacing="125%" y="5.0" x="0" id="text20" style="font-size:16pxpx;font-style:normal;font-weight:normal;text-align:center;line-height:125%;letter-spacing:0px;word-spacing:0px;text-anchor:middle;fill:#000000;fill-opacity:1;stroke:none;font-family:Sans">
<tspan y="5.0" x="0" id="tspan20" sodipodi:role="line">21</tspan></text>
    </g>
    <g id="g21" transform="translate(136.7248532879364,160.65185125870156)">
     <circle cx="0" cy="0" r="10" fill="red"/>
      <text sodipodi:linespacing="125%" y="5.0" x="0" id="text21" style="font-size:16pxpx;font-style:normal;font-weight:normal;text-align:center;line-height:125%;letter-spacing:0px;word-spacing:0px;text-anchor:middle;fill:#000000;fill-opacity:1;stroke:none;font-family:Sans">
<tspan y="5.0" x="0" id="tspan21" sodipodi:role="line">22</tspan></text>
    </g>
    <g id="g22" transform="translate(170.8337594311734,192.70641825252048)">
     <circle cx="0" cy="0" r="10" fill="red"/>
      <text sodipodi:linespacing="125%" y="5.0" x="0" id="text22" style="font-size:16pxpx;font-style:normal;font-weight:normal;text-align:center;line-height:125%;letter-spacing:0px;word-spacing:0px;text-anchor:middle;fill:#000000;fill-opacity:1;stroke:none;font-family:Sans">
<tspan y="5.0" x="0" id="tspan22" sodipodi:role="line">23</tspan></text>
    </g>
    <g id="g23" transform="translate(168.78158667386896,154.90015880540744)">
     <circle cx="0" cy="0" r="10" fill="red"/>
      <text sodipodi:linespacing="125%" y="5.0" x="0" id="text23" style="font-size:16pxpx;font-style:normal;font-weight:normal;text-align:center;line-height:125%;letter-spacing:0px;word-spacing:0px;text-anchor:middle;fill:#000000;fill-opacity:1;stroke:none;font-family:Sans">
<tspan y="5.0" x="0" id="tspan23" sodipodi:role="line">24</tspan></text>
    </g>
    <g id="g24" transform="translate(114.428822563657,227.58970248802763)">
     <circle cx="0" cy="0" r="10" fill="red"/>
      <text sodipodi:linespacing="125%" y="5.0" x="0" id="text24" style="font-size:16pxpx;font-style:normal;font-weight:normal;text-align:center;line-height:125%;letter-spacing:0px;word-spacing:0px;text-anchor:middle;fill:#000000;fill-opacity:1;stroke:none;font-family:Sans">
<tspan y="5.0" x="0" id="tspan24" sodipodi:role="line">25</tspan></text>
    </g>
    <g id="g25" transform="translate(160.79872012878218,240.81661559339463)">
     <circle cx="0" cy="0" r="10" fill="red"/>
      <text sodipodi:linespacing="125%" y="5.0" x="0" id="text25" style="font-size:16pxpx;font-style:normal;font-weight:normal;text-align:center;line-height:125%;letter-spacing:0px;word-spacing:0px;text-anchor:middle;fill:#000000;fill-opacity:1;stroke:none;font-family:Sans">
<tspan y="5.0" x="0" id="tspan25" sodipodi:role="line">26</tspan></text>
    </g>
    <g id="g26" transform="translate(132.9056208364724,245.95585289384127)">
     <circle cx="0" cy="0" r="10" fill="red"/>
      <text sodipodi:linespacing="125%" y="5.0" x="0" id="text26" style="font-size:16pxpx;font-style:normal;font-weight:normal;text-align:center;line-height:125%;letter-spacing:0px;word-spacing:0px;text-anchor:middle;fill:#000000;fill-opacity:1;stroke:none;font-family:Sans">
<tspan y="5.0" x="0" id="tspan26" sodipodi:role="line">27</tspan></text>
    </g>
    <g id="g27" transform="translate(144.21930314193628,216.8021208788303)">
     <circle cx="0" cy="0" r="10" fill="red"/>
      <text sodipodi:linespacing="125%" y="5.0" x="0" id="text27" style="font-size:16pxpx;font-style:normal;font-weight:normal;text-align:center;line-height:125%;letter-spacing:0px;word-spacing:0px;text-anchor:middle;fill:#000000;fill-opacity:1;stroke:none;font-family:Sans">
<tspan y="5.0" x="0" id="tspan27" sodipodi:role="line">28</tspan></text>
    </g>
    <g id="g28" transform="translate(133.05397566676984,357.47940882635066)">
     <circle cx="0" cy="0" r="10" fill="red"/>
      <text sodipodi:linespacing="125%" y="5.0" x="0" id="text28" style="font-size:16pxpx;font-style:normal;font-weight:normal;text-align:center;line-height:125%;letter-spacing:0px;word-spacing:0px;text-anchor:middle;fill:#000000;fill-opacity:1;stroke:none;font-family:Sans">
<tspan y="5.0" x="0" id="tspan28" sodipodi:role="line">29</tspan></text>
    </g>
    <g id="g29" transform="translate(131.93867565661924,390.0)">
     <circle cx="0" cy="0" r="10" fill="red"/>
      <text sodipodi:linespacing="125%" y="5.0" x="0" id="text29" style="font-size:16pxpx;font-style:normal;font-weight:normal;text-align:center;line-height:125%;letter-spacing:0px;word-spacing:0px;text-anchor:middle;fill:#000000;fill-opacity:1;stroke:none;font-family:Sans">
<tspan y="5.0" x="0" id="tspan29" sodipodi:role="line">30</tspan></text>
    </g>
    <g id="g30" transform="translate(165.66391779580985,376.7629098759631)">
     <circle cx="0" cy="0" r="10" fill="red"/>
      <text sodipodi:linespacing="125%" y="5.0" x="0" id="text30" style="font-size:16pxpx;font-style:normal;font-weight:normal;text-align:center;line-height:125%;letter-spacing:0px;word-spacing:0px;text-anchor:middle;fill:#000000;fill-opacity:1;stroke:none;font-family:Sans">
<tspan y="5.0" x="0" id="tspan30" sodipodi:role="line">31</tspan></text>
    </g>
    <g id="g31" transform="translate(87.90099193472584,355.2753092080381)">
     <circle cx="0" cy="0" r="10" fill="red"/>
      <text sodipodi:linespacing="125%" y="5.0" x="0" id="text31" style="font-size:16pxpx;font-style:normal;font-weight:normal;text-align:center;line-height:125%;letter-spacing:0px;word-spacing:0px;text-anchor:middle;fill:#000000;fill-opacity:1;stroke:none;font-family:Sans">
<tspan y="5.0" x="0" id="tspan31" sodipodi:role="line">32</tspan></text>
    </g>
    <g id="g32" transform="translate(91.02430581719014,379.7511308123718)">
     <circle cx="0" cy="0" r="10" fill="red"/>
      <text sodipodi:linespacing="125%" y="5.0" x="0" id="text32" style="font-size:16pxpx;font-style:normal;font-weight:normal;text-align:center;line-height:125%;letter-spacing:0px;word-spacing:0px;text-anchor:middle;fill:#000000;fill-opacity:1;stroke:none;font-family:Sans">
<tspan y="5.0" x="0" id="tspan32" sodipodi:role="line">33</tspan></text>
    </g>
    <g id="g33" transform="translate(240.08936287647512,216.2192320989958)">
     <circle cx="0" cy="0" r="10" fill="red"/>
      <text sodipodi:linespacing="125%" y="5.0" x="0" id="text33" style="font-size:16pxpx;font-style:normal;font-weight:normal;text-align:center;line-height:125%;letter-spacing:0px;word-spacing:0px;text-anchor:middle;fill:#000000;fill-opacity:1;stroke:none;font-family:Sans">
<tspan y="5.0" x="0" id="tspan33" sodipodi:role="line">34</tspan></text>
    </g>
    <g id="g34" transform="translate(286.7365303095373,244.01882218200794)">
     <circle cx="0" cy="0" r="10" fill="red"/>
      <text sodipodi:linespacing="125%" y="5.0" x="0" id="text34" style="font-size:16pxpx;font-style:normal;font-weight:normal;text-align:center;line-height:125%;letter-spacing:0px;word-spacing:0px;text-anchor:middle;fill:#000000;fill-opacity:1;stroke:none;font-family:Sans">
<tspan y="5.0" x="0" id="tspan34" sodipodi:role="line">35</tspan></text>
    </g>
    <g id="g35" transform="translate(228.2520354596703,20.599204372184914)">
     <circle cx="0" cy="0" r="10" fill="red"/>
      <text sodipodi:linespacing="125%" y="5.0" x="0" id="text35" style="font-size:16pxpx;font-style:normal;font-weight:normal;text-align:center;line-height:125%;letter-spacing:0px;word-spacing:0px;text-anchor:middle;fill:#000000;fill-opacity:1;stroke:none;font-family:Sans">
<tspan y="5.0" x="0" id="tspan35" sodipodi:role="line">36</tspan></text>
    </g>
    <g id="g36" transform="translate(271.76595976151566,10.0)">
     <circle cx="0" cy="0" r="10" fill="red"/>
      <text sodipodi:linespacing="125%" y="5.0" x="0" id="text36" style="font-size:16pxpx;font-style:normal;font-weight:normal;text-align:center;line-height:125%;letter-spacing:0px;word-spacing:0px;text-anchor:middle;fill:#000000;fill-opacity:1;stroke:none;font-family:Sans">
<tspan y="5.0" x="0" id="tspan36" sodipodi:role="line">37</tspan></text>
    </g>
    <g id="g37" transform="translate(311.23367719961493,32.634161071218955)">
     <circle cx="0" cy="0" r="10" fill="red"/>
      <text sodipodi:linespacing="125%" y="5.0" x="0" id="text37" style="font-size:16pxpx;font-style:normal;font-weight:normal;text-align:center;line-height:125%;letter-spacing:0px;word-spacing:0px;text-anchor:middle;fill:#000000;fill-opacity:1;stroke:none;font-family:Sans">
<tspan y="5.0" x="0" id="tspan37" sodipodi:role="line">38</tspan></text>
    </g>
    <g id="g38" transform="translate(270.0938210885925,40.88796775404128)">
     <circle cx="0" cy="0" r="10" fill="red"/>
      <text sodipodi:linespacing="125%" y="5.0" x="0" id="text38" style="font-size:16pxpx;font-style:normal;font-weight:normal;text-align:center;line-height:125%;letter-spacing:0px;word-spacing:0px;text-anchor:middle;fill:#000000;fill-opacity:1;stroke:none;font-family:Sans">
<tspan y="5.0" x="0" id="tspan38" sodipodi:role="line">39</tspan></text>
    </g>
    <g id="g39" transform="translate(301.3749011641455,164.8139629098829)">
     <circle cx="0" cy="0" r="10" fill="red"/>
      <text sodipodi:linespacing="125%" y="5.0" x="0" id="text39" style="font-size:16pxpx;font-style:normal;font-weight:normal;text-align:center;line-height:125%;letter-spacing:0px;word-spacing:0px;text-anchor:middle;fill:#000000;fill-opacity:1;stroke:none;font-family:Sans">
<tspan y="5.0" x="0" id="tspan39" sodipodi:role="line">40</tspan></text>
    </g>
    <g id="g40" transform="translate(207.76778283361296,243.75512416567753)">
     <circle cx="0" cy="0" r="10" fill="red"/>
      <text sodipodi:linespacing="125%" y="5.0" x="0" id="text40" style="font-size:16pxpx;font-style:normal;font-weight:normal;text-align:center;line-height:125%;letter-spacing:0px;word-spacing:0px;text-anchor:middle;fill:#000000;fill-opacity:1;stroke:none;font-family:Sans">
<tspan y="5.0" x="0" id="tspan40" sodipodi:role="line">41</tspan></text>
    </g>
    <g id="g41" transform="translate(197.03584882143562,219.80485591799194)">
     <circle cx="0" cy="0" r="10" fill="red"/>
      <text sodipodi:linespacing="125%" y="5.0" x="0" id="text41" style="font-size:16pxpx;font-style:normal;font-weight:normal;text-align:center;line-height:125%;letter-spacing:0px;word-spacing:0px;text-anchor:middle;fill:#000000;fill-opacity:1;stroke:none;font-family:Sans">
<tspan y="5.0" x="0" id="tspan41" sodipodi:role="line">42</tspan></text>
    </g>
    <g id="g42" transform="translate(380.83503190206784,243.74650626116363)">
     <circle cx="0" cy="0" r="10" fill="red"/>
      <text sodipodi:linespacing="125%" y="5.0" x="0" id="text42" style="font-size:16pxpx;font-style:normal;font-weight:normal;text-align:center;line-height:125%;letter-spacing:0px;word-spacing:0px;text-anchor:middle;fill:#000000;fill-opacity:1;stroke:none;font-family:Sans">
<tspan y="5.0" x="0" id="tspan42" sodipodi:role="line">43</tspan></text>
    </g>
    <g id="g43" transform="translate(213.68913404449214,177.54875309141306)">
     <circle cx="0" cy="0" r="10" fill="red"/>
      <text sodipodi:linespacing="125%" y="5.0" x="0" id="text43" style="font-size:16pxpx;font-style:normal;font-weight:normal;text-align:center;line-height:125%;letter-spacing:0px;word-spacing:0px;text-anchor:middle;fill:#000000;fill-opacity:1;stroke:none;font-family:Sans">
<tspan y="5.0" x="0" id="tspan43" sodipodi:role="line">44</tspan></text>
    </g>
    <g id="g44" transform="translate(222.99955449825492,156.83538311875833)">
     <circle cx="0" cy="0" r="10" fill="red"/>
      <text sodipodi:linespacing="125%" y="5.0" x="0" id="text44" style="font-size:16pxpx;font-style:normal;font-weight:normal;text-align:center;line-height:125%;letter-spacing:0px;word-spacing:0px;text-anchor:middle;fill:#000000;fill-opacity:1;stroke:none;font-family:Sans">
<tspan y="5.0" x="0" id="tspan44" sodipodi:role="line">45</tspan></text>
    </g>
    <g id="g45" transform="translate(115.71376389195697,200.4374680361359)">
     <circle cx="0" cy="0" r="10" fill="red"/>
      <text sodipodi:linespacing="125%" y="5.0" x="0" id="text45" style="font-size:16pxpx;font-style:normal;font-weight:normal;text-align:center;line-height:125%;letter-spacing:0px;word-spacing:0px;text-anchor:middle;fill:#000000;fill-opacity:1;stroke:none;font-family:Sans">
<tspan y="5.0" x="0" id="tspan45" sodipodi:role="line">46</tspan></text>
    </g>
    <g id="g46" transform="translate(109.6187821405721,175.3763858120789)">
     <circle cx="0" cy="0" r="10" fill="red"/>
      <text sodipodi:linespacing="125%" y="5.0" x="0" id="text46" style="font-size:16pxpx;font-style:normal;font-weight:normal;text-align:center;line-height:125%;letter-spacing:0px;word-spacing:0px;text-anchor:middle;fill:#000000;fill-opacity:1;stroke:none;font-family:Sans">
<tspan y="5.0" x="0" id="tspan46" sodipodi:role="line">47</tspan></text>
    </g>
    <g id="g47" transform="translate(235.12109306346113,285.6330478440441)">
     <circle cx="0" cy="0" r="10" fill="red"/>
      <text sodipodi:linespacing="125%" y="5.0" x="0" id="text47" style="font-size:16pxpx;font-style:normal;font-weight:normal;text-align:center;line-height:125%;letter-spacing:0px;word-spacing:0px;text-anchor:middle;fill:#000000;fill-opacity:1;stroke:none;font-family:Sans">
<tspan y="5.0" x="0" id="tspan47" sodipodi:role="line">48</tspan></text>
    </g>
</g>

</svg>
