;1; 2; 3; 4; 5; 6; 7; 8; 9; 10; 11; 12; 13; 14; 15; 16; 17; 18; 19; 20; 21; 22; 23; 24; 25; 26; 27; 28; 29; 30; 31; 32; 33; 34; 35; 36
1;1,000000;0,500000;0,276954;0,394285;0,398491;0,398491;0,387546;0,000000;0,000000;0,428566;0,467287;0,410339;0,382385;0,484723;0,445548;0,416667;0,375000;0,401344;0,375000;0,405044;0,375000;0,375000;0,416667;0,375000;0,375000;0,500000;0,375000;0,375000;0,375000;0,000000;0,000000;0,000000;0,416667;0,416667;0,416667;0,416667;
2;;1,000000;0,276954;0,394285;0,398491;0,398491;0,387546;0,000000;0,000000;0,428566;0,467287;0,410339;0,382385;0,484723;0,445548;0,416667;0,375000;0,401344;0,375000;0,405044;0,375000;0,375000;0,416667;0,375000;0,375000;0,500000;0,375000;0,375000;0,375000;0,000000;0,000000;0,000000;0,416667;0,416667;0,416667;0,416667;
3;;;1,000000;0,450124;0,440478;0,440478;0,462735;0,291799;0,291799;0,321388;0,386793;0,483422;0,520309;0,368944;0,429691;0,424956;0,491512;0,534311;0,461796;0,450769;0,461177;0,462009;0,424956;0,498798;0,461177;0,305450;0,464336;0,464336;0,451585;0,000000;0,000000;0,000000;0,377111;0,377111;0,377111;0,415453;
4;;;;1,000000;0,741276;0,741276;0,845493;0,000000;0,000000;0,322852;0,361572;0,304624;0,276670;0,379008;0,339833;0,310952;0,269285;0,295630;0,269285;0,299329;0,269285;0,269285;0,310952;0,269285;0,269285;0,394285;0,269285;0,269285;0,269285;0,000000;0,000000;0,000000;0,310952;0,310952;0,310952;0,310952;
5;;;;;1,000000;0,704925;0,778652;0,000000;0,000000;0,327058;0,365778;0,308830;0,280876;0,383214;0,344039;0,315158;0,273491;0,299836;0,273491;0,303535;0,273491;0,273491;0,315158;0,273491;0,273491;0,398491;0,273491;0,273491;0,273491;0,000000;0,000000;0,000000;0,315158;0,315158;0,315158;0,315158;
6;;;;;;1,000000;0,778652;0,000000;0,000000;0,327058;0,365778;0,308830;0,280876;0,383214;0,344039;0,315158;0,273491;0,299836;0,273491;0,303535;0,273491;0,273491;0,315158;0,273491;0,273491;0,398491;0,273491;0,273491;0,273491;0,000000;0,000000;0,000000;0,315158;0,315158;0,315158;0,315158;
7;;;;;;;1,000000;0,000000;0,000000;0,316112;0,354833;0,297885;0,269931;0,372269;0,333094;0,304213;0,262546;0,288890;0,262546;0,292590;0,262546;0,262546;0,304213;0,262546;0,262546;0,387546;0,262546;0,262546;0,262546;0,000000;0,000000;0,000000;0,304213;0,304213;0,304213;0,304213;
8;;;;;;;;1,000000;0,500000;0,349452;0,000000;0,000000;0,000000;0,000000;0,414784;0,416667;0,000000;0,000000;0,000000;0,000000;0,000000;0,000000;0,416667;0,000000;0,000000;0,000000;0,000000;0,000000;0,000000;0,000000;0,000000;0,000000;0,000000;0,000000;0,000000;0,000000;
9;;;;;;;;;1,000000;0,349452;0,000000;0,000000;0,000000;0,000000;0,414784;0,416667;0,000000;0,000000;0,000000;0,000000;0,000000;0,000000;0,416667;0,000000;0,000000;0,000000;0,000000;0,000000;0,000000;0,000000;0,000000;0,000000;0,000000;0,000000;0,000000;0,000000;
10;;;;;;;;;;1,000000;0,395854;0,589368;0,310951;0,413290;0,484272;0,697761;0,303566;0,329911;0,303566;0,333611;0,303566;0,303566;0,697761;0,303566;0,303566;0,428566;0,614427;0,614427;0,303566;0,000000;0,000000;0,000000;0,345233;0,345233;0,345233;0,697761;
11;;;;;;;;;;;1,000000;0,511136;0,699108;0,628190;0,603849;0,383954;0,875000;0,491387;0,737219;0,610959;0,737219;0,737219;0,383954;0,550871;0,737219;0,467287;0,613171;0,613171;0,808584;0,000000;0,000000;0,000000;0,383954;0,383954;0,383954;0,696504;
12;;;;;;;;;;;;1,000000;0,549671;0,395062;0,527487;0,558274;0,575721;0,587766;0,634485;0,315383;0,475578;0,475578;0,558274;0,285339;0,475578;0,410339;0,633664;0,633664;0,634485;0,000000;0,000000;0,000000;0,327006;0,327006;0,327006;0,558274;
13;;;;;;;;;;;;;1,000000;0,539770;0,433854;0,299051;0,694217;0,636278;0,640181;0,522539;0,645989;0,646344;0,299051;0,462451;0,645989;0,382385;0,443177;0,443177;0,623589;0,000000;0,000000;0,000000;0,299051;0,299051;0,299051;0,526510;
14;;;;;;;;;;;;;;1,000000;0,430271;0,401390;0,518538;0,604561;0,577319;0,695828;0,577319;0,577319;0,401390;0,802760;0,577319;0,484723;0,359723;0,359723;0,359723;0,000000;0,000000;0,000000;0,401390;0,401390;0,401390;0,401390;
15;;;;;;;;;;;;;;;1,000000;0,688927;0,432584;0,346892;0,320548;0,350592;0,320548;0,320548;0,688927;0,320548;0,320548;0,445548;0,639997;0,639997;0,490678;0,000000;0,000000;0,000000;0,362215;0,362215;0,362215;0,574011;
16;;;;;;;;;;;;;;;;1,000000;0,291667;0,318011;0,291667;0,321711;0,291667;0,291667;1,000000;0,291667;0,291667;0,416667;0,583333;0,583333;0,291667;0,000000;0,000000;0,000000;0,333333;0,333333;0,333333;0,666667;
17;;;;;;;;;;;;;;;;;1,000000;0,543096;0,689338;0,501307;0,689338;0,689338;0,291667;0,441219;0,689338;0,375000;0,441906;0,441906;0,689998;0,000000;0,000000;0,000000;0,291667;0,291667;0,291667;0,525240;
18;;;;;;;;;;;;;;;;;;1,000000;0,601915;0,598703;0,622338;0,622678;0,318011;0,695482;0,622338;0,732547;0,276344;0,276344;0,601915;0,000000;0,000000;0,000000;0,318011;0,318011;0,318011;0,318011;
19;;;;;;;;;;;;;;;;;;;1,000000;0,560088;0,750000;0,750000;0,291667;0,500000;0,750000;0,375000;0,250000;0,250000;0,750000;0,000000;0,000000;0,000000;0,291667;0,291667;0,291667;0,291667;
20;;;;;;;;;;;;;;;;;;;;1,000000;0,560088;0,560088;0,321711;0,840132;0,560088;0,810088;0,280044;0,280044;0,280044;0,000000;0,000000;0,000000;0,321711;0,321711;0,321711;0,321711;
21;;;;;;;;;;;;;;;;;;;;;1,000000;0,750000;0,291667;0,500000;1,000000;0,375000;0,250000;0,250000;0,500000;0,000000;0,000000;0,000000;0,291667;0,291667;0,291667;0,291667;
22;;;;;;;;;;;;;;;;;;;;;;1,000000;0,291667;0,500000;0,750000;0,375000;0,250000;0,250000;0,500000;0,000000;0,000000;0,000000;0,291667;0,291667;0,291667;0,291667;
23;;;;;;;;;;;;;;;;;;;;;;;1,000000;0,291667;0,291667;0,416667;0,583333;0,583333;0,291667;0,000000;0,000000;0,000000;0,333333;0,333333;0,333333;0,666667;
24;;;;;;;;;;;;;;;;;;;;;;;;1,000000;0,500000;0,750000;0,250000;0,250000;0,250000;0,000000;0,000000;0,000000;0,291667;0,291667;0,291667;0,291667;
25;;;;;;;;;;;;;;;;;;;;;;;;;1,000000;0,375000;0,250000;0,250000;0,500000;0,000000;0,000000;0,000000;0,291667;0,291667;0,291667;0,291667;
26;;;;;;;;;;;;;;;;;;;;;;;;;;1,000000;0,375000;0,375000;0,375000;0,000000;0,000000;0,000000;0,416667;0,416667;0,416667;0,416667;
27;;;;;;;;;;;;;;;;;;;;;;;;;;;1,000000;0,750000;0,500000;0,000000;0,000000;0,000000;0,291667;0,291667;0,291667;0,875000;
28;;;;;;;;;;;;;;;;;;;;;;;;;;;;1,000000;0,500000;0,000000;0,000000;0,000000;0,291667;0,291667;0,291667;0,875000;
29;;;;;;;;;;;;;;;;;;;;;;;;;;;;;1,000000;0,000000;0,000000;0,000000;0,291667;0,291667;0,291667;0,583333;
30;;;;;;;;;;;;;;;;;;;;;;;;;;;;;;1,000000;0,500000;0,500000;0,000000;0,000000;0,000000;0,000000;
31;;;;;;;;;;;;;;;;;;;;;;;;;;;;;;;1,000000;0,500000;0,000000;0,000000;0,000000;0,000000;
32;;;;;;;;;;;;;;;;;;;;;;;;;;;;;;;;1,000000;0,000000;0,000000;0,000000;0,000000;
33;;;;;;;;;;;;;;;;;;;;;;;;;;;;;;;;;1,000000;0,666667;0,666667;0,333333;
34;;;;;;;;;;;;;;;;;;;;;;;;;;;;;;;;;;1,000000;0,666667;0,333333;
35;;;;;;;;;;;;;;;;;;;;;;;;;;;;;;;;;;;1,000000;0,333333;
36;;;;;;;;;;;;;;;;;;;;;;;;;;;;;;;;;;;;1,000000;
