;1; 2; 3; 4; 5; 6; 7; 8; 9; 10; 11; 12; 13; 14; 15; 16; 17; 18; 19; 20; 21; 22; 23; 24; 25; 26; 27; 28; 29; 30; 31; 32; 33; 34; 35; 36; 37; 38; 39; 40; 41; 42; 43; 44; 45; 46; 47; 48; 49; 50; 51; 52; 53; 54; 55; 56; 57; 58; 59; 60; 61; 62; 63; 64; 65; 66; 67; 68; 69; 70; 71; 72; 73; 74; 75; 76; 77; 78; 79; 80; 81; 82; 83; 84; 85; 86; 87; 88; 89; 90; 91; 92; 93; 94; 95; 96; 97; 98; 99; 100; 101; 102; 103; 104; 105; 106; 107; 108; 109; 110; 111; 112; 113; 114
1;1,000000;0,508389;0,407975;0,537614;0,543370;0,353046;0,558653;0,360904;0,360904;0,472284;0,466118;0,497457;0,499416;0,487522;0,530904;0,555527;0,573929;0,573929;0,459747;0,500605;0,388663;0,377066;0,407975;0,419405;0,579917;0,579917;0,000000;0,000000;0,000000;0,000000;0,000000;0,000000;0,000000;0,000000;0,000000;0,000000;0,000000;0,000000;0,000000;0,561928;0,561928;0,561928;0,561928;0,000000;0,000000;0,000000;0,275352;0,498452;0,275352;0,437045;0,256028;0,275352;0,579633;0,497705;0,576229;0,000000;0,000000;0,538108;0,513140;0,256321;0,256321;0,461999;0,546887;0,546887;0,000000;0,000000;0,000000;0,407975;0,512763;0,459343;0,514662;0,581217;0,297468;0,560132;0,412433;0,492862;0,492862;0,000000;0,000000;0,000000;0,594415;0,594415;0,594415;0,389007;0,389007;0,389007;0,389007;0,000000;0,513140;0,581220;0,581220;0,601015;0,416485;0,416485;0,416485;0,416485;0,416485;0,407975;0,498419;0,000000;0,413839;0,000000;0,084079;0,000000;0,430000;0,430000;0,430000;0,256028;0,513140;0,150352;0,150352;0,255865;0,000000;0,360904;
2;;1,000000;0,449586;0,586763;0,592935;0,451742;0,516246;0,180401;0,180401;0,585022;0,511162;0,541709;0,598428;0,542537;0,575786;0,649777;0,425856;0,425856;0,559089;0,285061;0,555664;0,540149;0,449586;0,461316;0,632903;0,632903;0,000000;0,000000;0,000000;0,000000;0,000000;0,000000;0,000000;0,000000;0,000000;0,000000;0,000000;0,000000;0,000000;0,604358;0,604358;0,604358;0,604358;0,000000;0,000000;0,000000;0,725557;0,541400;0,725557;0,478912;0,708067;0,725557;0,631964;0,540954;0,537349;0,000000;0,000000;0,558890;0,565063;0,449586;0,449586;0,504480;0,591594;0,591594;0,000000;0,000000;0,000000;0,449586;0,559445;0,639568;0,641060;0,600799;0,609917;0,613877;0,604252;0,534813;0,534813;0,000000;0,000000;0,000000;0,629176;0,629176;0,629176;0,324586;0,324586;0,324586;0,324586;0,699586;0,358375;0,602341;0,602341;0,636175;0,299586;0,299586;0,299586;0,299586;0,299586;0,449586;0,541667;0,699586;0,475557;0,503885;0,343192;0,253885;0,425557;0,425557;0,425557;0,510294;0,565063;0,267560;0,267560;0,449586;0,503885;0,558890;
3;;;1,000000;0,813229;0,804064;0,317693;0,703943;0,000000;0,000000;0,847804;0,906035;0,833333;0,775809;0,906035;0,836418;0,670498;0,350000;0,350000;0,715996;0,299741;0,401367;0,407296;1,000000;0,982476;0,758349;0,758349;0,000000;0,000000;0,000000;0,000000;0,000000;0,000000;0,000000;0,000000;0,000000;0,000000;0,000000;0,000000;0,000000;0,700000;0,700000;0,700000;0,700000;0,000000;0,000000;0,000000;0,500000;0,833333;0,500000;0,949816;0,500000;0,500000;0,750000;0,850000;0,757621;0,000000;0,000000;0,833333;0,833333;0,500000;0,500000;0,906035;0,750000;0,750000;0,000000;0,000000;0,000000;1,000000;0,833333;0,750268;0,717642;0,750000;0,453017;0,802733;0,375000;0,833333;0,833333;0,000000;0,000000;0,000000;0,677221;0,677221;0,677221;0,375000;0,375000;0,375000;0,375000;0,750000;0,416667;0,750000;0,750000;0,666667;0,350000;0,350000;0,350000;0,350000;0,350000;1,000000;0,833333;0,750000;0,375000;0,000000;0,000000;0,000000;0,350000;0,350000;0,350000;0,000000;0,833333;0,000000;0,000000;0,500000;0,000000;0,416667;
4;;;;1,000000;0,704861;0,224307;0,517172;0,000000;0,000000;0,661033;0,719264;0,646562;0,589038;0,719264;0,649647;0,483727;0,256615;0,256615;0,529225;0,206355;0,307981;0,313911;0,813229;0,795705;0,908162;0,908162;0,000000;0,000000;0,000000;0,000000;0,000000;0,000000;0,000000;0,000000;0,000000;0,000000;0,000000;0,000000;0,000000;0,513229;0,513229;0,513229;0,513229;0,000000;0,000000;0,000000;0,406615;0,646562;0,406615;0,763045;0,406615;0,406615;0,833026;0,663229;0,570850;0,000000;0,000000;0,646562;0,646562;0,406615;0,406615;0,822283;0,563229;0,563229;0,000000;0,000000;0,000000;0,813229;0,646562;0,563497;0,530871;0,563229;0,359632;0,807293;0,281615;0,646562;0,646562;0,000000;0,000000;0,000000;0,490450;0,490450;0,490450;0,281615;0,281615;0,281615;0,281615;0,656615;0,323281;0,563229;0,563229;0,479896;0,256615;0,256615;0,256615;0,256615;0,256615;0,813229;0,646562;0,656615;0,281615;0,000000;0,000000;0,000000;0,256615;0,256615;0,256615;0,000000;0,646562;0,000000;0,000000;0,406615;0,000000;0,323281;
5;;;;;1,000000;0,219725;0,508007;0,000000;0,000000;0,651868;0,710099;0,637397;0,579873;0,710099;0,640482;0,474562;0,252032;0,252032;0,520060;0,201773;0,303399;0,309328;0,804064;0,786540;0,906602;0,906602;0,000000;0,000000;0,000000;0,000000;0,000000;0,000000;0,000000;0,000000;0,000000;0,000000;0,000000;0,000000;0,000000;0,504064;0,504064;0,504064;0,504064;0,000000;0,000000;0,000000;0,402032;0,637397;0,402032;0,753880;0,402032;0,402032;0,831096;0,654064;0,561685;0,000000;0,000000;0,637397;0,637397;0,402032;0,402032;0,813611;0,554064;0,554064;0,000000;0,000000;0,000000;0,804064;0,637397;0,554332;0,521706;0,554064;0,355049;0,805356;0,277032;0,637397;0,637397;0,000000;0,000000;0,000000;0,481284;0,481284;0,481284;0,277032;0,277032;0,277032;0,277032;0,652032;0,318699;0,554064;0,554064;0,470730;0,252032;0,252032;0,252032;0,252032;0,252032;0,804064;0,637397;0,652032;0,277032;0,000000;0,000000;0,000000;0,252032;0,252032;0,252032;0,000000;0,637397;0,000000;0,000000;0,402032;0,000000;0,318699;
6;;;;;;1,000000;0,539114;0,532398;0,532398;0,207052;0,270710;0,234359;0,174621;0,270710;0,456827;0,316781;0,000000;0,000000;0,417980;0,243747;0,528918;0,540777;0,317693;0,308931;0,196867;0,196867;0,000000;0,000000;0,000000;0,000000;0,000000;0,000000;0,000000;0,000000;0,000000;0,000000;0,000000;0,000000;0,000000;0,167693;0,167693;0,167693;0,167693;0,000000;0,000000;0,000000;0,726185;0,234359;0,726185;0,292601;0,317693;0,726185;0,192693;0,242693;0,425217;0,000000;0,000000;0,559518;0,234359;0,317693;0,317693;0,270710;0,192693;0,192693;0,000000;0,000000;0,000000;0,317693;0,234359;0,284980;0,227923;0,476185;0,270710;0,219059;0,476185;0,234359;0,234359;0,000000;0,000000;0,000000;0,156303;0,156303;0,156303;0,192693;0,192693;0,192693;0,192693;0,567693;0,000000;0,476185;0,476185;0,151026;0,167693;0,167693;0,167693;0,167693;0,167693;0,317693;0,234359;0,567693;0,476185;0,000000;0,199313;0,000000;0,704534;0,704534;0,704534;0,000000;0,234359;0,265587;0,265587;0,317693;0,000000;0,559518;
7;;;;;;;1,000000;0,372382;0,372382;0,574555;0,609978;0,537277;0,575215;0,713708;0,596636;0,443400;0,259772;0,259772;0,562546;0,440935;0,522956;0,511323;0,703943;0,686419;0,462292;0,462292;0,000000;0,000000;0,000000;0,000000;0,000000;0,000000;0,000000;0,000000;0,000000;0,000000;0,000000;0,000000;0,000000;0,403943;0,403943;0,403943;0,403943;0,000000;0,000000;0,000000;0,380665;0,721527;0,380665;0,653759;0,650905;0,380665;0,453943;0,553943;0,591212;0,000000;0,000000;0,537277;0,744268;0,380665;0,380665;0,609978;0,453943;0,453943;0,000000;0,000000;0,000000;0,703943;0,537277;0,454211;0,421585;0,583976;0,333682;0,506677;0,542973;0,537277;0,537277;0,000000;0,000000;0,000000;0,381164;0,381164;0,381164;0,255665;0,255665;0,255665;0,255665;0,630665;0,621137;0,583981;0,583981;0,370610;0,230665;0,230665;0,230665;0,230665;0,230665;0,703943;0,537277;0,630665;0,567995;0,527814;0,417202;0,533711;0,561116;0,561116;0,561116;0,547518;0,744268;0,416033;0,416033;0,380665;0,527814;0,484529;
8;;;;;;;;1,000000;0,666667;0,000000;0,000000;0,000000;0,000000;0,000000;0,230879;0,218217;0,000000;0,000000;0,248035;0,269826;0,318033;0,323963;0,000000;0,000000;0,000000;0,000000;0,000000;0,000000;0,000000;0,000000;0,000000;0,000000;0,000000;0,000000;0,000000;0,000000;0,000000;0,000000;0,000000;0,000000;0,000000;0,000000;0,000000;0,000000;0,000000;0,000000;0,416667;0,000000;0,416667;0,000000;0,000000;0,416667;0,000000;0,000000;0,208225;0,000000;0,000000;0,333333;0,000000;0,000000;0,000000;0,000000;0,000000;0,000000;0,000000;0,000000;0,000000;0,000000;0,000000;0,000000;0,000000;0,291667;0,000000;0,000000;0,291667;0,000000;0,000000;0,000000;0,000000;0,000000;0,000000;0,000000;0,000000;0,000000;0,000000;0,000000;0,000000;0,000000;0,000000;0,291667;0,291667;0,000000;0,000000;0,000000;0,000000;0,000000;0,000000;0,000000;0,000000;0,000000;0,291667;0,000000;0,225393;0,000000;0,533333;0,533333;0,533333;0,000000;0,000000;0,291667;0,291667;0,000000;0,000000;0,666667;
9;;;;;;;;;1,000000;0,000000;0,000000;0,000000;0,000000;0,000000;0,230879;0,218217;0,000000;0,000000;0,248035;0,269826;0,318033;0,323963;0,000000;0,000000;0,000000;0,000000;0,000000;0,000000;0,000000;0,000000;0,000000;0,000000;0,000000;0,000000;0,000000;0,000000;0,000000;0,000000;0,000000;0,000000;0,000000;0,000000;0,000000;0,000000;0,000000;0,000000;0,416667;0,000000;0,416667;0,000000;0,000000;0,416667;0,000000;0,000000;0,208225;0,000000;0,000000;0,333333;0,000000;0,000000;0,000000;0,000000;0,000000;0,000000;0,000000;0,000000;0,000000;0,000000;0,000000;0,000000;0,000000;0,291667;0,000000;0,000000;0,291667;0,000000;0,000000;0,000000;0,000000;0,000000;0,000000;0,000000;0,000000;0,000000;0,000000;0,000000;0,000000;0,000000;0,000000;0,291667;0,291667;0,000000;0,000000;0,000000;0,000000;0,000000;0,000000;0,000000;0,000000;0,000000;0,291667;0,000000;0,225393;0,000000;0,533333;0,533333;0,533333;0,000000;0,000000;0,291667;0,291667;0,000000;0,000000;0,666667;
10;;;;;;;;;;1,000000;0,753839;0,865807;0,769854;0,753839;0,738483;0,756136;0,664609;0,664609;0,563800;0,235628;0,290726;0,296656;0,847804;0,830280;0,606153;0,606153;0,000000;0,000000;0,000000;0,000000;0,000000;0,000000;0,000000;0,000000;0,000000;0,000000;0,000000;0,000000;0,000000;0,547804;0,547804;0,547804;0,547804;0,000000;0,000000;0,000000;0,389359;0,681137;0,389359;0,797620;0,389359;0,389359;0,597804;0,697804;0,735736;0,000000;0,000000;0,681137;0,681137;0,389359;0,389359;0,753839;0,597804;0,597804;0,000000;0,000000;0,000000;0,847804;0,681137;0,598072;0,565446;0,740579;0,342377;0,650537;0,264359;0,681137;0,681137;0,000000;0,000000;0,000000;0,525025;0,525025;0,525025;0,264359;0,264359;0,264359;0,264359;0,639359;0,352554;0,597804;0,597804;0,514471;0,239359;0,239359;0,239359;0,239359;0,239359;0,847804;0,681137;0,639359;0,264359;0,000000;0,000000;0,000000;0,239359;0,239359;0,239359;0,000000;0,681137;0,000000;0,000000;0,389359;0,000000;0,306026;
11;;;;;;;;;;;1,000000;0,739368;0,797248;0,938218;0,742453;0,721940;0,499537;0,499537;0,622031;0,252758;0,354384;0,360314;0,906035;0,888511;0,664384;0,664384;0,000000;0,000000;0,000000;0,000000;0,000000;0,000000;0,000000;0,000000;0,000000;0,000000;0,000000;0,000000;0,000000;0,606035;0,606035;0,606035;0,606035;0,000000;0,000000;0,000000;0,453017;0,739368;0,453017;0,855851;0,453017;0,453017;0,656035;0,756035;0,663656;0,000000;0,000000;0,739368;0,739368;0,453017;0,453017;0,812070;0,656035;0,656035;0,000000;0,000000;0,000000;0,906035;0,739368;0,656303;0,623677;0,656035;0,406035;0,708768;0,328017;0,739368;0,739368;0,000000;0,000000;0,000000;0,583255;0,583255;0,583255;0,328017;0,328017;0,328017;0,328017;0,703017;0,369684;0,656035;0,656035;0,572701;0,303017;0,303017;0,303017;0,303017;0,303017;0,906035;0,739368;0,703017;0,328017;0,000000;0,000000;0,000000;0,303017;0,303017;0,303017;0,000000;0,739368;0,000000;0,000000;0,453017;0,000000;0,369684;
12;;;;;;;;;;;;1,000000;0,609143;0,739368;0,669751;0,721919;0,533333;0,533333;0,549329;0,216407;0,318033;0,323963;0,833333;0,815809;0,591682;0,591682;0,000000;0,000000;0,000000;0,000000;0,000000;0,000000;0,000000;0,000000;0,000000;0,000000;0,000000;0,000000;0,000000;0,533333;0,533333;0,533333;0,533333;0,000000;0,000000;0,000000;0,416667;0,666667;0,416667;0,783149;0,416667;0,416667;0,583333;0,683333;0,869929;0,000000;0,000000;0,666667;0,666667;0,416667;0,416667;0,739368;0,583333;0,583333;0,000000;0,000000;0,000000;0,833333;0,666667;0,583602;0,550975;0,583333;0,369684;0,636067;0,291667;0,666667;0,666667;0,000000;0,000000;0,000000;0,510554;0,510554;0,510554;0,291667;0,291667;0,291667;0,291667;0,666667;0,333333;0,583333;0,583333;0,500000;0,266667;0,266667;0,266667;0,266667;0,266667;0,833333;0,666667;0,666667;0,291667;0,000000;0,000000;0,000000;0,266667;0,266667;0,266667;0,000000;0,666667;0,000000;0,000000;0,416667;0,000000;0,333333;
13;;;;;;;;;;;;;1,000000;0,735466;0,612227;0,693194;0,636082;0,636082;0,491805;0,200197;0,343765;0,264225;0,775809;0,758285;0,534158;0,534158;0,000000;0,000000;0,000000;0,000000;0,000000;0,000000;0,000000;0,000000;0,000000;0,000000;0,000000;0,000000;0,000000;0,475809;0,475809;0,475809;0,475809;0,000000;0,000000;0,000000;0,356929;0,609143;0,356929;0,725625;0,356929;0,356929;0,525809;0,625809;0,533431;0,000000;0,000000;0,609143;0,609143;0,356929;0,356929;0,681844;0,525809;0,525809;0,000000;0,000000;0,000000;0,775809;0,609143;0,526077;0,493451;0,672061;0,309946;0,578542;0,417608;0,609143;0,609143;0,000000;0,000000;0,000000;0,453030;0,453030;0,453030;0,231929;0,231929;0,231929;0,231929;0,606929;0,317123;0,525809;0,525809;0,442476;0,206929;0,206929;0,206929;0,206929;0,206929;0,775809;0,609143;0,606929;0,231929;0,000000;0,000000;0,000000;0,206929;0,206929;0,206929;0,000000;0,609143;0,000000;0,000000;0,356929;0,000000;0,273595;
14;;;;;;;;;;;;;;1,000000;0,742453;0,660158;0,436772;0,436772;0,622031;0,356998;0,354384;0,360314;0,906035;0,888511;0,664384;0,664384;0,000000;0,000000;0,000000;0,000000;0,000000;0,000000;0,000000;0,000000;0,000000;0,000000;0,000000;0,000000;0,000000;0,606035;0,606035;0,606035;0,606035;0,000000;0,000000;0,000000;0,453017;0,739368;0,453017;0,855851;0,453017;0,453017;0,656035;0,756035;0,663656;0,000000;0,000000;0,739368;0,969440;0,453017;0,453017;0,812070;0,656035;0,656035;0,000000;0,000000;0,000000;0,906035;0,739368;0,656303;0,623677;0,656035;0,406035;0,708768;0,328017;0,739368;0,739368;0,000000;0,000000;0,000000;0,583255;0,583255;0,583255;0,328017;0,328017;0,328017;0,328017;0,703017;0,601808;0,656035;0,656035;0,572701;0,303017;0,303017;0,303017;0,303017;0,303017;0,906035;0,739368;0,703017;0,328017;0,000000;0,000000;0,000000;0,303017;0,303017;0,303017;0,000000;0,969440;0,000000;0,000000;0,453017;0,000000;0,369684;
15;;;;;;;;;;;;;;;1,000000;0,646826;0,279291;0,279291;0,838811;0,443619;0,533376;0,545235;0,836418;0,818894;0,594767;0,594767;0,000000;0,000000;0,000000;0,000000;0,000000;0,000000;0,000000;0,000000;0,000000;0,000000;0,000000;0,000000;0,000000;0,536418;0,536418;0,536418;0,536418;0,000000;0,000000;0,000000;0,730642;0,669751;0,730642;0,786234;0,396315;0,730642;0,586418;0,686418;0,715228;0,000000;0,000000;0,913938;0,669751;0,396315;0,396315;0,742453;0,586418;0,586418;0,000000;0,000000;0,000000;0,836418;0,669751;0,586686;0,554060;0,788938;0,349333;0,639151;0,480642;0,669751;0,669751;0,000000;0,000000;0,000000;0,513639;0,513639;0,513639;0,271315;0,271315;0,271315;0,271315;0,646315;0,536405;0,788938;0,788938;0,503085;0,246315;0,246315;0,246315;0,246315;0,246315;0,836418;0,669751;0,646315;0,480642;0,518457;0,410504;0,268457;0,430642;0,430642;0,430642;0,268457;0,669751;0,334873;0,334873;0,396315;0,518457;0,563976;
16;;;;;;;;;;;;;;;;1,000000;0,687804;0,687804;0,532731;0,329904;0,393329;0,405189;0,670498;0,652974;0,428847;0,428847;0,000000;0,000000;0,000000;0,000000;0,000000;0,000000;0,000000;0,000000;0,000000;0,000000;0,000000;0,000000;0,000000;0,370498;0,370498;0,370498;0,370498;0,000000;0,000000;0,000000;0,590596;0,503831;0,590596;0,620314;0,292727;0,590596;0,420498;0,520498;0,687122;0,000000;0,000000;0,732888;0,503831;0,292727;0,292727;0,576533;0,420498;0,420498;0,000000;0,000000;0,000000;0,670498;0,503831;0,420766;0,388140;0,607888;0,245745;0,473231;0,340596;0,503831;0,503831;0,000000;0,000000;0,000000;0,347719;0,347719;0,347719;0,167727;0,167727;0,167727;0,167727;0,542727;0,278530;0,607888;0,607888;0,337165;0,142727;0,142727;0,142727;0,142727;0,142727;0,670498;0,503831;0,542727;0,340596;0,000000;0,110276;0,000000;0,290596;0,290596;0,290596;0,000000;0,503831;0,176550;0,176550;0,292727;0,000000;0,423929;
17;;;;;;;;;;;;;;;;;1,000000;0,800000;0,201339;0,149741;0,000000;0,000000;0,350000;0,341238;0,229175;0,229175;0,000000;0,000000;0,000000;0,000000;0,000000;0,000000;0,000000;0,000000;0,000000;0,000000;0,000000;0,000000;0,000000;0,200000;0,200000;0,200000;0,200000;0,000000;0,000000;0,000000;0,000000;0,266667;0,000000;0,324908;0,000000;0,000000;0,225000;0,275000;0,399861;0,000000;0,000000;0,266667;0,266667;0,000000;0,000000;0,303017;0,225000;0,225000;0,000000;0,000000;0,000000;0,350000;0,266667;0,128474;0,153098;0,450000;0,000000;0,251367;0,000000;0,266667;0,266667;0,000000;0,000000;0,000000;0,188610;0,188610;0,188610;0,000000;0,000000;0,000000;0,000000;0,000000;0,266667;0,225000;0,225000;0,183333;0,000000;0,000000;0,000000;0,000000;0,000000;0,350000;0,266667;0,000000;0,000000;0,000000;0,000000;0,000000;0,000000;0,000000;0,000000;0,000000;0,266667;0,000000;0,000000;0,000000;0,000000;0,000000;
18;;;;;;;;;;;;;;;;;;1,000000;0,201339;0,149741;0,000000;0,000000;0,350000;0,341238;0,229175;0,229175;0,000000;0,000000;0,000000;0,000000;0,000000;0,000000;0,000000;0,000000;0,000000;0,000000;0,000000;0,000000;0,000000;0,200000;0,200000;0,200000;0,200000;0,000000;0,000000;0,000000;0,000000;0,266667;0,000000;0,324908;0,000000;0,000000;0,225000;0,275000;0,399861;0,000000;0,000000;0,266667;0,266667;0,000000;0,000000;0,303017;0,225000;0,225000;0,000000;0,000000;0,000000;0,350000;0,266667;0,128474;0,153098;0,450000;0,000000;0,251367;0,000000;0,266667;0,266667;0,000000;0,000000;0,000000;0,188610;0,188610;0,188610;0,000000;0,000000;0,000000;0,000000;0,000000;0,266667;0,225000;0,225000;0,183333;0,000000;0,000000;0,000000;0,000000;0,000000;0,350000;0,266667;0,000000;0,000000;0,000000;0,000000;0,000000;0,000000;0,000000;0,000000;0,000000;0,266667;0,000000;0,000000;0,000000;0,000000;0,000000;
19;;;;;;;;;;;;;;;;;;;1,000000;0,433202;0,494528;0,506388;0,715996;0,698472;0,474345;0,474345;0,000000;0,000000;0,000000;0,000000;0,000000;0,000000;0,000000;0,000000;0,000000;0,000000;0,000000;0,000000;0,000000;0,415996;0,415996;0,415996;0,415996;0,000000;0,000000;0,000000;0,691795;0,549329;0,691795;0,665812;0,347885;0,691795;0,465996;0,565996;0,601133;0,000000;0,000000;0,799843;0,549329;0,347885;0,347885;0,622031;0,465996;0,465996;0,000000;0,000000;0,000000;0,715996;0,549329;0,466264;0,433638;0,674843;0,300902;0,518729;0,441795;0,549329;0,549329;0,000000;0,000000;0,000000;0,393217;0,393217;0,393217;0,222885;0,222885;0,222885;0,222885;0,597885;0,545098;0,674843;0,674843;0,382663;0,197885;0,197885;0,197885;0,197885;0,197885;0,715996;0,549329;0,597885;0,441795;0,588445;0,505827;0,338445;0,391795;0,391795;0,391795;0,338445;0,549329;0,430195;0,430195;0,347885;0,588445;0,525129;
20;;;;;;;;;;;;;;;;;;;;1,000000;0,254526;0,260456;0,299741;0,290979;0,178915;0,178915;0,000000;0,000000;0,000000;0,000000;0,000000;0,000000;0,000000;0,000000;0,000000;0,000000;0,000000;0,000000;0,000000;0,149741;0,149741;0,149741;0,149741;0,000000;0,000000;0,000000;0,353160;0,469277;0,353160;0,274649;0,337098;0,353160;0,174741;0,224741;0,304222;0,000000;0,000000;0,488848;0,421856;0,000000;0,000000;0,252758;0,174741;0,174741;0,000000;0,000000;0,000000;0,299741;0,216407;0,078214;0,102839;0,405515;0,000000;0,201107;0,228160;0,216407;0,216407;0,000000;0,000000;0,000000;0,138351;0,138351;0,138351;0,000000;0,000000;0,000000;0,000000;0,000000;0,421856;0,405515;0,405515;0,133074;0,000000;0,000000;0,000000;0,000000;0,000000;0,299741;0,216407;0,000000;0,228160;0,000000;0,446437;0,369008;0,203160;0,203160;0,203160;0,337098;0,421856;0,607500;0,607500;0,000000;0,000000;0,269826;
21;;;;;;;;;;;;;;;;;;;;;1,000000;0,669741;0,401367;0,392605;0,280541;0,280541;0,000000;0,000000;0,000000;0,000000;0,000000;0,000000;0,000000;0,000000;0,000000;0,000000;0,000000;0,000000;0,000000;0,251367;0,251367;0,251367;0,251367;0,000000;0,000000;0,000000;0,802733;0,318033;0,802733;0,376275;0,401367;0,802733;0,276367;0,326367;0,578060;0,000000;0,000000;0,636067;0,318033;0,401367;0,401367;0,354384;0,276367;0,276367;0,000000;0,000000;0,000000;0,401367;0,318033;0,368654;0,311597;0,552733;0,354384;0,302733;0,701412;0,318033;0,318033;0,000000;0,000000;0,000000;0,239977;0,239977;0,239977;0,276367;0,276367;0,276367;0,276367;0,651367;0,000000;0,552733;0,552733;0,234700;0,251367;0,251367;0,251367;0,251367;0,251367;0,401367;0,318033;0,651367;0,808621;0,000000;0,210093;0,000000;0,502733;0,502733;0,502733;0,000000;0,318033;0,276367;0,276367;0,401367;0,000000;0,636067;
22;;;;;;;;;;;;;;;;;;;;;;1,000000;0,407296;0,398534;0,286471;0,286471;0,000000;0,000000;0,000000;0,000000;0,000000;0,000000;0,000000;0,000000;0,000000;0,000000;0,000000;0,000000;0,000000;0,257296;0,257296;0,257296;0,257296;0,000000;0,000000;0,000000;0,814592;0,323963;0,814592;0,382204;0,407296;0,814592;0,282296;0,332296;0,723208;0,000000;0,000000;0,647926;0,323963;0,407296;0,407296;0,360314;0,282296;0,282296;0,000000;0,000000;0,000000;0,407296;0,323963;0,374583;0,317527;0,564592;0,360314;0,308663;0,846889;0,323963;0,323963;0,000000;0,000000;0,000000;0,245907;0,245907;0,245907;0,282296;0,282296;0,282296;0,282296;0,657296;0,000000;0,564592;0,564592;0,240630;0,257296;0,257296;0,257296;0,257296;0,257296;0,407296;0,323963;0,657296;0,846889;0,000000;0,216022;0,000000;0,514592;0,514592;0,514592;0,000000;0,323963;0,282296;0,282296;0,407296;0,000000;0,647926;
23;;;;;;;;;;;;;;;;;;;;;;;1,000000;0,982476;0,758349;0,758349;0,000000;0,000000;0,000000;0,000000;0,000000;0,000000;0,000000;0,000000;0,000000;0,000000;0,000000;0,000000;0,000000;0,700000;0,700000;0,700000;0,700000;0,000000;0,000000;0,000000;0,500000;0,833333;0,500000;0,949816;0,500000;0,500000;0,750000;0,850000;0,757621;0,000000;0,000000;0,833333;0,833333;0,500000;0,500000;0,906035;0,750000;0,750000;0,000000;0,000000;0,000000;1,000000;0,833333;0,750268;0,717642;0,750000;0,453017;0,802733;0,375000;0,833333;0,833333;0,000000;0,000000;0,000000;0,677221;0,677221;0,677221;0,375000;0,375000;0,375000;0,375000;0,750000;0,416667;0,750000;0,750000;0,666667;0,350000;0,350000;0,350000;0,350000;0,350000;1,000000;0,833333;0,750000;0,375000;0,000000;0,000000;0,000000;0,350000;0,350000;0,350000;0,000000;0,833333;0,000000;0,000000;0,500000;0,000000;0,416667;
24;;;;;;;;;;;;;;;;;;;;;;;;1,000000;0,740825;0,740825;0,000000;0,000000;0,000000;0,000000;0,000000;0,000000;0,000000;0,000000;0,000000;0,000000;0,000000;0,000000;0,000000;0,682476;0,682476;0,682476;0,682476;0,000000;0,000000;0,000000;0,491238;0,815809;0,491238;0,932292;0,491238;0,491238;0,732476;0,832476;0,740097;0,000000;0,000000;0,815809;0,815809;0,491238;0,491238;0,888511;0,732476;0,732476;0,000000;0,000000;0,000000;0,982476;0,815809;0,732744;0,700118;0,732476;0,444255;0,785209;0,366238;0,815809;0,815809;0,000000;0,000000;0,000000;0,659697;0,659697;0,659697;0,366238;0,366238;0,366238;0,366238;0,741238;0,407905;0,732476;0,732476;0,649143;0,341238;0,341238;0,341238;0,341238;0,341238;0,982476;0,815809;0,741238;0,366238;0,000000;0,000000;0,000000;0,341238;0,341238;0,341238;0,000000;0,815809;0,000000;0,000000;0,491238;0,000000;0,407905;
25;;;;;;;;;;;;;;;;;;;;;;;;;1,000000;0,745240;0,000000;0,000000;0,000000;0,000000;0,000000;0,000000;0,000000;0,000000;0,000000;0,000000;0,000000;0,000000;0,000000;0,458349;0,458349;0,458349;0,458349;0,000000;0,000000;0,000000;0,379175;0,591682;0,379175;0,708165;0,379175;0,379175;0,872620;0,608349;0,515971;0,000000;0,000000;0,591682;0,591682;0,379175;0,379175;0,664384;0,508349;0,508349;0,000000;0,000000;0,000000;0,758349;0,591682;0,508617;0,475991;0,508349;0,332192;0,771481;0,254175;0,591682;0,591682;0,000000;0,000000;0,000000;0,435570;0,435570;0,435570;0,254175;0,254175;0,254175;0,254175;0,629175;0,295841;0,508349;0,508349;0,425016;0,229175;0,229175;0,229175;0,229175;0,229175;0,758349;0,591682;0,629175;0,254175;0,000000;0,000000;0,000000;0,229175;0,229175;0,229175;0,000000;0,591682;0,000000;0,000000;0,379175;0,000000;0,295841;
26;;;;;;;;;;;;;;;;;;;;;;;;;;1,000000;0,000000;0,000000;0,000000;0,000000;0,000000;0,000000;0,000000;0,000000;0,000000;0,000000;0,000000;0,000000;0,000000;0,458349;0,458349;0,458349;0,458349;0,000000;0,000000;0,000000;0,379175;0,591682;0,379175;0,708165;0,379175;0,379175;0,872620;0,608349;0,515971;0,000000;0,000000;0,591682;0,591682;0,379175;0,379175;0,664384;0,508349;0,508349;0,000000;0,000000;0,000000;0,758349;0,591682;0,508617;0,475991;0,508349;0,332192;0,771481;0,254175;0,591682;0,591682;0,000000;0,000000;0,000000;0,435570;0,435570;0,435570;0,254175;0,254175;0,254175;0,254175;0,629175;0,295841;0,508349;0,508349;0,425016;0,229175;0,229175;0,229175;0,229175;0,229175;0,758349;0,591682;0,629175;0,254175;0,000000;0,000000;0,000000;0,229175;0,229175;0,229175;0,000000;0,591682;0,000000;0,000000;0,379175;0,000000;0,295841;
27;;;;;;;;;;;;;;;;;;;;;;;;;;;1,000000;0,666667;0,666667;0,666667;0,000000;0,000000;0,000000;0,000000;0,000000;0,000000;0,000000;0,000000;0,000000;0,000000;0,000000;0,000000;0,000000;0,000000;0,000000;0,000000;0,000000;0,000000;0,000000;0,000000;0,000000;0,000000;0,000000;0,000000;0,000000;0,000000;0,000000;0,000000;0,000000;0,000000;0,000000;0,000000;0,000000;0,000000;0,000000;0,000000;0,000000;0,000000;0,000000;0,000000;0,000000;0,000000;0,000000;0,000000;0,000000;0,000000;0,000000;0,000000;0,000000;0,000000;0,000000;0,000000;0,000000;0,000000;0,000000;0,000000;0,000000;0,000000;0,000000;0,000000;0,000000;0,000000;0,000000;0,000000;0,000000;0,000000;0,000000;0,000000;0,000000;0,000000;0,000000;0,000000;0,000000;0,000000;0,000000;0,000000;0,000000;0,000000;0,000000;0,000000;0,000000;0,000000;0,000000;0,000000;
28;;;;;;;;;;;;;;;;;;;;;;;;;;;;1,000000;0,666667;0,666667;0,000000;0,000000;0,000000;0,000000;0,000000;0,000000;0,000000;0,000000;0,000000;0,000000;0,000000;0,000000;0,000000;0,000000;0,000000;0,000000;0,000000;0,000000;0,000000;0,000000;0,000000;0,000000;0,000000;0,000000;0,000000;0,000000;0,000000;0,000000;0,000000;0,000000;0,000000;0,000000;0,000000;0,000000;0,000000;0,000000;0,000000;0,000000;0,000000;0,000000;0,000000;0,000000;0,000000;0,000000;0,000000;0,000000;0,000000;0,000000;0,000000;0,000000;0,000000;0,000000;0,000000;0,000000;0,000000;0,000000;0,000000;0,000000;0,000000;0,000000;0,000000;0,000000;0,000000;0,000000;0,000000;0,000000;0,000000;0,000000;0,000000;0,000000;0,000000;0,000000;0,000000;0,000000;0,000000;0,000000;0,000000;0,000000;0,000000;0,000000;0,000000;0,000000;0,000000;0,000000;
29;;;;;;;;;;;;;;;;;;;;;;;;;;;;;1,000000;0,666667;0,000000;0,000000;0,000000;0,000000;0,000000;0,000000;0,000000;0,000000;0,000000;0,000000;0,000000;0,000000;0,000000;0,000000;0,000000;0,000000;0,000000;0,000000;0,000000;0,000000;0,000000;0,000000;0,000000;0,000000;0,000000;0,000000;0,000000;0,000000;0,000000;0,000000;0,000000;0,000000;0,000000;0,000000;0,000000;0,000000;0,000000;0,000000;0,000000;0,000000;0,000000;0,000000;0,000000;0,000000;0,000000;0,000000;0,000000;0,000000;0,000000;0,000000;0,000000;0,000000;0,000000;0,000000;0,000000;0,000000;0,000000;0,000000;0,000000;0,000000;0,000000;0,000000;0,000000;0,000000;0,000000;0,000000;0,000000;0,000000;0,000000;0,000000;0,000000;0,000000;0,000000;0,000000;0,000000;0,000000;0,000000;0,000000;0,000000;0,000000;0,000000;0,000000;0,000000;0,000000;
30;;;;;;;;;;;;;;;;;;;;;;;;;;;;;;1,000000;0,000000;0,000000;0,000000;0,000000;0,000000;0,000000;0,000000;0,000000;0,000000;0,000000;0,000000;0,000000;0,000000;0,000000;0,000000;0,000000;0,000000;0,000000;0,000000;0,000000;0,000000;0,000000;0,000000;0,000000;0,000000;0,000000;0,000000;0,000000;0,000000;0,000000;0,000000;0,000000;0,000000;0,000000;0,000000;0,000000;0,000000;0,000000;0,000000;0,000000;0,000000;0,000000;0,000000;0,000000;0,000000;0,000000;0,000000;0,000000;0,000000;0,000000;0,000000;0,000000;0,000000;0,000000;0,000000;0,000000;0,000000;0,000000;0,000000;0,000000;0,000000;0,000000;0,000000;0,000000;0,000000;0,000000;0,000000;0,000000;0,000000;0,000000;0,000000;0,000000;0,000000;0,000000;0,000000;0,000000;0,000000;0,000000;0,000000;0,000000;0,000000;0,000000;0,000000;0,000000;
31;;;;;;;;;;;;;;;;;;;;;;;;;;;;;;;1,000000;0,500000;0,500000;0,000000;0,000000;0,000000;0,000000;0,000000;0,000000;0,000000;0,000000;0,000000;0,000000;0,000000;0,000000;0,000000;0,000000;0,000000;0,000000;0,000000;0,000000;0,000000;0,000000;0,000000;0,000000;0,000000;0,000000;0,000000;0,000000;0,000000;0,000000;0,000000;0,000000;0,000000;0,000000;0,000000;0,000000;0,000000;0,000000;0,000000;0,000000;0,000000;0,000000;0,000000;0,000000;0,000000;0,000000;0,000000;0,000000;0,000000;0,000000;0,000000;0,000000;0,000000;0,000000;0,000000;0,000000;0,000000;0,000000;0,000000;0,000000;0,000000;0,000000;0,000000;0,000000;0,000000;0,000000;0,000000;0,000000;0,000000;0,000000;0,000000;0,000000;0,000000;0,000000;0,000000;0,000000;0,000000;0,000000;0,000000;0,000000;0,000000;0,000000;0,000000;
32;;;;;;;;;;;;;;;;;;;;;;;;;;;;;;;;1,000000;0,500000;0,000000;0,000000;0,000000;0,000000;0,000000;0,000000;0,000000;0,000000;0,000000;0,000000;0,000000;0,000000;0,000000;0,000000;0,000000;0,000000;0,000000;0,000000;0,000000;0,000000;0,000000;0,000000;0,000000;0,000000;0,000000;0,000000;0,000000;0,000000;0,000000;0,000000;0,000000;0,000000;0,000000;0,000000;0,000000;0,000000;0,000000;0,000000;0,000000;0,000000;0,000000;0,000000;0,000000;0,000000;0,000000;0,000000;0,000000;0,000000;0,000000;0,000000;0,000000;0,000000;0,000000;0,000000;0,000000;0,000000;0,000000;0,000000;0,000000;0,000000;0,000000;0,000000;0,000000;0,000000;0,000000;0,000000;0,000000;0,000000;0,000000;0,000000;0,000000;0,000000;0,000000;0,000000;0,000000;0,000000;0,000000;0,000000;0,000000;0,000000;0,000000;
33;;;;;;;;;;;;;;;;;;;;;;;;;;;;;;;;;1,000000;0,000000;0,000000;0,000000;0,000000;0,000000;0,000000;0,000000;0,000000;0,000000;0,000000;0,000000;0,000000;0,000000;0,000000;0,000000;0,000000;0,000000;0,000000;0,000000;0,000000;0,000000;0,000000;0,000000;0,000000;0,000000;0,000000;0,000000;0,000000;0,000000;0,000000;0,000000;0,000000;0,000000;0,000000;0,000000;0,000000;0,000000;0,000000;0,000000;0,000000;0,000000;0,000000;0,000000;0,000000;0,000000;0,000000;0,000000;0,000000;0,000000;0,000000;0,000000;0,000000;0,000000;0,000000;0,000000;0,000000;0,000000;0,000000;0,000000;0,000000;0,000000;0,000000;0,000000;0,000000;0,000000;0,000000;0,000000;0,000000;0,000000;0,000000;0,000000;0,000000;0,000000;0,000000;0,000000;0,000000;0,000000;0,000000;0,000000;0,000000;0,000000;
34;;;;;;;;;;;;;;;;;;;;;;;;;;;;;;;;;;1,000000;0,800000;0,800000;0,800000;0,800000;0,800000;0,000000;0,000000;0,000000;0,000000;0,000000;0,000000;0,000000;0,000000;0,000000;0,000000;0,000000;0,000000;0,000000;0,000000;0,000000;0,000000;0,000000;0,000000;0,000000;0,000000;0,000000;0,000000;0,000000;0,000000;0,000000;0,000000;0,000000;0,000000;0,000000;0,000000;0,000000;0,000000;0,000000;0,000000;0,000000;0,000000;0,000000;0,000000;0,000000;0,000000;0,000000;0,000000;0,000000;0,000000;0,000000;0,000000;0,000000;0,000000;0,000000;0,000000;0,000000;0,000000;0,000000;0,000000;0,000000;0,000000;0,000000;0,000000;0,000000;0,000000;0,000000;0,000000;0,000000;0,000000;0,000000;0,000000;0,000000;0,000000;0,000000;0,000000;0,000000;0,000000;0,000000;0,000000;0,000000;
35;;;;;;;;;;;;;;;;;;;;;;;;;;;;;;;;;;;1,000000;0,800000;0,800000;0,800000;0,800000;0,000000;0,000000;0,000000;0,000000;0,000000;0,000000;0,000000;0,000000;0,000000;0,000000;0,000000;0,000000;0,000000;0,000000;0,000000;0,000000;0,000000;0,000000;0,000000;0,000000;0,000000;0,000000;0,000000;0,000000;0,000000;0,000000;0,000000;0,000000;0,000000;0,000000;0,000000;0,000000;0,000000;0,000000;0,000000;0,000000;0,000000;0,000000;0,000000;0,000000;0,000000;0,000000;0,000000;0,000000;0,000000;0,000000;0,000000;0,000000;0,000000;0,000000;0,000000;0,000000;0,000000;0,000000;0,000000;0,000000;0,000000;0,000000;0,000000;0,000000;0,000000;0,000000;0,000000;0,000000;0,000000;0,000000;0,000000;0,000000;0,000000;0,000000;0,000000;0,000000;0,000000;0,000000;0,000000;
36;;;;;;;;;;;;;;;;;;;;;;;;;;;;;;;;;;;;1,000000;0,800000;0,800000;0,800000;0,000000;0,000000;0,000000;0,000000;0,000000;0,000000;0,000000;0,000000;0,000000;0,000000;0,000000;0,000000;0,000000;0,000000;0,000000;0,000000;0,000000;0,000000;0,000000;0,000000;0,000000;0,000000;0,000000;0,000000;0,000000;0,000000;0,000000;0,000000;0,000000;0,000000;0,000000;0,000000;0,000000;0,000000;0,000000;0,000000;0,000000;0,000000;0,000000;0,000000;0,000000;0,000000;0,000000;0,000000;0,000000;0,000000;0,000000;0,000000;0,000000;0,000000;0,000000;0,000000;0,000000;0,000000;0,000000;0,000000;0,000000;0,000000;0,000000;0,000000;0,000000;0,000000;0,000000;0,000000;0,000000;0,000000;0,000000;0,000000;0,000000;0,000000;0,000000;0,000000;0,000000;0,000000;0,000000;
37;;;;;;;;;;;;;;;;;;;;;;;;;;;;;;;;;;;;;1,000000;0,800000;0,800000;0,000000;0,000000;0,000000;0,000000;0,000000;0,000000;0,000000;0,000000;0,000000;0,000000;0,000000;0,000000;0,000000;0,000000;0,000000;0,000000;0,000000;0,000000;0,000000;0,000000;0,000000;0,000000;0,000000;0,000000;0,000000;0,000000;0,000000;0,000000;0,000000;0,000000;0,000000;0,000000;0,000000;0,000000;0,000000;0,000000;0,000000;0,000000;0,000000;0,000000;0,000000;0,000000;0,000000;0,000000;0,000000;0,000000;0,000000;0,000000;0,000000;0,000000;0,000000;0,000000;0,000000;0,000000;0,000000;0,000000;0,000000;0,000000;0,000000;0,000000;0,000000;0,000000;0,000000;0,000000;0,000000;0,000000;0,000000;0,000000;0,000000;0,000000;0,000000;0,000000;0,000000;0,000000;0,000000;
38;;;;;;;;;;;;;;;;;;;;;;;;;;;;;;;;;;;;;;1,000000;0,800000;0,000000;0,000000;0,000000;0,000000;0,000000;0,000000;0,000000;0,000000;0,000000;0,000000;0,000000;0,000000;0,000000;0,000000;0,000000;0,000000;0,000000;0,000000;0,000000;0,000000;0,000000;0,000000;0,000000;0,000000;0,000000;0,000000;0,000000;0,000000;0,000000;0,000000;0,000000;0,000000;0,000000;0,000000;0,000000;0,000000;0,000000;0,000000;0,000000;0,000000;0,000000;0,000000;0,000000;0,000000;0,000000;0,000000;0,000000;0,000000;0,000000;0,000000;0,000000;0,000000;0,000000;0,000000;0,000000;0,000000;0,000000;0,000000;0,000000;0,000000;0,000000;0,000000;0,000000;0,000000;0,000000;0,000000;0,000000;0,000000;0,000000;0,000000;0,000000;0,000000;0,000000;0,000000;0,000000;
39;;;;;;;;;;;;;;;;;;;;;;;;;;;;;;;;;;;;;;;1,000000;0,000000;0,000000;0,000000;0,000000;0,000000;0,000000;0,000000;0,000000;0,000000;0,000000;0,000000;0,000000;0,000000;0,000000;0,000000;0,000000;0,000000;0,000000;0,000000;0,000000;0,000000;0,000000;0,000000;0,000000;0,000000;0,000000;0,000000;0,000000;0,000000;0,000000;0,000000;0,000000;0,000000;0,000000;0,000000;0,000000;0,000000;0,000000;0,000000;0,000000;0,000000;0,000000;0,000000;0,000000;0,000000;0,000000;0,000000;0,000000;0,000000;0,000000;0,000000;0,000000;0,000000;0,000000;0,000000;0,000000;0,000000;0,000000;0,000000;0,000000;0,000000;0,000000;0,000000;0,000000;0,000000;0,000000;0,000000;0,000000;0,000000;0,000000;0,000000;0,000000;0,000000;0,000000;0,000000;
40;;;;;;;;;;;;;;;;;;;;;;;;;;;;;;;;;;;;;;;;1,000000;0,800000;0,800000;0,800000;0,000000;0,000000;0,000000;0,350000;0,533333;0,350000;0,649816;0,350000;0,350000;0,450000;0,550000;0,457621;0,000000;0,000000;0,533333;0,533333;0,350000;0,350000;0,606035;0,450000;0,450000;0,000000;0,000000;0,000000;0,700000;0,533333;0,450268;0,417642;0,450000;0,303017;0,502733;0,225000;0,533333;0,533333;0,000000;0,000000;0,000000;0,377221;0,377221;0,377221;0,225000;0,225000;0,225000;0,225000;0,600000;0,266667;0,450000;0,450000;0,366667;0,200000;0,200000;0,200000;0,200000;0,200000;0,700000;0,533333;0,600000;0,225000;0,000000;0,000000;0,000000;0,200000;0,200000;0,200000;0,000000;0,533333;0,000000;0,000000;0,350000;0,000000;0,266667;
41;;;;;;;;;;;;;;;;;;;;;;;;;;;;;;;;;;;;;;;;;1,000000;0,800000;0,800000;0,000000;0,000000;0,000000;0,350000;0,533333;0,350000;0,649816;0,350000;0,350000;0,450000;0,550000;0,457621;0,000000;0,000000;0,533333;0,533333;0,350000;0,350000;0,606035;0,450000;0,450000;0,000000;0,000000;0,000000;0,700000;0,533333;0,450268;0,417642;0,450000;0,303017;0,502733;0,225000;0,533333;0,533333;0,000000;0,000000;0,000000;0,377221;0,377221;0,377221;0,225000;0,225000;0,225000;0,225000;0,600000;0,266667;0,450000;0,450000;0,366667;0,200000;0,200000;0,200000;0,200000;0,200000;0,700000;0,533333;0,600000;0,225000;0,000000;0,000000;0,000000;0,200000;0,200000;0,200000;0,000000;0,533333;0,000000;0,000000;0,350000;0,000000;0,266667;
42;;;;;;;;;;;;;;;;;;;;;;;;;;;;;;;;;;;;;;;;;;1,000000;0,800000;0,000000;0,000000;0,000000;0,350000;0,533333;0,350000;0,649816;0,350000;0,350000;0,450000;0,550000;0,457621;0,000000;0,000000;0,533333;0,533333;0,350000;0,350000;0,606035;0,450000;0,450000;0,000000;0,000000;0,000000;0,700000;0,533333;0,450268;0,417642;0,450000;0,303017;0,502733;0,225000;0,533333;0,533333;0,000000;0,000000;0,000000;0,377221;0,377221;0,377221;0,225000;0,225000;0,225000;0,225000;0,600000;0,266667;0,450000;0,450000;0,366667;0,200000;0,200000;0,200000;0,200000;0,200000;0,700000;0,533333;0,600000;0,225000;0,000000;0,000000;0,000000;0,200000;0,200000;0,200000;0,000000;0,533333;0,000000;0,000000;0,350000;0,000000;0,266667;
43;;;;;;;;;;;;;;;;;;;;;;;;;;;;;;;;;;;;;;;;;;;1,000000;0,000000;0,000000;0,000000;0,350000;0,533333;0,350000;0,649816;0,350000;0,350000;0,450000;0,550000;0,457621;0,000000;0,000000;0,533333;0,533333;0,350000;0,350000;0,606035;0,450000;0,450000;0,000000;0,000000;0,000000;0,700000;0,533333;0,450268;0,417642;0,450000;0,303017;0,502733;0,225000;0,533333;0,533333;0,000000;0,000000;0,000000;0,377221;0,377221;0,377221;0,225000;0,225000;0,225000;0,225000;0,600000;0,266667;0,450000;0,450000;0,366667;0,200000;0,200000;0,200000;0,200000;0,200000;0,700000;0,533333;0,600000;0,225000;0,000000;0,000000;0,000000;0,200000;0,200000;0,200000;0,000000;0,533333;0,000000;0,000000;0,350000;0,000000;0,266667;
44;;;;;;;;;;;;;;;;;;;;;;;;;;;;;;;;;;;;;;;;;;;;1,000000;0,500000;0,500000;0,000000;0,000000;0,000000;0,000000;0,000000;0,000000;0,000000;0,000000;0,000000;0,000000;0,000000;0,000000;0,000000;0,000000;0,000000;0,000000;0,000000;0,000000;0,000000;0,000000;0,000000;0,000000;0,000000;0,000000;0,000000;0,000000;0,000000;0,000000;0,000000;0,000000;0,000000;0,000000;0,000000;0,000000;0,000000;0,000000;0,000000;0,000000;0,000000;0,000000;0,000000;0,000000;0,000000;0,000000;0,000000;0,000000;0,000000;0,000000;0,000000;0,000000;0,000000;0,000000;0,000000;0,000000;0,000000;0,000000;0,000000;0,000000;0,000000;0,000000;0,000000;0,000000;0,000000;0,000000;0,000000;0,000000;0,000000;0,000000;
45;;;;;;;;;;;;;;;;;;;;;;;;;;;;;;;;;;;;;;;;;;;;;1,000000;0,500000;0,000000;0,000000;0,000000;0,000000;0,000000;0,000000;0,000000;0,000000;0,000000;0,000000;0,000000;0,000000;0,000000;0,000000;0,000000;0,000000;0,000000;0,000000;0,000000;0,000000;0,000000;0,000000;0,000000;0,000000;0,000000;0,000000;0,000000;0,000000;0,000000;0,000000;0,000000;0,000000;0,000000;0,000000;0,000000;0,000000;0,000000;0,000000;0,000000;0,000000;0,000000;0,000000;0,000000;0,000000;0,000000;0,000000;0,000000;0,000000;0,000000;0,000000;0,000000;0,000000;0,000000;0,000000;0,000000;0,000000;0,000000;0,000000;0,000000;0,000000;0,000000;0,000000;0,000000;0,000000;0,000000;0,000000;0,000000;0,000000;
46;;;;;;;;;;;;;;;;;;;;;;;;;;;;;;;;;;;;;;;;;;;;;;1,000000;0,000000;0,000000;0,000000;0,000000;0,000000;0,000000;0,000000;0,000000;0,000000;0,000000;0,000000;0,000000;0,000000;0,000000;0,000000;0,000000;0,000000;0,000000;0,000000;0,000000;0,000000;0,000000;0,000000;0,000000;0,000000;0,000000;0,000000;0,000000;0,000000;0,000000;0,000000;0,000000;0,000000;0,000000;0,000000;0,000000;0,000000;0,000000;0,000000;0,000000;0,000000;0,000000;0,000000;0,000000;0,000000;0,000000;0,000000;0,000000;0,000000;0,000000;0,000000;0,000000;0,000000;0,000000;0,000000;0,000000;0,000000;0,000000;0,000000;0,000000;0,000000;0,000000;0,000000;0,000000;0,000000;0,000000;0,000000;0,000000;
47;;;;;;;;;;;;;;;;;;;;;;;;;;;;;;;;;;;;;;;;;;;;;;;1,000000;0,416667;1,000000;0,474908;0,500000;1,000000;0,375000;0,425000;0,699033;0,000000;0,000000;0,833333;0,416667;0,500000;0,500000;0,453017;0,375000;0,375000;0,000000;0,000000;0,000000;0,500000;0,416667;0,467287;0,410231;0,750000;0,453017;0,401367;0,750000;0,416667;0,416667;0,000000;0,000000;0,000000;0,338610;0,338610;0,338610;0,375000;0,375000;0,375000;0,375000;0,750000;0,000000;0,750000;0,750000;0,333333;0,350000;0,350000;0,350000;0,350000;0,350000;0,500000;0,416667;0,750000;0,750000;0,000000;0,308726;0,000000;0,700000;0,700000;0,700000;0,000000;0,416667;0,375000;0,375000;0,500000;0,000000;0,833333;
48;;;;;;;;;;;;;;;;;;;;;;;;;;;;;;;;;;;;;;;;;;;;;;;;1,000000;0,416667;0,783149;0,833333;0,416667;0,583333;0,683333;0,590955;0,000000;0,000000;0,666667;0,666667;0,416667;0,416667;0,739368;0,583333;0,583333;0,000000;0,000000;0,000000;0,833333;0,666667;0,583602;0,550975;0,583333;0,369684;0,636067;0,291667;0,666667;0,666667;0,000000;0,000000;0,000000;0,510554;0,510554;0,510554;0,291667;0,291667;0,291667;0,291667;0,666667;0,333333;0,583333;0,583333;0,500000;0,266667;0,266667;0,266667;0,266667;0,266667;0,833333;0,666667;0,666667;0,291667;0,000000;0,000000;0,000000;0,266667;0,266667;0,266667;0,416667;0,666667;0,000000;0,000000;0,416667;0,000000;0,333333;
49;;;;;;;;;;;;;;;;;;;;;;;;;;;;;;;;;;;;;;;;;;;;;;;;;1,000000;0,474908;0,500000;1,000000;0,375000;0,425000;0,699033;0,000000;0,000000;0,833333;0,416667;0,500000;0,500000;0,453017;0,375000;0,375000;0,000000;0,000000;0,000000;0,500000;0,416667;0,467287;0,410231;0,750000;0,453017;0,401367;0,750000;0,416667;0,416667;0,000000;0,000000;0,000000;0,338610;0,338610;0,338610;0,375000;0,375000;0,375000;0,375000;0,750000;0,000000;0,750000;0,750000;0,333333;0,350000;0,350000;0,350000;0,350000;0,350000;0,500000;0,416667;0,750000;0,750000;0,000000;0,308726;0,000000;0,700000;0,700000;0,700000;0,000000;0,416667;0,375000;0,375000;0,500000;0,000000;0,833333;
50;;;;;;;;;;;;;;;;;;;;;;;;;;;;;;;;;;;;;;;;;;;;;;;;;;1,000000;0,474908;0,474908;0,699816;0,799816;0,707438;0,000000;0,000000;0,783149;0,783149;0,474908;0,474908;0,855851;0,699816;0,699816;0,000000;0,000000;0,000000;0,949816;0,783149;0,700084;0,667458;0,699816;0,427925;0,752549;0,349908;0,783149;0,783149;0,000000;0,000000;0,000000;0,627037;0,627037;0,627037;0,349908;0,349908;0,349908;0,349908;0,724908;0,391575;0,699816;0,699816;0,616483;0,324908;0,324908;0,324908;0,324908;0,324908;0,949816;0,783149;0,724908;0,349908;0,000000;0,000000;0,000000;0,324908;0,324908;0,324908;0,000000;0,783149;0,000000;0,000000;0,474908;0,000000;0,391575;
51;;;;;;;;;;;;;;;;;;;;;;;;;;;;;;;;;;;;;;;;;;;;;;;;;;;1,000000;0,500000;0,375000;0,425000;0,401367;0,000000;0,000000;0,416667;0,416667;0,500000;0,500000;0,453017;0,375000;0,375000;0,000000;0,000000;0,000000;0,500000;0,416667;0,467287;0,410231;0,375000;0,453017;0,401367;0,375000;0,416667;0,416667;0,000000;0,000000;0,000000;0,338610;0,338610;0,338610;0,375000;0,375000;0,375000;0,375000;0,750000;0,000000;0,375000;0,375000;0,333333;0,350000;0,350000;0,350000;0,350000;0,350000;0,500000;0,416667;0,750000;0,375000;0,000000;0,000000;0,000000;0,350000;0,350000;0,350000;0,500000;0,416667;0,000000;0,000000;0,500000;0,000000;0,416667;
52;;;;;;;;;;;;;;;;;;;;;;;;;;;;;;;;;;;;;;;;;;;;;;;;;;;;1,000000;0,375000;0,425000;0,699033;0,000000;0,000000;0,833333;0,416667;0,500000;0,500000;0,453017;0,375000;0,375000;0,000000;0,000000;0,000000;0,500000;0,416667;0,467287;0,410231;0,750000;0,453017;0,401367;0,750000;0,416667;0,416667;0,000000;0,000000;0,000000;0,338610;0,338610;0,338610;0,375000;0,375000;0,375000;0,375000;0,750000;0,000000;0,750000;0,750000;0,333333;0,350000;0,350000;0,350000;0,350000;0,350000;0,500000;0,416667;0,750000;0,750000;0,000000;0,308726;0,000000;0,700000;0,700000;0,700000;0,000000;0,416667;0,375000;0,375000;0,500000;0,000000;0,833333;
53;;;;;;;;;;;;;;;;;;;;;;;;;;;;;;;;;;;;;;;;;;;;;;;;;;;;;1,000000;0,600000;0,507621;0,000000;0,000000;0,583333;0,583333;0,375000;0,375000;0,656035;0,500000;0,500000;0,000000;0,000000;0,000000;0,750000;0,583333;0,500268;0,467642;0,500000;0,328017;0,898861;0,250000;0,583333;0,583333;0,000000;0,000000;0,000000;0,427221;0,427221;0,427221;0,250000;0,250000;0,250000;0,250000;0,625000;0,291667;0,500000;0,500000;0,416667;0,225000;0,225000;0,225000;0,225000;0,225000;0,750000;0,583333;0,625000;0,250000;0,000000;0,000000;0,000000;0,225000;0,225000;0,225000;0,000000;0,583333;0,000000;0,000000;0,375000;0,000000;0,291667;
54;;;;;;;;;;;;;;;;;;;;;;;;;;;;;;;;;;;;;;;;;;;;;;;;;;;;;;1,000000;0,607621;0,000000;0,000000;0,683333;0,683333;0,425000;0,425000;0,756035;0,797802;0,797802;0,000000;0,000000;0,000000;0,850000;0,683333;0,600268;0,567642;0,600000;0,378017;0,652733;0,300000;0,683333;0,683333;0,000000;0,000000;0,000000;0,527221;0,527221;0,527221;0,300000;0,300000;0,300000;0,300000;0,675000;0,341667;0,600000;0,600000;0,516667;0,275000;0,275000;0,275000;0,275000;0,275000;0,850000;0,683333;0,675000;0,300000;0,000000;0,000000;0,000000;0,275000;0,275000;0,275000;0,000000;0,683333;0,000000;0,000000;0,425000;0,000000;0,341667;
55;;;;;;;;;;;;;;;;;;;;;;;;;;;;;;;;;;;;;;;;;;;;;;;;;;;;;;;1,000000;0,000000;0,000000;0,801290;0,590955;0,401367;0,401367;0,663656;0,507621;0,507621;0,000000;0,000000;0,000000;0,757621;0,590955;0,507890;0,475264;0,676290;0,354384;0,560355;0,626319;0,590955;0,590955;0,000000;0,000000;0,000000;0,434842;0,434842;0,434842;0,276367;0,276367;0,276367;0,276367;0,651367;0,261434;0,676290;0,676290;0,424288;0,251367;0,251367;0,251367;0,251367;0,251367;0,757621;0,590955;0,651367;0,626319;0,000000;0,100284;0,000000;0,399033;0,399033;0,399033;0,000000;0,590955;0,166558;0,166558;0,401367;0,000000;0,532366;
56;;;;;;;;;;;;;;;;;;;;;;;;;;;;;;;;;;;;;;;;;;;;;;;;;;;;;;;;1,000000;0,000000;0,000000;0,000000;0,000000;0,000000;0,000000;0,000000;0,000000;0,000000;0,000000;0,000000;0,000000;0,000000;0,000000;0,000000;0,000000;0,000000;0,000000;0,000000;0,000000;0,000000;0,000000;0,000000;0,000000;0,000000;0,000000;0,000000;0,000000;0,000000;0,000000;0,000000;0,000000;0,000000;0,000000;0,000000;0,000000;0,000000;0,000000;0,000000;0,000000;0,000000;0,000000;0,000000;0,000000;0,000000;0,000000;0,000000;0,000000;0,000000;0,000000;0,000000;0,000000;0,000000;0,000000;0,000000;0,000000;0,000000;0,000000;
57;;;;;;;;;;;;;;;;;;;;;;;;;;;;;;;;;;;;;;;;;;;;;;;;;;;;;;;;;1,000000;0,000000;0,000000;0,000000;0,000000;0,000000;0,000000;0,000000;0,000000;0,000000;0,000000;0,000000;0,000000;0,000000;0,000000;0,000000;0,000000;0,000000;0,000000;0,000000;0,000000;0,000000;0,000000;0,000000;0,000000;0,000000;0,000000;0,000000;0,000000;0,000000;0,000000;0,000000;0,000000;0,000000;0,000000;0,000000;0,000000;0,000000;0,000000;0,000000;0,000000;0,000000;0,000000;0,000000;0,000000;0,000000;0,000000;0,000000;0,000000;0,000000;0,000000;0,000000;0,000000;0,000000;0,000000;0,000000;0,000000;0,000000;
58;;;;;;;;;;;;;;;;;;;;;;;;;;;;;;;;;;;;;;;;;;;;;;;;;;;;;;;;;;1,000000;0,666667;0,416667;0,416667;0,739368;0,583333;0,583333;0,000000;0,000000;0,000000;0,833333;0,666667;0,583602;0,550975;0,875000;0,369684;0,636067;0,583333;0,666667;0,666667;0,000000;0,000000;0,000000;0,510554;0,510554;0,510554;0,291667;0,291667;0,291667;0,291667;0,666667;0,333333;0,875000;0,875000;0,500000;0,266667;0,266667;0,266667;0,266667;0,266667;0,833333;0,666667;0,666667;0,583333;0,000000;0,225393;0,000000;0,533333;0,533333;0,533333;0,000000;0,666667;0,291667;0,291667;0,416667;0,000000;0,666667;
59;;;;;;;;;;;;;;;;;;;;;;;;;;;;;;;;;;;;;;;;;;;;;;;;;;;;;;;;;;;1,000000;0,416667;0,416667;0,739368;0,583333;0,583333;0,000000;0,000000;0,000000;0,833333;0,666667;0,583602;0,550975;0,583333;0,369684;0,636067;0,291667;0,666667;0,666667;0,000000;0,000000;0,000000;0,510554;0,510554;0,510554;0,291667;0,291667;0,291667;0,291667;0,666667;0,666667;0,583333;0,583333;0,500000;0,266667;0,266667;0,266667;0,266667;0,266667;0,833333;0,666667;0,666667;0,291667;0,000000;0,000000;0,000000;0,266667;0,266667;0,266667;0,000000;1,000000;0,000000;0,000000;0,416667;0,000000;0,333333;
60;;;;;;;;;;;;;;;;;;;;;;;;;;;;;;;;;;;;;;;;;;;;;;;;;;;;;;;;;;;;1,000000;0,500000;0,453017;0,375000;0,375000;0,000000;0,000000;0,000000;0,500000;0,416667;0,467287;0,410231;0,375000;0,453017;0,401367;0,375000;0,416667;0,416667;0,000000;0,000000;0,000000;0,338610;0,338610;0,338610;0,375000;0,375000;0,375000;0,375000;0,750000;0,000000;0,375000;0,375000;0,333333;0,350000;0,350000;0,350000;0,350000;0,350000;0,500000;0,416667;0,750000;0,375000;0,000000;0,000000;0,000000;0,350000;0,350000;0,350000;0,000000;0,416667;0,000000;0,000000;0,500000;0,000000;0,416667;
61;;;;;;;;;;;;;;;;;;;;;;;;;;;;;;;;;;;;;;;;;;;;;;;;;;;;;;;;;;;;;1,000000;0,453017;0,375000;0,375000;0,000000;0,000000;0,000000;0,500000;0,416667;0,467287;0,410231;0,375000;0,453017;0,401367;0,375000;0,416667;0,416667;0,000000;0,000000;0,000000;0,338610;0,338610;0,338610;0,375000;0,375000;0,375000;0,375000;0,750000;0,000000;0,375000;0,375000;0,333333;0,350000;0,350000;0,350000;0,350000;0,350000;0,500000;0,416667;0,750000;0,375000;0,000000;0,000000;0,000000;0,350000;0,350000;0,350000;0,000000;0,416667;0,000000;0,000000;0,500000;0,000000;0,416667;
62;;;;;;;;;;;;;;;;;;;;;;;;;;;;;;;;;;;;;;;;;;;;;;;;;;;;;;;;;;;;;;1,000000;0,656035;0,656035;0,000000;0,000000;0,000000;0,906035;0,739368;0,656303;0,623677;0,656035;0,406035;0,708768;0,328017;0,739368;0,739368;0,000000;0,000000;0,000000;0,583255;0,583255;0,583255;0,328017;0,328017;0,328017;0,328017;0,703017;0,369684;0,656035;0,656035;0,572701;0,303017;0,303017;0,303017;0,303017;0,303017;0,906035;0,739368;0,703017;0,328017;0,000000;0,000000;0,000000;0,303017;0,303017;0,303017;0,000000;0,739368;0,000000;0,000000;0,453017;0,000000;0,369684;
63;;;;;;;;;;;;;;;;;;;;;;;;;;;;;;;;;;;;;;;;;;;;;;;;;;;;;;;;;;;;;;;1,000000;0,750000;0,000000;0,000000;0,000000;0,750000;0,583333;0,500268;0,467642;0,500000;0,328017;0,552733;0,250000;0,583333;0,583333;0,000000;0,000000;0,000000;0,427221;0,427221;0,427221;0,250000;0,250000;0,250000;0,250000;0,625000;0,291667;0,500000;0,500000;0,416667;0,225000;0,225000;0,225000;0,225000;0,225000;0,750000;0,583333;0,625000;0,250000;0,000000;0,000000;0,000000;0,225000;0,225000;0,225000;0,000000;0,583333;0,000000;0,000000;0,375000;0,000000;0,291667;
64;;;;;;;;;;;;;;;;;;;;;;;;;;;;;;;;;;;;;;;;;;;;;;;;;;;;;;;;;;;;;;;;1,000000;0,000000;0,000000;0,000000;0,750000;0,583333;0,500268;0,467642;0,500000;0,328017;0,552733;0,250000;0,583333;0,583333;0,000000;0,000000;0,000000;0,427221;0,427221;0,427221;0,250000;0,250000;0,250000;0,250000;0,625000;0,291667;0,500000;0,500000;0,416667;0,225000;0,225000;0,225000;0,225000;0,225000;0,750000;0,583333;0,625000;0,250000;0,000000;0,000000;0,000000;0,225000;0,225000;0,225000;0,000000;0,583333;0,000000;0,000000;0,375000;0,000000;0,291667;
65;;;;;;;;;;;;;;;;;;;;;;;;;;;;;;;;;;;;;;;;;;;;;;;;;;;;;;;;;;;;;;;;;1,000000;0,500000;0,500000;0,000000;0,000000;0,000000;0,000000;0,000000;0,000000;0,000000;0,000000;0,000000;0,000000;0,000000;0,000000;0,000000;0,000000;0,000000;0,000000;0,000000;0,000000;0,000000;0,000000;0,000000;0,000000;0,000000;0,000000;0,000000;0,000000;0,000000;0,000000;0,000000;0,000000;0,000000;0,000000;0,000000;0,000000;0,000000;0,000000;0,000000;0,000000;0,000000;0,000000;0,000000;0,000000;0,000000;0,000000;0,000000;0,000000;0,000000;
66;;;;;;;;;;;;;;;;;;;;;;;;;;;;;;;;;;;;;;;;;;;;;;;;;;;;;;;;;;;;;;;;;;1,000000;0,500000;0,000000;0,000000;0,000000;0,000000;0,000000;0,000000;0,000000;0,000000;0,000000;0,000000;0,000000;0,000000;0,000000;0,000000;0,000000;0,000000;0,000000;0,000000;0,000000;0,000000;0,000000;0,000000;0,000000;0,000000;0,000000;0,000000;0,000000;0,000000;0,000000;0,000000;0,000000;0,000000;0,000000;0,000000;0,000000;0,000000;0,000000;0,000000;0,000000;0,000000;0,000000;0,000000;0,000000;0,000000;0,000000;0,000000;0,000000;
67;;;;;;;;;;;;;;;;;;;;;;;;;;;;;;;;;;;;;;;;;;;;;;;;;;;;;;;;;;;;;;;;;;;1,000000;0,000000;0,000000;0,000000;0,000000;0,000000;0,000000;0,000000;0,000000;0,000000;0,000000;0,000000;0,000000;0,000000;0,000000;0,000000;0,000000;0,000000;0,000000;0,000000;0,000000;0,000000;0,000000;0,000000;0,000000;0,000000;0,000000;0,000000;0,000000;0,000000;0,000000;0,000000;0,000000;0,000000;0,000000;0,000000;0,000000;0,000000;0,000000;0,000000;0,000000;0,000000;0,000000;0,000000;0,000000;0,000000;0,000000;0,000000;
68;;;;;;;;;;;;;;;;;;;;;;;;;;;;;;;;;;;;;;;;;;;;;;;;;;;;;;;;;;;;;;;;;;;;1,000000;0,833333;0,750268;0,717642;0,750000;0,453017;0,802733;0,375000;0,833333;0,833333;0,000000;0,000000;0,000000;0,677221;0,677221;0,677221;0,375000;0,375000;0,375000;0,375000;0,750000;0,416667;0,750000;0,750000;0,666667;0,350000;0,350000;0,350000;0,350000;0,350000;1,000000;0,833333;0,750000;0,375000;0,000000;0,000000;0,000000;0,350000;0,350000;0,350000;0,000000;0,833333;0,000000;0,000000;0,500000;0,000000;0,416667;
69;;;;;;;;;;;;;;;;;;;;;;;;;;;;;;;;;;;;;;;;;;;;;;;;;;;;;;;;;;;;;;;;;;;;;1,000000;0,583602;0,550975;0,583333;0,369684;0,636067;0,291667;0,666667;0,666667;0,000000;0,000000;0,000000;0,510554;0,510554;0,510554;0,291667;0,291667;0,291667;0,291667;0,666667;0,333333;0,583333;0,583333;0,500000;0,266667;0,266667;0,266667;0,266667;0,266667;0,833333;0,666667;0,666667;0,291667;0,000000;0,000000;0,000000;0,266667;0,266667;0,266667;0,000000;0,666667;0,000000;0,000000;0,416667;0,000000;0,333333;
70;;;;;;;;;;;;;;;;;;;;;;;;;;;;;;;;;;;;;;;;;;;;;;;;;;;;;;;;;;;;;;;;;;;;;;1,000000;0,521313;0,500268;0,733972;0,553002;0,342287;0,583602;0,583602;0,000000;0,000000;0,000000;0,732907;0,732907;0,732907;0,342287;0,342287;0,342287;0,342287;0,717287;0,195140;0,500268;0,500268;0,717076;0,317287;0,317287;0,317287;0,317287;0,317287;0,750268;0,583602;0,717287;0,342287;0,000000;0,000000;0,000000;0,317287;0,317287;0,317287;0,000000;0,583602;0,000000;0,000000;0,752188;0,000000;0,383954;
71;;;;;;;;;;;;;;;;;;;;;;;;;;;;;;;;;;;;;;;;;;;;;;;;;;;;;;;;;;;;;;;;;;;;;;;1,000000;0,467642;0,591070;0,520375;0,285231;0,550975;0,550975;0,000000;0,000000;0,000000;0,740287;0,740287;0,740287;0,285231;0,285231;0,285231;0,285231;0,660231;0,219765;0,467642;0,467642;0,761368;0,260231;0,260231;0,260231;0,260231;0,260231;0,717642;0,550975;0,660231;0,285231;0,000000;0,000000;0,000000;0,260231;0,260231;0,260231;0,000000;0,550975;0,000000;0,000000;0,680728;0,000000;0,326897;
72;;;;;;;;;;;;;;;;;;;;;;;;;;;;;;;;;;;;;;;;;;;;;;;;;;;;;;;;;;;;;;;;;;;;;;;;1,000000;0,328017;0,552733;0,500000;0,583333;0,583333;0,000000;0,000000;0,000000;0,427221;0,427221;0,427221;0,250000;0,250000;0,250000;0,250000;0,625000;0,291667;0,750000;0,750000;0,416667;0,225000;0,225000;0,225000;0,225000;0,225000;0,750000;0,583333;0,625000;0,500000;0,000000;0,183726;0,000000;0,450000;0,450000;0,450000;0,000000;0,583333;0,250000;0,250000;0,375000;0,000000;0,583333;
73;;;;;;;;;;;;;;;;;;;;;;;;;;;;;;;;;;;;;;;;;;;;;;;;;;;;;;;;;;;;;;;;;;;;;;;;;1,000000;0,354384;0,328017;0,369684;0,369684;0,000000;0,000000;0,000000;0,476618;0,476618;0,476618;0,328017;0,328017;0,328017;0,328017;0,703017;0,000000;0,328017;0,328017;0,466064;0,303017;0,303017;0,303017;0,303017;0,303017;0,453017;0,369684;0,703017;0,328017;0,000000;0,000000;0,000000;0,303017;0,303017;0,303017;0,000000;0,369684;0,000000;0,000000;0,453017;0,000000;0,369684;
74;;;;;;;;;;;;;;;;;;;;;;;;;;;;;;;;;;;;;;;;;;;;;;;;;;;;;;;;;;;;;;;;;;;;;;;;;;1,000000;0,276367;0,636067;0,636067;0,000000;0,000000;0,000000;0,479954;0,479954;0,479954;0,276367;0,276367;0,276367;0,276367;0,651367;0,318033;0,552733;0,552733;0,469400;0,251367;0,251367;0,251367;0,251367;0,251367;0,802733;0,636067;0,651367;0,276367;0,000000;0,000000;0,000000;0,251367;0,251367;0,251367;0,000000;0,636067;0,000000;0,000000;0,401367;0,000000;0,318033;
75;;;;;;;;;;;;;;;;;;;;;;;;;;;;;;;;;;;;;;;;;;;;;;;;;;;;;;;;;;;;;;;;;;;;;;;;;;;1,000000;0,291667;0,291667;0,000000;0,000000;0,000000;0,213610;0,213610;0,213610;0,250000;0,250000;0,250000;0,250000;0,625000;0,000000;0,500000;0,500000;0,208333;0,225000;0,225000;0,225000;0,225000;0,225000;0,375000;0,291667;0,625000;0,750000;0,000000;0,183726;0,000000;0,450000;0,450000;0,450000;0,000000;0,291667;0,250000;0,250000;0,375000;0,000000;0,583333;
76;;;;;;;;;;;;;;;;;;;;;;;;;;;;;;;;;;;;;;;;;;;;;;;;;;;;;;;;;;;;;;;;;;;;;;;;;;;;1,000000;0,666667;0,000000;0,000000;0,000000;0,510554;0,510554;0,510554;0,291667;0,291667;0,291667;0,291667;0,666667;0,333333;0,583333;0,583333;0,500000;0,266667;0,266667;0,266667;0,266667;0,266667;0,833333;0,666667;0,666667;0,291667;0,000000;0,000000;0,000000;0,266667;0,266667;0,266667;0,000000;0,666667;0,000000;0,000000;0,416667;0,000000;0,333333;
77;;;;;;;;;;;;;;;;;;;;;;;;;;;;;;;;;;;;;;;;;;;;;;;;;;;;;;;;;;;;;;;;;;;;;;;;;;;;;1,000000;0,000000;0,000000;0,000000;0,510554;0,510554;0,510554;0,291667;0,291667;0,291667;0,291667;0,666667;0,333333;0,583333;0,583333;0,500000;0,266667;0,266667;0,266667;0,266667;0,266667;0,833333;0,666667;0,666667;0,291667;0,000000;0,000000;0,000000;0,266667;0,266667;0,266667;0,000000;0,666667;0,000000;0,000000;0,416667;0,000000;0,333333;
78;;;;;;;;;;;;;;;;;;;;;;;;;;;;;;;;;;;;;;;;;;;;;;;;;;;;;;;;;;;;;;;;;;;;;;;;;;;;;;1,000000;0,500000;0,500000;0,000000;0,000000;0,000000;0,000000;0,000000;0,000000;0,000000;0,000000;0,000000;0,000000;0,000000;0,000000;0,000000;0,000000;0,000000;0,000000;0,000000;0,000000;0,000000;0,000000;0,000000;0,000000;0,000000;0,000000;0,000000;0,000000;0,000000;0,000000;0,000000;0,000000;0,000000;0,000000;0,000000;0,000000;
79;;;;;;;;;;;;;;;;;;;;;;;;;;;;;;;;;;;;;;;;;;;;;;;;;;;;;;;;;;;;;;;;;;;;;;;;;;;;;;;1,000000;0,500000;0,000000;0,000000;0,000000;0,000000;0,000000;0,000000;0,000000;0,000000;0,000000;0,000000;0,000000;0,000000;0,000000;0,000000;0,000000;0,000000;0,000000;0,000000;0,000000;0,000000;0,000000;0,000000;0,000000;0,000000;0,000000;0,000000;0,000000;0,000000;0,000000;0,000000;0,000000;0,000000;0,000000;0,000000;
80;;;;;;;;;;;;;;;;;;;;;;;;;;;;;;;;;;;;;;;;;;;;;;;;;;;;;;;;;;;;;;;;;;;;;;;;;;;;;;;;1,000000;0,000000;0,000000;0,000000;0,000000;0,000000;0,000000;0,000000;0,000000;0,000000;0,000000;0,000000;0,000000;0,000000;0,000000;0,000000;0,000000;0,000000;0,000000;0,000000;0,000000;0,000000;0,000000;0,000000;0,000000;0,000000;0,000000;0,000000;0,000000;0,000000;0,000000;0,000000;0,000000;0,000000;0,000000;
81;;;;;;;;;;;;;;;;;;;;;;;;;;;;;;;;;;;;;;;;;;;;;;;;;;;;;;;;;;;;;;;;;;;;;;;;;;;;;;;;;1,000000;0,823102;0,823102;0,213610;0,213610;0,213610;0,213610;0,588610;0,255277;0,427221;0,427221;0,859718;0,188610;0,188610;0,188610;0,188610;0,188610;0,677221;0,510554;0,588610;0,213610;0,000000;0,000000;0,000000;0,188610;0,188610;0,188610;0,000000;0,510554;0,000000;0,000000;0,338610;0,000000;0,255277;
82;;;;;;;;;;;;;;;;;;;;;;;;;;;;;;;;;;;;;;;;;;;;;;;;;;;;;;;;;;;;;;;;;;;;;;;;;;;;;;;;;;1,000000;0,823102;0,213610;0,213610;0,213610;0,213610;0,588610;0,255277;0,427221;0,427221;0,859718;0,188610;0,188610;0,188610;0,188610;0,188610;0,677221;0,510554;0,588610;0,213610;0,000000;0,000000;0,000000;0,188610;0,188610;0,188610;0,000000;0,510554;0,000000;0,000000;0,338610;0,000000;0,255277;
83;;;;;;;;;;;;;;;;;;;;;;;;;;;;;;;;;;;;;;;;;;;;;;;;;;;;;;;;;;;;;;;;;;;;;;;;;;;;;;;;;;;1,000000;0,213610;0,213610;0,213610;0,213610;0,588610;0,255277;0,427221;0,427221;0,859718;0,188610;0,188610;0,188610;0,188610;0,188610;0,677221;0,510554;0,588610;0,213610;0,000000;0,000000;0,000000;0,188610;0,188610;0,188610;0,000000;0,510554;0,000000;0,000000;0,338610;0,000000;0,255277;
84;;;;;;;;;;;;;;;;;;;;;;;;;;;;;;;;;;;;;;;;;;;;;;;;;;;;;;;;;;;;;;;;;;;;;;;;;;;;;;;;;;;;1,000000;0,750000;0,750000;0,750000;0,625000;0,000000;0,250000;0,250000;0,208333;0,225000;0,225000;0,225000;0,225000;0,225000;0,375000;0,291667;0,625000;0,250000;0,000000;0,000000;0,000000;0,225000;0,225000;0,225000;0,000000;0,291667;0,000000;0,000000;0,375000;0,000000;0,291667;
85;;;;;;;;;;;;;;;;;;;;;;;;;;;;;;;;;;;;;;;;;;;;;;;;;;;;;;;;;;;;;;;;;;;;;;;;;;;;;;;;;;;;;1,000000;0,750000;0,750000;0,625000;0,000000;0,250000;0,250000;0,208333;0,225000;0,225000;0,225000;0,225000;0,225000;0,375000;0,291667;0,625000;0,250000;0,000000;0,000000;0,000000;0,225000;0,225000;0,225000;0,000000;0,291667;0,000000;0,000000;0,375000;0,000000;0,291667;
86;;;;;;;;;;;;;;;;;;;;;;;;;;;;;;;;;;;;;;;;;;;;;;;;;;;;;;;;;;;;;;;;;;;;;;;;;;;;;;;;;;;;;;1,000000;0,750000;0,625000;0,000000;0,250000;0,250000;0,208333;0,225000;0,225000;0,225000;0,225000;0,225000;0,375000;0,291667;0,625000;0,250000;0,000000;0,000000;0,000000;0,225000;0,225000;0,225000;0,000000;0,291667;0,000000;0,000000;0,375000;0,000000;0,291667;
87;;;;;;;;;;;;;;;;;;;;;;;;;;;;;;;;;;;;;;;;;;;;;;;;;;;;;;;;;;;;;;;;;;;;;;;;;;;;;;;;;;;;;;;1,000000;0,625000;0,000000;0,250000;0,250000;0,208333;0,225000;0,225000;0,225000;0,225000;0,225000;0,375000;0,291667;0,625000;0,250000;0,000000;0,000000;0,000000;0,225000;0,225000;0,225000;0,000000;0,291667;0,000000;0,000000;0,375000;0,000000;0,291667;
88;;;;;;;;;;;;;;;;;;;;;;;;;;;;;;;;;;;;;;;;;;;;;;;;;;;;;;;;;;;;;;;;;;;;;;;;;;;;;;;;;;;;;;;;1,000000;0,000000;0,625000;0,625000;0,583333;0,600000;0,600000;0,600000;0,600000;0,600000;0,750000;0,666667;1,000000;0,625000;0,000000;0,000000;0,000000;0,600000;0,600000;0,600000;0,000000;0,666667;0,000000;0,000000;0,750000;0,000000;0,666667;
89;;;;;;;;;;;;;;;;;;;;;;;;;;;;;;;;;;;;;;;;;;;;;;;;;;;;;;;;;;;;;;;;;;;;;;;;;;;;;;;;;;;;;;;;;1,000000;0,291667;0,291667;0,250000;0,000000;0,000000;0,000000;0,000000;0,000000;0,416667;0,333333;0,000000;0,000000;0,666667;0,434524;0,416667;0,000000;0,000000;0,000000;0,416667;0,666667;0,291667;0,291667;0,000000;0,666667;0,000000;
90;;;;;;;;;;;;;;;;;;;;;;;;;;;;;;;;;;;;;;;;;;;;;;;;;;;;;;;;;;;;;;;;;;;;;;;;;;;;;;;;;;;;;;;;;;1,000000;0,750000;0,416667;0,225000;0,225000;0,225000;0,225000;0,225000;0,750000;0,583333;0,625000;0,500000;0,000000;0,183726;0,000000;0,450000;0,450000;0,450000;0,000000;0,583333;0,250000;0,250000;0,375000;0,000000;0,583333;
91;;;;;;;;;;;;;;;;;;;;;;;;;;;;;;;;;;;;;;;;;;;;;;;;;;;;;;;;;;;;;;;;;;;;;;;;;;;;;;;;;;;;;;;;;;;1,000000;0,416667;0,225000;0,225000;0,225000;0,225000;0,225000;0,750000;0,583333;0,625000;0,500000;0,000000;0,183726;0,000000;0,450000;0,450000;0,450000;0,000000;0,583333;0,250000;0,250000;0,375000;0,000000;0,583333;
92;;;;;;;;;;;;;;;;;;;;;;;;;;;;;;;;;;;;;;;;;;;;;;;;;;;;;;;;;;;;;;;;;;;;;;;;;;;;;;;;;;;;;;;;;;;;1,000000;0,183333;0,183333;0,183333;0,183333;0,183333;0,666667;0,500000;0,583333;0,208333;0,000000;0,000000;0,000000;0,183333;0,183333;0,183333;0,000000;0,500000;0,000000;0,000000;0,333333;0,000000;0,250000;
93;;;;;;;;;;;;;;;;;;;;;;;;;;;;;;;;;;;;;;;;;;;;;;;;;;;;;;;;;;;;;;;;;;;;;;;;;;;;;;;;;;;;;;;;;;;;;1,000000;0,800000;0,800000;0,800000;0,800000;0,350000;0,266667;0,600000;0,225000;0,000000;0,000000;0,000000;0,200000;0,200000;0,200000;0,000000;0,266667;0,000000;0,000000;0,350000;0,000000;0,266667;
94;;;;;;;;;;;;;;;;;;;;;;;;;;;;;;;;;;;;;;;;;;;;;;;;;;;;;;;;;;;;;;;;;;;;;;;;;;;;;;;;;;;;;;;;;;;;;;1,000000;0,800000;0,800000;0,800000;0,350000;0,266667;0,600000;0,225000;0,000000;0,000000;0,000000;0,200000;0,200000;0,200000;0,000000;0,266667;0,000000;0,000000;0,350000;0,000000;0,266667;
95;;;;;;;;;;;;;;;;;;;;;;;;;;;;;;;;;;;;;;;;;;;;;;;;;;;;;;;;;;;;;;;;;;;;;;;;;;;;;;;;;;;;;;;;;;;;;;;1,000000;0,800000;0,800000;0,350000;0,266667;0,600000;0,225000;0,000000;0,000000;0,000000;0,200000;0,200000;0,200000;0,000000;0,266667;0,000000;0,000000;0,350000;0,000000;0,266667;
96;;;;;;;;;;;;;;;;;;;;;;;;;;;;;;;;;;;;;;;;;;;;;;;;;;;;;;;;;;;;;;;;;;;;;;;;;;;;;;;;;;;;;;;;;;;;;;;;1,000000;0,800000;0,350000;0,266667;0,600000;0,225000;0,000000;0,000000;0,000000;0,200000;0,200000;0,200000;0,000000;0,266667;0,000000;0,000000;0,350000;0,000000;0,266667;
97;;;;;;;;;;;;;;;;;;;;;;;;;;;;;;;;;;;;;;;;;;;;;;;;;;;;;;;;;;;;;;;;;;;;;;;;;;;;;;;;;;;;;;;;;;;;;;;;;1,000000;0,350000;0,266667;0,600000;0,225000;0,000000;0,000000;0,000000;0,200000;0,200000;0,200000;0,000000;0,266667;0,000000;0,000000;0,350000;0,000000;0,266667;
98;;;;;;;;;;;;;;;;;;;;;;;;;;;;;;;;;;;;;;;;;;;;;;;;;;;;;;;;;;;;;;;;;;;;;;;;;;;;;;;;;;;;;;;;;;;;;;;;;;1,000000;0,833333;0,750000;0,375000;0,000000;0,000000;0,000000;0,350000;0,350000;0,350000;0,000000;0,833333;0,000000;0,000000;0,500000;0,000000;0,416667;
99;;;;;;;;;;;;;;;;;;;;;;;;;;;;;;;;;;;;;;;;;;;;;;;;;;;;;;;;;;;;;;;;;;;;;;;;;;;;;;;;;;;;;;;;;;;;;;;;;;;1,000000;0,666667;0,291667;0,000000;0,000000;0,000000;0,266667;0,266667;0,266667;0,000000;0,666667;0,000000;0,000000;0,416667;0,000000;0,333333;
100;;;;;;;;;;;;;;;;;;;;;;;;;;;;;;;;;;;;;;;;;;;;;;;;;;;;;;;;;;;;;;;;;;;;;;;;;;;;;;;;;;;;;;;;;;;;;;;;;;;;1,000000;0,625000;0,000000;0,000000;0,000000;0,600000;0,600000;0,600000;0,000000;0,666667;0,000000;0,000000;0,750000;0,000000;0,666667;
101;;;;;;;;;;;;;;;;;;;;;;;;;;;;;;;;;;;;;;;;;;;;;;;;;;;;;;;;;;;;;;;;;;;;;;;;;;;;;;;;;;;;;;;;;;;;;;;;;;;;;1,000000;0,000000;0,183726;0,000000;0,450000;0,450000;0,450000;0,000000;0,291667;0,250000;0,250000;0,375000;0,000000;0,583333;
102;;;;;;;;;;;;;;;;;;;;;;;;;;;;;;;;;;;;;;;;;;;;;;;;;;;;;;;;;;;;;;;;;;;;;;;;;;;;;;;;;;;;;;;;;;;;;;;;;;;;;;1,000000;0,767857;0,750000;0,000000;0,000000;0,000000;0,750000;0,000000;0,625000;0,625000;0,000000;1,000000;0,000000;
103;;;;;;;;;;;;;;;;;;;;;;;;;;;;;;;;;;;;;;;;;;;;;;;;;;;;;;;;;;;;;;;;;;;;;;;;;;;;;;;;;;;;;;;;;;;;;;;;;;;;;;;1,000000;0,517857;0,158726;0,158726;0,158726;0,517857;0,000000;0,750000;0,750000;0,000000;0,767857;0,225393;
104;;;;;;;;;;;;;;;;;;;;;;;;;;;;;;;;;;;;;;;;;;;;;;;;;;;;;;;;;;;;;;;;;;;;;;;;;;;;;;;;;;;;;;;;;;;;;;;;;;;;;;;;1,000000;0,000000;0,000000;0,000000;0,500000;0,000000;0,750000;0,750000;0,000000;0,750000;0,000000;
105;;;;;;;;;;;;;;;;;;;;;;;;;;;;;;;;;;;;;;;;;;;;;;;;;;;;;;;;;;;;;;;;;;;;;;;;;;;;;;;;;;;;;;;;;;;;;;;;;;;;;;;;;1,000000;0,800000;0,800000;0,000000;0,266667;0,225000;0,225000;0,350000;0,000000;0,800000;
106;;;;;;;;;;;;;;;;;;;;;;;;;;;;;;;;;;;;;;;;;;;;;;;;;;;;;;;;;;;;;;;;;;;;;;;;;;;;;;;;;;;;;;;;;;;;;;;;;;;;;;;;;;1,000000;0,800000;0,000000;0,266667;0,225000;0,225000;0,350000;0,000000;0,800000;
107;;;;;;;;;;;;;;;;;;;;;;;;;;;;;;;;;;;;;;;;;;;;;;;;;;;;;;;;;;;;;;;;;;;;;;;;;;;;;;;;;;;;;;;;;;;;;;;;;;;;;;;;;;;1,000000;0,000000;0,266667;0,225000;0,225000;0,350000;0,000000;0,800000;
108;;;;;;;;;;;;;;;;;;;;;;;;;;;;;;;;;;;;;;;;;;;;;;;;;;;;;;;;;;;;;;;;;;;;;;;;;;;;;;;;;;;;;;;;;;;;;;;;;;;;;;;;;;;;1,000000;0,000000;0,375000;0,375000;0,000000;0,750000;0,000000;
109;;;;;;;;;;;;;;;;;;;;;;;;;;;;;;;;;;;;;;;;;;;;;;;;;;;;;;;;;;;;;;;;;;;;;;;;;;;;;;;;;;;;;;;;;;;;;;;;;;;;;;;;;;;;;1,000000;0,000000;0,000000;0,416667;0,000000;0,333333;
110;;;;;;;;;;;;;;;;;;;;;;;;;;;;;;;;;;;;;;;;;;;;;;;;;;;;;;;;;;;;;;;;;;;;;;;;;;;;;;;;;;;;;;;;;;;;;;;;;;;;;;;;;;;;;;1,000000;0,750000;0,000000;0,625000;0,291667;
111;;;;;;;;;;;;;;;;;;;;;;;;;;;;;;;;;;;;;;;;;;;;;;;;;;;;;;;;;;;;;;;;;;;;;;;;;;;;;;;;;;;;;;;;;;;;;;;;;;;;;;;;;;;;;;;1,000000;0,000000;0,625000;0,291667;
112;;;;;;;;;;;;;;;;;;;;;;;;;;;;;;;;;;;;;;;;;;;;;;;;;;;;;;;;;;;;;;;;;;;;;;;;;;;;;;;;;;;;;;;;;;;;;;;;;;;;;;;;;;;;;;;;1,000000;0,000000;0,416667;
113;;;;;;;;;;;;;;;;;;;;;;;;;;;;;;;;;;;;;;;;;;;;;;;;;;;;;;;;;;;;;;;;;;;;;;;;;;;;;;;;;;;;;;;;;;;;;;;;;;;;;;;;;;;;;;;;;1,000000;0,000000;
114;;;;;;;;;;;;;;;;;;;;;;;;;;;;;;;;;;;;;;;;;;;;;;;;;;;;;;;;;;;;;;;;;;;;;;;;;;;;;;;;;;;;;;;;;;;;;;;;;;;;;;;;;;;;;;;;;;1,000000;
