;1; 2; 3; 4; 5; 6; 7; 8; 9; 10; 11; 12; 13; 14; 15; 16; 17; 18; 19; 20; 21; 22; 23; 24; 25; 26; 27; 28; 29; 30; 31; 32; 33; 34; 35; 36; 37; 38; 39; 40; 41; 42; 43; 44; 45; 46; 47; 48; 49; 50; 51; 52; 53; 54; 55; 56; 57; 58; 59; 60; 61; 62; 63; 64; 65; 66; 67; 68; 69; 70; 71; 72; 73; 74; 75; 76; 77; 78; 79; 80; 81; 82; 83; 84; 85; 86; 87; 88; 89; 90; 91; 92; 93; 94; 95; 96; 97; 98; 99; 100; 101; 102; 103; 104; 105; 106; 107; 108; 109; 110; 111; 112; 113; 114; 115; 116; 117; 118; 119; 120; 121; 122; 123; 124; 125; 126; 127; 128; 129; 130
1;1,000000;0,552973;0,609515;0,644403;0,372439;0,107883;0,123610;0,098832;0,099782;0,090580;0,091087;0,091595;0,092100;0,105879;0,000000;0,000000;0,174549;0,147591;0,175073;0,133924;0,116091;0,116493;0,118041;0,121613;0,121866;0,122121;0,102054;0,102327;0,102596;0,000000;0,000000;0,000000;0,000000;0,000000;0,118938;0,128945;0,119232;0,129274;0,533960;0,132008;0,132139;0,135050;0,131533;0,158285;0,179460;0,121814;0,128564;0,131579;0,134087;0,135205;0,135322;0,128768;0,113040;0,113528;0,113279;0,121867;0,236828;0,134239;0,135159;0,000000;0,000000;0,000000;0,000000;0,000000;0,000000;0,000000;0,000000;0,000000;0,000000;0,137187;0,115724;0,116421;0,116517;0,116613;0,140025;0,138730;0,000000;0,000000;0,000000;0,181191;0,182823;0,181317;0,175797;0,143653;0,166288;0,143783;0,143848;0,000000;0,000000;0,000000;0,000000;0,000000;0,142274;0,142358;0,135525;0,144389;0,144049;0,144524;0,119116;0,119197;0,138654;0,268028;0,267132;0,000000;0,000000;0,000000;0,000000;0,185737;0,185791;0,187529;0,187573;0,187618;0,184289;0,184357;0,124965;0,125011;0,125057;0,125102;0,188249;0,188294;0,119913;0,146203;0,146267;0,144136;0,533960;0,190167;0,190205;0,190244;0,143642;0,146953;
2;;1,000000;0,644403;0,668595;0,380595;0,110343;0,126069;0,101292;0,102241;0,093040;0,093546;0,094054;0,094559;0,108338;0,000000;0,000000;0,177009;0,150051;0,177532;0,136383;0,118551;0,118952;0,120500;0,124072;0,124326;0,124580;0,104514;0,104787;0,105055;0,000000;0,000000;0,000000;0,000000;0,000000;0,121398;0,131405;0,121691;0,131733;0,536419;0,134468;0,134599;0,137510;0,133993;0,160744;0,181920;0,124274;0,131023;0,134039;0,136546;0,137664;0,137781;0,131228;0,115500;0,115987;0,115739;0,124326;0,239288;0,136698;0,137619;0,000000;0,000000;0,000000;0,000000;0,000000;0,000000;0,000000;0,000000;0,000000;0,000000;0,139647;0,118183;0,118881;0,118977;0,119072;0,142484;0,141189;0,000000;0,000000;0,000000;0,183650;0,185283;0,183776;0,178257;0,146113;0,168747;0,146243;0,146308;0,000000;0,000000;0,000000;0,000000;0,000000;0,144733;0,144817;0,137985;0,146849;0,146509;0,146984;0,121576;0,121657;0,141114;0,270487;0,269592;0,000000;0,000000;0,000000;0,000000;0,188196;0,188250;0,189988;0,190033;0,190077;0,186749;0,186816;0,127424;0,127470;0,127516;0,127562;0,190708;0,190753;0,122373;0,148662;0,148726;0,146596;0,536419;0,192627;0,192665;0,192703;0,146101;0,149412;
3;;;1,000000;0,686621;0,386926;0,114544;0,130270;0,105493;0,106442;0,097241;0,097747;0,098256;0,098761;0,112539;0,000000;0,000000;0,181210;0,154252;0,181733;0,140585;0,122752;0,123154;0,124701;0,128273;0,128527;0,128781;0,108715;0,108988;0,109257;0,000000;0,000000;0,000000;0,000000;0,000000;0,125599;0,135606;0,125893;0,135935;0,540621;0,138669;0,138800;0,141711;0,138194;0,164945;0,186121;0,128475;0,135224;0,138240;0,140748;0,141865;0,141983;0,135429;0,119701;0,120188;0,119940;0,128527;0,243489;0,140900;0,141820;0,000000;0,000000;0,000000;0,000000;0,000000;0,000000;0,000000;0,000000;0,000000;0,000000;0,143848;0,122385;0,123082;0,123178;0,123273;0,146686;0,145391;0,000000;0,000000;0,000000;0,187851;0,189484;0,187977;0,182458;0,150314;0,172949;0,150444;0,150509;0,000000;0,000000;0,000000;0,000000;0,000000;0,148935;0,149019;0,142186;0,151050;0,150710;0,151185;0,125777;0,125858;0,145315;0,274688;0,273793;0,000000;0,000000;0,000000;0,000000;0,192397;0,192451;0,194190;0,194234;0,194278;0,190950;0,191018;0,131626;0,131672;0,131717;0,131763;0,194910;0,194954;0,126574;0,152864;0,152927;0,150797;0,540621;0,196828;0,196866;0,196904;0,150302;0,153613;
4;;;;1,000000;0,392025;0,118114;0,133840;0,109063;0,110012;0,100811;0,101317;0,101825;0,102330;0,116109;0,000000;0,000000;0,184780;0,157822;0,185303;0,144154;0,126322;0,126723;0,128271;0,131843;0,132097;0,132351;0,112285;0,112558;0,112826;0,000000;0,000000;0,000000;0,000000;0,000000;0,129169;0,139176;0,129462;0,139504;0,544190;0,142239;0,142370;0,145281;0,141764;0,168515;0,189690;0,132044;0,138794;0,141810;0,144317;0,145435;0,145552;0,138998;0,123271;0,123758;0,123510;0,132097;0,247059;0,144469;0,145390;0,000000;0,000000;0,000000;0,000000;0,000000;0,000000;0,000000;0,000000;0,000000;0,000000;0,147417;0,125954;0,126651;0,126748;0,126843;0,150255;0,148960;0,000000;0,000000;0,000000;0,191421;0,193054;0,191547;0,186028;0,153884;0,176518;0,154014;0,154079;0,000000;0,000000;0,000000;0,000000;0,000000;0,152504;0,152588;0,145756;0,154619;0,154280;0,154755;0,129347;0,129428;0,148885;0,278258;0,277363;0,000000;0,000000;0,000000;0,000000;0,195967;0,196021;0,197759;0,197804;0,197848;0,194520;0,194587;0,135195;0,135241;0,135287;0,135333;0,198479;0,198524;0,130144;0,156433;0,156497;0,154367;0,544190;0,200398;0,200436;0,200474;0,153872;0,157183;
5;;;;;1,000000;0,407380;0,447669;0,381094;0,384280;0,424910;0,426660;0,428243;0,429686;0,436737;0,000000;0,000000;0,355678;0,379948;0,358646;0,566298;0,437390;0,438479;0,436790;0,402191;0,403120;0,404005;0,475959;0,476618;0,477249;0,000000;0,000000;0,000000;0,000000;0,000000;0,450659;0,421900;0,451585;0,422864;0,000000;0,426679;0,427129;0,440257;0,419733;0,370311;0,404565;0,465434;0,470151;0,433119;0,460295;0,433168;0,433520;0,463980;0,470156;0,487898;0,470708;0,489503;0,265098;0,435535;0,446937;0,000000;0,000000;0,000000;0,000000;0,000000;0,000000;0,000000;0,000000;0,000000;0,000000;0,463127;0,473422;0,477868;0,478050;0,478229;0,444726;0,424961;0,000000;0,000000;0,000000;0,416200;0,434300;0,416601;0,397694;0,429520;0,453434;0,429934;0,430137;0,000000;0,000000;0,000000;0,000000;0,000000;0,447338;0,447516;0,482944;0,440726;0,432233;0,441056;0,481271;0,481400;0,456967;0,370934;0,325833;0,000000;0,000000;0,000000;0,000000;0,420883;0,421021;0,429699;0,429821;0,429941;0,418689;0,418832;0,460648;0,460736;0,460823;0,460909;0,424163;0,424288;0,459433;0,441767;0,441871;0,432757;0,000000;0,431490;0,431592;0,431693;0,449946;0,436924;
6;;;;;;1,000000;0,587996;0,588868;0,593654;0,130544;0,131050;0,131558;0,132063;0,145842;0,000000;0,000000;0,214513;0,187555;0,215036;0,373532;0,542514;0,542514;0,158004;0,161576;0,161830;0,162084;0,469004;0,469275;0,469554;0,000000;0,000000;0,000000;0,000000;0,000000;0,158902;0,168909;0,159195;0,169237;0,573923;0,171972;0,172103;0,175014;0,171497;0,400980;0,219424;0,310498;0,326617;0,333704;0,339555;0,175168;0,175285;0,168732;0,288398;0,289417;0,288699;0,464248;0,657448;0,337964;0,339963;0,000000;0,000000;0,000000;0,000000;0,000000;0,000000;0,000000;0,000000;0,000000;0,000000;0,342764;0,292581;0,294093;0,294214;0,294336;0,179988;0,178693;0,000000;0,000000;0,000000;0,221154;0,222787;0,221280;0,430647;0,183617;0,462116;0,183747;0,183812;0,000000;0,000000;0,000000;0,000000;0,000000;0,351174;0,351238;0,292928;0,184353;0,184013;0,184488;0,297929;0,298039;0,572294;0,307991;0,307096;0,000000;0,000000;0,000000;0,000000;0,225700;0,225754;0,227492;0,227537;0,227581;0,224253;0,224320;0,164928;0,164974;0,165020;0,165066;0,228212;0,228257;0,159877;0,186166;0,186230;0,184100;0,573923;0,230131;0,230169;0,230207;0,350444;0,186916;
7;;;;;;;1,000000;0,535058;0,538384;0,146270;0,146776;0,147285;0,147790;0,161568;0,000000;0,000000;0,230239;0,203281;0,230762;0,518958;0,530806;0,531864;0,173731;0,177302;0,177556;0,177810;0,584470;0,585129;0,585761;0,000000;0,000000;0,000000;0,000000;0,000000;0,174628;0,184635;0,174922;0,184964;0,589650;0,187698;0,187829;0,190740;0,187223;0,701940;0,235150;0,344918;0,361037;0,368125;0,373976;0,190895;0,191012;0,184458;0,468737;0,408592;0,468969;0,449993;0,292518;0,372384;0,374383;0,000000;0,000000;0,000000;0,000000;0,000000;0,000000;0,000000;0,000000;0,000000;0,000000;0,377184;0,327001;0,328514;0,328635;0,328756;0,195715;0,194420;0,000000;0,000000;0,000000;0,236880;0,238513;0,237006;0,465067;0,392855;0,315374;0,392996;0,393067;0,000000;0,000000;0,000000;0,000000;0,000000;0,385595;0,385658;0,327348;0,200079;0,199739;0,200214;0,332349;0,332460;0,541057;0,323717;0,322822;0,000000;0,000000;0,000000;0,000000;0,241427;0,241480;0,243219;0,243263;0,243307;0,239979;0,240047;0,180655;0,180701;0,180746;0,180792;0,243939;0,243983;0,175603;0,201893;0,201956;0,199826;0,589650;0,245857;0,245895;0,245934;0,384864;0,202642;
8;;;;;;;;1,000000;0,649952;0,121493;0,121999;0,122507;0,123012;0,136791;0,000000;0,000000;0,205462;0,178504;0,205985;0,479991;0,385251;0,385647;0,148953;0,152525;0,152779;0,153033;0,344353;0,344724;0,345095;0,000000;0,000000;0,000000;0,000000;0,000000;0,149851;0,159858;0,150144;0,160186;0,564872;0,162921;0,163052;0,165963;0,162446;0,506425;0,210373;0,152726;0,159476;0,162492;0,164999;0,166117;0,166234;0,159680;0,143953;0,144440;0,144192;0,323954;0,674133;0,165151;0,166072;0,000000;0,000000;0,000000;0,000000;0,000000;0,000000;0,000000;0,000000;0,000000;0,000000;0,168099;0,146636;0,147333;0,147430;0,147525;0,170937;0,169642;0,000000;0,000000;0,000000;0,212103;0,213736;0,212229;0,206710;0,174566;0,396881;0,174696;0,174761;0,000000;0,000000;0,000000;0,000000;0,000000;0,173186;0,173270;0,166438;0,175302;0,174962;0,175437;0,150029;0,150110;0,419369;0,298940;0,298045;0,000000;0,000000;0,000000;0,000000;0,216649;0,216703;0,218441;0,218486;0,218530;0,215202;0,215269;0,155877;0,155923;0,155969;0,156015;0,219161;0,219206;0,150826;0,177115;0,177179;0,175049;0,564872;0,221080;0,221118;0,221156;0,174554;0,177865;
9;;;;;;;;;1,000000;0,122442;0,122948;0,123457;0,123962;0,137740;0,000000;0,000000;0,206411;0,179453;0,206934;0,479991;0,386761;0,387157;0,149903;0,153474;0,153728;0,153982;0,345863;0,346234;0,346605;0,000000;0,000000;0,000000;0,000000;0,000000;0,150800;0,160807;0,151094;0,161136;0,565822;0,163870;0,164001;0,166912;0,163395;0,507826;0,211322;0,153676;0,160425;0,163441;0,165949;0,167067;0,167184;0,160630;0,144902;0,145390;0,145141;0,325464;0,675643;0,166101;0,167021;0,000000;0,000000;0,000000;0,000000;0,000000;0,000000;0,000000;0,000000;0,000000;0,000000;0,169049;0,147586;0,148283;0,148379;0,148475;0,171887;0,170592;0,000000;0,000000;0,000000;0,213052;0,214685;0,213178;0,207659;0,175515;0,398391;0,175645;0,175710;0,000000;0,000000;0,000000;0,000000;0,000000;0,174136;0,174220;0,167387;0,176251;0,175911;0,176386;0,150978;0,151059;0,420879;0,299889;0,298994;0,000000;0,000000;0,000000;0,000000;0,217599;0,217652;0,219391;0,219435;0,219479;0,216151;0,216219;0,156827;0,156873;0,156918;0,156964;0,220111;0,220155;0,151775;0,178065;0,178128;0,175998;0,565822;0,222029;0,222067;0,222106;0,175503;0,178814;
10;;;;;;;;;;1,000000;0,807603;0,809948;0,812136;0,717793;0,000000;0,000000;0,197210;0,170252;0,197733;0,156584;0,138752;0,139153;0,140701;0,144273;0,144526;0,144781;0,124715;0,124988;0,125256;0,000000;0,000000;0,000000;0,000000;0,000000;0,141599;0,151606;0,141892;0,151934;0,556620;0,154669;0,154800;0,157711;0,154194;0,180945;0,202120;0,144474;0,151224;0,154240;0,156747;0,337424;0,337549;0,312633;0,135701;0,136188;0,135940;0,144527;0,259489;0,156899;0,157820;0,000000;0,000000;0,000000;0,000000;0,000000;0,000000;0,000000;0,000000;0,000000;0,000000;0,159847;0,138384;0,139081;0,139178;0,139273;0,162685;0,161390;0,000000;0,000000;0,000000;0,203851;0,205484;0,203977;0,198458;0,166314;0,188948;0,166444;0,166509;0,000000;0,000000;0,000000;0,000000;0,000000;0,164934;0,165018;0,158186;0,167049;0,166710;0,167185;0,141777;0,141858;0,161314;0,290688;0,289793;0,000000;0,000000;0,000000;0,000000;0,208397;0,208451;0,210189;0,210234;0,210278;0,206950;0,207017;0,147625;0,147671;0,147717;0,147763;0,210909;0,210954;0,142574;0,168863;0,168927;0,166796;0,556620;0,212828;0,212866;0,212904;0,166302;0,169613;
11;;;;;;;;;;;1,000000;0,812136;0,814185;0,719176;0,000000;0,000000;0,197716;0,170758;0,198239;0,157091;0,139258;0,139660;0,141207;0,144779;0,145033;0,145287;0,125221;0,125494;0,125762;0,000000;0,000000;0,000000;0,000000;0,000000;0,142105;0,152112;0,142398;0,152440;0,557127;0,155175;0,155306;0,158217;0,154700;0,181451;0,202627;0,144981;0,151730;0,154746;0,157254;0,338460;0,338585;0,313669;0,136207;0,136694;0,136446;0,145033;0,259995;0,157406;0,158326;0,000000;0,000000;0,000000;0,000000;0,000000;0,000000;0,000000;0,000000;0,000000;0,000000;0,160354;0,138891;0,139588;0,139684;0,139779;0,163192;0,161896;0,000000;0,000000;0,000000;0,204357;0,205990;0,204483;0,198964;0,166820;0,189454;0,166950;0,167015;0,000000;0,000000;0,000000;0,000000;0,000000;0,165441;0,165525;0,158692;0,167556;0,167216;0,167691;0,142283;0,142364;0,161821;0,291194;0,290299;0,000000;0,000000;0,000000;0,000000;0,208903;0,208957;0,210696;0,210740;0,210784;0,207456;0,207524;0,148132;0,148177;0,148223;0,148269;0,211415;0,211460;0,143080;0,169370;0,169433;0,167303;0,557127;0,213334;0,213372;0,213410;0,166808;0,170119;
12;;;;;;;;;;;;1,000000;0,816108;0,720477;0,000000;0,000000;0,198224;0,171266;0,198748;0,157599;0,139766;0,140168;0,141716;0,145288;0,145541;0,145796;0,125729;0,126002;0,126271;0,000000;0,000000;0,000000;0,000000;0,000000;0,142613;0,152620;0,142907;0,152949;0,557635;0,155683;0,155815;0,158725;0,155208;0,181960;0,203135;0,145489;0,152239;0,155254;0,157762;0,339518;0,339643;0,314727;0,136715;0,137203;0,136954;0,145542;0,260503;0,157914;0,158834;0,000000;0,000000;0,000000;0,000000;0,000000;0,000000;0,000000;0,000000;0,000000;0,000000;0,160862;0,139399;0,140096;0,140192;0,140288;0,163700;0,162405;0,000000;0,000000;0,000000;0,204866;0,206498;0,204992;0,199472;0,167328;0,189963;0,167458;0,167523;0,000000;0,000000;0,000000;0,000000;0,000000;0,165949;0,166033;0,159200;0,168064;0,167724;0,168199;0,142791;0,142872;0,162329;0,291703;0,290807;0,000000;0,000000;0,000000;0,000000;0,209412;0,209466;0,211204;0,211248;0,211293;0,207964;0,208032;0,148640;0,148686;0,148732;0,148777;0,211924;0,211969;0,143588;0,169878;0,169942;0,167811;0,557635;0,213842;0,213880;0,213919;0,167317;0,170628;
13;;;;;;;;;;;;;1,000000;0,721705;0,000000;0,000000;0,198730;0,171771;0,199253;0,158104;0,140271;0,140673;0,142221;0,145793;0,146046;0,146301;0,126234;0,126507;0,126776;0,000000;0,000000;0,000000;0,000000;0,000000;0,143118;0,153125;0,143412;0,153454;0,558140;0,156188;0,156320;0,159230;0,155713;0,182465;0,203640;0,145994;0,152744;0,155759;0,158267;0,340580;0,340705;0,315789;0,137220;0,137708;0,137459;0,146047;0,261009;0,158419;0,159339;0,000000;0,000000;0,000000;0,000000;0,000000;0,000000;0,000000;0,000000;0,000000;0,000000;0,161367;0,139904;0,140601;0,140697;0,140793;0,164205;0,162910;0,000000;0,000000;0,000000;0,205371;0,207003;0,205497;0,199977;0,167833;0,190468;0,167963;0,168028;0,000000;0,000000;0,000000;0,000000;0,000000;0,166454;0,166538;0,159705;0,168569;0,168229;0,168704;0,143296;0,143378;0,162834;0,292208;0,291312;0,000000;0,000000;0,000000;0,000000;0,209917;0,209971;0,211709;0,211753;0,211798;0,208469;0,208537;0,149145;0,149191;0,149237;0,149283;0,212429;0,212474;0,144093;0,170383;0,170447;0,168316;0,558140;0,214347;0,214386;0,214424;0,167822;0,171133;
14;;;;;;;;;;;;;;1,000000;0,000000;0,000000;0,212508;0,185550;0,213031;0,171883;0,154050;0,154452;0,250258;0,159571;0,159825;0,160079;0,140013;0,140286;0,140555;0,000000;0,000000;0,000000;0,000000;0,000000;0,285077;0,166904;0,285503;0,167233;0,571919;0,169967;0,170098;0,173009;0,169492;0,196244;0,217419;0,159773;0,166522;0,169538;0,172046;0,583361;0,583625;0,510635;0,150999;0,151487;0,151238;0,159825;0,274787;0,172198;0,173118;0,000000;0,000000;0,000000;0,000000;0,000000;0,000000;0,000000;0,000000;0,000000;0,000000;0,175146;0,153683;0,154380;0,154476;0,154572;0,177984;0,750562;0,000000;0,000000;0,000000;0,219149;0,220782;0,219275;0,213756;0,181612;0,204247;0,181742;0,181807;0,000000;0,000000;0,000000;0,000000;0,000000;0,180233;0,180317;0,173484;0,182348;0,182008;0,182483;0,157075;0,157156;0,176613;0,305986;0,305091;0,000000;0,000000;0,000000;0,000000;0,223696;0,223749;0,225488;0,225532;0,225576;0,222248;0,222316;0,162924;0,162970;0,163015;0,163061;0,226208;0,226253;0,345781;0,184162;0,184225;0,750562;0,571919;0,228126;0,228164;0,228203;0,181600;0,184911;
15;;;;;;;;;;;;;;;1,000000;0,000000;0,000000;0,000000;0,000000;0,000000;0,000000;0,000000;0,000000;0,000000;0,000000;0,000000;0,000000;0,000000;0,000000;0,000000;0,000000;0,000000;0,000000;0,000000;0,000000;0,000000;0,000000;0,000000;0,000000;0,000000;0,000000;0,000000;0,000000;0,000000;0,000000;0,000000;0,000000;0,000000;0,000000;0,000000;0,000000;0,000000;0,000000;0,000000;0,000000;0,000000;0,000000;0,000000;0,000000;0,000000;0,000000;0,000000;0,000000;0,000000;0,000000;0,000000;0,000000;0,000000;0,000000;0,000000;0,000000;0,000000;0,000000;0,000000;0,000000;0,000000;0,000000;0,000000;0,000000;0,000000;0,000000;0,000000;0,000000;0,000000;0,000000;0,000000;0,000000;0,000000;0,000000;0,000000;0,000000;0,000000;0,000000;0,000000;0,000000;0,000000;0,000000;0,000000;0,000000;0,000000;0,000000;0,000000;0,000000;0,000000;0,000000;0,000000;0,000000;0,000000;0,000000;0,000000;0,000000;0,000000;0,000000;0,000000;0,000000;0,000000;0,000000;0,000000;0,000000;0,000000;0,000000;0,000000;0,000000;0,000000;0,000000;0,000000;0,000000;0,000000;0,000000;0,000000;
16;;;;;;;;;;;;;;;;1,000000;0,000000;0,000000;0,000000;0,000000;0,000000;0,000000;0,000000;0,000000;0,000000;0,000000;0,000000;0,000000;0,000000;0,000000;0,000000;0,000000;0,000000;0,000000;0,000000;0,000000;0,000000;0,000000;0,000000;0,000000;0,000000;0,000000;0,000000;0,000000;0,000000;0,000000;0,000000;0,000000;0,000000;0,000000;0,000000;0,000000;0,000000;0,000000;0,000000;0,000000;0,000000;0,000000;0,000000;0,000000;0,000000;0,000000;0,000000;0,000000;0,000000;0,000000;0,000000;0,000000;0,000000;0,000000;0,000000;0,000000;0,000000;0,000000;0,000000;0,000000;0,000000;0,000000;0,000000;0,000000;0,000000;0,000000;0,000000;0,000000;0,000000;0,000000;0,000000;0,000000;0,000000;0,000000;0,000000;0,000000;0,000000;0,000000;0,000000;0,000000;0,000000;0,000000;0,000000;0,000000;0,000000;0,000000;0,000000;0,000000;0,000000;0,000000;0,000000;0,000000;0,000000;0,000000;0,000000;0,000000;0,000000;0,000000;0,000000;0,000000;0,000000;0,000000;0,000000;0,000000;0,000000;0,000000;0,000000;0,000000;0,000000;0,000000;0,000000;0,000000;0,000000;0,000000;
17;;;;;;;;;;;;;;;;;1,000000;0,745002;0,613646;0,240554;0,222721;0,223123;0,224670;0,228242;0,228496;0,228750;0,208684;0,208957;0,209225;0,000000;0,000000;0,000000;0,000000;0,000000;0,225568;0,235575;0,225861;0,235903;0,640590;0,238638;0,238769;0,241680;0,238163;0,264914;0,286090;0,228444;0,235193;0,238209;0,240717;0,241834;0,241951;0,235398;0,219670;0,220157;0,219909;0,228496;0,343458;0,240868;0,241789;0,000000;0,000000;0,000000;0,000000;0,000000;0,000000;0,000000;0,000000;0,000000;0,000000;0,243817;0,222354;0,223051;0,223147;0,223242;0,246655;0,245359;0,000000;0,000000;0,000000;0,287820;0,289453;0,287946;0,282427;0,250283;0,272917;0,250413;0,250478;0,000000;0,000000;0,000000;0,000000;0,000000;0,248904;0,248987;0,242155;0,251019;0,250679;0,251154;0,225746;0,225827;0,245284;0,374657;0,373762;0,000000;0,000000;0,000000;0,000000;0,292366;0,292420;0,294159;0,294203;0,294247;0,290919;0,290987;0,231594;0,231640;0,231686;0,231732;0,294878;0,294923;0,226543;0,252833;0,252896;0,250766;0,640590;0,296797;0,296835;0,296873;0,250271;0,253582;
18;;;;;;;;;;;;;;;;;;1,000000;0,747873;0,213595;0,195763;0,196164;0,197712;0,201284;0,201537;0,201792;0,181726;0,181999;0,182267;0,000000;0,000000;0,000000;0,000000;0,000000;0,198610;0,208617;0,198903;0,208945;0,613631;0,211680;0,211811;0,214722;0,211205;0,237956;0,259131;0,201485;0,208235;0,211251;0,213758;0,214876;0,214993;0,208439;0,192712;0,193199;0,192951;0,201538;0,316500;0,213910;0,214831;0,000000;0,000000;0,000000;0,000000;0,000000;0,000000;0,000000;0,000000;0,000000;0,000000;0,216858;0,195395;0,196092;0,196189;0,196284;0,219696;0,218401;0,000000;0,000000;0,000000;0,260862;0,262495;0,260988;0,255469;0,223325;0,245959;0,223455;0,223520;0,000000;0,000000;0,000000;0,000000;0,000000;0,221945;0,222029;0,215197;0,224060;0,223721;0,224196;0,198788;0,198869;0,218325;0,347699;0,346804;0,000000;0,000000;0,000000;0,000000;0,265408;0,265462;0,267200;0,267245;0,267289;0,263961;0,264028;0,204636;0,204682;0,204728;0,204774;0,267920;0,267965;0,199585;0,225874;0,225938;0,223807;0,613631;0,269839;0,269877;0,269915;0,223313;0,226624;
19;;;;;;;;;;;;;;;;;;;1,000000;0,241077;0,223244;0,223646;0,225193;0,228765;0,229019;0,229273;0,209207;0,209480;0,209748;0,000000;0,000000;0,000000;0,000000;0,000000;0,226091;0,236098;0,226385;0,236426;0,641113;0,239161;0,239292;0,242203;0,238686;0,265437;0,286613;0,228967;0,235716;0,238732;0,241240;0,242357;0,242475;0,235921;0,220193;0,220680;0,220432;0,229019;0,343981;0,241392;0,242312;0,000000;0,000000;0,000000;0,000000;0,000000;0,000000;0,000000;0,000000;0,000000;0,000000;0,244340;0,222877;0,223574;0,223670;0,223765;0,247178;0,245882;0,000000;0,000000;0,000000;0,288343;0,289976;0,288469;0,282950;0,250806;0,273440;0,250936;0,251001;0,000000;0,000000;0,000000;0,000000;0,000000;0,249427;0,249511;0,242678;0,251542;0,251202;0,251677;0,226269;0,226350;0,245807;0,375180;0,374285;0,000000;0,000000;0,000000;0,000000;0,292889;0,292943;0,294682;0,294726;0,294770;0,291442;0,291510;0,232118;0,232163;0,232209;0,232255;0,295401;0,295446;0,227066;0,253356;0,253419;0,251289;0,641113;0,297320;0,297358;0,297396;0,250794;0,254105;
20;;;;;;;;;;;;;;;;;;;;1,000000;0,532727;0,533325;0,184045;0,187617;0,187870;0,188125;0,575768;0,576168;0,576556;0,000000;0,000000;0,000000;0,000000;0,000000;0,184942;0,194949;0,185236;0,195278;0,599964;0,198012;0,198144;0,201054;0,197537;0,436920;0,245464;0,584183;0,610077;0,541477;0,582965;0,201209;0,201326;0,194772;0,571708;0,620709;0,572130;0,604658;0,637715;0,547745;0,562308;0,000000;0,000000;0,000000;0,000000;0,000000;0,000000;0,000000;0,000000;0,000000;0,000000;0,576949;0,584397;0,578631;0,578780;0,578927;0,206029;0,204734;0,000000;0,000000;0,000000;0,247195;0,248827;0,247321;0,474238;0,373536;0,360463;0,373677;0,373748;0,000000;0,000000;0,000000;0,000000;0,000000;0,535153;0,535310;0,450587;0,210393;0,210053;0,210528;0,595313;0,595427;0,546774;0,334032;0,333136;0,000000;0,000000;0,000000;0,000000;0,251741;0,251795;0,253533;0,253577;0,253622;0,250293;0,250361;0,347783;0,347848;0,347913;0,347979;0,254253;0,254298;0,185917;0,212207;0,212271;0,210140;0,599964;0,256171;0,256210;0,256248;0,559744;0,212957;
21;;;;;;;;;;;;;;;;;;;;;1,000000;0,689598;0,166212;0,169784;0,170038;0,170292;0,616087;0,616359;0,616638;0,000000;0,000000;0,000000;0,000000;0,000000;0,167110;0,177117;0,167403;0,177445;0,582131;0,180180;0,180311;0,183222;0,179705;0,489263;0,227631;0,398780;0,414899;0,421987;0,427837;0,183376;0,183493;0,176939;0,376681;0,377700;0,376982;0,611331;0,711117;0,426246;0,428245;0,000000;0,000000;0,000000;0,000000;0,000000;0,000000;0,000000;0,000000;0,000000;0,000000;0,431046;0,380863;0,382375;0,382497;0,382618;0,188196;0,186901;0,000000;0,000000;0,000000;0,229362;0,230995;0,229488;0,518929;0,191825;0,609200;0,191955;0,192020;0,000000;0,000000;0,000000;0,000000;0,000000;0,439457;0,439520;0,381210;0,192560;0,192221;0,192696;0,386211;0,386321;0,719378;0,316199;0,315304;0,000000;0,000000;0,000000;0,000000;0,233908;0,233962;0,235700;0,235745;0,235789;0,232461;0,232528;0,173136;0,173182;0,173228;0,173274;0,236420;0,236465;0,168085;0,194374;0,194438;0,192308;0,582131;0,238339;0,238377;0,238415;0,438726;0,195124;
22;;;;;;;;;;;;;;;;;;;;;;1,000000;0,166614;0,170186;0,170439;0,170694;0,616087;0,616359;0,616638;0,000000;0,000000;0,000000;0,000000;0,000000;0,167511;0,177518;0,167805;0,177847;0,582533;0,180581;0,180713;0,183623;0,180106;0,489923;0,228033;0,399440;0,415559;0,422647;0,428498;0,183778;0,183895;0,177341;0,377341;0,378360;0,377642;0,611331;0,711514;0,426906;0,428905;0,000000;0,000000;0,000000;0,000000;0,000000;0,000000;0,000000;0,000000;0,000000;0,000000;0,431706;0,381523;0,383036;0,383157;0,383278;0,188598;0,187303;0,000000;0,000000;0,000000;0,229764;0,231396;0,229890;0,519589;0,192226;0,609200;0,192356;0,192421;0,000000;0,000000;0,000000;0,000000;0,000000;0,440117;0,440180;0,381870;0,192962;0,192622;0,193097;0,386871;0,386982;0,719378;0,316601;0,315705;0,000000;0,000000;0,000000;0,000000;0,234310;0,234364;0,236102;0,236146;0,236191;0,232862;0,232930;0,173538;0,173584;0,173630;0,173676;0,236822;0,236867;0,168486;0,194776;0,194840;0,192709;0,582533;0,238740;0,238779;0,238817;0,439386;0,195526;
23;;;;;;;;;;;;;;;;;;;;;;;1,000000;0,676264;0,677069;0,677851;0,152175;0,152448;0,152717;0,000000;0,000000;0,000000;0,000000;0,000000;0,554865;0,557480;0,555687;0,557480;0,584081;0,182129;0,182260;0,185171;0,181654;0,208406;0,229581;0,171935;0,178684;0,181700;0,184208;0,373758;0,373898;0,431190;0,163161;0,163649;0,163400;0,171988;0,286949;0,184360;0,185280;0,000000;0,000000;0,000000;0,000000;0,000000;0,000000;0,000000;0,000000;0,000000;0,000000;0,187308;0,165845;0,166542;0,166638;0,166734;0,190146;0,378840;0,000000;0,000000;0,000000;0,231311;0,232944;0,231438;0,225918;0,193774;0,216409;0,193904;0,193969;0,000000;0,000000;0,000000;0,000000;0,000000;0,192395;0,192479;0,185646;0,194510;0,194170;0,194645;0,169237;0,169318;0,188775;0,318148;0,317253;0,000000;0,000000;0,000000;0,000000;0,235858;0,235911;0,237650;0,237694;0,237739;0,234410;0,234478;0,175086;0,175132;0,175178;0,175223;0,238370;0,238415;0,621224;0,196324;0,196387;0,386857;0,584081;0,240288;0,240326;0,240365;0,193762;0,197074;
24;;;;;;;;;;;;;;;;;;;;;;;;1,000000;0,747929;0,748904;0,155747;0,156020;0,156289;0,000000;0,000000;0,000000;0,000000;0,000000;0,388497;0,182638;0,388862;0,182967;0,587653;0,185701;0,185832;0,188743;0,185226;0,211978;0,233153;0,175507;0,182256;0,185272;0,187780;0,188898;0,189015;0,366868;0,166733;0,167221;0,166972;0,175559;0,290521;0,187932;0,188852;0,000000;0,000000;0,000000;0,000000;0,000000;0,000000;0,000000;0,000000;0,000000;0,000000;0,190880;0,169417;0,170114;0,170210;0,170306;0,193718;0,192423;0,000000;0,000000;0,000000;0,234883;0,236516;0,235009;0,229490;0,197346;0,219981;0,197476;0,197541;0,000000;0,000000;0,000000;0,000000;0,000000;0,195967;0,196051;0,189218;0,198082;0,197742;0,198217;0,172809;0,172890;0,192347;0,321720;0,320825;0,000000;0,000000;0,000000;0,000000;0,239430;0,239483;0,241222;0,241266;0,241310;0,237982;0,238050;0,178658;0,178704;0,178749;0,178795;0,241942;0,241986;0,448937;0,199896;0,199959;0,197829;0,587653;0,243860;0,243898;0,243937;0,197334;0,200645;
25;;;;;;;;;;;;;;;;;;;;;;;;;1,000000;0,749853;0,156001;0,156274;0,156542;0,000000;0,000000;0,000000;0,000000;0,000000;0,388810;0,182892;0,389175;0,183220;0,587906;0,185954;0,186086;0,188996;0,185480;0,212231;0,233406;0,175760;0,182510;0,185525;0,188033;0,189151;0,189268;0,367181;0,166987;0,167474;0,167226;0,175813;0,290775;0,188185;0,189106;0,000000;0,000000;0,000000;0,000000;0,000000;0,000000;0,000000;0,000000;0,000000;0,000000;0,191133;0,169670;0,170367;0,170463;0,170559;0,193971;0,192676;0,000000;0,000000;0,000000;0,235137;0,236770;0,235263;0,229743;0,197600;0,220234;0,197729;0,197795;0,000000;0,000000;0,000000;0,000000;0,000000;0,196220;0,196304;0,189471;0,198335;0,197996;0,198470;0,173063;0,173144;0,192600;0,321974;0,321079;0,000000;0,000000;0,000000;0,000000;0,239683;0,239737;0,241475;0,241519;0,241564;0,238235;0,238303;0,178911;0,178957;0,179003;0,179049;0,242195;0,242240;0,449250;0,200149;0,200213;0,198082;0,587906;0,244114;0,244152;0,244190;0,197588;0,200899;
26;;;;;;;;;;;;;;;;;;;;;;;;;;1,000000;0,156255;0,156528;0,156797;0,000000;0,000000;0,000000;0,000000;0,000000;0,389133;0,183146;0,389498;0,183475;0,588161;0,186209;0,186340;0,189251;0,185734;0,212485;0,233661;0,176015;0,182764;0,185780;0,188288;0,189405;0,189523;0,367504;0,167241;0,167728;0,167480;0,176067;0,291029;0,188440;0,189360;0,000000;0,000000;0,000000;0,000000;0,000000;0,000000;0,000000;0,000000;0,000000;0,000000;0,191388;0,169925;0,170622;0,170718;0,170813;0,194226;0,192931;0,000000;0,000000;0,000000;0,235391;0,237024;0,235517;0,229998;0,197854;0,220489;0,197984;0,198049;0,000000;0,000000;0,000000;0,000000;0,000000;0,196475;0,196559;0,189726;0,198590;0,198250;0,198725;0,173317;0,173398;0,192855;0,322228;0,321333;0,000000;0,000000;0,000000;0,000000;0,239937;0,239991;0,241730;0,241774;0,241818;0,238490;0,238558;0,179166;0,179212;0,179257;0,179303;0,242450;0,242494;0,449573;0,200404;0,200467;0,198337;0,588161;0,244368;0,244406;0,244444;0,197842;0,201153;
27;;;;;;;;;;;;;;;;;;;;;;;;;;;1,000000;0,804205;0,804910;0,000000;0,000000;0,000000;0,000000;0,000000;0,153073;0,163080;0,153366;0,163408;0,568094;0,166143;0,166274;0,169185;0,165668;0,452442;0,213595;0,361960;0,378078;0,385166;0,391017;0,169339;0,169456;0,162903;0,339860;0,340879;0,340161;0,537821;0,670220;0,389425;0,391424;0,000000;0,000000;0,000000;0,000000;0,000000;0,000000;0,000000;0,000000;0,000000;0,000000;0,394225;0,344042;0,345555;0,345676;0,345797;0,174159;0,172864;0,000000;0,000000;0,000000;0,215325;0,216958;0,215451;0,482108;0,177788;0,535689;0,177918;0,177983;0,000000;0,000000;0,000000;0,000000;0,000000;0,402636;0,402699;0,344390;0,178524;0,178184;0,178659;0,349390;0,349501;0,645868;0,302162;0,301267;0,000000;0,000000;0,000000;0,000000;0,219871;0,219925;0,221663;0,221708;0,221752;0,218424;0,218491;0,159099;0,159145;0,159191;0,159237;0,222383;0,222428;0,154048;0,180337;0,180401;0,178271;0,568094;0,224302;0,224340;0,224378;0,401906;0,181087;
28;;;;;;;;;;;;;;;;;;;;;;;;;;;;1,000000;0,805598;0,000000;0,000000;0,000000;0,000000;0,000000;0,153346;0,163353;0,153639;0,163681;0,568367;0,166416;0,166547;0,169458;0,165941;0,452915;0,213868;0,362432;0,378551;0,385639;0,391489;0,169612;0,169729;0,163175;0,340333;0,341352;0,340634;0,538092;0,670591;0,389898;0,391897;0,000000;0,000000;0,000000;0,000000;0,000000;0,000000;0,000000;0,000000;0,000000;0,000000;0,394698;0,344515;0,346028;0,346149;0,346270;0,174432;0,173137;0,000000;0,000000;0,000000;0,215598;0,217231;0,215724;0,482581;0,178061;0,535961;0,178191;0,178256;0,000000;0,000000;0,000000;0,000000;0,000000;0,403109;0,403172;0,344862;0,178797;0,178457;0,178932;0,349863;0,349973;0,646139;0,302435;0,301540;0,000000;0,000000;0,000000;0,000000;0,220144;0,220198;0,221936;0,221981;0,222025;0,218697;0,218764;0,159372;0,159418;0,159464;0,159510;0,222656;0,222701;0,154321;0,180610;0,180674;0,178544;0,568367;0,224575;0,224613;0,224651;0,402378;0,181360;
29;;;;;;;;;;;;;;;;;;;;;;;;;;;;;1,000000;0,000000;0,000000;0,000000;0,000000;0,000000;0,153614;0,163621;0,153908;0,163950;0,568636;0,166684;0,166815;0,169726;0,166209;0,453380;0,214136;0,362898;0,379017;0,386104;0,391955;0,169881;0,169998;0,163444;0,340798;0,341817;0,341099;0,538371;0,670962;0,390364;0,392363;0,000000;0,000000;0,000000;0,000000;0,000000;0,000000;0,000000;0,000000;0,000000;0,000000;0,395164;0,344981;0,346493;0,346614;0,346735;0,174701;0,173406;0,000000;0,000000;0,000000;0,215867;0,217499;0,215993;0,483047;0,178329;0,536240;0,178459;0,178524;0,000000;0,000000;0,000000;0,000000;0,000000;0,403574;0,403638;0,345328;0,179065;0,178725;0,179200;0,350329;0,350439;0,646418;0,302704;0,301808;0,000000;0,000000;0,000000;0,000000;0,220413;0,220467;0,222205;0,222249;0,222294;0,218965;0,219033;0,159641;0,159687;0,159733;0,159778;0,222925;0,222970;0,154589;0,180879;0,180943;0,178812;0,568636;0,224843;0,224881;0,224920;0,402844;0,181629;
30;;;;;;;;;;;;;;;;;;;;;;;;;;;;;;1,000000;0,687661;0,843685;0,844195;0,844693;0,000000;0,000000;0,000000;0,000000;0,000000;0,000000;0,000000;0,000000;0,000000;0,000000;0,000000;0,000000;0,000000;0,000000;0,000000;0,000000;0,000000;0,000000;0,000000;0,000000;0,000000;0,000000;0,000000;0,000000;0,000000;0,000000;0,000000;0,000000;0,000000;0,000000;0,310203;0,310322;0,310442;0,310561;0,310680;0,000000;0,000000;0,000000;0,000000;0,000000;0,000000;0,000000;0,000000;0,000000;0,000000;0,000000;0,000000;0,000000;0,000000;0,000000;0,000000;0,000000;0,000000;0,000000;0,000000;0,000000;0,000000;0,000000;0,000000;0,000000;0,000000;0,000000;0,000000;0,000000;0,000000;0,000000;0,000000;0,000000;0,000000;0,000000;0,000000;0,000000;0,000000;0,000000;0,000000;0,000000;0,000000;0,000000;0,000000;0,000000;0,000000;0,000000;0,000000;0,000000;0,000000;0,000000;0,000000;0,000000;0,000000;0,000000;0,000000;0,000000;0,000000;0,000000;0,000000;0,000000;
31;;;;;;;;;;;;;;;;;;;;;;;;;;;;;;;1,000000;0,688320;0,688638;0,688950;0,000000;0,000000;0,000000;0,000000;0,000000;0,000000;0,000000;0,000000;0,000000;0,000000;0,000000;0,000000;0,000000;0,000000;0,000000;0,000000;0,000000;0,000000;0,000000;0,000000;0,000000;0,000000;0,000000;0,000000;0,000000;0,000000;0,000000;0,000000;0,000000;0,000000;0,741374;0,741537;0,741698;0,741857;0,742013;0,000000;0,000000;0,000000;0,000000;0,000000;0,000000;0,000000;0,000000;0,000000;0,000000;0,000000;0,000000;0,000000;0,000000;0,000000;0,000000;0,000000;0,000000;0,000000;0,000000;0,000000;0,000000;0,000000;0,000000;0,000000;0,000000;0,000000;0,000000;0,000000;0,000000;0,000000;0,000000;0,000000;0,000000;0,000000;0,000000;0,000000;0,000000;0,000000;0,000000;0,000000;0,000000;0,000000;0,000000;0,000000;0,000000;0,000000;0,000000;0,000000;0,000000;0,000000;0,000000;0,000000;0,000000;0,000000;0,000000;0,000000;0,000000;0,000000;0,000000;0,000000;
32;;;;;;;;;;;;;;;;;;;;;;;;;;;;;;;;1,000000;0,845181;0,845658;0,000000;0,000000;0,000000;0,000000;0,000000;0,000000;0,000000;0,000000;0,000000;0,000000;0,000000;0,000000;0,000000;0,000000;0,000000;0,000000;0,000000;0,000000;0,000000;0,000000;0,000000;0,000000;0,000000;0,000000;0,000000;0,000000;0,000000;0,000000;0,000000;0,000000;0,310744;0,310864;0,310984;0,311103;0,311222;0,000000;0,000000;0,000000;0,000000;0,000000;0,000000;0,000000;0,000000;0,000000;0,000000;0,000000;0,000000;0,000000;0,000000;0,000000;0,000000;0,000000;0,000000;0,000000;0,000000;0,000000;0,000000;0,000000;0,000000;0,000000;0,000000;0,000000;0,000000;0,000000;0,000000;0,000000;0,000000;0,000000;0,000000;0,000000;0,000000;0,000000;0,000000;0,000000;0,000000;0,000000;0,000000;0,000000;0,000000;0,000000;0,000000;0,000000;0,000000;0,000000;0,000000;0,000000;0,000000;0,000000;0,000000;0,000000;0,000000;0,000000;0,000000;0,000000;0,000000;0,000000;
33;;;;;;;;;;;;;;;;;;;;;;;;;;;;;;;;;1,000000;0,846125;0,000000;0,000000;0,000000;0,000000;0,000000;0,000000;0,000000;0,000000;0,000000;0,000000;0,000000;0,000000;0,000000;0,000000;0,000000;0,000000;0,000000;0,000000;0,000000;0,000000;0,000000;0,000000;0,000000;0,000000;0,000000;0,000000;0,000000;0,000000;0,000000;0,000000;0,311017;0,311137;0,311256;0,311376;0,311495;0,000000;0,000000;0,000000;0,000000;0,000000;0,000000;0,000000;0,000000;0,000000;0,000000;0,000000;0,000000;0,000000;0,000000;0,000000;0,000000;0,000000;0,000000;0,000000;0,000000;0,000000;0,000000;0,000000;0,000000;0,000000;0,000000;0,000000;0,000000;0,000000;0,000000;0,000000;0,000000;0,000000;0,000000;0,000000;0,000000;0,000000;0,000000;0,000000;0,000000;0,000000;0,000000;0,000000;0,000000;0,000000;0,000000;0,000000;0,000000;0,000000;0,000000;0,000000;0,000000;0,000000;0,000000;0,000000;0,000000;0,000000;0,000000;0,000000;0,000000;0,000000;
34;;;;;;;;;;;;;;;;;;;;;;;;;;;;;;;;;;1,000000;0,000000;0,000000;0,000000;0,000000;0,000000;0,000000;0,000000;0,000000;0,000000;0,000000;0,000000;0,000000;0,000000;0,000000;0,000000;0,000000;0,000000;0,000000;0,000000;0,000000;0,000000;0,000000;0,000000;0,000000;0,000000;0,000000;0,000000;0,000000;0,000000;0,000000;0,311290;0,311410;0,311529;0,311649;0,311768;0,000000;0,000000;0,000000;0,000000;0,000000;0,000000;0,000000;0,000000;0,000000;0,000000;0,000000;0,000000;0,000000;0,000000;0,000000;0,000000;0,000000;0,000000;0,000000;0,000000;0,000000;0,000000;0,000000;0,000000;0,000000;0,000000;0,000000;0,000000;0,000000;0,000000;0,000000;0,000000;0,000000;0,000000;0,000000;0,000000;0,000000;0,000000;0,000000;0,000000;0,000000;0,000000;0,000000;0,000000;0,000000;0,000000;0,000000;0,000000;0,000000;0,000000;0,000000;0,000000;0,000000;0,000000;0,000000;0,000000;0,000000;0,000000;0,000000;0,000000;0,000000;
35;;;;;;;;;;;;;;;;;;;;;;;;;;;;;;;;;;;1,000000;0,716523;0,830513;0,717223;0,584978;0,183027;0,183158;0,186069;0,182552;0,209303;0,230479;0,172832;0,179582;0,182598;0,185105;0,408577;0,408717;0,579482;0,164059;0,164546;0,164298;0,172885;0,287847;0,185257;0,186178;0,000000;0,000000;0,000000;0,000000;0,000000;0,000000;0,000000;0,000000;0,000000;0,000000;0,188205;0,166742;0,167439;0,167536;0,167631;0,191043;0,413659;0,000000;0,000000;0,000000;0,232209;0,233842;0,232335;0,226816;0,194672;0,217306;0,194802;0,194867;0,000000;0,000000;0,000000;0,000000;0,000000;0,193292;0,193376;0,186544;0,195408;0,195068;0,195543;0,170135;0,170216;0,189673;0,319046;0,318151;0,000000;0,000000;0,000000;0,000000;0,236755;0,236809;0,238547;0,238592;0,238636;0,235308;0,235375;0,175983;0,176029;0,176075;0,176121;0,239267;0,239312;0,774637;0,197221;0,197285;0,421676;0,584978;0,241186;0,241224;0,241262;0,194660;0,197971;
36;;;;;;;;;;;;;;;;;;;;;;;;;;;;;;;;;;;;1,000000;0,717701;0,786544;0,594985;0,193034;0,193165;0,196076;0,192559;0,219310;0,240486;0,182839;0,189589;0,192605;0,195112;0,196230;0,196347;0,575105;0,174066;0,174553;0,174305;0,182892;0,297854;0,195264;0,196185;0,000000;0,000000;0,000000;0,000000;0,000000;0,000000;0,000000;0,000000;0,000000;0,000000;0,198213;0,176749;0,177447;0,177543;0,177638;0,201050;0,199755;0,000000;0,000000;0,000000;0,242216;0,243849;0,242342;0,236823;0,204679;0,227313;0,204809;0,204874;0,000000;0,000000;0,000000;0,000000;0,000000;0,203299;0,203383;0,196551;0,205415;0,205075;0,205550;0,180142;0,180223;0,199680;0,329053;0,328158;0,000000;0,000000;0,000000;0,000000;0,246762;0,246816;0,248554;0,248599;0,248643;0,245315;0,245382;0,185990;0,186036;0,186082;0,186128;0,249274;0,249319;0,735341;0,207228;0,207292;0,205162;0,594985;0,251193;0,251231;0,251269;0,204667;0,207978;
37;;;;;;;;;;;;;;;;;;;;;;;;;;;;;;;;;;;;;1,000000;0,718374;0,585272;0,183320;0,183451;0,186362;0,182845;0,209597;0,230772;0,173126;0,179876;0,182891;0,185399;0,409004;0,409144;0,580153;0,164352;0,164840;0,164591;0,173179;0,288140;0,185551;0,186471;0,000000;0,000000;0,000000;0,000000;0,000000;0,000000;0,000000;0,000000;0,000000;0,000000;0,188499;0,167036;0,167733;0,167829;0,167925;0,191337;0,414086;0,000000;0,000000;0,000000;0,232503;0,234135;0,232629;0,227109;0,194965;0,217600;0,195095;0,195160;0,000000;0,000000;0,000000;0,000000;0,000000;0,193586;0,193670;0,186837;0,195701;0,195361;0,195836;0,170428;0,170509;0,189966;0,319340;0,318444;0,000000;0,000000;0,000000;0,000000;0,237049;0,237103;0,238841;0,238885;0,238930;0,235601;0,235669;0,176277;0,176323;0,176369;0,176414;0,239561;0,239606;0,775346;0,197515;0,197579;0,422103;0,585272;0,241479;0,241517;0,241556;0,194954;0,198265;
38;;;;;;;;;;;;;;;;;;;;;;;;;;;;;;;;;;;;;;1,000000;0,595314;0,193362;0,193493;0,196404;0,192887;0,219639;0,240814;0,183168;0,189917;0,192933;0,195441;0,196559;0,196676;0,575105;0,174394;0,174882;0,174633;0,183221;0,298182;0,195593;0,196513;0,000000;0,000000;0,000000;0,000000;0,000000;0,000000;0,000000;0,000000;0,000000;0,000000;0,198541;0,177078;0,177775;0,177871;0,177967;0,201379;0,200084;0,000000;0,000000;0,000000;0,242545;0,244177;0,242671;0,237151;0,205007;0,227642;0,205137;0,205202;0,000000;0,000000;0,000000;0,000000;0,000000;0,203628;0,203712;0,196879;0,205743;0,205403;0,205878;0,180470;0,180551;0,200008;0,329382;0,328486;0,000000;0,000000;0,000000;0,000000;0,247091;0,247145;0,248883;0,248927;0,248972;0,245643;0,245711;0,186319;0,186365;0,186411;0,186456;0,249603;0,249648;0,735341;0,207557;0,207621;0,205490;0,595314;0,251521;0,251559;0,251598;0,204996;0,208307;
39;;;;;;;;;;;;;;;;;;;;;;;;;;;;;;;;;;;;;;;1,000000;0,598048;0,598180;0,601090;0,597573;0,624325;0,645500;0,587854;0,594604;0,597619;0,600127;0,601245;0,601362;0,594808;0,579080;0,579568;0,579319;0,587907;0,702869;0,600279;0,601199;0,000000;0,000000;0,000000;0,000000;0,000000;0,000000;0,000000;0,000000;0,000000;0,000000;0,603227;0,581764;0,582461;0,582557;0,582653;0,606065;0,604770;0,000000;0,000000;0,000000;0,647231;0,648863;0,647357;0,641837;0,609693;0,632328;0,609823;0,609888;0,000000;0,000000;0,000000;0,000000;0,000000;0,608314;0,608398;0,601565;0,610429;0,610089;0,610564;0,585156;0,585237;0,604694;0,734068;0,733172;0,000000;0,000000;0,000000;0,000000;0,651777;0,651831;0,653569;0,653613;0,653658;0,650329;0,650397;0,591005;0,591051;0,591097;0,591143;0,654289;0,654334;0,585953;0,612243;0,612307;0,610176;1,000000;0,656207;0,656246;0,656284;0,609682;0,612993;
40;;;;;;;;;;;;;;;;;;;;;;;;;;;;;;;;;;;;;;;;1,000000;0,798114;0,773587;0,790563;0,222373;0,243548;0,185902;0,192652;0,195667;0,198175;0,199293;0,199410;0,192856;0,177129;0,177616;0,177368;0,185955;0,300917;0,198327;0,199248;0,000000;0,000000;0,000000;0,000000;0,000000;0,000000;0,000000;0,000000;0,000000;0,000000;0,201275;0,179812;0,180509;0,180605;0,180701;0,742301;0,202818;0,000000;0,000000;0,000000;0,245279;0,246912;0,245405;0,239885;0,207742;0,230376;0,207871;0,207937;0,000000;0,000000;0,000000;0,000000;0,000000;0,206362;0,206446;0,199613;0,208477;0,208138;0,208612;0,183205;0,183286;0,202742;0,332116;0,331221;0,000000;0,000000;0,000000;0,000000;0,249825;0,249879;0,251617;0,251661;0,251706;0,248377;0,248445;0,189053;0,189099;0,189145;0,189191;0,252337;0,252382;0,184001;0,740628;0,740628;0,208224;0,598048;0,254256;0,254294;0,254332;0,207730;0,211041;
41;;;;;;;;;;;;;;;;;;;;;;;;;;;;;;;;;;;;;;;;;1,000000;0,773943;0,790976;0,222504;0,243680;0,186034;0,192783;0,195799;0,198307;0,199424;0,199542;0,192988;0,177260;0,177747;0,177499;0,186086;0,301048;0,198458;0,199379;0,000000;0,000000;0,000000;0,000000;0,000000;0,000000;0,000000;0,000000;0,000000;0,000000;0,201407;0,179944;0,180641;0,180737;0,180832;0,742557;0,202949;0,000000;0,000000;0,000000;0,245410;0,247043;0,245536;0,240017;0,207873;0,230507;0,208003;0,208068;0,000000;0,000000;0,000000;0,000000;0,000000;0,206494;0,206578;0,199745;0,208609;0,208269;0,208744;0,183336;0,183417;0,202874;0,332247;0,331352;0,000000;0,000000;0,000000;0,000000;0,249956;0,250010;0,251749;0,251793;0,251837;0,248509;0,248577;0,189185;0,189230;0,189276;0,189322;0,252468;0,252513;0,184133;0,740729;0,740729;0,208356;0,598180;0,254387;0,254425;0,254463;0,207861;0,211172;
42;;;;;;;;;;;;;;;;;;;;;;;;;;;;;;;;;;;;;;;;;;1,000000;0,724213;0,225415;0,246590;0,188944;0,195694;0,198710;0,201217;0,202335;0,202452;0,195898;0,180171;0,180658;0,180410;0,188997;0,303959;0,201369;0,202290;0,000000;0,000000;0,000000;0,000000;0,000000;0,000000;0,000000;0,000000;0,000000;0,000000;0,204317;0,182854;0,183551;0,183648;0,183743;0,822579;0,205860;0,000000;0,000000;0,000000;0,248321;0,249954;0,248447;0,242928;0,210784;0,233418;0,210914;0,210979;0,000000;0,000000;0,000000;0,000000;0,000000;0,209404;0,209488;0,202656;0,211519;0,211180;0,211655;0,186247;0,186328;0,205784;0,335158;0,334263;0,000000;0,000000;0,000000;0,000000;0,252867;0,252921;0,254659;0,254703;0,254748;0,251420;0,251487;0,192095;0,192141;0,192187;0,192233;0,255379;0,255424;0,187044;0,698789;0,698892;0,211266;0,601090;0,257298;0,257336;0,257374;0,210772;0,214083;
43;;;;;;;;;;;;;;;;;;;;;;;;;;;;;;;;;;;;;;;;;;;1,000000;0,221898;0,243074;0,185428;0,192177;0,195193;0,197700;0,198818;0,198935;0,192382;0,176654;0,177141;0,176893;0,185480;0,300442;0,197852;0,198773;0,000000;0,000000;0,000000;0,000000;0,000000;0,000000;0,000000;0,000000;0,000000;0,000000;0,200801;0,179337;0,180035;0,180131;0,180226;0,908044;0,202343;0,000000;0,000000;0,000000;0,244804;0,246437;0,244930;0,239411;0,207267;0,229901;0,207397;0,207462;0,000000;0,000000;0,000000;0,000000;0,000000;0,205887;0,205971;0,199139;0,208003;0,207663;0,208138;0,182730;0,182811;0,202268;0,331641;0,330746;0,000000;0,000000;0,000000;0,000000;0,249350;0,249404;0,251142;0,251187;0,251231;0,247903;0,247970;0,188578;0,188624;0,188670;0,188716;0,251862;0,251907;0,183527;0,538908;0,538968;0,207750;0,597573;0,253781;0,253819;0,253857;0,207255;0,210566;
44;;;;;;;;;;;;;;;;;;;;;;;;;;;;;;;;;;;;;;;;;;;;1,000000;0,269825;0,496802;0,512921;0,520008;0,525859;0,225570;0,225687;0,219133;0,474702;0,475721;0,475003;0,495177;0,327193;0,524268;0,526266;0,000000;0,000000;0,000000;0,000000;0,000000;0,000000;0,000000;0,000000;0,000000;0,000000;0,529068;0,478885;0,480397;0,480518;0,480639;0,230390;0,229095;0,000000;0,000000;0,000000;0,271555;0,273188;0,271682;0,616951;0,234018;0,467257;0,234148;0,234213;0,000000;0,000000;0,000000;0,000000;0,000000;0,537478;0,537541;0,479232;0,234754;0,234414;0,234889;0,484233;0,484343;0,528286;0,358392;0,357497;0,000000;0,000000;0,000000;0,000000;0,276102;0,276155;0,277894;0,277938;0,277982;0,274654;0,274722;0,215330;0,215376;0,215421;0,215467;0,278614;0,278659;0,210278;0,236568;0,236631;0,234501;0,624325;0,280532;0,280570;0,280609;0,536748;0,237318;
45;;;;;;;;;;;;;;;;;;;;;;;;;;;;;;;;;;;;;;;;;;;;;1,000000;0,233354;0,240104;0,243119;0,245627;0,246745;0,246862;0,240308;0,224581;0,225068;0,224820;0,233407;0,348369;0,245779;0,246700;0,000000;0,000000;0,000000;0,000000;0,000000;0,000000;0,000000;0,000000;0,000000;0,000000;0,248727;0,227264;0,227961;0,228057;0,228153;0,251565;0,250270;0,000000;0,000000;0,000000;0,292731;0,294363;0,292857;0,287337;0,255194;0,277828;0,255323;0,255388;0,000000;0,000000;0,000000;0,000000;0,000000;0,253814;0,253898;0,247065;0,778956;0,765339;0,779358;0,230657;0,230738;0,250194;0,379568;0,378673;0,000000;0,000000;0,000000;0,000000;0,297277;0,297331;0,299069;0,299113;0,299158;0,590692;0,590808;0,236505;0,236551;0,236597;0,236643;0,299789;0,299834;0,231453;0,257743;0,257807;0,255676;0,645500;0,301708;0,301746;0,301784;0,255182;0,768771;
46;;;;;;;;;;;;;;;;;;;;;;;;;;;;;;;;;;;;;;;;;;;;;;1,000000;0,737273;0,705769;0,435377;0,189099;0,189216;0,182662;0,384220;0,385239;0,384521;0,404695;0,290723;0,710227;0,713076;0,000000;0,000000;0,000000;0,000000;0,000000;0,000000;0,000000;0,000000;0,000000;0,000000;0,438585;0,388402;0,389915;0,390036;0,390157;0,193919;0,192624;0,000000;0,000000;0,000000;0,235085;0,236717;0,235211;0,526468;0,197547;0,376775;0,197677;0,197742;0,000000;0,000000;0,000000;0,000000;0,000000;0,446996;0,447059;0,388749;0,198283;0,197943;0,198418;0,821275;0,821419;0,437804;0,321922;0,321026;0,000000;0,000000;0,000000;0,000000;0,239631;0,239685;0,241423;0,241467;0,241512;0,238183;0,238251;0,178859;0,178905;0,178951;0,178997;0,242143;0,242188;0,173807;0,200097;0,200161;0,198030;0,587854;0,244061;0,244100;0,244138;0,718906;0,200847;
47;;;;;;;;;;;;;;;;;;;;;;;;;;;;;;;;;;;;;;;;;;;;;;;1,000000;0,667301;0,451495;0,195848;0,195966;0,189412;0,400339;0,401358;0,400640;0,420814;0,297472;0,690302;0,710076;0,000000;0,000000;0,000000;0,000000;0,000000;0,000000;0,000000;0,000000;0,000000;0,000000;0,454704;0,404521;0,406034;0,406155;0,406276;0,200669;0,199373;0,000000;0,000000;0,000000;0,241834;0,243467;0,241960;0,542587;0,204297;0,392894;0,204427;0,204492;0,000000;0,000000;0,000000;0,000000;0,000000;0,463115;0,463178;0,404868;0,205033;0,204693;0,205168;0,743304;0,743410;0,453923;0,328671;0,327776;0,000000;0,000000;0,000000;0,000000;0,246380;0,246434;0,248173;0,248217;0,248261;0,244933;0,245001;0,185609;0,185654;0,185700;0,185746;0,248892;0,248937;0,180557;0,206847;0,206910;0,204780;0,594604;0,250811;0,250849;0,250887;0,699652;0,207596;
48;;;;;;;;;;;;;;;;;;;;;;;;;;;;;;;;;;;;;;;;;;;;;;;;1,000000;0,458583;0,198864;0,198981;0,192427;0,407426;0,408445;0,407727;0,427901;0,300488;0,745936;0,748785;0,000000;0,000000;0,000000;0,000000;0,000000;0,000000;0,000000;0,000000;0,000000;0,000000;0,461792;0,411609;0,413121;0,413242;0,413363;0,203684;0,202389;0,000000;0,000000;0,000000;0,244850;0,246483;0,244976;0,549675;0,207313;0,399981;0,207443;0,207508;0,000000;0,000000;0,000000;0,000000;0,000000;0,470202;0,470266;0,411956;0,208048;0,207709;0,208184;0,919002;0,919002;0,461010;0,331687;0,330792;0,000000;0,000000;0,000000;0,000000;0,249396;0,249450;0,251188;0,251232;0,251277;0,247949;0,248016;0,188624;0,188670;0,188716;0,188762;0,251908;0,251953;0,183572;0,209862;0,209926;0,207795;0,597619;0,253827;0,253865;0,253903;0,754614;0,210612;
49;;;;;;;;;;;;;;;;;;;;;;;;;;;;;;;;;;;;;;;;;;;;;;;;;1,000000;0,201372;0,201489;0,194935;0,598965;0,666004;0,599192;0,564274;0,302996;0,462842;0,464841;0,000000;0,000000;0,000000;0,000000;0,000000;0,000000;0,000000;0,000000;0,000000;0,000000;0,738036;0,758482;0,777332;0,777483;0,777631;0,206192;0,204897;0,000000;0,000000;0,000000;0,247358;0,248990;0,247484;0,790262;0,209820;0,405832;0,209950;0,210015;0,000000;0,000000;0,000000;0,000000;0,000000;0,476053;0,476116;0,417807;0,210556;0,210216;0,210691;0,422807;0,422918;0,466861;0,334195;0,333299;0,000000;0,000000;0,000000;0,000000;0,251904;0,251958;0,253696;0,253740;0,253785;0,250456;0,250524;0,191132;0,191178;0,191224;0,191270;0,254416;0,254461;0,186080;0,212370;0,212434;0,210303;0,600127;0,256334;0,256373;0,256411;0,475323;0,213120;
50;;;;;;;;;;;;;;;;;;;;;;;;;;;;;;;;;;;;;;;;;;;;;;;;;;1,000000;0,803082;0,732716;0,180325;0,180813;0,180564;0,189152;0,304113;0,201524;0,202444;0,000000;0,000000;0,000000;0,000000;0,000000;0,000000;0,000000;0,000000;0,000000;0,000000;0,204472;0,183009;0,183706;0,183802;0,183898;0,207310;0,783867;0,000000;0,000000;0,000000;0,248475;0,250108;0,248602;0,243082;0,210938;0,233573;0,211068;0,211133;0,000000;0,000000;0,000000;0,000000;0,000000;0,209559;0,209643;0,202810;0,211674;0,211334;0,211809;0,186401;0,186482;0,205939;0,335312;0,334417;0,000000;0,000000;0,000000;0,000000;0,253022;0,253075;0,254814;0,254858;0,254903;0,251574;0,251642;0,192250;0,192296;0,192342;0,192387;0,255534;0,255579;0,469282;0,213488;0,213551;0,789188;0,601245;0,257452;0,257490;0,257529;0,210926;0,214238;
51;;;;;;;;;;;;;;;;;;;;;;;;;;;;;;;;;;;;;;;;;;;;;;;;;;;1,000000;0,732980;0,180442;0,180930;0,180681;0,189269;0,304230;0,201641;0,202561;0,000000;0,000000;0,000000;0,000000;0,000000;0,000000;0,000000;0,000000;0,000000;0,000000;0,204589;0,183126;0,183823;0,183919;0,184015;0,207427;0,784197;0,000000;0,000000;0,000000;0,248593;0,250225;0,248719;0,243199;0,211055;0,233690;0,211185;0,211250;0,000000;0,000000;0,000000;0,000000;0,000000;0,209676;0,209760;0,202927;0,211791;0,211451;0,211926;0,186518;0,186599;0,206056;0,335430;0,334534;0,000000;0,000000;0,000000;0,000000;0,253139;0,253193;0,254931;0,254975;0,255020;0,251691;0,251759;0,192367;0,192413;0,192459;0,192504;0,255651;0,255696;0,469422;0,213605;0,213669;0,789471;0,601362;0,257569;0,257607;0,257646;0,211044;0,214355;
52;;;;;;;;;;;;;;;;;;;;;;;;;;;;;;;;;;;;;;;;;;;;;;;;;;;;1,000000;0,173889;0,174376;0,174127;0,182715;0,297677;0,195087;0,196008;0,000000;0,000000;0,000000;0,000000;0,000000;0,000000;0,000000;0,000000;0,000000;0,000000;0,198035;0,176572;0,177269;0,177365;0,177461;0,200873;0,710657;0,000000;0,000000;0,000000;0,242039;0,243671;0,242165;0,236645;0,204501;0,227136;0,204631;0,204696;0,000000;0,000000;0,000000;0,000000;0,000000;0,203122;0,203206;0,196373;0,205237;0,204898;0,205372;0,179964;0,180046;0,199502;0,328876;0,327981;0,000000;0,000000;0,000000;0,000000;0,246585;0,246639;0,248377;0,248421;0,248466;0,245137;0,245205;0,185813;0,185859;0,185905;0,185951;0,249097;0,249142;0,644280;0,207051;0,207115;0,715762;0,594808;0,251016;0,251054;0,251092;0,204490;0,207801;
53;;;;;;;;;;;;;;;;;;;;;;;;;;;;;;;;;;;;;;;;;;;;;;;;;;;;;1,000000;0,741722;0,830103;0,768913;0,281949;0,411686;0,413685;0,000000;0,000000;0,000000;0,000000;0,000000;0,000000;0,000000;0,000000;0,000000;0,000000;0,627706;0,624857;0,367815;0,367936;0,368057;0,185145;0,183850;0,000000;0,000000;0,000000;0,226311;0,227944;0,226437;0,504369;0,188774;0,354675;0,188904;0,188969;0,000000;0,000000;0,000000;0,000000;0,000000;0,424896;0,424960;0,366650;0,189510;0,189170;0,189645;0,371651;0,371761;0,696359;0,313148;0,312253;0,000000;0,000000;0,000000;0,000000;0,230857;0,230911;0,232649;0,232694;0,232738;0,229410;0,229477;0,170085;0,170131;0,170177;0,170223;0,233369;0,233414;0,165034;0,191323;0,191387;0,189257;0,579080;0,235288;0,235326;0,235364;0,424166;0,192073;
54;;;;;;;;;;;;;;;;;;;;;;;;;;;;;;;;;;;;;;;;;;;;;;;;;;;;;;1,000000;0,742099;0,682184;0,282436;0,412705;0,414704;0,000000;0,000000;0,000000;0,000000;0,000000;0,000000;0,000000;0,000000;0,000000;0,000000;0,709787;0,728662;0,562606;0,562686;0,562767;0,185633;0,184338;0,000000;0,000000;0,000000;0,226798;0,228431;0,226925;0,752950;0,189261;0,355694;0,189391;0,189456;0,000000;0,000000;0,000000;0,000000;0,000000;0,425915;0,425979;0,367669;0,189997;0,189657;0,190132;0,372670;0,372780;0,636213;0,313636;0,312740;0,000000;0,000000;0,000000;0,000000;0,231345;0,231398;0,233137;0,233181;0,233226;0,229897;0,229965;0,170573;0,170619;0,170665;0,170710;0,233857;0,233902;0,165521;0,191811;0,191874;0,189744;0,579568;0,235775;0,235813;0,235852;0,425185;0,192561;
55;;;;;;;;;;;;;;;;;;;;;;;;;;;;;;;;;;;;;;;;;;;;;;;;;;;;;;;1,000000;0,769304;0,282188;0,411987;0,413986;0,000000;0,000000;0,000000;0,000000;0,000000;0,000000;0,000000;0,000000;0,000000;0,000000;0,627934;0,625084;0,368116;0,368237;0,368359;0,185384;0,184089;0,000000;0,000000;0,000000;0,226550;0,228183;0,226676;0,504670;0,189013;0,354976;0,189143;0,189208;0,000000;0,000000;0,000000;0,000000;0,000000;0,425198;0,425261;0,366951;0,189748;0,189409;0,189884;0,371952;0,372062;0,696591;0,313387;0,312492;0,000000;0,000000;0,000000;0,000000;0,231096;0,231150;0,232888;0,232933;0,232977;0,229649;0,229716;0,170324;0,170370;0,170416;0,170462;0,233608;0,233653;0,165273;0,191562;0,191626;0,189496;0,579319;0,235527;0,235565;0,235603;0,424467;0,192312;
56;;;;;;;;;;;;;;;;;;;;;;;;;;;;;;;;;;;;;;;;;;;;;;;;;;;;;;;;1,000000;0,649821;0,432161;0,434160;0,000000;0,000000;0,000000;0,000000;0,000000;0,000000;0,000000;0,000000;0,000000;0,000000;0,593016;0,590166;0,388290;0,388412;0,388533;0,193972;0,192677;0,000000;0,000000;0,000000;0,235137;0,236770;0,235263;0,524844;0,197600;0,530933;0,197730;0,197795;0,000000;0,000000;0,000000;0,000000;0,000000;0,445372;0,445435;0,387125;0,198336;0,197996;0,198471;0,392126;0,392236;0,641111;0,321974;0,321079;0,000000;0,000000;0,000000;0,000000;0,239683;0,239737;0,241476;0,241520;0,241564;0,238236;0,238304;0,178912;0,178958;0,179003;0,179049;0,242196;0,242240;0,173860;0,200150;0,200213;0,198083;0,587907;0,244114;0,244152;0,244191;0,444641;0,200899;
57;;;;;;;;;;;;;;;;;;;;;;;;;;;;;;;;;;;;;;;;;;;;;;;;;;;;;;;;;1,000000;0,303147;0,304068;0,000000;0,000000;0,000000;0,000000;0,000000;0,000000;0,000000;0,000000;0,000000;0,000000;0,306096;0,284633;0,285330;0,285426;0,285521;0,308934;0,307638;0,000000;0,000000;0,000000;0,350099;0,351732;0,350225;0,344706;0,312562;0,722748;0,312692;0,312757;0,000000;0,000000;0,000000;0,000000;0,000000;0,311183;0,311266;0,304434;0,313298;0,312958;0,313433;0,288025;0,288106;0,745235;0,436936;0,436041;0,000000;0,000000;0,000000;0,000000;0,354645;0,354699;0,356438;0,356482;0,356526;0,353198;0,353266;0,293873;0,293919;0,293965;0,294011;0,357157;0,357202;0,288822;0,315112;0,315175;0,313045;0,702869;0,359076;0,359114;0,359152;0,312550;0,315861;
58;;;;;;;;;;;;;;;;;;;;;;;;;;;;;;;;;;;;;;;;;;;;;;;;;;;;;;;;;;1,000000;0,753243;0,000000;0,000000;0,000000;0,000000;0,000000;0,000000;0,000000;0,000000;0,000000;0,000000;0,466051;0,415868;0,417381;0,417502;0,417623;0,206344;0,205049;0,000000;0,000000;0,000000;0,247510;0,249142;0,247636;0,553934;0,209972;0,404241;0,210102;0,210167;0,000000;0,000000;0,000000;0,000000;0,000000;0,474462;0,474525;0,416215;0,210708;0,210368;0,210843;0,684307;0,684390;0,465270;0,334347;0,333451;0,000000;0,000000;0,000000;0,000000;0,252056;0,252110;0,253848;0,253892;0,253937;0,250608;0,250676;0,191284;0,191330;0,191376;0,191421;0,254568;0,254613;0,186232;0,212522;0,212586;0,210455;0,600279;0,256486;0,256524;0,256563;1,000000;0,213272;
59;;;;;;;;;;;;;;;;;;;;;;;;;;;;;;;;;;;;;;;;;;;;;;;;;;;;;;;;;;;1,000000;0,000000;0,000000;0,000000;0,000000;0,000000;0,000000;0,000000;0,000000;0,000000;0,000000;0,468050;0,417867;0,419379;0,419501;0,419622;0,207264;0,205969;0,000000;0,000000;0,000000;0,248430;0,250063;0,248556;0,555933;0,210893;0,406239;0,211023;0,211088;0,000000;0,000000;0,000000;0,000000;0,000000;0,476461;0,476524;0,418214;0,211629;0,211289;0,211764;0,687155;0,687239;0,467268;0,335267;0,334372;0,000000;0,000000;0,000000;0,000000;0,252976;0,253030;0,254768;0,254813;0,254857;0,251529;0,251596;0,192204;0,192250;0,192296;0,192342;0,255488;0,255533;0,187153;0,213442;0,213506;0,211376;0,601199;0,257407;0,257445;0,257483;0,761921;0,214192;
60;;;;;;;;;;;;;;;;;;;;;;;;;;;;;;;;;;;;;;;;;;;;;;;;;;;;;;;;;;;;1,000000;0,865407;0,865607;0,756692;0,865999;0,000000;0,000000;0,000000;0,000000;0,000000;0,000000;0,000000;0,000000;0,000000;0,000000;0,000000;0,000000;0,433280;0,433359;0,433438;0,000000;0,000000;0,000000;0,000000;0,000000;0,000000;0,000000;0,000000;0,000000;0,000000;0,000000;0,000000;0,000000;0,000000;0,000000;0,000000;0,000000;0,000000;0,000000;0,000000;0,000000;0,000000;0,000000;0,000000;0,000000;0,000000;0,000000;0,000000;0,000000;0,000000;0,000000;0,000000;0,000000;0,000000;0,000000;0,000000;0,000000;0,000000;0,000000;0,000000;0,000000;0,000000;0,000000;0,000000;0,000000;0,000000;0,000000;0,000000;0,000000;0,000000;0,000000;
61;;;;;;;;;;;;;;;;;;;;;;;;;;;;;;;;;;;;;;;;;;;;;;;;;;;;;;;;;;;;;1,000000;0,865804;0,756834;0,866192;0,000000;0,000000;0,000000;0,000000;0,000000;0,000000;0,000000;0,000000;0,000000;0,000000;0,000000;0,000000;0,433411;0,433490;0,433570;0,000000;0,000000;0,000000;0,000000;0,000000;0,000000;0,000000;0,000000;0,000000;0,000000;0,000000;0,000000;0,000000;0,000000;0,000000;0,000000;0,000000;0,000000;0,000000;0,000000;0,000000;0,000000;0,000000;0,000000;0,000000;0,000000;0,000000;0,000000;0,000000;0,000000;0,000000;0,000000;0,000000;0,000000;0,000000;0,000000;0,000000;0,000000;0,000000;0,000000;0,000000;0,000000;0,000000;0,000000;0,000000;0,000000;0,000000;0,000000;0,000000;0,000000;0,000000;
62;;;;;;;;;;;;;;;;;;;;;;;;;;;;;;;;;;;;;;;;;;;;;;;;;;;;;;;;;;;;;;1,000000;0,756975;0,866383;0,000000;0,000000;0,000000;0,000000;0,000000;0,000000;0,000000;0,000000;0,000000;0,000000;0,000000;0,000000;0,433543;0,433622;0,433702;0,000000;0,000000;0,000000;0,000000;0,000000;0,000000;0,000000;0,000000;0,000000;0,000000;0,000000;0,000000;0,000000;0,000000;0,000000;0,000000;0,000000;0,000000;0,000000;0,000000;0,000000;0,000000;0,000000;0,000000;0,000000;0,000000;0,000000;0,000000;0,000000;0,000000;0,000000;0,000000;0,000000;0,000000;0,000000;0,000000;0,000000;0,000000;0,000000;0,000000;0,000000;0,000000;0,000000;0,000000;0,000000;0,000000;0,000000;0,000000;0,000000;0,000000;0,000000;
63;;;;;;;;;;;;;;;;;;;;;;;;;;;;;;;;;;;;;;;;;;;;;;;;;;;;;;;;;;;;;;;1,000000;0,757251;0,000000;0,000000;0,000000;0,000000;0,000000;0,000000;0,000000;0,000000;0,000000;0,000000;0,000000;0,000000;0,683167;0,683296;0,683423;0,000000;0,000000;0,000000;0,000000;0,000000;0,000000;0,000000;0,000000;0,000000;0,000000;0,000000;0,000000;0,000000;0,000000;0,000000;0,000000;0,000000;0,000000;0,000000;0,000000;0,000000;0,000000;0,000000;0,000000;0,000000;0,000000;0,000000;0,000000;0,000000;0,000000;0,000000;0,000000;0,000000;0,000000;0,000000;0,000000;0,000000;0,000000;0,000000;0,000000;0,000000;0,000000;0,000000;0,000000;0,000000;0,000000;0,000000;0,000000;0,000000;0,000000;0,000000;
64;;;;;;;;;;;;;;;;;;;;;;;;;;;;;;;;;;;;;;;;;;;;;;;;;;;;;;;;;;;;;;;;1,000000;0,000000;0,000000;0,000000;0,000000;0,000000;0,000000;0,000000;0,000000;0,000000;0,000000;0,000000;0,000000;0,433807;0,433886;0,433966;0,000000;0,000000;0,000000;0,000000;0,000000;0,000000;0,000000;0,000000;0,000000;0,000000;0,000000;0,000000;0,000000;0,000000;0,000000;0,000000;0,000000;0,000000;0,000000;0,000000;0,000000;0,000000;0,000000;0,000000;0,000000;0,000000;0,000000;0,000000;0,000000;0,000000;0,000000;0,000000;0,000000;0,000000;0,000000;0,000000;0,000000;0,000000;0,000000;0,000000;0,000000;0,000000;0,000000;0,000000;0,000000;0,000000;0,000000;0,000000;0,000000;0,000000;0,000000;
65;;;;;;;;;;;;;;;;;;;;;;;;;;;;;;;;;;;;;;;;;;;;;;;;;;;;;;;;;;;;;;;;;1,000000;0,889362;0,889516;0,889667;0,889817;0,000000;0,000000;0,000000;0,000000;0,000000;0,000000;0,000000;0,000000;0,000000;0,000000;0,000000;0,000000;0,000000;0,000000;0,000000;0,000000;0,000000;0,000000;0,000000;0,000000;0,000000;0,000000;0,000000;0,000000;0,000000;0,000000;0,000000;0,000000;0,000000;0,000000;0,000000;0,000000;0,000000;0,000000;0,000000;0,000000;0,000000;0,000000;0,000000;0,000000;0,000000;0,000000;0,000000;0,000000;0,000000;0,000000;0,000000;0,000000;0,000000;0,000000;0,000000;0,000000;0,000000;0,000000;0,000000;0,000000;0,000000;0,000000;0,000000;0,000000;0,000000;
66;;;;;;;;;;;;;;;;;;;;;;;;;;;;;;;;;;;;;;;;;;;;;;;;;;;;;;;;;;;;;;;;;;1,000000;0,889667;0,889817;0,889966;0,000000;0,000000;0,000000;0,000000;0,000000;0,000000;0,000000;0,000000;0,000000;0,000000;0,000000;0,000000;0,000000;0,000000;0,000000;0,000000;0,000000;0,000000;0,000000;0,000000;0,000000;0,000000;0,000000;0,000000;0,000000;0,000000;0,000000;0,000000;0,000000;0,000000;0,000000;0,000000;0,000000;0,000000;0,000000;0,000000;0,000000;0,000000;0,000000;0,000000;0,000000;0,000000;0,000000;0,000000;0,000000;0,000000;0,000000;0,000000;0,000000;0,000000;0,000000;0,000000;0,000000;0,000000;0,000000;0,000000;0,000000;0,000000;0,000000;0,000000;0,000000;
67;;;;;;;;;;;;;;;;;;;;;;;;;;;;;;;;;;;;;;;;;;;;;;;;;;;;;;;;;;;;;;;;;;;1,000000;0,889966;0,890113;0,000000;0,000000;0,000000;0,000000;0,000000;0,000000;0,000000;0,000000;0,000000;0,000000;0,000000;0,000000;0,000000;0,000000;0,000000;0,000000;0,000000;0,000000;0,000000;0,000000;0,000000;0,000000;0,000000;0,000000;0,000000;0,000000;0,000000;0,000000;0,000000;0,000000;0,000000;0,000000;0,000000;0,000000;0,000000;0,000000;0,000000;0,000000;0,000000;0,000000;0,000000;0,000000;0,000000;0,000000;0,000000;0,000000;0,000000;0,000000;0,000000;0,000000;0,000000;0,000000;0,000000;0,000000;0,000000;0,000000;0,000000;0,000000;0,000000;0,000000;0,000000;
68;;;;;;;;;;;;;;;;;;;;;;;;;;;;;;;;;;;;;;;;;;;;;;;;;;;;;;;;;;;;;;;;;;;;1,000000;0,890259;0,000000;0,000000;0,000000;0,000000;0,000000;0,000000;0,000000;0,000000;0,000000;0,000000;0,000000;0,000000;0,000000;0,000000;0,000000;0,000000;0,000000;0,000000;0,000000;0,000000;0,000000;0,000000;0,000000;0,000000;0,000000;0,000000;0,000000;0,000000;0,000000;0,000000;0,000000;0,000000;0,000000;0,000000;0,000000;0,000000;0,000000;0,000000;0,000000;0,000000;0,000000;0,000000;0,000000;0,000000;0,000000;0,000000;0,000000;0,000000;0,000000;0,000000;0,000000;0,000000;0,000000;0,000000;0,000000;0,000000;0,000000;0,000000;0,000000;0,000000;0,000000;
69;;;;;;;;;;;;;;;;;;;;;;;;;;;;;;;;;;;;;;;;;;;;;;;;;;;;;;;;;;;;;;;;;;;;;1,000000;0,000000;0,000000;0,000000;0,000000;0,000000;0,000000;0,000000;0,000000;0,000000;0,000000;0,000000;0,000000;0,000000;0,000000;0,000000;0,000000;0,000000;0,000000;0,000000;0,000000;0,000000;0,000000;0,000000;0,000000;0,000000;0,000000;0,000000;0,000000;0,000000;0,000000;0,000000;0,000000;0,000000;0,000000;0,000000;0,000000;0,000000;0,000000;0,000000;0,000000;0,000000;0,000000;0,000000;0,000000;0,000000;0,000000;0,000000;0,000000;0,000000;0,000000;0,000000;0,000000;0,000000;0,000000;0,000000;0,000000;0,000000;0,000000;0,000000;0,000000;0,000000;
70;;;;;;;;;;;;;;;;;;;;;;;;;;;;;;;;;;;;;;;;;;;;;;;;;;;;;;;;;;;;;;;;;;;;;;1,000000;0,803991;0,629790;0,629869;0,629950;0,209292;0,207997;0,000000;0,000000;0,000000;0,250458;0,252090;0,250584;0,558734;0,212921;0,409041;0,213050;0,213115;0,000000;0,000000;0,000000;0,000000;0,000000;0,479262;0,479325;0,421015;0,213656;0,213317;0,213791;0,426016;0,426126;0,470070;0,337295;0,336400;0,000000;0,000000;0,000000;0,000000;0,255004;0,255058;0,256796;0,256840;0,256885;0,253556;0,253624;0,194232;0,194278;0,194324;0,194370;0,257516;0,257561;0,189180;0,215470;0,215534;0,213403;0,603227;0,259435;0,259473;0,259511;0,478531;0,216220;
71;;;;;;;;;;;;;;;;;;;;;;;;;;;;;;;;;;;;;;;;;;;;;;;;;;;;;;;;;;;;;;;;;;;;;;;1,000000;0,625961;0,626041;0,626122;0,187829;0,186534;0,000000;0,000000;0,000000;0,228995;0,230627;0,229121;0,817614;0,191457;0,358858;0,191587;0,191652;0,000000;0,000000;0,000000;0,000000;0,000000;0,429079;0,429142;0,370832;0,192193;0,191853;0,192328;0,375833;0,375943;0,419887;0,315832;0,314936;0,000000;0,000000;0,000000;0,000000;0,233541;0,233595;0,235333;0,235377;0,235422;0,232093;0,232161;0,172769;0,172815;0,172861;0,172907;0,236053;0,236098;0,167717;0,194007;0,194071;0,191940;0,581764;0,237971;0,238010;0,238048;0,428348;0,194757;
72;;;;;;;;;;;;;;;;;;;;;;;;;;;;;;;;;;;;;;;;;;;;;;;;;;;;;;;;;;;;;;;;;;;;;;;;1,000000;0,847039;0,847217;0,188526;0,187231;0,000000;0,000000;0,000000;0,229692;0,231324;0,229818;0,510063;0,192155;0,360370;0,192284;0,192349;0,000000;0,000000;0,000000;0,000000;0,000000;0,430591;0,430654;0,372345;0,192890;0,192551;0,193025;0,377346;0,377456;0,421399;0,316529;0,315634;0,000000;0,000000;0,000000;0,000000;0,234238;0,234292;0,236030;0,236074;0,236119;0,232790;0,232858;0,173466;0,173512;0,173558;0,173604;0,236750;0,236795;0,168414;0,194704;0,194768;0,192637;0,582461;0,238669;0,238707;0,238745;0,429861;0,195454;
73;;;;;;;;;;;;;;;;;;;;;;;;;;;;;;;;;;;;;;;;;;;;;;;;;;;;;;;;;;;;;;;;;;;;;;;;;1,000000;0,847394;0,188622;0,187327;0,000000;0,000000;0,000000;0,229788;0,231421;0,229914;0,510185;0,192251;0,360491;0,192381;0,192446;0,000000;0,000000;0,000000;0,000000;0,000000;0,430712;0,430776;0,372466;0,192986;0,192647;0,193122;0,377467;0,377577;0,421520;0,316625;0,315730;0,000000;0,000000;0,000000;0,000000;0,234334;0,234388;0,236126;0,236170;0,236215;0,232887;0,232954;0,173562;0,173608;0,173654;0,173700;0,236846;0,236891;0,168510;0,194800;0,194864;0,192733;0,582557;0,238765;0,238803;0,238841;0,429982;0,195550;
74;;;;;;;;;;;;;;;;;;;;;;;;;;;;;;;;;;;;;;;;;;;;;;;;;;;;;;;;;;;;;;;;;;;;;;;;;;1,000000;0,188718;0,187423;0,000000;0,000000;0,000000;0,229883;0,231516;0,230010;0,510306;0,192346;0,360612;0,192476;0,192541;0,000000;0,000000;0,000000;0,000000;0,000000;0,430834;0,430897;0,372587;0,193082;0,192742;0,193217;0,377588;0,377698;0,421641;0,316720;0,315825;0,000000;0,000000;0,000000;0,000000;0,234430;0,234483;0,236222;0,236266;0,236311;0,232982;0,233050;0,173658;0,173704;0,173750;0,173795;0,236942;0,236987;0,168606;0,194896;0,194959;0,192829;0,582653;0,238860;0,238898;0,238937;0,430103;0,195646;
75;;;;;;;;;;;;;;;;;;;;;;;;;;;;;;;;;;;;;;;;;;;;;;;;;;;;;;;;;;;;;;;;;;;;;;;;;;;1,000000;0,210835;0,000000;0,000000;0,000000;0,253296;0,254928;0,253422;0,247902;0,215758;0,238393;0,215888;0,215953;0,000000;0,000000;0,000000;0,000000;0,000000;0,214379;0,214463;0,207630;0,216494;0,216154;0,216629;0,191221;0,191303;0,210759;0,340133;0,339237;0,000000;0,000000;0,000000;0,000000;0,257842;0,257896;0,259634;0,259678;0,259723;0,256394;0,256462;0,197070;0,197116;0,197162;0,197208;0,260354;0,260399;0,192018;0,768680;0,768776;0,216241;0,606065;0,262272;0,262311;0,262349;0,215747;0,219058;
76;;;;;;;;;;;;;;;;;;;;;;;;;;;;;;;;;;;;;;;;;;;;;;;;;;;;;;;;;;;;;;;;;;;;;;;;;;;;1,000000;0,000000;0,000000;0,000000;0,252001;0,253633;0,252127;0,246607;0,214463;0,237098;0,214593;0,214658;0,000000;0,000000;0,000000;0,000000;0,000000;0,213084;0,213168;0,206335;0,215199;0,214859;0,215334;0,189926;0,190007;0,209464;0,338838;0,337942;0,000000;0,000000;0,000000;0,000000;0,256547;0,256601;0,258339;0,258383;0,258428;0,255099;0,255167;0,195775;0,195821;0,195867;0,195912;0,259059;0,259104;0,474363;0,217013;0,217077;1,000000;0,604770;0,260977;0,261015;0,261054;0,214452;0,217763;
77;;;;;;;;;;;;;;;;;;;;;;;;;;;;;;;;;;;;;;;;;;;;;;;;;;;;;;;;;;;;;;;;;;;;;;;;;;;;;1,000000;0,825354;0,825537;0,000000;0,000000;0,000000;0,000000;0,000000;0,000000;0,000000;0,000000;0,000000;0,000000;0,000000;0,000000;0,000000;0,000000;0,000000;0,000000;0,000000;0,000000;0,000000;0,000000;0,000000;0,000000;0,000000;0,000000;0,000000;0,000000;0,000000;0,000000;0,000000;0,000000;0,000000;0,000000;0,000000;0,000000;0,000000;0,000000;0,000000;0,000000;0,000000;0,000000;0,000000;0,000000;0,000000;0,000000;0,000000;0,000000;0,000000;0,000000;0,000000;0,000000;0,000000;
78;;;;;;;;;;;;;;;;;;;;;;;;;;;;;;;;;;;;;;;;;;;;;;;;;;;;;;;;;;;;;;;;;;;;;;;;;;;;;;1,000000;0,825719;0,000000;0,000000;0,000000;0,000000;0,000000;0,000000;0,000000;0,000000;0,000000;0,000000;0,000000;0,000000;0,000000;0,000000;0,000000;0,000000;0,000000;0,000000;0,000000;0,000000;0,000000;0,000000;0,000000;0,000000;0,000000;0,000000;0,000000;0,000000;0,000000;0,000000;0,000000;0,000000;0,000000;0,000000;0,000000;0,000000;0,000000;0,000000;0,000000;0,000000;0,000000;0,000000;0,000000;0,000000;0,000000;0,000000;0,000000;0,000000;0,000000;0,000000;0,000000;
79;;;;;;;;;;;;;;;;;;;;;;;;;;;;;;;;;;;;;;;;;;;;;;;;;;;;;;;;;;;;;;;;;;;;;;;;;;;;;;;1,000000;0,000000;0,000000;0,000000;0,000000;0,000000;0,000000;0,000000;0,000000;0,000000;0,000000;0,000000;0,000000;0,000000;0,000000;0,000000;0,000000;0,000000;0,000000;0,000000;0,000000;0,000000;0,000000;0,000000;0,000000;0,000000;0,000000;0,000000;0,000000;0,000000;0,000000;0,000000;0,000000;0,000000;0,000000;0,000000;0,000000;0,000000;0,000000;0,000000;0,000000;0,000000;0,000000;0,000000;0,000000;0,000000;0,000000;0,000000;0,000000;0,000000;0,000000;0,000000;
80;;;;;;;;;;;;;;;;;;;;;;;;;;;;;;;;;;;;;;;;;;;;;;;;;;;;;;;;;;;;;;;;;;;;;;;;;;;;;;;;1,000000;0,695562;0,742442;0,289068;0,256924;0,279559;0,257054;0,257119;0,000000;0,000000;0,000000;0,000000;0,000000;0,255545;0,255629;0,248796;0,257660;0,257320;0,257795;0,232387;0,232468;0,251925;0,381298;0,380403;0,000000;0,000000;0,000000;0,000000;0,747711;0,747711;0,300800;0,300844;0,300888;0,297560;0,297628;0,238236;0,238282;0,238327;0,238373;0,301520;0,301564;0,233184;0,259474;0,259537;0,257407;0,647231;0,303438;0,303476;0,303514;0,256912;0,260223;
81;;;;;;;;;;;;;;;;;;;;;;;;;;;;;;;;;;;;;;;;;;;;;;;;;;;;;;;;;;;;;;;;;;;;;;;;;;;;;;;;;1,000000;0,695864;0,290701;0,258557;0,281191;0,258687;0,258752;0,000000;0,000000;0,000000;0,000000;0,000000;0,257177;0,257261;0,250429;0,259292;0,258953;0,259428;0,234020;0,234101;0,253558;0,382931;0,382036;0,000000;0,000000;0,000000;0,000000;0,696972;0,697094;0,302432;0,302477;0,302521;0,299193;0,299260;0,239868;0,239914;0,239960;0,240006;0,303152;0,303197;0,234817;0,261106;0,261170;0,259040;0,648863;0,305071;0,305109;0,305147;0,258545;0,261856;
82;;;;;;;;;;;;;;;;;;;;;;;;;;;;;;;;;;;;;;;;;;;;;;;;;;;;;;;;;;;;;;;;;;;;;;;;;;;;;;;;;;1,000000;0,289194;0,257050;0,279685;0,257180;0,257245;0,000000;0,000000;0,000000;0,000000;0,000000;0,255671;0,255755;0,248922;0,257786;0,257446;0,257921;0,232513;0,232594;0,252051;0,381424;0,380529;0,000000;0,000000;0,000000;0,000000;0,747711;0,747711;0,300926;0,300970;0,301014;0,297686;0,297754;0,238362;0,238408;0,238453;0,238499;0,301646;0,301690;0,233310;0,259600;0,259663;0,257533;0,647357;0,303564;0,303602;0,303641;0,257038;0,260349;
83;;;;;;;;;;;;;;;;;;;;;;;;;;;;;;;;;;;;;;;;;;;;;;;;;;;;;;;;;;;;;;;;;;;;;;;;;;;;;;;;;;;1,000000;0,251531;0,496924;0,251661;0,251726;0,000000;0,000000;0,000000;0,000000;0,000000;0,567145;0,567208;0,508898;0,252266;0,251927;0,252402;0,513899;0,514009;0,557953;0,375905;0,375010;0,000000;0,000000;0,000000;0,000000;0,293614;0,293668;0,295406;0,295451;0,295495;0,292167;0,292234;0,232842;0,232888;0,232934;0,232980;0,296126;0,296171;0,227791;0,254080;0,254144;0,252013;0,641837;0,298045;0,298083;0,298121;0,566414;0,254830;
84;;;;;;;;;;;;;;;;;;;;;;;;;;;;;;;;;;;;;;;;;;;;;;;;;;;;;;;;;;;;;;;;;;;;;;;;;;;;;;;;;;;;1,000000;0,712702;0,783775;0,783968;0,000000;0,000000;0,000000;0,000000;0,000000;0,218007;0,218091;0,211259;0,220123;0,219783;0,220258;0,194850;0,194931;0,214388;0,343761;0,342866;0,000000;0,000000;0,000000;0,000000;0,261470;0,261524;0,263262;0,263307;0,263351;0,260023;0,260090;0,200698;0,200744;0,200790;0,200836;0,263982;0,264027;0,195647;0,221936;0,222000;0,219870;0,609693;0,265901;0,265939;0,265977;0,219375;0,222686;
85;;;;;;;;;;;;;;;;;;;;;;;;;;;;;;;;;;;;;;;;;;;;;;;;;;;;;;;;;;;;;;;;;;;;;;;;;;;;;;;;;;;;;1,000000;0,712990;0,713132;0,000000;0,000000;0,000000;0,000000;0,000000;0,417451;0,417514;0,359205;0,242757;0,242417;0,242892;0,364206;0,364316;0,638980;0,366396;0,365500;0,000000;0,000000;0,000000;0,000000;0,284105;0,284158;0,285897;0,285941;0,285986;0,282657;0,282725;0,223333;0,223379;0,223425;0,223470;0,286617;0,286662;0,218281;0,244571;0,244635;0,242504;0,632328;0,288535;0,288573;0,288612;0,416721;0,245321;
86;;;;;;;;;;;;;;;;;;;;;;;;;;;;;;;;;;;;;;;;;;;;;;;;;;;;;;;;;;;;;;;;;;;;;;;;;;;;;;;;;;;;;;1,000000;0,784350;0,000000;0,000000;0,000000;0,000000;0,000000;0,218137;0,218221;0,211389;0,220252;0,219913;0,220388;0,194980;0,195061;0,214517;0,343891;0,342996;0,000000;0,000000;0,000000;0,000000;0,261600;0,261654;0,263392;0,263436;0,263481;0,260153;0,260220;0,200828;0,200874;0,200920;0,200966;0,264112;0,264157;0,195776;0,222066;0,222130;0,219999;0,609823;0,266031;0,266069;0,266107;0,219505;0,222816;
87;;;;;;;;;;;;;;;;;;;;;;;;;;;;;;;;;;;;;;;;;;;;;;;;;;;;;;;;;;;;;;;;;;;;;;;;;;;;;;;;;;;;;;;1,000000;0,000000;0,000000;0,000000;0,000000;0,000000;0,218202;0,218286;0,211454;0,220317;0,219978;0,220453;0,195045;0,195126;0,214582;0,343956;0,343061;0,000000;0,000000;0,000000;0,000000;0,261665;0,261719;0,263457;0,263502;0,263546;0,260218;0,260285;0,200893;0,200939;0,200985;0,201031;0,264177;0,264222;0,195842;0,222131;0,222195;0,220064;0,609888;0,266096;0,266134;0,266172;0,219570;0,222881;
88;;;;;;;;;;;;;;;;;;;;;;;;;;;;;;;;;;;;;;;;;;;;;;;;;;;;;;;;;;;;;;;;;;;;;;;;;;;;;;;;;;;;;;;;1,000000;0,881903;0,882016;0,882129;0,882240;0,000000;0,000000;0,000000;0,000000;0,000000;0,000000;0,000000;0,000000;0,000000;0,000000;0,000000;0,000000;0,000000;0,000000;0,000000;0,000000;0,000000;0,000000;0,000000;0,000000;0,000000;0,000000;0,000000;0,000000;0,000000;0,000000;0,000000;0,000000;0,000000;0,000000;0,000000;0,000000;0,000000;0,000000;0,000000;0,000000;0,000000;0,000000;
89;;;;;;;;;;;;;;;;;;;;;;;;;;;;;;;;;;;;;;;;;;;;;;;;;;;;;;;;;;;;;;;;;;;;;;;;;;;;;;;;;;;;;;;;;1,000000;0,882129;0,882240;0,882351;0,000000;0,000000;0,000000;0,000000;0,000000;0,000000;0,000000;0,000000;0,000000;0,000000;0,000000;0,000000;0,000000;0,000000;0,000000;0,000000;0,000000;0,000000;0,000000;0,000000;0,000000;0,000000;0,000000;0,000000;0,000000;0,000000;0,000000;0,000000;0,000000;0,000000;0,000000;0,000000;0,000000;0,000000;0,000000;0,000000;0,000000;0,000000;
90;;;;;;;;;;;;;;;;;;;;;;;;;;;;;;;;;;;;;;;;;;;;;;;;;;;;;;;;;;;;;;;;;;;;;;;;;;;;;;;;;;;;;;;;;;1,000000;0,882351;0,882461;0,000000;0,000000;0,000000;0,000000;0,000000;0,000000;0,000000;0,000000;0,000000;0,000000;0,000000;0,000000;0,000000;0,000000;0,000000;0,000000;0,000000;0,000000;0,000000;0,000000;0,000000;0,000000;0,000000;0,000000;0,000000;0,000000;0,000000;0,000000;0,000000;0,000000;0,000000;0,000000;0,000000;0,000000;0,000000;0,000000;0,000000;0,000000;
91;;;;;;;;;;;;;;;;;;;;;;;;;;;;;;;;;;;;;;;;;;;;;;;;;;;;;;;;;;;;;;;;;;;;;;;;;;;;;;;;;;;;;;;;;;;1,000000;0,882570;0,000000;0,000000;0,000000;0,000000;0,000000;0,000000;0,000000;0,000000;0,000000;0,000000;0,000000;0,000000;0,000000;0,000000;0,000000;0,000000;0,000000;0,000000;0,000000;0,000000;0,000000;0,000000;0,000000;0,000000;0,000000;0,000000;0,000000;0,000000;0,000000;0,000000;0,000000;0,000000;0,000000;0,000000;0,000000;0,000000;0,000000;0,000000;
92;;;;;;;;;;;;;;;;;;;;;;;;;;;;;;;;;;;;;;;;;;;;;;;;;;;;;;;;;;;;;;;;;;;;;;;;;;;;;;;;;;;;;;;;;;;;1,000000;0,000000;0,000000;0,000000;0,000000;0,000000;0,000000;0,000000;0,000000;0,000000;0,000000;0,000000;0,000000;0,000000;0,000000;0,000000;0,000000;0,000000;0,000000;0,000000;0,000000;0,000000;0,000000;0,000000;0,000000;0,000000;0,000000;0,000000;0,000000;0,000000;0,000000;0,000000;0,000000;0,000000;0,000000;0,000000;0,000000;0,000000;0,000000;
93;;;;;;;;;;;;;;;;;;;;;;;;;;;;;;;;;;;;;;;;;;;;;;;;;;;;;;;;;;;;;;;;;;;;;;;;;;;;;;;;;;;;;;;;;;;;;1,000000;0,778190;0,689816;0,218743;0,218403;0,218878;0,434427;0,434537;0,478480;0,342382;0,341486;0,000000;0,000000;0,000000;0,000000;0,260091;0,260145;0,261883;0,261927;0,261972;0,258643;0,258711;0,500073;0,500138;0,500203;0,500268;0,262603;0,262648;0,194267;0,220557;0,220621;0,218490;0,608314;0,264521;0,264560;0,264598;0,486942;0,221307;
94;;;;;;;;;;;;;;;;;;;;;;;;;;;;;;;;;;;;;;;;;;;;;;;;;;;;;;;;;;;;;;;;;;;;;;;;;;;;;;;;;;;;;;;;;;;;;;1,000000;0,689941;0,218827;0,218487;0,218962;0,434490;0,434600;0,478544;0,342466;0,341570;0,000000;0,000000;0,000000;0,000000;0,260175;0,260229;0,261967;0,262011;0,262056;0,258727;0,258795;0,500194;0,500259;0,500325;0,500390;0,262687;0,262732;0,194351;0,220641;0,220705;0,218574;0,608398;0,264605;0,264643;0,264682;0,487005;0,221391;
95;;;;;;;;;;;;;;;;;;;;;;;;;;;;;;;;;;;;;;;;;;;;;;;;;;;;;;;;;;;;;;;;;;;;;;;;;;;;;;;;;;;;;;;;;;;;;;;1,000000;0,211994;0,211655;0,212130;0,376180;0,376291;0,420234;0,335633;0,334738;0,000000;0,000000;0,000000;0,000000;0,253342;0,253396;0,255134;0,255178;0,255223;0,251895;0,251962;0,726884;0,726944;0,727003;0,727061;0,255854;0,255899;0,187518;0,213808;0,213872;0,211741;0,601565;0,257773;0,257811;0,257849;0,428695;0,214558;
96;;;;;;;;;;;;;;;;;;;;;;;;;;;;;;;;;;;;;;;;;;;;;;;;;;;;;;;;;;;;;;;;;;;;;;;;;;;;;;;;;;;;;;;;;;;;;;;;1,000000;0,792458;0,806733;0,195585;0,195667;0,215123;0,344497;0,343602;0,000000;0,000000;0,000000;0,000000;0,262206;0,262260;0,263998;0,264042;0,264087;0,617278;0,617278;0,201434;0,201480;0,201526;0,201572;0,264718;0,264763;0,196382;0,222672;0,222736;0,220605;0,610429;0,266637;0,266675;0,266713;0,220111;0,794878;
97;;;;;;;;;;;;;;;;;;;;;;;;;;;;;;;;;;;;;;;;;;;;;;;;;;;;;;;;;;;;;;;;;;;;;;;;;;;;;;;;;;;;;;;;;;;;;;;;;1,000000;0,792767;0,195246;0,195327;0,214784;0,344157;0,343262;0,000000;0,000000;0,000000;0,000000;0,261866;0,261920;0,263658;0,263703;0,263747;0,616429;0,616429;0,201094;0,201140;0,201186;0,201232;0,264378;0,264423;0,196043;0,222332;0,222396;0,220266;0,610089;0,266297;0,266335;0,266373;0,219771;1,000000;
98;;;;;;;;;;;;;;;;;;;;;;;;;;;;;;;;;;;;;;;;;;;;;;;;;;;;;;;;;;;;;;;;;;;;;;;;;;;;;;;;;;;;;;;;;;;;;;;;;;1,000000;0,195721;0,195802;0,215258;0,344632;0,343737;0,000000;0,000000;0,000000;0,000000;0,262341;0,262395;0,264133;0,264178;0,264222;0,617389;0,617389;0,201569;0,201615;0,201661;0,201707;0,264853;0,264898;0,196518;0,222807;0,222871;0,220740;0,610564;0,266772;0,266810;0,266848;0,220246;0,795157;
99;;;;;;;;;;;;;;;;;;;;;;;;;;;;;;;;;;;;;;;;;;;;;;;;;;;;;;;;;;;;;;;;;;;;;;;;;;;;;;;;;;;;;;;;;;;;;;;;;;;1,000000;0,838003;0,425235;0,319224;0,318329;0,000000;0,000000;0,000000;0,000000;0,236933;0,236987;0,238725;0,238770;0,238814;0,235486;0,235553;0,176161;0,176207;0,176253;0,176299;0,239445;0,239490;0,171110;0,197399;0,197463;0,195333;0,585156;0,241364;0,241402;0,241440;0,692985;0,198149;
100;;;;;;;;;;;;;;;;;;;;;;;;;;;;;;;;;;;;;;;;;;;;;;;;;;;;;;;;;;;;;;;;;;;;;;;;;;;;;;;;;;;;;;;;;;;;;;;;;;;;1,000000;0,425345;0,319305;0,318410;0,000000;0,000000;0,000000;0,000000;0,237014;0,237068;0,238806;0,238851;0,238895;0,235567;0,235635;0,176242;0,176288;0,176334;0,176380;0,239526;0,239571;0,171191;0,197480;0,197544;0,195414;0,585237;0,241445;0,241483;0,241521;0,693069;0,198230;
101;;;;;;;;;;;;;;;;;;;;;;;;;;;;;;;;;;;;;;;;;;;;;;;;;;;;;;;;;;;;;;;;;;;;;;;;;;;;;;;;;;;;;;;;;;;;;;;;;;;;;1,000000;0,338762;0,337867;0,000000;0,000000;0,000000;0,000000;0,256471;0,256525;0,258263;0,258307;0,258352;0,255023;0,255091;0,195699;0,195745;0,195791;0,195837;0,258983;0,259028;0,190647;0,216937;0,217001;0,214870;0,604694;0,260902;0,260940;0,260978;0,477750;0,217687;
102;;;;;;;;;;;;;;;;;;;;;;;;;;;;;;;;;;;;;;;;;;;;;;;;;;;;;;;;;;;;;;;;;;;;;;;;;;;;;;;;;;;;;;;;;;;;;;;;;;;;;;1,000000;0,467240;0,000000;0,000000;0,000000;0,000000;0,385844;0,385898;0,387637;0,387681;0,387725;0,384397;0,384465;0,325073;0,325119;0,325164;0,325210;0,739984;0,740082;0,320021;0,346311;0,346374;0,344244;0,734068;0,390275;0,390313;0,390352;0,343749;0,347060;
103;;;;;;;;;;;;;;;;;;;;;;;;;;;;;;;;;;;;;;;;;;;;;;;;;;;;;;;;;;;;;;;;;;;;;;;;;;;;;;;;;;;;;;;;;;;;;;;;;;;;;;;1,000000;0,000000;0,000000;0,000000;0,000000;0,384949;0,385003;0,386741;0,386786;0,386830;0,383502;0,383569;0,324177;0,324223;0,324269;0,324315;0,870944;0,870944;0,319126;0,345415;0,345479;0,343349;0,733172;0,389380;0,389418;0,389456;0,342854;0,346165;
104;;;;;;;;;;;;;;;;;;;;;;;;;;;;;;;;;;;;;;;;;;;;;;;;;;;;;;;;;;;;;;;;;;;;;;;;;;;;;;;;;;;;;;;;;;;;;;;;;;;;;;;;1,000000;0,856388;0,856498;0,856607;0,000000;0,000000;0,000000;0,000000;0,000000;0,000000;0,000000;0,000000;0,000000;0,000000;0,000000;0,000000;0,000000;0,000000;0,000000;0,000000;0,000000;0,000000;0,000000;0,000000;0,000000;0,000000;0,000000;
105;;;;;;;;;;;;;;;;;;;;;;;;;;;;;;;;;;;;;;;;;;;;;;;;;;;;;;;;;;;;;;;;;;;;;;;;;;;;;;;;;;;;;;;;;;;;;;;;;;;;;;;;;1,000000;0,856607;0,856716;0,000000;0,000000;0,000000;0,000000;0,000000;0,000000;0,000000;0,000000;0,000000;0,000000;0,000000;0,000000;0,000000;0,000000;0,000000;0,000000;0,000000;0,000000;0,000000;0,000000;0,000000;0,000000;0,000000;
106;;;;;;;;;;;;;;;;;;;;;;;;;;;;;;;;;;;;;;;;;;;;;;;;;;;;;;;;;;;;;;;;;;;;;;;;;;;;;;;;;;;;;;;;;;;;;;;;;;;;;;;;;;1,000000;0,856824;0,000000;0,000000;0,000000;0,000000;0,000000;0,000000;0,000000;0,000000;0,000000;0,000000;0,000000;0,000000;0,000000;0,000000;0,000000;0,000000;0,000000;0,000000;0,000000;0,000000;0,000000;0,000000;0,000000;
107;;;;;;;;;;;;;;;;;;;;;;;;;;;;;;;;;;;;;;;;;;;;;;;;;;;;;;;;;;;;;;;;;;;;;;;;;;;;;;;;;;;;;;;;;;;;;;;;;;;;;;;;;;;1,000000;0,000000;0,000000;0,000000;0,000000;0,000000;0,000000;0,000000;0,000000;0,000000;0,000000;0,000000;0,000000;0,000000;0,000000;0,000000;0,000000;0,000000;0,000000;0,000000;0,000000;0,000000;0,000000;0,000000;
108;;;;;;;;;;;;;;;;;;;;;;;;;;;;;;;;;;;;;;;;;;;;;;;;;;;;;;;;;;;;;;;;;;;;;;;;;;;;;;;;;;;;;;;;;;;;;;;;;;;;;;;;;;;;1,000000;0,752979;0,305346;0,305390;0,305434;0,302106;0,302174;0,242782;0,242828;0,242874;0,242919;0,306066;0,306111;0,237730;0,264020;0,264083;0,261953;0,651777;0,307984;0,308022;0,308061;0,261458;0,264770;
109;;;;;;;;;;;;;;;;;;;;;;;;;;;;;;;;;;;;;;;;;;;;;;;;;;;;;;;;;;;;;;;;;;;;;;;;;;;;;;;;;;;;;;;;;;;;;;;;;;;;;;;;;;;;;1,000000;0,305400;0,305444;0,305488;0,302160;0,302228;0,242836;0,242882;0,242927;0,242973;0,306119;0,306164;0,237784;0,264074;0,264137;0,262007;0,651831;0,308038;0,308076;0,308114;0,261512;0,264823;
110;;;;;;;;;;;;;;;;;;;;;;;;;;;;;;;;;;;;;;;;;;;;;;;;;;;;;;;;;;;;;;;;;;;;;;;;;;;;;;;;;;;;;;;;;;;;;;;;;;;;;;;;;;;;;;1,000000;0,795876;0,796012;0,303898;0,303966;0,244574;0,244620;0,244666;0,244712;0,307858;0,307903;0,239522;0,265812;0,265876;0,263745;0,653569;0,309776;0,309815;0,309853;0,263251;0,266562;
111;;;;;;;;;;;;;;;;;;;;;;;;;;;;;;;;;;;;;;;;;;;;;;;;;;;;;;;;;;;;;;;;;;;;;;;;;;;;;;;;;;;;;;;;;;;;;;;;;;;;;;;;;;;;;;;1,000000;0,796147;0,303943;0,304010;0,244618;0,244664;0,244710;0,244756;0,307902;0,307947;0,239566;0,265856;0,265920;0,263789;0,653613;0,309821;0,309859;0,309897;0,263295;0,266606;
112;;;;;;;;;;;;;;;;;;;;;;;;;;;;;;;;;;;;;;;;;;;;;;;;;;;;;;;;;;;;;;;;;;;;;;;;;;;;;;;;;;;;;;;;;;;;;;;;;;;;;;;;;;;;;;;;1,000000;0,303987;0,304055;0,244663;0,244709;0,244754;0,244800;0,307947;0,307991;0,239611;0,265901;0,265964;0,263834;0,653658;0,309865;0,309903;0,309942;0,263339;0,266650;
113;;;;;;;;;;;;;;;;;;;;;;;;;;;;;;;;;;;;;;;;;;;;;;;;;;;;;;;;;;;;;;;;;;;;;;;;;;;;;;;;;;;;;;;;;;;;;;;;;;;;;;;;;;;;;;;;;1,000000;0,700781;0,241334;0,241380;0,241426;0,241472;0,304618;0,304663;0,236283;0,262572;0,262636;0,260505;0,650329;0,306537;0,306575;0,306613;0,260011;0,620083;
114;;;;;;;;;;;;;;;;;;;;;;;;;;;;;;;;;;;;;;;;;;;;;;;;;;;;;;;;;;;;;;;;;;;;;;;;;;;;;;;;;;;;;;;;;;;;;;;;;;;;;;;;;;;;;;;;;;1,000000;0,241402;0,241448;0,241494;0,241540;0,304686;0,304731;0,236350;0,262640;0,262704;0,260573;0,650397;0,306604;0,306643;0,306681;0,260079;0,620083;
115;;;;;;;;;;;;;;;;;;;;;;;;;;;;;;;;;;;;;;;;;;;;;;;;;;;;;;;;;;;;;;;;;;;;;;;;;;;;;;;;;;;;;;;;;;;;;;;;;;;;;;;;;;;;;;;;;;;1,000000;0,879389;0,879473;0,879557;0,245294;0,245339;0,176958;0,203248;0,203312;0,201181;0,591005;0,247212;0,247250;0,247289;0,200687;0,203998;
116;;;;;;;;;;;;;;;;;;;;;;;;;;;;;;;;;;;;;;;;;;;;;;;;;;;;;;;;;;;;;;;;;;;;;;;;;;;;;;;;;;;;;;;;;;;;;;;;;;;;;;;;;;;;;;;;;;;;1,000000;0,879557;0,879640;0,245340;0,245385;0,177004;0,203294;0,203358;0,201227;0,591051;0,247258;0,247296;0,247335;0,200733;0,204044;
117;;;;;;;;;;;;;;;;;;;;;;;;;;;;;;;;;;;;;;;;;;;;;;;;;;;;;;;;;;;;;;;;;;;;;;;;;;;;;;;;;;;;;;;;;;;;;;;;;;;;;;;;;;;;;;;;;;;;;1,000000;0,879723;0,245386;0,245430;0,177050;0,203340;0,203403;0,201273;0,591097;0,247304;0,247342;0,247381;0,200778;0,204089;
118;;;;;;;;;;;;;;;;;;;;;;;;;;;;;;;;;;;;;;;;;;;;;;;;;;;;;;;;;;;;;;;;;;;;;;;;;;;;;;;;;;;;;;;;;;;;;;;;;;;;;;;;;;;;;;;;;;;;;;1,000000;0,245431;0,245476;0,177096;0,203386;0,203449;0,201319;0,591143;0,247350;0,247388;0,247426;0,200824;0,204135;
119;;;;;;;;;;;;;;;;;;;;;;;;;;;;;;;;;;;;;;;;;;;;;;;;;;;;;;;;;;;;;;;;;;;;;;;;;;;;;;;;;;;;;;;;;;;;;;;;;;;;;;;;;;;;;;;;;;;;;;;1,000000;0,741887;0,240242;0,266532;0,266596;0,264465;0,654289;0,310496;0,310534;0,310573;0,263970;0,267282;
120;;;;;;;;;;;;;;;;;;;;;;;;;;;;;;;;;;;;;;;;;;;;;;;;;;;;;;;;;;;;;;;;;;;;;;;;;;;;;;;;;;;;;;;;;;;;;;;;;;;;;;;;;;;;;;;;;;;;;;;;1,000000;0,240287;0,266577;0,266640;0,264510;0,654334;0,310541;0,310579;0,310618;0,264015;0,267326;
121;;;;;;;;;;;;;;;;;;;;;;;;;;;;;;;;;;;;;;;;;;;;;;;;;;;;;;;;;;;;;;;;;;;;;;;;;;;;;;;;;;;;;;;;;;;;;;;;;;;;;;;;;;;;;;;;;;;;;;;;;1,000000;0,198196;0,198260;0,482380;0,585953;0,242161;0,242199;0,242237;0,195635;0,198946;
122;;;;;;;;;;;;;;;;;;;;;;;;;;;;;;;;;;;;;;;;;;;;;;;;;;;;;;;;;;;;;;;;;;;;;;;;;;;;;;;;;;;;;;;;;;;;;;;;;;;;;;;;;;;;;;;;;;;;;;;;;;1,000000;0,822010;0,222419;0,612243;0,268450;0,268489;0,268527;0,221925;0,225236;
123;;;;;;;;;;;;;;;;;;;;;;;;;;;;;;;;;;;;;;;;;;;;;;;;;;;;;;;;;;;;;;;;;;;;;;;;;;;;;;;;;;;;;;;;;;;;;;;;;;;;;;;;;;;;;;;;;;;;;;;;;;;1,000000;0,222483;0,612307;0,268514;0,268552;0,268591;0,221988;0,225299;
124;;;;;;;;;;;;;;;;;;;;;;;;;;;;;;;;;;;;;;;;;;;;;;;;;;;;;;;;;;;;;;;;;;;;;;;;;;;;;;;;;;;;;;;;;;;;;;;;;;;;;;;;;;;;;;;;;;;;;;;;;;;;1,000000;0,610176;0,266384;0,266422;0,266460;0,219858;0,223169;
125;;;;;;;;;;;;;;;;;;;;;;;;;;;;;;;;;;;;;;;;;;;;;;;;;;;;;;;;;;;;;;;;;;;;;;;;;;;;;;;;;;;;;;;;;;;;;;;;;;;;;;;;;;;;;;;;;;;;;;;;;;;;;1,000000;0,656207;0,656246;0,656284;0,609682;0,612993;
126;;;;;;;;;;;;;;;;;;;;;;;;;;;;;;;;;;;;;;;;;;;;;;;;;;;;;;;;;;;;;;;;;;;;;;;;;;;;;;;;;;;;;;;;;;;;;;;;;;;;;;;;;;;;;;;;;;;;;;;;;;;;;;1,000000;0,799866;0,799980;0,265889;0,269200;
127;;;;;;;;;;;;;;;;;;;;;;;;;;;;;;;;;;;;;;;;;;;;;;;;;;;;;;;;;;;;;;;;;;;;;;;;;;;;;;;;;;;;;;;;;;;;;;;;;;;;;;;;;;;;;;;;;;;;;;;;;;;;;;;1,000000;0,800093;0,265927;0,269238;
128;;;;;;;;;;;;;;;;;;;;;;;;;;;;;;;;;;;;;;;;;;;;;;;;;;;;;;;;;;;;;;;;;;;;;;;;;;;;;;;;;;;;;;;;;;;;;;;;;;;;;;;;;;;;;;;;;;;;;;;;;;;;;;;;1,000000;0,265965;0,269277;
129;;;;;;;;;;;;;;;;;;;;;;;;;;;;;;;;;;;;;;;;;;;;;;;;;;;;;;;;;;;;;;;;;;;;;;;;;;;;;;;;;;;;;;;;;;;;;;;;;;;;;;;;;;;;;;;;;;;;;;;;;;;;;;;;;1,000000;0,222674;
130;;;;;;;;;;;;;;;;;;;;;;;;;;;;;;;;;;;;;;;;;;;;;;;;;;;;;;;;;;;;;;;;;;;;;;;;;;;;;;;;;;;;;;;;;;;;;;;;;;;;;;;;;;;;;;;;;;;;;;;;;;;;;;;;;;1,000000;
