;1; 2; 3; 4; 5; 6; 7; 8; 9; 10; 11; 12; 13; 14; 15; 16; 17; 18; 19; 20; 21; 22; 23; 24; 25; 26; 27; 28; 29; 30; 31; 32; 33; 34; 35; 36; 37; 38; 39; 40; 41; 42; 43; 44; 45; 46; 47; 48; 49; 50; 51; 52; 53; 54; 55; 56; 57; 58; 59; 60; 61; 62; 63; 64; 65; 66; 67; 68; 69; 70; 71; 72; 73; 74; 75; 76; 77; 78; 79; 80; 81; 82; 83; 84; 85; 86; 87; 88; 89; 90; 91; 92; 93; 94; 95; 96; 97; 98
1;1,000000;0,433235;0,570372;0,445152;0,435318;0,370269;0,504478;0,625532;0,455237;0,339622;0,416667;0,407697;0,402121;0,333075;0,000000;0,141245;0,000000;0,000000;0,000000;0,282896;0,500000;0,000000;0,000000;0,416667;0,000000;0,225903;0,100629;0,100629;0,000000;0,000000;0,000000;0,183613;0,000000;0,178534;0,178534;0,000000;0,000000;0,000000;0,000000;0,000000;0,150511;0,000000;0,000000;0,286094;0,264948;0,366667;0,000000;0,000000;0,184611;0,000000;0,000000;0,000000;0,160494;0,160494;0,160494;0,160494;0,160494;0,000000;0,211861;0,000000;0,185494;0,000000;0,227161;0,227161;0,000000;0,000000;0,220201;0,000000;0,000000;0,220201;0,161470;0,000000;0,000000;0,000000;0,310494;0,153534;0,000000;0,000000;0,000000;0,000000;0,000000;0,220201;0,000000;0,178534;0,136867;0,153534;0,153534;0,153534;0,153534;0,000000;0,000000;0,000000;0,000000;0,000000;0,000000;0,000000;0,000000;0,000000;
2;;1,000000;0,467397;0,719501;0,507144;0,497379;0,564599;0,385833;0,617928;0,605075;0,303681;0,440918;0,277769;0,451298;0,166837;0,268750;0,218709;0,259296;0,166837;0,276365;0,345348;0,267289;0,250288;0,579358;0,273753;0,499116;0,170955;0,170955;0,243709;0,262994;0,243709;0,220381;0,274959;0,243709;0,243709;0,098133;0,000000;0,243709;0,262994;0,000000;0,268698;0,276341;0,285376;0,468621;0,423901;0,529358;0,243709;0,243709;0,243709;0,201784;0,285376;0,285376;0,278681;0,278681;0,278681;0,278681;0,278681;0,243709;0,330048;0,000000;0,303681;0,243709;0,345348;0,345348;0,285376;0,285376;0,285376;0,285376;0,262994;0,285376;0,212948;0,387723;0,368709;0,618709;0,829358;0,218709;0,000000;0,243709;0,259296;0,285376;0,000000;0,285376;0,285376;0,243709;0,000000;0,218709;0,218709;0,218709;0,218709;0,292941;0,243709;0,285376;0,000000;0,000000;0,368709;0,285376;0,285376;0,285376;
3;;;1,000000;0,496637;0,618497;0,536479;0,604385;0,436386;0,457426;0,382093;0,443990;0,577833;0,341866;0,424160;0,220443;0,427053;0,181916;0,222504;0,220443;0,406639;0,394110;0,314083;0,375655;0,483219;0,236960;0,493700;0,513497;0,513497;0,206916;0,226202;0,206916;0,494153;0,315421;0,353503;0,353503;0,164877;0,000000;0,338934;0,251584;0,448496;0,370413;0,485608;0,248583;0,430303;0,436350;0,525883;0,206916;0,206916;0,368466;0,365516;0,248583;0,248583;0,471884;0,471884;0,471884;0,471884;0,471884;0,472144;0,408434;0,301521;0,448170;0,206916;0,373340;0,373340;0,248583;0,248583;0,436836;0,248583;0,302964;0,436836;0,300412;0,337584;0,331916;0,581916;0,331916;0,471650;0,142913;0,338934;0,267696;0,248583;0,000000;0,436836;0,248583;0,353503;0,396158;0,414166;0,414166;0,414166;0,414166;0,414917;0,206916;0,248583;0,532501;0,517913;0,331916;0,248583;0,248583;0,248583;
4;;;;1,000000;0,466692;0,456928;0,524147;0,411884;0,568020;0,591474;0,282296;0,391010;0,263846;0,401390;0,138405;0,245033;0,190277;0,230864;0,138405;0,254980;0,323963;0,243572;0,226571;0,529450;0,245321;0,449208;0,142523;0,142523;0,215277;0,234562;0,215277;0,191949;0,246527;0,215277;0,215277;0,104545;0,000000;0,215277;0,234562;0,000000;0,247313;0,247909;0,256943;0,418713;0,373993;0,479450;0,215277;0,215277;0,215277;0,173352;0,256943;0,256943;0,257296;0,257296;0,257296;0,257296;0,257296;0,215277;0,308663;0,000000;0,282296;0,215277;0,323963;0,323963;0,256943;0,256943;0,256943;0,256943;0,234562;0,256943;0,184516;0,364006;0,340277;0,590277;0,779450;0,190277;0,000000;0,215277;0,230864;0,256943;0,000000;0,256943;0,256943;0,215277;0,000000;0,190277;0,190277;0,190277;0,190277;0,264509;0,215277;0,256943;0,000000;0,000000;0,340277;0,256943;0,256943;0,256943;
5;;;;;1,000000;0,634459;0,527781;0,529746;0,597731;0,417835;0,534270;0,613037;0,533995;0,654672;0,340225;0,484286;0,264759;0,345934;0,340225;0,300113;0,411770;0,446074;0,524477;0,539876;0,374847;0,584566;0,469801;0,469801;0,314759;0,353329;0,314759;0,467923;0,424968;0,502862;0,502862;0,251339;0,120140;0,617861;0,386803;0,321095;0,434583;0,374431;0,398092;0,568211;0,624637;0,492059;0,314759;0,464867;0,464867;0,394598;0,398092;0,209186;0,162843;0,162843;0,162843;0,162843;0,162843;0,314759;0,381170;0,290933;0,328436;0,314759;0,411770;0,411770;0,398092;0,398092;0,627862;0,209186;0,284133;0,438218;0,301793;0,314759;0,292519;0,542519;0,620333;0,508044;0,314891;0,320103;0,409588;0,398092;0,000000;0,627862;0,398092;0,653635;0,415622;0,429387;0,304884;0,304884;0,304884;0,438912;0,314759;0,398092;0,513851;0,543996;0,292519;0,209186;0,209186;0,209186;
6;;;;;;1,000000;0,497563;0,640396;0,582414;0,395971;0,614886;0,651757;0,512086;0,646558;0,362658;0,533705;0,321638;0,402813;0,362658;0,257261;0,406283;0,458496;0,504445;0,524558;0,431726;0,680867;0,626613;0,626613;0,371638;0,410209;0,371638;0,584645;0,444661;0,505710;0,505710;0,233785;0,275227;0,662182;0,431124;0,151704;0,213699;0,307384;0,454972;0,654617;0,677864;0,572323;0,371638;0,519089;0,689118;0,418193;0,454972;0,254738;0,128845;0,128845;0,128845;0,128845;0,128845;0,663563;0,180212;0,151022;0,153845;0,371638;0,195512;0,195512;0,454972;0,454972;0,454972;0,254738;0,320238;0,431711;0,299203;0,371638;0,338071;0,588071;0,621200;0,574440;0,297337;0,356208;0,512105;0,454972;0,272117;0,454972;0,454972;0,519089;0,501555;0,564910;0,541627;0,541627;0,541627;0,370578;0,371638;0,454972;0,000000;0,517879;0,338071;0,254738;0,254738;0,254738;
7;;;;;;;1,000000;0,438769;0,542853;0,265397;0,406787;0,561174;0,388524;0,538306;0,138487;0,440751;0,190359;0,230947;0,138487;0,273017;0,490120;0,193126;0,174780;0,598222;0,245403;0,465680;0,294659;0,294659;0,215359;0,234644;0,215359;0,459130;0,246609;0,445824;0,445824;0,000000;0,000000;0,215359;0,234644;0,000000;0,147152;0,247992;0,257026;0,487866;0,418516;0,563285;0,215359;0,215359;0,444951;0,173435;0,257026;0,257026;0,157135;0,157135;0,157135;0,157135;0,157135;0,215359;0,208502;0,000000;0,182135;0,215359;0,223802;0,223802;0,257026;0,257026;0,529158;0,257026;0,234644;0,529158;0,392733;0,215359;0,340359;0,590359;0,653415;0,395824;0,000000;0,215359;0,230947;0,257026;0,000000;0,529158;0,257026;0,445824;0,155549;0,395824;0,395824;0,395824;0,395824;0,264592;0,215359;0,257026;0,000000;0,000000;0,340359;0,257026;0,257026;0,257026;
8;;;;;;;;1,000000;0,412866;0,530146;0,441415;0,527415;0,629482;0,643074;0,415586;0,633445;0,480022;0,448238;0,415586;0,318104;0,387009;0,453758;0,483070;0,434905;0,443623;0,549761;0,417308;0,417308;0,449925;0,431898;0,449925;0,531634;0,414599;0,472468;0,472468;0,472301;0,365819;0,476601;0,516646;0,276940;0,298020;0,285263;0,405119;0,621472;0,592819;0,506047;0,469566;0,479453;0,471158;0,381205;0,404718;0,371363;0,141095;0,141095;0,141095;0,141095;0,141095;0,467247;0,192462;0,278906;0,166095;0,473864;0,207762;0,207762;0,417599;0,417599;0,428041;0,366217;0,406292;0,366219;0,263927;0,466036;0,264843;0,000000;0,291095;0,484719;0,446096;0,426119;0,461051;0,407726;0,256776;0,428041;0,407726;0,488250;0,470939;0,469723;0,451310;0,451310;0,451310;0,343765;0,470596;0,420609;0,000000;0,000000;0,264964;0,359335;0,359335;0,359335;
9;;;;;;;;;1,000000;0,400553;0,269285;0,400131;0,198108;0,410511;0,192413;0,267823;0,244285;0,284872;0,192413;0,241969;0,310952;0,247052;0,228706;0,807855;0,299329;0,458329;0,196531;0,196531;0,269285;0,288570;0,269285;0,245957;0,300535;0,269285;0,269285;0,000000;0,000000;0,269285;0,288570;0,000000;0,234302;0,301917;0,310952;0,427833;0,383114;0,488570;0,269285;0,269285;0,269285;0,227361;0,310952;0,310952;0,244285;0,244285;0,244285;0,244285;0,244285;0,269285;0,295652;0,000000;0,269285;0,269285;0,310952;0,310952;0,310952;0,310952;0,310952;0,310952;0,288570;0,310952;0,238525;0,269285;0,394285;0,644285;0,788570;0,244285;0,000000;0,269285;0,284872;0,310952;0,000000;0,310952;0,310952;0,269285;0,000000;0,244285;0,244285;0,244285;0,244285;0,318518;0,269285;0,310952;0,000000;0,000000;0,394285;0,310952;0,310952;0,310952;
10;;;;;;;;;;1,000000;0,329411;0,459414;0,423904;0,653174;0,420005;0,543576;0,355186;0,436361;0,420005;0,136868;0,205852;0,671200;0,676376;0,361983;0,465274;0,396892;0,208907;0,208907;0,405186;0,443756;0,405186;0,337200;0,622432;0,405186;0,405186;0,569945;0,487244;0,405186;0,390057;0,000000;0,129202;0,230264;0,488519;0,352720;0,373899;0,311983;0,609779;0,405186;0,405186;0,324619;0,488519;0,239298;0,139185;0,139185;0,139185;0,139185;0,139185;0,405186;0,190552;0,000000;0,164185;0,405186;0,205852;0,205852;0,734779;0,734779;0,488519;0,239298;0,216916;0,239298;0,166871;0,609779;0,322631;0,572631;0,611983;0,172631;0,343702;0,197631;0,436361;0,488519;0,000000;0,488519;0,488519;0,405186;0,121690;0,172631;0,172631;0,172631;0,172631;0,404126;0,405186;0,488519;0,000000;0,538356;0,322631;0,239298;0,239298;0,239298;
11;;;;;;;;;;;1,000000;0,538245;0,556639;0,579145;0,192532;0,400614;0,000000;0,000000;0,192532;0,504382;0,583333;0,142510;0,313749;0,250000;0,000000;0,367178;0,398113;0,398113;0,000000;0,000000;0,000000;0,160254;0,182280;0,000000;0,000000;0,191168;0,000000;0,000000;0,000000;0,250000;0,366877;0,180481;0,000000;0,160903;0,478328;0,225000;0,000000;0,000000;0,250000;0,000000;0,000000;0,000000;0,225000;0,225000;0,225000;0,225000;0,225000;0,000000;0,276367;0,000000;0,250000;0,000000;0,291667;0,291667;0,000000;0,000000;0,000000;0,000000;0,000000;0,000000;0,000000;0,000000;0,000000;0,000000;0,375000;0,000000;0,250000;0,000000;0,000000;0,000000;0,000000;0,000000;0,000000;0,000000;0,416667;0,000000;0,000000;0,000000;0,000000;0,000000;0,000000;0,000000;0,000000;0,625000;0,000000;0,000000;0,000000;0,000000;
12;;;;;;;;;;;;1,000000;0,617751;0,601321;0,345745;0,500384;0,259305;0,340480;0,345745;0,400913;0,624916;0,524664;0,470336;0,361560;0,369393;0,520268;0,636000;0,636000;0,309305;0,347875;0,309305;0,534140;0,373235;0,472452;0,472452;0,329871;0,110827;0,450577;0,361881;0,421705;0,393756;0,415026;0,392638;0,533105;0,624735;0,593729;0,448308;0,309305;0,499246;0,385042;0,392638;0,399388;0,153122;0,153122;0,153122;0,153122;0,153122;0,465388;0,539526;0,279048;0,460426;0,309305;0,400695;0,400695;0,392638;0,392638;0,597452;0,214074;0,277860;0,419197;0,282773;0,309305;0,560914;0,547407;0,611560;0,352384;0,319019;0,313829;0,390913;0,392638;0,000000;0,597452;0,392638;0,472452;0,592647;0,285864;0,285864;0,285864;0,285864;0,430306;0,309305;0,392638;0,512941;0,558177;0,566055;0,214074;0,214074;0,214074;
13;;;;;;;;;;;;;1,000000;0,534010;0,359336;0,499296;0,370983;0,298513;0,359336;0,311022;0,447093;0,398412;0,525428;0,178823;0,183940;0,492944;0,505780;0,505780;0,153896;0,173181;0,153896;0,354372;0,382084;0,310608;0,310608;0,456300;0,388304;0,299060;0,157053;0,200534;0,241330;0,131014;0,195563;0,329739;0,530450;0,356736;0,295013;0,153896;0,343371;0,177588;0,195563;0,000000;0,153823;0,153823;0,153823;0,153823;0,153823;0,153896;0,205190;0,000000;0,178823;0,153896;0,220490;0,220490;0,378347;0,378347;0,393941;0,000000;0,101692;0,197674;0,138943;0,438485;0,000000;0,000000;0,303823;0,201448;0,445983;0,144904;0,229086;0,195563;0,000000;0,393941;0,195563;0,310608;0,582452;0,131007;0,131007;0,131007;0,131007;0,106938;0,153896;0,195563;0,000000;0,000000;0,000000;0,000000;0,000000;0,000000;
14;;;;;;;;;;;;;;1,000000;0,420462;0,635285;0,375467;0,456642;0,420462;0,249164;0,380365;0,528321;0,616886;0,371941;0,576937;0,632218;0,424219;0,424219;0,425467;0,464038;0,425467;0,626234;0,677175;0,586369;0,586369;0,552990;0,335782;0,594070;0,556047;0,141924;0,214929;0,374829;0,508801;0,604940;0,632108;0,568601;0,600814;0,732614;0,755568;0,451073;0,508801;0,449232;0,112970;0,112970;0,112970;0,112970;0,112970;0,562846;0,164336;0,174699;0,137970;0,565089;0,179636;0,179636;0,725814;0,725814;0,711369;0,634709;0,491546;0,468609;0,332185;0,600814;0,349683;0,599683;0,621941;0,597977;0,344181;0,509709;0,538791;0,508801;0,000000;0,711369;0,508801;0,757210;0,311811;0,715751;0,451208;0,451208;0,451208;0,517594;0,565089;0,690089;0,000000;0,518242;0,349683;0,266350;0,266350;0,266350;
15;;;;;;;;;;;;;;;1,000000;0,557019;0,725334;0,687481;0,774243;0,000000;0,000000;0,484137;0,460703;0,173128;0,611914;0,336915;0,212000;0,212000;0,412892;0,451462;0,412892;0,344906;0,412892;0,412892;0,412892;0,362398;0,211648;0,412892;0,397763;0,000000;0,000000;0,205761;0,496225;0,286945;0,344479;0,148128;0,412892;0,412892;0,412892;0,332324;0,496225;0,214795;0,000000;0,000000;0,000000;0,000000;0,000000;0,412892;0,000000;0,000000;0,000000;0,412892;0,000000;0,000000;0,496225;0,496225;0,496225;0,214795;0,192413;0,214795;0,142368;0,412892;0,298128;0,548128;0,298128;0,148128;0,660876;0,173128;0,444067;0,496225;0,000000;0,496225;0,496225;0,412892;0,150865;0,148128;0,148128;0,148128;0,148128;0,411832;0,412892;0,496225;0,000000;0,567532;0,298128;0,214795;0,214795;0,214795;
16;;;;;;;;;;;;;;;;1,000000;0,562715;0,533648;0,557019;0,169139;0,177171;0,595160;0,617819;0,248538;0,511295;0,497993;0,510547;0,510547;0,513702;0,495502;0,513702;0,563430;0,541722;0,522183;0,522183;0,465964;0,300781;0,546598;0,520490;0,130294;0,150198;0,389240;0,466681;0,516385;0,514921;0,555142;0,548660;0,546709;0,533432;0,445989;0,465996;0,480160;0,000000;0,000000;0,000000;0,000000;0,000000;0,508181;0,000000;0,292946;0,000000;0,542773;0,000000;0,000000;0,498118;0,498118;0,475474;0,480160;0,524887;0,475474;0,422907;0,550274;0,632467;0,623538;0,373538;0,644354;0,418568;0,543425;0,534409;0,471236;0,262177;0,475474;0,471236;0,542201;0,372819;0,571300;0,446442;0,446442;0,446442;0,482206;0,526887;0,480160;0,000000;0,510697;0,373538;0,290205;0,290205;0,290205;
17;;;;;;;;;;;;;;;;;1,000000;0,761907;0,725334;0,000000;0,000000;0,445118;0,407123;0,225000;0,694745;0,374023;0,152246;0,152246;0,450000;0,488570;0,450000;0,382014;0,450000;0,450000;0,450000;0,229175;0,199785;0,450000;0,434871;0,000000;0,000000;0,257632;0,533333;0,324054;0,293961;0,200000;0,450000;0,450000;0,450000;0,369433;0,533333;0,266667;0,000000;0,000000;0,000000;0,000000;0,000000;0,450000;0,000000;0,000000;0,000000;0,450000;0,000000;0,000000;0,533333;0,533333;0,533333;0,266667;0,244285;0,266667;0,194239;0,450000;0,350000;0,600000;0,350000;0,200000;0,675000;0,225000;0,481175;0,533333;0,000000;0,533333;0,533333;0,450000;0,000000;0,200000;0,200000;0,200000;0,200000;0,448940;0,450000;0,533333;0,000000;0,000000;0,350000;0,266667;0,266667;0,266667;
18;;;;;;;;;;;;;;;;;;1,000000;0,687481;0,000000;0,000000;0,526293;0,488298;0,265587;0,591263;0,455197;0,192833;0,192833;0,531175;0,569745;0,531175;0,463189;0,531175;0,531175;0,531175;0,269762;0,240372;0,531175;0,663723;0,000000;0,000000;0,298220;0,614508;0,405228;0,375135;0,240587;0,531175;0,531175;0,531175;0,450607;0,614508;0,307254;0,000000;0,000000;0,000000;0,000000;0,000000;0,531175;0,000000;0,000000;0,000000;0,763549;0,000000;0,000000;0,614508;0,614508;0,614508;0,307254;0,284872;0,307254;0,234827;0,531175;0,390587;0,640587;0,390587;0,240587;0,602530;0,265587;0,562349;0,614508;0,000000;0,614508;0,614508;0,531175;0,000000;0,240587;0,240587;0,240587;0,240587;0,530114;0,531175;0,614508;0,000000;0,000000;0,390587;0,307254;0,307254;0,307254;
19;;;;;;;;;;;;;;;;;;;1,000000;0,000000;0,000000;0,484137;0,460703;0,173128;0,611914;0,336915;0,212000;0,212000;0,412892;0,451462;0,412892;0,344906;0,412892;0,412892;0,412892;0,362398;0,211648;0,412892;0,397763;0,000000;0,000000;0,205761;0,496225;0,286945;0,344479;0,148128;0,412892;0,412892;0,412892;0,332324;0,496225;0,214795;0,000000;0,000000;0,000000;0,000000;0,000000;0,412892;0,000000;0,000000;0,000000;0,412892;0,000000;0,000000;0,496225;0,496225;0,496225;0,214795;0,192413;0,214795;0,142368;0,412892;0,298128;0,548128;0,298128;0,148128;0,660876;0,173128;0,444067;0,496225;0,000000;0,496225;0,496225;0,412892;0,150865;0,148128;0,148128;0,148128;0,148128;0,411832;0,412892;0,496225;0,000000;0,567532;0,298128;0,214795;0,214795;0,214795;
20;;;;;;;;;;;;;;;;;;;;1,000000;0,449563;0,000000;0,053824;0,222683;0,000000;0,228970;0,120609;0,120609;0,000000;0,000000;0,000000;0,260861;0,075572;0,000000;0,000000;0,000000;0,000000;0,143178;0,147560;0,496620;0,627586;0,311818;0,000000;0,184509;0,276983;0,197683;0,000000;0,143178;0,288597;0,320267;0,193590;0,190720;0,197683;0,197683;0,197683;0,197683;0,197683;0,000000;0,534246;0,497378;0,594269;0,000000;0,451374;0,451374;0,000000;0,000000;0,000000;0,000000;0,000000;0,000000;0,000000;0,000000;0,000000;0,000000;0,347683;0,118178;0,000000;0,000000;0,149140;0,000000;0,000000;0,000000;0,000000;0,143178;0,101626;0,118178;0,000000;0,000000;0,000000;0,000000;0,164156;0,000000;0,000000;0,000000;0,274054;0,000000;0,000000;0,000000;
21;;;;;;;;;;;;;;;;;;;;;1,000000;0,000000;0,000000;0,291667;0,000000;0,195008;0,000000;0,000000;0,000000;0,000000;0,000000;0,382074;0,000000;0,000000;0,000000;0,000000;0,000000;0,000000;0,000000;0,291667;0,557514;0,216617;0,000000;0,202570;0,200624;0,266667;0,000000;0,000000;0,291667;0,214623;0,000000;0,000000;0,266667;0,266667;0,266667;0,266667;0,266667;0,000000;0,636067;0,291667;0,583333;0,000000;0,666667;0,666667;0,000000;0,000000;0,000000;0,000000;0,000000;0,000000;0,000000;0,000000;0,000000;0,000000;0,416667;0,000000;0,000000;0,000000;0,000000;0,000000;0,000000;0,000000;0,000000;0,000000;0,000000;0,000000;0,000000;0,000000;0,000000;0,290872;0,000000;0,000000;0,666667;0,000000;0,000000;0,000000;0,000000;0,000000;
22;;;;;;;;;;;;;;;;;;;;;;1,000000;0,762301;0,227767;0,555206;0,419141;0,214030;0,214030;0,495118;0,533689;0,495118;0,515874;0,648881;0,495118;0,495118;0,619058;0,384318;0,668263;0,544312;0,000000;0,000000;0,260399;0,578452;0,435417;0,375958;0,202767;0,635630;0,495118;0,495118;0,414551;0,578452;0,269434;0,000000;0,000000;0,000000;0,000000;0,000000;0,495118;0,000000;0,000000;0,000000;0,495118;0,000000;0,000000;0,578452;0,578452;0,578452;0,269434;0,365510;0,269434;0,357072;0,647586;0,618814;0,602767;0,352767;0,304633;0,402335;0,401480;0,526293;0,578452;0,288598;0,578452;0,578452;0,495118;0,100843;0,202767;0,202767;0,202767;0,202767;0,494058;0,495118;0,578452;0,000000;0,517510;0,352767;0,269434;0,269434;0,269434;
23;;;;;;;;;;;;;;;;;;;;;;;1,000000;0,209421;0,517211;0,494801;0,338774;0,338774;0,457123;0,495693;0,457123;0,493067;0,670084;0,457123;0,457123;0,642042;0,562355;0,645455;0,521505;0,160531;0,070852;0,310802;0,540456;0,412609;0,423558;0,184421;0,823618;0,457123;0,457123;0,376556;0,540456;0,251087;0,000000;0,000000;0,000000;0,000000;0,000000;0,457123;0,000000;0,000000;0,000000;0,457123;0,000000;0,000000;0,794780;0,794780;0,540456;0,251087;0,360977;0,251087;0,178660;0,824016;0,617198;0,584421;0,334421;0,300099;0,397154;0,396946;0,488298;0,540456;0,000000;0,540456;0,540456;0,457123;0,230416;0,184421;0,184421;0,184421;0,184421;0,456063;0,457123;0,540456;0,000000;0,533092;0,334421;0,251087;0,251087;0,251087;
24;;;;;;;;;;;;;;;;;;;;;;;;1,000000;0,280044;0,419758;0,177246;0,177246;0,250000;0,269285;0,250000;0,226672;0,281250;0,250000;0,250000;0,000000;0,000000;0,250000;0,269285;0,000000;0,215017;0,282632;0,291667;0,389263;0,344544;0,450000;0,250000;0,250000;0,250000;0,208075;0,291667;0,291667;0,225000;0,225000;0,225000;0,225000;0,225000;0,250000;0,276367;0,000000;0,250000;0,250000;0,291667;0,291667;0,291667;0,291667;0,291667;0,291667;0,269285;0,291667;0,219239;0,250000;0,375000;0,625000;0,750000;0,225000;0,000000;0,250000;0,265587;0,291667;0,000000;0,291667;0,291667;0,250000;0,000000;0,225000;0,225000;0,225000;0,225000;0,299232;0,250000;0,291667;0,000000;0,000000;0,375000;0,291667;0,291667;0,291667;
25;;;;;;;;;;;;;;;;;;;;;;;;;1,000000;0,484111;0,207290;0,207290;0,560088;0,598658;0,560088;0,583876;0,560088;0,560088;0,560088;0,284219;0,254829;0,560088;0,599314;0,000000;0,000000;0,443629;0,643421;0,434142;0,404049;0,255044;0,560088;0,761848;0,560088;0,479521;0,643421;0,567132;0,000000;0,000000;0,000000;0,000000;0,000000;0,560088;0,000000;0,000000;0,000000;0,761848;0,000000;0,000000;0,643421;0,643421;0,643421;0,567132;0,522369;0,321711;0,249283;0,560088;0,405044;0,655044;0,405044;0,255044;0,280044;0,483799;0,591263;0,643421;0,000000;0,643421;0,643421;0,560088;0,000000;0,255044;0,255044;0,255044;0,255044;0,714353;0,761848;0,886848;0,000000;0,000000;0,405044;0,321711;0,321711;0,321711;
26;;;;;;;;;;;;;;;;;;;;;;;;;;1,000000;0,584895;0,584895;0,424023;0,462593;0,424023;0,514693;0,555170;0,577834;0,577834;0,159135;0,129746;0,424023;0,408894;0,215737;0,234055;0,418600;0,507356;0,601509;0,818928;0,668112;0,424023;0,424023;0,424023;0,343455;0,507356;0,306413;0,128342;0,128342;0,128342;0,128342;0,128342;0,613893;0,179708;0,000000;0,153342;0,424023;0,195008;0,195008;0,507356;0,507356;0,702834;0,306413;0,284031;0,503380;0,366956;0,424023;0,389746;0,639746;0,669758;0,535859;0,154961;0,264746;0,455197;0,507356;0,000000;0,702834;0,507356;0,577834;0,542301;0,535859;0,535859;0,535859;0,535859;0,422963;0,424023;0,507356;0,000000;0,000000;0,389746;0,306413;0,306413;0,306413;
27;;;;;;;;;;;;;;;;;;;;;;;;;;;1,000000;0,803198;0,177246;0,196531;0,177246;0,306117;0,349113;0,348835;0,348835;0,118347;0,000000;0,177246;0,196531;0,227316;0,137637;0,338108;0,218913;0,440550;0,682301;0,497238;0,177246;0,177246;0,177246;0,216778;0,218913;0,218913;0,000000;0,000000;0,000000;0,000000;0,000000;0,363121;0,000000;0,000000;0,000000;0,177246;0,000000;0,000000;0,218913;0,218913;0,432168;0,218913;0,196531;0,432168;0,295744;0,177246;0,302246;0,552246;0,302246;0,298835;0,177179;0,177246;0,274112;0,218913;0,000000;0,432168;0,218913;0,348835;0,752986;0,298835;0,298835;0,298835;0,298835;0,226478;0,177246;0,218913;0,000000;0,552179;0,302246;0,218913;0,218913;0,218913;
28;;;;;;;;;;;;;;;;;;;;;;;;;;;;1,000000;0,177246;0,196531;0,177246;0,306117;0,349113;0,348835;0,348835;0,118347;0,000000;0,177246;0,196531;0,227316;0,137637;0,338108;0,218913;0,440550;0,682301;0,497238;0,177246;0,177246;0,177246;0,216778;0,218913;0,218913;0,000000;0,000000;0,000000;0,000000;0,000000;0,363121;0,000000;0,000000;0,000000;0,177246;0,000000;0,000000;0,218913;0,218913;0,432168;0,218913;0,196531;0,432168;0,295744;0,177246;0,302246;0,552246;0,302246;0,298835;0,177179;0,177246;0,274112;0,218913;0,000000;0,432168;0,218913;0,348835;0,752986;0,298835;0,298835;0,298835;0,298835;0,226478;0,177246;0,218913;0,000000;0,552179;0,302246;0,218913;0,218913;0,218913;
29;;;;;;;;;;;;;;;;;;;;;;;;;;;;;1,000000;0,731653;0,750000;0,432014;0,500000;0,500000;0,500000;0,254175;0,224785;0,500000;0,484871;0,000000;0,000000;0,282632;0,875000;0,374054;0,343961;0,225000;0,500000;0,500000;0,500000;0,419433;0,583333;0,291667;0,000000;0,000000;0,000000;0,000000;0,000000;0,500000;0,000000;0,000000;0,000000;0,500000;0,000000;0,000000;0,583333;0,583333;0,583333;0,291667;0,269285;0,291667;0,219239;0,500000;0,375000;0,625000;0,375000;0,225000;0,250000;0,250000;0,531175;0,583333;0,000000;0,583333;0,583333;0,500000;0,000000;0,225000;0,225000;0,225000;0,225000;0,498940;0,500000;0,583333;0,000000;0,000000;0,375000;0,291667;0,291667;0,291667;
30;;;;;;;;;;;;;;;;;;;;;;;;;;;;;;1,000000;0,731653;0,470584;0,538570;0,538570;0,538570;0,273460;0,244070;0,538570;0,523442;0,000000;0,000000;0,301917;0,621904;0,412624;0,382531;0,244285;0,538570;0,538570;0,538570;0,458003;0,621904;0,310952;0,000000;0,000000;0,000000;0,000000;0,000000;0,538570;0,000000;0,000000;0,000000;0,538570;0,000000;0,000000;0,621904;0,621904;0,621904;0,310952;0,288570;0,310952;0,238525;0,538570;0,394285;0,644285;0,394285;0,244285;0,269285;0,269285;0,569745;0,621904;0,000000;0,621904;0,621904;0,538570;0,000000;0,244285;0,244285;0,244285;0,244285;0,537510;0,538570;0,621904;0,000000;0,000000;0,394285;0,310952;0,310952;0,310952;
31;;;;;;;;;;;;;;;;;;;;;;;;;;;;;;;1,000000;0,432014;0,500000;0,500000;0,500000;0,254175;0,224785;0,500000;0,484871;0,000000;0,000000;0,282632;0,875000;0,374054;0,343961;0,225000;0,500000;0,500000;0,500000;0,419433;0,583333;0,291667;0,000000;0,000000;0,000000;0,000000;0,000000;0,500000;0,000000;0,000000;0,000000;0,500000;0,000000;0,000000;0,583333;0,583333;0,583333;0,291667;0,269285;0,291667;0,219239;0,500000;0,375000;0,625000;0,375000;0,225000;0,250000;0,250000;0,531175;0,583333;0,000000;0,583333;0,583333;0,500000;0,000000;0,225000;0,225000;0,225000;0,225000;0,498940;0,500000;0,583333;0,000000;0,000000;0,375000;0,291667;0,291667;0,291667;
32;;;;;;;;;;;;;;;;;;;;;;;;;;;;;;;;1,000000;0,432014;0,593779;0,593779;0,208797;0,179407;0,597612;0,506344;0,283921;0,277982;0,446865;0,515347;0,608396;0,509291;0,532180;0,432014;0,572028;0,586711;0,632978;0,697328;0,450186;0,000000;0,000000;0,000000;0,000000;0,000000;0,579546;0,336654;0,444980;0,283921;0,572028;0,181815;0,181815;0,515347;0,515347;0,718779;0,450186;0,514346;0,474579;0,338155;0,432014;0,351672;0,601672;0,351672;0,624484;0,204622;0,532884;0,571678;0,695132;0,000000;0,718779;0,695132;0,593779;0,223862;0,599557;0,469112;0,469112;0,469112;0,634822;0,572028;0,697028;0,515149;0,000000;0,351672;0,268339;0,268339;0,268339;
33;;;;;;;;;;;;;;;;;;;;;;;;;;;;;;;;;1,000000;0,500000;0,500000;0,508768;0,355112;0,500000;0,484871;0,182280;0,092600;0,399628;0,583333;0,374054;0,419341;0,256250;0,674647;0,500000;0,500000;0,419433;0,583333;0,322917;0,000000;0,000000;0,000000;0,000000;0,000000;0,500000;0,000000;0,000000;0,000000;0,500000;0,000000;0,000000;0,799647;0,799647;0,583333;0,322917;0,300535;0,322917;0,250489;0,674647;0,406250;0,656250;0,406250;0,256250;0,219520;0,281250;0,531175;0,583333;0,000000;0,583333;0,583333;0,500000;0,140613;0,256250;0,256250;0,256250;0,256250;0,498940;0,500000;0,583333;0,000000;0,000000;0,406250;0,322917;0,322917;0,322917;
34;;;;;;;;;;;;;;;;;;;;;;;;;;;;;;;;;;1,000000;0,750000;0,254175;0,224785;0,500000;0,484871;0,000000;0,000000;0,282632;0,583333;0,582344;0,526819;0,450000;0,500000;0,500000;0,500000;0,419433;0,583333;0,291667;0,000000;0,000000;0,000000;0,000000;0,000000;0,500000;0,000000;0,000000;0,000000;0,500000;0,000000;0,000000;0,583333;0,583333;0,875000;0,291667;0,269285;0,583333;0,446909;0,500000;0,375000;0,625000;0,375000;0,450000;0,250000;0,250000;0,531175;0,583333;0,000000;0,875000;0,583333;0,750000;0,208333;0,450000;0,450000;0,450000;0,450000;0,498940;0,500000;0,583333;0,000000;0,000000;0,375000;0,291667;0,291667;0,291667;
35;;;;;;;;;;;;;;;;;;;;;;;;;;;;;;;;;;;1,000000;0,254175;0,224785;0,500000;0,484871;0,000000;0,000000;0,282632;0,583333;0,582344;0,526819;0,450000;0,500000;0,500000;0,500000;0,419433;0,583333;0,291667;0,000000;0,000000;0,000000;0,000000;0,000000;0,500000;0,000000;0,000000;0,000000;0,500000;0,000000;0,000000;0,583333;0,583333;0,875000;0,291667;0,269285;0,583333;0,446909;0,500000;0,375000;0,625000;0,375000;0,450000;0,250000;0,250000;0,531175;0,583333;0,000000;0,875000;0,583333;0,750000;0,208333;0,450000;0,450000;0,450000;0,450000;0,498940;0,500000;0,583333;0,000000;0,000000;0,375000;0,291667;0,291667;0,291667;
36;;;;;;;;;;;;;;;;;;;;;;;;;;;;;;;;;;;;1,000000;0,466950;0,254175;0,219671;0,000000;0,000000;0,000000;0,295841;0,148178;0,250662;0,000000;0,508349;0,254175;0,254175;0,216223;0,295841;0,000000;0,000000;0,000000;0,000000;0,000000;0,000000;0,254175;0,000000;0,000000;0,000000;0,254175;0,000000;0,000000;0,591682;0,591682;0,295841;0,000000;0,000000;0,000000;0,289459;0,688818;0,000000;0,000000;0,000000;0,000000;0,436447;0,000000;0,269762;0,295841;0,362389;0,295841;0,295841;0,254175;0,149501;0,000000;0,000000;0,000000;0,000000;0,207217;0,254175;0,295841;0,000000;0,566168;0,000000;0,000000;0,000000;0,000000;
37;;;;;;;;;;;;;;;;;;;;;;;;;;;;;;;;;;;;;1,000000;0,224785;0,190282;0,000000;0,000000;0,000000;0,266452;0,118789;0,131389;0,000000;0,458601;0,224785;0,224785;0,186833;0,266452;0,000000;0,000000;0,000000;0,000000;0,000000;0,000000;0,224785;0,000000;0,000000;0,000000;0,224785;0,000000;0,000000;0,541934;0,541934;0,266452;0,000000;0,000000;0,339544;0,411714;0,458601;0,000000;0,000000;0,000000;0,000000;0,224785;0,000000;0,240372;0,266452;0,422877;0,266452;0,266452;0,224785;0,000000;0,000000;0,000000;0,000000;0,000000;0,177827;0,224785;0,266452;0,000000;0,000000;0,000000;0,000000;0,000000;0,000000;
38;;;;;;;;;;;;;;;;;;;;;;;;;;;;;;;;;;;;;;1,000000;0,768942;0,000000;0,159897;0,282632;0,583333;0,679263;0,504887;0,225000;0,500000;0,750000;0,750000;0,607003;0,583333;0,291667;0,000000;0,000000;0,000000;0,000000;0,000000;0,500000;0,000000;0,250000;0,000000;0,500000;0,000000;0,000000;0,583333;0,583333;0,583333;0,291667;0,464030;0,291667;0,219239;0,500000;0,375000;0,625000;0,375000;0,626813;0,250000;0,500000;0,694721;0,583333;0,000000;0,583333;0,583333;0,750000;0,000000;0,450000;0,225000;0,225000;0,225000;0,498940;0,500000;0,583333;0,000000;0,000000;0,375000;0,291667;0,291667;0,291667;
39;;;;;;;;;;;;;;;;;;;;;;;;;;;;;;;;;;;;;;;1,000000;0,160118;0,124314;0,377550;0,568205;0,448206;0,383123;0,244285;0,484871;0,628236;0,628236;0,485239;0,568205;0,499816;0,000000;0,000000;0,000000;0,000000;0,000000;0,484871;0,000000;0,148333;0,000000;0,650174;0,000000;0,000000;0,568205;0,568205;0,568205;0,517840;0,561724;0,310952;0,238525;0,484871;0,394285;0,644285;0,394285;0,432152;0,215497;0,580109;0,572957;0,568205;0,000000;0,568205;0,568205;0,628236;0,000000;0,362606;0,244285;0,244285;0,244285;0,581591;0,628491;0,568205;0,000000;0,000000;0,666482;0,310952;0,310952;0,310952;
40;;;;;;;;;;;;;;;;;;;;;;;;;;;;;;;;;;;;;;;;1,000000;0,574454;0,538135;0,000000;0,000000;0,161239;0,000000;0,000000;0,000000;0,000000;0,353680;0,000000;0,291667;0,000000;0,000000;0,000000;0,000000;0,000000;0,000000;0,552733;0,500000;0,500000;0,000000;0,291667;0,291667;0,000000;0,000000;0,000000;0,000000;0,000000;0,000000;0,000000;0,000000;0,000000;0,000000;0,000000;0,000000;0,000000;0,000000;0,000000;0,000000;0,000000;0,000000;0,000000;0,000000;0,208333;0,000000;0,000000;0,000000;0,000000;0,249205;0,000000;0,000000;0,625000;0,000000;0,375000;0,000000;0,000000;0,000000;
41;;;;;;;;;;;;;;;;;;;;;;;;;;;;;;;;;;;;;;;;;1,000000;0,368706;0,000000;0,188938;0,305696;0,190017;0,000000;0,159897;0,159897;0,381262;0,214733;0,210888;0,190017;0,190017;0,190017;0,190017;0,190017;0,000000;0,602338;0,574956;0,691257;0,000000;0,557514;0,557514;0,000000;0,000000;0,000000;0,000000;0,000000;0,000000;0,000000;0,000000;0,000000;0,000000;0,340017;0,134897;0,000000;0,000000;0,185476;0,000000;0,000000;0,000000;0,000000;0,159897;0,118654;0,134897;0,000000;0,000000;0,000000;0,264408;0,000000;0,000000;0,640202;0,000000;0,294222;0,000000;0,000000;0,000000;
42;;;;;;;;;;;;;;;;;;;;;;;;;;;;;;;;;;;;;;;;;;1,000000;0,324299;0,261457;0,286432;0,257632;0,282632;0,459830;0,282632;0,436279;0,324299;0,543163;0,000000;0,000000;0,000000;0,000000;0,000000;0,282632;0,410498;0,357765;0,357765;0,459830;0,216617;0,216617;0,324299;0,324299;0,324299;0,543163;0,498400;0,324299;0,251872;0,282632;0,407632;0,657632;0,407632;0,257632;0,000000;0,459830;0,298220;0,324299;0,000000;0,324299;0,324299;0,282632;0,138814;0,257632;0,257632;0,257632;0,257632;0,600513;0,459830;0,543163;0,549951;0,000000;0,407632;0,324299;0,324299;0,324299;
43;;;;;;;;;;;;;;;;;;;;;;;;;;;;;;;;;;;;;;;;;;;1,000000;0,457387;0,427294;0,266667;0,583333;0,583333;0,583333;0,502766;0,666667;0,333333;0,000000;0,000000;0,000000;0,000000;0,000000;0,583333;0,000000;0,000000;0,000000;0,583333;0,000000;0,000000;0,666667;0,666667;0,666667;0,333333;0,310952;0,333333;0,260906;0,583333;0,416667;0,666667;0,416667;0,266667;0,291667;0,291667;0,614508;0,666667;0,000000;0,666667;0,666667;0,583333;0,000000;0,266667;0,266667;0,266667;0,266667;0,582273;0,583333;0,666667;0,000000;0,000000;0,416667;0,333333;0,333333;0,333333;
44;;;;;;;;;;;;;;;;;;;;;;;;;;;;;;;;;;;;;;;;;;;;1,000000;0,558449;0,679019;0,374054;0,534421;0,534421;0,443774;0,457387;0,270491;0,135903;0,135903;0,135903;0,135903;0,135903;0,539720;0,187270;0,167085;0,160903;0,374054;0,202570;0,202570;0,457387;0,457387;0,707344;0,270491;0,336562;0,522832;0,386407;0,374054;0,353825;0,603825;0,639263;0,664793;0,144004;0,372531;0,537686;0,457387;0,000000;0,707344;0,457387;0,742886;0,273907;0,665156;0,629246;0,629246;0,629246;0,372993;0,374054;0,457387;0,000000;0,000000;0,353825;0,270491;0,270491;0,270491;
45;;;;;;;;;;;;;;;;;;;;;;;;;;;;;;;;;;;;;;;;;;;;;1,000000;0,590085;0,343961;0,504887;0,504887;0,436086;0,630703;0,228062;0,133957;0,133957;0,133957;0,133957;0,133957;0,502255;0,185324;0,337583;0,158957;0,343961;0,200624;0,200624;0,427294;0,427294;0,651819;0,228062;0,205680;0,456870;0,320446;0,343961;0,311395;0,561395;0,594544;0,585017;0,314215;0,186395;0,529998;0,630703;0,000000;0,651819;0,630703;0,682957;0,630713;0,585017;0,457644;0,457644;0,457644;0,342901;0,343961;0,427294;0,000000;0,538112;0,311395;0,228062;0,228062;0,228062;
46;;;;;;;;;;;;;;;;;;;;;;;;;;;;;;;;;;;;;;;;;;;;;;1,000000;0,225000;0,225000;0,225000;0,277133;0,266667;0,266667;0,200000;0,200000;0,200000;0,200000;0,200000;0,627155;0,251367;0,000000;0,225000;0,225000;0,266667;0,266667;0,266667;0,266667;0,533333;0,266667;0,244285;0,533333;0,396909;0,225000;0,350000;0,600000;0,700000;0,600000;0,000000;0,225000;0,334466;0,266667;0,000000;0,533333;0,266667;0,450000;0,320726;0,600000;0,600000;0,600000;0,600000;0,274232;0,225000;0,266667;0,000000;0,000000;0,350000;0,266667;0,266667;0,266667;
47;;;;;;;;;;;;;;;;;;;;;;;;;;;;;;;;;;;;;;;;;;;;;;;1,000000;0,500000;0,500000;0,419433;0,583333;0,291667;0,000000;0,000000;0,000000;0,000000;0,000000;0,500000;0,000000;0,000000;0,000000;0,500000;0,000000;0,000000;0,875000;0,875000;0,583333;0,291667;0,269285;0,291667;0,219239;0,750000;0,750000;0,625000;0,375000;0,225000;0,250000;0,250000;0,531175;0,583333;0,000000;0,583333;0,583333;0,500000;0,000000;0,225000;0,225000;0,225000;0,225000;0,498940;0,500000;0,583333;0,000000;0,000000;0,375000;0,291667;0,291667;0,291667;
48;;;;;;;;;;;;;;;;;;;;;;;;;;;;;;;;;;;;;;;;;;;;;;;;1,000000;0,750000;0,607003;0,583333;0,583333;0,000000;0,000000;0,000000;0,000000;0,000000;0,500000;0,000000;0,250000;0,000000;0,750000;0,000000;0,000000;0,583333;0,583333;0,583333;0,583333;0,538570;0,291667;0,219239;0,500000;0,375000;0,625000;0,375000;0,450000;0,250000;0,500000;0,694721;0,583333;0,000000;0,583333;0,583333;0,750000;0,000000;0,450000;0,225000;0,225000;0,225000;0,702505;0,750000;0,875000;0,000000;0,000000;0,375000;0,291667;0,291667;0,291667;
49;;;;;;;;;;;;;;;;;;;;;;;;;;;;;;;;;;;;;;;;;;;;;;;;;1,000000;0,607003;0,583333;0,291667;0,000000;0,000000;0,000000;0,000000;0,000000;0,500000;0,000000;0,250000;0,000000;0,500000;0,000000;0,000000;0,583333;0,583333;0,583333;0,291667;0,269285;0,291667;0,219239;0,500000;0,375000;0,625000;0,375000;0,450000;0,250000;0,250000;0,694721;0,583333;0,000000;0,583333;0,583333;0,750000;0,000000;0,450000;0,225000;0,225000;0,225000;0,498940;0,500000;0,583333;0,000000;0,000000;0,375000;0,291667;0,291667;0,291667;
50;;;;;;;;;;;;;;;;;;;;;;;;;;;;;;;;;;;;;;;;;;;;;;;;;;1,000000;0,502766;0,249742;0,000000;0,000000;0,000000;0,000000;0,000000;0,419433;0,406413;0,551690;0,353680;0,419433;0,214623;0,214623;0,502766;0,502766;0,502766;0,249742;0,227361;0,249742;0,177315;0,419433;0,333075;0,583075;0,333075;0,359379;0,212048;0,208075;0,629251;0,709316;0,000000;0,502766;0,709316;0,607003;0,141978;0,359379;0,183075;0,183075;0,183075;0,562375;0,419433;0,502766;0,547957;0,000000;0,333075;0,249742;0,249742;0,249742;
51;;;;;;;;;;;;;;;;;;;;;;;;;;;;;;;;;;;;;;;;;;;;;;;;;;;1,000000;0,333333;0,000000;0,000000;0,000000;0,000000;0,000000;0,583333;0,000000;0,291667;0,000000;0,583333;0,000000;0,000000;0,666667;0,666667;0,666667;0,333333;0,310952;0,333333;0,260906;0,583333;0,416667;0,666667;0,416667;0,266667;0,291667;0,291667;0,819606;0,666667;0,000000;0,666667;0,666667;0,583333;0,000000;0,266667;0,266667;0,266667;0,266667;0,582273;0,583333;0,666667;0,000000;0,000000;0,416667;0,333333;0,333333;0,333333;
52;;;;;;;;;;;;;;;;;;;;;;;;;;;;;;;;;;;;;;;;;;;;;;;;;;;;1,000000;0,000000;0,000000;0,000000;0,000000;0,000000;0,291667;0,000000;0,000000;0,000000;0,583333;0,000000;0,000000;0,333333;0,333333;0,333333;0,666667;0,621904;0,333333;0,260906;0,291667;0,416667;0,666667;0,416667;0,266667;0,000000;0,583333;0,307254;0,333333;0,000000;0,333333;0,333333;0,291667;0,000000;0,266667;0,266667;0,266667;0,266667;0,582318;0,583333;0,666667;0,000000;0,000000;0,833333;0,333333;0,333333;0,333333;
53;;;;;;;;;;;;;;;;;;;;;;;;;;;;;;;;;;;;;;;;;;;;;;;;;;;;;1,000000;0,800000;0,800000;0,800000;0,800000;0,000000;0,251367;0,000000;0,225000;0,000000;0,266667;0,266667;0,000000;0,000000;0,000000;0,000000;0,000000;0,000000;0,000000;0,000000;0,000000;0,000000;0,350000;0,000000;0,000000;0,000000;0,000000;0,000000;0,000000;0,000000;0,000000;0,000000;0,000000;0,000000;0,000000;0,000000;0,000000;0,000000;0,000000;0,000000;0,000000;0,000000;0,000000;0,000000;0,000000;0,000000;
54;;;;;;;;;;;;;;;;;;;;;;;;;;;;;;;;;;;;;;;;;;;;;;;;;;;;;;1,000000;0,800000;0,800000;0,800000;0,000000;0,251367;0,000000;0,225000;0,000000;0,266667;0,266667;0,000000;0,000000;0,000000;0,000000;0,000000;0,000000;0,000000;0,000000;0,000000;0,000000;0,350000;0,000000;0,000000;0,000000;0,000000;0,000000;0,000000;0,000000;0,000000;0,000000;0,000000;0,000000;0,000000;0,000000;0,000000;0,000000;0,000000;0,000000;0,000000;0,000000;0,000000;0,000000;0,000000;0,000000;
55;;;;;;;;;;;;;;;;;;;;;;;;;;;;;;;;;;;;;;;;;;;;;;;;;;;;;;;1,000000;0,800000;0,800000;0,000000;0,251367;0,000000;0,225000;0,000000;0,266667;0,266667;0,000000;0,000000;0,000000;0,000000;0,000000;0,000000;0,000000;0,000000;0,000000;0,000000;0,350000;0,000000;0,000000;0,000000;0,000000;0,000000;0,000000;0,000000;0,000000;0,000000;0,000000;0,000000;0,000000;0,000000;0,000000;0,000000;0,000000;0,000000;0,000000;0,000000;0,000000;0,000000;0,000000;0,000000;
56;;;;;;;;;;;;;;;;;;;;;;;;;;;;;;;;;;;;;;;;;;;;;;;;;;;;;;;;1,000000;0,800000;0,000000;0,251367;0,000000;0,225000;0,000000;0,266667;0,266667;0,000000;0,000000;0,000000;0,000000;0,000000;0,000000;0,000000;0,000000;0,000000;0,000000;0,350000;0,000000;0,000000;0,000000;0,000000;0,000000;0,000000;0,000000;0,000000;0,000000;0,000000;0,000000;0,000000;0,000000;0,000000;0,000000;0,000000;0,000000;0,000000;0,000000;0,000000;0,000000;0,000000;0,000000;
57;;;;;;;;;;;;;;;;;;;;;;;;;;;;;;;;;;;;;;;;;;;;;;;;;;;;;;;;;1,000000;0,000000;0,251367;0,000000;0,225000;0,000000;0,266667;0,266667;0,000000;0,000000;0,000000;0,000000;0,000000;0,000000;0,000000;0,000000;0,000000;0,000000;0,350000;0,000000;0,000000;0,000000;0,000000;0,000000;0,000000;0,000000;0,000000;0,000000;0,000000;0,000000;0,000000;0,000000;0,000000;0,000000;0,000000;0,000000;0,000000;0,000000;0,000000;0,000000;0,000000;0,000000;
58;;;;;;;;;;;;;;;;;;;;;;;;;;;;;;;;;;;;;;;;;;;;;;;;;;;;;;;;;;1,000000;0,000000;0,000000;0,000000;0,500000;0,000000;0,000000;0,583333;0,583333;0,583333;0,291667;0,269285;0,291667;0,219239;0,500000;0,375000;0,625000;0,375000;0,450000;0,250000;0,250000;0,531175;0,583333;0,000000;0,583333;0,583333;0,500000;0,000000;0,450000;0,450000;0,450000;0,450000;0,498940;0,500000;0,583333;0,000000;0,000000;0,375000;0,291667;0,291667;0,291667;
59;;;;;;;;;;;;;;;;;;;;;;;;;;;;;;;;;;;;;;;;;;;;;;;;;;;;;;;;;;;1,000000;0,552733;0,829100;0,000000;0,636067;0,636067;0,000000;0,000000;0,000000;0,000000;0,000000;0,000000;0,000000;0,000000;0,000000;0,000000;0,401367;0,000000;0,000000;0,000000;0,000000;0,000000;0,000000;0,000000;0,000000;0,000000;0,000000;0,000000;0,000000;0,000000;0,000000;0,275572;0,000000;0,000000;0,651367;0,000000;0,000000;0,000000;0,000000;0,000000;
60;;;;;;;;;;;;;;;;;;;;;;;;;;;;;;;;;;;;;;;;;;;;;;;;;;;;;;;;;;;;1,000000;0,500000;0,000000;0,291667;0,291667;0,000000;0,000000;0,000000;0,000000;0,000000;0,000000;0,000000;0,000000;0,000000;0,000000;0,000000;0,225000;0,000000;0,000000;0,357831;0,000000;0,000000;0,000000;0,000000;0,250000;0,000000;0,225000;0,000000;0,000000;0,000000;0,249205;0,000000;0,000000;0,625000;0,000000;0,000000;0,000000;0,000000;0,000000;
61;;;;;;;;;;;;;;;;;;;;;;;;;;;;;;;;;;;;;;;;;;;;;;;;;;;;;;;;;;;;;1,000000;0,000000;0,583333;0,583333;0,000000;0,000000;0,000000;0,000000;0,000000;0,000000;0,000000;0,000000;0,000000;0,000000;0,375000;0,000000;0,000000;0,000000;0,000000;0,000000;0,000000;0,000000;0,000000;0,000000;0,000000;0,000000;0,000000;0,000000;0,000000;0,249205;0,000000;0,000000;0,625000;0,000000;0,000000;0,000000;0,000000;0,000000;
62;;;;;;;;;;;;;;;;;;;;;;;;;;;;;;;;;;;;;;;;;;;;;;;;;;;;;;;;;;;;;;1,000000;0,000000;0,000000;0,583333;0,583333;0,583333;0,583333;0,538570;0,291667;0,219239;0,500000;0,375000;0,625000;0,375000;0,225000;0,250000;0,500000;0,531175;0,583333;0,000000;0,583333;0,583333;0,500000;0,000000;0,225000;0,225000;0,225000;0,225000;0,702505;0,750000;0,875000;0,000000;0,000000;0,375000;0,291667;0,291667;0,291667;
63;;;;;;;;;;;;;;;;;;;;;;;;;;;;;;;;;;;;;;;;;;;;;;;;;;;;;;;;;;;;;;;1,000000;0,666667;0,000000;0,000000;0,000000;0,000000;0,000000;0,000000;0,000000;0,000000;0,000000;0,000000;0,416667;0,000000;0,000000;0,000000;0,000000;0,000000;0,000000;0,000000;0,000000;0,000000;0,000000;0,000000;0,000000;0,000000;0,000000;0,290872;0,000000;0,000000;0,666667;0,000000;0,000000;0,000000;0,000000;0,000000;
64;;;;;;;;;;;;;;;;;;;;;;;;;;;;;;;;;;;;;;;;;;;;;;;;;;;;;;;;;;;;;;;;1,000000;0,000000;0,000000;0,000000;0,000000;0,000000;0,000000;0,000000;0,000000;0,000000;0,000000;0,416667;0,000000;0,000000;0,000000;0,000000;0,000000;0,000000;0,000000;0,000000;0,000000;0,000000;0,000000;0,000000;0,000000;0,000000;0,290872;0,000000;0,000000;0,666667;0,000000;0,000000;0,000000;0,000000;0,000000;
65;;;;;;;;;;;;;;;;;;;;;;;;;;;;;;;;;;;;;;;;;;;;;;;;;;;;;;;;;;;;;;;;;1,000000;1,000000;0,666667;0,333333;0,310952;0,333333;0,260906;0,875000;0,416667;0,666667;0,416667;0,266667;0,291667;0,291667;0,614508;0,666667;0,000000;0,666667;0,666667;0,583333;0,000000;0,266667;0,266667;0,266667;0,266667;0,582273;0,583333;0,666667;0,000000;0,000000;0,416667;0,333333;0,333333;0,333333;
66;;;;;;;;;;;;;;;;;;;;;;;;;;;;;;;;;;;;;;;;;;;;;;;;;;;;;;;;;;;;;;;;;;1,000000;0,666667;0,333333;0,310952;0,333333;0,260906;0,875000;0,416667;0,666667;0,416667;0,266667;0,291667;0,291667;0,614508;0,666667;0,000000;0,666667;0,666667;0,583333;0,000000;0,266667;0,266667;0,266667;0,266667;0,582273;0,583333;0,666667;0,000000;0,000000;0,416667;0,333333;0,333333;0,333333;
67;;;;;;;;;;;;;;;;;;;;;;;;;;;;;;;;;;;;;;;;;;;;;;;;;;;;;;;;;;;;;;;;;;;1,000000;0,333333;0,310952;0,666667;0,530242;0,583333;0,416667;0,666667;0,416667;0,533333;0,291667;0,291667;0,614508;0,666667;0,000000;1,000000;0,666667;0,875000;0,250000;0,533333;0,533333;0,533333;0,533333;0,582273;0,583333;0,666667;0,000000;0,000000;0,416667;0,333333;0,333333;0,333333;
68;;;;;;;;;;;;;;;;;;;;;;;;;;;;;;;;;;;;;;;;;;;;;;;;;;;;;;;;;;;;;;;;;;;;1,000000;0,621904;0,333333;0,260906;0,291667;0,416667;0,666667;0,416667;0,266667;0,000000;0,875000;0,307254;0,333333;0,000000;0,333333;0,333333;0,291667;0,000000;0,266667;0,266667;0,266667;0,266667;0,582318;0,583333;0,666667;0,000000;0,000000;0,416667;0,333333;0,333333;0,333333;
69;;;;;;;;;;;;;;;;;;;;;;;;;;;;;;;;;;;;;;;;;;;;;;;;;;;;;;;;;;;;;;;;;;;;;1,000000;0,310952;0,238525;0,269285;0,394285;0,644285;0,394285;0,367183;0,000000;0,731463;0,284872;0,310952;0,000000;0,310952;0,310952;0,269285;0,000000;0,244285;0,244285;0,244285;0,244285;0,537555;0,538570;0,621904;0,000000;0,000000;0,394285;0,310952;0,310952;0,310952;
70;;;;;;;;;;;;;;;;;;;;;;;;;;;;;;;;;;;;;;;;;;;;;;;;;;;;;;;;;;;;;;;;;;;;;;1,000000;0,530242;0,291667;0,416667;0,666667;0,416667;0,533333;0,000000;0,291667;0,307254;0,333333;0,416667;0,666667;0,333333;0,583333;0,250000;0,533333;0,533333;0,533333;0,533333;0,340899;0,291667;0,333333;0,000000;0,000000;0,416667;0,333333;0,333333;0,333333;
71;;;;;;;;;;;;;;;;;;;;;;;;;;;;;;;;;;;;;;;;;;;;;;;;;;;;;;;;;;;;;;;;;;;;;;;1,000000;0,219239;0,344239;0,594239;0,344239;0,396909;0,000000;0,219239;0,234827;0,260906;0,427070;0,530242;0,260906;0,446909;0,191270;0,396909;0,396909;0,396909;0,396909;0,268472;0,219239;0,260906;0,000000;0,000000;0,344239;0,260906;0,260906;0,260906;
72;;;;;;;;;;;;;;;;;;;;;;;;;;;;;;;;;;;;;;;;;;;;;;;;;;;;;;;;;;;;;;;;;;;;;;;;1,000000;0,375000;0,625000;0,375000;0,225000;0,250000;0,250000;0,531175;0,583333;0,000000;0,583333;0,583333;0,500000;0,000000;0,225000;0,225000;0,225000;0,225000;0,498940;0,500000;0,583333;0,000000;0,000000;0,375000;0,291667;0,291667;0,291667;
73;;;;;;;;;;;;;;;;;;;;;;;;;;;;;;;;;;;;;;;;;;;;;;;;;;;;;;;;;;;;;;;;;;;;;;;;;1,000000;0,750000;0,500000;0,350000;0,000000;0,375000;0,390587;0,416667;0,000000;0,416667;0,416667;0,375000;0,000000;0,350000;0,350000;0,350000;0,350000;0,424232;0,375000;0,416667;0,000000;0,000000;0,500000;0,416667;0,416667;0,416667;
74;;;;;;;;;;;;;;;;;;;;;;;;;;;;;;;;;;;;;;;;;;;;;;;;;;;;;;;;;;;;;;;;;;;;;;;;;;1,000000;0,750000;0,600000;0,000000;0,625000;0,640587;0,666667;0,000000;0,666667;0,666667;0,625000;0,000000;0,600000;0,600000;0,600000;0,600000;0,674232;0,625000;0,666667;0,000000;0,000000;0,750000;0,666667;0,666667;0,666667;
75;;;;;;;;;;;;;;;;;;;;;;;;;;;;;;;;;;;;;;;;;;;;;;;;;;;;;;;;;;;;;;;;;;;;;;;;;;;1,000000;0,350000;0,000000;0,375000;0,390587;0,416667;0,000000;0,416667;0,416667;0,375000;0,000000;0,350000;0,350000;0,350000;0,350000;0,424232;0,375000;0,416667;0,000000;0,000000;0,500000;0,416667;0,416667;0,416667;
76;;;;;;;;;;;;;;;;;;;;;;;;;;;;;;;;;;;;;;;;;;;;;;;;;;;;;;;;;;;;;;;;;;;;;;;;;;;;1,000000;0,000000;0,403153;0,380694;0,266667;0,000000;0,533333;0,266667;0,675000;0,183333;0,800000;0,600000;0,600000;0,600000;0,274232;0,225000;0,266667;0,000000;0,000000;0,350000;0,266667;0,266667;0,266667;
77;;;;;;;;;;;;;;;;;;;;;;;;;;;;;;;;;;;;;;;;;;;;;;;;;;;;;;;;;;;;;;;;;;;;;;;;;;;;;1,000000;0,000000;0,265587;0,291667;0,000000;0,291667;0,291667;0,250000;0,208333;0,000000;0,000000;0,000000;0,000000;0,203042;0,250000;0,291667;0,000000;0,625000;0,000000;0,000000;0,000000;0,000000;
78;;;;;;;;;;;;;;;;;;;;;;;;;;;;;;;;;;;;;;;;;;;;;;;;;;;;;;;;;;;;;;;;;;;;;;;;;;;;;;1,000000;0,265587;0,291667;0,000000;0,291667;0,291667;0,250000;0,000000;0,225000;0,225000;0,225000;0,225000;0,498985;0,500000;0,583333;0,000000;0,000000;0,375000;0,291667;0,291667;0,291667;
79;;;;;;;;;;;;;;;;;;;;;;;;;;;;;;;;;;;;;;;;;;;;;;;;;;;;;;;;;;;;;;;;;;;;;;;;;;;;;;;1,000000;0,614508;0,000000;0,614508;0,614508;0,694721;0,145202;0,380694;0,240587;0,240587;0,240587;0,530114;0,531175;0,614508;0,000000;0,000000;0,390587;0,307254;0,307254;0,307254;
80;;;;;;;;;;;;;;;;;;;;;;;;;;;;;;;;;;;;;;;;;;;;;;;;;;;;;;;;;;;;;;;;;;;;;;;;;;;;;;;;1,000000;0,000000;0,666667;1,000000;0,583333;0,000000;0,266667;0,266667;0,266667;0,266667;0,582273;0,583333;0,666667;0,000000;0,000000;0,416667;0,333333;0,333333;0,333333;
81;;;;;;;;;;;;;;;;;;;;;;;;;;;;;;;;;;;;;;;;;;;;;;;;;;;;;;;;;;;;;;;;;;;;;;;;;;;;;;;;;1,000000;0,000000;0,000000;0,000000;0,000000;0,000000;0,000000;0,000000;0,000000;0,000000;0,000000;0,000000;0,000000;0,000000;0,000000;0,000000;0,000000;0,000000;
82;;;;;;;;;;;;;;;;;;;;;;;;;;;;;;;;;;;;;;;;;;;;;;;;;;;;;;;;;;;;;;;;;;;;;;;;;;;;;;;;;;1,000000;0,666667;0,875000;0,250000;0,533333;0,533333;0,533333;0,533333;0,582273;0,583333;0,666667;0,000000;0,000000;0,416667;0,333333;0,333333;0,333333;
83;;;;;;;;;;;;;;;;;;;;;;;;;;;;;;;;;;;;;;;;;;;;;;;;;;;;;;;;;;;;;;;;;;;;;;;;;;;;;;;;;;;1,000000;0,583333;0,000000;0,266667;0,266667;0,266667;0,266667;0,582273;0,583333;0,666667;0,000000;0,000000;0,416667;0,333333;0,333333;0,333333;
84;;;;;;;;;;;;;;;;;;;;;;;;;;;;;;;;;;;;;;;;;;;;;;;;;;;;;;;;;;;;;;;;;;;;;;;;;;;;;;;;;;;;1,000000;0,208333;0,675000;0,450000;0,450000;0,450000;0,498940;0,500000;0,583333;0,000000;0,000000;0,375000;0,291667;0,291667;0,291667;
85;;;;;;;;;;;;;;;;;;;;;;;;;;;;;;;;;;;;;;;;;;;;;;;;;;;;;;;;;;;;;;;;;;;;;;;;;;;;;;;;;;;;;1,000000;0,183333;0,183333;0,183333;0,183333;0,000000;0,000000;0,000000;0,000000;0,583333;0,000000;0,000000;0,000000;0,000000;
86;;;;;;;;;;;;;;;;;;;;;;;;;;;;;;;;;;;;;;;;;;;;;;;;;;;;;;;;;;;;;;;;;;;;;;;;;;;;;;;;;;;;;;1,000000;0,600000;0,600000;0,600000;0,274232;0,225000;0,266667;0,000000;0,000000;0,350000;0,266667;0,266667;0,266667;
87;;;;;;;;;;;;;;;;;;;;;;;;;;;;;;;;;;;;;;;;;;;;;;;;;;;;;;;;;;;;;;;;;;;;;;;;;;;;;;;;;;;;;;;1,000000;0,800000;0,800000;0,274232;0,225000;0,266667;0,000000;0,000000;0,350000;0,266667;0,266667;0,266667;
88;;;;;;;;;;;;;;;;;;;;;;;;;;;;;;;;;;;;;;;;;;;;;;;;;;;;;;;;;;;;;;;;;;;;;;;;;;;;;;;;;;;;;;;;1,000000;0,800000;0,274232;0,225000;0,266667;0,000000;0,000000;0,350000;0,266667;0,266667;0,266667;
89;;;;;;;;;;;;;;;;;;;;;;;;;;;;;;;;;;;;;;;;;;;;;;;;;;;;;;;;;;;;;;;;;;;;;;;;;;;;;;;;;;;;;;;;;1,000000;0,274232;0,225000;0,266667;0,000000;0,000000;0,350000;0,266667;0,266667;0,266667;
90;;;;;;;;;;;;;;;;;;;;;;;;;;;;;;;;;;;;;;;;;;;;;;;;;;;;;;;;;;;;;;;;;;;;;;;;;;;;;;;;;;;;;;;;;;1,000000;0,702505;0,827505;0,624205;0,000000;0,424232;0,340899;0,340899;0,340899;
91;;;;;;;;;;;;;;;;;;;;;;;;;;;;;;;;;;;;;;;;;;;;;;;;;;;;;;;;;;;;;;;;;;;;;;;;;;;;;;;;;;;;;;;;;;;1,000000;0,875000;0,000000;0,000000;0,375000;0,291667;0,291667;0,291667;
92;;;;;;;;;;;;;;;;;;;;;;;;;;;;;;;;;;;;;;;;;;;;;;;;;;;;;;;;;;;;;;;;;;;;;;;;;;;;;;;;;;;;;;;;;;;;1,000000;0,000000;0,000000;0,416667;0,333333;0,333333;0,333333;
93;;;;;;;;;;;;;;;;;;;;;;;;;;;;;;;;;;;;;;;;;;;;;;;;;;;;;;;;;;;;;;;;;;;;;;;;;;;;;;;;;;;;;;;;;;;;;1,000000;0,000000;0,000000;0,000000;0,000000;0,000000;
94;;;;;;;;;;;;;;;;;;;;;;;;;;;;;;;;;;;;;;;;;;;;;;;;;;;;;;;;;;;;;;;;;;;;;;;;;;;;;;;;;;;;;;;;;;;;;;1,000000;0,000000;0,000000;0,000000;0,000000;
95;;;;;;;;;;;;;;;;;;;;;;;;;;;;;;;;;;;;;;;;;;;;;;;;;;;;;;;;;;;;;;;;;;;;;;;;;;;;;;;;;;;;;;;;;;;;;;;1,000000;0,416667;0,416667;0,416667;
96;;;;;;;;;;;;;;;;;;;;;;;;;;;;;;;;;;;;;;;;;;;;;;;;;;;;;;;;;;;;;;;;;;;;;;;;;;;;;;;;;;;;;;;;;;;;;;;;1,000000;0,666667;0,666667;
97;;;;;;;;;;;;;;;;;;;;;;;;;;;;;;;;;;;;;;;;;;;;;;;;;;;;;;;;;;;;;;;;;;;;;;;;;;;;;;;;;;;;;;;;;;;;;;;;;1,000000;0,666667;
98;;;;;;;;;;;;;;;;;;;;;;;;;;;;;;;;;;;;;;;;;;;;;;;;;;;;;;;;;;;;;;;;;;;;;;;;;;;;;;;;;;;;;;;;;;;;;;;;;;1,000000;
