;1; 2; 3; 4; 5; 6; 7; 8; 9; 10; 11; 12; 13; 14; 15; 16; 17; 18; 19; 20; 21; 22; 23; 24; 25; 26; 27; 28; 29; 30; 31; 32; 33; 34; 35; 36; 37; 38; 39; 40; 41; 42; 43; 44; 45; 46; 47; 48; 49; 50; 51; 52; 53; 54; 55; 56; 57; 58; 59; 60; 61; 62; 63; 64; 65; 66; 67; 68; 69; 70; 71; 72; 73; 74; 75; 76; 77; 78; 79; 80; 81; 82; 83; 84; 85; 86; 87; 88; 89; 90; 91; 92; 93; 94; 95; 96; 97; 98; 99; 100; 101; 102; 103; 104; 105; 106; 107; 108; 109; 110; 111; 112; 113; 114; 115; 116; 117; 118; 119; 120; 121; 122; 123; 124; 125; 126
1;1,000000;0,111961;0,208869;0,538945;0,159506;0,000000;0,207412;0,397309;0,438836;0,215426;0,206899;0,213551;0,276844;0,416222;0,409020;0,473763;0,559734;0,250230;0,136531;0,121985;0,000000;0,000000;0,183198;0,264390;0,279516;0,279516;0,138767;0,582050;0,558668;0,000000;0,274007;0,274007;0,187007;0,187408;0,000000;0,000000;0,000000;0,000000;0,000000;0,558668;0,131252;0,167964;0,210407;0,210590;0,558668;0,374756;0,285190;0,103985;0,000000;0,000000;0,104264;0,545619;0,000000;0,670335;0,163676;0,163830;0,237034;0,210480;0,000000;0,000000;0,000000;0,000000;0,000000;0,437543;0,304182;0,545619;0,306460;0,282690;0,000000;0,000000;0,000000;0,146642;0,146669;0,146805;0,146886;0,146967;0,147101;0,545619;0,545619;0,170749;0,170850;0,000000;0,000000;0,214218;0,000000;0,000000;0,000000;0,000000;0,387095;0,000000;0,000000;0,000000;0,000000;0,000000;0,000000;0,000000;0,000000;0,000000;0,000000;0,290907;0,000000;0,000000;0,000000;0,000000;0,000000;0,000000;0,000000;0,000000;0,000000;0,113614;0,000000;0,319410;0,319410;0,313888;0,223071;0,545619;0,189417;0,189490;0,189562;0,305468;0,000000;0,000000;0,154672;0,154719;0,154767;0,154815;
2;;1,000000;0,283466;0,260533;0,474303;0,235040;0,307162;0,339005;0,369247;0,235293;0,294998;0,062324;0,130614;0,098407;0,138084;0,109599;0,000000;0,665735;0,000000;0,000000;0,000000;0,196430;0,208184;0,303963;0,363390;0,364532;0,345911;0,537699;0,000000;0,284185;0,000000;0,000000;0,215178;0,215499;0,000000;0,000000;0,000000;0,000000;0,000000;0,000000;0,332912;0,328842;0,213423;0,213607;0,000000;0,214393;0,338330;0,000000;0,000000;0,000000;0,000000;0,000000;0,000000;0,285441;0,000000;0,000000;0,000000;0,403930;0,000000;0,000000;0,000000;0,000000;0,000000;0,262320;0,377139;0,000000;0,350529;0,000000;0,401159;0,000000;0,000000;0,000000;0,000000;0,000000;0,000000;0,000000;0,000000;0,000000;0,000000;0,000000;0,000000;0,000000;0,000000;0,000000;0,000000;0,000000;0,238362;0,238470;0,000000;0,000000;0,000000;0,000000;0,000000;0,000000;0,000000;0,000000;0,000000;0,000000;0,000000;0,000000;0,000000;0,000000;0,000000;0,000000;0,000000;0,000000;0,000000;0,000000;0,000000;0,000000;0,000000;0,398186;0,398347;0,370482;0,442667;0,000000;0,453616;0,453719;0,453820;0,321505;0,335157;0,335157;0,000000;0,000000;0,000000;0,000000;
3;;;1,000000;0,335622;0,184405;0,619784;0,584620;0,369180;0,385414;0,503117;0,304430;0,392799;0,415095;0,367615;0,324844;0,379094;0,221208;0,282630;0,175114;0,198464;0,158639;0,619784;0,345685;0,306678;0,281530;0,281530;0,310548;0,449087;0,560682;0,234301;0,239045;0,239045;0,421728;0,421728;0,000000;0,000000;0,000000;0,000000;0,000000;0,560682;0,242352;0,259303;0,406351;0,406856;0,560682;0,316916;0,250228;0,152051;0,140341;0,140476;0,152397;0,510657;0,422966;0,284975;0,128714;0,128868;0,202072;0,421298;0,172526;0,172650;0,172774;0,172899;0,518893;0,439556;0,306196;0,510657;0,308474;0,247728;0,184023;0,000000;0,000000;0,111680;0,111707;0,111843;0,111924;0,112005;0,112139;0,510657;0,510657;0,135787;0,135888;0,277379;0,277379;0,588426;0,278250;0,278250;0,468143;0,468143;0,420347;0,314883;0,314883;0,518893;0,280402;0,280402;0,518893;0,518893;0,281396;0,281396;0,275356;0,515936;0,518893;0,282573;0,282573;0,427641;0,283025;0,283466;0,283466;0,000000;0,000000;0,078652;0,000000;0,321424;0,321424;0,315902;0,721888;0,510657;0,191430;0,191503;0,191576;0,307481;0,355345;0,355345;0,119710;0,119757;0,119805;0,119853;
4;;;;1,000000;0,251075;0,185590;0,287007;0,638066;0,493626;0,516215;0,225895;0,171448;0,252703;0,227861;0,242421;0,266901;0,214067;0,286614;0,171333;0,194682;0,162569;0,311486;0,141094;0,210528;0,295345;0,295345;0,309803;0,591805;0,574496;0,544265;0,231904;0,231904;0,379658;0,380377;0,000000;0,000000;0,000000;0,000000;0,000000;0,574496;0,394058;0,458431;0,454419;0,454419;0,574496;0,320894;0,243087;0,148269;0,144271;0,144406;0,148616;0,503516;0,426896;0,725124;0,121573;0,121727;0,194931;0,428115;0,172557;0,172680;0,172805;0,172929;0,522823;0,453371;0,320011;0,503516;0,322289;0,240586;0,187953;0,000000;0,000000;0,104539;0,104566;0,104702;0,104783;0,104864;0,104998;0,503516;0,503516;0,128646;0,128747;0,281309;0,281309;0,608872;0,282180;0,282180;0,420497;0,420696;0,122801;0,314913;0,314913;0,522823;0,284332;0,284332;0,522823;0,522823;0,285326;0,285326;0,279286;0,248804;0,522823;0,286503;0,286503;0,431571;0,286955;0,287396;0,287396;0,000000;0,000000;0,071511;0,000000;0,335239;0,335239;0,329717;0,441035;0,503516;0,205245;0,205318;0,205391;0,601562;0,400674;0,400817;0,112568;0,112616;0,112664;0,112712;
5;;;;;1,000000;0,204463;0,288942;0,163266;0,349310;0,000000;0,200042;0,173847;0,196105;0,171263;0,185823;0,210303;0,216467;0,578782;0,356498;0,443672;0,381181;0,165854;0,143494;0,067494;0,000000;0,000000;0,258957;0,396759;0,000000;0,259270;0,234304;0,234304;0,362136;0,362136;0,000000;0,000000;0,000000;0,000000;0,000000;0,000000;0,408035;0,390240;0,188566;0,188749;0,000000;0,119395;0,245486;0,412871;0,447569;0,447898;0,413663;0,505916;0,231600;0,260583;0,297995;0,298110;0,335826;0,252961;0,000000;0,000000;0,000000;0,000000;0,000000;0,000000;0,000000;0,505916;0,000000;0,242986;0,405035;0,000000;0,000000;0,106938;0,106965;0,107101;0,107182;0,107264;0,107398;0,505916;0,505916;0,438829;0,438829;0,401810;0,402041;0,000000;0,402490;0,402711;0,207786;0,207894;0,125200;0,000000;0,000000;0,000000;0,404165;0,404362;0,000000;0,000000;0,404935;0,405122;0,382359;0,251203;0,000000;0,405843;0,406019;0,249387;0,383336;0,406530;0,406698;0,000000;0,000000;0,073910;0,000000;0,000000;0,000000;0,000000;0,205949;0,505916;0,000000;0,000000;0,000000;0,296590;0,304581;0,304581;0,114968;0,115016;0,115063;0,115111;
6;;;;;;1,000000;0,594423;0,220009;0,000000;0,231431;0,511347;0,000000;0,000000;0,000000;0,000000;0,000000;0,000000;0,358149;0,208147;0,242406;0,302513;1,000000;0,000000;0,000000;0,000000;0,000000;0,248784;0,204655;0,000000;0,378174;0,000000;0,000000;0,310886;0,311207;0,000000;0,000000;0,000000;0,000000;0,000000;0,000000;0,237674;0,217440;0,000000;0,000000;0,000000;0,000000;0,000000;0,223047;0,284215;0,284350;0,223317;0,000000;0,566840;0,000000;0,000000;0,000000;0,000000;0,000000;0,000000;0,000000;0,000000;0,000000;0,662767;0,000000;0,000000;0,000000;0,000000;0,000000;0,327896;0,000000;0,000000;0,000000;0,000000;0,000000;0,000000;0,000000;0,000000;0,000000;0,000000;0,000000;0,000000;0,421253;0,421253;0,488392;0,422123;0,422123;0,334070;0,334178;0,000000;0,000000;0,000000;0,662767;0,424275;0,424275;0,662767;0,662767;0,425270;0,425270;0,419229;0,000000;0,662767;0,426447;0,426447;0,571514;0,426898;0,427340;0,427340;0,000000;0,000000;0,000000;0,000000;0,000000;0,000000;0,000000;0,332233;0,000000;0,000000;0,000000;0,000000;0,000000;0,430865;0,430865;0,000000;0,000000;0,000000;0,000000;
7;;;;;;;1,000000;0,306691;0,253916;0,450409;0,105770;0,000000;0,000000;0,000000;0,000000;0,000000;0,000000;0,265496;0,061966;0,096225;0,156331;0,594423;0,000000;0,210828;0,369593;0,369593;0,156131;0,411751;0,648744;0,231993;0,000000;0,000000;0,218233;0,218554;0,000000;0,000000;0,000000;0,000000;0,000000;0,648744;0,599387;0,546164;0,000000;0,000000;0,648744;0,262875;0,000000;0,076865;0,138034;0,138168;0,077136;0,000000;0,420658;0,373038;0,000000;0,000000;0,000000;0,300557;0,000000;0,000000;0,000000;0,000000;0,516586;0,527619;0,394258;0,000000;0,396536;0,000000;0,599943;0,000000;0,000000;0,000000;0,000000;0,000000;0,000000;0,000000;0,000000;0,000000;0,000000;0,000000;0,000000;0,275072;0,275072;0,678135;0,275942;0,275942;0,241417;0,241525;0,000000;0,000000;0,000000;0,516586;0,278094;0,278094;0,516586;0,516586;0,279089;0,279089;0,273048;0,000000;0,516586;0,280265;0,280265;0,425333;0,280717;0,281158;0,281158;0,000000;0,000000;0,000000;0,000000;0,409487;0,409487;0,403964;0,621453;0,000000;0,279493;0,279566;0,279639;0,395544;0,338212;0,338212;0,000000;0,000000;0,000000;0,000000;
8;;;;;;;;1,000000;0,495476;0,400831;0,244671;0,000000;0,203760;0,171554;0,157332;0,182746;0,000000;0,326393;0,102623;0,136882;0,196988;0,345905;0,000000;0,118665;0,277430;0,277430;0,214930;0,400872;0,556581;0,272650;0,000000;0,000000;0,000000;0,000000;0,000000;0,000000;0,000000;0,000000;0,000000;0,556581;0,282483;0,299434;0,286570;0,286753;0,556581;0,170712;0,000000;0,117522;0,178690;0,178825;0,117793;0,000000;0,461315;0,726974;0,000000;0,000000;0,000000;0,208394;0,000000;0,000000;0,000000;0,000000;0,557242;0,435456;0,302095;0,000000;0,304373;0,000000;0,222372;0,000000;0,000000;0,000000;0,000000;0,000000;0,000000;0,000000;0,000000;0,000000;0,000000;0,000000;0,000000;0,315729;0,315729;0,628557;0,316599;0,316599;0,000000;0,000000;0,000000;0,000000;0,000000;0,557242;0,318751;0,318751;0,557242;0,557242;0,319746;0,319746;0,313705;0,000000;0,557242;0,320922;0,320922;0,465990;0,321374;0,321815;0,321815;0,000000;0,000000;0,000000;0,000000;0,317324;0,317324;0,311801;0,220984;0,000000;0,187330;0,187403;0,187476;0,303381;0,000000;0,000000;0,000000;0,000000;0,000000;0,000000;
9;;;;;;;;;1,000000;0,261930;0,123637;0,000000;0,179530;0,147324;0,133102;0,158515;0,000000;0,302163;0,000000;0,000000;0,000000;0,000000;0,000000;0,167255;0,326020;0,326020;0,190700;0,442399;0,605172;0,000000;0,000000;0,000000;0,000000;0,000000;0,000000;0,000000;0,000000;0,000000;0,000000;0,605172;0,177756;0,214468;0,262340;0,262523;0,605172;0,219302;0,000000;0,000000;0,000000;0,000000;0,000000;0,000000;0,000000;0,768502;0,000000;0,000000;0,000000;0,256984;0,000000;0,000000;0,000000;0,000000;0,000000;0,484046;0,350686;0,000000;0,352964;0,000000;0,000000;0,000000;0,000000;0,000000;0,000000;0,000000;0,000000;0,000000;0,000000;0,000000;0,000000;0,000000;0,000000;0,000000;0,000000;0,260722;0,000000;0,000000;0,000000;0,000000;0,000000;0,000000;0,000000;0,000000;0,000000;0,000000;0,000000;0,000000;0,000000;0,000000;0,000000;0,000000;0,000000;0,000000;0,000000;0,000000;0,000000;0,000000;0,000000;0,000000;0,000000;0,000000;0,000000;0,365914;0,365914;0,360392;0,269575;0,000000;0,235921;0,235994;0,236066;0,351972;0,000000;0,000000;0,000000;0,000000;0,000000;0,000000;
10;;;;;;;;;;1,000000;0,194975;0,000000;0,000000;0,000000;0,000000;0,000000;0,000000;0,000000;0,114044;0,148303;0,208410;0,357326;0,000000;0,218841;0,377606;0,377606;0,000000;0,467577;0,656758;0,284071;0,000000;0,000000;0,000000;0,000000;0,000000;0,000000;0,000000;0,000000;0,000000;0,656758;0,426201;0,443152;0,000000;0,000000;0,656758;0,270889;0,000000;0,128944;0,190112;0,190247;0,129214;0,000000;0,472737;0,381051;0,000000;0,000000;0,000000;0,620713;0,000000;0,000000;0,000000;0,000000;0,568664;0,535633;0,402272;0,000000;0,404550;0,000000;0,233794;0,000000;0,000000;0,000000;0,000000;0,000000;0,000000;0,000000;0,000000;0,000000;0,000000;0,000000;0,000000;0,327150;0,327150;0,772274;0,328020;0,328020;0,000000;0,000000;0,000000;0,000000;0,000000;0,568664;0,330172;0,330172;0,568664;0,568664;0,331167;0,331167;0,325127;0,000000;0,568664;0,332344;0,332344;0,477411;0,332795;0,333237;0,333237;0,000000;0,000000;0,000000;0,000000;0,417501;0,417501;0,411978;0,633633;0,000000;0,287507;0,287580;0,287653;0,403558;0,000000;0,000000;0,000000;0,000000;0,000000;0,000000;
11;;;;;;;;;;;1,000000;0,438170;0,487758;0,540360;0,551315;0,492560;0,353645;0,523128;0,434567;0,332577;0,535665;0,511347;0,394925;0,255714;0,000000;0,000000;0,203303;0,149776;0,000000;0,221078;0,383620;0,384240;0,391892;0,392458;0,000000;0,000000;0,000000;0,000000;0,000000;0,000000;0,080578;0,060344;0,173167;0,173350;0,000000;0,269460;0,343407;0,407637;0,430137;0,430137;0,408476;0,000000;0,409744;0,245184;0,473117;0,473359;0,410008;0,222579;0,000000;0,000000;0,000000;0,000000;0,505671;0,000000;0,219787;0,000000;0,000000;0,344115;0,170801;0,000000;0,000000;0,504771;0,496169;0,505096;0,505254;0,505410;0,496813;0,000000;0,000000;0,453587;0,453747;0,264157;0,264157;0,331296;0,265028;0,265028;0,174276;0,174384;0,506145;0,000000;0,000000;0,505671;0,267180;0,267180;0,505671;0,505671;0,268174;0,268174;0,262134;0,325079;0,505671;0,269351;0,269351;0,414419;0,269803;0,270244;0,270244;0,255925;0,255978;0,391547;0,256084;0,000000;0,000000;0,000000;0,383487;0,000000;0,208639;0,208745;0,208850;0,000000;0,271071;0,271071;0,488050;0,488124;0,488198;0,488271;
12;;;;;;;;;;;;1,000000;0,686296;0,629561;0,592602;0,519014;0,378483;0,000000;0,258843;0,244297;0,000000;0,000000;0,539258;0,359669;0,000000;0,000000;0,000000;0,247031;0,000000;0,000000;0,396320;0,396320;0,309319;0,309720;0,000000;0,000000;0,000000;0,000000;0,000000;0,000000;0,000000;0,000000;0,000000;0,000000;0,000000;0,281411;0,407502;0,226297;0,000000;0,000000;0,226576;0,667932;0,000000;0,000000;0,285988;0,286142;0,359346;0,000000;0,000000;0,000000;0,000000;0,000000;0,000000;0,000000;0,000000;0,667932;0,000000;0,801271;0,000000;0,000000;0,000000;0,268954;0,268981;0,269117;0,269198;0,269280;0,269414;0,667932;0,667932;0,293062;0,293162;0,000000;0,000000;0,000000;0,000000;0,000000;0,000000;0,000000;0,652862;0,000000;0,000000;0,000000;0,000000;0,000000;0,000000;0,000000;0,000000;0,000000;0,000000;0,709509;0,000000;0,000000;0,000000;0,000000;0,000000;0,000000;0,000000;0,000000;0,000000;0,235926;0,000000;0,000000;0,000000;0,000000;0,000000;0,667932;0,000000;0,000000;0,000000;0,000000;0,000000;0,000000;0,276984;0,277032;0,277079;0,277127;
13;;;;;;;;;;;;;1,000000;0,720404;0,680505;0,729603;0,279860;0,268883;0,160220;0,145675;0,000000;0,000000;0,501543;0,321954;0,000000;0,000000;0,157420;0,328040;0,000000;0,000000;0,297697;0,297697;0,210696;0,211097;0,000000;0,000000;0,000000;0,000000;0,000000;0,000000;0,000000;0,000000;0,229060;0,229243;0,000000;0,182788;0,308879;0,127675;0,000000;0,000000;0,127953;0,569309;0,000000;0,301077;0,187365;0,187520;0,260724;0,000000;0,000000;0,000000;0,000000;0,000000;0,000000;0,000000;0,000000;0,569309;0,000000;0,306379;0,000000;0,000000;0,000000;0,170331;0,170358;0,170494;0,170576;0,170657;0,170791;0,569309;0,569309;0,194439;0,194539;0,000000;0,000000;0,000000;0,000000;0,000000;0,000000;0,000000;0,680096;0,000000;0,000000;0,000000;0,000000;0,000000;0,000000;0,000000;0,000000;0,000000;0,000000;0,671795;0,000000;0,000000;0,000000;0,000000;0,000000;0,000000;0,000000;0,000000;0,000000;0,137303;0,000000;0,000000;0,000000;0,000000;0,000000;0,569309;0,000000;0,000000;0,000000;0,000000;0,000000;0,000000;0,178361;0,178409;0,178457;0,178504;
14;;;;;;;;;;;;;;1,000000;0,723534;0,820645;0,585046;0,236677;0,172981;0,158436;0,000000;0,000000;0,532660;0,353071;0,000000;0,000000;0,125214;0,303198;0,000000;0,000000;0,310458;0,310458;0,223457;0,223858;0,000000;0,000000;0,000000;0,000000;0,000000;0,000000;0,000000;0,000000;0,196854;0,197037;0,000000;0,195549;0,321640;0,140435;0,000000;0,000000;0,140714;0,582070;0,000000;0,268871;0,200126;0,200280;0,273484;0,000000;0,000000;0,000000;0,000000;0,000000;0,000000;0,000000;0,000000;0,582070;0,000000;0,319140;0,000000;0,000000;0,000000;0,183092;0,183119;0,183255;0,183337;0,183418;0,183552;0,582070;0,582070;0,207200;0,207300;0,000000;0,000000;0,000000;0,000000;0,000000;0,000000;0,000000;0,658285;0,000000;0,000000;0,000000;0,000000;0,000000;0,000000;0,000000;0,000000;0,000000;0,000000;0,702911;0,000000;0,000000;0,000000;0,000000;0,000000;0,000000;0,000000;0,000000;0,000000;0,150064;0,000000;0,000000;0,000000;0,000000;0,000000;0,582070;0,000000;0,000000;0,000000;0,000000;0,000000;0,000000;0,191122;0,191170;0,191218;0,191265;
15;;;;;;;;;;;;;;;1,000000;0,756235;0,595607;0,222455;0,203028;0,188482;0,000000;0,000000;0,499342;0,370985;0,000000;0,000000;0,110993;0,317758;0,000000;0,000000;0,340505;0,340505;0,253504;0,253905;0,000000;0,000000;0,000000;0,000000;0,000000;0,000000;0,000000;0,000000;0,182632;0,182816;0,000000;0,225596;0,351687;0,170482;0,000000;0,000000;0,170761;0,612117;0,000000;0,254650;0,230173;0,230327;0,303531;0,000000;0,000000;0,000000;0,000000;0,000000;0,000000;0,000000;0,000000;0,612117;0,000000;0,349187;0,000000;0,000000;0,000000;0,213139;0,213166;0,213302;0,213383;0,213465;0,213599;0,612117;0,612117;0,237247;0,237347;0,000000;0,000000;0,000000;0,000000;0,000000;0,000000;0,000000;0,641628;0,000000;0,000000;0,000000;0,000000;0,000000;0,000000;0,000000;0,000000;0,000000;0,000000;0,357404;0,000000;0,000000;0,000000;0,000000;0,000000;0,000000;0,000000;0,000000;0,000000;0,180111;0,000000;0,000000;0,000000;0,000000;0,000000;0,612117;0,244263;0,244368;0,244473;0,000000;0,000000;0,000000;0,221169;0,221217;0,221264;0,221312;
16;;;;;;;;;;;;;;;;1,000000;0,625013;0,247868;0,196187;0,181641;0,000000;0,000000;0,512017;0,332429;0,000000;0,000000;0,136406;0,342237;0,000000;0,000000;0,333663;0,333663;0,246663;0,247064;0,000000;0,000000;0,000000;0,000000;0,000000;0,000000;0,000000;0,000000;0,208045;0,208229;0,000000;0,218755;0,344846;0,163641;0,000000;0,000000;0,163920;0,605276;0,000000;0,280063;0,223332;0,223486;0,296690;0,000000;0,000000;0,000000;0,000000;0,000000;0,000000;0,000000;0,000000;0,605276;0,000000;0,342346;0,000000;0,000000;0,000000;0,206298;0,206325;0,206461;0,206542;0,206623;0,206757;0,605276;0,605276;0,230405;0,230506;0,000000;0,000000;0,000000;0,000000;0,000000;0,000000;0,000000;0,839945;0,000000;0,000000;0,000000;0,000000;0,000000;0,000000;0,000000;0,000000;0,000000;0,000000;0,682269;0,000000;0,000000;0,000000;0,000000;0,000000;0,000000;0,000000;0,000000;0,000000;0,173270;0,000000;0,000000;0,000000;0,000000;0,000000;0,605276;0,000000;0,000000;0,000000;0,000000;0,000000;0,000000;0,214328;0,214375;0,214423;0,214471;
17;;;;;;;;;;;;;;;;;1,000000;0,000000;0,301462;0,286917;0,000000;0,000000;0,348129;0,272130;0,000000;0,000000;0,000000;0,289651;0,000000;0,000000;0,438939;0,438939;0,351938;0,352339;0,000000;0,000000;0,000000;0,000000;0,000000;0,000000;0,000000;0,000000;0,000000;0,000000;0,000000;0,324030;0,450121;0,268917;0,000000;0,000000;0,269195;0,710551;0,000000;0,000000;0,328608;0,328762;0,401966;0,000000;0,000000;0,000000;0,000000;0,000000;0,000000;0,000000;0,000000;0,710551;0,000000;0,447621;0,000000;0,000000;0,000000;0,311573;0,311601;0,311737;0,311818;0,311899;0,312033;0,710551;0,710551;0,335681;0,335781;0,000000;0,000000;0,000000;0,000000;0,000000;0,000000;0,000000;0,711167;0,000000;0,000000;0,000000;0,000000;0,000000;0,000000;0,000000;0,000000;0,000000;0,000000;0,455839;0,000000;0,000000;0,000000;0,000000;0,000000;0,000000;0,000000;0,000000;0,000000;0,278545;0,000000;0,000000;0,000000;0,000000;0,000000;0,710551;0,000000;0,000000;0,000000;0,000000;0,000000;0,000000;0,319603;0,319651;0,319699;0,319747;
18;;;;;;;;;;;;;;;;;;1,000000;0,000000;0,000000;0,000000;0,319539;0,000000;0,000000;0,000000;0,000000;0,680176;0,626648;0,000000;0,000000;0,000000;0,000000;0,338287;0,338609;0,000000;0,000000;0,000000;0,000000;0,000000;0,000000;0,000000;0,000000;0,351693;0,351876;0,000000;0,000000;0,000000;0,000000;0,000000;0,000000;0,000000;0,000000;0,000000;0,423710;0,000000;0,000000;0,000000;0,000000;0,000000;0,000000;0,000000;0,000000;0,000000;0,000000;0,000000;0,000000;0,000000;0,000000;0,000000;0,000000;0,000000;0,000000;0,000000;0,000000;0,000000;0,000000;0,000000;0,000000;0,000000;0,000000;0,000000;0,000000;0,000000;0,000000;0,000000;0,000000;0,361472;0,361579;0,000000;0,000000;0,000000;0,000000;0,000000;0,000000;0,000000;0,000000;0,000000;0,000000;0,000000;0,000000;0,000000;0,000000;0,000000;0,000000;0,000000;0,000000;0,000000;0,000000;0,000000;0,000000;0,000000;0,000000;0,000000;0,000000;0,359635;0,000000;0,000000;0,000000;0,000000;0,000000;0,458267;0,458267;0,000000;0,000000;0,000000;0,000000;
19;;;;;;;;;;;;;;;;;;;1,000000;0,563066;0,556677;0,334043;0,228489;0,152490;0,000000;0,000000;0,000000;0,170011;0,000000;0,260788;0,319299;0,319299;0,232298;0,232699;0,000000;0,000000;0,000000;0,000000;0,000000;0,000000;0,120288;0,100054;0,000000;0,000000;0,000000;0,204390;0,330482;0,266268;0,166829;0,166964;0,266614;0,590911;0,449454;0,000000;0,659985;0,660273;0,678249;0,000000;0,000000;0,000000;0,000000;0,000000;0,545381;0,000000;0,000000;0,590911;0,000000;0,327981;0,210510;0,000000;0,000000;0,191934;0,191961;0,192097;0,192178;0,192259;0,192393;0,590911;0,590911;0,216041;0,216142;0,303867;0,303867;0,371006;0,304737;0,304737;0,000000;0,000000;0,210196;0,000000;0,000000;0,545381;0,306889;0,306889;0,545381;0,545381;0,307884;0,307884;0,301843;0,336199;0,545381;0,309061;0,309061;0,454128;0,309512;0,309953;0,309953;0,000000;0,000000;0,158906;0,000000;0,000000;0,000000;0,000000;0,000000;0,590911;0,000000;0,000000;0,000000;0,000000;0,000000;0,000000;0,199963;0,200011;0,200059;0,200107;
20;;;;;;;;;;;;;;;;;;;;1,000000;0,645095;0,368302;0,213944;0,137944;0,000000;0,000000;0,000000;0,155465;0,000000;0,295047;0,304754;0,304754;0,217753;0,218154;0,000000;0,000000;0,000000;0,000000;0,000000;0,000000;0,154546;0,134312;0,000000;0,000000;0,000000;0,189845;0,315936;0,289617;0,201087;0,201222;0,289964;0,576366;0,483712;0,000000;0,585411;0,585527;0,623243;0,000000;0,000000;0,000000;0,000000;0,000000;0,579639;0,000000;0,000000;0,576366;0,000000;0,313436;0,244769;0,000000;0,000000;0,177388;0,177415;0,177551;0,177633;0,177714;0,177848;0,576366;0,576366;0,201496;0,201596;0,338125;0,338125;0,405264;0,338996;0,338996;0,000000;0,000000;0,195651;0,000000;0,000000;0,579639;0,341148;0,341148;0,579639;0,579639;0,342142;0,342142;0,336102;0,321653;0,579639;0,343319;0,343319;0,488387;0,343771;0,344212;0,344212;0,000000;0,000000;0,144360;0,000000;0,000000;0,000000;0,000000;0,000000;0,576366;0,000000;0,000000;0,000000;0,000000;0,000000;0,000000;0,185418;0,185466;0,185514;0,185561;
21;;;;;;;;;;;;;;;;;;;;;1,000000;0,428408;0,000000;0,000000;0,000000;0,000000;0,000000;0,000000;0,000000;0,355153;0,000000;0,000000;0,000000;0,000000;0,000000;0,000000;0,000000;0,000000;0,000000;0,000000;0,214653;0,194419;0,000000;0,000000;0,000000;0,000000;0,000000;0,200026;0,261194;0,261329;0,200296;0,000000;0,543819;0,000000;0,359042;0,359255;0,326706;0,000000;0,000000;0,000000;0,000000;0,000000;0,639746;0,000000;0,000000;0,000000;0,000000;0,000000;0,304876;0,000000;0,000000;0,000000;0,000000;0,000000;0,000000;0,000000;0,000000;0,000000;0,000000;0,000000;0,000000;0,398232;0,398232;0,465371;0,399102;0,399102;0,000000;0,000000;0,000000;0,000000;0,000000;0,639746;0,401254;0,401254;0,639746;0,639746;0,402249;0,402249;0,396209;0,000000;0,639746;0,403426;0,403426;0,548493;0,403877;0,404319;0,404319;0,000000;0,000000;0,000000;0,000000;0,000000;0,000000;0,000000;0,000000;0,000000;0,000000;0,000000;0,000000;0,000000;0,000000;0,000000;0,000000;0,000000;0,000000;0,000000;
22;;;;;;;;;;;;;;;;;;;;;;1,000000;0,000000;0,000000;0,000000;0,000000;0,210174;0,166045;0,000000;0,504070;0,000000;0,000000;0,272276;0,272597;0,000000;0,000000;0,000000;0,000000;0,000000;0,000000;0,363569;0,343335;0,000000;0,000000;0,000000;0,000000;0,000000;0,348942;0,410110;0,410245;0,349213;0,000000;0,692735;0,000000;0,000000;0,000000;0,000000;0,000000;0,000000;0,000000;0,000000;0,000000;0,788662;0,000000;0,000000;0,000000;0,000000;0,000000;0,453792;0,000000;0,000000;0,000000;0,000000;0,000000;0,000000;0,000000;0,000000;0,000000;0,000000;0,000000;0,000000;0,547149;0,547149;0,614287;0,548019;0,548019;0,295461;0,295568;0,000000;0,000000;0,000000;0,788662;0,550171;0,550171;0,788662;0,788662;0,551166;0,551166;0,545125;0,000000;0,788662;0,552342;0,552342;0,697410;0,552794;0,553235;0,553235;0,000000;0,000000;0,000000;0,000000;0,000000;0,000000;0,000000;0,293623;0,000000;0,000000;0,000000;0,000000;0,000000;0,392255;0,392255;0,000000;0,000000;0,000000;0,000000;
23;;;;;;;;;;;;;;;;;;;;;;;1,000000;0,479908;0,000000;0,000000;0,000000;0,216678;0,000000;0,000000;0,365966;0,365966;0,278965;0,279366;0,000000;0,000000;0,000000;0,000000;0,000000;0,000000;0,000000;0,000000;0,000000;0,000000;0,000000;0,251057;0,377148;0,195944;0,000000;0,000000;0,196223;0,637578;0,000000;0,000000;0,255635;0,255789;0,328993;0,000000;0,000000;0,000000;0,000000;0,000000;0,000000;0,000000;0,000000;0,637578;0,000000;0,374648;0,000000;0,000000;0,000000;0,238601;0,238628;0,238764;0,238845;0,238926;0,239060;0,637578;0,637578;0,262708;0,262808;0,000000;0,000000;0,000000;0,000000;0,000000;0,000000;0,000000;0,598619;0,000000;0,000000;0,000000;0,000000;0,000000;0,000000;0,000000;0,000000;0,000000;0,000000;0,829749;0,000000;0,000000;0,000000;0,000000;0,000000;0,000000;0,000000;0,000000;0,000000;0,205573;0,000000;0,000000;0,000000;0,000000;0,000000;0,637578;0,400636;0,400741;0,400846;0,000000;0,000000;0,000000;0,246630;0,246678;0,246726;0,246774;
24;;;;;;;;;;;;;;;;;;;;;;;;1,000000;0,282932;0,282932;0,000000;0,300840;0,562083;0,000000;0,289966;0,289966;0,202966;0,203367;0,000000;0,000000;0,000000;0,000000;0,000000;0,562083;0,134668;0,171380;0,000000;0,000000;0,562083;0,372437;0,301149;0,119944;0,000000;0,000000;0,120223;0,561578;0,000000;0,286377;0,179635;0,179789;0,252993;0,213896;0,000000;0,000000;0,000000;0,000000;0,000000;0,440958;0,307597;0,561578;0,309876;0,298649;0,000000;0,000000;0,000000;0,162601;0,162628;0,162764;0,162845;0,162926;0,163060;0,561578;0,561578;0,186708;0,186809;0,000000;0,000000;0,217634;0,000000;0,000000;0,000000;0,000000;0,419030;0,000000;0,000000;0,000000;0,000000;0,000000;0,000000;0,000000;0,000000;0,000000;0,000000;0,650160;0,000000;0,000000;0,000000;0,000000;0,000000;0,000000;0,000000;0,000000;0,000000;0,129573;0,000000;0,322826;0,322826;0,317303;0,226486;0,561578;0,692849;0,692975;0,693099;0,308883;0,000000;0,000000;0,170631;0,170678;0,170726;0,170774;
25;;;;;;;;;;;;;;;;;;;;;;;;;1,000000;0,441697;0,000000;0,300689;0,720848;0,000000;0,000000;0,000000;0,000000;0,000000;0,000000;0,000000;0,000000;0,000000;0,000000;0,720848;0,293433;0,330145;0,000000;0,000000;0,720848;0,334979;0,000000;0,000000;0,000000;0,000000;0,000000;0,000000;0,000000;0,445142;0,000000;0,000000;0,000000;0,372661;0,000000;0,000000;0,000000;0,000000;0,000000;0,599723;0,466362;0,000000;0,468641;0,000000;0,000000;0,000000;0,000000;0,000000;0,000000;0,000000;0,000000;0,000000;0,000000;0,000000;0,000000;0,000000;0,000000;0,000000;0,000000;0,376399;0,000000;0,000000;0,000000;0,000000;0,000000;0,000000;0,000000;0,000000;0,000000;0,000000;0,000000;0,000000;0,000000;0,000000;0,000000;0,000000;0,000000;0,000000;0,000000;0,000000;0,000000;0,000000;0,000000;0,000000;0,000000;0,000000;0,000000;0,481591;0,481591;0,476069;0,385252;0,000000;0,351597;0,351670;0,351743;0,467648;0,000000;0,000000;0,000000;0,000000;0,000000;0,000000;
26;;;;;;;;;;;;;;;;;;;;;;;;;;1,000000;0,000000;0,300689;0,720848;0,000000;0,000000;0,000000;0,000000;0,000000;0,000000;0,000000;0,000000;0,000000;0,000000;0,720848;0,293433;0,330145;0,000000;0,000000;0,720848;0,334979;0,000000;0,000000;0,000000;0,000000;0,000000;0,000000;0,000000;0,445142;0,000000;0,000000;0,000000;0,372661;0,000000;0,000000;0,000000;0,000000;0,000000;0,599723;0,466362;0,000000;0,468641;0,000000;0,000000;0,000000;0,000000;0,000000;0,000000;0,000000;0,000000;0,000000;0,000000;0,000000;0,000000;0,000000;0,000000;0,000000;0,000000;0,376399;0,000000;0,000000;0,000000;0,000000;0,000000;0,000000;0,000000;0,000000;0,000000;0,000000;0,000000;0,000000;0,000000;0,000000;0,000000;0,000000;0,000000;0,000000;0,000000;0,000000;0,000000;0,000000;0,000000;0,000000;0,000000;0,000000;0,000000;0,481591;0,481591;0,476069;0,385252;0,000000;0,351597;0,351670;0,351743;0,467648;0,000000;0,000000;0,000000;0,000000;0,000000;0,000000;
27;;;;;;;;;;;;;;;;;;;;;;;;;;;1,000000;0,306824;0,000000;0,000000;0,000000;0,000000;0,228923;0,229244;0,000000;0,000000;0,000000;0,000000;0,000000;0,000000;0,000000;0,000000;0,529314;0,529642;0,000000;0,000000;0,000000;0,000000;0,000000;0,000000;0,000000;0,000000;0,000000;0,312247;0,000000;0,000000;0,000000;0,000000;0,585037;0,585207;0,585373;0,585538;0,000000;0,000000;0,000000;0,000000;0,000000;0,000000;0,000000;0,000000;0,000000;0,000000;0,000000;0,000000;0,000000;0,000000;0,000000;0,000000;0,000000;0,000000;0,000000;0,000000;0,000000;0,000000;0,000000;0,000000;0,536865;0,537035;0,000000;0,467891;0,468054;0,000000;0,000000;0,000000;0,000000;0,000000;0,000000;0,000000;0,000000;0,000000;0,000000;0,000000;0,000000;0,000000;0,000000;0,000000;0,000000;0,000000;0,000000;0,000000;0,000000;0,000000;0,000000;0,000000;0,250270;0,000000;0,000000;0,000000;0,000000;0,000000;0,348902;0,348902;0,000000;0,000000;0,000000;0,000000;
28;;;;;;;;;;;;;;;;;;;;;;;;;;;;1,000000;0,579841;0,000000;0,307487;0,307487;0,439394;0,439394;0,000000;0,000000;0,000000;0,000000;0,000000;0,579841;0,152425;0,189137;0,237897;0,238080;0,579841;0,411206;0,318670;0,137465;0,000000;0,000000;0,137744;0,579100;0,000000;0,673898;0,197156;0,197310;0,270514;0,525607;0,000000;0,000000;0,000000;0,000000;0,000000;0,458715;0,325355;0,579100;0,327633;0,316170;0,000000;0,000000;0,000000;0,180122;0,180149;0,180285;0,180366;0,180448;0,180581;0,579100;0,579100;0,204229;0,204330;0,000000;0,000000;0,235391;0,000000;0,000000;0,207978;0,208085;0,198384;0,000000;0,000000;0,000000;0,000000;0,000000;0,000000;0,000000;0,000000;0,000000;0,000000;0,324387;0,000000;0,000000;0,000000;0,000000;0,000000;0,000000;0,000000;0,000000;0,000000;0,147094;0,000000;0,340583;0,340583;0,335061;0,459329;0,579100;0,210589;0,210662;0,210735;0,326641;0,304773;0,304773;0,188152;0,188200;0,188247;0,188295;
29;;;;;;;;;;;;;;;;;;;;;;;;;;;;;1,000000;0,000000;0,000000;0,000000;0,000000;0,000000;0,000000;0,000000;0,000000;0,000000;0,000000;1,000000;0,572584;0,609296;0,000000;0,000000;1,000000;0,614130;0,000000;0,000000;0,000000;0,000000;0,000000;0,000000;0,000000;0,724293;0,000000;0,000000;0,000000;0,651812;0,000000;0,000000;0,000000;0,000000;0,000000;0,878875;0,745514;0,000000;0,747792;0,000000;0,000000;0,000000;0,000000;0,000000;0,000000;0,000000;0,000000;0,000000;0,000000;0,000000;0,000000;0,000000;0,000000;0,000000;0,000000;0,655550;0,000000;0,000000;0,000000;0,000000;0,000000;0,000000;0,000000;0,000000;0,000000;0,000000;0,000000;0,000000;0,000000;0,000000;0,000000;0,000000;0,000000;0,000000;0,000000;0,000000;0,000000;0,000000;0,000000;0,000000;0,000000;0,000000;0,000000;0,760743;0,760743;0,755220;0,664403;0,000000;0,630749;0,630822;0,630895;0,746800;0,000000;0,000000;0,000000;0,000000;0,000000;0,000000;
30;;;;;;;;;;;;;;;;;;;;;;;;;;;;;;1,000000;0,000000;0,000000;0,000000;0,000000;0,000000;0,000000;0,000000;0,000000;0,000000;0,000000;0,673121;0,697127;0,000000;0,000000;0,000000;0,000000;0,000000;0,275687;0,336855;0,336990;0,275958;0,000000;0,619480;0,000000;0,000000;0,000000;0,000000;0,000000;0,000000;0,000000;0,000000;0,000000;0,715407;0,000000;0,000000;0,000000;0,000000;0,000000;0,380537;0,000000;0,000000;0,000000;0,000000;0,000000;0,000000;0,000000;0,000000;0,000000;0,000000;0,000000;0,000000;0,473894;0,473894;0,541032;0,474764;0,474764;0,000000;0,000000;0,000000;0,000000;0,000000;0,715407;0,476916;0,476916;0,715407;0,715407;0,477911;0,477911;0,471870;0,000000;0,715407;0,479087;0,479087;0,624155;0,479539;0,479980;0,479980;0,000000;0,000000;0,000000;0,000000;0,000000;0,000000;0,000000;0,000000;0,000000;0,000000;0,000000;0,000000;0,539367;0,000000;0,000000;0,000000;0,000000;0,000000;0,000000;
31;;;;;;;;;;;;;;;;;;;;;;;;;;;;;;;1,000000;0,456776;0,369775;0,370176;0,000000;0,000000;0,000000;0,000000;0,000000;0,000000;0,000000;0,000000;0,000000;0,000000;0,000000;0,341867;0,467958;0,286754;0,000000;0,000000;0,287032;0,728388;0,000000;0,000000;0,346444;0,346599;0,419803;0,000000;0,000000;0,000000;0,000000;0,000000;0,000000;0,000000;0,000000;0,728388;0,000000;0,465458;0,000000;0,000000;0,000000;0,329410;0,329437;0,329573;0,329655;0,329736;0,329870;0,728388;0,728388;0,353518;0,353618;0,000000;0,000000;0,000000;0,000000;0,000000;0,000000;0,000000;0,347673;0,000000;0,000000;0,000000;0,000000;0,000000;0,000000;0,000000;0,000000;0,000000;0,000000;0,473675;0,000000;0,000000;0,000000;0,000000;0,000000;0,000000;0,000000;0,000000;0,000000;0,296382;0,000000;0,000000;0,000000;0,000000;0,000000;0,728388;0,000000;0,000000;0,000000;0,000000;0,000000;0,000000;0,337440;0,337488;0,337536;0,337583;
32;;;;;;;;;;;;;;;;;;;;;;;;;;;;;;;;1,000000;0,369775;0,370176;0,000000;0,000000;0,000000;0,000000;0,000000;0,000000;0,000000;0,000000;0,000000;0,000000;0,000000;0,341867;0,467958;0,286754;0,000000;0,000000;0,287032;0,728388;0,000000;0,000000;0,346444;0,346599;0,419803;0,000000;0,000000;0,000000;0,000000;0,000000;0,000000;0,000000;0,000000;0,728388;0,000000;0,465458;0,000000;0,000000;0,000000;0,329410;0,329437;0,329573;0,329655;0,329736;0,329870;0,728388;0,728388;0,353518;0,353618;0,000000;0,000000;0,000000;0,000000;0,000000;0,000000;0,000000;0,347673;0,000000;0,000000;0,000000;0,000000;0,000000;0,000000;0,000000;0,000000;0,000000;0,000000;0,473675;0,000000;0,000000;0,000000;0,000000;0,000000;0,000000;0,000000;0,000000;0,000000;0,296382;0,000000;0,000000;0,000000;0,000000;0,000000;0,728388;0,000000;0,000000;0,000000;0,000000;0,000000;0,000000;0,337440;0,337488;0,337536;0,337583;
33;;;;;;;;;;;;;;;;;;;;;;;;;;;;;;;;;1,000000;0,632345;0,000000;0,000000;0,000000;0,000000;0,000000;0,000000;0,000000;0,000000;0,000000;0,000000;0,000000;0,254866;0,380957;0,199753;0,000000;0,000000;0,200031;0,641387;0,000000;0,000000;0,259444;0,259598;0,332802;0,000000;0,000000;0,000000;0,000000;0,000000;0,000000;0,000000;0,000000;0,641387;0,000000;0,378457;0,000000;0,000000;0,000000;0,242410;0,242437;0,242573;0,242654;0,242735;0,242869;0,641387;0,641387;0,266517;0,266617;0,000000;0,000000;0,000000;0,000000;0,000000;0,314209;0,314316;0,260672;0,000000;0,000000;0,000000;0,000000;0,000000;0,000000;0,000000;0,000000;0,000000;0,000000;0,386675;0,000000;0,000000;0,000000;0,000000;0,000000;0,000000;0,000000;0,000000;0,000000;0,209381;0,000000;0,000000;0,000000;0,000000;0,312371;0,641387;0,000000;0,000000;0,000000;0,000000;0,411003;0,411003;0,250439;0,250487;0,250535;0,250583;
34;;;;;;;;;;;;;;;;;;;;;;;;;;;;;;;;;;1,000000;0,000000;0,000000;0,000000;0,000000;0,000000;0,000000;0,000000;0,000000;0,000000;0,000000;0,000000;0,255267;0,381359;0,200154;0,000000;0,000000;0,200433;0,641788;0,000000;0,000000;0,259845;0,259999;0,333203;0,000000;0,000000;0,000000;0,000000;0,000000;0,000000;0,000000;0,000000;0,641788;0,000000;0,378858;0,000000;0,000000;0,000000;0,242811;0,242838;0,242974;0,243055;0,243136;0,243270;0,641788;0,641788;0,266918;0,267019;0,000000;0,000000;0,000000;0,000000;0,000000;0,314530;0,314637;0,261073;0,000000;0,000000;0,000000;0,000000;0,000000;0,000000;0,000000;0,000000;0,000000;0,000000;0,387076;0,000000;0,000000;0,000000;0,000000;0,000000;0,000000;0,000000;0,000000;0,000000;0,209783;0,000000;0,000000;0,000000;0,000000;0,312692;0,641788;0,000000;0,000000;0,000000;0,000000;0,411325;0,411325;0,250840;0,250888;0,250936;0,250984;
35;;;;;;;;;;;;;;;;;;;;;;;;;;;;;;;;;;;1,000000;0,860135;0,860529;0,860915;0,861293;0,000000;0,000000;0,000000;0,000000;0,000000;0,000000;0,000000;0,000000;0,000000;0,000000;0,000000;0,000000;0,000000;0,000000;0,000000;0,000000;0,000000;0,000000;0,000000;0,000000;0,000000;0,000000;0,000000;0,000000;0,000000;0,000000;0,000000;0,000000;0,000000;0,000000;0,000000;0,000000;0,000000;0,000000;0,000000;0,000000;0,000000;0,000000;0,000000;0,000000;0,000000;0,000000;0,000000;0,000000;0,000000;0,000000;0,000000;0,000000;0,000000;0,000000;0,000000;0,000000;0,000000;0,000000;0,000000;0,000000;0,000000;0,000000;0,000000;0,000000;0,000000;0,000000;0,000000;0,000000;0,000000;0,000000;0,000000;0,000000;0,000000;0,000000;0,000000;0,000000;0,000000;0,000000;0,000000;0,000000;0,000000;0,000000;0,000000;0,000000;0,000000;0,000000;0,000000;0,000000;0,000000;0,000000;0,000000;
36;;;;;;;;;;;;;;;;;;;;;;;;;;;;;;;;;;;;1,000000;0,860915;0,861293;0,861665;0,000000;0,000000;0,000000;0,000000;0,000000;0,000000;0,000000;0,000000;0,000000;0,000000;0,000000;0,000000;0,000000;0,000000;0,000000;0,000000;0,000000;0,000000;0,000000;0,000000;0,000000;0,000000;0,000000;0,000000;0,000000;0,000000;0,000000;0,000000;0,000000;0,000000;0,000000;0,000000;0,000000;0,000000;0,000000;0,000000;0,000000;0,000000;0,000000;0,000000;0,000000;0,000000;0,000000;0,000000;0,000000;0,000000;0,000000;0,000000;0,000000;0,000000;0,000000;0,000000;0,000000;0,000000;0,000000;0,000000;0,000000;0,000000;0,000000;0,000000;0,000000;0,000000;0,000000;0,000000;0,000000;0,000000;0,000000;0,000000;0,000000;0,000000;0,000000;0,000000;0,000000;0,000000;0,000000;0,000000;0,000000;0,000000;0,000000;0,000000;0,000000;0,000000;0,000000;0,000000;0,000000;0,000000;0,000000;
37;;;;;;;;;;;;;;;;;;;;;;;;;;;;;;;;;;;;;1,000000;0,861665;0,862030;0,000000;0,000000;0,000000;0,000000;0,000000;0,000000;0,000000;0,000000;0,000000;0,000000;0,000000;0,000000;0,000000;0,000000;0,000000;0,000000;0,000000;0,000000;0,000000;0,000000;0,000000;0,000000;0,000000;0,000000;0,000000;0,000000;0,000000;0,000000;0,000000;0,000000;0,000000;0,000000;0,000000;0,000000;0,000000;0,000000;0,000000;0,000000;0,000000;0,000000;0,000000;0,000000;0,000000;0,000000;0,000000;0,000000;0,000000;0,000000;0,000000;0,000000;0,000000;0,000000;0,000000;0,000000;0,000000;0,000000;0,000000;0,000000;0,000000;0,000000;0,000000;0,000000;0,000000;0,000000;0,000000;0,000000;0,000000;0,000000;0,000000;0,000000;0,000000;0,000000;0,000000;0,000000;0,000000;0,000000;0,000000;0,000000;0,000000;0,000000;0,000000;0,000000;0,000000;0,000000;0,000000;0,000000;0,000000;
38;;;;;;;;;;;;;;;;;;;;;;;;;;;;;;;;;;;;;;1,000000;0,862388;0,000000;0,000000;0,000000;0,000000;0,000000;0,000000;0,000000;0,000000;0,000000;0,000000;0,000000;0,000000;0,000000;0,000000;0,000000;0,000000;0,000000;0,000000;0,000000;0,000000;0,000000;0,000000;0,000000;0,000000;0,000000;0,000000;0,000000;0,000000;0,000000;0,000000;0,000000;0,000000;0,000000;0,000000;0,000000;0,000000;0,000000;0,000000;0,000000;0,000000;0,000000;0,000000;0,000000;0,000000;0,000000;0,000000;0,000000;0,000000;0,000000;0,000000;0,000000;0,000000;0,000000;0,000000;0,000000;0,000000;0,000000;0,000000;0,000000;0,000000;0,000000;0,000000;0,000000;0,000000;0,000000;0,000000;0,000000;0,000000;0,000000;0,000000;0,000000;0,000000;0,000000;0,000000;0,000000;0,000000;0,000000;0,000000;0,000000;0,000000;0,000000;0,000000;0,000000;0,000000;0,000000;0,000000;0,000000;
39;;;;;;;;;;;;;;;;;;;;;;;;;;;;;;;;;;;;;;;1,000000;0,000000;0,000000;0,000000;0,000000;0,000000;0,000000;0,000000;0,000000;0,000000;0,000000;0,000000;0,000000;0,000000;0,000000;0,000000;0,000000;0,000000;0,000000;0,000000;0,000000;0,000000;0,000000;0,000000;0,000000;0,000000;0,000000;0,000000;0,000000;0,000000;0,000000;0,000000;0,000000;0,000000;0,000000;0,000000;0,000000;0,000000;0,000000;0,000000;0,000000;0,000000;0,000000;0,000000;0,000000;0,000000;0,000000;0,000000;0,000000;0,000000;0,000000;0,000000;0,000000;0,000000;0,000000;0,000000;0,000000;0,000000;0,000000;0,000000;0,000000;0,000000;0,000000;0,000000;0,000000;0,000000;0,000000;0,000000;0,000000;0,000000;0,000000;0,000000;0,000000;0,000000;0,000000;0,000000;0,000000;0,000000;0,000000;0,000000;0,000000;0,000000;0,000000;0,000000;0,000000;0,000000;0,000000;0,000000;
40;;;;;;;;;;;;;;;;;;;;;;;;;;;;;;;;;;;;;;;;1,000000;0,572584;0,609296;0,000000;0,000000;1,000000;0,614130;0,000000;0,000000;0,000000;0,000000;0,000000;0,000000;0,000000;0,724293;0,000000;0,000000;0,000000;0,651812;0,000000;0,000000;0,000000;0,000000;0,000000;0,878875;0,745514;0,000000;0,747792;0,000000;0,000000;0,000000;0,000000;0,000000;0,000000;0,000000;0,000000;0,000000;0,000000;0,000000;0,000000;0,000000;0,000000;0,000000;0,000000;0,655550;0,000000;0,000000;0,000000;0,000000;0,000000;0,000000;0,000000;0,000000;0,000000;0,000000;0,000000;0,000000;0,000000;0,000000;0,000000;0,000000;0,000000;0,000000;0,000000;0,000000;0,000000;0,000000;0,000000;0,000000;0,000000;0,000000;0,000000;0,760743;0,760743;0,755220;0,664403;0,000000;0,630749;0,630822;0,630895;0,746800;0,000000;0,000000;0,000000;0,000000;0,000000;0,000000;
41;;;;;;;;;;;;;;;;;;;;;;;;;;;;;;;;;;;;;;;;;1,000000;0,763941;0,000000;0,000000;0,572584;0,186715;0,000000;0,135187;0,196355;0,196490;0,135457;0,000000;0,478980;0,296878;0,000000;0,000000;0,000000;0,224397;0,000000;0,000000;0,000000;0,000000;0,574907;0,451459;0,318098;0,000000;0,320377;0,000000;0,643236;0,000000;0,000000;0,000000;0,000000;0,000000;0,000000;0,000000;0,000000;0,000000;0,000000;0,000000;0,000000;0,333393;0,333393;0,653926;0,334264;0,334264;0,000000;0,000000;0,000000;0,000000;0,000000;0,574907;0,336416;0,336416;0,574907;0,574907;0,337410;0,337410;0,331370;0,000000;0,574907;0,338587;0,338587;0,483655;0,339039;0,339480;0,339480;0,000000;0,000000;0,000000;0,000000;0,333327;0,333327;0,327805;0,236988;0,000000;0,203333;0,203406;0,203479;0,671750;0,000000;0,000000;0,000000;0,000000;0,000000;0,000000;
42;;;;;;;;;;;;;;;;;;;;;;;;;;;;;;;;;;;;;;;;;;1,000000;0,000000;0,000000;0,609296;0,223427;0,000000;0,114953;0,176121;0,176256;0,115223;0,000000;0,458746;0,333590;0,000000;0,000000;0,000000;0,261109;0,000000;0,000000;0,000000;0,000000;0,554673;0,488171;0,354810;0,000000;0,357089;0,000000;0,594744;0,000000;0,000000;0,000000;0,000000;0,000000;0,000000;0,000000;0,000000;0,000000;0,000000;0,000000;0,000000;0,313159;0,313159;0,670877;0,314030;0,314030;0,000000;0,000000;0,000000;0,000000;0,000000;0,554673;0,316182;0,316182;0,554673;0,554673;0,317176;0,317176;0,311136;0,000000;0,554673;0,318353;0,318353;0,463421;0,318805;0,319246;0,319246;0,000000;0,000000;0,000000;0,000000;0,370039;0,370039;0,364517;0,273700;0,000000;0,240045;0,240118;0,240191;0,755928;0,000000;0,000000;0,000000;0,000000;0,000000;0,000000;
43;;;;;;;;;;;;;;;;;;;;;;;;;;;;;;;;;;;;;;;;;;;1,000000;0,689268;0,000000;0,000000;0,000000;0,000000;0,000000;0,000000;0,000000;0,000000;0,000000;0,383887;0,000000;0,000000;0,000000;0,000000;0,344121;0,344245;0,344369;0,344493;0,000000;0,000000;0,000000;0,000000;0,000000;0,000000;0,000000;0,000000;0,000000;0,000000;0,000000;0,000000;0,000000;0,000000;0,000000;0,000000;0,000000;0,000000;0,000000;0,000000;0,000000;0,000000;0,000000;0,000000;0,391453;0,391609;0,000000;0,486477;0,486477;0,000000;0,000000;0,000000;0,000000;0,000000;0,000000;0,000000;0,000000;0,000000;0,000000;0,000000;0,000000;0,000000;0,000000;0,000000;0,000000;0,000000;0,000000;0,000000;0,000000;0,000000;0,000000;0,000000;0,000000;0,000000;0,000000;0,000000;0,000000;0,000000;0,000000;0,000000;0,000000;0,000000;0,000000;0,000000;
44;;;;;;;;;;;;;;;;;;;;;;;;;;;;;;;;;;;;;;;;;;;;1,000000;0,000000;0,000000;0,000000;0,000000;0,000000;0,000000;0,000000;0,000000;0,000000;0,384070;0,000000;0,000000;0,000000;0,000000;0,344473;0,344597;0,344721;0,344846;0,000000;0,000000;0,000000;0,000000;0,000000;0,000000;0,000000;0,000000;0,000000;0,000000;0,000000;0,000000;0,000000;0,000000;0,000000;0,000000;0,000000;0,000000;0,000000;0,000000;0,000000;0,000000;0,000000;0,000000;0,391805;0,391962;0,000000;0,486830;0,486830;0,000000;0,000000;0,000000;0,000000;0,000000;0,000000;0,000000;0,000000;0,000000;0,000000;0,000000;0,000000;0,000000;0,000000;0,000000;0,000000;0,000000;0,000000;0,000000;0,000000;0,000000;0,000000;0,000000;0,000000;0,000000;0,000000;0,000000;0,000000;0,000000;0,000000;0,000000;0,000000;0,000000;0,000000;0,000000;
45;;;;;;;;;;;;;;;;;;;;;;;;;;;;;;;;;;;;;;;;;;;;;1,000000;0,614130;0,000000;0,000000;0,000000;0,000000;0,000000;0,000000;0,000000;0,724293;0,000000;0,000000;0,000000;0,651812;0,000000;0,000000;0,000000;0,000000;0,000000;0,878875;0,745514;0,000000;0,747792;0,000000;0,000000;0,000000;0,000000;0,000000;0,000000;0,000000;0,000000;0,000000;0,000000;0,000000;0,000000;0,000000;0,000000;0,000000;0,000000;0,655550;0,000000;0,000000;0,000000;0,000000;0,000000;0,000000;0,000000;0,000000;0,000000;0,000000;0,000000;0,000000;0,000000;0,000000;0,000000;0,000000;0,000000;0,000000;0,000000;0,000000;0,000000;0,000000;0,000000;0,000000;0,000000;0,000000;0,000000;0,760743;0,760743;0,755220;0,664403;0,000000;0,630749;0,630822;0,630895;0,746800;0,000000;0,000000;0,000000;0,000000;0,000000;0,000000;
46;;;;;;;;;;;;;;;;;;;;;;;;;;;;;;;;;;;;;;;;;;;;;;1,000000;0,353049;0,171845;0,000000;0,000000;0,172123;0,613479;0,000000;0,338424;0,231536;0,231690;0,304894;0,265943;0,000000;0,000000;0,000000;0,000000;0,000000;0,493005;0,359644;0,613479;0,796552;0,350549;0,000000;0,000000;0,000000;0,214501;0,214529;0,214665;0,214746;0,214827;0,214961;0,613479;0,613479;0,238609;0,238709;0,000000;0,000000;0,269681;0,000000;0,000000;0,000000;0,000000;0,232764;0,000000;0,000000;0,000000;0,000000;0,000000;0,000000;0,000000;0,000000;0,000000;0,000000;0,358767;0,000000;0,000000;0,000000;0,000000;0,000000;0,000000;0,000000;0,000000;0,000000;0,181473;0,000000;0,374873;0,374873;0,369351;0,278534;0,613479;0,244879;0,244952;0,245025;0,360930;0,000000;0,000000;0,222531;0,222579;0,222627;0,222675;
47;;;;;;;;;;;;;;;;;;;;;;;;;;;;;;;;;;;;;;;;;;;;;;;1,000000;0,297936;0,000000;0,000000;0,298215;0,739570;0,000000;0,000000;0,357627;0,357781;0,430985;0,000000;0,000000;0,000000;0,000000;0,000000;0,000000;0,000000;0,537703;0,739570;0,000000;0,476641;0,000000;0,000000;0,000000;0,340593;0,340620;0,340756;0,340837;0,340918;0,341052;0,739570;0,739570;0,364700;0,364801;0,000000;0,000000;0,000000;0,000000;0,000000;0,000000;0,000000;0,358855;0,000000;0,000000;0,000000;0,000000;0,000000;0,000000;0,000000;0,000000;0,000000;0,000000;0,484858;0,000000;0,000000;0,000000;0,000000;0,000000;0,000000;0,000000;0,000000;0,000000;0,307565;0,000000;0,000000;0,000000;0,000000;0,000000;0,739570;0,000000;0,000000;0,000000;0,000000;0,000000;0,000000;0,348622;0,348670;0,348718;0,348766;
48;;;;;;;;;;;;;;;;;;;;;;;;;;;;;;;;;;;;;;;;;;;;;;;;1,000000;0,722519;0,722744;0,842952;0,558366;0,464353;0,000000;0,176422;0,176576;0,249780;0,000000;0,000000;0,000000;0,000000;0,000000;0,560280;0,000000;0,000000;0,558366;0,000000;0,295436;0,225410;0,000000;0,000000;0,159388;0,159415;0,159551;0,159632;0,159714;0,159848;0,558366;0,558366;0,723097;0,723251;0,318766;0,318766;0,385905;0,319636;0,319636;0,000000;0,000000;0,177650;0,000000;0,000000;0,560280;0,321788;0,321788;0,560280;0,560280;0,322783;0,322783;0,316743;0,303653;0,560280;0,323960;0,323960;0,469027;0,324411;0,324853;0,324853;0,000000;0,000000;0,126360;0,000000;0,000000;0,000000;0,000000;0,000000;0,558366;0,000000;0,000000;0,000000;0,000000;0,000000;0,000000;0,167418;0,167466;0,167513;0,167561;
49;;;;;;;;;;;;;;;;;;;;;;;;;;;;;;;;;;;;;;;;;;;;;;;;;1,000000;0,810530;0,723848;0,000000;0,525521;0,000000;0,000000;0,000000;0,000000;0,000000;0,000000;0,000000;0,000000;0,000000;0,621448;0,000000;0,000000;0,000000;0,000000;0,000000;0,286578;0,000000;0,000000;0,000000;0,000000;0,000000;0,000000;0,000000;0,000000;0,000000;0,000000;0,619601;0,619750;0,379934;0,379934;0,447073;0,380805;0,380805;0,000000;0,000000;0,000000;0,000000;0,000000;0,621448;0,382957;0,382957;0,621448;0,621448;0,383951;0,383951;0,377911;0,000000;0,621448;0,385128;0,385128;0,530196;0,385580;0,386021;0,386021;0,000000;0,000000;0,000000;0,000000;0,000000;0,000000;0,000000;0,000000;0,000000;0,000000;0,000000;0,000000;0,000000;0,000000;0,000000;0,000000;0,000000;0,000000;0,000000;
50;;;;;;;;;;;;;;;;;;;;;;;;;;;;;;;;;;;;;;;;;;;;;;;;;;1,000000;0,724065;0,000000;0,525656;0,000000;0,000000;0,000000;0,000000;0,000000;0,000000;0,000000;0,000000;0,000000;0,621583;0,000000;0,000000;0,000000;0,000000;0,000000;0,286713;0,000000;0,000000;0,000000;0,000000;0,000000;0,000000;0,000000;0,000000;0,000000;0,000000;0,619894;0,620043;0,380069;0,380069;0,447208;0,380939;0,380939;0,000000;0,000000;0,000000;0,000000;0,000000;0,621583;0,383091;0,383091;0,621583;0,621583;0,384086;0,384086;0,378046;0,000000;0,621583;0,385263;0,385263;0,530330;0,385714;0,386156;0,386156;0,000000;0,000000;0,000000;0,000000;0,000000;0,000000;0,000000;0,000000;0,000000;0,000000;0,000000;0,000000;0,000000;0,000000;0,000000;0,000000;0,000000;0,000000;0,000000;
51;;;;;;;;;;;;;;;;;;;;;;;;;;;;;;;;;;;;;;;;;;;;;;;;;;;1,000000;0,558644;0,464623;0,000000;0,176701;0,176855;0,250059;0,000000;0,000000;0,000000;0,000000;0,000000;0,560550;0,000000;0,000000;0,558644;0,000000;0,295715;0,225680;0,000000;0,000000;0,159667;0,159694;0,159830;0,159911;0,159992;0,160126;0,558644;0,558644;0,724397;0,724546;0,319037;0,319037;0,386175;0,319907;0,319907;0,000000;0,000000;0,177929;0,000000;0,000000;0,560550;0,322059;0,322059;0,560550;0,560550;0,323054;0,323054;0,317013;0,303932;0,560550;0,324230;0,324230;0,469298;0,324682;0,325123;0,325123;0,000000;0,000000;0,126639;0,000000;0,000000;0,000000;0,000000;0,000000;0,558644;0,000000;0,000000;0,000000;0,000000;0,000000;0,000000;0,167697;0,167744;0,167792;0,167840;
52;;;;;;;;;;;;;;;;;;;;;;;;;;;;;;;;;;;;;;;;;;;;;;;;;;;;1,000000;0,000000;0,000000;0,618056;0,618211;0,691415;0,000000;0,000000;0,000000;0,000000;0,000000;0,000000;0,000000;0,000000;1,000000;0,000000;0,737070;0,000000;0,000000;0,000000;0,601022;0,601049;0,601185;0,601267;0,601348;0,601482;1,000000;1,000000;0,625130;0,625230;0,000000;0,000000;0,000000;0,000000;0,000000;0,000000;0,000000;0,619285;0,000000;0,000000;0,000000;0,000000;0,000000;0,000000;0,000000;0,000000;0,000000;0,000000;0,745287;0,000000;0,000000;0,000000;0,000000;0,000000;0,000000;0,000000;0,000000;0,000000;0,567994;0,000000;0,000000;0,000000;0,000000;0,000000;1,000000;0,000000;0,000000;0,000000;0,000000;0,000000;0,000000;0,609052;0,609100;0,609148;0,609195;
53;;;;;;;;;;;;;;;;;;;;;;;;;;;;;;;;;;;;;;;;;;;;;;;;;;;;;1,000000;0,000000;0,000000;0,000000;0,000000;0,000000;0,000000;0,000000;0,000000;0,000000;0,904073;0,000000;0,000000;0,000000;0,000000;0,000000;0,569203;0,000000;0,000000;0,000000;0,000000;0,000000;0,000000;0,000000;0,000000;0,000000;0,000000;0,000000;0,000000;0,662559;0,662559;0,729698;0,663429;0,663429;0,000000;0,000000;0,000000;0,000000;0,000000;0,904073;0,665581;0,665581;0,904073;0,904073;0,666576;0,666576;0,660536;0,000000;0,904073;0,667753;0,667753;0,812820;0,668204;0,668646;0,668646;0,000000;0,000000;0,000000;0,000000;0,000000;0,000000;0,000000;0,000000;0,000000;0,000000;0,000000;0,000000;0,000000;0,000000;0,000000;0,000000;0,000000;0,000000;0,000000;
54;;;;;;;;;;;;;;;;;;;;;;;;;;;;;;;;;;;;;;;;;;;;;;;;;;;;;;1,000000;0,000000;0,000000;0,000000;0,376106;0,000000;0,000000;0,000000;0,000000;0,000000;0,603168;0,469807;0,000000;0,472086;0,000000;0,000000;0,000000;0,000000;0,000000;0,000000;0,000000;0,000000;0,000000;0,000000;0,000000;0,000000;0,000000;0,000000;0,000000;0,000000;0,379843;0,000000;0,000000;0,000000;0,000000;0,000000;0,000000;0,000000;0,000000;0,000000;0,000000;0,000000;0,000000;0,000000;0,000000;0,000000;0,000000;0,000000;0,000000;0,000000;0,000000;0,000000;0,000000;0,000000;0,000000;0,000000;0,000000;0,000000;0,485036;0,485036;0,479513;0,388696;0,000000;0,355042;0,355115;0,355188;0,471093;0,000000;0,000000;0,000000;0,000000;0,000000;0,000000;
55;;;;;;;;;;;;;;;;;;;;;;;;;;;;;;;;;;;;;;;;;;;;;;;;;;;;;;;1,000000;0,822397;0,841317;0,000000;0,000000;0,000000;0,000000;0,000000;0,000000;0,000000;0,000000;0,618056;0,000000;0,355127;0,000000;0,000000;0,000000;0,219079;0,219106;0,219242;0,219323;0,219404;0,219538;0,618056;0,618056;0,243186;0,243287;0,000000;0,000000;0,000000;0,000000;0,000000;0,000000;0,000000;0,237341;0,000000;0,000000;0,000000;0,000000;0,000000;0,000000;0,000000;0,000000;0,000000;0,000000;0,363344;0,000000;0,000000;0,000000;0,000000;0,000000;0,000000;0,000000;0,000000;0,000000;0,186051;0,000000;0,000000;0,000000;0,000000;0,000000;0,618056;0,000000;0,000000;0,000000;0,000000;0,000000;0,000000;0,227109;0,227156;0,227204;0,227252;
56;;;;;;;;;;;;;;;;;;;;;;;;;;;;;;;;;;;;;;;;;;;;;;;;;;;;;;;;1,000000;0,841568;0,000000;0,000000;0,000000;0,000000;0,000000;0,000000;0,000000;0,000000;0,618211;0,000000;0,355281;0,000000;0,000000;0,000000;0,219233;0,219260;0,219396;0,219477;0,219559;0,219693;0,618211;0,618211;0,243341;0,243441;0,000000;0,000000;0,000000;0,000000;0,000000;0,000000;0,000000;0,237495;0,000000;0,000000;0,000000;0,000000;0,000000;0,000000;0,000000;0,000000;0,000000;0,000000;0,363498;0,000000;0,000000;0,000000;0,000000;0,000000;0,000000;0,000000;0,000000;0,000000;0,186205;0,000000;0,000000;0,000000;0,000000;0,000000;0,618211;0,000000;0,000000;0,000000;0,000000;0,000000;0,000000;0,227263;0,227311;0,227358;0,227406;
57;;;;;;;;;;;;;;;;;;;;;;;;;;;;;;;;;;;;;;;;;;;;;;;;;;;;;;;;;1,000000;0,000000;0,000000;0,000000;0,000000;0,000000;0,000000;0,000000;0,000000;0,691415;0,000000;0,428485;0,000000;0,000000;0,000000;0,292437;0,292464;0,292600;0,292681;0,292763;0,292897;0,691415;0,691415;0,316545;0,316645;0,000000;0,000000;0,000000;0,000000;0,000000;0,000000;0,000000;0,310699;0,000000;0,000000;0,000000;0,000000;0,000000;0,000000;0,000000;0,000000;0,000000;0,000000;0,436702;0,000000;0,000000;0,000000;0,000000;0,000000;0,000000;0,000000;0,000000;0,000000;0,259409;0,000000;0,000000;0,000000;0,000000;0,000000;0,691415;0,000000;0,000000;0,000000;0,000000;0,000000;0,000000;0,300467;0,300515;0,300562;0,300610;
58;;;;;;;;;;;;;;;;;;;;;;;;;;;;;;;;;;;;;;;;;;;;;;;;;;;;;;;;;;1,000000;0,000000;0,000000;0,000000;0,000000;0,000000;0,530687;0,397326;0,000000;0,399604;0,000000;0,000000;0,000000;0,000000;0,000000;0,000000;0,000000;0,000000;0,000000;0,000000;0,000000;0,000000;0,000000;0,000000;0,000000;0,000000;0,307362;0,000000;0,000000;0,000000;0,000000;0,000000;0,000000;0,000000;0,000000;0,000000;0,000000;0,000000;0,000000;0,000000;0,000000;0,000000;0,000000;0,000000;0,000000;0,000000;0,000000;0,000000;0,000000;0,000000;0,000000;0,000000;0,000000;0,000000;0,412555;0,412555;0,407032;0,705939;0,000000;0,282561;0,282634;0,282707;0,398612;0,000000;0,000000;0,000000;0,000000;0,000000;0,000000;
59;;;;;;;;;;;;;;;;;;;;;;;;;;;;;;;;;;;;;;;;;;;;;;;;;;;;;;;;;;;1,000000;0,856641;0,856856;0,857068;0,000000;0,000000;0,000000;0,000000;0,000000;0,000000;0,000000;0,000000;0,000000;0,000000;0,000000;0,000000;0,000000;0,000000;0,000000;0,000000;0,000000;0,000000;0,000000;0,000000;0,000000;0,000000;0,000000;0,000000;0,362615;0,362771;0,000000;0,457639;0,457639;0,000000;0,000000;0,000000;0,000000;0,000000;0,000000;0,000000;0,000000;0,000000;0,000000;0,000000;0,000000;0,000000;0,000000;0,000000;0,000000;0,000000;0,000000;0,000000;0,000000;0,000000;0,000000;0,000000;0,000000;0,000000;0,000000;0,000000;0,000000;0,000000;0,000000;0,000000;0,000000;0,000000;0,000000;0,000000;
60;;;;;;;;;;;;;;;;;;;;;;;;;;;;;;;;;;;;;;;;;;;;;;;;;;;;;;;;;;;;1,000000;0,857068;0,857278;0,000000;0,000000;0,000000;0,000000;0,000000;0,000000;0,000000;0,000000;0,000000;0,000000;0,000000;0,000000;0,000000;0,000000;0,000000;0,000000;0,000000;0,000000;0,000000;0,000000;0,000000;0,000000;0,000000;0,000000;0,362738;0,362895;0,000000;0,457763;0,457763;0,000000;0,000000;0,000000;0,000000;0,000000;0,000000;0,000000;0,000000;0,000000;0,000000;0,000000;0,000000;0,000000;0,000000;0,000000;0,000000;0,000000;0,000000;0,000000;0,000000;0,000000;0,000000;0,000000;0,000000;0,000000;0,000000;0,000000;0,000000;0,000000;0,000000;0,000000;0,000000;0,000000;0,000000;0,000000;
61;;;;;;;;;;;;;;;;;;;;;;;;;;;;;;;;;;;;;;;;;;;;;;;;;;;;;;;;;;;;;1,000000;0,857486;0,000000;0,000000;0,000000;0,000000;0,000000;0,000000;0,000000;0,000000;0,000000;0,000000;0,000000;0,000000;0,000000;0,000000;0,000000;0,000000;0,000000;0,000000;0,000000;0,000000;0,000000;0,000000;0,000000;0,000000;0,362863;0,363019;0,000000;0,457887;0,457887;0,000000;0,000000;0,000000;0,000000;0,000000;0,000000;0,000000;0,000000;0,000000;0,000000;0,000000;0,000000;0,000000;0,000000;0,000000;0,000000;0,000000;0,000000;0,000000;0,000000;0,000000;0,000000;0,000000;0,000000;0,000000;0,000000;0,000000;0,000000;0,000000;0,000000;0,000000;0,000000;0,000000;0,000000;0,000000;
62;;;;;;;;;;;;;;;;;;;;;;;;;;;;;;;;;;;;;;;;;;;;;;;;;;;;;;;;;;;;;;1,000000;0,000000;0,000000;0,000000;0,000000;0,000000;0,000000;0,000000;0,000000;0,000000;0,000000;0,000000;0,000000;0,000000;0,000000;0,000000;0,000000;0,000000;0,000000;0,000000;0,000000;0,000000;0,000000;0,000000;0,000000;0,362987;0,363143;0,000000;0,458011;0,458011;0,000000;0,000000;0,000000;0,000000;0,000000;0,000000;0,000000;0,000000;0,000000;0,000000;0,000000;0,000000;0,000000;0,000000;0,000000;0,000000;0,000000;0,000000;0,000000;0,000000;0,000000;0,000000;0,000000;0,000000;0,000000;0,000000;0,000000;0,000000;0,000000;0,000000;0,000000;0,000000;0,000000;0,000000;0,000000;
63;;;;;;;;;;;;;;;;;;;;;;;;;;;;;;;;;;;;;;;;;;;;;;;;;;;;;;;;;;;;;;;1,000000;0,000000;0,000000;0,000000;0,000000;0,000000;0,665130;0,000000;0,000000;0,000000;0,000000;0,000000;0,000000;0,000000;0,000000;0,000000;0,000000;0,000000;0,000000;0,758486;0,758486;0,825625;0,759356;0,759356;0,000000;0,000000;0,000000;0,000000;0,000000;1,000000;0,761509;0,761509;1,000000;1,000000;0,762503;0,762503;0,756463;0,000000;1,000000;0,763680;0,763680;0,908748;0,764132;0,764573;0,764573;0,000000;0,000000;0,000000;0,000000;0,000000;0,000000;0,000000;0,000000;0,000000;0,000000;0,000000;0,000000;0,000000;0,000000;0,000000;0,000000;0,000000;0,000000;0,000000;
64;;;;;;;;;;;;;;;;;;;;;;;;;;;;;;;;;;;;;;;;;;;;;;;;;;;;;;;;;;;;;;;;1,000000;0,624389;0,000000;0,626667;0,000000;0,000000;0,000000;0,000000;0,000000;0,000000;0,000000;0,000000;0,000000;0,000000;0,000000;0,000000;0,000000;0,000000;0,000000;0,000000;0,534425;0,000000;0,000000;0,000000;0,000000;0,000000;0,000000;0,000000;0,000000;0,000000;0,000000;0,000000;0,000000;0,000000;0,000000;0,000000;0,000000;0,000000;0,000000;0,000000;0,000000;0,000000;0,000000;0,000000;0,000000;0,000000;0,000000;0,000000;0,639617;0,639617;0,634095;0,543278;0,000000;0,509623;0,509696;0,509769;0,625674;0,000000;0,000000;0,000000;0,000000;0,000000;0,000000;
65;;;;;;;;;;;;;;;;;;;;;;;;;;;;;;;;;;;;;;;;;;;;;;;;;;;;;;;;;;;;;;;;;1,000000;0,000000;0,493306;0,000000;0,000000;0,000000;0,000000;0,000000;0,000000;0,000000;0,000000;0,000000;0,000000;0,000000;0,000000;0,000000;0,000000;0,000000;0,000000;0,401064;0,000000;0,000000;0,000000;0,000000;0,000000;0,000000;0,000000;0,000000;0,000000;0,000000;0,000000;0,000000;0,000000;0,000000;0,000000;0,000000;0,000000;0,000000;0,000000;0,000000;0,000000;0,000000;0,000000;0,000000;0,000000;0,000000;0,000000;0,506257;0,506257;0,500734;0,409917;0,000000;0,376263;0,376336;0,376409;0,492314;0,000000;0,000000;0,000000;0,000000;0,000000;0,000000;
66;;;;;;;;;;;;;;;;;;;;;;;;;;;;;;;;;;;;;;;;;;;;;;;;;;;;;;;;;;;;;;;;;;1,000000;0,000000;0,737070;0,000000;0,000000;0,000000;0,601022;0,601049;0,601185;0,601267;0,601348;0,601482;1,000000;1,000000;0,625130;0,625230;0,000000;0,000000;0,000000;0,000000;0,000000;0,000000;0,000000;0,619285;0,000000;0,000000;0,000000;0,000000;0,000000;0,000000;0,000000;0,000000;0,000000;0,000000;0,745287;0,000000;0,000000;0,000000;0,000000;0,000000;0,000000;0,000000;0,000000;0,000000;0,567994;0,000000;0,000000;0,000000;0,000000;0,000000;1,000000;0,000000;0,000000;0,000000;0,000000;0,000000;0,000000;0,609052;0,609100;0,609148;0,609195;
67;;;;;;;;;;;;;;;;;;;;;;;;;;;;;;;;;;;;;;;;;;;;;;;;;;;;;;;;;;;;;;;;;;;1,000000;0,000000;0,000000;0,000000;0,000000;0,000000;0,000000;0,000000;0,000000;0,000000;0,000000;0,000000;0,000000;0,000000;0,000000;0,000000;0,000000;0,403342;0,000000;0,000000;0,000000;0,000000;0,000000;0,000000;0,000000;0,000000;0,000000;0,000000;0,000000;0,000000;0,000000;0,000000;0,000000;0,000000;0,000000;0,000000;0,000000;0,000000;0,000000;0,000000;0,000000;0,000000;0,000000;0,000000;0,000000;0,508535;0,508535;0,503012;0,412195;0,000000;0,378541;0,378614;0,378687;0,494592;0,000000;0,000000;0,000000;0,000000;0,000000;0,000000;
68;;;;;;;;;;;;;;;;;;;;;;;;;;;;;;;;;;;;;;;;;;;;;;;;;;;;;;;;;;;;;;;;;;;;1,000000;0,000000;0,000000;0,000000;0,338093;0,338120;0,338256;0,338337;0,338418;0,338552;0,737070;0,737070;0,362200;0,362301;0,000000;0,000000;0,000000;0,000000;0,000000;0,000000;0,000000;0,356355;0,000000;0,000000;0,000000;0,000000;0,000000;0,000000;0,000000;0,000000;0,000000;0,000000;0,482358;0,000000;0,000000;0,000000;0,000000;0,000000;0,000000;0,000000;0,000000;0,000000;0,305065;0,000000;0,000000;0,000000;0,000000;0,000000;0,737070;0,000000;0,000000;0,000000;0,000000;0,000000;0,000000;0,346122;0,346170;0,346218;0,346266;
69;;;;;;;;;;;;;;;;;;;;;;;;;;;;;;;;;;;;;;;;;;;;;;;;;;;;;;;;;;;;;;;;;;;;;1,000000;0,000000;0,000000;0,000000;0,000000;0,000000;0,000000;0,000000;0,000000;0,000000;0,000000;0,000000;0,000000;0,423616;0,423616;0,490755;0,424486;0,424486;0,000000;0,000000;0,000000;0,000000;0,000000;0,665130;0,426638;0,426638;0,665130;0,665130;0,427633;0,427633;0,421592;0,000000;0,665130;0,428810;0,428810;0,573877;0,429261;0,429703;0,429703;0,000000;0,000000;0,000000;0,000000;0,000000;0,000000;0,000000;0,000000;0,000000;0,000000;0,000000;0,000000;0,000000;0,000000;0,000000;0,000000;0,000000;0,000000;0,000000;
70;;;;;;;;;;;;;;;;;;;;;;;;;;;;;;;;;;;;;;;;;;;;;;;;;;;;;;;;;;;;;;;;;;;;;;1,000000;0,000000;0,000000;0,000000;0,000000;0,000000;0,000000;0,000000;0,000000;0,000000;0,000000;0,000000;0,000000;0,000000;0,000000;0,000000;0,000000;0,000000;0,000000;0,000000;0,000000;0,000000;0,000000;0,000000;0,000000;0,000000;0,000000;0,000000;0,000000;0,000000;0,000000;0,000000;0,000000;0,000000;0,000000;0,000000;0,000000;0,000000;0,000000;0,000000;0,000000;0,000000;0,000000;0,000000;0,000000;0,000000;0,000000;0,000000;0,000000;0,000000;0,000000;0,000000;0,000000;0,000000;0,000000;0,000000;0,000000;
71;;;;;;;;;;;;;;;;;;;;;;;;;;;;;;;;;;;;;;;;;;;;;;;;;;;;;;;;;;;;;;;;;;;;;;;1,000000;0,000000;0,000000;0,000000;0,000000;0,000000;0,000000;0,000000;0,000000;0,000000;0,000000;0,000000;0,000000;0,000000;0,000000;0,000000;0,000000;0,000000;0,000000;0,000000;0,000000;0,000000;0,000000;0,000000;0,000000;0,000000;0,000000;0,000000;0,000000;0,000000;0,000000;0,000000;0,000000;0,000000;0,000000;0,000000;0,000000;0,000000;0,000000;0,000000;0,000000;0,000000;0,000000;0,000000;0,000000;0,000000;0,000000;0,000000;0,000000;0,000000;0,000000;0,000000;0,000000;0,000000;0,000000;0,000000;
72;;;;;;;;;;;;;;;;;;;;;;;;;;;;;;;;;;;;;;;;;;;;;;;;;;;;;;;;;;;;;;;;;;;;;;;;1,000000;0,857184;0,866719;0,866877;0,867033;0,857518;0,601022;0,601022;0,226152;0,226253;0,000000;0,000000;0,000000;0,000000;0,000000;0,000000;0,000000;0,220307;0,000000;0,000000;0,000000;0,000000;0,000000;0,000000;0,000000;0,000000;0,000000;0,000000;0,346310;0,000000;0,000000;0,000000;0,000000;0,000000;0,000000;0,000000;0,000000;0,000000;0,169017;0,000000;0,000000;0,000000;0,000000;0,000000;0,601022;0,000000;0,000000;0,000000;0,000000;0,000000;0,000000;0,210075;0,210122;0,210170;0,210218;
73;;;;;;;;;;;;;;;;;;;;;;;;;;;;;;;;;;;;;;;;;;;;;;;;;;;;;;;;;;;;;;;;;;;;;;;;;1,000000;0,857518;0,857682;0,857845;1,000000;0,601049;0,601049;0,226179;0,226280;0,000000;0,000000;0,000000;0,000000;0,000000;0,000000;0,000000;0,220334;0,000000;0,000000;0,000000;0,000000;0,000000;0,000000;0,000000;0,000000;0,000000;0,000000;0,346337;0,000000;0,000000;0,000000;0,000000;0,000000;0,000000;0,000000;0,000000;0,000000;0,169044;0,000000;0,000000;0,000000;0,000000;0,000000;0,601049;0,000000;0,000000;0,000000;0,000000;0,000000;0,000000;0,210102;0,210149;0,210197;0,210245;
74;;;;;;;;;;;;;;;;;;;;;;;;;;;;;;;;;;;;;;;;;;;;;;;;;;;;;;;;;;;;;;;;;;;;;;;;;;1,000000;0,867188;0,867342;0,857845;0,601185;0,601185;0,226315;0,226416;0,000000;0,000000;0,000000;0,000000;0,000000;0,000000;0,000000;0,220470;0,000000;0,000000;0,000000;0,000000;0,000000;0,000000;0,000000;0,000000;0,000000;0,000000;0,346473;0,000000;0,000000;0,000000;0,000000;0,000000;0,000000;0,000000;0,000000;0,000000;0,169180;0,000000;0,000000;0,000000;0,000000;0,000000;0,601185;0,000000;0,000000;0,000000;0,000000;0,000000;0,000000;0,210238;0,210285;0,210333;0,210381;
75;;;;;;;;;;;;;;;;;;;;;;;;;;;;;;;;;;;;;;;;;;;;;;;;;;;;;;;;;;;;;;;;;;;;;;;;;;;1,000000;0,867495;0,858007;0,601267;0,601267;0,226397;0,226497;0,000000;0,000000;0,000000;0,000000;0,000000;0,000000;0,000000;0,220551;0,000000;0,000000;0,000000;0,000000;0,000000;0,000000;0,000000;0,000000;0,000000;0,000000;0,346554;0,000000;0,000000;0,000000;0,000000;0,000000;0,000000;0,000000;0,000000;0,000000;0,169261;0,000000;0,000000;0,000000;0,000000;0,000000;0,601267;0,000000;0,000000;0,000000;0,000000;0,000000;0,000000;0,210319;0,210367;0,210415;0,210462;
76;;;;;;;;;;;;;;;;;;;;;;;;;;;;;;;;;;;;;;;;;;;;;;;;;;;;;;;;;;;;;;;;;;;;;;;;;;;;1,000000;0,858167;0,601348;0,601348;0,226478;0,226578;0,000000;0,000000;0,000000;0,000000;0,000000;0,000000;0,000000;0,220633;0,000000;0,000000;0,000000;0,000000;0,000000;0,000000;0,000000;0,000000;0,000000;0,000000;0,346635;0,000000;0,000000;0,000000;0,000000;0,000000;0,000000;0,000000;0,000000;0,000000;0,169342;0,000000;0,000000;0,000000;0,000000;0,000000;0,601348;0,000000;0,000000;0,000000;0,000000;0,000000;0,000000;0,210400;0,210448;0,210496;0,210543;
77;;;;;;;;;;;;;;;;;;;;;;;;;;;;;;;;;;;;;;;;;;;;;;;;;;;;;;;;;;;;;;;;;;;;;;;;;;;;;1,000000;0,601482;0,601482;0,226612;0,226712;0,000000;0,000000;0,000000;0,000000;0,000000;0,000000;0,000000;0,220767;0,000000;0,000000;0,000000;0,000000;0,000000;0,000000;0,000000;0,000000;0,000000;0,000000;0,346769;0,000000;0,000000;0,000000;0,000000;0,000000;0,000000;0,000000;0,000000;0,000000;0,169476;0,000000;0,000000;0,000000;0,000000;0,000000;0,601482;0,000000;0,000000;0,000000;0,000000;0,000000;0,000000;0,210534;0,210582;0,210630;0,210677;
78;;;;;;;;;;;;;;;;;;;;;;;;;;;;;;;;;;;;;;;;;;;;;;;;;;;;;;;;;;;;;;;;;;;;;;;;;;;;;;1,000000;1,000000;0,625130;0,625230;0,000000;0,000000;0,000000;0,000000;0,000000;0,000000;0,000000;0,619285;0,000000;0,000000;0,000000;0,000000;0,000000;0,000000;0,000000;0,000000;0,000000;0,000000;0,745287;0,000000;0,000000;0,000000;0,000000;0,000000;0,000000;0,000000;0,000000;0,000000;0,567994;0,000000;0,000000;0,000000;0,000000;0,000000;1,000000;0,000000;0,000000;0,000000;0,000000;0,000000;0,000000;0,609052;0,609100;0,609148;0,609195;
79;;;;;;;;;;;;;;;;;;;;;;;;;;;;;;;;;;;;;;;;;;;;;;;;;;;;;;;;;;;;;;;;;;;;;;;;;;;;;;;1,000000;0,625130;0,625230;0,000000;0,000000;0,000000;0,000000;0,000000;0,000000;0,000000;0,619285;0,000000;0,000000;0,000000;0,000000;0,000000;0,000000;0,000000;0,000000;0,000000;0,000000;0,745287;0,000000;0,000000;0,000000;0,000000;0,000000;0,000000;0,000000;0,000000;0,000000;0,567994;0,000000;0,000000;0,000000;0,000000;0,000000;1,000000;0,000000;0,000000;0,000000;0,000000;0,000000;0,000000;0,609052;0,609100;0,609148;0,609195;
80;;;;;;;;;;;;;;;;;;;;;;;;;;;;;;;;;;;;;;;;;;;;;;;;;;;;;;;;;;;;;;;;;;;;;;;;;;;;;;;;1,000000;0,824461;0,000000;0,000000;0,000000;0,000000;0,000000;0,000000;0,000000;0,244415;0,000000;0,000000;0,000000;0,000000;0,000000;0,000000;0,000000;0,000000;0,000000;0,000000;0,370417;0,000000;0,000000;0,000000;0,000000;0,000000;0,000000;0,000000;0,000000;0,000000;0,193124;0,000000;0,000000;0,000000;0,000000;0,000000;0,625130;0,000000;0,000000;0,000000;0,000000;0,000000;0,000000;0,234182;0,234230;0,234278;0,234325;
81;;;;;;;;;;;;;;;;;;;;;;;;;;;;;;;;;;;;;;;;;;;;;;;;;;;;;;;;;;;;;;;;;;;;;;;;;;;;;;;;;1,000000;0,000000;0,000000;0,000000;0,000000;0,000000;0,000000;0,000000;0,244515;0,000000;0,000000;0,000000;0,000000;0,000000;0,000000;0,000000;0,000000;0,000000;0,000000;0,370518;0,000000;0,000000;0,000000;0,000000;0,000000;0,000000;0,000000;0,000000;0,000000;0,193225;0,000000;0,000000;0,000000;0,000000;0,000000;0,625230;0,000000;0,000000;0,000000;0,000000;0,000000;0,000000;0,234282;0,234330;0,234378;0,234426;
82;;;;;;;;;;;;;;;;;;;;;;;;;;;;;;;;;;;;;;;;;;;;;;;;;;;;;;;;;;;;;;;;;;;;;;;;;;;;;;;;;;1,000000;0,516972;0,584111;0,517843;0,517843;0,000000;0,000000;0,000000;0,000000;0,000000;0,758486;0,519995;0,519995;0,758486;0,758486;0,520989;0,520989;0,514949;0,000000;0,758486;0,522166;0,522166;0,667234;0,522618;0,523059;0,523059;0,000000;0,000000;0,000000;0,000000;0,000000;0,000000;0,000000;0,000000;0,000000;0,000000;0,000000;0,000000;0,000000;0,000000;0,000000;0,000000;0,000000;0,000000;0,000000;
83;;;;;;;;;;;;;;;;;;;;;;;;;;;;;;;;;;;;;;;;;;;;;;;;;;;;;;;;;;;;;;;;;;;;;;;;;;;;;;;;;;;1,000000;0,584111;0,517843;0,517843;0,000000;0,000000;0,000000;0,000000;0,000000;0,758486;0,519995;0,519995;0,758486;0,758486;0,520989;0,520989;0,514949;0,000000;0,758486;0,522166;0,522166;0,667234;0,522618;0,523059;0,523059;0,000000;0,000000;0,000000;0,000000;0,000000;0,000000;0,000000;0,000000;0,000000;0,000000;0,000000;0,000000;0,000000;0,000000;0,000000;0,000000;0,000000;0,000000;0,000000;
84;;;;;;;;;;;;;;;;;;;;;;;;;;;;;;;;;;;;;;;;;;;;;;;;;;;;;;;;;;;;;;;;;;;;;;;;;;;;;;;;;;;;1,000000;0,584981;0,584981;0,000000;0,000000;0,000000;0,000000;0,000000;0,825625;0,587133;0,587133;0,825625;0,825625;0,588128;0,588128;0,582088;0,000000;0,825625;0,589305;0,589305;0,734372;0,589756;0,590198;0,590198;0,000000;0,000000;0,000000;0,000000;0,416293;0,416293;0,410770;0,319953;0,000000;0,286299;0,286372;0,286445;0,402350;0,000000;0,000000;0,000000;0,000000;0,000000;0,000000;
85;;;;;;;;;;;;;;;;;;;;;;;;;;;;;;;;;;;;;;;;;;;;;;;;;;;;;;;;;;;;;;;;;;;;;;;;;;;;;;;;;;;;;1,000000;0,518713;0,000000;0,000000;0,000000;0,000000;0,000000;0,759356;0,520865;0,520865;0,759356;0,759356;0,521860;0,521860;0,515819;0,000000;0,759356;0,523036;0,523036;0,668104;0,523488;0,523929;0,523929;0,000000;0,000000;0,000000;0,000000;0,000000;0,000000;0,000000;0,000000;0,000000;0,000000;0,000000;0,000000;0,000000;0,000000;0,000000;0,000000;0,000000;0,000000;0,000000;
86;;;;;;;;;;;;;;;;;;;;;;;;;;;;;;;;;;;;;;;;;;;;;;;;;;;;;;;;;;;;;;;;;;;;;;;;;;;;;;;;;;;;;;1,000000;0,000000;0,000000;0,000000;0,000000;0,000000;0,759356;0,520865;0,520865;0,759356;0,759356;0,521860;0,521860;0,515819;0,000000;0,759356;0,523036;0,523036;0,668104;0,523488;0,523929;0,523929;0,000000;0,000000;0,000000;0,000000;0,000000;0,000000;0,000000;0,000000;0,000000;0,000000;0,000000;0,000000;0,000000;0,000000;0,000000;0,000000;0,000000;0,000000;0,000000;
87;;;;;;;;;;;;;;;;;;;;;;;;;;;;;;;;;;;;;;;;;;;;;;;;;;;;;;;;;;;;;;;;;;;;;;;;;;;;;;;;;;;;;;;1,000000;0,718682;0,000000;0,504971;0,504971;0,000000;0,000000;0,000000;0,000000;0,000000;0,000000;0,000000;0,000000;0,000000;0,000000;0,000000;0,000000;0,000000;0,000000;0,000000;0,000000;0,000000;0,000000;0,000000;0,000000;0,000000;0,000000;0,000000;0,335556;0,000000;0,000000;0,000000;0,000000;0,000000;0,434188;0,434188;0,000000;0,000000;0,000000;0,000000;
88;;;;;;;;;;;;;;;;;;;;;;;;;;;;;;;;;;;;;;;;;;;;;;;;;;;;;;;;;;;;;;;;;;;;;;;;;;;;;;;;;;;;;;;;1,000000;0,000000;0,505127;0,505127;0,000000;0,000000;0,000000;0,000000;0,000000;0,000000;0,000000;0,000000;0,000000;0,000000;0,000000;0,000000;0,000000;0,000000;0,000000;0,000000;0,000000;0,000000;0,000000;0,000000;0,000000;0,000000;0,000000;0,335663;0,000000;0,000000;0,000000;0,000000;0,000000;0,434295;0,434295;0,000000;0,000000;0,000000;0,000000;
89;;;;;;;;;;;;;;;;;;;;;;;;;;;;;;;;;;;;;;;;;;;;;;;;;;;;;;;;;;;;;;;;;;;;;;;;;;;;;;;;;;;;;;;;;1,000000;0,000000;0,000000;0,000000;0,000000;0,000000;0,000000;0,000000;0,000000;0,000000;0,000000;0,768870;0,000000;0,000000;0,000000;0,000000;0,000000;0,000000;0,000000;0,000000;0,000000;0,187279;0,000000;0,000000;0,000000;0,000000;0,000000;0,619285;0,000000;0,000000;0,000000;0,000000;0,000000;0,000000;0,228337;0,228385;0,228432;0,228480;
90;;;;;;;;;;;;;;;;;;;;;;;;;;;;;;;;;;;;;;;;;;;;;;;;;;;;;;;;;;;;;;;;;;;;;;;;;;;;;;;;;;;;;;;;;;1,000000;0,599995;0,000000;0,000000;0,000000;0,000000;0,000000;0,000000;0,000000;0,000000;0,000000;0,000000;0,000000;0,000000;0,000000;0,000000;0,000000;0,000000;0,000000;0,000000;0,000000;0,000000;0,000000;0,000000;0,000000;0,000000;0,000000;0,000000;0,000000;0,000000;0,000000;0,000000;0,000000;0,000000;0,000000;0,000000;0,000000;
91;;;;;;;;;;;;;;;;;;;;;;;;;;;;;;;;;;;;;;;;;;;;;;;;;;;;;;;;;;;;;;;;;;;;;;;;;;;;;;;;;;;;;;;;;;;1,000000;0,000000;0,000000;0,000000;0,000000;0,000000;0,000000;0,000000;0,000000;0,000000;0,000000;0,000000;0,000000;0,000000;0,000000;0,000000;0,000000;0,000000;0,000000;0,000000;0,000000;0,000000;0,000000;0,000000;0,000000;0,000000;0,000000;0,000000;0,000000;0,000000;0,000000;0,000000;0,000000;0,000000;0,000000;0,000000;
92;;;;;;;;;;;;;;;;;;;;;;;;;;;;;;;;;;;;;;;;;;;;;;;;;;;;;;;;;;;;;;;;;;;;;;;;;;;;;;;;;;;;;;;;;;;;1,000000;0,761509;0,761509;1,000000;1,000000;0,762503;0,762503;0,756463;0,000000;1,000000;0,763680;0,763680;0,908748;0,764132;0,764573;0,764573;0,000000;0,000000;0,000000;0,000000;0,000000;0,000000;0,000000;0,000000;0,000000;0,000000;0,000000;0,000000;0,000000;0,000000;0,000000;0,000000;0,000000;0,000000;0,000000;
93;;;;;;;;;;;;;;;;;;;;;;;;;;;;;;;;;;;;;;;;;;;;;;;;;;;;;;;;;;;;;;;;;;;;;;;;;;;;;;;;;;;;;;;;;;;;;1,000000;0,523017;0,761509;0,761509;0,524012;0,524012;0,517971;0,000000;0,761509;0,525188;0,525188;0,670256;0,525640;0,526081;0,526081;0,000000;0,000000;0,000000;0,000000;0,000000;0,000000;0,000000;0,000000;0,000000;0,000000;0,000000;0,000000;0,000000;0,000000;0,000000;0,000000;0,000000;0,000000;0,000000;
94;;;;;;;;;;;;;;;;;;;;;;;;;;;;;;;;;;;;;;;;;;;;;;;;;;;;;;;;;;;;;;;;;;;;;;;;;;;;;;;;;;;;;;;;;;;;;;1,000000;0,761509;0,761509;0,524012;0,524012;0,517971;0,000000;0,761509;0,525188;0,525188;0,670256;0,525640;0,526081;0,526081;0,000000;0,000000;0,000000;0,000000;0,000000;0,000000;0,000000;0,000000;0,000000;0,000000;0,000000;0,000000;0,000000;0,000000;0,000000;0,000000;0,000000;0,000000;0,000000;
95;;;;;;;;;;;;;;;;;;;;;;;;;;;;;;;;;;;;;;;;;;;;;;;;;;;;;;;;;;;;;;;;;;;;;;;;;;;;;;;;;;;;;;;;;;;;;;;1,000000;1,000000;0,762503;0,762503;0,756463;0,000000;1,000000;0,763680;0,763680;0,908748;0,764132;0,764573;0,764573;0,000000;0,000000;0,000000;0,000000;0,000000;0,000000;0,000000;0,000000;0,000000;0,000000;0,000000;0,000000;0,000000;0,000000;0,000000;0,000000;0,000000;0,000000;0,000000;
96;;;;;;;;;;;;;;;;;;;;;;;;;;;;;;;;;;;;;;;;;;;;;;;;;;;;;;;;;;;;;;;;;;;;;;;;;;;;;;;;;;;;;;;;;;;;;;;;1,000000;0,762503;0,762503;0,756463;0,000000;1,000000;0,763680;0,763680;0,908748;0,764132;0,764573;0,764573;0,000000;0,000000;0,000000;0,000000;0,000000;0,000000;0,000000;0,000000;0,000000;0,000000;0,000000;0,000000;0,000000;0,000000;0,000000;0,000000;0,000000;0,000000;0,000000;
97;;;;;;;;;;;;;;;;;;;;;;;;;;;;;;;;;;;;;;;;;;;;;;;;;;;;;;;;;;;;;;;;;;;;;;;;;;;;;;;;;;;;;;;;;;;;;;;;;1,000000;0,525007;0,518966;0,000000;0,762503;0,526183;0,526183;0,671251;0,526635;0,527076;0,527076;0,000000;0,000000;0,000000;0,000000;0,000000;0,000000;0,000000;0,000000;0,000000;0,000000;0,000000;0,000000;0,000000;0,000000;0,000000;0,000000;0,000000;0,000000;0,000000;
98;;;;;;;;;;;;;;;;;;;;;;;;;;;;;;;;;;;;;;;;;;;;;;;;;;;;;;;;;;;;;;;;;;;;;;;;;;;;;;;;;;;;;;;;;;;;;;;;;;1,000000;0,518966;0,000000;0,762503;0,526183;0,526183;0,671251;0,526635;0,527076;0,527076;0,000000;0,000000;0,000000;0,000000;0,000000;0,000000;0,000000;0,000000;0,000000;0,000000;0,000000;0,000000;0,000000;0,000000;0,000000;0,000000;0,000000;0,000000;0,000000;
99;;;;;;;;;;;;;;;;;;;;;;;;;;;;;;;;;;;;;;;;;;;;;;;;;;;;;;;;;;;;;;;;;;;;;;;;;;;;;;;;;;;;;;;;;;;;;;;;;;;1,000000;0,000000;0,756463;0,520143;0,520143;0,665210;0,520594;0,521036;0,521036;0,000000;0,000000;0,000000;0,000000;0,000000;0,000000;0,000000;0,000000;0,000000;0,000000;0,000000;0,000000;0,000000;0,000000;0,000000;0,000000;0,000000;0,000000;0,000000;
100;;;;;;;;;;;;;;;;;;;;;;;;;;;;;;;;;;;;;;;;;;;;;;;;;;;;;;;;;;;;;;;;;;;;;;;;;;;;;;;;;;;;;;;;;;;;;;;;;;;;1,000000;0,000000;0,000000;0,000000;0,000000;0,000000;0,000000;0,000000;0,000000;0,000000;0,313282;0,000000;0,000000;0,000000;0,000000;0,000000;0,745287;0,000000;0,000000;0,000000;0,000000;0,000000;0,000000;0,354340;0,354387;0,354435;0,354483;
101;;;;;;;;;;;;;;;;;;;;;;;;;;;;;;;;;;;;;;;;;;;;;;;;;;;;;;;;;;;;;;;;;;;;;;;;;;;;;;;;;;;;;;;;;;;;;;;;;;;;;1,000000;0,763680;0,763680;0,908748;0,764132;0,764573;0,764573;0,000000;0,000000;0,000000;0,000000;0,000000;0,000000;0,000000;0,000000;0,000000;0,000000;0,000000;0,000000;0,000000;0,000000;0,000000;0,000000;0,000000;0,000000;0,000000;
102;;;;;;;;;;;;;;;;;;;;;;;;;;;;;;;;;;;;;;;;;;;;;;;;;;;;;;;;;;;;;;;;;;;;;;;;;;;;;;;;;;;;;;;;;;;;;;;;;;;;;;1,000000;0,527360;0,672427;0,527811;0,528253;0,528253;0,000000;0,000000;0,000000;0,000000;0,000000;0,000000;0,000000;0,000000;0,000000;0,000000;0,000000;0,000000;0,000000;0,000000;0,000000;0,000000;0,000000;0,000000;0,000000;
103;;;;;;;;;;;;;;;;;;;;;;;;;;;;;;;;;;;;;;;;;;;;;;;;;;;;;;;;;;;;;;;;;;;;;;;;;;;;;;;;;;;;;;;;;;;;;;;;;;;;;;;1,000000;0,672427;0,527811;0,528253;0,528253;0,000000;0,000000;0,000000;0,000000;0,000000;0,000000;0,000000;0,000000;0,000000;0,000000;0,000000;0,000000;0,000000;0,000000;0,000000;0,000000;0,000000;0,000000;0,000000;
104;;;;;;;;;;;;;;;;;;;;;;;;;;;;;;;;;;;;;;;;;;;;;;;;;;;;;;;;;;;;;;;;;;;;;;;;;;;;;;;;;;;;;;;;;;;;;;;;;;;;;;;;1,000000;0,672879;0,673320;0,673320;0,000000;0,000000;0,000000;0,000000;0,000000;0,000000;0,000000;0,000000;0,000000;0,000000;0,000000;0,000000;0,000000;0,000000;0,000000;0,000000;0,000000;0,000000;0,000000;
105;;;;;;;;;;;;;;;;;;;;;;;;;;;;;;;;;;;;;;;;;;;;;;;;;;;;;;;;;;;;;;;;;;;;;;;;;;;;;;;;;;;;;;;;;;;;;;;;;;;;;;;;;1,000000;0,528704;0,528704;0,000000;0,000000;0,000000;0,000000;0,000000;0,000000;0,000000;0,000000;0,000000;0,000000;0,000000;0,000000;0,000000;0,000000;0,000000;0,000000;0,000000;0,000000;0,000000;
106;;;;;;;;;;;;;;;;;;;;;;;;;;;;;;;;;;;;;;;;;;;;;;;;;;;;;;;;;;;;;;;;;;;;;;;;;;;;;;;;;;;;;;;;;;;;;;;;;;;;;;;;;;1,000000;0,529146;0,000000;0,000000;0,000000;0,000000;0,000000;0,000000;0,000000;0,000000;0,000000;0,000000;0,000000;0,000000;0,000000;0,000000;0,000000;0,000000;0,000000;0,000000;0,000000;
107;;;;;;;;;;;;;;;;;;;;;;;;;;;;;;;;;;;;;;;;;;;;;;;;;;;;;;;;;;;;;;;;;;;;;;;;;;;;;;;;;;;;;;;;;;;;;;;;;;;;;;;;;;;1,000000;0,000000;0,000000;0,000000;0,000000;0,000000;0,000000;0,000000;0,000000;0,000000;0,000000;0,000000;0,000000;0,000000;0,000000;0,000000;0,000000;0,000000;0,000000;0,000000;
108;;;;;;;;;;;;;;;;;;;;;;;;;;;;;;;;;;;;;;;;;;;;;;;;;;;;;;;;;;;;;;;;;;;;;;;;;;;;;;;;;;;;;;;;;;;;;;;;;;;;;;;;;;;;1,000000;0,831734;0,677455;0,831972;0,000000;0,000000;0,000000;0,000000;0,000000;0,000000;0,000000;0,000000;0,000000;0,000000;0,000000;0,408941;0,409025;0,409108;0,409192;
109;;;;;;;;;;;;;;;;;;;;;;;;;;;;;;;;;;;;;;;;;;;;;;;;;;;;;;;;;;;;;;;;;;;;;;;;;;;;;;;;;;;;;;;;;;;;;;;;;;;;;;;;;;;;;1,000000;0,677525;0,832090;0,000000;0,000000;0,000000;0,000000;0,000000;0,000000;0,000000;0,000000;0,000000;0,000000;0,000000;0,408993;0,409077;0,409161;0,409244;
110;;;;;;;;;;;;;;;;;;;;;;;;;;;;;;;;;;;;;;;;;;;;;;;;;;;;;;;;;;;;;;;;;;;;;;;;;;;;;;;;;;;;;;;;;;;;;;;;;;;;;;;;;;;;;;1,000000;0,677662;0,000000;0,000000;0,000000;0,000000;0,567994;0,000000;0,000000;0,000000;0,000000;0,000000;0,000000;0,780955;0,781015;0,781074;0,781133;
111;;;;;;;;;;;;;;;;;;;;;;;;;;;;;;;;;;;;;;;;;;;;;;;;;;;;;;;;;;;;;;;;;;;;;;;;;;;;;;;;;;;;;;;;;;;;;;;;;;;;;;;;;;;;;;;1,000000;0,000000;0,000000;0,000000;0,000000;0,000000;0,000000;0,000000;0,000000;0,000000;0,000000;0,000000;0,409100;0,409184;0,409268;0,409351;
112;;;;;;;;;;;;;;;;;;;;;;;;;;;;;;;;;;;;;;;;;;;;;;;;;;;;;;;;;;;;;;;;;;;;;;;;;;;;;;;;;;;;;;;;;;;;;;;;;;;;;;;;;;;;;;;;1,000000;0,521485;0,515963;0,425146;0,000000;0,391491;0,391564;0,391637;0,507542;0,000000;0,000000;0,000000;0,000000;0,000000;0,000000;
113;;;;;;;;;;;;;;;;;;;;;;;;;;;;;;;;;;;;;;;;;;;;;;;;;;;;;;;;;;;;;;;;;;;;;;;;;;;;;;;;;;;;;;;;;;;;;;;;;;;;;;;;;;;;;;;;;1,000000;0,515963;0,425146;0,000000;0,391491;0,391564;0,391637;0,507542;0,000000;0,000000;0,000000;0,000000;0,000000;0,000000;
114;;;;;;;;;;;;;;;;;;;;;;;;;;;;;;;;;;;;;;;;;;;;;;;;;;;;;;;;;;;;;;;;;;;;;;;;;;;;;;;;;;;;;;;;;;;;;;;;;;;;;;;;;;;;;;;;;;1,000000;0,419623;0,000000;0,385969;0,386042;0,386115;0,502020;0,000000;0,000000;0,000000;0,000000;0,000000;0,000000;
115;;;;;;;;;;;;;;;;;;;;;;;;;;;;;;;;;;;;;;;;;;;;;;;;;;;;;;;;;;;;;;;;;;;;;;;;;;;;;;;;;;;;;;;;;;;;;;;;;;;;;;;;;;;;;;;;;;;1,000000;0,000000;0,295152;0,295225;0,295298;0,411203;0,432350;0,432350;0,000000;0,000000;0,000000;0,000000;
116;;;;;;;;;;;;;;;;;;;;;;;;;;;;;;;;;;;;;;;;;;;;;;;;;;;;;;;;;;;;;;;;;;;;;;;;;;;;;;;;;;;;;;;;;;;;;;;;;;;;;;;;;;;;;;;;;;;;1,000000;0,000000;0,000000;0,000000;0,000000;0,000000;0,000000;0,609052;0,609100;0,609148;0,609195;
117;;;;;;;;;;;;;;;;;;;;;;;;;;;;;;;;;;;;;;;;;;;;;;;;;;;;;;;;;;;;;;;;;;;;;;;;;;;;;;;;;;;;;;;;;;;;;;;;;;;;;;;;;;;;;;;;;;;;;1,000000;0,852786;0,852883;0,377549;0,000000;0,000000;0,000000;0,000000;0,000000;0,000000;
118;;;;;;;;;;;;;;;;;;;;;;;;;;;;;;;;;;;;;;;;;;;;;;;;;;;;;;;;;;;;;;;;;;;;;;;;;;;;;;;;;;;;;;;;;;;;;;;;;;;;;;;;;;;;;;;;;;;;;;1,000000;0,852980;0,377622;0,000000;0,000000;0,000000;0,000000;0,000000;0,000000;
119;;;;;;;;;;;;;;;;;;;;;;;;;;;;;;;;;;;;;;;;;;;;;;;;;;;;;;;;;;;;;;;;;;;;;;;;;;;;;;;;;;;;;;;;;;;;;;;;;;;;;;;;;;;;;;;;;;;;;;;1,000000;0,377694;0,000000;0,000000;0,000000;0,000000;0,000000;0,000000;
120;;;;;;;;;;;;;;;;;;;;;;;;;;;;;;;;;;;;;;;;;;;;;;;;;;;;;;;;;;;;;;;;;;;;;;;;;;;;;;;;;;;;;;;;;;;;;;;;;;;;;;;;;;;;;;;;;;;;;;;;1,000000;0,000000;0,000000;0,000000;0,000000;0,000000;0,000000;
121;;;;;;;;;;;;;;;;;;;;;;;;;;;;;;;;;;;;;;;;;;;;;;;;;;;;;;;;;;;;;;;;;;;;;;;;;;;;;;;;;;;;;;;;;;;;;;;;;;;;;;;;;;;;;;;;;;;;;;;;;1,000000;0,530982;0,000000;0,000000;0,000000;0,000000;
122;;;;;;;;;;;;;;;;;;;;;;;;;;;;;;;;;;;;;;;;;;;;;;;;;;;;;;;;;;;;;;;;;;;;;;;;;;;;;;;;;;;;;;;;;;;;;;;;;;;;;;;;;;;;;;;;;;;;;;;;;;1,000000;0,000000;0,000000;0,000000;0,000000;
123;;;;;;;;;;;;;;;;;;;;;;;;;;;;;;;;;;;;;;;;;;;;;;;;;;;;;;;;;;;;;;;;;;;;;;;;;;;;;;;;;;;;;;;;;;;;;;;;;;;;;;;;;;;;;;;;;;;;;;;;;;;1,000000;0,887522;0,887595;0,887668;
124;;;;;;;;;;;;;;;;;;;;;;;;;;;;;;;;;;;;;;;;;;;;;;;;;;;;;;;;;;;;;;;;;;;;;;;;;;;;;;;;;;;;;;;;;;;;;;;;;;;;;;;;;;;;;;;;;;;;;;;;;;;;1,000000;0,887668;0,887740;
125;;;;;;;;;;;;;;;;;;;;;;;;;;;;;;;;;;;;;;;;;;;;;;;;;;;;;;;;;;;;;;;;;;;;;;;;;;;;;;;;;;;;;;;;;;;;;;;;;;;;;;;;;;;;;;;;;;;;;;;;;;;;;1,000000;0,887812;
126;;;;;;;;;;;;;;;;;;;;;;;;;;;;;;;;;;;;;;;;;;;;;;;;;;;;;;;;;;;;;;;;;;;;;;;;;;;;;;;;;;;;;;;;;;;;;;;;;;;;;;;;;;;;;;;;;;;;;;;;;;;;;;1,000000;
