;1; 2; 3; 4; 5; 6; 7; 8; 9; 10; 11; 12; 13; 14; 15; 16; 17; 18; 19; 20; 21; 22; 23; 24; 25; 26; 27; 28; 29; 30; 31; 32; 33; 34; 35; 36; 37; 38; 39; 40; 41; 42; 43; 44; 45; 46; 47; 48; 49; 50; 51; 52; 53; 54; 55; 56; 57; 58; 59; 60; 61; 62; 63; 64; 65; 66; 67; 68; 69; 70; 71; 72; 73; 74; 75; 76; 77; 78; 79; 80; 81; 82; 83; 84; 85; 86; 87; 88; 89; 90; 91; 92; 93; 94; 95; 96; 97; 98; 99; 100; 101; 102; 103; 104; 105; 106; 107; 108; 109; 110; 111; 112; 113; 114
1;1,000000;0,643813;0,638840;0,673919;0,640274;0,576442;0,664589;0,664543;0,664543;0,688153;0,776940;0,747981;0,724442;0,688574;0,663423;0,658631;0,631482;0,498630;0,664589;0,747284;0,747284;0,741442;0,600313;0,617307;0,668632;0,714284;0,683464;0,499046;0,574274;0,743966;0,745715;0,745715;0,747729;0,747729;0,664430;0,660393;0,666526;0,500000;0,500000;0,744313;0,744313;0,747284;0,747284;0,500000;0,500000;0,497283;0,708878;0,657864;0,747396;0,744934;0,744934;0,798740;0,798740;0,798740;0,657023;0,747318;0,741114;0,692520;0,664523;0,664315;0,664997;0,588018;0,795243;0,792967;0,792967;0,792967;0,689616;0,748209;0,664059;0,664059;0,662621;0,664227;0,665497;0,665497;0,497635;0,665819;0,664784;0,664784;0,747417;0,747417;0,498334;0,797008;0,797008;0,797008;0,619564;0,499127;0,664759;0,797603;0,664789;0,675657;0,664789;0,664784;0,664784;0,000000;0,499325;0,498552;0,747634;0,661533;0,500000;0,500000;0,497423;0,551984;0,499046;0,000000;0,666667;0,666667;0,666667;0,747491;0,500000;0,500000;0,000000;0,499325;0,499325;0,664617;
2;;1,000000;0,665806;0,556216;0,502684;0,480868;0,332987;0,332987;0,332987;0,283357;0,235251;0,254555;0,441261;0,296015;0,490426;0,421657;0,402773;0,489849;0,332987;0,501128;0,501128;0,503834;0,633219;0,357211;0,405343;0,283357;0,421705;0,489849;0,371553;0,477002;0,483816;0,483816;0,491432;0,491432;0,332987;0,332403;0,376435;0,489849;0,489849;0,258604;0,258604;0,501128;0,501128;0,489849;0,489849;0,480827;0,292889;0,338710;0,254555;0,502130;0,502130;0,207496;0,207496;0,207496;0,426616;0,254555;0,795445;0,443028;0,332987;0,331726;0,332155;0,365968;0,765995;0,751711;0,751711;0,751711;0,314859;0,254555;0,657991;0,657991;0,332678;0,332987;0,332987;0,332987;0,480827;0,332678;0,648295;0,648295;0,000000;0,000000;0,489849;0,207496;0,207496;0,207496;0,371553;0,489849;0,332403;0,781997;0,332987;0,391133;0,332987;0,648295;0,648295;0,960438;0,962020;0,962937;0,491432;0,483816;0,489849;0,489849;0,472754;0,481574;0,489849;0,960438;0,332987;0,332987;0,332987;0,491432;0,489849;0,489849;0,960438;0,962020;0,962020;0,648295;
3;;;1,000000;0,614857;0,650054;0,398552;0,334843;0,334843;0,334843;0,292364;0,244762;0,259085;0,298798;0,303927;0,336101;0,369482;0,400855;0,965654;0,334843;0,518170;0,518170;0,557107;0,778810;0,575727;0,333662;0,292364;0,331203;0,486358;0,372927;0,273062;0,266656;0,266656;0,259085;0,259085;0,334843;0,337165;0,273062;0,486358;0,486358;0,266656;0,266656;0,518170;0,518170;0,486358;0,486358;0,937033;0,298798;0,343930;0,259085;0,533312;0,533312;0,213631;0,213631;0,213631;0,365601;0,259085;0,813835;0,319713;0,334843;0,339560;0,338077;0,369992;0,437033;0,451276;0,451276;0,451276;0,321139;0,259085;0,669686;0,669686;0,336101;0,334843;0,334843;0,334843;0,474990;0,336101;0,334843;0,334843;0,000000;0,000000;0,486358;0,213631;0,213631;0,213631;0,372927;0,486358;0,337165;0,420200;0,334843;0,313626;0,334843;0,334843;0,334843;0,940903;0,486358;0,943795;0,259085;0,349990;0,486358;0,486358;0,465370;0,372927;0,486358;0,940903;0,334843;0,334843;0,334843;0,259085;0,486358;0,486358;0,940903;0,486358;0,486358;0,334843;
4;;;;1,000000;0,385255;0,662799;0,648100;0,332311;0,332311;0,434684;0,233327;0,253607;0,291344;0,293843;0,331395;0,363917;0,400998;0,971834;0,648100;0,730874;0,730874;0,695847;0,697182;0,471290;0,392789;0,434684;0,395549;0,489718;0,370089;0,259738;0,256834;0,256834;0,253607;0,253607;0,648100;0,616537;0,330616;0,489718;0,489718;0,482365;0,482365;0,730874;0,730874;0,489718;0,489718;0,946633;0,551386;0,616277;0,490693;0,715873;0,715873;0,206385;0,206385;0,206385;0,481281;0,490693;0,773022;0,366210;0,648100;0,328531;0,329827;0,362224;0,409791;0,413952;0,413952;0,413952;0,581120;0,490693;0,648331;0,648331;0,488646;0,648100;0,332311;0,332311;0,929734;0,331395;0,332311;0,332311;0,250000;0,250000;0,489718;0,396248;0,396248;0,396248;0,695571;0,489718;0,330572;0,405167;0,332311;0,402787;0,332311;0,332311;0,332311;0,961940;0,489718;0,965095;0,253607;0,540783;0,489718;0,489718;0,472238;0,479224;0,489718;0,961940;0,332311;0,332311;0,332311;0,253607;0,489718;0,489718;0,961940;0,489718;0,489718;0,332311;
5;;;;;1,000000;0,556419;0,659259;0,658395;0,658395;0,622715;0,230543;0,252773;0,291881;0,294836;0,334224;0,376616;0,667714;0,495828;0,659259;0,496091;0,496091;0,485567;0,591702;0,684257;0,651326;0,711352;0,640944;0,495828;0,377455;0,257880;0,255396;0,255396;0,252773;0,252773;0,658816;0,645435;0,731541;0,495828;0,495828;0,730619;0,730619;0,496091;0,496091;0,495828;0,495828;0,491882;0,696634;0,636877;0,740832;0,492394;0,492394;0,204162;0,204162;0,204162;0,663927;0,740239;0,802002;0,601617;0,659140;0,335746;0,335024;0,381108;0,208098;0,211828;0,211828;0,211828;0,673010;0,742675;0,658128;0,658128;0,502935;0,658185;0,658185;0,658185;0,491882;0,334224;0,333791;0,333791;0,740147;0,740147;0,495828;0,790020;0,790020;0,790020;0,605409;0,495828;0,334635;0,204162;0,658185;0,496676;0,658185;0,333791;0,333791;0,981939;0,495828;0,982205;0,739794;0,492909;0,495828;0,495828;0,488144;0,605009;0,982259;0,981939;0,333791;0,333791;0,333791;0,739726;0,495828;0,495828;0,981939;0,495828;0,495828;0,333791;
6;;;;;;1,000000;0,682215;0,348254;0,348254;0,567934;0,280622;0,278810;0,471634;0,339899;0,511141;0,486993;0,424587;0,487143;0,682215;0,278810;0,278810;0,326826;0,555066;0,421753;0,786058;0,567934;0,783798;0,487143;0,395962;0,507652;0,505830;0,505830;0,503401;0,503401;0,682215;0,701650;0,571360;0,487143;0,487143;0,574273;0,574273;0,278810;0,278810;0,487143;0,487143;0,477960;0,629373;0,717233;0,543326;0,299388;0,299388;0,237143;0,237143;0,237143;0,737004;0,543326;0,716218;0,724584;0,682215;0,382166;0,373123;0,411922;0,263674;0,283572;0,283572;0,283572;0,675608;0,543326;0,348254;0,348254;0,579287;0,682215;0,348254;0,348254;0,931416;0,358912;0,642290;0,642290;0,276006;0,276006;0,487143;0,459992;0,459992;0,459992;0,759763;0,487143;0,366906;0,237143;0,348254;0,632425;0,348254;0,642290;0,642290;0,903810;0,920068;0,487143;0,503401;0,741245;0,487143;0,487143;0,471072;0,706590;0,487143;0,903810;0,348254;0,348254;0,348254;0,503401;0,487143;0,487143;0,903810;0,920068;0,920068;0,642290;
7;;;;;;;1,000000;0,333333;0,333333;0,613180;0,296798;0,291667;0,318412;0,322531;0,333333;0,340173;0,348830;0,416667;1,000000;0,291667;0,291667;0,316667;0,611564;0,659333;0,654802;0,613180;0,652055;0,416667;0,344956;0,312500;0,305556;0,305556;0,291667;0,291667;0,666667;0,666667;0,582572;0,416667;0,416667;0,611111;0,611111;0,291667;0,291667;0,416667;0,416667;0,388889;0,636825;0,669944;0,583333;0,305556;0,305556;0,266667;0,266667;0,266667;0,647686;0,583333;0,672494;0,630846;0,666667;0,333333;0,333333;0,338489;0,288889;0,300000;0,300000;0,300000;0,656250;0,583333;0,333333;0,333333;0,613451;0,666667;0,333333;0,333333;0,777778;0,333333;0,333333;0,333333;0,291667;0,291667;0,416667;0,533333;0,533333;0,533333;0,689912;0,416667;0,333333;0,266667;0,333333;0,603799;0,333333;0,333333;0,333333;0,666667;0,416667;0,416667;0,291667;0,632875;0,416667;0,416667;0,375000;0,626280;0,416667;0,666667;0,333333;0,333333;0,333333;0,291667;0,416667;0,416667;0,666667;0,416667;0,416667;0,333333;
8;;;;;;;;1,000000;0,666667;0,596844;0,296798;0,291667;0,318412;0,322531;0,333333;0,340173;0,348830;0,416667;0,333333;0,291667;0,291667;0,316667;0,330184;0,335882;0,331815;0,318773;0,331443;0,416667;0,344956;0,312500;0,305556;0,305556;0,291667;0,291667;0,333333;0,333333;0,312500;0,416667;0,416667;0,611111;0,611111;0,291667;0,291667;0,416667;0,416667;0,388889;0,318412;0,334972;0,291667;0,305556;0,305556;0,266667;0,266667;0,266667;0,339286;0,291667;0,387500;0,328986;0,333333;0,333333;0,333333;0,338489;0,288889;0,300000;0,300000;0,300000;0,328125;0,291667;0,333333;0,333333;0,333333;0,333333;0,333333;0,333333;0,388889;0,333333;0,333333;0,333333;0,000000;0,000000;0,416667;0,266667;0,266667;0,266667;0,344956;0,416667;0,333333;0,266667;0,333333;0,325683;0,333333;0,333333;0,333333;0,666667;0,416667;0,416667;0,291667;0,338889;0,416667;0,416667;0,375000;0,344956;0,416667;0,666667;0,333333;0,333333;0,333333;0,291667;0,416667;0,416667;0,666667;0,416667;0,416667;0,333333;
9;;;;;;;;;1,000000;0,596844;0,296798;0,291667;0,318412;0,322531;0,333333;0,340173;0,348830;0,416667;0,333333;0,291667;0,291667;0,316667;0,330184;0,335882;0,331815;0,318773;0,331443;0,416667;0,344956;0,312500;0,305556;0,305556;0,291667;0,291667;0,333333;0,333333;0,312500;0,416667;0,416667;0,611111;0,611111;0,291667;0,291667;0,416667;0,416667;0,388889;0,318412;0,334972;0,291667;0,305556;0,305556;0,266667;0,266667;0,266667;0,339286;0,291667;0,387500;0,328986;0,333333;0,333333;0,333333;0,338489;0,288889;0,300000;0,300000;0,300000;0,328125;0,291667;0,333333;0,333333;0,333333;0,333333;0,333333;0,333333;0,388889;0,333333;0,333333;0,333333;0,000000;0,000000;0,416667;0,266667;0,266667;0,266667;0,344956;0,416667;0,333333;0,266667;0,333333;0,325683;0,333333;0,333333;0,333333;0,666667;0,416667;0,416667;0,291667;0,338889;0,416667;0,416667;0,375000;0,344956;0,416667;0,666667;0,333333;0,333333;0,333333;0,291667;0,416667;0,416667;0,666667;0,416667;0,416667;0,333333;
10;;;;;;;;;;1,000000;0,244273;0,256273;0,283179;0,282608;0,310037;0,310464;0,331800;0,443773;0,613180;0,256273;0,256273;0,264338;0,426336;0,287427;0,452780;0,452722;0,451800;0,443773;0,327458;0,262546;0,260037;0,260037;0,256273;0,256273;0,613180;0,559694;0,391505;0,443773;0,443773;0,705403;0,705403;0,256273;0,256273;0,443773;0,443773;0,410037;0,527373;0,551436;0,488180;0,260037;0,260037;0,218773;0,218773;0,218773;0,479749;0,488180;0,571349;0,430936;0,613180;0,294506;0,300053;0,301620;0,230037;0,237546;0,237546;0,237546;0,538861;0,488180;0,318773;0,318773;0,485300;0,613180;0,318773;0,318773;0,781089;0,310037;0,318773;0,318773;0,250000;0,250000;0,443773;0,413180;0,413180;0,413180;0,606185;0,443773;0,304213;0,218773;0,318773;0,433959;0,318773;0,318773;0,318773;0,818773;0,443773;0,443773;0,256273;0,520263;0,443773;0,443773;0,387546;0,478922;0,443773;0,818773;0,318773;0,318773;0,318773;0,256273;0,443773;0,443773;0,818773;0,443773;0,443773;0,318773;
11;;;;;;;;;;;1,000000;0,691137;0,576350;0,755233;0,278530;0,263098;0,281609;0,407909;0,296798;0,241242;0,241242;0,232485;0,255014;0,356823;0,232387;0,244273;0,233883;0,407909;0,286166;0,234236;0,236863;0,236863;0,241242;0,241242;0,296798;0,267569;0,234236;0,407909;0,407909;0,236863;0,236863;0,241242;0,241242;0,407909;0,407909;0,361863;0,256149;0,262994;0,241242;0,236863;0,236863;0,756276;0,756276;0,756276;0,261545;0,241242;0,354236;0,240356;0,296798;0,251129;0,260262;0,251447;0,211863;0,214236;0,214236;0,214236;0,259236;0,241242;0,296798;0,296798;0,278530;0,296798;0,296798;0,296798;0,361863;0,278530;0,296798;0,296798;0,000000;0,000000;0,815818;0,207909;0,207909;0,207909;0,286166;0,407909;0,267569;0,207909;0,296798;0,255329;0,296798;0,296798;0,296798;0,741242;0,407909;0,407909;0,241242;0,286863;0,407909;0,407909;0,334236;0,286166;0,407909;0,741242;0,296798;0,296798;0,296798;0,241242;0,407909;0,407909;0,741242;0,407909;0,407909;0,561834;
12;;;;;;;;;;;;1,000000;0,692987;0,701993;0,277778;0,268744;0,279386;0,375000;0,291667;0,250000;0,250000;0,250000;0,263518;0,497780;0,253111;0,256273;0,253665;0,375000;0,282456;0,250000;0,250000;0,250000;0,250000;0,250000;0,291667;0,270833;0,250000;0,375000;0,375000;0,250000;0,250000;0,250000;0,250000;0,375000;0,375000;0,333333;0,262857;0,268305;0,250000;0,250000;0,250000;0,675000;0,675000;0,675000;0,267857;0,250000;0,325000;0,256070;0,291667;0,261905;0,266667;0,262732;0,233333;0,237500;0,237500;0,237500;0,265625;0,250000;0,291667;0,291667;0,277778;0,291667;0,291667;0,291667;0,333333;0,277778;0,291667;0,291667;0,000000;0,000000;0,750000;0,225000;0,225000;0,225000;0,282456;0,375000;0,270833;0,225000;0,291667;0,263183;0,291667;0,291667;0,291667;0,625000;0,375000;0,375000;0,250000;0,283333;0,375000;0,375000;0,312500;0,282456;0,375000;0,625000;0,291667;0,291667;0,291667;0,250000;0,375000;0,375000;0,625000;0,375000;0,375000;0,583333;
13;;;;;;;;;;;;;1,000000;0,570829;0,479780;0,450818;0,327926;0,429523;0,318412;0,262857;0,262857;0,275714;0,298243;0,454948;0,452904;0,283179;0,455690;0,429523;0,325072;0,471275;0,476062;0,476062;0,484042;0,484042;0,318412;0,306475;0,423506;0,429523;0,429523;0,269285;0,269285;0,262857;0,262857;0,429523;0,429523;0,394285;0,288570;0,306223;0,262857;0,269285;0,269285;0,592987;0,592987;0,592987;0,452523;0,262857;0,393142;0,458725;0,318412;0,299761;0,303491;0,305483;0,244285;0,253142;0,253142;0,253142;0,298142;0,262857;0,318412;0,318412;0,310952;0,318412;0,318412;0,318412;0,394285;0,310952;0,595153;0,595153;0,000000;0,000000;0,809394;0,229523;0,229523;0,229523;0,325072;0,429523;0,306475;0,229523;0,318412;0,430487;0,318412;0,595153;0,595153;0,762857;0,817375;0,429523;0,484042;0,476062;0,429523;0,429523;0,373142;0,473446;0,429523;0,762857;0,318412;0,318412;0,318412;0,484042;0,429523;0,429523;0,762857;0,817375;0,817375;0,595153;
14;;;;;;;;;;;;;;1,000000;0,316049;0,320485;0,341195;0,447531;0,322531;0,260031;0,260031;0,272928;0,301894;0,389783;0,292504;0,282608;0,292744;0,447531;0,334974;0,270062;0,266049;0,266049;0,260031;0,260031;0,322531;0,311728;0,270062;0,447531;0,447531;0,266049;0,266049;0,260031;0,260031;0,447531;0,447531;0,416049;0,289192;0,312154;0,260031;0,266049;0,266049;0,758615;0,758615;0,758615;0,318416;0,260031;0,420062;0,292653;0,322531;0,304527;0,308642;0,313183;0,236049;0,245062;0,245062;0,245062;0,301312;0,260031;0,322531;0,322531;0,316049;0,322531;0,322531;0,322531;0,416049;0,316049;0,322531;0,322531;0,000000;0,000000;0,447531;0,222531;0,222531;0,222531;0,334974;0,447531;0,311728;0,222531;0,322531;0,296428;0,322531;0,322531;0,322531;0,822531;0,447531;0,447531;0,260031;0,326049;0,447531;0,447531;0,395062;0,334974;0,447531;0,822531;0,322531;0,322531;0,322531;0,260031;0,447531;0,447531;0,822531;0,447531;0,447531;0,596498;
15;;;;;;;;;;;;;;;1,000000;0,643283;0,645147;0,444444;0,333333;0,277778;0,277778;0,305556;0,328085;0,652255;0,502392;0,461007;0,504086;0,444444;0,649693;0,504461;0,503718;0,503718;0,502478;0,502478;0,333333;0,333333;0,456692;0,444444;0,444444;0,291667;0,291667;0,277778;0,277778;0,444444;0,444444;0,416667;0,310952;0,336065;0,277778;0,291667;0,291667;0,244444;0,244444;0,244444;0,633262;0,277778;0,420000;0,635624;0,333333;0,333333;0,333333;0,342786;0,266667;0,280000;0,280000;0,280000;0,325000;0,277778;0,333333;0,333333;0,333333;0,333333;0,333333;0,333333;0,416667;0,333333;0,613590;0,613590;0,000000;0,000000;0,444444;0,244444;0,244444;0,244444;0,351930;0,444444;0,817389;0,244444;0,333333;0,463673;0,333333;0,613590;0,613590;0,777778;0,835812;0,444444;0,502478;0,503718;0,444444;0,444444;0,400000;0,506633;0,444444;0,777778;0,333333;0,333333;0,333333;0,502478;0,444444;0,444444;0,777778;0,835812;0,835812;0,613590;
16;;;;;;;;;;;;;;;;1,000000;0,635341;0,483030;0,340173;0,268744;0,268744;0,302484;0,343036;0,499325;0,450193;0,428738;0,457022;0,930407;0,607578;0,482300;0,486725;0,486725;0,492414;0,492414;0,340173;0,349292;0,402684;0,483030;0,483030;0,282802;0,282802;0,268744;0,268744;0,483030;0,483030;0,470302;0,311730;0,357400;0,268744;0,282802;0,282802;0,225887;0,225887;0,225887;0,553091;0,268744;0,493737;0,551830;0,340173;0,357271;0,352484;0,384524;0,245302;0,260403;0,260403;0,260403;0,335403;0,268744;0,340173;0,340173;0,345302;0,340173;0,340173;0,340173;0,470302;0,345302;0,635271;0,635271;0,000000;0,000000;0,483030;0,225887;0,225887;0,225887;0,380286;0,483030;0,655181;0,225887;0,340173;0,414320;0,340173;0,635271;0,635271;0,911601;0,920986;0,483030;0,492414;0,486725;0,483030;0,483030;0,460403;0,485919;0,483030;0,911601;0,340173;0,340173;0,340173;0,492414;0,483030;0,483030;0,911601;0,920986;0,920986;0,635271;
17;;;;;;;;;;;;;;;;;1,000000;0,487719;0,348830;0,279386;0,279386;0,328362;0,365911;0,795924;0,469454;0,523914;0,463334;0,487719;0,806519;0,316118;0,300376;0,300376;0,279386;0,279386;0,348830;0,368201;0,316118;0,487719;0,487719;0,300376;0,300376;0,279386;0,279386;0,487719;0,487719;0,478947;0,327926;0,379210;0,279386;0,300376;0,300376;0,237719;0,237719;0,237719;0,573832;0,726809;0,503618;0,535130;0,348830;0,384050;0,374658;0,414225;0,264661;0,284868;0,284868;0,284868;0,664280;0,279386;0,348830;0,348830;0,359899;0,348830;0,348830;0,348830;0,478947;0,359899;0,348830;0,348830;0,000000;0,000000;0,487719;0,237719;0,237719;0,237719;0,397258;0,487719;0,638422;0,237719;0,348830;0,441348;0,348830;0,348830;0,348830;0,904386;0,487719;0,487719;0,501886;0,503233;0,487719;0,487719;0,472368;0,508934;0,487719;0,904386;0,348830;0,348830;0,348830;0,501886;0,487719;0,487719;0,904386;0,487719;0,487719;0,348830;
18;;;;;;;;;;;;;;;;;;1,000000;0,416667;0,375000;0,375000;0,450000;0,895204;0,982240;0,489222;0,443773;0,486998;0,500000;0,469956;0,437500;0,416667;0,416667;0,375000;0,375000;0,416667;0,458333;0,437500;0,500000;0,500000;0,416667;0,416667;0,375000;0,375000;0,500000;0,500000;1,000000;0,429523;0,468305;0,375000;0,416667;0,416667;0,350000;0,350000;0,350000;0,482143;0,375000;0,512500;0,474820;0,416667;0,476190;0,466667;0,490004;0,800000;0,850000;0,850000;0,850000;0,453125;0,375000;0,416667;0,416667;0,444444;0,416667;0,416667;0,416667;0,500000;0,444444;0,416667;0,416667;0,000000;0,000000;0,500000;0,350000;0,350000;0,350000;0,469956;0,500000;0,458333;0,700000;0,416667;0,450683;0,416667;0,416667;0,416667;0,750000;0,500000;0,500000;0,375000;0,450000;0,500000;0,500000;0,500000;0,469956;0,500000;0,750000;0,416667;0,416667;0,416667;0,375000;0,500000;0,500000;0,750000;0,500000;0,500000;0,416667;
19;;;;;;;;;;;;;;;;;;;1,000000;0,291667;0,291667;0,316667;0,611564;0,659333;0,654802;0,613180;0,652055;0,416667;0,344956;0,312500;0,305556;0,305556;0,291667;0,291667;0,666667;0,666667;0,582572;0,416667;0,416667;0,611111;0,611111;0,291667;0,291667;0,416667;0,416667;0,388889;0,636825;0,669944;0,583333;0,305556;0,305556;0,266667;0,266667;0,266667;0,647686;0,583333;0,672494;0,630846;0,666667;0,333333;0,333333;0,338489;0,288889;0,300000;0,300000;0,300000;0,656250;0,583333;0,333333;0,333333;0,613451;0,666667;0,333333;0,333333;0,777778;0,333333;0,333333;0,333333;0,291667;0,291667;0,416667;0,533333;0,533333;0,533333;0,689912;0,416667;0,333333;0,266667;0,333333;0,603799;0,333333;0,333333;0,333333;0,666667;0,416667;0,416667;0,291667;0,632875;0,416667;0,416667;0,375000;0,626280;0,416667;0,666667;0,333333;0,333333;0,333333;0,291667;0,416667;0,416667;0,666667;0,416667;0,416667;0,333333;
20;;;;;;;;;;;;;;;;;;;;1,000000;0,750000;0,713302;0,508301;0,255153;0,253111;0,256273;0,253665;0,375000;0,282456;0,250000;0,250000;0,250000;0,250000;0,250000;0,291667;0,270833;0,250000;0,375000;0,375000;0,250000;0,250000;0,750000;0,750000;0,375000;0,375000;0,333333;0,262857;0,268305;0,250000;0,750000;0,750000;0,225000;0,225000;0,225000;0,267857;0,250000;0,546795;0,256070;0,291667;0,261905;0,266667;0,262732;0,233333;0,237500;0,237500;0,237500;0,265625;0,250000;0,583333;0,583333;0,277778;0,291667;0,291667;0,291667;0,333333;0,277778;0,291667;0,291667;0,000000;0,000000;0,375000;0,225000;0,225000;0,225000;0,282456;0,375000;0,270833;0,225000;0,291667;0,263183;0,291667;0,291667;0,291667;0,625000;0,375000;0,375000;0,250000;0,283333;0,375000;0,375000;0,312500;0,282456;0,375000;0,625000;0,291667;0,291667;0,291667;0,250000;0,375000;0,375000;0,625000;0,375000;0,375000;0,291667;
21;;;;;;;;;;;;;;;;;;;;;1,000000;0,713302;0,508301;0,255153;0,253111;0,256273;0,253665;0,375000;0,282456;0,250000;0,250000;0,250000;0,250000;0,250000;0,291667;0,270833;0,250000;0,375000;0,375000;0,250000;0,250000;0,750000;0,750000;0,375000;0,375000;0,333333;0,262857;0,268305;0,250000;0,750000;0,750000;0,225000;0,225000;0,225000;0,267857;0,250000;0,546795;0,256070;0,291667;0,261905;0,266667;0,262732;0,233333;0,237500;0,237500;0,237500;0,265625;0,250000;0,583333;0,583333;0,277778;0,291667;0,291667;0,291667;0,333333;0,277778;0,291667;0,291667;0,000000;0,000000;0,375000;0,225000;0,225000;0,225000;0,282456;0,375000;0,270833;0,225000;0,291667;0,263183;0,291667;0,291667;0,291667;0,625000;0,375000;0,375000;0,250000;0,283333;0,375000;0,375000;0,312500;0,282456;0,375000;0,625000;0,291667;0,291667;0,291667;0,250000;0,375000;0,375000;0,625000;0,375000;0,375000;0,291667;
22;;;;;;;;;;;;;;;;;;;;;;1,000000;0,520753;0,268845;0,260666;0,264338;0,262217;0,450000;0,324185;0,250000;0,250000;0,250000;0,250000;0,250000;0,316667;0,297619;0,250000;0,450000;0,450000;0,250000;0,250000;0,713302;0,713302;0,450000;0,450000;0,416667;0,275714;0,295764;0,250000;0,710047;0,710047;0,210000;0,210000;0,210000;0,300000;0,250000;0,606961;0,267657;0,316667;0,283333;0,291667;0,290014;0,216667;0,221429;0,221429;0,221429;0,285714;0,250000;0,633333;0,633333;0,305556;0,316667;0,316667;0,316667;0,416667;0,305556;0,316667;0,316667;0,000000;0,000000;0,450000;0,210000;0,210000;0,210000;0,324185;0,450000;0,297619;0,210000;0,316667;0,280133;0,316667;0,316667;0,316667;0,850000;0,450000;0,450000;0,250000;0,316667;0,450000;0,450000;0,392857;0,324185;0,450000;0,850000;0,316667;0,316667;0,316667;0,250000;0,450000;0,450000;0,850000;0,450000;0,450000;0,316667;
23;;;;;;;;;;;;;;;;;;;;;;;1,000000;0,470953;0,402956;0,426336;0,403676;0,463518;0,353151;0,278966;0,272529;0,272529;0,263518;0,263518;0,611564;0,548591;0,356375;0,463518;0,463518;0,463719;0,463719;0,508301;0,508301;0,463518;0,463518;0,825340;0,515146;0,537105;0,478231;0,513835;0,513835;0,223518;0,223518;0,223518;0,448215;0,478231;0,744471;0,387137;0,611564;0,323886;0,325461;0,338290;0,425340;0,432580;0,432580;0,432580;0,524781;0,478231;0,641634;0,641634;0,468398;0,611564;0,330184;0,330184;0,797052;0,328085;0,330184;0,330184;0,250000;0,250000;0,463518;0,398231;0,398231;0,398231;0,601723;0,463518;0,326585;0,415204;0,330184;0,404893;0,330184;0,330184;0,330184;0,863518;0,463518;0,463518;0,263518;0,507246;0,463518;0,463518;0,421823;0,456279;0,463518;0,863518;0,330184;0,330184;0,330184;0,263518;0,463518;0,463518;0,863518;0,463518;0,463518;0,330184;
24;;;;;;;;;;;;;;;;;;;;;;;;1,000000;0,549330;0,642209;0,621166;0,497340;0,606995;0,727058;0,733420;0,733420;0,741028;0,741028;0,335882;0,340530;0,556518;0,497340;0,497340;0,259994;0,259994;0,255153;0,255153;0,497340;0,497340;0,965556;0,296226;0,349912;0,255153;0,259994;0,259994;0,206715;0,206715;0,206715;0,480672;0,497874;0,538079;0,571118;0,335882;0,346559;0,342655;0,396107;0,401920;0,402795;0,402795;0,402795;0,677710;0,745583;0,335882;0,335882;0,338276;0,335882;0,335882;0,335882;0,494842;0,338276;0,659238;0,659238;0,495758;0,495758;0,497340;0,403339;0,403339;0,403339;0,382918;0,497340;0,645685;0,400990;0,659160;0,596974;0,659160;0,659238;0,659238;0,981715;0,497340;0,497340;0,741614;0,651239;0,497340;0,497340;0,492491;0,611695;0,982154;0,981715;0,335882;0,335882;0,335882;0,741613;0,497340;0,497340;0,981715;0,497340;0,497340;0,659238;
25;;;;;;;;;;;;;;;;;;;;;;;;;1,000000;0,570934;0,684680;0,489222;0,368749;0,493929;0,495740;0,495740;0,497751;0,497751;0,654802;0,634633;0,768082;0,489222;0,489222;0,495064;0,495064;0,253111;0,253111;0,489222;0,489222;0,479578;0,564085;0,639256;0,497395;0,255894;0,255894;0,205889;0,205889;0,205889;0,646280;0,734572;0,654446;0,598483;0,654802;0,326201;0,328126;0,358917;0,211157;0,215899;0,215899;0,215899;0,599216;0,747531;0,331815;0,331815;0,501345;0,654802;0,331815;0,331815;0,942432;0,330456;0,655159;0,655159;0,728524;0,728524;0,489222;0,782667;0,782667;0,782667;0,713667;0,489222;0,329233;0,205889;0,331815;0,516122;0,331815;0,655159;0,655159;0,961444;0,969974;0,489222;0,497751;0,687120;0,489222;0,489222;0,470899;0,616985;0,489222;0,961444;0,331815;0,331815;0,331815;0,497751;0,489222;0,489222;0,961444;0,969974;0,969974;0,655159;
26;;;;;;;;;;;;;;;;;;;;;;;;;;1,000000;0,584272;0,443773;0,327458;0,262546;0,260037;0,260037;0,256273;0,256273;0,613180;0,559694;0,691942;0,443773;0,443773;0,481089;0,481089;0,256273;0,256273;0,443773;0,443773;0,410037;0,527373;0,551436;0,488180;0,260037;0,260037;0,218773;0,218773;0,218773;0,754964;0,699483;0,571349;0,603240;0,613180;0,294506;0,300053;0,301620;0,230037;0,237546;0,237546;0,237546;0,820420;0,911537;0,318773;0,318773;0,485300;0,613180;0,318773;0,318773;0,781089;0,310037;0,318773;0,318773;0,469883;0,469883;0,443773;0,586726;0,586726;0,586726;0,606185;0,443773;0,420375;0,218773;0,318773;0,527930;0,318773;0,318773;0,318773;0,818773;0,443773;0,443773;0,471624;0,637849;0,443773;0,443773;0,387546;0,587562;0,443773;0,818773;0,318773;0,318773;0,318773;0,471624;0,443773;0,443773;0,818773;0,443773;0,443773;0,318773;
27;;;;;;;;;;;;;;;;;;;;;;;;;;;1,000000;0,486998;0,366615;0,496584;0,497580;0,497580;0,498709;0,498709;0,652055;0,627990;0,702291;0,486998;0,486998;0,493437;0,493437;0,253665;0,253665;0,486998;0,486998;0,475622;0,560935;0,630709;0,496500;0,256872;0,256872;0,206998;0,206998;0,206998;0,653322;0,731450;0,647186;0,609120;0,652055;0,324826;0,327032;0,354601;0,213122;0,218525;0,218525;0,218525;0,593676;0,750577;0,331443;0,331443;0,499579;0,652055;0,331443;0,331443;0,930937;0,329789;0,654265;0,654265;0,732960;0,732960;0,486998;0,610577;0,610577;0,610577;0,704562;0,486998;0,328329;0,206998;0,331443;0,523013;0,331443;0,654265;0,654265;0,953665;0,965376;0,486998;0,498709;0,688229;0,486998;0,486998;0,465584;0,620735;0,486998;0,953665;0,331443;0,331443;0,331443;0,498709;0,486998;0,486998;0,953665;0,965376;0,965376;0,654265;
28;;;;;;;;;;;;;;;;;;;;;;;;;;;;1,000000;0,469956;0,437500;0,416667;0,416667;0,375000;0,375000;0,416667;0,458333;0,437500;0,500000;0,500000;0,416667;0,416667;0,375000;0,375000;0,500000;0,500000;0,500000;0,429523;0,468305;0,375000;0,416667;0,416667;0,350000;0,350000;0,350000;0,482143;0,375000;0,512500;0,474820;0,416667;0,476190;0,466667;0,490004;0,400000;0,425000;0,425000;0,425000;0,453125;0,375000;0,416667;0,416667;0,444444;0,416667;0,416667;0,416667;0,500000;0,444444;0,416667;0,416667;0,000000;0,000000;0,500000;0,350000;0,350000;0,350000;0,469956;0,500000;0,891229;0,350000;0,416667;0,450683;0,416667;0,416667;0,416667;0,750000;0,500000;0,500000;0,375000;0,450000;0,500000;0,500000;0,500000;0,469956;0,500000;0,750000;0,416667;0,416667;0,416667;0,375000;0,500000;0,500000;0,750000;0,500000;0,500000;0,416667;
29;;;;;;;;;;;;;;;;;;;;;;;;;;;;;1,000000;0,314912;0,301930;0,301930;0,282456;0,282456;0,344956;0,356579;0,314912;0,469956;0,469956;0,301930;0,301930;0,282456;0,282456;0,469956;0,469956;0,451930;0,325072;0,363411;0,282456;0,301930;0,301930;0,244956;0,244956;0,244956;0,378216;0,282456;0,464912;0,355444;0,344956;0,364327;0,359899;0,382183;0,271930;0,289912;0,289912;0,289912;0,346162;0,282456;0,344956;0,344956;0,351930;0,344956;0,344956;0,344956;0,451930;0,351930;0,344956;0,344956;0,000000;0,000000;0,469956;0,244956;0,244956;0,244956;0,379824;0,469956;0,645449;0,244956;0,344956;0,341279;0,344956;0,344956;0,344956;0,844956;0,469956;0,469956;0,282456;0,361930;0,469956;0,469956;0,439912;0,379824;0,469956;0,844956;0,344956;0,344956;0,344956;0,282456;0,469956;0,469956;0,844956;0,469956;0,469956;0,344956;
30;;;;;;;;;;;;;;;;;;;;;;;;;;;;;;1,000000;0,718441;0,718441;0,709492;0,709492;0,312500;0,291667;0,440288;0,437500;0,437500;0,250000;0,250000;0,250000;0,250000;0,437500;0,437500;0,400000;0,273142;0,289226;0,250000;0,250000;0,250000;0,212500;0,212500;0,212500;0,484572;0,250000;0,400000;0,494548;0,312500;0,277778;0,285714;0,282319;0,220000;0,225000;0,225000;0,225000;0,281250;0,250000;0,312500;0,312500;0,300000;0,312500;0,312500;0,312500;0,400000;0,300000;0,625000;0,625000;0,000000;0,000000;0,437500;0,212500;0,212500;0,212500;0,314912;0,437500;0,291667;0,212500;0,312500;0,449015;0,312500;0,625000;0,625000;0,812500;0,875000;0,437500;0,500000;0,500000;0,437500;0,437500;0,375000;0,502714;0,437500;0,812500;0,312500;0,312500;0,312500;0,500000;0,437500;0,437500;0,812500;0,875000;0,875000;0,625000;
31;;;;;;;;;;;;;;;;;;;;;;;;;;;;;;;1,000000;0,750000;0,750000;0,750000;0,305556;0,283333;0,452231;0,416667;0,416667;0,250000;0,250000;0,250000;0,250000;0,416667;0,416667;0,375000;0,269285;0,280509;0,250000;0,250000;0,250000;0,216667;0,216667;0,216667;0,488429;0,250000;0,370000;0,495961;0,305556;0,270833;0,277778;0,273341;0,225000;0,230000;0,230000;0,230000;0,275000;0,250000;0,305556;0,305556;0,291667;0,305556;0,305556;0,305556;0,375000;0,291667;0,611111;0,611111;0,000000;0,000000;0,416667;0,216667;0,216667;0,216667;0,301930;0,416667;0,283333;0,216667;0,305556;0,459212;0,305556;0,611111;0,611111;0,750000;0,833333;0,416667;0,500000;0,500000;0,416667;0,416667;0,350000;0,502172;0,416667;0,750000;0,305556;0,305556;0,305556;0,500000;0,416667;0,416667;0,750000;0,833333;0,833333;0,611111;
32;;;;;;;;;;;;;;;;;;;;;;;;;;;;;;;;1,000000;0,750000;0,750000;0,305556;0,283333;0,452231;0,416667;0,416667;0,250000;0,250000;0,250000;0,250000;0,416667;0,416667;0,375000;0,269285;0,280509;0,250000;0,250000;0,250000;0,216667;0,216667;0,216667;0,488429;0,250000;0,370000;0,495961;0,305556;0,270833;0,277778;0,273341;0,225000;0,230000;0,230000;0,230000;0,275000;0,250000;0,305556;0,305556;0,291667;0,305556;0,305556;0,305556;0,375000;0,291667;0,611111;0,611111;0,000000;0,000000;0,416667;0,216667;0,216667;0,216667;0,301930;0,416667;0,283333;0,216667;0,305556;0,459212;0,305556;0,611111;0,611111;0,750000;0,833333;0,416667;0,500000;0,500000;0,416667;0,416667;0,350000;0,502172;0,416667;0,750000;0,305556;0,305556;0,305556;0,500000;0,416667;0,416667;0,750000;0,833333;0,833333;0,611111;
33;;;;;;;;;;;;;;;;;;;;;;;;;;;;;;;;;1,000000;0,750000;0,291667;0,270833;0,470144;0,375000;0,375000;0,250000;0,250000;0,250000;0,250000;0,375000;0,375000;0,333333;0,262857;0,268305;0,250000;0,250000;0,250000;0,225000;0,225000;0,225000;0,493388;0,250000;0,325000;0,497728;0,291667;0,261905;0,266667;0,262732;0,233333;0,237500;0,237500;0,237500;0,265625;0,250000;0,291667;0,291667;0,277778;0,291667;0,291667;0,291667;0,333333;0,277778;0,583333;0,583333;0,000000;0,000000;0,375000;0,225000;0,225000;0,225000;0,282456;0,375000;0,270833;0,225000;0,291667;0,474508;0,291667;0,583333;0,583333;0,625000;0,750000;0,375000;0,500000;0,500000;0,375000;0,375000;0,312500;0,501357;0,375000;0,625000;0,291667;0,291667;0,291667;0,500000;0,375000;0,375000;0,625000;0,750000;0,750000;0,583333;
34;;;;;;;;;;;;;;;;;;;;;;;;;;;;;;;;;;1,000000;0,291667;0,270833;0,470144;0,375000;0,375000;0,250000;0,250000;0,250000;0,250000;0,375000;0,375000;0,333333;0,262857;0,268305;0,250000;0,250000;0,250000;0,225000;0,225000;0,225000;0,493388;0,250000;0,325000;0,497728;0,291667;0,261905;0,266667;0,262732;0,233333;0,237500;0,237500;0,237500;0,265625;0,250000;0,291667;0,291667;0,277778;0,291667;0,291667;0,291667;0,333333;0,277778;0,583333;0,583333;0,000000;0,000000;0,375000;0,225000;0,225000;0,225000;0,282456;0,375000;0,270833;0,225000;0,291667;0,474508;0,291667;0,583333;0,583333;0,625000;0,750000;0,375000;0,500000;0,500000;0,375000;0,375000;0,312500;0,501357;0,375000;0,625000;0,291667;0,291667;0,291667;0,500000;0,375000;0,375000;0,625000;0,750000;0,750000;0,583333;
35;;;;;;;;;;;;;;;;;;;;;;;;;;;;;;;;;;;1,000000;0,666667;0,582572;0,416667;0,416667;0,611111;0,611111;0,291667;0,291667;0,416667;0,416667;0,388889;0,636825;0,669944;0,583333;0,305556;0,305556;0,266667;0,266667;0,266667;0,647686;0,583333;0,672494;0,630846;0,666667;0,333333;0,333333;0,338489;0,288889;0,300000;0,300000;0,300000;0,656250;0,583333;0,333333;0,333333;0,613451;0,666667;0,333333;0,333333;0,777778;0,333333;0,333333;0,333333;0,291667;0,291667;0,416667;0,533333;0,533333;0,533333;1,000000;0,416667;0,333333;0,266667;0,333333;0,603799;0,333333;0,333333;0,333333;0,666667;0,416667;0,416667;0,291667;0,632875;0,416667;0,416667;0,375000;0,626280;0,416667;0,666667;0,333333;0,333333;0,333333;0,291667;0,416667;0,416667;0,666667;0,416667;0,416667;0,333333;
36;;;;;;;;;;;;;;;;;;;;;;;;;;;;;;;;;;;;1,000000;0,498478;0,458333;0,458333;0,566667;0,566667;0,270833;0,270833;0,458333;0,458333;0,433333;0,612951;0,673690;0,541667;0,283333;0,283333;0,233333;0,233333;0,233333;0,622379;0,541667;0,678322;0,580698;0,666667;0,333333;0,333333;0,346421;0,253333;0,266667;0,266667;0,266667;0,645833;0,541667;0,333333;0,333333;0,570878;0,666667;0,333333;0,333333;0,866667;0,333333;0,333333;0,333333;0,270833;0,270833;0,458333;0,466667;0,466667;0,466667;0,713157;0,458333;0,333333;0,233333;0,333333;0,540932;0,333333;0,333333;0,333333;0,833333;0,458333;0,458333;0,270833;0,605841;0,458333;0,458333;0,416667;0,585894;0,458333;0,833333;0,333333;0,333333;0,333333;0,270833;0,458333;0,458333;0,833333;0,458333;0,458333;0,333333;
37;;;;;;;;;;;;;;;;;;;;;;;;;;;;;;;;;;;;;1,000000;0,437500;0,437500;0,432116;0,432116;0,250000;0,250000;0,437500;0,437500;0,400000;0,478400;0,481474;0,457572;0,250000;0,250000;0,212500;0,212500;0,212500;0,473235;0,457572;0,510133;0,451103;0,582572;0,277778;0,285714;0,282319;0,220000;0,225000;0,225000;0,225000;0,477644;0,934433;0,312500;0,312500;0,436327;0,582572;0,312500;0,312500;0,732116;0,300000;0,595144;0,595144;0,687266;0,687266;0,437500;0,594716;0,594716;0,594716;0,544968;0,437500;0,291667;0,212500;0,312500;0,455514;0,312500;0,595144;0,595144;0,812500;0,845144;0,437500;0,470144;0,582305;0,437500;0,437500;0,375000;0,514845;0,437500;0,812500;0,312500;0,312500;0,312500;0,470144;0,437500;0,437500;0,812500;0,845144;0,845144;0,595144;
38;;;;;;;;;;;;;;;;;;;;;;;;;;;;;;;;;;;;;;1,000000;0,500000;0,416667;0,416667;0,375000;0,375000;0,500000;0,500000;0,500000;0,429523;0,468305;0,375000;0,416667;0,416667;0,350000;0,350000;0,350000;0,482143;0,375000;0,512500;0,474820;0,416667;0,476190;0,466667;0,490004;0,400000;0,425000;0,425000;0,425000;0,453125;0,375000;0,416667;0,416667;0,444444;0,416667;0,416667;0,416667;0,500000;0,444444;0,416667;0,416667;0,000000;0,000000;0,500000;0,350000;0,350000;0,350000;0,469956;0,500000;0,458333;0,350000;0,416667;0,450683;0,416667;0,416667;0,416667;0,750000;0,500000;0,500000;0,375000;0,450000;0,500000;0,500000;0,500000;0,469956;0,500000;0,750000;0,416667;0,416667;0,416667;0,375000;0,500000;0,500000;0,750000;0,500000;0,500000;0,416667;
39;;;;;;;;;;;;;;;;;;;;;;;;;;;;;;;;;;;;;;;1,000000;0,416667;0,416667;0,375000;0,375000;0,500000;0,500000;0,500000;0,429523;0,468305;0,375000;0,416667;0,416667;0,350000;0,350000;0,350000;0,482143;0,375000;0,512500;0,474820;0,416667;0,476190;0,466667;0,490004;0,400000;0,425000;0,425000;0,425000;0,453125;0,375000;0,416667;0,416667;0,444444;0,416667;0,416667;0,416667;0,500000;0,444444;0,416667;0,416667;0,000000;0,000000;0,500000;0,350000;0,350000;0,350000;0,469956;0,500000;0,458333;0,350000;0,416667;0,450683;0,416667;0,416667;0,416667;0,750000;0,500000;0,500000;0,375000;0,450000;0,500000;0,500000;0,500000;0,469956;0,500000;0,750000;0,416667;0,416667;0,416667;0,375000;0,500000;0,500000;0,750000;0,500000;0,500000;0,416667;
40;;;;;;;;;;;;;;;;;;;;;;;;;;;;;;;;;;;;;;;;1,000000;0,750000;0,250000;0,250000;0,416667;0,416667;0,375000;0,538570;0,561018;0,500000;0,250000;0,250000;0,216667;0,216667;0,216667;0,508451;0,500000;0,575991;0,473356;0,611111;0,270833;0,277778;0,273341;0,225000;0,230000;0,230000;0,230000;0,550000;0,500000;0,305556;0,305556;0,503510;0,611111;0,305556;0,305556;0,750000;0,291667;0,305556;0,305556;0,250000;0,250000;0,416667;0,433333;0,433333;0,433333;0,603859;0,416667;0,283333;0,216667;0,305556;0,466079;0,305556;0,305556;0,305556;0,750000;0,416667;0,416667;0,250000;0,532645;0,416667;0,416667;0,350000;0,502049;0,416667;0,750000;0,305556;0,305556;0,305556;0,250000;0,416667;0,416667;0,750000;0,416667;0,416667;0,305556;
41;;;;;;;;;;;;;;;;;;;;;;;;;;;;;;;;;;;;;;;;;1,000000;0,250000;0,250000;0,416667;0,416667;0,375000;0,538570;0,561018;0,500000;0,250000;0,250000;0,216667;0,216667;0,216667;0,508451;0,500000;0,575991;0,473356;0,611111;0,270833;0,277778;0,273341;0,225000;0,230000;0,230000;0,230000;0,550000;0,500000;0,305556;0,305556;0,503510;0,611111;0,305556;0,305556;0,750000;0,291667;0,305556;0,305556;0,250000;0,250000;0,416667;0,433333;0,433333;0,433333;0,603859;0,416667;0,283333;0,216667;0,305556;0,466079;0,305556;0,305556;0,305556;0,750000;0,416667;0,416667;0,250000;0,532645;0,416667;0,416667;0,350000;0,502049;0,416667;0,750000;0,305556;0,305556;0,305556;0,250000;0,416667;0,416667;0,750000;0,416667;0,416667;0,305556;
42;;;;;;;;;;;;;;;;;;;;;;;;;;;;;;;;;;;;;;;;;;1,000000;0,750000;0,375000;0,375000;0,333333;0,262857;0,268305;0,250000;0,750000;0,750000;0,225000;0,225000;0,225000;0,267857;0,250000;0,546795;0,256070;0,291667;0,261905;0,266667;0,262732;0,233333;0,237500;0,237500;0,237500;0,265625;0,250000;0,583333;0,583333;0,277778;0,291667;0,291667;0,291667;0,333333;0,277778;0,291667;0,291667;0,000000;0,000000;0,375000;0,225000;0,225000;0,225000;0,282456;0,375000;0,270833;0,225000;0,291667;0,263183;0,291667;0,291667;0,291667;0,625000;0,375000;0,375000;0,250000;0,283333;0,375000;0,375000;0,312500;0,282456;0,375000;0,625000;0,291667;0,291667;0,291667;0,250000;0,375000;0,375000;0,625000;0,375000;0,375000;0,291667;
43;;;;;;;;;;;;;;;;;;;;;;;;;;;;;;;;;;;;;;;;;;;1,000000;0,375000;0,375000;0,333333;0,262857;0,268305;0,250000;0,750000;0,750000;0,225000;0,225000;0,225000;0,267857;0,250000;0,546795;0,256070;0,291667;0,261905;0,266667;0,262732;0,233333;0,237500;0,237500;0,237500;0,265625;0,250000;0,583333;0,583333;0,277778;0,291667;0,291667;0,291667;0,333333;0,277778;0,291667;0,291667;0,000000;0,000000;0,375000;0,225000;0,225000;0,225000;0,282456;0,375000;0,270833;0,225000;0,291667;0,263183;0,291667;0,291667;0,291667;0,625000;0,375000;0,375000;0,250000;0,283333;0,375000;0,375000;0,312500;0,282456;0,375000;0,625000;0,291667;0,291667;0,291667;0,250000;0,375000;0,375000;0,625000;0,375000;0,375000;0,291667;
44;;;;;;;;;;;;;;;;;;;;;;;;;;;;;;;;;;;;;;;;;;;;1,000000;0,500000;0,500000;0,429523;0,468305;0,375000;0,416667;0,416667;0,350000;0,350000;0,350000;0,482143;0,375000;0,512500;0,474820;0,416667;0,476190;0,466667;0,490004;0,400000;0,425000;0,425000;0,425000;0,453125;0,375000;0,416667;0,416667;0,444444;0,416667;0,416667;0,416667;0,500000;0,444444;0,416667;0,416667;0,000000;0,000000;0,500000;0,350000;0,350000;0,350000;0,469956;0,500000;0,458333;0,350000;0,416667;0,450683;0,416667;0,416667;0,416667;0,750000;0,500000;0,500000;0,375000;0,450000;0,500000;0,500000;0,500000;0,469956;0,500000;0,750000;0,416667;0,416667;0,416667;0,375000;0,500000;0,500000;0,750000;0,500000;0,500000;0,416667;
45;;;;;;;;;;;;;;;;;;;;;;;;;;;;;;;;;;;;;;;;;;;;;1,000000;0,500000;0,429523;0,468305;0,375000;0,416667;0,416667;0,350000;0,350000;0,350000;0,482143;0,375000;0,512500;0,474820;0,416667;0,476190;0,466667;0,490004;0,400000;0,425000;0,425000;0,425000;0,453125;0,375000;0,416667;0,416667;0,444444;0,416667;0,416667;0,416667;0,500000;0,444444;0,416667;0,416667;0,000000;0,000000;0,500000;0,350000;0,350000;0,350000;0,469956;0,500000;0,458333;0,350000;0,416667;0,450683;0,416667;0,416667;0,416667;0,750000;0,500000;0,500000;0,375000;0,450000;0,500000;0,500000;0,500000;0,469956;0,500000;0,750000;0,416667;0,416667;0,416667;0,375000;0,500000;0,500000;0,750000;0,500000;0,500000;0,416667;
46;;;;;;;;;;;;;;;;;;;;;;;;;;;;;;;;;;;;;;;;;;;;;;1,000000;0,394285;0,447176;0,333333;0,375000;0,375000;0,300000;0,300000;0,300000;0,468750;0,333333;0,520000;0,455235;0,388889;0,458333;0,444444;0,481675;0,700000;0,760000;0,760000;0,760000;0,425000;0,333333;0,388889;0,388889;0,416667;0,388889;0,388889;0,388889;0,500000;0,416667;0,388889;0,388889;0,000000;0,000000;0,500000;0,300000;0,300000;0,300000;0,451930;0,500000;0,433333;0,600000;0,388889;0,421093;0,388889;0,388889;0,388889;0,833333;0,500000;0,500000;0,333333;0,425000;0,500000;0,500000;0,500000;0,451930;0,500000;0,833333;0,388889;0,388889;0,388889;0,333333;0,500000;0,500000;0,833333;0,500000;0,500000;0,388889;
47;;;;;;;;;;;;;;;;;;;;;;;;;;;;;;;;;;;;;;;;;;;;;;;1,000000;0,727626;0,788570;0,269285;0,269285;0,229523;0,229523;0,229523;0,566306;0,525714;0,622275;0,533355;0,955237;0,299761;0,303491;0,305483;0,244285;0,253142;0,253142;0,253142;0,596284;0,525714;0,318412;0,318412;0,542080;0,636825;0,318412;0,318412;0,788570;0,310952;0,318412;0,318412;0,262857;0,262857;0,429523;0,459047;0,459047;0,459047;0,650143;0,429523;0,306475;0,229523;0,318412;0,512363;0,318412;0,318412;0,318412;0,762857;0,429523;0,429523;0,262857;0,571216;0,429523;0,429523;0,373142;0,548333;0,429523;0,762857;0,318412;0,318412;0,318412;0,262857;0,429523;0,429523;0,762857;0,429523;0,429523;0,318412;
48;;;;;;;;;;;;;;;;;;;;;;;;;;;;;;;;;;;;;;;;;;;;;;;;1,000000;0,768519;0,280509;0,280509;0,228305;0,228305;0,228305;0,623354;0,536611;0,687010;0,572891;0,669944;0,338250;0,337430;0,355390;0,247176;0,260655;0,260655;0,260655;0,649881;0,536611;0,334972;0,334972;0,565698;0,669944;0,334972;0,334972;0,894352;0,336065;0,334972;0,334972;0,268305;0,268305;0,468305;0,456611;0,456611;0,456611;0,726822;0,468305;0,336845;0,228305;0,334972;0,529993;0,334972;0,334972;0,334972;0,868305;0,468305;0,468305;0,268305;0,604545;0,468305;0,468305;0,432083;0,581379;0,468305;0,868305;0,334972;0,334972;0,334972;0,268305;0,468305;0,468305;0,868305;0,468305;0,468305;0,334972;
49;;;;;;;;;;;;;;;;;;;;;;;;;;;;;;;;;;;;;;;;;;;;;;;;;1,000000;0,250000;0,250000;0,225000;0,225000;0,225000;0,504829;0,500000;0,547494;0,485013;0,875000;0,261905;0,266667;0,262732;0,233333;0,237500;0,237500;0,237500;0,531250;0,500000;0,291667;0,291667;0,502340;0,583333;0,291667;0,291667;0,666667;0,277778;0,291667;0,291667;0,250000;0,250000;0,375000;0,450000;0,450000;0,450000;0,564912;0,375000;0,270833;0,225000;0,291667;0,478799;0,291667;0,291667;0,291667;0,625000;0,375000;0,375000;0,250000;0,521764;0,375000;0,375000;0,312500;0,501280;0,375000;0,625000;0,291667;0,291667;0,291667;0,250000;0,375000;0,375000;0,625000;0,375000;0,375000;0,291667;
50;;;;;;;;;;;;;;;;;;;;;;;;;;;;;;;;;;;;;;;;;;;;;;;;;;1,000000;0,750000;0,216667;0,216667;0,216667;0,281250;0,250000;0,574873;0,260790;0,305556;0,270833;0,277778;0,273341;0,225000;0,230000;0,230000;0,230000;0,275000;0,250000;0,611111;0,611111;0,291667;0,305556;0,305556;0,305556;0,375000;0,291667;0,305556;0,305556;0,000000;0,000000;0,416667;0,216667;0,216667;0,216667;0,301930;0,416667;0,283333;0,216667;0,305556;0,271093;0,305556;0,305556;0,305556;0,750000;0,416667;0,416667;0,250000;0,300000;0,416667;0,416667;0,350000;0,301930;0,416667;0,750000;0,305556;0,305556;0,305556;0,250000;0,416667;0,416667;0,750000;0,416667;0,416667;0,305556;
51;;;;;;;;;;;;;;;;;;;;;;;;;;;;;;;;;;;;;;;;;;;;;;;;;;;1,000000;0,216667;0,216667;0,216667;0,281250;0,250000;0,574873;0,260790;0,305556;0,270833;0,277778;0,273341;0,225000;0,230000;0,230000;0,230000;0,275000;0,250000;0,611111;0,611111;0,291667;0,305556;0,305556;0,305556;0,375000;0,291667;0,305556;0,305556;0,000000;0,000000;0,416667;0,216667;0,216667;0,216667;0,301930;0,416667;0,283333;0,216667;0,305556;0,271093;0,305556;0,305556;0,305556;0,750000;0,416667;0,416667;0,250000;0,300000;0,416667;0,416667;0,350000;0,301930;0,416667;0,750000;0,305556;0,305556;0,305556;0,250000;0,416667;0,416667;0,750000;0,416667;0,416667;0,305556;
52;;;;;;;;;;;;;;;;;;;;;;;;;;;;;;;;;;;;;;;;;;;;;;;;;;;;1,000000;0,800000;0,800000;0,225000;0,225000;0,287500;0,212320;0,266667;0,219048;0,226667;0,217277;0,200000;0,200000;0,200000;0,200000;0,228125;0,225000;0,266667;0,266667;0,244444;0,266667;0,266667;0,266667;0,300000;0,244444;0,266667;0,266667;0,000000;0,000000;0,700000;0,200000;0,200000;0,200000;0,244956;0,350000;0,233333;0,200000;0,266667;0,225683;0,266667;0,266667;0,266667;0,600000;0,350000;0,350000;0,225000;0,250000;0,350000;0,350000;0,275000;0,244956;0,350000;0,600000;0,266667;0,266667;0,266667;0,225000;0,350000;0,350000;0,600000;0,350000;0,350000;0,266667;
53;;;;;;;;;;;;;;;;;;;;;;;;;;;;;;;;;;;;;;;;;;;;;;;;;;;;;1,000000;0,800000;0,225000;0,225000;0,287500;0,212320;0,266667;0,219048;0,226667;0,217277;0,200000;0,200000;0,200000;0,200000;0,228125;0,225000;0,266667;0,266667;0,244444;0,266667;0,266667;0,266667;0,300000;0,244444;0,266667;0,266667;0,000000;0,000000;0,700000;0,200000;0,200000;0,200000;0,244956;0,350000;0,233333;0,200000;0,266667;0,225683;0,266667;0,266667;0,266667;0,600000;0,350000;0,350000;0,225000;0,250000;0,350000;0,350000;0,275000;0,244956;0,350000;0,600000;0,266667;0,266667;0,266667;0,225000;0,350000;0,350000;0,600000;0,350000;0,350000;0,266667;
54;;;;;;;;;;;;;;;;;;;;;;;;;;;;;;;;;;;;;;;;;;;;;;;;;;;;;;1,000000;0,225000;0,225000;0,287500;0,212320;0,266667;0,219048;0,226667;0,217277;0,200000;0,200000;0,200000;0,200000;0,228125;0,225000;0,266667;0,266667;0,244444;0,266667;0,266667;0,266667;0,300000;0,244444;0,266667;0,266667;0,000000;0,000000;0,700000;0,200000;0,200000;0,200000;0,244956;0,350000;0,233333;0,200000;0,266667;0,225683;0,266667;0,266667;0,266667;0,600000;0,350000;0,350000;0,225000;0,250000;0,350000;0,350000;0,275000;0,244956;0,350000;0,600000;0,266667;0,266667;0,266667;0,225000;0,350000;0,350000;0,600000;0,350000;0,350000;0,266667;
55;;;;;;;;;;;;;;;;;;;;;;;;;;;;;;;;;;;;;;;;;;;;;;;;;;;;;;;1,000000;0,727407;0,637919;0,784463;0,647686;0,354167;0,350000;0,380643;0,243750;0,258333;0,258333;0,258333;0,755263;0,504829;0,339286;0,339286;0,513715;0,647686;0,339286;0,339286;0,883451;0,343750;0,636245;0,636245;0,250000;0,250000;0,482143;0,419115;0,419115;0,419115;0,684366;0,482143;0,454930;0,225000;0,339286;0,640919;0,339286;0,636245;0,636245;0,910714;0,921960;0,482143;0,722333;0,813076;0,482143;0,482143;0,458333;0,741087;0,482143;0,910714;0,339286;0,339286;0,339286;0,722333;0,482143;0,482143;0,910714;0,921960;0,921960;0,636245;
56;;;;;;;;;;;;;;;;;;;;;;;;;;;;;;;;;;;;;;;;;;;;;;;;;;;;;;;;1,000000;0,547494;0,939440;0,583333;0,261905;0,266667;0,262732;0,233333;0,237500;0,237500;0,237500;0,764758;0,500000;0,291667;0,291667;0,502340;0,583333;0,291667;0,291667;0,666667;0,277778;0,291667;0,291667;0,250000;0,250000;0,375000;0,450000;0,450000;0,450000;0,564912;0,375000;0,270833;0,225000;0,291667;0,478799;0,291667;0,291667;0,291667;0,625000;0,375000;0,375000;0,250000;0,521764;0,375000;0,375000;0,312500;0,501280;0,375000;0,625000;0,291667;0,291667;0,291667;0,250000;0,375000;0,375000;0,625000;0,375000;0,375000;0,291667;
57;;;;;;;;;;;;;;;;;;;;;;;;;;;;;;;;;;;;;;;;;;;;;;;;;;;;;;;;;1,000000;0,597015;0,672494;0,477778;0,457143;0,513088;0,340000;0,375000;0,375000;0,375000;0,657488;0,547494;0,671795;0,671795;0,580202;0,672494;0,387500;0,387500;0,875991;0,420000;0,387500;0,387500;0,250000;0,250000;0,512500;0,472494;0,472494;0,472494;0,724812;0,512500;0,441667;0,287500;0,387500;0,552587;0,387500;0,387500;0,387500;0,887500;0,512500;0,921224;0,325000;0,615165;0,512500;0,512500;0,525000;0,597549;0,512500;0,887500;0,387500;0,387500;0,387500;0,325000;0,512500;0,512500;0,887500;0,512500;0,512500;0,387500;
58;;;;;;;;;;;;;;;;;;;;;;;;;;;;;;;;;;;;;;;;;;;;;;;;;;;;;;;;;;1,000000;0,630846;0,317283;0,320687;0,336229;0,221901;0,229567;0,229567;0,229567;0,707387;0,485013;0,328986;0,328986;0,478816;0,630846;0,328986;0,328986;0,862245;0,325605;0,643561;0,643561;0,250000;0,250000;0,474820;0,397513;0,397513;0,397513;0,645785;0,474820;0,422555;0,212320;0,625972;0,694562;0,625972;0,643561;0,643561;0,912320;0,935228;0,474820;0,721948;0,789636;0,474820;0,474820;0,439567;0,706211;0,918676;0,912320;0,328986;0,328986;0,328986;0,721941;0,474820;0,474820;0,912320;0,935228;0,935228;0,643561;
59;;;;;;;;;;;;;;;;;;;;;;;;;;;;;;;;;;;;;;;;;;;;;;;;;;;;;;;;;;;1,000000;0,333333;0,333333;0,338489;0,288889;0,300000;0,300000;0,300000;0,656250;0,583333;0,333333;0,333333;0,613451;0,666667;0,333333;0,333333;0,777778;0,333333;0,333333;0,333333;0,291667;0,291667;0,416667;0,533333;0,533333;0,533333;0,689912;0,416667;0,333333;0,266667;0,333333;0,603799;0,333333;0,333333;0,333333;0,666667;0,416667;0,416667;0,291667;0,632875;0,416667;0,416667;0,375000;0,626280;0,416667;0,666667;0,333333;0,333333;0,333333;0,291667;0,416667;0,416667;0,666667;0,416667;0,416667;0,333333;
60;;;;;;;;;;;;;;;;;;;;;;;;;;;;;;;;;;;;;;;;;;;;;;;;;;;;;;;;;;;;1,000000;0,666667;0,647166;0,233333;0,244444;0,244444;0,244444;0,319444;0,261905;0,333333;0,333333;0,333333;0,333333;0,333333;0,333333;0,458333;0,666667;0,333333;0,333333;0,000000;0,000000;0,476190;0,219048;0,219048;0,219048;0,364327;0,952381;0,333333;0,219048;0,333333;0,312933;0,333333;0,333333;0,333333;0,904762;0,476190;0,476190;0,261905;0,345833;0,476190;0,476190;0,888889;0,364327;0,476190;0,904762;0,333333;0,333333;0,333333;0,261905;0,476190;0,476190;0,904762;0,476190;0,476190;0,333333;
61;;;;;;;;;;;;;;;;;;;;;;;;;;;;;;;;;;;;;;;;;;;;;;;;;;;;;;;;;;;;;1,000000;0,651766;0,244444;0,257143;0,257143;0,257143;0,321429;0,266667;0,333333;0,333333;0,333333;0,333333;0,333333;0,333333;0,444444;1,000000;0,333333;0,333333;0,000000;0,000000;0,466667;0,226667;0,226667;0,226667;0,359899;0,933333;0,333333;0,226667;0,333333;0,315848;0,333333;0,333333;0,333333;0,866667;0,466667;0,466667;0,266667;0,344444;0,466667;0,466667;0,857143;0,359899;0,466667;0,866667;0,333333;0,333333;0,333333;0,266667;0,466667;0,466667;0,866667;0,466667;0,466667;0,333333;
62;;;;;;;;;;;;;;;;;;;;;;;;;;;;;;;;;;;;;;;;;;;;;;;;;;;;;;;;;;;;;;1,000000;0,231675;0,243857;0,243857;0,243857;0,330396;0,262732;0,338489;0,338489;0,342786;0,338489;0,338489;0,338489;0,481675;0,657974;0,338489;0,338489;0,000000;0,000000;0,490004;0,217277;0,217277;0,217277;0,382183;0,490004;0,346421;0,217277;0,338489;0,322883;0,338489;0,338489;0,338489;0,944550;0,490004;0,490004;0,262732;0,356675;0,490004;0,490004;0,474626;0,382183;0,490004;0,944550;0,338489;0,338489;0,338489;0,262732;0,490004;0,490004;0,944550;0,490004;0,490004;0,338489;
63;;;;;;;;;;;;;;;;;;;;;;;;;;;;;;;;;;;;;;;;;;;;;;;;;;;;;;;;;;;;;;;1,000000;0,800000;0,800000;0,800000;0,245000;0,233333;0,288889;0,288889;0,266667;0,288889;0,288889;0,288889;0,350000;0,266667;0,288889;0,288889;0,000000;0,000000;0,400000;0,200000;0,200000;0,200000;0,271930;0,400000;0,253333;1,000000;0,288889;0,241093;0,288889;0,288889;0,288889;0,733333;0,400000;0,400000;0,233333;0,275000;0,400000;0,400000;0,320000;0,271930;0,400000;0,733333;0,288889;0,288889;0,288889;0,233333;0,400000;0,400000;0,733333;0,400000;0,400000;0,288889;
64;;;;;;;;;;;;;;;;;;;;;;;;;;;;;;;;;;;;;;;;;;;;;;;;;;;;;;;;;;;;;;;;1,000000;0,800000;0,800000;0,256250;0,237500;0,300000;0,300000;0,280000;0,300000;0,300000;0,300000;0,380000;0,280000;0,300000;0,300000;0,000000;0,000000;0,425000;0,200000;0,200000;0,200000;0,289912;0,425000;0,266667;0,800000;0,300000;0,251367;0,300000;0,300000;0,300000;0,800000;0,425000;0,425000;0,237500;0,290000;0,425000;0,425000;0,350000;0,289912;0,425000;0,800000;0,300000;0,300000;0,300000;0,237500;0,425000;0,425000;0,800000;0,425000;0,425000;0,300000;
65;;;;;;;;;;;;;;;;;;;;;;;;;;;;;;;;;;;;;;;;;;;;;;;;;;;;;;;;;;;;;;;;;1,000000;0,800000;0,256250;0,237500;0,300000;0,300000;0,280000;0,300000;0,300000;0,300000;0,380000;0,280000;0,300000;0,300000;0,000000;0,000000;0,425000;0,200000;0,200000;0,200000;0,289912;0,425000;0,266667;0,800000;0,300000;0,251367;0,300000;0,300000;0,300000;0,800000;0,425000;0,425000;0,237500;0,290000;0,425000;0,425000;0,350000;0,289912;0,425000;0,800000;0,300000;0,300000;0,300000;0,237500;0,425000;0,425000;0,800000;0,425000;0,425000;0,300000;
66;;;;;;;;;;;;;;;;;;;;;;;;;;;;;;;;;;;;;;;;;;;;;;;;;;;;;;;;;;;;;;;;;;1,000000;0,256250;0,237500;0,300000;0,300000;0,280000;0,300000;0,300000;0,300000;0,380000;0,280000;0,300000;0,300000;0,000000;0,000000;0,425000;0,200000;0,200000;0,200000;0,289912;0,425000;0,266667;0,800000;0,300000;0,251367;0,300000;0,300000;0,300000;0,800000;0,425000;0,425000;0,237500;0,290000;0,425000;0,425000;0,350000;0,289912;0,425000;0,800000;0,300000;0,300000;0,300000;0,237500;0,425000;0,425000;0,800000;0,425000;0,425000;0,300000;
67;;;;;;;;;;;;;;;;;;;;;;;;;;;;;;;;;;;;;;;;;;;;;;;;;;;;;;;;;;;;;;;;;;;1,000000;0,531250;0,328125;0,328125;0,554212;0,656250;0,328125;0,328125;0,850000;0,325000;0,328125;0,328125;0,265625;0,265625;0,453125;0,456250;0,456250;0,456250;0,692324;0,453125;0,322917;0,228125;0,328125;0,656700;0,328125;0,328125;0,328125;0,828125;0,453125;0,453125;0,500000;0,740865;0,453125;0,453125;0,406250;0,716332;0,453125;0,828125;0,328125;0,328125;0,328125;0,500000;0,453125;0,453125;0,828125;0,453125;0,453125;0,328125;
68;;;;;;;;;;;;;;;;;;;;;;;;;;;;;;;;;;;;;;;;;;;;;;;;;;;;;;;;;;;;;;;;;;;;1,000000;0,291667;0,291667;0,502340;0,583333;0,291667;0,291667;0,666667;0,277778;0,291667;0,291667;0,500000;0,500000;0,375000;0,675000;0,675000;0,675000;0,564912;0,375000;0,270833;0,225000;0,291667;0,478799;0,291667;0,291667;0,291667;0,625000;0,375000;0,375000;0,250000;0,521764;0,375000;0,375000;0,312500;0,501280;0,375000;0,625000;0,291667;0,291667;0,291667;0,250000;0,375000;0,375000;0,625000;0,375000;0,375000;0,291667;
69;;;;;;;;;;;;;;;;;;;;;;;;;;;;;;;;;;;;;;;;;;;;;;;;;;;;;;;;;;;;;;;;;;;;;1,000000;0,666667;0,333333;0,333333;0,333333;0,333333;0,388889;0,333333;0,333333;0,333333;0,000000;0,000000;0,416667;0,266667;0,266667;0,266667;0,344956;0,416667;0,333333;0,266667;0,333333;0,325683;0,333333;0,333333;0,333333;0,666667;0,416667;0,416667;0,291667;0,338889;0,416667;0,416667;0,375000;0,344956;0,416667;0,666667;0,333333;0,333333;0,333333;0,291667;0,416667;0,416667;0,666667;0,416667;0,416667;0,333333;
70;;;;;;;;;;;;;;;;;;;;;;;;;;;;;;;;;;;;;;;;;;;;;;;;;;;;;;;;;;;;;;;;;;;;;;1,000000;0,333333;0,333333;0,333333;0,333333;0,388889;0,333333;0,333333;0,333333;0,000000;0,000000;0,416667;0,266667;0,266667;0,266667;0,344956;0,416667;0,333333;0,266667;0,333333;0,325683;0,333333;0,333333;0,333333;0,666667;0,416667;0,416667;0,291667;0,338889;0,416667;0,416667;0,375000;0,344956;0,416667;0,666667;0,333333;0,333333;0,333333;0,291667;0,416667;0,416667;0,666667;0,416667;0,416667;0,333333;
71;;;;;;;;;;;;;;;;;;;;;;;;;;;;;;;;;;;;;;;;;;;;;;;;;;;;;;;;;;;;;;;;;;;;;;;1,000000;0,613451;0,614786;0,614786;0,753510;0,333333;0,333333;0,333333;0,277778;0,277778;0,444444;0,435673;0,435673;0,435673;0,608071;0,444444;0,333333;0,244444;0,333333;0,470290;0,333333;0,333333;0,333333;0,777778;0,444444;0,444444;0,277778;0,536155;0,444444;0,444444;0,400000;0,506260;0,444444;0,777778;0,333333;0,333333;0,333333;0,277778;0,444444;0,444444;0,777778;0,444444;0,444444;0,333333;
72;;;;;;;;;;;;;;;;;;;;;;;;;;;;;;;;;;;;;;;;;;;;;;;;;;;;;;;;;;;;;;;;;;;;;;;;1,000000;0,666667;0,666667;0,777778;0,333333;0,333333;0,333333;0,291667;0,291667;0,416667;0,533333;0,533333;0,533333;0,689912;0,416667;0,333333;0,266667;0,333333;0,603799;0,333333;0,333333;0,333333;0,666667;0,416667;0,416667;0,291667;0,632875;0,416667;0,416667;0,375000;0,626280;0,416667;0,666667;0,333333;0,333333;0,333333;0,291667;0,416667;0,416667;0,666667;0,416667;0,416667;0,333333;
73;;;;;;;;;;;;;;;;;;;;;;;;;;;;;;;;;;;;;;;;;;;;;;;;;;;;;;;;;;;;;;;;;;;;;;;;;1,000000;0,666667;0,388889;0,333333;0,333333;0,333333;0,000000;0,000000;0,416667;0,266667;0,266667;0,266667;0,344956;0,416667;0,333333;0,266667;0,333333;0,325683;0,333333;0,333333;0,333333;0,666667;0,416667;0,416667;0,291667;0,338889;0,416667;0,416667;0,375000;0,344956;0,416667;0,666667;0,333333;0,333333;0,333333;0,291667;0,416667;0,416667;0,666667;0,416667;0,416667;0,333333;
74;;;;;;;;;;;;;;;;;;;;;;;;;;;;;;;;;;;;;;;;;;;;;;;;;;;;;;;;;;;;;;;;;;;;;;;;;;1,000000;0,388889;0,333333;0,333333;0,333333;0,000000;0,000000;0,416667;0,266667;0,266667;0,266667;0,344956;0,416667;0,333333;0,266667;0,333333;0,325683;0,333333;0,333333;0,333333;0,666667;0,416667;0,416667;0,291667;0,338889;0,416667;0,416667;0,375000;0,344956;0,416667;0,666667;0,333333;0,333333;0,333333;0,291667;0,416667;0,416667;0,666667;0,416667;0,416667;0,333333;
75;;;;;;;;;;;;;;;;;;;;;;;;;;;;;;;;;;;;;;;;;;;;;;;;;;;;;;;;;;;;;;;;;;;;;;;;;;;1,000000;0,416667;0,388889;0,388889;0,333333;0,333333;0,500000;0,600000;0,600000;0,600000;0,903859;0,500000;0,433333;0,300000;0,388889;0,766079;0,388889;0,388889;0,388889;0,833333;0,500000;0,500000;0,333333;0,782645;0,500000;0,500000;0,500000;0,802049;0,500000;0,833333;0,388889;0,388889;0,388889;0,333333;0,500000;0,500000;0,833333;0,500000;0,500000;0,388889;
76;;;;;;;;;;;;;;;;;;;;;;;;;;;;;;;;;;;;;;;;;;;;;;;;;;;;;;;;;;;;;;;;;;;;;;;;;;;;1,000000;0,333333;0,333333;0,000000;0,000000;0,444444;0,244444;0,244444;0,244444;0,351930;0,888889;0,333333;0,244444;0,333333;0,321093;0,333333;0,333333;0,333333;0,777778;0,444444;0,444444;0,277778;0,341667;0,444444;0,444444;0,800000;0,351930;0,444444;0,777778;0,333333;0,333333;0,333333;0,277778;0,444444;0,444444;0,777778;0,444444;0,444444;0,333333;
77;;;;;;;;;;;;;;;;;;;;;;;;;;;;;;;;;;;;;;;;;;;;;;;;;;;;;;;;;;;;;;;;;;;;;;;;;;;;;1,000000;0,666667;0,000000;0,000000;0,416667;0,266667;0,266667;0,266667;0,344956;0,416667;0,333333;0,266667;0,333333;0,599508;0,333333;0,666667;0,666667;0,666667;0,833333;0,416667;0,583333;0,611111;0,416667;0,416667;0,375000;0,626357;0,416667;0,666667;0,333333;0,333333;0,333333;0,583333;0,416667;0,416667;0,666667;0,833333;0,833333;0,666667;
78;;;;;;;;;;;;;;;;;;;;;;;;;;;;;;;;;;;;;;;;;;;;;;;;;;;;;;;;;;;;;;;;;;;;;;;;;;;;;;1,000000;0,000000;0,000000;0,416667;0,266667;0,266667;0,266667;0,344956;0,416667;0,333333;0,266667;0,333333;0,599508;0,333333;0,666667;0,666667;0,666667;0,833333;0,416667;0,583333;0,611111;0,416667;0,416667;0,375000;0,626357;0,416667;0,666667;0,333333;0,333333;0,333333;0,583333;0,416667;0,416667;0,666667;0,833333;0,833333;0,666667;
79;;;;;;;;;;;;;;;;;;;;;;;;;;;;;;;;;;;;;;;;;;;;;;;;;;;;;;;;;;;;;;;;;;;;;;;;;;;;;;;1,000000;0,750000;0,000000;0,450000;0,450000;0,450000;0,282456;0,000000;0,000000;0,000000;0,000000;0,270833;0,000000;0,000000;0,000000;0,000000;0,000000;0,000000;0,000000;0,333333;0,000000;0,000000;0,000000;0,270833;0,000000;0,000000;0,000000;0,000000;0,000000;0,000000;0,000000;0,000000;0,000000;0,000000;0,000000;0,000000;
80;;;;;;;;;;;;;;;;;;;;;;;;;;;;;;;;;;;;;;;;;;;;;;;;;;;;;;;;;;;;;;;;;;;;;;;;;;;;;;;;1,000000;0,000000;0,450000;0,450000;0,450000;0,282456;0,000000;0,000000;0,000000;0,000000;0,270833;0,000000;0,000000;0,000000;0,000000;0,000000;0,000000;0,000000;0,333333;0,000000;0,000000;0,000000;0,270833;0,000000;0,000000;0,000000;0,000000;0,000000;0,000000;0,000000;0,000000;0,000000;0,000000;0,000000;0,000000;
81;;;;;;;;;;;;;;;;;;;;;;;;;;;;;;;;;;;;;;;;;;;;;;;;;;;;;;;;;;;;;;;;;;;;;;;;;;;;;;;;;1,000000;0,350000;0,350000;0,350000;0,469956;0,500000;0,458333;0,350000;0,416667;0,450683;0,416667;0,416667;0,416667;0,750000;0,500000;0,500000;0,375000;0,450000;0,500000;0,500000;0,500000;0,469956;0,500000;0,750000;0,416667;0,416667;0,416667;0,375000;0,500000;0,500000;0,750000;0,500000;0,500000;0,416667;
82;;;;;;;;;;;;;;;;;;;;;;;;;;;;;;;;;;;;;;;;;;;;;;;;;;;;;;;;;;;;;;;;;;;;;;;;;;;;;;;;;;1,000000;0,800000;0,800000;0,489912;0,350000;0,233333;0,200000;0,266667;0,403799;0,266667;0,266667;0,266667;0,600000;0,350000;0,350000;0,225000;0,455097;0,350000;0,350000;0,275000;0,426280;0,350000;0,600000;0,266667;0,266667;0,266667;0,225000;0,350000;0,350000;0,600000;0,350000;0,350000;0,266667;
83;;;;;;;;;;;;;;;;;;;;;;;;;;;;;;;;;;;;;;;;;;;;;;;;;;;;;;;;;;;;;;;;;;;;;;;;;;;;;;;;;;;1,000000;0,800000;0,489912;0,350000;0,233333;0,200000;0,266667;0,403799;0,266667;0,266667;0,266667;0,600000;0,350000;0,350000;0,225000;0,455097;0,350000;0,350000;0,275000;0,426280;0,350000;0,600000;0,266667;0,266667;0,266667;0,225000;0,350000;0,350000;0,600000;0,350000;0,350000;0,266667;
84;;;;;;;;;;;;;;;;;;;;;;;;;;;;;;;;;;;;;;;;;;;;;;;;;;;;;;;;;;;;;;;;;;;;;;;;;;;;;;;;;;;;1,000000;0,489912;0,350000;0,233333;0,200000;0,266667;0,403799;0,266667;0,266667;0,266667;0,600000;0,350000;0,350000;0,225000;0,455097;0,350000;0,350000;0,275000;0,426280;0,350000;0,600000;0,266667;0,266667;0,266667;0,225000;0,350000;0,350000;0,600000;0,350000;0,350000;0,266667;
85;;;;;;;;;;;;;;;;;;;;;;;;;;;;;;;;;;;;;;;;;;;;;;;;;;;;;;;;;;;;;;;;;;;;;;;;;;;;;;;;;;;;;1,000000;0,469956;0,356579;0,244956;0,344956;0,587422;0,344956;0,344956;0,344956;0,844956;0,469956;0,469956;0,282456;0,643033;0,469956;0,469956;0,439912;0,632385;0,469956;0,844956;0,344956;0,344956;0,344956;0,282456;0,469956;0,469956;0,844956;0,469956;0,469956;0,344956;
86;;;;;;;;;;;;;;;;;;;;;;;;;;;;;;;;;;;;;;;;;;;;;;;;;;;;;;;;;;;;;;;;;;;;;;;;;;;;;;;;;;;;;;1,000000;0,458333;0,350000;0,416667;0,450683;0,416667;0,416667;0,416667;0,750000;0,500000;0,500000;0,375000;0,450000;0,500000;0,500000;1,000000;0,469956;0,500000;0,750000;0,416667;0,416667;0,416667;0,375000;0,500000;0,500000;0,750000;0,500000;0,500000;0,416667;
87;;;;;;;;;;;;;;;;;;;;;;;;;;;;;;;;;;;;;;;;;;;;;;;;;;;;;;;;;;;;;;;;;;;;;;;;;;;;;;;;;;;;;;;1,000000;0,233333;0,333333;0,318033;0,333333;0,333333;0,333333;0,833333;0,458333;0,458333;0,270833;0,343333;0,458333;0,458333;0,416667;0,356579;0,458333;0,833333;0,333333;0,333333;0,333333;0,270833;0,458333;0,458333;0,833333;0,458333;0,458333;0,333333;
88;;;;;;;;;;;;;;;;;;;;;;;;;;;;;;;;;;;;;;;;;;;;;;;;;;;;;;;;;;;;;;;;;;;;;;;;;;;;;;;;;;;;;;;;1,000000;0,266667;0,225683;0,266667;0,266667;0,266667;0,600000;0,350000;0,350000;0,225000;0,250000;0,350000;0,350000;0,275000;0,244956;0,350000;0,600000;0,266667;0,266667;0,266667;0,225000;0,350000;0,350000;0,600000;0,350000;0,350000;0,266667;
89;;;;;;;;;;;;;;;;;;;;;;;;;;;;;;;;;;;;;;;;;;;;;;;;;;;;;;;;;;;;;;;;;;;;;;;;;;;;;;;;;;;;;;;;;1,000000;0,604822;0,666667;0,333333;0,333333;0,666667;0,416667;0,416667;0,291667;0,338889;0,416667;0,416667;0,375000;0,626974;0,416667;0,666667;0,333333;0,333333;0,333333;0,583333;0,416667;0,416667;0,666667;0,416667;0,416667;0,333333;
90;;;;;;;;;;;;;;;;;;;;;;;;;;;;;;;;;;;;;;;;;;;;;;;;;;;;;;;;;;;;;;;;;;;;;;;;;;;;;;;;;;;;;;;;;;1,000000;0,604822;0,599508;0,599508;0,825683;0,849508;0,450683;0,688121;0,748429;0,450683;0,450683;0,401367;0,678276;0,854753;0,825683;0,325683;0,325683;0,325683;0,688121;0,450683;0,450683;0,825683;0,849508;0,849508;0,599508;
91;;;;;;;;;;;;;;;;;;;;;;;;;;;;;;;;;;;;;;;;;;;;;;;;;;;;;;;;;;;;;;;;;;;;;;;;;;;;;;;;;;;;;;;;;;;1,000000;0,333333;0,333333;0,666667;0,416667;0,416667;0,291667;0,338889;0,416667;0,416667;0,375000;0,626974;0,416667;0,666667;0,333333;0,333333;0,333333;0,583333;0,416667;0,416667;0,666667;0,416667;0,416667;0,333333;
92;;;;;;;;;;;;;;;;;;;;;;;;;;;;;;;;;;;;;;;;;;;;;;;;;;;;;;;;;;;;;;;;;;;;;;;;;;;;;;;;;;;;;;;;;;;;1,000000;0,666667;0,666667;0,833333;0,416667;0,583333;0,611111;0,416667;0,416667;0,375000;0,626357;0,416667;0,666667;0,333333;0,333333;0,333333;0,583333;0,416667;0,416667;0,666667;0,833333;0,833333;0,666667;
93;;;;;;;;;;;;;;;;;;;;;;;;;;;;;;;;;;;;;;;;;;;;;;;;;;;;;;;;;;;;;;;;;;;;;;;;;;;;;;;;;;;;;;;;;;;;;1,000000;0,666667;0,833333;0,416667;0,583333;0,611111;0,416667;0,416667;0,375000;0,626357;0,416667;0,666667;0,333333;0,333333;0,333333;0,583333;0,416667;0,416667;0,666667;0,833333;0,833333;0,666667;
94;;;;;;;;;;;;;;;;;;;;;;;;;;;;;;;;;;;;;;;;;;;;;;;;;;;;;;;;;;;;;;;;;;;;;;;;;;;;;;;;;;;;;;;;;;;;;;1,000000;0,750000;0,750000;0,625000;0,783333;0,750000;0,750000;0,875000;0,844956;0,750000;1,000000;0,666667;0,666667;0,666667;0,625000;0,750000;0,750000;1,000000;0,750000;0,750000;0,666667;
95;;;;;;;;;;;;;;;;;;;;;;;;;;;;;;;;;;;;;;;;;;;;;;;;;;;;;;;;;;;;;;;;;;;;;;;;;;;;;;;;;;;;;;;;;;;;;;;1,000000;0,500000;0,750000;0,833333;0,500000;0,500000;0,500000;0,876357;0,500000;0,750000;0,416667;0,416667;0,416667;0,750000;0,500000;0,500000;0,750000;1,000000;1,000000;0,833333;
96;;;;;;;;;;;;;;;;;;;;;;;;;;;;;;;;;;;;;;;;;;;;;;;;;;;;;;;;;;;;;;;;;;;;;;;;;;;;;;;;;;;;;;;;;;;;;;;;1,000000;0,375000;0,450000;0,500000;0,500000;0,500000;0,469956;0,500000;0,750000;0,416667;0,416667;0,416667;0,375000;0,500000;0,500000;0,750000;0,500000;0,500000;0,416667;
97;;;;;;;;;;;;;;;;;;;;;;;;;;;;;;;;;;;;;;;;;;;;;;;;;;;;;;;;;;;;;;;;;;;;;;;;;;;;;;;;;;;;;;;;;;;;;;;;;1,000000;0,719878;0,375000;0,375000;0,312500;0,723262;0,375000;0,625000;0,291667;0,291667;0,291667;0,750000;0,375000;0,375000;0,625000;0,750000;0,750000;0,583333;
98;;;;;;;;;;;;;;;;;;;;;;;;;;;;;;;;;;;;;;;;;;;;;;;;;;;;;;;;;;;;;;;;;;;;;;;;;;;;;;;;;;;;;;;;;;;;;;;;;;1,000000;0,450000;0,450000;0,410000;0,808530;0,450000;0,783333;0,338889;0,338889;0,338889;0,719878;0,450000;0,450000;0,783333;0,833333;0,833333;0,611111;
99;;;;;;;;;;;;;;;;;;;;;;;;;;;;;;;;;;;;;;;;;;;;;;;;;;;;;;;;;;;;;;;;;;;;;;;;;;;;;;;;;;;;;;;;;;;;;;;;;;;1,000000;0,500000;0,500000;0,469956;0,500000;0,750000;0,416667;0,416667;0,416667;0,375000;0,500000;0,500000;0,750000;0,500000;0,500000;0,416667;
100;;;;;;;;;;;;;;;;;;;;;;;;;;;;;;;;;;;;;;;;;;;;;;;;;;;;;;;;;;;;;;;;;;;;;;;;;;;;;;;;;;;;;;;;;;;;;;;;;;;;1,000000;0,500000;0,469956;0,500000;0,750000;0,416667;0,416667;0,416667;0,375000;0,500000;0,500000;0,750000;0,500000;0,500000;0,416667;
101;;;;;;;;;;;;;;;;;;;;;;;;;;;;;;;;;;;;;;;;;;;;;;;;;;;;;;;;;;;;;;;;;;;;;;;;;;;;;;;;;;;;;;;;;;;;;;;;;;;;;1,000000;0,439912;0,500000;0,875000;0,375000;0,375000;0,375000;0,312500;0,500000;0,500000;0,875000;0,500000;0,500000;0,375000;
102;;;;;;;;;;;;;;;;;;;;;;;;;;;;;;;;;;;;;;;;;;;;;;;;;;;;;;;;;;;;;;;;;;;;;;;;;;;;;;;;;;;;;;;;;;;;;;;;;;;;;;1,000000;0,469956;0,844956;0,344956;0,344956;0,344956;0,937999;0,469956;0,469956;0,844956;0,876357;0,876357;0,626357;
103;;;;;;;;;;;;;;;;;;;;;;;;;;;;;;;;;;;;;;;;;;;;;;;;;;;;;;;;;;;;;;;;;;;;;;;;;;;;;;;;;;;;;;;;;;;;;;;;;;;;;;;1,000000;0,750000;0,416667;0,416667;0,416667;0,375000;0,500000;0,500000;0,750000;0,500000;0,500000;0,416667;
104;;;;;;;;;;;;;;;;;;;;;;;;;;;;;;;;;;;;;;;;;;;;;;;;;;;;;;;;;;;;;;;;;;;;;;;;;;;;;;;;;;;;;;;;;;;;;;;;;;;;;;;;1,000000;0,666667;0,666667;0,666667;0,625000;0,750000;0,750000;1,000000;0,750000;0,750000;0,666667;
105;;;;;;;;;;;;;;;;;;;;;;;;;;;;;;;;;;;;;;;;;;;;;;;;;;;;;;;;;;;;;;;;;;;;;;;;;;;;;;;;;;;;;;;;;;;;;;;;;;;;;;;;;1,000000;0,666667;0,666667;0,291667;0,416667;0,416667;0,666667;0,416667;0,416667;0,333333;
106;;;;;;;;;;;;;;;;;;;;;;;;;;;;;;;;;;;;;;;;;;;;;;;;;;;;;;;;;;;;;;;;;;;;;;;;;;;;;;;;;;;;;;;;;;;;;;;;;;;;;;;;;;1,000000;0,666667;0,291667;0,416667;0,416667;0,666667;0,416667;0,416667;0,333333;
107;;;;;;;;;;;;;;;;;;;;;;;;;;;;;;;;;;;;;;;;;;;;;;;;;;;;;;;;;;;;;;;;;;;;;;;;;;;;;;;;;;;;;;;;;;;;;;;;;;;;;;;;;;;1,000000;0,291667;0,416667;0,416667;0,666667;0,416667;0,416667;0,333333;
108;;;;;;;;;;;;;;;;;;;;;;;;;;;;;;;;;;;;;;;;;;;;;;;;;;;;;;;;;;;;;;;;;;;;;;;;;;;;;;;;;;;;;;;;;;;;;;;;;;;;;;;;;;;;1,000000;0,375000;0,375000;0,625000;0,750000;0,750000;0,583333;
109;;;;;;;;;;;;;;;;;;;;;;;;;;;;;;;;;;;;;;;;;;;;;;;;;;;;;;;;;;;;;;;;;;;;;;;;;;;;;;;;;;;;;;;;;;;;;;;;;;;;;;;;;;;;;1,000000;0,500000;0,750000;0,500000;0,500000;0,416667;
110;;;;;;;;;;;;;;;;;;;;;;;;;;;;;;;;;;;;;;;;;;;;;;;;;;;;;;;;;;;;;;;;;;;;;;;;;;;;;;;;;;;;;;;;;;;;;;;;;;;;;;;;;;;;;;1,000000;0,750000;0,500000;0,500000;0,416667;
111;;;;;;;;;;;;;;;;;;;;;;;;;;;;;;;;;;;;;;;;;;;;;;;;;;;;;;;;;;;;;;;;;;;;;;;;;;;;;;;;;;;;;;;;;;;;;;;;;;;;;;;;;;;;;;;1,000000;0,750000;0,750000;0,666667;
112;;;;;;;;;;;;;;;;;;;;;;;;;;;;;;;;;;;;;;;;;;;;;;;;;;;;;;;;;;;;;;;;;;;;;;;;;;;;;;;;;;;;;;;;;;;;;;;;;;;;;;;;;;;;;;;;1,000000;1,000000;0,833333;
113;;;;;;;;;;;;;;;;;;;;;;;;;;;;;;;;;;;;;;;;;;;;;;;;;;;;;;;;;;;;;;;;;;;;;;;;;;;;;;;;;;;;;;;;;;;;;;;;;;;;;;;;;;;;;;;;;1,000000;0,833333;
114;;;;;;;;;;;;;;;;;;;;;;;;;;;;;;;;;;;;;;;;;;;;;;;;;;;;;;;;;;;;;;;;;;;;;;;;;;;;;;;;;;;;;;;;;;;;;;;;;;;;;;;;;;;;;;;;;;1,000000;
