;1; 2; 3; 4; 5; 6; 7; 8; 9; 10; 11; 12; 13; 14; 15; 16; 17; 18; 19; 20; 21; 22; 23; 24; 25; 26; 27; 28; 29; 30; 31; 32; 33; 34; 35; 36; 37; 38; 39; 40; 41; 42; 43; 44; 45; 46; 47; 48; 49; 50; 51; 52; 53; 54; 55; 56; 57; 58; 59; 60; 61; 62; 63; 64; 65; 66; 67; 68; 69; 70; 71; 72; 73; 74; 75; 76; 77; 78; 79; 80; 81; 82; 83; 84; 85; 86; 87; 88; 89; 90; 91; 92; 93; 94; 95; 96; 97; 98; 99
1;1,000000;0,147748;0,200992;0,239397;0,343519;0,333135;0,392320;0,373960;0,328829;0,309390;0,332080;0,335694;0,321832;0,358812;0,310143;0,320359;0,349771;0,366796;0,381459;0,352798;0,440699;0,335940;0,357375;0,340893;0,000000;0,394443;0,311981;0,299751;0,403043;0,412328;0,000000;0,313740;0,217532;0,316527;0,366586;0,374024;0,396382;0,284898;0,000000;0,344968;0,407650;0,347471;0,300452;0,364011;0,237423;0,000000;0,368616;0,351469;0,243053;0,000000;0,000000;0,150507;0,332748;0,377584;0,392661;0,256320;0,270550;0,000000;0,376589;0,376969;0,504831;0,000000;0,416112;0,416383;0,416648;0,275157;0,295432;0,000000;0,339775;0,000000;0,295735;0,000000;0,381250;0,381536;0,382651;0,296768;0,364623;0,353188;0,000000;0,000000;0,412575;0,412816;0,000000;0,000000;0,000000;0,000000;0,000000;0,000000;0,000000;0,334715;0,527362;0,000000;0,386164;0,386372;0,285382;0,440315;0,440443;0,440569;0,440693;
2;;1,000000;0,637180;0,319442;0,251857;0,237371;0,268648;0,245966;0,275570;0,272808;0,296697;0,296991;0,276010;0,279485;0,280019;0,379054;0,288512;0,295705;0,284323;0,285618;0,489370;0,284409;0,287824;0,287217;0,678661;0,256107;0,354356;0,370096;0,273719;0,262204;0,678661;0,364329;0,332608;0,381613;0,302825;0,637432;0,263091;0,381154;0,678661;0,294631;0,263097;0,324136;0,374571;0,665498;0,370659;0,678661;0,304634;0,300092;0,419528;0,678661;0,678661;0,274038;0,390842;0,392626;0,337098;0,861011;0,276498;0,000000;0,393594;0,393594;0,518856;0,678661;0,316979;0,317059;0,317140;0,378899;0,384194;0,678661;0,394439;0,678661;0,390842;0,678661;0,398911;0,398911;0,670213;0,731320;0,309014;0,359137;0,678661;0,678661;0,688619;0,688619;0,000000;0,000000;0,000000;0,000000;0,000000;0,000000;0,678661;0,398573;0,000000;0,678661;0,404731;0,404731;0,388527;0,287126;0,287181;0,287236;0,287292;
3;;;1,000000;0,340078;0,272493;0,258007;0,289284;0,266602;0,296205;0,293444;0,317333;0,317627;0,296646;0,300121;0,300655;0,478813;0,309147;0,316341;0,304959;0,306254;0,404528;0,305045;0,308460;0,307853;0,699297;0,276743;0,744144;0,390732;0,294355;0,282840;0,699297;0,384964;0,353244;0,618410;0,572483;0,552590;0,283727;0,401789;0,699297;0,315267;0,283733;0,344772;0,395207;0,580655;0,391295;0,699297;0,325270;0,320728;0,440164;0,699297;0,699297;0,294674;0,411478;0,413262;0,357733;0,776169;0,000000;0,000000;0,414230;0,414230;0,000000;0,699297;0,337615;0,337695;0,337776;0,399535;0,404830;0,699297;0,415075;0,699297;0,779230;0,699297;0,419547;0,419547;0,585371;0,414230;0,329650;0,000000;0,699297;0,699297;0,603777;0,603777;0,000000;0,000000;0,000000;0,000000;0,000000;0,000000;0,699297;0,419208;0,000000;0,699297;0,425366;0,425366;0,409163;0,307762;0,307817;0,307872;0,307927;
4;;;;1,000000;0,213977;0,199491;0,230768;0,208086;0,237689;0,234928;0,258817;0,259111;0,238130;0,241605;0,242138;0,529949;0,250631;0,257825;0,246442;0,247738;0,227023;0,246529;0,249944;0,249336;0,640781;0,218226;0,316476;0,606071;0,235839;0,224324;0,640781;0,326448;0,294727;0,343733;0,264945;0,625930;0,225211;0,343273;0,640781;0,256751;0,225217;0,286255;0,336691;0,263734;0,332778;0,640781;0,266754;0,262211;0,381648;0,640781;0,640781;0,236158;0,352962;0,354745;0,299217;0,342220;0,000000;0,000000;0,355714;0,355714;0,000000;0,640781;0,279098;0,279178;0,279259;0,831156;0,693640;0,640781;0,356559;0,640781;0,352962;0,640781;0,361031;0,361031;0,270167;0,355714;0,271133;0,000000;0,640781;0,640781;0,278524;0,278641;0,000000;0,000000;0,000000;0,000000;0,000000;0,000000;0,640781;0,360692;0,000000;0,640781;0,366850;0,366850;0,831156;0,249246;0,249301;0,249356;0,249411;
5;;;;;1,000000;0,592161;0,505581;0,629166;0,457157;0,444501;0,191232;0,191526;0,447752;0,456903;0,456558;0,273619;0,421027;0,292065;0,370742;0,180153;0,612127;0,458993;0,182359;0,464881;0,573196;0,633865;0,248891;0,264631;0,421592;0,389715;0,573196;0,258863;0,227142;0,276148;0,197360;0,203408;0,545255;0,275688;0,573196;0,471709;0,645621;0,218670;0,269106;0,429641;0,687443;0,573196;0,199169;0,481563;0,314063;0,573196;0,573196;0,168573;0,285377;0,287160;0,635598;0,274636;0,000000;0,000000;0,288129;0,288129;0,000000;0,573196;0,211514;0,211594;0,211675;0,273434;0,278729;0,573196;0,288974;0,573196;0,285377;0,573196;0,293446;0,293446;0,202582;0,288129;0,492239;0,000000;0,573196;0,573196;0,210939;0,211056;0,000000;0,000000;0,000000;0,000000;0,000000;0,000000;0,573196;0,293107;0,000000;0,573196;0,299265;0,299265;0,283062;0,181661;0,181716;0,181771;0,181826;
6;;;;;;1,000000;0,487527;0,620225;0,421254;0,408598;0,176745;0,177039;0,749177;0,421000;0,420656;0,221676;0,168560;0,175754;0,584488;0,165667;0,839566;0,423091;0,167872;0,428979;0,558710;1,000000;0,234405;0,250145;0,385690;0,353812;0,558710;0,244377;0,212656;0,261661;0,182874;0,188921;0,669773;0,261202;0,558710;0,800727;1,000000;0,204184;0,254620;0,181663;0,651540;0,558710;0,184683;0,445660;0,299577;0,558710;0,558710;0,154086;0,270891;0,272674;0,419054;0,260149;0,000000;0,000000;0,273642;0,273642;0,000000;0,558710;0,197027;0,197107;0,197188;0,258947;0,264243;0,558710;0,274488;0,558710;0,270891;0,558710;0,278960;0,278960;0,188096;0,273642;0,456337;0,000000;0,558710;0,558710;0,196452;0,196570;0,000000;0,000000;0,000000;0,000000;0,000000;0,000000;0,558710;0,278621;0,000000;0,558710;0,284779;0,284779;0,268576;0,167175;0,167230;0,167285;0,167340;
7;;;;;;;1,000000;0,514647;0,460199;0,454744;0,208023;0,208317;0,434516;0,507873;0,424810;0,271331;0,429701;0,300739;0,336958;0,196944;0,464371;0,419275;0,199150;0,473183;0,589987;0,522481;0,265682;0,281422;0,542627;0,533610;0,589987;0,275654;0,243933;0,292939;0,214151;0,220199;0,684091;0,292479;0,589987;0,442326;0,533169;0,235461;0,285897;0,427353;0,281984;0,589987;0,215960;0,456517;0,330854;0,589987;0,589987;0,185364;0,302168;0,303951;0,406271;0,291427;0,000000;0,000000;0,304920;0,304920;0,000000;0,589987;0,228305;0,228385;0,228466;0,290225;0,295520;0,589987;0,305765;0,589987;0,302168;0,589987;0,310237;0,310237;0,219373;0,304920;0,468385;0,000000;0,589987;0,589987;0,227730;0,227847;0,000000;0,000000;0,000000;0,000000;0,000000;0,000000;0,589987;0,597064;0,000000;0,589987;0,316056;0,316056;0,299853;0,198452;0,198507;0,198562;0,198617;
8;;;;;;;;1,000000;0,426669;0,414013;0,185340;0,185634;0,767948;0,426416;0,426071;0,281709;0,177155;0,184349;0,603259;0,174262;0,641788;0,428506;0,176467;0,434394;0,567305;0,653744;0,243000;0,258740;0,391105;0,359227;0,567305;0,252972;0,221251;0,270256;0,191469;0,197516;0,598875;0,269797;0,567305;0,819498;0,664484;0,212779;0,263215;0,437731;0,656955;0,567305;0,193277;0,451076;0,308172;0,567305;0,567305;0,162681;0,279486;0,281269;0,424470;0,268744;0,000000;0,000000;0,282237;0,282237;0,000000;0,567305;0,205622;0,205702;0,205783;0,267542;0,272837;0,567305;0,283083;0,567305;0,279486;0,567305;0,287555;0,287555;0,196690;0,282237;0,461752;0,000000;0,567305;0,567305;0,205047;0,205165;0,000000;0,000000;0,000000;0,000000;0,000000;0,000000;0,567305;0,287216;0,000000;0,567305;0,293374;0,293374;0,277171;0,175770;0,175825;0,175880;0,175935;
9;;;;;;;;;1,000000;0,526772;0,214944;0,215238;0,530024;0,850785;0,538830;0,259874;0,206758;0,213952;0,453013;0,203865;0,395400;0,541265;0,206071;0,547153;0,596908;0,457648;0,272603;0,288343;0,503864;0,684887;0,596908;0,282575;0,250855;0,299860;0,221072;0,227120;0,181338;0,299401;0,596908;0,553980;0,469965;0,242383;0,292818;0,219862;0,769714;0,596908;0,222881;0,563834;0,337775;0,596908;0,596908;0,192285;0,309089;0,310873;0,537228;0,298348;0,000000;0,000000;0,311841;0,311841;0,000000;0,596908;0,235226;0,235306;0,235387;0,297146;0,302441;0,596908;0,312686;0,596908;0,309089;0,596908;0,317158;0,317158;0,226294;0,311841;0,574511;0,000000;0,596908;0,596908;0,234651;0,234769;0,000000;0,000000;0,000000;0,000000;0,000000;0,000000;0,596908;0,316819;0,000000;0,596908;0,322978;0,322978;0,306774;0,205373;0,205428;0,205483;0,205539;
10;;;;;;;;;;1,000000;0,212183;0,212476;0,517368;0,526519;0,864845;0,257113;0,203997;0,211191;0,440357;0,201104;0,382744;0,879068;0,203309;1,000000;0,594147;0,444992;0,269842;0,285582;0,915784;0,714552;0,594147;0,279814;0,248093;0,297098;0,218311;0,224358;0,178577;0,296639;0,594147;0,541324;0,457309;0,239621;0,290057;0,217100;0,757058;0,594147;0,220120;0,864845;0,335014;0,594147;0,594147;0,189524;0,306328;0,308111;0,524572;0,295586;0,000000;0,000000;0,309080;0,309080;0,000000;0,594147;0,232464;0,232544;0,232625;0,294384;0,299680;0,594147;0,309925;0,594147;0,306328;0,594147;0,314397;0,314397;0,223533;0,309080;0,864845;0,000000;0,594147;0,594147;0,231889;0,232007;0,000000;0,000000;0,000000;0,000000;0,000000;0,000000;0,594147;0,314058;0,000000;0,594147;0,320216;0,320216;0,304013;0,202612;0,202667;0,202722;0,202777;
11;;;;;;;;;;;1,000000;0,624244;0,215384;0,218860;0,219393;0,281002;0,227886;0,235080;0,223697;0,685244;0,204278;0,223783;0,688289;0,226591;0,618036;0,195481;0,293731;0,309471;0,213093;0,201579;0,618036;0,303703;0,271982;0,320987;0,242200;0,248247;0,202466;0,320528;0,618036;0,234006;0,202472;0,263510;0,313946;0,240989;0,310033;0,618036;0,244009;0,239466;0,358903;0,618036;0,618036;0,213413;0,330217;0,332000;0,276472;0,319475;0,000000;0,000000;0,332969;0,332969;0,000000;0,618036;0,256353;0,256433;0,256514;0,318273;0,323569;0,618036;0,333814;0,618036;0,330217;0,618036;0,338286;0,338286;0,247422;0,332969;0,248388;0,000000;0,618036;0,618036;0,255778;0,255896;0,000000;0,000000;0,000000;0,000000;0,000000;0,000000;0,618036;0,337947;0,000000;0,618036;0,344105;0,344105;0,327902;0,226501;0,226556;0,226611;0,226666;
12;;;;;;;;;;;;1,000000;0,215678;0,219153;0,219687;0,281296;0,228180;0,235374;0,223991;0,687158;0,204572;0,224077;0,690079;0,226885;0,618330;0,195775;0,294025;0,309765;0,213387;0,201873;0,618330;0,303997;0,272276;0,321281;0,242494;0,248541;0,202760;0,320822;0,618330;0,234300;0,202766;0,263804;0,314240;0,241283;0,310327;0,618330;0,244302;0,239760;0,359197;0,618330;0,618330;0,213706;0,330511;0,332294;0,276766;0,319769;0,000000;0,000000;0,333262;0,333262;0,000000;0,618330;0,256647;0,256727;0,256808;0,318567;0,323862;0,618330;0,334108;0,618330;0,330511;0,618330;0,338580;0,338580;0,247715;0,333262;0,248682;0,000000;0,618330;0,618330;0,256072;0,256190;0,000000;0,000000;0,000000;0,000000;0,000000;0,000000;0,618330;0,338241;0,000000;0,618330;0,344399;0,344399;0,328196;0,226795;0,226850;0,226905;0,226960;
13;;;;;;;;;;;;;1,000000;0,529770;0,529425;0,260315;0,207199;0,214393;0,732210;0,204306;0,673785;0,531860;0,206511;0,537748;0,597349;0,782696;0,273044;0,288784;0,494459;0,462581;0,597349;0,283016;0,251295;0,300300;0,221513;0,227560;0,441915;0,299841;0,597349;0,948450;0,793435;0,242823;0,293259;0,220302;0,760309;0,597349;0,223321;0,554430;0,338215;0,597349;0,597349;0,192725;0,309530;0,311313;0,527824;0,298788;0,000000;0,000000;0,312281;0,312281;0,000000;0,597349;0,235666;0,235746;0,235827;0,297586;0,302881;0,597349;0,313127;0,597349;0,309530;0,597349;0,317598;0,317598;0,226734;0,312281;0,565106;0,000000;0,597349;0,597349;0,235091;0,235209;0,000000;0,000000;0,000000;0,000000;0,000000;0,000000;0,597349;0,654914;0,000000;0,597349;0,323418;0,323418;0,307215;0,205814;0,205869;0,205924;0,205979;
14;;;;;;;;;;;;;;1,000000;0,538576;0,263790;0,210674;0,217868;0,452760;0,207781;0,395147;0,541011;0,209986;0,546899;0,600824;0,457394;0,276519;0,292259;0,631476;0,653369;0,600824;0,286491;0,254770;0,303775;0,224988;0,231035;0,185254;0,303316;0,600824;0,553727;0,469712;0,246298;0,296734;0,223777;0,769460;0,600824;0,226797;0,563581;0,341691;0,600824;0,600824;0,196201;0,313005;0,314788;0,536975;0,302263;0,000000;0,000000;0,315757;0,315757;0,000000;0,600824;0,239141;0,239221;0,239302;0,301061;0,306357;0,600824;0,316602;0,600824;0,313005;0,600824;0,321074;0,321074;0,230210;0,315757;0,574257;0,000000;0,600824;0,600824;0,238566;0,238684;0,000000;0,000000;0,000000;0,000000;0,000000;0,000000;0,600824;0,320735;0,000000;0,600824;0,326893;0,326893;0,310690;0,209289;0,209344;0,209399;0,209454;
15;;;;;;;;;;;;;;;1,000000;0,264324;0,211208;0,218401;0,452415;0,208315;0,394802;0,540667;0,210520;0,938996;0,601358;0,457049;0,277053;0,292793;0,819008;0,849707;0,601358;0,287025;0,255304;0,304309;0,225521;0,231569;0,185788;0,303850;0,601358;0,553382;0,469367;0,246832;0,297268;0,224311;0,769116;0,601358;0,227330;1,000000;0,342224;0,601358;0,601358;0,196734;0,313539;0,315322;0,536630;0,302797;0,000000;0,000000;0,316290;0,316290;0,000000;0,601358;0,239675;0,239755;0,239836;0,301595;0,306890;0,601358;0,317135;0,601358;0,313539;0,601358;0,321607;0,321607;0,230743;0,316290;1,000000;0,000000;0,601358;0,601358;0,239100;0,239218;0,000000;0,000000;0,000000;0,000000;0,000000;0,000000;0,601358;0,321269;0,000000;0,601358;0,327427;0,327427;0,311224;0,209823;0,209878;0,209933;0,209988;
16;;;;;;;;;;;;;;;;1,000000;0,272816;0,280010;0,268628;0,269923;0,349715;0,268714;0,272129;0,271522;0,662966;0,240412;0,338661;0,473707;0,258024;0,246509;0,662966;0,348633;0,743464;0,365918;0,287130;0,493566;0,413556;0,365458;0,662966;0,278936;0,247402;0,308441;0,731591;0,507337;0,354964;0,662966;0,288939;0,284397;0,403833;0,662966;0,662966;0,561823;0,375147;0,376931;0,321402;0,364406;0,000000;0,000000;0,377899;0,377899;0,000000;0,662966;0,301284;0,301364;0,301445;0,698792;0,561276;0,662966;0,378744;0,662966;0,699583;0,662966;0,383216;0,383216;0,639754;0,377899;0,293319;0,000000;0,662966;0,662966;0,563981;0,564189;0,000000;0,000000;0,000000;0,000000;0,000000;0,000000;0,662966;0,382877;0,592888;0,662966;0,389035;0,389035;0,698792;0,271431;0,271486;0,271541;0,271596;
17;;;;;;;;;;;;;;;;;1,000000;0,536778;0,533486;0,216807;0,196092;0,215598;0,219013;0,218406;0,609850;0,187296;0,285545;0,301285;0,204908;0,193393;0,609850;0,594705;0,263797;0,312802;0,234014;0,240062;0,194280;0,312342;0,609850;0,225820;0,194286;0,255325;0,305760;0,232804;0,301848;0,609850;0,665559;0,231281;0,350717;0,609850;0,609850;0,205227;0,322031;0,323815;0,268286;0,311290;0,000000;0,000000;0,324783;0,324783;0,000000;0,609850;0,248168;0,248248;0,248329;0,310088;0,315383;0,609850;0,325628;0,609850;0,322031;0,609850;0,330100;0,330100;0,239236;0,324783;0,240203;0,000000;0,609850;0,609850;0,247593;0,247711;0,000000;0,000000;0,000000;0,000000;0,000000;0,000000;0,609850;0,329761;0,000000;0,609850;0,335920;0,335920;0,319716;0,218315;0,218370;0,218425;0,218480;
18;;;;;;;;;;;;;;;;;;1,000000;0,470834;0,224001;0,203286;0,222792;0,226207;0,225599;0,617044;0,194489;0,292739;0,308479;0,212102;0,200587;0,617044;0,548116;0,270990;0,319996;0,241208;0,247256;0,201474;0,612457;0,617044;0,233014;0,201480;0,622203;0,312954;0,239997;0,309041;0,617044;0,574465;0,238474;0,357911;0,617044;0,617044;0,212421;0,329225;0,331008;0,275480;0,318483;0,000000;0,000000;0,331977;0,331977;0,000000;0,617044;0,255361;0,255441;0,255522;0,317282;0,322577;0,617044;0,332822;0,617044;0,329225;0,617044;0,337294;0,337294;0,246430;0,331977;0,247396;0,000000;0,617044;0,617044;0,254787;0,254904;0,000000;0,000000;0,000000;0,000000;0,000000;0,000000;0,617044;0,336955;0,000000;0,617044;0,343113;0,343113;0,326910;0,225509;0,225564;0,225619;0,225674;
19;;;;;;;;;;;;;;;;;;;1,000000;0,212618;0,509097;0,454850;0,214824;0,460738;0,605661;0,618007;0,281356;0,297096;0,417449;0,385571;0,605661;0,484677;0,259608;0,308613;0,229825;0,235873;0,407560;0,308154;0,605661;0,783761;0,628746;0,251136;0,301572;0,228615;0,683299;0,605661;0,555531;0,477420;0,346528;0,605661;0,605661;0,201038;0,317842;0,319626;0,450814;0,307101;0,000000;0,000000;0,320594;0,320594;0,000000;0,605661;0,243979;0,244059;0,244140;0,305899;0,311194;0,605661;0,321439;0,605661;0,317842;0,605661;0,325911;0,325911;0,235047;0,320594;0,488096;0,000000;0,605661;0,605661;0,243404;0,243522;0,000000;0,000000;0,000000;0,000000;0,000000;0,000000;0,605661;0,325573;0,000000;0,605661;0,331731;0,331731;0,315527;0,214126;0,214181;0,214237;0,214292;
20;;;;;;;;;;;;;;;;;;;;1,000000;0,193199;0,212705;1,000000;0,215512;0,606957;0,184402;0,282652;0,298392;0,202015;0,190500;0,606957;0,292624;0,260903;0,309909;0,231121;0,237169;0,191387;0,309449;0,606957;0,222927;0,191393;0,252431;0,302867;0,229910;0,298954;0,606957;0,232930;0,228388;0,347824;0,606957;0,606957;0,202334;0,319138;0,320921;0,265393;0,308397;0,000000;0,000000;0,321890;0,321890;0,000000;0,606957;0,245274;0,245355;0,245436;0,307195;0,312490;0,606957;0,322735;0,606957;0,319138;0,606957;0,327207;0,327207;0,236343;0,321890;0,237309;0,000000;0,606957;0,606957;0,244700;0,244817;0,000000;0,000000;0,000000;0,000000;0,000000;0,000000;0,606957;0,326868;0,000000;0,606957;0,333026;0,333026;0,316823;0,215422;0,215477;0,215532;0,215587;
21;;;;;;;;;;;;;;;;;;;;;1,000000;0,397237;0,195405;0,403125;0,586242;0,839566;0,261937;0,277677;0,359836;0,327958;0,586242;0,271909;0,240188;0,289194;0,210406;0,404780;0,646616;0,288734;0,586242;0,725336;0,839566;0,231716;0,282152;0,432845;0,625686;0,586242;0,212215;0,419807;0,327109;0,586242;0,586242;0,181619;0,298423;0,300206;0,393201;0,628359;0,000000;0,000000;0,301175;0,301175;0,000000;0,586242;0,224559;0,224640;0,224721;0,286480;0,291775;0,586242;0,302020;0,586242;0,298423;0,586242;0,306492;0,306492;0,437561;0,301175;0,430483;0,000000;0,586242;0,586242;0,455966;0,455966;0,000000;0,000000;0,000000;0,000000;0,000000;0,000000;0,586242;0,306153;0,000000;0,586242;0,312311;0,312311;0,296108;0,194707;0,194762;0,194817;0,194872;
22;;;;;;;;;;;;;;;;;;;;;;1,000000;0,214910;0,835275;0,605748;0,459485;0,281443;0,297183;0,829335;0,473823;0,605748;0,291415;0,259694;0,308699;0,229912;0,235959;0,190178;0,308240;0,605748;0,555817;0,471802;0,251222;0,301658;0,228701;0,771551;0,605748;0,231720;0,565671;0,346614;0,605748;0,605748;0,201124;0,317929;0,319712;0,539065;0,307187;0,000000;0,000000;0,320680;0,320680;0,000000;0,605748;0,244065;0,244145;0,244226;0,305985;0,311280;0,605748;0,321526;0,605748;0,317929;0,605748;0,325997;0,325997;0,235133;0,320680;0,576347;0,000000;0,605748;0,605748;0,243490;0,243608;0,000000;0,000000;0,000000;0,000000;0,000000;0,000000;0,605748;0,325659;0,000000;0,605748;0,331817;0,331817;0,315614;0,214213;0,214268;0,214323;0,214378;
23;;;;;;;;;;;;;;;;;;;;;;;1,000000;0,217718;0,609163;0,186608;0,284858;0,300598;0,204220;0,192706;0,609163;0,294830;0,263109;0,312114;0,233327;0,239374;0,193593;0,311655;0,609163;0,225133;0,193599;0,254637;0,305073;0,232116;0,301160;0,609163;0,235135;0,230593;0,350029;0,609163;0,609163;0,204539;0,321344;0,323127;0,267599;0,310602;0,000000;0,000000;0,324095;0,324095;0,000000;0,609163;0,247480;0,247560;0,247641;0,309400;0,314695;0,609163;0,324941;0,609163;0,321344;0,609163;0,329412;0,329412;0,238548;0,324095;0,239515;0,000000;0,609163;0,609163;0,246905;0,247023;0,000000;0,000000;0,000000;0,000000;0,000000;0,000000;0,609163;0,329074;0,000000;0,609163;0,335232;0,335232;0,319029;0,217628;0,217683;0,217738;0,217793;
24;;;;;;;;;;;;;;;;;;;;;;;;1,000000;0,608555;0,465372;0,284250;0,299990;0,915784;0,788703;0,608555;0,294223;0,262502;0,311507;0,232719;0,238767;0,192985;0,311048;0,608555;0,561705;0,477690;0,254030;0,304465;0,231509;0,777439;0,608555;0,234528;0,938996;0,349422;0,608555;0,608555;0,203932;0,320736;0,322520;0,544953;0,309995;0,000000;0,000000;0,323488;0,323488;0,000000;0,608555;0,246873;0,246953;0,247034;0,308793;0,314088;0,608555;0,324333;0,608555;0,320736;0,608555;0,328805;0,328805;0,237941;0,323488;0,938996;0,000000;0,608555;0,608555;0,246298;0,246416;0,000000;0,000000;0,000000;0,000000;0,000000;0,000000;0,608555;0,328467;0,000000;0,608555;0,334625;0,334625;0,318421;0,217020;0,217075;0,217130;0,217186;
25;;;;;;;;;;;;;;;;;;;;;;;;;1,000000;0,577445;0,675695;0,691435;0,595058;0,583543;1,000000;0,685667;0,653946;0,702952;0,624164;0,630212;0,584430;0,702492;1,000000;0,615970;0,584436;0,645474;0,695910;0,622953;0,691997;1,000000;0,625973;0,621430;0,740867;1,000000;1,000000;0,595377;0,712181;0,713964;0,658436;0,701440;0,000000;0,000000;0,714933;0,714933;0,000000;1,000000;0,638317;0,638397;0,638479;0,700238;0,705533;1,000000;0,715778;1,000000;0,712181;1,000000;0,720250;0,720250;0,629386;0,714933;0,630352;0,000000;1,000000;1,000000;0,637743;0,637860;0,000000;0,000000;0,000000;0,000000;0,000000;0,000000;1,000000;0,719911;0,000000;1,000000;0,726069;0,726069;0,709866;0,608465;0,608520;0,608575;0,608630;
26;;;;;;;;;;;;;;;;;;;;;;;;;;1,000000;0,253140;0,268880;0,422083;0,390206;0,577445;0,263113;0,231392;0,280397;0,201609;0,207657;0,704727;0,279938;0,577445;0,834246;1,000000;0,222920;0,273355;0,200399;0,687934;0,577445;0,203418;0,482054;0,318312;0,577445;0,577445;0,172822;0,289626;0,291410;0,455448;0,278885;0,000000;0,000000;0,292378;0,292378;0,000000;0,577445;0,215763;0,215843;0,215924;0,277683;0,282978;0,577445;0,293223;0,577445;0,289626;0,577445;0,297695;0,297695;0,206831;0,292378;0,492730;0,000000;0,577445;0,577445;0,215188;0,215306;0,000000;0,000000;0,000000;0,000000;0,000000;0,000000;0,577445;0,297357;0,000000;0,577445;0,303515;0,303515;0,287311;0,185910;0,185965;0,186020;0,186076;
27;;;;;;;;;;;;;;;;;;;;;;;;;;;1,000000;0,367130;0,270753;0,259238;0,675695;0,361362;0,329641;0,378647;0,299859;0,305907;0,260125;0,378187;0,675695;0,291665;0,260131;0,321169;0,371605;0,298648;0,367692;0,675695;0,301668;0,297125;0,416562;0,675695;0,675695;0,271072;0,387876;0,389659;0,334131;0,377135;0,000000;0,000000;0,390628;0,390628;0,000000;0,675695;0,314012;0,314092;0,314174;0,375933;0,381228;0,675695;0,391473;0,675695;0,387876;0,675695;0,395945;0,395945;0,305081;0,390628;0,306047;0,000000;0,675695;0,675695;0,313438;0,313555;0,000000;0,000000;0,000000;0,000000;0,000000;0,000000;0,675695;0,395606;0,000000;0,675695;0,401764;0,401764;0,385561;0,284160;0,284215;0,284270;0,284325;
28;;;;;;;;;;;;;;;;;;;;;;;;;;;;1,000000;0,286493;0,274978;0,691435;0,377102;0,345381;0,575784;0,676438;0,569689;0,275865;0,393927;0,691435;0,307405;0,275871;0,336909;0,387345;0,314388;0,383432;0,691435;0,317408;0,312865;0,849030;0,691435;0,691435;0,286812;0,403616;0,405399;0,349871;0,392874;0,000000;0,000000;0,406368;0,406368;0,000000;0,691435;0,329752;0,329832;0,329914;0,774915;0,930171;0,691435;0,407213;0,691435;0,403616;0,691435;0,411685;0,411685;0,320821;0,406368;0,321787;0,000000;0,691435;0,691435;0,329178;0,329295;0,000000;0,000000;0,000000;0,000000;0,000000;0,000000;0,691435;0,411346;0,000000;0,691435;0,417504;0,417504;0,774915;0,299900;0,299955;0,300010;0,300065;
29;;;;;;;;;;;;;;;;;;;;;;;;;;;;;1,000000;0,668715;0,595058;0,280725;0,249004;0,298009;0,219221;0,225269;0,179488;0,297550;0,595058;0,518416;0,434401;0,240532;0,290968;0,218011;0,734150;0,595058;0,221030;0,819008;0,335924;0,595058;0,595058;0,190434;0,307239;0,309022;0,501664;0,296497;0,000000;0,000000;0,309990;0,309990;0,000000;0,595058;0,233375;0,233455;0,233536;0,295295;0,300590;0,595058;0,310836;0,595058;0,307239;0,595058;0,315307;0,315307;0,224443;0,309990;0,819008;0,000000;0,595058;0,595058;0,232800;0,232918;0,000000;0,000000;0,000000;0,000000;0,000000;0,000000;0,595058;0,314969;0,000000;0,595058;0,321127;0,321127;0,304924;0,203523;0,203578;0,203633;0,203688;
30;;;;;;;;;;;;;;;;;;;;;;;;;;;;;;1,000000;0,583543;0,269210;0,237489;0,286495;0,207707;0,213755;0,167973;0,286035;0,583543;0,486538;0,402523;0,229018;0,279453;0,206496;0,702272;0,583543;0,209516;0,849707;0,324410;0,583543;0,583543;0,178920;0,295724;0,297507;0,469786;0,284983;0,000000;0,000000;0,298476;0,298476;0,000000;0,583543;0,221861;0,221941;0,222022;0,283781;0,289076;0,583543;0,299321;0,583543;0,295724;0,583543;0,303793;0,303793;0,212929;0,298476;0,849707;0,000000;0,583543;0,583543;0,221286;0,221403;0,000000;0,000000;0,000000;0,000000;0,000000;0,000000;0,583543;0,303454;0,000000;0,583543;0,309612;0,309612;0,293409;0,192008;0,192063;0,192118;0,192173;
31;;;;;;;;;;;;;;;;;;;;;;;;;;;;;;;1,000000;0,685667;0,653946;0,702952;0,624164;0,630212;0,584430;0,702492;1,000000;0,615970;0,584436;0,645474;0,695910;0,622953;0,691997;1,000000;0,625973;0,621430;0,740867;1,000000;1,000000;0,595377;0,712181;0,713964;0,658436;0,701440;0,000000;0,000000;0,714933;0,714933;0,000000;1,000000;0,638317;0,638397;0,638479;0,700238;0,705533;1,000000;0,715778;1,000000;0,712181;1,000000;0,720250;0,720250;0,629386;0,714933;0,630352;0,000000;1,000000;1,000000;0,637743;0,637860;0,000000;0,000000;0,000000;0,000000;0,000000;0,000000;1,000000;0,719911;0,000000;1,000000;0,726069;0,726069;0,709866;0,608465;0,608520;0,608575;0,608630;
32;;;;;;;;;;;;;;;;;;;;;;;;;;;;;;;;1,000000;0,339614;0,388619;0,309831;0,315879;0,270097;0,680650;0,685667;0,301637;0,270103;0,587514;0,381577;0,308621;0,377665;0,685667;0,616750;0,307098;0,426534;0,685667;0,685667;0,281044;0,397848;0,399632;0,344103;0,387107;0,000000;0,000000;0,400600;0,400600;0,000000;0,685667;0,323985;0,324065;0,324146;0,385905;0,391200;0,685667;0,401445;0,685667;0,397848;0,685667;0,405917;0,405917;0,315053;0,400600;0,316020;0,000000;0,685667;0,685667;0,323410;0,323528;0,000000;0,000000;0,000000;0,000000;0,000000;0,000000;0,685667;0,405578;0,000000;0,685667;0,411737;0,411737;0,395533;0,294132;0,294187;0,294242;0,294298;
33;;;;;;;;;;;;;;;;;;;;;;;;;;;;;;;;;1,000000;0,356898;0,278110;0,284158;0,238376;0,356439;0,653946;0,269916;0,238382;0,299421;0,825167;0,276900;0,345944;0,653946;0,279919;0,275377;0,394813;0,653946;0,653946;0,655399;0,366127;0,367911;0,312382;0,355386;0,000000;0,000000;0,368879;0,368879;0,000000;0,653946;0,292264;0,292344;0,292425;0,354184;0,359479;0,653946;0,369724;0,653946;0,366127;0,653946;0,374196;0,374196;0,733330;0,368879;0,284299;0,000000;0,653946;0,653946;0,291689;0,291807;0,000000;0,000000;0,000000;0,000000;0,000000;0,000000;0,653946;0,373858;0,690170;0,653946;0,380016;0,380016;0,363812;0,262411;0,262466;0,262521;0,262577;
34;;;;;;;;;;;;;;;;;;;;;;;;;;;;;;;;;;1,000000;0,652170;0,333163;0,287382;0,405444;0,702952;0,318922;0,287388;0,348426;0,398862;0,325905;0,394949;0,702952;0,328924;0,324382;0,443819;0,702952;0,702952;0,298328;0,415133;0,416916;0,361388;0,404391;0,000000;0,000000;0,417884;0,417884;0,000000;0,702952;0,341269;0,341349;0,341430;0,403189;0,408485;0,702952;0,418730;0,702952;0,415133;0,702952;0,423202;0,423202;0,332337;0,417884;0,333304;0,000000;0,702952;0,702952;0,340694;0,340812;0,000000;0,000000;0,000000;0,000000;0,000000;0,000000;0,702952;0,422863;0,000000;0,702952;0,429021;0,429021;0,412818;0,311417;0,311472;0,311527;0,311582;
35;;;;;;;;;;;;;;;;;;;;;;;;;;;;;;;;;;;1,000000;0,254376;0,208594;0,326656;0,624164;0,240134;0,208600;0,269638;0,320074;0,247117;0,316161;0,624164;0,250137;0,245594;0,827408;0,624164;0,624164;0,219541;0,336345;0,338128;0,282600;0,325603;0,000000;0,000000;0,339097;0,339097;0,000000;0,624164;0,262481;0,262561;0,262642;0,324402;0,689114;0,624164;0,339942;0,624164;0,336345;0,624164;0,344414;0,344414;0,253550;0,339097;0,254516;0,000000;0,624164;0,624164;0,261907;0,262024;0,000000;0,000000;0,000000;0,000000;0,000000;0,000000;0,624164;0,344075;0,000000;0,624164;0,350233;0,350233;0,334030;0,232629;0,232684;0,232739;0,232794;
36;;;;;;;;;;;;;;;;;;;;;;;;;;;;;;;;;;;;1,000000;0,214642;0,332704;0,630212;0,246182;0,214648;0,275686;0,326122;0,580908;0,322209;0,630212;0,256184;0,251642;0,371079;0,630212;0,630212;0,225588;0,342393;0,344176;0,288648;0,776421;0,000000;0,000000;0,345144;0,345144;0,000000;0,630212;0,268529;0,268609;0,268690;0,794773;0,657257;0,630212;0,345990;0,630212;0,342393;0,630212;0,350462;0,350462;0,585623;0,345144;0,260564;0,000000;0,630212;0,630212;0,604029;0,604029;0,000000;0,000000;0,000000;0,000000;0,000000;0,000000;0,630212;0,350123;0,000000;0,630212;0,356281;0,356281;0,794773;0,238677;0,238732;0,238787;0,238842;
37;;;;;;;;;;;;;;;;;;;;;;;;;;;;;;;;;;;;;1,000000;0,286922;0,584430;0,512928;0,715415;0,229904;0,280340;0,569578;0,276427;0,584430;0,210403;0,205861;0,325297;0,584430;0,584430;0,179807;0,296611;0,298394;0,242866;0,285870;0,000000;0,000000;0,299363;0,299363;0,000000;0,584430;0,222747;0,222828;0,222909;0,284668;0,289963;0,584430;0,300208;0,584430;0,296611;0,584430;0,304680;0,304680;0,213816;0,299363;0,214783;0,000000;0,584430;0,584430;0,222173;0,222290;0,000000;0,000000;0,000000;0,000000;0,000000;0,000000;0,584430;0,304341;0,000000;0,584430;0,310499;0,310499;0,294296;0,192895;0,192950;0,193005;0,193060;
38;;;;;;;;;;;;;;;;;;;;;;;;;;;;;;;;;;;;;;1,000000;0,702492;0,318462;0,286928;0,733907;0,398402;0,325446;0,394490;0,702492;0,686168;0,323923;0,443359;0,702492;0,702492;0,297869;0,414673;0,416457;0,360928;0,403932;0,000000;0,000000;0,417425;0,417425;0,000000;0,702492;0,340810;0,340890;0,340971;0,402730;0,408025;0,702492;0,418270;0,702492;0,414673;0,702492;0,422742;0,422742;0,331878;0,417425;0,332845;0,000000;0,702492;0,702492;0,340235;0,340353;0,000000;0,000000;0,000000;0,000000;0,000000;0,000000;0,702492;0,422403;0,000000;0,702492;0,428562;0,428562;0,412358;0,310957;0,311012;0,311067;0,311123;
39;;;;;;;;;;;;;;;;;;;;;;;;;;;;;;;;;;;;;;;1,000000;0,615970;0,584436;0,645474;0,695910;0,622953;0,691997;1,000000;0,625973;0,621430;0,740867;1,000000;1,000000;0,595377;0,712181;0,713964;0,658436;0,701440;0,000000;0,000000;0,714933;0,714933;0,000000;1,000000;0,638317;0,638397;0,638479;0,700238;0,705533;1,000000;0,715778;1,000000;0,712181;1,000000;0,720250;0,720250;0,629386;0,714933;0,630352;0,000000;1,000000;1,000000;0,637743;0,637860;0,000000;0,000000;0,000000;0,000000;0,000000;0,000000;1,000000;0,719911;0,000000;1,000000;0,726069;0,726069;0,709866;0,608465;0,608520;0,608575;0,608630;
40;;;;;;;;;;;;;;;;;;;;;;;;;;;;;;;;;;;;;;;;1,000000;0,844985;0,261444;0,311880;0,238923;0,784266;0,615970;0,241943;0,578387;0,356837;0,615970;0,615970;0,211347;0,328151;0,329934;0,551781;0,317410;0,000000;0,000000;0,330903;0,330903;0,000000;0,615970;0,254287;0,254368;0,254449;0,316208;0,321503;0,615970;0,331748;0,615970;0,328151;0,615970;0,336220;0,336220;0,245356;0,330903;0,589063;0,000000;0,615970;0,615970;0,253713;0,253830;0,000000;0,000000;0,000000;0,000000;0,000000;0,000000;0,615970;0,335881;0,000000;0,615970;0,342039;0,342039;0,325836;0,224435;0,224490;0,224545;0,224600;
41;;;;;;;;;;;;;;;;;;;;;;;;;;;;;;;;;;;;;;;;;1,000000;0,229910;0,280346;0,207389;0,700251;0,584436;0,210409;0,494371;0,325303;0,584436;0,584436;0,179813;0,296617;0,298400;0,467766;0,285876;0,000000;0,000000;0,299369;0,299369;0,000000;0,584436;0,222753;0,222834;0,222915;0,284674;0,289969;0,584436;0,300214;0,584436;0,296617;0,584436;0,304686;0,304686;0,213822;0,299369;0,505048;0,000000;0,584436;0,584436;0,222179;0,222296;0,000000;0,000000;0,000000;0,000000;0,000000;0,000000;0,584436;0,304347;0,000000;0,584436;0,310505;0,310505;0,294302;0,192901;0,192956;0,193011;0,193066;
42;;;;;;;;;;;;;;;;;;;;;;;;;;;;;;;;;;;;;;;;;;1,000000;0,341384;0,268428;0,337472;0,645474;0,695915;0,266905;0,386341;0,645474;0,645474;0,240851;0,357655;0,359439;0,303911;0,346914;0,000000;0,000000;0,360407;0,360407;0,000000;0,645474;0,283792;0,283872;0,283953;0,345712;0,351007;0,645474;0,361252;0,645474;0,357655;0,645474;0,365724;0,365724;0,274860;0,360407;0,275827;0,000000;0,645474;0,645474;0,283217;0,283335;0,000000;0,000000;0,000000;0,000000;0,000000;0,000000;0,645474;0,365386;0,000000;0,645474;0,371544;0,371544;0,355340;0,253939;0,253994;0,254049;0,254105;
43;;;;;;;;;;;;;;;;;;;;;;;;;;;;;;;;;;;;;;;;;;;1,000000;0,318863;0,387908;0,695910;0,321883;0,317341;0,436777;0,695910;0,695910;0,643526;0,408091;0,409874;0,354346;0,397350;0,000000;0,000000;0,410843;0,410843;0,000000;0,695910;0,334228;0,334308;0,334389;0,396148;0,401443;0,695910;0,411688;0,695910;0,408091;0,695910;0,416160;0,416160;0,721457;0,410843;0,326263;0,000000;0,695910;0,695910;0,333653;0,333770;0,000000;0,000000;0,000000;0,000000;0,000000;0,000000;0,695910;0,415821;0,652125;0,695910;0,421979;0,421979;0,405776;0,304375;0,304430;0,304485;0,304540;
44;;;;;;;;;;;;;;;;;;;;;;;;;;;;;;;;;;;;;;;;;;;;1,000000;0,314951;0,622953;0,248926;0,244384;0,363820;0,622953;0,622953;0,218330;0,335134;0,336918;0,281389;0,804487;0,000000;0,000000;0,337886;0,337886;0,000000;0,622953;0,261271;0,261351;0,261432;0,323191;0,328486;0,622953;0,338731;0,622953;0,335134;0,622953;0,343203;0,343203;0,613689;0,337886;0,253306;0,000000;0,622953;0,622953;0,632094;0,632094;0,000000;0,000000;0,000000;0,000000;0,000000;0,000000;0,622953;0,342865;0,000000;0,622953;0,349023;0,349023;0,332819;0,231418;0,231473;0,231528;0,231584;
45;;;;;;;;;;;;;;;;;;;;;;;;;;;;;;;;;;;;;;;;;;;;;1,000000;0,691997;0,317970;0,794120;0,432864;0,691997;0,691997;0,287374;0,404178;0,405962;0,767514;0,393437;0,000000;0,000000;0,406930;0,406930;0,000000;0,691997;0,330315;0,330395;0,330476;0,392235;0,397530;0,691997;0,407775;0,691997;0,404178;0,691997;0,412247;0,412247;0,321383;0,406930;0,804797;0,000000;0,691997;0,691997;0,329740;0,329858;0,000000;0,000000;0,000000;0,000000;0,000000;0,000000;0,691997;0,411909;0,000000;0,691997;0,418067;0,418067;0,401863;0,300462;0,300517;0,300572;0,300628;
46;;;;;;;;;;;;;;;;;;;;;;;;;;;;;;;;;;;;;;;;;;;;;;1,000000;0,625973;0,621430;0,740867;1,000000;1,000000;0,595377;0,712181;0,713964;0,658436;0,701440;0,000000;0,000000;0,714933;0,714933;0,000000;1,000000;0,638317;0,638397;0,638479;0,700238;0,705533;1,000000;0,715778;1,000000;0,712181;1,000000;0,720250;0,720250;0,629386;0,714933;0,630352;0,000000;1,000000;1,000000;0,637743;0,637860;0,000000;0,000000;0,000000;0,000000;0,000000;0,000000;1,000000;0,719911;0,000000;1,000000;0,726069;0,726069;0,709866;0,608465;0,608520;0,608575;0,608630;
47;;;;;;;;;;;;;;;;;;;;;;;;;;;;;;;;;;;;;;;;;;;;;;;1,000000;0,247403;0,366840;0,625973;0,625973;0,221350;0,338154;0,339937;0,284409;0,327412;0,000000;0,000000;0,340906;0,340906;0,000000;0,625973;0,264290;0,264370;0,264451;0,326210;0,331506;0,625973;0,341751;0,625973;0,338154;0,625973;0,346223;0,346223;0,255359;0,340906;0,256325;0,000000;0,625973;0,625973;0,263715;0,263833;0,000000;0,000000;0,000000;0,000000;0,000000;0,000000;0,625973;0,345884;0,000000;0,625973;0,352042;0,352042;0,335839;0,234438;0,234493;0,234548;0,234603;
48;;;;;;;;;;;;;;;;;;;;;;;;;;;;;;;;;;;;;;;;;;;;;;;;1,000000;0,362297;0,621430;0,621430;0,216807;0,333611;0,335395;0,561635;0,322870;0,000000;0,000000;0,336363;0,336363;0,000000;0,621430;0,259748;0,259828;0,259909;0,321668;0,326963;0,621430;0,337208;0,621430;0,333611;0,621430;0,341680;0,341680;0,250816;0,336363;1,000000;0,000000;0,621430;0,621430;0,259173;0,259291;0,000000;0,000000;0,000000;0,000000;0,000000;0,000000;0,621430;0,341342;0,000000;0,621430;0,347500;0,347500;0,331296;0,229895;0,229950;0,230006;0,230061;
49;;;;;;;;;;;;;;;;;;;;;;;;;;;;;;;;;;;;;;;;;;;;;;;;;1,000000;0,740867;0,740867;0,336244;0,453048;0,454831;0,399303;0,442306;0,000000;0,000000;0,455800;0,455800;0,000000;0,740867;0,379184;0,379264;0,379345;0,441105;0,861706;0,740867;0,456645;0,740867;0,453048;0,740867;0,461117;0,461117;0,370253;0,455800;0,371219;0,000000;0,740867;0,740867;0,378609;0,378727;0,000000;0,000000;0,000000;0,000000;0,000000;0,000000;0,740867;0,460778;0,000000;0,740867;0,466936;0,466936;0,450733;0,349332;0,349387;0,349442;0,349497;
50;;;;;;;;;;;;;;;;;;;;;;;;;;;;;;;;;;;;;;;;;;;;;;;;;;1,000000;1,000000;0,595377;0,712181;0,713964;0,658436;0,701440;0,000000;0,000000;0,714933;0,714933;0,000000;1,000000;0,638317;0,638397;0,638479;0,700238;0,705533;1,000000;0,715778;1,000000;0,712181;1,000000;0,720250;0,720250;0,629386;0,714933;0,630352;0,000000;1,000000;1,000000;0,637743;0,637860;0,000000;0,000000;0,000000;0,000000;0,000000;0,000000;1,000000;0,719911;0,000000;1,000000;0,726069;0,726069;0,709866;0,608465;0,608520;0,608575;0,608630;
51;;;;;;;;;;;;;;;;;;;;;;;;;;;;;;;;;;;;;;;;;;;;;;;;;;;1,000000;0,595377;0,712181;0,713964;0,658436;0,701440;0,000000;0,000000;0,714933;0,714933;0,000000;1,000000;0,638317;0,638397;0,638479;0,700238;0,705533;1,000000;0,715778;1,000000;0,712181;1,000000;0,720250;0,720250;0,629386;0,714933;0,630352;0,000000;1,000000;1,000000;0,637743;0,637860;0,000000;0,000000;0,000000;0,000000;0,000000;0,000000;1,000000;0,719911;0,000000;1,000000;0,726069;0,726069;0,709866;0,608465;0,608520;0,608575;0,608630;
52;;;;;;;;;;;;;;;;;;;;;;;;;;;;;;;;;;;;;;;;;;;;;;;;;;;;1,000000;0,307558;0,309341;0,253813;0,296816;0,565907;0,720403;0,310310;0,310310;0,000000;0,595377;0,233694;0,233774;0,233855;0,295614;0,300910;0,595377;0,311155;0,595377;0,307558;0,595377;0,315627;0,315627;0,551689;0,310310;0,225729;0,585872;0,595377;0,595377;0,233119;0,233237;0,000000;0,000000;0,000000;0,000000;0,000000;0,000000;0,595377;0,315288;0,623145;0,595377;0,321446;0,321446;0,305243;0,203842;0,203897;0,203952;0,204007;
53;;;;;;;;;;;;;;;;;;;;;;;;;;;;;;;;;;;;;;;;;;;;;;;;;;;;;1,000000;0,426145;0,370617;0,413621;0,000000;0,000000;0,427114;0,427114;0,000000;0,712181;0,350498;0,350578;0,350660;0,412419;0,417714;0,712181;1,000000;0,712181;0,424362;0,712181;0,432431;0,432431;0,341567;0,427114;0,342533;0,000000;0,712181;0,712181;0,349924;0,350041;0,000000;0,000000;0,000000;0,000000;0,000000;0,000000;0,712181;0,432092;0,000000;0,712181;0,438250;0,438250;0,422047;0,320646;0,320701;0,320756;0,320811;
54;;;;;;;;;;;;;;;;;;;;;;;;;;;;;;;;;;;;;;;;;;;;;;;;;;;;;;1,000000;0,372400;0,415404;0,000000;0,000000;0,428897;0,428897;0,000000;0,713964;0,352282;0,352362;0,352443;0,414202;0,419497;0,713964;0,429742;0,713964;0,426145;0,713964;0,434214;0,434214;0,343350;0,428897;0,344317;0,000000;0,713964;0,713964;0,351707;0,351825;0,000000;0,000000;0,000000;0,000000;0,000000;0,000000;0,713964;0,433876;0,000000;0,713964;0,440034;0,440034;0,423830;0,322429;0,322484;0,322539;0,322595;
55;;;;;;;;;;;;;;;;;;;;;;;;;;;;;;;;;;;;;;;;;;;;;;;;;;;;;;;1,000000;0,359876;0,000000;0,000000;0,373369;0,373369;0,000000;0,658436;0,296754;0,296834;0,296915;0,358674;0,363969;0,658436;0,374214;0,658436;0,370617;0,658436;0,378686;0,378686;0,287822;0,373369;0,572311;0,000000;0,658436;0,658436;0,296179;0,296296;0,000000;0,000000;0,000000;0,000000;0,000000;0,000000;0,658436;0,378347;0,000000;0,658436;0,384505;0,384505;0,368302;0,266901;0,266956;0,267011;0,267066;
56;;;;;;;;;;;;;;;;;;;;;;;;;;;;;;;;;;;;;;;;;;;;;;;;;;;;;;;;1,000000;0,000000;0,000000;0,416372;0,416372;0,000000;0,701440;0,339757;0,339837;0,339918;0,401677;0,406972;0,701440;0,417217;0,701440;0,413621;0,701440;0,421689;0,421689;0,809202;0,416372;0,331792;0,000000;0,701440;0,701440;0,827608;0,827608;0,000000;0,000000;0,000000;0,000000;0,000000;0,000000;0,701440;0,421351;0,000000;0,701440;0,427509;0,427509;0,411305;0,309905;0,309960;0,310015;0,310070;
57;;;;;;;;;;;;;;;;;;;;;;;;;;;;;;;;;;;;;;;;;;;;;;;;;;;;;;;;;1,000000;0,000000;0,000000;0,000000;0,000000;0,000000;0,000000;0,000000;0,000000;0,000000;0,000000;0,000000;0,000000;0,000000;0,000000;0,000000;0,000000;0,000000;0,000000;0,000000;0,000000;0,619648;0,000000;0,000000;0,000000;0,000000;0,000000;0,000000;0,000000;0,000000;0,000000;0,000000;0,000000;0,000000;0,000000;0,000000;0,000000;0,000000;0,000000;0,000000;0,000000;0,000000;0,000000;
58;;;;;;;;;;;;;;;;;;;;;;;;;;;;;;;;;;;;;;;;;;;;;;;;;;;;;;;;;;1,000000;0,000000;0,000000;0,000000;0,000000;0,000000;0,000000;0,000000;0,000000;0,000000;0,000000;0,000000;0,000000;0,000000;0,000000;0,000000;0,000000;0,000000;0,000000;0,000000;0,865469;0,000000;0,000000;0,000000;0,000000;0,000000;0,000000;0,000000;0,000000;0,000000;0,000000;0,000000;0,000000;0,000000;0,000000;0,000000;0,000000;0,000000;0,000000;0,000000;0,000000;0,000000;
59;;;;;;;;;;;;;;;;;;;;;;;;;;;;;;;;;;;;;;;;;;;;;;;;;;;;;;;;;;;1,000000;0,429866;0,000000;0,714933;0,353250;0,353330;0,353411;0,415170;0,420466;0,714933;0,430711;0,714933;0,427114;0,714933;0,435183;0,435183;0,344319;0,429866;0,345285;0,000000;0,714933;0,714933;0,352675;0,352793;0,000000;0,000000;0,000000;0,000000;0,000000;0,000000;0,714933;0,434844;0,000000;0,714933;0,441002;0,441002;0,424799;0,323398;0,323453;0,323508;0,323563;
60;;;;;;;;;;;;;;;;;;;;;;;;;;;;;;;;;;;;;;;;;;;;;;;;;;;;;;;;;;;;1,000000;0,000000;0,714933;0,353250;0,353330;0,353411;0,415170;0,420466;0,714933;0,430711;0,714933;0,427114;0,714933;0,435183;0,435183;0,344319;0,429866;0,345285;0,000000;0,714933;0,714933;0,352675;0,352793;0,000000;0,000000;0,000000;0,000000;0,000000;0,000000;0,714933;0,434844;0,000000;0,714933;0,441002;0,441002;0,424799;0,323398;0,323453;0,323508;0,323563;
61;;;;;;;;;;;;;;;;;;;;;;;;;;;;;;;;;;;;;;;;;;;;;;;;;;;;;;;;;;;;;1,000000;0,000000;0,000000;0,000000;0,000000;0,000000;0,000000;0,000000;0,000000;0,000000;0,000000;0,000000;0,000000;0,000000;0,000000;0,000000;0,000000;0,000000;0,000000;0,000000;0,000000;0,000000;0,000000;0,000000;0,000000;0,000000;0,000000;0,000000;0,000000;0,000000;0,000000;0,000000;0,000000;0,000000;0,000000;0,000000;0,000000;0,000000;0,000000;
62;;;;;;;;;;;;;;;;;;;;;;;;;;;;;;;;;;;;;;;;;;;;;;;;;;;;;;;;;;;;;;1,000000;0,638317;0,638397;0,638479;0,700238;0,705533;1,000000;0,715778;1,000000;0,712181;1,000000;0,720250;0,720250;0,629386;0,714933;0,630352;0,000000;1,000000;1,000000;0,637743;0,637860;0,000000;0,000000;0,000000;0,000000;0,000000;0,000000;1,000000;0,719911;0,000000;1,000000;0,726069;0,726069;0,709866;0,608465;0,608520;0,608575;0,608630;
63;;;;;;;;;;;;;;;;;;;;;;;;;;;;;;;;;;;;;;;;;;;;;;;;;;;;;;;;;;;;;;;1,000000;0,776178;0,776459;0,338555;0,343850;0,638317;0,354095;0,638317;0,350498;0,638317;0,358567;0,358567;0,267703;0,353250;0,268670;0,000000;0,638317;0,638317;0,276060;0,276178;0,000000;0,000000;0,000000;0,000000;0,000000;0,000000;0,638317;0,358229;0,000000;0,638317;0,364387;0,364387;0,348183;0,246782;0,246837;0,246892;0,246948;
64;;;;;;;;;;;;;;;;;;;;;;;;;;;;;;;;;;;;;;;;;;;;;;;;;;;;;;;;;;;;;;;;1,000000;0,776737;0,338635;0,343930;0,638397;0,354175;0,638397;0,350578;0,638397;0,358647;0,358647;0,267783;0,353330;0,268750;0,000000;0,638397;0,638397;0,276140;0,276258;0,000000;0,000000;0,000000;0,000000;0,000000;0,000000;0,638397;0,358309;0,000000;0,638397;0,364467;0,364467;0,348263;0,246862;0,246917;0,246973;0,247028;
65;;;;;;;;;;;;;;;;;;;;;;;;;;;;;;;;;;;;;;;;;;;;;;;;;;;;;;;;;;;;;;;;;1,000000;0,338716;0,344011;0,638479;0,354257;0,638479;0,350660;0,638479;0,358728;0,358728;0,267864;0,353411;0,268831;0,000000;0,638479;0,638479;0,276221;0,276339;0,000000;0,000000;0,000000;0,000000;0,000000;0,000000;0,638479;0,358390;0,000000;0,638479;0,364548;0,364548;0,348345;0,246944;0,246999;0,247054;0,247109;
66;;;;;;;;;;;;;;;;;;;;;;;;;;;;;;;;;;;;;;;;;;;;;;;;;;;;;;;;;;;;;;;;;;1,000000;0,862483;0,700238;0,416016;0,700238;0,412419;0,700238;0,420488;0,420488;0,329624;0,415170;0,330590;0,000000;0,700238;0,700238;0,337980;0,338098;0,000000;0,000000;0,000000;0,000000;0,000000;0,000000;0,700238;0,420149;0,000000;0,700238;0,426307;0,426307;1,000000;0,308703;0,308758;0,308813;0,308868;
67;;;;;;;;;;;;;;;;;;;;;;;;;;;;;;;;;;;;;;;;;;;;;;;;;;;;;;;;;;;;;;;;;;;1,000000;0,705533;0,421311;0,705533;0,417714;0,705533;0,425783;0,425783;0,334919;0,420466;0,335885;0,000000;0,705533;0,705533;0,343275;0,343393;0,000000;0,000000;0,000000;0,000000;0,000000;0,000000;0,705533;0,425444;0,000000;0,705533;0,431602;0,431602;0,862483;0,313998;0,314053;0,314108;0,314163;
68;;;;;;;;;;;;;;;;;;;;;;;;;;;;;;;;;;;;;;;;;;;;;;;;;;;;;;;;;;;;;;;;;;;;1,000000;0,715778;1,000000;0,712181;1,000000;0,720250;0,720250;0,629386;0,714933;0,630352;0,000000;1,000000;1,000000;0,637743;0,637860;0,000000;0,000000;0,000000;0,000000;0,000000;0,000000;1,000000;0,719911;0,000000;1,000000;0,726069;0,726069;0,709866;0,608465;0,608520;0,608575;0,608630;
69;;;;;;;;;;;;;;;;;;;;;;;;;;;;;;;;;;;;;;;;;;;;;;;;;;;;;;;;;;;;;;;;;;;;;1,000000;0,715778;0,427959;0,715778;0,436028;0,436028;0,345164;0,430711;0,346130;0,000000;0,715778;0,715778;0,353521;0,353638;0,000000;0,000000;0,000000;0,000000;0,000000;0,000000;0,715778;0,435689;0,000000;0,715778;0,441847;0,441847;0,425644;0,324243;0,324298;0,324353;0,324408;
70;;;;;;;;;;;;;;;;;;;;;;;;;;;;;;;;;;;;;;;;;;;;;;;;;;;;;;;;;;;;;;;;;;;;;;1,000000;0,712181;1,000000;0,720250;0,720250;0,629386;0,714933;0,630352;0,000000;1,000000;1,000000;0,637743;0,637860;0,000000;0,000000;0,000000;0,000000;0,000000;0,000000;1,000000;0,719911;0,000000;1,000000;0,726069;0,726069;0,709866;0,608465;0,608520;0,608575;0,608630;
71;;;;;;;;;;;;;;;;;;;;;;;;;;;;;;;;;;;;;;;;;;;;;;;;;;;;;;;;;;;;;;;;;;;;;;;1,000000;0,712181;0,432431;0,432431;0,341567;0,427114;0,342533;0,000000;0,712181;0,712181;0,349924;0,350041;0,000000;0,000000;0,000000;0,000000;0,000000;0,000000;0,712181;0,432092;0,000000;0,712181;0,438250;0,438250;0,422047;0,320646;0,320701;0,320756;0,320811;
72;;;;;;;;;;;;;;;;;;;;;;;;;;;;;;;;;;;;;;;;;;;;;;;;;;;;;;;;;;;;;;;;;;;;;;;;1,000000;0,720250;0,720250;0,629386;0,714933;0,630352;0,000000;1,000000;1,000000;0,637743;0,637860;0,000000;0,000000;0,000000;0,000000;0,000000;0,000000;1,000000;0,719911;0,000000;1,000000;0,726069;0,726069;0,709866;0,608465;0,608520;0,608575;0,608630;
73;;;;;;;;;;;;;;;;;;;;;;;;;;;;;;;;;;;;;;;;;;;;;;;;;;;;;;;;;;;;;;;;;;;;;;;;;1,000000;0,440500;0,349636;0,435183;0,350602;0,000000;0,720250;0,720250;0,357992;0,358110;0,000000;0,000000;0,000000;0,000000;0,000000;0,000000;0,720250;0,440161;0,000000;0,720250;0,446319;0,446319;0,430116;0,328715;0,328770;0,328825;0,328880;
74;;;;;;;;;;;;;;;;;;;;;;;;;;;;;;;;;;;;;;;;;;;;;;;;;;;;;;;;;;;;;;;;;;;;;;;;;;1,000000;0,349636;0,435183;0,350602;0,000000;0,720250;0,720250;0,357992;0,358110;0,000000;0,000000;0,000000;0,000000;0,000000;0,000000;0,720250;0,440161;0,000000;0,720250;0,446319;0,446319;0,430116;0,328715;0,328770;0,328825;0,328880;
75;;;;;;;;;;;;;;;;;;;;;;;;;;;;;;;;;;;;;;;;;;;;;;;;;;;;;;;;;;;;;;;;;;;;;;;;;;;1,000000;0,344319;0,259738;0,000000;0,629386;0,629386;0,636810;0,636810;0,000000;0,000000;0,000000;0,000000;0,000000;0,000000;0,629386;0,349297;0,663090;0,629386;0,355455;0,355455;0,339252;0,237851;0,237906;0,237961;0,238016;
76;;;;;;;;;;;;;;;;;;;;;;;;;;;;;;;;;;;;;;;;;;;;;;;;;;;;;;;;;;;;;;;;;;;;;;;;;;;;1,000000;0,345285;0,000000;0,714933;0,714933;0,352675;0,352793;0,000000;0,000000;0,000000;0,000000;0,000000;0,000000;0,714933;0,434844;0,000000;0,714933;0,441002;0,441002;0,424799;0,323398;0,323453;0,323508;0,323563;
77;;;;;;;;;;;;;;;;;;;;;;;;;;;;;;;;;;;;;;;;;;;;;;;;;;;;;;;;;;;;;;;;;;;;;;;;;;;;;1,000000;0,000000;0,630352;0,630352;0,268095;0,268213;0,000000;0,000000;0,000000;0,000000;0,000000;0,000000;0,630352;0,350264;0,000000;0,630352;0,356422;0,356422;0,340218;0,238817;0,238872;0,238928;0,238983;
78;;;;;;;;;;;;;;;;;;;;;;;;;;;;;;;;;;;;;;;;;;;;;;;;;;;;;;;;;;;;;;;;;;;;;;;;;;;;;;1,000000;0,000000;0,000000;0,000000;0,000000;0,000000;0,000000;0,000000;0,000000;0,000000;0,000000;0,000000;0,000000;0,000000;0,000000;0,000000;0,000000;0,000000;0,000000;0,000000;0,000000;0,000000;
79;;;;;;;;;;;;;;;;;;;;;;;;;;;;;;;;;;;;;;;;;;;;;;;;;;;;;;;;;;;;;;;;;;;;;;;;;;;;;;;1,000000;1,000000;0,637743;0,637860;0,000000;0,000000;0,000000;0,000000;0,000000;0,000000;1,000000;0,719911;0,000000;1,000000;0,726069;0,726069;0,709866;0,608465;0,608520;0,608575;0,608630;
80;;;;;;;;;;;;;;;;;;;;;;;;;;;;;;;;;;;;;;;;;;;;;;;;;;;;;;;;;;;;;;;;;;;;;;;;;;;;;;;;1,000000;0,637743;0,637860;0,000000;0,000000;0,000000;0,000000;0,000000;0,000000;1,000000;0,719911;0,000000;1,000000;0,726069;0,726069;0,709866;0,608465;0,608520;0,608575;0,608630;
81;;;;;;;;;;;;;;;;;;;;;;;;;;;;;;;;;;;;;;;;;;;;;;;;;;;;;;;;;;;;;;;;;;;;;;;;;;;;;;;;;1,000000;0,655215;0,000000;0,000000;0,000000;0,000000;0,000000;0,000000;0,637743;0,357654;0,000000;0,637743;0,363812;0,363812;0,347609;0,246208;0,246263;0,246318;0,246373;
82;;;;;;;;;;;;;;;;;;;;;;;;;;;;;;;;;;;;;;;;;;;;;;;;;;;;;;;;;;;;;;;;;;;;;;;;;;;;;;;;;;1,000000;0,000000;0,000000;0,000000;0,000000;0,000000;0,000000;0,637860;0,357771;0,000000;0,637860;0,363930;0,363930;0,347726;0,246325;0,246380;0,246435;0,246491;
83;;;;;;;;;;;;;;;;;;;;;;;;;;;;;;;;;;;;;;;;;;;;;;;;;;;;;;;;;;;;;;;;;;;;;;;;;;;;;;;;;;;1,000000;0,786865;0,787060;0,000000;0,000000;0,000000;0,000000;0,000000;0,000000;0,000000;0,000000;0,000000;0,000000;0,000000;0,000000;0,000000;0,000000;
84;;;;;;;;;;;;;;;;;;;;;;;;;;;;;;;;;;;;;;;;;;;;;;;;;;;;;;;;;;;;;;;;;;;;;;;;;;;;;;;;;;;;1,000000;0,787254;0,000000;0,000000;0,000000;0,000000;0,000000;0,000000;0,000000;0,000000;0,000000;0,000000;0,000000;0,000000;0,000000;0,000000;
85;;;;;;;;;;;;;;;;;;;;;;;;;;;;;;;;;;;;;;;;;;;;;;;;;;;;;;;;;;;;;;;;;;;;;;;;;;;;;;;;;;;;;1,000000;0,000000;0,000000;0,000000;0,000000;0,000000;0,000000;0,000000;0,000000;0,000000;0,000000;0,000000;0,000000;0,000000;0,000000;
86;;;;;;;;;;;;;;;;;;;;;;;;;;;;;;;;;;;;;;;;;;;;;;;;;;;;;;;;;;;;;;;;;;;;;;;;;;;;;;;;;;;;;;1,000000;0,788015;0,788202;0,000000;0,000000;0,000000;0,000000;0,000000;0,000000;0,000000;0,000000;0,000000;0,000000;0,000000;
87;;;;;;;;;;;;;;;;;;;;;;;;;;;;;;;;;;;;;;;;;;;;;;;;;;;;;;;;;;;;;;;;;;;;;;;;;;;;;;;;;;;;;;;1,000000;0,788387;0,000000;0,000000;0,000000;0,000000;0,000000;0,000000;0,000000;0,000000;0,000000;0,000000;0,000000;
88;;;;;;;;;;;;;;;;;;;;;;;;;;;;;;;;;;;;;;;;;;;;;;;;;;;;;;;;;;;;;;;;;;;;;;;;;;;;;;;;;;;;;;;;1,000000;0,000000;0,000000;0,000000;0,000000;0,000000;0,000000;0,000000;0,000000;0,000000;0,000000;0,000000;
89;;;;;;;;;;;;;;;;;;;;;;;;;;;;;;;;;;;;;;;;;;;;;;;;;;;;;;;;;;;;;;;;;;;;;;;;;;;;;;;;;;;;;;;;;1,000000;0,719911;0,000000;1,000000;0,726069;0,726069;0,709866;0,608465;0,608520;0,608575;0,608630;
90;;;;;;;;;;;;;;;;;;;;;;;;;;;;;;;;;;;;;;;;;;;;;;;;;;;;;;;;;;;;;;;;;;;;;;;;;;;;;;;;;;;;;;;;;;1,000000;0,000000;0,719911;0,445980;0,445980;0,429777;0,328376;0,328431;0,328486;0,328541;
91;;;;;;;;;;;;;;;;;;;;;;;;;;;;;;;;;;;;;;;;;;;;;;;;;;;;;;;;;;;;;;;;;;;;;;;;;;;;;;;;;;;;;;;;;;;1,000000;0,000000;0,000000;0,000000;0,000000;0,000000;0,000000;0,000000;0,000000;
92;;;;;;;;;;;;;;;;;;;;;;;;;;;;;;;;;;;;;;;;;;;;;;;;;;;;;;;;;;;;;;;;;;;;;;;;;;;;;;;;;;;;;;;;;;;;1,000000;0,726069;0,726069;0,709866;0,608465;0,608520;0,608575;0,608630;
93;;;;;;;;;;;;;;;;;;;;;;;;;;;;;;;;;;;;;;;;;;;;;;;;;;;;;;;;;;;;;;;;;;;;;;;;;;;;;;;;;;;;;;;;;;;;;1,000000;0,452139;0,435935;0,334534;0,334589;0,334644;0,334700;
94;;;;;;;;;;;;;;;;;;;;;;;;;;;;;;;;;;;;;;;;;;;;;;;;;;;;;;;;;;;;;;;;;;;;;;;;;;;;;;;;;;;;;;;;;;;;;;1,000000;0,435935;0,334534;0,334589;0,334644;0,334700;
95;;;;;;;;;;;;;;;;;;;;;;;;;;;;;;;;;;;;;;;;;;;;;;;;;;;;;;;;;;;;;;;;;;;;;;;;;;;;;;;;;;;;;;;;;;;;;;;1,000000;0,318331;0,318386;0,318441;0,318496;
96;;;;;;;;;;;;;;;;;;;;;;;;;;;;;;;;;;;;;;;;;;;;;;;;;;;;;;;;;;;;;;;;;;;;;;;;;;;;;;;;;;;;;;;;;;;;;;;;1,000000;0,854902;0,855024;0,855145;
97;;;;;;;;;;;;;;;;;;;;;;;;;;;;;;;;;;;;;;;;;;;;;;;;;;;;;;;;;;;;;;;;;;;;;;;;;;;;;;;;;;;;;;;;;;;;;;;;;1,000000;0,855145;0,855265;
98;;;;;;;;;;;;;;;;;;;;;;;;;;;;;;;;;;;;;;;;;;;;;;;;;;;;;;;;;;;;;;;;;;;;;;;;;;;;;;;;;;;;;;;;;;;;;;;;;;1,000000;0,855384;
99;;;;;;;;;;;;;;;;;;;;;;;;;;;;;;;;;;;;;;;;;;;;;;;;;;;;;;;;;;;;;;;;;;;;;;;;;;;;;;;;;;;;;;;;;;;;;;;;;;;1,000000;
