;1; 2; 3; 4; 5; 6; 7; 8; 9; 10; 11; 12; 13; 14
1;1,000000;0,450669;0,433975;0,500000;0,922330;0,833333;0,375000;0,375000;0,375000;0,375000;0,833333;1,000000;0,500000;0,833333;
2;;1,000000;0,513138;0,435355;0,532072;0,755664;0,325669;0,325669;0,325669;0,325669;0,755664;0,450669;0,922330;0,755664;
3;;;1,000000;0,886023;0,515129;0,719357;0,425568;0,425568;0,425568;0,425568;0,719357;0,433975;0,425107;0,719357;
4;;;;1,000000;0,445790;0,833333;0,000000;0,000000;0,000000;0,000000;0,833333;0,500000;0,500000;0,833333;
5;;;;;1,000000;0,755664;0,325669;0,325669;0,325669;0,325669;0,755664;0,922330;0,450669;0,755664;
6;;;;;;1,000000;0,291667;0,291667;0,291667;0,291667;1,000000;0,833333;0,833333;1,000000;
7;;;;;;;1,000000;0,750000;0,750000;0,750000;0,291667;0,375000;0,375000;0,291667;
8;;;;;;;;1,000000;0,750000;0,750000;0,291667;0,375000;0,375000;0,291667;
9;;;;;;;;;1,000000;0,750000;0,291667;0,375000;0,375000;0,291667;
10;;;;;;;;;;1,000000;0,291667;0,375000;0,375000;0,291667;
11;;;;;;;;;;;1,000000;0,833333;0,833333;1,000000;
12;;;;;;;;;;;;1,000000;0,500000;0,833333;
13;;;;;;;;;;;;;1,000000;0,833333;
14;;;;;;;;;;;;;;1,000000;
