;1; 2; 3; 4; 5; 6; 7; 8; 9; 10; 11; 12; 13; 14; 15; 16; 17; 18; 19; 20; 21; 22; 23; 24; 25; 26; 27; 28; 29; 30; 31; 32; 33; 34; 35; 36; 37; 38; 39; 40; 41; 42; 43; 44; 45; 46; 47; 48; 49; 50; 51; 52; 53; 54; 55; 56; 57; 58; 59
1;1,000000;0,750000;0,447887;0,750000;0,750000;0,259925;0,291667;0,291667;0,375000;0,287421;0,625000;0,328017;0,308752;0,625000;0,375000;0,375000;0,000000;0,000000;0,000000;0,000000;0,000000;0,625000;0,625000;0,328017;0,342287;0,328017;0,375000;0,375000;0,375000;0,291667;0,291667;0,000000;0,000000;0,000000;0,000000;0,625000;0,328017;0,291667;0,291667;0,291667;0,291667;0,291667;0,375000;0,375000;0,000000;0,291667;0,291667;0,375000;0,375000;0,375000;0,625000;0,625000;0,375000;0,375000;0,375000;0,375000;0,291667;0,291667;0,291667;
2;;1,000000;0,447887;0,750000;0,750000;0,259925;0,291667;0,291667;0,375000;0,287421;0,625000;0,328017;0,308752;0,625000;0,375000;0,375000;0,000000;0,000000;0,000000;0,000000;0,000000;0,625000;0,625000;0,328017;0,342287;0,328017;0,375000;0,375000;0,375000;0,291667;0,291667;0,000000;0,000000;0,000000;0,000000;0,625000;0,328017;0,291667;0,291667;0,291667;0,291667;0,291667;0,375000;0,375000;0,000000;0,291667;0,291667;0,375000;0,375000;0,375000;0,625000;0,625000;0,375000;0,375000;0,375000;0,375000;0,291667;0,291667;0,291667;
3;;;1,000000;0,447887;0,447887;0,449576;0,393152;0,393152;0,277160;0,289419;0,000000;0,401524;0,436642;0,000000;0,283998;0,283998;0,000000;0,193826;0,000000;0,286245;0,286245;0,000000;0,000000;0,363633;0,357958;0,369211;0,280995;0,289237;0,289237;0,387474;0,387474;0,000000;0,000000;0,000000;0,000000;0,000000;0,353253;0,395912;0,383035;0,383035;0,385232;0,385232;0,277160;0,287138;0,277160;0,397341;0,397341;0,282754;0,282754;0,280884;0,000000;0,000000;0,282738;0,282738;0,282733;0,282733;0,387935;0,387935;0,387935;
4;;;;1,000000;0,750000;0,259925;0,291667;0,291667;0,375000;0,287421;0,625000;0,328017;0,308752;0,625000;0,375000;0,375000;0,000000;0,000000;0,000000;0,000000;0,000000;0,625000;0,625000;0,328017;0,342287;0,328017;0,375000;0,375000;0,375000;0,291667;0,291667;0,000000;0,000000;0,000000;0,000000;0,625000;0,328017;0,291667;0,291667;0,291667;0,291667;0,291667;0,375000;0,375000;0,000000;0,291667;0,291667;0,375000;0,375000;0,375000;0,625000;0,625000;0,375000;0,375000;0,375000;0,375000;0,291667;0,291667;0,291667;
5;;;;;1,000000;0,259925;0,291667;0,291667;0,375000;0,287421;0,625000;0,328017;0,308752;0,625000;0,375000;0,375000;0,000000;0,000000;0,000000;0,000000;0,000000;0,625000;0,625000;0,328017;0,342287;0,328017;0,375000;0,375000;0,375000;0,291667;0,291667;0,000000;0,000000;0,000000;0,000000;0,625000;0,328017;0,291667;0,291667;0,291667;0,291667;0,291667;0,375000;0,375000;0,000000;0,291667;0,291667;0,375000;0,375000;0,375000;0,625000;0,625000;0,375000;0,375000;0,375000;0,375000;0,291667;0,291667;0,291667;
6;;;;;;1,000000;0,544540;0,544540;0,384925;0,297346;0,634925;0,337942;0,318677;0,634925;0,384925;0,384925;0,000000;0,000000;0,000000;0,363766;0,363766;0,634925;0,634925;0,337942;0,352212;0,337942;0,384925;0,384925;0,384925;0,301591;0,301591;0,000000;0,000000;0,000000;0,000000;0,634925;0,475163;0,507728;0,508028;0,508028;0,301591;0,301591;0,384925;0,384925;0,000000;0,301591;0,301591;0,384925;0,384925;0,674395;0,634925;0,634925;0,384925;0,384925;0,384925;0,384925;0,301591;0,301591;0,301591;
7;;;;;;;1,000000;0,666667;0,416667;0,329088;0,666667;0,369684;0,350419;0,666667;0,416667;0,416667;0,000000;0,000000;0,000000;0,416667;0,416667;0,666667;0,666667;0,369684;0,383954;0,369684;0,416667;0,416667;0,416667;0,333333;0,333333;0,000000;0,000000;0,000000;0,000000;0,666667;0,633181;0,666667;0,666667;0,666667;0,333333;0,333333;0,416667;0,416667;0,000000;0,333333;0,333333;0,416667;0,416667;0,416667;0,666667;0,666667;0,416667;0,416667;0,416667;0,416667;0,333333;0,333333;0,333333;
8;;;;;;;;1,000000;0,416667;0,329088;0,666667;0,369684;0,350419;0,666667;0,416667;0,416667;0,000000;0,000000;0,000000;0,416667;0,416667;0,666667;0,666667;0,369684;0,383954;0,369684;0,416667;0,416667;0,416667;0,333333;0,333333;0,000000;0,000000;0,000000;0,000000;0,666667;0,633181;0,666667;0,666667;0,666667;0,333333;0,333333;0,416667;0,416667;0,000000;0,333333;0,333333;0,416667;0,416667;0,416667;0,666667;0,666667;0,416667;0,416667;0,416667;0,416667;0,333333;0,333333;0,333333;
9;;;;;;;;;1,000000;0,412421;0,750000;0,453017;0,433752;0,750000;0,500000;0,500000;0,000000;0,416667;0,000000;0,000000;0,000000;0,750000;0,750000;0,453017;0,467287;0,453017;0,500000;0,500000;0,500000;0,416667;0,416667;0,000000;0,000000;0,000000;0,000000;0,750000;0,453017;0,416667;0,416667;0,416667;0,416667;0,416667;1,000000;0,500000;0,500000;0,416667;0,416667;0,500000;0,500000;0,500000;0,750000;0,750000;0,500000;0,500000;0,500000;0,500000;0,416667;0,416667;0,416667;
10;;;;;;;;;;1,000000;0,662421;0,365438;0,346173;0,662421;0,412421;0,412421;0,381637;0,381944;0,381637;0,000000;0,000000;0,662421;0,662421;0,365438;0,379708;0,365438;0,412421;0,412421;0,412421;0,329088;0,329088;0,000000;0,000000;0,000000;0,000000;0,662421;0,365438;0,329088;0,329088;0,329088;0,329088;0,329088;0,412421;0,412421;0,381637;0,329088;0,329088;0,412421;0,412421;0,412421;0,662421;0,662421;0,412421;0,412421;0,412421;0,412421;0,329088;0,329088;0,329088;
11;;;;;;;;;;;1,000000;0,703017;0,683752;1,000000;0,750000;0,750000;0,000000;0,000000;0,000000;0,000000;0,000000;1,000000;1,000000;0,703017;0,717287;0,703017;0,750000;0,750000;0,750000;0,666667;0,666667;0,000000;0,000000;0,000000;0,000000;1,000000;0,703017;0,666667;0,666667;0,666667;0,666667;0,666667;0,750000;0,750000;0,000000;0,666667;0,666667;0,750000;0,750000;0,750000;1,000000;1,000000;0,750000;0,750000;0,750000;0,750000;0,666667;0,666667;0,666667;
12;;;;;;;;;;;;1,000000;0,386770;0,703017;0,453017;0,453017;0,000000;0,000000;0,000000;0,000000;0,000000;0,703017;0,703017;0,406035;0,420304;0,406035;0,453017;0,453017;0,453017;0,657683;0,657683;0,000000;0,000000;0,000000;0,000000;0,703017;0,406035;0,369684;0,369684;0,369684;0,633801;0,633801;0,453017;0,453017;0,000000;0,657683;0,657683;0,453017;0,453017;0,453017;0,703017;0,703017;0,453017;0,453017;0,453017;0,453017;0,369684;0,369684;0,369684;
13;;;;;;;;;;;;;1,000000;0,683752;0,433752;0,433752;0,000000;0,000000;0,000000;0,000000;0,000000;0,683752;0,683752;0,386770;0,401039;0,386770;0,433752;0,433752;0,433752;0,566256;0,566256;0,000000;0,000000;0,000000;0,000000;0,683752;0,386770;0,350419;0,350419;0,350419;0,577693;0,577693;0,433752;0,433752;0,000000;0,610707;0,610707;0,433752;0,433752;0,433752;0,683752;0,683752;0,433752;0,433752;0,433752;0,433752;0,350419;0,350419;0,350419;
14;;;;;;;;;;;;;;1,000000;0,750000;0,750000;0,000000;0,000000;0,000000;0,000000;0,000000;1,000000;1,000000;0,703017;0,717287;0,703017;0,750000;0,750000;0,750000;0,666667;0,666667;0,000000;0,000000;0,000000;0,000000;1,000000;0,703017;0,666667;0,666667;0,666667;0,666667;0,666667;0,750000;0,750000;0,000000;0,666667;0,666667;0,750000;0,750000;0,750000;1,000000;1,000000;0,750000;0,750000;0,750000;0,750000;0,666667;0,666667;0,666667;
15;;;;;;;;;;;;;;;1,000000;0,500000;0,000000;0,000000;0,000000;0,000000;0,000000;0,750000;0,750000;0,453017;0,467287;0,453017;0,500000;0,500000;0,500000;0,416667;0,416667;0,000000;0,000000;0,000000;0,000000;0,750000;0,453017;0,416667;0,416667;0,416667;0,416667;0,416667;0,500000;0,500000;0,000000;0,416667;0,416667;0,500000;0,500000;0,500000;0,750000;0,750000;0,500000;0,500000;0,500000;0,500000;0,416667;0,416667;0,416667;
16;;;;;;;;;;;;;;;;1,000000;0,000000;0,000000;0,000000;0,000000;0,000000;0,750000;0,750000;0,453017;0,467287;0,453017;0,500000;0,500000;0,500000;0,416667;0,416667;0,000000;0,000000;0,000000;0,000000;0,750000;0,453017;0,416667;0,416667;0,416667;0,416667;0,416667;0,500000;0,500000;0,000000;0,416667;0,416667;0,500000;0,500000;0,500000;0,750000;0,750000;0,500000;0,500000;0,500000;0,500000;0,416667;0,416667;0,416667;
17;;;;;;;;;;;;;;;;;1,000000;0,462149;0,500000;0,000000;0,000000;0,000000;0,000000;0,000000;0,000000;0,000000;0,000000;0,000000;0,000000;0,000000;0,000000;0,000000;0,000000;0,000000;0,000000;0,000000;0,000000;0,000000;0,000000;0,000000;0,000000;0,000000;0,000000;0,000000;0,500000;0,000000;0,000000;0,000000;0,000000;0,000000;0,000000;0,000000;0,000000;0,000000;0,000000;0,000000;0,000000;0,000000;0,000000;
18;;;;;;;;;;;;;;;;;;1,000000;0,462149;0,000000;0,000000;0,000000;0,000000;0,000000;0,000000;0,000000;0,000000;0,000000;0,000000;0,000000;0,000000;0,000000;0,000000;0,000000;0,000000;0,000000;0,000000;0,000000;0,000000;0,000000;0,000000;0,000000;0,416667;0,000000;0,416667;0,000000;0,000000;0,000000;0,000000;0,000000;0,000000;0,000000;0,000000;0,000000;0,000000;0,000000;0,000000;0,000000;0,000000;
19;;;;;;;;;;;;;;;;;;;1,000000;0,000000;0,000000;0,000000;0,000000;0,000000;0,000000;0,000000;0,000000;0,000000;0,000000;0,000000;0,000000;0,000000;0,000000;0,000000;0,000000;0,000000;0,000000;0,000000;0,000000;0,000000;0,000000;0,000000;0,000000;0,000000;0,500000;0,000000;0,000000;0,000000;0,000000;0,000000;0,000000;0,000000;0,000000;0,000000;0,000000;0,000000;0,000000;0,000000;0,000000;
20;;;;;;;;;;;;;;;;;;;;1,000000;0,500000;0,000000;0,000000;0,000000;0,000000;0,000000;0,000000;0,000000;0,000000;0,000000;0,000000;0,000000;0,000000;0,000000;0,000000;0,000000;0,366134;0,416667;0,416667;0,416667;0,000000;0,000000;0,000000;0,000000;0,000000;0,000000;0,000000;0,000000;0,000000;0,000000;0,000000;0,000000;0,000000;0,000000;0,000000;0,000000;0,000000;0,000000;0,000000;
21;;;;;;;;;;;;;;;;;;;;;1,000000;0,000000;0,000000;0,000000;0,000000;0,000000;0,000000;0,000000;0,000000;0,000000;0,000000;0,000000;0,000000;0,000000;0,000000;0,000000;0,366134;0,416667;0,416667;0,416667;0,000000;0,000000;0,000000;0,000000;0,000000;0,000000;0,000000;0,000000;0,000000;0,000000;0,000000;0,000000;0,000000;0,000000;0,000000;0,000000;0,000000;0,000000;0,000000;
22;;;;;;;;;;;;;;;;;;;;;;1,000000;1,000000;0,703017;0,717287;0,703017;0,750000;0,750000;0,750000;0,666667;0,666667;0,000000;0,000000;0,000000;0,000000;1,000000;0,703017;0,666667;0,666667;0,666667;0,666667;0,666667;0,750000;0,750000;0,000000;0,666667;0,666667;0,750000;0,750000;0,750000;1,000000;1,000000;0,750000;0,750000;0,750000;0,750000;0,666667;0,666667;0,666667;
23;;;;;;;;;;;;;;;;;;;;;;;1,000000;0,703017;0,717287;0,703017;0,750000;0,750000;0,750000;0,666667;0,666667;0,000000;0,000000;0,000000;0,000000;1,000000;0,703017;0,666667;0,666667;0,666667;0,666667;0,666667;0,750000;0,750000;0,000000;0,666667;0,666667;0,750000;0,750000;0,750000;1,000000;1,000000;0,750000;0,750000;0,750000;0,750000;0,666667;0,666667;0,666667;
24;;;;;;;;;;;;;;;;;;;;;;;;1,000000;0,586331;0,706182;0,800305;0,453017;0,453017;0,369684;0,369684;0,000000;0,000000;0,000000;0,000000;0,703017;0,406035;0,369684;0,369684;0,369684;0,369684;0,369684;0,453017;0,906035;0,000000;0,369684;0,369684;0,453017;0,453017;0,453017;0,703017;0,703017;0,453017;0,453017;0,453017;0,453017;0,369684;0,369684;0,369684;
25;;;;;;;;;;;;;;;;;;;;;;;;;1,000000;0,664185;0,786026;0,467287;0,467287;0,383954;0,383954;0,000000;0,000000;0,000000;0,000000;0,717287;0,420304;0,383954;0,383954;0,383954;0,383954;0,383954;0,467287;0,467287;0,000000;0,383954;0,383954;0,467287;0,467287;0,467287;0,717287;0,717287;0,467287;0,467287;0,467287;0,467287;0,383954;0,383954;0,383954;
26;;;;;;;;;;;;;;;;;;;;;;;;;;1,000000;0,453017;0,453017;0,453017;0,369684;0,369684;0,000000;0,000000;0,000000;0,000000;0,703017;0,406035;0,369684;0,369684;0,369684;0,369684;0,369684;0,453017;0,800147;0,000000;0,369684;0,369684;0,453017;0,453017;0,453017;0,703017;0,703017;0,453017;0,453017;0,453017;0,453017;0,369684;0,369684;0,369684;
27;;;;;;;;;;;;;;;;;;;;;;;;;;;1,000000;0,500000;0,500000;0,416667;0,416667;0,000000;0,000000;0,000000;0,000000;0,750000;0,453017;0,416667;0,416667;0,416667;0,416667;0,416667;0,500000;0,500000;0,000000;0,416667;0,416667;0,500000;0,500000;0,500000;0,750000;0,750000;0,500000;0,500000;0,500000;0,500000;0,416667;0,416667;0,416667;
28;;;;;;;;;;;;;;;;;;;;;;;;;;;;1,000000;0,500000;0,416667;0,416667;0,000000;0,000000;0,000000;0,000000;0,750000;0,453017;0,416667;0,416667;0,416667;0,416667;0,416667;0,500000;0,500000;0,000000;0,416667;0,416667;0,500000;0,500000;0,500000;0,750000;0,750000;0,500000;0,500000;0,500000;0,500000;0,416667;0,416667;0,416667;
29;;;;;;;;;;;;;;;;;;;;;;;;;;;;;1,000000;0,416667;0,416667;0,000000;0,000000;0,000000;0,000000;0,750000;0,453017;0,416667;0,416667;0,416667;0,416667;0,416667;0,500000;0,500000;0,000000;0,416667;0,416667;0,500000;0,500000;0,500000;0,750000;0,750000;0,500000;0,500000;0,500000;0,500000;0,416667;0,416667;0,416667;
30;;;;;;;;;;;;;;;;;;;;;;;;;;;;;;1,000000;0,666667;0,000000;0,000000;0,000000;0,000000;0,666667;0,369684;0,333333;0,333333;0,333333;0,333333;0,333333;0,416667;0,416667;0,000000;0,666667;0,666667;0,416667;0,416667;0,416667;0,666667;0,666667;0,416667;0,416667;0,416667;0,416667;0,333333;0,333333;0,333333;
31;;;;;;;;;;;;;;;;;;;;;;;;;;;;;;;1,000000;0,000000;0,000000;0,000000;0,000000;0,666667;0,369684;0,333333;0,333333;0,333333;0,333333;0,333333;0,416667;0,416667;0,000000;0,666667;0,666667;0,416667;0,416667;0,416667;0,666667;0,666667;0,416667;0,416667;0,416667;0,416667;0,333333;0,333333;0,333333;
32;;;;;;;;;;;;;;;;;;;;;;;;;;;;;;;;1,000000;0,666667;0,666667;0,666667;0,000000;0,000000;0,000000;0,000000;0,000000;0,000000;0,000000;0,000000;0,000000;0,000000;0,000000;0,000000;0,000000;0,000000;0,000000;0,000000;0,000000;0,000000;0,000000;0,000000;0,000000;0,000000;0,000000;0,000000;
33;;;;;;;;;;;;;;;;;;;;;;;;;;;;;;;;;1,000000;0,666667;0,666667;0,000000;0,000000;0,000000;0,000000;0,000000;0,000000;0,000000;0,000000;0,000000;0,000000;0,000000;0,000000;0,000000;0,000000;0,000000;0,000000;0,000000;0,000000;0,000000;0,000000;0,000000;0,000000;0,000000;0,000000;
34;;;;;;;;;;;;;;;;;;;;;;;;;;;;;;;;;;1,000000;0,666667;0,000000;0,000000;0,000000;0,000000;0,000000;0,000000;0,000000;0,000000;0,000000;0,000000;0,000000;0,000000;0,000000;0,000000;0,000000;0,000000;0,000000;0,000000;0,000000;0,000000;0,000000;0,000000;0,000000;0,000000;
35;;;;;;;;;;;;;;;;;;;;;;;;;;;;;;;;;;;1,000000;0,000000;0,000000;0,000000;0,000000;0,000000;0,000000;0,000000;0,000000;0,000000;0,000000;0,000000;0,000000;0,000000;0,000000;0,000000;0,000000;0,000000;0,000000;0,000000;0,000000;0,000000;0,000000;0,000000;0,000000;
36;;;;;;;;;;;;;;;;;;;;;;;;;;;;;;;;;;;;1,000000;0,703017;0,666667;0,666667;0,666667;0,666667;0,666667;0,750000;0,750000;0,000000;0,666667;0,666667;0,750000;0,750000;0,750000;1,000000;1,000000;0,750000;0,750000;0,750000;0,750000;0,666667;0,666667;0,666667;
37;;;;;;;;;;;;;;;;;;;;;;;;;;;;;;;;;;;;;1,000000;0,633181;0,633181;0,633181;0,369684;0,369684;0,453017;0,453017;0,000000;0,369684;0,369684;0,453017;0,453017;0,453017;0,703017;0,703017;0,453017;0,453017;0,453017;0,453017;0,369684;0,369684;0,369684;
38;;;;;;;;;;;;;;;;;;;;;;;;;;;;;;;;;;;;;;1,000000;0,666667;0,666667;0,333333;0,333333;0,416667;0,416667;0,000000;0,333333;0,333333;0,416667;0,416667;0,833333;0,666667;0,666667;0,416667;0,416667;0,416667;0,416667;0,333333;0,333333;0,333333;
39;;;;;;;;;;;;;;;;;;;;;;;;;;;;;;;;;;;;;;;1,000000;0,666667;0,333333;0,333333;0,416667;0,416667;0,000000;0,333333;0,333333;0,416667;0,416667;0,416667;0,666667;0,666667;0,416667;0,416667;0,416667;0,416667;0,333333;0,333333;0,333333;
40;;;;;;;;;;;;;;;;;;;;;;;;;;;;;;;;;;;;;;;;1,000000;0,333333;0,333333;0,416667;0,416667;0,000000;0,333333;0,333333;0,416667;0,416667;0,416667;0,666667;0,666667;0,416667;0,416667;0,416667;0,416667;0,333333;0,333333;0,333333;
41;;;;;;;;;;;;;;;;;;;;;;;;;;;;;;;;;;;;;;;;;1,000000;0,666667;0,416667;0,416667;0,000000;0,333333;0,333333;0,416667;0,416667;0,416667;0,666667;0,666667;0,416667;0,416667;0,416667;0,416667;0,333333;0,333333;0,333333;
42;;;;;;;;;;;;;;;;;;;;;;;;;;;;;;;;;;;;;;;;;;1,000000;0,416667;0,416667;0,000000;0,333333;0,333333;0,416667;0,416667;0,416667;0,666667;0,666667;0,416667;0,416667;0,416667;0,416667;0,333333;0,333333;0,333333;
43;;;;;;;;;;;;;;;;;;;;;;;;;;;;;;;;;;;;;;;;;;;1,000000;0,500000;0,500000;0,416667;0,416667;0,500000;0,500000;0,500000;0,750000;0,750000;0,500000;0,500000;0,500000;0,500000;0,416667;0,416667;0,416667;
44;;;;;;;;;;;;;;;;;;;;;;;;;;;;;;;;;;;;;;;;;;;;1,000000;0,000000;0,416667;0,416667;0,500000;0,500000;0,500000;0,750000;0,750000;0,500000;0,500000;0,500000;0,500000;0,416667;0,416667;0,416667;
45;;;;;;;;;;;;;;;;;;;;;;;;;;;;;;;;;;;;;;;;;;;;;1,000000;0,000000;0,000000;0,000000;0,000000;0,000000;0,000000;0,000000;0,000000;0,000000;0,000000;0,000000;0,000000;0,000000;0,000000;
46;;;;;;;;;;;;;;;;;;;;;;;;;;;;;;;;;;;;;;;;;;;;;;1,000000;0,666667;0,416667;0,416667;0,416667;0,666667;0,666667;0,416667;0,416667;0,416667;0,416667;0,333333;0,333333;0,333333;
47;;;;;;;;;;;;;;;;;;;;;;;;;;;;;;;;;;;;;;;;;;;;;;;1,000000;0,416667;0,416667;0,416667;0,666667;0,666667;0,416667;0,416667;0,416667;0,416667;0,333333;0,333333;0,333333;
48;;;;;;;;;;;;;;;;;;;;;;;;;;;;;;;;;;;;;;;;;;;;;;;;1,000000;0,500000;0,500000;0,750000;0,750000;0,500000;0,500000;0,500000;0,500000;0,416667;0,416667;0,416667;
49;;;;;;;;;;;;;;;;;;;;;;;;;;;;;;;;;;;;;;;;;;;;;;;;;1,000000;0,500000;0,750000;0,750000;0,500000;0,500000;0,500000;0,500000;0,416667;0,416667;0,416667;
50;;;;;;;;;;;;;;;;;;;;;;;;;;;;;;;;;;;;;;;;;;;;;;;;;;1,000000;0,750000;0,750000;0,500000;0,500000;0,500000;0,500000;0,416667;0,416667;0,416667;
51;;;;;;;;;;;;;;;;;;;;;;;;;;;;;;;;;;;;;;;;;;;;;;;;;;;1,000000;1,000000;0,750000;0,750000;0,750000;0,750000;0,666667;0,666667;0,666667;
52;;;;;;;;;;;;;;;;;;;;;;;;;;;;;;;;;;;;;;;;;;;;;;;;;;;;1,000000;0,750000;0,750000;0,750000;0,750000;0,666667;0,666667;0,666667;
53;;;;;;;;;;;;;;;;;;;;;;;;;;;;;;;;;;;;;;;;;;;;;;;;;;;;;1,000000;0,500000;0,500000;0,500000;0,416667;0,416667;0,416667;
54;;;;;;;;;;;;;;;;;;;;;;;;;;;;;;;;;;;;;;;;;;;;;;;;;;;;;;1,000000;0,500000;0,500000;0,416667;0,416667;0,416667;
55;;;;;;;;;;;;;;;;;;;;;;;;;;;;;;;;;;;;;;;;;;;;;;;;;;;;;;;1,000000;0,500000;0,416667;0,416667;0,416667;
56;;;;;;;;;;;;;;;;;;;;;;;;;;;;;;;;;;;;;;;;;;;;;;;;;;;;;;;;1,000000;0,416667;0,416667;0,416667;
57;;;;;;;;;;;;;;;;;;;;;;;;;;;;;;;;;;;;;;;;;;;;;;;;;;;;;;;;;1,000000;0,666667;0,666667;
58;;;;;;;;;;;;;;;;;;;;;;;;;;;;;;;;;;;;;;;;;;;;;;;;;;;;;;;;;;1,000000;0,666667;
59;;;;;;;;;;;;;;;;;;;;;;;;;;;;;;;;;;;;;;;;;;;;;;;;;;;;;;;;;;;1,000000;
