;1; 2; 3; 4; 5; 6; 7; 8; 9; 10; 11; 12; 13; 14; 15; 16; 17; 18; 19; 20; 21; 22; 23; 24; 25; 26; 27; 28; 29; 30; 31; 32; 33; 34; 35; 36; 37; 38; 39; 40; 41; 42; 43; 44; 45; 46; 47; 48; 49; 50; 51; 52; 53; 54; 55; 56; 57; 58; 59; 60
1;1,000000;0,815315;0,815315;0,815315;0,815315;0,815315;0,761876;0,762228;0,727365;0,735185;0,706373;0,000000;0,000000;0,000000;0,000000;0,802505;0,817407;0,802505;0,802505;0,786257;0,774763;0,746693;0,000000;0,000000;0,786331;0,785516;0,734676;0,734676;0,773352;0,791619;0,787100;0,783926;0,783926;0,000000;0,000000;0,737342;0,804724;0,818246;0,715844;0,677079;0,654877;0,817765;0,817765;0,817407;0,712089;0,723904;0,806549;0,806549;0,817522;0,654245;0,715517;0,817567;0,817567;0,786624;0,736531;0,491502;0,654648;0,000000;0,000000;0,000000;
2;;1,000000;0,833333;0,833333;0,833333;0,833333;0,815315;0,351539;0,366091;0,416667;0,366549;0,000000;0,000000;0,000000;0,000000;0,333333;0,333333;0,333333;0,333333;0,366667;0,355556;0,344417;0,000000;0,000000;0,344159;0,366667;0,416667;0,416667;0,337914;0,336480;0,338610;0,366667;0,366667;0,000000;0,000000;0,346194;0,333333;0,333333;0,375000;0,356783;0,500000;0,333333;0,333333;0,333333;0,375000;0,388889;0,333333;0,333333;0,333333;0,500000;0,358555;0,333333;0,333333;0,366667;0,416667;0,666667;0,500000;0,000000;0,000000;0,000000;
3;;;1,000000;0,833333;0,833333;0,833333;0,815315;0,351539;0,366091;0,416667;0,366549;0,000000;0,000000;0,000000;0,000000;0,333333;0,333333;0,333333;0,333333;0,366667;0,355556;0,344417;0,000000;0,000000;0,344159;0,366667;0,416667;0,416667;0,337914;0,336480;0,338610;0,366667;0,366667;0,000000;0,000000;0,346194;0,333333;0,333333;0,375000;0,356783;0,500000;0,333333;0,333333;0,333333;0,375000;0,388889;0,333333;0,333333;0,333333;0,500000;0,358555;0,333333;0,333333;0,366667;0,416667;0,666667;0,500000;0,000000;0,000000;0,000000;
4;;;;1,000000;0,833333;0,833333;0,815315;0,351539;0,366091;0,416667;0,366549;0,000000;0,000000;0,000000;0,000000;0,333333;0,333333;0,333333;0,333333;0,366667;0,355556;0,344417;0,000000;0,000000;0,344159;0,366667;0,416667;0,416667;0,337914;0,336480;0,338610;0,366667;0,366667;0,000000;0,000000;0,346194;0,333333;0,333333;0,375000;0,356783;0,500000;0,333333;0,333333;0,333333;0,375000;0,388889;0,333333;0,333333;0,333333;0,500000;0,358555;0,333333;0,333333;0,366667;0,416667;0,666667;0,500000;0,000000;0,000000;0,000000;
5;;;;;1,000000;0,833333;0,815315;0,351539;0,366091;0,416667;0,366549;0,000000;0,000000;0,000000;0,000000;0,333333;0,333333;0,333333;0,333333;0,366667;0,355556;0,344417;0,000000;0,000000;0,344159;0,366667;0,416667;0,416667;0,337914;0,336480;0,338610;0,366667;0,366667;0,000000;0,000000;0,346194;0,333333;0,333333;0,375000;0,356783;0,500000;0,333333;0,333333;0,333333;0,375000;0,388889;0,333333;0,333333;0,333333;0,500000;0,358555;0,333333;0,333333;0,366667;0,416667;0,666667;0,500000;0,000000;0,000000;0,000000;
6;;;;;;1,000000;0,815315;0,351539;0,366091;0,416667;0,366549;0,000000;0,000000;0,000000;0,000000;0,333333;0,333333;0,333333;0,333333;0,366667;0,355556;0,344417;0,000000;0,000000;0,344159;0,366667;0,416667;0,416667;0,337914;0,336480;0,338610;0,366667;0,366667;0,000000;0,000000;0,346194;0,333333;0,333333;0,375000;0,356783;0,500000;0,333333;0,333333;0,333333;0,375000;0,388889;0,333333;0,333333;0,333333;0,500000;0,358555;0,333333;0,333333;0,366667;0,416667;0,666667;0,500000;0,000000;0,000000;0,000000;
7;;;;;;;1,000000;0,762228;0,727365;0,735185;0,706373;0,000000;0,000000;0,000000;0,000000;0,802505;0,817407;0,802505;0,802505;0,786257;0,774763;0,746693;0,000000;0,000000;0,786331;0,785516;0,734676;0,734676;0,773352;0,791619;0,787100;0,783926;0,783926;0,000000;0,000000;0,737342;0,804724;0,818246;0,715844;0,677079;0,654877;0,817765;0,817765;0,817407;0,712089;0,723904;0,806549;0,806549;0,817522;0,654245;0,715517;0,817567;0,817567;0,786624;0,736531;0,491502;0,654648;0,000000;0,000000;0,000000;
8;;;;;;;;1,000000;0,663491;0,701486;0,453583;0,000000;0,000000;0,000000;0,000000;0,362463;0,351539;0,362463;0,362463;0,401539;0,402463;0,531498;0,000000;0,000000;0,518116;0,401539;0,701486;0,701486;0,520786;0,594611;0,445198;0,757453;0,757453;0,000000;0,000000;0,599542;0,693560;0,776186;0,453079;0,440589;0,601539;0,776186;0,776186;0,351539;0,453079;0,462463;0,362463;0,362463;0,351539;0,601539;0,543539;0,491884;0,491884;0,566846;0,476539;0,851539;0,866846;0,000000;0,000000;0,000000;
9;;;;;;;;;1,000000;0,717360;0,489963;0,000000;0,000000;0,000000;0,000000;0,385746;0,366091;0,385746;0,385746;0,416091;0,425746;0,459315;0,000000;0,000000;0,420500;0,416091;0,700381;0,700381;0,431375;0,522859;0,409403;0,773941;0,773941;0,000000;0,000000;0,572644;0,500053;0,529860;0,482182;0,481334;0,616091;0,366091;0,366091;0,366091;0,482182;0,485746;0,385746;0,385746;0,366091;0,616091;0,471976;0,366091;0,366091;0,416091;0,491091;0,866091;0,616091;0,000000;0,000000;0,000000;
10;;;;;;;;;;1,000000;0,505438;0,000000;0,000000;0,000000;0,000000;0,444444;0,416667;0,444444;0,444444;0,450000;0,466667;0,494417;0,000000;0,000000;0,469159;0,450000;0,750000;0,750000;0,480771;0,678817;0,463610;0,900000;0,900000;0,000000;0,000000;0,714182;0,640154;0,625000;0,500000;0,502616;0,583333;0,416667;0,416667;0,416667;0,500000;0,500000;0,444444;0,444444;0,416667;0,583333;0,497444;0,416667;0,416667;0,450000;0,500000;0,750000;0,583333;0,000000;0,000000;0,000000;
11;;;;;;;;;;;1,000000;0,000000;0,000000;0,000000;0,000000;0,819813;0,825426;0,819813;0,819813;0,771674;0,682706;0,592042;0,000000;0,000000;0,561213;0,771674;0,505438;0,505438;0,510737;0,479218;0,515753;0,422104;0,422104;0,000000;0,000000;0,549178;0,390274;0,366549;0,685803;0,601705;0,644327;0,366549;0,366549;0,825426;0,512235;0,509322;0,464989;0,464989;0,366549;0,644327;0,583205;0,366549;0,366549;0,422104;0,505438;0,922104;0,644327;0,000000;0,000000;0,000000;
12;;;;;;;;;;;;1,000000;0,643675;0,652930;0,666667;0,000000;0,000000;0,000000;0,000000;0,000000;0,000000;0,000000;0,689912;0,666667;0,000000;0,000000;0,000000;0,000000;0,000000;0,000000;0,000000;0,000000;0,000000;0,400000;0,680383;0,000000;0,000000;0,000000;0,000000;0,000000;0,000000;0,000000;0,000000;0,000000;0,000000;0,000000;0,000000;0,000000;0,000000;0,000000;0,000000;0,000000;0,000000;0,000000;0,000000;0,000000;0,000000;0,666667;0,833333;0,666667;
13;;;;;;;;;;;;;1,000000;0,605238;0,643675;0,000000;0,000000;0,000000;0,000000;0,000000;0,000000;0,000000;0,594992;0,655675;0,000000;0,000000;0,000000;0,000000;0,000000;0,000000;0,000000;0,000000;0,000000;0,857382;0,543125;0,000000;0,000000;0,000000;0,000000;0,000000;0,000000;0,000000;0,000000;0,000000;0,000000;0,000000;0,000000;0,000000;0,000000;0,000000;0,000000;0,000000;0,000000;0,000000;0,000000;0,000000;0,000000;0,656164;0,489559;0,655675;
14;;;;;;;;;;;;;;1,000000;0,652930;0,000000;0,000000;0,000000;0,000000;0,000000;0,000000;0,000000;0,607071;0,659978;0,000000;0,000000;0,000000;0,000000;0,000000;0,000000;0,000000;0,000000;0,000000;0,510050;0,535987;0,000000;0,000000;0,000000;0,000000;0,000000;0,000000;0,000000;0,000000;0,000000;0,000000;0,000000;0,000000;0,000000;0,000000;0,000000;0,000000;0,000000;0,000000;0,000000;0,000000;0,000000;0,000000;0,661595;0,493736;0,659978;
15;;;;;;;;;;;;;;;1,000000;0,000000;0,000000;0,000000;0,000000;0,000000;0,000000;0,000000;0,689912;0,666667;0,000000;0,000000;0,000000;0,000000;0,000000;0,000000;0,000000;0,000000;0,000000;0,400000;0,680383;0,000000;0,000000;0,000000;0,000000;0,000000;0,000000;0,000000;0,000000;0,000000;0,000000;0,000000;0,000000;0,000000;0,000000;0,000000;0,000000;0,000000;0,000000;0,000000;0,000000;0,000000;0,000000;0,666667;0,833333;0,666667;
16;;;;;;;;;;;;;;;;1,000000;0,833333;0,833333;0,833333;0,566667;0,502069;0,494319;0,000000;0,000000;0,350654;0,377778;0,444444;0,444444;0,341349;0,338577;0,341777;0,377778;0,377778;0,000000;0,000000;0,356197;0,333333;0,333333;0,400000;0,375021;0,555556;0,333333;0,333333;0,833333;0,400000;0,416667;0,333333;0,333333;0,333333;0,555556;0,376570;0,333333;0,333333;0,377778;0,444444;0,777778;0,555556;0,000000;0,000000;0,000000;
17;;;;;;;;;;;;;;;;;1,000000;0,833333;0,833333;0,550000;0,501380;0,496876;0,000000;0,000000;0,344159;0,366667;0,416667;0,416667;0,337914;0,336480;0,338610;0,366667;0,366667;0,000000;0,000000;0,346194;0,333333;0,333333;0,375000;0,356783;0,500000;0,333333;0,333333;1,000000;0,375000;0,388889;0,333333;0,333333;0,333333;0,500000;0,358555;0,333333;0,333333;0,366667;0,416667;0,666667;0,500000;0,000000;0,000000;0,000000;
18;;;;;;;;;;;;;;;;;;1,000000;0,833333;0,566667;0,502069;0,494319;0,000000;0,000000;0,350654;0,377778;0,444444;0,444444;0,341349;0,338577;0,341777;0,377778;0,377778;0,000000;0,000000;0,356197;0,333333;0,333333;0,400000;0,375021;0,555556;0,333333;0,333333;0,833333;0,400000;0,416667;0,333333;0,333333;0,333333;0,555556;0,376570;0,333333;0,333333;0,377778;0,444444;0,777778;0,555556;0,000000;0,000000;0,000000;
19;;;;;;;;;;;;;;;;;;;1,000000;0,566667;0,502069;0,494319;0,000000;0,000000;0,350654;0,377778;0,444444;0,444444;0,341349;0,338577;0,341777;0,377778;0,377778;0,000000;0,000000;0,356197;0,333333;0,333333;0,400000;0,375021;0,555556;0,333333;0,333333;0,833333;0,400000;0,416667;0,333333;0,333333;0,333333;0,555556;0,376570;0,333333;0,333333;0,377778;0,444444;0,777778;0,555556;0,000000;0,000000;0,000000;
20;;;;;;;;;;;;;;;;;;;;1,000000;0,767642;0,772031;0,000000;0,000000;0,729978;0,800000;0,450000;0,450000;0,575579;0,559909;0,569480;0,400000;0,400000;0,000000;0,000000;0,588462;0,377778;0,366667;0,637500;0,604220;0,533333;0,366667;0,366667;0,550000;0,425000;0,433333;0,539820;0,539820;0,366667;0,533333;0,597934;0,366667;0,366667;0,400000;0,450000;0,700000;0,533333;0,000000;0,000000;0,000000;
21;;;;;;;;;;;;;;;;;;;;;1,000000;0,754108;0,000000;0,000000;0,630345;0,767769;0,466667;0,466667;0,650072;0,616431;0,551168;0,400000;0,400000;0,000000;0,000000;0,666501;0,366667;0,355556;0,660000;0,607502;0,577778;0,355556;0,355556;0,501380;0,440000;0,450000;0,509731;0,509731;0,355556;0,577778;0,682211;0,501518;0,501518;0,400000;0,466667;0,800000;0,577778;0,000000;0,000000;0,000000;
22;;;;;;;;;;;;;;;;;;;;;;1,000000;0,000000;0,000000;0,789117;0,772063;0,494417;0,494417;0,771520;0,616532;0,758762;0,404417;0,404417;0,000000;0,000000;0,659145;0,640810;0,652446;0,694600;0,588906;0,952840;0,652446;0,652446;0,496876;0,694600;0,709709;0,784597;0,784597;0,959265;0,950122;0,721758;0,803976;0,803976;0,960419;0,727840;0,944417;0,950077;0,000000;0,000000;0,000000;
23;;;;;;;;;;;;;;;;;;;;;;;1,000000;0,689912;0,000000;0,000000;0,000000;0,000000;0,000000;0,000000;0,000000;0,000000;0,000000;0,502756;0,764673;0,000000;0,000000;0,000000;0,000000;0,000000;0,000000;0,000000;0,000000;0,000000;0,000000;0,000000;0,000000;0,000000;0,000000;0,000000;0,000000;0,000000;0,000000;0,000000;0,000000;0,000000;0,000000;0,689912;0,939912;0,689912;
24;;;;;;;;;;;;;;;;;;;;;;;;1,000000;0,000000;0,000000;0,000000;0,000000;0,000000;0,000000;0,000000;0,000000;0,000000;0,400000;0,680383;0,000000;0,000000;0,000000;0,000000;0,000000;0,000000;0,000000;0,000000;0,000000;0,000000;0,000000;0,000000;0,000000;0,000000;0,000000;0,000000;0,000000;0,000000;0,000000;0,000000;0,000000;0,000000;0,666667;0,833333;1,000000;
25;;;;;;;;;;;;;;;;;;;;;;;;;1,000000;0,729978;0,469159;0,469159;0,730098;0,714309;0,673618;0,394159;0,394159;0,000000;0,000000;0,707114;0,600955;0,625597;0,597539;0,501683;0,594159;0,625597;0,625597;0,344159;0,438317;0,450654;0,577007;0,577007;0,500631;0,861477;0,717853;0,782942;0,782942;0,911858;0,469159;0,844159;0,861371;0,000000;0,000000;0,000000;
26;;;;;;;;;;;;;;;;;;;;;;;;;;1,000000;0,450000;0,450000;0,755767;0,728536;0,569480;0,400000;0,400000;0,000000;0,000000;0,767210;0,377778;0,366667;0,637500;0,604220;0,533333;0,366667;0,366667;0,366667;0,425000;0,433333;0,539820;0,539820;0,366667;0,533333;0,771578;0,550000;0,550000;0,400000;0,450000;0,700000;0,533333;0,000000;0,000000;0,000000;
27;;;;;;;;;;;;;;;;;;;;;;;;;;;1,000000;0,750000;0,480771;0,469813;0,463610;0,675000;0,675000;0,000000;0,000000;0,492028;0,444444;0,416667;0,500000;0,502616;0,583333;0,416667;0,416667;0,416667;0,500000;0,500000;0,444444;0,444444;0,416667;0,583333;0,497444;0,416667;0,416667;0,450000;0,500000;0,750000;0,583333;0,000000;0,000000;0,000000;
28;;;;;;;;;;;;;;;;;;;;;;;;;;;;1,000000;0,480771;0,469813;0,463610;0,675000;0,675000;0,000000;0,000000;0,492028;0,444444;0,416667;0,500000;0,502616;0,583333;0,416667;0,416667;0,416667;0,500000;0,500000;0,444444;0,444444;0,416667;0,583333;0,497444;0,416667;0,416667;0,450000;0,500000;0,750000;0,583333;0,000000;0,000000;0,000000;
29;;;;;;;;;;;;;;;;;;;;;;;;;;;;;1,000000;0,680240;0,764754;0,395057;0,395057;0,000000;0,000000;0,696689;0,623666;0,642095;0,643017;0,523532;0,623628;0,642095;0,642095;0,337914;0,455132;0,466349;0,780818;0,780818;0,798736;0,919160;0,737393;0,790092;0,790092;0,758149;0,480771;0,909342;0,919095;0,000000;0,000000;0,000000;
30;;;;;;;;;;;;;;;;;;;;;;;;;;;;;;1,000000;0,586088;0,558817;0,558817;0,000000;0,000000;0,775014;0,764789;0,782454;0,599805;0,484714;0,603146;0,782575;0,782575;0,336480;0,435314;0,449689;0,684835;0,684835;0,632760;0,603146;0,744774;0,775009;0,775009;0,744729;0,469813;0,869813;0,887294;0,000000;0,000000;0,000000;
31;;;;;;;;;;;;;;;;;;;;;;;;;;;;;;;1,000000;0,388610;0,388610;0,000000;0,000000;0,690384;0,469144;0,480715;0,613960;0,524672;0,588610;0,480715;0,480715;0,338610;0,427221;0,441777;0,829317;0,829317;0,816431;0,588610;0,660134;0,649770;0,649770;0,582915;0,463610;0,838610;0,588610;0,000000;0,000000;0,000000;
32;;;;;;;;;;;;;;;;;;;;;;;;;;;;;;;;1,000000;0,800000;0,000000;0,000000;0,582932;0,540154;0,550000;0,425000;0,415116;0,533333;0,366667;0,366667;0,366667;0,425000;0,433333;0,377778;0,377778;0,366667;0,533333;0,414111;0,366667;0,366667;0,400000;0,450000;0,700000;0,533333;0,000000;0,000000;0,000000;
33;;;;;;;;;;;;;;;;;;;;;;;;;;;;;;;;;1,000000;0,000000;0,000000;0,582932;0,540154;0,550000;0,425000;0,415116;0,533333;0,366667;0,366667;0,366667;0,425000;0,433333;0,377778;0,377778;0,366667;0,533333;0,414111;0,366667;0,366667;0,400000;0,450000;0,700000;0,533333;0,000000;0,000000;0,000000;
34;;;;;;;;;;;;;;;;;;;;;;;;;;;;;;;;;;1,000000;0,622507;0,000000;0,000000;0,000000;0,000000;0,000000;0,000000;0,000000;0,000000;0,000000;0,000000;0,000000;0,000000;0,000000;0,000000;0,000000;0,000000;0,000000;0,000000;0,000000;0,000000;0,000000;0,000000;0,733333;0,533333;0,400000;
35;;;;;;;;;;;;;;;;;;;;;;;;;;;;;;;;;;;1,000000;0,000000;0,000000;0,000000;0,000000;0,000000;0,000000;0,000000;0,000000;0,000000;0,000000;0,000000;0,000000;0,000000;0,000000;0,000000;0,000000;0,000000;0,000000;0,000000;0,000000;0,000000;0,000000;0,680383;0,972050;0,680383;
36;;;;;;;;;;;;;;;;;;;;;;;;;;;;;;;;;;;;1,000000;0,784487;0,801838;0,677308;0,570727;0,637861;0,801890;0,801890;0,346194;0,480867;0,485827;0,581042;0,581042;0,499753;0,945945;0,706800;0,801852;0,801852;0,778987;0,492028;0,929528;0,637861;0,000000;0,000000;0,000000;
37;;;;;;;;;;;;;;;;;;;;;;;;;;;;;;;;;;;;;1,000000;0,806281;0,400000;0,375021;0,555556;0,806394;0,806394;0,333333;0,400000;0,416667;0,333333;0,333333;0,333333;0,555556;0,548703;0,500000;0,500000;0,566667;0,444444;0,777778;0,833333;0,000000;0,000000;0,000000;
38;;;;;;;;;;;;;;;;;;;;;;;;;;;;;;;;;;;;;;1,000000;0,375000;0,356783;0,500000;0,833333;0,833333;0,333333;0,375000;0,388889;0,333333;0,333333;0,333333;0,500000;0,528410;0,500000;0,500000;0,550000;0,416667;0,666667;0,750000;0,000000;0,000000;0,000000;
39;;;;;;;;;;;;;;;;;;;;;;;;;;;;;;;;;;;;;;;1,000000;0,715128;0,937500;0,375000;0,375000;0,375000;0,750000;0,750000;0,551677;0,551677;0,375000;0,625000;0,689100;0,375000;0,375000;0,425000;0,750000;0,875000;0,625000;0,000000;0,000000;0,000000;
40;;;;;;;;;;;;;;;;;;;;;;;;;;;;;;;;;;;;;;;;1,000000;0,648449;0,356783;0,356783;0,356783;0,715600;0,724451;0,467083;0,467083;0,356783;0,648449;0,606834;0,356783;0,356783;0,415116;0,735629;0,940116;0,648449;0,000000;0,000000;0,000000;
41;;;;;;;;;;;;;;;;;;;;;;;;;;;;;;;;;;;;;;;;;1,000000;0,500000;0,500000;0,500000;0,937500;0,916667;0,555556;0,555556;0,500000;0,666667;0,636333;0,500000;0,500000;0,533333;0,875000;0,833333;0,666667;0,000000;0,000000;0,000000;
42;;;;;;;;;;;;;;;;;;;;;;;;;;;;;;;;;;;;;;;;;;1,000000;0,833333;0,333333;0,375000;0,388889;0,333333;0,333333;0,333333;0,500000;0,528410;0,500000;0,500000;0,550000;0,416667;0,666667;0,750000;0,000000;0,000000;0,000000;
43;;;;;;;;;;;;;;;;;;;;;;;;;;;;;;;;;;;;;;;;;;;1,000000;0,333333;0,375000;0,388889;0,333333;0,333333;0,333333;0,500000;0,528410;0,500000;0,500000;0,550000;0,416667;0,666667;0,750000;0,000000;0,000000;0,000000;
44;;;;;;;;;;;;;;;;;;;;;;;;;;;;;;;;;;;;;;;;;;;;1,000000;0,375000;0,388889;0,333333;0,333333;0,333333;0,500000;0,358555;0,333333;0,333333;0,366667;0,416667;0,666667;0,500000;0,000000;0,000000;0,000000;
45;;;;;;;;;;;;;;;;;;;;;;;;;;;;;;;;;;;;;;;;;;;;;1,000000;0,750000;0,400000;0,400000;0,375000;0,625000;0,494249;0,375000;0,375000;0,425000;0,750000;0,875000;0,625000;0,000000;0,000000;0,000000;
46;;;;;;;;;;;;;;;;;;;;;;;;;;;;;;;;;;;;;;;;;;;;;;1,000000;0,416667;0,416667;0,388889;0,611111;0,495618;0,388889;0,388889;0,433333;1,000000;0,833333;0,611111;0,000000;0,000000;0,000000;
47;;;;;;;;;;;;;;;;;;;;;;;;;;;;;;;;;;;;;;;;;;;;;;;1,000000;0,833333;0,833333;0,555556;0,609406;0,500000;0,500000;0,566667;0,444444;0,777778;0,555556;0,000000;0,000000;0,000000;
48;;;;;;;;;;;;;;;;;;;;;;;;;;;;;;;;;;;;;;;;;;;;;;;;1,000000;0,833333;0,555556;0,609406;0,500000;0,500000;0,566667;0,444444;0,777778;0,555556;0,000000;0,000000;0,000000;
49;;;;;;;;;;;;;;;;;;;;;;;;;;;;;;;;;;;;;;;;;;;;;;;;;1,000000;0,500000;0,512148;0,500000;0,500000;0,550000;0,416667;0,666667;0,500000;0,000000;0,000000;0,000000;
50;;;;;;;;;;;;;;;;;;;;;;;;;;;;;;;;;;;;;;;;;;;;;;;;;;1,000000;0,636333;0,500000;0,500000;0,800000;0,583333;0,833333;0,666667;0,000000;0,000000;0,000000;
51;;;;;;;;;;;;;;;;;;;;;;;;;;;;;;;;;;;;;;;;;;;;;;;;;;;1,000000;0,659098;0,659098;0,793299;0,497444;0,914111;0,945077;0,000000;0,000000;0,000000;
52;;;;;;;;;;;;;;;;;;;;;;;;;;;;;;;;;;;;;;;;;;;;;;;;;;;;1,000000;0,833333;0,550000;0,416667;0,666667;0,500000;0,000000;0,000000;0,000000;
53;;;;;;;;;;;;;;;;;;;;;;;;;;;;;;;;;;;;;;;;;;;;;;;;;;;;;1,000000;0,550000;0,416667;0,666667;0,500000;0,000000;0,000000;0,000000;
54;;;;;;;;;;;;;;;;;;;;;;;;;;;;;;;;;;;;;;;;;;;;;;;;;;;;;;1,000000;0,450000;0,700000;0,800000;0,000000;0,000000;0,000000;
55;;;;;;;;;;;;;;;;;;;;;;;;;;;;;;;;;;;;;;;;;;;;;;;;;;;;;;;1,000000;0,750000;0,583333;0,000000;0,000000;0,000000;
56;;;;;;;;;;;;;;;;;;;;;;;;;;;;;;;;;;;;;;;;;;;;;;;;;;;;;;;;1,000000;0,833333;0,000000;0,000000;0,000000;
57;;;;;;;;;;;;;;;;;;;;;;;;;;;;;;;;;;;;;;;;;;;;;;;;;;;;;;;;;1,000000;0,000000;0,000000;0,000000;
58;;;;;;;;;;;;;;;;;;;;;;;;;;;;;;;;;;;;;;;;;;;;;;;;;;;;;;;;;;1,000000;0,833333;0,666667;
59;;;;;;;;;;;;;;;;;;;;;;;;;;;;;;;;;;;;;;;;;;;;;;;;;;;;;;;;;;;1,000000;0,833333;
60;;;;;;;;;;;;;;;;;;;;;;;;;;;;;;;;;;;;;;;;;;;;;;;;;;;;;;;;;;;;1,000000;
