;1; 2; 3; 4; 5; 6; 7; 8; 9; 10; 11
1;1,000000;0,520500;0,625400;0,533918;0,611046;0,538344;0,413290;0,529586;0,577656;0,308529;0,308529;
2;;1,000000;0,605416;0,612766;0,535913;0,623685;0,772083;0,866124;0,866124;0,323049;0,323049;
3;;;1,000000;0,651500;0,661310;0,588608;0,833333;0,767907;0,666667;0,416667;0,416667;
4;;;;1,000000;0,407626;0,462270;0,399138;0,509534;0,557604;0,399138;0,399138;
5;;;;;1,000000;0,739368;0,453017;0,420304;0,369684;0,000000;0,000000;
6;;;;;;1,000000;0,416667;0,383954;0,333333;0,000000;0,000000;
7;;;;;;;1,000000;0,934574;0,833333;0,500000;0,500000;
8;;;;;;;;1,000000;1,000000;0,467287;0,467287;
9;;;;;;;;;1,000000;0,416667;0,416667;
10;;;;;;;;;;1,000000;0,500000;
11;;;;;;;;;;;1,000000;
