;1; 2; 3; 4; 5; 6; 7; 8; 9; 10; 11; 12; 13; 14; 15; 16; 17; 18; 19; 20; 21; 22; 23; 24; 25; 26; 27; 28; 29; 30; 31; 32; 33; 34; 35; 36; 37; 38; 39; 40; 41; 42; 43; 44; 45; 46; 47; 48; 49; 50; 51; 52; 53; 54; 55; 56; 57; 58; 59; 60; 61; 62; 63; 64; 65; 66; 67; 68; 69; 70; 71; 72; 73; 74; 75; 76; 77; 78; 79; 80; 81; 82; 83; 84; 85; 86; 87; 88; 89; 90; 91
1;1,000000;0,641459;0,404788;0,617284;0,524450;0,350806;0,397340;0,284139;0,284139;0,481260;0,377014;0,350806;0,377014;0,370774;0,668155;0,721617;0,721617;0,663135;0,350806;0,350806;0,350806;0,523142;0,484139;0,679124;0,710598;0,634865;0,410922;0,428626;0,484139;0,348726;0,484139;0,605656;0,634862;0,350806;0,362454;0,350806;0,000000;0,000000;0,000000;0,484139;0,484139;0,510799;0,654422;0,000000;0,000000;0,000000;0,000000;0,000000;0,000000;0,000000;0,000000;0,000000;0,000000;0,000000;0,000000;0,000000;0,000000;0,000000;0,000000;0,484139;0,000000;0,000000;0,000000;0,000000;0,000000;0,000000;0,884139;0,000000;0,000000;0,000000;0,000000;0,884139;0,473565;0,473565;0,312465;0,312465;0,244139;0,312465;0,484139;0,484139;0,350806;0,350806;0,350806;0,350806;0,884139;0,350806;0,350806;0,350806;0,350806;0,350806;0,484139;
2;;1,000000;0,587684;0,598171;0,623885;0,663224;0,630226;0,745917;0,745917;0,585810;0,666667;0,666667;0,666667;0,666667;0,679800;0,746050;0,746050;0,651477;0,666667;0,666667;0,666667;0,567790;0,497720;0,643456;0,596738;0,663427;0,603073;0,558697;0,496016;0,647409;0,497406;0,550957;0,660739;0,663531;0,666667;0,663531;0,000000;0,000000;0,000000;0,500000;0,500000;0,745823;0,664931;0,000000;0,000000;0,000000;0,000000;0,000000;0,000000;0,000000;0,000000;0,000000;0,000000;0,000000;0,000000;0,000000;0,000000;0,000000;0,000000;0,498313;0,000000;0,000000;0,000000;0,000000;0,000000;0,000000;0,000000;0,000000;0,000000;0,000000;0,000000;0,000000;0,500000;0,500000;0,742480;0,742480;0,799777;0,742480;0,500000;0,500000;0,667891;0,666667;0,666667;0,666667;0,000000;0,663531;0,663531;0,666667;0,666667;0,666667;0,498608;
3;;;1,000000;0,400764;0,611927;0,639247;0,637855;0,500000;0,500000;0,509177;0,367347;0,348214;0,367347;0,363095;0,485932;0,285714;0,285714;0,500768;0,348214;0,348214;0,348214;0,689775;0,875000;0,557202;0,400764;0,348214;0,400764;0,413716;0,473214;0,344788;0,473214;0,535235;0,348214;0,348214;0,357143;0,348214;0,000000;0,000000;0,000000;0,473214;0,473214;0,717655;0,638877;0,000000;0,000000;0,000000;0,000000;0,000000;0,000000;0,000000;0,000000;0,000000;0,000000;0,000000;0,000000;0,000000;0,000000;0,000000;0,000000;0,875000;0,000000;0,000000;0,000000;0,000000;0,000000;0,000000;0,848214;0,000000;0,000000;0,000000;0,000000;0,848214;0,457143;0,457143;0,312152;0,312152;0,248214;0,312152;0,473214;0,473214;0,348214;0,348214;0,348214;0,348214;0,848214;0,348214;0,348214;0,348214;0,348214;0,348214;0,473214;
4;;;;1,000000;0,753194;0,644460;0,564230;0,302012;0,302012;0,578458;0,381801;0,357567;0,381801;0,376954;0,376552;0,302012;0,302012;0,389047;0,357567;0,357567;0,357567;0,589357;0,468678;0,381349;0,406035;0,357567;0,406035;0,417450;0,468678;0,359388;0,468678;0,417450;0,357567;0,357567;0,369684;0,357567;0,000000;0,000000;0,000000;0,468678;0,468678;0,549643;0,357567;0,000000;0,000000;0,000000;0,000000;0,000000;0,000000;0,000000;0,000000;0,000000;0,000000;0,000000;0,000000;0,000000;0,000000;0,000000;0,000000;0,468678;0,000000;0,000000;0,000000;0,000000;0,000000;0,000000;0,802012;0,000000;0,000000;0,000000;0,000000;0,802012;0,453017;0,453017;0,332192;0,332192;0,268678;0,332192;0,468678;0,468678;0,357567;0,357567;0,357567;0,357567;0,802012;0,357567;0,357567;0,357567;0,357567;0,357567;0,468678;
5;;;;;1,000000;0,645430;0,630020;0,735180;0,735180;0,662826;0,362454;0,343040;0,362454;0,357159;0,460939;0,268966;0,268966;0,375084;0,343040;0,343040;0,343040;0,594765;0,947845;0,491585;0,408967;0,343040;0,408967;0,430789;0,491188;0,334332;0,951919;0,682452;0,655622;0,343040;0,350806;0,343040;0,000000;0,000000;0,000000;0,491188;0,491188;0,731360;0,343040;0,000000;0,000000;0,000000;0,000000;0,000000;0,000000;0,000000;0,000000;0,000000;0,000000;0,000000;0,000000;0,000000;0,000000;0,000000;0,000000;0,491188;0,000000;0,000000;0,000000;0,000000;0,000000;0,000000;0,935633;0,000000;0,000000;0,000000;0,000000;0,935633;0,484139;0,484139;0,290818;0,290818;0,224522;0,290818;0,491188;0,491188;0,343040;0,343040;0,343040;0,343040;0,935633;0,343040;0,343040;0,343040;0,343040;0,343040;0,491188;
6;;;;;;1,000000;0,627380;0,291667;0,291667;0,646196;0,333333;0,333333;0,333333;0,333333;0,330184;0,291667;0,291667;0,335541;0,333333;0,333333;0,333333;0,348214;0,416667;0,336080;0,357567;0,333333;0,357567;0,358644;0,416667;0,326469;0,416667;0,358644;0,333333;0,333333;0,333333;0,333333;0,000000;0,000000;0,000000;0,416667;0,416667;0,291667;0,333333;0,000000;0,000000;0,000000;0,000000;0,000000;0,000000;0,000000;0,000000;0,000000;0,000000;0,000000;0,000000;0,000000;0,000000;0,000000;0,000000;0,416667;0,000000;0,000000;0,000000;0,000000;0,000000;0,000000;0,666667;0,000000;0,000000;0,000000;0,000000;0,666667;0,388889;0,388889;0,308339;0,308339;0,266667;0,308339;0,416667;0,416667;0,333333;0,333333;0,333333;0,333333;0,666667;0,333333;0,333333;0,333333;0,333333;0,333333;0,416667;
7;;;;;;;1,000000;0,758763;0,758763;0,514537;0,359899;0,344956;0,359899;0,356579;0,548218;0,282456;0,282456;0,367356;0,344956;0,344956;0,344956;0,577746;0,469956;0,362072;0,395550;0,344956;0,395550;0,407199;0,469956;0,339574;0,913388;0,825251;0,663388;0,344956;0,351930;0,344956;0,000000;0,000000;0,000000;0,469956;0,469956;0,501914;0,344956;0,000000;0,000000;0,000000;0,000000;0,000000;0,000000;0,000000;0,000000;0,000000;0,000000;0,000000;0,000000;0,000000;0,000000;0,000000;0,000000;0,876914;0,000000;0,000000;0,000000;0,000000;0,000000;0,000000;0,844956;0,000000;0,000000;0,000000;0,000000;0,844956;0,451930;0,451930;0,306939;0,306939;0,244956;0,306939;0,469956;0,469956;0,344956;0,344956;0,344956;0,344956;0,844956;0,344956;0,344956;0,344956;0,344956;0,344956;0,469956;
8;;;;;;;;1,000000;0,750000;0,728960;0,266667;0,291667;0,266667;0,270833;0,481555;0,250000;0,250000;0,266096;0,291667;0,291667;0,291667;0,536959;0,375000;0,273580;0,302012;0,291667;0,302012;0,296144;0,375000;0,270914;0,750000;0,778863;0,583333;0,291667;0,277778;0,291667;0,000000;0,000000;0,000000;0,375000;0,375000;0,500000;0,291667;0,000000;0,000000;0,000000;0,000000;0,000000;0,000000;0,000000;0,000000;0,000000;0,000000;0,000000;0,000000;0,000000;0,000000;0,000000;0,000000;0,750000;0,000000;0,000000;0,000000;0,000000;0,000000;0,000000;0,625000;0,000000;0,000000;0,000000;0,000000;0,625000;0,333333;0,333333;0,252783;0,252783;0,225000;0,252783;0,375000;0,375000;0,291667;0,291667;0,291667;0,291667;0,625000;0,291667;0,291667;0,291667;0,291667;0,291667;0,375000;
9;;;;;;;;;1,000000;0,728960;0,266667;0,291667;0,266667;0,270833;0,481555;0,250000;0,250000;0,266096;0,291667;0,291667;0,291667;0,536959;0,375000;0,273580;0,302012;0,291667;0,302012;0,296144;0,375000;0,270914;0,750000;0,778863;0,583333;0,291667;0,277778;0,291667;0,000000;0,000000;0,000000;0,375000;0,375000;0,500000;0,291667;0,000000;0,000000;0,000000;0,000000;0,000000;0,000000;0,000000;0,000000;0,000000;0,000000;0,000000;0,000000;0,000000;0,000000;0,000000;0,000000;0,750000;0,000000;0,000000;0,000000;0,000000;0,000000;0,000000;0,625000;0,000000;0,000000;0,000000;0,000000;0,625000;0,333333;0,333333;0,252783;0,252783;0,225000;0,252783;0,375000;0,375000;0,291667;0,291667;0,291667;0,291667;0,625000;0,291667;0,291667;0,291667;0,291667;0,291667;0,375000;
10;;;;;;;;;;1,000000;0,349611;0,338929;0,349611;0,346762;0,419314;0,491887;0,491887;0,503532;0,338929;0,338929;0,338929;0,612661;0,484762;0,577510;0,399826;0,338929;0,399826;0,417631;0,484762;0,327264;0,484762;0,558506;0,637720;0,338929;0,343281;0,338929;0,000000;0,000000;0,000000;0,484762;0,484762;0,503824;0,338929;0,000000;0,000000;0,000000;0,000000;0,000000;0,000000;0,000000;0,000000;0,000000;0,000000;0,000000;0,000000;0,000000;0,000000;0,000000;0,000000;0,941324;0,000000;0,000000;0,000000;0,000000;0,000000;0,000000;0,922262;0,000000;0,000000;0,000000;0,000000;0,922262;0,472910;0,472910;0,284960;0,284960;0,222262;0,284960;0,484762;0,484762;0,338929;0,338929;0,338929;0,338929;0,922262;0,338929;0,338929;0,338929;0,338929;0,338929;0,484762;
11;;;;;;;;;;;1,000000;0,666667;0,666667;0,666667;0,325461;0,266667;0,266667;0,339219;0,333333;0,333333;0,333333;0,367347;0,466667;0,339611;0,381801;0,333333;0,381801;0,391185;0,466667;0,319605;0,466667;0,391185;0,333333;0,333333;0,333333;0,333333;0,000000;0,000000;0,000000;0,466667;0,466667;0,266667;0,333333;0,000000;0,000000;0,000000;0,000000;0,000000;0,000000;0,000000;0,000000;0,000000;0,000000;0,000000;0,000000;0,000000;0,000000;0,000000;0,000000;0,466667;0,000000;0,000000;0,000000;0,000000;0,000000;0,000000;0,866667;0,000000;0,000000;0,000000;0,000000;0,866667;0,444444;0,444444;0,283344;0,283344;0,226667;0,283344;0,466667;0,466667;0,333333;0,333333;0,333333;0,333333;0,866667;0,333333;0,333333;0,333333;0,333333;0,333333;0,466667;
12;;;;;;;;;;;;1,000000;0,666667;1,000000;0,330184;0,291667;0,291667;0,335541;0,333333;0,333333;0,333333;0,348214;0,416667;0,336080;0,357567;0,333333;0,357567;0,358644;0,416667;0,326469;0,416667;0,358644;0,333333;0,333333;0,333333;0,333333;0,000000;0,000000;0,000000;0,416667;0,416667;0,291667;0,333333;0,000000;0,000000;0,000000;0,000000;0,000000;0,000000;0,000000;0,000000;0,000000;0,000000;0,000000;0,000000;0,000000;0,000000;0,000000;0,000000;0,416667;0,000000;0,000000;0,000000;0,000000;0,000000;0,000000;0,666667;0,000000;0,000000;0,000000;0,000000;0,666667;0,388889;0,388889;0,308339;0,308339;0,266667;0,308339;0,416667;0,416667;0,333333;0,333333;0,333333;0,333333;0,666667;0,333333;0,333333;0,333333;0,333333;0,333333;0,416667;
13;;;;;;;;;;;;;1,000000;0,666667;0,325461;0,266667;0,266667;0,339219;0,333333;0,333333;0,333333;0,367347;0,466667;0,339611;0,381801;0,333333;0,381801;0,391185;0,466667;0,319605;0,466667;0,391185;0,333333;0,333333;0,333333;0,333333;0,000000;0,000000;0,000000;0,466667;0,466667;0,266667;0,333333;0,000000;0,000000;0,000000;0,000000;0,000000;0,000000;0,000000;0,000000;0,000000;0,000000;0,000000;0,000000;0,000000;0,000000;0,000000;0,000000;0,466667;0,000000;0,000000;0,000000;0,000000;0,000000;0,000000;0,866667;0,000000;0,000000;0,000000;0,000000;0,866667;0,444444;0,444444;0,283344;0,283344;0,226667;0,283344;0,466667;0,466667;0,333333;0,333333;0,333333;0,333333;0,866667;0,333333;0,333333;0,333333;0,333333;0,333333;0,466667;
14;;;;;;;;;;;;;;1,000000;0,326585;0,270833;0,270833;0,338300;0,333333;0,333333;0,333333;0,363095;0,458333;0,338827;0,376954;0,333333;0,376954;0,383954;0,458333;0,320978;0,458333;0,383954;0,333333;0,333333;0,333333;0,333333;0,000000;0,000000;0,000000;0,458333;0,458333;0,270833;0,333333;0,000000;0,000000;0,000000;0,000000;0,000000;0,000000;0,000000;0,000000;0,000000;0,000000;0,000000;0,000000;0,000000;0,000000;0,000000;0,000000;0,458333;0,000000;0,000000;0,000000;0,000000;0,000000;0,000000;0,833333;0,000000;0,000000;0,000000;0,000000;0,833333;0,433333;0,433333;0,288343;0,288343;0,233333;0,288343;0,458333;0,458333;0,333333;0,333333;0,333333;0,333333;0,833333;0,333333;0,333333;0,333333;0,333333;0,333333;0,458333;
15;;;;;;;;;;;;;;;1,000000;0,727558;0,727558;0,614259;0,330184;0,330184;0,330184;0,360599;0,463518;0,652783;0,728389;0,645539;0,376552;0,384437;0,463518;0,314357;0,881555;0,701673;0,614888;0,330184;0,328085;0,330184;0,000000;0,000000;0,000000;0,463518;0,463518;0,263518;0,895970;0,000000;0,000000;0,000000;0,000000;0,000000;0,000000;0,000000;0,000000;0,000000;0,000000;0,000000;0,000000;0,000000;0,000000;0,000000;0,000000;0,463518;0,000000;0,000000;0,000000;0,000000;0,000000;0,000000;0,863518;0,000000;0,000000;0,000000;0,000000;0,863518;0,439196;0,439196;0,278095;0,278095;0,223518;0,278095;0,463518;0,463518;0,330184;0,330184;0,330184;0,330184;0,863518;0,330184;0,330184;0,330184;0,330184;0,330184;0,463518;
16;;;;;;;;;;;;;;;;1,000000;0,750000;0,728115;0,291667;0,291667;0,291667;0,285714;0,375000;0,702789;0,604023;0,583333;0,302012;0,296144;0,375000;0,270914;0,375000;0,296144;0,583333;0,291667;0,277778;0,291667;0,000000;0,000000;0,000000;0,375000;0,375000;0,250000;0,291667;0,000000;0,000000;0,000000;0,000000;0,000000;0,000000;0,000000;0,000000;0,000000;0,000000;0,000000;0,000000;0,000000;0,000000;0,000000;0,000000;0,375000;0,000000;0,000000;0,000000;0,000000;0,000000;0,000000;0,625000;0,000000;0,000000;0,000000;0,000000;0,625000;0,333333;0,333333;0,252783;0,252783;0,225000;0,252783;0,375000;0,375000;0,291667;0,291667;0,291667;0,291667;0,625000;0,291667;0,291667;0,291667;0,291667;0,291667;0,375000;
17;;;;;;;;;;;;;;;;;1,000000;0,728115;0,291667;0,291667;0,291667;0,285714;0,375000;0,702789;0,604023;0,583333;0,302012;0,296144;0,375000;0,270914;0,375000;0,296144;0,583333;0,291667;0,277778;0,291667;0,000000;0,000000;0,000000;0,375000;0,375000;0,250000;0,291667;0,000000;0,000000;0,000000;0,000000;0,000000;0,000000;0,000000;0,000000;0,000000;0,000000;0,000000;0,000000;0,000000;0,000000;0,000000;0,000000;0,375000;0,000000;0,000000;0,000000;0,000000;0,000000;0,000000;0,625000;0,000000;0,000000;0,000000;0,000000;0,625000;0,333333;0,333333;0,252783;0,252783;0,225000;0,252783;0,375000;0,375000;0,291667;0,291667;0,291667;0,291667;0,625000;0,291667;0,291667;0,291667;0,291667;0,291667;0,375000;
18;;;;;;;;;;;;;;;;;;1,000000;0,335541;0,335541;0,335541;0,375502;0,474429;0,647189;0,549982;0,641026;0,389047;0,401575;0,474429;0,322408;0,474429;0,532256;0,647625;0,335541;0,337117;0,335541;0,000000;0,000000;0,000000;0,474429;0,474429;0,266096;0,913810;0,000000;0,000000;0,000000;0,000000;0,000000;0,000000;0,000000;0,000000;0,000000;0,000000;0,000000;0,000000;0,000000;0,000000;0,000000;0,000000;0,474429;0,000000;0,000000;0,000000;0,000000;0,000000;0,000000;0,891096;0,000000;0,000000;0,000000;0,000000;0,891096;0,456165;0,456165;0,283557;0,283557;0,224429;0,283557;0,474429;0,474429;0,335541;0,335541;0,335541;0,335541;0,891096;0,335541;0,335541;0,335541;0,335541;0,335541;0,474429;
19;;;;;;;;;;;;;;;;;;;1,000000;0,666667;0,666667;0,348214;0,416667;0,336080;0,357567;0,333333;0,357567;0,358644;0,416667;0,326469;0,416667;0,358644;0,333333;0,333333;0,333333;0,333333;0,000000;0,000000;0,000000;0,416667;0,416667;0,291667;0,333333;0,000000;0,000000;0,000000;0,000000;0,000000;0,000000;0,000000;0,000000;0,000000;0,000000;0,000000;0,000000;0,000000;0,000000;0,000000;0,000000;0,416667;0,000000;0,000000;0,000000;0,000000;0,000000;0,000000;0,666667;0,000000;0,000000;0,000000;0,000000;0,666667;0,388889;0,388889;0,308339;0,308339;0,266667;0,308339;0,416667;0,416667;0,333333;0,333333;0,333333;0,333333;0,666667;0,333333;0,333333;0,333333;0,333333;0,333333;0,416667;
20;;;;;;;;;;;;;;;;;;;;1,000000;0,666667;0,348214;0,416667;0,336080;0,357567;0,333333;0,357567;0,358644;0,416667;0,326469;0,416667;0,358644;0,333333;0,333333;0,333333;0,333333;0,000000;0,000000;0,000000;0,416667;0,416667;0,291667;0,333333;0,000000;0,000000;0,000000;0,000000;0,000000;0,000000;0,000000;0,000000;0,000000;0,000000;0,000000;0,000000;0,000000;0,000000;0,000000;0,000000;0,416667;0,000000;0,000000;0,000000;0,000000;0,000000;0,000000;0,666667;0,000000;0,000000;0,000000;0,000000;0,666667;0,388889;0,388889;0,308339;0,308339;0,266667;0,308339;0,416667;0,416667;0,333333;0,333333;0,333333;0,333333;0,666667;0,333333;0,333333;0,333333;0,333333;0,333333;0,416667;
21;;;;;;;;;;;;;;;;;;;;;1,000000;0,348214;0,416667;0,336080;0,357567;0,333333;0,357567;0,358644;0,416667;0,326469;0,416667;0,358644;0,333333;0,333333;0,333333;0,333333;0,000000;0,000000;0,000000;0,416667;0,416667;0,291667;0,333333;0,000000;0,000000;0,000000;0,000000;0,000000;0,000000;0,000000;0,000000;0,000000;0,000000;0,000000;0,000000;0,000000;0,000000;0,000000;0,000000;0,416667;0,000000;0,000000;0,000000;0,000000;0,000000;0,000000;0,666667;0,000000;0,000000;0,000000;0,000000;0,666667;0,388889;0,388889;0,308339;0,308339;0,266667;0,308339;0,416667;0,416667;0,333333;0,333333;0,333333;0,333333;0,666667;0,333333;0,333333;0,333333;0,333333;0,333333;0,416667;
22;;;;;;;;;;;;;;;;;;;;;;1,000000;0,473214;0,368589;0,400764;0,348214;0,400764;0,413716;0,473214;0,344788;0,473214;0,609152;0,348214;0,348214;0,357143;0,348214;0,000000;0,000000;0,000000;0,473214;0,473214;0,752088;0,348214;0,000000;0,000000;0,000000;0,000000;0,000000;0,000000;0,000000;0,000000;0,000000;0,000000;0,000000;0,000000;0,000000;0,000000;0,000000;0,000000;0,911959;0,000000;0,000000;0,000000;0,000000;0,000000;0,000000;0,848214;0,000000;0,000000;0,000000;0,000000;0,848214;0,457143;0,457143;0,312152;0,312152;0,248214;0,312152;0,473214;0,473214;0,348214;0,348214;0,348214;0,348214;0,848214;0,348214;0,348214;0,348214;0,348214;0,348214;0,473214;
23;;;;;;;;;;;;;;;;;;;;;;;1,000000;0,461080;0,468678;0,416667;0,468678;0,483644;0,500000;0,437580;0,500000;0,483644;0,416667;0,416667;0,444444;0,416667;0,000000;0,000000;0,000000;0,500000;0,500000;0,750000;0,416667;0,000000;0,000000;0,000000;0,000000;0,000000;0,000000;0,000000;0,000000;0,000000;0,000000;0,000000;0,000000;0,000000;0,000000;0,000000;0,000000;0,500000;0,000000;0,000000;0,000000;0,000000;0,000000;0,000000;0,750000;0,000000;0,000000;0,000000;0,000000;0,750000;0,500000;0,500000;0,419450;0,419450;0,350000;0,419450;0,500000;0,500000;0,416667;0,416667;0,416667;0,416667;0,750000;0,416667;0,416667;0,416667;0,416667;0,416667;0,500000;
24;;;;;;;;;;;;;;;;;;;;;;;;1,000000;0,665794;0,611595;0,381349;0,389447;0,461080;0,325373;0,461080;0,389447;0,611625;0,336080;0,337728;0,336080;0,000000;0,000000;0,000000;0,461080;0,461080;0,273580;0,639724;0,000000;0,000000;0,000000;0,000000;0,000000;0,000000;0,000000;0,000000;0,000000;0,000000;0,000000;0,000000;0,000000;0,000000;0,000000;0,000000;0,461080;0,000000;0,000000;0,000000;0,000000;0,000000;0,000000;0,836080;0,000000;0,000000;0,000000;0,000000;0,836080;0,437728;0,437728;0,292737;0,292737;0,236080;0,292737;0,461080;0,461080;0,336080;0,336080;0,336080;0,336080;0,836080;0,336080;0,336080;0,336080;0,336080;0,336080;0,461080;
25;;;;;;;;;;;;;;;;;;;;;;;;;1,000000;0,715134;0,406035;0,417450;0,468678;0,359388;0,468678;0,417450;0,357567;0,357567;0,369684;0,357567;0,000000;0,000000;0,000000;0,468678;0,468678;0,302012;0,357567;0,000000;0,000000;0,000000;0,000000;0,000000;0,000000;0,000000;0,000000;0,000000;0,000000;0,000000;0,000000;0,000000;0,000000;0,000000;0,000000;0,468678;0,000000;0,000000;0,000000;0,000000;0,000000;0,000000;0,802012;0,000000;0,000000;0,000000;0,000000;0,802012;0,453017;0,453017;0,332192;0,332192;0,268678;0,332192;0,468678;0,468678;0,357567;0,357567;0,357567;0,357567;0,802012;0,357567;0,357567;0,357567;0,357567;0,357567;0,468678;
26;;;;;;;;;;;;;;;;;;;;;;;;;;1,000000;0,357567;0,358644;0,416667;0,326469;0,416667;0,358644;0,333333;0,333333;0,333333;0,333333;0,000000;0,000000;0,000000;0,416667;0,416667;0,291667;0,333333;0,000000;0,000000;0,000000;0,000000;0,000000;0,000000;0,000000;0,000000;0,000000;0,000000;0,000000;0,000000;0,000000;0,000000;0,000000;0,000000;0,416667;0,000000;0,000000;0,000000;0,000000;0,000000;0,000000;0,666667;0,000000;0,000000;0,000000;0,000000;0,666667;0,388889;0,388889;0,308339;0,308339;0,266667;0,308339;0,416667;0,416667;0,333333;0,333333;0,333333;0,333333;0,666667;0,333333;0,333333;0,333333;0,333333;0,333333;0,416667;
27;;;;;;;;;;;;;;;;;;;;;;;;;;;1,000000;0,589051;0,468678;0,359388;0,468678;0,417450;0,357567;0,357567;0,369684;0,357567;0,000000;0,000000;0,000000;0,468678;0,468678;0,302012;0,357567;0,000000;0,000000;0,000000;0,000000;0,000000;0,000000;0,000000;0,000000;0,000000;0,000000;0,000000;0,000000;0,000000;0,000000;0,000000;0,000000;0,468678;0,000000;0,000000;0,000000;0,000000;0,000000;0,000000;0,802012;0,000000;0,000000;0,000000;0,000000;0,802012;0,453017;0,453017;0,332192;0,332192;0,268678;0,332192;0,468678;0,468678;0,715134;0,357567;0,357567;0,357567;0,802012;0,357567;0,357567;0,357567;0,357567;0,357567;0,937357;
28;;;;;;;;;;;;;;;;;;;;;;;;;;;;1,000000;0,483644;0,361474;0,483644;0,434574;0,358644;0,358644;0,373830;0,358644;0,000000;0,000000;0,000000;0,483644;0,483644;0,296144;0,358644;0,000000;0,000000;0,000000;0,000000;0,000000;0,000000;0,000000;0,000000;0,000000;0,000000;0,000000;0,000000;0,000000;0,000000;0,000000;0,000000;0,483644;0,000000;0,000000;0,000000;0,000000;0,000000;0,000000;0,858644;0,000000;0,000000;0,000000;0,000000;0,858644;0,473830;0,473830;0,328839;0,328839;0,258644;0,328839;0,483644;0,483644;0,681804;0,358644;0,358644;0,358644;0,858644;0,358644;0,358644;0,358644;0,358644;0,358644;0,483644;
29;;;;;;;;;;;;;;;;;;;;;;;;;;;;;1,000000;0,437580;0,500000;0,483644;0,416667;0,416667;0,444444;0,416667;0,000000;0,000000;0,000000;0,500000;0,500000;0,375000;0,416667;0,000000;0,000000;0,000000;0,000000;0,000000;0,000000;0,000000;0,000000;0,000000;0,000000;0,000000;0,000000;0,000000;0,000000;0,000000;0,000000;0,500000;0,000000;0,000000;0,000000;0,000000;0,000000;0,000000;0,750000;0,000000;0,000000;0,000000;0,000000;0,750000;0,500000;0,500000;0,791115;0,791115;0,700000;0,791115;0,500000;0,500000;0,416667;0,416667;0,416667;0,416667;0,750000;0,416667;0,416667;0,416667;0,416667;0,416667;0,500000;
30;;;;;;;;;;;;;;;;;;;;;;;;;;;;;;1,000000;0,437580;0,361474;0,326469;0,326469;0,323037;0,326469;0,000000;0,000000;0,000000;0,437580;0,437580;0,270914;0,326469;0,000000;0,000000;0,000000;0,000000;0,000000;0,000000;0,000000;0,000000;0,000000;0,000000;0,000000;0,000000;0,000000;0,000000;0,000000;0,000000;0,437580;0,000000;0,000000;0,000000;0,000000;0,000000;0,000000;0,770914;0,000000;0,000000;0,000000;0,000000;0,770914;0,406371;0,406371;0,796622;0,796622;0,769745;0,796622;0,437580;0,437580;0,326469;0,326469;0,326469;0,326469;0,770914;0,326469;0,326469;0,326469;0,326469;0,326469;0,437580;
31;;;;;;;;;;;;;;;;;;;;;;;;;;;;;;;1,000000;0,931411;0,833333;0,416667;0,444444;0,416667;0,000000;0,000000;0,000000;0,500000;0,500000;0,375000;0,416667;0,000000;0,000000;0,000000;0,000000;0,000000;0,000000;0,000000;0,000000;0,000000;0,000000;0,000000;0,000000;0,000000;0,000000;0,000000;0,000000;0,500000;0,000000;0,000000;0,000000;0,000000;0,000000;0,000000;0,750000;0,000000;0,000000;0,000000;0,000000;0,750000;0,500000;0,500000;0,419450;0,419450;0,350000;0,419450;0,500000;0,500000;0,416667;0,416667;0,416667;0,416667;0,750000;0,416667;0,416667;0,416667;0,416667;0,416667;0,500000;
32;;;;;;;;;;;;;;;;;;;;;;;;;;;;;;;;1,000000;0,681411;0,358644;0,373830;0,358644;0,000000;0,000000;0,000000;0,483644;0,483644;0,517617;0,651454;0,000000;0,000000;0,000000;0,000000;0,000000;0,000000;0,000000;0,000000;0,000000;0,000000;0,000000;0,000000;0,000000;0,000000;0,000000;0,000000;0,892617;0,000000;0,000000;0,000000;0,000000;0,000000;0,000000;0,858644;0,000000;0,000000;0,000000;0,000000;0,858644;0,473830;0,473830;0,328839;0,328839;0,258644;0,328839;0,483644;0,483644;0,358644;0,358644;0,358644;0,358644;0,858644;0,358644;0,358644;0,358644;0,358644;0,358644;0,483644;
33;;;;;;;;;;;;;;;;;;;;;;;;;;;;;;;;;1,000000;0,333333;0,333333;0,333333;0,000000;0,000000;0,000000;0,416667;0,416667;0,291667;0,333333;0,000000;0,000000;0,000000;0,000000;0,000000;0,000000;0,000000;0,000000;0,000000;0,000000;0,000000;0,000000;0,000000;0,000000;0,000000;0,000000;0,416667;0,000000;0,000000;0,000000;0,000000;0,000000;0,000000;0,666667;0,000000;0,000000;0,000000;0,000000;0,666667;0,388889;0,388889;0,308339;0,308339;0,266667;0,308339;0,416667;0,416667;0,333333;0,333333;0,333333;0,333333;0,666667;0,333333;0,333333;0,333333;0,333333;0,333333;0,416667;
34;;;;;;;;;;;;;;;;;;;;;;;;;;;;;;;;;;1,000000;0,615568;0,666667;0,000000;0,000000;0,000000;0,416667;0,416667;0,291667;0,333333;0,000000;0,000000;0,000000;0,000000;0,000000;0,000000;0,000000;0,000000;0,000000;0,000000;0,000000;0,000000;0,000000;0,000000;0,000000;0,000000;0,416667;0,000000;0,000000;0,000000;0,000000;0,000000;0,000000;0,666667;0,000000;0,000000;0,000000;0,000000;0,666667;0,388889;0,388889;0,308339;0,308339;0,266667;0,308339;0,416667;0,416667;0,333333;0,333333;0,333333;0,333333;0,666667;0,666667;0,666667;0,333333;0,333333;0,333333;0,416667;
35;;;;;;;;;;;;;;;;;;;;;;;;;;;;;;;;;;;1,000000;0,615568;0,000000;0,000000;0,000000;0,444444;0,444444;0,277778;0,333333;0,000000;0,000000;0,000000;0,000000;0,000000;0,000000;0,000000;0,000000;0,000000;0,000000;0,000000;0,000000;0,000000;0,000000;0,000000;0,000000;0,444444;0,000000;0,000000;0,000000;0,000000;0,000000;0,000000;0,777778;0,000000;0,000000;0,000000;0,000000;0,777778;0,416667;0,416667;0,295841;0,295841;0,244444;0,295841;0,444444;0,444444;0,333333;0,333333;0,333333;0,333333;0,777778;0,615568;0,615568;0,333333;0,333333;0,333333;0,444444;
36;;;;;;;;;;;;;;;;;;;;;;;;;;;;;;;;;;;;1,000000;0,000000;0,000000;0,000000;0,416667;0,416667;0,291667;0,333333;0,000000;0,000000;0,000000;0,000000;0,000000;0,000000;0,000000;0,000000;0,000000;0,000000;0,000000;0,000000;0,000000;0,000000;0,000000;0,000000;0,416667;0,000000;0,000000;0,000000;0,000000;0,000000;0,000000;0,666667;0,000000;0,000000;0,000000;0,000000;0,666667;0,388889;0,388889;0,308339;0,308339;0,266667;0,308339;0,416667;0,416667;0,333333;0,333333;0,333333;0,333333;0,666667;0,666667;0,666667;0,333333;0,333333;0,333333;0,416667;
37;;;;;;;;;;;;;;;;;;;;;;;;;;;;;;;;;;;;;1,000000;0,500000;0,500000;0,000000;0,000000;0,000000;0,000000;0,685336;0,685336;0,795368;0,685336;0,786836;0,786836;0,786836;0,786836;0,786836;0,000000;0,000000;0,000000;0,000000;0,000000;0,000000;0,000000;0,000000;0,236862;0,236862;0,201158;0,201158;0,201158;0,301158;0,000000;0,000000;0,000000;0,000000;0,000000;0,000000;0,000000;0,000000;0,000000;0,000000;0,000000;0,000000;0,000000;0,000000;0,000000;0,000000;0,000000;0,000000;0,000000;0,000000;0,000000;0,000000;0,000000;0,000000;0,000000;
38;;;;;;;;;;;;;;;;;;;;;;;;;;;;;;;;;;;;;;1,000000;0,500000;0,000000;0,000000;0,000000;0,000000;0,375000;0,375000;0,440926;0,375000;0,333333;0,333333;0,333333;0,333333;0,333333;0,000000;0,000000;0,000000;0,000000;0,000000;0,000000;0,000000;0,000000;0,000000;0,000000;0,000000;0,000000;0,000000;0,000000;0,000000;0,000000;0,000000;0,000000;0,000000;0,000000;0,000000;0,000000;0,000000;0,000000;0,000000;0,000000;0,000000;0,000000;0,000000;0,000000;0,000000;0,000000;0,000000;0,000000;0,000000;0,000000;0,000000;0,000000;0,000000;
39;;;;;;;;;;;;;;;;;;;;;;;;;;;;;;;;;;;;;;;1,000000;0,000000;0,000000;0,000000;0,000000;0,375000;0,375000;0,440926;0,375000;0,333333;0,333333;0,333333;0,333333;0,333333;0,000000;0,000000;0,000000;0,000000;0,000000;0,000000;0,000000;0,000000;0,000000;0,000000;0,000000;0,000000;0,000000;0,000000;0,000000;0,000000;0,000000;0,000000;0,000000;0,000000;0,000000;0,000000;0,000000;0,000000;0,000000;0,000000;0,000000;0,000000;0,000000;0,000000;0,000000;0,000000;0,000000;0,000000;0,000000;0,000000;0,000000;0,000000;0,000000;
40;;;;;;;;;;;;;;;;;;;;;;;;;;;;;;;;;;;;;;;;1,000000;0,500000;0,375000;0,416667;0,000000;0,000000;0,000000;0,000000;0,000000;0,000000;0,000000;0,000000;0,000000;0,000000;0,000000;0,000000;0,000000;0,000000;0,000000;0,000000;0,500000;0,000000;0,000000;0,000000;0,000000;0,000000;0,000000;0,750000;0,000000;0,000000;0,000000;0,000000;0,750000;0,500000;0,500000;0,419450;0,419450;0,350000;0,419450;0,500000;0,500000;0,416667;0,416667;0,416667;0,416667;0,750000;0,416667;0,416667;0,416667;0,416667;0,416667;0,500000;
41;;;;;;;;;;;;;;;;;;;;;;;;;;;;;;;;;;;;;;;;;1,000000;0,375000;0,416667;0,000000;0,000000;0,000000;0,000000;0,000000;0,000000;0,000000;0,000000;0,000000;0,000000;0,000000;0,000000;0,000000;0,000000;0,000000;0,000000;0,500000;0,000000;0,000000;0,000000;0,000000;0,000000;0,000000;0,750000;0,000000;0,000000;0,000000;0,000000;0,750000;0,500000;0,500000;0,419450;0,419450;0,350000;0,419450;0,500000;0,500000;0,416667;0,416667;0,416667;0,416667;0,750000;0,416667;0,416667;0,416667;0,416667;0,416667;0,500000;
42;;;;;;;;;;;;;;;;;;;;;;;;;;;;;;;;;;;;;;;;;;1,000000;0,291667;0,000000;0,000000;0,000000;0,000000;0,000000;0,000000;0,000000;0,000000;0,000000;0,000000;0,000000;0,000000;0,000000;0,000000;0,000000;0,000000;0,750000;0,000000;0,000000;0,000000;0,000000;0,000000;0,000000;0,625000;0,000000;0,000000;0,000000;0,000000;0,625000;0,333333;0,333333;0,252783;0,252783;0,225000;0,252783;0,375000;0,375000;0,291667;0,291667;0,291667;0,291667;0,625000;0,291667;0,291667;0,291667;0,291667;0,291667;0,375000;
43;;;;;;;;;;;;;;;;;;;;;;;;;;;;;;;;;;;;;;;;;;;1,000000;0,000000;0,000000;0,000000;0,000000;0,000000;0,000000;0,000000;0,000000;0,000000;0,000000;0,000000;0,000000;0,000000;0,000000;0,000000;0,000000;0,416667;0,000000;0,000000;0,000000;0,000000;0,000000;0,000000;0,666667;0,000000;0,000000;0,000000;0,000000;0,666667;0,388889;0,388889;0,308339;0,308339;0,266667;0,308339;0,416667;0,416667;0,333333;0,333333;0,333333;0,333333;0,666667;0,333333;0,333333;0,333333;0,333333;0,333333;0,416667;
44;;;;;;;;;;;;;;;;;;;;;;;;;;;;;;;;;;;;;;;;;;;;1,000000;0,750000;0,698041;0,750000;0,416667;0,416667;0,416667;0,416667;0,416667;0,000000;0,000000;0,000000;0,000000;0,000000;0,000000;0,000000;0,000000;0,252783;0,252783;0,225000;0,225000;0,225000;0,291667;0,000000;0,000000;0,000000;0,000000;0,000000;0,000000;0,000000;0,000000;0,000000;0,000000;0,000000;0,000000;0,000000;0,000000;0,000000;0,000000;0,000000;0,000000;0,000000;0,000000;0,000000;0,000000;0,000000;0,000000;0,000000;
45;;;;;;;;;;;;;;;;;;;;;;;;;;;;;;;;;;;;;;;;;;;;;1,000000;0,698041;0,750000;0,416667;0,416667;0,416667;0,416667;0,416667;0,000000;0,000000;0,000000;0,000000;0,000000;0,000000;0,000000;0,000000;0,252783;0,252783;0,225000;0,225000;0,225000;0,291667;0,000000;0,000000;0,000000;0,000000;0,000000;0,000000;0,000000;0,000000;0,000000;0,000000;0,000000;0,000000;0,000000;0,000000;0,000000;0,000000;0,000000;0,000000;0,000000;0,000000;0,000000;0,000000;0,000000;0,000000;0,000000;
46;;;;;;;;;;;;;;;;;;;;;;;;;;;;;;;;;;;;;;;;;;;;;;1,000000;0,698041;0,795449;0,795449;0,795449;0,795449;0,795449;0,000000;0,000000;0,000000;0,000000;0,000000;0,000000;0,000000;0,000000;0,747523;0,747523;0,789828;0,789828;0,789828;0,636673;0,000000;0,000000;0,000000;0,000000;0,000000;0,000000;0,000000;0,000000;0,000000;0,000000;0,000000;0,000000;0,000000;0,000000;0,000000;0,000000;0,000000;0,000000;0,000000;0,000000;0,000000;0,000000;0,000000;0,000000;0,000000;
47;;;;;;;;;;;;;;;;;;;;;;;;;;;;;;;;;;;;;;;;;;;;;;;1,000000;0,416667;0,416667;0,416667;0,416667;0,416667;0,000000;0,000000;0,000000;0,000000;0,000000;0,000000;0,000000;0,000000;0,252783;0,252783;0,225000;0,225000;0,225000;0,291667;0,000000;0,000000;0,000000;0,000000;0,000000;0,000000;0,000000;0,000000;0,000000;0,000000;0,000000;0,000000;0,000000;0,000000;0,000000;0,000000;0,000000;0,000000;0,000000;0,000000;0,000000;0,000000;0,000000;0,000000;0,000000;
48;;;;;;;;;;;;;;;;;;;;;;;;;;;;;;;;;;;;;;;;;;;;;;;;1,000000;0,833333;0,833333;0,833333;0,833333;0,000000;0,000000;0,000000;0,000000;0,000000;0,000000;0,000000;0,000000;0,197227;0,197227;0,183333;0,183333;0,183333;0,250000;0,000000;0,000000;0,000000;0,000000;0,000000;0,000000;0,000000;0,000000;0,000000;0,000000;0,000000;0,000000;0,000000;0,000000;0,000000;0,000000;0,000000;0,000000;0,000000;0,000000;0,000000;0,000000;0,000000;0,000000;0,000000;
49;;;;;;;;;;;;;;;;;;;;;;;;;;;;;;;;;;;;;;;;;;;;;;;;;1,000000;0,833333;0,833333;0,833333;0,000000;0,000000;0,000000;0,000000;0,000000;0,000000;0,000000;0,000000;0,197227;0,197227;0,183333;0,183333;0,183333;0,250000;0,000000;0,000000;0,000000;0,000000;0,000000;0,000000;0,000000;0,000000;0,000000;0,000000;0,000000;0,000000;0,000000;0,000000;0,000000;0,000000;0,000000;0,000000;0,000000;0,000000;0,000000;0,000000;0,000000;0,000000;0,000000;
50;;;;;;;;;;;;;;;;;;;;;;;;;;;;;;;;;;;;;;;;;;;;;;;;;;1,000000;0,833333;0,833333;0,000000;0,000000;0,000000;0,000000;0,000000;0,000000;0,000000;0,000000;0,197227;0,197227;0,183333;0,183333;0,183333;0,250000;0,000000;0,000000;0,000000;0,000000;0,000000;0,000000;0,000000;0,000000;0,000000;0,000000;0,000000;0,000000;0,000000;0,000000;0,000000;0,000000;0,000000;0,000000;0,000000;0,000000;0,000000;0,000000;0,000000;0,000000;0,000000;
51;;;;;;;;;;;;;;;;;;;;;;;;;;;;;;;;;;;;;;;;;;;;;;;;;;;1,000000;0,833333;0,000000;0,000000;0,000000;0,000000;0,000000;0,000000;0,000000;0,000000;0,197227;0,197227;0,183333;0,183333;0,183333;0,250000;0,000000;0,000000;0,000000;0,000000;0,000000;0,000000;0,000000;0,000000;0,000000;0,000000;0,000000;0,000000;0,000000;0,000000;0,000000;0,000000;0,000000;0,000000;0,000000;0,000000;0,000000;0,000000;0,000000;0,000000;0,000000;
52;;;;;;;;;;;;;;;;;;;;;;;;;;;;;;;;;;;;;;;;;;;;;;;;;;;;1,000000;0,000000;0,000000;0,000000;0,000000;0,000000;0,000000;0,000000;0,000000;0,197227;0,197227;0,183333;0,183333;0,183333;0,250000;0,000000;0,000000;0,000000;0,000000;0,000000;0,000000;0,000000;0,000000;0,000000;0,000000;0,000000;0,000000;0,000000;0,000000;0,000000;0,000000;0,000000;0,000000;0,000000;0,000000;0,000000;0,000000;0,000000;0,000000;0,000000;
53;;;;;;;;;;;;;;;;;;;;;;;;;;;;;;;;;;;;;;;;;;;;;;;;;;;;;1,000000;0,833333;0,833333;0,833333;0,833333;0,833333;0,833333;0,000000;0,000000;0,000000;0,000000;0,000000;0,000000;0,000000;0,000000;0,000000;0,000000;0,000000;0,000000;0,000000;0,000000;0,000000;0,000000;0,000000;0,000000;0,000000;0,000000;0,000000;0,000000;0,000000;0,000000;0,000000;0,000000;0,000000;0,000000;0,000000;0,000000;0,000000;0,000000;
54;;;;;;;;;;;;;;;;;;;;;;;;;;;;;;;;;;;;;;;;;;;;;;;;;;;;;;1,000000;0,833333;0,833333;0,833333;0,833333;0,833333;0,000000;0,000000;0,000000;0,000000;0,000000;0,000000;0,000000;0,000000;0,000000;0,000000;0,000000;0,000000;0,000000;0,000000;0,000000;0,000000;0,000000;0,000000;0,000000;0,000000;0,000000;0,000000;0,000000;0,000000;0,000000;0,000000;0,000000;0,000000;0,000000;0,000000;0,000000;0,000000;
55;;;;;;;;;;;;;;;;;;;;;;;;;;;;;;;;;;;;;;;;;;;;;;;;;;;;;;;1,000000;0,833333;0,833333;0,833333;0,833333;0,000000;0,000000;0,000000;0,000000;0,000000;0,000000;0,000000;0,000000;0,000000;0,000000;0,000000;0,000000;0,000000;0,000000;0,000000;0,000000;0,000000;0,000000;0,000000;0,000000;0,000000;0,000000;0,000000;0,000000;0,000000;0,000000;0,000000;0,000000;0,000000;0,000000;0,000000;0,000000;
56;;;;;;;;;;;;;;;;;;;;;;;;;;;;;;;;;;;;;;;;;;;;;;;;;;;;;;;;1,000000;0,833333;0,833333;0,833333;0,000000;0,000000;0,000000;0,000000;0,000000;0,000000;0,000000;0,000000;0,000000;0,000000;0,000000;0,000000;0,000000;0,000000;0,000000;0,000000;0,000000;0,000000;0,000000;0,000000;0,000000;0,000000;0,000000;0,000000;0,000000;0,000000;0,000000;0,000000;0,000000;0,000000;0,000000;0,000000;
57;;;;;;;;;;;;;;;;;;;;;;;;;;;;;;;;;;;;;;;;;;;;;;;;;;;;;;;;;1,000000;0,833333;0,833333;0,000000;0,000000;0,000000;0,000000;0,000000;0,000000;0,000000;0,000000;0,000000;0,000000;0,000000;0,000000;0,000000;0,000000;0,000000;0,000000;0,000000;0,000000;0,000000;0,000000;0,000000;0,000000;0,000000;0,000000;0,000000;0,000000;0,000000;0,000000;0,000000;0,000000;0,000000;0,000000;
58;;;;;;;;;;;;;;;;;;;;;;;;;;;;;;;;;;;;;;;;;;;;;;;;;;;;;;;;;;1,000000;0,833333;0,000000;0,000000;0,000000;0,000000;0,000000;0,000000;0,000000;0,000000;0,000000;0,000000;0,000000;0,000000;0,000000;0,000000;0,000000;0,000000;0,000000;0,000000;0,000000;0,000000;0,000000;0,000000;0,000000;0,000000;0,000000;0,000000;0,000000;0,000000;0,000000;0,000000;0,000000;0,000000;
59;;;;;;;;;;;;;;;;;;;;;;;;;;;;;;;;;;;;;;;;;;;;;;;;;;;;;;;;;;;1,000000;0,000000;0,000000;0,000000;0,000000;0,000000;0,000000;0,000000;0,000000;0,000000;0,000000;0,000000;0,000000;0,000000;0,000000;0,000000;0,000000;0,000000;0,000000;0,000000;0,000000;0,000000;0,000000;0,000000;0,000000;0,000000;0,000000;0,000000;0,000000;0,000000;0,000000;0,000000;0,000000;
60;;;;;;;;;;;;;;;;;;;;;;;;;;;;;;;;;;;;;;;;;;;;;;;;;;;;;;;;;;;;1,000000;0,000000;0,000000;0,000000;0,000000;0,000000;0,000000;0,750000;0,000000;0,000000;0,000000;0,000000;0,750000;0,500000;0,500000;0,419450;0,419450;0,350000;0,419450;0,500000;0,500000;0,416667;0,416667;0,416667;0,416667;0,750000;0,416667;0,416667;0,416667;0,416667;0,416667;0,500000;
61;;;;;;;;;;;;;;;;;;;;;;;;;;;;;;;;;;;;;;;;;;;;;;;;;;;;;;;;;;;;;1,000000;0,749704;0,783298;0,783298;0,783298;0,616677;0,000000;0,000000;0,000000;0,000000;0,000000;0,000000;0,000000;0,000000;0,000000;0,000000;0,000000;0,000000;0,000000;0,000000;0,000000;0,000000;0,000000;0,000000;0,000000;0,000000;0,000000;0,000000;0,000000;0,000000;0,000000;
62;;;;;;;;;;;;;;;;;;;;;;;;;;;;;;;;;;;;;;;;;;;;;;;;;;;;;;;;;;;;;;1,000000;0,783298;0,783298;0,783298;0,616677;0,000000;0,000000;0,000000;0,000000;0,000000;0,000000;0,000000;0,000000;0,000000;0,000000;0,000000;0,000000;0,000000;0,000000;0,000000;0,000000;0,000000;0,000000;0,000000;0,000000;0,000000;0,000000;0,000000;0,000000;0,000000;
63;;;;;;;;;;;;;;;;;;;;;;;;;;;;;;;;;;;;;;;;;;;;;;;;;;;;;;;;;;;;;;;1,000000;0,800000;0,800000;0,800000;0,000000;0,000000;0,000000;0,000000;0,000000;0,000000;0,000000;0,000000;0,000000;0,000000;0,000000;0,000000;0,000000;0,000000;0,000000;0,000000;0,000000;0,000000;0,000000;0,000000;0,000000;0,000000;0,000000;0,000000;0,000000;
64;;;;;;;;;;;;;;;;;;;;;;;;;;;;;;;;;;;;;;;;;;;;;;;;;;;;;;;;;;;;;;;;1,000000;0,800000;0,800000;0,000000;0,000000;0,000000;0,000000;0,000000;0,000000;0,000000;0,000000;0,000000;0,000000;0,000000;0,000000;0,000000;0,000000;0,000000;0,000000;0,000000;0,000000;0,000000;0,000000;0,000000;0,000000;0,000000;0,000000;0,000000;
65;;;;;;;;;;;;;;;;;;;;;;;;;;;;;;;;;;;;;;;;;;;;;;;;;;;;;;;;;;;;;;;;;1,000000;0,800000;0,000000;0,000000;0,000000;0,000000;0,000000;0,000000;0,000000;0,000000;0,000000;0,000000;0,000000;0,000000;0,000000;0,000000;0,000000;0,000000;0,000000;0,000000;0,000000;0,000000;0,000000;0,000000;0,000000;0,000000;0,000000;
66;;;;;;;;;;;;;;;;;;;;;;;;;;;;;;;;;;;;;;;;;;;;;;;;;;;;;;;;;;;;;;;;;;1,000000;0,000000;0,000000;0,000000;0,000000;0,000000;0,000000;0,000000;0,000000;0,000000;0,000000;0,000000;0,000000;0,000000;0,000000;0,000000;0,000000;0,000000;0,000000;0,000000;0,000000;0,000000;0,000000;0,000000;0,000000;0,000000;
67;;;;;;;;;;;;;;;;;;;;;;;;;;;;;;;;;;;;;;;;;;;;;;;;;;;;;;;;;;;;;;;;;;;1,000000;0,000000;0,000000;0,000000;0,000000;1,000000;0,833333;0,833333;0,752783;0,752783;0,600000;0,752783;0,750000;0,750000;0,666667;0,666667;0,666667;0,666667;1,000000;0,666667;0,666667;0,666667;0,666667;0,666667;0,750000;
68;;;;;;;;;;;;;;;;;;;;;;;;;;;;;;;;;;;;;;;;;;;;;;;;;;;;;;;;;;;;;;;;;;;;1,000000;0,666667;0,666667;0,666667;0,000000;0,000000;0,000000;0,000000;0,000000;0,000000;0,000000;0,000000;0,000000;0,000000;0,000000;0,000000;0,000000;0,000000;0,000000;0,000000;0,000000;0,000000;0,000000;0,000000;
69;;;;;;;;;;;;;;;;;;;;;;;;;;;;;;;;;;;;;;;;;;;;;;;;;;;;;;;;;;;;;;;;;;;;;1,000000;0,666667;0,666667;0,000000;0,000000;0,000000;0,000000;0,000000;0,000000;0,000000;0,000000;0,000000;0,000000;0,000000;0,000000;0,000000;0,000000;0,000000;0,000000;0,000000;0,000000;0,000000;0,000000;
70;;;;;;;;;;;;;;;;;;;;;;;;;;;;;;;;;;;;;;;;;;;;;;;;;;;;;;;;;;;;;;;;;;;;;;1,000000;0,666667;0,000000;0,000000;0,000000;0,000000;0,000000;0,000000;0,000000;0,000000;0,000000;0,000000;0,000000;0,000000;0,000000;0,000000;0,000000;0,000000;0,000000;0,000000;0,000000;0,000000;
71;;;;;;;;;;;;;;;;;;;;;;;;;;;;;;;;;;;;;;;;;;;;;;;;;;;;;;;;;;;;;;;;;;;;;;;1,000000;0,000000;0,000000;0,000000;0,000000;0,000000;0,000000;0,000000;0,000000;0,000000;0,000000;0,000000;0,000000;0,000000;0,000000;0,000000;0,000000;0,000000;0,000000;0,000000;0,000000;
72;;;;;;;;;;;;;;;;;;;;;;;;;;;;;;;;;;;;;;;;;;;;;;;;;;;;;;;;;;;;;;;;;;;;;;;;1,000000;0,833333;0,833333;0,752783;0,752783;0,600000;0,752783;0,750000;0,750000;0,666667;0,666667;0,666667;0,666667;1,000000;0,666667;0,666667;0,666667;0,666667;0,666667;0,750000;
73;;;;;;;;;;;;;;;;;;;;;;;;;;;;;;;;;;;;;;;;;;;;;;;;;;;;;;;;;;;;;;;;;;;;;;;;;1,000000;0,500000;0,379175;0,379175;0,300000;0,379175;0,500000;0,500000;0,388889;0,388889;0,388889;0,388889;0,833333;0,388889;0,388889;0,388889;0,388889;0,388889;0,500000;
74;;;;;;;;;;;;;;;;;;;;;;;;;;;;;;;;;;;;;;;;;;;;;;;;;;;;;;;;;;;;;;;;;;;;;;;;;;1,000000;0,379175;0,379175;0,300000;0,379175;0,500000;0,500000;0,388889;0,388889;0,388889;0,388889;0,833333;0,388889;0,388889;0,388889;0,388889;0,388889;0,500000;
75;;;;;;;;;;;;;;;;;;;;;;;;;;;;;;;;;;;;;;;;;;;;;;;;;;;;;;;;;;;;;;;;;;;;;;;;;;;1,000000;0,747425;0,827975;0,747425;0,419450;0,419450;0,308339;0,308339;0,308339;0,308339;0,752783;0,308339;0,308339;0,308339;0,308339;0,308339;0,419450;
76;;;;;;;;;;;;;;;;;;;;;;;;;;;;;;;;;;;;;;;;;;;;;;;;;;;;;;;;;;;;;;;;;;;;;;;;;;;;1,000000;0,827975;0,747425;0,419450;0,419450;0,308339;0,308339;0,308339;0,308339;0,752783;0,308339;0,308339;0,308339;0,308339;0,308339;0,419450;
77;;;;;;;;;;;;;;;;;;;;;;;;;;;;;;;;;;;;;;;;;;;;;;;;;;;;;;;;;;;;;;;;;;;;;;;;;;;;;1,000000;0,827975;0,350000;0,350000;0,266667;0,266667;0,266667;0,266667;0,600000;0,266667;0,266667;0,266667;0,266667;0,266667;0,350000;
78;;;;;;;;;;;;;;;;;;;;;;;;;;;;;;;;;;;;;;;;;;;;;;;;;;;;;;;;;;;;;;;;;;;;;;;;;;;;;;1,000000;0,419450;0,419450;0,308339;0,308339;0,308339;0,308339;0,752783;0,308339;0,308339;0,308339;0,308339;0,308339;0,419450;
79;;;;;;;;;;;;;;;;;;;;;;;;;;;;;;;;;;;;;;;;;;;;;;;;;;;;;;;;;;;;;;;;;;;;;;;;;;;;;;;1,000000;0,500000;0,416667;0,416667;0,416667;0,416667;0,750000;0,416667;0,416667;0,416667;0,416667;0,416667;0,500000;
80;;;;;;;;;;;;;;;;;;;;;;;;;;;;;;;;;;;;;;;;;;;;;;;;;;;;;;;;;;;;;;;;;;;;;;;;;;;;;;;;1,000000;0,416667;0,416667;0,416667;0,416667;0,750000;0,416667;0,416667;0,416667;0,416667;0,416667;0,500000;
81;;;;;;;;;;;;;;;;;;;;;;;;;;;;;;;;;;;;;;;;;;;;;;;;;;;;;;;;;;;;;;;;;;;;;;;;;;;;;;;;;1,000000;0,333333;0,333333;0,333333;0,666667;0,333333;0,333333;0,333333;0,333333;0,333333;0,833333;
82;;;;;;;;;;;;;;;;;;;;;;;;;;;;;;;;;;;;;;;;;;;;;;;;;;;;;;;;;;;;;;;;;;;;;;;;;;;;;;;;;;1,000000;0,666667;0,666667;0,666667;0,333333;0,333333;0,333333;0,333333;0,333333;0,416667;
83;;;;;;;;;;;;;;;;;;;;;;;;;;;;;;;;;;;;;;;;;;;;;;;;;;;;;;;;;;;;;;;;;;;;;;;;;;;;;;;;;;;1,000000;0,666667;0,666667;0,333333;0,333333;0,333333;0,333333;0,333333;0,416667;
84;;;;;;;;;;;;;;;;;;;;;;;;;;;;;;;;;;;;;;;;;;;;;;;;;;;;;;;;;;;;;;;;;;;;;;;;;;;;;;;;;;;;1,000000;0,666667;0,333333;0,333333;0,333333;0,333333;0,333333;0,416667;
85;;;;;;;;;;;;;;;;;;;;;;;;;;;;;;;;;;;;;;;;;;;;;;;;;;;;;;;;;;;;;;;;;;;;;;;;;;;;;;;;;;;;;1,000000;0,666667;0,666667;0,666667;0,666667;0,666667;0,750000;
86;;;;;;;;;;;;;;;;;;;;;;;;;;;;;;;;;;;;;;;;;;;;;;;;;;;;;;;;;;;;;;;;;;;;;;;;;;;;;;;;;;;;;;1,000000;0,666667;0,333333;0,333333;0,333333;0,416667;
87;;;;;;;;;;;;;;;;;;;;;;;;;;;;;;;;;;;;;;;;;;;;;;;;;;;;;;;;;;;;;;;;;;;;;;;;;;;;;;;;;;;;;;;1,000000;0,333333;0,333333;0,333333;0,416667;
88;;;;;;;;;;;;;;;;;;;;;;;;;;;;;;;;;;;;;;;;;;;;;;;;;;;;;;;;;;;;;;;;;;;;;;;;;;;;;;;;;;;;;;;;1,000000;0,666667;0,666667;0,416667;
89;;;;;;;;;;;;;;;;;;;;;;;;;;;;;;;;;;;;;;;;;;;;;;;;;;;;;;;;;;;;;;;;;;;;;;;;;;;;;;;;;;;;;;;;;1,000000;0,666667;0,416667;
90;;;;;;;;;;;;;;;;;;;;;;;;;;;;;;;;;;;;;;;;;;;;;;;;;;;;;;;;;;;;;;;;;;;;;;;;;;;;;;;;;;;;;;;;;;1,000000;0,416667;
91;;;;;;;;;;;;;;;;;;;;;;;;;;;;;;;;;;;;;;;;;;;;;;;;;;;;;;;;;;;;;;;;;;;;;;;;;;;;;;;;;;;;;;;;;;;1,000000;
