;1; 2; 3; 4; 5; 6; 7; 8; 9; 10; 11; 12; 13; 14; 15; 16; 17; 18; 19; 20; 21; 22; 23; 24; 25; 26; 27; 28; 29; 30; 31; 32; 33; 34; 35; 36; 37; 38; 39; 40; 41; 42; 43; 44; 45; 46; 47; 48; 49; 50; 51; 52; 53; 54; 55; 56; 57; 58; 59; 60; 61; 62; 63; 64; 65; 66; 67; 68; 69; 70; 71; 72; 73; 74; 75; 76; 77; 78; 79; 80; 81; 82; 83; 84; 85; 86; 87; 88; 89; 90; 91
1;1,000000;0,370581;0,406776;0,601462;0,509677;0,377014;0,400260;0,335348;0,335348;0,471367;0,377014;0,377014;0,377014;0,377014;0,668155;0,679043;0,679043;0,658652;0,377014;0,377014;0,377014;0,526998;0,460348;0,681569;0,659863;0,587161;0,413365;0,427635;0,460348;0,366718;0,460348;0,605630;0,587154;0,377014;0,377014;0,377014;0,000000;0,000000;0,000000;0,460348;0,460348;0,526998;0,636056;0,000000;0,000000;0,000000;0,000000;0,000000;0,000000;0,000000;0,000000;0,000000;0,000000;0,000000;0,000000;0,000000;0,000000;0,000000;0,000000;0,460348;0,000000;0,000000;0,000000;0,000000;0,000000;0,000000;0,710348;0,000000;0,000000;0,000000;0,000000;0,710348;0,460348;0,460348;0,339522;0,339522;0,310348;0,339522;0,460348;0,460348;0,377014;0,377014;0,377014;0,377014;0,710348;0,377014;0,377014;0,377014;0,377014;0,377014;0,460348;
2;;1,000000;0,408453;0,359255;0,434377;0,376212;0,426015;0,458522;0,458522;0,431152;0,388765;0,383554;0,388765;0,383554;0,475436;0,433798;0,433798;0,440845;0,369392;0,369392;0,369392;0,373807;0,273070;0,430142;0,339076;0,378058;0,336845;0,330393;0,267607;0,394973;0,287375;0,372630;0,392831;0,365065;0,399190;0,365065;0,000000;0,000000;0,000000;0,271288;0,271288;0,460349;0,382418;0,000000;0,000000;0,000000;0,000000;0,000000;0,000000;0,000000;0,000000;0,000000;0,000000;0,000000;0,000000;0,000000;0,000000;0,000000;0,000000;0,291251;0,000000;0,000000;0,000000;0,000000;0,000000;0,000000;0,000000;0,000000;0,000000;0,000000;0,000000;0,000000;0,271524;0,271524;0,429748;0,429748;0,463576;0,429748;0,271244;0,271244;0,375752;0,369166;0,369166;0,369166;0,000000;0,365065;0,365065;0,369158;0,369158;0,369158;0,273797;
3;;;1,000000;0,399446;0,602773;0,611826;0,637855;0,500000;0,500000;0,515295;0,363095;0,363095;0,363095;0,363095;0,474336;0,321429;0,321429;0,482521;0,363095;0,363095;0,363095;0,689775;0,750000;0,557202;0,399446;0,363095;0,399446;0,413716;0,446429;0,352799;0,446429;0,535235;0,363095;0,363095;0,363095;0,363095;0,000000;0,000000;0,000000;0,446429;0,446429;0,685310;0,611088;0,000000;0,000000;0,000000;0,000000;0,000000;0,000000;0,000000;0,000000;0,000000;0,000000;0,000000;0,000000;0,000000;0,000000;0,000000;0,000000;0,750000;0,000000;0,000000;0,000000;0,000000;0,000000;0,000000;0,696429;0,000000;0,000000;0,000000;0,000000;0,696429;0,446429;0,446429;0,325603;0,325603;0,296429;0,325603;0,446429;0,446429;0,363095;0,363095;0,363095;0,363095;0,696429;0,363095;0,363095;0,363095;0,363095;0,363095;0,446429;
4;;;;1,000000;0,664880;0,633356;0,555169;0,328017;0,328017;0,551474;0,369684;0,369684;0,369684;0,369684;0,361811;0,328017;0,328017;0,376306;0,369684;0,369684;0,369684;0,574464;0,453017;0,375177;0,406035;0,369684;0,406035;0,420304;0,453017;0,359388;0,453017;0,420304;0,369684;0,369684;0,369684;0,369684;0,000000;0,000000;0,000000;0,453017;0,453017;0,574464;0,369684;0,000000;0,000000;0,000000;0,000000;0,000000;0,000000;0,000000;0,000000;0,000000;0,000000;0,000000;0,000000;0,000000;0,000000;0,000000;0,000000;0,453017;0,000000;0,000000;0,000000;0,000000;0,000000;0,000000;0,703017;0,000000;0,000000;0,000000;0,000000;0,703017;0,453017;0,453017;0,332192;0,332192;0,303017;0,332192;0,453017;0,453017;0,369684;0,369684;0,369684;0,369684;0,703017;0,369684;0,369684;0,369684;0,369684;0,369684;0,453017;
5;;;;;1,000000;0,571102;0,610410;0,683310;0,683310;0,660015;0,377014;0,377014;0,377014;0,377014;0,487521;0,335348;0,335348;0,383636;0,377014;0,377014;0,377014;0,571310;0,765301;0,486570;0,413365;0,377014;0,413365;0,427635;0,460348;0,366718;0,783634;0,646457;0,616968;0,377014;0,377014;0,377014;0,000000;0,000000;0,000000;0,460348;0,460348;0,666122;0,377014;0,000000;0,000000;0,000000;0,000000;0,000000;0,000000;0,000000;0,000000;0,000000;0,000000;0,000000;0,000000;0,000000;0,000000;0,000000;0,000000;0,460348;0,000000;0,000000;0,000000;0,000000;0,000000;0,000000;0,710348;0,000000;0,000000;0,000000;0,000000;0,710348;0,460348;0,460348;0,339522;0,339522;0,310348;0,339522;0,460348;0,460348;0,377014;0,377014;0,377014;0,377014;0,710348;0,377014;0,377014;0,377014;0,377014;0,377014;0,460348;
6;;;;;;1,000000;0,588094;0,291667;0,291667;0,584784;0,333333;0,333333;0,333333;0,333333;0,325461;0,291667;0,291667;0,339955;0,333333;0,333333;0,333333;0,363095;0,416667;0,338827;0,369684;0,333333;0,369684;0,383954;0,416667;0,323037;0,416667;0,383954;0,333333;0,333333;0,333333;0,333333;0,000000;0,000000;0,000000;0,416667;0,416667;0,291667;0,333333;0,000000;0,000000;0,000000;0,000000;0,000000;0,000000;0,000000;0,000000;0,000000;0,000000;0,000000;0,000000;0,000000;0,000000;0,000000;0,000000;0,416667;0,000000;0,000000;0,000000;0,000000;0,000000;0,000000;0,666667;0,000000;0,000000;0,000000;0,000000;0,666667;0,416667;0,416667;0,295841;0,295841;0,266667;0,295841;0,416667;0,416667;0,333333;0,333333;0,333333;0,333333;0,666667;0,333333;0,333333;0,333333;0,333333;0,333333;0,416667;
7;;;;;;;1,000000;0,767525;0,767525;0,519124;0,356579;0,356579;0,356579;0,356579;0,530663;0,314912;0,314912;0,363200;0,356579;0,356579;0,356579;0,577746;0,439912;0,362072;0,392929;0,356579;0,392929;0,407199;0,439912;0,346282;0,826776;0,825251;0,660109;0,356579;0,356579;0,356579;0,000000;0,000000;0,000000;0,439912;0,439912;0,503829;0,356579;0,000000;0,000000;0,000000;0,000000;0,000000;0,000000;0,000000;0,000000;0,000000;0,000000;0,000000;0,000000;0,000000;0,000000;0,000000;0,000000;0,753829;0,000000;0,000000;0,000000;0,000000;0,000000;0,000000;0,689912;0,000000;0,000000;0,000000;0,000000;0,689912;0,439912;0,439912;0,319086;0,319086;0,289912;0,319086;0,439912;0,439912;0,356579;0,356579;0,356579;0,356579;0,689912;0,356579;0,356579;0,356579;0,356579;0,356579;0,439912;
8;;;;;;;;1,000000;0,750000;0,665838;0,291667;0,291667;0,291667;0,291667;0,453887;0,250000;0,250000;0,298288;0,291667;0,291667;0,291667;0,573917;0,375000;0,297160;0,328017;0,291667;0,328017;0,342287;0,375000;0,281371;0,750000;0,807726;0,583333;0,291667;0,291667;0,291667;0,000000;0,000000;0,000000;0,375000;0,375000;0,500000;0,291667;0,000000;0,000000;0,000000;0,000000;0,000000;0,000000;0,000000;0,000000;0,000000;0,000000;0,000000;0,000000;0,000000;0,000000;0,000000;0,000000;0,750000;0,000000;0,000000;0,000000;0,000000;0,000000;0,000000;0,625000;0,000000;0,000000;0,000000;0,000000;0,625000;0,375000;0,375000;0,254175;0,254175;0,225000;0,254175;0,375000;0,375000;0,291667;0,291667;0,291667;0,291667;0,625000;0,291667;0,291667;0,291667;0,291667;0,291667;0,375000;
9;;;;;;;;;1,000000;0,665838;0,291667;0,291667;0,291667;0,291667;0,453887;0,250000;0,250000;0,298288;0,291667;0,291667;0,291667;0,573917;0,375000;0,297160;0,328017;0,291667;0,328017;0,342287;0,375000;0,281371;0,750000;0,807726;0,583333;0,291667;0,291667;0,291667;0,000000;0,000000;0,000000;0,375000;0,375000;0,500000;0,291667;0,000000;0,000000;0,000000;0,000000;0,000000;0,000000;0,000000;0,000000;0,000000;0,000000;0,000000;0,000000;0,000000;0,000000;0,000000;0,000000;0,750000;0,000000;0,000000;0,000000;0,000000;0,000000;0,000000;0,625000;0,000000;0,000000;0,000000;0,000000;0,625000;0,375000;0,375000;0,254175;0,254175;0,225000;0,254175;0,375000;0,375000;0,291667;0,291667;0,291667;0,291667;0,625000;0,291667;0,291667;0,291667;0,291667;0,291667;0,375000;
10;;;;;;;;;;1,000000;0,355715;0,355715;0,355715;0,355715;0,422834;0,467546;0,467546;0,493755;0,355715;0,355715;0,355715;0,589212;0,439048;0,571000;0,392066;0,355715;0,392066;0,406335;0,439048;0,345419;0,439048;0,550530;0,550879;0,355715;0,355715;0,355715;0,000000;0,000000;0,000000;0,439048;0,439048;0,515295;0,355715;0,000000;0,000000;0,000000;0,000000;0,000000;0,000000;0,000000;0,000000;0,000000;0,000000;0,000000;0,000000;0,000000;0,000000;0,000000;0,000000;0,765295;0,000000;0,000000;0,000000;0,000000;0,000000;0,000000;0,689048;0,000000;0,000000;0,000000;0,000000;0,689048;0,439048;0,439048;0,318223;0,318223;0,289048;0,318223;0,439048;0,439048;0,355715;0,355715;0,355715;0,355715;0,689048;0,355715;0,355715;0,355715;0,355715;0,355715;0,439048;
11;;;;;;;;;;;1,000000;0,666667;0,666667;0,666667;0,325461;0,291667;0,291667;0,339955;0,333333;0,333333;0,333333;0,363095;0,416667;0,338827;0,369684;0,333333;0,369684;0,383954;0,416667;0,323037;0,416667;0,383954;0,333333;0,333333;0,333333;0,333333;0,000000;0,000000;0,000000;0,416667;0,416667;0,291667;0,333333;0,000000;0,000000;0,000000;0,000000;0,000000;0,000000;0,000000;0,000000;0,000000;0,000000;0,000000;0,000000;0,000000;0,000000;0,000000;0,000000;0,416667;0,000000;0,000000;0,000000;0,000000;0,000000;0,000000;0,666667;0,000000;0,000000;0,000000;0,000000;0,666667;0,416667;0,416667;0,295841;0,295841;0,266667;0,295841;0,416667;0,416667;0,333333;0,333333;0,333333;0,333333;0,666667;0,333333;0,333333;0,333333;0,333333;0,333333;0,416667;
12;;;;;;;;;;;;1,000000;0,666667;1,000000;0,325461;0,291667;0,291667;0,339955;0,333333;0,333333;0,333333;0,363095;0,416667;0,338827;0,369684;0,333333;0,369684;0,383954;0,416667;0,323037;0,416667;0,383954;0,333333;0,333333;0,333333;0,333333;0,000000;0,000000;0,000000;0,416667;0,416667;0,291667;0,333333;0,000000;0,000000;0,000000;0,000000;0,000000;0,000000;0,000000;0,000000;0,000000;0,000000;0,000000;0,000000;0,000000;0,000000;0,000000;0,000000;0,416667;0,000000;0,000000;0,000000;0,000000;0,000000;0,000000;0,666667;0,000000;0,000000;0,000000;0,000000;0,666667;0,416667;0,416667;0,295841;0,295841;0,266667;0,295841;0,416667;0,416667;0,333333;0,333333;0,333333;0,333333;0,666667;0,333333;0,333333;0,333333;0,333333;0,333333;0,416667;
13;;;;;;;;;;;;;1,000000;0,666667;0,325461;0,291667;0,291667;0,339955;0,333333;0,333333;0,333333;0,363095;0,416667;0,338827;0,369684;0,333333;0,369684;0,383954;0,416667;0,323037;0,416667;0,383954;0,333333;0,333333;0,333333;0,333333;0,000000;0,000000;0,000000;0,416667;0,416667;0,291667;0,333333;0,000000;0,000000;0,000000;0,000000;0,000000;0,000000;0,000000;0,000000;0,000000;0,000000;0,000000;0,000000;0,000000;0,000000;0,000000;0,000000;0,416667;0,000000;0,000000;0,000000;0,000000;0,000000;0,000000;0,666667;0,000000;0,000000;0,000000;0,000000;0,666667;0,416667;0,416667;0,295841;0,295841;0,266667;0,295841;0,416667;0,416667;0,333333;0,333333;0,333333;0,333333;0,666667;0,333333;0,333333;0,333333;0,333333;0,333333;0,416667;
14;;;;;;;;;;;;;;1,000000;0,325461;0,291667;0,291667;0,339955;0,333333;0,333333;0,333333;0,363095;0,416667;0,338827;0,369684;0,333333;0,369684;0,383954;0,416667;0,323037;0,416667;0,383954;0,333333;0,333333;0,333333;0,333333;0,000000;0,000000;0,000000;0,416667;0,416667;0,291667;0,333333;0,000000;0,000000;0,000000;0,000000;0,000000;0,000000;0,000000;0,000000;0,000000;0,000000;0,000000;0,000000;0,000000;0,000000;0,000000;0,000000;0,416667;0,000000;0,000000;0,000000;0,000000;0,000000;0,000000;0,666667;0,000000;0,000000;0,000000;0,000000;0,666667;0,416667;0,416667;0,295841;0,295841;0,266667;0,295841;0,416667;0,416667;0,333333;0,333333;0,333333;0,333333;0,666667;0,333333;0,333333;0,333333;0,333333;0,333333;0,416667;
15;;;;;;;;;;;;;;;1,000000;0,693895;0,693895;0,613312;0,325461;0,325461;0,325461;0,355222;0,408794;0,650839;0,686548;0,613847;0,361811;0,376081;0,408794;0,315164;0,703887;0,673628;0,537220;0,325461;0,325461;0,325461;0,000000;0,000000;0,000000;0,408794;0,408794;0,283794;0,739926;0,000000;0,000000;0,000000;0,000000;0,000000;0,000000;0,000000;0,000000;0,000000;0,000000;0,000000;0,000000;0,000000;0,000000;0,000000;0,000000;0,408794;0,000000;0,000000;0,000000;0,000000;0,000000;0,000000;0,658794;0,000000;0,000000;0,000000;0,000000;0,658794;0,408794;0,408794;0,287968;0,287968;0,258794;0,287968;0,408794;0,408794;0,325461;0,325461;0,325461;0,325461;0,658794;0,325461;0,325461;0,325461;0,325461;0,325461;0,408794;
16;;;;;;;;;;;;;;;;1,000000;0,750000;0,684346;0,291667;0,291667;0,291667;0,321429;0,375000;0,655578;0,656035;0,583333;0,328017;0,342287;0,375000;0,281371;0,375000;0,342287;0,583333;0,291667;0,291667;0,291667;0,000000;0,000000;0,000000;0,375000;0,375000;0,250000;0,291667;0,000000;0,000000;0,000000;0,000000;0,000000;0,000000;0,000000;0,000000;0,000000;0,000000;0,000000;0,000000;0,000000;0,000000;0,000000;0,000000;0,375000;0,000000;0,000000;0,000000;0,000000;0,000000;0,000000;0,625000;0,000000;0,000000;0,000000;0,000000;0,625000;0,375000;0,375000;0,254175;0,254175;0,225000;0,254175;0,375000;0,375000;0,291667;0,291667;0,291667;0,291667;0,625000;0,291667;0,291667;0,291667;0,291667;0,291667;0,375000;
17;;;;;;;;;;;;;;;;;1,000000;0,684346;0,291667;0,291667;0,291667;0,321429;0,375000;0,655578;0,656035;0,583333;0,328017;0,342287;0,375000;0,281371;0,375000;0,342287;0,583333;0,291667;0,291667;0,291667;0,000000;0,000000;0,000000;0,375000;0,375000;0,250000;0,291667;0,000000;0,000000;0,000000;0,000000;0,000000;0,000000;0,000000;0,000000;0,000000;0,000000;0,000000;0,000000;0,000000;0,000000;0,000000;0,000000;0,375000;0,000000;0,000000;0,000000;0,000000;0,000000;0,000000;0,625000;0,000000;0,000000;0,000000;0,000000;0,625000;0,375000;0,375000;0,254175;0,254175;0,225000;0,254175;0,375000;0,375000;0,291667;0,291667;0,291667;0,291667;0,625000;0,291667;0,291667;0,291667;0,291667;0,291667;0,375000;
18;;;;;;;;;;;;;;;;;;1,000000;0,339955;0,339955;0,339955;0,369717;0,423288;0,641376;0,512111;0,589746;0,376306;0,390575;0,423288;0,329659;0,423288;0,507736;0,609542;0,339955;0,339955;0,339955;0,000000;0,000000;0,000000;0,423288;0,423288;0,298288;0,741431;0,000000;0,000000;0,000000;0,000000;0,000000;0,000000;0,000000;0,000000;0,000000;0,000000;0,000000;0,000000;0,000000;0,000000;0,000000;0,000000;0,423288;0,000000;0,000000;0,000000;0,000000;0,000000;0,000000;0,673288;0,000000;0,000000;0,000000;0,000000;0,673288;0,423288;0,423288;0,302463;0,302463;0,273288;0,302463;0,423288;0,423288;0,339955;0,339955;0,339955;0,339955;0,673288;0,339955;0,339955;0,339955;0,339955;0,339955;0,423288;
19;;;;;;;;;;;;;;;;;;;1,000000;0,666667;0,666667;0,363095;0,416667;0,338827;0,369684;0,333333;0,369684;0,383954;0,416667;0,323037;0,416667;0,383954;0,333333;0,333333;0,333333;0,333333;0,000000;0,000000;0,000000;0,416667;0,416667;0,291667;0,333333;0,000000;0,000000;0,000000;0,000000;0,000000;0,000000;0,000000;0,000000;0,000000;0,000000;0,000000;0,000000;0,000000;0,000000;0,000000;0,000000;0,416667;0,000000;0,000000;0,000000;0,000000;0,000000;0,000000;0,666667;0,000000;0,000000;0,000000;0,000000;0,666667;0,416667;0,416667;0,295841;0,295841;0,266667;0,295841;0,416667;0,416667;0,333333;0,333333;0,333333;0,333333;0,666667;0,333333;0,333333;0,333333;0,333333;0,333333;0,416667;
20;;;;;;;;;;;;;;;;;;;;1,000000;0,666667;0,363095;0,416667;0,338827;0,369684;0,333333;0,369684;0,383954;0,416667;0,323037;0,416667;0,383954;0,333333;0,333333;0,333333;0,333333;0,000000;0,000000;0,000000;0,416667;0,416667;0,291667;0,333333;0,000000;0,000000;0,000000;0,000000;0,000000;0,000000;0,000000;0,000000;0,000000;0,000000;0,000000;0,000000;0,000000;0,000000;0,000000;0,000000;0,416667;0,000000;0,000000;0,000000;0,000000;0,000000;0,000000;0,666667;0,000000;0,000000;0,000000;0,000000;0,666667;0,416667;0,416667;0,295841;0,295841;0,266667;0,295841;0,416667;0,416667;0,333333;0,333333;0,333333;0,333333;0,666667;0,333333;0,333333;0,333333;0,333333;0,333333;0,416667;
21;;;;;;;;;;;;;;;;;;;;;1,000000;0,363095;0,416667;0,338827;0,369684;0,333333;0,369684;0,383954;0,416667;0,323037;0,416667;0,383954;0,333333;0,333333;0,333333;0,333333;0,000000;0,000000;0,000000;0,416667;0,416667;0,291667;0,333333;0,000000;0,000000;0,000000;0,000000;0,000000;0,000000;0,000000;0,000000;0,000000;0,000000;0,000000;0,000000;0,000000;0,000000;0,000000;0,000000;0,416667;0,000000;0,000000;0,000000;0,000000;0,000000;0,000000;0,666667;0,000000;0,000000;0,000000;0,000000;0,666667;0,416667;0,416667;0,295841;0,295841;0,266667;0,295841;0,416667;0,416667;0,333333;0,333333;0,333333;0,333333;0,666667;0,333333;0,333333;0,333333;0,333333;0,333333;0,416667;
22;;;;;;;;;;;;;;;;;;;;;;1,000000;0,446429;0,368589;0,399446;0,363095;0,399446;0,413716;0,446429;0,352799;0,446429;0,609152;0,363095;0,363095;0,363095;0,363095;0,000000;0,000000;0,000000;0,446429;0,446429;0,754176;0,363095;0,000000;0,000000;0,000000;0,000000;0,000000;0,000000;0,000000;0,000000;0,000000;0,000000;0,000000;0,000000;0,000000;0,000000;0,000000;0,000000;0,823917;0,000000;0,000000;0,000000;0,000000;0,000000;0,000000;0,696429;0,000000;0,000000;0,000000;0,000000;0,696429;0,446429;0,446429;0,325603;0,325603;0,296429;0,325603;0,446429;0,446429;0,363095;0,363095;0,363095;0,363095;0,696429;0,363095;0,363095;0,363095;0,363095;0,363095;0,446429;
23;;;;;;;;;;;;;;;;;;;;;;;1,000000;0,422160;0,453017;0,416667;0,453017;0,467287;0,500000;0,406371;0,500000;0,467287;0,416667;0,416667;0,416667;0,416667;0,000000;0,000000;0,000000;0,500000;0,500000;0,750000;0,416667;0,000000;0,000000;0,000000;0,000000;0,000000;0,000000;0,000000;0,000000;0,000000;0,000000;0,000000;0,000000;0,000000;0,000000;0,000000;0,000000;0,500000;0,000000;0,000000;0,000000;0,000000;0,000000;0,000000;0,750000;0,000000;0,000000;0,000000;0,000000;0,750000;0,500000;0,500000;0,379175;0,379175;0,350000;0,379175;0,500000;0,500000;0,416667;0,416667;0,416667;0,416667;0,750000;0,416667;0,416667;0,416667;0,416667;0,416667;0,500000;
24;;;;;;;;;;;;;;;;;;;;;;;;1,000000;0,629226;0,556524;0,375177;0,389447;0,422160;0,328531;0,422160;0,389447;0,556582;0,338827;0,338827;0,338827;0,000000;0,000000;0,000000;0,422160;0,422160;0,297160;0,612780;0,000000;0,000000;0,000000;0,000000;0,000000;0,000000;0,000000;0,000000;0,000000;0,000000;0,000000;0,000000;0,000000;0,000000;0,000000;0,000000;0,422160;0,000000;0,000000;0,000000;0,000000;0,000000;0,000000;0,672160;0,000000;0,000000;0,000000;0,000000;0,672160;0,422160;0,422160;0,301335;0,301335;0,272160;0,301335;0,422160;0,422160;0,338827;0,338827;0,338827;0,338827;0,672160;0,338827;0,338827;0,338827;0,338827;0,338827;0,422160;
25;;;;;;;;;;;;;;;;;;;;;;;;;1,000000;0,739368;0,406035;0,420304;0,453017;0,359388;0,453017;0,420304;0,369684;0,369684;0,369684;0,369684;0,000000;0,000000;0,000000;0,453017;0,453017;0,328017;0,369684;0,000000;0,000000;0,000000;0,000000;0,000000;0,000000;0,000000;0,000000;0,000000;0,000000;0,000000;0,000000;0,000000;0,000000;0,000000;0,000000;0,453017;0,000000;0,000000;0,000000;0,000000;0,000000;0,000000;0,703017;0,000000;0,000000;0,000000;0,000000;0,703017;0,453017;0,453017;0,332192;0,332192;0,303017;0,332192;0,453017;0,453017;0,369684;0,369684;0,369684;0,369684;0,703017;0,369684;0,369684;0,369684;0,369684;0,369684;0,453017;
26;;;;;;;;;;;;;;;;;;;;;;;;;;1,000000;0,369684;0,383954;0,416667;0,323037;0,416667;0,383954;0,333333;0,333333;0,333333;0,333333;0,000000;0,000000;0,000000;0,416667;0,416667;0,291667;0,333333;0,000000;0,000000;0,000000;0,000000;0,000000;0,000000;0,000000;0,000000;0,000000;0,000000;0,000000;0,000000;0,000000;0,000000;0,000000;0,000000;0,416667;0,000000;0,000000;0,000000;0,000000;0,000000;0,000000;0,666667;0,000000;0,000000;0,000000;0,000000;0,666667;0,416667;0,416667;0,295841;0,295841;0,266667;0,295841;0,416667;0,416667;0,333333;0,333333;0,333333;0,333333;0,666667;0,333333;0,333333;0,333333;0,333333;0,333333;0,416667;
27;;;;;;;;;;;;;;;;;;;;;;;;;;;1,000000;0,586195;0,453017;0,359388;0,453017;0,420304;0,369684;0,369684;0,369684;0,369684;0,000000;0,000000;0,000000;0,453017;0,453017;0,328017;0,369684;0,000000;0,000000;0,000000;0,000000;0,000000;0,000000;0,000000;0,000000;0,000000;0,000000;0,000000;0,000000;0,000000;0,000000;0,000000;0,000000;0,453017;0,000000;0,000000;0,000000;0,000000;0,000000;0,000000;0,703017;0,000000;0,000000;0,000000;0,000000;0,703017;0,453017;0,453017;0,332192;0,332192;0,303017;0,332192;0,453017;0,453017;0,739368;0,369684;0,369684;0,369684;0,703017;0,369684;0,369684;0,369684;0,369684;0,369684;0,906035;
28;;;;;;;;;;;;;;;;;;;;;;;;;;;;1,000000;0,467287;0,373658;0,467287;0,434574;0,383954;0,383954;0,383954;0,383954;0,000000;0,000000;0,000000;0,467287;0,467287;0,342287;0,383954;0,000000;0,000000;0,000000;0,000000;0,000000;0,000000;0,000000;0,000000;0,000000;0,000000;0,000000;0,000000;0,000000;0,000000;0,000000;0,000000;0,467287;0,000000;0,000000;0,000000;0,000000;0,000000;0,000000;0,717287;0,000000;0,000000;0,000000;0,000000;0,717287;0,467287;0,467287;0,346462;0,346462;0,317287;0,346462;0,467287;0,467287;0,696941;0,383954;0,383954;0,383954;0,717287;0,383954;0,383954;0,383954;0,383954;0,383954;0,467287;
29;;;;;;;;;;;;;;;;;;;;;;;;;;;;;1,000000;0,406371;0,500000;0,467287;0,416667;0,416667;0,416667;0,416667;0,000000;0,000000;0,000000;0,500000;0,500000;0,375000;0,416667;0,000000;0,000000;0,000000;0,000000;0,000000;0,000000;0,000000;0,000000;0,000000;0,000000;0,000000;0,000000;0,000000;0,000000;0,000000;0,000000;0,500000;0,000000;0,000000;0,000000;0,000000;0,000000;0,000000;0,750000;0,000000;0,000000;0,000000;0,000000;0,750000;0,500000;0,500000;0,686672;0,686672;0,700000;0,686672;0,500000;0,500000;0,416667;0,416667;0,416667;0,416667;0,750000;0,416667;0,416667;0,416667;0,416667;0,416667;0,500000;
30;;;;;;;;;;;;;;;;;;;;;;;;;;;;;;1,000000;0,406371;0,373658;0,323037;0,323037;0,323037;0,323037;0,000000;0,000000;0,000000;0,406371;0,406371;0,281371;0,323037;0,000000;0,000000;0,000000;0,000000;0,000000;0,000000;0,000000;0,000000;0,000000;0,000000;0,000000;0,000000;0,000000;0,000000;0,000000;0,000000;0,406371;0,000000;0,000000;0,000000;0,000000;0,000000;0,000000;0,656371;0,000000;0,000000;0,000000;0,000000;0,656371;0,406371;0,406371;0,796622;0,796622;0,754617;0,796622;0,406371;0,406371;0,323037;0,323037;0,323037;0,323037;0,656371;0,323037;0,323037;0,323037;0,323037;0,323037;0,406371;
31;;;;;;;;;;;;;;;;;;;;;;;;;;;;;;;1,000000;0,862823;0,833333;0,416667;0,416667;0,416667;0,000000;0,000000;0,000000;0,500000;0,500000;0,375000;0,416667;0,000000;0,000000;0,000000;0,000000;0,000000;0,000000;0,000000;0,000000;0,000000;0,000000;0,000000;0,000000;0,000000;0,000000;0,000000;0,000000;0,500000;0,000000;0,000000;0,000000;0,000000;0,000000;0,000000;0,750000;0,000000;0,000000;0,000000;0,000000;0,750000;0,500000;0,500000;0,379175;0,379175;0,350000;0,379175;0,500000;0,500000;0,416667;0,416667;0,416667;0,416667;0,750000;0,416667;0,416667;0,416667;0,416667;0,416667;0,500000;
32;;;;;;;;;;;;;;;;;;;;;;;;;;;;;;;;1,000000;0,696156;0,383954;0,383954;0,383954;0,000000;0,000000;0,000000;0,467287;0,467287;0,535235;0,636241;0,000000;0,000000;0,000000;0,000000;0,000000;0,000000;0,000000;0,000000;0,000000;0,000000;0,000000;0,000000;0,000000;0,000000;0,000000;0,000000;0,785235;0,000000;0,000000;0,000000;0,000000;0,000000;0,000000;0,717287;0,000000;0,000000;0,000000;0,000000;0,717287;0,467287;0,467287;0,346462;0,346462;0,317287;0,346462;0,467287;0,467287;0,383954;0,383954;0,383954;0,383954;0,717287;0,383954;0,383954;0,383954;0,383954;0,383954;0,467287;
33;;;;;;;;;;;;;;;;;;;;;;;;;;;;;;;;;1,000000;0,333333;0,333333;0,333333;0,000000;0,000000;0,000000;0,416667;0,416667;0,291667;0,333333;0,000000;0,000000;0,000000;0,000000;0,000000;0,000000;0,000000;0,000000;0,000000;0,000000;0,000000;0,000000;0,000000;0,000000;0,000000;0,000000;0,416667;0,000000;0,000000;0,000000;0,000000;0,000000;0,000000;0,666667;0,000000;0,000000;0,000000;0,000000;0,666667;0,416667;0,416667;0,295841;0,295841;0,266667;0,295841;0,416667;0,416667;0,333333;0,333333;0,333333;0,333333;0,666667;0,333333;0,333333;0,333333;0,333333;0,333333;0,416667;
34;;;;;;;;;;;;;;;;;;;;;;;;;;;;;;;;;;1,000000;0,590019;0,666667;0,000000;0,000000;0,000000;0,416667;0,416667;0,291667;0,333333;0,000000;0,000000;0,000000;0,000000;0,000000;0,000000;0,000000;0,000000;0,000000;0,000000;0,000000;0,000000;0,000000;0,000000;0,000000;0,000000;0,416667;0,000000;0,000000;0,000000;0,000000;0,000000;0,000000;0,666667;0,000000;0,000000;0,000000;0,000000;0,666667;0,416667;0,416667;0,295841;0,295841;0,266667;0,295841;0,416667;0,416667;0,333333;0,333333;0,333333;0,333333;0,666667;0,666667;0,666667;0,333333;0,333333;0,333333;0,416667;
35;;;;;;;;;;;;;;;;;;;;;;;;;;;;;;;;;;;1,000000;0,590019;0,000000;0,000000;0,000000;0,416667;0,416667;0,291667;0,333333;0,000000;0,000000;0,000000;0,000000;0,000000;0,000000;0,000000;0,000000;0,000000;0,000000;0,000000;0,000000;0,000000;0,000000;0,000000;0,000000;0,416667;0,000000;0,000000;0,000000;0,000000;0,000000;0,000000;0,666667;0,000000;0,000000;0,000000;0,000000;0,666667;0,416667;0,416667;0,295841;0,295841;0,266667;0,295841;0,416667;0,416667;0,333333;0,333333;0,333333;0,333333;0,666667;0,590019;0,590019;0,333333;0,333333;0,333333;0,416667;
36;;;;;;;;;;;;;;;;;;;;;;;;;;;;;;;;;;;;1,000000;0,000000;0,000000;0,000000;0,416667;0,416667;0,291667;0,333333;0,000000;0,000000;0,000000;0,000000;0,000000;0,000000;0,000000;0,000000;0,000000;0,000000;0,000000;0,000000;0,000000;0,000000;0,000000;0,000000;0,416667;0,000000;0,000000;0,000000;0,000000;0,000000;0,000000;0,666667;0,000000;0,000000;0,000000;0,000000;0,666667;0,416667;0,416667;0,295841;0,295841;0,266667;0,295841;0,416667;0,416667;0,333333;0,333333;0,333333;0,333333;0,666667;0,666667;0,666667;0,333333;0,333333;0,333333;0,416667;
37;;;;;;;;;;;;;;;;;;;;;;;;;;;;;;;;;;;;;1,000000;0,416091;0,416091;0,000000;0,000000;0,000000;0,000000;0,594589;0,594589;0,731155;0,594589;0,710363;0,710363;0,710363;0,710363;0,710363;0,000000;0,000000;0,000000;0,000000;0,000000;0,000000;0,000000;0,000000;0,218468;0,218468;0,189294;0,189294;0,189294;0,255960;0,000000;0,000000;0,000000;0,000000;0,000000;0,000000;0,000000;0,000000;0,000000;0,000000;0,000000;0,000000;0,000000;0,000000;0,000000;0,000000;0,000000;0,000000;0,000000;0,000000;0,000000;0,000000;0,000000;0,000000;0,000000;
38;;;;;;;;;;;;;;;;;;;;;;;;;;;;;;;;;;;;;;1,000000;0,500000;0,000000;0,000000;0,000000;0,000000;0,375000;0,375000;0,326569;0,375000;0,333333;0,333333;0,333333;0,333333;0,333333;0,000000;0,000000;0,000000;0,000000;0,000000;0,000000;0,000000;0,000000;0,000000;0,000000;0,000000;0,000000;0,000000;0,000000;0,000000;0,000000;0,000000;0,000000;0,000000;0,000000;0,000000;0,000000;0,000000;0,000000;0,000000;0,000000;0,000000;0,000000;0,000000;0,000000;0,000000;0,000000;0,000000;0,000000;0,000000;0,000000;0,000000;0,000000;0,000000;
39;;;;;;;;;;;;;;;;;;;;;;;;;;;;;;;;;;;;;;;1,000000;0,000000;0,000000;0,000000;0,000000;0,375000;0,375000;0,326569;0,375000;0,333333;0,333333;0,333333;0,333333;0,333333;0,000000;0,000000;0,000000;0,000000;0,000000;0,000000;0,000000;0,000000;0,000000;0,000000;0,000000;0,000000;0,000000;0,000000;0,000000;0,000000;0,000000;0,000000;0,000000;0,000000;0,000000;0,000000;0,000000;0,000000;0,000000;0,000000;0,000000;0,000000;0,000000;0,000000;0,000000;0,000000;0,000000;0,000000;0,000000;0,000000;0,000000;0,000000;0,000000;
40;;;;;;;;;;;;;;;;;;;;;;;;;;;;;;;;;;;;;;;;1,000000;0,500000;0,375000;0,416667;0,000000;0,000000;0,000000;0,000000;0,000000;0,000000;0,000000;0,000000;0,000000;0,000000;0,000000;0,000000;0,000000;0,000000;0,000000;0,000000;0,500000;0,000000;0,000000;0,000000;0,000000;0,000000;0,000000;0,750000;0,000000;0,000000;0,000000;0,000000;0,750000;0,500000;0,500000;0,379175;0,379175;0,350000;0,379175;0,500000;0,500000;0,416667;0,416667;0,416667;0,416667;0,750000;0,416667;0,416667;0,416667;0,416667;0,416667;0,500000;
41;;;;;;;;;;;;;;;;;;;;;;;;;;;;;;;;;;;;;;;;;1,000000;0,375000;0,416667;0,000000;0,000000;0,000000;0,000000;0,000000;0,000000;0,000000;0,000000;0,000000;0,000000;0,000000;0,000000;0,000000;0,000000;0,000000;0,000000;0,500000;0,000000;0,000000;0,000000;0,000000;0,000000;0,000000;0,750000;0,000000;0,000000;0,000000;0,000000;0,750000;0,500000;0,500000;0,379175;0,379175;0,350000;0,379175;0,500000;0,500000;0,416667;0,416667;0,416667;0,416667;0,750000;0,416667;0,416667;0,416667;0,416667;0,416667;0,500000;
42;;;;;;;;;;;;;;;;;;;;;;;;;;;;;;;;;;;;;;;;;;1,000000;0,291667;0,000000;0,000000;0,000000;0,000000;0,000000;0,000000;0,000000;0,000000;0,000000;0,000000;0,000000;0,000000;0,000000;0,000000;0,000000;0,000000;0,750000;0,000000;0,000000;0,000000;0,000000;0,000000;0,000000;0,625000;0,000000;0,000000;0,000000;0,000000;0,625000;0,375000;0,375000;0,254175;0,254175;0,225000;0,254175;0,375000;0,375000;0,291667;0,291667;0,291667;0,291667;0,625000;0,291667;0,291667;0,291667;0,291667;0,291667;0,375000;
43;;;;;;;;;;;;;;;;;;;;;;;;;;;;;;;;;;;;;;;;;;;1,000000;0,000000;0,000000;0,000000;0,000000;0,000000;0,000000;0,000000;0,000000;0,000000;0,000000;0,000000;0,000000;0,000000;0,000000;0,000000;0,000000;0,416667;0,000000;0,000000;0,000000;0,000000;0,000000;0,000000;0,666667;0,000000;0,000000;0,000000;0,000000;0,666667;0,416667;0,416667;0,295841;0,295841;0,266667;0,295841;0,416667;0,416667;0,333333;0,333333;0,333333;0,333333;0,666667;0,333333;0,333333;0,333333;0,333333;0,333333;0,416667;
44;;;;;;;;;;;;;;;;;;;;;;;;;;;;;;;;;;;;;;;;;;;;1,000000;0,750000;0,567226;0,750000;0,416667;0,416667;0,416667;0,416667;0,416667;0,000000;0,000000;0,000000;0,000000;0,000000;0,000000;0,000000;0,000000;0,254175;0,254175;0,225000;0,225000;0,225000;0,291667;0,000000;0,000000;0,000000;0,000000;0,000000;0,000000;0,000000;0,000000;0,000000;0,000000;0,000000;0,000000;0,000000;0,000000;0,000000;0,000000;0,000000;0,000000;0,000000;0,000000;0,000000;0,000000;0,000000;0,000000;0,000000;
45;;;;;;;;;;;;;;;;;;;;;;;;;;;;;;;;;;;;;;;;;;;;;1,000000;0,567226;0,750000;0,416667;0,416667;0,416667;0,416667;0,416667;0,000000;0,000000;0,000000;0,000000;0,000000;0,000000;0,000000;0,000000;0,254175;0,254175;0,225000;0,225000;0,225000;0,291667;0,000000;0,000000;0,000000;0,000000;0,000000;0,000000;0,000000;0,000000;0,000000;0,000000;0,000000;0,000000;0,000000;0,000000;0,000000;0,000000;0,000000;0,000000;0,000000;0,000000;0,000000;0,000000;0,000000;0,000000;0,000000;
46;;;;;;;;;;;;;;;;;;;;;;;;;;;;;;;;;;;;;;;;;;;;;;1,000000;0,567226;0,676376;0,676376;0,676376;0,676376;0,676376;0,000000;0,000000;0,000000;0,000000;0,000000;0,000000;0,000000;0,000000;0,674254;0,674254;0,688532;0,688532;0,688532;0,525828;0,000000;0,000000;0,000000;0,000000;0,000000;0,000000;0,000000;0,000000;0,000000;0,000000;0,000000;0,000000;0,000000;0,000000;0,000000;0,000000;0,000000;0,000000;0,000000;0,000000;0,000000;0,000000;0,000000;0,000000;0,000000;
47;;;;;;;;;;;;;;;;;;;;;;;;;;;;;;;;;;;;;;;;;;;;;;;1,000000;0,416667;0,416667;0,416667;0,416667;0,416667;0,000000;0,000000;0,000000;0,000000;0,000000;0,000000;0,000000;0,000000;0,254175;0,254175;0,225000;0,225000;0,225000;0,291667;0,000000;0,000000;0,000000;0,000000;0,000000;0,000000;0,000000;0,000000;0,000000;0,000000;0,000000;0,000000;0,000000;0,000000;0,000000;0,000000;0,000000;0,000000;0,000000;0,000000;0,000000;0,000000;0,000000;0,000000;0,000000;
48;;;;;;;;;;;;;;;;;;;;;;;;;;;;;;;;;;;;;;;;;;;;;;;;1,000000;0,833333;0,833333;0,833333;0,833333;0,000000;0,000000;0,000000;0,000000;0,000000;0,000000;0,000000;0,000000;0,212508;0,212508;0,183333;0,183333;0,183333;0,250000;0,000000;0,000000;0,000000;0,000000;0,000000;0,000000;0,000000;0,000000;0,000000;0,000000;0,000000;0,000000;0,000000;0,000000;0,000000;0,000000;0,000000;0,000000;0,000000;0,000000;0,000000;0,000000;0,000000;0,000000;0,000000;
49;;;;;;;;;;;;;;;;;;;;;;;;;;;;;;;;;;;;;;;;;;;;;;;;;1,000000;0,833333;0,833333;0,833333;0,000000;0,000000;0,000000;0,000000;0,000000;0,000000;0,000000;0,000000;0,212508;0,212508;0,183333;0,183333;0,183333;0,250000;0,000000;0,000000;0,000000;0,000000;0,000000;0,000000;0,000000;0,000000;0,000000;0,000000;0,000000;0,000000;0,000000;0,000000;0,000000;0,000000;0,000000;0,000000;0,000000;0,000000;0,000000;0,000000;0,000000;0,000000;0,000000;
50;;;;;;;;;;;;;;;;;;;;;;;;;;;;;;;;;;;;;;;;;;;;;;;;;;1,000000;0,833333;0,833333;0,000000;0,000000;0,000000;0,000000;0,000000;0,000000;0,000000;0,000000;0,212508;0,212508;0,183333;0,183333;0,183333;0,250000;0,000000;0,000000;0,000000;0,000000;0,000000;0,000000;0,000000;0,000000;0,000000;0,000000;0,000000;0,000000;0,000000;0,000000;0,000000;0,000000;0,000000;0,000000;0,000000;0,000000;0,000000;0,000000;0,000000;0,000000;0,000000;
51;;;;;;;;;;;;;;;;;;;;;;;;;;;;;;;;;;;;;;;;;;;;;;;;;;;1,000000;0,833333;0,000000;0,000000;0,000000;0,000000;0,000000;0,000000;0,000000;0,000000;0,212508;0,212508;0,183333;0,183333;0,183333;0,250000;0,000000;0,000000;0,000000;0,000000;0,000000;0,000000;0,000000;0,000000;0,000000;0,000000;0,000000;0,000000;0,000000;0,000000;0,000000;0,000000;0,000000;0,000000;0,000000;0,000000;0,000000;0,000000;0,000000;0,000000;0,000000;
52;;;;;;;;;;;;;;;;;;;;;;;;;;;;;;;;;;;;;;;;;;;;;;;;;;;;1,000000;0,000000;0,000000;0,000000;0,000000;0,000000;0,000000;0,000000;0,000000;0,212508;0,212508;0,183333;0,183333;0,183333;0,250000;0,000000;0,000000;0,000000;0,000000;0,000000;0,000000;0,000000;0,000000;0,000000;0,000000;0,000000;0,000000;0,000000;0,000000;0,000000;0,000000;0,000000;0,000000;0,000000;0,000000;0,000000;0,000000;0,000000;0,000000;0,000000;
53;;;;;;;;;;;;;;;;;;;;;;;;;;;;;;;;;;;;;;;;;;;;;;;;;;;;;1,000000;0,833333;0,833333;0,833333;0,833333;0,833333;0,833333;0,000000;0,000000;0,000000;0,000000;0,000000;0,000000;0,000000;0,000000;0,000000;0,000000;0,000000;0,000000;0,000000;0,000000;0,000000;0,000000;0,000000;0,000000;0,000000;0,000000;0,000000;0,000000;0,000000;0,000000;0,000000;0,000000;0,000000;0,000000;0,000000;0,000000;0,000000;0,000000;
54;;;;;;;;;;;;;;;;;;;;;;;;;;;;;;;;;;;;;;;;;;;;;;;;;;;;;;1,000000;0,833333;0,833333;0,833333;0,833333;0,833333;0,000000;0,000000;0,000000;0,000000;0,000000;0,000000;0,000000;0,000000;0,000000;0,000000;0,000000;0,000000;0,000000;0,000000;0,000000;0,000000;0,000000;0,000000;0,000000;0,000000;0,000000;0,000000;0,000000;0,000000;0,000000;0,000000;0,000000;0,000000;0,000000;0,000000;0,000000;0,000000;
55;;;;;;;;;;;;;;;;;;;;;;;;;;;;;;;;;;;;;;;;;;;;;;;;;;;;;;;1,000000;0,833333;0,833333;0,833333;0,833333;0,000000;0,000000;0,000000;0,000000;0,000000;0,000000;0,000000;0,000000;0,000000;0,000000;0,000000;0,000000;0,000000;0,000000;0,000000;0,000000;0,000000;0,000000;0,000000;0,000000;0,000000;0,000000;0,000000;0,000000;0,000000;0,000000;0,000000;0,000000;0,000000;0,000000;0,000000;0,000000;
56;;;;;;;;;;;;;;;;;;;;;;;;;;;;;;;;;;;;;;;;;;;;;;;;;;;;;;;;1,000000;0,833333;0,833333;0,833333;0,000000;0,000000;0,000000;0,000000;0,000000;0,000000;0,000000;0,000000;0,000000;0,000000;0,000000;0,000000;0,000000;0,000000;0,000000;0,000000;0,000000;0,000000;0,000000;0,000000;0,000000;0,000000;0,000000;0,000000;0,000000;0,000000;0,000000;0,000000;0,000000;0,000000;0,000000;0,000000;
57;;;;;;;;;;;;;;;;;;;;;;;;;;;;;;;;;;;;;;;;;;;;;;;;;;;;;;;;;1,000000;0,833333;0,833333;0,000000;0,000000;0,000000;0,000000;0,000000;0,000000;0,000000;0,000000;0,000000;0,000000;0,000000;0,000000;0,000000;0,000000;0,000000;0,000000;0,000000;0,000000;0,000000;0,000000;0,000000;0,000000;0,000000;0,000000;0,000000;0,000000;0,000000;0,000000;0,000000;0,000000;0,000000;0,000000;
58;;;;;;;;;;;;;;;;;;;;;;;;;;;;;;;;;;;;;;;;;;;;;;;;;;;;;;;;;;1,000000;0,833333;0,000000;0,000000;0,000000;0,000000;0,000000;0,000000;0,000000;0,000000;0,000000;0,000000;0,000000;0,000000;0,000000;0,000000;0,000000;0,000000;0,000000;0,000000;0,000000;0,000000;0,000000;0,000000;0,000000;0,000000;0,000000;0,000000;0,000000;0,000000;0,000000;0,000000;0,000000;0,000000;
59;;;;;;;;;;;;;;;;;;;;;;;;;;;;;;;;;;;;;;;;;;;;;;;;;;;;;;;;;;;1,000000;0,000000;0,000000;0,000000;0,000000;0,000000;0,000000;0,000000;0,000000;0,000000;0,000000;0,000000;0,000000;0,000000;0,000000;0,000000;0,000000;0,000000;0,000000;0,000000;0,000000;0,000000;0,000000;0,000000;0,000000;0,000000;0,000000;0,000000;0,000000;0,000000;0,000000;0,000000;0,000000;
60;;;;;;;;;;;;;;;;;;;;;;;;;;;;;;;;;;;;;;;;;;;;;;;;;;;;;;;;;;;;1,000000;0,000000;0,000000;0,000000;0,000000;0,000000;0,000000;0,750000;0,000000;0,000000;0,000000;0,000000;0,750000;0,500000;0,500000;0,379175;0,379175;0,350000;0,379175;0,500000;0,500000;0,416667;0,416667;0,416667;0,416667;0,750000;0,416667;0,416667;0,416667;0,416667;0,416667;0,500000;
61;;;;;;;;;;;;;;;;;;;;;;;;;;;;;;;;;;;;;;;;;;;;;;;;;;;;;;;;;;;;;1,000000;0,749704;0,774946;0,774946;0,774946;0,591682;0,000000;0,000000;0,000000;0,000000;0,000000;0,000000;0,000000;0,000000;0,000000;0,000000;0,000000;0,000000;0,000000;0,000000;0,000000;0,000000;0,000000;0,000000;0,000000;0,000000;0,000000;0,000000;0,000000;0,000000;0,000000;
62;;;;;;;;;;;;;;;;;;;;;;;;;;;;;;;;;;;;;;;;;;;;;;;;;;;;;;;;;;;;;;1,000000;0,774946;0,774946;0,774946;0,591682;0,000000;0,000000;0,000000;0,000000;0,000000;0,000000;0,000000;0,000000;0,000000;0,000000;0,000000;0,000000;0,000000;0,000000;0,000000;0,000000;0,000000;0,000000;0,000000;0,000000;0,000000;0,000000;0,000000;0,000000;0,000000;
63;;;;;;;;;;;;;;;;;;;;;;;;;;;;;;;;;;;;;;;;;;;;;;;;;;;;;;;;;;;;;;;1,000000;0,800000;0,800000;0,800000;0,000000;0,000000;0,000000;0,000000;0,000000;0,000000;0,000000;0,000000;0,000000;0,000000;0,000000;0,000000;0,000000;0,000000;0,000000;0,000000;0,000000;0,000000;0,000000;0,000000;0,000000;0,000000;0,000000;0,000000;0,000000;
64;;;;;;;;;;;;;;;;;;;;;;;;;;;;;;;;;;;;;;;;;;;;;;;;;;;;;;;;;;;;;;;;1,000000;0,800000;0,800000;0,000000;0,000000;0,000000;0,000000;0,000000;0,000000;0,000000;0,000000;0,000000;0,000000;0,000000;0,000000;0,000000;0,000000;0,000000;0,000000;0,000000;0,000000;0,000000;0,000000;0,000000;0,000000;0,000000;0,000000;0,000000;
65;;;;;;;;;;;;;;;;;;;;;;;;;;;;;;;;;;;;;;;;;;;;;;;;;;;;;;;;;;;;;;;;;1,000000;0,800000;0,000000;0,000000;0,000000;0,000000;0,000000;0,000000;0,000000;0,000000;0,000000;0,000000;0,000000;0,000000;0,000000;0,000000;0,000000;0,000000;0,000000;0,000000;0,000000;0,000000;0,000000;0,000000;0,000000;0,000000;0,000000;
66;;;;;;;;;;;;;;;;;;;;;;;;;;;;;;;;;;;;;;;;;;;;;;;;;;;;;;;;;;;;;;;;;;1,000000;0,000000;0,000000;0,000000;0,000000;0,000000;0,000000;0,000000;0,000000;0,000000;0,000000;0,000000;0,000000;0,000000;0,000000;0,000000;0,000000;0,000000;0,000000;0,000000;0,000000;0,000000;0,000000;0,000000;0,000000;0,000000;
67;;;;;;;;;;;;;;;;;;;;;;;;;;;;;;;;;;;;;;;;;;;;;;;;;;;;;;;;;;;;;;;;;;;1,000000;0,000000;0,000000;0,000000;0,000000;1,000000;0,750000;0,750000;0,629175;0,629175;0,600000;0,629175;0,750000;0,750000;0,666667;0,666667;0,666667;0,666667;1,000000;0,666667;0,666667;0,666667;0,666667;0,666667;0,750000;
68;;;;;;;;;;;;;;;;;;;;;;;;;;;;;;;;;;;;;;;;;;;;;;;;;;;;;;;;;;;;;;;;;;;;1,000000;0,666667;0,666667;0,666667;0,000000;0,000000;0,000000;0,000000;0,000000;0,000000;0,000000;0,000000;0,000000;0,000000;0,000000;0,000000;0,000000;0,000000;0,000000;0,000000;0,000000;0,000000;0,000000;0,000000;
69;;;;;;;;;;;;;;;;;;;;;;;;;;;;;;;;;;;;;;;;;;;;;;;;;;;;;;;;;;;;;;;;;;;;;1,000000;0,666667;0,666667;0,000000;0,000000;0,000000;0,000000;0,000000;0,000000;0,000000;0,000000;0,000000;0,000000;0,000000;0,000000;0,000000;0,000000;0,000000;0,000000;0,000000;0,000000;0,000000;0,000000;
70;;;;;;;;;;;;;;;;;;;;;;;;;;;;;;;;;;;;;;;;;;;;;;;;;;;;;;;;;;;;;;;;;;;;;;1,000000;0,666667;0,000000;0,000000;0,000000;0,000000;0,000000;0,000000;0,000000;0,000000;0,000000;0,000000;0,000000;0,000000;0,000000;0,000000;0,000000;0,000000;0,000000;0,000000;0,000000;0,000000;
71;;;;;;;;;;;;;;;;;;;;;;;;;;;;;;;;;;;;;;;;;;;;;;;;;;;;;;;;;;;;;;;;;;;;;;;1,000000;0,000000;0,000000;0,000000;0,000000;0,000000;0,000000;0,000000;0,000000;0,000000;0,000000;0,000000;0,000000;0,000000;0,000000;0,000000;0,000000;0,000000;0,000000;0,000000;0,000000;
72;;;;;;;;;;;;;;;;;;;;;;;;;;;;;;;;;;;;;;;;;;;;;;;;;;;;;;;;;;;;;;;;;;;;;;;;1,000000;0,750000;0,750000;0,629175;0,629175;0,600000;0,629175;0,750000;0,750000;0,666667;0,666667;0,666667;0,666667;1,000000;0,666667;0,666667;0,666667;0,666667;0,666667;0,750000;
73;;;;;;;;;;;;;;;;;;;;;;;;;;;;;;;;;;;;;;;;;;;;;;;;;;;;;;;;;;;;;;;;;;;;;;;;;1,000000;0,500000;0,379175;0,379175;0,350000;0,379175;0,500000;0,500000;0,416667;0,416667;0,416667;0,416667;0,750000;0,416667;0,416667;0,416667;0,416667;0,416667;0,500000;
74;;;;;;;;;;;;;;;;;;;;;;;;;;;;;;;;;;;;;;;;;;;;;;;;;;;;;;;;;;;;;;;;;;;;;;;;;;1,000000;0,379175;0,379175;0,350000;0,379175;0,500000;0,500000;0,416667;0,416667;0,416667;0,416667;0,750000;0,416667;0,416667;0,416667;0,416667;0,416667;0,500000;
75;;;;;;;;;;;;;;;;;;;;;;;;;;;;;;;;;;;;;;;;;;;;;;;;;;;;;;;;;;;;;;;;;;;;;;;;;;;1,000000;0,747425;0,841962;0,747425;0,379175;0,379175;0,295841;0,295841;0,295841;0,295841;0,629175;0,295841;0,295841;0,295841;0,295841;0,295841;0,379175;
76;;;;;;;;;;;;;;;;;;;;;;;;;;;;;;;;;;;;;;;;;;;;;;;;;;;;;;;;;;;;;;;;;;;;;;;;;;;;1,000000;0,841962;0,747425;0,379175;0,379175;0,295841;0,295841;0,295841;0,295841;0,629175;0,295841;0,295841;0,295841;0,295841;0,295841;0,379175;
77;;;;;;;;;;;;;;;;;;;;;;;;;;;;;;;;;;;;;;;;;;;;;;;;;;;;;;;;;;;;;;;;;;;;;;;;;;;;;1,000000;0,841962;0,350000;0,350000;0,266667;0,266667;0,266667;0,266667;0,600000;0,266667;0,266667;0,266667;0,266667;0,266667;0,350000;
78;;;;;;;;;;;;;;;;;;;;;;;;;;;;;;;;;;;;;;;;;;;;;;;;;;;;;;;;;;;;;;;;;;;;;;;;;;;;;;1,000000;0,379175;0,379175;0,295841;0,295841;0,295841;0,295841;0,629175;0,295841;0,295841;0,295841;0,295841;0,295841;0,379175;
79;;;;;;;;;;;;;;;;;;;;;;;;;;;;;;;;;;;;;;;;;;;;;;;;;;;;;;;;;;;;;;;;;;;;;;;;;;;;;;;1,000000;0,500000;0,416667;0,416667;0,416667;0,416667;0,750000;0,416667;0,416667;0,416667;0,416667;0,416667;0,500000;
80;;;;;;;;;;;;;;;;;;;;;;;;;;;;;;;;;;;;;;;;;;;;;;;;;;;;;;;;;;;;;;;;;;;;;;;;;;;;;;;;1,000000;0,416667;0,416667;0,416667;0,416667;0,750000;0,416667;0,416667;0,416667;0,416667;0,416667;0,500000;
81;;;;;;;;;;;;;;;;;;;;;;;;;;;;;;;;;;;;;;;;;;;;;;;;;;;;;;;;;;;;;;;;;;;;;;;;;;;;;;;;;1,000000;0,333333;0,333333;0,333333;0,666667;0,333333;0,333333;0,333333;0,333333;0,333333;0,833333;
82;;;;;;;;;;;;;;;;;;;;;;;;;;;;;;;;;;;;;;;;;;;;;;;;;;;;;;;;;;;;;;;;;;;;;;;;;;;;;;;;;;1,000000;0,666667;0,666667;0,666667;0,333333;0,333333;0,333333;0,333333;0,333333;0,416667;
83;;;;;;;;;;;;;;;;;;;;;;;;;;;;;;;;;;;;;;;;;;;;;;;;;;;;;;;;;;;;;;;;;;;;;;;;;;;;;;;;;;;1,000000;0,666667;0,666667;0,333333;0,333333;0,333333;0,333333;0,333333;0,416667;
84;;;;;;;;;;;;;;;;;;;;;;;;;;;;;;;;;;;;;;;;;;;;;;;;;;;;;;;;;;;;;;;;;;;;;;;;;;;;;;;;;;;;1,000000;0,666667;0,333333;0,333333;0,333333;0,333333;0,333333;0,416667;
85;;;;;;;;;;;;;;;;;;;;;;;;;;;;;;;;;;;;;;;;;;;;;;;;;;;;;;;;;;;;;;;;;;;;;;;;;;;;;;;;;;;;;1,000000;0,666667;0,666667;0,666667;0,666667;0,666667;0,750000;
86;;;;;;;;;;;;;;;;;;;;;;;;;;;;;;;;;;;;;;;;;;;;;;;;;;;;;;;;;;;;;;;;;;;;;;;;;;;;;;;;;;;;;;1,000000;0,666667;0,333333;0,333333;0,333333;0,416667;
87;;;;;;;;;;;;;;;;;;;;;;;;;;;;;;;;;;;;;;;;;;;;;;;;;;;;;;;;;;;;;;;;;;;;;;;;;;;;;;;;;;;;;;;1,000000;0,333333;0,333333;0,333333;0,416667;
88;;;;;;;;;;;;;;;;;;;;;;;;;;;;;;;;;;;;;;;;;;;;;;;;;;;;;;;;;;;;;;;;;;;;;;;;;;;;;;;;;;;;;;;;1,000000;0,666667;0,666667;0,416667;
89;;;;;;;;;;;;;;;;;;;;;;;;;;;;;;;;;;;;;;;;;;;;;;;;;;;;;;;;;;;;;;;;;;;;;;;;;;;;;;;;;;;;;;;;;1,000000;0,666667;0,416667;
90;;;;;;;;;;;;;;;;;;;;;;;;;;;;;;;;;;;;;;;;;;;;;;;;;;;;;;;;;;;;;;;;;;;;;;;;;;;;;;;;;;;;;;;;;;1,000000;0,416667;
91;;;;;;;;;;;;;;;;;;;;;;;;;;;;;;;;;;;;;;;;;;;;;;;;;;;;;;;;;;;;;;;;;;;;;;;;;;;;;;;;;;;;;;;;;;;1,000000;
