;1; 2; 3; 4; 5; 6; 7; 8; 9; 10; 11; 12; 13; 14; 15; 16; 17; 18; 19; 20; 21; 22; 23; 24; 25; 26; 27; 28; 29; 30; 31; 32; 33; 34; 35; 36; 37; 38; 39; 40; 41; 42; 43; 44; 45; 46; 47; 48; 49; 50; 51; 52; 53; 54; 55; 56; 57; 58; 59; 60; 61; 62; 63; 64; 65; 66; 67; 68; 69; 70; 71; 72; 73; 74; 75; 76; 77; 78; 79; 80; 81; 82; 83; 84; 85; 86; 87; 88; 89; 90; 91; 92; 93; 94; 95; 96; 97; 98; 99; 100; 101; 102
1;1,000000;0,665056;0,663701;0,635803;0,000000;0,499564;0,500000;0,500000;0,665056;0,612171;0,499811;0,750000;0,750000;0,750000;0,750000;0,691785;0,665986;0,665421;0,665421;0,660741;0,665081;0,665777;0,711437;0,501103;0,509766;0,499624;0,499260;0,000000;0,499059;0,000000;0,665591;0,623549;0,615738;0,597497;0,665506;0,665506;0,666800;0,602202;0,500000;0,500497;0,663853;0,500000;0,500000;0,500251;0,748864;0,748864;0,599301;0,000000;0,000000;0,000000;0,000000;0,665748;0,688587;0,710426;0,710426;0,748090;0,748090;0,748090;0,501312;0,688490;0,497656;0,634609;0,338583;0,338583;0,000000;0,338583;0,666667;0,498819;0,500251;0,666667;0,666667;0,666667;0,500000;0,500000;0,748709;0,749313;0,748709;0,539283;0,499624;0,550363;0,498978;0,664716;0,750000;0,749313;0,000000;0,715037;0,715037;0,750701;0,500000;0,000000;0,666198;0,000000;0,748090;0,748090;0,748090;0,499811;0,500000;0,500251;0,750000;0,750000;0,750000;0,750000;
2;;1,000000;0,666667;0,653330;0,666667;0,705330;0,380952;0,388889;1,000000;0,342841;0,444444;0,277778;0,291667;0,291667;0,291667;0,550981;0,614072;0,614072;0,614072;0,452701;0,333333;0,614072;0,559633;0,363636;0,353183;0,500000;0,412698;0,666667;0,421488;0,777778;0,333333;0,351930;0,351930;0,357567;0,333333;0,333333;0,333333;0,404954;0,500000;0,416667;0,604442;0,444444;0,416667;0,444444;0,502961;0,502961;0,369684;0,000000;0,000000;0,000000;0,000000;0,333333;0,358644;0,310952;0,310952;0,277778;0,277778;0,277778;0,444444;0,382538;0,500000;0,338889;0,000000;0,000000;0,666667;0,000000;0,666667;0,444444;0,444444;0,333333;0,333333;0,333333;0,444444;0,444444;0,291667;0,277778;0,291667;0,366442;0,416667;0,373830;0,500000;0,426314;0,277778;0,277778;0,777778;0,310952;0,310952;0,277778;0,416667;0,777778;0,333333;0,777778;0,277778;0,277778;0,277778;0,444444;0,444444;0,444444;0,277778;0,277778;0,277778;0,277778;
3;;;1,000000;0,642431;0,777778;0,789521;0,407407;0,416667;0,666667;0,351161;0,466667;0,266667;0,277778;0,277778;0,277778;0,572029;0,635110;0,635110;0,635110;0,512386;0,333333;0,635110;0,581383;0,384615;0,369425;0,555556;0,452381;0,777778;0,482517;0,866667;0,333333;0,359899;0,359899;0,369684;0,333333;0,333333;0,333333;0,435649;0,555556;0,444444;0,636294;0,466667;0,444444;0,466667;0,501777;0,501777;0,381801;0,000000;0,000000;0,000000;0,000000;0,333333;0,369491;0,303491;0,303491;0,266667;0,266667;0,266667;0,466667;0,412061;0,555556;0,341667;0,000000;0,000000;0,777778;0,000000;0,666667;0,466667;0,466667;0,333333;0,333333;0,333333;0,466667;0,466667;0,277778;0,266667;0,277778;0,386307;0,444444;0,391185;0,555556;0,457308;0,266667;0,266667;0,866667;0,303491;0,303491;0,266667;0,444444;0,866667;0,333333;0,866667;0,266667;0,266667;0,266667;0,466667;0,466667;0,466667;0,266667;0,266667;0,266667;0,266667;
4;;;;1,000000;0,948127;0,497324;0,495928;0,496595;0,653330;0,479189;0,499014;0,262172;0,273127;0,273127;0,273127;0,682984;0,662095;0,658295;0,658295;0,653226;0,348127;0,659394;0,737303;0,493757;0,506553;0,648127;0,555036;0,948127;0,705878;0,972698;0,341119;0,394316;0,394316;0,419714;0,341119;0,341119;0,341119;0,507941;0,648127;0,498127;0,658863;0,499014;0,498127;0,499014;0,742339;0,742339;0,413558;0,000000;0,000000;0,000000;0,000000;0,341119;0,408703;0,307840;0,307840;0,262172;0,262172;0,262172;0,499014;0,517933;0,648127;0,373867;0,000000;0,000000;0,948127;0,000000;0,959408;0,499014;0,499014;0,341119;0,341119;0,341119;0,499014;0,499014;0,273127;0,262172;0,273127;0,469642;0,498127;0,441245;0,648127;0,515493;0,262172;0,262172;0,972698;0,307840;0,307840;0,262172;0,498127;0,972698;0,341119;0,972698;0,262172;0,262172;0,262172;0,499014;0,499014;0,499014;0,262172;0,262172;0,262172;0,262172;
5;;;;;1,000000;0,800000;0,857143;0,833333;0,666667;0,965063;0,666667;0,500000;0,625000;0,625000;0,625000;0,772529;0,555556;0,555556;0,555556;0,897146;0,666667;0,555556;0,758644;0,909091;0,953183;0,833333;0,857143;1,000000;0,966942;1,000000;0,555556;0,751930;0,751930;0,802012;0,555556;0,555556;0,555556;0,804954;0,833333;0,750000;0,675000;0,666667;0,750000;0,666667;0,500000;0,500000;0,703017;0,000000;0,000000;0,000000;0,000000;0,555556;0,758644;0,644285;0,644285;0,500000;0,500000;0,500000;0,666667;0,882538;0,833333;0,783333;0,000000;0,000000;1,000000;0,000000;0,666667;0,666667;0,666667;0,555556;0,555556;0,555556;0,666667;0,666667;0,625000;0,500000;0,625000;0,866442;0,750000;0,773830;0,833333;0,759648;0,500000;0,500000;1,000000;0,644285;0,644285;0,500000;0,750000;1,000000;0,555556;1,000000;0,500000;0,500000;0,500000;0,666667;0,666667;0,666667;0,500000;0,500000;0,500000;0,500000;
6;;;;;;1,000000;0,500000;0,500000;0,705330;0,497673;0,500000;0,312500;0,350000;0,350000;0,350000;0,843647;0,750000;0,750000;0,750000;0,582045;0,400000;0,750000;0,817879;0,500000;0,504548;0,600000;0,530612;0,800000;0,579545;0,875000;0,375000;0,439912;0,439912;0,459729;0,375000;0,375000;0,375000;0,506193;0,600000;0,500000;0,820000;0,500000;0,500000;0,500000;0,625000;0,625000;0,443621;0,000000;0,000000;0,000000;0,000000;0,375000;0,448304;0,373142;0,373142;0,312500;0,312500;0,312500;0,500000;0,510051;0,600000;0,435714;0,000000;0,000000;0,800000;0,000000;0,400000;0,500000;0,500000;0,375000;0,375000;0,375000;0,500000;0,500000;0,350000;0,312500;0,350000;0,488589;0,500000;0,467287;0,600000;0,511577;0,312500;0,312500;0,875000;0,373142;0,373142;0,312500;0,500000;0,875000;0,375000;0,875000;0,312500;0,312500;0,312500;0,500000;0,500000;0,500000;0,312500;0,312500;0,312500;0,312500;
7;;;;;;;1,000000;0,500000;0,380952;0,496356;0,500000;0,291667;0,321429;0,321429;0,321429;0,398660;0,361111;0,361111;0,361111;0,606354;0,380952;0,361111;0,435381;0,500000;0,506921;0,619048;0,539683;0,857143;0,613636;0,916667;0,361111;0,424890;0,424890;0,447797;0,361111;0,361111;0,361111;0,507741;0,619048;0,500000;0,392857;0,500000;0,500000;0,500000;0,291667;0,291667;0,432882;0,000000;0,000000;0,000000;0,000000;0,361111;0,435381;0,348979;0,348979;0,291667;0,291667;0,291667;0,500000;0,513706;0,619048;0,416667;0,000000;0,000000;0,857143;0,000000;0,380952;0,500000;0,500000;0,361111;0,361111;0,361111;0,500000;0,500000;0,321429;0,291667;0,321429;0,484439;0,500000;0,459109;0,619048;0,513782;0,291667;0,291667;0,916667;0,348979;0,348979;0,291667;0,500000;0,916667;0,361111;0,916667;0,291667;0,291667;0,291667;0,500000;0,500000;0,500000;0,291667;0,291667;0,291667;0,291667;
8;;;;;;;;1,000000;0,388889;0,496994;0,500000;0,300000;0,333333;0,333333;0,333333;0,408794;0,366667;0,366667;0,366667;0,595719;0,388889;0,366667;0,440919;0,500000;0,505788;0,611111;0,535714;0,833333;0,597902;0,900000;0,366667;0,431328;0,431328;0,453017;0,366667;0,366667;0,366667;0,507077;0,611111;0,500000;0,400000;0,500000;0,500000;0,500000;0,300000;0,300000;0,437357;0,000000;0,000000;0,000000;0,000000;0,366667;0,440919;0,359047;0,359047;0,300000;0,300000;0,300000;0,500000;0,512061;0,611111;0,425000;0,000000;0,000000;0,833333;0,000000;0,388889;0,500000;0,500000;0,366667;0,366667;0,366667;0,500000;0,500000;0,333333;0,300000;0,333333;0,486307;0,500000;0,462614;0,611111;0,512864;0,300000;0,300000;0,900000;0,359047;0,359047;0,300000;0,500000;0,900000;0,366667;0,900000;0,300000;0,300000;0,300000;0,500000;1,000000;0,500000;0,300000;0,300000;0,300000;0,300000;
9;;;;;;;;;1,000000;0,342841;0,444444;0,277778;0,291667;0,291667;0,291667;0,550981;0,614072;0,614072;0,614072;0,452701;0,333333;0,614072;0,559633;0,363636;0,353183;0,500000;0,412698;0,666667;0,421488;0,777778;0,333333;0,351930;0,351930;0,357567;0,333333;0,333333;0,333333;0,404954;0,500000;0,416667;0,604442;0,444444;0,416667;0,444444;0,502961;0,502961;0,369684;0,000000;0,000000;0,000000;0,000000;0,333333;0,358644;0,310952;0,310952;0,277778;0,277778;0,277778;0,444444;0,382538;0,500000;0,338889;0,000000;0,000000;0,666667;0,000000;0,666667;0,444444;0,444444;0,333333;0,333333;0,333333;0,444444;0,444444;0,291667;0,277778;0,291667;0,366442;0,416667;0,373830;0,500000;0,426314;0,277778;0,277778;0,777778;0,310952;0,310952;0,277778;0,416667;0,777778;0,333333;0,777778;0,277778;0,277778;0,277778;0,444444;0,444444;0,444444;0,277778;0,277778;0,277778;0,277778;
10;;;;;;;;;;1,000000;0,499171;0,257791;0,265063;0,265063;0,265063;0,337383;0,338251;0,338251;0,338251;0,792070;0,509408;0,338251;0,404287;0,494150;0,509967;0,653952;0,559494;0,965063;0,734936;0,981929;0,661923;0,615234;0,511771;0,587992;0,660665;0,660665;0,660664;0,808457;0,653952;0,498397;0,358397;0,499171;0,498397;0,499171;0,257791;0,257791;0,594533;0,000000;0,000000;0,000000;0,000000;0,662607;0,627556;0,700406;0,700406;0,741592;0,741592;0,741592;0,499171;0,520588;0,653952;0,365744;0,000000;0,000000;0,965063;0,000000;0,342841;0,499171;0,499171;0,338251;0,338251;0,338251;0,499171;0,499171;0,265063;0,257791;0,265063;0,467564;0,498397;0,438578;0,653952;0,733798;0,257791;0,257791;0,981929;0,301062;0,301062;0,257791;0,498397;0,981929;0,660559;0,981929;0,741592;0,741592;0,741592;0,499171;0,499171;0,499171;0,257791;0,257791;0,257791;0,257791;
11;;;;;;;;;;;1,000000;0,375000;0,416667;0,416667;0,416667;0,463518;0,416667;0,416667;0,416667;0,967593;0,835923;0,416667;0,474152;0,500000;0,501676;1,000000;1,000000;0,666667;0,531818;0,750000;0,833333;0,939912;0,876419;0,962414;0,416667;0,416667;0,416667;0,503096;0,555556;0,500000;0,450000;0,500000;0,500000;0,500000;0,375000;0,375000;0,937357;0,000000;0,000000;0,000000;0,000000;0,833333;0,877514;0,859047;0,859047;0,750000;0,750000;0,750000;0,500000;0,504308;0,555556;0,470000;0,000000;0,000000;0,666667;0,000000;0,444444;0,500000;0,500000;0,416667;0,416667;0,416667;0,500000;0,500000;0,416667;0,375000;0,416667;0,495110;1,000000;0,483644;0,555556;0,506432;0,375000;0,375000;0,750000;0,429523;0,429523;0,375000;0,500000;0,750000;0,416667;0,750000;0,750000;0,750000;0,750000;1,000000;0,500000;0,500000;0,375000;0,375000;0,375000;0,375000;
12;;;;;;;;;;;;1,000000;0,750000;0,750000;0,750000;0,263518;0,291667;0,291667;0,291667;0,338288;0,277778;0,291667;0,286652;0,275000;0,264833;0,388889;0,314286;0,500000;0,306818;0,625000;0,291667;0,282456;0,282456;0,281207;0,291667;0,291667;0,291667;0,315596;0,388889;0,333333;0,283333;0,375000;0,333333;0,375000;0,250000;0,250000;0,302012;0,000000;0,000000;0,000000;0,000000;0,291667;0,286652;0,262857;0,262857;0,250000;0,250000;0,250000;0,375000;0,290022;0,388889;0,270000;0,000000;0,000000;0,500000;0,000000;0,277778;0,375000;0,375000;0,291667;0,291667;0,291667;0,375000;0,375000;0,250000;0,250000;0,250000;0,280824;0,333333;0,296144;0,388889;0,339765;1,000000;0,250000;0,625000;0,262857;0,262857;0,250000;0,333333;0,625000;0,291667;0,625000;0,250000;0,250000;0,250000;0,375000;0,375000;0,375000;0,250000;0,250000;0,250000;0,250000;
13;;;;;;;;;;;;;1,000000;0,750000;0,750000;0,272529;0,305556;0,305556;0,305556;0,397146;0,291667;0,305556;0,308644;0,295455;0,278183;0,458333;0,357143;0,625000;0,353306;0,750000;0,305556;0,301930;0,301930;0,302012;0,305556;0,305556;0,305556;0,354954;0,458333;0,375000;0,300000;0,416667;0,375000;0,416667;0,250000;0,250000;0,328017;0,000000;0,000000;0,000000;0,000000;0,305556;0,308644;0,269285;0,269285;0,250000;0,250000;0,250000;0,416667;0,320038;0,458333;0,283333;0,000000;0,000000;0,625000;0,000000;0,291667;0,416667;0,416667;0,305556;0,305556;0,305556;0,416667;0,416667;0,250000;0,250000;0,250000;0,303942;0,375000;0,323830;0,458333;0,384648;0,750000;0,250000;0,750000;0,269285;0,269285;0,250000;0,375000;0,750000;0,305556;0,750000;0,250000;0,250000;0,250000;0,416667;0,416667;0,416667;0,250000;0,250000;0,250000;0,250000;
14;;;;;;;;;;;;;;1,000000;0,750000;0,272529;0,305556;0,305556;0,305556;0,397146;0,291667;0,305556;0,308644;0,295455;0,278183;0,458333;0,357143;0,625000;0,353306;0,750000;0,305556;0,301930;0,301930;0,302012;0,305556;0,305556;0,305556;0,354954;0,458333;0,375000;0,300000;0,416667;0,375000;0,416667;0,250000;0,250000;0,328017;0,000000;0,000000;0,000000;0,000000;0,305556;0,308644;0,269285;0,269285;0,250000;0,250000;0,250000;0,416667;0,320038;0,458333;0,283333;0,000000;0,000000;0,625000;0,000000;0,291667;0,416667;0,416667;0,305556;0,305556;0,305556;0,416667;0,416667;0,250000;0,250000;0,250000;0,303942;0,375000;0,323830;0,458333;0,384648;0,750000;0,250000;0,750000;0,269285;0,269285;0,250000;0,375000;0,750000;0,305556;0,750000;0,250000;0,250000;0,250000;0,416667;0,416667;0,416667;0,250000;0,250000;0,250000;0,250000;
15;;;;;;;;;;;;;;;1,000000;0,272529;0,305556;0,305556;0,305556;0,397146;0,291667;0,305556;0,308644;0,295455;0,278183;0,458333;0,357143;0,625000;0,353306;0,750000;0,305556;0,301930;0,301930;0,302012;0,305556;0,305556;0,305556;0,354954;0,458333;0,375000;0,300000;0,416667;0,375000;0,416667;0,250000;0,250000;0,328017;0,000000;0,000000;0,000000;0,000000;0,305556;0,308644;0,269285;0,269285;0,250000;0,250000;0,250000;0,416667;0,320038;0,458333;0,283333;0,000000;0,000000;0,625000;0,000000;0,291667;0,416667;0,416667;0,305556;0,305556;0,305556;0,416667;0,416667;0,250000;0,250000;0,250000;0,303942;0,375000;0,323830;0,458333;0,384648;0,750000;0,250000;0,750000;0,269285;0,269285;0,250000;0,375000;0,750000;0,305556;0,750000;0,250000;0,250000;0,250000;0,416667;0,416667;0,416667;0,250000;0,250000;0,250000;0,250000;
16;;;;;;;;;;;;;;;;1,000000;0,660368;0,660368;0,660368;0,504513;0,328085;0,941410;0,732389;0,373715;0,356542;0,550307;0,444508;0,772529;0,471617;0,863518;0,330184;0,353151;0,353151;0,361811;0,330184;0,330184;0,330184;0,428901;0,550307;0,439196;0,799154;0,463518;0,439196;0,463518;0,741418;0,741418;0,376552;0,000000;0,000000;0,000000;0,000000;0,330184;0,362743;0,298243;0,298243;0,263518;0,263518;0,263518;0,463518;0,402614;0,550307;0,333794;0,000000;0,000000;0,772529;0,000000;0,328085;0,463518;0,463518;0,330184;0,330184;0,330184;0,463518;0,463518;0,272529;0,263518;0,272529;0,376859;0,439196;0,384437;0,550307;0,452059;0,263518;0,263518;0,863518;0,298243;0,298243;0,263518;0,439196;0,863518;0,330184;0,863518;0,263518;0,263518;0,263518;0,463518;0,463518;0,463518;0,263518;0,263518;0,263518;0,263518;
17;;;;;;;;;;;;;;;;;1,000000;0,666667;0,666667;0,404954;0,333333;0,666667;0,937845;0,350000;0,343781;0,444444;0,380952;0,555556;0,381818;0,666667;0,333333;0,344956;0,344956;0,347874;0,333333;0,333333;0,333333;0,378096;0,444444;0,388889;0,948431;0,416667;0,388889;0,416667;0,875000;0,875000;0,357567;0,000000;0,000000;0,000000;0,000000;0,333333;0,349152;0,318412;0,318412;0,291667;0,291667;0,291667;0,416667;0,361450;0,444444;0,336667;0,000000;0,000000;0,555556;0,000000;0,333333;0,416667;0,416667;0,333333;0,333333;0,333333;0,416667;0,416667;0,305556;0,291667;0,305556;0,352252;0,388889;0,358644;0,444444;0,395321;0,291667;0,291667;0,666667;0,318412;0,318412;0,291667;0,388889;0,666667;0,333333;0,666667;0,291667;0,291667;0,291667;0,416667;0,416667;0,416667;0,291667;0,291667;0,291667;0,291667;
18;;;;;;;;;;;;;;;;;;1,000000;0,666667;0,404954;0,333333;0,666667;0,658940;0,350000;0,343781;0,444444;0,380952;0,555556;0,381818;0,666667;0,333333;0,344956;0,344956;0,347874;0,333333;0,333333;0,333333;0,378096;0,444444;0,388889;0,677778;0,416667;0,388889;0,416667;0,583333;0,583333;0,357567;0,000000;0,000000;0,000000;0,000000;0,333333;0,349152;0,318412;0,318412;0,291667;0,291667;0,291667;0,416667;0,361450;0,444444;0,336667;0,000000;0,000000;0,555556;0,000000;0,333333;0,416667;0,416667;0,333333;0,333333;0,333333;0,416667;0,416667;0,305556;0,291667;0,305556;0,352252;0,388889;0,358644;0,444444;0,395321;0,291667;0,291667;0,666667;0,318412;0,318412;0,291667;0,388889;0,666667;0,333333;0,666667;0,291667;0,291667;0,291667;0,416667;0,416667;0,416667;0,291667;0,291667;0,291667;0,291667;
19;;;;;;;;;;;;;;;;;;;1,000000;0,404954;0,333333;0,666667;0,658940;0,350000;0,343781;0,444444;0,380952;0,555556;0,381818;0,666667;0,333333;0,344956;0,344956;0,347874;0,333333;0,333333;0,333333;0,378096;0,444444;0,388889;0,677778;0,416667;0,388889;0,416667;0,583333;0,583333;0,357567;0,000000;0,000000;0,000000;0,000000;0,333333;0,349152;0,318412;0,318412;0,291667;0,291667;0,291667;0,416667;0,361450;0,444444;0,336667;0,000000;0,000000;0,555556;0,000000;0,333333;0,416667;0,416667;0,333333;0,333333;0,333333;0,416667;0,416667;0,305556;0,291667;0,305556;0,352252;0,388889;0,358644;0,444444;0,395321;0,291667;0,291667;0,666667;0,318412;0,318412;0,291667;0,388889;0,666667;0,333333;0,666667;0,291667;0,291667;0,291667;0,416667;0,416667;0,416667;0,291667;0,291667;0,291667;0,291667;
20;;;;;;;;;;;;;;;;;;;;1,000000;0,617834;0,404954;0,522964;0,632534;0,662419;0,945989;0,918983;0,897146;0,730436;0,938288;0,700927;0,793213;0,648086;0,825018;0,700304;0,700304;0,404954;0,589122;0,674924;0,563813;0,463813;0,538288;0,563813;0,538288;0,338288;0,338288;0,820702;0,000000;0,000000;0,000000;0,000000;0,700927;0,650590;0,664083;0,664083;0,567593;0,567593;0,567593;0,538288;0,626924;0,674924;0,520719;0,000000;0,000000;0,897146;0,000000;0,452701;0,538288;0,538288;0,404954;0,404954;0,404954;0,538288;0,538288;0,397146;0,338288;0,397146;0,601169;0,945989;0,544659;0,674924;0,576676;0,338288;0,338288;0,938288;0,422859;0,422859;0,338288;0,563813;0,938288;0,404954;0,938288;0,567593;0,567593;0,567593;0,967593;0,538288;0,538288;0,338288;0,338288;0,338288;0,338288;
21;;;;;;;;;;;;;;;;;;;;;1,000000;0,333333;0,358644;0,363636;0,353183;0,753884;0,671845;0,666667;0,421488;0,777778;0,613700;0,608520;0,506931;0,609202;0,614781;0,614781;0,333333;0,404954;0,500000;0,416667;0,341667;0,444444;0,416667;0,444444;0,277778;0,277778;0,659919;0,000000;0,000000;0,000000;0,000000;0,613700;0,508683;0,542454;0,542454;0,502589;0,502589;0,502589;0,444444;0,382538;0,500000;0,338889;0,000000;0,000000;0,666667;0,000000;0,333333;0,444444;0,444444;0,333333;0,333333;0,333333;0,444444;0,444444;0,291667;0,277778;0,291667;0,366442;0,753884;0,373830;0,500000;0,426314;0,277778;0,277778;0,777778;0,310952;0,310952;0,277778;0,416667;0,777778;0,333333;0,777778;0,502589;0,502589;0,502589;0,835923;0,444444;0,444444;0,277778;0,277778;0,277778;0,277778;
22;;;;;;;;;;;;;;;;;;;;;;1,000000;0,658940;0,350000;0,343781;0,444444;0,380952;0,555556;0,381818;0,666667;0,333333;0,344956;0,344956;0,347874;0,333333;0,333333;0,333333;0,378096;0,444444;0,388889;0,948402;0,416667;0,388889;0,416667;0,583333;0,583333;0,357567;0,000000;0,000000;0,000000;0,000000;0,333333;0,349152;0,318412;0,318412;0,291667;0,291667;0,291667;0,416667;0,361450;0,444444;0,336667;0,000000;0,000000;0,555556;0,000000;0,333333;0,416667;0,416667;0,333333;0,333333;0,333333;0,416667;0,416667;0,305556;0,291667;0,305556;0,352252;0,388889;0,358644;0,444444;0,395321;0,291667;0,291667;0,666667;0,318412;0,318412;0,291667;0,388889;0,666667;0,333333;0,666667;0,291667;0,291667;0,291667;0,416667;0,416667;0,416667;0,291667;0,291667;0,291667;0,291667;
23;;;;;;;;;;;;;;;;;;;;;;;1,000000;0,422457;0,415927;0,558644;0,471532;0,758644;0,502002;0,849152;0,349152;0,388216;0,388216;0,400649;0,349152;0,349152;0,349152;0,454497;0,558644;0,458644;0,807727;0,474152;0,458644;0,474152;0,750345;0,750345;0,402264;0,000000;0,000000;0,000000;0,000000;0,349152;0,396609;0,331786;0,331786;0,286652;0,286652;0,286652;0,474152;0,441124;0,558644;0,376634;0,000000;0,000000;0,758644;0,000000;0,358644;0,474152;0,474152;0,349152;0,349152;0,349152;0,474152;0,474152;0,308644;0,286652;0,308644;0,419661;0,458644;0,415591;0,558644;0,470221;0,286652;0,286652;0,849152;0,331786;0,331786;0,286652;0,458644;0,849152;0,349152;0,849152;0,286652;0,286652;0,286652;0,474152;0,474152;0,474152;0,286652;0,286652;0,286652;0,286652;
24;;;;;;;;;;;;;;;;;;;;;;;;1,000000;0,510612;0,636364;0,549451;0,909091;0,659091;0,950000;0,350000;0,409868;0,409868;0,434947;0,350000;0,350000;0,350000;0,509289;0,636364;0,951902;0,377273;0,500000;0,500000;0,973546;0,275000;0,275000;0,423119;0,000000;0,000000;0,000000;0,000000;0,350000;0,422457;0,327012;0,327012;0,275000;0,275000;0,275000;0,500000;0,518092;0,636364;0,396154;0,000000;0,000000;0,909091;0,000000;0,363636;0,500000;0,973546;0,350000;0,350000;0,350000;0,500000;0,500000;0,295455;0,275000;0,295455;0,853104;0,500000;0,611149;0,636364;0,515787;0,275000;0,275000;0,950000;0,327012;0,327012;0,275000;0,500000;0,950000;0,350000;0,950000;0,275000;0,275000;0,275000;0,500000;0,500000;0,973546;0,275000;0,275000;0,275000;0,275000;
25;;;;;;;;;;;;;;;;;;;;;;;;;1,000000;0,653183;0,564230;0,953183;0,793754;0,975360;0,343781;0,401540;0,401540;0,428908;0,343781;0,343781;0,343781;0,515164;0,653183;0,503183;0,368183;0,982169;0,966120;0,501676;0,264833;0,264833;0,418615;0,000000;0,000000;0,000000;0,000000;0,343781;0,415927;0,312897;0,312897;0,264833;0,264833;0,264833;0,501676;0,530574;0,653183;0,383061;0,000000;0,000000;0,953183;0,000000;0,353183;0,501676;0,501676;0,343781;0,343781;0,343781;0,501676;0,501676;0,278183;0,264833;0,278183;0,543068;0,503183;0,591369;0,955864;0,520549;0,264833;0,264833;0,975360;0,312897;0,312897;0,264833;0,966120;0,975360;0,343781;0,975360;0,264833;0,264833;0,264833;0,501676;0,501676;0,501676;0,264833;0,264833;0,264833;0,264833;
26;;;;;;;;;;;;;;;;;;;;;;;;;;1,000000;1,000000;0,833333;0,694215;0,888889;0,777778;0,903859;0,802270;0,937357;0,444444;0,444444;0,444444;0,604954;0,666667;0,583333;0,508333;0,555556;0,583333;0,555556;0,388889;0,388889;0,906035;0,000000;0,000000;0,000000;0,000000;0,777778;0,804023;0,788570;0,788570;0,666667;0,666667;0,666667;0,555556;0,632538;0,666667;0,561111;0,000000;0,000000;0,833333;0,000000;0,500000;0,555556;0,555556;0,444444;0,444444;0,444444;0,555556;0,555556;0,458333;0,388889;0,458333;0,616442;1,000000;0,573830;0,666667;0,592981;0,388889;0,388889;0,888889;0,477618;0,477618;0,388889;0,583333;0,888889;0,444444;0,888889;0,666667;0,666667;0,666667;1,000000;0,555556;0,555556;0,388889;0,388889;0,388889;0,388889;
27;;;;;;;;;;;;;;;;;;;;;;;;;;;1,000000;0,857143;0,647353;0,914286;0,733333;0,862656;0,717529;0,906035;0,380952;0,380952;0,380952;0,537690;0,634921;0,523810;0,423810;0,514286;0,523810;0,514286;0,314286;0,314286;0,874713;0,000000;0,000000;0,000000;0,000000;0,733333;0,720032;0,718094;0,718094;0,600000;0,600000;0,600000;0,514286;0,554919;0,634921;0,460714;0,000000;0,000000;0,857143;0,000000;0,412698;0,514286;0,514286;0,380952;0,380952;0,380952;0,514286;0,514286;0,357143;0,314286;0,357143;0,529164;1,000000;0,493226;0,634921;0,536673;0,314286;0,314286;0,914286;0,382856;0,382856;0,314286;0,523810;0,914286;0,380952;0,914286;0,600000;0,600000;0,600000;1,000000;0,514286;0,514286;0,314286;0,314286;0,314286;0,314286;
28;;;;;;;;;;;;;;;;;;;;;;;;;;;;1,000000;0,966942;1,000000;0,555556;0,751930;0,751930;0,802012;0,555556;0,555556;0,555556;0,804954;0,833333;0,750000;0,675000;0,666667;0,750000;0,666667;0,500000;0,500000;0,703017;0,000000;0,000000;0,000000;0,000000;0,555556;0,758644;0,644285;0,644285;0,500000;0,500000;0,500000;0,666667;0,882538;0,833333;0,783333;0,000000;0,000000;1,000000;0,000000;0,666667;0,666667;0,666667;0,555556;0,555556;0,555556;0,666667;0,666667;0,625000;0,500000;0,625000;0,866442;0,750000;0,773830;0,833333;0,759648;0,500000;0,500000;1,000000;0,644285;0,644285;0,500000;0,750000;1,000000;0,555556;1,000000;0,500000;0,500000;0,500000;0,666667;0,666667;0,666667;0,500000;0,500000;0,500000;0,500000;
29;;;;;;;;;;;;;;;;;;;;;;;;;;;;;1,000000;0,981818;0,381818;0,489413;0,489413;0,532849;0,381818;0,381818;0,381818;0,588835;0,694215;0,557851;0,435124;0,531818;0,557851;0,531818;0,306818;0,306818;0,480971;0,000000;0,000000;0,000000;0,000000;0,381818;0,502002;0,384863;0,384863;0,306818;0,306818;0,306818;0,531818;0,645365;0,694215;0,494056;0,000000;0,000000;0,966942;0,000000;0,421488;0,531818;0,531818;0,381818;0,381818;0,381818;0,531818;0,531818;0,353306;0,306818;0,353306;0,687252;0,557851;0,530476;0,983875;0,573638;0,306818;0,306818;0,981818;0,637884;0,637884;0,541123;0,557851;0,981818;0,381818;0,981818;0,306818;0,306818;0,306818;0,531818;0,531818;0,531818;0,306818;0,306818;0,306818;0,306818;
30;;;;;;;;;;;;;;;;;;;;;;;;;;;;;;1,000000;0,666667;0,844956;0,844956;0,881207;0,666667;0,666667;0,666667;0,878096;0,888889;0,833333;0,783333;0,750000;0,833333;0,750000;0,625000;0,625000;0,802012;0,000000;0,000000;0,000000;0,000000;0,666667;0,849152;0,762857;0,762857;0,625000;0,625000;0,625000;0,750000;0,932879;0,888889;0,870000;0,000000;0,000000;1,000000;0,000000;0,777778;0,750000;0,750000;0,666667;0,666667;0,666667;0,750000;0,750000;0,750000;0,625000;0,750000;0,923681;0,833333;0,858644;0,888889;0,839765;0,625000;0,625000;1,000000;0,762857;0,762857;0,625000;0,833333;1,000000;0,666667;1,000000;0,625000;0,625000;0,625000;0,750000;0,750000;0,750000;0,625000;0,625000;0,625000;0,625000;
31;;;;;;;;;;;;;;;;;;;;;;;;;;;;;;;1,000000;0,689912;0,626419;0,695747;0,333333;0,333333;0,333333;0,378096;0,444444;0,388889;0,338889;0,416667;0,388889;0,416667;0,291667;0,291667;1,000000;0,000000;0,000000;0,000000;0,000000;0,666667;0,627514;0,636825;0,636825;0,583333;0,583333;0,583333;0,416667;0,361450;0,444444;0,336667;0,000000;0,000000;0,555556;0,000000;0,333333;0,416667;0,416667;0,333333;0,333333;0,333333;0,416667;0,416667;0,305556;0,291667;0,305556;0,352252;0,777778;0,358644;0,444444;0,395321;0,291667;0,291667;0,666667;0,318412;0,318412;0,291667;0,388889;0,666667;0,333333;0,666667;0,583333;0,583333;0,583333;0,833333;0,416667;0,416667;0,291667;0,291667;0,291667;0,291667;
32;;;;;;;;;;;;;;;;;;;;;;;;;;;;;;;;1,000000;0,632661;0,782114;0,344956;0,344956;0,344956;0,446105;0,551930;0,451930;0,361930;0,469956;0,451930;0,469956;0,282456;0,282456;0,791101;0,000000;0,000000;0,000000;0,000000;0,689912;0,634852;0,650143;0,650143;0,564912;0,564912;0,564912;0,469956;0,429934;0,551930;0,367042;0,000000;0,000000;0,751930;0,000000;0,351930;0,469956;0,469956;0,344956;0,344956;0,344956;0,469956;0,469956;0,301930;0,282456;0,301930;0,408471;0,903859;0,407199;0,551930;0,463507;0,282456;0,282456;0,844956;0,325072;0,325072;0,282456;0,451930;0,844956;0,344956;0,844956;0,564912;0,564912;0,564912;0,939912;0,469956;0,469956;0,282456;0,282456;0,282456;0,282456;
33;;;;;;;;;;;;;;;;;;;;;;;;;;;;;;;;;1,000000;0,636987;0,344956;0,344956;0,663362;0,587377;0,551930;0,451930;0,361930;0,469956;0,451930;0,469956;0,282456;0,282456;0,689512;0,000000;0,000000;0,000000;0,000000;0,911051;0,507866;0,548554;0,548554;0,501419;0,501419;0,501419;0,469956;0,429934;0,551930;0,367042;0,000000;0,000000;0,751930;0,000000;0,351930;0,469956;0,469956;0,344956;0,344956;0,344956;0,469956;0,469956;0,301930;0,282456;0,301930;0,408471;0,802270;0,407199;0,551930;0,463507;0,282456;0,282456;0,844956;0,325072;0,325072;0,282456;0,451930;0,844956;0,344956;0,844956;0,501419;0,501419;0,501419;0,876419;0,469956;0,469956;0,282456;0,282456;0,282456;0,282456;
34;;;;;;;;;;;;;;;;;;;;;;;;;;;;;;;;;;1,000000;0,347874;0,347874;0,634580;0,698270;0,579789;0,468678;0,368678;0,481207;0,468678;0,481207;0,281207;0,281207;0,812070;0,000000;0,000000;0,000000;0,000000;0,695747;0,639491;0,655450;0,655450;0,562414;0,562414;0,562414;0,481207;0,455682;0,579789;0,378017;0,000000;0,000000;0,802012;0,000000;0,357567;0,481207;0,481207;0,347874;0,347874;0,347874;0,481207;0,481207;0,302012;0,281207;0,302012;0,429927;0,937357;0,422343;0,579789;0,481542;0,281207;0,281207;0,881207;0,327725;0,327725;0,281207;0,468678;0,881207;0,347874;0,881207;0,562414;0,562414;0,562414;0,962414;0,481207;0,481207;0,281207;0,281207;0,281207;0,281207;
35;;;;;;;;;;;;;;;;;;;;;;;;;;;;;;;;;;;1,000000;0,666667;0,333333;0,378096;0,444444;0,388889;0,338889;0,416667;0,388889;0,416667;0,291667;0,291667;0,357567;0,000000;0,000000;0,000000;0,000000;0,333333;0,349152;0,318412;0,318412;0,291667;0,291667;0,291667;0,416667;0,361450;0,444444;0,336667;0,000000;0,000000;0,555556;0,000000;0,333333;0,416667;0,416667;0,333333;0,333333;0,333333;0,416667;0,416667;0,305556;0,291667;0,305556;0,352252;0,388889;0,358644;0,444444;0,395321;0,291667;0,291667;0,666667;0,318412;0,318412;0,291667;0,388889;0,666667;0,333333;0,666667;0,291667;0,291667;0,291667;0,416667;0,416667;0,416667;0,291667;0,291667;0,291667;0,291667;
36;;;;;;;;;;;;;;;;;;;;;;;;;;;;;;;;;;;;1,000000;0,333333;0,378096;0,444444;0,388889;0,338889;0,416667;0,388889;0,416667;0,291667;0,291667;0,357567;0,000000;0,000000;0,000000;0,000000;0,333333;0,349152;0,318412;0,318412;0,291667;0,291667;0,291667;0,416667;0,361450;0,444444;0,336667;0,000000;0,000000;0,555556;0,000000;0,333333;0,416667;0,416667;0,333333;0,333333;0,333333;0,416667;0,416667;0,305556;0,291667;0,305556;0,352252;0,388889;0,358644;0,444444;0,395321;0,291667;0,291667;0,666667;0,318412;0,318412;0,291667;0,388889;0,666667;0,333333;0,666667;0,291667;0,291667;0,291667;0,416667;0,416667;0,416667;0,291667;0,291667;0,291667;0,291667;
37;;;;;;;;;;;;;;;;;;;;;;;;;;;;;;;;;;;;;1,000000;0,710575;0,444444;0,388889;0,338889;0,416667;0,388889;0,416667;0,291667;0,291667;0,357567;0,000000;0,000000;0,000000;0,000000;0,333333;0,349152;0,318412;0,318412;0,291667;0,291667;0,291667;0,416667;0,361450;0,444444;0,336667;0,000000;0,000000;0,555556;0,000000;0,333333;0,416667;0,416667;0,333333;0,333333;0,333333;0,416667;0,416667;0,305556;0,291667;0,305556;0,352252;0,388889;0,358644;0,444444;0,395321;0,291667;0,291667;0,666667;0,318412;0,318412;0,291667;0,388889;0,666667;0,333333;0,666667;0,291667;0,291667;0,291667;0,416667;0,416667;0,416667;0,291667;0,291667;0,291667;0,291667;
38;;;;;;;;;;;;;;;;;;;;;;;;;;;;;;;;;;;;;;1,000000;0,604954;0,504954;0,414954;0,503096;0,504954;0,503096;0,315596;0,315596;0,448575;0,000000;0,000000;0,000000;0,000000;0,378096;0,454497;0,378096;0,378096;0,315596;0,315596;0,315596;0,503096;0,518308;0,604954;0,442792;0,000000;0,000000;0,804954;0,000000;0,404954;0,503096;0,503096;0,378096;0,378096;0,378096;0,503096;0,503096;0,354954;0,315596;0,354954;0,496846;0,504954;0,473480;0,604954;0,516531;0,315596;0,315596;0,878096;0,378096;0,378096;0,315596;0,504954;0,878096;0,378096;0,878096;0,315596;0,315596;0,315596;0,503096;0,503096;0,503096;0,315596;0,315596;0,315596;0,315596;
39;;;;;;;;;;;;;;;;;;;;;;;;;;;;;;;;;;;;;;;1,000000;0,583333;0,508333;0,555556;0,583333;0,555556;0,388889;0,388889;0,536351;0,000000;0,000000;0,000000;0,000000;0,444444;0,558644;0,477618;0,477618;0,388889;0,388889;0,388889;0,555556;0,632538;0,666667;0,561111;0,000000;0,000000;0,833333;0,000000;0,500000;0,555556;0,555556;0,444444;0,444444;0,444444;0,555556;0,555556;0,458333;0,388889;0,458333;0,616442;0,583333;0,573830;0,666667;0,592981;0,388889;0,388889;0,888889;0,477618;0,477618;0,388889;0,583333;0,888889;0,444444;0,888889;0,388889;0,388889;0,388889;0,555556;0,555556;0,555556;0,388889;0,388889;0,388889;0,388889;
40;;;;;;;;;;;;;;;;;;;;;;;;;;;;;;;;;;;;;;;;1,000000;0,425000;0,500000;0,500000;1,000000;0,333333;0,333333;0,453017;0,000000;0,000000;0,000000;0,000000;0,388889;0,458644;0,394285;0,394285;0,333333;0,333333;0,333333;0,500000;0,507538;0,583333;0,450000;0,000000;0,000000;0,750000;0,000000;0,416667;0,500000;1,000000;0,388889;0,388889;0,388889;0,500000;0,500000;0,375000;0,333333;0,375000;0,982883;0,500000;0,827885;0,583333;0,509648;0,333333;0,333333;0,833333;0,394285;0,394285;0,333333;0,500000;0,833333;0,388889;0,833333;0,333333;0,333333;0,333333;0,500000;0,500000;1,000000;0,333333;0,333333;0,333333;0,333333;
41;;;;;;;;;;;;;;;;;;;;;;;;;;;;;;;;;;;;;;;;;1,000000;0,450000;0,425000;0,450000;0,781764;0,781764;0,378017;0,000000;0,000000;0,000000;0,000000;0,338889;0,368644;0,319285;0,319285;0,283333;0,283333;0,283333;0,450000;0,395038;0,508333;0,350000;0,000000;0,000000;0,675000;0,000000;0,341667;0,450000;0,450000;0,338889;0,338889;0,338889;0,450000;0,450000;0,300000;0,283333;0,300000;0,378942;0,425000;0,383830;0,508333;0,434648;0,283333;0,283333;0,783333;0,319285;0,319285;0,283333;0,425000;0,783333;0,338889;0,783333;0,283333;0,283333;0,283333;0,450000;0,450000;0,450000;0,283333;0,283333;0,283333;0,283333;
42;;;;;;;;;;;;;;;;;;;;;;;;;;;;;;;;;;;;;;;;;;1,000000;1,000000;0,500000;0,375000;0,375000;0,468678;0,000000;0,000000;0,000000;0,000000;0,416667;0,474152;0,429523;0,429523;0,375000;0,375000;0,375000;0,500000;0,504308;0,555556;0,470000;0,000000;0,000000;0,666667;0,000000;0,444444;0,500000;0,500000;0,416667;0,416667;0,416667;0,500000;0,500000;0,416667;0,375000;0,416667;0,495110;0,500000;0,483644;0,555556;0,506432;0,375000;0,375000;0,750000;0,429523;0,429523;0,375000;1,000000;0,750000;0,416667;0,750000;0,375000;0,375000;0,375000;0,500000;0,500000;0,500000;0,375000;0,375000;0,375000;0,375000;
43;;;;;;;;;;;;;;;;;;;;;;;;;;;;;;;;;;;;;;;;;;;1,000000;0,500000;0,333333;0,333333;0,453017;0,000000;0,000000;0,000000;0,000000;0,388889;0,458644;0,394285;0,394285;0,333333;0,333333;0,333333;0,500000;0,507538;0,583333;0,450000;0,000000;0,000000;0,750000;0,000000;0,416667;0,500000;0,500000;0,388889;0,388889;0,388889;0,500000;0,500000;0,375000;0,333333;0,375000;0,491442;0,500000;0,473830;0,583333;0,509648;0,333333;0,333333;0,833333;0,394285;0,394285;0,333333;1,000000;0,833333;0,388889;0,833333;0,333333;0,333333;0,333333;0,500000;0,500000;0,500000;0,333333;0,333333;0,333333;0,333333;
44;;;;;;;;;;;;;;;;;;;;;;;;;;;;;;;;;;;;;;;;;;;;1,000000;0,375000;0,375000;0,468678;0,000000;0,000000;0,000000;0,000000;0,416667;0,474152;0,429523;0,429523;0,375000;0,375000;0,375000;0,500000;0,504308;0,555556;0,470000;0,000000;0,000000;0,666667;0,000000;0,444444;0,500000;1,000000;0,416667;0,416667;0,416667;0,500000;0,500000;0,416667;0,375000;0,416667;0,990219;0,500000;0,892428;0,555556;0,506432;0,375000;0,375000;0,750000;0,429523;0,429523;0,375000;0,500000;0,750000;0,416667;0,750000;0,375000;0,375000;0,375000;0,500000;0,500000;1,000000;0,375000;0,375000;0,375000;0,375000;
45;;;;;;;;;;;;;;;;;;;;;;;;;;;;;;;;;;;;;;;;;;;;;1,000000;0,750000;0,302012;0,000000;0,000000;0,000000;0,000000;0,291667;0,286652;0,262857;0,262857;0,250000;0,250000;0,250000;0,375000;0,290022;0,388889;0,270000;0,000000;0,000000;0,500000;0,000000;0,277778;0,375000;0,375000;0,291667;0,291667;0,291667;0,375000;0,375000;0,250000;0,250000;0,250000;0,280824;0,333333;0,296144;0,388889;0,339765;0,250000;0,250000;0,625000;0,262857;0,262857;0,250000;0,333333;0,625000;0,291667;0,625000;0,250000;0,250000;0,250000;0,375000;0,375000;0,375000;0,250000;0,250000;0,250000;0,250000;
46;;;;;;;;;;;;;;;;;;;;;;;;;;;;;;;;;;;;;;;;;;;;;;1,000000;0,302012;0,000000;0,000000;0,000000;0,000000;0,291667;0,286652;0,262857;0,262857;0,250000;0,250000;0,250000;0,375000;0,290022;0,388889;0,270000;0,000000;0,000000;0,500000;0,000000;0,277778;0,375000;0,375000;0,291667;0,291667;0,291667;0,375000;0,375000;0,250000;0,250000;0,250000;0,280824;0,333333;0,296144;0,388889;0,339765;0,250000;0,250000;0,625000;0,262857;0,262857;0,250000;0,333333;0,625000;0,291667;0,625000;0,250000;0,250000;0,250000;0,375000;0,375000;0,375000;0,250000;0,250000;0,250000;0,250000;
47;;;;;;;;;;;;;;;;;;;;;;;;;;;;;;;;;;;;;;;;;;;;;;;1,000000;0,000000;0,000000;0,000000;0,000000;0,715134;0,691264;0,694605;0,694605;0,604023;0,604023;0,604023;0,468678;0,437064;0,536351;0,387357;0,000000;0,000000;0,703017;0,000000;0,369684;0,468678;0,468678;0,357567;0,357567;0,357567;0,468678;0,468678;0,328017;0,302012;0,328017;0,420968;0,906035;0,417450;0,536351;0,462665;0,302012;0,302012;0,802012;0,347303;0,347303;0,302012;0,453017;0,802012;0,357567;0,802012;0,604023;0,604023;0,604023;0,937357;0,468678;0,468678;0,302012;0,302012;0,302012;0,302012;
48;;;;;;;;;;;;;;;;;;;;;;;;;;;;;;;;;;;;;;;;;;;;;;;;1,000000;0,666667;0,666667;0,666667;0,000000;0,000000;0,000000;0,000000;0,000000;0,000000;0,000000;0,000000;0,000000;0,000000;0,000000;0,000000;0,000000;0,000000;0,000000;0,000000;0,000000;0,000000;0,000000;0,000000;0,000000;0,000000;0,000000;0,000000;0,000000;0,000000;0,000000;0,000000;0,000000;0,000000;0,000000;0,000000;0,000000;0,000000;0,000000;0,000000;0,000000;0,000000;0,000000;0,000000;0,000000;0,000000;0,000000;0,000000;0,000000;0,000000;0,000000;0,000000;0,000000;0,000000;0,000000;
49;;;;;;;;;;;;;;;;;;;;;;;;;;;;;;;;;;;;;;;;;;;;;;;;;1,000000;0,666667;0,666667;0,000000;0,000000;0,000000;0,000000;0,000000;0,000000;0,000000;0,000000;0,000000;0,000000;0,000000;0,000000;0,000000;0,000000;0,000000;0,000000;0,000000;0,000000;0,000000;0,000000;0,000000;0,000000;0,000000;0,000000;0,000000;0,000000;0,000000;0,000000;0,000000;0,000000;0,000000;0,000000;0,000000;0,000000;0,000000;0,000000;0,000000;0,000000;0,000000;0,000000;0,000000;0,000000;0,000000;0,000000;0,000000;0,000000;0,000000;0,000000;0,000000;0,000000;0,000000;
50;;;;;;;;;;;;;;;;;;;;;;;;;;;;;;;;;;;;;;;;;;;;;;;;;;1,000000;0,666667;0,000000;0,000000;0,000000;0,000000;0,000000;0,000000;0,000000;0,000000;0,000000;0,000000;0,000000;0,000000;0,000000;0,000000;0,000000;0,000000;0,000000;0,000000;0,000000;0,000000;0,000000;0,000000;0,000000;0,000000;0,000000;0,000000;0,000000;0,000000;0,000000;0,000000;0,000000;0,000000;0,000000;0,000000;0,000000;0,000000;0,000000;0,000000;0,000000;0,000000;0,000000;0,000000;0,000000;0,000000;0,000000;0,000000;0,000000;0,000000;0,000000;0,000000;0,000000;
51;;;;;;;;;;;;;;;;;;;;;;;;;;;;;;;;;;;;;;;;;;;;;;;;;;;1,000000;0,000000;0,000000;0,000000;0,000000;0,000000;0,000000;0,000000;0,000000;0,000000;0,000000;0,000000;0,000000;0,000000;0,000000;0,000000;0,000000;0,000000;0,000000;0,000000;0,000000;0,000000;0,000000;0,000000;0,000000;0,000000;0,000000;0,000000;0,000000;0,000000;0,000000;0,000000;0,000000;0,000000;0,000000;0,000000;0,000000;0,000000;0,000000;0,000000;0,000000;0,000000;0,000000;0,000000;0,000000;0,000000;0,000000;0,000000;0,000000;0,000000;0,000000;0,000000;
52;;;;;;;;;;;;;;;;;;;;;;;;;;;;;;;;;;;;;;;;;;;;;;;;;;;;1,000000;0,627514;0,636825;0,636825;0,583333;0,583333;0,583333;0,416667;0,361450;0,444444;0,336667;0,000000;0,000000;0,555556;0,000000;0,333333;0,416667;0,416667;0,333333;0,333333;0,333333;0,416667;0,416667;0,305556;0,291667;0,305556;0,352252;0,777778;0,358644;0,444444;0,395321;0,291667;0,291667;0,666667;0,318412;0,318412;0,291667;0,388889;0,666667;0,333333;0,666667;0,583333;0,583333;0,583333;0,833333;0,416667;0,416667;0,291667;0,291667;0,291667;0,291667;
53;;;;;;;;;;;;;;;;;;;;;;;;;;;;;;;;;;;;;;;;;;;;;;;;;;;;;1,000000;0,773200;0,773200;0,502514;0,502514;0,502514;0,474152;0,441124;0,558644;0,376634;0,000000;0,000000;0,758644;0,000000;0,358644;0,474152;0,474152;0,349152;0,349152;0,349152;0,474152;0,474152;0,308644;0,286652;0,308644;0,419661;0,804023;0,415591;0,558644;0,664539;0,286652;0,286652;0,849152;0,331786;0,331786;0,286652;0,458644;0,849152;0,633673;0,849152;0,502514;0,502514;0,502514;0,877514;0,474152;0,474152;0,286652;0,286652;0,286652;0,286652;
54;;;;;;;;;;;;;;;;;;;;;;;;;;;;;;;;;;;;;;;;;;;;;;;;;;;;;;1,000000;0,713077;0,525714;0,525714;0,525714;0,429523;0,348966;0,477618;0,309047;0,000000;0,000000;0,644285;0,000000;0,310952;0,429523;0,429523;0,318412;0,318412;0,318412;0,429523;0,429523;0,269285;0,262857;0,269285;0,332869;0,788570;0,346972;0,477618;0,589710;0,262857;0,262857;0,762857;0,288570;0,288570;0,262857;0,394285;0,762857;0,587170;0,762857;0,525714;0,525714;0,525714;0,859047;0,429523;0,429523;0,262857;0,262857;0,262857;0,262857;
55;;;;;;;;;;;;;;;;;;;;;;;;;;;;;;;;;;;;;;;;;;;;;;;;;;;;;;;1,000000;0,525714;0,525714;0,525714;0,429523;0,348966;0,477618;0,309047;0,000000;0,000000;0,644285;0,000000;0,310952;0,429523;0,429523;0,318412;0,318412;0,318412;0,429523;0,429523;0,269285;0,262857;0,269285;0,332869;0,788570;0,346972;0,477618;0,589710;0,262857;0,262857;0,762857;0,288570;0,288570;0,262857;0,394285;0,762857;0,587170;0,762857;0,525714;0,525714;0,525714;0,859047;0,429523;0,429523;0,262857;0,262857;0,262857;0,262857;
56;;;;;;;;;;;;;;;;;;;;;;;;;;;;;;;;;;;;;;;;;;;;;;;;;;;;;;;;1,000000;0,750000;0,750000;0,375000;0,290022;0,388889;0,270000;0,000000;0,000000;0,500000;0,000000;0,277778;0,375000;0,375000;0,291667;0,291667;0,291667;0,375000;0,375000;0,250000;0,250000;0,250000;0,280824;0,666667;0,296144;0,388889;0,339765;0,250000;0,250000;0,625000;0,262857;0,262857;0,250000;0,333333;0,625000;0,291667;0,625000;0,500000;0,500000;0,500000;0,750000;0,375000;0,375000;0,250000;0,250000;0,250000;0,250000;
57;;;;;;;;;;;;;;;;;;;;;;;;;;;;;;;;;;;;;;;;;;;;;;;;;;;;;;;;;1,000000;0,750000;0,375000;0,290022;0,388889;0,270000;0,000000;0,000000;0,500000;0,000000;0,277778;0,375000;0,375000;0,291667;0,291667;0,291667;0,375000;0,375000;0,250000;0,250000;0,250000;0,280824;0,666667;0,296144;0,388889;0,339765;0,250000;0,250000;0,625000;0,262857;0,262857;0,250000;0,333333;0,625000;0,291667;0,625000;0,500000;0,500000;0,500000;0,750000;0,375000;0,375000;0,250000;0,250000;0,250000;0,250000;
58;;;;;;;;;;;;;;;;;;;;;;;;;;;;;;;;;;;;;;;;;;;;;;;;;;;;;;;;;;1,000000;0,375000;0,290022;0,388889;0,270000;0,000000;0,000000;0,500000;0,000000;0,277778;0,375000;0,375000;0,291667;0,291667;0,291667;0,375000;0,375000;0,250000;0,250000;0,250000;0,280824;0,666667;0,296144;0,388889;0,339765;0,250000;0,250000;0,625000;0,262857;0,262857;0,250000;0,333333;0,625000;0,291667;0,625000;0,500000;0,500000;0,500000;0,750000;0,375000;0,375000;0,250000;0,250000;0,250000;0,250000;
59;;;;;;;;;;;;;;;;;;;;;;;;;;;;;;;;;;;;;;;;;;;;;;;;;;;;;;;;;;;1,000000;0,504308;0,555556;0,470000;0,000000;0,000000;0,666667;0,000000;0,444444;0,500000;0,500000;0,416667;0,416667;0,416667;0,500000;0,500000;0,416667;0,375000;0,416667;0,495110;0,500000;0,483644;0,555556;0,506432;0,375000;0,375000;0,750000;0,429523;0,429523;0,375000;0,500000;0,750000;0,416667;0,750000;0,375000;0,375000;0,375000;0,500000;0,500000;0,500000;0,375000;0,375000;0,375000;0,375000;
60;;;;;;;;;;;;;;;;;;;;;;;;;;;;;;;;;;;;;;;;;;;;;;;;;;;;;;;;;;;;1,000000;0,632538;0,422061;0,000000;0,000000;0,882538;0,000000;0,382538;0,504308;0,504308;0,361450;0,361450;0,361450;0,504308;0,504308;0,320038;0,290022;0,320038;0,497960;0,507538;0,612362;0,632538;0,522010;0,290022;0,290022;0,932879;0,722493;0,722493;0,762593;0,507538;0,932879;0,361450;0,932879;0,290022;0,290022;0,290022;0,504308;0,504308;0,504308;0,290022;0,290022;0,290022;0,290022;
61;;;;;;;;;;;;;;;;;;;;;;;;;;;;;;;;;;;;;;;;;;;;;;;;;;;;;;;;;;;;;1,000000;0,561111;0,000000;0,000000;0,833333;0,000000;0,500000;1,000000;0,555556;0,444444;0,444444;0,444444;0,555556;0,555556;0,750000;0,666667;0,750000;0,616442;0,583333;0,573830;0,666667;0,592981;0,388889;0,666667;0,888889;0,477618;0,477618;0,388889;0,583333;0,888889;0,444444;0,888889;0,388889;0,388889;0,388889;0,555556;0,555556;0,555556;0,388889;0,388889;0,388889;0,388889;
62;;;;;;;;;;;;;;;;;;;;;;;;;;;;;;;;;;;;;;;;;;;;;;;;;;;;;;;;;;;;;;1,000000;0,000000;0,000000;0,783333;0,000000;0,338889;0,470000;0,470000;0,336667;0,336667;0,336667;0,470000;0,470000;0,720883;0,732510;0,720883;0,396307;0,450000;0,398328;0,561111;0,462864;0,270000;0,732510;0,870000;0,309047;0,309047;0,270000;0,450000;0,870000;0,336667;0,870000;0,270000;0,270000;0,270000;0,470000;0,470000;0,470000;0,270000;0,270000;0,270000;0,270000;
63;;;;;;;;;;;;;;;;;;;;;;;;;;;;;;;;;;;;;;;;;;;;;;;;;;;;;;;;;;;;;;;1,000000;0,666667;0,666667;0,666667;0,000000;0,000000;0,000000;0,000000;0,000000;0,000000;0,000000;0,000000;0,000000;0,000000;0,000000;0,000000;0,000000;0,000000;0,000000;0,000000;0,000000;0,000000;0,000000;0,000000;0,000000;0,000000;0,000000;0,000000;0,000000;0,000000;0,000000;0,000000;0,000000;0,000000;0,000000;0,000000;0,000000;0,000000;0,000000;0,000000;
64;;;;;;;;;;;;;;;;;;;;;;;;;;;;;;;;;;;;;;;;;;;;;;;;;;;;;;;;;;;;;;;;1,000000;0,666667;0,666667;0,000000;0,000000;0,000000;0,000000;0,000000;0,000000;0,000000;0,000000;0,000000;0,000000;0,000000;0,000000;0,000000;0,000000;0,000000;0,000000;0,000000;0,000000;0,000000;0,000000;0,000000;0,000000;0,000000;0,000000;0,000000;0,000000;0,000000;0,000000;0,000000;0,000000;0,000000;0,000000;0,000000;0,000000;0,000000;0,000000;
65;;;;;;;;;;;;;;;;;;;;;;;;;;;;;;;;;;;;;;;;;;;;;;;;;;;;;;;;;;;;;;;;;1,000000;0,666667;0,666667;0,666667;0,666667;0,555556;0,555556;0,555556;0,666667;0,666667;0,625000;0,500000;0,625000;0,866442;0,750000;0,773830;0,833333;0,759648;0,500000;0,500000;1,000000;0,644285;0,644285;0,500000;0,750000;1,000000;0,555556;1,000000;0,500000;0,500000;0,500000;0,666667;0,666667;0,666667;0,500000;0,500000;0,500000;0,500000;
66;;;;;;;;;;;;;;;;;;;;;;;;;;;;;;;;;;;;;;;;;;;;;;;;;;;;;;;;;;;;;;;;;;1,000000;0,000000;0,000000;0,000000;0,000000;0,000000;0,000000;0,000000;0,000000;0,000000;0,000000;0,000000;0,000000;0,000000;0,000000;0,000000;0,000000;0,000000;0,000000;0,000000;0,000000;0,000000;0,000000;0,000000;0,000000;0,000000;0,000000;0,000000;0,000000;0,000000;0,000000;0,000000;0,000000;0,000000;0,000000;0,000000;0,000000;
67;;;;;;;;;;;;;;;;;;;;;;;;;;;;;;;;;;;;;;;;;;;;;;;;;;;;;;;;;;;;;;;;;;;1,000000;0,444444;0,444444;0,333333;0,333333;0,333333;0,444444;0,444444;0,291667;0,277778;0,291667;0,366442;0,416667;0,373830;0,500000;0,426314;0,277778;0,277778;0,777778;0,310952;0,310952;0,277778;0,416667;0,777778;0,333333;0,777778;0,277778;0,277778;0,277778;0,444444;0,444444;0,444444;0,277778;0,277778;0,277778;0,277778;
68;;;;;;;;;;;;;;;;;;;;;;;;;;;;;;;;;;;;;;;;;;;;;;;;;;;;;;;;;;;;;;;;;;;;1,000000;0,500000;0,416667;0,416667;0,416667;0,500000;0,500000;0,833333;0,750000;0,833333;0,495110;0,500000;0,483644;0,555556;0,506432;0,375000;0,750000;0,750000;0,429523;0,429523;0,375000;0,500000;0,750000;0,416667;0,750000;0,375000;0,375000;0,375000;0,500000;0,500000;0,500000;0,375000;0,375000;0,375000;0,375000;
69;;;;;;;;;;;;;;;;;;;;;;;;;;;;;;;;;;;;;;;;;;;;;;;;;;;;;;;;;;;;;;;;;;;;;1,000000;0,416667;0,416667;0,416667;0,500000;0,500000;0,416667;0,375000;0,416667;0,990219;0,500000;0,892428;0,555556;0,506432;0,375000;0,375000;0,750000;0,429523;0,429523;0,375000;0,500000;0,750000;0,416667;0,750000;0,375000;0,375000;0,375000;0,500000;0,500000;1,000000;0,375000;0,375000;0,375000;0,375000;
70;;;;;;;;;;;;;;;;;;;;;;;;;;;;;;;;;;;;;;;;;;;;;;;;;;;;;;;;;;;;;;;;;;;;;;1,000000;0,666667;0,666667;0,416667;0,416667;0,305556;0,291667;0,305556;0,352252;0,388889;0,358644;0,444444;0,395321;0,291667;0,291667;0,666667;0,318412;0,318412;0,291667;0,388889;0,666667;0,333333;0,666667;0,291667;0,291667;0,291667;0,416667;0,416667;0,416667;0,291667;0,291667;0,291667;0,291667;
71;;;;;;;;;;;;;;;;;;;;;;;;;;;;;;;;;;;;;;;;;;;;;;;;;;;;;;;;;;;;;;;;;;;;;;;1,000000;0,666667;0,416667;0,416667;0,305556;0,291667;0,305556;0,352252;0,388889;0,358644;0,444444;0,395321;0,291667;0,291667;0,666667;0,318412;0,318412;0,291667;0,388889;0,666667;0,333333;0,666667;0,291667;0,291667;0,291667;0,416667;0,416667;0,416667;0,291667;0,291667;0,291667;0,291667;
72;;;;;;;;;;;;;;;;;;;;;;;;;;;;;;;;;;;;;;;;;;;;;;;;;;;;;;;;;;;;;;;;;;;;;;;;1,000000;0,416667;0,416667;0,305556;0,291667;0,305556;0,352252;0,388889;0,358644;0,444444;0,395321;0,291667;0,291667;0,666667;0,318412;0,318412;0,291667;0,388889;0,666667;0,333333;0,666667;0,291667;0,291667;0,291667;0,416667;0,416667;0,416667;0,291667;0,291667;0,291667;0,291667;
73;;;;;;;;;;;;;;;;;;;;;;;;;;;;;;;;;;;;;;;;;;;;;;;;;;;;;;;;;;;;;;;;;;;;;;;;;1,000000;0,500000;0,416667;0,375000;0,416667;0,495110;0,500000;0,483644;0,555556;0,506432;0,375000;0,375000;0,750000;0,429523;0,429523;0,375000;0,500000;0,750000;0,416667;0,750000;0,375000;0,375000;0,375000;0,500000;0,500000;0,500000;0,375000;0,375000;0,375000;0,375000;
74;;;;;;;;;;;;;;;;;;;;;;;;;;;;;;;;;;;;;;;;;;;;;;;;;;;;;;;;;;;;;;;;;;;;;;;;;;1,000000;0,416667;0,375000;0,416667;0,495110;0,500000;0,483644;0,555556;0,506432;0,375000;0,375000;0,750000;0,429523;0,429523;0,375000;0,500000;0,750000;0,416667;0,750000;0,375000;0,375000;0,375000;0,500000;0,500000;0,500000;0,375000;0,375000;0,375000;0,375000;
75;;;;;;;;;;;;;;;;;;;;;;;;;;;;;;;;;;;;;;;;;;;;;;;;;;;;;;;;;;;;;;;;;;;;;;;;;;;1,000000;0,750000;0,750000;0,303942;0,375000;0,323830;0,458333;0,384648;0,250000;0,750000;0,750000;0,269285;0,269285;0,250000;0,375000;0,750000;0,305556;0,750000;0,250000;0,250000;0,250000;0,416667;0,416667;0,416667;0,250000;0,250000;0,250000;0,250000;
76;;;;;;;;;;;;;;;;;;;;;;;;;;;;;;;;;;;;;;;;;;;;;;;;;;;;;;;;;;;;;;;;;;;;;;;;;;;;1,000000;0,750000;0,280824;0,333333;0,296144;0,388889;0,339765;0,250000;1,000000;0,625000;0,262857;0,262857;0,250000;0,333333;0,625000;0,291667;0,625000;0,250000;0,250000;0,250000;0,375000;0,375000;0,375000;0,250000;0,250000;0,250000;0,250000;
77;;;;;;;;;;;;;;;;;;;;;;;;;;;;;;;;;;;;;;;;;;;;;;;;;;;;;;;;;;;;;;;;;;;;;;;;;;;;;1,000000;0,303942;0,375000;0,323830;0,458333;0,384648;0,250000;0,750000;0,750000;0,269285;0,269285;0,250000;0,375000;0,750000;0,305556;0,750000;0,250000;0,250000;0,250000;0,416667;0,416667;0,416667;0,250000;0,250000;0,250000;0,250000;
78;;;;;;;;;;;;;;;;;;;;;;;;;;;;;;;;;;;;;;;;;;;;;;;;;;;;;;;;;;;;;;;;;;;;;;;;;;;;;;1,000000;0,491442;0,690319;0,884470;0,505913;0,280824;0,280824;0,923681;0,332869;0,332869;0,280824;0,491442;0,923681;0,352252;0,923681;0,280824;0,280824;0,280824;0,495110;0,495110;0,990219;0,280824;0,280824;0,280824;0,280824;
79;;;;;;;;;;;;;;;;;;;;;;;;;;;;;;;;;;;;;;;;;;;;;;;;;;;;;;;;;;;;;;;;;;;;;;;;;;;;;;;1,000000;0,473830;0,583333;0,509648;0,333333;0,333333;0,833333;0,394285;0,394285;0,333333;0,500000;0,833333;0,388889;0,833333;0,666667;0,666667;0,666667;1,000000;0,500000;0,500000;0,333333;0,333333;0,333333;0,333333;
80;;;;;;;;;;;;;;;;;;;;;;;;;;;;;;;;;;;;;;;;;;;;;;;;;;;;;;;;;;;;;;;;;;;;;;;;;;;;;;;;1,000000;0,573830;0,485407;0,296144;0,296144;0,858644;0,346972;0,346972;0,296144;0,473830;0,858644;0,358644;0,858644;0,296144;0,296144;0,296144;0,483644;0,483644;0,892428;0,296144;0,296144;0,296144;0,296144;
81;;;;;;;;;;;;;;;;;;;;;;;;;;;;;;;;;;;;;;;;;;;;;;;;;;;;;;;;;;;;;;;;;;;;;;;;;;;;;;;;;1,000000;0,592981;0,388889;0,388889;0,888889;0,477618;0,477618;0,388889;0,583333;0,888889;0,444444;0,888889;0,388889;0,388889;0,388889;0,555556;0,555556;0,555556;0,388889;0,388889;0,388889;0,388889;
82;;;;;;;;;;;;;;;;;;;;;;;;;;;;;;;;;;;;;;;;;;;;;;;;;;;;;;;;;;;;;;;;;;;;;;;;;;;;;;;;;;1,000000;0,339765;0,339765;0,839765;0,403933;0,403933;0,339765;0,509648;0,839765;0,694859;0,839765;0,339765;0,339765;0,339765;0,506432;0,506432;0,506432;0,339765;0,339765;0,339765;0,339765;
83;;;;;;;;;;;;;;;;;;;;;;;;;;;;;;;;;;;;;;;;;;;;;;;;;;;;;;;;;;;;;;;;;;;;;;;;;;;;;;;;;;;1,000000;0,250000;0,625000;0,262857;0,262857;0,250000;0,333333;0,625000;0,291667;0,625000;0,250000;0,250000;0,250000;0,375000;0,375000;0,375000;0,250000;0,250000;0,250000;0,250000;
84;;;;;;;;;;;;;;;;;;;;;;;;;;;;;;;;;;;;;;;;;;;;;;;;;;;;;;;;;;;;;;;;;;;;;;;;;;;;;;;;;;;;1,000000;0,625000;0,262857;0,262857;0,250000;0,333333;0,625000;0,291667;0,625000;0,250000;0,250000;0,250000;0,375000;0,375000;0,375000;0,250000;0,250000;0,250000;0,250000;
85;;;;;;;;;;;;;;;;;;;;;;;;;;;;;;;;;;;;;;;;;;;;;;;;;;;;;;;;;;;;;;;;;;;;;;;;;;;;;;;;;;;;;1,000000;0,762857;0,762857;0,625000;0,833333;1,000000;0,666667;1,000000;0,625000;0,625000;0,625000;0,750000;0,750000;0,750000;0,625000;0,625000;0,625000;0,625000;
86;;;;;;;;;;;;;;;;;;;;;;;;;;;;;;;;;;;;;;;;;;;;;;;;;;;;;;;;;;;;;;;;;;;;;;;;;;;;;;;;;;;;;;1,000000;0,713184;0,788570;0,394285;0,762857;0,318412;0,762857;0,262857;0,262857;0,262857;0,429523;0,429523;0,429523;0,262857;0,262857;0,262857;0,262857;
87;;;;;;;;;;;;;;;;;;;;;;;;;;;;;;;;;;;;;;;;;;;;;;;;;;;;;;;;;;;;;;;;;;;;;;;;;;;;;;;;;;;;;;;1,000000;0,788570;0,394285;0,762857;0,318412;0,762857;0,262857;0,262857;0,262857;0,429523;0,429523;0,429523;0,262857;0,262857;0,262857;0,262857;
88;;;;;;;;;;;;;;;;;;;;;;;;;;;;;;;;;;;;;;;;;;;;;;;;;;;;;;;;;;;;;;;;;;;;;;;;;;;;;;;;;;;;;;;;1,000000;0,333333;0,625000;0,291667;0,625000;0,250000;0,250000;0,250000;0,375000;0,375000;0,375000;0,250000;0,250000;0,250000;0,250000;
89;;;;;;;;;;;;;;;;;;;;;;;;;;;;;;;;;;;;;;;;;;;;;;;;;;;;;;;;;;;;;;;;;;;;;;;;;;;;;;;;;;;;;;;;;1,000000;0,833333;0,388889;0,833333;0,333333;0,333333;0,333333;0,500000;0,500000;0,500000;0,333333;0,333333;0,333333;0,333333;
90;;;;;;;;;;;;;;;;;;;;;;;;;;;;;;;;;;;;;;;;;;;;;;;;;;;;;;;;;;;;;;;;;;;;;;;;;;;;;;;;;;;;;;;;;;1,000000;0,666667;1,000000;0,625000;0,625000;0,625000;0,750000;0,750000;0,750000;0,625000;0,625000;0,625000;0,625000;
91;;;;;;;;;;;;;;;;;;;;;;;;;;;;;;;;;;;;;;;;;;;;;;;;;;;;;;;;;;;;;;;;;;;;;;;;;;;;;;;;;;;;;;;;;;;1,000000;0,666667;0,291667;0,291667;0,291667;0,416667;0,416667;0,416667;0,291667;0,291667;0,291667;0,291667;
92;;;;;;;;;;;;;;;;;;;;;;;;;;;;;;;;;;;;;;;;;;;;;;;;;;;;;;;;;;;;;;;;;;;;;;;;;;;;;;;;;;;;;;;;;;;;1,000000;0,625000;0,625000;0,625000;0,750000;0,750000;0,750000;0,625000;0,625000;0,625000;0,625000;
93;;;;;;;;;;;;;;;;;;;;;;;;;;;;;;;;;;;;;;;;;;;;;;;;;;;;;;;;;;;;;;;;;;;;;;;;;;;;;;;;;;;;;;;;;;;;;1,000000;0,750000;0,750000;0,750000;0,375000;0,375000;0,250000;0,250000;0,250000;0,250000;
94;;;;;;;;;;;;;;;;;;;;;;;;;;;;;;;;;;;;;;;;;;;;;;;;;;;;;;;;;;;;;;;;;;;;;;;;;;;;;;;;;;;;;;;;;;;;;;1,000000;0,750000;0,750000;0,375000;0,375000;0,250000;0,250000;0,250000;0,250000;
95;;;;;;;;;;;;;;;;;;;;;;;;;;;;;;;;;;;;;;;;;;;;;;;;;;;;;;;;;;;;;;;;;;;;;;;;;;;;;;;;;;;;;;;;;;;;;;;1,000000;0,750000;0,375000;0,375000;0,250000;0,250000;0,250000;0,250000;
96;;;;;;;;;;;;;;;;;;;;;;;;;;;;;;;;;;;;;;;;;;;;;;;;;;;;;;;;;;;;;;;;;;;;;;;;;;;;;;;;;;;;;;;;;;;;;;;;1,000000;0,500000;0,500000;0,375000;0,375000;0,375000;0,375000;
97;;;;;;;;;;;;;;;;;;;;;;;;;;;;;;;;;;;;;;;;;;;;;;;;;;;;;;;;;;;;;;;;;;;;;;;;;;;;;;;;;;;;;;;;;;;;;;;;;1,000000;0,500000;0,375000;0,375000;0,375000;0,375000;
98;;;;;;;;;;;;;;;;;;;;;;;;;;;;;;;;;;;;;;;;;;;;;;;;;;;;;;;;;;;;;;;;;;;;;;;;;;;;;;;;;;;;;;;;;;;;;;;;;;1,000000;0,375000;0,375000;0,375000;0,375000;
99;;;;;;;;;;;;;;;;;;;;;;;;;;;;;;;;;;;;;;;;;;;;;;;;;;;;;;;;;;;;;;;;;;;;;;;;;;;;;;;;;;;;;;;;;;;;;;;;;;;1,000000;0,750000;0,750000;0,750000;
100;;;;;;;;;;;;;;;;;;;;;;;;;;;;;;;;;;;;;;;;;;;;;;;;;;;;;;;;;;;;;;;;;;;;;;;;;;;;;;;;;;;;;;;;;;;;;;;;;;;;1,000000;0,750000;0,750000;
101;;;;;;;;;;;;;;;;;;;;;;;;;;;;;;;;;;;;;;;;;;;;;;;;;;;;;;;;;;;;;;;;;;;;;;;;;;;;;;;;;;;;;;;;;;;;;;;;;;;;;1,000000;0,750000;
102;;;;;;;;;;;;;;;;;;;;;;;;;;;;;;;;;;;;;;;;;;;;;;;;;;;;;;;;;;;;;;;;;;;;;;;;;;;;;;;;;;;;;;;;;;;;;;;;;;;;;;1,000000;
