;1; 2; 3; 4; 5; 6; 7; 8; 9; 10; 11; 12; 13; 14; 15; 16; 17; 18; 19; 20; 21; 22; 23; 24; 25; 26; 27; 28; 29; 30; 31; 32; 33; 34; 35; 36; 37; 38; 39; 40; 41; 42; 43; 44; 45; 46; 47; 48; 49; 50; 51; 52; 53; 54; 55; 56; 57; 58; 59; 60; 61; 62; 63; 64; 65; 66; 67; 68; 69; 70; 71; 72; 73; 74; 75; 76; 77; 78; 79; 80; 81; 82; 83; 84; 85; 86; 87; 88; 89; 90; 91; 92; 93; 94; 95; 96; 97; 98; 99; 100; 101; 102
1;1,000000;0,389998;0,393825;0,362948;0,000000;0,287667;0,273887;0,265950;0,389998;0,431469;0,300307;0,398129;0,401385;0,401385;0,401385;0,405921;0,380578;0,373669;0,373669;0,201334;0,411587;0,379984;0,362399;0,312530;0,321882;0,205522;0,258409;0,000000;0,147592;0,000000;0,390344;0,370024;0,383306;0,361624;0,348904;0,348904;0,355598;0,293053;0,238836;0,286485;0,388428;0,272555;0,272555;0,286485;0,424844;0,424844;0,357211;0,000000;0,000000;0,000000;0,000000;0,392685;0,395216;0,419869;0,419869;0,429422;0,429422;0,429422;0,260455;0,342716;0,211676;0,360928;0,171966;0,171966;0,000000;0,171966;0,361164;0,261983;0,286485;0,350902;0,350902;0,350902;0,260301;0,260301;0,402253;0,400730;0,402253;0,315490;0,300307;0,354573;0,219204;0,313074;0,398129;0,400730;0,000000;0,383584;0,383584;0,404635;0,272555;0,000000;0,352996;0,000000;0,429422;0,429422;0,429422;0,300307;0,265950;0,286485;0,397758;0,397758;0,397758;0,397758;
2;;1,000000;0,666667;0,599982;0,666667;0,754442;0,416667;0,416667;1,000000;0,404642;0,416667;0,291667;0,291667;0,291667;0,291667;0,572029;0,587775;0,587775;0,587775;0,512386;0,333333;0,587775;0,572321;0,416667;0,432584;0,500000;0,452381;0,666667;0,575758;0,666667;0,333333;0,356579;0,356579;0,369684;0,333333;0,333333;0,333333;0,422859;0,500000;0,416667;0,604442;0,416667;0,416667;0,416667;0,504442;0,504442;0,369684;0,000000;0,000000;0,000000;0,000000;0,333333;0,364971;0,310952;0,310952;0,291667;0,291667;0,291667;0,416667;0,431743;0,500000;0,341667;0,000000;0,000000;0,293534;0,000000;0,666667;0,416667;0,416667;0,333333;0,333333;0,333333;0,416667;0,416667;0,291667;0,291667;0,291667;0,399550;0,416667;0,383954;0,500000;0,426314;0,291667;0,291667;0,666667;0,310952;0,310952;0,291667;0,416667;0,666667;0,333333;0,666667;0,291667;0,291667;0,291667;0,416667;0,416667;0,416667;0,291667;0,291667;0,291667;0,291667;
3;;;1,000000;0,600018;0,666667;0,754442;0,416667;0,416667;0,666667;0,404642;0,416667;0,291667;0,291667;0,291667;0,291667;0,572029;0,587775;0,587775;0,587775;0,512386;0,333333;0,587775;0,572321;0,416667;0,432584;0,500000;0,452381;0,666667;0,575758;0,666667;0,333333;0,356579;0,356579;0,369684;0,333333;0,333333;0,333333;0,422859;0,500000;0,416667;0,604442;0,416667;0,416667;0,416667;0,504442;0,504442;0,369684;0,000000;0,000000;0,000000;0,000000;0,333333;0,364971;0,310952;0,310952;0,291667;0,291667;0,291667;0,416667;0,431743;0,500000;0,341667;0,000000;0,000000;0,293534;0,000000;0,666667;0,416667;0,416667;0,333333;0,333333;0,333333;0,416667;0,416667;0,291667;0,291667;0,291667;0,399550;0,416667;0,383954;0,500000;0,426314;0,291667;0,291667;0,666667;0,310952;0,310952;0,291667;0,416667;0,666667;0,333333;0,666667;0,291667;0,291667;0,291667;0,416667;0,416667;0,416667;0,291667;0,291667;0,291667;0,291667;
4;;;;1,000000;0,740635;0,490635;0,490635;0,490635;0,599982;0,478611;0,490635;0,365635;0,365635;0,365635;0,365635;0,671035;0,623236;0,587137;0,587137;0,586354;0,407302;0,597578;0,704217;0,490635;0,506553;0,573968;0,526349;0,740635;0,649726;0,740635;0,407302;0,430547;0,430547;0,443652;0,407302;0,407302;0,407302;0,496828;0,573968;0,490635;0,645270;0,490635;0,490635;0,490635;0,677225;0,677225;0,443652;0,000000;0,000000;0,000000;0,000000;0,407302;0,438939;0,384920;0,384920;0,365635;0,365635;0,365635;0,490635;0,505712;0,573968;0,415635;0,000000;0,000000;0,367502;0,000000;0,797038;0,490635;0,490635;0,407302;0,407302;0,407302;0,490635;0,490635;0,365635;0,365635;0,365635;0,473518;0,490635;0,457922;0,573968;0,500283;0,365635;0,365635;0,740635;0,384920;0,384920;0,365635;0,490635;0,740635;0,407302;0,740635;0,365635;0,365635;0,365635;0,490635;0,490635;0,490635;0,365635;0,365635;0,365635;0,365635;
5;;;;;1,000000;0,750000;0,750000;0,750000;0,666667;0,737975;0,750000;0,625000;0,625000;0,625000;0,625000;0,658794;0,666667;0,666667;0,666667;0,845719;0,666667;0,666667;0,698304;0,750000;0,765917;0,833333;0,785714;1,000000;0,909091;1,000000;0,666667;0,689912;0,689912;0,703017;0,666667;0,666667;0,666667;0,756193;0,833333;0,750000;0,675000;0,750000;0,750000;0,750000;0,625000;0,625000;0,703017;0,000000;0,000000;0,000000;0,000000;0,666667;0,698304;0,644285;0,644285;0,625000;0,625000;0,625000;0,750000;0,765077;0,833333;0,675000;0,000000;0,000000;0,626867;0,000000;0,666667;0,750000;0,750000;0,666667;0,666667;0,666667;0,750000;0,750000;0,625000;0,625000;0,625000;0,732883;0,750000;0,717287;0,833333;0,759648;0,625000;0,625000;1,000000;0,644285;0,644285;0,625000;0,750000;1,000000;0,666667;1,000000;0,625000;0,625000;0,625000;0,750000;0,750000;0,750000;0,625000;0,625000;0,625000;0,625000;
6;;;;;;1,000000;0,500000;0,500000;0,754442;0,487975;0,500000;0,375000;0,375000;0,375000;0,375000;0,817588;0,833333;0,833333;0,833333;0,595719;0,416667;0,833333;0,817879;0,500000;0,515917;0,583333;0,535714;0,750000;0,659091;0,750000;0,416667;0,439912;0,439912;0,453017;0,416667;0,416667;0,416667;0,506193;0,583333;0,500000;0,850000;0,500000;0,500000;0,500000;0,750000;0,750000;0,453017;0,000000;0,000000;0,000000;0,000000;0,416667;0,448304;0,394285;0,394285;0,375000;0,375000;0,375000;0,500000;0,515077;0,583333;0,425000;0,000000;0,000000;0,376867;0,000000;0,416667;0,500000;0,500000;0,416667;0,416667;0,416667;0,500000;0,500000;0,375000;0,375000;0,375000;0,482883;0,500000;0,467287;0,583333;0,509648;0,375000;0,375000;0,750000;0,394285;0,394285;0,375000;0,500000;0,750000;0,416667;0,750000;0,375000;0,375000;0,375000;0,500000;0,500000;0,500000;0,375000;0,375000;0,375000;0,375000;
7;;;;;;;1,000000;0,500000;0,416667;0,487975;0,500000;0,375000;0,375000;0,375000;0,375000;0,408794;0,416667;0,416667;0,416667;0,595719;0,416667;0,416667;0,448304;0,500000;0,515917;0,583333;0,535714;0,750000;0,659091;0,750000;0,416667;0,439912;0,439912;0,453017;0,416667;0,416667;0,416667;0,506193;0,583333;0,500000;0,425000;0,500000;0,500000;0,500000;0,375000;0,375000;0,453017;0,000000;0,000000;0,000000;0,000000;0,416667;0,448304;0,394285;0,394285;0,375000;0,375000;0,375000;0,500000;0,515077;0,583333;0,425000;0,000000;0,000000;0,376867;0,000000;0,416667;0,500000;0,500000;0,416667;0,416667;0,416667;0,500000;0,500000;0,375000;0,375000;0,375000;0,482883;0,500000;0,467287;0,583333;0,509648;0,375000;0,375000;0,750000;0,394285;0,394285;0,375000;0,500000;0,750000;0,416667;0,750000;0,375000;0,375000;0,375000;0,500000;0,500000;0,500000;0,375000;0,375000;0,375000;0,375000;
8;;;;;;;;1,000000;0,416667;0,487975;0,500000;0,375000;0,375000;0,375000;0,375000;0,408794;0,416667;0,416667;0,416667;0,595719;0,416667;0,416667;0,448304;0,500000;0,515917;0,583333;0,535714;0,750000;0,659091;0,750000;0,416667;0,439912;0,439912;0,453017;0,416667;0,416667;0,416667;0,506193;0,583333;0,500000;0,425000;0,500000;0,500000;0,500000;0,375000;0,375000;0,453017;0,000000;0,000000;0,000000;0,000000;0,416667;0,448304;0,394285;0,394285;0,375000;0,375000;0,375000;0,500000;0,515077;0,583333;0,425000;0,000000;0,000000;0,376867;0,000000;0,416667;0,500000;0,500000;0,416667;0,416667;0,416667;0,500000;0,500000;0,375000;0,375000;0,375000;0,482883;0,500000;0,467287;0,583333;0,509648;0,375000;0,375000;0,750000;0,394285;0,394285;0,375000;0,500000;0,750000;0,416667;0,750000;0,375000;0,375000;0,375000;0,500000;1,000000;0,500000;0,375000;0,375000;0,375000;0,375000;
9;;;;;;;;;1,000000;0,404642;0,416667;0,291667;0,291667;0,291667;0,291667;0,572029;0,587775;0,587775;0,587775;0,512386;0,333333;0,587775;0,572321;0,416667;0,432584;0,500000;0,452381;0,666667;0,575758;0,666667;0,333333;0,356579;0,356579;0,369684;0,333333;0,333333;0,333333;0,422859;0,500000;0,416667;0,604442;0,416667;0,416667;0,416667;0,504442;0,504442;0,369684;0,000000;0,000000;0,000000;0,000000;0,333333;0,364971;0,310952;0,310952;0,291667;0,291667;0,291667;0,416667;0,431743;0,500000;0,341667;0,000000;0,000000;0,293534;0,000000;0,666667;0,416667;0,416667;0,333333;0,333333;0,333333;0,416667;0,416667;0,291667;0,291667;0,291667;0,399550;0,416667;0,383954;0,500000;0,426314;0,291667;0,291667;0,666667;0,310952;0,310952;0,291667;0,416667;0,666667;0,333333;0,666667;0,291667;0,291667;0,291667;0,416667;0,416667;0,416667;0,291667;0,291667;0,291667;0,291667;
10;;;;;;;;;;1,000000;0,487975;0,362975;0,362975;0,362975;0,362975;0,396769;0,404642;0,404642;0,404642;0,663728;0,501593;0,404642;0,436280;0,487975;0,503893;0,571309;0,523690;0,737975;0,647066;0,737975;0,597890;0,576816;0,528363;0,554158;0,579636;0,579636;0,579629;0,667445;0,571309;0,487975;0,412975;0,487975;0,487975;0,487975;0,362975;0,362975;0,564160;0,000000;0,000000;0,000000;0,000000;0,607802;0,589278;0,617737;0,617737;0,628091;0,628091;0,628091;0,487975;0,503052;0,571309;0,412975;0,000000;0,000000;0,364842;0,000000;0,404642;0,487975;0,487975;0,404642;0,404642;0,404642;0,487975;0,487975;0,362975;0,362975;0,362975;0,470859;0,487975;0,455262;0,571309;0,620392;0,362975;0,362975;0,737975;0,382261;0,382261;0,362975;0,487975;0,737975;0,578103;0,737975;0,628091;0,628091;0,628091;0,487975;0,487975;0,487975;0,362975;0,362975;0,362975;0,362975;
11;;;;;;;;;;;1,000000;0,375000;0,375000;0,375000;0,375000;0,408794;0,416667;0,416667;0,416667;0,918983;0,753884;0,416667;0,448304;0,500000;0,515917;1,000000;1,000000;0,750000;0,659091;0,750000;0,833333;0,879824;0,752837;0,906035;0,416667;0,416667;0,416667;0,506193;0,583333;0,500000;0,425000;0,500000;0,500000;0,500000;0,375000;0,375000;0,906035;0,000000;0,000000;0,000000;0,000000;0,833333;0,755028;0,788570;0,788570;0,750000;0,750000;0,750000;0,500000;0,515077;0,583333;0,425000;0,000000;0,000000;0,376867;0,000000;0,416667;0,500000;0,500000;0,416667;0,416667;0,416667;0,500000;0,500000;0,375000;0,375000;0,375000;0,482883;1,000000;0,467287;0,583333;0,509648;0,375000;0,375000;0,750000;0,394285;0,394285;0,375000;0,500000;0,750000;0,416667;0,750000;0,750000;0,750000;0,750000;1,000000;0,500000;0,500000;0,375000;0,375000;0,375000;0,375000;
12;;;;;;;;;;;;1,000000;0,750000;0,750000;0,750000;0,283794;0,291667;0,291667;0,291667;0,470719;0,291667;0,291667;0,323304;0,375000;0,390917;0,458333;0,410714;0,625000;0,534091;0,625000;0,291667;0,314912;0,314912;0,328017;0,291667;0,291667;0,291667;0,381193;0,458333;0,375000;0,300000;0,375000;0,375000;0,375000;0,250000;0,250000;0,328017;0,000000;0,000000;0,000000;0,000000;0,291667;0,323304;0,269285;0,269285;0,250000;0,250000;0,250000;0,375000;0,390077;0,458333;0,300000;0,000000;0,000000;0,251867;0,000000;0,291667;0,375000;0,375000;0,291667;0,291667;0,291667;0,375000;0,375000;0,250000;0,250000;0,250000;0,357883;0,375000;0,342287;0,458333;0,384648;1,000000;0,250000;0,625000;0,269285;0,269285;0,250000;0,375000;0,625000;0,291667;0,625000;0,250000;0,250000;0,250000;0,375000;0,375000;0,375000;0,250000;0,250000;0,250000;0,250000;
13;;;;;;;;;;;;;1,000000;0,750000;0,750000;0,283794;0,291667;0,291667;0,291667;0,470719;0,291667;0,291667;0,323304;0,375000;0,390917;0,458333;0,410714;0,625000;0,534091;0,625000;0,291667;0,314912;0,314912;0,328017;0,291667;0,291667;0,291667;0,381193;0,458333;0,375000;0,300000;0,375000;0,375000;0,375000;0,250000;0,250000;0,328017;0,000000;0,000000;0,000000;0,000000;0,291667;0,323304;0,269285;0,269285;0,250000;0,250000;0,250000;0,375000;0,390077;0,458333;0,300000;0,000000;0,000000;0,251867;0,000000;0,291667;0,375000;0,375000;0,291667;0,291667;0,291667;0,375000;0,375000;0,250000;0,250000;0,250000;0,357883;0,375000;0,342287;0,458333;0,384648;0,750000;0,250000;0,625000;0,269285;0,269285;0,250000;0,375000;0,625000;0,291667;0,625000;0,250000;0,250000;0,250000;0,375000;0,375000;0,375000;0,250000;0,250000;0,250000;0,250000;
14;;;;;;;;;;;;;;1,000000;0,750000;0,283794;0,291667;0,291667;0,291667;0,470719;0,291667;0,291667;0,323304;0,375000;0,390917;0,458333;0,410714;0,625000;0,534091;0,625000;0,291667;0,314912;0,314912;0,328017;0,291667;0,291667;0,291667;0,381193;0,458333;0,375000;0,300000;0,375000;0,375000;0,375000;0,250000;0,250000;0,328017;0,000000;0,000000;0,000000;0,000000;0,291667;0,323304;0,269285;0,269285;0,250000;0,250000;0,250000;0,375000;0,390077;0,458333;0,300000;0,000000;0,000000;0,251867;0,000000;0,291667;0,375000;0,375000;0,291667;0,291667;0,291667;0,375000;0,375000;0,250000;0,250000;0,250000;0,357883;0,375000;0,342287;0,458333;0,384648;0,750000;0,250000;0,625000;0,269285;0,269285;0,250000;0,375000;0,625000;0,291667;0,625000;0,250000;0,250000;0,250000;0,375000;0,375000;0,375000;0,250000;0,250000;0,250000;0,250000;
15;;;;;;;;;;;;;;;1,000000;0,283794;0,291667;0,291667;0,291667;0,470719;0,291667;0,291667;0,323304;0,375000;0,390917;0,458333;0,410714;0,625000;0,534091;0,625000;0,291667;0,314912;0,314912;0,328017;0,291667;0,291667;0,291667;0,381193;0,458333;0,375000;0,300000;0,375000;0,375000;0,375000;0,250000;0,250000;0,328017;0,000000;0,000000;0,000000;0,000000;0,291667;0,323304;0,269285;0,269285;0,250000;0,250000;0,250000;0,375000;0,390077;0,458333;0,300000;0,000000;0,000000;0,251867;0,000000;0,291667;0,375000;0,375000;0,291667;0,291667;0,291667;0,375000;0,375000;0,250000;0,250000;0,250000;0,357883;0,375000;0,342287;0,458333;0,384648;0,750000;0,250000;0,625000;0,269285;0,269285;0,250000;0,375000;0,625000;0,291667;0,625000;0,250000;0,250000;0,250000;0,375000;0,375000;0,375000;0,250000;0,250000;0,250000;0,250000;
16;;;;;;;;;;;;;;;;1,000000;0,650921;0,650921;0,650921;0,504513;0,325461;0,853526;0,729225;0,408794;0,424711;0,492127;0,444508;0,658794;0,567885;0,658794;0,325461;0,348706;0,348706;0,361811;0,325461;0,325461;0,325461;0,414987;0,492127;0,408794;0,776129;0,408794;0,408794;0,408794;0,728545;0,728545;0,361811;0,000000;0,000000;0,000000;0,000000;0,325461;0,357098;0,303079;0,303079;0,283794;0,283794;0,283794;0,408794;0,423871;0,492127;0,333794;0,000000;0,000000;0,285661;0,000000;0,325461;0,408794;0,408794;0,325461;0,325461;0,325461;0,408794;0,408794;0,283794;0,283794;0,283794;0,391677;0,408794;0,376081;0,492127;0,418442;0,283794;0,283794;0,658794;0,303079;0,303079;0,283794;0,408794;0,658794;0,325461;0,658794;0,283794;0,283794;0,283794;0,408794;0,408794;0,408794;0,283794;0,283794;0,283794;0,283794;
17;;;;;;;;;;;;;;;;;1,000000;0,666667;0,666667;0,512386;0,333333;0,666667;0,875690;0,416667;0,432584;0,500000;0,452381;0,666667;0,575758;0,666667;0,333333;0,356579;0,356579;0,369684;0,333333;0,333333;0,333333;0,422859;0,500000;0,416667;0,922646;0,416667;0,416667;0,416667;0,875000;0,875000;0,369684;0,000000;0,000000;0,000000;0,000000;0,333333;0,364971;0,310952;0,310952;0,291667;0,291667;0,291667;0,416667;0,431743;0,500000;0,341667;0,000000;0,000000;0,293534;0,000000;0,333333;0,416667;0,416667;0,333333;0,333333;0,333333;0,416667;0,416667;0,291667;0,291667;0,291667;0,399550;0,416667;0,383954;0,500000;0,426314;0,291667;0,291667;0,666667;0,310952;0,310952;0,291667;0,416667;0,666667;0,333333;0,666667;0,291667;0,291667;0,291667;0,416667;0,416667;0,416667;0,291667;0,291667;0,291667;0,291667;
18;;;;;;;;;;;;;;;;;;1,000000;0,666667;0,512386;0,333333;0,666667;0,651212;0,416667;0,432584;0,500000;0,452381;0,666667;0,575758;0,666667;0,333333;0,356579;0,356579;0,369684;0,333333;0,333333;0,333333;0,422859;0,500000;0,416667;0,683333;0,416667;0,416667;0,416667;0,583333;0,583333;0,369684;0,000000;0,000000;0,000000;0,000000;0,333333;0,364971;0,310952;0,310952;0,291667;0,291667;0,291667;0,416667;0,431743;0,500000;0,341667;0,000000;0,000000;0,293534;0,000000;0,333333;0,416667;0,416667;0,333333;0,333333;0,333333;0,416667;0,416667;0,291667;0,291667;0,291667;0,399550;0,416667;0,383954;0,500000;0,426314;0,291667;0,291667;0,666667;0,310952;0,310952;0,291667;0,416667;0,666667;0,333333;0,666667;0,291667;0,291667;0,291667;0,416667;0,416667;0,416667;0,291667;0,291667;0,291667;0,291667;
19;;;;;;;;;;;;;;;;;;;1,000000;0,512386;0,333333;0,666667;0,651212;0,416667;0,432584;0,500000;0,452381;0,666667;0,575758;0,666667;0,333333;0,356579;0,356579;0,369684;0,333333;0,333333;0,333333;0,422859;0,500000;0,416667;0,683333;0,416667;0,416667;0,416667;0,583333;0,583333;0,369684;0,000000;0,000000;0,000000;0,000000;0,333333;0,364971;0,310952;0,310952;0,291667;0,291667;0,291667;0,416667;0,431743;0,500000;0,341667;0,000000;0,000000;0,293534;0,000000;0,333333;0,416667;0,416667;0,333333;0,333333;0,333333;0,416667;0,416667;0,291667;0,291667;0,291667;0,399550;0,416667;0,383954;0,500000;0,426314;0,291667;0,291667;0,666667;0,310952;0,310952;0,291667;0,416667;0,666667;0,333333;0,666667;0,291667;0,291667;0,291667;0,416667;0,416667;0,416667;0,291667;0,291667;0,291667;0,291667;
20;;;;;;;;;;;;;;;;;;;;1,000000;0,672867;0,512386;0,544023;0,595719;0,611636;0,918983;0,918983;0,845719;0,754810;0,845719;0,752317;0,798807;0,671821;0,825018;0,750759;0,750759;0,512386;0,601912;0,679052;0,595719;0,520719;0,595719;0,595719;0,595719;0,470719;0,470719;0,825018;0,000000;0,000000;0,000000;0,000000;0,752317;0,674012;0,707554;0,707554;0,668983;0,668983;0,668983;0,595719;0,610796;0,679052;0,520719;0,000000;0,000000;0,472586;0,000000;0,512386;0,595719;0,595719;0,512386;0,512386;0,512386;0,595719;0,595719;0,470719;0,470719;0,470719;0,578602;0,918983;0,563006;0,679052;0,605367;0,470719;0,470719;0,845719;0,490004;0,490004;0,470719;0,595719;0,845719;0,512386;0,845719;0,668983;0,668983;0,668983;0,918983;0,595719;0,595719;0,470719;0,470719;0,470719;0,470719;
21;;;;;;;;;;;;;;;;;;;;;1,000000;0,333333;0,364971;0,416667;0,432584;0,753884;0,753884;0,666667;0,575758;0,666667;0,587217;0,633708;0,506721;0,659919;0,588838;0,588838;0,333333;0,422859;0,500000;0,416667;0,341667;0,416667;0,416667;0,416667;0,291667;0,291667;0,659919;0,000000;0,000000;0,000000;0,000000;0,587217;0,508912;0,542454;0,542454;0,503884;0,503884;0,503884;0,416667;0,431743;0,500000;0,341667;0,000000;0,000000;0,293534;0,000000;0,333333;0,416667;0,416667;0,333333;0,333333;0,333333;0,416667;0,416667;0,291667;0,291667;0,291667;0,399550;0,753884;0,383954;0,500000;0,426314;0,291667;0,291667;0,666667;0,310952;0,310952;0,291667;0,416667;0,666667;0,333333;0,666667;0,503884;0,503884;0,503884;0,753884;0,416667;0,416667;0,291667;0,291667;0,291667;0,291667;
22;;;;;;;;;;;;;;;;;;;;;;1,000000;0,651212;0,416667;0,432584;0,500000;0,452381;0,666667;0,575758;0,666667;0,333333;0,356579;0,356579;0,369684;0,333333;0,333333;0,333333;0,422859;0,500000;0,416667;0,922603;0,416667;0,416667;0,416667;0,583333;0,583333;0,369684;0,000000;0,000000;0,000000;0,000000;0,333333;0,364971;0,310952;0,310952;0,291667;0,291667;0,291667;0,416667;0,431743;0,500000;0,341667;0,000000;0,000000;0,293534;0,000000;0,333333;0,416667;0,416667;0,333333;0,333333;0,333333;0,416667;0,416667;0,291667;0,291667;0,291667;0,399550;0,416667;0,383954;0,500000;0,426314;0,291667;0,291667;0,666667;0,310952;0,310952;0,291667;0,416667;0,666667;0,333333;0,666667;0,291667;0,291667;0,291667;0,416667;0,416667;0,416667;0,291667;0,291667;0,291667;0,291667;
23;;;;;;;;;;;;;;;;;;;;;;;1,000000;0,448304;0,464222;0,531638;0,484019;0,698304;0,607395;0,698304;0,364971;0,388216;0,388216;0,401322;0,364971;0,364971;0,364971;0,454497;0,531638;0,448304;0,798336;0,448304;0,448304;0,448304;0,750690;0,750690;0,401322;0,000000;0,000000;0,000000;0,000000;0,364971;0,396609;0,342590;0,342590;0,323304;0,323304;0,323304;0,448304;0,463381;0,531638;0,373304;0,000000;0,000000;0,325171;0,000000;0,364971;0,448304;0,448304;0,364971;0,364971;0,364971;0,448304;0,448304;0,323304;0,323304;0,323304;0,431188;0,448304;0,415591;0,531638;0,457952;0,323304;0,323304;0,698304;0,342590;0,342590;0,323304;0,448304;0,698304;0,364971;0,698304;0,323304;0,323304;0,323304;0,448304;0,448304;0,448304;0,323304;0,323304;0,323304;0,323304;
24;;;;;;;;;;;;;;;;;;;;;;;;1,000000;0,515917;0,583333;0,535714;0,750000;0,659091;0,750000;0,416667;0,439912;0,439912;0,453017;0,416667;0,416667;0,416667;0,506193;0,583333;0,867731;0,425000;0,500000;0,500000;0,867731;0,375000;0,375000;0,453017;0,000000;0,000000;0,000000;0,000000;0,416667;0,448304;0,394285;0,394285;0,375000;0,375000;0,375000;0,500000;0,515077;0,583333;0,425000;0,000000;0,000000;0,376867;0,000000;0,416667;0,500000;0,867731;0,416667;0,416667;0,416667;0,500000;0,500000;0,375000;0,375000;0,375000;0,833497;0,500000;0,652586;0,583333;0,509648;0,375000;0,375000;0,750000;0,394285;0,394285;0,375000;0,500000;0,750000;0,416667;0,750000;0,375000;0,375000;0,375000;0,500000;0,500000;0,867731;0,375000;0,375000;0,375000;0,375000;
25;;;;;;;;;;;;;;;;;;;;;;;;;1,000000;0,599251;0,551632;0,765917;0,734975;0,765917;0,432584;0,455829;0,455829;0,468935;0,432584;0,432584;0,432584;0,522110;0,599251;0,515917;0,440917;0,830602;0,830602;0,515917;0,390917;0,390917;0,468935;0,000000;0,000000;0,000000;0,000000;0,432584;0,464222;0,410203;0,410203;0,390917;0,390917;0,390917;0,515917;0,530994;0,599251;0,440917;0,000000;0,000000;0,392784;0,000000;0,432584;0,515917;0,515917;0,432584;0,432584;0,432584;0,515917;0,515917;0,390917;0,390917;0,390917;0,548257;0,515917;0,643721;0,779318;0,525565;0,390917;0,390917;0,765917;0,410203;0,410203;0,390917;0,830602;0,765917;0,432584;0,765917;0,390917;0,390917;0,390917;0,515917;0,515917;0,515917;0,390917;0,390917;0,390917;0,390917;
26;;;;;;;;;;;;;;;;;;;;;;;;;;1,000000;1,000000;0,833333;0,742424;0,833333;0,833333;0,879824;0,752837;0,906035;0,500000;0,500000;0,500000;0,589526;0,666667;0,583333;0,508333;0,583333;0,583333;0,583333;0,458333;0,458333;0,906035;0,000000;0,000000;0,000000;0,000000;0,833333;0,755028;0,788570;0,788570;0,750000;0,750000;0,750000;0,583333;0,598410;0,666667;0,508333;0,000000;0,000000;0,460200;0,000000;0,500000;0,583333;0,583333;0,500000;0,500000;0,500000;0,583333;0,583333;0,458333;0,458333;0,458333;0,566217;1,000000;0,550620;0,666667;0,592981;0,458333;0,458333;0,833333;0,477618;0,477618;0,458333;0,583333;0,833333;0,500000;0,833333;0,750000;0,750000;0,750000;1,000000;0,583333;0,583333;0,458333;0,458333;0,458333;0,458333;
27;;;;;;;;;;;;;;;;;;;;;;;;;;;1,000000;0,785714;0,694805;0,785714;0,833333;0,879824;0,752837;0,906035;0,452381;0,452381;0,452381;0,541907;0,619048;0,535714;0,460714;0,535714;0,535714;0,535714;0,410714;0,410714;0,906035;0,000000;0,000000;0,000000;0,000000;0,833333;0,755028;0,788570;0,788570;0,750000;0,750000;0,750000;0,535714;0,550791;0,619048;0,460714;0,000000;0,000000;0,412581;0,000000;0,452381;0,535714;0,535714;0,452381;0,452381;0,452381;0,535714;0,535714;0,410714;0,410714;0,410714;0,518598;1,000000;0,503001;0,619048;0,545362;0,410714;0,410714;0,785714;0,429999;0,429999;0,410714;0,535714;0,785714;0,452381;0,785714;0,750000;0,750000;0,750000;1,000000;0,535714;0,535714;0,410714;0,410714;0,410714;0,410714;
28;;;;;;;;;;;;;;;;;;;;;;;;;;;;1,000000;0,909091;1,000000;0,666667;0,689912;0,689912;0,703017;0,666667;0,666667;0,666667;0,756193;0,833333;0,750000;0,675000;0,750000;0,750000;0,750000;0,625000;0,625000;0,703017;0,000000;0,000000;0,000000;0,000000;0,666667;0,698304;0,644285;0,644285;0,625000;0,625000;0,625000;0,750000;0,765077;0,833333;0,675000;0,000000;0,000000;0,626867;0,000000;0,666667;0,750000;0,750000;0,666667;0,666667;0,666667;0,750000;0,750000;0,625000;0,625000;0,625000;0,732883;0,750000;0,717287;0,833333;0,759648;0,625000;0,625000;1,000000;0,644285;0,644285;0,625000;0,750000;1,000000;0,666667;1,000000;0,625000;0,625000;0,625000;0,750000;0,750000;0,750000;0,625000;0,625000;0,625000;0,625000;
29;;;;;;;;;;;;;;;;;;;;;;;;;;;;;1,000000;0,909091;0,575758;0,599003;0,599003;0,612108;0,575758;0,575758;0,575758;0,665284;0,742424;0,659091;0,584091;0,659091;0,659091;0,659091;0,534091;0,534091;0,612108;0,000000;0,000000;0,000000;0,000000;0,575758;0,607395;0,553376;0,553376;0,534091;0,534091;0,534091;0,659091;0,674168;0,742424;0,584091;0,000000;0,000000;0,535958;0,000000;0,575758;0,659091;0,659091;0,575758;0,575758;0,575758;0,659091;0,659091;0,534091;0,534091;0,534091;0,724596;0,659091;0,626378;0,955656;0,668739;0,534091;0,534091;0,909091;0,744184;0,744184;0,705614;0,659091;0,909091;0,575758;0,909091;0,534091;0,534091;0,534091;0,659091;0,659091;0,659091;0,534091;0,534091;0,534091;0,534091;
30;;;;;;;;;;;;;;;;;;;;;;;;;;;;;;1,000000;0,666667;0,689912;0,689912;0,703017;0,666667;0,666667;0,666667;0,756193;0,833333;0,750000;0,675000;0,750000;0,750000;0,750000;0,625000;0,625000;0,703017;0,000000;0,000000;0,000000;0,000000;0,666667;0,698304;0,644285;0,644285;0,625000;0,625000;0,625000;0,750000;0,765077;0,833333;0,675000;0,000000;0,000000;0,626867;0,000000;0,666667;0,750000;0,750000;0,666667;0,666667;0,666667;0,750000;0,750000;0,625000;0,625000;0,625000;0,732883;0,750000;0,717287;0,833333;0,759648;0,625000;0,625000;1,000000;0,644285;0,644285;0,625000;0,750000;1,000000;0,666667;1,000000;0,625000;0,625000;0,625000;0,750000;0,750000;0,750000;0,625000;0,625000;0,625000;0,625000;
31;;;;;;;;;;;;;;;;;;;;;;;;;;;;;;;1,000000;0,713157;0,586171;0,739368;0,333333;0,333333;0,333333;0,422859;0,500000;0,416667;0,341667;0,416667;0,416667;0,416667;0,291667;0,291667;1,000000;0,000000;0,000000;0,000000;0,000000;0,666667;0,588362;0,621904;0,621904;0,583333;0,583333;0,583333;0,416667;0,431743;0,500000;0,341667;0,000000;0,000000;0,293534;0,000000;0,333333;0,416667;0,416667;0,333333;0,333333;0,333333;0,416667;0,416667;0,291667;0,291667;0,291667;0,399550;0,833333;0,383954;0,500000;0,426314;0,291667;0,291667;0,666667;0,310952;0,310952;0,291667;0,416667;0,666667;0,333333;0,666667;0,583333;0,583333;0,583333;0,833333;0,416667;0,416667;0,291667;0,291667;0,291667;0,291667;
32;;;;;;;;;;;;;;;;;;;;;;;;;;;;;;;;1,000000;0,632661;0,785859;0,356579;0,356579;0,356579;0,446105;0,523245;0,439912;0,364912;0,439912;0,439912;0,439912;0,314912;0,314912;0,785859;0,000000;0,000000;0,000000;0,000000;0,713157;0,634852;0,668394;0,668394;0,629824;0,629824;0,629824;0,439912;0,454989;0,523245;0,364912;0,000000;0,000000;0,316779;0,000000;0,356579;0,439912;0,439912;0,356579;0,356579;0,356579;0,439912;0,439912;0,314912;0,314912;0,314912;0,422795;0,879824;0,407199;0,523245;0,449560;0,314912;0,314912;0,689912;0,334197;0,334197;0,314912;0,439912;0,689912;0,356579;0,689912;0,629824;0,629824;0,629824;0,879824;0,439912;0,439912;0,314912;0,314912;0,314912;0,314912;
33;;;;;;;;;;;;;;;;;;;;;;;;;;;;;;;;;1,000000;0,658872;0,356579;0,356579;0,660057;0,587377;0,523245;0,439912;0,364912;0,439912;0,439912;0,439912;0,314912;0,314912;0,658872;0,000000;0,000000;0,000000;0,000000;0,822101;0,507866;0,541408;0,541408;0,502837;0,502837;0,502837;0,439912;0,454989;0,523245;0,364912;0,000000;0,000000;0,316779;0,000000;0,356579;0,439912;0,439912;0,356579;0,356579;0,356579;0,439912;0,439912;0,314912;0,314912;0,314912;0,422795;0,752837;0,407199;0,523245;0,449560;0,314912;0,314912;0,689912;0,334197;0,334197;0,314912;0,439912;0,689912;0,356579;0,689912;0,502837;0,502837;0,502837;0,752837;0,439912;0,439912;0,314912;0,314912;0,314912;0,314912;
34;;;;;;;;;;;;;;;;;;;;;;;;;;;;;;;;;;1,000000;0,369684;0,369684;0,586449;0,674265;0,536351;0,453017;0,378017;0,453017;0,453017;0,453017;0,328017;0,328017;0,812070;0,000000;0,000000;0,000000;0,000000;0,739368;0,661063;0,694605;0,694605;0,656035;0,656035;0,656035;0,453017;0,468094;0,536351;0,378017;0,000000;0,000000;0,329884;0,000000;0,369684;0,453017;0,453017;0,369684;0,369684;0,369684;0,453017;0,453017;0,328017;0,328017;0,328017;0,435901;0,906035;0,420304;0,536351;0,462665;0,328017;0,328017;0,703017;0,347303;0,347303;0,328017;0,453017;0,703017;0,369684;0,703017;0,656035;0,656035;0,656035;0,906035;0,453017;0,453017;0,328017;0,328017;0,328017;0,328017;
35;;;;;;;;;;;;;;;;;;;;;;;;;;;;;;;;;;;1,000000;0,666667;0,333333;0,422859;0,500000;0,416667;0,341667;0,416667;0,416667;0,416667;0,291667;0,291667;0,369684;0,000000;0,000000;0,000000;0,000000;0,333333;0,364971;0,310952;0,310952;0,291667;0,291667;0,291667;0,416667;0,431743;0,500000;0,341667;0,000000;0,000000;0,293534;0,000000;0,333333;0,416667;0,416667;0,333333;0,333333;0,333333;0,416667;0,416667;0,291667;0,291667;0,291667;0,399550;0,416667;0,383954;0,500000;0,426314;0,291667;0,291667;0,666667;0,310952;0,310952;0,291667;0,416667;0,666667;0,333333;0,666667;0,291667;0,291667;0,291667;0,416667;0,416667;0,416667;0,291667;0,291667;0,291667;0,291667;
36;;;;;;;;;;;;;;;;;;;;;;;;;;;;;;;;;;;;1,000000;0,333333;0,422859;0,500000;0,416667;0,341667;0,416667;0,416667;0,416667;0,291667;0,291667;0,369684;0,000000;0,000000;0,000000;0,000000;0,333333;0,364971;0,310952;0,310952;0,291667;0,291667;0,291667;0,416667;0,431743;0,500000;0,341667;0,000000;0,000000;0,293534;0,000000;0,333333;0,416667;0,416667;0,333333;0,333333;0,333333;0,416667;0,416667;0,291667;0,291667;0,291667;0,399550;0,416667;0,383954;0,500000;0,426314;0,291667;0,291667;0,666667;0,310952;0,310952;0,291667;0,416667;0,666667;0,333333;0,666667;0,291667;0,291667;0,291667;0,416667;0,416667;0,416667;0,291667;0,291667;0,291667;0,291667;
37;;;;;;;;;;;;;;;;;;;;;;;;;;;;;;;;;;;;;1,000000;0,754483;0,500000;0,416667;0,341667;0,416667;0,416667;0,416667;0,291667;0,291667;0,369684;0,000000;0,000000;0,000000;0,000000;0,333333;0,364971;0,310952;0,310952;0,291667;0,291667;0,291667;0,416667;0,431743;0,500000;0,341667;0,000000;0,000000;0,293534;0,000000;0,333333;0,416667;0,416667;0,333333;0,333333;0,333333;0,416667;0,416667;0,291667;0,291667;0,291667;0,399550;0,416667;0,383954;0,500000;0,426314;0,291667;0,291667;0,666667;0,310952;0,310952;0,291667;0,416667;0,666667;0,333333;0,666667;0,291667;0,291667;0,291667;0,416667;0,416667;0,416667;0,291667;0,291667;0,291667;0,291667;
38;;;;;;;;;;;;;;;;;;;;;;;;;;;;;;;;;;;;;;1,000000;0,589526;0,506193;0,431193;0,506193;0,506193;0,506193;0,381193;0,381193;0,459210;0,000000;0,000000;0,000000;0,000000;0,422859;0,454497;0,400478;0,400478;0,381193;0,381193;0,381193;0,506193;0,521269;0,589526;0,431193;0,000000;0,000000;0,383060;0,000000;0,422859;0,506193;0,506193;0,422859;0,422859;0,422859;0,506193;0,506193;0,381193;0,381193;0,381193;0,489076;0,506193;0,473480;0,589526;0,515840;0,381193;0,381193;0,756193;0,400478;0,400478;0,381193;0,506193;0,756193;0,422859;0,756193;0,381193;0,381193;0,381193;0,506193;0,506193;0,506193;0,381193;0,381193;0,381193;0,381193;
39;;;;;;;;;;;;;;;;;;;;;;;;;;;;;;;;;;;;;;;1,000000;0,583333;0,508333;0,583333;0,583333;0,583333;0,458333;0,458333;0,536351;0,000000;0,000000;0,000000;0,000000;0,500000;0,531638;0,477618;0,477618;0,458333;0,458333;0,458333;0,583333;0,598410;0,666667;0,508333;0,000000;0,000000;0,460200;0,000000;0,500000;0,583333;0,583333;0,500000;0,500000;0,500000;0,583333;0,583333;0,458333;0,458333;0,458333;0,566217;0,583333;0,550620;0,666667;0,592981;0,458333;0,458333;0,833333;0,477618;0,477618;0,458333;0,583333;0,833333;0,500000;0,833333;0,458333;0,458333;0,458333;0,583333;0,583333;0,583333;0,458333;0,458333;0,458333;0,458333;
40;;;;;;;;;;;;;;;;;;;;;;;;;;;;;;;;;;;;;;;;1,000000;0,425000;0,500000;0,500000;1,000000;0,375000;0,375000;0,453017;0,000000;0,000000;0,000000;0,000000;0,416667;0,448304;0,394285;0,394285;0,375000;0,375000;0,375000;0,500000;0,515077;0,583333;0,425000;0,000000;0,000000;0,376867;0,000000;0,416667;0,500000;1,000000;0,416667;0,416667;0,416667;0,500000;0,500000;0,375000;0,375000;0,375000;0,965767;0,500000;0,784856;0,583333;0,509648;0,375000;0,375000;0,750000;0,394285;0,394285;0,375000;0,500000;0,750000;0,416667;0,750000;0,375000;0,375000;0,375000;0,500000;0,500000;1,000000;0,375000;0,375000;0,375000;0,375000;
41;;;;;;;;;;;;;;;;;;;;;;;;;;;;;;;;;;;;;;;;;1,000000;0,425000;0,425000;0,425000;0,797646;0,797646;0,378017;0,000000;0,000000;0,000000;0,000000;0,341667;0,373304;0,319285;0,319285;0,300000;0,300000;0,300000;0,425000;0,440077;0,508333;0,350000;0,000000;0,000000;0,301867;0,000000;0,341667;0,425000;0,425000;0,341667;0,341667;0,341667;0,425000;0,425000;0,300000;0,300000;0,300000;0,407883;0,425000;0,392287;0,508333;0,434648;0,300000;0,300000;0,675000;0,319285;0,319285;0,300000;0,425000;0,675000;0,341667;0,675000;0,300000;0,300000;0,300000;0,425000;0,425000;0,425000;0,300000;0,300000;0,300000;0,300000;
42;;;;;;;;;;;;;;;;;;;;;;;;;;;;;;;;;;;;;;;;;;1,000000;1,000000;0,500000;0,375000;0,375000;0,453017;0,000000;0,000000;0,000000;0,000000;0,416667;0,448304;0,394285;0,394285;0,375000;0,375000;0,375000;0,500000;0,515077;0,583333;0,425000;0,000000;0,000000;0,376867;0,000000;0,416667;0,500000;0,500000;0,416667;0,416667;0,416667;0,500000;0,500000;0,375000;0,375000;0,375000;0,482883;0,500000;0,467287;0,583333;0,509648;0,375000;0,375000;0,750000;0,394285;0,394285;0,375000;1,000000;0,750000;0,416667;0,750000;0,375000;0,375000;0,375000;0,500000;0,500000;0,500000;0,375000;0,375000;0,375000;0,375000;
43;;;;;;;;;;;;;;;;;;;;;;;;;;;;;;;;;;;;;;;;;;;1,000000;0,500000;0,375000;0,375000;0,453017;0,000000;0,000000;0,000000;0,000000;0,416667;0,448304;0,394285;0,394285;0,375000;0,375000;0,375000;0,500000;0,515077;0,583333;0,425000;0,000000;0,000000;0,376867;0,000000;0,416667;0,500000;0,500000;0,416667;0,416667;0,416667;0,500000;0,500000;0,375000;0,375000;0,375000;0,482883;0,500000;0,467287;0,583333;0,509648;0,375000;0,375000;0,750000;0,394285;0,394285;0,375000;1,000000;0,750000;0,416667;0,750000;0,375000;0,375000;0,375000;0,500000;0,500000;0,500000;0,375000;0,375000;0,375000;0,375000;
44;;;;;;;;;;;;;;;;;;;;;;;;;;;;;;;;;;;;;;;;;;;;1,000000;0,375000;0,375000;0,453017;0,000000;0,000000;0,000000;0,000000;0,416667;0,448304;0,394285;0,394285;0,375000;0,375000;0,375000;0,500000;0,515077;0,583333;0,425000;0,000000;0,000000;0,376867;0,000000;0,416667;0,500000;1,000000;0,416667;0,416667;0,416667;0,500000;0,500000;0,375000;0,375000;0,375000;0,965767;0,500000;0,784856;0,583333;0,509648;0,375000;0,375000;0,750000;0,394285;0,394285;0,375000;0,500000;0,750000;0,416667;0,750000;0,375000;0,375000;0,375000;0,500000;0,500000;1,000000;0,375000;0,375000;0,375000;0,375000;
45;;;;;;;;;;;;;;;;;;;;;;;;;;;;;;;;;;;;;;;;;;;;;1,000000;0,750000;0,328017;0,000000;0,000000;0,000000;0,000000;0,291667;0,323304;0,269285;0,269285;0,250000;0,250000;0,250000;0,375000;0,390077;0,458333;0,300000;0,000000;0,000000;0,251867;0,000000;0,291667;0,375000;0,375000;0,291667;0,291667;0,291667;0,375000;0,375000;0,250000;0,250000;0,250000;0,357883;0,375000;0,342287;0,458333;0,384648;0,250000;0,250000;0,625000;0,269285;0,269285;0,250000;0,375000;0,625000;0,291667;0,625000;0,250000;0,250000;0,250000;0,375000;0,375000;0,375000;0,250000;0,250000;0,250000;0,250000;
46;;;;;;;;;;;;;;;;;;;;;;;;;;;;;;;;;;;;;;;;;;;;;;1,000000;0,328017;0,000000;0,000000;0,000000;0,000000;0,291667;0,323304;0,269285;0,269285;0,250000;0,250000;0,250000;0,375000;0,390077;0,458333;0,300000;0,000000;0,000000;0,251867;0,000000;0,291667;0,375000;0,375000;0,291667;0,291667;0,291667;0,375000;0,375000;0,250000;0,250000;0,250000;0,357883;0,375000;0,342287;0,458333;0,384648;0,250000;0,250000;0,625000;0,269285;0,269285;0,250000;0,375000;0,625000;0,291667;0,625000;0,250000;0,250000;0,250000;0,375000;0,375000;0,375000;0,250000;0,250000;0,250000;0,250000;
47;;;;;;;;;;;;;;;;;;;;;;;;;;;;;;;;;;;;;;;;;;;;;;;1,000000;0,000000;0,000000;0,000000;0,000000;0,739368;0,661063;0,694605;0,694605;0,656035;0,656035;0,656035;0,453017;0,468094;0,536351;0,378017;0,000000;0,000000;0,329884;0,000000;0,369684;0,453017;0,453017;0,369684;0,369684;0,369684;0,453017;0,453017;0,328017;0,328017;0,328017;0,435901;0,906035;0,420304;0,536351;0,462665;0,328017;0,328017;0,703017;0,347303;0,347303;0,328017;0,453017;0,703017;0,369684;0,703017;0,656035;0,656035;0,656035;0,906035;0,453017;0,453017;0,328017;0,328017;0,328017;0,328017;
48;;;;;;;;;;;;;;;;;;;;;;;;;;;;;;;;;;;;;;;;;;;;;;;;1,000000;0,666667;0,666667;0,666667;0,000000;0,000000;0,000000;0,000000;0,000000;0,000000;0,000000;0,000000;0,000000;0,000000;0,000000;0,000000;0,000000;0,000000;0,000000;0,000000;0,000000;0,000000;0,000000;0,000000;0,000000;0,000000;0,000000;0,000000;0,000000;0,000000;0,000000;0,000000;0,000000;0,000000;0,000000;0,000000;0,000000;0,000000;0,000000;0,000000;0,000000;0,000000;0,000000;0,000000;0,000000;0,000000;0,000000;0,000000;0,000000;0,000000;0,000000;0,000000;0,000000;0,000000;0,000000;
49;;;;;;;;;;;;;;;;;;;;;;;;;;;;;;;;;;;;;;;;;;;;;;;;;1,000000;0,666667;0,666667;0,000000;0,000000;0,000000;0,000000;0,000000;0,000000;0,000000;0,000000;0,000000;0,000000;0,000000;0,000000;0,000000;0,000000;0,000000;0,000000;0,000000;0,000000;0,000000;0,000000;0,000000;0,000000;0,000000;0,000000;0,000000;0,000000;0,000000;0,000000;0,000000;0,000000;0,000000;0,000000;0,000000;0,000000;0,000000;0,000000;0,000000;0,000000;0,000000;0,000000;0,000000;0,000000;0,000000;0,000000;0,000000;0,000000;0,000000;0,000000;0,000000;0,000000;0,000000;
50;;;;;;;;;;;;;;;;;;;;;;;;;;;;;;;;;;;;;;;;;;;;;;;;;;1,000000;0,666667;0,000000;0,000000;0,000000;0,000000;0,000000;0,000000;0,000000;0,000000;0,000000;0,000000;0,000000;0,000000;0,000000;0,000000;0,000000;0,000000;0,000000;0,000000;0,000000;0,000000;0,000000;0,000000;0,000000;0,000000;0,000000;0,000000;0,000000;0,000000;0,000000;0,000000;0,000000;0,000000;0,000000;0,000000;0,000000;0,000000;0,000000;0,000000;0,000000;0,000000;0,000000;0,000000;0,000000;0,000000;0,000000;0,000000;0,000000;0,000000;0,000000;0,000000;0,000000;
51;;;;;;;;;;;;;;;;;;;;;;;;;;;;;;;;;;;;;;;;;;;;;;;;;;;1,000000;0,000000;0,000000;0,000000;0,000000;0,000000;0,000000;0,000000;0,000000;0,000000;0,000000;0,000000;0,000000;0,000000;0,000000;0,000000;0,000000;0,000000;0,000000;0,000000;0,000000;0,000000;0,000000;0,000000;0,000000;0,000000;0,000000;0,000000;0,000000;0,000000;0,000000;0,000000;0,000000;0,000000;0,000000;0,000000;0,000000;0,000000;0,000000;0,000000;0,000000;0,000000;0,000000;0,000000;0,000000;0,000000;0,000000;0,000000;0,000000;0,000000;0,000000;0,000000;
52;;;;;;;;;;;;;;;;;;;;;;;;;;;;;;;;;;;;;;;;;;;;;;;;;;;;1,000000;0,588362;0,621904;0,621904;0,583333;0,583333;0,583333;0,416667;0,431743;0,500000;0,341667;0,000000;0,000000;0,293534;0,000000;0,333333;0,416667;0,416667;0,333333;0,333333;0,333333;0,416667;0,416667;0,291667;0,291667;0,291667;0,399550;0,833333;0,383954;0,500000;0,426314;0,291667;0,291667;0,666667;0,310952;0,310952;0,291667;0,416667;0,666667;0,333333;0,666667;0,583333;0,583333;0,583333;0,833333;0,416667;0,416667;0,291667;0,291667;0,291667;0,291667;
53;;;;;;;;;;;;;;;;;;;;;;;;;;;;;;;;;;;;;;;;;;;;;;;;;;;;;1,000000;0,750072;0,750072;0,505028;0,505028;0,505028;0,448304;0,463381;0,531638;0,373304;0,000000;0,000000;0,325171;0,000000;0,364971;0,448304;0,448304;0,364971;0,364971;0,364971;0,448304;0,448304;0,323304;0,323304;0,323304;0,431188;0,755028;0,415591;0,531638;0,642913;0,323304;0,323304;0,698304;0,342590;0,342590;0,323304;0,448304;0,698304;0,600680;0,698304;0,505028;0,505028;0,505028;0,755028;0,448304;0,448304;0,323304;0,323304;0,323304;0,323304;
54;;;;;;;;;;;;;;;;;;;;;;;;;;;;;;;;;;;;;;;;;;;;;;;;;;;;;;1,000000;0,713077;0,538570;0,538570;0,538570;0,394285;0,409362;0,477618;0,319285;0,000000;0,000000;0,271152;0,000000;0,310952;0,394285;0,394285;0,310952;0,310952;0,310952;0,394285;0,394285;0,269285;0,269285;0,269285;0,377168;0,788570;0,361572;0,477618;0,589710;0,269285;0,269285;0,644285;0,288570;0,288570;0,269285;0,394285;0,644285;0,547421;0,644285;0,538570;0,538570;0,538570;0,788570;0,394285;0,394285;0,269285;0,269285;0,269285;0,269285;
55;;;;;;;;;;;;;;;;;;;;;;;;;;;;;;;;;;;;;;;;;;;;;;;;;;;;;;;1,000000;0,538570;0,538570;0,538570;0,394285;0,409362;0,477618;0,319285;0,000000;0,000000;0,271152;0,000000;0,310952;0,394285;0,394285;0,310952;0,310952;0,310952;0,394285;0,394285;0,269285;0,269285;0,269285;0,377168;0,788570;0,361572;0,477618;0,589710;0,269285;0,269285;0,644285;0,288570;0,288570;0,269285;0,394285;0,644285;0,547421;0,644285;0,538570;0,538570;0,538570;0,788570;0,394285;0,394285;0,269285;0,269285;0,269285;0,269285;
56;;;;;;;;;;;;;;;;;;;;;;;;;;;;;;;;;;;;;;;;;;;;;;;;;;;;;;;;1,000000;0,750000;0,750000;0,375000;0,390077;0,458333;0,300000;0,000000;0,000000;0,251867;0,000000;0,291667;0,375000;0,375000;0,291667;0,291667;0,291667;0,375000;0,375000;0,250000;0,250000;0,250000;0,357883;0,750000;0,342287;0,458333;0,384648;0,250000;0,250000;0,625000;0,269285;0,269285;0,250000;0,375000;0,625000;0,291667;0,625000;0,500000;0,500000;0,500000;0,750000;0,375000;0,375000;0,250000;0,250000;0,250000;0,250000;
57;;;;;;;;;;;;;;;;;;;;;;;;;;;;;;;;;;;;;;;;;;;;;;;;;;;;;;;;;1,000000;0,750000;0,375000;0,390077;0,458333;0,300000;0,000000;0,000000;0,251867;0,000000;0,291667;0,375000;0,375000;0,291667;0,291667;0,291667;0,375000;0,375000;0,250000;0,250000;0,250000;0,357883;0,750000;0,342287;0,458333;0,384648;0,250000;0,250000;0,625000;0,269285;0,269285;0,250000;0,375000;0,625000;0,291667;0,625000;0,500000;0,500000;0,500000;0,750000;0,375000;0,375000;0,250000;0,250000;0,250000;0,250000;
58;;;;;;;;;;;;;;;;;;;;;;;;;;;;;;;;;;;;;;;;;;;;;;;;;;;;;;;;;;1,000000;0,375000;0,390077;0,458333;0,300000;0,000000;0,000000;0,251867;0,000000;0,291667;0,375000;0,375000;0,291667;0,291667;0,291667;0,375000;0,375000;0,250000;0,250000;0,250000;0,357883;0,750000;0,342287;0,458333;0,384648;0,250000;0,250000;0,625000;0,269285;0,269285;0,250000;0,375000;0,625000;0,291667;0,625000;0,500000;0,500000;0,500000;0,750000;0,375000;0,375000;0,250000;0,250000;0,250000;0,250000;
59;;;;;;;;;;;;;;;;;;;;;;;;;;;;;;;;;;;;;;;;;;;;;;;;;;;;;;;;;;;1,000000;0,515077;0,583333;0,425000;0,000000;0,000000;0,376867;0,000000;0,416667;0,500000;0,500000;0,416667;0,416667;0,416667;0,500000;0,500000;0,375000;0,375000;0,375000;0,482883;0,500000;0,467287;0,583333;0,509648;0,375000;0,375000;0,750000;0,394285;0,394285;0,375000;0,500000;0,750000;0,416667;0,750000;0,375000;0,375000;0,375000;0,500000;0,500000;0,500000;0,375000;0,375000;0,375000;0,375000;
60;;;;;;;;;;;;;;;;;;;;;;;;;;;;;;;;;;;;;;;;;;;;;;;;;;;;;;;;;;;;1,000000;0,598410;0,440077;0,000000;0,000000;0,391944;0,000000;0,431743;0,515077;0,515077;0,431743;0,431743;0,431743;0,515077;0,515077;0,390077;0,390077;0,390077;0,497960;0,515077;0,617632;0,598410;0,524724;0,390077;0,390077;0,765077;0,731791;0,731791;0,794075;0,515077;0,765077;0,431743;0,765077;0,390077;0,390077;0,390077;0,515077;0,515077;0,515077;0,390077;0,390077;0,390077;0,390077;
61;;;;;;;;;;;;;;;;;;;;;;;;;;;;;;;;;;;;;;;;;;;;;;;;;;;;;;;;;;;;;1,000000;0,508333;0,000000;0,000000;0,460200;0,000000;0,500000;1,000000;0,583333;0,500000;0,500000;0,500000;0,583333;0,583333;0,750000;0,750000;0,750000;0,566217;0,583333;0,550620;0,666667;0,592981;0,458333;0,750000;0,833333;0,477618;0,477618;0,458333;0,583333;0,833333;0,500000;0,833333;0,458333;0,458333;0,458333;0,583333;0,583333;0,583333;0,458333;0,458333;0,458333;0,458333;
62;;;;;;;;;;;;;;;;;;;;;;;;;;;;;;;;;;;;;;;;;;;;;;;;;;;;;;;;;;;;;;1,000000;0,000000;0,000000;0,301867;0,000000;0,341667;0,425000;0,425000;0,341667;0,341667;0,341667;0,425000;0,425000;0,706325;0,706276;0,706325;0,407883;0,425000;0,392287;0,508333;0,434648;0,300000;0,706276;0,675000;0,319285;0,319285;0,300000;0,425000;0,675000;0,341667;0,675000;0,300000;0,300000;0,300000;0,425000;0,425000;0,425000;0,300000;0,300000;0,300000;0,300000;
63;;;;;;;;;;;;;;;;;;;;;;;;;;;;;;;;;;;;;;;;;;;;;;;;;;;;;;;;;;;;;;;1,000000;0,666667;0,646616;0,666667;0,000000;0,000000;0,000000;0,000000;0,000000;0,000000;0,000000;0,000000;0,000000;0,000000;0,000000;0,000000;0,000000;0,000000;0,000000;0,000000;0,000000;0,000000;0,000000;0,000000;0,000000;0,000000;0,000000;0,000000;0,000000;0,000000;0,000000;0,000000;0,000000;0,000000;0,000000;0,000000;0,000000;0,000000;0,000000;0,000000;
64;;;;;;;;;;;;;;;;;;;;;;;;;;;;;;;;;;;;;;;;;;;;;;;;;;;;;;;;;;;;;;;;1,000000;0,646616;0,666667;0,000000;0,000000;0,000000;0,000000;0,000000;0,000000;0,000000;0,000000;0,000000;0,000000;0,000000;0,000000;0,000000;0,000000;0,000000;0,000000;0,000000;0,000000;0,000000;0,000000;0,000000;0,000000;0,000000;0,000000;0,000000;0,000000;0,000000;0,000000;0,000000;0,000000;0,000000;0,000000;0,000000;0,000000;0,000000;0,000000;
65;;;;;;;;;;;;;;;;;;;;;;;;;;;;;;;;;;;;;;;;;;;;;;;;;;;;;;;;;;;;;;;;;1,000000;0,646616;0,293534;0,376867;0,376867;0,293534;0,293534;0,293534;0,376867;0,376867;0,251867;0,251867;0,251867;0,359750;0,376867;0,344154;0,460200;0,386515;0,251867;0,251867;0,626867;0,271152;0,271152;0,251867;0,376867;0,626867;0,293534;0,626867;0,251867;0,251867;0,251867;0,376867;0,376867;0,376867;0,251867;0,251867;0,251867;0,251867;
66;;;;;;;;;;;;;;;;;;;;;;;;;;;;;;;;;;;;;;;;;;;;;;;;;;;;;;;;;;;;;;;;;;1,000000;0,000000;0,000000;0,000000;0,000000;0,000000;0,000000;0,000000;0,000000;0,000000;0,000000;0,000000;0,000000;0,000000;0,000000;0,000000;0,000000;0,000000;0,000000;0,000000;0,000000;0,000000;0,000000;0,000000;0,000000;0,000000;0,000000;0,000000;0,000000;0,000000;0,000000;0,000000;0,000000;0,000000;0,000000;0,000000;0,000000;
67;;;;;;;;;;;;;;;;;;;;;;;;;;;;;;;;;;;;;;;;;;;;;;;;;;;;;;;;;;;;;;;;;;;1,000000;0,416667;0,416667;0,333333;0,333333;0,333333;0,416667;0,416667;0,291667;0,291667;0,291667;0,399550;0,416667;0,383954;0,500000;0,426314;0,291667;0,291667;0,666667;0,310952;0,310952;0,291667;0,416667;0,666667;0,333333;0,666667;0,291667;0,291667;0,291667;0,416667;0,416667;0,416667;0,291667;0,291667;0,291667;0,291667;
68;;;;;;;;;;;;;;;;;;;;;;;;;;;;;;;;;;;;;;;;;;;;;;;;;;;;;;;;;;;;;;;;;;;;1,000000;0,500000;0,416667;0,416667;0,416667;0,500000;0,500000;0,750000;0,750000;0,750000;0,482883;0,500000;0,467287;0,583333;0,509648;0,375000;0,750000;0,750000;0,394285;0,394285;0,375000;0,500000;0,750000;0,416667;0,750000;0,375000;0,375000;0,375000;0,500000;0,500000;0,500000;0,375000;0,375000;0,375000;0,375000;
69;;;;;;;;;;;;;;;;;;;;;;;;;;;;;;;;;;;;;;;;;;;;;;;;;;;;;;;;;;;;;;;;;;;;;1,000000;0,416667;0,416667;0,416667;0,500000;0,500000;0,375000;0,375000;0,375000;0,965767;0,500000;0,784856;0,583333;0,509648;0,375000;0,375000;0,750000;0,394285;0,394285;0,375000;0,500000;0,750000;0,416667;0,750000;0,375000;0,375000;0,375000;0,500000;0,500000;1,000000;0,375000;0,375000;0,375000;0,375000;
70;;;;;;;;;;;;;;;;;;;;;;;;;;;;;;;;;;;;;;;;;;;;;;;;;;;;;;;;;;;;;;;;;;;;;;1,000000;0,666667;0,666667;0,416667;0,416667;0,291667;0,291667;0,291667;0,399550;0,416667;0,383954;0,500000;0,426314;0,291667;0,291667;0,666667;0,310952;0,310952;0,291667;0,416667;0,666667;0,333333;0,666667;0,291667;0,291667;0,291667;0,416667;0,416667;0,416667;0,291667;0,291667;0,291667;0,291667;
71;;;;;;;;;;;;;;;;;;;;;;;;;;;;;;;;;;;;;;;;;;;;;;;;;;;;;;;;;;;;;;;;;;;;;;;1,000000;0,666667;0,416667;0,416667;0,291667;0,291667;0,291667;0,399550;0,416667;0,383954;0,500000;0,426314;0,291667;0,291667;0,666667;0,310952;0,310952;0,291667;0,416667;0,666667;0,333333;0,666667;0,291667;0,291667;0,291667;0,416667;0,416667;0,416667;0,291667;0,291667;0,291667;0,291667;
72;;;;;;;;;;;;;;;;;;;;;;;;;;;;;;;;;;;;;;;;;;;;;;;;;;;;;;;;;;;;;;;;;;;;;;;;1,000000;0,416667;0,416667;0,291667;0,291667;0,291667;0,399550;0,416667;0,383954;0,500000;0,426314;0,291667;0,291667;0,666667;0,310952;0,310952;0,291667;0,416667;0,666667;0,333333;0,666667;0,291667;0,291667;0,291667;0,416667;0,416667;0,416667;0,291667;0,291667;0,291667;0,291667;
73;;;;;;;;;;;;;;;;;;;;;;;;;;;;;;;;;;;;;;;;;;;;;;;;;;;;;;;;;;;;;;;;;;;;;;;;;1,000000;0,500000;0,375000;0,375000;0,375000;0,482883;0,500000;0,467287;0,583333;0,509648;0,375000;0,375000;0,750000;0,394285;0,394285;0,375000;0,500000;0,750000;0,416667;0,750000;0,375000;0,375000;0,375000;0,500000;0,500000;0,500000;0,375000;0,375000;0,375000;0,375000;
74;;;;;;;;;;;;;;;;;;;;;;;;;;;;;;;;;;;;;;;;;;;;;;;;;;;;;;;;;;;;;;;;;;;;;;;;;;1,000000;0,375000;0,375000;0,375000;0,482883;0,500000;0,467287;0,583333;0,509648;0,375000;0,375000;0,750000;0,394285;0,394285;0,375000;0,500000;0,750000;0,416667;0,750000;0,375000;0,375000;0,375000;0,500000;0,500000;0,500000;0,375000;0,375000;0,375000;0,375000;
75;;;;;;;;;;;;;;;;;;;;;;;;;;;;;;;;;;;;;;;;;;;;;;;;;;;;;;;;;;;;;;;;;;;;;;;;;;;1,000000;0,750000;0,750000;0,357883;0,375000;0,342287;0,458333;0,384648;0,250000;0,750000;0,625000;0,269285;0,269285;0,250000;0,375000;0,625000;0,291667;0,625000;0,250000;0,250000;0,250000;0,375000;0,375000;0,375000;0,250000;0,250000;0,250000;0,250000;
76;;;;;;;;;;;;;;;;;;;;;;;;;;;;;;;;;;;;;;;;;;;;;;;;;;;;;;;;;;;;;;;;;;;;;;;;;;;;1,000000;0,750000;0,357883;0,375000;0,342287;0,458333;0,384648;0,250000;1,000000;0,625000;0,269285;0,269285;0,250000;0,375000;0,625000;0,291667;0,625000;0,250000;0,250000;0,250000;0,375000;0,375000;0,375000;0,250000;0,250000;0,250000;0,250000;
77;;;;;;;;;;;;;;;;;;;;;;;;;;;;;;;;;;;;;;;;;;;;;;;;;;;;;;;;;;;;;;;;;;;;;;;;;;;;;1,000000;0,357883;0,375000;0,342287;0,458333;0,384648;0,250000;0,750000;0,625000;0,269285;0,269285;0,250000;0,375000;0,625000;0,291667;0,625000;0,250000;0,250000;0,250000;0,375000;0,375000;0,375000;0,250000;0,250000;0,250000;0,250000;
78;;;;;;;;;;;;;;;;;;;;;;;;;;;;;;;;;;;;;;;;;;;;;;;;;;;;;;;;;;;;;;;;;;;;;;;;;;;;;;1,000000;0,482883;0,750622;0,768939;0,492531;0,357883;0,357883;0,732883;0,377168;0,377168;0,357883;0,482883;0,732883;0,399550;0,732883;0,357883;0,357883;0,357883;0,482883;0,482883;0,965767;0,357883;0,357883;0,357883;0,357883;
79;;;;;;;;;;;;;;;;;;;;;;;;;;;;;;;;;;;;;;;;;;;;;;;;;;;;;;;;;;;;;;;;;;;;;;;;;;;;;;;1,000000;0,467287;0,583333;0,509648;0,375000;0,375000;0,750000;0,394285;0,394285;0,375000;0,500000;0,750000;0,416667;0,750000;0,750000;0,750000;0,750000;1,000000;0,500000;0,500000;0,375000;0,375000;0,375000;0,375000;
80;;;;;;;;;;;;;;;;;;;;;;;;;;;;;;;;;;;;;;;;;;;;;;;;;;;;;;;;;;;;;;;;;;;;;;;;;;;;;;;;1,000000;0,550620;0,476935;0,342287;0,342287;0,717287;0,361572;0,361572;0,342287;0,467287;0,717287;0,383954;0,717287;0,342287;0,342287;0,342287;0,467287;0,467287;0,784856;0,342287;0,342287;0,342287;0,342287;
81;;;;;;;;;;;;;;;;;;;;;;;;;;;;;;;;;;;;;;;;;;;;;;;;;;;;;;;;;;;;;;;;;;;;;;;;;;;;;;;;;1,000000;0,592981;0,458333;0,458333;0,833333;0,477618;0,477618;0,458333;0,583333;0,833333;0,500000;0,833333;0,458333;0,458333;0,458333;0,583333;0,583333;0,583333;0,458333;0,458333;0,458333;0,458333;
82;;;;;;;;;;;;;;;;;;;;;;;;;;;;;;;;;;;;;;;;;;;;;;;;;;;;;;;;;;;;;;;;;;;;;;;;;;;;;;;;;;1,000000;0,384648;0,384648;0,759648;0,403933;0,403933;0,384648;0,509648;0,759648;0,708956;0,759648;0,384648;0,384648;0,384648;0,509648;0,509648;0,509648;0,384648;0,384648;0,384648;0,384648;
83;;;;;;;;;;;;;;;;;;;;;;;;;;;;;;;;;;;;;;;;;;;;;;;;;;;;;;;;;;;;;;;;;;;;;;;;;;;;;;;;;;;1,000000;0,250000;0,625000;0,269285;0,269285;0,250000;0,375000;0,625000;0,291667;0,625000;0,250000;0,250000;0,250000;0,375000;0,375000;0,375000;0,250000;0,250000;0,250000;0,250000;
84;;;;;;;;;;;;;;;;;;;;;;;;;;;;;;;;;;;;;;;;;;;;;;;;;;;;;;;;;;;;;;;;;;;;;;;;;;;;;;;;;;;;1,000000;0,625000;0,269285;0,269285;0,250000;0,375000;0,625000;0,291667;0,625000;0,250000;0,250000;0,250000;0,375000;0,375000;0,375000;0,250000;0,250000;0,250000;0,250000;
85;;;;;;;;;;;;;;;;;;;;;;;;;;;;;;;;;;;;;;;;;;;;;;;;;;;;;;;;;;;;;;;;;;;;;;;;;;;;;;;;;;;;;1,000000;0,644285;0,644285;0,625000;0,750000;1,000000;0,666667;1,000000;0,625000;0,625000;0,625000;0,750000;0,750000;0,750000;0,625000;0,625000;0,625000;0,625000;
86;;;;;;;;;;;;;;;;;;;;;;;;;;;;;;;;;;;;;;;;;;;;;;;;;;;;;;;;;;;;;;;;;;;;;;;;;;;;;;;;;;;;;;1,000000;0,713184;0,807855;0,394285;0,644285;0,310952;0,644285;0,269285;0,269285;0,269285;0,394285;0,394285;0,394285;0,269285;0,269285;0,269285;0,269285;
87;;;;;;;;;;;;;;;;;;;;;;;;;;;;;;;;;;;;;;;;;;;;;;;;;;;;;;;;;;;;;;;;;;;;;;;;;;;;;;;;;;;;;;;1,000000;0,807855;0,394285;0,644285;0,310952;0,644285;0,269285;0,269285;0,269285;0,394285;0,394285;0,394285;0,269285;0,269285;0,269285;0,269285;
88;;;;;;;;;;;;;;;;;;;;;;;;;;;;;;;;;;;;;;;;;;;;;;;;;;;;;;;;;;;;;;;;;;;;;;;;;;;;;;;;;;;;;;;;1,000000;0,375000;0,625000;0,291667;0,625000;0,250000;0,250000;0,250000;0,375000;0,375000;0,375000;0,250000;0,250000;0,250000;0,250000;
89;;;;;;;;;;;;;;;;;;;;;;;;;;;;;;;;;;;;;;;;;;;;;;;;;;;;;;;;;;;;;;;;;;;;;;;;;;;;;;;;;;;;;;;;;1,000000;0,750000;0,416667;0,750000;0,375000;0,375000;0,375000;0,500000;0,500000;0,500000;0,375000;0,375000;0,375000;0,375000;
90;;;;;;;;;;;;;;;;;;;;;;;;;;;;;;;;;;;;;;;;;;;;;;;;;;;;;;;;;;;;;;;;;;;;;;;;;;;;;;;;;;;;;;;;;;1,000000;0,666667;1,000000;0,625000;0,625000;0,625000;0,750000;0,750000;0,750000;0,625000;0,625000;0,625000;0,625000;
91;;;;;;;;;;;;;;;;;;;;;;;;;;;;;;;;;;;;;;;;;;;;;;;;;;;;;;;;;;;;;;;;;;;;;;;;;;;;;;;;;;;;;;;;;;;1,000000;0,666667;0,291667;0,291667;0,291667;0,416667;0,416667;0,416667;0,291667;0,291667;0,291667;0,291667;
92;;;;;;;;;;;;;;;;;;;;;;;;;;;;;;;;;;;;;;;;;;;;;;;;;;;;;;;;;;;;;;;;;;;;;;;;;;;;;;;;;;;;;;;;;;;;1,000000;0,625000;0,625000;0,625000;0,750000;0,750000;0,750000;0,625000;0,625000;0,625000;0,625000;
93;;;;;;;;;;;;;;;;;;;;;;;;;;;;;;;;;;;;;;;;;;;;;;;;;;;;;;;;;;;;;;;;;;;;;;;;;;;;;;;;;;;;;;;;;;;;;1,000000;0,750000;0,750000;0,750000;0,375000;0,375000;0,250000;0,250000;0,250000;0,250000;
94;;;;;;;;;;;;;;;;;;;;;;;;;;;;;;;;;;;;;;;;;;;;;;;;;;;;;;;;;;;;;;;;;;;;;;;;;;;;;;;;;;;;;;;;;;;;;;1,000000;0,750000;0,750000;0,375000;0,375000;0,250000;0,250000;0,250000;0,250000;
95;;;;;;;;;;;;;;;;;;;;;;;;;;;;;;;;;;;;;;;;;;;;;;;;;;;;;;;;;;;;;;;;;;;;;;;;;;;;;;;;;;;;;;;;;;;;;;;1,000000;0,750000;0,375000;0,375000;0,250000;0,250000;0,250000;0,250000;
96;;;;;;;;;;;;;;;;;;;;;;;;;;;;;;;;;;;;;;;;;;;;;;;;;;;;;;;;;;;;;;;;;;;;;;;;;;;;;;;;;;;;;;;;;;;;;;;;1,000000;0,500000;0,500000;0,375000;0,375000;0,375000;0,375000;
97;;;;;;;;;;;;;;;;;;;;;;;;;;;;;;;;;;;;;;;;;;;;;;;;;;;;;;;;;;;;;;;;;;;;;;;;;;;;;;;;;;;;;;;;;;;;;;;;;1,000000;0,500000;0,375000;0,375000;0,375000;0,375000;
98;;;;;;;;;;;;;;;;;;;;;;;;;;;;;;;;;;;;;;;;;;;;;;;;;;;;;;;;;;;;;;;;;;;;;;;;;;;;;;;;;;;;;;;;;;;;;;;;;;1,000000;0,375000;0,375000;0,375000;0,375000;
99;;;;;;;;;;;;;;;;;;;;;;;;;;;;;;;;;;;;;;;;;;;;;;;;;;;;;;;;;;;;;;;;;;;;;;;;;;;;;;;;;;;;;;;;;;;;;;;;;;;1,000000;0,750000;0,750000;0,750000;
100;;;;;;;;;;;;;;;;;;;;;;;;;;;;;;;;;;;;;;;;;;;;;;;;;;;;;;;;;;;;;;;;;;;;;;;;;;;;;;;;;;;;;;;;;;;;;;;;;;;;1,000000;0,750000;0,750000;
101;;;;;;;;;;;;;;;;;;;;;;;;;;;;;;;;;;;;;;;;;;;;;;;;;;;;;;;;;;;;;;;;;;;;;;;;;;;;;;;;;;;;;;;;;;;;;;;;;;;;;1,000000;0,750000;
102;;;;;;;;;;;;;;;;;;;;;;;;;;;;;;;;;;;;;;;;;;;;;;;;;;;;;;;;;;;;;;;;;;;;;;;;;;;;;;;;;;;;;;;;;;;;;;;;;;;;;;1,000000;
