;1; 2; 3; 4; 5; 6; 7; 8; 9; 10; 11; 12; 13; 14; 15; 16; 17; 18; 19; 20; 21; 22; 23; 24; 25; 26; 27; 28; 29; 30; 31; 32; 33; 34; 35; 36; 37; 38; 39; 40; 41; 42; 43; 44; 45; 46; 47; 48; 49; 50; 51; 52; 53; 54; 55; 56; 57; 58; 59; 60; 61
1;1,000000;0,000000;0,625000;0,625000;0,644285;0,625000;0,644285;0,651367;0,644285;0,550138;0,000000;0,573741;0,000000;0,833333;0,750000;0,750000;0,750000;0,644285;0,666667;0,666667;0,666667;0,666667;0,666667;0,750000;0,750000;0,666667;0,666667;0,750000;0,561825;0,000000;0,000000;1,000000;0,625000;0,625000;0,625000;0,625000;0,602428;0,000000;0,000000;0,750000;0,750000;0,750000;0,750000;0,000000;0,000000;0,750000;0,750000;0,000000;0,800000;0,000000;0,000000;0,000000;0,000000;0,000000;0,000000;0,632263;0,625000;0,000000;0,750000;0,000000;0,000000;
2;;1,000000;0,450801;0,450801;0,483864;0,450801;0,451874;0,458108;0,451874;0,266343;0,285427;0,296046;0,311839;0,260723;0,290861;0,288449;0,288449;0,469032;0,397123;0,397123;0,397123;0,364293;0,400200;0,288310;0,288310;0,389366;0,389366;0,271387;0,160300;0,271387;0,271387;0,000000;0,468296;0,458767;0,468296;0,468296;0,000000;0,266614;0,196387;0,288171;0,288171;0,289180;0,289180;0,000000;0,000000;0,289135;0,289135;0,180704;0,290485;0,000000;0,000000;0,000000;0,000000;0,188053;0,188053;0,224325;0,458767;0,270628;0,296220;0,146387;0,146387;
3;;;1,000000;0,750000;0,668836;0,750000;0,269285;0,276367;0,269285;0,175138;0,000000;0,198741;0,000000;0,458333;0,375000;0,375000;0,375000;0,269285;0,291667;0,291667;0,291667;0,291667;0,291667;0,375000;0,375000;0,583333;0,583333;0,375000;0,186825;0,000000;0,000000;0,625000;0,250000;0,250000;0,250000;0,250000;0,227428;0,000000;0,000000;0,375000;0,375000;0,375000;0,375000;0,000000;0,000000;0,375000;0,375000;0,000000;0,425000;0,000000;0,000000;0,000000;0,000000;0,000000;0,000000;0,257263;0,250000;0,000000;0,375000;0,000000;0,000000;
4;;;;1,000000;0,668836;0,750000;0,269285;0,276367;0,269285;0,175138;0,000000;0,198741;0,000000;0,458333;0,375000;0,375000;0,375000;0,269285;0,291667;0,291667;0,291667;0,291667;0,291667;0,375000;0,375000;0,583333;0,583333;0,375000;0,186825;0,000000;0,000000;0,625000;0,250000;0,250000;0,250000;0,250000;0,227428;0,000000;0,000000;0,375000;0,375000;0,375000;0,375000;0,000000;0,000000;0,375000;0,375000;0,000000;0,425000;0,000000;0,000000;0,000000;0,000000;0,000000;0,000000;0,257263;0,250000;0,000000;0,375000;0,000000;0,000000;
5;;;;;1,000000;0,668836;0,288570;0,295652;0,288570;0,194423;0,000000;0,218026;0,000000;0,477618;0,394285;0,394285;0,394285;0,288570;0,310952;0,310952;0,310952;0,310952;0,310952;0,394285;0,394285;0,564191;0,564191;0,394285;0,206110;0,000000;0,000000;0,644285;0,269285;0,269285;0,269285;0,269285;0,246713;0,000000;0,000000;0,394285;0,394285;0,394285;0,394285;0,000000;0,000000;0,394285;0,394285;0,000000;0,444285;0,000000;0,000000;0,000000;0,000000;0,000000;0,000000;0,276548;0,269285;0,000000;0,394285;0,000000;0,000000;
6;;;;;;1,000000;0,269285;0,276367;0,269285;0,175138;0,000000;0,198741;0,000000;0,458333;0,375000;0,375000;0,375000;0,269285;0,291667;0,291667;0,291667;0,291667;0,291667;0,375000;0,375000;0,583333;0,583333;0,375000;0,186825;0,000000;0,000000;0,625000;0,250000;0,250000;0,250000;0,250000;0,227428;0,000000;0,000000;0,375000;0,375000;0,375000;0,375000;0,000000;0,000000;0,375000;0,375000;0,000000;0,425000;0,000000;0,000000;0,000000;0,000000;0,000000;0,000000;0,257263;0,250000;0,000000;0,375000;0,000000;0,000000;
7;;;;;;;1,000000;0,706490;0,713616;0,194423;0,000000;0,218026;0,000000;0,477618;0,394285;0,394285;0,394285;0,789663;0,310952;0,310952;0,310952;0,310952;0,856808;0,394285;0,394285;0,310952;0,310952;0,394285;0,206110;0,000000;0,000000;0,644285;0,269285;0,269285;0,269285;0,269285;0,246713;0,000000;0,000000;0,394285;0,394285;0,394285;0,394285;0,000000;0,000000;0,394285;0,394285;0,000000;0,444285;0,000000;0,000000;0,000000;0,000000;0,000000;0,000000;0,276548;0,269285;0,000000;0,394285;0,000000;0,000000;
8;;;;;;;;1,000000;0,706490;0,201505;0,000000;0,225108;0,000000;0,484700;0,401367;0,401367;0,401367;0,760084;0,318033;0,318033;0,318033;0,318033;0,587680;0,401367;0,401367;0,318033;0,318033;0,401367;0,213192;0,000000;0,000000;0,651367;0,276367;0,276367;0,276367;0,276367;0,253794;0,000000;0,000000;0,401367;0,401367;0,401367;0,401367;0,000000;0,000000;0,401367;0,401367;0,000000;0,451367;0,000000;0,000000;0,000000;0,000000;0,000000;0,000000;0,283629;0,276367;0,000000;0,401367;0,000000;0,000000;
9;;;;;;;;;1,000000;0,194423;0,000000;0,218026;0,000000;0,477618;0,394285;0,394285;0,394285;0,789663;0,310952;0,310952;0,310952;0,310952;0,856808;0,394285;0,394285;0,310952;0,310952;0,394285;0,206110;0,000000;0,000000;0,644285;0,269285;0,269285;0,269285;0,269285;0,246713;0,000000;0,000000;0,394285;0,394285;0,394285;0,394285;0,000000;0,000000;0,394285;0,394285;0,000000;0,444285;0,000000;0,000000;0,000000;0,000000;0,000000;0,000000;0,276548;0,269285;0,000000;0,394285;0,000000;0,000000;
10;;;;;;;;;;1,000000;0,585987;0,666667;0,434954;0,383471;0,300138;0,300138;0,300138;0,194423;0,216805;0,216805;0,216805;0,503980;0,216805;0,300138;0,300138;0,216805;0,216805;0,300138;0,395125;0,360611;0,360611;0,550138;0,175138;0,175138;0,175138;0,175138;0,458521;0,360611;0,285611;0,300138;0,300138;0,300138;0,300138;0,360611;0,360611;0,300138;0,300138;0,567937;0,350138;0,000000;0,000000;0,000000;0,000000;0,277277;0,277277;0,416667;0,175138;0,360611;0,300138;0,235611;0,235611;
11;;;;;;;;;;;1,000000;0,566364;0,470103;0,000000;0,000000;0,000000;0,000000;0,000000;0,000000;0,000000;0,000000;0,587800;0,000000;0,000000;0,000000;0,000000;0,000000;0,000000;0,341519;0,416667;0,416667;0,000000;0,000000;0,000000;0,000000;0,000000;0,372112;0,416667;0,341667;0,000000;0,000000;0,000000;0,000000;0,416667;0,416667;0,000000;0,000000;0,666667;0,000000;0,000000;0,000000;0,000000;0,000000;0,333333;0,333333;0,309955;0,000000;0,416667;0,000000;0,291667;0,291667;
12;;;;;;;;;;;;1,000000;0,385040;0,407074;0,323741;0,323741;0,323741;0,218026;0,240408;0,240408;0,240408;0,557884;0,240408;0,323741;0,323741;0,240408;0,240408;0,323741;0,395125;0,332772;0,332772;0,573741;0,198741;0,198741;0,198741;0,198741;0,458521;0,332772;0,257772;0,323741;0,323741;0,323741;0,323741;0,332772;0,332772;0,323741;0,323741;0,808212;0,373741;0,000000;0,000000;0,000000;0,000000;0,249438;0,249438;0,416667;0,198741;0,332772;0,323741;0,207772;0,207772;
13;;;;;;;;;;;;;1,000000;0,000000;0,000000;0,000000;0,000000;0,000000;0,000000;0,000000;0,000000;0,429865;0,000000;0,000000;0,000000;0,000000;0,000000;0,377031;0,510010;0,377031;0,377031;0,000000;0,000000;0,000000;0,000000;0,000000;0,314149;0,321933;0,509451;0,000000;0,000000;0,000000;0,000000;0,330868;0,330868;0,000000;0,000000;0,463906;0,214856;0,000000;0,000000;0,000000;0,000000;0,485424;0,485424;0,295723;0,000000;0,298085;0,000000;0,573577;0,573577;
14;;;;;;;;;;;;;;1,000000;0,583333;0,583333;0,583333;0,477618;0,500000;0,500000;0,500000;0,500000;0,500000;0,583333;0,583333;0,500000;0,500000;0,583333;0,395158;0,000000;0,000000;0,833333;0,458333;0,458333;0,458333;0,458333;0,435761;0,000000;0,000000;0,583333;0,583333;0,583333;0,583333;0,000000;0,000000;0,583333;0,583333;0,000000;0,633333;0,000000;0,000000;0,000000;0,000000;0,000000;0,000000;0,465596;0,458333;0,000000;0,583333;0,000000;0,000000;
15;;;;;;;;;;;;;;;1,000000;0,500000;0,500000;0,394285;0,416667;0,416667;0,416667;0,416667;0,416667;0,500000;0,500000;0,416667;0,416667;0,500000;0,311825;0,000000;0,000000;0,750000;0,375000;0,375000;0,375000;0,375000;0,352428;0,000000;0,000000;0,500000;0,500000;0,500000;0,500000;0,000000;0,000000;0,500000;0,500000;0,000000;0,550000;0,000000;0,000000;0,000000;0,000000;0,000000;0,000000;0,382263;0,375000;0,000000;0,500000;0,000000;0,000000;
16;;;;;;;;;;;;;;;;1,000000;0,500000;0,394285;0,416667;0,416667;0,416667;0,416667;0,416667;0,500000;0,500000;0,416667;0,416667;0,500000;0,311825;0,000000;0,000000;0,750000;0,375000;0,375000;0,375000;0,375000;0,352428;0,000000;0,000000;0,500000;0,500000;0,500000;0,500000;0,000000;0,000000;0,500000;0,500000;0,000000;0,550000;0,000000;0,000000;0,000000;0,000000;0,000000;0,000000;0,382263;0,375000;0,000000;0,500000;0,000000;0,000000;
17;;;;;;;;;;;;;;;;;1,000000;0,394285;0,416667;0,416667;0,416667;0,416667;0,416667;0,500000;0,500000;0,416667;0,416667;0,500000;0,311825;0,000000;0,000000;0,750000;0,375000;0,375000;0,375000;0,375000;0,352428;0,000000;0,000000;0,500000;0,500000;0,500000;0,500000;0,000000;0,000000;0,500000;0,500000;0,000000;0,550000;0,000000;0,000000;0,000000;0,000000;0,000000;0,000000;0,382263;0,375000;0,000000;0,500000;0,000000;0,000000;
18;;;;;;;;;;;;;;;;;;1,000000;0,310952;0,310952;0,310952;0,310952;0,621904;0,394285;0,394285;0,310952;0,310952;0,394285;0,206110;0,000000;0,000000;0,644285;0,269285;0,269285;0,269285;0,269285;0,246713;0,000000;0,000000;0,394285;0,394285;0,394285;0,394285;0,000000;0,000000;0,394285;0,394285;0,000000;0,444285;0,000000;0,000000;0,000000;0,000000;0,000000;0,000000;0,276548;0,269285;0,000000;0,394285;0,000000;0,000000;
19;;;;;;;;;;;;;;;;;;;1,000000;0,666667;0,666667;0,333333;0,333333;0,416667;0,416667;0,333333;0,333333;0,416667;0,228492;0,000000;0,000000;0,666667;0,291667;0,291667;0,291667;0,291667;0,269094;0,000000;0,000000;0,416667;0,416667;0,416667;0,416667;0,000000;0,000000;0,416667;0,416667;0,000000;0,466667;0,000000;0,000000;0,000000;0,000000;0,000000;0,000000;0,298929;0,291667;0,000000;0,416667;0,000000;0,000000;
20;;;;;;;;;;;;;;;;;;;;1,000000;0,666667;0,333333;0,333333;0,416667;0,416667;0,333333;0,333333;0,416667;0,228492;0,000000;0,000000;0,666667;0,291667;0,291667;0,291667;0,291667;0,269094;0,000000;0,000000;0,416667;0,416667;0,416667;0,416667;0,000000;0,000000;0,416667;0,416667;0,000000;0,466667;0,000000;0,000000;0,000000;0,000000;0,000000;0,000000;0,298929;0,291667;0,000000;0,416667;0,000000;0,000000;
21;;;;;;;;;;;;;;;;;;;;;1,000000;0,333333;0,333333;0,416667;0,416667;0,333333;0,333333;0,416667;0,228492;0,000000;0,000000;0,666667;0,291667;0,291667;0,291667;0,291667;0,269094;0,000000;0,000000;0,416667;0,416667;0,416667;0,416667;0,000000;0,000000;0,416667;0,416667;0,000000;0,466667;0,000000;0,000000;0,000000;0,000000;0,000000;0,000000;0,298929;0,291667;0,000000;0,416667;0,000000;0,000000;
22;;;;;;;;;;;;;;;;;;;;;;1,000000;0,333333;0,416667;0,416667;0,333333;0,333333;0,416667;0,228492;0,000000;0,000000;0,666667;0,291667;0,291667;0,291667;0,291667;0,269094;0,000000;0,000000;0,416667;0,416667;0,416667;0,416667;0,000000;0,000000;0,416667;0,416667;0,333333;0,466667;0,000000;0,000000;0,000000;0,000000;0,000000;0,000000;0,298929;0,291667;0,000000;0,416667;0,000000;0,000000;
23;;;;;;;;;;;;;;;;;;;;;;;1,000000;0,416667;0,416667;0,333333;0,333333;0,416667;0,228492;0,000000;0,000000;0,666667;0,291667;0,291667;0,291667;0,291667;0,269094;0,000000;0,000000;0,416667;0,416667;0,416667;0,416667;0,000000;0,000000;0,416667;0,416667;0,000000;0,466667;0,000000;0,000000;0,000000;0,000000;0,000000;0,000000;0,298929;0,291667;0,000000;0,416667;0,000000;0,000000;
24;;;;;;;;;;;;;;;;;;;;;;;;1,000000;0,500000;0,416667;0,416667;0,500000;0,311825;0,000000;0,000000;0,750000;0,375000;0,375000;0,375000;0,375000;0,352428;0,000000;0,000000;0,500000;0,500000;0,500000;0,500000;0,000000;0,000000;0,500000;0,500000;0,000000;0,550000;0,000000;0,000000;0,000000;0,000000;0,000000;0,000000;0,382263;0,375000;0,000000;0,500000;0,000000;0,000000;
25;;;;;;;;;;;;;;;;;;;;;;;;;1,000000;0,416667;0,416667;0,500000;0,311825;0,000000;0,000000;0,750000;0,375000;0,375000;0,375000;0,375000;0,352428;0,000000;0,000000;0,500000;0,500000;0,500000;0,500000;0,000000;0,000000;0,500000;0,500000;0,000000;0,550000;0,000000;0,000000;0,000000;0,000000;0,000000;0,000000;0,382263;0,375000;0,000000;0,500000;0,000000;0,000000;
26;;;;;;;;;;;;;;;;;;;;;;;;;;1,000000;0,666667;0,416667;0,228492;0,000000;0,000000;0,666667;0,291667;0,291667;0,291667;0,291667;0,269094;0,000000;0,000000;0,416667;0,416667;0,416667;0,416667;0,000000;0,000000;0,416667;0,416667;0,000000;0,466667;0,000000;0,000000;0,000000;0,000000;0,000000;0,000000;0,298929;0,291667;0,000000;0,416667;0,000000;0,000000;
27;;;;;;;;;;;;;;;;;;;;;;;;;;;1,000000;0,416667;0,228492;0,000000;0,000000;0,666667;0,291667;0,291667;0,291667;0,291667;0,269094;0,000000;0,000000;0,416667;0,416667;0,416667;0,416667;0,000000;0,000000;0,416667;0,416667;0,000000;0,466667;0,000000;0,000000;0,000000;0,000000;0,000000;0,000000;0,298929;0,291667;0,000000;0,416667;0,000000;0,000000;
28;;;;;;;;;;;;;;;;;;;;;;;;;;;;1,000000;0,311825;0,500000;0,500000;0,750000;0,375000;0,375000;0,375000;0,375000;0,352428;0,000000;0,425000;0,500000;0,500000;0,500000;0,500000;0,000000;0,000000;0,500000;0,500000;0,000000;0,550000;0,000000;0,000000;0,000000;0,000000;0,416667;0,416667;0,382263;0,375000;0,000000;0,500000;0,375000;0,375000;
29;;;;;;;;;;;;;;;;;;;;;;;;;;;;;1,000000;0,424852;0,424852;0,561825;0,186825;0,186825;0,186825;0,186825;0,520312;0,424852;0,567948;0,311825;0,311825;0,311825;0,311825;0,424852;0,424852;0,311825;0,311825;0,341519;0,361825;0,000000;0,000000;0,000000;0,000000;0,539915;0,539915;0,478458;0,186825;0,424852;0,311825;0,641414;0,641414;
30;;;;;;;;;;;;;;;;;;;;;;;;;;;;;;1,000000;1,000000;0,000000;0,000000;0,000000;0,000000;0,000000;0,455445;0,500000;0,850000;0,000000;0,000000;0,000000;0,000000;0,500000;0,500000;0,000000;0,000000;0,416667;0,000000;0,000000;0,000000;0,000000;0,000000;0,833333;0,833333;0,393288;0,000000;0,500000;0,000000;0,750000;0,750000;
31;;;;;;;;;;;;;;;;;;;;;;;;;;;;;;;1,000000;0,000000;0,000000;0,000000;0,000000;0,000000;0,455445;0,500000;0,850000;0,000000;0,000000;0,000000;0,000000;0,500000;0,500000;0,000000;0,000000;0,416667;0,000000;0,000000;0,000000;0,000000;0,000000;0,833333;0,833333;0,393288;0,000000;0,500000;0,000000;0,750000;0,750000;
32;;;;;;;;;;;;;;;;;;;;;;;;;;;;;;;;1,000000;0,625000;0,625000;0,625000;0,625000;0,602428;0,000000;0,000000;0,750000;0,750000;0,750000;0,750000;0,000000;0,000000;0,750000;0,750000;0,000000;0,800000;0,000000;0,000000;0,000000;0,000000;0,000000;0,000000;0,632263;0,625000;0,000000;0,750000;0,000000;0,000000;
33;;;;;;;;;;;;;;;;;;;;;;;;;;;;;;;;;1,000000;0,750000;0,750000;0,750000;0,227428;0,000000;0,000000;0,375000;0,375000;0,375000;0,375000;0,000000;0,000000;0,375000;0,375000;0,000000;0,425000;0,000000;0,000000;0,000000;0,000000;0,000000;0,000000;0,257263;0,750000;0,000000;0,375000;0,000000;0,000000;
34;;;;;;;;;;;;;;;;;;;;;;;;;;;;;;;;;;1,000000;0,750000;0,750000;0,227428;0,000000;0,000000;0,375000;0,375000;0,375000;0,375000;0,000000;0,000000;0,375000;0,375000;0,000000;0,425000;0,000000;0,000000;0,000000;0,000000;0,000000;0,000000;0,257263;1,000000;0,000000;0,375000;0,000000;0,000000;
35;;;;;;;;;;;;;;;;;;;;;;;;;;;;;;;;;;;1,000000;0,750000;0,227428;0,000000;0,000000;0,375000;0,375000;0,375000;0,375000;0,000000;0,000000;0,375000;0,375000;0,000000;0,425000;0,000000;0,000000;0,000000;0,000000;0,000000;0,000000;0,257263;0,750000;0,000000;0,375000;0,000000;0,000000;
36;;;;;;;;;;;;;;;;;;;;;;;;;;;;;;;;;;;;1,000000;0,227428;0,000000;0,000000;0,375000;0,375000;0,375000;0,375000;0,000000;0,000000;0,375000;0,375000;0,000000;0,425000;0,000000;0,000000;0,000000;0,000000;0,000000;0,000000;0,257263;0,750000;0,000000;0,375000;0,000000;0,000000;
37;;;;;;;;;;;;;;;;;;;;;;;;;;;;;;;;;;;;;1,000000;0,455445;0,380445;0,352428;0,352428;0,352428;0,352428;0,455445;0,455445;0,352428;0,352428;0,372112;0,402428;0,000000;0,000000;0,000000;0,000000;0,372112;0,372112;0,541854;0,227428;0,455445;0,352428;0,330445;0,330445;
38;;;;;;;;;;;;;;;;;;;;;;;;;;;;;;;;;;;;;;1,000000;0,425000;0,000000;0,000000;0,000000;0,000000;0,500000;0,500000;0,000000;0,000000;0,416667;0,000000;0,000000;0,000000;0,000000;0,000000;0,416667;0,416667;0,393288;0,000000;0,500000;0,000000;0,375000;0,375000;
39;;;;;;;;;;;;;;;;;;;;;;;;;;;;;;;;;;;;;;;1,000000;0,000000;0,000000;0,000000;0,000000;0,425000;0,425000;0,000000;0,000000;0,341667;0,000000;0,000000;0,000000;0,000000;0,000000;0,683333;0,683333;0,318288;0,000000;0,425000;0,000000;0,796250;0,796250;
40;;;;;;;;;;;;;;;;;;;;;;;;;;;;;;;;;;;;;;;;1,000000;0,500000;0,500000;0,500000;0,000000;0,000000;0,500000;0,500000;0,000000;0,550000;0,000000;0,000000;0,000000;0,000000;0,000000;0,000000;0,382263;0,375000;0,000000;0,500000;0,000000;0,000000;
41;;;;;;;;;;;;;;;;;;;;;;;;;;;;;;;;;;;;;;;;;1,000000;0,500000;0,500000;0,000000;0,000000;0,500000;0,500000;0,000000;0,550000;0,000000;0,000000;0,000000;0,000000;0,000000;0,000000;0,382263;0,375000;0,000000;0,500000;0,000000;0,000000;
42;;;;;;;;;;;;;;;;;;;;;;;;;;;;;;;;;;;;;;;;;;1,000000;0,500000;0,000000;0,000000;0,500000;0,500000;0,000000;0,550000;0,000000;0,000000;0,000000;0,000000;0,000000;0,000000;0,382263;0,375000;0,000000;0,500000;0,000000;0,000000;
43;;;;;;;;;;;;;;;;;;;;;;;;;;;;;;;;;;;;;;;;;;;1,000000;0,000000;0,000000;0,500000;0,500000;0,000000;0,550000;0,000000;0,000000;0,000000;0,000000;0,000000;0,000000;0,382263;0,375000;0,000000;0,500000;0,000000;0,000000;
44;;;;;;;;;;;;;;;;;;;;;;;;;;;;;;;;;;;;;;;;;;;;1,000000;0,500000;0,000000;0,000000;0,416667;0,000000;0,000000;0,000000;0,000000;0,000000;0,416667;0,416667;0,393288;0,000000;0,500000;0,000000;0,375000;0,375000;
45;;;;;;;;;;;;;;;;;;;;;;;;;;;;;;;;;;;;;;;;;;;;;1,000000;0,000000;0,000000;0,416667;0,000000;0,000000;0,000000;0,000000;0,000000;0,416667;0,416667;0,393288;0,000000;0,500000;0,000000;0,375000;0,375000;
46;;;;;;;;;;;;;;;;;;;;;;;;;;;;;;;;;;;;;;;;;;;;;;1,000000;0,500000;0,000000;0,550000;0,000000;0,000000;0,000000;0,000000;0,000000;0,000000;0,382263;0,375000;0,000000;0,500000;0,000000;0,000000;
47;;;;;;;;;;;;;;;;;;;;;;;;;;;;;;;;;;;;;;;;;;;;;;;1,000000;0,000000;0,550000;0,000000;0,000000;0,000000;0,000000;0,000000;0,000000;0,382263;0,375000;0,000000;0,500000;0,000000;0,000000;
48;;;;;;;;;;;;;;;;;;;;;;;;;;;;;;;;;;;;;;;;;;;;;;;;1,000000;0,000000;0,000000;0,000000;0,000000;0,000000;0,333333;0,333333;0,309955;0,000000;0,416667;0,000000;0,291667;0,291667;
49;;;;;;;;;;;;;;;;;;;;;;;;;;;;;;;;;;;;;;;;;;;;;;;;;1,000000;0,000000;0,000000;0,000000;0,000000;0,000000;0,000000;0,432263;0,425000;0,416771;0,550000;0,000000;0,000000;
50;;;;;;;;;;;;;;;;;;;;;;;;;;;;;;;;;;;;;;;;;;;;;;;;;;1,000000;0,666667;0,666667;0,666667;0,000000;0,000000;0,000000;0,000000;0,000000;0,000000;0,000000;0,000000;
51;;;;;;;;;;;;;;;;;;;;;;;;;;;;;;;;;;;;;;;;;;;;;;;;;;;1,000000;0,666667;0,666667;0,000000;0,000000;0,000000;0,000000;0,000000;0,000000;0,000000;0,000000;
52;;;;;;;;;;;;;;;;;;;;;;;;;;;;;;;;;;;;;;;;;;;;;;;;;;;;1,000000;0,666667;0,000000;0,000000;0,000000;0,000000;0,000000;0,000000;0,000000;0,000000;
53;;;;;;;;;;;;;;;;;;;;;;;;;;;;;;;;;;;;;;;;;;;;;;;;;;;;;1,000000;0,000000;0,000000;0,000000;0,000000;0,000000;0,000000;0,000000;0,000000;
54;;;;;;;;;;;;;;;;;;;;;;;;;;;;;;;;;;;;;;;;;;;;;;;;;;;;;;1,000000;0,666667;0,309955;0,000000;0,416667;0,000000;0,583333;0,583333;
55;;;;;;;;;;;;;;;;;;;;;;;;;;;;;;;;;;;;;;;;;;;;;;;;;;;;;;;1,000000;0,309955;0,000000;0,416667;0,000000;0,583333;0,583333;
56;;;;;;;;;;;;;;;;;;;;;;;;;;;;;;;;;;;;;;;;;;;;;;;;;;;;;;;;1,000000;0,257263;0,393288;0,784314;0,268288;0,268288;
57;;;;;;;;;;;;;;;;;;;;;;;;;;;;;;;;;;;;;;;;;;;;;;;;;;;;;;;;;1,000000;0,000000;0,375000;0,000000;0,000000;
58;;;;;;;;;;;;;;;;;;;;;;;;;;;;;;;;;;;;;;;;;;;;;;;;;;;;;;;;;;1,000000;0,000000;0,375000;0,375000;
59;;;;;;;;;;;;;;;;;;;;;;;;;;;;;;;;;;;;;;;;;;;;;;;;;;;;;;;;;;;1,000000;0,000000;0,000000;
60;;;;;;;;;;;;;;;;;;;;;;;;;;;;;;;;;;;;;;;;;;;;;;;;;;;;;;;;;;;;1,000000;0,750000;
61;;;;;;;;;;;;;;;;;;;;;;;;;;;;;;;;;;;;;;;;;;;;;;;;;;;;;;;;;;;;;1,000000;
