;1; 2; 3; 4; 5; 6; 7; 8; 9; 10; 11; 12; 13; 14; 15; 16; 17; 18; 19; 20; 21; 22; 23; 24; 25; 26; 27; 28; 29; 30; 31; 32; 33; 34; 35; 36; 37; 38; 39; 40; 41; 42; 43; 44; 45; 46; 47; 48; 49; 50; 51; 52; 53; 54; 55; 56; 57; 58; 59; 60; 61; 62; 63; 64; 65; 66; 67; 68; 69; 70; 71; 72; 73; 74; 75; 76; 77; 78; 79; 80; 81; 82; 83; 84; 85; 86; 87; 88; 89; 90; 91
1;1,000000;0,683368;0,683074;0,716648;0,654796;0,710774;0,662685;0,744359;0,671349;0,712821;0,635607;0,708689;0,680225;0,667477;0,711050;0,720580;0,741626;0,698865;0,756642;0,768520;0,734788;0,746229;0,747267;0,680811;0,622265;0,763010;0,703456;0,745564;0,693595;0,744978;0,795324;0,571930;0,658791;0,621614;0,607295;0,664992;0,744964;0,741668;0,744964;0,704701;0,662933;0,799259;0,705011;0,795147;0,795147;0,624853;0,662535;0,497568;0,657070;0,663131;0,497577;0,746008;0,746008;0,748543;0,748543;0,587412;0,794526;0,794526;0,794526;0,790532;0,794841;0,500000;0,500000;0,500000;0,663356;0,669927;0,664813;0,662708;0,000000;0,745267;0,745267;0,665086;0,000000;0,498280;0,664813;0,000000;0,000000;0,000000;0,744918;0,744918;0,497953;0,744965;0,744965;0,744965;0,662595;0,662595;0,000000;0,000000;0,000000;0,794711;0,745407;
2;;1,000000;0,677068;0,707351;0,713789;0,667575;0,659706;0,642622;0,630033;0,693560;0,520819;0,768340;0,542880;0,647941;0,692001;0,539290;0,734001;0,822865;0,747711;0,761459;0,724940;0,742994;0,262168;0,333377;0,388835;0,774594;0,702083;0,742435;0,696245;0,732718;0,791965;0,693547;0,971295;0,377326;0,424826;0,333743;0,740702;0,736012;0,740702;0,700680;0,659976;0,203311;0,314087;0,791587;0,791587;0,735962;0,659573;0,984878;0,652141;0,660557;0,985154;0,496782;0,496782;0,252148;0,252148;0,587588;0,790383;0,790383;0,790383;0,783544;0,790574;0,491709;0,489209;0,496334;0,652323;0,500339;0,659328;0,659572;0,984706;0,496916;0,496916;0,333743;0,984706;0,496334;0,659328;0,332967;0,332967;0,332967;0,740970;0,740970;0,496334;0,740972;0,740972;0,740972;0,659371;0,659371;0,332967;0,332967;0,332967;0,790735;0,741526;
3;;;1,000000;0,805415;0,750000;0,739101;0,659737;0,545838;0,583177;0,581506;0,585391;0,475121;0,692506;0,608580;0,674045;0,685027;0,461328;0,507402;0,551655;0,524051;0,652181;0,534737;0,282799;0,323195;0,328664;0,579279;0,535499;0,742330;0,531295;0,475036;0,629830;0,626870;0,327789;0,349649;0,337510;0,327789;0,534737;0,587727;0,534737;0,715457;0,929688;0,229868;0,315434;0,459737;0,459737;0,766714;0,938374;0,454868;0,461313;0,659737;0,859398;0,484398;0,484398;0,267368;0,267368;0,371410;0,459737;0,459737;0,459737;0,495579;0,459737;0,000000;0,409737;0,454868;0,327789;0,517748;0,329868;0,659737;0,829868;0,267368;0,267368;0,327789;0,829868;0,454868;0,329868;0,000000;0,000000;0,000000;0,534737;0,534737;0,909737;0,534737;0,534737;0,534737;0,659737;0,659737;0,000000;0,000000;0,000000;0,459737;0,534737;
4;;;;1,000000;0,766909;0,659213;0,642548;0,483883;0,585548;0,376145;0,553687;0,273859;0,480473;0,546782;0,637996;0,664280;0,470889;0,429359;0,499382;0,480327;0,622502;0,509215;0,263245;0,294434;0,297683;0,530952;0,471821;0,736468;0,295587;0,257679;0,616468;0,604271;0,313234;0,334058;0,315052;0,313234;0,509215;0,560780;0,509215;0,702702;0,642548;0,214607;0,299506;0,429215;0,429215;0,633974;0,642548;0,454607;0,602093;0,642548;0,454607;0,254607;0,254607;0,254607;0,254607;0,361702;0,429215;0,429215;0,429215;0,448691;0,429215;0,000000;0,402730;0,454607;0,313234;0,460631;0,321274;0,642548;0,854607;0,254607;0,254607;0,313234;0,854607;0,454607;0,321274;0,000000;0,000000;0,000000;0,509215;0,509215;0,909215;0,509215;0,509215;0,509215;0,642548;0,642548;0,000000;0,000000;0,000000;0,429215;0,509215;
5;;;;;1,000000;0,677827;0,630914;0,454799;0,577241;0,497828;0,567180;0,284111;0,438925;0,511881;0,543980;0,606080;0,457139;0,404609;0,474453;0,460938;0,623229;0,497581;0,268941;0,305308;0,309888;0,506023;0,442738;0,709308;0,302910;0,263374;0,589308;0,559004;0,318930;0,341381;0,324544;0,318930;0,497581;0,630982;0,497581;0,657435;0,922607;0,218025;0,305202;0,417581;0,417581;0,748954;0,630914;0,458025;0,727870;0,630914;0,458025;0,258025;0,258025;0,258025;0,258025;0,367398;0,417581;0,417581;0,417581;0,429302;0,417581;0,416667;0,403259;0,458025;0,318930;0,435702;0,324691;0,630914;0,858025;0,258025;0,258025;0,318930;0,858025;0,458025;0,324691;0,316667;0,316667;0,316667;0,497581;0,497581;0,897581;0,497581;0,497581;0,497581;0,630914;0,630914;0,316667;0,316667;0,316667;0,417581;0,497581;
6;;;;;;1,000000;0,645057;0,423769;0,484747;0,690470;0,516761;0,344680;0,430696;0,776241;0,608861;0,692343;0,705817;0,551649;0,659785;0,558644;0,603834;0,725589;0,260823;0,307714;0,316246;0,498692;0,406538;0,725994;0,303429;0,253865;0,773485;0,668246;0,323310;0,355216;0,336111;0,323310;0,723451;0,622255;0,723451;0,674345;0,953388;0,206654;0,306149;0,589225;0,589225;0,811801;0,645057;0,936444;0,758622;0,952861;0,479381;0,252108;0,252108;0,252108;0,252108;0,383894;0,402633;0,402633;0,402633;0,404827;0,402633;0,458333;0,446728;0,479381;0,323310;0,404029;0,327866;0,950715;0,933926;0,252108;0,252108;0,323310;0,933926;0,479381;0,327866;0,325758;0,325758;0,325758;0,493542;0,493542;0,948087;0,493542;0,493542;0,493542;0,645057;0,645057;0,325758;0,325758;0,325758;0,402633;0,725994;
7;;;;;;;1,000000;0,617672;0,331584;0,541505;0,643936;0,325013;0,634831;0,649692;0,648081;0,595010;0,305556;0,327591;0,616091;0,851522;0,620128;0,583333;0,308339;0,333152;0,335694;0,629903;0,612847;0,583333;0,328125;0,305556;0,533333;0,589903;0,333333;0,344956;0,627500;0,333333;0,583333;0,567905;0,583333;0,636825;0,666667;0,266667;0,326469;0,533333;0,533333;0,567905;0,666667;0,416667;0,338889;0,666667;0,416667;0,291667;0,291667;0,291667;0,291667;0,357567;0,800000;0,800000;0,800000;0,834686;0,533333;0,000000;0,375000;0,416667;0,333333;0,599137;0,333333;0,666667;0,666667;0,583333;0,583333;0,333333;0,666667;0,416667;0,333333;0,000000;0,000000;0,000000;0,583333;0,583333;0,833333;0,583333;0,583333;0,583333;0,666667;0,666667;0,000000;0,000000;0,000000;0,800000;0,583333;
8;;;;;;;;1,000000;0,264093;0,334685;0,409063;0,254307;0,391631;0,472154;0,439883;0,397892;0,246817;0,261525;0,520139;0,626977;0,490179;0,484339;0,252383;0,273698;0,274408;0,554447;0,470013;0,484339;0,281622;0,246817;0,404339;0,431481;0,302372;0,566303;0,440519;0,547281;0,484339;0,387486;0,484339;0,525325;0,617672;0,208090;0,288644;0,404339;0,404339;0,387486;0,617672;0,448090;0,312449;0,617672;0,448090;0,248090;0,248090;0,248090;0,248090;0,350840;0,748674;0,748674;0,748674;0,591109;0,575928;0,000000;0,388764;0,448090;0,302372;0,407325;0,314757;0,617672;0,848090;0,677188;0,677188;0,302372;0,848090;0,861702;0,314757;0,000000;0,000000;0,000000;0,484339;0,484339;0,884339;0,484339;0,484339;0,484339;0,617672;0,617672;0,000000;0,000000;0,000000;0,748611;0,484339;
9;;;;;;;;;1,000000;0,614542;0,428396;0,300053;0,346600;0,345369;0,399706;0,363380;0,250000;0,354803;0,400271;0,361289;0,463316;0,257510;0,000000;0,000000;0,000000;0,249325;0,255014;0,719628;0,318182;0,266667;0,399128;0,398431;0,000000;0,000000;0,000000;0,000000;0,488177;0,515476;0,488177;0,420495;0,331584;0,000000;0,000000;0,213065;0,213065;0,621110;0,637708;0,000000;0,627565;0,331584;0,481481;0,259259;0,259259;0,000000;0,000000;0,000000;0,213065;0,213065;0,213065;0,223518;0,213065;0,500000;0,500000;0,500000;0,000000;0,268433;0,000000;0,331584;0,000000;0,000000;0,000000;0,000000;0,000000;0,000000;0,000000;0,666667;0,666667;0,666667;0,257510;0,257510;0,479732;0,257510;0,257510;0,257510;0,331584;0,331584;0,666667;0,666667;0,666667;0,213065;0,488134;
10;;;;;;;;;;1,000000;0,560080;0,455971;0,570934;0,649485;0,591857;0,472829;0,500000;0,536616;0,468572;0,369318;0,479247;0,855008;0,254175;0,268196;0,268217;0,382554;0,326644;0,430394;0,428832;0,399027;0,540916;0,494013;0,291667;0,301930;0,283592;0,291667;0,430394;0,484435;0,430394;0,567834;0,541505;0,216667;0,281371;0,540916;0,540916;0,484435;0,822282;0,416667;0,683333;0,807583;0,766018;0,432685;0,432685;0,250000;0,250000;0,328017;0,363727;0,363727;0,363727;0,345591;0,363727;0,416667;0,380479;0,416667;0,291667;0,333329;0,305556;0,541505;0,750000;0,250000;0,250000;0,291667;0,750000;0,416667;0,305556;0,333333;0,333333;0,333333;0,430394;0,430394;0,763727;0,430394;0,430394;0,430394;0,541505;0,541505;0,333333;0,333333;0,333333;0,363727;0,430394;
11;;;;;;;;;;;1,000000;0,700165;0,636094;0,606061;0,511856;0,517069;0,477327;0,490345;0,445726;0,436556;0,476081;0,490090;0,266221;0,325091;0,435055;0,604864;0,591257;0,490090;0,698496;0,736731;0,397782;0,427060;0,639959;0,366549;0,351653;0,330493;0,490090;0,486332;0,490090;0,547716;0,643936;0,208727;0,312843;0,397782;0,397782;0,486332;0,643936;0,485650;0,664836;0,643936;0,485650;0,726096;0,726096;0,254881;0,254881;0,581833;0,397782;0,397782;0,397782;0,395882;0,397782;0,476190;0,463238;0,485650;0,330493;0,391474;0,331804;0,643936;0,947189;0,254881;0,254881;0,330493;0,947189;0,485650;0,331804;0,333333;0,333333;0,333333;0,490090;0,490090;0,951629;0,490090;0,490090;0,490090;0,643936;0,643936;0,333333;0,333333;0,333333;0,397782;0,490090;
12;;;;;;;;;;;;1,000000;0,672633;0,377673;0,329683;0,410561;0,455775;0,610887;0,246485;0,236568;0,260037;0,253585;0,262535;0,301302;0,493056;0,473765;0,518889;0,253585;0,754801;0,768819;0,210727;0,303329;0,637546;0,344913;0,325535;0,318773;0,253585;0,256273;0,253585;0,285201;0,325013;0,210727;0,303329;0,210727;0,210727;0,256273;0,650026;0,467870;0,000000;0,325013;0,935741;0,728043;0,728043;0,253585;0,253585;0,586686;0,210727;0,210727;0,210727;0,218773;0,210727;0,000000;0,425031;0,467870;0,318773;0,293520;0,325013;0,325013;0,896442;0,253585;0,253585;0,318773;0,896442;0,467870;0,325013;0,000000;0,000000;0,000000;0,253585;0,253585;0,467870;0,253585;0,253585;0,253585;0,325013;0,325013;0,000000;0,000000;0,000000;0,210727;0,253585;
13;;;;;;;;;;;;;1,000000;0,531787;0,448595;0,500841;0,469694;0,492006;0,430236;0,425624;0,400401;0,483316;0,484497;0,523649;0,384756;0,643039;0,596893;0,483316;0,703589;0,733324;0,392407;0,416392;0,619976;0,358765;0,341237;0,325873;0,483316;0,361398;0,483316;0,533696;0,634831;0,393044;0,575150;0,392407;0,392407;0,361398;0,953565;0,480779;0,333333;0,634831;0,951288;0,726800;0,726800;0,483953;0,483953;0,730639;0,392407;0,392407;0,392407;0,586803;0,768133;0,000000;0,451209;0,480779;0,325873;0,378071;0,329264;0,634831;0,935325;0,253506;0,253506;0,609470;0,935325;0,480779;0,329264;0,000000;0,000000;0,000000;0,483316;0,483316;0,937861;0,483316;0,483316;0,483316;0,634831;0,634831;0,000000;0,000000;0,000000;0,392407;0,483316;
14;;;;;;;;;;;;;;1,000000;0,685605;0,579485;0,483061;0,543174;0,625140;0,472552;0,479522;0,757258;0,274450;0,326967;0,336460;0,529023;0,457680;0,506835;0,315918;0,268189;0,628687;0,624159;0,330689;0,360801;0,347200;0,330689;0,506835;0,414749;0,506835;0,734891;0,649692;0,217536;0,315244;0,628687;0,628687;0,414749;0,649692;0,474679;0,347882;0,971544;0,474679;0,260394;0,260394;0,260394;0,260394;0,385215;0,421121;0,421121;0,421121;0,436961;0,421121;0,000000;0,440918;0,474679;0,330689;0,446982;0,331822;0,649692;0,903251;0,260394;0,260394;0,330689;0,903251;0,474679;0,331822;0,000000;0,000000;0,000000;0,506835;0,506835;0,935407;0,506835;0,506835;0,506835;0,649692;0,649692;0,000000;0,000000;0,000000;0,421121;0,506835;
15;;;;;;;;;;;;;;;1,000000;0,765004;0,685275;0,566240;0,597756;0,561413;0,645851;0,739155;0,260536;0,304973;0,312499;0,509911;0,423182;0,728822;0,301969;0,253705;0,776753;0,675999;0,321887;0,352462;0,332859;0,321887;0,498081;0,506950;0,498081;0,681127;0,648081;0,207038;0,305038;0,773795;0,773795;0,390461;0,648081;0,929794;0,334617;0,648081;0,477038;0,252038;0,252038;0,252038;0,252038;0,381370;0,408081;0,408081;0,408081;0,414693;0,408081;0,000000;0,442594;0,477038;0,321887;0,417615;0,327038;0,951245;0,927038;0,252038;0,252038;0,321887;0,927038;0,477038;0,327038;0,000000;0,000000;0,000000;0,498081;0,498081;0,948081;0,498081;0,498081;0,498081;0,648081;0,648081;0,000000;0,000000;0,000000;0,408081;0,725769;
16;;;;;;;;;;;;;;;;1,000000;0,740508;0,670113;0,422202;0,420488;0,612991;0,470010;0,265046;0,292129;0,294525;0,449826;0,387553;0,725184;0,293796;0,260037;0,612684;0,599436;0,310037;0,327458;0,309772;0,310037;0,470010;0,560294;0,470010;0,688024;0,595010;0,218773;0,297681;0,395010;0,395010;0,374246;0,595010;0,443773;0,343333;0,595010;0,443773;0,256273;0,256273;0,256273;0,256273;0,353658;0,395010;0,395010;0,395010;0,392016;0,395010;0,000000;0,387546;0,443773;0,310037;0,388295;0,318773;0,595010;0,818773;0,256273;0,256273;0,310037;0,818773;0,443773;0,318773;0,000000;0,000000;0,000000;0,470010;0,470010;0,845010;0,470010;0,470010;0,470010;0,595010;0,595010;0,000000;0,000000;0,000000;0,395010;0,470010;
17;;;;;;;;;;;;;;;;;1,000000;0,701804;0,242873;0,236863;0,436228;0,250000;0,254175;0,268196;0,268217;0,281899;0,257679;0,500000;0,275000;0,250000;0,433333;0,467401;0,291667;0,301930;0,283592;0,291667;0,250000;0,375000;0,250000;0,463909;0,305556;0,216667;0,281371;0,216667;0,216667;0,250000;0,305556;0,416667;0,000000;0,305556;0,416667;0,250000;0,250000;0,250000;0,250000;0,328017;0,216667;0,216667;0,216667;0,225000;0,216667;0,000000;0,350000;0,416667;0,291667;0,271093;0,305556;0,305556;0,750000;0,250000;0,250000;0,291667;0,750000;0,416667;0,305556;0,000000;0,000000;0,000000;0,250000;0,250000;0,416667;0,250000;0,250000;0,250000;0,305556;0,305556;0,000000;0,000000;0,000000;0,216667;0,250000;
18;;;;;;;;;;;;;;;;;;1,000000;0,337901;0,241079;0,366969;0,716284;0,267046;0,311018;0,362948;0,404374;0,435620;0,493485;0,699457;0,863884;0,592453;0,561888;0,585503;0,350928;0,333737;0,323284;0,256162;0,301099;0,256162;0,569381;0,327591;0,213305;0,307840;0,399742;0,399742;0,260784;0,620264;0,470448;0,000000;0,628314;0,905979;0,477407;0,477407;0,256162;0,256162;0,534643;0,213305;0,213305;0,213305;0,223284;0,213305;0,000000;0,431045;0,470448;0,323284;0,299534;0,327591;0,327591;0,899019;0,256162;0,256162;0,323284;0,899019;0,470448;0,327591;0,000000;0,000000;0,000000;0,256162;0,256162;0,470448;0,256162;0,256162;0,256162;0,327591;0,327591;0,000000;0,000000;0,000000;0,213305;0,256162;
19;;;;;;;;;;;;;;;;;;;1,000000;0,596599;0,603238;0,696827;0,247882;0,262092;0,261517;0,491988;0,435738;0,720429;0,272341;0,242873;0,584327;0,554089;0,292873;0,306003;0,282953;0,292873;0,491091;0,552687;0,491091;0,642674;0,616091;0,208046;0,280518;0,754131;0,754131;0,407976;0,616091;0,433046;0,302873;0,884327;0,433046;0,245546;0,245546;0,245546;0,245546;0,336494;0,416091;0,416091;0,416091;0,522753;0,416091;0,000000;0,366091;0,433046;0,292873;0,430457;0,308046;0,616091;0,808046;0,245546;0,245546;0,292873;0,808046;0,433046;0,308046;0,000000;0,000000;0,000000;0,491091;0,491091;0,866091;0,491091;0,491091;0,491091;0,616091;0,616091;0,000000;0,000000;0,000000;0,587628;0,720429;
20;;;;;;;;;;;;;;;;;;;;1,000000;0,570402;0,482485;0,241038;0,247761;0,246323;0,577016;0,523235;0,691062;0,259236;0,236863;0,415818;0,441915;0,278530;0,286166;0,361837;0,278530;0,482485;0,536594;0,482485;0,512297;0,593596;0,207909;0,268234;0,591117;0,591117;0,408918;0,593596;0,407909;0,286863;0,593596;0,407909;0,241242;0,241242;0,241242;0,241242;0,314881;0,584855;0,584855;0,584855;0,641613;0,584886;0,000000;0,334236;0,407909;0,278530;0,427092;0,296798;0,593596;0,741242;0,444635;0,444635;0,278530;0,741242;0,407909;0,296798;0,000000;0,000000;0,000000;0,482485;0,482485;0,815818;0,482485;0,482485;0,482485;0,593596;0,593596;0,000000;0,000000;0,000000;0,756140;0,902051;
21;;;;;;;;;;;;;;;;;;;;;1,000000;0,486794;0,255566;0,279775;0,281229;0,482909;0,415771;0,712533;0,285714;0,250000;0,592533;0,564380;0,305556;0,324185;0,302254;0,305556;0,700000;0,639151;0,700000;0,662810;0,620128;0,210000;0,291827;0,592901;0,592901;0,500000;0,620128;0,450000;0,572839;0,620128;0,450000;0,250000;0,250000;0,250000;0,250000;0,354023;0,406794;0,406794;0,406794;0,503071;0,406794;0,416667;0,392857;0,450000;0,305556;0,412588;0,316667;0,620128;0,850000;0,250000;0,250000;0,305556;0,850000;0,450000;0,316667;0,316667;0,316667;0,316667;0,486794;0,486794;0,886794;0,486794;0,486794;0,486794;0,620128;0,620128;0,316667;0,316667;0,316667;0,580144;0,712901;
22;;;;;;;;;;;;;;;;;;;;;;1,000000;0,252783;0,260235;0,259936;0,504903;0,479514;0,500000;0,265625;0,250000;0,675000;0,688426;0,277778;0,282456;0,269595;0,277778;0,500000;0,456794;0,500000;0,737640;0,583333;0,225000;0,270914;0,675000;0,675000;0,456794;0,583333;0,375000;0,283333;0,875000;0,375000;0,250000;0,250000;0,250000;0,250000;0,302012;0,450000;0,450000;0,450000;0,466667;0,450000;0,000000;0,312500;0,375000;0,277778;0,474137;0,291667;0,583333;0,625000;0,250000;0,250000;0,277778;0,625000;0,375000;0,291667;0,000000;0,000000;0,000000;0,500000;0,500000;0,750000;0,500000;0,500000;0,500000;0,583333;0,583333;0,000000;0,000000;0,000000;0,450000;0,500000;
23;;;;;;;;;;;;;;;;;;;;;;;1,000000;0,745144;0,740106;0,286908;0,263245;0,252783;0,280009;0,254175;0,219450;0,285545;0,295841;0,306939;0,289555;0,295841;0,252783;0,254175;0,252783;0,273460;0,308339;0,828085;0,876288;0,219450;0,219450;0,254175;0,308339;0,419450;0,000000;0,308339;0,419450;0,252783;0,252783;0,758349;0,758349;0,664384;0,219450;0,219450;0,219450;0,229175;0,219450;0,000000;0,355009;0,419450;0,295841;0,276103;0,308339;0,308339;0,752783;0,252783;0,252783;0,887524;0,752783;0,419450;0,308339;0,000000;0,000000;0,000000;0,252783;0,252783;0,419450;0,252783;0,252783;0,252783;0,308339;0,308339;0,000000;0,000000;0,000000;0,219450;0,252783;
24;;;;;;;;;;;;;;;;;;;;;;;;1,000000;0,671106;0,330387;0,294434;0,260235;0,318314;0,268196;0,216485;0,316994;0,333011;0,365441;0,352700;0,333011;0,260235;0,268196;0,260235;0,298195;0,333152;0,798519;0,850112;0,216485;0,216485;0,268196;0,333152;0,478985;0,000000;0,333152;0,478985;0,260235;0,260235;0,744495;0,744495;0,779112;0,216485;0,216485;0,216485;0,229307;0,216485;0,000000;0,449564;0,478985;0,333011;0,311478;0,333152;0,333152;0,916485;0,260235;0,260235;0,666021;0,916485;0,478985;0,333152;0,000000;0,000000;0,000000;0,260235;0,260235;0,478985;0,260235;0,260235;0,260235;0,333152;0,333152;0,000000;0,000000;0,000000;0,216485;0,260235;
25;;;;;;;;;;;;;;;;;;;;;;;;;1,000000;0,426852;0,469402;0,259936;0,407609;0,482974;0,214482;0,320501;0,621863;0,375088;0,364814;0,337661;0,259936;0,268217;0,259936;0,300359;0,335694;0,794875;0,706533;0,214482;0,214482;0,268217;0,335694;0,487209;0,000000;0,335694;0,487209;0,259936;0,259936;0,740083;0,740083;0,565352;0,214482;0,214482;0,214482;0,226550;0,214482;0,000000;0,467531;0,487209;0,337661;0,315787;0,335694;0,335694;0,941755;0,259936;0,259936;0,656913;0,941755;0,487209;0,335694;0,000000;0,000000;0,000000;0,259936;0,259936;0,487209;0,259936;0,259936;0,259936;0,335694;0,335694;0,000000;0,000000;0,000000;0,214482;0,259936;
26;;;;;;;;;;;;;;;;;;;;;;;;;;1,000000;0,771522;0,504903;0,423047;0,474222;0,429903;0,469670;0,848974;0,354786;0,343931;0,331899;0,504903;0,430075;0,504903;0,554129;0,629903;0,232437;0,319544;0,429903;0,429903;0,430075;0,629903;0,457437;0,299491;0,629903;0,457437;0,269937;0,269937;0,269937;0,269937;0,533534;0,429903;0,429903;0,429903;0,690149;0,800846;0,000000;0,414874;0,457437;0,331899;0,458081;0,332437;0,629903;0,832437;0,269937;0,269937;0,331899;0,832437;0,457437;0,332437;0,000000;0,000000;0,000000;0,504903;0,504903;0,879903;0,504903;0,504903;0,504903;0,629903;0,629903;0,000000;0,000000;0,000000;0,602638;0,504903;
27;;;;;;;;;;;;;;;;;;;;;;;;;;;1,000000;0,479514;0,448033;0,499342;0,399514;0,423440;0,610453;0,334058;0,315052;0,313234;0,479514;0,379445;0,479514;0,517284;0,612847;0,214607;0,299506;0,399514;0,399514;0,379445;0,612847;0,454607;0,307909;0,612847;0,454607;0,254607;0,254607;0,254607;0,254607;0,565244;0,399514;0,399514;0,399514;0,608543;0,759156;0,000000;0,402730;0,454607;0,313234;0,396987;0,321274;0,612847;0,854607;0,254607;0,254607;0,313234;0,854607;0,454607;0,321274;0,000000;0,000000;0,000000;0,479514;0,479514;0,879514;0,479514;0,479514;0,479514;0,612847;0,612847;0,000000;0,000000;0,000000;0,572077;0,479514;
28;;;;;;;;;;;;;;;;;;;;;;;;;;;;1,000000;0,265625;0,250000;0,675000;0,688412;0,277778;0,282456;0,269595;0,277778;0,500000;0,880715;0,500000;0,737628;0,583333;0,225000;0,270914;0,450000;0,450000;0,456794;0,583333;0,375000;0,283333;0,583333;0,375000;0,250000;0,250000;0,250000;0,250000;0,302012;0,450000;0,450000;0,450000;0,466667;0,450000;0,000000;0,312500;0,375000;0,277778;0,474137;0,291667;0,583333;0,625000;0,250000;0,250000;0,277778;0,625000;0,375000;0,291667;0,000000;0,000000;0,000000;0,500000;0,500000;0,750000;0,500000;0,500000;0,500000;0,583333;0,583333;0,000000;0,000000;0,000000;0,450000;0,750000;
29;;;;;;;;;;;;;;;;;;;;;;;;;;;;;1,000000;0,928567;0,228125;0,312645;0,564216;0,346162;0,333152;0,325000;0,265625;0,275000;0,265625;0,298142;0,328125;0,228125;0,312645;0,228125;0,228125;0,275000;0,656250;0,453125;0,000000;0,328125;0,906250;0,742460;0,742460;0,265625;0,265625;0,523528;0,228125;0,228125;0,228125;0,245000;0,228125;0,000000;0,406250;0,453125;0,325000;0,307617;0,328125;0,328125;0,828125;0,265625;0,265625;0,325000;0,828125;0,453125;0,328125;0,000000;0,000000;0,000000;0,265625;0,265625;0,453125;0,265625;0,265625;0,265625;0,328125;0,328125;0,000000;0,000000;0,000000;0,228125;0,265625;
30;;;;;;;;;;;;;;;;;;;;;;;;;;;;;;1,000000;0,216667;0,281371;0,583333;0,301930;0,283592;0,291667;0,250000;0,250000;0,250000;0,269285;0,305556;0,216667;0,281371;0,216667;0,216667;0,250000;0,611111;0,416667;0,000000;0,305556;0,833333;0,500000;0,500000;0,250000;0,250000;0,549427;0,216667;0,216667;0,216667;0,225000;0,216667;0,000000;0,350000;0,416667;0,291667;0,271093;0,305556;0,305556;0,750000;0,250000;0,250000;0,291667;0,750000;0,416667;0,305556;0,000000;0,000000;0,000000;0,250000;0,250000;0,416667;0,250000;0,250000;0,250000;0,305556;0,305556;0,000000;0,000000;0,000000;0,216667;0,250000;
31;;;;;;;;;;;;;;;;;;;;;;;;;;;;;;;1,000000;0,766377;0,244444;0,244956;0,227928;0,244444;0,450000;0,566667;0,450000;0,818564;0,533333;0,200000;0,237580;0,600000;0,600000;0,390128;0,533333;0,700000;0,250000;0,800000;0,350000;0,225000;0,225000;0,225000;0,225000;0,268678;0,400000;0,400000;0,400000;0,400000;0,400000;0,000000;0,275000;0,350000;0,244444;0,399137;0,266667;0,533333;0,600000;0,225000;0,225000;0,244444;0,600000;0,350000;0,266667;0,000000;0,000000;0,000000;0,450000;0,450000;0,700000;0,450000;0,450000;0,450000;0,533333;0,533333;0,000000;0,000000;0,000000;0,400000;0,450000;
32;;;;;;;;;;;;;;;;;;;;;;;;;;;;;;;;1,000000;0,323037;0,339574;0,328407;0,323037;0,478792;0,532618;0,478792;0,777412;0,589903;0,237580;0,312741;0,588426;0,588426;0,403379;0,589903;0,437580;0,275000;0,855092;0,437580;0,270914;0,270914;0,270914;0,270914;0,359388;0,412125;0,412125;0,412125;0,418188;0,412125;0,000000;0,387645;0,437580;0,323037;0,420445;0,326469;0,589903;0,770914;0,270914;0,270914;0,323037;0,770914;0,437580;0,326469;0,000000;0,000000;0,000000;0,478792;0,478792;0,812125;0,478792;0,478792;0,478792;0,589903;0,589903;0,000000;0,000000;0,000000;0,412125;0,478792;
33;;;;;;;;;;;;;;;;;;;;;;;;;;;;;;;;;1,000000;0,351930;0,343115;0,333333;0,277778;0,291667;0,277778;0,310952;0,333333;0,244444;0,323037;0,244444;0,244444;0,291667;0,333333;0,444444;0,000000;0,333333;0,444444;0,277778;0,277778;0,277778;0,277778;0,632760;0,244444;0,244444;0,244444;0,486745;0,488889;0,000000;0,400000;0,444444;0,333333;0,321093;0,333333;0,333333;0,777778;0,277778;0,277778;0,333333;0,777778;0,444444;0,333333;0,000000;0,000000;0,000000;0,277778;0,277778;0,444444;0,277778;0,277778;0,277778;0,333333;0,333333;0,000000;0,000000;0,000000;0,244444;0,277778;
34;;;;;;;;;;;;;;;;;;;;;;;;;;;;;;;;;;1,000000;0,585047;0,703859;0,282456;0,301930;0,282456;0,325072;0,344956;0,244956;0,339574;0,244956;0,244956;0,301930;0,344956;0,469956;0,000000;0,344956;0,469956;0,282456;0,282456;0,282456;0,282456;0,395550;0,244956;0,244956;0,244956;0,271930;0,244956;0,000000;0,439912;0,469956;0,351930;0,341279;0,344956;0,344956;0,844956;0,564912;0,564912;0,351930;0,844956;0,939912;0,344956;0,000000;0,000000;0,000000;0,282456;0,282456;0,469956;0,282456;0,282456;0,282456;0,344956;0,344956;0,000000;0,000000;0,000000;0,244956;0,282456;
35;;;;;;;;;;;;;;;;;;;;;;;;;;;;;;;;;;;1,000000;0,649045;0,269595;0,283592;0,269595;0,311142;0,339040;0,227928;0,328407;0,227928;0,227928;0,283592;0,339040;0,477928;0,000000;0,339040;0,477928;0,269595;0,269595;0,269595;0,269595;0,395045;0,405278;0,405278;0,405278;0,342493;0,227928;0,000000;0,450339;0,477928;0,343115;0,327047;0,339040;0,339040;0,894595;0,709401;0,709401;0,343115;0,894595;0,477928;0,339040;0,000000;0,000000;0,000000;0,269595;0,269595;0,477928;0,269595;0,269595;0,269595;0,339040;0,339040;0,000000;0,000000;0,000000;0,405278;0,269595;
36;;;;;;;;;;;;;;;;;;;;;;;;;;;;;;;;;;;;1,000000;0,277778;0,291667;0,277778;0,310952;0,333333;0,244444;0,323037;0,244444;0,244444;0,291667;0,333333;0,444444;0,000000;0,333333;0,444444;0,277778;0,277778;0,277778;0,277778;0,369684;0,244444;0,244444;0,244444;0,266667;0,244444;0,000000;0,400000;0,444444;0,333333;0,321093;0,333333;0,333333;0,777778;0,555556;0,555556;0,333333;0,777778;0,888889;0,333333;0,000000;0,000000;0,000000;0,277778;0,277778;0,444444;0,277778;0,277778;0,277778;0,333333;0,333333;0,000000;0,000000;0,000000;0,244444;0,277778;
37;;;;;;;;;;;;;;;;;;;;;;;;;;;;;;;;;;;;;1,000000;0,667208;0,750000;0,525714;0,583333;0,225000;0,270914;0,450000;0,450000;0,456794;0,583333;0,375000;0,283333;0,583333;0,375000;0,250000;0,250000;0,250000;0,250000;0,302012;0,450000;0,450000;0,450000;0,466667;0,450000;0,000000;0,312500;0,375000;0,277778;0,474137;0,291667;0,583333;0,625000;0,250000;0,250000;0,277778;0,625000;0,375000;0,291667;0,000000;0,000000;0,000000;0,500000;0,500000;0,750000;0,500000;0,500000;0,500000;0,583333;0,583333;0,000000;0,000000;0,000000;0,450000;0,500000;
38;;;;;;;;;;;;;;;;;;;;;;;;;;;;;;;;;;;;;;1,000000;0,667208;0,606442;0,567905;0,216667;0,281371;0,390128;0,390128;0,500000;0,567905;0,416667;0,541387;0,567905;0,416667;0,250000;0,250000;0,250000;0,250000;0,328017;0,390128;0,390128;0,390128;0,385191;0,390128;0,375000;0,350000;0,416667;0,291667;0,380850;0,305556;0,567905;0,750000;0,250000;0,250000;0,291667;0,750000;0,416667;0,305556;0,305556;0,305556;0,305556;0,456794;0,456794;0,790128;0,456794;0,456794;0,456794;0,567905;0,567905;0,305556;0,305556;0,305556;0,390128;0,666667;
39;;;;;;;;;;;;;;;;;;;;;;;;;;;;;;;;;;;;;;;1,000000;0,525714;0,583333;0,225000;0,270914;0,450000;0,450000;0,456794;0,583333;0,375000;0,283333;0,583333;0,375000;0,250000;0,250000;0,250000;0,250000;0,302012;0,450000;0,450000;0,450000;0,466667;0,450000;0,000000;0,312500;0,375000;0,277778;0,474137;0,291667;0,583333;0,625000;0,250000;0,250000;0,277778;0,625000;0,375000;0,291667;0,000000;0,000000;0,000000;0,500000;0,500000;0,750000;0,500000;0,500000;0,500000;0,583333;0,583333;0,000000;0,000000;0,000000;0,450000;0,500000;
40;;;;;;;;;;;;;;;;;;;;;;;;;;;;;;;;;;;;;;;;1,000000;0,636825;0,229523;0,300656;0,637640;0,637640;0,473762;0,636825;0,429523;0,319285;0,904306;0,429523;0,262857;0,262857;0,262857;0,262857;0,347303;0,459047;0,459047;0,459047;0,488570;0,459047;0,000000;0,373142;0,429523;0,310952;0,504904;0,318412;0,636825;0,762857;0,262857;0,262857;0,310952;0,762857;0,429523;0,318412;0,000000;0,000000;0,000000;0,525714;0,525714;0,859047;0,525714;0,525714;0,525714;0,636825;0,636825;0,000000;0,000000;0,000000;0,459047;0,525714;
41;;;;;;;;;;;;;;;;;;;;;;;;;;;;;;;;;;;;;;;;;1,000000;0,266667;0,326469;0,533333;0,533333;0,833638;0,666667;0,416667;0,338889;0,666667;0,416667;0,291667;0,291667;0,291667;0,291667;0,357567;0,533333;0,533333;0,533333;0,577778;0,533333;0,000000;0,375000;0,416667;0,333333;0,599137;0,333333;0,666667;0,666667;0,291667;0,291667;0,333333;0,666667;0,416667;0,333333;0,000000;0,000000;0,000000;0,583333;0,583333;0,833333;0,583333;0,583333;0,583333;0,666667;0,666667;0,000000;0,000000;0,000000;0,533333;0,583333;
42;;;;;;;;;;;;;;;;;;;;;;;;;;;;;;;;;;;;;;;;;;1,000000;0,822860;0,200000;0,200000;0,216667;0,266667;0,350000;0,000000;0,266667;0,350000;0,225000;0,225000;0,675000;0,675000;0,537357;0,200000;0,200000;0,200000;0,200000;0,200000;0,000000;0,275000;0,350000;0,244444;0,225683;0,266667;0,266667;0,600000;0,225000;0,225000;0,733333;0,600000;0,350000;0,266667;0,000000;0,000000;0,000000;0,225000;0,225000;0,350000;0,225000;0,225000;0,225000;0,266667;0,266667;0,000000;0,000000;0,000000;0,200000;0,225000;
43;;;;;;;;;;;;;;;;;;;;;;;;;;;;;;;;;;;;;;;;;;;1,000000;0,237580;0,237580;0,281371;0,326469;0,437580;0,000000;0,326469;0,437580;0,270914;0,270914;0,747744;0,747744;0,718776;0,237580;0,237580;0,237580;0,256371;0,237580;0,000000;0,387645;0,437580;0,323037;0,308738;0,326469;0,326469;0,770914;0,270914;0,270914;0,871617;0,770914;0,437580;0,326469;0,000000;0,000000;0,000000;0,270914;0,270914;0,437580;0,270914;0,270914;0,270914;0,326469;0,326469;0,000000;0,000000;0,000000;0,237580;0,270914;
44;;;;;;;;;;;;;;;;;;;;;;;;;;;;;;;;;;;;;;;;;;;;1,000000;0,800000;0,390128;0,533333;0,350000;0,250000;0,800000;0,350000;0,225000;0,225000;0,225000;0,225000;0,268678;0,400000;0,400000;0,400000;0,400000;0,400000;0,000000;0,275000;0,350000;0,244444;0,399137;0,266667;0,533333;0,600000;0,225000;0,225000;0,244444;0,600000;0,350000;0,266667;0,000000;0,000000;0,000000;0,450000;0,450000;0,700000;0,450000;0,450000;0,450000;0,533333;0,533333;0,000000;0,000000;0,000000;0,400000;0,675000;
45;;;;;;;;;;;;;;;;;;;;;;;;;;;;;;;;;;;;;;;;;;;;;1,000000;0,390128;0,533333;0,350000;0,250000;0,800000;0,350000;0,225000;0,225000;0,225000;0,225000;0,268678;0,400000;0,400000;0,400000;0,400000;0,400000;0,000000;0,275000;0,350000;0,244444;0,399137;0,266667;0,533333;0,600000;0,225000;0,225000;0,244444;0,600000;0,350000;0,266667;0,000000;0,000000;0,000000;0,450000;0,450000;0,700000;0,450000;0,450000;0,450000;0,533333;0,533333;0,000000;0,000000;0,000000;0,400000;0,675000;
46;;;;;;;;;;;;;;;;;;;;;;;;;;;;;;;;;;;;;;;;;;;;;;1,000000;0,567905;0,416667;0,736960;0,567905;0,416667;0,250000;0,250000;0,250000;0,250000;0,328017;0,390128;0,390128;0,390128;0,385191;0,390128;0,375000;0,350000;0,416667;0,291667;0,380850;0,305556;0,567905;0,750000;0,250000;0,250000;0,291667;0,750000;0,416667;0,305556;0,305556;0,305556;0,305556;0,456794;0,456794;0,790128;0,456794;0,456794;0,456794;0,567905;0,567905;0,305556;0,305556;0,305556;0,390128;0,456794;
47;;;;;;;;;;;;;;;;;;;;;;;;;;;;;;;;;;;;;;;;;;;;;;;1,000000;0,416667;0,338889;0,666667;0,833333;0,583333;0,583333;0,291667;0,291667;0,357567;0,533333;0,533333;0,533333;0,577778;0,533333;0,000000;0,375000;0,416667;0,333333;0,599137;0,333333;0,666667;0,666667;0,291667;0,291667;0,333333;0,666667;0,416667;0,333333;0,000000;0,000000;0,000000;0,583333;0,583333;0,833333;0,583333;0,583333;0,583333;0,666667;0,666667;0,000000;0,000000;0,000000;0,533333;0,583333;
48;;;;;;;;;;;;;;;;;;;;;;;;;;;;;;;;;;;;;;;;;;;;;;;;1,000000;0,000000;0,416667;0,500000;0,375000;0,375000;0,375000;0,375000;0,468678;0,350000;0,350000;0,350000;0,400000;0,350000;0,000000;0,500000;0,500000;0,444444;0,450683;0,416667;0,416667;0,750000;0,375000;0,375000;0,444444;0,750000;0,500000;0,416667;0,000000;0,000000;0,000000;0,375000;0,375000;0,500000;0,375000;0,375000;0,375000;0,416667;0,416667;0,000000;0,000000;0,000000;0,350000;0,375000;
49;;;;;;;;;;;;;;;;;;;;;;;;;;;;;;;;;;;;;;;;;;;;;;;;;1,000000;0,338889;0,000000;0,000000;0,000000;0,000000;0,000000;0,000000;0,250000;0,250000;0,250000;0,275000;0,250000;0,425000;0,410000;0,000000;0,000000;0,310000;0,000000;0,338889;0,000000;0,000000;0,000000;0,000000;0,000000;0,000000;0,000000;0,338889;0,338889;0,338889;0,283333;0,283333;0,450000;0,283333;0,283333;0,283333;0,338889;0,338889;0,338889;0,338889;0,338889;0,250000;0,283333;
50;;;;;;;;;;;;;;;;;;;;;;;;;;;;;;;;;;;;;;;;;;;;;;;;;;1,000000;0,416667;0,291667;0,291667;0,291667;0,291667;0,357567;0,533333;0,533333;0,533333;0,577778;0,533333;0,000000;0,375000;0,416667;0,333333;0,599137;0,333333;0,666667;0,666667;0,291667;0,291667;0,333333;0,666667;0,416667;0,333333;0,000000;0,000000;0,000000;0,583333;0,583333;0,833333;0,583333;0,583333;0,583333;0,666667;0,666667;0,000000;0,000000;0,000000;0,533333;0,583333;
51;;;;;;;;;;;;;;;;;;;;;;;;;;;;;;;;;;;;;;;;;;;;;;;;;;;1,000000;0,750000;0,750000;0,375000;0,375000;0,468678;0,350000;0,350000;0,350000;0,400000;0,350000;0,000000;0,500000;0,500000;0,444444;0,450683;0,416667;0,416667;0,750000;0,375000;0,375000;0,444444;0,750000;0,500000;0,416667;0,000000;0,000000;0,000000;0,375000;0,375000;0,500000;0,375000;0,375000;0,375000;0,416667;0,416667;0,000000;0,000000;0,000000;0,350000;0,375000;
52;;;;;;;;;;;;;;;;;;;;;;;;;;;;;;;;;;;;;;;;;;;;;;;;;;;;1,000000;0,750000;0,250000;0,250000;0,302012;0,225000;0,225000;0,225000;0,233333;0,225000;0,000000;0,312500;0,375000;0,277778;0,263183;0,291667;0,291667;0,625000;0,250000;0,250000;0,277778;0,625000;0,375000;0,291667;0,000000;0,000000;0,000000;0,250000;0,250000;0,375000;0,250000;0,250000;0,250000;0,291667;0,291667;0,000000;0,000000;0,000000;0,225000;0,250000;
53;;;;;;;;;;;;;;;;;;;;;;;;;;;;;;;;;;;;;;;;;;;;;;;;;;;;;1,000000;0,250000;0,250000;0,302012;0,225000;0,225000;0,225000;0,233333;0,225000;0,000000;0,312500;0,375000;0,277778;0,263183;0,291667;0,291667;0,625000;0,250000;0,250000;0,277778;0,625000;0,375000;0,291667;0,000000;0,000000;0,000000;0,250000;0,250000;0,375000;0,250000;0,250000;0,250000;0,291667;0,291667;0,000000;0,000000;0,000000;0,225000;0,250000;
54;;;;;;;;;;;;;;;;;;;;;;;;;;;;;;;;;;;;;;;;;;;;;;;;;;;;;;1,000000;0,750000;0,604023;0,225000;0,225000;0,225000;0,233333;0,225000;0,000000;0,312500;0,375000;0,277778;0,263183;0,291667;0,291667;0,625000;0,250000;0,250000;0,833333;0,625000;0,375000;0,291667;0,000000;0,000000;0,000000;0,250000;0,250000;0,375000;0,250000;0,250000;0,250000;0,291667;0,291667;0,000000;0,000000;0,000000;0,225000;0,250000;
55;;;;;;;;;;;;;;;;;;;;;;;;;;;;;;;;;;;;;;;;;;;;;;;;;;;;;;;1,000000;0,604023;0,225000;0,225000;0,225000;0,233333;0,225000;0,000000;0,312500;0,375000;0,277778;0,263183;0,291667;0,291667;0,625000;0,250000;0,250000;0,833333;0,625000;0,375000;0,291667;0,000000;0,000000;0,000000;0,250000;0,250000;0,375000;0,250000;0,250000;0,250000;0,291667;0,291667;0,000000;0,000000;0,000000;0,225000;0,250000;
56;;;;;;;;;;;;;;;;;;;;;;;;;;;;;;;;;;;;;;;;;;;;;;;;;;;;;;;;1,000000;0,268678;0,268678;0,268678;0,303017;0,268678;0,000000;0,443621;0,468678;0,369684;0,364714;0,357567;0,357567;0,802012;0,302012;0,302012;0,739368;0,802012;0,468678;0,357567;0,000000;0,000000;0,000000;0,302012;0,302012;0,468678;0,302012;0,302012;0,302012;0,357567;0,357567;0,000000;0,000000;0,000000;0,268678;0,302012;
57;;;;;;;;;;;;;;;;;;;;;;;;;;;;;;;;;;;;;;;;;;;;;;;;;;;;;;;;;1,000000;0,800000;0,800000;0,568019;0,400000;0,000000;0,275000;0,350000;0,244444;0,399137;0,266667;0,533333;0,600000;0,450000;0,450000;0,244444;0,600000;0,350000;0,266667;0,000000;0,000000;0,000000;0,450000;0,450000;0,700000;0,450000;0,450000;0,450000;0,533333;0,533333;0,000000;0,000000;0,000000;0,600000;0,450000;
58;;;;;;;;;;;;;;;;;;;;;;;;;;;;;;;;;;;;;;;;;;;;;;;;;;;;;;;;;;1,000000;0,800000;0,568019;0,400000;0,000000;0,275000;0,350000;0,244444;0,399137;0,266667;0,533333;0,600000;0,450000;0,450000;0,244444;0,600000;0,350000;0,266667;0,000000;0,000000;0,000000;0,450000;0,450000;0,700000;0,450000;0,450000;0,450000;0,533333;0,533333;0,000000;0,000000;0,000000;0,600000;0,450000;
59;;;;;;;;;;;;;;;;;;;;;;;;;;;;;;;;;;;;;;;;;;;;;;;;;;;;;;;;;;;1,000000;0,568019;0,400000;0,000000;0,275000;0,350000;0,244444;0,399137;0,266667;0,533333;0,600000;0,450000;0,450000;0,244444;0,600000;0,350000;0,266667;0,000000;0,000000;0,000000;0,450000;0,450000;0,700000;0,450000;0,450000;0,450000;0,533333;0,533333;0,000000;0,000000;0,000000;0,600000;0,450000;
60;;;;;;;;;;;;;;;;;;;;;;;;;;;;;;;;;;;;;;;;;;;;;;;;;;;;;;;;;;;;1,000000;0,738091;0,000000;0,320000;0,400000;0,266667;0,398620;0,288889;0,577778;0,733333;0,435608;0,435608;0,266667;0,733333;0,400000;0,288889;0,000000;0,000000;0,000000;0,466667;0,466667;0,800000;0,466667;0,466667;0,466667;0,577778;0,577778;0,000000;0,000000;0,000000;0,738155;0,466667;
61;;;;;;;;;;;;;;;;;;;;;;;;;;;;;;;;;;;;;;;;;;;;;;;;;;;;;;;;;;;;;1,000000;0,000000;0,275000;0,350000;0,244444;0,399137;0,266667;0,533333;0,600000;0,225000;0,225000;0,244444;0,600000;0,350000;0,266667;0,000000;0,000000;0,000000;0,450000;0,450000;0,700000;0,450000;0,450000;0,450000;0,533333;0,533333;0,000000;0,000000;0,000000;0,600000;0,450000;
62;;;;;;;;;;;;;;;;;;;;;;;;;;;;;;;;;;;;;;;;;;;;;;;;;;;;;;;;;;;;;;1,000000;0,500000;0,500000;0,000000;0,000000;0,000000;0,000000;0,000000;0,000000;0,000000;0,000000;0,000000;0,000000;0,000000;0,388889;0,388889;0,388889;0,000000;0,000000;0,000000;0,000000;0,000000;0,000000;0,000000;0,000000;0,388889;0,388889;0,388889;0,000000;0,000000;
63;;;;;;;;;;;;;;;;;;;;;;;;;;;;;;;;;;;;;;;;;;;;;;;;;;;;;;;;;;;;;;;1,000000;0,500000;0,400000;0,401367;0,375000;0,375000;0,875000;0,312500;0,312500;0,400000;0,875000;0,500000;0,375000;0,375000;0,375000;0,375000;0,312500;0,312500;0,500000;0,312500;0,312500;0,312500;0,375000;0,375000;0,375000;0,375000;0,375000;0,275000;0,312500;
64;;;;;;;;;;;;;;;;;;;;;;;;;;;;;;;;;;;;;;;;;;;;;;;;;;;;;;;;;;;;;;;;1,000000;0,444444;0,450683;0,416667;0,416667;0,750000;0,375000;0,375000;0,444444;0,750000;0,500000;0,416667;0,000000;0,000000;0,000000;0,375000;0,375000;0,500000;0,375000;0,375000;0,375000;0,416667;0,416667;0,000000;0,000000;0,000000;0,350000;0,375000;
65;;;;;;;;;;;;;;;;;;;;;;;;;;;;;;;;;;;;;;;;;;;;;;;;;;;;;;;;;;;;;;;;;1,000000;0,610983;0,666667;0,333333;0,777778;0,277778;0,277778;0,333333;0,777778;0,444444;0,666667;0,000000;0,000000;0,000000;0,555556;0,555556;0,444444;0,277778;0,277778;0,277778;0,333333;0,333333;0,000000;0,000000;0,000000;0,244444;0,277778;
66;;;;;;;;;;;;;;;;;;;;;;;;;;;;;;;;;;;;;;;;;;;;;;;;;;;;;;;;;;;;;;;;;;1,000000;0,631796;0,599137;0,825683;0,263183;0,263183;0,321093;0,825683;0,450683;0,631796;0,000000;0,000000;0,000000;0,687496;0,687496;0,849137;0,474137;0,474137;0,474137;0,599137;0,599137;0,000000;0,000000;0,000000;0,399137;0,474137;
67;;;;;;;;;;;;;;;;;;;;;;;;;;;;;;;;;;;;;;;;;;;;;;;;;;;;;;;;;;;;;;;;;;;1,000000;0,333333;0,666667;0,291667;0,291667;0,333333;0,666667;0,416667;1,000000;0,000000;0,000000;0,000000;0,583333;0,583333;0,416667;0,291667;0,291667;0,291667;0,333333;0,333333;0,000000;0,000000;0,000000;0,266667;0,291667;
68;;;;;;;;;;;;;;;;;;;;;;;;;;;;;;;;;;;;;;;;;;;;;;;;;;;;;;;;;;;;;;;;;;;;1,000000;0,666667;0,291667;0,291667;0,333333;0,666667;0,416667;0,333333;0,000000;0,000000;0,000000;0,583333;0,583333;0,833333;0,583333;0,583333;0,583333;0,666667;0,666667;0,000000;0,000000;0,000000;0,533333;0,583333;
69;;;;;;;;;;;;;;;;;;;;;;;;;;;;;;;;;;;;;;;;;;;;;;;;;;;;;;;;;;;;;;;;;;;;;1,000000;0,625000;0,625000;0,777778;1,000000;0,750000;0,666667;0,000000;0,000000;0,000000;0,625000;0,625000;0,750000;0,625000;0,625000;0,625000;0,666667;0,666667;0,000000;0,000000;0,000000;0,600000;0,625000;
70;;;;;;;;;;;;;;;;;;;;;;;;;;;;;;;;;;;;;;;;;;;;;;;;;;;;;;;;;;;;;;;;;;;;;;1,000000;0,750000;0,277778;0,625000;0,750000;0,291667;0,000000;0,000000;0,000000;0,250000;0,250000;0,375000;0,250000;0,250000;0,250000;0,291667;0,291667;0,000000;0,000000;0,000000;0,450000;0,250000;
71;;;;;;;;;;;;;;;;;;;;;;;;;;;;;;;;;;;;;;;;;;;;;;;;;;;;;;;;;;;;;;;;;;;;;;;1,000000;0,277778;0,625000;0,750000;0,291667;0,000000;0,000000;0,000000;0,250000;0,250000;0,375000;0,250000;0,250000;0,250000;0,291667;0,291667;0,000000;0,000000;0,000000;0,450000;0,250000;
72;;;;;;;;;;;;;;;;;;;;;;;;;;;;;;;;;;;;;;;;;;;;;;;;;;;;;;;;;;;;;;;;;;;;;;;;1,000000;0,777778;0,444444;0,333333;0,000000;0,000000;0,000000;0,277778;0,277778;0,444444;0,277778;0,277778;0,277778;0,333333;0,333333;0,000000;0,000000;0,000000;0,244444;0,277778;
73;;;;;;;;;;;;;;;;;;;;;;;;;;;;;;;;;;;;;;;;;;;;;;;;;;;;;;;;;;;;;;;;;;;;;;;;;1,000000;0,750000;0,666667;0,000000;0,000000;0,000000;0,625000;0,625000;0,750000;0,625000;0,625000;0,625000;0,666667;0,666667;0,000000;0,000000;0,000000;0,600000;0,625000;
74;;;;;;;;;;;;;;;;;;;;;;;;;;;;;;;;;;;;;;;;;;;;;;;;;;;;;;;;;;;;;;;;;;;;;;;;;;1,000000;0,416667;0,000000;0,000000;0,000000;0,375000;0,375000;0,500000;0,375000;0,375000;0,375000;0,416667;0,416667;0,000000;0,000000;0,000000;0,350000;0,375000;
75;;;;;;;;;;;;;;;;;;;;;;;;;;;;;;;;;;;;;;;;;;;;;;;;;;;;;;;;;;;;;;;;;;;;;;;;;;;1,000000;0,000000;0,000000;0,000000;0,583333;0,583333;0,416667;0,291667;0,291667;0,291667;0,333333;0,333333;0,000000;0,000000;0,000000;0,266667;0,291667;
76;;;;;;;;;;;;;;;;;;;;;;;;;;;;;;;;;;;;;;;;;;;;;;;;;;;;;;;;;;;;;;;;;;;;;;;;;;;;1,000000;0,666667;0,666667;0,000000;0,000000;0,000000;0,000000;0,000000;0,000000;0,000000;0,000000;0,333333;0,333333;0,333333;0,000000;0,000000;
77;;;;;;;;;;;;;;;;;;;;;;;;;;;;;;;;;;;;;;;;;;;;;;;;;;;;;;;;;;;;;;;;;;;;;;;;;;;;;1,000000;0,666667;0,000000;0,000000;0,000000;0,000000;0,000000;0,000000;0,000000;0,000000;0,333333;0,333333;0,333333;0,000000;0,000000;
78;;;;;;;;;;;;;;;;;;;;;;;;;;;;;;;;;;;;;;;;;;;;;;;;;;;;;;;;;;;;;;;;;;;;;;;;;;;;;;1,000000;0,000000;0,000000;0,000000;0,000000;0,000000;0,000000;0,000000;0,000000;0,333333;0,333333;0,333333;0,000000;0,000000;
79;;;;;;;;;;;;;;;;;;;;;;;;;;;;;;;;;;;;;;;;;;;;;;;;;;;;;;;;;;;;;;;;;;;;;;;;;;;;;;;1,000000;0,750000;0,750000;0,500000;0,500000;0,500000;0,583333;0,583333;0,000000;0,000000;0,000000;0,450000;0,500000;
80;;;;;;;;;;;;;;;;;;;;;;;;;;;;;;;;;;;;;;;;;;;;;;;;;;;;;;;;;;;;;;;;;;;;;;;;;;;;;;;;1,000000;0,750000;0,500000;0,500000;0,500000;0,583333;0,583333;0,000000;0,000000;0,000000;0,450000;0,500000;
81;;;;;;;;;;;;;;;;;;;;;;;;;;;;;;;;;;;;;;;;;;;;;;;;;;;;;;;;;;;;;;;;;;;;;;;;;;;;;;;;;1,000000;0,750000;0,750000;0,750000;0,833333;0,833333;0,000000;0,000000;0,000000;0,700000;0,750000;
82;;;;;;;;;;;;;;;;;;;;;;;;;;;;;;;;;;;;;;;;;;;;;;;;;;;;;;;;;;;;;;;;;;;;;;;;;;;;;;;;;;1,000000;0,750000;0,750000;0,583333;0,583333;0,000000;0,000000;0,000000;0,450000;0,500000;
83;;;;;;;;;;;;;;;;;;;;;;;;;;;;;;;;;;;;;;;;;;;;;;;;;;;;;;;;;;;;;;;;;;;;;;;;;;;;;;;;;;;1,000000;0,750000;0,583333;0,583333;0,000000;0,000000;0,000000;0,450000;0,500000;
84;;;;;;;;;;;;;;;;;;;;;;;;;;;;;;;;;;;;;;;;;;;;;;;;;;;;;;;;;;;;;;;;;;;;;;;;;;;;;;;;;;;;1,000000;0,583333;0,583333;0,000000;0,000000;0,000000;0,450000;0,500000;
85;;;;;;;;;;;;;;;;;;;;;;;;;;;;;;;;;;;;;;;;;;;;;;;;;;;;;;;;;;;;;;;;;;;;;;;;;;;;;;;;;;;;;1,000000;0,666667;0,000000;0,000000;0,000000;0,533333;0,583333;
86;;;;;;;;;;;;;;;;;;;;;;;;;;;;;;;;;;;;;;;;;;;;;;;;;;;;;;;;;;;;;;;;;;;;;;;;;;;;;;;;;;;;;;1,000000;0,000000;0,000000;0,000000;0,533333;0,583333;
87;;;;;;;;;;;;;;;;;;;;;;;;;;;;;;;;;;;;;;;;;;;;;;;;;;;;;;;;;;;;;;;;;;;;;;;;;;;;;;;;;;;;;;;1,000000;0,666667;0,666667;0,000000;0,000000;
88;;;;;;;;;;;;;;;;;;;;;;;;;;;;;;;;;;;;;;;;;;;;;;;;;;;;;;;;;;;;;;;;;;;;;;;;;;;;;;;;;;;;;;;;1,000000;0,666667;0,000000;0,000000;
89;;;;;;;;;;;;;;;;;;;;;;;;;;;;;;;;;;;;;;;;;;;;;;;;;;;;;;;;;;;;;;;;;;;;;;;;;;;;;;;;;;;;;;;;;1,000000;0,000000;0,000000;
90;;;;;;;;;;;;;;;;;;;;;;;;;;;;;;;;;;;;;;;;;;;;;;;;;;;;;;;;;;;;;;;;;;;;;;;;;;;;;;;;;;;;;;;;;;1,000000;0,450000;
91;;;;;;;;;;;;;;;;;;;;;;;;;;;;;;;;;;;;;;;;;;;;;;;;;;;;;;;;;;;;;;;;;;;;;;;;;;;;;;;;;;;;;;;;;;;1,000000;
