;1; 2; 3; 4; 5; 6; 7; 8; 9; 10; 11; 12; 13; 14; 15; 16; 17; 18; 19; 20; 21; 22; 23; 24; 25; 26; 27; 28; 29; 30; 31; 32; 33; 34; 35; 36; 37; 38; 39; 40; 41; 42; 43; 44; 45; 46; 47; 48; 49; 50; 51; 52; 53; 54; 55; 56; 57; 58; 59; 60; 61; 62; 63; 64; 65; 66; 67; 68; 69; 70; 71; 72; 73; 74; 75; 76; 77; 78; 79; 80; 81; 82; 83; 84; 85; 86; 87; 88; 89; 90; 91; 92; 93; 94; 95; 96; 97; 98; 99; 100; 101; 102; 103; 104; 105; 106; 107; 108; 109; 110; 111; 112; 113
1;1,000000;0,204200;0,211456;0,366723;0,296509;0,389626;0,345053;0,336042;0,237408;0,286218;0,150765;0,308204;0,300980;0,423569;0,395896;0,474866;0,310886;0,367110;0,303846;0,369219;0,395674;0,326005;0,397563;0,376080;0,376080;0,294986;0,348742;0,322545;0,337306;0,370618;0,382119;0,382972;0,304473;0,520898;0,224371;0,352666;0,337148;0,240110;0,360804;0,409821;0,461321;0,447464;0,250390;0,364405;0,265669;0,294819;0,355619;0,595969;0,433415;0,349398;0,506509;0,407265;0,398973;0,416344;0,316378;0,355156;0,344661;0,417406;0,417740;0,259204;0,425527;0,358496;0,454456;0,454726;0,383789;0,374948;0,374948;0,373459;0,430375;0,430603;0,430827;0,000000;0,000000;0,527233;0,369259;0,356419;0,366297;0,262328;0,248830;0,382863;0,383117;0,000000;0,145624;0,145693;0,145763;0,145832;0,000000;0,000000;0,415989;0,425657;0,319419;0,210628;0,210719;0,367151;0,282312;0,158610;0,158678;0,158746;0,158815;0,000000;0,484101;0,484252;0,387833;0,388015;0,284012;0,383240;0,263583;0,257276;0,374848;0,000000;0,369386;0,430426;0,278407;
2;;1,000000;0,275023;0,215565;0,108809;0,120098;0,397677;0,239312;0,202696;0,408221;0,286328;0,161287;0,181592;0,180287;0,165010;0,299489;0,172566;0,158007;0,183816;0,477644;0,456518;0,199799;0,210217;0,000000;0,000000;0,126992;0,423570;0,197167;0,230945;0,095442;0,192599;0,192783;0,608258;0,301983;0,260429;0,193917;0,142771;0,265193;0,196943;0,187128;0,140209;0,147849;0,275561;0,220302;0,368477;0,000000;0,183473;0,000000;0,164812;0,198984;0,000000;0,159819;0,158997;0,165826;0,164213;0,197490;0,213605;0,169317;0,169424;0,270369;0,176894;0,194796;0,148911;0,149016;0,199805;0,253218;0,253331;0,205269;0,357678;0,357768;0,357859;0,000000;0,000000;0,000000;0,203886;0,151449;0,138008;0,279530;0,277914;0,291280;0,291280;0,573445;0,000000;0,000000;0,000000;0,000000;0,000000;0,000000;0,000000;0,000000;0,115163;0,000000;0,000000;0,207147;0,000000;0,000000;0,000000;0,000000;0,000000;0,573445;0,151298;0,151393;0,297232;0,297232;0,000000;0,211218;0,281988;0,284819;0,225493;0,573445;0,213497;0,176472;0,290670;
3;;;1,000000;0,164664;0,115982;0,127272;0,442411;0,163959;0,510673;0,334243;0,293502;0,168460;0,188766;0,209423;0,172183;0,182318;0,179739;0,165181;0,190989;0,424019;0,417726;0,206973;0,319286;0,000000;0,000000;0,134165;0,406306;0,641700;0,238119;0,102616;0,199773;0,199957;0,519877;0,316655;0,267602;0,201091;0,149945;0,272367;0,204117;0,194301;0,147383;0,155023;0,282734;0,283027;0,336048;0,157733;0,190646;0,027553;0,171986;0,206157;0,000000;0,166993;0,166170;0,173000;0,171387;0,204663;0,220778;0,176490;0,176598;0,277543;0,184068;0,201970;0,156084;0,156190;0,206979;0,416501;0,416795;0,212443;0,178112;0,178217;0,178321;0,000000;0,000000;0,000000;0,211059;0,158623;0,145182;0,286704;0,285087;0,298454;0,298454;0,580619;0,000000;0,000000;0,000000;0,000000;0,000000;0,000000;0,000000;0,000000;0,122337;0,214416;0,214507;0,428289;0,000000;0,000000;0,000000;0,000000;0,000000;0,580619;0,158471;0,158567;0,304405;0,304405;0,000000;0,218391;0,289161;0,291992;0,232667;0,580619;0,220670;0,183646;0,297844;
4;;;;1,000000;0,380798;0,557607;0,222782;0,413931;0,213295;0,216969;0,296928;0,432466;0,605160;0,534888;0,455003;0,447430;0,362439;0,616133;0,548038;0,365987;0,348544;0,434366;0,259026;0,145894;0,146137;0,317113;0,193158;0,207767;0,606867;0,336126;0,203199;0,203383;0,216939;0,000000;0,610509;0,399682;0,312268;0,275793;0,319359;0,278614;0,581084;0,558192;0,286160;0,230901;0,306967;0,146307;0,285237;0,174307;0,416297;0,209583;0,000000;0,505964;0,303899;0,417520;0,419733;0,448249;0,224204;0,179917;0,180024;0,592262;0,353726;0,447236;0,284353;0,284488;0,410883;0,000000;0,000000;0,215869;0,181538;0,181643;0,181747;0,276297;0,276297;0,515068;0,214486;0,247820;0,253116;0,290130;0,610509;0,301880;0,301880;0,584045;0,133459;0,133528;0,133598;0,133667;0,000000;0,000000;0,145308;0,273024;0,430413;0,000000;0,000000;0,460589;0,279655;0,155953;0,156021;0,156090;0,156158;0,584045;0,595821;0,595978;0,307831;0,307831;0,281356;0,221817;0,292587;0,610509;0,410359;0,584045;0,224096;0,344472;0,301270;
5;;;;;1,000000;0,404314;0,266382;0,666644;0,164614;0,168288;0,575116;0,538883;0,357631;0,680632;0,620036;0,374407;0,452057;0,362832;0,230722;0,126808;0,127399;0,288343;0,172135;0,000000;0,000000;0,088910;0,144477;0,159085;0,192863;0,216159;0,154518;0,154701;0,168257;0,000000;0,222347;0,155835;0,104689;0,227111;0,158862;0,230223;0,339518;0,359356;0,237479;0,182220;0,219540;0,000000;0,285258;0,311459;0,126730;0,160902;0,000000;0,387921;0,220766;0,127745;0,273983;0,159408;0,175523;0,131235;0,131342;0,232287;0,138812;0,475723;0,110829;0,110934;0,161723;0,000000;0,000000;0,167187;0,132857;0,132961;0,133065;0,318431;0,318431;0,000000;0,165804;0,247840;0,253137;0,241448;0,239832;0,253198;0,253198;0,535364;0,000000;0,000000;0,000000;0,000000;0,000000;0,000000;0,187441;0,185173;0,316465;0,000000;0,000000;0,169065;0,000000;0,000000;0,000000;0,000000;0,000000;0,535364;0,359146;0,359292;0,259150;0,259150;0,000000;0,173136;0,672635;0,246737;0,187411;0,535364;0,175415;0,138390;0,252588;
6;;;;;;1,000000;0,296013;0,582856;0,175903;0,179577;0,531470;0,567035;0,578572;0,448150;0,509589;0,390991;0,408411;0,580284;0,271221;0,138097;0,138688;0,333455;0,183425;0,000000;0,000000;0,100199;0,155766;0,170375;0,466674;0,195936;0,165807;0,165991;0,179547;0,000000;0,233636;0,325220;0,237806;0,238401;0,170151;0,210000;0,429000;0,462633;0,248768;0,193509;0,249815;0,162276;0,265035;0,213739;0,216952;0,172191;0,000000;0,692596;0,200543;0,218274;0,362581;0,373787;0,186812;0,142524;0,142632;0,573358;0,150102;0,666811;0,122118;0,122223;0,173013;0,000000;0,000000;0,178477;0,144146;0,144251;0,144355;0,291494;0,291494;0,000000;0,177093;0,227617;0,232914;0,252738;0,251121;0,264488;0,264488;0,546653;0,000000;0,000000;0,000000;0,000000;0,000000;0,000000;0,160505;0,158236;0,373262;0,000000;0,000000;0,386127;0,295624;0,171922;0,171990;0,172059;0,172127;0,546653;0,450319;0,450433;0,270439;0,270439;0,297325;0,184425;0,628989;0,258026;0,198701;0,546653;0,186704;0,149680;0,263878;
7;;;;;;;1,000000;0,305017;0,195741;0,199415;0,496228;0,256704;0,261617;0,257951;0,273787;0,451261;0,373169;0,266389;0,176861;0,589010;0,568337;0,192844;0,203263;0,000000;0,000000;0,120037;0,175604;0,190213;0,223991;0,088488;0,185645;0,185829;0,418936;0,305592;0,253474;0,186963;0,135817;0,258239;0,189989;0,180173;0,260630;0,280468;0,268606;0,213347;0,164386;0,000000;0,176518;0,032842;0,157858;0,192029;0,000000;0,309033;0,152042;0,158872;0,157259;0,190535;0,206650;0,162362;0,162470;0,263414;0,169940;0,629202;0,141956;0,142061;0,192851;0,000000;0,000000;0,198315;0,398406;0,398496;0,398586;0,000000;0,000000;0,000000;0,196931;0,144495;0,131054;0,272576;0,270959;0,284326;0,284326;0,566491;0,000000;0,000000;0,000000;0,000000;0,000000;0,000000;0,000000;0,000000;0,108209;0,000000;0,000000;0,200193;0,000000;0,000000;0,000000;0,000000;0,000000;0,566491;0,280258;0,280404;0,290277;0,290277;0,000000;0,204263;0,593747;0,277864;0,218539;0,566491;0,206542;0,169518;0,283716;
8;;;;;;;;1,000000;0,212590;0,216264;0,613751;0,591940;0,625031;0,485633;0,542069;0,330319;0,490692;0,516932;0,193710;0,276015;0,269314;0,209694;0,220112;0,000000;0,000000;0,136886;0,192453;0,207062;0,294017;0,105337;0,202494;0,202678;0,216234;0,000000;0,270323;0,203812;0,152666;0,275088;0,206838;0,197022;0,378153;0,397992;0,285455;0,230196;0,181235;0,161874;0,193367;0,142891;0,174707;0,208878;0,000000;0,608675;0,168891;0,175721;0,174108;0,207384;0,223499;0,179212;0,179319;0,612520;0,186789;0,514359;0,158805;0,158911;0,209700;0,000000;0,000000;0,215164;0,180833;0,180938;0,181042;0,000000;0,000000;0,000000;0,213781;0,161344;0,147903;0,289425;0,287808;0,301175;0,301175;0,583340;0,000000;0,000000;0,000000;0,000000;0,000000;0,000000;0,000000;0,000000;0,125058;0,000000;0,000000;0,217042;0,295222;0,171520;0,171588;0,171656;0,171725;0,583340;0,397781;0,397927;0,307127;0,307127;0,296923;0,221112;0,711270;0,294713;0,235388;0,583340;0,223391;0,186367;0,300565;
9;;;;;;;;;1,000000;0,363993;0,342133;0,217091;0,237397;0,236092;0,220814;0,306357;0,228370;0,213812;0,239620;0,220694;0,221285;0,369195;0,566602;0,000000;0,000000;0,182797;0,698054;0,739246;0,286750;0,255484;0,248404;0,248588;0,262144;0,000000;0,316233;0,366897;0,198576;0,320998;0,252748;0,242932;0,196014;0,203654;0,331365;0,516430;0,357373;0,000000;0,239278;0,000000;0,220617;0,516275;0,000000;0,215624;0,214802;0,221631;0,220018;0,253295;0,269410;0,225122;0,225229;0,326174;0,232699;0,250601;0,204716;0,204821;0,255610;0,000000;0,000000;0,261074;0,226743;0,226848;0,226952;0,000000;0,000000;0,000000;0,520435;0,207254;0,193813;0,700394;0,333718;0,347085;0,347085;0,629250;0,000000;0,000000;0,000000;0,000000;0,000000;0,000000;0,000000;0,000000;0,170968;0,000000;0,000000;0,262952;0,000000;0,000000;0,000000;0,000000;0,000000;0,629250;0,207103;0,207198;0,353037;0,353037;0,000000;0,267023;0,337792;0,340623;0,281298;0,629250;0,269302;0,232277;0,346475;
10;;;;;;;;;;1,000000;0,345807;0,220766;0,241071;0,239766;0,224489;0,269562;0,232045;0,217486;0,243295;0,224369;0,224960;0,332401;0,423047;0,000000;0,000000;0,186471;0,555889;0,510087;0,290424;0,218690;0,252078;0,252262;0,540007;0,257219;0,319908;0,330103;0,202250;0,324672;0,256422;0,246607;0,199688;0,207328;0,335040;0,479635;0,392058;0,000000;0,242952;0,000000;0,224291;0,479481;0,000000;0,219298;0,218476;0,225305;0,223692;0,256969;0,273084;0,228796;0,228903;0,329848;0,236373;0,254275;0,208390;0,208495;0,259284;0,208453;0,208566;0,264748;0,230417;0,230522;0,230626;0,000000;0,000000;0,000000;0,483641;0,210928;0,197487;0,663599;0,337393;0,350759;0,350759;0,632924;0,000000;0,000000;0,000000;0,000000;0,000000;0,000000;0,000000;0,000000;0,174642;0,000000;0,000000;0,266626;0,000000;0,000000;0,000000;0,000000;0,000000;0,632924;0,210777;0,210872;0,356711;0,356711;0,000000;0,270697;0,341467;0,344298;0,284972;0,632924;0,272976;0,235951;0,350149;
11;;;;;;;;;;;1,000000;0,507814;0,321030;0,686418;0,582522;0,521530;0,681903;0,297445;0,323253;0,304327;0,304918;0,339237;0,463459;0,000000;0,000000;0,266429;0,321996;0,336605;0,370383;0,234880;0,332037;0,332221;0,345777;0,000000;0,399866;0,333355;0,282209;0,786103;0,336381;0,326565;0,569364;0,589202;0,414998;0,489134;0,310778;0,000000;0,322910;0,214379;0,304250;0,338422;0,000000;0,617767;0,298434;0,305264;0,605377;0,336927;0,353042;0,308755;0,308862;0,409807;0,316332;0,705570;0,288348;0,288454;0,339243;0,000000;0,000000;0,344707;0,310376;0,310481;0,310585;0,000000;0,000000;0,000000;0,343324;0,290887;0,277446;0,418968;0,417351;0,430718;0,430718;0,712883;0,000000;0,000000;0,000000;0,000000;0,000000;0,000000;0,000000;0,000000;0,568143;0,000000;0,000000;0,346585;0,000000;0,000000;0,000000;0,000000;0,000000;0,712883;0,588992;0,589138;0,436670;0,436670;0,000000;0,350655;0,902481;0,424256;0,364931;0,712883;0,352934;0,315910;0,430108;
12;;;;;;;;;;;;1,000000;0,436640;0,423797;0,530021;0,317207;0,384755;0,562937;0,198211;0,179285;0,179876;0,287067;0,224613;0,000000;0,000000;0,141388;0,196954;0,211563;0,462600;0,109838;0,420551;0,420551;0,220735;0,000000;0,274824;0,376669;0,289256;0,279589;0,211339;0,201523;0,410539;0,444172;0,289956;0,234698;0,372818;0,332386;0,197868;0,101668;0,179208;0,213380;0,000000;0,489392;0,173392;0,180222;0,295796;0,639776;0,228000;0,183713;0,183820;0,284765;0,191290;0,627502;0,163307;0,163412;0,214201;0,000000;0,000000;0,219665;0,185334;0,185439;0,185543;0,000000;0,000000;0,000000;0,218282;0,165845;0,152404;0,293926;0,292309;0,305676;0,305676;0,587841;0,000000;0,000000;0,000000;0,000000;0,000000;0,000000;0,000000;0,000000;0,217763;0,278554;0,278649;0,437576;0,353656;0,510459;0,510573;0,510685;0,510796;0,587841;0,431858;0,431972;0,311628;0,311628;0,355864;0,225613;0,605333;0,299214;0,239889;0,587841;0,227893;0,190868;0,305066;
13;;;;;;;;;;;;;1,000000;0,506536;0,372547;0,209846;0,207267;0,772186;0,218517;0,199591;0,200182;0,234501;0,244919;0,000000;0,000000;0,161693;0,217260;0,231869;0,493557;0,130144;0,227301;0,227485;0,241041;0,000000;0,295130;0,228619;0,177473;0,299895;0,231645;0,221829;0,174911;0,182551;0,310262;0,255004;0,206042;0,283656;0,218174;0,059817;0,199514;0,233686;0,000000;0,536956;0,193698;0,200528;0,198915;0,232191;0,248306;0,204019;0,204126;0,812060;0,211596;0,486071;0,183612;0,183718;0,234507;0,000000;0,000000;0,239971;0,205640;0,205745;0,205849;0,000000;0,000000;0,000000;0,238588;0,186151;0,172710;0,314232;0,312615;0,325982;0,325982;0,608147;0,000000;0,000000;0,000000;0,000000;0,000000;0,000000;0,000000;0,000000;0,149865;0,000000;0,000000;0,241849;0,417004;0,293302;0,293370;0,293439;0,293507;0,608147;0,185999;0,186095;0,331934;0,331934;0,418705;0,245919;0,316689;0,319520;0,260195;0,608147;0,248198;0,211174;0,325372;
14;;;;;;;;;;;;;;1,000000;0,476454;0,491113;0,712301;0,485551;0,581926;0,321622;0,312875;0,472920;0,440046;0,159180;0,159423;0,355816;0,215955;0,230564;0,438312;0,374158;0,479153;0,479153;0,239736;0,000000;0,649212;0,370253;0,442362;0,627191;0,358062;0,316646;0,621719;0,600318;0,308957;0,378200;0,309787;0,298419;0,307355;0,370278;0,450982;0,232380;0,529243;0,539414;0,341931;0,452204;0,541246;0,482077;0,247001;0,202714;0,202821;0,621527;0,392429;0,467293;0,323056;0,323191;0,449586;0,198005;0,198220;0,238666;0,204335;0,204440;0,204544;0,276609;0,276609;0,528354;0,472808;0,269938;0,275234;0,312927;0,649212;0,324677;0,324677;0,606842;0,146745;0,146814;0,146884;0,146953;0,000000;0,000000;0,145620;0,286676;0,580157;0,211248;0,211339;0,447634;0,285318;0,161616;0,161684;0,161752;0,161821;0,606842;0,634191;0,634329;0,330628;0,330628;0,287019;0,244614;0,664204;0,649212;0,449062;0,606842;0,246893;0,383175;0,324067;
15;;;;;;;;;;;;;;;1,000000;0,610025;0,723638;0,285893;0,526237;0,300069;0,291322;0,338464;0,276176;0,156592;0,156836;0,334263;0,200677;0,215286;0,607580;0,303497;0,210718;0,210902;0,224458;0,000000;0,627659;0,428066;0,340652;0,283312;0,336509;0,262685;0,710833;0,761465;0,293679;0,238421;0,296909;0,000000;0,201591;0,303627;0,502172;0,217103;0,000000;0,625953;0,319334;0,537640;0,347192;0,476633;0,231723;0,187436;0,187543;0,288488;0,583089;0,483129;0,467023;0,467124;0,428033;0,000000;0,000000;0,223388;0,189057;0,189162;0,189266;0,000000;0,000000;0,525767;0,222005;0,169568;0,156127;0,297649;0,627659;0,309399;0,309399;0,591564;0,144158;0,144227;0,144297;0,144366;0,000000;0,000000;0,000000;0,140011;0,269159;0,000000;0,000000;0,488973;0,000000;0,000000;0,000000;0,000000;0,000000;0,591564;0,726506;0,726506;0,315351;0,315351;0,000000;0,229336;0,680041;0,627659;0,427510;0,591564;0,231616;0,361622;0,308789;
16;;;;;;;;;;;;;;;;1,000000;0,398471;0,270842;0,441067;0,369643;0,356679;0,427666;0,269829;0,409073;0,409645;0,514496;0,210812;0,225421;0,472259;0,519513;0,425030;0,425030;0,234593;0,000000;0,288682;0,441231;0,298914;0,293447;0,416669;0,407181;0,553199;0,535398;0,303814;0,421999;0,358715;0,000000;0,471483;0,288786;0,585590;0,421845;0,000000;0,498551;0,524523;0,539372;0,407196;0,639634;0,629988;0,497700;0,497700;0,298622;0,558748;0,422138;0,580492;0,580700;0,469622;0,000000;0,000000;0,429074;0,371021;0,371111;0,371202;0,278272;0,278272;0,000000;0,426004;0,508023;0,456729;0,605963;0,306167;0,319534;0,319534;0,601699;0,454575;0,454699;0,454822;0,454943;0,000000;0,000000;0,422400;0,422883;0,417876;0,000000;0,000000;0,447235;0,000000;0,000000;0,000000;0,000000;0,000000;0,601699;0,568231;0,568361;0,325485;0,325485;0,000000;0,435762;0,619049;0,313072;0,514426;0,601699;0,440175;0,538313;0,318924;
17;;;;;;;;;;;;;;;;;1,000000;0,183682;0,569954;0,424341;0,415594;0,225474;0,400448;0,236916;0,237159;0,458535;0,208234;0,222842;0,449710;0,360313;0,218274;0,218458;0,232014;0,000000;0,751931;0,219592;0,168446;0,290868;0,460781;0,386957;0,766693;0,800347;0,301235;0,245977;0,197015;0,000000;0,209148;0,305281;0,467553;0,224659;0,000000;0,494708;0,392954;0,468941;0,189888;0,223165;0,239280;0,194992;0,195099;0,296044;0,495148;0,582511;0,425775;0,425910;0,552305;0,000000;0,000000;0,230944;0,196613;0,196718;0,196822;0,000000;0,000000;0,606090;0,229561;0,177124;0,163683;0,305205;0,751931;0,316955;0,316955;0,599120;0,224481;0,224550;0,224620;0,224689;0,000000;0,000000;0,000000;0,220334;0,140838;0,000000;0,000000;0,232822;0,000000;0,000000;0,000000;0,000000;0,000000;0,599120;0,788439;0,788557;0,322907;0,322907;0,000000;0,236893;0,779422;0,751931;0,551781;0,599120;0,239172;0,485894;0,316345;
18;;;;;;;;;;;;;;;;;;1,000000;0,302219;0,176006;0,176597;0,210915;0,221333;0,000000;0,000000;0,138108;0,193675;0,208284;0,338775;0,106558;0,203716;0,203900;0,217456;0,000000;0,271545;0,205033;0,153887;0,276310;0,208060;0,198244;0,151325;0,158966;0,286677;0,231418;0,182457;0,199269;0,194589;0,088114;0,301990;0,210100;0,000000;0,382174;0,170113;0,303312;0,175329;0,208606;0,224721;0,180433;0,180541;0,657278;0,188011;0,490843;0,160027;0,160132;0,210921;0,000000;0,000000;0,216385;0,182055;0,182159;0,182264;0,000000;0,000000;0,000000;0,215002;0,162566;0,149125;0,290646;0,289030;0,302397;0,302397;0,584562;0,000000;0,000000;0,000000;0,000000;0,000000;0,000000;0,000000;0,000000;0,126280;0,000000;0,000000;0,218264;0,332617;0,208915;0,208983;0,209051;0,209120;0,584562;0,162414;0,162510;0,308348;0,308348;0,334318;0,222334;0,293104;0,295935;0,236610;0,584562;0,224613;0,187588;0,301787;
19;;;;;;;;;;;;;;;;;;;1,000000;0,490433;0,481686;0,336102;0,521443;0,271368;0,271611;0,524628;0,219484;0,234092;0,515803;0,678530;0,229524;0,229708;0,243264;0,000000;0,818023;0,230842;0,179696;0,302118;0,526874;0,676848;0,473590;0,492423;0,312485;0,257227;0,267298;0,000000;0,333016;0,314749;0,627902;0,235909;0,000000;0,196744;0,627281;0,808097;0,321741;0,234415;0,408625;0,383433;0,383574;0,307294;0,691466;0,231721;0,647702;0,647803;0,618398;0,000000;0,000000;0,242194;0,207863;0,207968;0,208072;0,294321;0,294321;0,640543;0,240811;0,373558;0,300895;0,316455;0,818023;0,328205;0,328205;0,610370;0,258934;0,259003;0,259072;0,259142;0,000000;0,000000;0,335721;0,724559;0,364224;0,000000;0,000000;0,244072;0,000000;0,000000;0,000000;0,000000;0,000000;0,610370;0,494068;0,494221;0,334157;0,334157;0,000000;0,248143;0,318912;0,818023;0,617874;0,610370;0,250422;0,551987;0,327595;
20;;;;;;;;;;;;;;;;;;;;1,000000;0,607494;0,217798;0,320928;0,190806;0,191049;0,379015;0,200558;0,215166;0,370190;0,280792;0,210598;0,210782;0,400544;0,282553;0,672410;0,211916;0,160770;0,283192;0,381261;0,307437;0,327977;0,346811;0,293559;0,238301;0,189339;0,000000;0,201472;0,084966;0,388032;0,216983;0,000000;0,177818;0,313434;0,389421;0,182212;0,215489;0,231604;0,187316;0,187423;0,288368;0,415627;0,212795;0,346255;0,346390;0,472785;0,000000;0,000000;0,223268;0,491872;0,491962;0,492053;0,000000;0,000000;0,559980;0,221885;0,169448;0,156007;0,297529;0,672410;0,309279;0,309279;0,591444;0,178371;0,178441;0,178510;0,178580;0,000000;0,000000;0,000000;0,174225;0,133162;0,000000;0,000000;0,225146;0,000000;0,000000;0,000000;0,000000;0,000000;0,591444;0,348455;0,348608;0,315231;0,315231;0,000000;0,229217;0,299986;0,672410;0,472261;0,591444;0,231496;0,406374;0,308669;
21;;;;;;;;;;;;;;;;;;;;;1,000000;0,218389;0,312181;0,184273;0,184516;0,370268;0,201148;0,215757;0,361443;0,272045;0,211189;0,211373;0,394251;0,277547;0,663663;0,212507;0,161361;0,283783;0,372514;0,298690;0,319230;0,338063;0,294150;0,238892;0,189930;0,000000;0,202062;0,078433;0,379285;0,217574;0,000000;0,178409;0,304687;0,380674;0,182803;0,216080;0,232194;0,187907;0,188014;0,288959;0,406880;0,213386;0,337508;0,337643;0,464038;0,000000;0,000000;0,223859;0,563362;0,563542;0,563719;0,000000;0,000000;0,553448;0,222476;0,170039;0,156598;0,298120;0,663663;0,309870;0,309870;0,592035;0,171839;0,171908;0,171978;0,172047;0,000000;0,000000;0,000000;0,167692;0,133753;0,000000;0,000000;0,225737;0,000000;0,000000;0,000000;0,000000;0,000000;0,592035;0,339708;0,339861;0,315822;0,315822;0,000000;0,229807;0,300577;0,663663;0,463514;0,592035;0,232086;0,397627;0,309260;
22;;;;;;;;;;;;;;;;;;;;;;1,000000;0,427615;0,000000;0,000000;0,179900;0,235467;0,250076;0,508815;0,398451;0,245508;0,245691;0,259247;0,000000;0,313337;0,517626;0,335471;0,318102;0,249852;0,335602;0,328202;0,347433;0,669316;0,484837;0,604587;0,000000;0,390637;0,272000;0,217721;0,712282;0,000000;0,375776;0,326146;0,218735;0,507365;0,471452;0,266513;0,222225;0,222332;0,323277;0,229803;0,247705;0,201819;0,201924;0,252713;0,000000;0,000000;0,258177;0,223847;0,223951;0,224055;0,326864;0,326864;0,000000;0,488843;0,353220;0,358516;0,668801;0,330822;0,344189;0,344189;0,626354;0,000000;0,000000;0,000000;0,000000;0,000000;0,000000;0,195874;0,193605;0,518045;0,000000;0,000000;0,483792;0,000000;0,000000;0,000000;0,000000;0,000000;0,626354;0,348849;0,349002;0,350140;0,350140;0,000000;0,264126;0,334896;0,337727;0,278402;0,626354;0,266405;0,229380;0,669316;
23;;;;;;;;;;;;;;;;;;;;;;;1,000000;0,138793;0,139036;0,355123;0,462235;0,503427;0,346298;0,256900;0,255926;0,256110;0,269666;0,000000;0,648518;0,365223;0,463561;0,677357;0,357369;0,314459;0,304085;0,322918;0,758298;0,563254;0,417046;0,172418;0,246799;0,252765;0,364140;0,572523;0,306041;0,223145;0,357344;0,365528;0,496631;0,260816;0,276931;0,232643;0,232751;0,333695;0,391735;0,258123;0,322363;0,322498;0,448893;0,215859;0,216074;0,268595;0,234265;0,234369;0,234474;0,000000;0,000000;0,507968;0,494007;0,277510;0,201335;0,342856;0,648518;0,354607;0,354607;0,636772;0,126358;0,126428;0,126497;0,126567;0,000000;0,000000;0,176291;0,291014;0,459396;0,229102;0,229193;0,499538;0,000000;0,000000;0,000000;0,000000;0,000000;0,636772;0,324563;0,324715;0,360558;0,360558;0,000000;0,274544;0,345314;0,648518;0,448369;0,636772;0,276823;0,382481;0,758298;
24;;;;;;;;;;;;;;;;;;;;;;;;1,000000;0,694479;0,642256;0,000000;0,000000;0,157911;0,212059;0,000000;0,000000;0,000000;0,000000;0,327964;0,000000;0,000000;0,000000;0,195669;0,147545;0,207292;0,215683;0,000000;0,000000;0,000000;0,000000;0,000000;0,155811;0,234361;0,000000;0,000000;0,000000;0,178156;0,235679;0,000000;0,000000;0,000000;0,000000;0,000000;0,000000;0,247846;0,000000;0,217494;0,217630;0,702189;0,000000;0,000000;0,000000;0,000000;0,000000;0,000000;0,000000;0,000000;0,630826;0,000000;0,000000;0,000000;0,000000;0,352423;0,000000;0,000000;0,000000;0,249217;0,249286;0,249356;0,249425;0,000000;0,000000;0,000000;0,245070;0,000000;0,000000;0,000000;0,000000;0,000000;0,000000;0,000000;0,000000;0,000000;0,000000;0,220597;0,220711;0,000000;0,000000;0,000000;0,000000;0,000000;0,360869;0,256658;0,000000;0,000000;0,248397;0,000000;
25;;;;;;;;;;;;;;;;;;;;;;;;;1,000000;0,642943;0,000000;0,000000;0,158154;0,212302;0,000000;0,000000;0,000000;0,000000;0,328207;0,000000;0,000000;0,000000;0,195912;0,147788;0,207535;0,215926;0,000000;0,000000;0,000000;0,000000;0,000000;0,156054;0,234604;0,000000;0,000000;0,000000;0,178399;0,235922;0,000000;0,000000;0,000000;0,000000;0,000000;0,000000;0,248089;0,000000;0,217737;0,217873;0,702189;0,000000;0,000000;0,000000;0,000000;0,000000;0,000000;0,000000;0,000000;0,631069;0,000000;0,000000;0,000000;0,000000;0,352666;0,000000;0,000000;0,000000;0,249460;0,249529;0,249599;0,249668;0,000000;0,000000;0,000000;0,245314;0,000000;0,000000;0,000000;0,000000;0,000000;0,000000;0,000000;0,000000;0,000000;0,000000;0,220840;0,220954;0,000000;0,000000;0,000000;0,000000;0,000000;0,361112;0,256901;0,000000;0,000000;0,248641;0,000000;
26;;;;;;;;;;;;;;;;;;;;;;;;;;1,000000;0,162660;0,177268;0,404384;0,314987;0,172700;0,172884;0,186440;0,000000;0,706605;0,174018;0,122872;0,245294;0,415455;0,341631;0,362172;0,381005;0,255661;0,200403;0,151441;0,000000;0,163574;0,154884;0,422227;0,179085;0,000000;0,139920;0,347628;0,423615;0,144314;0,177591;0,193706;0,149418;0,149525;0,250470;0,449822;0,174897;0,380450;0,380584;0,506979;0,000000;0,000000;0,185370;0,151039;0,151144;0,151248;0,000000;0,000000;0,629898;0,183987;0,131550;0,118109;0,259631;0,706605;0,271381;0,271381;0,553546;0,248289;0,248359;0,248428;0,248498;0,000000;0,000000;0,000000;0,244143;0,095264;0,000000;0,000000;0,187248;0,000000;0,000000;0,000000;0,000000;0,000000;0,553546;0,382650;0,382802;0,277333;0,277333;0,000000;0,191319;0,262089;0,706605;0,506456;0,553546;0,193598;0,440568;0,270771;
27;;;;;;;;;;;;;;;;;;;;;;;;;;;1,000000;0,634878;0,266613;0,131110;0,228267;0,228451;0,555356;0,295625;0,296096;0,229585;0,178439;0,300861;0,232611;0,222795;0,175877;0,183517;0,311228;0,255970;0,315576;0,000000;0,219141;0,000000;0,200480;0,234652;0,000000;0,195487;0,194665;0,201494;0,199881;0,233158;0,249273;0,204985;0,205092;0,306037;0,212562;0,230464;0,184579;0,184684;0,235473;0,246859;0,246972;0,240937;0,206606;0,206711;0,206815;0,000000;0,000000;0,000000;0,239554;0,187117;0,173676;0,315198;0,313582;0,326948;0,326948;0,609113;0,000000;0,000000;0,000000;0,000000;0,000000;0,000000;0,000000;0,000000;0,150831;0,000000;0,000000;0,242815;0,000000;0,000000;0,000000;0,000000;0,000000;0,609113;0,186966;0,187061;0,332900;0,332900;0,000000;0,246886;0,317655;0,320486;0,261161;0,609113;0,249165;0,212140;0,326338;
28;;;;;;;;;;;;;;;;;;;;;;;;;;;;1,000000;0,281222;0,145719;0,242876;0,243060;0,256616;0,000000;0,310705;0,244194;0,193048;0,315470;0,247220;0,237404;0,190486;0,198126;0,325837;0,270578;0,221617;0,000000;0,233749;0,000000;0,215089;0,249260;0,000000;0,210096;0,209273;0,216103;0,214490;0,247766;0,263881;0,219594;0,219701;0,320646;0,227171;0,245073;0,199187;0,199293;0,250082;0,000000;0,000000;0,255546;0,221215;0,221320;0,221424;0,000000;0,000000;0,000000;0,254163;0,201726;0,188285;0,329807;0,328190;0,341557;0,341557;0,623722;0,000000;0,000000;0,000000;0,000000;0,000000;0,000000;0,000000;0,000000;0,165440;0,000000;0,000000;0,257424;0,000000;0,000000;0,000000;0,000000;0,000000;0,623722;0,201574;0,201670;0,347509;0,347509;0,000000;0,261494;0,332264;0,335095;0,275770;0,623722;0,263773;0,226749;0,340947;
29;;;;;;;;;;;;;;;;;;;;;;;;;;;;;1,000000;0,306162;0,570357;0,570775;0,290394;0,000000;0,697780;0,598418;0,511004;0,349248;0,406631;0,332806;0,654372;0,687324;0,359615;0,304356;0,467261;0,159291;0,267527;0,197612;0,413402;0,283038;0,000000;0,722956;0,338803;0,414790;0,517544;0,646984;0,297659;0,253371;0,253479;0,681497;0,440997;0,278851;0,371625;0,371760;0,498154;0,000000;0,000000;0,289323;0,254993;0,255097;0,255202;0,000000;0,000000;0,527085;0,287940;0,235504;0,222063;0,363584;0,697780;0,375335;0,375335;0,657500;0,145476;0,145546;0,145615;0,145685;0,000000;0,000000;0,000000;0,141330;0,439511;0,000000;0,000000;0,659325;0,292639;0,168937;0,169005;0,169074;0,169142;0,657500;0,678306;0,678439;0,381286;0,381286;0,294340;0,295272;0,366042;0,697780;0,497631;0,657500;0,297551;0,431743;0,374725;
30;;;;;;;;;;;;;;;;;;;;;;;;;;;;;;1,000000;0,141151;0,141335;0,154891;0,000000;0,608382;0,221594;0,091322;0,213745;0,547607;0,686741;0,263949;0,282782;0,224112;0,371127;0,345329;0,000000;0,509907;0,541070;0,394226;0,370972;0,000000;0,108370;0,702801;0,325393;0,307178;0,146041;0,587162;0,500029;0,500029;0,218920;0,351599;0,143348;0,282227;0,282362;0,408757;0,000000;0,000000;0,373289;0,119490;0,119594;0,119699;0,370363;0,370363;0,581233;0,375132;0,588867;0,694924;0,555091;0,608382;0,239832;0,239832;0,521997;0,199624;0,199694;0,199763;0,199833;0,000000;0,000000;0,558189;0,638846;0,349661;0,000000;0,000000;0,155699;0,000000;0,000000;0,000000;0,000000;0,000000;0,521997;0,284427;0,284580;0,245783;0,245783;0,000000;0,379978;0,230539;0,608382;0,408233;0,521997;0,594669;0,342346;0,239222;
31;;;;;;;;;;;;;;;;;;;;;;;;;;;;;;;1,000000;0,628051;0,252048;0,000000;0,306137;0,239626;0,188480;0,310902;0,242652;0,232836;0,185918;0,193558;0,321269;0,266011;0,217049;0,000000;0,229181;0,000000;0,210521;0,244693;0,000000;0,205528;0,204705;0,211535;0,209922;0,630974;0,259313;0,215026;0,215133;0,316078;0,222603;0,240505;0,194620;0,194725;0,245514;0,000000;0,000000;0,250978;0,216647;0,216752;0,216856;0,000000;0,000000;0,000000;0,249595;0,197158;0,183717;0,325239;0,323622;0,336989;0,336989;0,619154;0,000000;0,000000;0,000000;0,000000;0,000000;0,000000;0,000000;0,000000;0,160872;0,000000;0,000000;0,252856;0,000000;0,000000;0,000000;0,000000;0,000000;0,619154;0,197007;0,197102;0,342941;0,342941;0,000000;0,256926;0,327696;0,330527;0,271202;0,619154;0,259205;0,222181;0,336379;
32;;;;;;;;;;;;;;;;;;;;;;;;;;;;;;;;1,000000;0,252232;0,000000;0,306321;0,239810;0,188664;0,311086;0,242836;0,233020;0,186102;0,193742;0,321453;0,266194;0,217233;0,000000;0,229365;0,000000;0,210705;0,244876;0,000000;0,205712;0,204889;0,211719;0,210106;0,630974;0,259497;0,215209;0,215317;0,316262;0,222787;0,240689;0,194803;0,194909;0,245698;0,000000;0,000000;0,251162;0,216831;0,216936;0,217040;0,000000;0,000000;0,000000;0,249778;0,197342;0,183901;0,325423;0,323806;0,337173;0,337173;0,619338;0,000000;0,000000;0,000000;0,000000;0,000000;0,000000;0,000000;0,000000;0,161056;0,000000;0,000000;0,253040;0,000000;0,000000;0,000000;0,000000;0,000000;0,619338;0,197190;0,197286;0,343124;0,343124;0,000000;0,257110;0,327880;0,330711;0,271386;0,619338;0,259389;0,222365;0,336563;
33;;;;;;;;;;;;;;;;;;;;;;;;;;;;;;;;;1,000000;0,783575;0,319877;0,253366;0,202220;0,324642;0,256392;0,246576;0,199658;0,207298;0,335009;0,279750;0,500263;0,000000;0,242921;0,000000;0,224261;0,258432;0,000000;0,219268;0,218445;0,225275;0,223662;0,256938;0,273053;0,228765;0,228873;0,329818;0,236343;0,254245;0,208359;0,208464;0,259254;0,371383;0,371496;0,264718;0,230387;0,230492;0,230596;0,000000;0,000000;0,000000;0,263334;0,210898;0,197457;0,338979;0,337362;0,350729;0,350729;0,632894;0,000000;0,000000;0,000000;0,000000;0,000000;0,000000;0,000000;0,000000;0,174612;0,000000;0,000000;0,266596;0,000000;0,000000;0,000000;0,000000;0,000000;0,632894;0,210746;0,210842;0,356680;0,356680;0,000000;0,270666;0,341436;0,344267;0,284942;0,632894;0,272945;0,235921;0,350119;
34;;;;;;;;;;;;;;;;;;;;;;;;;;;;;;;;;;1,000000;0,000000;0,000000;0,000000;0,000000;0,000000;0,000000;0,000000;0,000000;0,000000;0,000000;0,263609;0,000000;0,000000;0,000000;0,000000;0,000000;0,000000;0,000000;0,000000;0,000000;0,000000;0,000000;0,000000;0,000000;0,000000;0,000000;0,000000;0,000000;0,000000;0,000000;0,000000;0,422200;0,422314;0,000000;0,000000;0,000000;0,000000;0,000000;0,000000;0,000000;0,000000;0,000000;0,000000;0,000000;0,000000;0,000000;0,000000;0,000000;0,000000;0,000000;0,000000;0,000000;0,000000;0,000000;0,000000;0,000000;0,000000;0,000000;0,000000;0,000000;0,000000;0,000000;0,000000;0,000000;0,000000;0,000000;0,000000;0,000000;0,000000;0,000000;0,000000;0,000000;0,000000;0,000000;0,000000;0,000000;0,000000;0,000000;0,000000;
35;;;;;;;;;;;;;;;;;;;;;;;;;;;;;;;;;;;1,000000;0,307455;0,256309;0,378731;0,708851;0,635026;0,655567;0,674400;0,389098;0,333840;0,284878;0,000000;0,297010;0,222124;0,715622;0,312522;0,000000;0,273357;0,641023;0,717010;0,277751;0,311028;0,327142;0,282855;0,282962;0,383907;0,743217;0,308334;0,673845;0,673980;0,800375;0,000000;0,000000;0,318807;0,284476;0,284581;0,284685;0,000000;0,000000;0,697138;0,317424;0,264987;0,251546;0,393068;1,000000;0,404818;0,404818;0,686983;0,315529;0,315599;0,315668;0,315738;0,000000;0,000000;0,000000;0,311383;0,228701;0,000000;0,000000;0,320685;0,000000;0,000000;0,000000;0,000000;0,000000;0,686983;0,676045;0,676198;0,410770;0,410770;0,000000;0,324755;0,395525;1,000000;0,799851;0,686983;0,327035;0,733963;0,404208;
36;;;;;;;;;;;;;;;;;;;;;;;;;;;;;;;;;;;;1,000000;0,686583;0,312220;0,243970;0,234154;0,417804;0,437035;0,322587;0,482539;0,491767;0,000000;0,230499;0,118474;0,211839;0,482385;0,456716;0,465378;0,206023;0,212853;0,431613;0,561054;0,260631;0,216343;0,216451;0,317395;0,223921;0,241823;0,195937;0,196042;0,246832;0,000000;0,000000;0,252295;0,217965;0,218069;0,218174;0,000000;0,000000;0,000000;0,486545;0,198476;0,185035;0,666503;0,324940;0,338307;0,338307;0,620472;0,000000;0,000000;0,000000;0,000000;0,000000;0,000000;0,000000;0,000000;0,353581;0,000000;0,000000;0,573394;0,000000;0,000000;0,000000;0,000000;0,000000;0,620472;0,438451;0,438604;0,344258;0,344258;0,000000;0,258244;0,329014;0,331845;0,272520;0,620472;0,260523;0,223499;0,337697;
37;;;;;;;;;;;;;;;;;;;;;;;;;;;;;;;;;;;;;1,000000;0,261074;0,192824;0,183008;0,330390;0,349622;0,271441;0,216182;0,293916;0,000000;0,179353;0,099316;0,160693;0,194864;0,520129;0,377964;0,154877;0,161707;0,344200;0,473640;0,209485;0,165197;0,165305;0,266249;0,172775;0,190677;0,144791;0,144896;0,195686;0,000000;0,000000;0,201149;0,166819;0,166923;0,167028;0,000000;0,000000;0,000000;0,651010;0,147330;0,133889;0,275410;0,273794;0,287161;0,287161;0,569326;0,000000;0,000000;0,000000;0,000000;0,000000;0,000000;0,000000;0,000000;0,266167;0,000000;0,000000;0,485980;0,000000;0,000000;0,000000;0,000000;0,000000;0,569326;0,351037;0,351190;0,293112;0,293112;0,000000;0,207098;0,277868;0,280699;0,221374;0,569326;0,209377;0,172353;0,286551;
38;;;;;;;;;;;;;;;;;;;;;;;;;;;;;;;;;;;;;;1,000000;0,315246;0,305430;0,258512;0,266152;0,393863;0,703031;0,289643;0,000000;0,301775;0,305278;0,283115;0,317286;0,000000;0,278122;0,277299;0,284129;0,819274;0,315792;0,331907;0,287620;0,287727;0,388672;0,295197;0,313099;0,267213;0,267319;0,318108;0,000000;0,000000;0,323572;0,289241;0,289346;0,289450;0,000000;0,000000;0,000000;0,322189;0,269752;0,256311;0,397833;0,396216;0,409583;0,409583;0,691748;0,000000;0,000000;0,000000;0,000000;0,000000;0,000000;0,000000;0,000000;0,782040;0,000000;0,000000;0,325450;0,000000;0,000000;0,000000;0,000000;0,000000;0,691748;0,269600;0,269696;0,415535;0,415535;0,000000;0,329520;0,400290;0,403121;0,343796;0,691748;0,331799;0,294775;0,408973;
39;;;;;;;;;;;;;;;;;;;;;;;;;;;;;;;;;;;;;;;1,000000;0,523155;0,364418;0,383251;0,325613;0,270355;0,221393;0,000000;0,577706;0,280113;0,424473;0,249037;0,000000;0,209872;0,839060;0,425861;0,214266;0,247542;0,649040;0,540954;0,541073;0,320422;0,452068;0,244849;0,382696;0,382831;0,509225;0,000000;0,000000;0,625968;0,220991;0,221096;0,221200;0,000000;0,000000;0,564843;0,253939;0,568764;0,554159;0,329583;0,708851;0,341333;0,341333;0,623498;0,183234;0,183304;0,183373;0,183443;0,000000;0,000000;0,284532;0,179088;0,165216;0,000000;0,000000;0,257200;0,000000;0,000000;0,000000;0,000000;0,000000;0,623498;0,384896;0,385048;0,347285;0,347285;0,000000;0,632656;0,332040;0,708851;0,508702;0,623498;0,637068;0,442814;0,340723;
40;;;;;;;;;;;;;;;;;;;;;;;;;;;;;;;;;;;;;;;;1,000000;0,290593;0,309427;0,315797;0,260539;0,266799;0,000000;0,578118;0,443361;0,350649;0,239221;0,000000;0,200056;0,636196;0,352037;0,321242;0,237727;0,543538;0,611473;0,611658;0,310606;0,378244;0,235033;0,308871;0,309006;0,435401;0,000000;0,000000;0,505791;0,211175;0,211280;0,211384;0,293108;0,293108;0,516719;0,244123;0,599055;0,557656;0,319767;0,635026;0,331517;0,331517;0,613682;0,135110;0,135179;0,135249;0,135319;0,000000;0,000000;0,497759;0,618992;0,363725;0,000000;0,000000;0,247384;0,000000;0,000000;0,000000;0,000000;0,000000;0,613682;0,311071;0,311224;0,337469;0,337469;0,000000;0,512088;0,322224;0,635026;0,434877;0,613682;0,529582;0,368990;0,330907;
41;;;;;;;;;;;;;;;;;;;;;;;;;;;;;;;;;;;;;;;;;1,000000;0,817285;0,268879;0,213620;0,286647;0,000000;0,176791;0,326323;0,371189;0,192302;0,000000;0,621455;0,296590;0,372577;0,336930;0,466371;0,206923;0,162635;0,162743;0,263687;0,398784;0,469972;0,329412;0,329547;0,455942;0,000000;0,000000;0,198587;0,164257;0,164361;0,164466;0,000000;0,000000;0,576466;0,197204;0,144768;0,131327;0,272848;0,655567;0,284599;0,284599;0,566764;0,194857;0,194926;0,194996;0,195066;0,000000;0,000000;0,000000;0,190711;0,258897;0,000000;0,000000;0,478711;0,000000;0,000000;0,000000;0,000000;0,000000;0,566764;0,782326;0,782326;0,290550;0,290550;0,000000;0,204536;0,666883;0,655567;0,455418;0,566764;0,206815;0,389530;0,283989;
42;;;;;;;;;;;;;;;;;;;;;;;;;;;;;;;;;;;;;;;;;;1,000000;0,276519;0,221260;0,305879;0,000000;0,184431;0,358562;0,390022;0,199942;0,000000;0,655087;0,315424;0,391411;0,356162;0,485602;0,214563;0,170275;0,170383;0,271328;0,417617;0,489810;0,348245;0,348380;0,474775;0,000000;0,000000;0,206228;0,171897;0,172002;0,172106;0,000000;0,000000;0,584857;0,204844;0,152408;0,138967;0,280489;0,674400;0,292239;0,292239;0,574404;0,203248;0,203318;0,203387;0,203457;0,000000;0,000000;0,000000;0,199102;0,278129;0,000000;0,000000;0,497942;0,000000;0,000000;0,000000;0,000000;0,000000;0,574404;0,832957;0,832957;0,298190;0,298190;0,000000;0,212176;0,686721;0,674400;0,474251;0,574404;0,214455;0,408364;0,291629;
43;;;;;;;;;;;;;;;;;;;;;;;;;;;;;;;;;;;;;;;;;;;1,000000;0,348972;0,658748;0,000000;0,312142;0,000000;0,293482;0,814224;0,000000;0,288489;0,287666;0,294496;0,292883;0,326160;0,342274;0,297987;0,298094;0,399039;0,305564;0,323466;0,277581;0,277686;0,328475;0,000000;0,000000;0,333939;0,299608;0,299713;0,299817;0,000000;0,000000;0,000000;0,332556;0,280119;0,266678;0,408200;0,406583;0,419950;0,419950;0,702115;0,000000;0,000000;0,000000;0,000000;0,000000;0,000000;0,000000;0,000000;0,243833;0,000000;0,000000;0,335817;0,000000;0,000000;0,000000;0,000000;0,000000;0,702115;0,279968;0,280063;0,425902;0,425902;0,000000;0,339887;0,410657;0,413488;0,354163;0,702115;0,342166;0,305142;1,000000;
44;;;;;;;;;;;;;;;;;;;;;;;;;;;;;;;;;;;;;;;;;;;;1,000000;0,473015;0,184629;0,256884;0,176708;0,238223;0,631917;0,000000;0,233230;0,232408;0,239238;0,522305;0,270901;0,287016;0,242728;0,242835;0,343780;0,250306;0,268208;0,222322;0,222427;0,273216;0,228069;0,228284;0,278680;0,244350;0,244454;0,244558;0,000000;0,000000;0,000000;0,636077;0,224860;0,211419;0,816036;0,351325;0,364691;0,364691;0,646857;0,000000;0,000000;0,000000;0,000000;0,000000;0,000000;0,000000;0,000000;0,485071;0,241313;0,241404;0,521238;0,000000;0,000000;0,000000;0,000000;0,000000;0,646857;0,224709;0,224804;0,370643;0,370643;0,000000;0,284629;0,355399;0,358230;0,298905;0,646857;0,286908;0,249883;0,364081;
45;;;;;;;;;;;;;;;;;;;;;;;;;;;;;;;;;;;;;;;;;;;;;1,000000;0,336134;0,321834;0,036366;0,189262;0,717593;0,000000;0,334221;0,257342;0,190276;0,423725;0,429897;0,238054;0,193767;0,193874;0,294819;0,201344;0,219246;0,173360;0,173466;0,224255;0,480475;0,480639;0,229719;0,195388;0,195493;0,195597;0,298319;0,298319;0,000000;0,477021;0,284416;0,289713;0,656979;0,302363;0,315730;0,315730;0,597895;0,000000;0,000000;0,000000;0,000000;0,000000;0,000000;0,167330;0,165061;0,434406;0,535872;0,535989;0,442237;0,390477;0,000000;0,000000;0,000000;0,000000;0,597895;0,307294;0,307447;0,321682;0,321682;0,392685;0,235667;0,306437;0,309268;0,249943;0,597895;0,237946;0,200922;0,658748;
46;;;;;;;;;;;;;;;;;;;;;;;;;;;;;;;;;;;;;;;;;;;;;;1,000000;0,000000;0,167120;0,000000;0,000000;0,000000;0,266284;0,000000;0,000000;0,000000;0,000000;0,000000;0,000000;0,000000;0,392845;0,000000;0,000000;0,000000;0,000000;0,000000;0,340740;0,340955;0,000000;0,000000;0,000000;0,000000;0,000000;0,000000;0,000000;0,000000;0,000000;0,000000;0,000000;0,000000;0,000000;0,000000;0,000000;0,000000;0,000000;0,000000;0,000000;0,000000;0,000000;0,000000;0,000000;0,000000;0,653298;0,653447;0,342772;0,415952;0,292250;0,292319;0,292387;0,292455;0,000000;0,000000;0,000000;0,000000;0,000000;0,417653;0,000000;0,000000;0,000000;0,000000;0,000000;0,000000;0,000000;0,000000;
47;;;;;;;;;;;;;;;;;;;;;;;;;;;;;;;;;;;;;;;;;;;;;;;1,000000;0,168602;0,201394;0,235566;0,000000;0,196401;0,605282;0,202408;0,376277;0,234072;0,613183;0,505097;0,505216;0,306951;0,213476;0,231378;0,185493;0,185598;0,236387;0,000000;0,000000;0,590110;0,207520;0,207625;0,207729;0,345468;0,345468;0,000000;0,240468;0,688216;0,691097;0,316112;0,314496;0,327862;0,327862;0,610027;0,000000;0,000000;0,000000;0,000000;0,000000;0,000000;0,477023;0,212209;0,418759;0,000000;0,000000;0,243729;0,000000;0,000000;0,000000;0,000000;0,000000;0,610027;0,187880;0,187975;0,333814;0,333814;0,000000;0,596799;0,318569;0,321400;0,262075;0,610027;0,601211;0,213054;0,327252;
48;;;;;;;;;;;;;;;;;;;;;;;;;;;;;;;;;;;;;;;;;;;;;;;;1,000000;0,172943;0,000000;0,000000;0,255245;0,415836;0,129839;0,375145;0,162079;0,344394;0,318317;0,318594;0,000000;0,142005;0,167403;0,111654;0,111790;0,166448;0,210561;0,210776;0,412928;0,000000;0,000000;0,000000;0,433380;0,433533;0,524985;0,000000;0,474009;0,419021;0,000000;0,246583;0,000000;0,000000;0,000000;0,143376;0,143446;0,143515;0,143585;0,000000;0,000000;0,522799;0,507290;0,378186;0,223804;0,223895;0,373873;0,000000;0,000000;0,000000;0,000000;0,000000;0,000000;0,350789;0,350925;0,000000;0,000000;0,000000;0,422708;0,262427;0,255028;0,150818;0,000000;0,422109;0,142557;0,000000;
49;;;;;;;;;;;;;;;;;;;;;;;;;;;;;;;;;;;;;;;;;;;;;;;;;1,000000;0,216905;0,000000;0,177741;0,410063;0,731017;0,182135;0,215411;0,231526;0,187238;0,187346;0,288291;0,705137;0,212718;0,757129;0,757290;0,515997;0,000000;0,000000;0,223191;0,188860;0,188965;0,189069;0,000000;0,000000;0,603535;0,221807;0,169371;0,155930;0,297452;0,715622;0,309202;0,309202;0,591367;0,221926;0,221995;0,222065;0,222135;0,000000;0,000000;0,000000;0,217780;0,133085;0,000000;0,000000;0,225069;0,000000;0,000000;0,000000;0,000000;0,000000;0,591367;0,391667;0,391820;0,315153;0,315153;0,000000;0,229139;0,299909;0,715622;0,769610;0,591367;0,231418;0,693782;0,308592;
50;;;;;;;;;;;;;;;;;;;;;;;;;;;;;;;;;;;;;;;;;;;;;;;;;;1,000000;0,000000;0,211912;0,211090;0,217920;0,216306;0,249583;0,265698;0,221410;0,221517;0,322462;0,228988;0,246890;0,201004;0,201109;0,251898;0,000000;0,000000;0,257362;0,223032;0,223136;0,223240;0,000000;0,000000;0,000000;0,635923;0,203542;0,190101;0,815882;0,330007;0,343373;0,343373;0,625539;0,000000;0,000000;0,000000;0,000000;0,000000;0,000000;0,000000;0,000000;0,167257;0,000000;0,000000;0,259240;0,000000;0,000000;0,000000;0,000000;0,000000;0,625539;0,203391;0,203486;0,349325;0,349325;0,000000;0,263311;0,334081;0,336912;0,277587;0,625539;0,265590;0,228565;0,814224;
51;;;;;;;;;;;;;;;;;;;;;;;;;;;;;;;;;;;;;;;;;;;;;;;;;;;1,000000;0,000000;0,000000;0,000000;0,000000;0,000000;0,000000;0,000000;0,000000;0,000000;0,000000;0,000000;0,000000;0,000000;0,000000;0,000000;0,000000;0,000000;0,000000;0,000000;0,000000;0,000000;0,000000;0,000000;0,498447;0,000000;0,000000;0,000000;0,000000;0,000000;0,000000;0,000000;0,000000;0,000000;0,000000;0,000000;0,000000;0,000000;0,000000;0,000000;0,000000;0,000000;0,000000;0,000000;0,000000;0,000000;0,000000;0,000000;0,000000;0,000000;0,000000;0,000000;0,000000;0,000000;0,000000;0,000000;0,000000;0,000000;0,000000;0,000000;0,000000;0,000000;0,000000;
52;;;;;;;;;;;;;;;;;;;;;;;;;;;;;;;;;;;;;;;;;;;;;;;;;;;;1,000000;0,171925;0,178755;0,384504;0,513945;0,226533;0,182245;0,182352;0,724896;0,189823;0,518375;0,161839;0,161944;0,212733;0,000000;0,000000;0,218197;0,183867;0,183971;0,184075;0,000000;0,000000;0,000000;0,216814;0,164378;0,150937;0,292458;0,290842;0,304209;0,304209;0,586374;0,000000;0,000000;0,000000;0,000000;0,000000;0,000000;0,000000;0,000000;0,306471;0,000000;0,000000;0,526285;0,399632;0,275930;0,275998;0,276067;0,276135;0,586374;0,642774;0,642888;0,310160;0,310160;0,401333;0,224146;0,715286;0,297747;0,238422;0,586374;0,226425;0,189400;0,303599;
53;;;;;;;;;;;;;;;;;;;;;;;;;;;;;;;;;;;;;;;;;;;;;;;;;;;;;1,000000;0,358034;0,311785;0,209596;0,551874;0,642860;0,643029;0,282475;0,384241;0,206902;0,314868;0,315003;0,441398;0,000000;0,000000;0,528801;0,183044;0,183149;0,183253;0,311486;0,311486;0,547331;0,215992;0,673518;0,590528;0,291636;0,641023;0,303386;0,303386;0,585551;0,165722;0,165791;0,165861;0,165930;0,000000;0,000000;0,592462;0,525632;0,354268;0,000000;0,000000;0,219253;0,000000;0,000000;0,000000;0,000000;0,000000;0,585551;0,317068;0,317221;0,309338;0,309338;0,000000;0,535490;0,294094;0,641023;0,440874;0,585551;0,539902;0,374987;0,302776;
54;;;;;;;;;;;;;;;;;;;;;;;;;;;;;;;;;;;;;;;;;;;;;;;;;;;;;;1,000000;0,183149;0,216425;0,232540;0,188253;0,188360;0,289305;0,702869;0,213732;0,854933;0,854933;0,517385;0,000000;0,000000;0,224205;0,189874;0,189979;0,190083;0,000000;0,000000;0,604853;0,222822;0,170385;0,156944;0,298466;0,717010;0,310216;0,310216;0,592381;0,223244;0,223314;0,223383;0,223453;0,000000;0,000000;0,000000;0,219098;0,134099;0,000000;0,000000;0,226083;0,000000;0,000000;0,000000;0,000000;0,000000;0,592381;0,393055;0,393208;0,316168;0,316168;0,000000;0,230153;0,300923;0,717010;0,771035;0,592381;0,232432;0,695207;0,309606;
55;;;;;;;;;;;;;;;;;;;;;;;;;;;;;;;;;;;;;;;;;;;;;;;;;;;;;;;1,000000;0,480180;0,230927;0,186639;0,186747;0,287691;0,194217;0,212119;0,166233;0,166338;0,217128;0,000000;0,000000;0,222591;0,188261;0,188365;0,188470;0,355331;0,355331;0,000000;0,221208;0,338859;0,344156;0,296852;0,295236;0,308603;0,308603;0,590768;0,000000;0,000000;0,000000;0,000000;0,000000;0,000000;0,224341;0,222072;1,000000;0,000000;0,000000;0,492520;0,000000;0,000000;0,000000;0,000000;0,000000;0,590768;0,357577;0,357730;0,314554;0,314554;0,000000;0,228540;0,299310;0,302141;0,242816;0,590768;0,230819;0,193795;0,307993;
56;;;;;;;;;;;;;;;;;;;;;;;;;;;;;;;;;;;;;;;;;;;;;;;;;;;;;;;;1,000000;0,264204;0,219916;0,220023;0,320968;0,227493;0,245395;0,199510;0,199615;0,250404;0,000000;0,000000;0,255868;0,221537;0,221642;0,221746;0,000000;0,000000;0,000000;0,254485;0,202048;0,188607;0,330129;0,328513;0,341879;0,341879;0,624044;0,000000;0,000000;0,000000;0,000000;0,000000;0,000000;0,000000;0,000000;0,402147;0,000000;0,000000;0,621961;0,000000;0,000000;0,000000;0,000000;0,000000;0,624044;0,487018;0,487171;0,347831;0,347831;0,000000;0,261817;0,332587;0,335418;0,276092;0,624044;0,264096;0,227071;0,341269;
57;;;;;;;;;;;;;;;;;;;;;;;;;;;;;;;;;;;;;;;;;;;;;;;;;;;;;;;;;1,000000;0,835682;0,835682;0,337083;0,243608;0,261510;0,215625;0,215730;0,266519;0,000000;0,000000;0,661445;0,237652;0,237757;0,237861;0,000000;0,000000;0,000000;0,270600;0,604241;0,589636;0,346244;0,344628;0,357994;0,357994;0,640159;0,000000;0,000000;0,000000;0,000000;0,000000;0,000000;0,305378;0,258849;0,181877;0,000000;0,000000;0,273861;0,000000;0,000000;0,000000;0,000000;0,000000;0,640159;0,218012;0,218107;0,363946;0,363946;0,000000;0,668133;0,348701;0,351532;0,292207;0,640159;0,672545;0,243186;0,357384;
58;;;;;;;;;;;;;;;;;;;;;;;;;;;;;;;;;;;;;;;;;;;;;;;;;;;;;;;;;;1,000000;0,748549;0,292795;0,199321;0,217223;0,171337;0,171442;0,222231;0,000000;0,000000;0,553359;0,193365;0,193469;0,193573;0,000000;0,000000;0,000000;0,226312;0,496156;0,481551;0,301956;0,300340;0,313706;0,313706;0,595872;0,000000;0,000000;0,000000;0,000000;0,000000;0,000000;0,256819;0,280497;0,137590;0,000000;0,000000;0,229574;0,000000;0,000000;0,000000;0,000000;0,000000;0,595872;0,173724;0,173819;0,319658;0,319658;0,000000;0,560047;0,304414;0,307245;0,247920;0,595872;0,564460;0,198898;0,313097;
59;;;;;;;;;;;;;;;;;;;;;;;;;;;;;;;;;;;;;;;;;;;;;;;;;;;;;;;;;;;1,000000;0,292902;0,199428;0,217330;0,171444;0,171549;0,222339;0,000000;0,000000;0,553478;0,193472;0,193577;0,193681;0,000000;0,000000;0,000000;0,226419;0,496275;0,481670;0,302064;0,300447;0,313814;0,313814;0,595979;0,000000;0,000000;0,000000;0,000000;0,000000;0,000000;0,257017;0,280717;0,137697;0,000000;0,000000;0,229681;0,000000;0,000000;0,000000;0,000000;0,000000;0,595979;0,173831;0,173927;0,319765;0,319765;0,000000;0,560166;0,304521;0,307352;0,248027;0,595979;0,564579;0,199006;0,313204;
60;;;;;;;;;;;;;;;;;;;;;;;;;;;;;;;;;;;;;;;;;;;;;;;;;;;;;;;;;;;;1,000000;0,300373;0,318275;0,272389;0,272494;0,323283;0,000000;0,000000;0,328747;0,294417;0,294521;0,294625;0,000000;0,000000;0,000000;0,327364;0,274928;0,261487;0,403008;0,401392;0,414759;0,414759;0,696924;0,000000;0,000000;0,000000;0,000000;0,000000;0,000000;0,000000;0,000000;0,238642;0,000000;0,000000;0,330626;0,526193;0,402491;0,402559;0,402628;0,402696;0,696924;0,274776;0,274872;0,420710;0,420710;0,527894;0,334696;0,405466;0,408297;0,348972;0,696924;0,336975;0,299950;0,414149;
61;;;;;;;;;;;;;;;;;;;;;;;;;;;;;;;;;;;;;;;;;;;;;;;;;;;;;;;;;;;;;1,000000;0,224800;0,780867;0,781007;0,543592;0,000000;0,000000;0,235273;0,200942;0,201047;0,201151;0,000000;0,000000;0,617020;0,233890;0,181453;0,168012;0,309534;0,743217;0,321284;0,321284;0,603449;0,235411;0,235480;0,235550;0,235619;0,000000;0,000000;0,000000;0,231264;0,145167;0,000000;0,000000;0,237151;0,000000;0,000000;0,000000;0,000000;0,000000;0,603449;0,419262;0,419415;0,327236;0,327236;0,000000;0,241221;0,311991;0,743217;0,645070;0,603449;0,243500;0,704664;0,320674;
62;;;;;;;;;;;;;;;;;;;;;;;;;;;;;;;;;;;;;;;;;;;;;;;;;;;;;;;;;;;;;;1,000000;0,196816;0,196922;0,247711;0,000000;0,000000;0,253175;0,218844;0,218949;0,219053;0,000000;0,000000;0,000000;0,251792;0,199355;0,185914;0,327436;0,325819;0,339186;0,339186;0,621351;0,000000;0,000000;0,000000;0,000000;0,000000;0,000000;0,000000;0,000000;0,163069;0,000000;0,000000;0,255053;0,000000;0,000000;0,000000;0,000000;0,000000;0,621351;0,489600;0,489746;0,345138;0,345138;0,000000;0,259123;0,803089;0,332724;0,273399;0,621351;0,261402;0,224378;0,338576;
63;;;;;;;;;;;;;;;;;;;;;;;;;;;;;;;;;;;;;;;;;;;;;;;;;;;;;;;;;;;;;;;1,000000;0,803660;0,474220;0,000000;0,000000;0,207289;0,172959;0,173063;0,173167;0,000000;0,000000;0,586669;0,205906;0,153469;0,140028;0,281550;0,673845;0,293300;0,293300;0,575465;0,205059;0,205129;0,205198;0,205268;0,000000;0,000000;0,000000;0,200913;0,117184;0,000000;0,000000;0,209167;0,000000;0,000000;0,000000;0,000000;0,000000;0,575465;0,349890;0,350042;0,299252;0,299252;0,000000;0,213238;0,284008;0,673845;0,747696;0,575465;0,215517;0,671868;0,292690;
64;;;;;;;;;;;;;;;;;;;;;;;;;;;;;;;;;;;;;;;;;;;;;;;;;;;;;;;;;;;;;;;;1,000000;0,474354;0,000000;0,000000;0,207394;0,173064;0,173168;0,173272;0,000000;0,000000;0,586804;0,206011;0,153574;0,140133;0,281655;0,673980;0,293406;0,293406;0,575571;0,205195;0,205265;0,205334;0,205404;0,000000;0,000000;0,000000;0,201049;0,117289;0,000000;0,000000;0,209273;0,000000;0,000000;0,000000;0,000000;0,000000;0,575571;0,350025;0,350177;0,299357;0,299357;0,000000;0,213343;0,284113;0,673980;0,747812;0,575571;0,215622;0,671984;0,292796;
65;;;;;;;;;;;;;;;;;;;;;;;;;;;;;;;;;;;;;;;;;;;;;;;;;;;;;;;;;;;;;;;;;1,000000;0,000000;0,000000;0,258183;0,223853;0,223957;0,224062;0,000000;0,000000;0,641463;0,256800;0,204364;0,190923;0,332444;0,800375;0,344195;0,344195;0,626360;0,259854;0,259923;0,259993;0,260063;0,000000;0,000000;0,000000;0,255708;0,168078;0,000000;0,000000;0,260062;0,000000;0,000000;0,000000;0,000000;0,000000;0,626360;0,476420;0,476572;0,350146;0,350146;0,000000;0,264132;0,334902;0,800375;0,600226;0,626360;0,266411;0,534338;0,343585;
66;;;;;;;;;;;;;;;;;;;;;;;;;;;;;;;;;;;;;;;;;;;;;;;;;;;;;;;;;;;;;;;;;;1,000000;0,719044;0,000000;0,000000;0,000000;0,000000;0,000000;0,000000;0,000000;0,000000;0,000000;0,000000;0,000000;0,000000;0,000000;0,000000;0,000000;0,000000;0,000000;0,000000;0,000000;0,000000;0,000000;0,000000;0,000000;0,000000;0,397423;0,397514;0,386212;0,000000;0,000000;0,000000;0,000000;0,000000;0,000000;0,000000;0,000000;0,000000;0,000000;0,000000;0,000000;0,000000;0,000000;0,000000;0,000000;0,000000;0,000000;0,000000;
67;;;;;;;;;;;;;;;;;;;;;;;;;;;;;;;;;;;;;;;;;;;;;;;;;;;;;;;;;;;;;;;;;;;1,000000;0,000000;0,000000;0,000000;0,000000;0,000000;0,000000;0,000000;0,000000;0,000000;0,000000;0,000000;0,000000;0,000000;0,000000;0,000000;0,000000;0,000000;0,000000;0,000000;0,000000;0,000000;0,000000;0,000000;0,000000;0,397638;0,397729;0,386427;0,000000;0,000000;0,000000;0,000000;0,000000;0,000000;0,000000;0,000000;0,000000;0,000000;0,000000;0,000000;0,000000;0,000000;0,000000;0,000000;0,000000;0,000000;0,000000;
68;;;;;;;;;;;;;;;;;;;;;;;;;;;;;;;;;;;;;;;;;;;;;;;;;;;;;;;;;;;;;;;;;;;;1,000000;0,229317;0,229421;0,229526;0,000000;0,000000;0,000000;0,262264;0,581169;0,566564;0,337908;0,336292;0,349659;0,349659;0,631824;0,000000;0,000000;0,000000;0,000000;0,000000;0,000000;0,297829;0,000000;0,173542;0,000000;0,000000;0,265526;0,000000;0,000000;0,000000;0,000000;0,000000;0,631824;0,209676;0,209772;0,355610;0,355610;0,000000;1,000000;0,340366;0,343197;0,283872;0,631824;0,649473;0,234850;0,349049;
69;;;;;;;;;;;;;;;;;;;;;;;;;;;;;;;;;;;;;;;;;;;;;;;;;;;;;;;;;;;;;;;;;;;;;1,000000;0,811970;0,812191;0,000000;0,000000;0,000000;0,227934;0,175497;0,162056;0,303578;0,301961;0,315328;0,315328;0,597493;0,000000;0,000000;0,000000;0,000000;0,000000;0,000000;0,000000;0,000000;0,139211;0,000000;0,000000;0,231195;0,000000;0,000000;0,000000;0,000000;0,000000;0,597493;0,175345;0,175441;0,321280;0,321280;0,000000;0,235265;0,306035;0,308866;0,249541;0,597493;0,237544;0,200520;0,314718;
70;;;;;;;;;;;;;;;;;;;;;;;;;;;;;;;;;;;;;;;;;;;;;;;;;;;;;;;;;;;;;;;;;;;;;;1,000000;0,812411;0,000000;0,000000;0,000000;0,228038;0,175602;0,162161;0,303682;0,302066;0,315433;0,315433;0,597598;0,000000;0,000000;0,000000;0,000000;0,000000;0,000000;0,000000;0,000000;0,139316;0,000000;0,000000;0,231300;0,000000;0,000000;0,000000;0,000000;0,000000;0,597598;0,175450;0,175546;0,321384;0,321384;0,000000;0,235370;0,306140;0,308971;0,249646;0,597598;0,237649;0,200624;0,314823;
71;;;;;;;;;;;;;;;;;;;;;;;;;;;;;;;;;;;;;;;;;;;;;;;;;;;;;;;;;;;;;;;;;;;;;;;1,000000;0,000000;0,000000;0,000000;0,228142;0,175706;0,162265;0,303787;0,302170;0,315537;0,315537;0,597702;0,000000;0,000000;0,000000;0,000000;0,000000;0,000000;0,000000;0,000000;0,139420;0,000000;0,000000;0,231404;0,000000;0,000000;0,000000;0,000000;0,000000;0,597702;0,175554;0,175650;0,321488;0,321488;0,000000;0,235474;0,306244;0,309075;0,249750;0,597702;0,237753;0,200729;0,314927;
72;;;;;;;;;;;;;;;;;;;;;;;;;;;;;;;;;;;;;;;;;;;;;;;;;;;;;;;;;;;;;;;;;;;;;;;;1,000000;0,542933;0,000000;0,000000;0,345618;0,364284;0,000000;0,000000;0,000000;0,000000;0,000000;0,000000;0,000000;0,000000;0,000000;0,000000;0,000000;0,411943;0,409675;0,450640;0,000000;0,000000;0,000000;0,000000;0,000000;0,000000;0,000000;0,000000;0,000000;0,000000;0,000000;0,000000;0,000000;0,000000;0,000000;0,000000;0,000000;0,000000;0,000000;0,000000;0,000000;0,000000;
73;;;;;;;;;;;;;;;;;;;;;;;;;;;;;;;;;;;;;;;;;;;;;;;;;;;;;;;;;;;;;;;;;;;;;;;;;1,000000;0,000000;0,000000;0,345618;0,364284;0,000000;0,000000;0,000000;0,000000;0,000000;0,000000;0,000000;0,000000;0,000000;0,000000;0,000000;0,411943;0,409675;0,450640;0,000000;0,000000;0,000000;0,000000;0,000000;0,000000;0,000000;0,000000;0,000000;0,000000;0,000000;0,000000;0,000000;0,000000;0,000000;0,000000;0,000000;0,000000;0,000000;0,000000;0,000000;0,000000;
74;;;;;;;;;;;;;;;;;;;;;;;;;;;;;;;;;;;;;;;;;;;;;;;;;;;;;;;;;;;;;;;;;;;;;;;;;;1,000000;0,000000;0,000000;0,000000;0,000000;0,721597;0,000000;0,000000;0,000000;0,618391;0,618460;0,618530;0,618600;0,000000;0,000000;0,000000;0,614245;0,000000;0,000000;0,000000;0,000000;0,000000;0,000000;0,000000;0,000000;0,000000;0,000000;0,589771;0,589885;0,000000;0,000000;0,000000;0,000000;0,000000;0,730043;0,625832;0,000000;0,000000;0,617572;0,000000;
75;;;;;;;;;;;;;;;;;;;;;;;;;;;;;;;;;;;;;;;;;;;;;;;;;;;;;;;;;;;;;;;;;;;;;;;;;;;1,000000;0,208444;0,195003;0,820041;0,334909;0,348275;0,348275;0,630441;0,000000;0,000000;0,000000;0,000000;0,000000;0,000000;0,000000;0,000000;0,172159;0,000000;0,000000;0,264143;0,000000;0,000000;0,000000;0,000000;0,000000;0,630441;0,208293;0,208388;0,354227;0,354227;0,000000;0,268213;0,338983;0,341814;0,282489;0,630441;0,270492;0,233467;0,347666;
76;;;;;;;;;;;;;;;;;;;;;;;;;;;;;;;;;;;;;;;;;;;;;;;;;;;;;;;;;;;;;;;;;;;;;;;;;;;;1,000000;0,673463;0,284089;0,282472;0,295839;0,295839;0,578004;0,000000;0,000000;0,000000;0,000000;0,000000;0,000000;0,676402;0,397703;0,381342;0,000000;0,000000;0,211706;0,000000;0,000000;0,000000;0,000000;0,000000;0,578004;0,155856;0,155952;0,301790;0,301790;0,000000;0,587857;0,286546;0,289377;0,230052;0,578004;0,592270;0,181031;0,295229;
77;;;;;;;;;;;;;;;;;;;;;;;;;;;;;;;;;;;;;;;;;;;;;;;;;;;;;;;;;;;;;;;;;;;;;;;;;;;;;1,000000;0,270648;0,269031;0,282398;0,282398;0,564563;0,000000;0,000000;0,000000;0,000000;0,000000;0,000000;0,814559;0,231025;0,386638;0,000000;0,000000;0,198265;0,000000;0,000000;0,000000;0,000000;0,000000;0,564563;0,142415;0,142511;0,288349;0,288349;0,000000;0,573252;0,273105;0,275936;0,216611;0,564563;0,925353;0,167590;0,281788;
78;;;;;;;;;;;;;;;;;;;;;;;;;;;;;;;;;;;;;;;;;;;;;;;;;;;;;;;;;;;;;;;;;;;;;;;;;;;;;;1,000000;0,410553;0,423920;0,423920;0,706085;0,000000;0,000000;0,000000;0,000000;0,000000;0,000000;0,000000;0,000000;0,247803;0,000000;0,000000;0,339787;0,000000;0,000000;0,000000;0,000000;0,000000;0,706085;0,283937;0,284033;0,429871;0,429871;0,000000;0,343857;0,414627;0,417458;0,358133;0,706085;0,346136;0,309111;0,423310;
79;;;;;;;;;;;;;;;;;;;;;;;;;;;;;;;;;;;;;;;;;;;;;;;;;;;;;;;;;;;;;;;;;;;;;;;;;;;;;;;1,000000;0,422303;0,422303;0,704468;0,339988;0,340058;0,340127;0,340197;0,000000;0,000000;0,000000;0,335842;0,246186;0,000000;0,000000;0,338170;0,000000;0,000000;0,000000;0,000000;0,000000;0,704468;0,676045;0,676198;0,428255;0,428255;0,000000;0,342241;0,413010;1,000000;0,799851;0,704468;0,344520;0,733963;0,421693;
80;;;;;;;;;;;;;;;;;;;;;;;;;;;;;;;;;;;;;;;;;;;;;;;;;;;;;;;;;;;;;;;;;;;;;;;;;;;;;;;;1,000000;0,435670;0,717835;0,000000;0,000000;0,000000;0,000000;0,000000;0,000000;0,000000;0,000000;0,259553;0,000000;0,000000;0,351537;0,000000;0,000000;0,000000;0,000000;0,000000;0,717835;0,295687;0,295783;0,441621;0,441621;0,000000;0,355607;0,426377;0,429208;0,369883;0,717835;0,357886;0,320862;0,435060;
81;;;;;;;;;;;;;;;;;;;;;;;;;;;;;;;;;;;;;;;;;;;;;;;;;;;;;;;;;;;;;;;;;;;;;;;;;;;;;;;;;1,000000;0,717835;0,000000;0,000000;0,000000;0,000000;0,000000;0,000000;0,000000;0,000000;0,259553;0,000000;0,000000;0,351537;0,000000;0,000000;0,000000;0,000000;0,000000;0,717835;0,295687;0,295783;0,441621;0,441621;0,000000;0,355607;0,426377;0,429208;0,369883;0,717835;0,357886;0,320862;0,435060;
82;;;;;;;;;;;;;;;;;;;;;;;;;;;;;;;;;;;;;;;;;;;;;;;;;;;;;;;;;;;;;;;;;;;;;;;;;;;;;;;;;;1,000000;0,000000;0,000000;0,000000;0,000000;0,000000;0,000000;0,000000;0,000000;0,541718;0,000000;0,000000;0,633702;0,000000;0,000000;0,000000;0,000000;0,000000;1,000000;0,577852;0,577948;0,723787;0,723787;0,000000;0,637772;0,708542;0,711373;0,652048;1,000000;0,640051;0,603027;0,717225;
83;;;;;;;;;;;;;;;;;;;;;;;;;;;;;;;;;;;;;;;;;;;;;;;;;;;;;;;;;;;;;;;;;;;;;;;;;;;;;;;;;;;1,000000;0,854060;0,854205;0,854349;0,000000;0,000000;0,000000;0,232636;0,000000;0,000000;0,000000;0,000000;0,000000;0,000000;0,000000;0,000000;0,000000;0,000000;0,208162;0,208276;0,000000;0,000000;0,000000;0,000000;0,000000;0,348434;0,244223;0,000000;0,000000;0,235963;0,000000;
84;;;;;;;;;;;;;;;;;;;;;;;;;;;;;;;;;;;;;;;;;;;;;;;;;;;;;;;;;;;;;;;;;;;;;;;;;;;;;;;;;;;;1,000000;0,854349;0,854492;0,000000;0,000000;0,000000;0,232705;0,000000;0,000000;0,000000;0,000000;0,000000;0,000000;0,000000;0,000000;0,000000;0,000000;0,208232;0,208345;0,000000;0,000000;0,000000;0,000000;0,000000;0,348503;0,244293;0,000000;0,000000;0,236032;0,000000;
85;;;;;;;;;;;;;;;;;;;;;;;;;;;;;;;;;;;;;;;;;;;;;;;;;;;;;;;;;;;;;;;;;;;;;;;;;;;;;;;;;;;;;1,000000;0,854634;0,000000;0,000000;0,000000;0,232775;0,000000;0,000000;0,000000;0,000000;0,000000;0,000000;0,000000;0,000000;0,000000;0,000000;0,208301;0,208415;0,000000;0,000000;0,000000;0,000000;0,000000;0,348573;0,244362;0,000000;0,000000;0,236102;0,000000;
86;;;;;;;;;;;;;;;;;;;;;;;;;;;;;;;;;;;;;;;;;;;;;;;;;;;;;;;;;;;;;;;;;;;;;;;;;;;;;;;;;;;;;;1,000000;0,000000;0,000000;0,000000;0,232844;0,000000;0,000000;0,000000;0,000000;0,000000;0,000000;0,000000;0,000000;0,000000;0,000000;0,208371;0,208484;0,000000;0,000000;0,000000;0,000000;0,000000;0,348642;0,244432;0,000000;0,000000;0,236171;0,000000;
87;;;;;;;;;;;;;;;;;;;;;;;;;;;;;;;;;;;;;;;;;;;;;;;;;;;;;;;;;;;;;;;;;;;;;;;;;;;;;;;;;;;;;;;1,000000;0,000000;0,000000;0,000000;0,000000;0,000000;0,000000;0,000000;0,000000;0,000000;0,000000;0,000000;0,000000;0,000000;0,000000;0,000000;0,000000;0,000000;0,000000;0,000000;0,000000;0,000000;0,000000;0,000000;0,000000;0,000000;0,000000;
88;;;;;;;;;;;;;;;;;;;;;;;;;;;;;;;;;;;;;;;;;;;;;;;;;;;;;;;;;;;;;;;;;;;;;;;;;;;;;;;;;;;;;;;;1,000000;0,000000;0,000000;0,000000;0,000000;0,000000;0,000000;0,000000;0,000000;0,000000;0,000000;0,000000;0,000000;0,000000;0,000000;0,000000;0,000000;0,000000;0,000000;0,000000;0,000000;0,000000;0,000000;0,000000;0,000000;0,000000;
89;;;;;;;;;;;;;;;;;;;;;;;;;;;;;;;;;;;;;;;;;;;;;;;;;;;;;;;;;;;;;;;;;;;;;;;;;;;;;;;;;;;;;;;;;1,000000;0,565845;0,319650;0,000000;0,000000;0,000000;0,000000;0,000000;0,000000;0,000000;0,000000;0,000000;0,000000;0,000000;0,000000;0,000000;0,000000;0,306727;0,000000;0,000000;0,000000;0,000000;0,631469;0,000000;0,000000;
90;;;;;;;;;;;;;;;;;;;;;;;;;;;;;;;;;;;;;;;;;;;;;;;;;;;;;;;;;;;;;;;;;;;;;;;;;;;;;;;;;;;;;;;;;;1,000000;0,317381;0,000000;0,000000;0,000000;0,000000;0,000000;0,000000;0,000000;0,000000;0,000000;0,204016;0,204129;0,000000;0,000000;0,000000;0,000000;0,000000;0,344288;0,240077;0,000000;0,000000;0,231816;0,000000;
91;;;;;;;;;;;;;;;;;;;;;;;;;;;;;;;;;;;;;;;;;;;;;;;;;;;;;;;;;;;;;;;;;;;;;;;;;;;;;;;;;;;;;;;;;;;1,000000;0,000000;0,000000;0,414488;0,000000;0,000000;0,000000;0,000000;0,000000;0,541718;0,279544;0,279698;0,265505;0,265505;0,000000;0,179490;0,250260;0,253091;0,193766;0,541718;0,181769;0,144745;0,258943;
92;;;;;;;;;;;;;;;;;;;;;;;;;;;;;;;;;;;;;;;;;;;;;;;;;;;;;;;;;;;;;;;;;;;;;;;;;;;;;;;;;;;;;;;;;;;;1,000000;0,768409;0,399455;0,552509;0,000000;0,000000;0,000000;0,000000;0,000000;0,000000;0,000000;0,000000;0,000000;0,554717;0,000000;0,000000;0,000000;0,000000;0,000000;0,000000;0,000000;0,000000;
93;;;;;;;;;;;;;;;;;;;;;;;;;;;;;;;;;;;;;;;;;;;;;;;;;;;;;;;;;;;;;;;;;;;;;;;;;;;;;;;;;;;;;;;;;;;;;1,000000;0,399547;0,552604;0,000000;0,000000;0,000000;0,000000;0,000000;0,000000;0,000000;0,000000;0,000000;0,554812;0,000000;0,000000;0,000000;0,000000;0,000000;0,000000;0,000000;0,000000;
94;;;;;;;;;;;;;;;;;;;;;;;;;;;;;;;;;;;;;;;;;;;;;;;;;;;;;;;;;;;;;;;;;;;;;;;;;;;;;;;;;;;;;;;;;;;;;;1,000000;0,000000;0,000000;0,000000;0,000000;0,000000;0,633702;0,499358;0,499511;0,357488;0,357488;0,000000;0,271474;0,342244;0,345075;0,285750;0,633702;0,273753;0,236729;0,350927;
95;;;;;;;;;;;;;;;;;;;;;;;;;;;;;;;;;;;;;;;;;;;;;;;;;;;;;;;;;;;;;;;;;;;;;;;;;;;;;;;;;;;;;;;;;;;;;;;1,000000;0,425599;0,425667;0,425735;0,425804;0,000000;0,000000;0,000000;0,000000;0,000000;1,000000;0,000000;0,000000;0,000000;0,000000;0,000000;0,000000;0,000000;0,000000;
96;;;;;;;;;;;;;;;;;;;;;;;;;;;;;;;;;;;;;;;;;;;;;;;;;;;;;;;;;;;;;;;;;;;;;;;;;;;;;;;;;;;;;;;;;;;;;;;;1,000000;0,864088;0,864204;0,864318;0,000000;0,000000;0,000000;0,000000;0,000000;0,427300;0,000000;0,000000;0,000000;0,000000;0,000000;0,000000;0,000000;0,000000;
97;;;;;;;;;;;;;;;;;;;;;;;;;;;;;;;;;;;;;;;;;;;;;;;;;;;;;;;;;;;;;;;;;;;;;;;;;;;;;;;;;;;;;;;;;;;;;;;;;1,000000;0,864318;0,864432;0,000000;0,000000;0,000000;0,000000;0,000000;0,427368;0,000000;0,000000;0,000000;0,000000;0,000000;0,000000;0,000000;0,000000;
98;;;;;;;;;;;;;;;;;;;;;;;;;;;;;;;;;;;;;;;;;;;;;;;;;;;;;;;;;;;;;;;;;;;;;;;;;;;;;;;;;;;;;;;;;;;;;;;;;;1,000000;0,864545;0,000000;0,000000;0,000000;0,000000;0,000000;0,427436;0,000000;0,000000;0,000000;0,000000;0,000000;0,000000;0,000000;0,000000;
99;;;;;;;;;;;;;;;;;;;;;;;;;;;;;;;;;;;;;;;;;;;;;;;;;;;;;;;;;;;;;;;;;;;;;;;;;;;;;;;;;;;;;;;;;;;;;;;;;;;1,000000;0,000000;0,000000;0,000000;0,000000;0,000000;0,427505;0,000000;0,000000;0,000000;0,000000;0,000000;0,000000;0,000000;0,000000;
100;;;;;;;;;;;;;;;;;;;;;;;;;;;;;;;;;;;;;;;;;;;;;;;;;;;;;;;;;;;;;;;;;;;;;;;;;;;;;;;;;;;;;;;;;;;;;;;;;;;;1,000000;0,577852;0,577948;0,723787;0,723787;0,000000;0,637772;0,708542;0,711373;0,652048;1,000000;0,640051;0,603027;0,717225;
101;;;;;;;;;;;;;;;;;;;;;;;;;;;;;;;;;;;;;;;;;;;;;;;;;;;;;;;;;;;;;;;;;;;;;;;;;;;;;;;;;;;;;;;;;;;;;;;;;;;;;1,000000;0,797998;0,301639;0,301639;0,000000;0,215625;0,686511;0,676045;0,475896;0,577852;0,217904;0,410008;0,295077;
102;;;;;;;;;;;;;;;;;;;;;;;;;;;;;;;;;;;;;;;;;;;;;;;;;;;;;;;;;;;;;;;;;;;;;;;;;;;;;;;;;;;;;;;;;;;;;;;;;;;;;;1,000000;0,301734;0,301734;0,000000;0,215720;0,686657;0,676198;0,476048;0,577948;0,217999;0,410161;0,295173;
103;;;;;;;;;;;;;;;;;;;;;;;;;;;;;;;;;;;;;;;;;;;;;;;;;;;;;;;;;;;;;;;;;;;;;;;;;;;;;;;;;;;;;;;;;;;;;;;;;;;;;;;1,000000;0,447573;0,000000;0,361559;0,432329;0,435160;0,375835;0,723787;0,363838;0,326813;0,441012;
104;;;;;;;;;;;;;;;;;;;;;;;;;;;;;;;;;;;;;;;;;;;;;;;;;;;;;;;;;;;;;;;;;;;;;;;;;;;;;;;;;;;;;;;;;;;;;;;;;;;;;;;;1,000000;0,000000;0,361559;0,432329;0,435160;0,375835;0,723787;0,363838;0,326813;0,441012;
105;;;;;;;;;;;;;;;;;;;;;;;;;;;;;;;;;;;;;;;;;;;;;;;;;;;;;;;;;;;;;;;;;;;;;;;;;;;;;;;;;;;;;;;;;;;;;;;;;;;;;;;;;1,000000;0,000000;0,000000;0,000000;0,000000;0,000000;0,000000;0,000000;0,000000;
106;;;;;;;;;;;;;;;;;;;;;;;;;;;;;;;;;;;;;;;;;;;;;;;;;;;;;;;;;;;;;;;;;;;;;;;;;;;;;;;;;;;;;;;;;;;;;;;;;;;;;;;;;;1,000000;0,346314;0,349145;0,289820;0,637772;0,656161;0,240799;0,354997;
107;;;;;;;;;;;;;;;;;;;;;;;;;;;;;;;;;;;;;;;;;;;;;;;;;;;;;;;;;;;;;;;;;;;;;;;;;;;;;;;;;;;;;;;;;;;;;;;;;;;;;;;;;;;1,000000;0,419915;0,360590;0,708542;0,348594;0,311569;0,425767;
108;;;;;;;;;;;;;;;;;;;;;;;;;;;;;;;;;;;;;;;;;;;;;;;;;;;;;;;;;;;;;;;;;;;;;;;;;;;;;;;;;;;;;;;;;;;;;;;;;;;;;;;;;;;;1,000000;0,799851;0,711373;0,351424;0,733963;0,428598;
109;;;;;;;;;;;;;;;;;;;;;;;;;;;;;;;;;;;;;;;;;;;;;;;;;;;;;;;;;;;;;;;;;;;;;;;;;;;;;;;;;;;;;;;;;;;;;;;;;;;;;;;;;;;;;1,000000;0,652048;0,292099;0,835839;0,369273;
110;;;;;;;;;;;;;;;;;;;;;;;;;;;;;;;;;;;;;;;;;;;;;;;;;;;;;;;;;;;;;;;;;;;;;;;;;;;;;;;;;;;;;;;;;;;;;;;;;;;;;;;;;;;;;;1,000000;0,640051;0,603027;0,717225;
111;;;;;;;;;;;;;;;;;;;;;;;;;;;;;;;;;;;;;;;;;;;;;;;;;;;;;;;;;;;;;;;;;;;;;;;;;;;;;;;;;;;;;;;;;;;;;;;;;;;;;;;;;;;;;;;1,000000;0,243078;0,357276;
112;;;;;;;;;;;;;;;;;;;;;;;;;;;;;;;;;;;;;;;;;;;;;;;;;;;;;;;;;;;;;;;;;;;;;;;;;;;;;;;;;;;;;;;;;;;;;;;;;;;;;;;;;;;;;;;;1,000000;0,320252;
113;;;;;;;;;;;;;;;;;;;;;;;;;;;;;;;;;;;;;;;;;;;;;;;;;;;;;;;;;;;;;;;;;;;;;;;;;;;;;;;;;;;;;;;;;;;;;;;;;;;;;;;;;;;;;;;;;1,000000;
