;1; 2; 3; 4; 5; 6; 7; 8; 9; 10; 11; 12; 13; 14; 15; 16; 17; 18; 19; 20; 21; 22; 23; 24; 25; 26; 27; 28; 29; 30; 31; 32; 33; 34; 35; 36; 37; 38; 39
1;1,000000;0,406757;0,396272;0,363087;0,214702;0,214702;0,918600;0,451901;0,615489;0,553995;0,470013;0,470013;0,684882;0,179248;0,179695;0,180171;0,485256;0,485256;0,338143;0,265567;0,267695;0,553995;0,684882;0,193080;0,193332;0,193594;0,196000;0,196222;0,196452;0,198776;0,198971;0,198982;0,274343;0,199765;0,553995;0,000000;0,000000;0,000000;0,000000;
2;;1,000000;0,491440;0,337660;0,322708;0,322708;0,529102;0,481693;0,378560;0,662002;0,509434;0,512755;0,336250;0,287254;0,287702;0,288177;0,523997;0,525911;0,701295;0,373573;0,375701;0,662002;0,356344;0,301086;0,301338;0,301600;0,304006;0,304229;0,304458;0,306783;0,306977;0,306989;0,382349;0,307771;0,662002;0,000000;0,000000;0,000000;0,000000;
3;;;1,000000;0,410803;0,231419;0,231419;0,464560;0,811537;0,641997;0,570713;0,496521;0,496521;0,711390;0,195966;0,196413;0,196888;0,511764;0,511764;0,354861;0,282284;0,284412;0,570713;0,711390;0,209797;0,210050;0,210311;0,212718;0,212940;0,213169;0,215494;0,215688;0,215700;0,291060;0,216482;0,570713;0,000000;0,000000;0,000000;0,000000;
4;;;;1,000000;0,271351;0,277215;0,440142;0,416574;0,294150;0,000000;0,451714;0,454304;0,296779;0,398307;0,399975;0,401516;0,464023;0,465617;0,202289;0,288664;0,332557;0,000000;0,315040;0,410629;0,411503;0,412333;0,413111;0,413866;0,414587;0,414321;0,415043;0,395207;0,304461;0,396633;0,000000;0,000000;0,000000;0,000000;0,000000;
5;;;;;1,000000;0,321413;0,253419;0,259362;0,377264;0,660706;0,269677;0,271010;0,334955;0,285959;0,286406;0,286882;0,281383;0,282246;0,444854;0,372278;0,374405;0,660706;0,355048;0,299791;0,300043;0,300305;0,302711;0,302933;0,303163;0,305487;0,305682;0,305693;0,381054;0,306476;0,660706;0,000000;0,000000;0,000000;0,000000;
6;;;;;;1,000000;0,253419;0,259362;0,377264;0,660706;0,269677;0,271010;0,334955;0,285959;0,286406;0,286882;0,281383;0,282246;0,444854;0,372278;0,374405;0,660706;0,355048;0,299791;0,300043;0,300305;0,302711;0,302933;0,303163;0,305487;0,305682;0,305693;0,381054;0,306476;0,660706;0,000000;0,000000;0,000000;0,000000;
7;;;;;;;1,000000;0,520190;0,683778;0,592713;0,538302;0,538302;0,753170;0,217965;0,218413;0,218888;0,553545;0,553545;0,376861;0,304284;0,306412;0,592713;0,753170;0,231797;0,232050;0,232311;0,234717;0,234940;0,235169;0,237494;0,237688;0,237700;0,313060;0,238482;0,592713;0,000000;0,000000;0,000000;0,000000;
8;;;;;;;;1,000000;0,697626;0,598656;0,552150;0,552150;0,767019;0,223909;0,224356;0,224831;0,567394;0,567394;0,382804;0,310227;0,312355;0,598656;0,767019;0,237740;0,237993;0,238254;0,240661;0,240883;0,241112;0,243437;0,243631;0,243643;0,319003;0,244425;0,598656;0,000000;0,000000;0,000000;0,000000;
9;;;;;;;;;1,000000;0,716558;0,715738;0,715738;0,930607;0,341811;0,342258;0,342734;0,730982;0,730982;0,500706;0,428130;0,430257;0,716558;0,930607;0,355642;0,355895;0,356156;0,358563;0,358785;0,359014;0,361339;0,361533;0,361545;0,436906;0,362328;0,716558;0,000000;0,000000;0,000000;0,000000;
10;;;;;;;;;;1,000000;0,608971;0,610304;0,674249;0,625253;0,625700;0,626175;0,620676;0,621540;0,784148;0,711571;0,713699;1,000000;0,694342;0,639084;0,639337;0,639598;0,642005;0,642227;0,642456;0,644781;0,644975;0,644987;0,720347;0,645770;1,000000;0,000000;0,000000;0,000000;0,000000;
11;;;;;;;;;;;1,000000;0,570262;0,785131;0,234224;0,234671;0,235147;0,585506;0,585506;0,393119;0,320543;0,322670;0,608971;0,785131;0,248056;0,248308;0,248569;0,250976;0,251198;0,251427;0,253752;0,253947;0,253958;0,329319;0,254741;0,608971;0,000000;0,000000;0,000000;0,000000;
12;;;;;;;;;;;;1,000000;0,785131;0,235556;0,236004;0,236479;0,585506;0,585506;0,394452;0,321875;0,324003;0,610304;0,785131;0,249388;0,249641;0,249902;0,252308;0,252531;0,252760;0,255085;0,255279;0,255291;0,330651;0,256073;0,610304;0,000000;0,000000;0,000000;0,000000;
13;;;;;;;;;;;;;1,000000;0,299501;0,299949;0,300424;0,800375;0,800375;0,458397;0,385820;0,387948;0,674249;1,000000;0,313333;0,313586;0,313847;0,316253;0,316476;0,316705;0,319030;0,319224;0,319236;0,394596;0,320018;0,674249;0,000000;0,000000;0,000000;0,000000;
14;;;;;;;;;;;;;;1,000000;0,717869;0,719894;0,245929;0,246793;0,409401;0,336824;0,338952;0,625253;0,319595;0,264337;0,264590;0,264851;0,267257;0,267480;0,267709;0,270034;0,270228;0,270240;0,345600;0,271022;0,625253;0,000000;0,000000;0,000000;0,000000;
15;;;;;;;;;;;;;;;1,000000;0,721824;0,246376;0,247240;0,409848;0,337272;0,339399;0,625700;0,320042;0,264784;0,265037;0,265298;0,267705;0,267927;0,268156;0,270481;0,270675;0,270687;0,346048;0,271470;0,625700;0,000000;0,000000;0,000000;0,000000;
16;;;;;;;;;;;;;;;;1,000000;0,246852;0,247715;0,410323;0,337747;0,339875;0,626175;0,320517;0,265260;0,265512;0,265774;0,268180;0,268403;0,268632;0,270956;0,271151;0,271162;0,346523;0,271945;0,626175;0,000000;0,000000;0,000000;0,000000;
17;;;;;;;;;;;;;;;;;1,000000;0,600749;0,404824;0,332248;0,334376;0,620676;0,800375;0,259761;0,260013;0,260275;0,262681;0,262903;0,263133;0,265457;0,265652;0,265663;0,341024;0,266446;0,620676;0,000000;0,000000;0,000000;0,000000;
18;;;;;;;;;;;;;;;;;;1,000000;0,405688;0,333111;0,335239;0,621540;0,800375;0,260624;0,260877;0,261138;0,263545;0,263767;0,263996;0,266321;0,266515;0,266527;0,341887;0,267309;0,621540;0,000000;0,000000;0,000000;0,000000;
19;;;;;;;;;;;;;;;;;;;1,000000;0,495719;0,497847;0,784148;0,478490;0,423232;0,423485;0,423746;0,426153;0,426375;0,426604;0,428929;0,429123;0,429135;0,504495;0,429917;0,784148;0,000000;0,000000;0,000000;0,000000;
20;;;;;;;;;;;;;;;;;;;;1,000000;0,425271;0,711571;0,405913;0,350656;0,350908;0,351170;0,353576;0,353799;0,354028;0,356352;0,356547;0,356558;1,000000;0,357341;0,711571;0,000000;0,000000;0,000000;0,000000;
21;;;;;;;;;;;;;;;;;;;;;1,000000;0,713699;0,408041;0,352784;0,353036;0,353298;0,355704;0,355926;0,356155;0,358480;0,358675;0,358686;0,434047;0,359469;0,713699;0,000000;0,000000;0,000000;0,000000;
22;;;;;;;;;;;;;;;;;;;;;;1,000000;0,694342;0,639084;0,639337;0,639598;0,642005;0,642227;0,642456;0,644781;0,644975;0,644987;0,720347;0,645770;1,000000;0,000000;0,000000;0,000000;0,000000;
23;;;;;;;;;;;;;;;;;;;;;;;1,000000;0,333426;0,333679;0,333940;0,336347;0,336569;0,336798;0,339123;0,339317;0,339329;0,414689;0,340112;0,694342;0,000000;0,000000;0,000000;0,000000;
24;;;;;;;;;;;;;;;;;;;;;;;;1,000000;0,746245;0,747224;0,281089;0,281311;0,281541;0,283865;0,284060;0,284071;0,359432;0,284854;0,639084;0,000000;0,000000;0,000000;0,000000;
25;;;;;;;;;;;;;;;;;;;;;;;;;1,000000;0,748177;0,281342;0,281564;0,281793;0,284118;0,284312;0,284324;0,359684;0,285106;0,639337;0,000000;0,000000;0,000000;0,000000;
26;;;;;;;;;;;;;;;;;;;;;;;;;;1,000000;0,281603;0,281825;0,282055;0,284379;0,284574;0,284585;0,359946;0,285368;0,639598;0,000000;0,000000;0,000000;0,000000;
27;;;;;;;;;;;;;;;;;;;;;;;;;;;1,000000;0,751744;0,752580;0,286786;0,286980;0,286992;0,362352;0,287774;0,642005;0,000000;0,000000;0,000000;0,000000;
28;;;;;;;;;;;;;;;;;;;;;;;;;;;;1,000000;0,753396;0,287008;0,287202;0,287214;0,362575;0,287997;0,642227;0,000000;0,000000;0,000000;0,000000;
29;;;;;;;;;;;;;;;;;;;;;;;;;;;;;1,000000;0,287237;0,287432;0,287443;0,362804;0,288226;0,642456;0,000000;0,000000;0,000000;0,000000;
30;;;;;;;;;;;;;;;;;;;;;;;;;;;;;;1,000000;0,756474;0,712713;0,365128;0,713497;0,644781;0,000000;0,000000;0,000000;0,000000;
31;;;;;;;;;;;;;;;;;;;;;;;;;;;;;;;1,000000;0,713497;0,365323;0,714265;0,644975;0,000000;0,000000;0,000000;0,000000;
32;;;;;;;;;;;;;;;;;;;;;;;;;;;;;;;;1,000000;0,365334;1,000000;0,644987;0,000000;0,000000;0,000000;0,000000;
33;;;;;;;;;;;;;;;;;;;;;;;;;;;;;;;;;1,000000;0,366117;0,720347;0,000000;0,000000;0,000000;0,000000;
34;;;;;;;;;;;;;;;;;;;;;;;;;;;;;;;;;;1,000000;0,645770;0,000000;0,000000;0,000000;0,000000;
35;;;;;;;;;;;;;;;;;;;;;;;;;;;;;;;;;;;1,000000;0,000000;0,000000;0,000000;0,000000;
36;;;;;;;;;;;;;;;;;;;;;;;;;;;;;;;;;;;;1,000000;0,827262;0,827714;0,828157;
37;;;;;;;;;;;;;;;;;;;;;;;;;;;;;;;;;;;;;1,000000;0,828157;0,828593;
38;;;;;;;;;;;;;;;;;;;;;;;;;;;;;;;;;;;;;;1,000000;0,829020;
39;;;;;;;;;;;;;;;;;;;;;;;;;;;;;;;;;;;;;;;1,000000;
