;1; 2; 3; 4; 5; 6; 7; 8; 9; 10; 11; 12; 13; 14; 15; 16; 17; 18; 19; 20; 21; 22; 23; 24; 25; 26; 27; 28; 29; 30; 31; 32; 33; 34; 35; 36; 37; 38; 39; 40; 41; 42; 43; 44; 45; 46; 47; 48; 49; 50; 51; 52; 53; 54; 55; 56; 57; 58; 59; 60; 61; 62; 63; 64; 65; 66; 67; 68; 69; 70; 71; 72; 73; 74; 75; 76; 77; 78; 79; 80; 81; 82; 83; 84; 85; 86; 87; 88; 89; 90; 91; 92; 93; 94; 95; 96; 97; 98; 99; 100; 101; 102; 103; 104; 105; 106; 107; 108; 109; 110; 111; 112; 113; 114; 115; 116; 117; 118; 119; 120; 121; 122; 123; 124; 125; 126; 127; 128; 129; 130; 131; 132; 133; 134
1;1,000000;0,331639;0,492158;0,418027;0,418027;0,424729;0,486647;0,489341;0,529654;0,418293;0,489341;0,466639;0,466639;0,496066;0,496066;0,497675;0,497675;0,316564;0,338818;0,247935;0,247935;0,281625;0,257396;0,257396;0,350681;0,350681;0,421148;0,354516;0,354516;0,354516;0,442326;0,442326;0,401142;0,462368;0,462368;0,462368;0,188466;0,508109;0,499514;0,469951;0,451468;0,469951;0,429692;0,442764;0,429692;0,429692;0,429692;0,417602;0,552725;0,432230;0,432230;0,432230;0,356452;0,395262;0,439777;0,439777;0,439777;0,363281;0,363281;0,387842;0,387842;0,334205;0,354474;0,354474;0,354474;0,447173;0,447173;0,000000;0,000000;0,000000;0,000000;0,000000;0,489722;0,489722;0,489722;0,489722;0,352708;0,352708;0,346751;0,253236;0,353100;0,353100;0,453236;0,426168;0,453236;0,453236;0,453236;0,000000;0,000000;0,000000;0,357548;0,454137;0,468781;0,000000;0,000000;0,000000;0,440170;0,317463;0,317463;0,427681;0,354580;0,450084;0,450084;0,450084;0,450084;0,450084;0,429464;0,429464;0,429464;0,429464;0,358469;0,352708;0,352708;0,260296;0,000000;0,000000;0,000000;0,000000;0,000000;0,000000;0,354449;0,354449;0,354449;0,000000;0,000000;0,000000;0,000000;0,452495;0,452495;0,452495;0,452495;0,452495;0,452495;0,418293;
2;;1,000000;0,473020;0,833333;0,833333;0,833333;0,740450;0,668197;0,688249;0,375000;0,668197;0,758349;0,758349;0,700000;0,700000;0,715554;0,715554;0,359243;0,447267;0,284070;0,284070;0,000000;0,000000;0,000000;0,416667;0,416667;0,379175;0,416667;0,416667;0,416667;0,386518;0,386518;0,431171;0,750000;0,750000;0,750000;0,276844;0,700000;0,700000;0,758349;0,812741;0,758349;0,350000;0,403036;0,350000;0,350000;0,350000;0,444486;0,667972;0,350000;0,350000;0,350000;0,406371;0,406371;0,350000;0,350000;0,350000;0,416667;0,416667;0,375000;0,375000;0,509648;0,416667;0,416667;0,416667;0,788570;0,788570;0,000000;0,000000;0,000000;0,000000;0,000000;0,700000;0,700000;0,700000;0,700000;0,416667;0,416667;0,453017;0,000000;0,416667;0,416667;0,333333;0,368247;0,333333;0,333333;0,333333;0,000000;0,000000;0,000000;0,416667;0,368247;0,750000;0,000000;0,000000;0,000000;0,379175;0,453017;0,453017;0,833333;0,000000;0,333333;0,333333;0,333333;0,333333;0,333333;0,350000;0,350000;0,350000;0,350000;0,416667;0,416667;0,416667;0,500000;0,000000;0,000000;0,750000;0,000000;0,000000;0,000000;0,416667;0,416667;0,416667;0,000000;0,000000;0,000000;0,000000;0,333333;0,333333;0,333333;0,333333;0,333333;0,333333;0,375000;
3;;;1,000000;0,563497;0,563497;0,578462;0,658033;0,647276;0,547651;0,752166;0,647276;0,621375;0,621375;0,656190;0,656190;0,669242;0,669242;0,332263;0,420286;0,257090;0,257090;0,000000;0,000000;0,000000;0,389686;0,389686;0,352194;0,389686;0,389686;0,389686;0,396907;0,396907;0,426409;0,611064;0,611064;0,611064;0,249864;0,684145;0,664572;0,629773;0,610054;0,629773;0,323020;0,376055;0,323020;0,323020;0,323020;0,417506;0,400546;0,430112;0,430112;0,430112;0,447364;0,379390;0,323020;0,323020;0,323020;0,389686;0,389686;0,348020;0,348020;0,482667;0,389686;0,389686;0,389686;0,599694;0,599694;0,000000;0,000000;0,000000;0,000000;0,000000;0,641003;0,641003;0,641003;0,641003;0,563445;0,563445;0,426037;0,000000;0,389686;0,389686;0,404084;0,473910;0,404084;0,404084;0,404084;0,000000;0,000000;0,000000;0,389686;0,341266;0,626411;0,000000;0,000000;0,000000;0,416609;0,426037;0,426037;0,563445;0,000000;0,306353;0,306353;0,306353;0,306353;0,306353;0,323020;0,323020;0,323020;0,323020;0,570750;0,563445;0,563445;0,473020;0,000000;0,000000;0,723020;0,000000;0,000000;0,000000;0,389686;0,389686;0,389686;0,000000;0,000000;0,000000;0,000000;0,306353;0,306353;0,306353;0,306353;0,306353;0,306353;0,752166;
4;;;;1,000000;0,666667;0,666667;0,573784;0,501531;0,521583;0,291667;0,501531;0,591682;0,591682;0,533333;0,533333;0,548887;0,548887;0,275910;0,363933;0,200737;0,200737;0,000000;0,000000;0,000000;0,333333;0,333333;0,295841;0,333333;0,333333;0,333333;0,303185;0,303185;0,347837;0,583333;0,583333;0,583333;0,193511;0,533333;0,533333;0,591682;0,646074;0,591682;0,266667;0,319702;0,266667;0,266667;0,266667;0,361153;0,501305;0,266667;0,266667;0,266667;0,323037;0,323037;0,266667;0,266667;0,266667;0,333333;0,333333;0,291667;0,291667;0,426314;0,333333;0,333333;0,333333;0,621904;0,621904;0,000000;0,000000;0,000000;0,000000;0,000000;0,533333;0,533333;0,533333;0,533333;0,333333;0,333333;0,369684;0,000000;0,333333;0,333333;0,250000;0,284913;0,250000;0,250000;0,250000;0,000000;0,000000;0,000000;0,333333;0,284913;0,583333;0,000000;0,000000;0,000000;0,295841;0,369684;0,369684;0,666667;0,000000;0,250000;0,250000;0,250000;0,250000;0,250000;0,266667;0,266667;0,266667;0,266667;0,333333;0,333333;0,333333;0,416667;0,000000;0,000000;0,666667;0,000000;0,000000;0,000000;0,333333;0,333333;0,333333;0,000000;0,000000;0,000000;0,000000;0,250000;0,250000;0,250000;0,250000;0,250000;0,250000;0,291667;
5;;;;;1,000000;0,666667;0,573784;0,501531;0,521583;0,291667;0,501531;0,591682;0,591682;0,533333;0,533333;0,548887;0,548887;0,275910;0,363933;0,200737;0,200737;0,000000;0,000000;0,000000;0,333333;0,333333;0,295841;0,333333;0,333333;0,333333;0,303185;0,303185;0,347837;0,583333;0,583333;0,583333;0,193511;0,533333;0,533333;0,591682;0,646074;0,591682;0,266667;0,319702;0,266667;0,266667;0,266667;0,361153;0,501305;0,266667;0,266667;0,266667;0,323037;0,323037;0,266667;0,266667;0,266667;0,333333;0,333333;0,291667;0,291667;0,426314;0,333333;0,333333;0,333333;0,621904;0,621904;0,000000;0,000000;0,000000;0,000000;0,000000;0,533333;0,533333;0,533333;0,533333;0,333333;0,333333;0,369684;0,000000;0,333333;0,333333;0,250000;0,284913;0,250000;0,250000;0,250000;0,000000;0,000000;0,000000;0,333333;0,284913;0,583333;0,000000;0,000000;0,000000;0,295841;0,369684;0,369684;0,666667;0,000000;0,250000;0,250000;0,250000;0,250000;0,250000;0,266667;0,266667;0,266667;0,266667;0,333333;0,333333;0,333333;0,416667;0,000000;0,000000;0,666667;0,000000;0,000000;0,000000;0,333333;0,333333;0,333333;0,000000;0,000000;0,000000;0,000000;0,250000;0,250000;0,250000;0,250000;0,250000;0,250000;0,291667;
6;;;;;;1,000000;0,573784;0,501531;0,521583;0,291667;0,501531;0,591682;0,591682;0,533333;0,533333;0,823331;0,823331;0,275910;0,363933;0,200737;0,200737;0,000000;0,000000;0,000000;0,333333;0,333333;0,295841;0,333333;0,333333;0,333333;0,303185;0,303185;0,347837;0,583333;0,583333;0,583333;0,193511;0,800000;0,533333;0,591682;0,646074;0,591682;0,266667;0,319702;0,266667;0,266667;0,266667;0,361153;0,501305;0,266667;0,266667;0,266667;0,323037;0,323037;0,266667;0,266667;0,266667;0,333333;0,333333;0,291667;0,291667;0,426314;0,333333;0,333333;0,333333;0,621904;0,621904;0,000000;0,000000;0,000000;0,000000;0,000000;0,533333;0,533333;0,533333;0,533333;0,333333;0,333333;0,369684;0,000000;0,333333;0,333333;0,250000;0,284913;0,250000;0,250000;0,250000;0,000000;0,000000;0,000000;0,333333;0,284913;0,583333;0,000000;0,000000;0,000000;0,295841;0,369684;0,369684;0,666667;0,000000;0,250000;0,250000;0,250000;0,250000;0,250000;0,266667;0,266667;0,266667;0,266667;0,333333;0,333333;0,333333;0,416667;0,000000;0,000000;0,666667;0,000000;0,000000;0,000000;0,333333;0,333333;0,333333;0,000000;0,000000;0,000000;0,000000;0,250000;0,250000;0,250000;0,250000;0,250000;0,250000;0,291667;
7;;;;;;;1,000000;0,408648;0,428700;0,245225;0,408648;0,498800;0,498800;0,440450;0,440450;0,773831;0,773831;0,229468;0,317492;0,154295;0,154295;0,000000;0,000000;0,000000;0,286892;0,286892;0,249400;0,286892;0,286892;0,286892;0,256743;0,256743;0,301396;0,490450;0,490450;0,490450;0,147069;0,812722;0,440450;0,498800;0,553192;0,498800;0,220225;0,273261;0,220225;0,220225;0,220225;0,314712;0,408422;0,220225;0,220225;0,220225;0,276596;0,276596;0,220225;0,220225;0,220225;0,286892;0,286892;0,245225;0,245225;0,379873;0,286892;0,286892;0,286892;0,529021;0,529021;0,000000;0,000000;0,000000;0,000000;0,000000;0,440450;0,440450;0,440450;0,440450;0,286892;0,286892;0,323243;0,000000;0,286892;0,286892;0,203559;0,238472;0,203559;0,203559;0,203559;0,000000;0,000000;0,000000;0,286892;0,238472;0,490450;0,000000;0,000000;0,000000;0,249400;0,323243;0,323243;0,573784;0,000000;0,203559;0,203559;0,203559;0,203559;0,203559;0,220225;0,220225;0,220225;0,220225;0,286892;0,286892;0,286892;0,370225;0,000000;0,000000;0,620225;0,000000;0,000000;0,000000;0,286892;0,286892;0,286892;0,000000;0,000000;0,000000;0,000000;0,203559;0,203559;0,203559;0,203559;0,203559;0,203559;0,245225;
8;;;;;;;;1,000000;0,676684;0,777891;0,732375;0,426547;0,426547;0,368197;0,368197;0,383751;0,383751;0,243540;0,331564;0,168367;0,168367;0,000000;0,000000;0,000000;0,300964;0,300964;0,263472;0,300964;0,300964;0,300964;0,270815;0,270815;0,315468;0,418197;0,418197;0,418197;0,161141;0,368197;0,368197;0,426547;0,480939;0,426547;0,234297;0,287333;0,234297;0,234297;0,234297;0,328784;0,336169;0,234297;0,234297;0,234297;0,290668;0,290668;0,234297;0,234297;0,234297;0,300964;0,300964;0,259297;0,259297;0,393945;0,300964;0,300964;0,300964;0,456768;0,456768;0,000000;0,000000;0,000000;0,000000;0,000000;0,368197;0,368197;0,368197;0,368197;0,300964;0,300964;0,337315;0,000000;0,300964;0,300964;0,435261;0,505088;0,435261;0,435261;0,435261;0,000000;0,000000;0,000000;0,300964;0,252544;0,418197;0,000000;0,000000;0,000000;0,263472;0,337315;0,337315;0,501531;0,000000;0,217630;0,217630;0,217630;0,217630;0,217630;0,234297;0,234297;0,234297;0,234297;0,601928;0,300964;0,300964;0,384297;0,000000;0,000000;0,634297;0,000000;0,000000;0,000000;0,300964;0,300964;0,300964;0,000000;0,000000;0,000000;0,000000;0,217630;0,217630;0,217630;0,217630;0,217630;0,217630;0,777891;
9;;;;;;;;;1,000000;0,686728;0,676684;0,446598;0,446598;0,388249;0,388249;0,403803;0,403803;0,250241;0,338265;0,175068;0,175068;0,000000;0,000000;0,000000;0,307665;0,307665;0,270173;0,307665;0,307665;0,307665;0,277516;0,277516;0,322169;0,438249;0,438249;0,438249;0,167842;0,388249;0,388249;0,446598;0,500990;0,446598;0,240998;0,294034;0,240998;0,240998;0,240998;0,335485;0,356221;0,240998;0,240998;0,240998;0,297369;0,297369;0,240998;0,240998;0,240998;0,307665;0,307665;0,265998;0,265998;0,400646;0,307665;0,307665;0,307665;0,476820;0,476820;0,000000;0,000000;0,000000;0,000000;0,000000;0,388249;0,388249;0,388249;0,388249;0,307665;0,307665;0,344015;0,000000;0,307665;0,307665;0,656050;0,625777;0,656050;0,656050;0,656050;0,000000;0,000000;0,000000;0,307665;0,259245;0,438249;0,000000;0,000000;0,000000;0,270173;0,344015;0,344015;0,521583;0,000000;0,224331;0,224331;0,224331;0,224331;0,224331;0,240998;0,240998;0,240998;0,240998;0,513924;0,307665;0,307665;0,390998;0,000000;0,000000;0,640998;0,000000;0,000000;0,000000;0,307665;0,307665;0,307665;0,000000;0,000000;0,000000;0,000000;0,224331;0,224331;0,224331;0,224331;0,224331;0,224331;0,686728;
10;;;;;;;;;;1,000000;0,777891;0,254175;0,254175;0,225000;0,225000;0,232777;0,232777;0,234243;0,322267;0,159070;0,159070;0,000000;0,000000;0,000000;0,291667;0,291667;0,254175;0,291667;0,291667;0,291667;0,261518;0,261518;0,306171;0,250000;0,250000;0,250000;0,151844;0,225000;0,225000;0,254175;0,281371;0,254175;0,225000;0,278036;0,225000;0,225000;0,225000;0,319486;0,260905;0,225000;0,225000;0,225000;0,281371;0,281371;0,225000;0,225000;0,225000;0,291667;0,291667;0,250000;0,250000;0,384648;0,291667;0,291667;0,291667;0,269285;0,269285;0,000000;0,000000;0,000000;0,000000;0,000000;0,225000;0,225000;0,225000;0,225000;0,291667;0,291667;0,328017;0,000000;0,291667;0,291667;0,416667;0,486494;0,416667;0,416667;0,416667;0,000000;0,000000;0,000000;0,291667;0,243247;0,250000;0,000000;0,000000;0,000000;0,254175;0,328017;0,328017;0,291667;0,000000;0,208333;0,208333;0,208333;0,208333;0,208333;0,225000;0,225000;0,225000;0,225000;0,583333;0,291667;0,291667;0,375000;0,000000;0,000000;0,625000;0,000000;0,000000;0,000000;0,291667;0,291667;0,291667;0,000000;0,000000;0,000000;0,000000;0,208333;0,208333;0,208333;0,208333;0,208333;0,208333;1,000000;
11;;;;;;;;;;;1,000000;0,426547;0,426547;0,368197;0,368197;0,383751;0,383751;0,243540;0,331564;0,168367;0,168367;0,000000;0,000000;0,000000;0,300964;0,300964;0,263472;0,300964;0,300964;0,300964;0,270815;0,270815;0,315468;0,418197;0,418197;0,418197;0,161141;0,368197;0,368197;0,426547;0,480939;0,426547;0,234297;0,287333;0,234297;0,234297;0,234297;0,328784;0,336169;0,234297;0,234297;0,234297;0,290668;0,290668;0,234297;0,234297;0,234297;0,300964;0,300964;0,259297;0,259297;0,393945;0,300964;0,300964;0,300964;0,456768;0,456768;0,000000;0,000000;0,000000;0,000000;0,000000;0,368197;0,368197;0,368197;0,368197;0,300964;0,300964;0,337315;0,000000;0,300964;0,300964;0,435261;0,505088;0,435261;0,435261;0,435261;0,000000;0,000000;0,000000;0,300964;0,252544;0,418197;0,000000;0,000000;0,000000;0,263472;0,337315;0,337315;0,501531;0,000000;0,217630;0,217630;0,217630;0,217630;0,217630;0,234297;0,234297;0,234297;0,234297;0,601928;0,300964;0,300964;0,384297;0,000000;0,000000;0,634297;0,000000;0,000000;0,000000;0,300964;0,300964;0,300964;0,000000;0,000000;0,000000;0,000000;0,217630;0,217630;0,217630;0,217630;0,217630;0,217630;0,777891;
12;;;;;;;;;;;;1,000000;0,746671;0,842128;0,842128;0,473903;0,473903;0,238418;0,326441;0,163244;0,163244;0,000000;0,000000;0,000000;0,295841;0,295841;0,258349;0,295841;0,295841;0,295841;0,265693;0,265693;0,310345;0,508349;0,508349;0,508349;0,156019;0,458349;0,458349;0,516698;0,571090;0,516698;0,229175;0,282210;0,229175;0,229175;0,229175;0,323661;0,426321;0,229175;0,229175;0,229175;0,285545;0,285545;0,229175;0,229175;0,229175;0,295841;0,295841;0,254175;0,254175;0,388822;0,295841;0,295841;0,295841;0,546919;0,546919;0,000000;0,000000;0,000000;0,000000;0,000000;0,458349;0,458349;0,458349;0,458349;0,295841;0,295841;0,332192;0,000000;0,295841;0,295841;0,212508;0,247421;0,212508;0,212508;0,212508;0,000000;0,000000;0,000000;0,295841;0,247421;0,508349;0,000000;0,000000;0,000000;0,258349;0,332192;0,332192;0,591682;0,000000;0,212508;0,212508;0,212508;0,212508;0,212508;0,229175;0,229175;0,229175;0,229175;0,295841;0,295841;0,295841;0,379175;0,000000;0,000000;0,629175;0,000000;0,000000;0,000000;0,295841;0,295841;0,295841;0,000000;0,000000;0,000000;0,000000;0,212508;0,212508;0,212508;0,212508;0,212508;0,212508;0,254175;
13;;;;;;;;;;;;;1,000000;0,842128;0,842128;0,473903;0,473903;0,238418;0,326441;0,163244;0,163244;0,000000;0,000000;0,000000;0,295841;0,295841;0,258349;0,295841;0,295841;0,295841;0,265693;0,265693;0,310345;0,508349;0,508349;0,508349;0,156019;0,458349;0,458349;0,516698;0,571090;0,516698;0,229175;0,282210;0,229175;0,229175;0,229175;0,323661;0,426321;0,229175;0,229175;0,229175;0,285545;0,285545;0,229175;0,229175;0,229175;0,295841;0,295841;0,254175;0,254175;0,388822;0,295841;0,295841;0,295841;0,546919;0,546919;0,000000;0,000000;0,000000;0,000000;0,000000;0,458349;0,458349;0,458349;0,458349;0,295841;0,295841;0,332192;0,000000;0,295841;0,295841;0,212508;0,247421;0,212508;0,212508;0,212508;0,000000;0,000000;0,000000;0,295841;0,247421;0,508349;0,000000;0,000000;0,000000;0,258349;0,332192;0,332192;0,591682;0,000000;0,212508;0,212508;0,212508;0,212508;0,212508;0,229175;0,229175;0,229175;0,229175;0,295841;0,295841;0,295841;0,379175;0,000000;0,000000;0,629175;0,000000;0,000000;0,000000;0,295841;0,295841;0,295841;0,000000;0,000000;0,000000;0,000000;0,212508;0,212508;0,212508;0,212508;0,212508;0,212508;0,254175;
14;;;;;;;;;;;;;;1,000000;0,800000;0,415554;0,415554;0,209243;0,297267;0,134070;0,134070;0,000000;0,000000;0,000000;0,266667;0,266667;0,229175;0,266667;0,266667;0,266667;0,236518;0,236518;0,281171;0,450000;0,450000;0,450000;0,126844;0,400000;0,400000;0,458349;0,512741;0,458349;0,200000;0,253036;0,200000;0,200000;0,200000;0,294486;0,367972;0,200000;0,200000;0,200000;0,256371;0,256371;0,200000;0,200000;0,200000;0,266667;0,266667;0,225000;0,225000;0,359648;0,266667;0,266667;0,266667;0,488570;0,488570;0,000000;0,000000;0,000000;0,000000;0,000000;0,400000;0,400000;0,400000;0,400000;0,266667;0,266667;0,303017;0,000000;0,266667;0,266667;0,183333;0,218247;0,183333;0,183333;0,183333;0,000000;0,000000;0,000000;0,266667;0,218247;0,450000;0,000000;0,000000;0,000000;0,229175;0,303017;0,303017;0,533333;0,000000;0,183333;0,183333;0,183333;0,183333;0,183333;0,200000;0,200000;0,200000;0,200000;0,266667;0,266667;0,266667;0,350000;0,000000;0,000000;0,600000;0,000000;0,000000;0,000000;0,266667;0,266667;0,266667;0,000000;0,000000;0,000000;0,000000;0,183333;0,183333;0,183333;0,183333;0,183333;0,183333;0,225000;
15;;;;;;;;;;;;;;;1,000000;0,415554;0,415554;0,209243;0,297267;0,134070;0,134070;0,000000;0,000000;0,000000;0,266667;0,266667;0,229175;0,266667;0,266667;0,266667;0,236518;0,236518;0,281171;0,450000;0,450000;0,450000;0,126844;0,400000;0,400000;0,458349;0,512741;0,458349;0,200000;0,253036;0,200000;0,200000;0,200000;0,294486;0,367972;0,200000;0,200000;0,200000;0,256371;0,256371;0,200000;0,200000;0,200000;0,266667;0,266667;0,225000;0,225000;0,359648;0,266667;0,266667;0,266667;0,488570;0,488570;0,000000;0,000000;0,000000;0,000000;0,000000;0,400000;0,400000;0,400000;0,400000;0,266667;0,266667;0,303017;0,000000;0,266667;0,266667;0,183333;0,218247;0,183333;0,183333;0,183333;0,000000;0,000000;0,000000;0,266667;0,218247;0,450000;0,000000;0,000000;0,000000;0,229175;0,303017;0,303017;0,533333;0,000000;0,183333;0,183333;0,183333;0,183333;0,183333;0,200000;0,200000;0,200000;0,200000;0,266667;0,266667;0,266667;0,350000;0,000000;0,000000;0,600000;0,000000;0,000000;0,000000;0,266667;0,266667;0,266667;0,000000;0,000000;0,000000;0,000000;0,183333;0,183333;0,183333;0,183333;0,183333;0,183333;0,225000;
16;;;;;;;;;;;;;;;;1,000000;0,785127;0,217020;0,305044;0,141847;0,141847;0,000000;0,000000;0,000000;0,274444;0,274444;0,236952;0,274444;0,274444;0,274444;0,244295;0,244295;0,288948;0,465554;0,465554;0,465554;0,134621;0,831108;0,415554;0,473903;0,528295;0,473903;0,207777;0,260812;0,207777;0,207777;0,207777;0,302263;0,383526;0,207777;0,207777;0,207777;0,264148;0,264148;0,207777;0,207777;0,207777;0,274444;0,274444;0,232777;0,232777;0,367425;0,274444;0,274444;0,274444;0,504124;0,504124;0,000000;0,000000;0,000000;0,000000;0,000000;0,415554;0,415554;0,415554;0,415554;0,274444;0,274444;0,310794;0,000000;0,274444;0,274444;0,191110;0,226024;0,191110;0,191110;0,191110;0,000000;0,000000;0,000000;0,274444;0,226024;0,465554;0,000000;0,000000;0,000000;0,236952;0,310794;0,310794;0,548887;0,000000;0,191110;0,191110;0,191110;0,191110;0,191110;0,207777;0,207777;0,207777;0,207777;0,274444;0,274444;0,274444;0,357777;0,000000;0,000000;0,607777;0,000000;0,000000;0,000000;0,274444;0,274444;0,274444;0,000000;0,000000;0,000000;0,000000;0,191110;0,191110;0,191110;0,191110;0,191110;0,191110;0,232777;
17;;;;;;;;;;;;;;;;;1,000000;0,217020;0,305044;0,141847;0,141847;0,000000;0,000000;0,000000;0,274444;0,274444;0,236952;0,274444;0,274444;0,274444;0,244295;0,244295;0,288948;0,465554;0,465554;0,465554;0,134621;0,831108;0,415554;0,473903;0,528295;0,473903;0,207777;0,260812;0,207777;0,207777;0,207777;0,302263;0,383526;0,207777;0,207777;0,207777;0,264148;0,264148;0,207777;0,207777;0,207777;0,274444;0,274444;0,232777;0,232777;0,367425;0,274444;0,274444;0,274444;0,504124;0,504124;0,000000;0,000000;0,000000;0,000000;0,000000;0,415554;0,415554;0,415554;0,415554;0,274444;0,274444;0,310794;0,000000;0,274444;0,274444;0,191110;0,226024;0,191110;0,191110;0,191110;0,000000;0,000000;0,000000;0,274444;0,226024;0,465554;0,000000;0,000000;0,000000;0,236952;0,310794;0,310794;0,548887;0,000000;0,191110;0,191110;0,191110;0,191110;0,191110;0,207777;0,207777;0,207777;0,207777;0,274444;0,274444;0,274444;0,357777;0,000000;0,000000;0,607777;0,000000;0,000000;0,000000;0,274444;0,274444;0,274444;0,000000;0,000000;0,000000;0,000000;0,191110;0,191110;0,191110;0,191110;0,191110;0,191110;0,232777;
18;;;;;;;;;;;;;;;;;;1,000000;0,480601;0,337850;0,337850;0,276915;0,215198;0,215198;0,275910;0,275910;0,238418;0,275910;0,275910;0,275910;0,245761;0,245761;0,290414;0,234243;0,234243;0,234243;0,512573;0,209243;0,209243;0,238418;0,265614;0,238418;0,375382;0,495920;0,375382;0,375382;0,375382;0,303729;0,245148;0,209243;0,209243;0,209243;0,265614;0,265614;0,209243;0,209243;0,209243;0,275910;0,275910;0,234243;0,234243;0,368891;0,275910;0,275910;0,275910;0,253528;0,253528;0,000000;0,000000;0,000000;0,000000;0,000000;0,209243;0,209243;0,209243;0,209243;0,275910;0,275910;0,312260;0,690483;0,275910;0,275910;0,192576;0,227490;0,192576;0,192576;0,192576;0,256865;0,256865;0,256865;0,508715;0,371488;0,234243;0,234484;0,234484;0,234484;0,238418;0,312260;0,312260;0,275910;0,523816;0,192576;0,192576;0,192576;0,192576;0,192576;0,209243;0,209243;0,209243;0,209243;0,275910;0,275910;0,275910;0,359243;0,000000;0,000000;0,609243;0,215198;0,590198;0,590198;0,275910;0,275910;0,275910;0,590198;0,590198;0,340198;0,340198;0,192576;0,192576;0,192576;0,192576;0,192576;0,192576;0,234243;
19;;;;;;;;;;;;;;;;;;;1,000000;0,231337;0,231337;0,286149;0,000000;0,000000;0,363933;0,363933;0,326441;0,363933;0,363933;0,363933;0,333785;0,333785;0,378437;0,322267;0,322267;0,322267;0,590344;0,297267;0,297267;0,326441;0,353637;0,326441;0,505219;0,658998;0,505219;0,505219;0,505219;0,391753;0,333172;0,297267;0,297267;0,297267;0,353637;0,353637;0,297267;0,297267;0,297267;0,363933;0,363933;0,322267;0,322267;0,456914;0,363933;0,363933;0,363933;0,341552;0,341552;0,000000;0,000000;0,000000;0,000000;0,000000;0,297267;0,297267;0,297267;0,297267;0,363933;0,363933;0,400284;0,000000;0,363933;0,363933;0,280600;0,315514;0,280600;0,280600;0,280600;0,000000;0,000000;0,000000;0,638552;0,501325;0,322267;0,000000;0,000000;0,000000;0,326441;0,400284;0,400284;0,363933;0,363933;0,280600;0,280600;0,280600;0,280600;0,280600;0,297267;0,297267;0,297267;0,297267;0,363933;0,363933;0,363933;0,447267;0,000000;0,000000;0,697267;0,000000;0,000000;0,000000;0,363933;0,363933;0,363933;0,000000;0,000000;0,000000;0,000000;0,280600;0,280600;0,280600;0,280600;0,280600;0,280600;0,322267;
20;;;;;;;;;;;;;;;;;;;;1,000000;0,750000;0,443158;0,642904;0,642904;0,200737;0,200737;0,163244;0,200737;0,200737;0,200737;0,170588;0,170588;0,215241;0,159070;0,159070;0,159070;0,372328;0,134070;0,134070;0,163244;0,190440;0,163244;0,134070;0,187105;0,134070;0,134070;0,134070;0,228556;0,169975;0,134070;0,134070;0,134070;0,190440;0,190440;0,134070;0,134070;0,134070;0,200737;0,200737;0,545735;0,545735;0,293718;0,200737;0,200737;0,200737;0,178355;0,178355;0,000000;0,000000;0,000000;0,000000;0,000000;0,134070;0,134070;0,134070;0,134070;0,200737;0,200737;0,237087;0,337900;0,200737;0,200737;0,117403;0,152317;0,117403;0,117403;0,117403;0,254567;0,254567;0,254567;0,200737;0,152317;0,159070;0,232185;0,232185;0,232185;0,163244;0,237087;0,237087;0,200737;0,254567;0,117403;0,117403;0,117403;0,117403;0,117403;0,134070;0,134070;0,134070;0,134070;0,200737;0,200737;0,200737;0,284070;0,000000;0,000000;0,534070;0,212900;0,587900;0,587900;0,200737;0,200737;0,200737;0,587900;0,587900;0,337900;0,337900;0,117403;0,117403;0,117403;0,117403;0,117403;0,117403;0,159070;
21;;;;;;;;;;;;;;;;;;;;;1,000000;0,443158;0,642904;0,642904;0,200737;0,200737;0,163244;0,200737;0,200737;0,200737;0,170588;0,170588;0,215241;0,159070;0,159070;0,159070;0,372328;0,134070;0,134070;0,163244;0,190440;0,163244;0,134070;0,187105;0,134070;0,134070;0,134070;0,228556;0,169975;0,134070;0,134070;0,134070;0,190440;0,190440;0,134070;0,134070;0,134070;0,200737;0,200737;0,545735;0,545735;0,293718;0,200737;0,200737;0,200737;0,178355;0,178355;0,000000;0,000000;0,000000;0,000000;0,000000;0,134070;0,134070;0,134070;0,134070;0,200737;0,200737;0,237087;0,337900;0,200737;0,200737;0,117403;0,152317;0,117403;0,117403;0,117403;0,254567;0,254567;0,254567;0,200737;0,152317;0,159070;0,232185;0,232185;0,232185;0,163244;0,237087;0,237087;0,200737;0,254567;0,117403;0,117403;0,117403;0,117403;0,117403;0,134070;0,134070;0,134070;0,134070;0,200737;0,200737;0,200737;0,284070;0,000000;0,000000;0,534070;0,212900;0,587900;0,587900;0,200737;0,200737;0,200737;0,587900;0,587900;0,337900;0,337900;0,117403;0,117403;0,117403;0,117403;0,117403;0,117403;0,159070;
22;;;;;;;;;;;;;;;;;;;;;;1,000000;0,511032;0,511032;0,000000;0,000000;0,000000;0,000000;0,000000;0,000000;0,000000;0,000000;0,000000;0,000000;0,000000;0,000000;0,408418;0,000000;0,000000;0,000000;0,000000;0,000000;0,000000;0,207591;0,000000;0,000000;0,000000;0,000000;0,000000;0,000000;0,000000;0,000000;0,000000;0,000000;0,000000;0,000000;0,000000;0,000000;0,000000;0,336796;0,336796;0,000000;0,000000;0,000000;0,000000;0,000000;0,000000;0,000000;0,000000;0,000000;0,000000;0,000000;0,000000;0,000000;0,000000;0,000000;0,000000;0,000000;0,000000;0,378201;0,000000;0,000000;0,000000;0,000000;0,000000;0,000000;0,000000;0,445410;0,445410;0,445410;0,000000;0,000000;0,000000;0,496829;0,496829;0,496829;0,000000;0,000000;0,000000;0,000000;0,545075;0,000000;0,000000;0,000000;0,000000;0,000000;0,000000;0,000000;0,000000;0,000000;0,000000;0,000000;0,000000;0,000000;0,000000;0,000000;0,000000;0,536272;0,000000;0,000000;0,000000;0,000000;0,000000;0,000000;0,000000;0,319469;0,319469;0,000000;0,000000;0,000000;0,000000;0,000000;0,000000;0,000000;
23;;;;;;;;;;;;;;;;;;;;;;;1,000000;0,750000;0,000000;0,000000;0,000000;0,000000;0,000000;0,000000;0,000000;0,000000;0,000000;0,000000;0,000000;0,000000;0,345570;0,000000;0,000000;0,000000;0,000000;0,000000;0,000000;0,000000;0,000000;0,000000;0,000000;0,000000;0,000000;0,000000;0,000000;0,000000;0,000000;0,000000;0,000000;0,000000;0,000000;0,000000;0,000000;0,500000;0,500000;0,000000;0,000000;0,000000;0,000000;0,000000;0,000000;0,000000;0,000000;0,000000;0,000000;0,000000;0,000000;0,000000;0,000000;0,000000;0,000000;0,000000;0,000000;0,375000;0,000000;0,000000;0,000000;0,000000;0,000000;0,000000;0,000000;0,291667;0,291667;0,291667;0,000000;0,000000;0,000000;0,269285;0,269285;0,269285;0,000000;0,000000;0,000000;0,000000;0,291667;0,000000;0,000000;0,000000;0,000000;0,000000;0,000000;0,000000;0,000000;0,000000;0,000000;0,000000;0,000000;0,000000;0,000000;0,000000;0,000000;0,250000;0,625000;0,625000;0,000000;0,000000;0,000000;0,625000;0,625000;0,375000;0,375000;0,000000;0,000000;0,000000;0,000000;0,000000;0,000000;0,000000;
24;;;;;;;;;;;;;;;;;;;;;;;;1,000000;0,000000;0,000000;0,000000;0,000000;0,000000;0,000000;0,000000;0,000000;0,000000;0,000000;0,000000;0,000000;0,345570;0,000000;0,000000;0,000000;0,000000;0,000000;0,000000;0,000000;0,000000;0,000000;0,000000;0,000000;0,000000;0,000000;0,000000;0,000000;0,000000;0,000000;0,000000;0,000000;0,000000;0,000000;0,000000;0,500000;0,500000;0,000000;0,000000;0,000000;0,000000;0,000000;0,000000;0,000000;0,000000;0,000000;0,000000;0,000000;0,000000;0,000000;0,000000;0,000000;0,000000;0,000000;0,000000;0,375000;0,000000;0,000000;0,000000;0,000000;0,000000;0,000000;0,000000;0,291667;0,291667;0,291667;0,000000;0,000000;0,000000;0,269285;0,269285;0,269285;0,000000;0,000000;0,000000;0,000000;0,291667;0,000000;0,000000;0,000000;0,000000;0,000000;0,000000;0,000000;0,000000;0,000000;0,000000;0,000000;0,000000;0,000000;0,000000;0,000000;0,000000;0,250000;0,625000;0,625000;0,000000;0,000000;0,000000;0,625000;0,625000;0,375000;0,375000;0,000000;0,000000;0,000000;0,000000;0,000000;0,000000;0,000000;
25;;;;;;;;;;;;;;;;;;;;;;;;;1,000000;0,666667;0,543816;0,333333;0,333333;0,333333;0,303185;0,303185;0,347837;0,291667;0,291667;0,291667;0,193511;0,266667;0,266667;0,295841;0,323037;0,295841;0,266667;0,319702;0,266667;0,266667;0,266667;0,361153;0,302572;0,266667;0,266667;0,266667;0,323037;0,323037;0,266667;0,266667;0,266667;0,333333;0,333333;0,291667;0,291667;0,426314;0,333333;0,333333;0,333333;0,310952;0,310952;0,000000;0,000000;0,000000;0,000000;0,000000;0,266667;0,266667;0,266667;0,266667;0,333333;0,333333;0,369684;0,000000;0,333333;0,333333;0,250000;0,284913;0,250000;0,250000;0,250000;0,000000;0,000000;0,000000;0,333333;0,284913;0,291667;0,000000;0,000000;0,000000;0,295841;0,369684;0,369684;0,333333;0,000000;0,250000;0,250000;0,250000;0,250000;0,250000;0,533333;0,533333;0,533333;0,533333;0,333333;0,333333;0,333333;0,416667;0,000000;0,000000;0,666667;0,000000;0,000000;0,000000;0,333333;0,333333;0,333333;0,000000;0,000000;0,000000;0,000000;0,250000;0,250000;0,250000;0,250000;0,250000;0,250000;0,291667;
26;;;;;;;;;;;;;;;;;;;;;;;;;;1,000000;0,543816;0,333333;0,333333;0,333333;0,303185;0,303185;0,347837;0,291667;0,291667;0,291667;0,193511;0,266667;0,266667;0,295841;0,323037;0,295841;0,266667;0,319702;0,266667;0,266667;0,266667;0,361153;0,302572;0,266667;0,266667;0,266667;0,323037;0,323037;0,266667;0,266667;0,266667;0,333333;0,333333;0,291667;0,291667;0,426314;0,333333;0,333333;0,333333;0,310952;0,310952;0,000000;0,000000;0,000000;0,000000;0,000000;0,266667;0,266667;0,266667;0,266667;0,333333;0,333333;0,369684;0,000000;0,333333;0,333333;0,250000;0,284913;0,250000;0,250000;0,250000;0,000000;0,000000;0,000000;0,333333;0,284913;0,291667;0,000000;0,000000;0,000000;0,295841;0,369684;0,369684;0,333333;0,000000;0,250000;0,250000;0,250000;0,250000;0,250000;0,533333;0,533333;0,533333;0,533333;0,333333;0,333333;0,333333;0,416667;0,000000;0,000000;0,666667;0,000000;0,000000;0,000000;0,333333;0,333333;0,333333;0,000000;0,000000;0,000000;0,000000;0,250000;0,250000;0,250000;0,250000;0,250000;0,250000;0,291667;
27;;;;;;;;;;;;;;;;;;;;;;;;;;;1,000000;0,295841;0,295841;0,295841;0,265693;0,265693;0,310345;0,254175;0,254175;0,254175;0,156019;0,229175;0,229175;0,258349;0,285545;0,258349;0,229175;0,282210;0,229175;0,229175;0,229175;0,323661;0,265080;0,229175;0,229175;0,229175;0,285545;0,285545;0,229175;0,229175;0,229175;0,295841;0,295841;0,254175;0,254175;0,388822;0,295841;0,295841;0,295841;0,273460;0,273460;0,000000;0,000000;0,000000;0,000000;0,000000;0,229175;0,229175;0,229175;0,229175;0,295841;0,295841;0,332192;0,000000;0,295841;0,295841;0,212508;0,247421;0,212508;0,212508;0,212508;0,000000;0,000000;0,000000;0,295841;0,247421;0,254175;0,000000;0,000000;0,000000;0,258349;0,332192;0,332192;0,295841;0,000000;0,212508;0,212508;0,212508;0,212508;0,212508;0,715254;0,715254;0,715254;0,715254;0,295841;0,295841;0,295841;0,379175;0,000000;0,000000;0,629175;0,000000;0,000000;0,000000;0,295841;0,295841;0,295841;0,000000;0,000000;0,000000;0,000000;0,212508;0,212508;0,212508;0,212508;0,212508;0,212508;0,254175;
28;;;;;;;;;;;;;;;;;;;;;;;;;;;;1,000000;0,666667;0,666667;0,303185;0,303185;0,347837;0,291667;0,291667;0,291667;0,193511;0,266667;0,266667;0,295841;0,323037;0,295841;0,266667;0,319702;0,266667;0,266667;0,266667;0,361153;0,302572;0,266667;0,266667;0,266667;0,323037;0,323037;0,266667;0,266667;0,266667;0,333333;0,333333;0,291667;0,291667;0,426314;0,333333;0,333333;0,333333;0,310952;0,310952;0,000000;0,000000;0,000000;0,000000;0,000000;0,266667;0,266667;0,266667;0,266667;0,333333;0,333333;0,369684;0,000000;0,333333;0,333333;0,250000;0,284913;0,250000;0,250000;0,250000;0,000000;0,000000;0,000000;0,333333;0,284913;0,291667;0,000000;0,000000;0,000000;0,295841;0,369684;0,369684;0,333333;0,000000;0,250000;0,250000;0,250000;0,250000;0,250000;0,266667;0,266667;0,266667;0,266667;0,333333;0,333333;0,333333;0,416667;0,000000;0,000000;0,666667;0,000000;0,000000;0,000000;0,333333;0,333333;0,333333;0,000000;0,000000;0,000000;0,000000;0,250000;0,250000;0,250000;0,250000;0,250000;0,250000;0,291667;
29;;;;;;;;;;;;;;;;;;;;;;;;;;;;;1,000000;0,666667;0,303185;0,303185;0,347837;0,291667;0,291667;0,291667;0,193511;0,266667;0,266667;0,295841;0,323037;0,295841;0,266667;0,319702;0,266667;0,266667;0,266667;0,361153;0,302572;0,266667;0,266667;0,266667;0,323037;0,323037;0,266667;0,266667;0,266667;0,333333;0,333333;0,291667;0,291667;0,426314;0,333333;0,333333;0,333333;0,310952;0,310952;0,000000;0,000000;0,000000;0,000000;0,000000;0,266667;0,266667;0,266667;0,266667;0,333333;0,333333;0,369684;0,000000;0,333333;0,333333;0,250000;0,284913;0,250000;0,250000;0,250000;0,000000;0,000000;0,000000;0,333333;0,284913;0,291667;0,000000;0,000000;0,000000;0,295841;0,369684;0,369684;0,333333;0,000000;0,250000;0,250000;0,250000;0,250000;0,250000;0,266667;0,266667;0,266667;0,266667;0,333333;0,333333;0,333333;0,416667;0,000000;0,000000;0,666667;0,000000;0,000000;0,000000;0,333333;0,333333;0,333333;0,000000;0,000000;0,000000;0,000000;0,250000;0,250000;0,250000;0,250000;0,250000;0,250000;0,291667;
30;;;;;;;;;;;;;;;;;;;;;;;;;;;;;;1,000000;0,303185;0,303185;0,347837;0,291667;0,291667;0,291667;0,193511;0,266667;0,266667;0,295841;0,323037;0,295841;0,266667;0,319702;0,266667;0,266667;0,266667;0,361153;0,302572;0,266667;0,266667;0,266667;0,323037;0,323037;0,266667;0,266667;0,266667;0,333333;0,333333;0,291667;0,291667;0,426314;0,333333;0,333333;0,333333;0,310952;0,310952;0,000000;0,000000;0,000000;0,000000;0,000000;0,266667;0,266667;0,266667;0,266667;0,333333;0,333333;0,369684;0,000000;0,333333;0,333333;0,250000;0,284913;0,250000;0,250000;0,250000;0,000000;0,000000;0,000000;0,333333;0,284913;0,291667;0,000000;0,000000;0,000000;0,295841;0,369684;0,369684;0,333333;0,000000;0,250000;0,250000;0,250000;0,250000;0,250000;0,266667;0,266667;0,266667;0,266667;0,333333;0,333333;0,333333;0,416667;0,000000;0,000000;0,666667;0,000000;0,000000;0,000000;0,333333;0,333333;0,333333;0,000000;0,000000;0,000000;0,000000;0,250000;0,250000;0,250000;0,250000;0,250000;0,250000;0,291667;
31;;;;;;;;;;;;;;;;;;;;;;;;;;;;;;;1,000000;0,730537;0,773788;0,261518;0,261518;0,261518;0,163362;0,236518;0,236518;0,265693;0,292889;0,265693;0,236518;0,289554;0,236518;0,236518;0,236518;0,747666;0,656038;0,366796;0,366796;0,366796;0,384048;0,484503;0,371762;0,371762;0,371762;0,505095;0,505095;0,261518;0,261518;0,396166;0,303185;0,303185;0,303185;0,280803;0,280803;0,000000;0,000000;0,000000;0,000000;0,000000;0,236518;0,236518;0,236518;0,236518;0,500129;0,500129;0,806933;0,000000;0,303185;0,303185;0,219852;0,254765;0,219852;0,219852;0,219852;0,000000;0,000000;0,000000;0,303185;0,254765;0,261518;0,000000;0,000000;0,000000;0,750617;0,466743;0,466743;0,500129;0,000000;0,219852;0,219852;0,219852;0,219852;0,219852;0,236518;0,236518;0,236518;0,236518;0,303185;0,500129;0,500129;0,386518;0,000000;0,000000;0,636518;0,000000;0,000000;0,000000;0,303185;0,303185;0,303185;0,000000;0,000000;0,000000;0,000000;0,219852;0,219852;0,219852;0,219852;0,219852;0,219852;0,261518;
32;;;;;;;;;;;;;;;;;;;;;;;;;;;;;;;;1,000000;0,773788;0,261518;0,261518;0,261518;0,163362;0,236518;0,236518;0,265693;0,292889;0,265693;0,236518;0,289554;0,236518;0,236518;0,236518;0,747666;0,656038;0,366796;0,366796;0,366796;0,384048;0,484503;0,371762;0,371762;0,371762;0,505095;0,505095;0,261518;0,261518;0,396166;0,303185;0,303185;0,303185;0,280803;0,280803;0,000000;0,000000;0,000000;0,000000;0,000000;0,236518;0,236518;0,236518;0,236518;0,500129;0,500129;0,806933;0,000000;0,303185;0,303185;0,219852;0,254765;0,219852;0,219852;0,219852;0,000000;0,000000;0,000000;0,303185;0,254765;0,261518;0,000000;0,000000;0,000000;0,750617;0,466743;0,466743;0,500129;0,000000;0,219852;0,219852;0,219852;0,219852;0,219852;0,236518;0,236518;0,236518;0,236518;0,303185;0,500129;0,500129;0,386518;0,000000;0,000000;0,636518;0,000000;0,000000;0,000000;0,303185;0,303185;0,303185;0,000000;0,000000;0,000000;0,000000;0,219852;0,219852;0,219852;0,219852;0,219852;0,219852;0,261518;
33;;;;;;;;;;;;;;;;;;;;;;;;;;;;;;;;;1,000000;0,306171;0,306171;0,306171;0,208015;0,281171;0,281171;0,310345;0,337541;0,310345;0,281171;0,334206;0,281171;0,281171;0,281171;0,623357;0,569416;0,396297;0,396297;0,396297;0,413550;0,628651;0,515910;0,515910;0,515910;0,649244;0,649244;0,306171;0,306171;0,440818;0,347837;0,347837;0,347837;0,325456;0,325456;0,000000;0,000000;0,000000;0,000000;0,000000;0,281171;0,281171;0,281171;0,281171;0,529631;0,529631;0,721945;0,000000;0,347837;0,347837;0,264504;0,299418;0,264504;0,264504;0,264504;0,000000;0,000000;0,000000;0,347837;0,299418;0,306171;0,000000;0,000000;0,000000;0,663836;0,496162;0,496162;0,529631;0,000000;0,264504;0,264504;0,264504;0,264504;0,264504;0,281171;0,281171;0,281171;0,281171;0,347837;0,529631;0,529631;0,431171;0,000000;0,000000;0,681171;0,000000;0,000000;0,000000;0,347837;0,347837;0,347837;0,000000;0,000000;0,000000;0,000000;0,264504;0,264504;0,264504;0,264504;0,264504;0,264504;0,306171;
34;;;;;;;;;;;;;;;;;;;;;;;;;;;;;;;;;;1,000000;0,750000;0,750000;0,151844;0,450000;0,450000;0,508349;0,562741;0,508349;0,225000;0,278036;0,225000;0,225000;0,225000;0,319486;0,417972;0,225000;0,225000;0,225000;0,281371;0,281371;0,225000;0,225000;0,225000;0,291667;0,291667;0,250000;0,250000;0,384648;0,291667;0,291667;0,291667;0,538570;0,538570;0,000000;0,000000;0,000000;0,000000;0,000000;0,450000;0,450000;0,450000;0,450000;0,291667;0,291667;0,328017;0,000000;0,291667;0,291667;0,208333;0,243247;0,208333;0,208333;0,208333;0,000000;0,000000;0,000000;0,291667;0,243247;0,500000;0,000000;0,000000;0,000000;0,254175;0,328017;0,328017;0,583333;0,000000;0,208333;0,208333;0,208333;0,208333;0,208333;0,225000;0,225000;0,225000;0,225000;0,291667;0,291667;0,291667;0,375000;0,000000;0,000000;0,625000;0,000000;0,000000;0,000000;0,291667;0,291667;0,291667;0,000000;0,000000;0,000000;0,000000;0,208333;0,208333;0,208333;0,208333;0,208333;0,208333;0,250000;
35;;;;;;;;;;;;;;;;;;;;;;;;;;;;;;;;;;;1,000000;0,750000;0,151844;0,450000;0,450000;0,508349;0,562741;0,508349;0,225000;0,278036;0,225000;0,225000;0,225000;0,319486;0,417972;0,225000;0,225000;0,225000;0,281371;0,281371;0,225000;0,225000;0,225000;0,291667;0,291667;0,250000;0,250000;0,384648;0,291667;0,291667;0,291667;0,538570;0,538570;0,000000;0,000000;0,000000;0,000000;0,000000;0,450000;0,450000;0,450000;0,450000;0,291667;0,291667;0,328017;0,000000;0,291667;0,291667;0,208333;0,243247;0,208333;0,208333;0,208333;0,000000;0,000000;0,000000;0,291667;0,243247;0,500000;0,000000;0,000000;0,000000;0,254175;0,328017;0,328017;0,583333;0,000000;0,208333;0,208333;0,208333;0,208333;0,208333;0,225000;0,225000;0,225000;0,225000;0,291667;0,291667;0,291667;0,375000;0,000000;0,000000;0,625000;0,000000;0,000000;0,000000;0,291667;0,291667;0,291667;0,000000;0,000000;0,000000;0,000000;0,208333;0,208333;0,208333;0,208333;0,208333;0,208333;0,250000;
36;;;;;;;;;;;;;;;;;;;;;;;;;;;;;;;;;;;;1,000000;0,151844;0,450000;0,450000;0,508349;0,562741;0,508349;0,225000;0,278036;0,225000;0,225000;0,225000;0,319486;0,417972;0,225000;0,225000;0,225000;0,281371;0,281371;0,225000;0,225000;0,225000;0,291667;0,291667;0,250000;0,250000;0,384648;0,291667;0,291667;0,291667;0,538570;0,538570;0,000000;0,000000;0,000000;0,000000;0,000000;0,450000;0,450000;0,450000;0,450000;0,291667;0,291667;0,328017;0,000000;0,291667;0,291667;0,208333;0,243247;0,208333;0,208333;0,208333;0,000000;0,000000;0,000000;0,291667;0,243247;0,500000;0,000000;0,000000;0,000000;0,254175;0,328017;0,328017;0,583333;0,000000;0,208333;0,208333;0,208333;0,208333;0,208333;0,225000;0,225000;0,225000;0,225000;0,291667;0,291667;0,291667;0,375000;0,000000;0,000000;0,625000;0,000000;0,000000;0,000000;0,291667;0,291667;0,291667;0,000000;0,000000;0,000000;0,000000;0,208333;0,208333;0,208333;0,208333;0,208333;0,208333;0,250000;
37;;;;;;;;;;;;;;;;;;;;;;;;;;;;;;;;;;;;;1,000000;0,126844;0,126844;0,156019;0,183215;0,156019;0,126844;0,460275;0,126844;0,126844;0,126844;0,221331;0,162750;0,126844;0,126844;0,126844;0,183215;0,183215;0,126844;0,126844;0,126844;0,193511;0,193511;0,151844;0,151844;0,286492;0,193511;0,193511;0,193511;0,171129;0,171129;0,000000;0,000000;0,000000;0,000000;0,000000;0,126844;0,126844;0,126844;0,126844;0,193511;0,193511;0,229862;0,470570;0,193511;0,193511;0,110178;0,145091;0,110178;0,110178;0,110178;0,387236;0,387236;0,387236;0,193511;0,145091;0,151844;0,364855;0,364855;0,364855;0,156019;0,229862;0,229862;0,193511;0,712750;0,110178;0,110178;0,110178;0,110178;0,110178;0,126844;0,126844;0,126844;0,126844;0,193511;0,193511;0,193511;0,276844;0,000000;0,000000;0,526844;0,345570;0,720570;0,720570;0,193511;0,193511;0,193511;0,720570;0,720570;0,470570;0,470570;0,110178;0,110178;0,110178;0,110178;0,110178;0,110178;0,151844;
38;;;;;;;;;;;;;;;;;;;;;;;;;;;;;;;;;;;;;;1,000000;0,400000;0,458349;0,512741;0,458349;0,200000;0,253036;0,200000;0,200000;0,200000;0,294486;0,367972;0,200000;0,200000;0,200000;0,256371;0,256371;0,200000;0,200000;0,200000;0,266667;0,266667;0,225000;0,225000;0,359648;0,266667;0,266667;0,266667;0,488570;0,488570;0,000000;0,000000;0,000000;0,000000;0,000000;0,400000;0,400000;0,400000;0,400000;0,266667;0,266667;0,303017;0,000000;0,266667;0,266667;0,183333;0,218247;0,183333;0,183333;0,183333;0,000000;0,000000;0,000000;0,266667;0,218247;0,450000;0,000000;0,000000;0,000000;0,229175;0,303017;0,303017;0,533333;0,000000;0,183333;0,183333;0,183333;0,183333;0,183333;0,200000;0,200000;0,200000;0,200000;0,266667;0,266667;0,266667;0,350000;0,000000;0,000000;0,600000;0,000000;0,000000;0,000000;0,266667;0,266667;0,266667;0,000000;0,000000;0,000000;0,000000;0,183333;0,183333;0,183333;0,183333;0,183333;0,183333;0,225000;
39;;;;;;;;;;;;;;;;;;;;;;;;;;;;;;;;;;;;;;;1,000000;0,842180;0,834123;0,842180;0,200000;0,253036;0,200000;0,200000;0,200000;0,294486;0,367972;0,200000;0,200000;0,200000;0,256371;0,256371;0,200000;0,200000;0,200000;0,266667;0,266667;0,225000;0,225000;0,359648;0,266667;0,266667;0,266667;0,488570;0,488570;0,000000;0,000000;0,000000;0,000000;0,000000;0,400000;0,400000;0,400000;0,400000;0,266667;0,266667;0,303017;0,000000;0,266667;0,266667;0,183333;0,218247;0,183333;0,183333;0,183333;0,000000;0,000000;0,000000;0,266667;0,218247;0,450000;0,000000;0,000000;0,000000;0,229175;0,303017;0,303017;0,533333;0,000000;0,183333;0,183333;0,183333;0,183333;0,183333;0,200000;0,200000;0,200000;0,200000;0,266667;0,266667;0,266667;0,350000;0,000000;0,000000;0,600000;0,000000;0,000000;0,000000;0,266667;0,266667;0,266667;0,000000;0,000000;0,000000;0,000000;0,183333;0,183333;0,183333;0,183333;0,183333;0,183333;0,225000;
40;;;;;;;;;;;;;;;;;;;;;;;;;;;;;;;;;;;;;;;;1,000000;0,876202;0,746601;0,229175;0,282210;0,229175;0,229175;0,229175;0,323661;0,426321;0,229175;0,229175;0,229175;0,285545;0,285545;0,229175;0,229175;0,229175;0,295841;0,295841;0,254175;0,254175;0,388822;0,295841;0,295841;0,295841;0,546919;0,546919;0,000000;0,000000;0,000000;0,000000;0,000000;0,458349;0,458349;0,458349;0,458349;0,295841;0,295841;0,332192;0,000000;0,295841;0,295841;0,212508;0,247421;0,212508;0,212508;0,212508;0,000000;0,000000;0,000000;0,295841;0,247421;0,508349;0,000000;0,000000;0,000000;0,258349;0,332192;0,332192;0,591682;0,000000;0,212508;0,212508;0,212508;0,212508;0,212508;0,229175;0,229175;0,229175;0,229175;0,295841;0,295841;0,295841;0,379175;0,000000;0,000000;0,629175;0,000000;0,000000;0,000000;0,295841;0,295841;0,295841;0,000000;0,000000;0,000000;0,000000;0,212508;0,212508;0,212508;0,212508;0,212508;0,212508;0,254175;
41;;;;;;;;;;;;;;;;;;;;;;;;;;;;;;;;;;;;;;;;;1,000000;0,876202;0,256371;0,309406;0,256371;0,256371;0,256371;0,350857;0,480713;0,256371;0,256371;0,256371;0,312741;0,312741;0,256371;0,256371;0,256371;0,323037;0,323037;0,281371;0,281371;0,416018;0,323037;0,323037;0,323037;0,601311;0,601311;0,000000;0,000000;0,000000;0,000000;0,000000;0,512741;0,512741;0,512741;0,512741;0,323037;0,323037;0,359388;0,000000;0,323037;0,323037;0,239704;0,274617;0,239704;0,239704;0,239704;0,000000;0,000000;0,000000;0,323037;0,274617;0,562741;0,000000;0,000000;0,000000;0,285545;0,359388;0,359388;0,646074;0,000000;0,239704;0,239704;0,239704;0,239704;0,239704;0,256371;0,256371;0,256371;0,256371;0,323037;0,323037;0,323037;0,406371;0,000000;0,000000;0,656371;0,000000;0,000000;0,000000;0,323037;0,323037;0,323037;0,000000;0,000000;0,000000;0,000000;0,239704;0,239704;0,239704;0,239704;0,239704;0,239704;0,281371;
42;;;;;;;;;;;;;;;;;;;;;;;;;;;;;;;;;;;;;;;;;;1,000000;0,229175;0,282210;0,229175;0,229175;0,229175;0,323661;0,426321;0,229175;0,229175;0,229175;0,285545;0,285545;0,229175;0,229175;0,229175;0,295841;0,295841;0,254175;0,254175;0,388822;0,295841;0,295841;0,295841;0,546919;0,546919;0,000000;0,000000;0,000000;0,000000;0,000000;0,458349;0,458349;0,458349;0,458349;0,295841;0,295841;0,332192;0,000000;0,295841;0,295841;0,212508;0,247421;0,212508;0,212508;0,212508;0,000000;0,000000;0,000000;0,295841;0,247421;0,508349;0,000000;0,000000;0,000000;0,258349;0,332192;0,332192;0,591682;0,000000;0,212508;0,212508;0,212508;0,212508;0,212508;0,229175;0,229175;0,229175;0,229175;0,295841;0,295841;0,295841;0,379175;0,000000;0,000000;0,629175;0,000000;0,000000;0,000000;0,295841;0,295841;0,295841;0,000000;0,000000;0,000000;0,000000;0,212508;0,212508;0,212508;0,212508;0,212508;0,212508;0,254175;
43;;;;;;;;;;;;;;;;;;;;;;;;;;;;;;;;;;;;;;;;;;;1,000000;0,627245;0,800000;0,800000;0,800000;0,294486;0,235905;0,200000;0,200000;0,200000;0,256371;0,256371;0,200000;0,200000;0,200000;0,266667;0,266667;0,225000;0,225000;0,359648;0,266667;0,266667;0,266667;0,244285;0,244285;0,000000;0,000000;0,000000;0,000000;0,000000;0,200000;0,200000;0,200000;0,200000;0,266667;0,266667;0,303017;0,000000;0,266667;0,266667;0,183333;0,218247;0,183333;0,183333;0,183333;0,000000;0,000000;0,000000;0,533333;0,396106;0,225000;0,000000;0,000000;0,000000;0,229175;0,303017;0,303017;0,266667;0,000000;0,183333;0,183333;0,183333;0,183333;0,183333;0,200000;0,200000;0,200000;0,200000;0,266667;0,266667;0,266667;0,350000;0,000000;0,000000;0,600000;0,000000;0,000000;0,000000;0,266667;0,266667;0,266667;0,000000;0,000000;0,000000;0,000000;0,183333;0,183333;0,183333;0,183333;0,183333;0,183333;0,225000;
44;;;;;;;;;;;;;;;;;;;;;;;;;;;;;;;;;;;;;;;;;;;;1,000000;0,627245;0,627245;0,627245;0,347522;0,288941;0,253036;0,253036;0,253036;0,309406;0,309406;0,253036;0,253036;0,253036;0,319702;0,319702;0,278036;0,278036;0,412683;0,319702;0,319702;0,319702;0,297321;0,297321;0,000000;0,000000;0,000000;0,000000;0,000000;0,253036;0,253036;0,253036;0,253036;0,319702;0,319702;0,356053;0,000000;0,319702;0,319702;0,236369;0,271282;0,236369;0,236369;0,236369;0,000000;0,000000;0,000000;0,516527;0,380241;0,278036;0,000000;0,000000;0,000000;0,282210;0,356053;0,356053;0,319702;0,285375;0,349861;0,349861;0,349861;0,349861;0,349861;0,253036;0,253036;0,253036;0,253036;0,319702;0,319702;0,319702;0,403036;0,000000;0,000000;0,653036;0,000000;0,000000;0,000000;0,319702;0,319702;0,319702;0,000000;0,000000;0,000000;0,000000;0,236369;0,236369;0,236369;0,236369;0,236369;0,236369;0,278036;
45;;;;;;;;;;;;;;;;;;;;;;;;;;;;;;;;;;;;;;;;;;;;;1,000000;0,800000;0,800000;0,294486;0,235905;0,200000;0,200000;0,200000;0,256371;0,256371;0,200000;0,200000;0,200000;0,266667;0,266667;0,225000;0,225000;0,359648;0,266667;0,266667;0,266667;0,244285;0,244285;0,000000;0,000000;0,000000;0,000000;0,000000;0,200000;0,200000;0,200000;0,200000;0,266667;0,266667;0,303017;0,000000;0,266667;0,266667;0,183333;0,218247;0,183333;0,183333;0,183333;0,000000;0,000000;0,000000;0,533333;0,396106;0,225000;0,000000;0,000000;0,000000;0,229175;0,303017;0,303017;0,266667;0,000000;0,183333;0,183333;0,183333;0,183333;0,183333;0,200000;0,200000;0,200000;0,200000;0,266667;0,266667;0,266667;0,350000;0,000000;0,000000;0,600000;0,000000;0,000000;0,000000;0,266667;0,266667;0,266667;0,000000;0,000000;0,000000;0,000000;0,183333;0,183333;0,183333;0,183333;0,183333;0,183333;0,225000;
46;;;;;;;;;;;;;;;;;;;;;;;;;;;;;;;;;;;;;;;;;;;;;;1,000000;0,800000;0,294486;0,235905;0,200000;0,200000;0,200000;0,256371;0,256371;0,200000;0,200000;0,200000;0,266667;0,266667;0,225000;0,225000;0,359648;0,266667;0,266667;0,266667;0,244285;0,244285;0,000000;0,000000;0,000000;0,000000;0,000000;0,200000;0,200000;0,200000;0,200000;0,266667;0,266667;0,303017;0,000000;0,266667;0,266667;0,183333;0,218247;0,183333;0,183333;0,183333;0,000000;0,000000;0,000000;0,533333;0,396106;0,225000;0,000000;0,000000;0,000000;0,229175;0,303017;0,303017;0,266667;0,000000;0,183333;0,183333;0,183333;0,183333;0,183333;0,200000;0,200000;0,200000;0,200000;0,266667;0,266667;0,266667;0,350000;0,000000;0,000000;0,600000;0,000000;0,000000;0,000000;0,266667;0,266667;0,266667;0,000000;0,000000;0,000000;0,000000;0,183333;0,183333;0,183333;0,183333;0,183333;0,183333;0,225000;
47;;;;;;;;;;;;;;;;;;;;;;;;;;;;;;;;;;;;;;;;;;;;;;;1,000000;0,294486;0,235905;0,200000;0,200000;0,200000;0,256371;0,256371;0,200000;0,200000;0,200000;0,266667;0,266667;0,225000;0,225000;0,359648;0,266667;0,266667;0,266667;0,244285;0,244285;0,000000;0,000000;0,000000;0,000000;0,000000;0,200000;0,200000;0,200000;0,200000;0,266667;0,266667;0,303017;0,000000;0,266667;0,266667;0,183333;0,218247;0,183333;0,183333;0,183333;0,000000;0,000000;0,000000;0,533333;0,396106;0,225000;0,000000;0,000000;0,000000;0,229175;0,303017;0,303017;0,266667;0,000000;0,183333;0,183333;0,183333;0,183333;0,183333;0,200000;0,200000;0,200000;0,200000;0,266667;0,266667;0,266667;0,350000;0,000000;0,000000;0,600000;0,000000;0,000000;0,000000;0,266667;0,266667;0,266667;0,000000;0,000000;0,000000;0,000000;0,183333;0,183333;0,183333;0,183333;0,183333;0,183333;0,225000;
48;;;;;;;;;;;;;;;;;;;;;;;;;;;;;;;;;;;;;;;;;;;;;;;;1,000000;0,575505;0,294486;0,294486;0,294486;0,350857;0,598974;0,667924;0,667924;0,667924;0,548189;0,548189;0,319486;0,319486;0,454134;0,361153;0,361153;0,361153;0,338772;0,338772;0,000000;0,000000;0,000000;0,000000;0,000000;0,294486;0,294486;0,294486;0,294486;0,361153;0,361153;0,620374;0,000000;0,361153;0,361153;0,277820;0,312733;0,277820;0,277820;0,277820;0,000000;0,000000;0,000000;0,361153;0,312733;0,319486;0,000000;0,000000;0,000000;0,670423;0,397504;0,397504;0,361153;0,000000;0,277820;0,277820;0,277820;0,277820;0,277820;0,294486;0,294486;0,294486;0,294486;0,361153;0,361153;0,361153;0,444486;0,000000;0,000000;0,694486;0,000000;0,000000;0,000000;0,361153;0,361153;0,361153;0,000000;0,000000;0,000000;0,000000;0,277820;0,277820;0,277820;0,277820;0,277820;0,277820;0,319486;
49;;;;;;;;;;;;;;;;;;;;;;;;;;;;;;;;;;;;;;;;;;;;;;;;;1,000000;0,620057;0,620057;0,620057;0,574304;0,292276;0,235905;0,235905;0,235905;0,302572;0,302572;0,260905;0,260905;0,395553;0,302572;0,302572;0,302572;0,456542;0,456542;0,000000;0,000000;0,000000;0,000000;0,000000;0,367972;0,367972;0,367972;0,367972;0,503715;0,503715;0,459656;0,000000;0,302572;0,302572;0,219239;0,254152;0,219239;0,219239;0,219239;0,000000;0,000000;0,000000;0,302572;0,254152;0,417972;0,000000;0,000000;0,000000;0,531013;0,460229;0,460229;0,501305;0,000000;0,219239;0,219239;0,219239;0,219239;0,219239;0,235905;0,235905;0,235905;0,235905;0,302572;0,503715;0,503715;0,660370;0,000000;0,000000;0,635905;0,000000;0,000000;0,000000;0,302572;0,302572;0,302572;0,000000;0,000000;0,000000;0,000000;0,219239;0,219239;0,219239;0,219239;0,219239;0,219239;0,260905;
50;;;;;;;;;;;;;;;;;;;;;;;;;;;;;;;;;;;;;;;;;;;;;;;;;;1,000000;0,800000;0,800000;0,753661;0,256371;0,200000;0,200000;0,200000;0,266667;0,266667;0,225000;0,225000;0,359648;0,266667;0,266667;0,266667;0,244285;0,244285;0,000000;0,000000;0,000000;0,000000;0,000000;0,200000;0,200000;0,200000;0,200000;0,533333;0,533333;0,303017;0,000000;0,266667;0,266667;0,183333;0,218247;0,183333;0,183333;0,183333;0,000000;0,000000;0,000000;0,266667;0,218247;0,225000;0,000000;0,000000;0,000000;0,386497;0,303017;0,303017;0,533333;0,000000;0,183333;0,183333;0,183333;0,183333;0,183333;0,200000;0,200000;0,200000;0,200000;0,266667;0,533333;0,533333;0,700000;0,000000;0,000000;0,600000;0,000000;0,000000;0,000000;0,266667;0,266667;0,266667;0,000000;0,000000;0,000000;0,000000;0,183333;0,183333;0,183333;0,183333;0,183333;0,183333;0,225000;
51;;;;;;;;;;;;;;;;;;;;;;;;;;;;;;;;;;;;;;;;;;;;;;;;;;;1,000000;0,800000;0,753661;0,256371;0,200000;0,200000;0,200000;0,266667;0,266667;0,225000;0,225000;0,359648;0,266667;0,266667;0,266667;0,244285;0,244285;0,000000;0,000000;0,000000;0,000000;0,000000;0,200000;0,200000;0,200000;0,200000;0,533333;0,533333;0,303017;0,000000;0,266667;0,266667;0,183333;0,218247;0,183333;0,183333;0,183333;0,000000;0,000000;0,000000;0,266667;0,218247;0,225000;0,000000;0,000000;0,000000;0,386497;0,303017;0,303017;0,533333;0,000000;0,183333;0,183333;0,183333;0,183333;0,183333;0,200000;0,200000;0,200000;0,200000;0,266667;0,533333;0,533333;0,700000;0,000000;0,000000;0,600000;0,000000;0,000000;0,000000;0,266667;0,266667;0,266667;0,000000;0,000000;0,000000;0,000000;0,183333;0,183333;0,183333;0,183333;0,183333;0,183333;0,225000;
52;;;;;;;;;;;;;;;;;;;;;;;;;;;;;;;;;;;;;;;;;;;;;;;;;;;;1,000000;0,753661;0,256371;0,200000;0,200000;0,200000;0,266667;0,266667;0,225000;0,225000;0,359648;0,266667;0,266667;0,266667;0,244285;0,244285;0,000000;0,000000;0,000000;0,000000;0,000000;0,200000;0,200000;0,200000;0,200000;0,533333;0,533333;0,303017;0,000000;0,266667;0,266667;0,183333;0,218247;0,183333;0,183333;0,183333;0,000000;0,000000;0,000000;0,266667;0,218247;0,225000;0,000000;0,000000;0,000000;0,386497;0,303017;0,303017;0,533333;0,000000;0,183333;0,183333;0,183333;0,183333;0,183333;0,200000;0,200000;0,200000;0,200000;0,266667;0,533333;0,533333;0,700000;0,000000;0,000000;0,600000;0,000000;0,000000;0,000000;0,266667;0,266667;0,266667;0,000000;0,000000;0,000000;0,000000;0,183333;0,183333;0,183333;0,183333;0,183333;0,183333;0,225000;
53;;;;;;;;;;;;;;;;;;;;;;;;;;;;;;;;;;;;;;;;;;;;;;;;;;;;;1,000000;0,312741;0,256371;0,256371;0,256371;0,323037;0,323037;0,281371;0,281371;0,416018;0,323037;0,323037;0,323037;0,300656;0,300656;0,000000;0,000000;0,000000;0,000000;0,000000;0,256371;0,256371;0,256371;0,256371;0,550586;0,550586;0,359388;0,000000;0,323037;0,323037;0,239704;0,274617;0,239704;0,239704;0,239704;0,000000;0,000000;0,000000;0,323037;0,274617;0,281371;0,000000;0,000000;0,000000;0,403750;0,359388;0,359388;0,550586;0,000000;0,239704;0,239704;0,239704;0,239704;0,239704;0,256371;0,256371;0,256371;0,256371;0,323037;0,550586;0,550586;0,406371;0,000000;0,000000;0,656371;0,000000;0,000000;0,000000;0,323037;0,323037;0,323037;0,000000;0,000000;0,000000;0,000000;0,239704;0,239704;0,239704;0,239704;0,239704;0,239704;0,281371;
54;;;;;;;;;;;;;;;;;;;;;;;;;;;;;;;;;;;;;;;;;;;;;;;;;;;;;;1,000000;0,833857;0,833857;0,833857;0,646074;0,646074;0,281371;0,281371;0,416018;0,323037;0,323037;0,323037;0,300656;0,300656;0,000000;0,000000;0,000000;0,000000;0,000000;0,256371;0,256371;0,256371;0,256371;0,323037;0,323037;0,718776;0,000000;0,323037;0,323037;0,239704;0,274617;0,239704;0,239704;0,239704;0,000000;0,000000;0,000000;0,323037;0,274617;0,281371;0,000000;0,000000;0,000000;0,285545;0,359388;0,359388;0,323037;0,000000;0,239704;0,239704;0,239704;0,239704;0,239704;0,256371;0,256371;0,256371;0,256371;0,323037;0,323037;0,323037;0,406371;0,000000;0,000000;0,656371;0,000000;0,000000;0,000000;0,323037;0,323037;0,323037;0,000000;0,000000;0,000000;0,000000;0,239704;0,239704;0,239704;0,239704;0,239704;0,239704;0,281371;
55;;;;;;;;;;;;;;;;;;;;;;;;;;;;;;;;;;;;;;;;;;;;;;;;;;;;;;;1,000000;0,800000;0,800000;0,533333;0,533333;0,225000;0,225000;0,359648;0,266667;0,266667;0,266667;0,244285;0,244285;0,000000;0,000000;0,000000;0,000000;0,000000;0,200000;0,200000;0,200000;0,200000;0,266667;0,266667;0,606035;0,000000;0,266667;0,266667;0,183333;0,218247;0,183333;0,183333;0,183333;0,000000;0,000000;0,000000;0,266667;0,218247;0,225000;0,000000;0,000000;0,000000;0,229175;0,303017;0,303017;0,266667;0,000000;0,183333;0,183333;0,183333;0,183333;0,183333;0,200000;0,200000;0,200000;0,200000;0,266667;0,266667;0,266667;0,350000;0,000000;0,000000;0,600000;0,000000;0,000000;0,000000;0,266667;0,266667;0,266667;0,000000;0,000000;0,000000;0,000000;0,183333;0,183333;0,183333;0,183333;0,183333;0,183333;0,225000;
56;;;;;;;;;;;;;;;;;;;;;;;;;;;;;;;;;;;;;;;;;;;;;;;;;;;;;;;;1,000000;0,800000;0,533333;0,533333;0,225000;0,225000;0,359648;0,266667;0,266667;0,266667;0,244285;0,244285;0,000000;0,000000;0,000000;0,000000;0,000000;0,200000;0,200000;0,200000;0,200000;0,266667;0,266667;0,606035;0,000000;0,266667;0,266667;0,183333;0,218247;0,183333;0,183333;0,183333;0,000000;0,000000;0,000000;0,266667;0,218247;0,225000;0,000000;0,000000;0,000000;0,229175;0,303017;0,303017;0,266667;0,000000;0,183333;0,183333;0,183333;0,183333;0,183333;0,200000;0,200000;0,200000;0,200000;0,266667;0,266667;0,266667;0,350000;0,000000;0,000000;0,600000;0,000000;0,000000;0,000000;0,266667;0,266667;0,266667;0,000000;0,000000;0,000000;0,000000;0,183333;0,183333;0,183333;0,183333;0,183333;0,183333;0,225000;
57;;;;;;;;;;;;;;;;;;;;;;;;;;;;;;;;;;;;;;;;;;;;;;;;;;;;;;;;;1,000000;0,533333;0,533333;0,225000;0,225000;0,359648;0,266667;0,266667;0,266667;0,244285;0,244285;0,000000;0,000000;0,000000;0,000000;0,000000;0,200000;0,200000;0,200000;0,200000;0,266667;0,266667;0,606035;0,000000;0,266667;0,266667;0,183333;0,218247;0,183333;0,183333;0,183333;0,000000;0,000000;0,000000;0,266667;0,218247;0,225000;0,000000;0,000000;0,000000;0,229175;0,303017;0,303017;0,266667;0,000000;0,183333;0,183333;0,183333;0,183333;0,183333;0,200000;0,200000;0,200000;0,200000;0,266667;0,266667;0,266667;0,350000;0,000000;0,000000;0,600000;0,000000;0,000000;0,000000;0,266667;0,266667;0,266667;0,000000;0,000000;0,000000;0,000000;0,183333;0,183333;0,183333;0,183333;0,183333;0,183333;0,225000;
58;;;;;;;;;;;;;;;;;;;;;;;;;;;;;;;;;;;;;;;;;;;;;;;;;;;;;;;;;;1,000000;0,666667;0,291667;0,291667;0,426314;0,333333;0,333333;0,333333;0,310952;0,310952;0,000000;0,000000;0,000000;0,000000;0,000000;0,266667;0,266667;0,266667;0,266667;0,333333;0,333333;0,739368;0,000000;0,333333;0,333333;0,250000;0,284913;0,250000;0,250000;0,250000;0,000000;0,000000;0,000000;0,333333;0,284913;0,291667;0,000000;0,000000;0,000000;0,295841;0,369684;0,369684;0,333333;0,000000;0,250000;0,250000;0,250000;0,250000;0,250000;0,266667;0,266667;0,266667;0,266667;0,333333;0,333333;0,333333;0,416667;0,000000;0,000000;0,666667;0,000000;0,000000;0,000000;0,333333;0,333333;0,333333;0,000000;0,000000;0,000000;0,000000;0,250000;0,250000;0,250000;0,250000;0,250000;0,250000;0,291667;
59;;;;;;;;;;;;;;;;;;;;;;;;;;;;;;;;;;;;;;;;;;;;;;;;;;;;;;;;;;;1,000000;0,291667;0,291667;0,426314;0,333333;0,333333;0,333333;0,310952;0,310952;0,000000;0,000000;0,000000;0,000000;0,000000;0,266667;0,266667;0,266667;0,266667;0,333333;0,333333;0,739368;0,000000;0,333333;0,333333;0,250000;0,284913;0,250000;0,250000;0,250000;0,000000;0,000000;0,000000;0,333333;0,284913;0,291667;0,000000;0,000000;0,000000;0,295841;0,369684;0,369684;0,333333;0,000000;0,250000;0,250000;0,250000;0,250000;0,250000;0,266667;0,266667;0,266667;0,266667;0,333333;0,333333;0,333333;0,416667;0,000000;0,000000;0,666667;0,000000;0,000000;0,000000;0,333333;0,333333;0,333333;0,000000;0,000000;0,000000;0,000000;0,250000;0,250000;0,250000;0,250000;0,250000;0,250000;0,291667;
60;;;;;;;;;;;;;;;;;;;;;;;;;;;;;;;;;;;;;;;;;;;;;;;;;;;;;;;;;;;;1,000000;0,750000;0,384648;0,291667;0,291667;0,291667;0,269285;0,269285;0,000000;0,000000;0,000000;0,000000;0,000000;0,225000;0,225000;0,225000;0,225000;0,291667;0,291667;0,328017;0,000000;0,291667;0,291667;0,208333;0,243247;0,208333;0,208333;0,208333;0,000000;0,000000;0,000000;0,291667;0,243247;0,250000;0,000000;0,000000;0,000000;0,254175;0,328017;0,328017;0,291667;0,000000;0,208333;0,208333;0,208333;0,208333;0,208333;0,225000;0,225000;0,225000;0,225000;0,291667;0,291667;0,291667;0,375000;0,000000;0,000000;0,625000;0,000000;0,000000;0,000000;0,291667;0,291667;0,291667;0,000000;0,000000;0,000000;0,000000;0,208333;0,208333;0,208333;0,208333;0,208333;0,208333;0,250000;
61;;;;;;;;;;;;;;;;;;;;;;;;;;;;;;;;;;;;;;;;;;;;;;;;;;;;;;;;;;;;;1,000000;0,384648;0,291667;0,291667;0,291667;0,269285;0,269285;0,000000;0,000000;0,000000;0,000000;0,000000;0,225000;0,225000;0,225000;0,225000;0,291667;0,291667;0,328017;0,000000;0,291667;0,291667;0,208333;0,243247;0,208333;0,208333;0,208333;0,000000;0,000000;0,000000;0,291667;0,243247;0,250000;0,000000;0,000000;0,000000;0,254175;0,328017;0,328017;0,291667;0,000000;0,208333;0,208333;0,208333;0,208333;0,208333;0,225000;0,225000;0,225000;0,225000;0,291667;0,291667;0,291667;0,375000;0,000000;0,000000;0,625000;0,000000;0,000000;0,000000;0,291667;0,291667;0,291667;0,000000;0,000000;0,000000;0,000000;0,208333;0,208333;0,208333;0,208333;0,208333;0,208333;0,250000;
62;;;;;;;;;;;;;;;;;;;;;;;;;;;;;;;;;;;;;;;;;;;;;;;;;;;;;;;;;;;;;;1,000000;0,426314;0,426314;0,426314;0,403933;0,403933;0,000000;0,000000;0,000000;0,000000;0,000000;0,359648;0,359648;0,359648;0,359648;0,426314;0,426314;0,462665;0,000000;0,708464;0,708464;0,342981;0,377894;0,342981;0,342981;0,342981;0,000000;0,000000;0,000000;0,426314;0,377894;0,384648;0,000000;0,000000;0,000000;0,388822;0,462665;0,462665;0,426314;0,000000;0,342981;0,342981;0,342981;0,342981;0,342981;0,359648;0,359648;0,359648;0,359648;0,426314;0,426314;0,426314;0,509648;0,000000;0,000000;0,759648;0,000000;0,000000;0,000000;0,426314;0,426314;0,426314;0,000000;0,000000;0,000000;0,000000;0,342981;0,342981;0,342981;0,342981;0,342981;0,342981;0,384648;
63;;;;;;;;;;;;;;;;;;;;;;;;;;;;;;;;;;;;;;;;;;;;;;;;;;;;;;;;;;;;;;;1,000000;0,666667;0,666667;0,310952;0,310952;0,000000;0,000000;0,000000;0,000000;0,000000;0,266667;0,266667;0,266667;0,266667;0,333333;0,333333;0,369684;0,000000;0,333333;0,333333;0,250000;0,284913;0,250000;0,250000;0,250000;0,000000;0,000000;0,000000;0,333333;0,284913;0,291667;0,000000;0,000000;0,000000;0,295841;0,369684;0,369684;0,333333;0,000000;0,250000;0,250000;0,250000;0,250000;0,250000;0,266667;0,266667;0,266667;0,266667;0,333333;0,333333;0,333333;0,416667;0,000000;0,000000;0,666667;0,000000;0,000000;0,000000;0,333333;0,333333;0,333333;0,000000;0,000000;0,000000;0,000000;0,250000;0,250000;0,250000;0,250000;0,250000;0,250000;0,291667;
64;;;;;;;;;;;;;;;;;;;;;;;;;;;;;;;;;;;;;;;;;;;;;;;;;;;;;;;;;;;;;;;;1,000000;0,666667;0,310952;0,310952;0,000000;0,000000;0,000000;0,000000;0,000000;0,266667;0,266667;0,266667;0,266667;0,333333;0,333333;0,369684;0,000000;0,333333;0,333333;0,250000;0,284913;0,250000;0,250000;0,250000;0,000000;0,000000;0,000000;0,333333;0,284913;0,291667;0,000000;0,000000;0,000000;0,295841;0,369684;0,369684;0,333333;0,000000;0,250000;0,250000;0,250000;0,250000;0,250000;0,266667;0,266667;0,266667;0,266667;0,333333;0,333333;0,333333;0,416667;0,000000;0,000000;0,666667;0,000000;0,000000;0,000000;0,333333;0,333333;0,333333;0,000000;0,000000;0,000000;0,000000;0,250000;0,250000;0,250000;0,250000;0,250000;0,250000;0,291667;
65;;;;;;;;;;;;;;;;;;;;;;;;;;;;;;;;;;;;;;;;;;;;;;;;;;;;;;;;;;;;;;;;;1,000000;0,310952;0,310952;0,000000;0,000000;0,000000;0,000000;0,000000;0,266667;0,266667;0,266667;0,266667;0,333333;0,333333;0,369684;0,000000;0,333333;0,333333;0,250000;0,284913;0,250000;0,250000;0,250000;0,000000;0,000000;0,000000;0,333333;0,284913;0,291667;0,000000;0,000000;0,000000;0,295841;0,369684;0,369684;0,333333;0,000000;0,250000;0,250000;0,250000;0,250000;0,250000;0,266667;0,266667;0,266667;0,266667;0,333333;0,333333;0,333333;0,416667;0,000000;0,000000;0,666667;0,000000;0,000000;0,000000;0,333333;0,333333;0,333333;0,000000;0,000000;0,000000;0,000000;0,250000;0,250000;0,250000;0,250000;0,250000;0,250000;0,291667;
66;;;;;;;;;;;;;;;;;;;;;;;;;;;;;;;;;;;;;;;;;;;;;;;;;;;;;;;;;;;;;;;;;;1,000000;0,713245;0,000000;0,000000;0,000000;0,000000;0,000000;0,488570;0,488570;0,488570;0,488570;0,310952;0,310952;0,347303;0,000000;0,310952;0,310952;0,227618;0,262532;0,227618;0,227618;0,227618;0,000000;0,000000;0,000000;0,310952;0,262532;0,807855;0,000000;0,000000;0,000000;0,273460;0,347303;0,347303;0,621904;0,000000;0,227618;0,227618;0,227618;0,227618;0,227618;0,244285;0,244285;0,244285;0,244285;0,310952;0,310952;0,310952;0,394285;0,000000;0,000000;0,644285;0,000000;0,000000;0,000000;0,310952;0,310952;0,310952;0,000000;0,000000;0,000000;0,000000;0,227618;0,227618;0,227618;0,227618;0,227618;0,227618;0,269285;
67;;;;;;;;;;;;;;;;;;;;;;;;;;;;;;;;;;;;;;;;;;;;;;;;;;;;;;;;;;;;;;;;;;;1,000000;0,000000;0,000000;0,000000;0,000000;0,000000;0,488570;0,488570;0,488570;0,488570;0,310952;0,310952;0,347303;0,000000;0,310952;0,310952;0,227618;0,262532;0,227618;0,227618;0,227618;0,000000;0,000000;0,000000;0,310952;0,262532;0,807855;0,000000;0,000000;0,000000;0,273460;0,347303;0,347303;0,621904;0,000000;0,227618;0,227618;0,227618;0,227618;0,227618;0,244285;0,244285;0,244285;0,244285;0,310952;0,310952;0,310952;0,394285;0,000000;0,000000;0,644285;0,000000;0,000000;0,000000;0,310952;0,310952;0,310952;0,000000;0,000000;0,000000;0,000000;0,227618;0,227618;0,227618;0,227618;0,227618;0,227618;0,269285;
68;;;;;;;;;;;;;;;;;;;;;;;;;;;;;;;;;;;;;;;;;;;;;;;;;;;;;;;;;;;;;;;;;;;;1,000000;0,750000;0,750000;0,750000;0,750000;0,000000;0,000000;0,000000;0,000000;0,000000;0,000000;0,000000;0,000000;0,000000;0,000000;0,000000;0,000000;0,000000;0,000000;0,000000;0,000000;0,000000;0,000000;0,000000;0,000000;0,000000;0,000000;0,000000;0,000000;0,000000;0,000000;0,000000;0,000000;0,000000;0,000000;0,000000;0,000000;0,000000;0,000000;0,000000;0,000000;0,000000;0,000000;0,000000;0,000000;0,000000;0,000000;0,000000;0,000000;0,000000;0,000000;0,000000;0,000000;0,000000;0,000000;0,000000;0,000000;0,000000;0,000000;0,000000;0,000000;0,000000;0,000000;0,000000;0,000000;0,000000;0,000000;
69;;;;;;;;;;;;;;;;;;;;;;;;;;;;;;;;;;;;;;;;;;;;;;;;;;;;;;;;;;;;;;;;;;;;;1,000000;0,750000;0,750000;0,750000;0,000000;0,000000;0,000000;0,000000;0,000000;0,000000;0,000000;0,000000;0,000000;0,000000;0,000000;0,000000;0,000000;0,000000;0,000000;0,000000;0,000000;0,000000;0,000000;0,000000;0,000000;0,000000;0,000000;0,000000;0,000000;0,000000;0,000000;0,000000;0,000000;0,000000;0,000000;0,000000;0,000000;0,000000;0,000000;0,000000;0,000000;0,000000;0,000000;0,000000;0,000000;0,000000;0,000000;0,000000;0,000000;0,000000;0,000000;0,000000;0,000000;0,000000;0,000000;0,000000;0,000000;0,000000;0,000000;0,000000;0,000000;0,000000;0,000000;0,000000;0,000000;0,000000;
70;;;;;;;;;;;;;;;;;;;;;;;;;;;;;;;;;;;;;;;;;;;;;;;;;;;;;;;;;;;;;;;;;;;;;;1,000000;0,750000;0,750000;0,000000;0,000000;0,000000;0,000000;0,000000;0,000000;0,000000;0,000000;0,000000;0,000000;0,000000;0,000000;0,000000;0,000000;0,000000;0,000000;0,000000;0,000000;0,000000;0,000000;0,000000;0,000000;0,000000;0,000000;0,000000;0,000000;0,000000;0,000000;0,000000;0,000000;0,000000;0,000000;0,000000;0,000000;0,000000;0,000000;0,000000;0,000000;0,000000;0,000000;0,000000;0,000000;0,000000;0,000000;0,000000;0,000000;0,000000;0,000000;0,000000;0,000000;0,000000;0,000000;0,000000;0,000000;0,000000;0,000000;0,000000;0,000000;0,000000;0,000000;0,000000;0,000000;
71;;;;;;;;;;;;;;;;;;;;;;;;;;;;;;;;;;;;;;;;;;;;;;;;;;;;;;;;;;;;;;;;;;;;;;;1,000000;0,750000;0,000000;0,000000;0,000000;0,000000;0,000000;0,000000;0,000000;0,000000;0,000000;0,000000;0,000000;0,000000;0,000000;0,000000;0,000000;0,000000;0,000000;0,000000;0,000000;0,000000;0,000000;0,000000;0,000000;0,000000;0,000000;0,000000;0,000000;0,000000;0,000000;0,000000;0,000000;0,000000;0,000000;0,000000;0,000000;0,000000;0,000000;0,000000;0,000000;0,000000;0,000000;0,000000;0,000000;0,000000;0,000000;0,000000;0,000000;0,000000;0,000000;0,000000;0,000000;0,000000;0,000000;0,000000;0,000000;0,000000;0,000000;0,000000;0,000000;0,000000;0,000000;0,000000;
72;;;;;;;;;;;;;;;;;;;;;;;;;;;;;;;;;;;;;;;;;;;;;;;;;;;;;;;;;;;;;;;;;;;;;;;;1,000000;0,000000;0,000000;0,000000;0,000000;0,000000;0,000000;0,000000;0,000000;0,000000;0,000000;0,000000;0,000000;0,000000;0,000000;0,000000;0,000000;0,000000;0,000000;0,000000;0,000000;0,000000;0,000000;0,000000;0,000000;0,000000;0,000000;0,000000;0,000000;0,000000;0,000000;0,000000;0,000000;0,000000;0,000000;0,000000;0,000000;0,000000;0,000000;0,000000;0,000000;0,000000;0,000000;0,000000;0,000000;0,000000;0,000000;0,000000;0,000000;0,000000;0,000000;0,000000;0,000000;0,000000;0,000000;0,000000;0,000000;0,000000;0,000000;0,000000;0,000000;0,000000;0,000000;
73;;;;;;;;;;;;;;;;;;;;;;;;;;;;;;;;;;;;;;;;;;;;;;;;;;;;;;;;;;;;;;;;;;;;;;;;;1,000000;0,800000;0,800000;0,800000;0,266667;0,266667;0,303017;0,000000;0,266667;0,266667;0,183333;0,218247;0,183333;0,183333;0,183333;0,000000;0,000000;0,000000;0,266667;0,218247;0,450000;0,000000;0,000000;0,000000;0,229175;0,303017;0,303017;0,533333;0,000000;0,183333;0,183333;0,183333;0,183333;0,183333;0,200000;0,200000;0,200000;0,200000;0,266667;0,266667;0,266667;0,350000;0,000000;0,000000;0,600000;0,000000;0,000000;0,000000;0,266667;0,266667;0,266667;0,000000;0,000000;0,000000;0,000000;0,183333;0,183333;0,183333;0,183333;0,183333;0,183333;0,225000;
74;;;;;;;;;;;;;;;;;;;;;;;;;;;;;;;;;;;;;;;;;;;;;;;;;;;;;;;;;;;;;;;;;;;;;;;;;;1,000000;0,800000;0,800000;0,266667;0,266667;0,303017;0,000000;0,266667;0,266667;0,183333;0,218247;0,183333;0,183333;0,183333;0,000000;0,000000;0,000000;0,266667;0,218247;0,450000;0,000000;0,000000;0,000000;0,229175;0,303017;0,303017;0,533333;0,000000;0,183333;0,183333;0,183333;0,183333;0,183333;0,200000;0,200000;0,200000;0,200000;0,266667;0,266667;0,266667;0,350000;0,000000;0,000000;0,600000;0,000000;0,000000;0,000000;0,266667;0,266667;0,266667;0,000000;0,000000;0,000000;0,000000;0,183333;0,183333;0,183333;0,183333;0,183333;0,183333;0,225000;
75;;;;;;;;;;;;;;;;;;;;;;;;;;;;;;;;;;;;;;;;;;;;;;;;;;;;;;;;;;;;;;;;;;;;;;;;;;;1,000000;0,800000;0,266667;0,266667;0,303017;0,000000;0,266667;0,266667;0,183333;0,218247;0,183333;0,183333;0,183333;0,000000;0,000000;0,000000;0,266667;0,218247;0,450000;0,000000;0,000000;0,000000;0,229175;0,303017;0,303017;0,533333;0,000000;0,183333;0,183333;0,183333;0,183333;0,183333;0,200000;0,200000;0,200000;0,200000;0,266667;0,266667;0,266667;0,350000;0,000000;0,000000;0,600000;0,000000;0,000000;0,000000;0,266667;0,266667;0,266667;0,000000;0,000000;0,000000;0,000000;0,183333;0,183333;0,183333;0,183333;0,183333;0,183333;0,225000;
76;;;;;;;;;;;;;;;;;;;;;;;;;;;;;;;;;;;;;;;;;;;;;;;;;;;;;;;;;;;;;;;;;;;;;;;;;;;;1,000000;0,266667;0,266667;0,303017;0,000000;0,266667;0,266667;0,183333;0,218247;0,183333;0,183333;0,183333;0,000000;0,000000;0,000000;0,266667;0,218247;0,450000;0,000000;0,000000;0,000000;0,229175;0,303017;0,303017;0,533333;0,000000;0,183333;0,183333;0,183333;0,183333;0,183333;0,200000;0,200000;0,200000;0,200000;0,266667;0,266667;0,266667;0,350000;0,000000;0,000000;0,600000;0,000000;0,000000;0,000000;0,266667;0,266667;0,266667;0,000000;0,000000;0,000000;0,000000;0,183333;0,183333;0,183333;0,183333;0,183333;0,183333;0,225000;
77;;;;;;;;;;;;;;;;;;;;;;;;;;;;;;;;;;;;;;;;;;;;;;;;;;;;;;;;;;;;;;;;;;;;;;;;;;;;;1,000000;0,666667;0,369684;0,000000;0,333333;0,333333;0,250000;0,284913;0,250000;0,250000;0,250000;0,000000;0,000000;0,000000;0,333333;0,284913;0,291667;0,000000;0,000000;0,000000;0,519830;0,369684;0,369684;0,666667;0,000000;0,250000;0,250000;0,250000;0,250000;0,250000;0,266667;0,266667;0,266667;0,266667;0,333333;0,666667;0,666667;0,416667;0,000000;0,000000;0,666667;0,000000;0,000000;0,000000;0,333333;0,333333;0,333333;0,000000;0,000000;0,000000;0,000000;0,250000;0,250000;0,250000;0,250000;0,250000;0,250000;0,291667;
78;;;;;;;;;;;;;;;;;;;;;;;;;;;;;;;;;;;;;;;;;;;;;;;;;;;;;;;;;;;;;;;;;;;;;;;;;;;;;;1,000000;0,369684;0,000000;0,333333;0,333333;0,250000;0,284913;0,250000;0,250000;0,250000;0,000000;0,000000;0,000000;0,333333;0,284913;0,291667;0,000000;0,000000;0,000000;0,519830;0,369684;0,369684;0,666667;0,000000;0,250000;0,250000;0,250000;0,250000;0,250000;0,266667;0,266667;0,266667;0,266667;0,333333;0,666667;0,666667;0,416667;0,000000;0,000000;0,666667;0,000000;0,000000;0,000000;0,333333;0,333333;0,333333;0,000000;0,000000;0,000000;0,000000;0,250000;0,250000;0,250000;0,250000;0,250000;0,250000;0,291667;
79;;;;;;;;;;;;;;;;;;;;;;;;;;;;;;;;;;;;;;;;;;;;;;;;;;;;;;;;;;;;;;;;;;;;;;;;;;;;;;;1,000000;0,000000;0,369684;0,369684;0,286351;0,321264;0,286351;0,286351;0,286351;0,000000;0,000000;0,000000;0,369684;0,321264;0,328017;0,000000;0,000000;0,000000;0,485890;0,406035;0,406035;0,369684;0,000000;0,286351;0,286351;0,286351;0,286351;0,286351;0,303017;0,303017;0,303017;0,303017;0,369684;0,369684;0,369684;0,453017;0,000000;0,000000;0,703017;0,000000;0,000000;0,000000;0,369684;0,369684;0,369684;0,000000;0,000000;0,000000;0,000000;0,286351;0,286351;0,286351;0,286351;0,286351;0,286351;0,328017;
80;;;;;;;;;;;;;;;;;;;;;;;;;;;;;;;;;;;;;;;;;;;;;;;;;;;;;;;;;;;;;;;;;;;;;;;;;;;;;;;;1,000000;0,000000;0,000000;0,000000;0,000000;0,000000;0,000000;0,000000;0,416667;0,416667;0,416667;0,000000;0,000000;0,000000;0,394285;0,394285;0,394285;0,000000;0,000000;0,000000;0,000000;0,833333;0,000000;0,000000;0,000000;0,000000;0,000000;0,000000;0,000000;0,000000;0,000000;0,000000;0,000000;0,000000;0,000000;0,000000;0,000000;0,000000;0,375000;0,750000;0,750000;0,000000;0,000000;0,000000;0,750000;0,750000;0,500000;0,500000;0,000000;0,000000;0,000000;0,000000;0,000000;0,000000;0,000000;
81;;;;;;;;;;;;;;;;;;;;;;;;;;;;;;;;;;;;;;;;;;;;;;;;;;;;;;;;;;;;;;;;;;;;;;;;;;;;;;;;;1,000000;0,666667;0,250000;0,284913;0,250000;0,250000;0,250000;0,000000;0,000000;0,000000;0,333333;0,284913;0,291667;0,000000;0,000000;0,000000;0,295841;0,369684;0,369684;0,333333;0,000000;0,250000;0,250000;0,250000;0,250000;0,250000;0,266667;0,266667;0,266667;0,266667;0,333333;0,333333;0,333333;0,416667;0,000000;0,000000;0,666667;0,000000;0,000000;0,000000;0,333333;0,333333;0,333333;0,000000;0,000000;0,000000;0,000000;0,250000;0,250000;0,250000;0,250000;0,250000;0,250000;0,291667;
82;;;;;;;;;;;;;;;;;;;;;;;;;;;;;;;;;;;;;;;;;;;;;;;;;;;;;;;;;;;;;;;;;;;;;;;;;;;;;;;;;;1,000000;0,250000;0,284913;0,250000;0,250000;0,250000;0,000000;0,000000;0,000000;0,333333;0,284913;0,291667;0,000000;0,000000;0,000000;0,295841;0,369684;0,369684;0,333333;0,000000;0,250000;0,250000;0,250000;0,250000;0,250000;0,266667;0,266667;0,266667;0,266667;0,333333;0,333333;0,333333;0,416667;0,000000;0,000000;0,666667;0,000000;0,000000;0,000000;0,333333;0,333333;0,333333;0,000000;0,000000;0,000000;0,000000;0,250000;0,250000;0,250000;0,250000;0,250000;0,250000;0,291667;
83;;;;;;;;;;;;;;;;;;;;;;;;;;;;;;;;;;;;;;;;;;;;;;;;;;;;;;;;;;;;;;;;;;;;;;;;;;;;;;;;;;;1,000000;0,802810;0,833333;0,833333;0,833333;0,000000;0,000000;0,000000;0,250000;0,201580;0,208333;0,000000;0,000000;0,000000;0,212508;0,286351;0,286351;0,250000;0,000000;0,166667;0,166667;0,166667;0,166667;0,166667;0,183333;0,183333;0,183333;0,183333;0,750000;0,250000;0,250000;0,333333;0,000000;0,000000;0,583333;0,000000;0,000000;0,000000;0,250000;0,250000;0,250000;0,000000;0,000000;0,000000;0,000000;0,166667;0,166667;0,166667;0,166667;0,166667;0,166667;0,416667;
84;;;;;;;;;;;;;;;;;;;;;;;;;;;;;;;;;;;;;;;;;;;;;;;;;;;;;;;;;;;;;;;;;;;;;;;;;;;;;;;;;;;;1,000000;0,802810;0,802810;0,802810;0,000000;0,000000;0,000000;0,284913;0,236494;0,243247;0,000000;0,000000;0,000000;0,247421;0,321264;0,321264;0,284913;0,000000;0,201580;0,201580;0,201580;0,201580;0,201580;0,218247;0,218247;0,218247;0,218247;0,569827;0,284913;0,284913;0,368247;0,000000;0,000000;0,618247;0,000000;0,000000;0,000000;0,284913;0,284913;0,284913;0,000000;0,000000;0,000000;0,000000;0,201580;0,201580;0,201580;0,201580;0,201580;0,201580;0,486494;
85;;;;;;;;;;;;;;;;;;;;;;;;;;;;;;;;;;;;;;;;;;;;;;;;;;;;;;;;;;;;;;;;;;;;;;;;;;;;;;;;;;;;;1,000000;0,833333;0,833333;0,000000;0,000000;0,000000;0,250000;0,201580;0,208333;0,000000;0,000000;0,000000;0,212508;0,286351;0,286351;0,250000;0,000000;0,166667;0,166667;0,166667;0,166667;0,166667;0,183333;0,183333;0,183333;0,183333;0,750000;0,250000;0,250000;0,333333;0,000000;0,000000;0,583333;0,000000;0,000000;0,000000;0,250000;0,250000;0,250000;0,000000;0,000000;0,000000;0,000000;0,166667;0,166667;0,166667;0,166667;0,166667;0,166667;0,416667;
86;;;;;;;;;;;;;;;;;;;;;;;;;;;;;;;;;;;;;;;;;;;;;;;;;;;;;;;;;;;;;;;;;;;;;;;;;;;;;;;;;;;;;;1,000000;0,833333;0,000000;0,000000;0,000000;0,250000;0,201580;0,208333;0,000000;0,000000;0,000000;0,212508;0,286351;0,286351;0,250000;0,000000;0,166667;0,166667;0,166667;0,166667;0,166667;0,183333;0,183333;0,183333;0,183333;0,750000;0,250000;0,250000;0,333333;0,000000;0,000000;0,583333;0,000000;0,000000;0,000000;0,250000;0,250000;0,250000;0,000000;0,000000;0,000000;0,000000;0,166667;0,166667;0,166667;0,166667;0,166667;0,166667;0,416667;
87;;;;;;;;;;;;;;;;;;;;;;;;;;;;;;;;;;;;;;;;;;;;;;;;;;;;;;;;;;;;;;;;;;;;;;;;;;;;;;;;;;;;;;;1,000000;0,000000;0,000000;0,000000;0,250000;0,201580;0,208333;0,000000;0,000000;0,000000;0,212508;0,286351;0,286351;0,250000;0,000000;0,166667;0,166667;0,166667;0,166667;0,166667;0,183333;0,183333;0,183333;0,183333;0,750000;0,250000;0,250000;0,333333;0,000000;0,000000;0,583333;0,000000;0,000000;0,000000;0,250000;0,250000;0,250000;0,000000;0,000000;0,000000;0,000000;0,166667;0,166667;0,166667;0,166667;0,166667;0,166667;0,416667;
88;;;;;;;;;;;;;;;;;;;;;;;;;;;;;;;;;;;;;;;;;;;;;;;;;;;;;;;;;;;;;;;;;;;;;;;;;;;;;;;;;;;;;;;;1,000000;0,666667;0,666667;0,000000;0,000000;0,000000;0,310952;0,310952;0,310952;0,000000;0,000000;0,000000;0,000000;0,333333;0,000000;0,000000;0,000000;0,000000;0,000000;0,000000;0,000000;0,000000;0,000000;0,000000;0,000000;0,000000;0,000000;0,000000;0,000000;0,000000;0,291667;0,666667;0,666667;0,000000;0,000000;0,000000;0,666667;0,666667;0,416667;0,416667;0,000000;0,000000;0,000000;0,000000;0,000000;0,000000;0,000000;
89;;;;;;;;;;;;;;;;;;;;;;;;;;;;;;;;;;;;;;;;;;;;;;;;;;;;;;;;;;;;;;;;;;;;;;;;;;;;;;;;;;;;;;;;;1,000000;0,666667;0,000000;0,000000;0,000000;0,310952;0,310952;0,310952;0,000000;0,000000;0,000000;0,000000;0,333333;0,000000;0,000000;0,000000;0,000000;0,000000;0,000000;0,000000;0,000000;0,000000;0,000000;0,000000;0,000000;0,000000;0,000000;0,000000;0,000000;0,291667;0,666667;0,666667;0,000000;0,000000;0,000000;0,666667;0,666667;0,416667;0,416667;0,000000;0,000000;0,000000;0,000000;0,000000;0,000000;0,000000;
90;;;;;;;;;;;;;;;;;;;;;;;;;;;;;;;;;;;;;;;;;;;;;;;;;;;;;;;;;;;;;;;;;;;;;;;;;;;;;;;;;;;;;;;;;;1,000000;0,000000;0,000000;0,000000;0,310952;0,310952;0,310952;0,000000;0,000000;0,000000;0,000000;0,333333;0,000000;0,000000;0,000000;0,000000;0,000000;0,000000;0,000000;0,000000;0,000000;0,000000;0,000000;0,000000;0,000000;0,000000;0,000000;0,000000;0,291667;0,666667;0,666667;0,000000;0,000000;0,000000;0,666667;0,666667;0,416667;0,416667;0,000000;0,000000;0,000000;0,000000;0,000000;0,000000;0,000000;
91;;;;;;;;;;;;;;;;;;;;;;;;;;;;;;;;;;;;;;;;;;;;;;;;;;;;;;;;;;;;;;;;;;;;;;;;;;;;;;;;;;;;;;;;;;;1,000000;0,529440;0,291667;0,000000;0,000000;0,000000;0,295841;0,369684;0,369684;0,333333;0,000000;0,500000;0,500000;0,500000;0,500000;0,500000;0,266667;0,266667;0,266667;0,266667;0,333333;0,333333;0,333333;0,416667;0,000000;0,000000;0,666667;0,000000;0,000000;0,000000;0,333333;0,333333;0,333333;0,000000;0,000000;0,000000;0,000000;0,250000;0,250000;0,250000;0,250000;0,250000;0,250000;0,291667;
92;;;;;;;;;;;;;;;;;;;;;;;;;;;;;;;;;;;;;;;;;;;;;;;;;;;;;;;;;;;;;;;;;;;;;;;;;;;;;;;;;;;;;;;;;;;;1,000000;0,243247;0,000000;0,000000;0,000000;0,247421;0,321264;0,321264;0,284913;0,000000;0,750179;0,750179;0,750179;0,750179;0,750179;0,218247;0,218247;0,218247;0,218247;0,284913;0,284913;0,284913;0,368247;0,000000;0,000000;0,618247;0,000000;0,000000;0,000000;0,284913;0,284913;0,284913;0,000000;0,000000;0,000000;0,000000;0,201580;0,201580;0,201580;0,201580;0,201580;0,201580;0,243247;
93;;;;;;;;;;;;;;;;;;;;;;;;;;;;;;;;;;;;;;;;;;;;;;;;;;;;;;;;;;;;;;;;;;;;;;;;;;;;;;;;;;;;;;;;;;;;;1,000000;0,000000;0,000000;0,000000;0,254175;0,328017;0,328017;0,583333;0,000000;0,208333;0,208333;0,208333;0,208333;0,208333;0,225000;0,225000;0,225000;0,225000;0,291667;0,291667;0,291667;0,375000;0,000000;0,000000;0,625000;0,000000;0,000000;0,000000;0,291667;0,291667;0,291667;0,000000;0,000000;0,000000;0,000000;0,208333;0,208333;0,208333;0,208333;0,208333;0,208333;0,250000;
94;;;;;;;;;;;;;;;;;;;;;;;;;;;;;;;;;;;;;;;;;;;;;;;;;;;;;;;;;;;;;;;;;;;;;;;;;;;;;;;;;;;;;;;;;;;;;;1,000000;0,714069;0,714069;0,000000;0,000000;0,000000;0,000000;0,310952;0,000000;0,000000;0,000000;0,000000;0,000000;0,000000;0,000000;0,000000;0,000000;0,000000;0,000000;0,000000;0,000000;0,000000;0,000000;0,000000;0,807855;0,644285;0,644285;0,000000;0,000000;0,000000;0,644285;0,644285;0,394285;0,394285;0,000000;0,000000;0,000000;0,000000;0,000000;0,000000;0,000000;
95;;;;;;;;;;;;;;;;;;;;;;;;;;;;;;;;;;;;;;;;;;;;;;;;;;;;;;;;;;;;;;;;;;;;;;;;;;;;;;;;;;;;;;;;;;;;;;;1,000000;0,714069;0,000000;0,000000;0,000000;0,000000;0,310952;0,000000;0,000000;0,000000;0,000000;0,000000;0,000000;0,000000;0,000000;0,000000;0,000000;0,000000;0,000000;0,000000;0,000000;0,000000;0,000000;0,807855;0,644285;0,644285;0,000000;0,000000;0,000000;0,644285;0,644285;0,394285;0,394285;0,000000;0,000000;0,000000;0,000000;0,000000;0,000000;0,000000;
96;;;;;;;;;;;;;;;;;;;;;;;;;;;;;;;;;;;;;;;;;;;;;;;;;;;;;;;;;;;;;;;;;;;;;;;;;;;;;;;;;;;;;;;;;;;;;;;;1,000000;0,000000;0,000000;0,000000;0,000000;0,310952;0,000000;0,000000;0,000000;0,000000;0,000000;0,000000;0,000000;0,000000;0,000000;0,000000;0,000000;0,000000;0,000000;0,000000;0,000000;0,000000;0,807855;0,644285;0,644285;0,000000;0,000000;0,000000;0,644285;0,644285;0,394285;0,394285;0,000000;0,000000;0,000000;0,000000;0,000000;0,000000;0,000000;
97;;;;;;;;;;;;;;;;;;;;;;;;;;;;;;;;;;;;;;;;;;;;;;;;;;;;;;;;;;;;;;;;;;;;;;;;;;;;;;;;;;;;;;;;;;;;;;;;;1,000000;0,616350;0,616350;0,519830;0,000000;0,212508;0,212508;0,212508;0,212508;0,212508;0,229175;0,229175;0,229175;0,229175;0,295841;0,519830;0,519830;0,379175;0,000000;0,000000;0,629175;0,000000;0,000000;0,000000;0,295841;0,295841;0,295841;0,000000;0,000000;0,000000;0,000000;0,212508;0,212508;0,212508;0,212508;0,212508;0,212508;0,254175;
98;;;;;;;;;;;;;;;;;;;;;;;;;;;;;;;;;;;;;;;;;;;;;;;;;;;;;;;;;;;;;;;;;;;;;;;;;;;;;;;;;;;;;;;;;;;;;;;;;;1,000000;0,599718;0,369684;0,000000;0,286351;0,286351;0,286351;0,286351;0,286351;0,303017;0,303017;0,303017;0,303017;0,369684;0,369684;0,369684;0,453017;0,000000;0,000000;0,703017;0,000000;0,000000;0,000000;0,369684;0,369684;0,369684;0,000000;0,000000;0,000000;0,000000;0,286351;0,286351;0,286351;0,286351;0,286351;0,286351;0,328017;
99;;;;;;;;;;;;;;;;;;;;;;;;;;;;;;;;;;;;;;;;;;;;;;;;;;;;;;;;;;;;;;;;;;;;;;;;;;;;;;;;;;;;;;;;;;;;;;;;;;;1,000000;0,369684;0,000000;0,286351;0,286351;0,286351;0,286351;0,286351;0,303017;0,303017;0,303017;0,303017;0,369684;0,369684;0,369684;0,453017;0,000000;0,000000;0,703017;0,000000;0,000000;0,000000;0,369684;0,369684;0,369684;0,000000;0,000000;0,000000;0,000000;0,286351;0,286351;0,286351;0,286351;0,286351;0,286351;0,328017;
100;;;;;;;;;;;;;;;;;;;;;;;;;;;;;;;;;;;;;;;;;;;;;;;;;;;;;;;;;;;;;;;;;;;;;;;;;;;;;;;;;;;;;;;;;;;;;;;;;;;;1,000000;0,000000;0,250000;0,250000;0,250000;0,250000;0,250000;0,266667;0,266667;0,266667;0,266667;0,333333;0,666667;0,666667;0,416667;0,000000;0,000000;0,666667;0,000000;0,000000;0,000000;0,333333;0,333333;0,333333;0,000000;0,000000;0,000000;0,000000;0,250000;0,250000;0,250000;0,250000;0,250000;0,250000;0,291667;
101;;;;;;;;;;;;;;;;;;;;;;;;;;;;;;;;;;;;;;;;;;;;;;;;;;;;;;;;;;;;;;;;;;;;;;;;;;;;;;;;;;;;;;;;;;;;;;;;;;;;;1,000000;0,000000;0,000000;0,000000;0,000000;0,000000;0,000000;0,000000;0,000000;0,000000;0,000000;0,000000;0,000000;0,000000;0,000000;0,000000;0,000000;0,291667;0,666667;0,666667;0,000000;0,000000;0,000000;0,666667;0,666667;0,416667;0,416667;0,000000;0,000000;0,000000;0,000000;0,000000;0,000000;0,000000;
102;;;;;;;;;;;;;;;;;;;;;;;;;;;;;;;;;;;;;;;;;;;;;;;;;;;;;;;;;;;;;;;;;;;;;;;;;;;;;;;;;;;;;;;;;;;;;;;;;;;;;;1,000000;0,833333;0,833333;0,833333;0,833333;0,183333;0,183333;0,183333;0,183333;0,250000;0,250000;0,250000;0,333333;0,000000;0,000000;0,583333;0,000000;0,000000;0,000000;0,250000;0,250000;0,250000;0,000000;0,000000;0,000000;0,000000;0,166667;0,166667;0,166667;0,166667;0,166667;0,166667;0,208333;
103;;;;;;;;;;;;;;;;;;;;;;;;;;;;;;;;;;;;;;;;;;;;;;;;;;;;;;;;;;;;;;;;;;;;;;;;;;;;;;;;;;;;;;;;;;;;;;;;;;;;;;;1,000000;0,833333;0,833333;0,833333;0,183333;0,183333;0,183333;0,183333;0,250000;0,250000;0,250000;0,333333;0,000000;0,000000;0,583333;0,000000;0,000000;0,000000;0,250000;0,250000;0,250000;0,000000;0,000000;0,000000;0,000000;0,166667;0,166667;0,166667;0,166667;0,166667;0,166667;0,208333;
104;;;;;;;;;;;;;;;;;;;;;;;;;;;;;;;;;;;;;;;;;;;;;;;;;;;;;;;;;;;;;;;;;;;;;;;;;;;;;;;;;;;;;;;;;;;;;;;;;;;;;;;;1,000000;0,833333;0,833333;0,183333;0,183333;0,183333;0,183333;0,250000;0,250000;0,250000;0,333333;0,000000;0,000000;0,583333;0,000000;0,000000;0,000000;0,250000;0,250000;0,250000;0,000000;0,000000;0,000000;0,000000;0,166667;0,166667;0,166667;0,166667;0,166667;0,166667;0,208333;
105;;;;;;;;;;;;;;;;;;;;;;;;;;;;;;;;;;;;;;;;;;;;;;;;;;;;;;;;;;;;;;;;;;;;;;;;;;;;;;;;;;;;;;;;;;;;;;;;;;;;;;;;;1,000000;0,833333;0,183333;0,183333;0,183333;0,183333;0,250000;0,250000;0,250000;0,333333;0,000000;0,000000;0,583333;0,000000;0,000000;0,000000;0,250000;0,250000;0,250000;0,000000;0,000000;0,000000;0,000000;0,166667;0,166667;0,166667;0,166667;0,166667;0,166667;0,208333;
106;;;;;;;;;;;;;;;;;;;;;;;;;;;;;;;;;;;;;;;;;;;;;;;;;;;;;;;;;;;;;;;;;;;;;;;;;;;;;;;;;;;;;;;;;;;;;;;;;;;;;;;;;;1,000000;0,183333;0,183333;0,183333;0,183333;0,250000;0,250000;0,250000;0,333333;0,000000;0,000000;0,583333;0,000000;0,000000;0,000000;0,250000;0,250000;0,250000;0,000000;0,000000;0,000000;0,000000;0,166667;0,166667;0,166667;0,166667;0,166667;0,166667;0,208333;
107;;;;;;;;;;;;;;;;;;;;;;;;;;;;;;;;;;;;;;;;;;;;;;;;;;;;;;;;;;;;;;;;;;;;;;;;;;;;;;;;;;;;;;;;;;;;;;;;;;;;;;;;;;;1,000000;0,800000;0,800000;0,800000;0,266667;0,266667;0,266667;0,350000;0,000000;0,000000;0,600000;0,000000;0,000000;0,000000;0,266667;0,266667;0,266667;0,000000;0,000000;0,000000;0,000000;0,183333;0,183333;0,183333;0,183333;0,183333;0,183333;0,225000;
108;;;;;;;;;;;;;;;;;;;;;;;;;;;;;;;;;;;;;;;;;;;;;;;;;;;;;;;;;;;;;;;;;;;;;;;;;;;;;;;;;;;;;;;;;;;;;;;;;;;;;;;;;;;;1,000000;0,800000;0,800000;0,266667;0,266667;0,266667;0,350000;0,000000;0,000000;0,600000;0,000000;0,000000;0,000000;0,266667;0,266667;0,266667;0,000000;0,000000;0,000000;0,000000;0,183333;0,183333;0,183333;0,183333;0,183333;0,183333;0,225000;
109;;;;;;;;;;;;;;;;;;;;;;;;;;;;;;;;;;;;;;;;;;;;;;;;;;;;;;;;;;;;;;;;;;;;;;;;;;;;;;;;;;;;;;;;;;;;;;;;;;;;;;;;;;;;;1,000000;0,800000;0,266667;0,266667;0,266667;0,350000;0,000000;0,000000;0,600000;0,000000;0,000000;0,000000;0,266667;0,266667;0,266667;0,000000;0,000000;0,000000;0,000000;0,183333;0,183333;0,183333;0,183333;0,183333;0,183333;0,225000;
110;;;;;;;;;;;;;;;;;;;;;;;;;;;;;;;;;;;;;;;;;;;;;;;;;;;;;;;;;;;;;;;;;;;;;;;;;;;;;;;;;;;;;;;;;;;;;;;;;;;;;;;;;;;;;;1,000000;0,266667;0,266667;0,266667;0,350000;0,000000;0,000000;0,600000;0,000000;0,000000;0,000000;0,266667;0,266667;0,266667;0,000000;0,000000;0,000000;0,000000;0,183333;0,183333;0,183333;0,183333;0,183333;0,183333;0,225000;
111;;;;;;;;;;;;;;;;;;;;;;;;;;;;;;;;;;;;;;;;;;;;;;;;;;;;;;;;;;;;;;;;;;;;;;;;;;;;;;;;;;;;;;;;;;;;;;;;;;;;;;;;;;;;;;;1,000000;0,333333;0,333333;0,416667;0,000000;0,000000;0,666667;0,000000;0,000000;0,000000;0,333333;0,333333;0,333333;0,000000;0,000000;0,000000;0,000000;0,250000;0,250000;0,250000;0,250000;0,250000;0,250000;0,583333;
112;;;;;;;;;;;;;;;;;;;;;;;;;;;;;;;;;;;;;;;;;;;;;;;;;;;;;;;;;;;;;;;;;;;;;;;;;;;;;;;;;;;;;;;;;;;;;;;;;;;;;;;;;;;;;;;;1,000000;0,666667;0,416667;0,000000;0,000000;0,666667;0,000000;0,000000;0,000000;0,333333;0,333333;0,333333;0,000000;0,000000;0,000000;0,000000;0,250000;0,250000;0,250000;0,250000;0,250000;0,250000;0,291667;
113;;;;;;;;;;;;;;;;;;;;;;;;;;;;;;;;;;;;;;;;;;;;;;;;;;;;;;;;;;;;;;;;;;;;;;;;;;;;;;;;;;;;;;;;;;;;;;;;;;;;;;;;;;;;;;;;;1,000000;0,416667;0,000000;0,000000;0,666667;0,000000;0,000000;0,000000;0,333333;0,333333;0,333333;0,000000;0,000000;0,000000;0,000000;0,250000;0,250000;0,250000;0,250000;0,250000;0,250000;0,291667;
114;;;;;;;;;;;;;;;;;;;;;;;;;;;;;;;;;;;;;;;;;;;;;;;;;;;;;;;;;;;;;;;;;;;;;;;;;;;;;;;;;;;;;;;;;;;;;;;;;;;;;;;;;;;;;;;;;;1,000000;0,000000;0,000000;0,750000;0,000000;0,000000;0,000000;0,416667;0,416667;0,416667;0,000000;0,000000;0,000000;0,000000;0,333333;0,333333;0,333333;0,333333;0,333333;0,333333;0,375000;
115;;;;;;;;;;;;;;;;;;;;;;;;;;;;;;;;;;;;;;;;;;;;;;;;;;;;;;;;;;;;;;;;;;;;;;;;;;;;;;;;;;;;;;;;;;;;;;;;;;;;;;;;;;;;;;;;;;;1,000000;0,000000;0,000000;0,000000;0,000000;0,000000;0,000000;0,000000;0,000000;0,000000;0,000000;0,000000;0,000000;0,000000;0,000000;0,000000;0,000000;0,000000;0,000000;0,000000;
116;;;;;;;;;;;;;;;;;;;;;;;;;;;;;;;;;;;;;;;;;;;;;;;;;;;;;;;;;;;;;;;;;;;;;;;;;;;;;;;;;;;;;;;;;;;;;;;;;;;;;;;;;;;;;;;;;;;;1,000000;0,000000;0,000000;0,000000;0,000000;0,000000;0,000000;0,000000;0,000000;0,000000;0,000000;0,000000;0,000000;0,000000;0,000000;0,000000;0,000000;0,000000;0,000000;
117;;;;;;;;;;;;;;;;;;;;;;;;;;;;;;;;;;;;;;;;;;;;;;;;;;;;;;;;;;;;;;;;;;;;;;;;;;;;;;;;;;;;;;;;;;;;;;;;;;;;;;;;;;;;;;;;;;;;;1,000000;0,000000;0,000000;0,000000;0,666667;0,666667;0,666667;0,000000;0,000000;0,000000;0,000000;0,583333;0,583333;0,583333;0,583333;0,583333;0,583333;0,625000;
118;;;;;;;;;;;;;;;;;;;;;;;;;;;;;;;;;;;;;;;;;;;;;;;;;;;;;;;;;;;;;;;;;;;;;;;;;;;;;;;;;;;;;;;;;;;;;;;;;;;;;;;;;;;;;;;;;;;;;;1,000000;0,625000;0,625000;0,000000;0,000000;0,000000;0,625000;0,625000;0,375000;0,375000;0,000000;0,000000;0,000000;0,000000;0,000000;0,000000;0,000000;
119;;;;;;;;;;;;;;;;;;;;;;;;;;;;;;;;;;;;;;;;;;;;;;;;;;;;;;;;;;;;;;;;;;;;;;;;;;;;;;;;;;;;;;;;;;;;;;;;;;;;;;;;;;;;;;;;;;;;;;;1,000000;1,000000;0,000000;0,000000;0,000000;1,000000;1,000000;0,750000;0,750000;0,000000;0,000000;0,000000;0,000000;0,000000;0,000000;0,000000;
120;;;;;;;;;;;;;;;;;;;;;;;;;;;;;;;;;;;;;;;;;;;;;;;;;;;;;;;;;;;;;;;;;;;;;;;;;;;;;;;;;;;;;;;;;;;;;;;;;;;;;;;;;;;;;;;;;;;;;;;;1,000000;0,000000;0,000000;0,000000;1,000000;1,000000;0,750000;0,750000;0,000000;0,000000;0,000000;0,000000;0,000000;0,000000;0,000000;
121;;;;;;;;;;;;;;;;;;;;;;;;;;;;;;;;;;;;;;;;;;;;;;;;;;;;;;;;;;;;;;;;;;;;;;;;;;;;;;;;;;;;;;;;;;;;;;;;;;;;;;;;;;;;;;;;;;;;;;;;;1,000000;0,666667;0,666667;0,000000;0,000000;0,000000;0,000000;0,250000;0,250000;0,250000;0,250000;0,250000;0,250000;0,291667;
122;;;;;;;;;;;;;;;;;;;;;;;;;;;;;;;;;;;;;;;;;;;;;;;;;;;;;;;;;;;;;;;;;;;;;;;;;;;;;;;;;;;;;;;;;;;;;;;;;;;;;;;;;;;;;;;;;;;;;;;;;;1,000000;0,666667;0,000000;0,000000;0,000000;0,000000;0,250000;0,250000;0,250000;0,250000;0,250000;0,250000;0,291667;
123;;;;;;;;;;;;;;;;;;;;;;;;;;;;;;;;;;;;;;;;;;;;;;;;;;;;;;;;;;;;;;;;;;;;;;;;;;;;;;;;;;;;;;;;;;;;;;;;;;;;;;;;;;;;;;;;;;;;;;;;;;;1,000000;0,000000;0,000000;0,000000;0,000000;0,250000;0,250000;0,250000;0,250000;0,250000;0,250000;0,291667;
124;;;;;;;;;;;;;;;;;;;;;;;;;;;;;;;;;;;;;;;;;;;;;;;;;;;;;;;;;;;;;;;;;;;;;;;;;;;;;;;;;;;;;;;;;;;;;;;;;;;;;;;;;;;;;;;;;;;;;;;;;;;;1,000000;1,000000;0,750000;0,750000;0,000000;0,000000;0,000000;0,000000;0,000000;0,000000;0,000000;
125;;;;;;;;;;;;;;;;;;;;;;;;;;;;;;;;;;;;;;;;;;;;;;;;;;;;;;;;;;;;;;;;;;;;;;;;;;;;;;;;;;;;;;;;;;;;;;;;;;;;;;;;;;;;;;;;;;;;;;;;;;;;;1,000000;0,750000;0,750000;0,000000;0,000000;0,000000;0,000000;0,000000;0,000000;0,000000;
126;;;;;;;;;;;;;;;;;;;;;;;;;;;;;;;;;;;;;;;;;;;;;;;;;;;;;;;;;;;;;;;;;;;;;;;;;;;;;;;;;;;;;;;;;;;;;;;;;;;;;;;;;;;;;;;;;;;;;;;;;;;;;;1,000000;0,500000;0,000000;0,000000;0,000000;0,000000;0,000000;0,000000;0,000000;
127;;;;;;;;;;;;;;;;;;;;;;;;;;;;;;;;;;;;;;;;;;;;;;;;;;;;;;;;;;;;;;;;;;;;;;;;;;;;;;;;;;;;;;;;;;;;;;;;;;;;;;;;;;;;;;;;;;;;;;;;;;;;;;;1,000000;0,000000;0,000000;0,000000;0,000000;0,000000;0,000000;0,000000;
128;;;;;;;;;;;;;;;;;;;;;;;;;;;;;;;;;;;;;;;;;;;;;;;;;;;;;;;;;;;;;;;;;;;;;;;;;;;;;;;;;;;;;;;;;;;;;;;;;;;;;;;;;;;;;;;;;;;;;;;;;;;;;;;;1,000000;0,833333;0,833333;0,833333;0,833333;0,833333;0,208333;
129;;;;;;;;;;;;;;;;;;;;;;;;;;;;;;;;;;;;;;;;;;;;;;;;;;;;;;;;;;;;;;;;;;;;;;;;;;;;;;;;;;;;;;;;;;;;;;;;;;;;;;;;;;;;;;;;;;;;;;;;;;;;;;;;;1,000000;0,833333;0,833333;0,833333;0,833333;0,208333;
130;;;;;;;;;;;;;;;;;;;;;;;;;;;;;;;;;;;;;;;;;;;;;;;;;;;;;;;;;;;;;;;;;;;;;;;;;;;;;;;;;;;;;;;;;;;;;;;;;;;;;;;;;;;;;;;;;;;;;;;;;;;;;;;;;;1,000000;0,833333;0,833333;0,833333;0,208333;
131;;;;;;;;;;;;;;;;;;;;;;;;;;;;;;;;;;;;;;;;;;;;;;;;;;;;;;;;;;;;;;;;;;;;;;;;;;;;;;;;;;;;;;;;;;;;;;;;;;;;;;;;;;;;;;;;;;;;;;;;;;;;;;;;;;;1,000000;0,833333;0,833333;0,208333;
132;;;;;;;;;;;;;;;;;;;;;;;;;;;;;;;;;;;;;;;;;;;;;;;;;;;;;;;;;;;;;;;;;;;;;;;;;;;;;;;;;;;;;;;;;;;;;;;;;;;;;;;;;;;;;;;;;;;;;;;;;;;;;;;;;;;;1,000000;0,833333;0,208333;
133;;;;;;;;;;;;;;;;;;;;;;;;;;;;;;;;;;;;;;;;;;;;;;;;;;;;;;;;;;;;;;;;;;;;;;;;;;;;;;;;;;;;;;;;;;;;;;;;;;;;;;;;;;;;;;;;;;;;;;;;;;;;;;;;;;;;;1,000000;0,208333;
134;;;;;;;;;;;;;;;;;;;;;;;;;;;;;;;;;;;;;;;;;;;;;;;;;;;;;;;;;;;;;;;;;;;;;;;;;;;;;;;;;;;;;;;;;;;;;;;;;;;;;;;;;;;;;;;;;;;;;;;;;;;;;;;;;;;;;;1,000000;
