;1; 2; 3; 4; 5; 6; 7; 8; 9; 10; 11; 12; 13; 14; 15; 16; 17; 18; 19; 20; 21; 22; 23; 24; 25; 26; 27; 28; 29; 30; 31; 32; 33; 34; 35; 36; 37; 38; 39; 40; 41; 42; 43; 44; 45; 46; 47; 48; 49; 50; 51; 52; 53; 54; 55; 56; 57; 58; 59; 60; 61; 62; 63; 64; 65; 66; 67; 68; 69; 70; 71; 72; 73; 74; 75; 76; 77; 78; 79; 80; 81; 82; 83; 84; 85; 86; 87; 88; 89; 90; 91; 92; 93; 94; 95; 96; 97; 98; 99; 100; 101; 102; 103; 104; 105; 106; 107; 108; 109; 110; 111; 112; 113; 114; 115; 116; 117; 118; 119; 120; 121; 122; 123; 124; 125; 126; 127; 128; 129; 130; 131; 132; 133; 134; 135; 136; 137; 138; 139
1;1,000000;0,342125;0,257078;0,750000;0,401367;0,416667;0,368912;0,375000;0,375000;0,268136;0,000000;0,000000;0,326951;0,287687;0,458333;0,467840;0,500000;0,425902;0,403456;0,433752;0,416667;0,443131;0,500000;0,500000;0,641923;0,382213;0,390202;0,388989;0,429322;0,346579;0,335612;0,350000;0,350000;0,361863;0,375000;0,500000;0,500000;0,425000;0,350838;0,295723;0,350000;0,295723;0,291755;0,327461;0,375000;0,000000;0,000000;0,000000;0,500000;0,500000;0,000000;0,000000;0,312067;0,275630;0,000000;0,500000;0,500000;0,500000;0,500000;0,000000;0,453017;0,375000;0,375000;0,500000;0,411749;0,583333;0,000000;0,000000;0,348433;0,375000;0,309853;0,000000;0,000000;0,500000;0,500000;0,416667;0,416667;0,416667;0,416667;0,500000;0,500000;0,000000;0,000000;0,000000;0,000000;0,425000;0,375000;0,375000;0,416667;0,416667;0,000000;0,350000;0,350000;0,375000;0,375000;0,350000;0,350000;0,350000;0,350000;0,000000;0,000000;0,000000;0,000000;0,416667;0,370225;0,750000;0,406250;0,750000;0,370503;0,500000;0,350000;0,350000;0,416667;0,500000;0,500000;0,500000;0,375000;0,000000;0,000000;0,000000;0,750000;0,375000;0,416667;0,500000;0,750000;0,750000;0,000000;0,000000;0,000000;0,000000;0,000000;0,000000;0,583333;0,375000;0,000000;0,416667;0,500000;0,000000;0,000000;
2;;1,000000;0,236142;0,592125;0,243492;0,258792;0,304069;0,217125;0,217125;0,280424;0,143101;0,143101;0,298498;0,267377;0,300458;0,309965;0,342125;0,480845;0,245582;0,275877;0,258792;0,285256;0,342125;0,653764;0,618571;0,334044;0,232327;0,347024;0,271447;0,289325;0,282337;0,192125;0,192125;0,203989;0,217125;0,342125;0,342125;0,267125;0,324812;0,267377;0,192125;0,267377;0,363741;0,284232;0,217125;0,293101;0,199472;0,143101;0,342125;0,342125;0,543101;0,427623;0,370746;0,423201;0,168101;0,342125;0,342125;0,342125;0,342125;0,293101;0,559799;0,217125;0,217125;0,342125;0,417377;0,425458;0,168101;0,168101;0,292377;0,217125;0,292377;0,168101;0,168101;0,342125;0,342125;0,258792;0,258792;0,258792;0,258792;0,342125;0,342125;0,143101;0,143101;0,143101;0,143101;0,267125;0,217125;0,217125;0,258792;0,258792;0,293101;0,192125;0,192125;0,217125;0,217125;0,192125;0,192125;0,192125;0,192125;0,427623;0,500325;0,168101;0,168101;0,258792;0,212350;0,592125;0,248375;0,592125;0,558672;0,342125;0,192125;0,192125;0,258792;0,342125;0,342125;0,342125;0,217125;0,293101;0,293101;0,293101;0,592125;0,217125;0,487098;0,342125;0,592125;0,592125;0,000000;0,000000;0,000000;0,294290;0,294290;0,294290;0,425458;0,523320;0,594290;0,258792;0,342125;0,000000;0,000000;
3;;;1,000000;0,000000;0,438241;0,405930;0,576026;0,450293;0,450293;0,435703;0,358306;0,358306;0,357044;0,371374;0,339300;0,359807;0,266570;0,284254;0,442015;0,415903;0,405930;0,428565;0,270843;0,261902;0,270311;0,384822;0,432497;0,412071;0,445488;0,445762;0,474265;0,476519;0,476519;0,534800;0,434718;0,265862;0,265862;0,411316;0,325115;0,373541;0,420432;0,373541;0,317227;0,391804;0,419348;0,000000;0,000000;0,420432;0,263516;0,263516;0,000000;0,169745;0,178991;0,316929;0,446399;0,273990;0,266245;0,263512;0,263512;0,217136;0,319439;0,444178;0,454169;0,260666;0,258678;0,217778;0,265984;0,265984;0,436796;0,442587;0,290637;0,258052;0,258052;0,266570;0,266570;0,357769;0,357769;0,395087;0,372898;0,263504;0,263504;0,000000;0,000000;0,000000;0,000000;0,375583;0,436855;0,436855;0,359135;0,359135;0,260666;0,461177;0,461177;0,415140;0,415140;0,420034;0,420034;0,420034;0,420034;0,000000;0,000000;0,309767;0,309767;0,368491;0,477890;0,000000;0,384937;0,000000;0,231831;0,255400;0,475361;0,475361;0,363933;0,260666;0,263596;0,276223;0,446399;0,000000;0,000000;0,000000;0,000000;0,438049;0,355661;0,273990;0,000000;0,000000;0,000000;0,000000;0,000000;0,116570;0,116570;0,116570;0,232684;0,268811;0,261902;0,354692;0,266570;0,000000;0,000000;
4;;;;1,000000;0,651367;0,666667;0,618912;0,625000;0,625000;0,000000;0,000000;0,000000;0,576951;0,537687;0,708333;0,717840;0,750000;0,675902;0,653456;0,683752;0,666667;0,693131;0,750000;0,750000;0,617437;0,632213;0,640202;0,638989;0,679322;0,596579;0,585612;0,600000;0,600000;0,611863;0,625000;0,750000;0,750000;0,675000;0,600838;0,545723;0,600000;0,545723;0,541755;0,577461;0,625000;0,000000;0,000000;0,000000;0,750000;0,750000;0,000000;0,000000;0,000000;0,525630;0,000000;0,750000;0,750000;0,750000;0,750000;0,000000;0,703017;0,625000;0,625000;0,750000;0,661749;0,833333;0,000000;0,000000;0,598433;0,625000;0,559853;0,000000;0,000000;0,750000;0,750000;0,666667;0,666667;0,666667;0,666667;0,750000;0,750000;0,000000;0,000000;0,000000;0,000000;0,675000;0,625000;0,625000;0,666667;0,666667;0,000000;0,600000;0,600000;0,625000;0,625000;0,600000;0,600000;0,600000;0,600000;0,000000;0,000000;0,000000;0,000000;0,666667;0,620225;1,000000;0,656250;1,000000;0,620503;0,750000;0,600000;0,600000;0,666667;0,750000;0,750000;0,750000;0,625000;0,000000;0,000000;0,000000;1,000000;0,625000;0,666667;0,750000;1,000000;1,000000;0,000000;0,000000;0,000000;0,000000;0,000000;0,000000;0,833333;0,000000;0,000000;0,666667;0,750000;0,000000;0,000000;
5;;;;;1,000000;0,636067;0,551685;0,693665;0,693665;0,213530;0,251367;0,251367;0,525488;0,448723;0,359700;0,369207;0,401367;0,327269;0,681436;0,688182;0,636067;0,522875;0,401367;0,401367;0,268804;0,283579;0,291569;0,290356;0,501707;0,523020;0,482559;0,502733;0,502733;0,468688;0,276367;0,401367;0,401367;0,552733;0,252205;0,197089;0,251367;0,197089;0,193122;0,228828;0,276367;0,000000;0,000000;0,000000;0,401367;0,401367;0,000000;0,000000;0,000000;0,176996;0,276367;0,401367;0,401367;0,401367;0,401367;0,000000;0,354384;0,552733;0,669680;0,401367;0,313116;0,484700;0,000000;0,000000;0,679213;0,709163;0,427616;0,000000;0,000000;0,401367;0,401367;0,318033;0,318033;0,636067;0,318033;0,401367;0,401367;0,000000;0,000000;0,000000;0,000000;0,552733;0,552733;0,552733;0,318033;0,318033;0,000000;0,502733;0,502733;0,276367;0,276367;0,251367;0,251367;0,251367;0,251367;0,000000;0,000000;0,434396;0,434396;0,318033;0,508612;0,651367;0,307617;0,651367;0,271870;0,401367;0,502733;0,502733;0,318033;0,401367;0,401367;0,401367;0,552733;0,000000;0,000000;0,000000;0,651367;0,552733;0,318033;0,401367;0,651367;0,651367;0,000000;0,000000;0,000000;0,000000;0,000000;0,000000;0,484700;0,000000;0,000000;0,318033;0,401367;0,000000;0,000000;
6;;;;;;1,000000;0,502162;0,875000;0,875000;0,186911;0,266667;0,266667;0,556088;0,479323;0,375000;0,384507;0,416667;0,342569;0,938604;0,563610;1,000000;0,553475;0,416667;0,416667;0,284104;0,298879;0,306869;0,305656;0,532307;0,553620;0,513159;0,533333;0,533333;0,499288;0,291667;0,416667;0,416667;0,583333;0,267505;0,212389;0,266667;0,212389;0,208422;0,244128;0,291667;0,000000;0,000000;0,000000;0,416667;0,416667;0,000000;0,000000;0,000000;0,192296;0,291667;0,416667;0,416667;0,416667;0,416667;0,000000;0,369684;0,583333;0,583333;0,416667;0,328416;0,500000;0,000000;0,000000;0,772895;0,583333;0,458216;0,000000;0,000000;0,416667;0,416667;0,333333;0,333333;0,666667;0,333333;0,416667;0,416667;0,000000;0,000000;0,000000;0,000000;0,583333;0,583333;0,583333;0,333333;0,333333;0,000000;0,533333;0,533333;0,291667;0,291667;0,266667;0,266667;0,266667;0,266667;0,000000;0,000000;0,291667;0,291667;0,333333;0,539212;0,666667;0,322917;0,666667;0,287170;0,416667;0,533333;0,533333;0,333333;0,416667;0,416667;0,416667;0,583333;0,000000;0,000000;0,000000;0,666667;0,583333;0,333333;0,416667;0,666667;0,666667;0,000000;0,000000;0,000000;0,000000;0,000000;0,000000;0,500000;0,000000;0,000000;0,333333;0,416667;0,000000;0,000000;
7;;;;;;;1,000000;0,549504;0,549504;0,292564;0,456312;0,456312;0,549742;0,579905;0,327246;0,336752;0,368912;0,334112;0,543794;0,495796;0,502162;0,453587;0,624067;0,368912;0,332974;0,303358;0,296897;0,338284;0,530193;0,595229;0,598869;0,583607;0,583607;0,517209;0,298250;0,368912;0,368912;0,552621;0,294126;0,236692;0,218912;0,236692;0,363611;0,306432;0,651053;0,262374;0,168744;0,112374;0,368912;0,368912;0,512374;0,179040;0,165714;0,308590;0,444418;0,624043;0,625046;0,368912;0,368912;0,262374;0,321930;0,538826;0,561147;0,368912;0,386692;0,452246;0,137374;0,137374;0,639405;0,534262;0,404163;0,272994;0,272994;0,368912;0,368912;0,285579;0,285579;0,482067;0,285579;0,368912;0,368912;0,112374;0,112374;0,112374;0,112374;0,462161;0,505274;0,505274;0,457401;0,457401;0,262374;0,557413;0,557413;0,243912;0,243912;0,218912;0,218912;0,218912;0,218912;0,179040;0,215391;0,423696;0,423696;0,637818;0,546689;0,618912;0,353035;0,618912;0,527986;0,368912;0,554477;0,554477;0,457376;0,368912;0,368912;0,368912;0,547958;0,262374;0,262374;0,262374;0,618912;0,513826;0,285579;0,624043;0,618912;0,618912;0,000000;0,000000;0,000000;0,112374;0,112374;0,112374;0,452246;0,137374;0,262374;0,458379;0,368912;0,000000;0,000000;
8;;;;;;;;1,000000;0,750000;0,145245;0,225000;0,225000;0,472755;0,395990;0,333333;0,342840;0,375000;0,300902;0,813604;0,480277;0,875000;0,470142;0,375000;0,375000;0,242437;0,257213;0,265202;0,263989;0,448974;0,470287;0,429826;0,450000;0,450000;0,415955;0,250000;0,375000;0,375000;0,500000;0,225838;0,170723;0,225000;0,170723;0,166755;0,202461;0,250000;0,000000;0,000000;0,000000;0,375000;0,375000;0,000000;0,000000;0,000000;0,150630;0,250000;0,375000;0,375000;0,375000;0,375000;0,000000;0,328017;0,500000;0,500000;0,375000;0,286749;0,458333;0,000000;0,000000;0,647895;0,500000;0,374882;0,000000;0,000000;0,375000;0,375000;0,291667;0,291667;0,583333;0,291667;0,375000;0,375000;0,000000;0,000000;0,000000;0,000000;0,500000;0,500000;0,500000;0,291667;0,291667;0,000000;0,450000;0,450000;0,250000;0,250000;0,225000;0,225000;0,225000;0,225000;0,000000;0,000000;0,250000;0,250000;0,291667;0,455879;0,625000;0,281250;0,625000;0,245503;0,375000;0,450000;0,450000;0,291667;0,375000;0,375000;0,375000;0,500000;0,000000;0,000000;0,000000;0,625000;0,500000;0,291667;0,375000;0,625000;0,625000;0,000000;0,000000;0,000000;0,000000;0,000000;0,000000;0,458333;0,000000;0,000000;0,291667;0,375000;0,000000;0,000000;
9;;;;;;;;;1,000000;0,145245;0,225000;0,225000;0,472755;0,395990;0,333333;0,342840;0,375000;0,300902;0,813604;0,480277;0,875000;0,470142;0,375000;0,375000;0,242437;0,257213;0,265202;0,263989;0,448974;0,470287;0,429826;0,450000;0,450000;0,415955;0,250000;0,375000;0,375000;0,500000;0,225838;0,170723;0,225000;0,170723;0,166755;0,202461;0,250000;0,000000;0,000000;0,000000;0,375000;0,375000;0,000000;0,000000;0,000000;0,150630;0,250000;0,375000;0,375000;0,375000;0,375000;0,000000;0,328017;0,500000;0,500000;0,375000;0,286749;0,458333;0,000000;0,000000;0,647895;0,500000;0,374882;0,000000;0,000000;0,375000;0,375000;0,291667;0,291667;0,583333;0,291667;0,375000;0,375000;0,000000;0,000000;0,000000;0,000000;0,500000;0,500000;0,500000;0,291667;0,291667;0,000000;0,450000;0,450000;0,250000;0,250000;0,225000;0,225000;0,225000;0,225000;0,000000;0,000000;0,250000;0,250000;0,291667;0,455879;0,625000;0,281250;0,625000;0,245503;0,375000;0,450000;0,450000;0,291667;0,375000;0,375000;0,375000;0,500000;0,000000;0,000000;0,000000;0,625000;0,500000;0,291667;0,375000;0,625000;0,625000;0,000000;0,000000;0,000000;0,000000;0,000000;0,000000;0,458333;0,000000;0,000000;0,291667;0,375000;0,000000;0,000000;
10;;;;;;;;;;1,000000;0,448089;0,448089;0,347740;0,358522;0,000000;0,000000;0,260156;0,316071;0,224826;0,173117;0,186911;0,045079;0,000000;0,276207;0,331599;0,350246;0,206759;0,234330;0,119979;0,265932;0,253205;0,338719;0,338719;0,164676;0,146510;0,000000;0,000000;0,093848;0,446169;0,447699;0,493731;0,447699;0,394375;0,400275;0,136660;0,287279;0,475931;0,493731;0,000000;0,000000;0,000000;0,414400;0,520532;0,484592;0,413719;0,000000;0,000000;0,000000;0,000000;0,342274;0,229224;0,279015;0,287762;0,269777;0,237843;0,000000;0,444831;0,444831;0,228586;0,279134;0,401274;0,444107;0,444107;0,260156;0,260156;0,000000;0,000000;0,362348;0,188177;0,000000;0,000000;0,504479;0,504479;0,504479;0,504479;0,100851;0,145245;0,145245;0,000000;0,000000;0,269777;0,337602;0,337602;0,000000;0,000000;0,136237;0,136237;0,136237;0,136237;0,419792;0,373253;0,414728;0,414728;0,000000;0,161930;0,000000;0,124188;0,000000;0,000000;0,289535;0,120245;0,120245;0,179448;0,269777;0,000000;0,000000;0,413719;0,295332;0,295332;0,312192;0,000000;0,286423;0,192873;0,000000;0,000000;0,000000;0,000000;0,000000;0,000000;0,488888;0,488888;0,488888;0,000000;0,462857;0,276207;0,225888;0,260156;0,000000;0,000000;
11;;;;;;;;;;;1,000000;0,800000;0,690529;0,700981;0,000000;0,000000;0,000000;0,129479;0,253456;0,144207;0,266667;0,124834;0,000000;0,000000;0,177064;0,127145;0,000000;0,132246;0,119597;0,342530;0,314696;0,200000;0,200000;0,152282;0,000000;0,000000;0,000000;0,173603;0,149932;0,151896;0,000000;0,151896;0,249363;0,138419;0,000000;0,350000;0,256371;0,200000;0,000000;0,000000;0,600000;0,266667;0,253340;0,205355;0,450000;0,000000;0,000000;0,000000;0,000000;0,350000;0,000000;0,225000;0,225000;0,000000;0,192390;0,000000;0,225000;0,225000;0,350182;0,225000;0,325000;0,225000;0,225000;0,000000;0,000000;0,000000;0,000000;0,266667;0,000000;0,000000;0,000000;0,200000;0,200000;0,200000;0,200000;0,180607;0,225000;0,225000;0,000000;0,000000;0,350000;0,600000;0,600000;0,000000;0,000000;0,000000;0,000000;0,000000;0,000000;0,266667;0,303017;0,450000;0,450000;0,000000;0,187969;0,000000;0,000000;0,000000;0,379222;0,000000;0,200000;0,200000;0,000000;0,000000;0,000000;0,000000;0,225000;0,350000;0,350000;0,350000;0,000000;0,225000;0,000000;0,000000;0,000000;0,000000;0,000000;0,000000;0,000000;0,200000;0,200000;0,200000;0,000000;0,225000;0,350000;0,000000;0,000000;0,000000;0,000000;
12;;;;;;;;;;;;1,000000;0,690529;0,700981;0,000000;0,000000;0,000000;0,129479;0,253456;0,144207;0,266667;0,124834;0,000000;0,000000;0,177064;0,127145;0,000000;0,132246;0,119597;0,342530;0,314696;0,200000;0,200000;0,152282;0,000000;0,000000;0,000000;0,173603;0,149932;0,151896;0,000000;0,151896;0,249363;0,138419;0,000000;0,350000;0,256371;0,200000;0,000000;0,000000;0,600000;0,266667;0,253340;0,205355;0,450000;0,000000;0,000000;0,000000;0,000000;0,350000;0,000000;0,225000;0,225000;0,000000;0,192390;0,000000;0,225000;0,225000;0,350182;0,225000;0,325000;0,225000;0,225000;0,000000;0,000000;0,000000;0,000000;0,266667;0,000000;0,000000;0,000000;0,200000;0,200000;0,200000;0,200000;0,180607;0,225000;0,225000;0,000000;0,000000;0,350000;0,600000;0,600000;0,000000;0,000000;0,000000;0,000000;0,000000;0,000000;0,266667;0,303017;0,450000;0,450000;0,000000;0,187969;0,000000;0,000000;0,000000;0,379222;0,000000;0,200000;0,200000;0,000000;0,000000;0,000000;0,000000;0,225000;0,350000;0,350000;0,350000;0,000000;0,225000;0,000000;0,000000;0,000000;0,000000;0,000000;0,000000;0,000000;0,200000;0,200000;0,200000;0,000000;0,225000;0,350000;0,000000;0,000000;0,000000;0,000000;
13;;;;;;;;;;;;;1,000000;0,818888;0,285284;0,294791;0,326951;0,328541;0,529668;0,453031;0,556088;0,442897;0,326951;0,326951;0,327404;0,297788;0,217153;0,310768;0,421729;0,508586;0,472363;0,422755;0,422755;0,388710;0,201951;0,326951;0,326951;0,472755;0,288556;0,231121;0,176951;0,231121;0,327485;0,247976;0,201951;0,285850;0,192221;0,135850;0,326951;0,326951;0,535850;0,202517;0,189190;0,260054;0,423232;0,326951;0,326951;0,326951;0,326951;0,285850;0,279968;0,472755;0,472755;0,326951;0,381121;0,410284;0,160850;0,160850;0,514803;0,472755;0,446714;0,160850;0,160850;0,326951;0,326951;0,243617;0,243617;0,556088;0,243617;0,326951;0,326951;0,135850;0,135850;0,135850;0,135850;0,472755;0,472755;0,472755;0,243617;0,243617;0,285850;0,731001;0,731001;0,201951;0,201951;0,176951;0,176951;0,176951;0,176951;0,202517;0,238867;0,423232;0,423232;0,243617;0,428634;0,576951;0,233201;0,576951;0,522416;0,326951;0,422755;0,422755;0,243617;0,326951;0,326951;0,326951;0,472755;0,285850;0,285850;0,285850;0,576951;0,472755;0,243617;0,326951;0,576951;0,576951;0,000000;0,000000;0,000000;0,135850;0,135850;0,135850;0,410284;0,160850;0,285850;0,243617;0,326951;0,000000;0,000000;
14;;;;;;;;;;;;;;1,000000;0,246020;0,255526;0,287687;0,297420;0,452903;0,376266;0,479323;0,366131;0,287687;0,287687;0,296282;0,266667;0,177889;0,279647;0,344963;0,443783;0,407560;0,345990;0,345990;0,311945;0,162687;0,287687;0,287687;0,395990;0,257435;0,200000;0,137687;0,200000;0,296364;0,216854;0,162687;0,302137;0,208507;0,152137;0,287687;0,287687;0,552137;0,218804;0,205477;0,228933;0,400227;0,287687;0,287687;0,287687;0,287687;0,302137;0,240704;0,395990;0,395990;0,287687;0,350000;0,371020;0,177137;0,177137;0,450000;0,395990;0,381911;0,177137;0,177137;0,287687;0,287687;0,204353;0,204353;0,479323;0,204353;0,287687;0,287687;0,152137;0,152137;0,152137;0,152137;0,395990;0,395990;0,395990;0,204353;0,204353;0,302137;0,691536;0,691536;0,162687;0,162687;0,137687;0,137687;0,137687;0,137687;0,218804;0,255154;0,400227;0,400227;0,204353;0,351869;0,537687;0,193937;0,537687;0,491295;0,287687;0,345990;0,345990;0,204353;0,287687;0,287687;0,287687;0,395990;0,302137;0,302137;0,302137;0,537687;0,395990;0,204353;0,287687;0,537687;0,537687;0,000000;0,000000;0,000000;0,152137;0,152137;0,152137;0,371020;0,177137;0,302137;0,204353;0,287687;0,000000;0,000000;
15;;;;;;;;;;;;;;;1,000000;0,593147;0,458333;0,384235;0,361790;0,392085;0,375000;0,401465;0,458333;0,458333;0,325770;0,340546;0,348535;0,347323;0,387655;0,304912;0,293945;0,308333;0,308333;0,320197;0,333333;0,458333;0,458333;0,383333;0,309172;0,254056;0,308333;0,254056;0,250088;0,285795;0,333333;0,000000;0,000000;0,000000;0,458333;0,458333;0,000000;0,000000;0,000000;0,233963;0,000000;0,458333;0,458333;0,458333;0,458333;0,000000;0,411351;0,333333;0,333333;0,458333;0,370082;0,541667;0,000000;0,000000;0,306766;0,333333;0,268187;0,000000;0,000000;0,458333;0,458333;0,697589;0,697589;0,375000;0,375000;0,458333;0,458333;0,000000;0,000000;0,000000;0,000000;0,383333;0,333333;0,333333;0,375000;0,375000;0,000000;0,308333;0,308333;0,781078;0,781078;0,308333;0,308333;0,308333;0,308333;0,000000;0,000000;0,000000;0,000000;0,375000;0,328559;0,708333;0,364583;0,708333;0,328837;0,458333;0,308333;0,308333;0,375000;0,458333;0,458333;0,458333;0,333333;0,000000;0,000000;0,000000;0,708333;0,333333;0,375000;0,458333;0,708333;0,708333;0,000000;0,000000;0,000000;0,000000;0,000000;0,000000;0,541667;0,000000;0,000000;0,375000;0,458333;0,000000;0,000000;
16;;;;;;;;;;;;;;;;1,000000;0,467840;0,393742;0,371296;0,401592;0,384507;0,410971;0,467840;0,467840;0,335277;0,350053;0,358042;0,356829;0,397162;0,314419;0,303452;0,317840;0,317840;0,329703;0,342840;0,467840;0,467840;0,392840;0,318678;0,263563;0,317840;0,263563;0,259595;0,295301;0,342840;0,000000;0,000000;0,000000;0,467840;0,467840;0,000000;0,000000;0,000000;0,243470;0,000000;0,467840;0,467840;0,467840;0,467840;0,000000;0,420857;0,342840;0,342840;0,467840;0,379589;0,851668;0,000000;0,000000;0,316272;0,342840;0,277693;0,000000;0,000000;0,467840;0,467840;0,594569;0,594569;0,384507;0,384507;0,467840;0,467840;0,000000;0,000000;0,000000;0,000000;0,392840;0,342840;0,342840;0,384507;0,384507;0,000000;0,317840;0,317840;0,763296;0,763296;0,317840;0,317840;0,317840;0,317840;0,000000;0,000000;0,000000;0,000000;0,384507;0,338065;0,717840;0,374090;0,717840;0,338343;0,467840;0,317840;0,317840;0,384507;0,467840;0,467840;0,467840;0,342840;0,000000;0,000000;0,000000;0,717840;0,342840;0,384507;0,467840;0,717840;0,717840;0,000000;0,000000;0,000000;0,000000;0,000000;0,000000;0,551173;0,000000;0,000000;0,384507;0,467840;0,000000;0,000000;
17;;;;;;;;;;;;;;;;;1,000000;0,425902;0,403456;0,433752;0,416667;0,443131;0,500000;0,500000;0,367437;0,382213;0,390202;0,388989;0,429322;0,346579;0,335612;0,350000;0,350000;0,361863;0,375000;0,500000;0,500000;0,425000;0,350838;0,295723;0,350000;0,295723;0,291755;0,327461;0,375000;0,000000;0,000000;0,000000;0,500000;0,500000;0,000000;0,000000;0,289546;0,275630;0,000000;0,500000;0,500000;0,500000;0,500000;0,000000;0,453017;0,375000;0,375000;0,500000;0,411749;0,583333;0,000000;0,000000;0,348433;0,375000;0,309853;0,000000;0,000000;1,000000;1,000000;0,416667;0,416667;0,416667;0,416667;0,500000;0,500000;0,000000;0,000000;0,000000;0,000000;0,425000;0,375000;0,375000;0,416667;0,416667;0,000000;0,350000;0,350000;0,375000;0,375000;0,350000;0,350000;0,350000;0,350000;0,000000;0,000000;0,000000;0,000000;0,416667;0,370225;0,750000;0,406250;0,750000;0,370503;0,500000;0,350000;0,350000;0,416667;0,500000;0,500000;0,500000;0,375000;0,000000;0,000000;0,000000;0,750000;0,375000;0,416667;0,500000;0,750000;0,750000;0,000000;0,000000;0,000000;0,350000;0,350000;0,350000;0,583333;0,000000;0,000000;0,416667;1,000000;0,000000;0,000000;
18;;;;;;;;;;;;;;;;;;1,000000;0,329359;0,359654;0,342569;0,369033;0,425902;0,425902;0,465088;0,364087;0,316104;0,377066;0,355224;0,319367;0,312380;0,275902;0,275902;0,287766;0,300902;0,425902;0,425902;0,350902;0,354855;0,297420;0,275902;0,297420;0,393784;0,314274;0,300902;0,279479;0,185849;0,129479;0,425902;0,425902;0,529479;0,398288;0,398113;0,404046;0,154479;0,425902;0,425902;0,425902;0,425902;0,279479;0,378919;0,300902;0,300902;0,425902;0,447420;0,509235;0,154479;0,154479;0,322420;0,300902;0,322420;0,154479;0,154479;0,425902;0,425902;0,342569;0,342569;0,342569;0,342569;0,425902;0,425902;0,129479;0,129479;0,129479;0,129479;0,350902;0,300902;0,300902;0,342569;0,342569;0,279479;0,275902;0,275902;0,300902;0,300902;0,275902;0,275902;0,275902;0,275902;0,398288;0,470989;0,154479;0,154479;0,342569;0,296127;0,675902;0,332152;0,675902;0,588714;0,425902;0,275902;0,275902;0,342569;0,425902;0,425902;0,425902;0,300902;0,279479;0,279479;0,279479;0,675902;0,300902;0,342569;0,425902;0,675902;0,675902;0,000000;0,000000;0,000000;0,548297;0,548297;0,548297;0,509235;0,314954;0,279479;0,342569;0,425902;0,000000;0,000000;
19;;;;;;;;;;;;;;;;;;;1,000000;0,537190;0,938604;0,583733;0,403456;0,403456;0,270893;0,285669;0,293659;0,292446;0,554198;0,527200;0,486739;0,506913;0,506913;0,472868;0,278456;0,403456;0,403456;0,556913;0,254295;0,199179;0,253456;0,199179;0,249944;0,230918;0,278456;0,000000;0,000000;0,000000;0,403456;0,403456;0,000000;0,000000;0,000000;0,179086;0,278456;0,403456;0,679256;0,403456;0,403456;0,000000;0,356474;0,556913;0,682790;0,403456;0,315206;0,486790;0,000000;0,000000;0,711499;0,722273;0,431795;0,000000;0,000000;0,403456;0,403456;0,320123;0,320123;0,640246;0,320123;0,403456;0,403456;0,000000;0,000000;0,000000;0,000000;0,556913;0,556913;0,556913;0,320123;0,320123;0,000000;0,506913;0,506913;0,278456;0,278456;0,253456;0,253456;0,253456;0,253456;0,000000;0,000000;0,445691;0,445691;0,320123;0,512792;0,653456;0,309706;0,653456;0,273960;0,403456;0,506913;0,506913;0,320123;0,403456;0,403456;0,403456;0,556913;0,000000;0,000000;0,000000;0,653456;0,556913;0,320123;0,403456;0,653456;0,653456;0,000000;0,000000;0,000000;0,000000;0,000000;0,000000;0,486790;0,000000;0,000000;0,512589;0,403456;0,000000;0,000000;
20;;;;;;;;;;;;;;;;;;;;1,000000;0,563610;0,556557;0,731650;0,433752;0,301189;0,315965;0,323954;0,322742;0,519702;0,450564;0,478039;0,430277;0,430277;0,471407;0,308752;0,433752;0,433752;0,826765;0,284591;0,368433;0,431579;0,368433;0,303032;0,456718;0,481508;0,000000;0,000000;0,154300;0,433752;0,433752;0,000000;0,000000;0,000000;0,209382;0,169207;0,731508;0,433752;0,433752;0,433752;0,265860;0,386770;0,480277;0,480277;0,433752;0,345501;0,517085;0,000000;0,000000;0,555069;0,480277;0,355159;0,000000;0,000000;0,433752;0,433752;0,350419;0,350419;0,563610;0,350419;0,433752;0,433752;0,000000;0,000000;0,000000;0,000000;0,480277;0,480277;0,480277;0,564984;0,564984;0,000000;0,430277;0,430277;0,308752;0,308752;0,283752;0,283752;0,283752;0,283752;0,000000;0,000000;0,169207;0,169207;0,564842;0,516736;0,683752;0,340002;0,683752;0,304255;0,433752;0,430277;0,430277;0,564842;0,433752;0,433752;0,433752;0,480277;0,000000;0,000000;0,000000;0,683752;0,480277;0,350419;0,731508;0,683752;0,683752;0,000000;0,000000;0,000000;0,000000;0,000000;0,000000;0,517085;0,000000;0,000000;0,564912;0,433752;0,000000;0,000000;
21;;;;;;;;;;;;;;;;;;;;;1,000000;0,553475;0,416667;0,416667;0,284104;0,298879;0,306869;0,305656;0,532307;0,553620;0,513159;0,533333;0,533333;0,499288;0,291667;0,416667;0,416667;0,583333;0,267505;0,212389;0,266667;0,212389;0,208422;0,244128;0,291667;0,000000;0,000000;0,000000;0,416667;0,416667;0,000000;0,000000;0,000000;0,192296;0,291667;0,416667;0,416667;0,416667;0,416667;0,000000;0,369684;0,583333;0,583333;0,416667;0,328416;0,500000;0,000000;0,000000;0,772895;0,583333;0,458216;0,000000;0,000000;0,416667;0,416667;0,333333;0,333333;0,666667;0,333333;0,416667;0,416667;0,000000;0,000000;0,000000;0,000000;0,583333;0,583333;0,583333;0,333333;0,333333;0,000000;0,533333;0,533333;0,291667;0,291667;0,266667;0,266667;0,266667;0,266667;0,000000;0,000000;0,291667;0,291667;0,333333;0,539212;0,666667;0,322917;0,666667;0,287170;0,416667;0,533333;0,533333;0,333333;0,416667;0,416667;0,416667;0,583333;0,000000;0,000000;0,000000;0,666667;0,583333;0,333333;0,416667;0,666667;0,666667;0,000000;0,000000;0,000000;0,000000;0,000000;0,000000;0,500000;0,000000;0,000000;0,333333;0,416667;0,000000;0,000000;
22;;;;;;;;;;;;;;;;;;;;;;1,000000;0,443131;0,443131;0,310568;0,325344;0,333333;0,332121;0,553365;0,440429;0,483698;0,420142;0,420142;0,477066;0,318131;0,443131;0,443131;0,705154;0,293970;0,238854;0,293131;0,238854;0,297037;0,380279;0,501922;0,000000;0,000000;0,000000;0,443131;0,443131;0,000000;0,000000;0,000000;0,218761;0,149834;0,751922;0,726349;0,443131;0,443131;0,000000;0,396149;0,470142;0,470142;0,443131;0,354880;0,526465;0,000000;0,000000;0,441771;0,470142;0,345024;0,000000;0,000000;0,443131;0,443131;0,359798;0,359798;0,553475;0,359798;0,443131;0,443131;0,000000;0,000000;0,000000;0,000000;0,470142;0,470142;0,470142;0,559850;0,559850;0,000000;0,420142;0,420142;0,318131;0,318131;0,293131;0,293131;0,293131;0,293131;0,000000;0,000000;0,149834;0,149834;0,585256;0,522394;0,693131;0,349381;0,693131;0,313634;0,443131;0,420142;0,420142;0,585256;0,443131;0,443131;0,443131;0,470142;0,000000;0,000000;0,000000;0,693131;0,470142;0,359798;0,751922;0,693131;0,693131;0,000000;0,000000;0,000000;0,000000;0,000000;0,000000;0,526465;0,000000;0,000000;0,559683;0,443131;0,000000;0,000000;
23;;;;;;;;;;;;;;;;;;;;;;;1,000000;0,500000;0,367437;0,382213;0,390202;0,388989;0,722693;0,346579;0,335612;0,350000;0,350000;0,361863;0,375000;0,500000;0,500000;0,750000;0,350838;0,295723;0,350000;0,295723;0,291755;0,327461;0,375000;0,000000;0,000000;0,000000;0,500000;0,500000;0,000000;0,000000;0,000000;0,275630;0,000000;0,500000;0,500000;0,500000;0,500000;0,000000;0,453017;0,375000;0,375000;0,500000;0,411749;0,583333;0,000000;0,000000;0,348433;0,375000;0,309853;0,000000;0,000000;0,500000;0,500000;0,416667;0,416667;0,416667;0,416667;0,500000;0,500000;0,000000;0,000000;0,000000;0,000000;0,425000;0,375000;0,375000;0,833333;0,833333;0,000000;0,350000;0,350000;0,375000;0,375000;0,350000;0,350000;0,350000;0,350000;0,000000;0,000000;0,000000;0,000000;0,416667;0,370225;0,750000;0,406250;0,750000;0,370503;0,500000;0,350000;0,350000;0,416667;0,500000;0,500000;0,500000;0,375000;0,000000;0,000000;0,000000;0,750000;0,375000;0,416667;0,500000;0,750000;0,750000;0,000000;0,000000;0,000000;0,000000;0,000000;0,000000;0,583333;0,000000;0,000000;0,416667;0,500000;0,000000;0,000000;
24;;;;;;;;;;;;;;;;;;;;;;;;1,000000;0,367437;0,382213;0,390202;0,388989;0,429322;0,346579;0,335612;0,350000;0,350000;0,361863;0,375000;0,500000;0,500000;0,425000;0,350838;0,295723;0,350000;0,295723;0,291755;0,327461;0,375000;0,000000;0,000000;0,000000;0,500000;0,500000;0,000000;0,000000;0,296570;0,275630;0,000000;0,500000;0,500000;0,500000;0,500000;0,000000;0,906035;0,375000;0,375000;0,500000;0,411749;0,583333;0,000000;0,000000;0,348433;0,375000;0,309853;0,000000;0,000000;0,500000;0,500000;0,416667;0,416667;0,416667;0,416667;0,500000;0,500000;0,000000;0,000000;0,000000;0,000000;0,425000;0,375000;0,375000;0,416667;0,416667;0,000000;0,350000;0,350000;0,375000;0,375000;0,350000;0,350000;0,350000;0,350000;0,000000;0,000000;0,000000;0,000000;0,416667;0,370225;0,750000;0,406250;0,750000;0,370503;0,500000;0,350000;0,350000;0,416667;0,500000;0,500000;0,500000;0,375000;0,000000;0,000000;0,000000;0,750000;0,375000;0,833333;0,500000;0,750000;0,750000;0,000000;0,000000;0,000000;0,000000;0,000000;0,000000;0,583333;0,375000;0,500000;0,416667;0,500000;0,000000;0,000000;
25;;;;;;;;;;;;;;;;;;;;;;;;;1,000000;0,362949;0,257639;0,375929;0,296759;0,318230;0,311242;0,217437;0,217437;0,229300;0,242437;0,367437;0,367437;0,292437;0,353717;0,296282;0,217437;0,296282;0,392646;0,313137;0,242437;0,327064;0,233434;0,177064;0,367437;0,367437;0,577064;0,448779;0,382337;0,407444;0,202064;0,367437;0,367437;0,367437;0,367437;0,327064;0,458342;0,242437;0,242437;0,367437;0,446282;0,450770;0,202064;0,202064;0,321282;0,242437;0,321282;0,202064;0,202064;0,367437;0,367437;0,284104;0,284104;0,284104;0,284104;0,367437;0,367437;0,177064;0,177064;0,177064;0,177064;0,292437;0,242437;0,242437;0,284104;0,284104;0,327064;0,217437;0,217437;0,242437;0,242437;0,217437;0,217437;0,217437;0,217437;0,448779;0,521481;0,202064;0,202064;0,284104;0,237662;0,617437;0,273687;0,617437;0,587577;0,367437;0,217437;0,217437;0,284104;0,367437;0,367437;0,367437;0,242437;0,327064;0,327064;0,327064;0,617437;0,242437;0,538507;0,367437;0,617437;0,617437;0,000000;0,000000;0,000000;0,315446;0,315446;0,315446;0,450770;0,534000;0,327064;0,284104;0,367437;0,000000;0,000000;
26;;;;;;;;;;;;;;;;;;;;;;;;;;1,000000;0,576481;0,652794;0,311534;0,288614;0,281627;0,232213;0,232213;0,505424;0,699256;0,382213;0,382213;0,307213;0,624261;0,266667;0,232213;0,266667;0,363030;0,283521;0,257213;0,277145;0,183516;0,127145;0,382213;0,382213;0,527145;0,193812;0,180486;0,475416;0,152145;0,382213;0,382213;0,382213;0,382213;0,277145;0,335230;0,257213;0,257213;0,382213;0,416667;0,465546;0,418282;0,418282;0,291667;0,257213;0,291667;0,152145;0,152145;0,382213;0,382213;0,298879;0,298879;0,298879;0,824256;0,382213;0,382213;0,127145;0,127145;0,127145;0,127145;0,307213;0,257213;0,257213;0,298879;0,298879;0,277145;0,232213;0,232213;0,257213;0,257213;0,232213;0,232213;0,232213;0,232213;0,193812;0,230162;0,152145;0,152145;0,298879;0,252438;0,632213;0,672383;0,632213;0,557961;0,382213;0,232213;0,232213;0,298879;0,382213;0,382213;0,382213;0,257213;0,277145;0,277145;0,277145;0,632213;0,257213;0,298879;0,382213;0,632213;0,632213;0,000000;0,000000;0,000000;0,127145;0,127145;0,127145;0,465546;0,152145;0,277145;0,298879;0,382213;0,000000;0,000000;
27;;;;;;;;;;;;;;;;;;;;;;;;;;;1,000000;0,674187;0,368547;0,236781;0,281061;0,240202;0,240202;0,542032;0,735606;0,390202;0,390202;0,315202;0,693943;0,185925;0,240202;0,185925;0,181957;0,217663;0,419135;0,000000;0,000000;0,000000;0,390202;0,390202;0,000000;0,000000;0,000000;0,165832;0,000000;0,390202;0,390202;0,390202;0,390202;0,000000;0,343220;0,265202;0,265202;0,390202;0,301951;0,473535;0,000000;0,000000;0,238635;0,265202;0,200055;0,000000;0,000000;0,390202;0,390202;0,306869;0,306869;0,306869;0,613738;0,390202;0,390202;0,000000;0,000000;0,000000;0,000000;0,483965;0,265202;0,265202;0,306869;0,306869;0,000000;0,240202;0,240202;0,265202;0,265202;0,240202;0,240202;0,240202;0,240202;0,000000;0,000000;0,000000;0,000000;0,306869;0,345538;0,640202;0,708840;0,640202;0,260705;0,390202;0,369135;0,369135;0,306869;0,390202;0,390202;0,390202;0,265202;0,000000;0,000000;0,000000;0,640202;0,265202;0,306869;0,390202;0,640202;0,640202;0,000000;0,000000;0,000000;0,000000;0,000000;0,000000;0,473535;0,000000;0,000000;0,306869;0,390202;0,000000;0,000000;
28;;;;;;;;;;;;;;;;;;;;;;;;;;;;1,000000;0,352170;0,301594;0,333386;0,238989;0,238989;0,434911;0,627523;0,388989;0,388989;0,313989;0,565731;0,279647;0,238989;0,279647;0,376010;0,296501;0,402758;0,282246;0,188617;0,132246;0,388989;0,388989;0,532246;0,198913;0,185587;0,425728;0,157246;0,388989;0,388989;0,388989;0,388989;0,282246;0,342007;0,263989;0,263989;0,388989;0,429647;0,472323;0,370246;0,370246;0,304647;0,263989;0,304647;0,157246;0,157246;0,388989;0,388989;0,305656;0,305656;0,305656;0,542614;0,388989;0,388989;0,132246;0,132246;0,132246;0,132246;0,453692;0,263989;0,263989;0,305656;0,305656;0,282246;0,238989;0,238989;0,263989;0,263989;0,238989;0,238989;0,238989;0,238989;0,198913;0,235264;0,157246;0,157246;0,305656;0,329162;0,638989;0,601150;0,638989;0,570941;0,388989;0,352758;0,352758;0,305656;0,388989;0,388989;0,388989;0,263989;0,282246;0,282246;0,282246;0,638989;0,263989;0,305656;0,388989;0,638989;0,638989;0,000000;0,000000;0,000000;0,132246;0,132246;0,132246;0,472323;0,157246;0,282246;0,305656;0,388989;0,000000;0,000000;
29;;;;;;;;;;;;;;;;;;;;;;;;;;;;;1,000000;0,517237;0,471116;0,518381;0,518381;0,546773;0,369900;0,429322;0,429322;0,573907;0,280160;0,332207;0,403626;0,332207;0,336251;0,333111;0,597859;0,000000;0,000000;0,142196;0,429322;0,429322;0,000000;0,000000;0,000000;0,204951;0,298178;0,429322;0,703578;0,429322;0,429322;0,000000;0,382339;0,448974;0,448974;0,429322;0,341071;0,512655;0,000000;0,000000;0,420603;0,448974;0,417538;0,000000;0,000000;0,429322;0,429322;0,345988;0,345988;0,532307;0,345988;0,429322;0,429322;0,000000;0,000000;0,000000;0,000000;0,448974;0,448974;0,448974;0,556027;0,556027;0,000000;0,398974;0,398974;0,304322;0,304322;0,279322;0,279322;0,279322;0,279322;0,000000;0,000000;0,144597;0,144597;0,536912;0,536725;0,679322;0,335572;0,679322;0,299825;0,429322;0,641145;0,641145;0,536960;0,429322;0,429322;0,429322;0,593381;0,000000;0,000000;0,000000;0,679322;0,597563;0,345988;0,429322;0,679322;0,679322;0,000000;0,000000;0,000000;0,000000;0,000000;0,000000;0,512655;0,000000;0,000000;0,536912;0,429322;0,000000;0,000000;
30;;;;;;;;;;;;;;;;;;;;;;;;;;;;;;1,000000;0,707765;0,736192;0,736192;0,494913;0,221579;0,346579;0,346579;0,470287;0,279382;0,221947;0,196579;0,221947;0,318311;0,238802;0,422434;0,270879;0,177249;0,120879;0,346579;0,346579;0,520879;0,187545;0,174219;0,250880;0,596878;0,346579;0,346579;0,346579;0,346579;0,270879;0,299596;0,617139;0,536366;0,346579;0,371947;0,429912;0,145879;0,145879;0,565990;0,617139;0,425694;0,145879;0,145879;0,346579;0,346579;0,263245;0,263245;0,553620;0,263245;0,346579;0,346579;0,120879;0,120879;0,120879;0,120879;0,470287;0,470287;0,470287;0,263245;0,263245;0,270879;0,420287;0,420287;0,221579;0,221579;0,196579;0,196579;0,196579;0,196579;0,187545;0,223896;0,392530;0,392530;0,263245;0,426166;0,596579;0,252829;0,596579;0,513242;0,346579;0,420287;0,420287;0,263245;0,346579;0,346579;0,346579;0,673856;0,270879;0,270879;0,270879;0,596579;0,470287;0,263245;0,346579;0,596579;0,596579;0,000000;0,000000;0,000000;0,120879;0,120879;0,120879;0,429912;0,145879;0,270879;0,263245;0,346579;0,000000;0,000000;
31;;;;;;;;;;;;;;;;;;;;;;;;;;;;;;;1,000000;0,718348;0,718348;0,459861;0,282414;0,335612;0,335612;0,626636;0,272395;0,214960;0,185612;0,214960;0,311324;0,304941;0,515866;0,274099;0,180469;0,124099;0,335612;0,335612;0,524099;0,190765;0,177439;0,243893;0,583466;0,611654;0,335612;0,335612;0,335612;0,274099;0,288630;0,649363;0,568217;0,335612;0,364960;0,418945;0,149099;0,149099;0,457560;0,429826;0,389470;0,149099;0,149099;0,335612;0,335612;0,252279;0,252279;0,774363;0,252279;0,335612;0,335612;0,124099;0,124099;0,124099;0,124099;0,429826;0,429826;0,429826;0,252279;0,252279;0,274099;0,379826;0,379826;0,210612;0,210612;0,185612;0,185612;0,185612;0,185612;0,190765;0,227116;0,364696;0,364696;0,444987;0,524374;0,585612;0,241862;0,585612;0,506254;0,335612;0,502679;0,502679;0,444987;0,335612;0,335612;0,335612;0,649363;0,274099;0,274099;0,274099;0,585612;0,429826;0,252279;0,611654;0,585612;0,585612;0,000000;0,000000;0,000000;0,124099;0,124099;0,124099;0,418945;0,149099;0,274099;0,252279;0,335612;0,000000;0,000000;
32;;;;;;;;;;;;;;;;;;;;;;;;;;;;;;;;1,000000;0,800000;0,496056;0,225000;0,350000;0,350000;0,450000;0,200838;0,145723;0,200000;0,145723;0,141755;0,177461;0,450000;0,000000;0,000000;0,000000;0,350000;0,350000;0,000000;0,000000;0,000000;0,125630;0,675000;0,350000;0,350000;0,350000;0,350000;0,000000;0,303017;0,675000;0,593854;0,350000;0,261749;0,433333;0,000000;0,000000;0,421629;0,450000;0,324882;0,000000;0,000000;0,350000;0,350000;0,266667;0,266667;0,800000;0,266667;0,350000;0,350000;0,000000;0,000000;0,000000;0,000000;0,450000;0,450000;0,450000;0,266667;0,266667;0,000000;0,400000;0,400000;0,225000;0,225000;0,200000;0,200000;0,200000;0,200000;0,000000;0,000000;0,225000;0,225000;0,266667;0,405879;0,600000;0,256250;0,600000;0,220503;0,350000;0,400000;0,400000;0,266667;0,350000;0,350000;0,350000;0,900000;0,000000;0,000000;0,000000;0,600000;0,450000;0,266667;0,350000;0,600000;0,600000;0,000000;0,000000;0,000000;0,000000;0,000000;0,000000;0,433333;0,000000;0,000000;0,266667;0,350000;0,000000;0,000000;
33;;;;;;;;;;;;;;;;;;;;;;;;;;;;;;;;;1,000000;0,496056;0,225000;0,350000;0,350000;0,450000;0,200838;0,145723;0,200000;0,145723;0,141755;0,177461;0,450000;0,000000;0,000000;0,000000;0,350000;0,350000;0,000000;0,000000;0,000000;0,125630;0,675000;0,350000;0,350000;0,350000;0,350000;0,000000;0,303017;0,675000;0,593854;0,350000;0,261749;0,433333;0,000000;0,000000;0,421629;0,450000;0,324882;0,000000;0,000000;0,350000;0,350000;0,266667;0,266667;0,800000;0,266667;0,350000;0,350000;0,000000;0,000000;0,000000;0,000000;0,450000;0,450000;0,450000;0,266667;0,266667;0,000000;0,400000;0,400000;0,225000;0,225000;0,200000;0,200000;0,200000;0,200000;0,000000;0,000000;0,225000;0,225000;0,266667;0,405879;0,600000;0,256250;0,600000;0,220503;0,350000;0,400000;0,400000;0,266667;0,350000;0,350000;0,350000;0,900000;0,000000;0,000000;0,000000;0,600000;0,450000;0,266667;0,350000;0,600000;0,600000;0,000000;0,000000;0,000000;0,000000;0,000000;0,000000;0,433333;0,000000;0,000000;0,266667;0,350000;0,000000;0,000000;
34;;;;;;;;;;;;;;;;;;;;;;;;;;;;;;;;;;1,000000;0,556168;0,361863;0,361863;0,620005;0,382787;0,157586;0,211863;0,157586;0,153618;0,273199;0,556676;0,000000;0,000000;0,000000;0,361863;0,361863;0,000000;0,000000;0,000000;0,137493;0,338216;0,644843;0,361863;0,361863;0,361863;0,000000;0,314881;0,415955;0,415955;0,361863;0,273612;0,445197;0,000000;0,000000;0,387585;0,415955;0,419064;0,000000;0,000000;0,361863;0,361863;0,278530;0,278530;0,499288;0,681168;0,361863;0,361863;0,000000;0,000000;0,000000;0,000000;0,415955;0,415955;0,415955;0,278530;0,278530;0,000000;0,365955;0,365955;0,236863;0,236863;0,211863;0,211863;0,211863;0,211863;0,000000;0,000000;0,177282;0,177282;0,696069;0,662770;0,611863;0,669387;0,611863;0,232367;0,361863;0,685024;0,685024;0,478176;0,361863;0,361863;0,361863;0,571056;0,000000;0,000000;0,000000;0,611863;0,599089;0,278530;0,644843;0,611863;0,611863;0,000000;0,000000;0,000000;0,000000;0,000000;0,000000;0,445197;0,000000;0,000000;0,278530;0,361863;0,000000;0,000000;
35;;;;;;;;;;;;;;;;;;;;;;;;;;;;;;;;;;;1,000000;0,375000;0,375000;0,300000;0,488197;0,170723;0,225000;0,170723;0,166755;0,202461;0,420488;0,000000;0,000000;0,000000;0,375000;0,375000;0,000000;0,000000;0,000000;0,150630;0,000000;0,375000;0,375000;0,375000;0,375000;0,000000;0,328017;0,250000;0,250000;0,375000;0,286749;0,458333;0,000000;0,000000;0,223433;0,250000;0,184853;0,000000;0,000000;0,375000;0,375000;0,291667;0,291667;0,291667;0,875000;0,375000;0,375000;0,000000;0,000000;0,000000;0,000000;0,499554;0,250000;0,250000;0,291667;0,291667;0,000000;0,225000;0,225000;0,250000;0,250000;0,225000;0,225000;0,225000;0,225000;0,000000;0,000000;0,000000;0,000000;0,291667;0,346891;0,625000;0,723127;0,625000;0,245503;0,375000;0,370488;0,370488;0,291667;0,375000;0,375000;0,375000;0,250000;0,000000;0,000000;0,000000;0,625000;0,250000;0,291667;0,375000;0,625000;0,625000;0,000000;0,000000;0,000000;0,000000;0,000000;0,000000;0,458333;0,000000;0,000000;0,291667;0,375000;0,000000;0,000000;
36;;;;;;;;;;;;;;;;;;;;;;;;;;;;;;;;;;;;1,000000;0,500000;0,425000;0,350838;0,295723;0,350000;0,295723;0,291755;0,327461;0,375000;0,000000;0,000000;0,000000;0,500000;0,500000;0,000000;0,000000;0,000000;0,275630;0,000000;0,500000;0,500000;0,500000;0,500000;0,000000;0,453017;0,375000;0,375000;0,500000;0,411749;0,583333;0,000000;0,000000;0,348433;0,375000;0,309853;0,000000;0,000000;0,500000;0,500000;0,416667;0,416667;0,416667;0,416667;0,500000;0,500000;0,000000;0,000000;0,000000;0,000000;0,425000;0,375000;0,375000;0,416667;0,416667;0,000000;0,350000;0,350000;0,375000;0,375000;0,350000;0,350000;0,350000;0,350000;0,000000;0,000000;0,000000;0,000000;0,416667;0,370225;0,750000;0,406250;0,750000;0,370503;0,500000;0,350000;0,350000;0,416667;0,500000;0,500000;0,500000;0,375000;0,000000;0,000000;0,000000;0,750000;0,375000;0,416667;0,500000;0,750000;0,750000;0,000000;0,000000;0,000000;0,000000;0,000000;0,000000;0,583333;0,000000;0,000000;0,416667;0,500000;0,000000;0,000000;
37;;;;;;;;;;;;;;;;;;;;;;;;;;;;;;;;;;;;;1,000000;0,425000;0,350838;0,295723;0,350000;0,295723;0,291755;0,327461;0,375000;0,000000;0,000000;0,000000;0,500000;0,500000;0,000000;0,000000;0,000000;0,275630;0,000000;0,500000;0,500000;0,500000;0,500000;0,000000;0,453017;0,375000;0,375000;0,500000;0,411749;0,583333;0,000000;0,000000;0,348433;0,375000;0,309853;0,000000;0,000000;0,500000;0,500000;0,416667;0,416667;0,416667;0,416667;0,500000;0,500000;0,000000;0,000000;0,000000;0,000000;0,425000;0,375000;0,375000;0,416667;0,416667;0,000000;0,350000;0,350000;0,375000;0,375000;0,350000;0,350000;0,350000;0,350000;0,000000;0,000000;0,000000;0,000000;0,416667;0,370225;0,750000;0,406250;0,750000;0,370503;0,500000;0,350000;0,350000;0,416667;0,500000;0,500000;0,500000;0,375000;0,000000;0,000000;0,000000;0,750000;0,375000;0,416667;0,500000;0,750000;0,750000;0,000000;0,000000;0,000000;0,000000;0,000000;0,000000;0,583333;0,000000;0,000000;0,416667;0,500000;0,000000;0,000000;
38;;;;;;;;;;;;;;;;;;;;;;;;;;;;;;;;;;;;;;1,000000;0,275838;0,220723;0,275000;0,220723;0,216755;0,478357;0,600000;0,000000;0,000000;0,000000;0,425000;0,425000;0,000000;0,000000;0,000000;0,200630;0,198603;0,850000;0,425000;0,425000;0,425000;0,000000;0,378017;0,500000;0,500000;0,425000;0,336749;0,508333;0,000000;0,000000;0,471629;0,500000;0,374882;0,000000;0,000000;0,425000;0,425000;0,341667;0,341667;0,583333;0,341667;0,425000;0,425000;0,000000;0,000000;0,000000;0,000000;0,500000;0,500000;0,500000;0,583333;0,583333;0,000000;0,450000;0,450000;0,300000;0,300000;0,275000;0,275000;0,275000;0,275000;0,000000;0,000000;0,198603;0,198603;0,683333;0,665333;0,675000;0,331250;0,675000;0,295503;0,425000;0,450000;0,450000;0,683333;0,425000;0,425000;0,425000;0,500000;0,000000;0,000000;0,000000;0,675000;0,500000;0,341667;0,850000;0,675000;0,675000;0,000000;0,000000;0,000000;0,000000;0,000000;0,000000;0,508333;0,000000;0,000000;0,341667;0,425000;0,000000;0,000000;
39;;;;;;;;;;;;;;;;;;;;;;;;;;;;;;;;;;;;;;;1,000000;0,257435;0,200838;0,257435;0,353798;0,274289;0,225838;0,299932;0,206302;0,149932;0,350838;0,350838;0,549932;0,411662;0,268051;0,436150;0,174932;0,350838;0,350838;0,350838;0,350838;0,299932;0,303856;0,225838;0,225838;0,350838;0,407435;0,434172;0,486337;0,486337;0,282435;0,225838;0,387574;0,328329;0,328329;0,350838;0,350838;0,267505;0,267505;0,267505;0,571531;0,350838;0,350838;0,149932;0,149932;0,149932;0,149932;0,275838;0,225838;0,225838;0,267505;0,267505;0,299932;0,200838;0,200838;0,225838;0,225838;0,325464;0,325464;0,325464;0,325464;0,216598;0,252949;0,174932;0,174932;0,267505;0,221064;0,600838;0,488197;0,600838;0,548729;0,350838;0,200838;0,200838;0,267505;0,350838;0,350838;0,350838;0,225838;0,299932;0,299932;0,299932;0,600838;0,225838;0,267505;0,350838;0,600838;0,600838;0,000000;0,000000;0,000000;0,149932;0,149932;0,149932;0,434172;0,174932;0,299932;0,267505;0,350838;0,000000;0,000000;
40;;;;;;;;;;;;;;;;;;;;;;;;;;;;;;;;;;;;;;;;1,000000;0,734884;0,800000;0,726342;0,753268;0,170723;0,301896;0,208266;0,741391;0,295723;0,295723;0,551896;0,218562;0,205236;0,228933;0,176896;0,295723;0,295723;0,295723;0,295723;0,586067;0,248740;0,170723;0,170723;0,295723;0,350000;0,379056;0,176896;0,176896;0,225000;0,170723;0,225000;0,176896;0,176896;0,295723;0,295723;0,212389;0,212389;0,212389;0,212389;0,295723;0,295723;0,151896;0,151896;0,151896;0,151896;0,220723;0,170723;0,170723;0,212389;0,212389;0,301896;0,145723;0,145723;0,170723;0,170723;0,145723;0,145723;0,145723;0,145723;0,218562;0,254913;0,176896;0,176896;0,212389;0,165948;0,545723;0,201973;0,545723;0,491295;0,295723;0,145723;0,145723;0,461914;0,295723;0,295723;0,295723;0,170723;0,301896;0,301896;0,301896;0,545723;0,170723;0,212389;0,295723;0,545723;0,545723;0,000000;0,000000;0,000000;0,151896;0,151896;0,151896;0,379056;0,176896;0,301896;0,470187;0,295723;0,000000;0,000000;
41;;;;;;;;;;;;;;;;;;;;;;;;;;;;;;;;;;;;;;;;;1,000000;0,734884;0,608587;0,706175;0,225000;0,000000;0,000000;0,800000;0,350000;0,350000;0,000000;0,000000;0,000000;0,125630;0,000000;0,350000;0,350000;0,350000;0,350000;0,311561;0,303017;0,225000;0,225000;0,350000;0,261749;0,433333;0,000000;0,000000;0,198433;0,225000;0,159853;0,000000;0,000000;0,350000;0,350000;0,266667;0,266667;0,266667;0,266667;0,350000;0,350000;0,000000;0,000000;0,000000;0,000000;0,275000;0,225000;0,225000;0,266667;0,266667;0,000000;0,200000;0,200000;0,225000;0,225000;0,200000;0,200000;0,200000;0,200000;0,000000;0,000000;0,000000;0,000000;0,266667;0,220225;0,600000;0,256250;0,600000;0,220503;0,350000;0,200000;0,200000;0,533333;0,350000;0,350000;0,350000;0,225000;0,000000;0,000000;0,000000;0,600000;0,225000;0,266667;0,350000;0,600000;0,600000;0,000000;0,000000;0,000000;0,000000;0,000000;0,000000;0,433333;0,000000;0,000000;0,533333;0,350000;0,000000;0,000000;
42;;;;;;;;;;;;;;;;;;;;;;;;;;;;;;;;;;;;;;;;;;1,000000;0,726342;0,753268;0,170723;0,301896;0,208266;0,741391;0,295723;0,295723;0,551896;0,218562;0,205236;0,228933;0,176896;0,295723;0,295723;0,295723;0,295723;0,586067;0,248740;0,170723;0,170723;0,295723;0,350000;0,379056;0,176896;0,176896;0,225000;0,170723;0,225000;0,176896;0,176896;0,295723;0,295723;0,212389;0,212389;0,212389;0,212389;0,295723;0,295723;0,151896;0,151896;0,151896;0,151896;0,220723;0,170723;0,170723;0,212389;0,212389;0,301896;0,145723;0,145723;0,170723;0,170723;0,145723;0,145723;0,145723;0,145723;0,218562;0,254913;0,176896;0,176896;0,212389;0,165948;0,545723;0,201973;0,545723;0,491295;0,295723;0,145723;0,145723;0,461914;0,295723;0,295723;0,295723;0,170723;0,301896;0,301896;0,301896;0,545723;0,170723;0,212389;0,295723;0,545723;0,545723;0,000000;0,000000;0,000000;0,151896;0,151896;0,151896;0,379056;0,176896;0,301896;0,470187;0,295723;0,000000;0,000000;
43;;;;;;;;;;;;;;;;;;;;;;;;;;;;;;;;;;;;;;;;;;;1,000000;0,681240;0,166755;0,399363;0,305733;0,686808;0,291755;0,291755;0,649363;0,316030;0,302703;0,325296;0,274363;0,291755;0,570688;0,291755;0,291755;0,399363;0,244772;0,166755;0,166755;0,291755;0,446364;0,375088;0,274363;0,274363;0,321364;0,166755;0,321364;0,274363;0,274363;0,291755;0,291755;0,208422;0,208422;0,208422;0,208422;0,291755;0,291755;0,249363;0,249363;0,249363;0,249363;0,216755;0,166755;0,166755;0,208422;0,208422;0,399363;0,141755;0,141755;0,166755;0,166755;0,141755;0,141755;0,141755;0,141755;0,316030;0,352380;0,274363;0,274363;0,208422;0,161980;0,541755;0,198005;0,541755;0,587658;0,291755;0,141755;0,141755;0,421462;0,291755;0,291755;0,291755;0,166755;0,399363;0,399363;0,760323;0,541755;0,166755;0,208422;0,291755;0,541755;0,541755;0,000000;0,000000;0,000000;0,249363;0,249363;0,249363;0,375088;0,274363;0,399363;0,404021;0,291755;0,000000;0,000000;
44;;;;;;;;;;;;;;;;;;;;;;;;;;;;;;;;;;;;;;;;;;;;1,000000;0,378357;0,288419;0,194789;0,683214;0,327461;0,327461;0,538419;0,205085;0,191759;0,245787;0,163419;0,628357;0,327461;0,327461;0,327461;0,556802;0,280479;0,202461;0,202461;0,327461;0,366854;0,410795;0,163419;0,163419;0,241854;0,202461;0,241854;0,163419;0,163419;0,327461;0,327461;0,244128;0,244128;0,244128;0,244128;0,327461;0,327461;0,138419;0,138419;0,138419;0,138419;0,252461;0,202461;0,202461;0,244128;0,244128;0,288419;0,177461;0,177461;0,202461;0,202461;0,177461;0,177461;0,177461;0,177461;0,205085;0,241436;0,163419;0,163419;0,461690;0,288680;0,577461;0,233711;0,577461;0,508149;0,327461;0,177461;0,177461;0,461690;0,327461;0,327461;0,327461;0,202461;0,288419;0,288419;0,288419;0,577461;0,202461;0,244128;0,628357;0,577461;0,577461;0,000000;0,000000;0,000000;0,138419;0,138419;0,138419;0,410795;0,163419;0,288419;0,476197;0,327461;0,000000;0,000000;
45;;;;;;;;;;;;;;;;;;;;;;;;;;;;;;;;;;;;;;;;;;;;;1,000000;0,000000;0,000000;0,000000;0,375000;0,375000;0,000000;0,000000;0,000000;0,150630;0,250000;0,750000;0,375000;0,375000;0,375000;0,000000;0,328017;0,250000;0,250000;0,375000;0,286749;0,458333;0,000000;0,000000;0,223433;0,250000;0,184853;0,000000;0,000000;0,375000;0,375000;0,291667;0,291667;0,291667;0,291667;0,375000;0,375000;0,000000;0,000000;0,000000;0,000000;0,300000;0,250000;0,250000;0,291667;0,291667;0,000000;0,225000;0,225000;0,250000;0,250000;0,225000;0,225000;0,225000;0,225000;0,000000;0,000000;0,000000;0,000000;0,583333;0,587234;0,625000;0,281250;0,625000;0,245503;0,375000;0,450000;0,450000;0,583333;0,375000;0,375000;0,375000;0,500000;0,000000;0,000000;0,000000;0,625000;0,250000;0,291667;0,750000;0,625000;0,625000;0,000000;0,000000;0,000000;0,000000;0,000000;0,000000;0,458333;0,000000;0,000000;0,291667;0,375000;0,000000;0,000000;
46;;;;;;;;;;;;;;;;;;;;;;;;;;;;;;;;;;;;;;;;;;;;;;1,000000;0,406371;0,350000;0,000000;0,000000;0,750000;0,416667;0,403340;0,355355;0,375000;0,000000;0,000000;0,000000;0,000000;0,500000;0,000000;0,000000;0,000000;0,000000;0,342390;0,000000;0,375000;0,375000;0,275485;0,000000;0,318651;0,375000;0,375000;0,000000;0,000000;0,000000;0,000000;0,000000;0,000000;0,000000;0,000000;0,700000;0,700000;0,700000;0,700000;0,000000;0,000000;0,000000;0,000000;0,000000;0,500000;0,000000;0,000000;0,000000;0,000000;0,000000;0,000000;0,000000;0,000000;0,416667;0,453017;0,375000;0,375000;0,000000;0,000000;0,000000;0,000000;0,000000;0,529222;0,000000;0,000000;0,000000;0,000000;0,000000;0,000000;0,000000;0,000000;0,500000;0,500000;0,500000;0,000000;0,000000;0,000000;0,000000;0,000000;0,000000;0,000000;0,000000;0,000000;0,350000;0,350000;0,350000;0,000000;0,375000;0,500000;0,000000;0,000000;0,000000;0,000000;
47;;;;;;;;;;;;;;;;;;;;;;;;;;;;;;;;;;;;;;;;;;;;;;;1,000000;0,256371;0,000000;0,000000;0,656371;0,323037;0,309711;0,261726;0,281371;0,000000;0,000000;0,000000;0,000000;0,406371;0,000000;0,000000;0,000000;0,000000;0,248760;0,000000;0,281371;0,281371;0,181855;0,000000;0,225021;0,281371;0,281371;0,000000;0,000000;0,000000;0,000000;0,000000;0,000000;0,000000;0,000000;0,756575;0,756575;0,756575;0,756575;0,000000;0,000000;0,000000;0,000000;0,000000;0,406371;0,000000;0,000000;0,000000;0,000000;0,000000;0,000000;0,000000;0,000000;0,323037;0,359388;0,281371;0,281371;0,000000;0,000000;0,000000;0,000000;0,000000;0,435593;0,000000;0,000000;0,000000;0,000000;0,000000;0,000000;0,000000;0,000000;0,406371;0,406371;0,406371;0,000000;0,000000;0,000000;0,000000;0,000000;0,000000;0,000000;0,000000;0,000000;0,256371;0,256371;0,256371;0,000000;0,281371;0,406371;0,000000;0,000000;0,000000;0,000000;
48;;;;;;;;;;;;;;;;;;;;;;;;;;;;;;;;;;;;;;;;;;;;;;;;1,000000;0,000000;0,000000;0,600000;0,266667;0,253340;0,205355;0,225000;0,000000;0,000000;0,000000;0,000000;0,643055;0,000000;0,000000;0,000000;0,000000;0,192390;0,000000;0,225000;0,225000;0,125485;0,000000;0,168651;0,225000;0,225000;0,000000;0,000000;0,000000;0,000000;0,000000;0,000000;0,000000;0,000000;0,200000;0,200000;0,200000;0,200000;0,000000;0,000000;0,000000;0,000000;0,000000;0,350000;0,000000;0,000000;0,000000;0,000000;0,000000;0,000000;0,000000;0,000000;0,266667;0,303017;0,225000;0,225000;0,000000;0,000000;0,000000;0,000000;0,000000;0,379222;0,000000;0,000000;0,000000;0,266667;0,000000;0,000000;0,000000;0,000000;0,350000;0,350000;0,350000;0,000000;0,000000;0,000000;0,000000;0,000000;0,000000;0,000000;0,000000;0,000000;0,200000;0,200000;0,200000;0,000000;0,225000;0,350000;0,266667;0,000000;0,000000;0,000000;
49;;;;;;;;;;;;;;;;;;;;;;;;;;;;;;;;;;;;;;;;;;;;;;;;;1,000000;0,500000;0,000000;0,000000;0,000000;0,275630;0,000000;0,500000;0,500000;0,500000;0,500000;0,000000;0,453017;0,375000;0,375000;0,500000;0,411749;0,583333;0,000000;0,000000;0,348433;0,375000;0,309853;0,000000;0,000000;0,500000;0,500000;0,416667;0,416667;0,416667;0,416667;0,500000;0,500000;0,000000;0,000000;0,000000;0,000000;0,425000;0,375000;0,375000;0,416667;0,416667;0,000000;0,350000;0,350000;0,375000;0,375000;0,350000;0,350000;0,350000;0,350000;0,000000;0,000000;0,000000;0,000000;0,416667;0,370225;0,750000;0,406250;0,750000;0,370503;0,500000;0,350000;0,350000;0,416667;0,500000;0,500000;0,500000;0,375000;0,000000;0,000000;0,000000;0,750000;0,375000;0,416667;0,500000;0,750000;0,750000;0,000000;0,000000;0,000000;0,000000;0,000000;0,000000;0,583333;0,000000;0,000000;0,416667;0,500000;0,000000;0,000000;
50;;;;;;;;;;;;;;;;;;;;;;;;;;;;;;;;;;;;;;;;;;;;;;;;;;1,000000;0,000000;0,000000;0,000000;0,275630;0,000000;0,500000;0,500000;0,500000;0,500000;0,000000;0,453017;0,375000;0,375000;0,500000;0,411749;0,583333;0,000000;0,000000;0,348433;0,375000;0,309853;0,000000;0,000000;0,500000;0,500000;0,416667;0,416667;0,416667;0,416667;0,500000;0,500000;0,000000;0,000000;0,000000;0,000000;0,425000;0,375000;0,375000;0,416667;0,416667;0,000000;0,350000;0,350000;0,375000;0,375000;0,350000;0,350000;0,350000;0,350000;0,000000;0,000000;0,000000;0,000000;0,416667;0,370225;0,750000;0,406250;0,750000;0,370503;0,500000;0,350000;0,350000;0,416667;0,500000;0,500000;0,500000;0,375000;0,000000;0,000000;0,000000;0,750000;0,375000;0,416667;0,500000;0,750000;0,750000;0,000000;0,000000;0,000000;0,000000;0,000000;0,000000;0,583333;0,000000;0,000000;0,416667;0,500000;0,000000;0,000000;
51;;;;;;;;;;;;;;;;;;;;;;;;;;;;;;;;;;;;;;;;;;;;;;;;;;;1,000000;0,666667;0,653340;0,605355;0,625000;0,000000;0,000000;0,000000;0,000000;0,750000;0,000000;0,000000;0,000000;0,000000;0,592390;0,000000;0,625000;0,625000;0,525485;0,000000;0,568651;0,625000;0,625000;0,000000;0,000000;0,000000;0,000000;0,000000;0,000000;0,000000;0,000000;0,600000;0,600000;0,600000;0,600000;0,000000;0,000000;0,000000;0,000000;0,000000;0,750000;0,000000;0,000000;0,000000;0,000000;0,000000;0,000000;0,000000;0,000000;0,666667;0,703017;0,625000;0,625000;0,000000;0,000000;0,000000;0,000000;0,000000;0,779222;0,000000;0,000000;0,000000;0,000000;0,000000;0,000000;0,000000;0,000000;0,750000;0,750000;0,750000;0,000000;0,000000;0,000000;0,000000;0,000000;0,000000;0,000000;0,000000;0,000000;0,600000;0,600000;0,600000;0,000000;0,625000;0,750000;0,000000;0,000000;0,000000;0,000000;
52;;;;;;;;;;;;;;;;;;;;;;;;;;;;;;;;;;;;;;;;;;;;;;;;;;;;1,000000;0,523056;0,483491;0,291667;0,000000;0,000000;0,000000;0,000000;0,416667;0,000000;0,000000;0,000000;0,000000;0,259057;0,000000;0,583333;0,583333;0,192151;0,000000;0,479828;0,583333;0,583333;0,000000;0,000000;0,000000;0,000000;0,000000;0,000000;0,000000;0,000000;0,266667;0,266667;0,266667;0,266667;0,000000;0,000000;0,000000;0,000000;0,000000;0,416667;0,000000;0,000000;0,000000;0,000000;0,266667;0,266667;0,266667;0,266667;0,666667;0,739368;0,291667;0,291667;0,000000;0,000000;0,000000;0,000000;0,000000;0,445889;0,000000;0,000000;0,000000;0,000000;0,000000;0,000000;0,000000;0,000000;0,416667;0,416667;0,416667;0,000000;0,000000;0,000000;0,000000;0,000000;0,000000;0,000000;0,000000;0,000000;0,533333;0,533333;0,533333;0,000000;0,583333;0,416667;0,000000;0,000000;0,000000;0,000000;
53;;;;;;;;;;;;;;;;;;;;;;;;;;;;;;;;;;;;;;;;;;;;;;;;;;;;;1,000000;0,342813;0,278340;0,000000;0,000000;0,000000;0,000000;0,403340;0,249587;0,000000;0,000000;0,000000;0,245730;0,000000;0,439723;0,439723;0,178825;0,000000;0,336217;0,439723;0,439723;0,289546;0,289546;0,000000;0,000000;0,000000;0,000000;0,000000;0,000000;0,253340;0,253340;0,253340;0,253340;0,000000;0,000000;0,000000;0,000000;0,000000;0,403340;0,000000;0,000000;0,000000;0,000000;0,158824;0,158824;0,158824;0,158824;0,566574;0,491354;0,278340;0,278340;0,000000;0,000000;0,000000;0,000000;0,000000;0,432563;0,000000;0,000000;0,000000;0,000000;0,000000;0,000000;0,000000;0,000000;0,403340;0,403340;0,403340;0,000000;0,000000;0,213237;0,000000;0,000000;0,000000;0,000000;0,000000;0,000000;0,643031;0,643031;0,643031;0,000000;0,593607;0,683367;0,000000;0,289546;0,000000;0,000000;
54;;;;;;;;;;;;;;;;;;;;;;;;;;;;;;;;;;;;;;;;;;;;;;;;;;;;;;1,000000;0,230355;0,275630;0,275630;0,275630;0,275630;0,355355;0,228647;0,150630;0,150630;0,275630;0,378933;0,358963;0,561326;0,561326;0,253933;0,150630;0,495900;0,563911;0,563911;0,275630;0,275630;0,192296;0,192296;0,192296;0,192296;0,275630;0,275630;0,205355;0,205355;0,205355;0,205355;0,200630;0,150630;0,150630;0,192296;0,192296;0,355355;0,125630;0,125630;0,150630;0,150630;0,527467;0,527467;0,527467;0,527467;0,483491;0,556193;0,230355;0,230355;0,192296;0,237130;0,525630;0,181880;0,525630;0,520227;0,275630;0,125630;0,125630;0,192296;0,275630;0,275630;0,275630;0,150630;0,355355;0,355355;0,355355;0,525630;0,332722;0,192296;0,275630;0,525630;0,525630;0,000000;0,000000;0,000000;0,350158;0,350158;0,350158;0,358963;0,400158;0,355355;0,192296;0,275630;0,000000;0,000000;
55;;;;;;;;;;;;;;;;;;;;;;;;;;;;;;;;;;;;;;;;;;;;;;;;;;;;;;;1,000000;0,000000;0,000000;0,000000;0,000000;0,375000;0,000000;0,500000;0,420420;0,000000;0,217390;0,000000;0,250000;0,250000;0,400182;0,250000;0,375000;0,250000;0,250000;0,000000;0,000000;0,000000;0,000000;0,583333;0,000000;0,000000;0,000000;0,225000;0,225000;0,225000;0,225000;0,205607;0,250000;0,250000;0,000000;0,000000;0,375000;0,225000;0,225000;0,000000;0,000000;0,000000;0,000000;0,000000;0,000000;0,291667;0,328017;0,500000;0,500000;0,000000;0,212969;0,000000;0,000000;0,000000;0,404222;0,000000;0,225000;0,225000;0,000000;0,000000;0,000000;0,000000;0,750000;0,375000;0,375000;0,375000;0,000000;0,250000;0,000000;0,000000;0,000000;0,000000;0,000000;0,000000;0,000000;0,225000;0,225000;0,225000;0,000000;0,250000;0,375000;0,000000;0,000000;0,000000;0,000000;
56;;;;;;;;;;;;;;;;;;;;;;;;;;;;;;;;;;;;;;;;;;;;;;;;;;;;;;;;1,000000;0,500000;0,500000;0,500000;0,000000;0,453017;0,375000;0,375000;0,500000;0,411749;0,583333;0,000000;0,000000;0,348433;0,375000;0,309853;0,000000;0,000000;0,500000;0,500000;0,416667;0,416667;0,416667;0,416667;0,500000;0,500000;0,000000;0,000000;0,000000;0,000000;0,425000;0,375000;0,375000;0,416667;0,416667;0,000000;0,350000;0,350000;0,375000;0,375000;0,350000;0,350000;0,350000;0,350000;0,000000;0,000000;0,000000;0,000000;0,833333;0,660323;0,750000;0,406250;0,750000;0,370503;0,500000;0,350000;0,350000;0,833333;0,500000;0,500000;0,500000;0,375000;0,000000;0,000000;0,000000;0,750000;0,375000;0,416667;1,000000;0,750000;0,750000;0,000000;0,000000;0,000000;0,000000;0,000000;0,000000;0,583333;0,000000;0,000000;0,416667;0,500000;0,000000;0,000000;
57;;;;;;;;;;;;;;;;;;;;;;;;;;;;;;;;;;;;;;;;;;;;;;;;;;;;;;;;;1,000000;0,500000;0,500000;0,000000;0,453017;0,375000;0,375000;0,500000;0,411749;0,583333;0,000000;0,000000;0,348433;0,375000;0,309853;0,000000;0,000000;0,500000;0,500000;0,416667;0,416667;0,416667;0,416667;0,500000;0,500000;0,000000;0,000000;0,000000;0,000000;0,425000;0,375000;0,375000;0,416667;0,416667;0,000000;0,350000;0,350000;0,375000;0,375000;0,350000;0,350000;0,350000;0,350000;0,000000;0,000000;0,000000;0,000000;0,416667;0,370225;0,750000;0,406250;0,750000;0,370503;0,500000;0,350000;0,350000;0,416667;0,500000;0,500000;0,500000;0,375000;0,000000;0,000000;0,000000;0,750000;0,375000;0,416667;0,500000;0,750000;0,750000;0,000000;0,000000;0,000000;0,000000;0,000000;0,000000;0,583333;0,000000;0,000000;0,833333;0,500000;0,000000;0,000000;
58;;;;;;;;;;;;;;;;;;;;;;;;;;;;;;;;;;;;;;;;;;;;;;;;;;;;;;;;;;1,000000;0,500000;0,000000;0,453017;0,375000;0,375000;0,500000;0,411749;0,583333;0,000000;0,000000;0,348433;0,375000;0,309853;0,000000;0,000000;0,500000;0,500000;0,416667;0,416667;0,416667;0,416667;0,500000;0,500000;0,000000;0,000000;0,000000;0,000000;0,425000;0,375000;0,375000;0,416667;0,416667;0,000000;0,350000;0,350000;0,375000;0,375000;0,350000;0,350000;0,350000;0,350000;0,000000;0,000000;0,000000;0,000000;0,416667;0,370225;0,750000;0,406250;0,750000;0,370503;0,500000;0,350000;0,350000;0,416667;0,500000;0,500000;0,500000;0,375000;0,000000;0,000000;0,000000;0,750000;0,375000;0,416667;0,500000;0,750000;0,750000;0,000000;0,000000;0,000000;0,000000;0,000000;0,000000;0,583333;0,000000;0,000000;0,416667;0,500000;0,000000;0,000000;
59;;;;;;;;;;;;;;;;;;;;;;;;;;;;;;;;;;;;;;;;;;;;;;;;;;;;;;;;;;;1,000000;0,000000;0,453017;0,375000;0,375000;0,500000;0,411749;0,583333;0,000000;0,000000;0,348433;0,375000;0,309853;0,000000;0,000000;0,500000;0,500000;0,416667;0,416667;0,416667;0,416667;0,500000;0,500000;0,000000;0,000000;0,000000;0,000000;0,425000;0,375000;0,375000;0,416667;0,416667;0,000000;0,350000;0,350000;0,375000;0,375000;0,350000;0,350000;0,350000;0,350000;0,000000;0,000000;0,000000;0,000000;0,416667;0,370225;0,750000;0,406250;0,750000;0,370503;0,500000;0,350000;0,350000;0,416667;0,500000;0,500000;0,500000;0,375000;0,000000;0,000000;0,000000;0,750000;0,375000;0,416667;0,500000;0,750000;0,750000;0,000000;0,000000;0,000000;0,000000;0,000000;0,000000;0,583333;0,000000;0,000000;0,416667;0,500000;0,000000;0,000000;
60;;;;;;;;;;;;;;;;;;;;;;;;;;;;;;;;;;;;;;;;;;;;;;;;;;;;;;;;;;;;1,000000;0,000000;0,000000;0,000000;0,000000;0,342390;0,000000;0,375000;0,375000;0,275485;0,000000;0,318651;0,375000;0,375000;0,000000;0,000000;0,000000;0,000000;0,000000;0,000000;0,000000;0,000000;0,350000;0,350000;0,350000;0,350000;0,000000;0,000000;0,000000;0,000000;0,000000;0,500000;0,000000;0,000000;0,000000;0,000000;0,000000;0,000000;0,000000;0,000000;0,416667;0,453017;0,375000;0,375000;0,000000;0,000000;0,000000;0,000000;0,000000;0,529222;0,000000;0,000000;0,000000;0,000000;0,000000;0,000000;0,000000;0,000000;0,500000;0,500000;0,500000;0,000000;0,000000;0,000000;0,000000;0,000000;0,000000;0,000000;0,000000;0,000000;0,350000;0,350000;0,350000;0,000000;0,375000;0,500000;0,378227;0,000000;0,000000;0,000000;
61;;;;;;;;;;;;;;;;;;;;;;;;;;;;;;;;;;;;;;;;;;;;;;;;;;;;;;;;;;;;;1,000000;0,328017;0,328017;0,453017;0,364766;0,536351;0,000000;0,000000;0,301450;0,328017;0,262871;0,000000;0,000000;0,453017;0,453017;0,369684;0,369684;0,369684;0,369684;0,453017;0,453017;0,000000;0,000000;0,000000;0,000000;0,378017;0,328017;0,328017;0,369684;0,369684;0,000000;0,303017;0,303017;0,328017;0,328017;0,303017;0,303017;0,303017;0,303017;0,000000;0,000000;0,000000;0,000000;0,369684;0,323243;0,703017;0,359267;0,703017;0,323521;0,453017;0,303017;0,303017;0,369684;0,453017;0,453017;0,453017;0,328017;0,000000;0,000000;0,000000;0,703017;0,328017;0,739368;0,453017;0,703017;0,703017;0,000000;0,000000;0,000000;0,000000;0,000000;0,000000;0,536351;0,328017;0,453017;0,369684;0,453017;0,000000;0,000000;
62;;;;;;;;;;;;;;;;;;;;;;;;;;;;;;;;;;;;;;;;;;;;;;;;;;;;;;;;;;;;;;1,000000;0,668854;0,375000;0,286749;0,458333;0,000000;0,000000;0,648371;0,750000;0,374882;0,000000;0,000000;0,375000;0,375000;0,291667;0,291667;0,875000;0,291667;0,375000;0,375000;0,000000;0,000000;0,000000;0,000000;0,500000;0,500000;0,500000;0,291667;0,291667;0,000000;0,450000;0,450000;0,250000;0,250000;0,225000;0,225000;0,225000;0,225000;0,000000;0,000000;0,250000;0,250000;0,291667;0,455879;0,625000;0,281250;0,625000;0,245503;0,375000;0,450000;0,450000;0,291667;0,375000;0,375000;0,375000;0,750000;0,000000;0,000000;0,000000;0,625000;0,500000;0,291667;0,375000;0,625000;0,625000;0,000000;0,000000;0,000000;0,000000;0,000000;0,000000;0,458333;0,000000;0,000000;0,291667;0,375000;0,000000;0,000000;
63;;;;;;;;;;;;;;;;;;;;;;;;;;;;;;;;;;;;;;;;;;;;;;;;;;;;;;;;;;;;;;;1,000000;0,375000;0,286749;0,458333;0,000000;0,000000;0,609130;0,710517;0,374882;0,000000;0,000000;0,375000;0,375000;0,291667;0,291667;0,793854;0,291667;0,375000;0,375000;0,000000;0,000000;0,000000;0,000000;0,500000;0,500000;0,500000;0,291667;0,291667;0,000000;0,450000;0,450000;0,250000;0,250000;0,225000;0,225000;0,225000;0,225000;0,000000;0,000000;0,462150;0,462150;0,291667;0,455879;0,625000;0,281250;0,625000;0,245503;0,375000;0,450000;0,450000;0,291667;0,375000;0,375000;0,375000;0,668854;0,000000;0,000000;0,000000;0,625000;0,500000;0,291667;0,375000;0,625000;0,625000;0,000000;0,000000;0,000000;0,000000;0,000000;0,000000;0,458333;0,000000;0,000000;0,291667;0,375000;0,000000;0,000000;
64;;;;;;;;;;;;;;;;;;;;;;;;;;;;;;;;;;;;;;;;;;;;;;;;;;;;;;;;;;;;;;;;1,000000;0,411749;0,583333;0,000000;0,000000;0,348433;0,375000;0,309853;0,000000;0,000000;0,500000;0,500000;0,416667;0,416667;0,416667;0,416667;0,500000;0,500000;0,000000;0,000000;0,000000;0,000000;0,425000;0,375000;0,375000;0,416667;0,416667;0,500000;0,350000;0,350000;0,375000;0,375000;0,350000;0,350000;0,350000;0,350000;0,000000;0,000000;0,000000;0,000000;0,416667;0,370225;0,750000;0,406250;0,750000;0,370503;0,500000;0,350000;0,350000;0,416667;1,000000;0,500000;0,500000;0,375000;0,000000;0,000000;0,000000;0,750000;0,375000;0,416667;0,500000;0,750000;0,750000;0,000000;0,000000;0,000000;0,000000;0,000000;0,000000;0,583333;0,000000;0,000000;0,416667;0,500000;0,000000;0,000000;
65;;;;;;;;;;;;;;;;;;;;;;;;;;;;;;;;;;;;;;;;;;;;;;;;;;;;;;;;;;;;;;;;;1,000000;0,495082;0,217390;0,217390;0,375000;0,286749;0,375000;0,217390;0,217390;0,411749;0,411749;0,328416;0,328416;0,328416;0,328416;0,411749;0,411749;0,192390;0,192390;0,192390;0,192390;0,336749;0,286749;0,286749;0,328416;0,328416;0,342390;0,261749;0,261749;0,286749;0,286749;0,261749;0,261749;0,261749;0,261749;0,259057;0,295407;0,217390;0,217390;0,328416;0,281974;0,661749;0,317999;0,661749;0,641295;0,411749;0,261749;0,261749;0,328416;0,411749;0,411749;0,411749;0,286749;0,342390;0,342390;0,342390;0,661749;0,286749;0,328416;0,411749;0,661749;0,661749;0,000000;0,000000;0,000000;0,192390;0,192390;0,192390;0,495082;0,217390;0,342390;0,328416;0,411749;0,000000;0,000000;
66;;;;;;;;;;;;;;;;;;;;;;;;;;;;;;;;;;;;;;;;;;;;;;;;;;;;;;;;;;;;;;;;;;1,000000;0,000000;0,000000;0,431766;0,458333;0,393187;0,000000;0,000000;0,583333;0,583333;0,500000;0,500000;0,500000;0,500000;0,583333;0,583333;0,000000;0,000000;0,000000;0,000000;0,508333;0,458333;0,458333;0,500000;0,500000;0,000000;0,433333;0,433333;0,750000;0,750000;0,433333;0,433333;0,433333;0,433333;0,000000;0,000000;0,000000;0,000000;0,500000;0,453559;0,833333;0,489583;0,833333;0,453837;0,583333;0,433333;0,433333;0,500000;0,583333;0,583333;0,583333;0,458333;0,000000;0,000000;0,000000;0,833333;0,458333;0,500000;0,583333;0,833333;0,833333;0,000000;0,000000;0,000000;0,000000;0,000000;0,000000;0,666667;0,000000;0,000000;0,500000;0,583333;0,000000;0,000000;
67;;;;;;;;;;;;;;;;;;;;;;;;;;;;;;;;;;;;;;;;;;;;;;;;;;;;;;;;;;;;;;;;;;;1,000000;0,750000;0,150485;0,000000;0,396494;0,500000;0,500000;0,000000;0,000000;0,000000;0,000000;0,000000;0,000000;0,000000;0,000000;0,225000;0,225000;0,225000;0,225000;0,000000;0,000000;0,000000;0,000000;0,000000;0,375000;0,000000;0,000000;0,000000;0,000000;0,225000;0,225000;0,225000;0,225000;0,291667;0,328017;0,250000;0,250000;0,000000;0,000000;0,000000;0,000000;0,000000;0,404222;0,000000;0,000000;0,000000;0,000000;0,000000;0,000000;0,000000;0,000000;0,375000;0,375000;0,375000;0,000000;0,000000;0,000000;0,000000;0,000000;0,000000;0,000000;0,000000;0,000000;0,225000;0,225000;0,225000;0,000000;0,250000;0,375000;0,000000;0,000000;0,000000;0,000000;
68;;;;;;;;;;;;;;;;;;;;;;;;;;;;;;;;;;;;;;;;;;;;;;;;;;;;;;;;;;;;;;;;;;;;1,000000;0,150485;0,000000;0,396494;0,500000;0,500000;0,000000;0,000000;0,000000;0,000000;0,000000;0,000000;0,000000;0,000000;0,225000;0,225000;0,225000;0,225000;0,000000;0,000000;0,000000;0,000000;0,000000;0,375000;0,000000;0,000000;0,000000;0,000000;0,225000;0,225000;0,225000;0,225000;0,291667;0,328017;0,250000;0,250000;0,000000;0,000000;0,000000;0,000000;0,000000;0,404222;0,000000;0,000000;0,000000;0,000000;0,000000;0,000000;0,000000;0,000000;0,375000;0,375000;0,375000;0,000000;0,000000;0,000000;0,000000;0,000000;0,000000;0,000000;0,000000;0,000000;0,225000;0,225000;0,225000;0,000000;0,250000;0,375000;0,000000;0,000000;0,000000;0,000000;
69;;;;;;;;;;;;;;;;;;;;;;;;;;;;;;;;;;;;;;;;;;;;;;;;;;;;;;;;;;;;;;;;;;;;;1,000000;0,648371;0,431911;0,150485;0,150485;0,348433;0,348433;0,265099;0,265099;0,554963;0,265099;0,348433;0,348433;0,125485;0,125485;0,125485;0,125485;0,471629;0,471629;0,471629;0,265099;0,265099;0,275485;0,421629;0,421629;0,223433;0,223433;0,198433;0,198433;0,198433;0,198433;0,192151;0,228502;0,554595;0,554595;0,265099;0,427509;0,598433;0,254683;0,598433;0,516295;0,348433;0,421629;0,421629;0,265099;0,348433;0,348433;0,348433;0,471629;0,275485;0,275485;0,275485;0,598433;0,471629;0,265099;0,348433;0,598433;0,598433;0,000000;0,000000;0,000000;0,125485;0,125485;0,125485;0,431766;0,150485;0,275485;0,265099;0,348433;0,000000;0,000000;
70;;;;;;;;;;;;;;;;;;;;;;;;;;;;;;;;;;;;;;;;;;;;;;;;;;;;;;;;;;;;;;;;;;;;;;1,000000;0,374882;0,000000;0,000000;0,375000;0,375000;0,291667;0,291667;0,583333;0,291667;0,375000;0,375000;0,000000;0,000000;0,000000;0,000000;0,500000;0,500000;0,500000;0,291667;0,291667;0,000000;0,450000;0,450000;0,250000;0,250000;0,225000;0,225000;0,225000;0,225000;0,000000;0,000000;0,500000;0,500000;0,291667;0,455879;0,625000;0,281250;0,625000;0,245503;0,375000;0,450000;0,450000;0,291667;0,375000;0,375000;0,375000;0,500000;0,000000;0,000000;0,000000;0,625000;0,500000;0,291667;0,375000;0,625000;0,625000;0,000000;0,000000;0,000000;0,000000;0,000000;0,000000;0,458333;0,000000;0,000000;0,291667;0,375000;0,000000;0,000000;
71;;;;;;;;;;;;;;;;;;;;;;;;;;;;;;;;;;;;;;;;;;;;;;;;;;;;;;;;;;;;;;;;;;;;;;;1,000000;0,605184;0,605184;0,309853;0,309853;0,226520;0,226520;0,458216;0,226520;0,309853;0,309853;0,168651;0,168651;0,168651;0,168651;0,374882;0,374882;0,374882;0,226520;0,226520;0,318651;0,324882;0,324882;0,184853;0,184853;0,325000;0,325000;0,325000;0,325000;0,235317;0,271668;0,375000;0,375000;0,461454;0,435685;0,559853;0,216103;0,559853;0,516295;0,309853;0,494975;0,494975;0,226520;0,309853;0,309853;0,309853;0,374882;0,318651;0,318651;0,318651;0,559853;0,569975;0,226520;0,309853;0,559853;0,559853;0,000000;0,000000;0,000000;0,168651;0,168651;0,168651;0,393187;0,193651;0,318651;0,226520;0,309853;0,000000;0,000000;
72;;;;;;;;;;;;;;;;;;;;;;;;;;;;;;;;;;;;;;;;;;;;;;;;;;;;;;;;;;;;;;;;;;;;;;;;1,000000;0,750000;0,000000;0,000000;0,000000;0,000000;0,000000;0,000000;0,000000;0,000000;0,225000;0,225000;0,225000;0,225000;0,000000;0,000000;0,000000;0,000000;0,000000;0,375000;0,000000;0,000000;0,000000;0,000000;0,225000;0,225000;0,225000;0,225000;0,291667;0,328017;0,250000;0,250000;0,000000;0,191271;0,000000;0,000000;0,000000;0,404222;0,000000;0,000000;0,000000;0,000000;0,000000;0,000000;0,000000;0,000000;0,375000;0,375000;0,375000;0,000000;0,250000;0,000000;0,000000;0,000000;0,000000;0,000000;0,000000;0,000000;0,225000;0,225000;0,225000;0,000000;0,250000;0,375000;0,000000;0,000000;0,000000;0,000000;
73;;;;;;;;;;;;;;;;;;;;;;;;;;;;;;;;;;;;;;;;;;;;;;;;;;;;;;;;;;;;;;;;;;;;;;;;;1,000000;0,000000;0,000000;0,000000;0,000000;0,000000;0,000000;0,000000;0,000000;0,225000;0,225000;0,225000;0,225000;0,000000;0,000000;0,000000;0,000000;0,000000;0,375000;0,000000;0,000000;0,000000;0,000000;0,225000;0,225000;0,225000;0,225000;0,291667;0,328017;0,250000;0,250000;0,000000;0,191271;0,000000;0,000000;0,000000;0,404222;0,000000;0,000000;0,000000;0,000000;0,000000;0,000000;0,000000;0,000000;0,375000;0,375000;0,375000;0,000000;0,250000;0,000000;0,000000;0,000000;0,000000;0,000000;0,000000;0,000000;0,225000;0,225000;0,225000;0,000000;0,250000;0,375000;0,000000;0,000000;0,000000;0,000000;
74;;;;;;;;;;;;;;;;;;;;;;;;;;;;;;;;;;;;;;;;;;;;;;;;;;;;;;;;;;;;;;;;;;;;;;;;;;1,000000;1,000000;0,416667;0,416667;0,416667;0,416667;0,500000;0,500000;0,000000;0,000000;0,000000;0,000000;0,425000;0,375000;0,375000;0,416667;0,416667;0,000000;0,350000;0,350000;0,375000;0,375000;0,350000;0,350000;0,350000;0,350000;0,000000;0,000000;0,000000;0,000000;0,416667;0,370225;0,750000;0,406250;0,750000;0,370503;0,500000;0,350000;0,350000;0,416667;0,500000;0,500000;0,500000;0,375000;0,000000;0,000000;0,000000;0,750000;0,375000;0,416667;0,500000;0,750000;0,750000;0,000000;0,000000;0,000000;0,350000;0,350000;0,350000;0,583333;0,000000;0,000000;0,416667;1,000000;0,000000;0,000000;
75;;;;;;;;;;;;;;;;;;;;;;;;;;;;;;;;;;;;;;;;;;;;;;;;;;;;;;;;;;;;;;;;;;;;;;;;;;;1,000000;0,416667;0,416667;0,416667;0,416667;0,500000;0,500000;0,000000;0,000000;0,000000;0,000000;0,425000;0,375000;0,375000;0,416667;0,416667;0,000000;0,350000;0,350000;0,375000;0,375000;0,350000;0,350000;0,350000;0,350000;0,000000;0,000000;0,000000;0,000000;0,416667;0,370225;0,750000;0,406250;0,750000;0,370503;0,500000;0,350000;0,350000;0,416667;0,500000;0,500000;0,500000;0,375000;0,000000;0,000000;0,000000;0,750000;0,375000;0,416667;0,500000;0,750000;0,750000;0,000000;0,000000;0,000000;0,350000;0,350000;0,350000;0,583333;0,000000;0,000000;0,416667;1,000000;0,000000;0,000000;
76;;;;;;;;;;;;;;;;;;;;;;;;;;;;;;;;;;;;;;;;;;;;;;;;;;;;;;;;;;;;;;;;;;;;;;;;;;;;1,000000;0,666667;0,333333;0,333333;0,416667;0,416667;0,000000;0,000000;0,000000;0,000000;0,341667;0,291667;0,291667;0,333333;0,333333;0,000000;0,266667;0,266667;0,583333;0,583333;0,266667;0,266667;0,266667;0,266667;0,000000;0,000000;0,000000;0,000000;0,333333;0,286892;0,666667;0,322917;0,666667;0,287170;0,416667;0,266667;0,266667;0,333333;0,416667;0,416667;0,416667;0,291667;0,000000;0,000000;0,000000;0,666667;0,291667;0,333333;0,416667;0,666667;0,666667;0,000000;0,000000;0,000000;0,000000;0,000000;0,000000;0,500000;0,000000;0,000000;0,333333;0,416667;0,000000;0,000000;
77;;;;;;;;;;;;;;;;;;;;;;;;;;;;;;;;;;;;;;;;;;;;;;;;;;;;;;;;;;;;;;;;;;;;;;;;;;;;;1,000000;0,333333;0,333333;0,416667;0,416667;0,000000;0,000000;0,000000;0,000000;0,341667;0,291667;0,291667;0,333333;0,333333;0,000000;0,266667;0,266667;0,583333;0,583333;0,266667;0,266667;0,266667;0,266667;0,000000;0,000000;0,000000;0,000000;0,333333;0,286892;0,666667;0,322917;0,666667;0,287170;0,416667;0,266667;0,266667;0,333333;0,416667;0,416667;0,416667;0,291667;0,000000;0,000000;0,000000;0,666667;0,291667;0,333333;0,416667;0,666667;0,666667;0,000000;0,000000;0,000000;0,000000;0,000000;0,000000;0,500000;0,000000;0,000000;0,333333;0,416667;0,000000;0,000000;
78;;;;;;;;;;;;;;;;;;;;;;;;;;;;;;;;;;;;;;;;;;;;;;;;;;;;;;;;;;;;;;;;;;;;;;;;;;;;;;1,000000;0,333333;0,416667;0,416667;0,000000;0,000000;0,000000;0,000000;0,583333;0,583333;0,583333;0,333333;0,333333;0,000000;0,533333;0,533333;0,291667;0,291667;0,266667;0,266667;0,266667;0,266667;0,000000;0,000000;0,291667;0,291667;0,333333;0,539212;0,666667;0,322917;0,666667;0,287170;0,416667;0,533333;0,533333;0,333333;0,416667;0,416667;0,416667;0,875000;0,000000;0,000000;0,000000;0,666667;0,583333;0,333333;0,416667;0,666667;0,666667;0,000000;0,000000;0,000000;0,000000;0,000000;0,000000;0,500000;0,000000;0,000000;0,333333;0,416667;0,000000;0,000000;
79;;;;;;;;;;;;;;;;;;;;;;;;;;;;;;;;;;;;;;;;;;;;;;;;;;;;;;;;;;;;;;;;;;;;;;;;;;;;;;;1,000000;0,416667;0,416667;0,000000;0,000000;0,000000;0,000000;0,341667;0,291667;0,291667;0,333333;0,333333;0,000000;0,266667;0,266667;0,291667;0,291667;0,266667;0,266667;0,266667;0,266667;0,000000;0,000000;0,000000;0,000000;0,333333;0,286892;0,666667;0,848127;0,666667;0,287170;0,416667;0,266667;0,266667;0,333333;0,416667;0,416667;0,416667;0,291667;0,000000;0,000000;0,000000;0,666667;0,291667;0,333333;0,416667;0,666667;0,666667;0,000000;0,000000;0,000000;0,000000;0,000000;0,000000;0,500000;0,000000;0,000000;0,333333;0,416667;0,000000;0,000000;
80;;;;;;;;;;;;;;;;;;;;;;;;;;;;;;;;;;;;;;;;;;;;;;;;;;;;;;;;;;;;;;;;;;;;;;;;;;;;;;;;1,000000;0,500000;0,000000;0,000000;0,000000;0,000000;0,425000;0,375000;0,375000;0,416667;0,416667;0,000000;0,350000;0,350000;0,375000;0,375000;0,350000;0,350000;0,350000;0,350000;0,000000;0,000000;0,000000;0,000000;0,416667;0,370225;0,750000;0,406250;0,750000;0,370503;0,500000;0,350000;0,350000;0,416667;0,500000;0,500000;0,500000;0,375000;0,000000;0,000000;0,000000;0,750000;0,375000;0,416667;0,500000;0,750000;0,750000;0,000000;0,000000;0,000000;0,000000;0,000000;0,000000;0,583333;0,000000;0,000000;0,416667;0,500000;0,000000;0,000000;
81;;;;;;;;;;;;;;;;;;;;;;;;;;;;;;;;;;;;;;;;;;;;;;;;;;;;;;;;;;;;;;;;;;;;;;;;;;;;;;;;;1,000000;0,000000;0,000000;0,000000;0,000000;0,425000;0,375000;0,375000;0,416667;0,416667;0,000000;0,350000;0,350000;0,375000;0,375000;0,350000;0,350000;0,350000;0,350000;0,000000;0,000000;0,000000;0,000000;0,416667;0,370225;0,750000;0,406250;0,750000;0,370503;0,500000;0,350000;0,350000;0,416667;0,500000;0,500000;0,500000;0,375000;0,000000;0,000000;0,000000;0,750000;0,375000;0,416667;0,500000;0,750000;0,750000;0,000000;0,000000;0,000000;0,000000;0,000000;0,000000;0,583333;0,000000;0,000000;0,416667;0,500000;0,000000;0,000000;
82;;;;;;;;;;;;;;;;;;;;;;;;;;;;;;;;;;;;;;;;;;;;;;;;;;;;;;;;;;;;;;;;;;;;;;;;;;;;;;;;;;1,000000;0,800000;0,800000;0,800000;0,000000;0,000000;0,000000;0,000000;0,000000;0,350000;0,000000;0,000000;0,000000;0,000000;0,000000;0,000000;0,000000;0,000000;0,266667;0,303017;0,225000;0,225000;0,000000;0,000000;0,000000;0,000000;0,000000;0,379222;0,000000;0,000000;0,000000;0,000000;0,000000;0,000000;0,000000;0,000000;0,350000;0,350000;0,350000;0,000000;0,000000;0,000000;0,000000;0,000000;0,000000;0,000000;0,000000;0,000000;0,200000;0,200000;0,200000;0,000000;0,225000;0,350000;0,000000;0,000000;0,000000;0,000000;
83;;;;;;;;;;;;;;;;;;;;;;;;;;;;;;;;;;;;;;;;;;;;;;;;;;;;;;;;;;;;;;;;;;;;;;;;;;;;;;;;;;;1,000000;0,800000;0,800000;0,000000;0,000000;0,000000;0,000000;0,000000;0,350000;0,000000;0,000000;0,000000;0,000000;0,000000;0,000000;0,000000;0,000000;0,266667;0,303017;0,225000;0,225000;0,000000;0,000000;0,000000;0,000000;0,000000;0,379222;0,000000;0,000000;0,000000;0,000000;0,000000;0,000000;0,000000;0,000000;0,350000;0,350000;0,350000;0,000000;0,000000;0,000000;0,000000;0,000000;0,000000;0,000000;0,000000;0,000000;0,200000;0,200000;0,200000;0,000000;0,225000;0,350000;0,000000;0,000000;0,000000;0,000000;
84;;;;;;;;;;;;;;;;;;;;;;;;;;;;;;;;;;;;;;;;;;;;;;;;;;;;;;;;;;;;;;;;;;;;;;;;;;;;;;;;;;;;1,000000;0,800000;0,000000;0,000000;0,000000;0,000000;0,000000;0,350000;0,000000;0,000000;0,000000;0,000000;0,000000;0,000000;0,000000;0,000000;0,266667;0,303017;0,225000;0,225000;0,000000;0,000000;0,000000;0,000000;0,000000;0,379222;0,000000;0,000000;0,000000;0,000000;0,000000;0,000000;0,000000;0,000000;0,350000;0,350000;0,350000;0,000000;0,000000;0,000000;0,000000;0,000000;0,000000;0,000000;0,000000;0,000000;0,200000;0,200000;0,200000;0,000000;0,225000;0,350000;0,000000;0,000000;0,000000;0,000000;
85;;;;;;;;;;;;;;;;;;;;;;;;;;;;;;;;;;;;;;;;;;;;;;;;;;;;;;;;;;;;;;;;;;;;;;;;;;;;;;;;;;;;;1,000000;0,000000;0,000000;0,000000;0,000000;0,000000;0,350000;0,000000;0,000000;0,000000;0,000000;0,000000;0,000000;0,000000;0,000000;0,266667;0,303017;0,225000;0,225000;0,000000;0,000000;0,000000;0,000000;0,000000;0,379222;0,000000;0,000000;0,000000;0,000000;0,000000;0,000000;0,000000;0,000000;0,350000;0,350000;0,350000;0,000000;0,000000;0,000000;0,000000;0,000000;0,000000;0,000000;0,000000;0,000000;0,200000;0,200000;0,200000;0,000000;0,225000;0,350000;0,000000;0,000000;0,000000;0,000000;
86;;;;;;;;;;;;;;;;;;;;;;;;;;;;;;;;;;;;;;;;;;;;;;;;;;;;;;;;;;;;;;;;;;;;;;;;;;;;;;;;;;;;;;1,000000;0,705017;0,705017;0,341667;0,341667;0,000000;0,450000;0,450000;0,300000;0,300000;0,275000;0,275000;0,275000;0,275000;0,000000;0,000000;0,205607;0,205607;0,341667;0,455879;0,675000;0,331250;0,675000;0,295503;0,425000;0,450000;0,450000;0,341667;0,425000;0,425000;0,425000;0,500000;0,000000;0,000000;0,000000;0,675000;0,500000;0,341667;0,425000;0,675000;0,675000;0,000000;0,000000;0,000000;0,000000;0,000000;0,000000;0,508333;0,000000;0,000000;0,341667;0,425000;0,000000;0,000000;
87;;;;;;;;;;;;;;;;;;;;;;;;;;;;;;;;;;;;;;;;;;;;;;;;;;;;;;;;;;;;;;;;;;;;;;;;;;;;;;;;;;;;;;;1,000000;0,750000;0,291667;0,291667;0,000000;0,450000;0,450000;0,250000;0,250000;0,225000;0,225000;0,225000;0,225000;0,000000;0,000000;0,250000;0,250000;0,291667;0,455879;0,625000;0,478916;0,625000;0,245503;0,375000;0,450000;0,450000;0,291667;0,375000;0,375000;0,375000;0,500000;0,000000;0,000000;0,000000;0,625000;0,500000;0,291667;0,375000;0,625000;0,625000;0,000000;0,000000;0,000000;0,000000;0,000000;0,000000;0,458333;0,000000;0,000000;0,291667;0,375000;0,000000;0,000000;
88;;;;;;;;;;;;;;;;;;;;;;;;;;;;;;;;;;;;;;;;;;;;;;;;;;;;;;;;;;;;;;;;;;;;;;;;;;;;;;;;;;;;;;;;1,000000;0,291667;0,291667;0,000000;0,450000;0,450000;0,250000;0,250000;0,225000;0,225000;0,225000;0,225000;0,000000;0,000000;0,250000;0,250000;0,291667;0,455879;0,625000;0,478916;0,625000;0,245503;0,375000;0,450000;0,450000;0,291667;0,375000;0,375000;0,375000;0,500000;0,000000;0,000000;0,000000;0,625000;0,500000;0,291667;0,375000;0,625000;0,625000;0,000000;0,000000;0,000000;0,000000;0,000000;0,000000;0,458333;0,000000;0,000000;0,291667;0,375000;0,000000;0,000000;
89;;;;;;;;;;;;;;;;;;;;;;;;;;;;;;;;;;;;;;;;;;;;;;;;;;;;;;;;;;;;;;;;;;;;;;;;;;;;;;;;;;;;;;;;;1,000000;0,666667;0,000000;0,266667;0,266667;0,291667;0,291667;0,266667;0,266667;0,266667;0,266667;0,000000;0,000000;0,000000;0,000000;0,333333;0,286892;0,666667;0,322917;0,666667;0,287170;0,416667;0,266667;0,266667;0,333333;0,416667;0,416667;0,416667;0,291667;0,000000;0,000000;0,000000;0,666667;0,291667;0,333333;0,416667;0,666667;0,666667;0,000000;0,000000;0,000000;0,000000;0,000000;0,000000;0,500000;0,000000;0,000000;0,333333;0,416667;0,000000;0,000000;
90;;;;;;;;;;;;;;;;;;;;;;;;;;;;;;;;;;;;;;;;;;;;;;;;;;;;;;;;;;;;;;;;;;;;;;;;;;;;;;;;;;;;;;;;;;1,000000;0,000000;0,266667;0,266667;0,291667;0,291667;0,266667;0,266667;0,266667;0,266667;0,000000;0,000000;0,000000;0,000000;0,333333;0,286892;0,666667;0,322917;0,666667;0,287170;0,416667;0,266667;0,266667;0,333333;0,416667;0,416667;0,416667;0,291667;0,000000;0,000000;0,000000;0,666667;0,291667;0,333333;0,416667;0,666667;0,666667;0,000000;0,000000;0,000000;0,000000;0,000000;0,000000;0,500000;0,000000;0,000000;0,333333;0,416667;0,000000;0,000000;
91;;;;;;;;;;;;;;;;;;;;;;;;;;;;;;;;;;;;;;;;;;;;;;;;;;;;;;;;;;;;;;;;;;;;;;;;;;;;;;;;;;;;;;;;;;;1,000000;0,000000;0,000000;0,000000;0,000000;0,000000;0,000000;0,000000;0,000000;0,416667;0,453017;0,375000;0,375000;0,000000;0,000000;0,000000;0,000000;0,000000;0,529222;0,000000;0,000000;0,000000;0,000000;0,500000;0,000000;0,000000;0,000000;0,500000;0,500000;0,500000;0,000000;0,000000;0,000000;0,000000;0,000000;0,000000;0,000000;0,000000;0,000000;0,350000;0,350000;0,350000;0,000000;0,375000;0,500000;0,000000;0,000000;0,000000;0,000000;
92;;;;;;;;;;;;;;;;;;;;;;;;;;;;;;;;;;;;;;;;;;;;;;;;;;;;;;;;;;;;;;;;;;;;;;;;;;;;;;;;;;;;;;;;;;;;1,000000;0,800000;0,225000;0,225000;0,200000;0,200000;0,200000;0,200000;0,000000;0,000000;0,225000;0,225000;0,266667;0,405879;0,600000;0,256250;0,600000;0,220503;0,350000;0,400000;0,400000;0,266667;0,350000;0,350000;0,350000;0,450000;0,000000;0,000000;0,000000;0,600000;0,450000;0,266667;0,350000;0,600000;0,600000;0,000000;0,000000;0,000000;0,000000;0,000000;0,000000;0,433333;0,000000;0,000000;0,266667;0,350000;0,000000;0,000000;
93;;;;;;;;;;;;;;;;;;;;;;;;;;;;;;;;;;;;;;;;;;;;;;;;;;;;;;;;;;;;;;;;;;;;;;;;;;;;;;;;;;;;;;;;;;;;;1,000000;0,225000;0,225000;0,200000;0,200000;0,200000;0,200000;0,000000;0,000000;0,225000;0,225000;0,266667;0,405879;0,600000;0,256250;0,600000;0,220503;0,350000;0,400000;0,400000;0,266667;0,350000;0,350000;0,350000;0,450000;0,000000;0,000000;0,000000;0,600000;0,450000;0,266667;0,350000;0,600000;0,600000;0,000000;0,000000;0,000000;0,000000;0,000000;0,000000;0,433333;0,000000;0,000000;0,266667;0,350000;0,000000;0,000000;
94;;;;;;;;;;;;;;;;;;;;;;;;;;;;;;;;;;;;;;;;;;;;;;;;;;;;;;;;;;;;;;;;;;;;;;;;;;;;;;;;;;;;;;;;;;;;;;1,000000;0,750000;0,225000;0,225000;0,225000;0,225000;0,000000;0,000000;0,000000;0,000000;0,291667;0,245225;0,625000;0,281250;0,625000;0,245503;0,375000;0,225000;0,225000;0,291667;0,375000;0,375000;0,375000;0,250000;0,000000;0,000000;0,000000;0,625000;0,250000;0,291667;0,375000;0,625000;0,625000;0,000000;0,000000;0,000000;0,000000;0,000000;0,000000;0,458333;0,000000;0,000000;0,291667;0,375000;0,000000;0,000000;
95;;;;;;;;;;;;;;;;;;;;;;;;;;;;;;;;;;;;;;;;;;;;;;;;;;;;;;;;;;;;;;;;;;;;;;;;;;;;;;;;;;;;;;;;;;;;;;;1,000000;0,225000;0,225000;0,225000;0,225000;0,000000;0,000000;0,000000;0,000000;0,291667;0,245225;0,625000;0,281250;0,625000;0,245503;0,375000;0,225000;0,225000;0,291667;0,375000;0,375000;0,375000;0,250000;0,000000;0,000000;0,000000;0,625000;0,250000;0,291667;0,375000;0,625000;0,625000;0,000000;0,000000;0,000000;0,000000;0,000000;0,000000;0,458333;0,000000;0,000000;0,291667;0,375000;0,000000;0,000000;
96;;;;;;;;;;;;;;;;;;;;;;;;;;;;;;;;;;;;;;;;;;;;;;;;;;;;;;;;;;;;;;;;;;;;;;;;;;;;;;;;;;;;;;;;;;;;;;;;1,000000;0,800000;0,800000;0,800000;0,000000;0,000000;0,000000;0,000000;0,266667;0,220225;0,600000;0,256250;0,600000;0,220503;0,350000;0,200000;0,200000;0,266667;0,350000;0,350000;0,350000;0,225000;0,000000;0,000000;0,000000;0,600000;0,225000;0,266667;0,350000;0,600000;0,600000;0,000000;0,000000;0,000000;0,000000;0,000000;0,000000;0,433333;0,000000;0,000000;0,266667;0,350000;0,000000;0,000000;
97;;;;;;;;;;;;;;;;;;;;;;;;;;;;;;;;;;;;;;;;;;;;;;;;;;;;;;;;;;;;;;;;;;;;;;;;;;;;;;;;;;;;;;;;;;;;;;;;;1,000000;0,800000;0,800000;0,000000;0,000000;0,000000;0,000000;0,266667;0,220225;0,600000;0,256250;0,600000;0,220503;0,350000;0,200000;0,200000;0,266667;0,350000;0,350000;0,350000;0,225000;0,000000;0,000000;0,000000;0,600000;0,225000;0,266667;0,350000;0,600000;0,600000;0,000000;0,000000;0,000000;0,000000;0,000000;0,000000;0,433333;0,000000;0,000000;0,266667;0,350000;0,000000;0,000000;
98;;;;;;;;;;;;;;;;;;;;;;;;;;;;;;;;;;;;;;;;;;;;;;;;;;;;;;;;;;;;;;;;;;;;;;;;;;;;;;;;;;;;;;;;;;;;;;;;;;1,000000;0,800000;0,000000;0,000000;0,000000;0,000000;0,266667;0,220225;0,600000;0,256250;0,600000;0,220503;0,350000;0,200000;0,200000;0,266667;0,350000;0,350000;0,350000;0,225000;0,000000;0,000000;0,000000;0,600000;0,225000;0,266667;0,350000;0,600000;0,600000;0,000000;0,000000;0,000000;0,000000;0,000000;0,000000;0,433333;0,000000;0,000000;0,266667;0,350000;0,000000;0,000000;
99;;;;;;;;;;;;;;;;;;;;;;;;;;;;;;;;;;;;;;;;;;;;;;;;;;;;;;;;;;;;;;;;;;;;;;;;;;;;;;;;;;;;;;;;;;;;;;;;;;;1,000000;0,000000;0,000000;0,000000;0,000000;0,266667;0,220225;0,600000;0,256250;0,600000;0,220503;0,350000;0,200000;0,200000;0,266667;0,350000;0,350000;0,350000;0,225000;0,000000;0,000000;0,000000;0,600000;0,225000;0,266667;0,350000;0,600000;0,600000;0,000000;0,000000;0,000000;0,000000;0,000000;0,000000;0,433333;0,000000;0,000000;0,266667;0,350000;0,000000;0,000000;
100;;;;;;;;;;;;;;;;;;;;;;;;;;;;;;;;;;;;;;;;;;;;;;;;;;;;;;;;;;;;;;;;;;;;;;;;;;;;;;;;;;;;;;;;;;;;;;;;;;;;1,000000;0,739368;0,291667;0,291667;0,000000;0,000000;0,000000;0,000000;0,000000;0,445889;0,000000;0,000000;0,000000;0,000000;0,000000;0,000000;0,000000;0,000000;0,416667;0,416667;0,416667;0,000000;0,000000;0,000000;0,000000;0,000000;0,000000;0,000000;0,000000;0,000000;0,533333;0,533333;0,533333;0,000000;0,583333;0,416667;0,000000;0,000000;0,000000;0,000000;
101;;;;;;;;;;;;;;;;;;;;;;;;;;;;;;;;;;;;;;;;;;;;;;;;;;;;;;;;;;;;;;;;;;;;;;;;;;;;;;;;;;;;;;;;;;;;;;;;;;;;;1,000000;0,328017;0,328017;0,000000;0,000000;0,000000;0,000000;0,000000;0,482239;0,000000;0,000000;0,000000;0,000000;0,000000;0,000000;0,000000;0,000000;0,453017;0,453017;0,453017;0,000000;0,000000;0,000000;0,000000;0,000000;0,000000;0,000000;0,000000;0,000000;0,606035;0,606035;0,606035;0,000000;0,656035;0,453017;0,000000;0,000000;0,000000;0,000000;
102;;;;;;;;;;;;;;;;;;;;;;;;;;;;;;;;;;;;;;;;;;;;;;;;;;;;;;;;;;;;;;;;;;;;;;;;;;;;;;;;;;;;;;;;;;;;;;;;;;;;;;1,000000;0,750000;0,000000;0,212969;0,000000;0,000000;0,000000;0,404222;0,000000;0,225000;0,225000;0,000000;0,000000;0,000000;0,000000;0,250000;0,375000;0,375000;0,375000;0,000000;0,250000;0,000000;0,000000;0,000000;0,000000;0,000000;0,000000;0,000000;0,225000;0,225000;0,225000;0,000000;0,250000;0,375000;0,000000;0,000000;0,000000;0,000000;
103;;;;;;;;;;;;;;;;;;;;;;;;;;;;;;;;;;;;;;;;;;;;;;;;;;;;;;;;;;;;;;;;;;;;;;;;;;;;;;;;;;;;;;;;;;;;;;;;;;;;;;;1,000000;0,000000;0,212969;0,000000;0,000000;0,000000;0,404222;0,000000;0,225000;0,225000;0,000000;0,000000;0,000000;0,000000;0,250000;0,375000;0,375000;0,375000;0,000000;0,250000;0,000000;0,000000;0,000000;0,000000;0,000000;0,000000;0,000000;0,225000;0,225000;0,225000;0,000000;0,250000;0,375000;0,000000;0,000000;0,000000;0,000000;
104;;;;;;;;;;;;;;;;;;;;;;;;;;;;;;;;;;;;;;;;;;;;;;;;;;;;;;;;;;;;;;;;;;;;;;;;;;;;;;;;;;;;;;;;;;;;;;;;;;;;;;;;1,000000;0,493656;0,666667;0,322917;0,666667;0,287170;0,416667;0,533333;0,533333;0,666667;0,416667;0,416667;0,416667;0,291667;0,000000;0,000000;0,000000;0,666667;0,583333;0,333333;0,833333;0,666667;0,666667;0,000000;0,000000;0,000000;0,000000;0,000000;0,000000;0,500000;0,000000;0,000000;0,333333;0,416667;0,000000;0,000000;
105;;;;;;;;;;;;;;;;;;;;;;;;;;;;;;;;;;;;;;;;;;;;;;;;;;;;;;;;;;;;;;;;;;;;;;;;;;;;;;;;;;;;;;;;;;;;;;;;;;;;;;;;;1,000000;0,620225;0,276475;0,620225;0,240729;0,370225;0,723069;0,723069;0,493656;0,370225;0,370225;0,370225;0,455879;0,000000;0,000000;0,000000;0,620225;0,615078;0,286892;0,660323;0,620225;0,620225;0,000000;0,000000;0,000000;0,000000;0,000000;0,000000;0,453559;0,000000;0,000000;0,286892;0,370225;0,000000;0,000000;
106;;;;;;;;;;;;;;;;;;;;;;;;;;;;;;;;;;;;;;;;;;;;;;;;;;;;;;;;;;;;;;;;;;;;;;;;;;;;;;;;;;;;;;;;;;;;;;;;;;;;;;;;;;1,000000;0,656250;1,000000;0,620503;0,750000;0,600000;0,600000;0,666667;0,750000;0,750000;0,750000;0,625000;0,000000;0,000000;0,000000;1,000000;0,625000;0,666667;0,750000;1,000000;1,000000;0,000000;0,000000;0,000000;0,000000;0,000000;0,000000;0,833333;0,000000;0,000000;0,666667;0,750000;0,000000;0,000000;
107;;;;;;;;;;;;;;;;;;;;;;;;;;;;;;;;;;;;;;;;;;;;;;;;;;;;;;;;;;;;;;;;;;;;;;;;;;;;;;;;;;;;;;;;;;;;;;;;;;;;;;;;;;;1,000000;0,656250;0,276753;0,406250;0,256250;0,256250;0,322917;0,406250;0,406250;0,406250;0,281250;0,000000;0,000000;0,000000;0,656250;0,281250;0,322917;0,406250;0,656250;0,656250;0,000000;0,000000;0,000000;0,000000;0,000000;0,000000;0,489583;0,000000;0,000000;0,322917;0,406250;0,000000;0,000000;
108;;;;;;;;;;;;;;;;;;;;;;;;;;;;;;;;;;;;;;;;;;;;;;;;;;;;;;;;;;;;;;;;;;;;;;;;;;;;;;;;;;;;;;;;;;;;;;;;;;;;;;;;;;;;1,000000;0,620503;0,750000;0,600000;0,600000;0,666667;0,750000;0,750000;0,750000;0,625000;0,000000;0,000000;0,000000;1,000000;0,625000;0,666667;0,750000;1,000000;1,000000;0,000000;0,000000;0,000000;0,000000;0,000000;0,000000;0,833333;0,000000;0,000000;0,666667;0,750000;0,000000;0,000000;
109;;;;;;;;;;;;;;;;;;;;;;;;;;;;;;;;;;;;;;;;;;;;;;;;;;;;;;;;;;;;;;;;;;;;;;;;;;;;;;;;;;;;;;;;;;;;;;;;;;;;;;;;;;;;;1,000000;0,370503;0,220503;0,220503;0,287170;0,370503;0,370503;0,370503;0,245503;0,529222;0,529222;0,529222;0,620503;0,245503;0,287170;0,370503;0,620503;0,620503;0,000000;0,000000;0,000000;0,379222;0,379222;0,379222;0,453837;0,404222;0,529222;0,287170;0,370503;0,000000;0,000000;
110;;;;;;;;;;;;;;;;;;;;;;;;;;;;;;;;;;;;;;;;;;;;;;;;;;;;;;;;;;;;;;;;;;;;;;;;;;;;;;;;;;;;;;;;;;;;;;;;;;;;;;;;;;;;;;1,000000;0,350000;0,350000;0,416667;0,500000;0,500000;0,500000;0,375000;0,000000;0,000000;0,000000;0,750000;0,375000;0,416667;0,500000;0,750000;0,750000;0,000000;0,000000;0,000000;0,000000;0,000000;0,000000;0,583333;0,000000;0,000000;0,416667;0,500000;0,000000;0,000000;
111;;;;;;;;;;;;;;;;;;;;;;;;;;;;;;;;;;;;;;;;;;;;;;;;;;;;;;;;;;;;;;;;;;;;;;;;;;;;;;;;;;;;;;;;;;;;;;;;;;;;;;;;;;;;;;;1,000000;0,800000;0,266667;0,350000;0,350000;0,350000;0,450000;0,000000;0,000000;0,000000;0,600000;0,675000;0,266667;0,350000;0,600000;0,600000;0,000000;0,000000;0,000000;0,000000;0,000000;0,000000;0,433333;0,000000;0,000000;0,266667;0,350000;0,000000;0,000000;
112;;;;;;;;;;;;;;;;;;;;;;;;;;;;;;;;;;;;;;;;;;;;;;;;;;;;;;;;;;;;;;;;;;;;;;;;;;;;;;;;;;;;;;;;;;;;;;;;;;;;;;;;;;;;;;;;1,000000;0,266667;0,350000;0,350000;0,350000;0,450000;0,000000;0,000000;0,000000;0,600000;0,675000;0,266667;0,350000;0,600000;0,600000;0,000000;0,000000;0,000000;0,000000;0,000000;0,000000;0,433333;0,000000;0,000000;0,266667;0,350000;0,000000;0,000000;
113;;;;;;;;;;;;;;;;;;;;;;;;;;;;;;;;;;;;;;;;;;;;;;;;;;;;;;;;;;;;;;;;;;;;;;;;;;;;;;;;;;;;;;;;;;;;;;;;;;;;;;;;;;;;;;;;;1,000000;0,416667;0,416667;0,416667;0,291667;0,000000;0,000000;0,000000;0,666667;0,291667;0,333333;0,833333;0,666667;0,666667;0,000000;0,000000;0,000000;0,000000;0,000000;0,000000;0,500000;0,000000;0,000000;0,333333;0,416667;0,000000;0,000000;
114;;;;;;;;;;;;;;;;;;;;;;;;;;;;;;;;;;;;;;;;;;;;;;;;;;;;;;;;;;;;;;;;;;;;;;;;;;;;;;;;;;;;;;;;;;;;;;;;;;;;;;;;;;;;;;;;;;1,000000;0,500000;0,500000;0,375000;0,000000;0,000000;0,000000;0,750000;0,375000;0,416667;0,500000;0,750000;0,750000;0,000000;0,000000;0,000000;0,000000;0,000000;0,000000;0,583333;0,000000;0,000000;0,416667;0,500000;0,000000;0,000000;
115;;;;;;;;;;;;;;;;;;;;;;;;;;;;;;;;;;;;;;;;;;;;;;;;;;;;;;;;;;;;;;;;;;;;;;;;;;;;;;;;;;;;;;;;;;;;;;;;;;;;;;;;;;;;;;;;;;;1,000000;0,500000;0,375000;0,000000;0,000000;0,000000;0,750000;0,375000;0,416667;0,500000;0,750000;0,750000;0,000000;0,000000;0,000000;0,000000;0,000000;0,000000;1,000000;0,000000;0,000000;0,416667;0,500000;0,000000;0,000000;
116;;;;;;;;;;;;;;;;;;;;;;;;;;;;;;;;;;;;;;;;;;;;;;;;;;;;;;;;;;;;;;;;;;;;;;;;;;;;;;;;;;;;;;;;;;;;;;;;;;;;;;;;;;;;;;;;;;;;1,000000;0,375000;0,000000;0,000000;0,000000;0,750000;0,375000;0,416667;0,500000;0,750000;0,750000;0,000000;0,000000;0,000000;0,000000;0,000000;0,000000;0,583333;0,000000;0,000000;0,416667;0,500000;0,000000;0,000000;
117;;;;;;;;;;;;;;;;;;;;;;;;;;;;;;;;;;;;;;;;;;;;;;;;;;;;;;;;;;;;;;;;;;;;;;;;;;;;;;;;;;;;;;;;;;;;;;;;;;;;;;;;;;;;;;;;;;;;;1,000000;0,000000;0,000000;0,000000;0,625000;0,500000;0,291667;0,375000;0,625000;0,625000;0,000000;0,000000;0,000000;0,000000;0,000000;0,000000;0,458333;0,000000;0,000000;0,291667;0,375000;0,000000;0,000000;
118;;;;;;;;;;;;;;;;;;;;;;;;;;;;;;;;;;;;;;;;;;;;;;;;;;;;;;;;;;;;;;;;;;;;;;;;;;;;;;;;;;;;;;;;;;;;;;;;;;;;;;;;;;;;;;;;;;;;;;1,000000;0,500000;0,500000;0,000000;0,000000;0,000000;0,000000;0,000000;0,000000;0,000000;0,000000;0,000000;0,350000;0,350000;0,350000;0,000000;0,375000;0,500000;0,000000;0,000000;0,000000;0,000000;
119;;;;;;;;;;;;;;;;;;;;;;;;;;;;;;;;;;;;;;;;;;;;;;;;;;;;;;;;;;;;;;;;;;;;;;;;;;;;;;;;;;;;;;;;;;;;;;;;;;;;;;;;;;;;;;;;;;;;;;;1,000000;0,500000;0,000000;0,000000;0,000000;0,000000;0,000000;0,000000;0,000000;0,000000;0,000000;0,350000;0,350000;0,350000;0,000000;0,375000;0,500000;0,000000;0,000000;0,000000;0,000000;
120;;;;;;;;;;;;;;;;;;;;;;;;;;;;;;;;;;;;;;;;;;;;;;;;;;;;;;;;;;;;;;;;;;;;;;;;;;;;;;;;;;;;;;;;;;;;;;;;;;;;;;;;;;;;;;;;;;;;;;;;1,000000;0,000000;0,000000;0,000000;0,000000;0,000000;0,000000;0,000000;0,000000;0,000000;0,350000;0,350000;0,350000;0,000000;0,375000;0,500000;0,000000;0,000000;0,000000;0,000000;
121;;;;;;;;;;;;;;;;;;;;;;;;;;;;;;;;;;;;;;;;;;;;;;;;;;;;;;;;;;;;;;;;;;;;;;;;;;;;;;;;;;;;;;;;;;;;;;;;;;;;;;;;;;;;;;;;;;;;;;;;;1,000000;0,625000;0,666667;0,750000;1,000000;1,000000;0,000000;0,000000;0,000000;0,000000;0,000000;0,000000;0,833333;0,000000;0,000000;0,666667;0,750000;0,000000;0,000000;
122;;;;;;;;;;;;;;;;;;;;;;;;;;;;;;;;;;;;;;;;;;;;;;;;;;;;;;;;;;;;;;;;;;;;;;;;;;;;;;;;;;;;;;;;;;;;;;;;;;;;;;;;;;;;;;;;;;;;;;;;;;1,000000;0,291667;0,375000;0,625000;0,625000;0,000000;0,000000;0,000000;0,000000;0,000000;0,000000;0,458333;0,000000;0,000000;0,291667;0,375000;0,000000;0,000000;
123;;;;;;;;;;;;;;;;;;;;;;;;;;;;;;;;;;;;;;;;;;;;;;;;;;;;;;;;;;;;;;;;;;;;;;;;;;;;;;;;;;;;;;;;;;;;;;;;;;;;;;;;;;;;;;;;;;;;;;;;;;;1,000000;0,416667;0,666667;0,666667;0,000000;0,000000;0,000000;0,000000;0,000000;0,000000;0,500000;0,291667;0,416667;0,333333;0,416667;0,000000;0,000000;
124;;;;;;;;;;;;;;;;;;;;;;;;;;;;;;;;;;;;;;;;;;;;;;;;;;;;;;;;;;;;;;;;;;;;;;;;;;;;;;;;;;;;;;;;;;;;;;;;;;;;;;;;;;;;;;;;;;;;;;;;;;;;1,000000;0,750000;0,750000;0,000000;0,000000;0,000000;0,000000;0,000000;0,000000;0,583333;0,000000;0,000000;0,416667;0,500000;0,000000;0,000000;
125;;;;;;;;;;;;;;;;;;;;;;;;;;;;;;;;;;;;;;;;;;;;;;;;;;;;;;;;;;;;;;;;;;;;;;;;;;;;;;;;;;;;;;;;;;;;;;;;;;;;;;;;;;;;;;;;;;;;;;;;;;;;;1,000000;1,000000;0,000000;0,000000;0,000000;0,000000;0,000000;0,000000;0,833333;0,000000;0,000000;0,666667;0,750000;0,000000;0,000000;
126;;;;;;;;;;;;;;;;;;;;;;;;;;;;;;;;;;;;;;;;;;;;;;;;;;;;;;;;;;;;;;;;;;;;;;;;;;;;;;;;;;;;;;;;;;;;;;;;;;;;;;;;;;;;;;;;;;;;;;;;;;;;;;1,000000;0,000000;0,000000;0,000000;0,000000;0,000000;0,000000;0,833333;0,000000;0,000000;0,666667;0,750000;0,000000;0,000000;
127;;;;;;;;;;;;;;;;;;;;;;;;;;;;;;;;;;;;;;;;;;;;;;;;;;;;;;;;;;;;;;;;;;;;;;;;;;;;;;;;;;;;;;;;;;;;;;;;;;;;;;;;;;;;;;;;;;;;;;;;;;;;;;;1,000000;0,500000;0,500000;0,000000;0,000000;0,000000;0,000000;0,000000;0,000000;0,000000;0,000000;0,000000;0,000000;
128;;;;;;;;;;;;;;;;;;;;;;;;;;;;;;;;;;;;;;;;;;;;;;;;;;;;;;;;;;;;;;;;;;;;;;;;;;;;;;;;;;;;;;;;;;;;;;;;;;;;;;;;;;;;;;;;;;;;;;;;;;;;;;;;1,000000;0,500000;0,000000;0,000000;0,000000;0,000000;0,000000;0,000000;0,000000;0,000000;0,000000;0,000000;
129;;;;;;;;;;;;;;;;;;;;;;;;;;;;;;;;;;;;;;;;;;;;;;;;;;;;;;;;;;;;;;;;;;;;;;;;;;;;;;;;;;;;;;;;;;;;;;;;;;;;;;;;;;;;;;;;;;;;;;;;;;;;;;;;;1,000000;0,000000;0,000000;0,000000;0,000000;0,000000;0,000000;0,000000;0,000000;0,000000;0,000000;
130;;;;;;;;;;;;;;;;;;;;;;;;;;;;;;;;;;;;;;;;;;;;;;;;;;;;;;;;;;;;;;;;;;;;;;;;;;;;;;;;;;;;;;;;;;;;;;;;;;;;;;;;;;;;;;;;;;;;;;;;;;;;;;;;;;1,000000;0,800000;0,800000;0,000000;0,450000;0,350000;0,000000;0,350000;0,000000;0,000000;
131;;;;;;;;;;;;;;;;;;;;;;;;;;;;;;;;;;;;;;;;;;;;;;;;;;;;;;;;;;;;;;;;;;;;;;;;;;;;;;;;;;;;;;;;;;;;;;;;;;;;;;;;;;;;;;;;;;;;;;;;;;;;;;;;;;;1,000000;0,800000;0,000000;0,450000;0,350000;0,000000;0,350000;0,000000;0,000000;
132;;;;;;;;;;;;;;;;;;;;;;;;;;;;;;;;;;;;;;;;;;;;;;;;;;;;;;;;;;;;;;;;;;;;;;;;;;;;;;;;;;;;;;;;;;;;;;;;;;;;;;;;;;;;;;;;;;;;;;;;;;;;;;;;;;;;1,000000;0,000000;0,450000;0,350000;0,000000;0,350000;0,000000;0,000000;
133;;;;;;;;;;;;;;;;;;;;;;;;;;;;;;;;;;;;;;;;;;;;;;;;;;;;;;;;;;;;;;;;;;;;;;;;;;;;;;;;;;;;;;;;;;;;;;;;;;;;;;;;;;;;;;;;;;;;;;;;;;;;;;;;;;;;;1,000000;0,000000;0,000000;0,500000;0,583333;0,000000;0,000000;
134;;;;;;;;;;;;;;;;;;;;;;;;;;;;;;;;;;;;;;;;;;;;;;;;;;;;;;;;;;;;;;;;;;;;;;;;;;;;;;;;;;;;;;;;;;;;;;;;;;;;;;;;;;;;;;;;;;;;;;;;;;;;;;;;;;;;;;1,000000;0,750000;0,000000;0,000000;0,000000;0,000000;
135;;;;;;;;;;;;;;;;;;;;;;;;;;;;;;;;;;;;;;;;;;;;;;;;;;;;;;;;;;;;;;;;;;;;;;;;;;;;;;;;;;;;;;;;;;;;;;;;;;;;;;;;;;;;;;;;;;;;;;;;;;;;;;;;;;;;;;;1,000000;0,000000;0,000000;0,000000;0,000000;
136;;;;;;;;;;;;;;;;;;;;;;;;;;;;;;;;;;;;;;;;;;;;;;;;;;;;;;;;;;;;;;;;;;;;;;;;;;;;;;;;;;;;;;;;;;;;;;;;;;;;;;;;;;;;;;;;;;;;;;;;;;;;;;;;;;;;;;;;1,000000;0,416667;0,000000;0,000000;
137;;;;;;;;;;;;;;;;;;;;;;;;;;;;;;;;;;;;;;;;;;;;;;;;;;;;;;;;;;;;;;;;;;;;;;;;;;;;;;;;;;;;;;;;;;;;;;;;;;;;;;;;;;;;;;;;;;;;;;;;;;;;;;;;;;;;;;;;;1,000000;0,000000;0,000000;
138;;;;;;;;;;;;;;;;;;;;;;;;;;;;;;;;;;;;;;;;;;;;;;;;;;;;;;;;;;;;;;;;;;;;;;;;;;;;;;;;;;;;;;;;;;;;;;;;;;;;;;;;;;;;;;;;;;;;;;;;;;;;;;;;;;;;;;;;;;1,000000;0,000000;
139;;;;;;;;;;;;;;;;;;;;;;;;;;;;;;;;;;;;;;;;;;;;;;;;;;;;;;;;;;;;;;;;;;;;;;;;;;;;;;;;;;;;;;;;;;;;;;;;;;;;;;;;;;;;;;;;;;;;;;;;;;;;;;;;;;;;;;;;;;;1,000000;
