;1; 2; 3; 4; 5; 6; 7; 8; 9; 10; 11; 12; 13; 14; 15; 16; 17; 18; 19; 20; 21; 22; 23; 24; 25; 26; 27; 28; 29; 30; 31; 32; 33; 34; 35; 36; 37; 38; 39; 40; 41; 42; 43; 44; 45; 46; 47; 48; 49; 50; 51; 52; 53; 54; 55; 56; 57; 58; 59; 60; 61; 62; 63; 64; 65; 66; 67; 68; 69; 70; 71; 72; 73; 74; 75; 76; 77; 78; 79; 80; 81; 82; 83; 84; 85; 86; 87; 88; 89; 90
1;1,000000;0,444958;0,396734;0,302868;0,436018;0,490942;0,431515;0,199883;0,237206;0,201281;0,201998;0,388531;0,300221;0,464664;0,287059;0,362783;0,363280;0,363802;0,548885;0,297213;0,249233;0,249497;0,322387;0,373304;0,373686;0,351694;0,425484;0,632807;0,460240;0,632807;0,632807;0,000000;0,318939;0,432089;0,242811;0,260802;0,243075;0,143284;0,143489;0,143694;0,340587;0,340587;0,336817;0,632807;0,339223;0,260296;0,260522;0,392271;0,466830;0,632807;0,346402;0,314060;0,347404;0,347404;0,499322;0,423098;0,304332;0,263138;0,270841;0,350163;0,332344;0,232672;0,347158;0,267440;0,300881;0,352994;0,352994;0,273208;0,273296;0,000000;0,000000;0,271877;0,294663;0,650796;0,236308;0,338510;0,380047;0,356799;0,277712;0,277775;0,277838;0,358323;0,358323;0,357727;0,355993;0,408949;0,309642;0,343967;0,591577;0,358615;
2;;1,000000;0,571405;0,351953;0,422982;0,272780;0,426481;0,103541;0,140864;0,104940;0,105656;0,292190;0,419008;0,154514;0,629768;0,319438;0,319934;0,320457;0,307367;0,629768;0,152892;0,153155;0,226045;0,329959;0,330341;0,255352;0,399673;0,536465;0,190726;0,536465;0,536465;0,000000;0,206370;0,170573;0,146469;0,164461;0,146734;0,190586;0,190790;0,190995;0,244245;0,244245;0,240475;0,536465;0,242881;0,163954;0,164180;0,127919;0,162995;0,536465;0,250060;0,217719;0,251062;0,251062;0,241576;0,150737;0,207991;0,166796;0,174499;0,253822;0,629768;0,136330;0,250816;0,171099;0,204539;0,256653;0,256653;0,176866;0,176954;0,000000;0,000000;0,175535;0,198321;0,607450;0,139966;0,629768;0,283705;0,260457;0,181370;0,181433;0,181497;0,261982;0,261982;0,261385;0,259651;0,312608;0,213300;0,247626;0,137881;0,262273;
3;;;1,000000;0,311930;0,486654;0,275031;0,484233;0,123206;0,160529;0,124605;0,125321;0,311855;0,476759;0,174179;0,709640;0,321689;0,322186;0,322709;0,309619;0,709640;0,172557;0,172820;0,245710;0,332210;0,332593;0,275017;0,479544;0,556130;0,210391;0,556130;0,556130;0,000000;0,208622;0,190239;0,166135;0,184126;0,166399;0,174131;0,174336;0,174541;0,263910;0,263910;0,260140;0,556130;0,262547;0,183619;0,183845;0,147584;0,182660;0,556130;0,269725;0,237384;0,270727;0,270727;0,261241;0,170403;0,227656;0,186461;0,194164;0,273487;0,709640;0,155995;0,270481;0,190764;0,224205;0,276318;0,276318;0,196531;0,196620;0,000000;0,000000;0,195200;0,217986;0,609702;0,159631;0,709640;0,303371;0,280122;0,201035;0,201098;0,201162;0,281647;0,281647;0,281050;0,279316;0,332273;0,232966;0,267291;0,157546;0,281939;
4;;;;1,000000;0,439394;0,360054;0,379549;0,376881;0,353748;0,382929;0,385472;0,248263;0,399187;0,352560;0,231895;0,408876;0,410233;0,411496;0,354370;0,241195;0,394579;0,395649;0,331020;0,411486;0,412401;0,245751;0,361422;0,000000;0,365198;0,000000;0,000000;0,502216;0,294278;0,396361;0,422354;0,377932;0,423483;0,296293;0,296472;0,296654;0,371119;0,371682;0,305693;0,000000;0,286945;0,380373;0,380868;0,419305;0,442207;0,000000;0,308718;0,381148;0,336309;0,336791;0,291626;0,407576;0,350706;0,391440;0,422032;0,265917;0,275047;0,429797;0,288839;0,406631;0,408302;0,381584;0,381893;0,410914;0,411171;0,292356;0,292356;0,387227;0,409621;0,274841;0,431253;0,281114;0,346645;0,306222;0,422813;0,423002;0,423189;0,385919;0,386153;0,308145;0,336014;0,284315;0,376451;0,311702;0,430147;0,309910;
5;;;;;1,000000;0,327207;0,331376;0,134388;0,171711;0,135786;0,136503;0,323036;0,383156;0,459797;0,587765;0,515469;0,516876;0,518190;0,531860;0,587765;0,183738;0,184002;0,256892;0,517489;0,518461;0,286199;0,531146;0,567312;0,397789;0,567312;0,567312;0,519204;0,492215;0,548640;0,177316;0,195307;0,177580;0,484771;0,485209;0,485634;0,275092;0,275092;0,271322;0,567312;0,273728;0,194801;0,195027;0,505176;0,388128;0,567312;0,280907;0,248565;0,281909;0,281909;0,436871;0,360647;0,238837;0,197643;0,205346;0,284668;0,587765;0,167177;0,281663;0,201946;0,235386;0,287499;0,287499;0,207713;0,207801;0,000000;0,000000;0,206382;0,229168;0,273728;0,170813;0,587765;0,314552;0,291304;0,212217;0,212280;0,212343;0,292828;0,292828;0,292232;0,290498;0,343454;0,244147;0,592348;0,346093;0,293120;
6;;;;;;1,000000;0,555553;0,167652;0,204975;0,169051;0,169767;0,356301;0,382510;0,218625;0,254828;0,377317;0,377814;0,378337;0,365247;0,264982;0,217003;0,217266;0,290156;0,387838;0,388221;0,319463;0,612151;0,600576;0,254837;0,600576;0,600576;0,000000;0,264250;0,234685;0,210581;0,228572;0,210845;0,177769;0,177974;0,178178;0,308356;0,308356;0,304586;0,600576;0,306992;0,228065;0,228291;0,664309;0,555336;0,600576;0,314171;0,281830;0,315173;0,315173;0,305687;0,214849;0,383196;0,316452;0,329046;0,317933;0,300114;0,200441;0,314927;0,235210;0,268650;0,320764;0,320764;0,240977;0,241066;0,318869;0,318869;0,239646;0,262432;0,665330;0,405735;0,306279;0,347816;0,324568;0,245481;0,245544;0,245608;0,326093;0,326093;0,325496;0,323762;0,376719;0,277411;0,311737;0,680668;0,326384;
7;;;;;;;1,000000;0,169935;0,207258;0,171333;0,172050;0,358583;0,431065;0,220907;0,635130;0,346497;0,346993;0,347516;0,334426;0,635130;0,219285;0,219549;0,292439;0,357018;0,357400;0,321746;0,621771;0,602858;0,257120;0,602858;0,602858;0,000000;0,233429;0,236967;0,212863;0,230854;0,213127;0,156801;0,157005;0,157210;0,310639;0,310639;0,306869;0,602858;0,309275;0,230348;0,230574;0,638687;0,592641;0,602858;0,316454;0,284112;0,317456;0,317456;0,307969;0,217131;0,413464;0,346720;0,359314;0,320215;0,635130;0,202724;0,317209;0,237492;0,270933;0,323046;0,323046;0,243259;0,243348;0,340585;0,340585;0,241929;0,264715;0,634509;0,436003;0,635130;0,350099;0,326851;0,247763;0,247827;0,247890;0,328375;0,328375;0,327779;0,326045;0,379001;0,279694;0,679943;0,661022;0,328667;
8;;;;;;;;1,000000;0,641655;0,702149;0,706010;0,322801;0,203780;0,185125;0,221328;0,143053;0,143577;0,144090;0,193463;0,231483;0,183503;0,183766;0,256656;0,149114;0,149499;0,285963;0,201309;0,567076;0,221337;0,567076;0,567076;0,000000;0,104749;0,201185;0,177081;0,195072;0,177345;0,000000;0,000000;0,000000;0,274856;0,274856;0,271086;0,567076;0,273493;0,536145;0,536145;0,158530;0,193606;0,567076;0,280671;0,248330;0,281673;0,281673;0,272187;0,181349;0,238602;0,197407;0,205110;0,284433;0,266614;0,166941;0,281427;0,201710;0,235151;0,287264;0,287264;0,207477;0,207566;0,000000;0,000000;0,206146;0,228932;0,273493;0,170577;0,272780;0,314317;0,291068;0,211981;0,212044;0,212108;0,292593;0,292593;0,291996;0,290262;0,343219;0,243912;0,278237;0,168492;0,292885;
9;;;;;;;;;1,000000;0,647486;0,650064;0,360124;0,241103;0,222448;0,258651;0,180376;0,180900;0,181413;0,230786;0,268806;0,220826;0,221089;0,293979;0,186438;0,186822;0,323286;0,238632;0,604399;0,258660;0,604399;0,604399;0,000000;0,142072;0,238508;0,214404;0,232395;0,214668;0,000000;0,000000;0,000000;0,312179;0,312179;0,308409;0,604399;0,310816;0,539888;0,540469;0,195853;0,230929;0,604399;0,317994;0,285653;0,318996;0,318996;0,309510;0,218672;0,275925;0,234730;0,242433;0,321756;0,303937;0,204264;0,318750;0,239033;0,272474;0,324587;0,324587;0,244800;0,244889;0,000000;0,000000;0,243469;0,266255;0,310816;0,207900;0,310103;0,351640;0,328391;0,249304;0,249367;0,249431;0,329916;0,329916;0,329319;0,327585;0,380542;0,281235;0,315560;0,205815;0,330208;
10;;;;;;;;;;1,000000;0,712900;0,324199;0,205178;0,186523;0,222727;0,144452;0,144976;0,145489;0,194862;0,232881;0,184901;0,185165;0,258055;0,150513;0,150898;0,287362;0,202707;0,568475;0,222736;0,568475;0,568475;0,000000;0,106148;0,202583;0,178479;0,196470;0,178743;0,000000;0,000000;0,000000;0,276255;0,276255;0,272485;0,568475;0,274891;0,538116;0,538116;0,159929;0,195004;0,568475;0,282070;0,249728;0,283072;0,283072;0,273585;0,182747;0,240000;0,198806;0,206509;0,285831;0,268012;0,168340;0,282826;0,203108;0,236549;0,288662;0,288662;0,208876;0,208964;0,000000;0,000000;0,207545;0,230331;0,274891;0,171976;0,274178;0,315715;0,292467;0,213380;0,213443;0,213506;0,293991;0,293991;0,293395;0,291661;0,344617;0,245310;0,279635;0,169891;0,294283;
11;;;;;;;;;;;1,000000;0,324916;0,205895;0,187240;0,223443;0,145168;0,145692;0,146205;0,195578;0,233598;0,185618;0,185881;0,258771;0,151230;0,151614;0,288078;0,203424;0,569191;0,223452;0,569191;0,569191;0,000000;0,106864;0,203300;0,179196;0,197187;0,179460;0,000000;0,000000;0,000000;0,276971;0,276971;0,273201;0,569191;0,275608;0,539256;0,539256;0,160645;0,195721;0,569191;0,282786;0,250445;0,283788;0,283788;0,274302;0,183464;0,240717;0,199522;0,207225;0,286548;0,268729;0,169056;0,283542;0,203825;0,237266;0,289379;0,289379;0,209592;0,209681;0,000000;0,000000;0,208261;0,231047;0,275608;0,172692;0,274895;0,316432;0,293183;0,214096;0,214159;0,214223;0,294708;0,294708;0,294111;0,292377;0,345334;0,246027;0,280352;0,170607;0,295000;
12;;;;;;;;;;;;1,000000;0,392428;0,373773;0,409977;0,331702;0,332226;0,332739;0,382112;0,420131;0,372151;0,372415;0,445305;0,337763;0,338148;0,474612;0,389957;0,755725;0,409986;0,755725;0,755725;0,000000;0,293398;0,389833;0,365729;0,383720;0,365993;0,000000;0,000000;0,000000;0,463505;0,463505;0,459735;0,755725;0,462141;0,383214;0,383440;0,347179;0,382255;0,755725;0,469320;0,436978;0,470322;0,470322;0,460835;0,369997;0,427250;0,386056;0,393759;0,473081;0,455262;0,355590;0,470076;0,759669;0,745364;0,475912;0,475912;0,396126;0,396214;0,000000;0,000000;0,394795;0,417581;0,462141;0,359226;0,461428;0,502965;0,479717;0,400630;0,400693;0,400756;0,481241;0,481241;0,480645;0,899425;0,531867;0,432560;0,466885;0,357141;0,481533;
13;;;;;;;;;;;;;1,000000;0,589092;0,649194;0,361412;0,361909;0,362432;0,428826;0,649194;0,253130;0,253393;0,326283;0,581270;0,581270;0,355591;0,473253;0,636703;0,583209;0,636703;0,636703;0,511598;0,508308;0,608301;0,246708;0,264699;0,246972;0,304339;0,304518;0,304700;0,344484;0,344484;0,340714;0,636703;0,677070;0,264193;0,264419;0,375132;0,263233;0,636703;0,350298;0,317957;0,351301;0,351301;0,563997;0,642407;0,377708;0,310963;0,323557;0,354060;0,649194;0,236569;0,351054;0,271337;0,304778;0,356891;0,356891;0,277104;0,277193;0,287861;0,287861;0,547501;0,450608;0,649425;0,400247;0,649194;0,383944;0,360696;0,281608;0,281671;0,281735;0,362220;0,362220;0,361624;0,359889;0,412846;0,313539;0,347864;0,394138;0,362512;
14;;;;;;;;;;;;;;1,000000;0,272301;0,194026;0,194550;0,195063;0,687769;0,282455;0,234475;0,234739;0,307629;0,200087;0,200472;0,336936;0,252281;0,618049;0,751285;0,618049;0,618049;0,528117;0,512769;0,697376;0,228053;0,246044;0,228318;0,189547;0,189892;0,190232;0,325829;0,325829;0,322059;0,618049;0,649906;0,245538;0,245764;0,209503;0,466883;0,618049;0,331644;0,299302;0,332646;0,332646;0,881646;0,771619;0,289574;0,248380;0,256083;0,335406;0,317586;0,217914;0,332400;0,252683;0,286123;0,338236;0,338236;0,258450;0,258538;0,000000;0,000000;0,513092;0,416199;0,324465;0,221550;0,323752;0,365289;0,342041;0,262954;0,263017;0,263080;0,343565;0,343565;0,342969;0,341235;0,394191;0,294884;0,329210;0,219465;0,343857;
15;;;;;;;;;;;;;;;1,000000;0,230229;0,230753;0,231266;0,280639;1,000000;0,270679;0,270942;0,343832;0,236290;0,236675;0,373139;0,769904;0,654252;0,308513;0,654252;0,654252;0,000000;0,191925;0,288361;0,264257;0,282248;0,264521;0,000000;0,000000;0,000000;0,362032;0,362032;0,358262;0,654252;0,360669;0,281741;0,281967;0,245706;0,280782;0,654252;0,367847;0,335506;0,368849;0,368849;0,359363;0,268525;0,325778;0,284583;0,292286;0,371609;1,000000;0,254117;0,368603;0,288886;0,322327;0,374440;0,374440;0,294653;0,294742;0,000000;0,000000;0,293322;0,316108;0,360669;0,257753;1,000000;0,401493;0,378244;0,299157;0,299220;0,299284;0,379769;0,379769;0,379172;0,377438;0,430395;0,331088;0,365413;0,255668;0,380061;
16;;;;;;;;;;;;;;;;1,000000;0,758879;0,760432;0,411904;0,240383;0,192404;0,192667;0,265557;0,434496;0,434878;0,294864;0,210210;0,575977;0,230238;0,575977;0,575977;0,000000;0,310907;0,210085;0,185981;0,203973;0,186246;0,246758;0,246963;0,247168;0,283757;0,283757;0,279987;0,575977;0,282393;0,203466;0,203692;0,167431;0,202507;0,575977;0,289572;0,257231;0,290574;0,290574;0,281088;0,190249;0,247503;0,206308;0,214011;0,293334;0,275515;0,175842;0,290328;0,210611;0,244051;0,296165;0,296165;0,216378;0,216466;0,000000;0,000000;0,215047;0,237833;0,711987;0,179478;0,281680;0,323217;0,299969;0,220882;0,220945;0,221009;0,301494;0,301494;0,300897;0,299163;0,352120;0,252812;0,287138;0,177393;0,301785;
17;;;;;;;;;;;;;;;;;1,000000;0,761920;0,412401;0,240908;0,192928;0,193191;0,266081;0,434993;0,435375;0,295388;0,210734;0,576501;0,230762;0,576501;0,576501;0,000000;0,311404;0,210610;0,186506;0,204497;0,186770;0,247496;0,247701;0,247906;0,284281;0,284281;0,280511;0,576501;0,282918;0,203990;0,204216;0,167955;0,203031;0,576501;0,290096;0,257755;0,291098;0,291098;0,281612;0,190774;0,248027;0,206832;0,214535;0,293858;0,276039;0,176366;0,290852;0,211135;0,244576;0,296689;0,296689;0,216902;0,216991;0,000000;0,000000;0,215571;0,238357;0,712484;0,180002;0,282205;0,323742;0,300493;0,221406;0,221469;0,221533;0,302018;0,302018;0,301421;0,299687;0,352644;0,253337;0,287662;0,177917;0,302309;
18;;;;;;;;;;;;;;;;;;1,000000;0,412924;0,241421;0,193441;0,193704;0,266594;0,435516;0,435898;0,295901;0,211247;0,577014;0,231275;0,577014;0,577014;0,000000;0,311927;0,211123;0,187019;0,205010;0,187283;0,248215;0,248420;0,248625;0,284794;0,284794;0,281024;0,577014;0,283431;0,204503;0,204729;0,168468;0,203544;0,577014;0,290609;0,258268;0,291611;0,291611;0,282125;0,191287;0,248540;0,207345;0,215048;0,294371;0,276552;0,176879;0,291365;0,211648;0,245089;0,297202;0,297202;0,217415;0,217504;0,000000;0,000000;0,216084;0,238870;0,713007;0,180515;0,282718;0,324255;0,301006;0,221919;0,221982;0,222046;0,302531;0,302531;0,301934;0,300200;0,353157;0,253850;0,288175;0,178430;0,302823;
19;;;;;;;;;;;;;;;;;;;1,000000;0,290794;0,242814;0,243077;0,315967;0,636153;0,636791;0,345275;0,260620;0,626387;0,610486;0,626387;0,626387;0,000000;0,645126;0,582335;0,236392;0,254383;0,236656;0,191071;0,191276;0,191481;0,334168;0,334168;0,330397;0,626387;0,665631;0,253877;0,254103;0,217841;0,445514;0,626387;0,339982;0,307641;0,340985;0,340985;0,649568;0,573344;0,297913;0,256718;0,264421;0,343744;0,325925;0,226252;0,340738;0,261021;0,294462;0,346575;0,346575;0,266788;0,266877;0,000000;0,000000;0,265457;0,288243;0,699917;0,229888;0,332091;0,373628;0,350380;0,271292;0,271355;0,271419;0,351904;0,351904;0,351308;0,349573;0,402530;0,303223;0,337548;0,227804;0,352196;
20;;;;;;;;;;;;;;;;;;;;1,000000;0,280833;0,281097;0,353987;0,246445;0,246829;0,383294;0,769904;0,664406;0,318668;0,664406;0,664406;0,000000;0,202080;0,298515;0,274411;0,292402;0,274675;0,000000;0,000000;0,000000;0,372187;0,372187;0,368417;0,664406;0,370823;0,291896;0,292122;0,255861;0,290936;0,664406;0,378002;0,345660;0,379004;0,379004;0,369517;0,278679;0,335932;0,294737;0,302441;0,381763;1,000000;0,264272;0,378757;0,299040;0,332481;0,384594;0,384594;0,304807;0,304896;0,000000;0,000000;0,303477;0,326263;0,370823;0,267908;1,000000;0,411647;0,388399;0,309311;0,309375;0,309438;0,389923;0,389923;0,389327;0,387593;0,440549;0,341242;0,375567;0,265823;0,390215;
21;;;;;;;;;;;;;;;;;;;;;1,000000;0,707086;0,750147;0,198465;0,198850;0,335314;0,250659;0,616427;0,270688;0,616427;0,616427;0,000000;0,154100;0,250535;0,226431;0,244422;0,226695;0,000000;0,000000;0,000000;0,324207;0,324207;0,320437;0,616427;0,322843;0,243916;0,244142;0,207881;0,242957;0,616427;0,330022;0,297680;0,331024;0,331024;0,321537;0,230699;0,287952;0,246758;0,254461;0,333783;0,315964;0,216292;0,330778;0,251060;0,284501;0,336614;0,336614;0,256828;0,256916;0,000000;0,000000;0,255497;0,278283;0,322843;0,219928;0,322130;0,363667;0,340419;0,261332;0,261395;0,261458;0,341943;0,341943;0,341347;0,339613;0,392569;0,293262;0,327587;0,217843;0,342235;
22;;;;;;;;;;;;;;;;;;;;;;1,000000;0,751253;0,198728;0,199113;0,335577;0,250923;0,616690;0,270951;0,616690;0,616690;0,000000;0,154363;0,250799;0,226695;0,244686;0,226959;0,000000;0,000000;0,000000;0,324470;0,324470;0,320700;0,616690;0,323107;0,244179;0,244405;0,208144;0,243220;0,616690;0,330285;0,297944;0,331287;0,331287;0,321801;0,230963;0,288216;0,247021;0,254724;0,334047;0,316228;0,216555;0,331041;0,251324;0,284765;0,336878;0,336878;0,257091;0,257180;0,000000;0,000000;0,255760;0,278546;0,323107;0,220191;0,322394;0,363931;0,340682;0,261595;0,261658;0,261722;0,342207;0,342207;0,341610;0,339876;0,392833;0,293526;0,327851;0,218106;0,342498;
23;;;;;;;;;;;;;;;;;;;;;;;1,000000;0,271618;0,272003;0,408467;0,323813;0,689580;0,343841;0,689580;0,689580;0,000000;0,227253;0,323689;0,299585;0,317576;0,299849;0,000000;0,000000;0,000000;0,397360;0,397360;0,393590;0,689580;0,395997;0,317069;0,317295;0,281034;0,316110;0,689580;0,403175;0,370834;0,404177;0,404177;0,394691;0,303853;0,361106;0,319911;0,327614;0,406937;0,389118;0,289445;0,403931;0,324214;0,357655;0,409768;0,409768;0,329981;0,330070;0,000000;0,000000;0,328650;0,351436;0,395997;0,293081;0,395284;0,436821;0,413572;0,334485;0,334548;0,334612;0,415097;0,415097;0,414500;0,412766;0,465723;0,366416;0,400741;0,290996;0,415388;
24;;;;;;;;;;;;;;;;;;;;;;;;1,000000;0,733653;0,300926;0,216271;0,582038;0,236299;0,582038;0,582038;0,000000;0,321429;0,415274;0,192043;0,210034;0,192307;0,255032;0,255237;0,255442;0,289819;0,289819;0,286048;0,582038;0,288455;0,209528;0,209754;0,173492;0,208568;0,582038;0,295633;0,263292;0,296636;0,296636;0,287149;0,196311;0,253564;0,212369;0,220073;0,299395;0,281576;0,181903;0,296389;0,216672;0,250113;0,302226;0,302226;0,222439;0,222528;0,000000;0,000000;0,221109;0,243895;0,722509;0,185540;0,287742;0,329279;0,306031;0,226943;0,227006;0,227070;0,307555;0,307555;0,306959;0,305224;0,358181;0,258874;0,293199;0,183455;0,307847;
25;;;;;;;;;;;;;;;;;;;;;;;;;1,000000;0,301310;0,216656;0,582423;0,236684;0,582423;0,582423;0,000000;0,321811;0,415937;0,192427;0,210419;0,192692;0,255558;0,255763;0,255968;0,290203;0,290203;0,286433;0,582423;0,288839;0,209912;0,210138;0,173877;0,208953;0,582423;0,296018;0,263677;0,297020;0,297020;0,287534;0,196695;0,253949;0,212754;0,220457;0,299780;0,281961;0,182288;0,296774;0,217057;0,250497;0,302611;0,302611;0,222824;0,222912;0,000000;0,000000;0,221493;0,244279;0,722891;0,185924;0,288126;0,329663;0,306415;0,227328;0,227391;0,227455;0,307939;0,307939;0,307343;0,305609;0,358566;0,259258;0,293584;0,183839;0,308231;
26;;;;;;;;;;;;;;;;;;;;;;;;;;1,000000;0,353120;0,718887;0,373148;0,718887;0,718887;0,000000;0,256560;0,352996;0,328892;0,346883;0,329156;0,000000;0,000000;0,000000;0,426667;0,426667;0,422897;0,718887;0,425304;0,346376;0,346603;0,310341;0,345417;0,718887;0,432482;0,400141;0,433485;0,433485;0,423998;0,333160;0,390413;0,349218;0,356921;0,436244;0,418425;0,318752;1,000000;0,353521;0,386962;0,439075;0,439075;0,359288;0,359377;0,000000;0,000000;0,357957;0,380743;0,425304;0,322388;0,424591;0,466128;0,442880;0,363792;0,363855;0,363919;0,444404;0,444404;0,443808;0,442073;0,495030;0,395723;0,430048;0,320304;0,444696;
27;;;;;;;;;;;;;;;;;;;;;;;;;;;1,000000;0,634233;0,288494;0,634233;0,634233;0,000000;0,171906;0,268341;0,244237;0,262228;0,244501;0,000000;0,000000;0,000000;0,342013;0,342013;0,338243;0,634233;0,340649;0,261722;0,261948;0,682920;0,564901;0,634233;0,347828;0,315486;0,348830;0,348830;0,339343;0,248505;0,405185;0,338440;0,351034;0,351589;0,769904;0,234098;0,348584;0,268866;0,302307;0,354420;0,354420;0,274634;0,274722;0,314048;0,314048;0,273303;0,296089;0,340649;0,427724;0,769904;0,381473;0,358225;0,279138;0,279201;0,279264;0,359749;0,359749;0,359153;0,357419;0,410375;0,311068;0,345393;0,699279;0,360041;
28;;;;;;;;;;;;;;;;;;;;;;;;;;;;1,000000;0,654261;1,000000;1,000000;0,000000;0,537673;0,634109;0,610005;0,627996;0,610269;0,000000;0,000000;0,000000;0,707780;0,707780;0,704010;1,000000;0,706417;0,627489;0,627715;0,591454;0,626530;1,000000;0,713595;0,681254;0,714597;0,714597;0,705111;0,614273;0,671526;0,630331;0,638034;0,717357;0,699538;0,599865;0,714351;0,634634;0,668075;0,720188;0,720188;0,640401;0,640490;0,000000;0,000000;0,639070;0,661856;0,706417;0,603501;0,705704;0,747240;0,723992;0,644905;0,644968;0,645032;0,725517;0,725517;0,724920;0,723186;0,776143;0,676836;0,711161;0,601416;0,725808;
29;;;;;;;;;;;;;;;;;;;;;;;;;;;;;1,000000;0,654261;0,654261;0,000000;0,529055;0,717541;0,264266;0,282257;0,264530;0,000000;0,000000;0,000000;0,362041;0,362041;0,358271;0,654261;0,360678;0,281750;0,281976;0,245715;0,462459;0,654261;0,367856;0,335515;0,368858;0,368858;0,666513;0,768834;0,325787;0,284592;0,292295;0,371618;0,353799;0,254126;0,368612;0,288895;0,322336;0,374449;0,374449;0,294662;0,294751;0,000000;0,000000;0,540178;0,480770;0,360678;0,257762;0,359965;0,401501;0,378253;0,299166;0,299229;0,299293;0,379778;0,379778;0,379181;0,377447;0,593405;0,608505;0,365422;0,255677;0,380069;
30;;;;;;;;;;;;;;;;;;;;;;;;;;;;;;1,000000;1,000000;0,000000;0,537673;0,634109;0,610005;0,627996;0,610269;0,000000;0,000000;0,000000;0,707780;0,707780;0,704010;1,000000;0,706417;0,627489;0,627715;0,591454;0,626530;1,000000;0,713595;0,681254;0,714597;0,714597;0,705111;0,614273;0,671526;0,630331;0,638034;0,717357;0,699538;0,599865;0,714351;0,634634;0,668075;0,720188;0,720188;0,640401;0,640490;0,000000;0,000000;0,639070;0,661856;0,706417;0,603501;0,705704;0,747240;0,723992;0,644905;0,644968;0,645032;0,725517;0,725517;0,724920;0,723186;0,776143;0,676836;0,711161;0,601416;0,725808;
31;;;;;;;;;;;;;;;;;;;;;;;;;;;;;;;1,000000;0,000000;0,537673;0,634109;0,610005;0,627996;0,610269;0,000000;0,000000;0,000000;0,707780;0,707780;0,704010;1,000000;0,706417;0,627489;0,627715;0,591454;0,626530;1,000000;0,713595;0,681254;0,714597;0,714597;0,705111;0,614273;0,671526;0,630331;0,638034;0,717357;0,699538;0,599865;0,714351;0,634634;0,668075;0,720188;0,720188;0,640401;0,640490;0,000000;0,000000;0,639070;0,661856;0,706417;0,603501;0,705704;0,747240;0,723992;0,644905;0,644968;0,645032;0,725517;0,725517;0,724920;0,723186;0,776143;0,676836;0,711161;0,601416;0,725808;
32;;;;;;;;;;;;;;;;;;;;;;;;;;;;;;;;1,000000;0,000000;0,558366;0,000000;0,000000;0,000000;0,661431;0,661776;0,662116;0,000000;0,000000;0,000000;0,000000;0,000000;0,000000;0,000000;0,000000;0,000000;0,000000;0,000000;0,000000;0,000000;0,000000;0,000000;0,000000;0,000000;0,000000;0,000000;0,000000;0,000000;0,000000;0,000000;0,000000;0,000000;0,000000;0,000000;0,000000;0,000000;0,000000;0,000000;0,000000;0,000000;0,000000;0,000000;0,000000;0,000000;0,000000;0,000000;0,000000;0,000000;0,000000;0,000000;0,000000;0,000000;0,000000;0,000000;0,000000;0,000000;0,000000;
33;;;;;;;;;;;;;;;;;;;;;;;;;;;;;;;;;1,000000;0,497808;0,147678;0,165669;0,147942;0,642835;0,643120;0,643398;0,245453;0,245453;0,241683;0,537673;0,609041;0,165162;0,165388;0,129127;0,239500;0,537673;0,251268;0,218927;0,252270;0,252270;0,443554;0,549102;0,209199;0,168004;0,175707;0,255030;0,237211;0,137538;0,252024;0,172307;0,205748;0,257861;0,257861;0,178074;0,178163;0,000000;0,000000;0,176743;0,199529;0,598920;0,141174;0,243377;0,284914;0,261665;0,182578;0,182641;0,182705;0,263190;0,263190;0,262593;0,260859;0,313816;0,214509;0,248834;0,139089;0,263482;
34;;;;;;;;;;;;;;;;;;;;;;;;;;;;;;;;;;1,000000;0,244113;0,262104;0,244377;0,219797;0,220142;0,220482;0,341889;0,341889;0,338119;0,634109;0,340525;0,261598;0,261824;0,225563;0,434308;0,634109;0,347704;0,315362;0,348706;0,348706;0,638362;0,737587;0,305634;0,264440;0,272143;0,351465;0,333646;0,233974;0,348459;0,268742;0,302183;0,354296;0,354296;0,274510;0,274598;0,000000;0,000000;0,273179;0,295965;0,340525;0,237610;0,339812;0,381349;0,358101;0,279014;0,279077;0,279140;0,359625;0,359625;0,359029;0,357295;0,410251;0,310944;0,345269;0,235525;0,359917;
35;;;;;;;;;;;;;;;;;;;;;;;;;;;;;;;;;;;1,000000;0,656493;0,773771;0,000000;0,000000;0,000000;0,317785;0,317785;0,314015;0,610005;0,316421;0,237494;0,237720;0,201459;0,360944;0,610005;0,323600;0,291258;0,324602;0,324602;0,315115;0,224277;0,522909;0,498465;0,579321;0,689188;0,309542;0,762479;0,324356;0,244638;0,278079;0,330192;0,330192;0,250406;0,250494;0,000000;0,000000;0,249075;0,271861;0,316421;0,435288;0,315708;0,357245;0,333997;0,254910;0,254973;0,255036;0,335521;0,335521;0,334925;0,333191;0,386147;0,286840;0,321165;0,211421;0,335813;
36;;;;;;;;;;;;;;;;;;;;;;;;;;;;;;;;;;;;1,000000;0,657795;0,000000;0,000000;0,000000;0,335776;0,335776;0,332006;0,627996;0,334412;0,255485;0,255711;0,219450;0,254526;0,627996;0,341591;0,309249;0,342593;0,342593;0,333106;0,242268;0,299521;0,258327;0,687801;0,345352;0,327533;0,907513;0,342347;0,262629;0,296070;0,348183;0,348183;0,268397;0,268485;0,000000;0,000000;0,267066;0,289852;0,334412;0,231497;0,333699;0,375236;0,351988;0,272901;0,272964;0,273027;0,353512;0,353512;0,352916;0,351182;0,404138;0,304831;0,339156;0,229412;0,353804;
37;;;;;;;;;;;;;;;;;;;;;;;;;;;;;;;;;;;;;1,000000;0,000000;0,000000;0,000000;0,318049;0,318049;0,314279;0,610269;0,316685;0,237758;0,237984;0,201723;0,361262;0,610269;0,323864;0,291522;0,324866;0,324866;0,315380;0,224541;0,523227;0,498784;0,579837;0,689506;0,309806;0,763383;0,324620;0,244903;0,278343;0,330456;0,330456;0,250670;0,250758;0,000000;0,000000;0,249339;0,272125;0,316685;0,435607;0,315972;0,357509;0,334261;0,255174;0,255237;0,255301;0,335785;0,335785;0,335189;0,333455;0,386411;0,287104;0,321430;0,211685;0,336077;
38;;;;;;;;;;;;;;;;;;;;;;;;;;;;;;;;;;;;;;1,000000;0,824987;0,825415;0,000000;0,000000;0,000000;0,000000;0,000000;0,000000;0,000000;0,000000;0,000000;0,000000;0,000000;0,000000;0,000000;0,000000;0,000000;0,000000;0,000000;0,000000;0,000000;0,000000;0,000000;0,000000;0,000000;0,000000;0,000000;0,000000;0,000000;0,000000;0,000000;0,000000;0,000000;0,000000;0,000000;0,400330;0,000000;0,000000;0,000000;0,000000;0,000000;0,000000;0,000000;0,000000;0,000000;0,000000;0,000000;0,000000;0,000000;0,000000;0,000000;0,000000;
39;;;;;;;;;;;;;;;;;;;;;;;;;;;;;;;;;;;;;;;1,000000;0,825835;0,000000;0,000000;0,000000;0,000000;0,000000;0,000000;0,000000;0,000000;0,000000;0,000000;0,000000;0,000000;0,000000;0,000000;0,000000;0,000000;0,000000;0,000000;0,000000;0,000000;0,000000;0,000000;0,000000;0,000000;0,000000;0,000000;0,000000;0,000000;0,000000;0,000000;0,000000;0,000000;0,000000;0,400534;0,000000;0,000000;0,000000;0,000000;0,000000;0,000000;0,000000;0,000000;0,000000;0,000000;0,000000;0,000000;0,000000;0,000000;0,000000;0,000000;
40;;;;;;;;;;;;;;;;;;;;;;;;;;;;;;;;;;;;;;;;1,000000;0,000000;0,000000;0,000000;0,000000;0,000000;0,000000;0,000000;0,000000;0,000000;0,000000;0,000000;0,000000;0,000000;0,000000;0,000000;0,000000;0,000000;0,000000;0,000000;0,000000;0,000000;0,000000;0,000000;0,000000;0,000000;0,000000;0,000000;0,000000;0,000000;0,000000;0,000000;0,000000;0,000000;0,400739;0,000000;0,000000;0,000000;0,000000;0,000000;0,000000;0,000000;0,000000;0,000000;0,000000;0,000000;0,000000;0,000000;0,000000;0,000000;0,000000;
41;;;;;;;;;;;;;;;;;;;;;;;;;;;;;;;;;;;;;;;;;1,000000;0,415560;0,411790;0,707780;0,414197;0,335269;0,335495;0,299234;0,334310;0,707780;0,421375;0,389034;0,422378;0,422378;0,412891;0,322053;0,379306;0,338111;0,345814;0,425137;0,407318;0,307645;0,422131;0,342414;0,375855;0,427968;0,427968;0,348181;0,348270;0,000000;0,000000;0,346850;0,369636;0,414197;0,311281;0,413484;0,455021;0,431773;0,352685;0,352748;0,352812;0,433297;0,433297;0,432700;0,430966;0,483923;0,384616;0,418941;0,309196;0,433589;
42;;;;;;;;;;;;;;;;;;;;;;;;;;;;;;;;;;;;;;;;;;1,000000;0,411790;0,707780;0,414197;0,335269;0,335495;0,299234;0,334310;0,707780;0,421375;0,389034;0,422378;0,422378;0,412891;0,322053;0,379306;0,338111;0,345814;0,425137;0,407318;0,307645;0,422131;0,342414;0,375855;0,427968;0,427968;0,348181;0,348270;0,000000;0,000000;0,346850;0,369636;0,414197;0,311281;0,413484;0,455021;0,431773;0,352685;0,352748;0,352812;0,433297;0,433297;0,432700;0,430966;0,483923;0,384616;0,418941;0,309196;0,433589;
43;;;;;;;;;;;;;;;;;;;;;;;;;;;;;;;;;;;;;;;;;;;1,000000;0,704010;0,410427;0,331499;0,331725;0,295464;0,330540;0,704010;0,417605;0,385264;0,418607;0,418607;0,409121;0,318283;0,375536;0,334341;0,342044;0,421367;0,403548;0,303875;0,418361;0,338644;0,372085;0,424198;0,424198;0,344411;0,344500;0,000000;0,000000;0,343080;0,365866;0,410427;0,307511;0,409714;0,451251;0,428002;0,348915;0,348978;0,349042;0,429527;0,429527;0,428930;0,427196;0,480153;0,380846;0,415171;0,305426;0,429819;
44;;;;;;;;;;;;;;;;;;;;;;;;;;;;;;;;;;;;;;;;;;;;1,000000;0,706417;0,627489;0,627715;0,591454;0,626530;1,000000;0,713595;0,681254;0,714597;0,714597;0,705111;0,614273;0,671526;0,630331;0,638034;0,717357;0,699538;0,599865;0,714351;0,634634;0,668075;0,720188;0,720188;0,640401;0,640490;0,000000;0,000000;0,639070;0,661856;0,706417;0,603501;0,705704;0,747240;0,723992;0,644905;0,644968;0,645032;0,725517;0,725517;0,724920;0,723186;0,776143;0,676836;0,711161;0,601416;0,725808;
45;;;;;;;;;;;;;;;;;;;;;;;;;;;;;;;;;;;;;;;;;;;;;1,000000;0,333906;0,334132;0,297871;0,332946;0,706417;0,420012;0,387670;0,421014;0,421014;0,411527;0,320689;0,377942;0,336747;0,344451;0,423773;0,405954;0,306282;0,420767;0,341050;0,374491;0,426604;0,426604;0,346817;0,346906;0,000000;0,000000;0,345487;0,368273;0,412833;0,309918;0,412120;0,453657;0,430409;0,351321;0,351385;0,351448;0,431933;0,431933;0,431337;0,429603;0,482559;0,383252;0,417577;0,307833;0,432225;
46;;;;;;;;;;;;;;;;;;;;;;;;;;;;;;;;;;;;;;;;;;;;;;1,000000;0,673415;0,218943;0,254019;0,627489;0,341084;0,308743;0,342087;0,342087;0,332600;0,241762;0,299015;0,257820;0,265523;0,344846;0,327027;0,227354;0,341840;0,262123;0,295564;0,347677;0,347677;0,267890;0,267979;0,000000;0,000000;0,266559;0,289345;0,333906;0,230990;0,333193;0,374730;0,351481;0,272394;0,272457;0,272521;0,353006;0,353006;0,352409;0,350675;0,403632;0,304325;0,338650;0,228905;0,353298;
47;;;;;;;;;;;;;;;;;;;;;;;;;;;;;;;;;;;;;;;;;;;;;;;1,000000;0,219169;0,254245;0,627715;0,341310;0,308969;0,342313;0,342313;0,332826;0,241988;0,299241;0,258046;0,265749;0,345072;0,327253;0,227580;0,342066;0,262349;0,295790;0,347903;0,347903;0,268116;0,268205;0,000000;0,000000;0,266785;0,289571;0,334132;0,231216;0,333419;0,374956;0,351708;0,272620;0,272683;0,272747;0,353232;0,353232;0,352636;0,350901;0,403858;0,304551;0,338876;0,229132;0,353524;
48;;;;;;;;;;;;;;;;;;;;;;;;;;;;;;;;;;;;;;;;;;;;;;;;1,000000;0,625351;0,591454;0,305049;0,272708;0,306051;0,306051;0,296565;0,205727;0,456926;0,390182;0,402776;0,308811;0,290992;0,191319;0,305805;0,226088;0,259529;0,311642;0,311642;0,231855;0,231944;0,405929;0,405929;0,230524;0,253310;0,297871;0,479465;0,297158;0,338695;0,315446;0,236359;0,236422;0,236486;0,316971;0,316971;0,316374;0,314640;0,367597;0,268290;0,759936;0,751436;0,317263;
49;;;;;;;;;;;;;;;;;;;;;;;;;;;;;;;;;;;;;;;;;;;;;;;;;1,000000;0,626530;0,340125;0,307784;0,341127;0,341127;0,501541;0,425317;0,684467;0,711952;0,663973;0,671756;0,326068;0,410802;0,340881;0,261164;0,294604;0,346718;0,346718;0,266931;0,267019;0,444580;0,444736;0,265600;0,288386;0,332946;0,615951;0,332233;0,373770;0,350522;0,271435;0,271498;0,271562;0,352046;0,352046;0,351450;0,349716;0,402673;0,303365;0,657550;0,624514;0,352338;
50;;;;;;;;;;;;;;;;;;;;;;;;;;;;;;;;;;;;;;;;;;;;;;;;;;1,000000;0,713595;0,681254;0,714597;0,714597;0,705111;0,614273;0,671526;0,630331;0,638034;0,717357;0,699538;0,599865;0,714351;0,634634;0,668075;0,720188;0,720188;0,640401;0,640490;0,000000;0,000000;0,639070;0,661856;0,706417;0,603501;0,705704;0,747240;0,723992;0,644905;0,644968;0,645032;0,725517;0,725517;0,724920;0,723186;0,776143;0,676836;0,711161;0,601416;0,725808;
51;;;;;;;;;;;;;;;;;;;;;;;;;;;;;;;;;;;;;;;;;;;;;;;;;;;1,000000;0,394849;0,428192;0,428192;0,418706;0,327868;0,385121;0,343926;0,351629;0,430952;0,413133;0,313460;0,427946;0,348229;0,381670;0,433783;0,433783;0,863238;0,863238;0,000000;0,000000;0,352665;0,375451;0,420012;0,317096;0,419299;0,460836;0,437587;0,358500;0,358563;0,358627;0,439112;0,439112;0,438515;0,436781;0,489738;0,390431;0,424756;0,315011;0,439403;
52;;;;;;;;;;;;;;;;;;;;;;;;;;;;;;;;;;;;;;;;;;;;;;;;;;;;1,000000;0,395851;0,395851;0,386364;0,295526;0,352779;0,311585;0,319288;0,398610;0,380791;0,281119;0,395605;0,315887;0,349328;0,401441;0,401441;0,696991;0,697209;0,000000;0,000000;0,320324;0,343110;0,387670;0,284755;0,386957;0,428494;0,405246;0,326159;0,326222;0,326285;0,406770;0,406770;0,406174;0,404440;0,457396;0,358089;0,392414;0,282670;0,407062;
53;;;;;;;;;;;;;;;;;;;;;;;;;;;;;;;;;;;;;;;;;;;;;;;;;;;;;1,000000;0,429195;0,419708;0,328870;0,386123;0,344928;0,352631;0,431954;0,414135;0,314462;0,428948;0,349231;0,382672;0,434785;0,434785;0,354998;0,355087;0,000000;0,000000;0,353667;0,376453;0,421014;0,318098;0,420301;0,461838;0,438590;0,359502;0,359565;0,359629;0,440114;0,440114;0,439518;0,437783;0,490740;0,391433;0,425758;0,316014;0,440406;
54;;;;;;;;;;;;;;;;;;;;;;;;;;;;;;;;;;;;;;;;;;;;;;;;;;;;;;1,000000;0,419708;0,328870;0,386123;0,344928;0,352631;0,431954;0,414135;0,314462;0,428948;0,349231;0,382672;0,434785;0,434785;0,354998;0,355087;0,000000;0,000000;0,353667;0,376453;0,421014;0,318098;0,420301;0,461838;0,438590;0,359502;0,359565;0,359629;0,440114;0,440114;0,439518;0,437783;0,490740;0,391433;0,425758;0,316014;0,440406;
55;;;;;;;;;;;;;;;;;;;;;;;;;;;;;;;;;;;;;;;;;;;;;;;;;;;;;;;1,000000;0,889973;0,376636;0,335442;0,343145;0,422467;0,404648;0,304976;0,419462;0,339745;0,373185;0,425298;0,425298;0,345512;0,345600;0,000000;0,000000;0,695566;0,598674;0,411527;0,308612;0,410814;0,452351;0,429103;0,350016;0,350079;0,350142;0,430627;0,430627;0,430031;0,428297;0,481253;0,381946;0,416272;0,306527;0,430919;
56;;;;;;;;;;;;;;;;;;;;;;;;;;;;;;;;;;;;;;;;;;;;;;;;;;;;;;;;1,000000;0,285798;0,244604;0,252307;0,331629;0,313810;0,214138;0,328624;0,248906;0,282347;0,334460;0,334460;0,254674;0,254762;0,000000;0,000000;0,570358;0,473465;0,320689;0,217774;0,319976;0,361513;0,338265;0,259178;0,259241;0,259304;0,339789;0,339789;0,339193;0,337459;0,390415;0,291108;0,325433;0,215689;0,340081;
57;;;;;;;;;;;;;;;;;;;;;;;;;;;;;;;;;;;;;;;;;;;;;;;;;;;;;;;;;1,000000;0,725176;0,670445;0,833721;0,371063;0,572767;0,385877;0,306160;0,339600;0,391713;0,391713;0,311927;0,312015;0,331835;0,331835;0,310596;0,333382;0,377942;0,767493;0,377229;0,418766;0,395518;0,316431;0,316494;0,316557;0,397042;0,397042;0,396446;0,394712;0,447668;0,348361;0,382687;0,475932;0,397334;
58;;;;;;;;;;;;;;;;;;;;;;;;;;;;;;;;;;;;;;;;;;;;;;;;;;;;;;;;;;1,000000;0,667933;0,809277;0,329869;0,548324;0,344682;0,264965;0,298405;0,350519;0,350519;0,270732;0,270821;0,309439;0,309439;0,269401;0,292187;0,336747;1,000000;0,336034;0,377571;0,354323;0,275236;0,275299;0,275363;0,355848;0,355848;0,355251;0,353517;0,406474;0,307166;0,341492;0,409187;0,356139;
59;;;;;;;;;;;;;;;;;;;;;;;;;;;;;;;;;;;;;;;;;;;;;;;;;;;;;;;;;;;1,000000;0,355391;0,337572;0,595314;0,352385;0,272668;0,306109;0,358222;0,358222;0,278435;0,278524;0,313885;0,313885;0,277104;0,299890;0,344451;0,709941;0,343738;0,385275;0,362026;0,282939;0,283002;0,283066;0,363551;0,363551;0,362954;0,361220;0,414177;0,314870;0,349195;0,421781;0,363843;
60;;;;;;;;;;;;;;;;;;;;;;;;;;;;;;;;;;;;;;;;;;;;;;;;;;;;;;;;;;;;1,000000;0,416894;0,739046;0,431708;0,351991;0,385431;0,437544;0,437544;0,357758;0,357846;0,000000;0,000000;0,356427;0,379213;0,423773;0,746101;0,423060;0,464597;0,441349;0,362262;0,362325;0,362388;0,442873;0,442873;0,442277;0,440543;0,493499;0,394192;0,428518;0,318773;0,443165;
61;;;;;;;;;;;;;;;;;;;;;;;;;;;;;;;;;;;;;;;;;;;;;;;;;;;;;;;;;;;;;1,000000;0,299403;0,413889;0,334172;0,367612;0,419725;0,419725;0,339939;0,340027;0,000000;0,000000;0,338608;0,361394;0,405954;0,303039;1,000000;0,446778;0,423530;0,344443;0,344506;0,344569;0,425054;0,425054;0,424458;0,422724;0,475680;0,376373;0,410698;0,300954;0,425346;
62;;;;;;;;;;;;;;;;;;;;;;;;;;;;;;;;;;;;;;;;;;;;;;;;;;;;;;;;;;;;;;1,000000;0,314216;0,234499;0,267940;0,320053;0,320053;0,240266;0,240355;0,000000;0,000000;0,238935;0,261721;0,306282;0,485147;0,305569;0,347106;0,323857;0,244770;0,244833;0,244897;0,325382;0,325382;0,324785;0,323051;0,376008;0,276701;0,311026;0,201281;0,325674;
63;;;;;;;;;;;;;;;;;;;;;;;;;;;;;;;;;;;;;;;;;;;;;;;;;;;;;;;;;;;;;;;1,000000;0,348985;0,382425;0,434539;0,434539;0,354752;0,354841;0,000000;0,000000;0,353421;0,376207;0,420767;0,317852;0,420054;0,461591;0,438343;0,359256;0,359319;0,359383;0,439868;0,439868;0,439271;0,437537;0,490494;0,391186;0,425512;0,315767;0,440159;
64;;;;;;;;;;;;;;;;;;;;;;;;;;;;;;;;;;;;;;;;;;;;;;;;;;;;;;;;;;;;;;;;1,000000;0,697053;0,354821;0,354821;0,275035;0,275123;0,000000;0,000000;0,273704;0,296490;0,341050;0,238135;0,340337;0,381874;0,358626;0,279539;0,279602;0,279666;0,360150;0,360150;0,359554;0,860245;0,410776;0,311469;0,345795;0,236050;0,360442;
65;;;;;;;;;;;;;;;;;;;;;;;;;;;;;;;;;;;;;;;;;;;;;;;;;;;;;;;;;;;;;;;;;1,000000;0,388262;0,388262;0,308475;0,308564;0,000000;0,000000;0,307145;0,329931;0,374491;0,271576;0,373778;0,415315;0,392067;0,312979;0,313043;0,313106;0,393591;0,393591;0,392995;0,391261;0,444217;0,344910;0,379235;0,269491;0,393883;
66;;;;;;;;;;;;;;;;;;;;;;;;;;;;;;;;;;;;;;;;;;;;;;;;;;;;;;;;;;;;;;;;;;1,000000;0,440375;0,360589;0,360677;0,000000;0,000000;0,359258;0,382044;0,426604;0,323689;0,425891;0,467428;0,444180;0,365093;0,365156;0,365219;0,445704;0,445704;0,445108;0,443374;0,496330;0,397023;0,431348;0,321604;0,445996;
67;;;;;;;;;;;;;;;;;;;;;;;;;;;;;;;;;;;;;;;;;;;;;;;;;;;;;;;;;;;;;;;;;;;1,000000;0,360589;0,360677;0,000000;0,000000;0,359258;0,382044;0,426604;0,323689;0,425891;0,467428;0,444180;0,365093;0,365156;0,365219;0,445704;0,445704;0,445108;0,443374;0,496330;0,397023;0,431348;0,321604;0,445996;
68;;;;;;;;;;;;;;;;;;;;;;;;;;;;;;;;;;;;;;;;;;;;;;;;;;;;;;;;;;;;;;;;;;;;1,000000;0,726475;0,000000;0,000000;0,279471;0,302257;0,346817;0,243902;0,346104;0,387641;0,364393;0,285306;0,285369;0,285433;0,365918;0,365918;0,365321;0,363587;0,416544;0,317236;0,351562;0,241817;0,366209;
69;;;;;;;;;;;;;;;;;;;;;;;;;;;;;;;;;;;;;;;;;;;;;;;;;;;;;;;;;;;;;;;;;;;;;1,000000;0,000000;0,000000;0,279560;0,302346;0,346906;0,243991;0,346193;0,387730;0,364482;0,285395;0,285458;0,285521;0,366006;0,366006;0,365410;0,363676;0,416632;0,317325;0,351650;0,241906;0,366298;
70;;;;;;;;;;;;;;;;;;;;;;;;;;;;;;;;;;;;;;;;;;;;;;;;;;;;;;;;;;;;;;;;;;;;;;1,000000;0,558501;0,000000;0,000000;0,000000;0,422303;0,000000;0,000000;0,000000;0,000000;0,000000;0,000000;0,000000;0,000000;0,000000;0,000000;0,000000;0,000000;0,000000;0,420369;0,000000;
71;;;;;;;;;;;;;;;;;;;;;;;;;;;;;;;;;;;;;;;;;;;;;;;;;;;;;;;;;;;;;;;;;;;;;;;1,000000;0,000000;0,000000;0,000000;0,422303;0,000000;0,000000;0,000000;0,000000;0,000000;0,000000;0,000000;0,000000;0,000000;0,000000;0,000000;0,000000;0,000000;0,420369;0,000000;
72;;;;;;;;;;;;;;;;;;;;;;;;;;;;;;;;;;;;;;;;;;;;;;;;;;;;;;;;;;;;;;;;;;;;;;;;1,000000;0,582178;0,345487;0,242571;0,344774;0,386311;0,363062;0,283975;0,284038;0,284102;0,364587;0,364587;0,363990;0,362256;0,759729;0,774829;0,350231;0,240486;0,364879;
73;;;;;;;;;;;;;;;;;;;;;;;;;;;;;;;;;;;;;;;;;;;;;;;;;;;;;;;;;;;;;;;;;;;;;;;;;1,000000;0,368273;0,265357;0,367560;0,409097;0,385848;0,306761;0,306824;0,306888;0,387373;0,387373;0,386776;0,385042;0,755194;0,593996;0,373017;0,263272;0,387665;
74;;;;;;;;;;;;;;;;;;;;;;;;;;;;;;;;;;;;;;;;;;;;;;;;;;;;;;;;;;;;;;;;;;;;;;;;;;1,000000;0,309918;0,412120;0,453657;0,430409;0,351321;0,351385;0,351448;0,431933;0,431933;0,431337;0,429603;0,482559;0,383252;0,417577;0,307833;0,432225;
75;;;;;;;;;;;;;;;;;;;;;;;;;;;;;;;;;;;;;;;;;;;;;;;;;;;;;;;;;;;;;;;;;;;;;;;;;;;1,000000;0,309205;0,350742;0,327493;0,248406;0,248469;0,248533;0,329018;0,329018;0,328421;0,326687;0,379644;0,280337;0,314662;0,498471;0,329310;
76;;;;;;;;;;;;;;;;;;;;;;;;;;;;;;;;;;;;;;;;;;;;;;;;;;;;;;;;;;;;;;;;;;;;;;;;;;;;1,000000;0,452944;0,429696;0,350608;0,350672;0,350735;0,431220;0,431220;0,430624;0,428890;0,481846;0,382539;0,416864;0,307120;0,431512;
77;;;;;;;;;;;;;;;;;;;;;;;;;;;;;;;;;;;;;;;;;;;;;;;;;;;;;;;;;;;;;;;;;;;;;;;;;;;;;1,000000;0,471233;0,392145;0,392209;0,392272;0,472757;0,472757;0,472161;0,470427;0,523383;0,424076;0,458401;0,348657;0,473049;
78;;;;;;;;;;;;;;;;;;;;;;;;;;;;;;;;;;;;;;;;;;;;;;;;;;;;;;;;;;;;;;;;;;;;;;;;;;;;;;1,000000;0,368897;0,368960;0,369024;0,449509;0,449509;1,000000;0,447178;0,500135;0,400828;0,435153;0,325409;1,000000;
79;;;;;;;;;;;;;;;;;;;;;;;;;;;;;;;;;;;;;;;;;;;;;;;;;;;;;;;;;;;;;;;;;;;;;;;;;;;;;;;1,000000;0,784699;0,784907;0,370422;0,370422;0,369825;0,368091;0,421048;0,321741;0,356066;0,246321;0,370713;
80;;;;;;;;;;;;;;;;;;;;;;;;;;;;;;;;;;;;;;;;;;;;;;;;;;;;;;;;;;;;;;;;;;;;;;;;;;;;;;;;1,000000;0,785114;0,370485;0,370485;0,369888;0,368154;0,421111;0,321804;0,356129;0,246384;0,370776;
81;;;;;;;;;;;;;;;;;;;;;;;;;;;;;;;;;;;;;;;;;;;;;;;;;;;;;;;;;;;;;;;;;;;;;;;;;;;;;;;;;1,000000;0,370548;0,370548;0,369952;0,368218;0,421174;0,321867;0,356193;0,246448;0,370840;
82;;;;;;;;;;;;;;;;;;;;;;;;;;;;;;;;;;;;;;;;;;;;;;;;;;;;;;;;;;;;;;;;;;;;;;;;;;;;;;;;;;1,000000;0,451033;0,450437;0,448703;0,501659;0,402352;0,436677;0,326933;0,451325;
83;;;;;;;;;;;;;;;;;;;;;;;;;;;;;;;;;;;;;;;;;;;;;;;;;;;;;;;;;;;;;;;;;;;;;;;;;;;;;;;;;;;1,000000;0,450437;0,448703;0,501659;0,402352;0,436677;0,326933;0,451325;
84;;;;;;;;;;;;;;;;;;;;;;;;;;;;;;;;;;;;;;;;;;;;;;;;;;;;;;;;;;;;;;;;;;;;;;;;;;;;;;;;;;;;1,000000;0,448106;0,501063;0,401756;0,436081;0,326337;1,000000;
85;;;;;;;;;;;;;;;;;;;;;;;;;;;;;;;;;;;;;;;;;;;;;;;;;;;;;;;;;;;;;;;;;;;;;;;;;;;;;;;;;;;;;1,000000;0,499329;0,400022;0,434347;0,324602;0,448994;
86;;;;;;;;;;;;;;;;;;;;;;;;;;;;;;;;;;;;;;;;;;;;;;;;;;;;;;;;;;;;;;;;;;;;;;;;;;;;;;;;;;;;;;1,000000;0,828056;0,487303;0,377559;0,501951;
87;;;;;;;;;;;;;;;;;;;;;;;;;;;;;;;;;;;;;;;;;;;;;;;;;;;;;;;;;;;;;;;;;;;;;;;;;;;;;;;;;;;;;;;1,000000;0,387996;0,278252;0,402644;
88;;;;;;;;;;;;;;;;;;;;;;;;;;;;;;;;;;;;;;;;;;;;;;;;;;;;;;;;;;;;;;;;;;;;;;;;;;;;;;;;;;;;;;;;1,000000;0,312577;0,436969;
89;;;;;;;;;;;;;;;;;;;;;;;;;;;;;;;;;;;;;;;;;;;;;;;;;;;;;;;;;;;;;;;;;;;;;;;;;;;;;;;;;;;;;;;;;1,000000;0,327225;
90;;;;;;;;;;;;;;;;;;;;;;;;;;;;;;;;;;;;;;;;;;;;;;;;;;;;;;;;;;;;;;;;;;;;;;;;;;;;;;;;;;;;;;;;;;1,000000;
