;1; 2; 3; 4; 5; 6; 7; 8; 9; 10; 11; 12; 13; 14; 15; 16; 17; 18; 19; 20; 21; 22; 23; 24; 25; 26; 27; 28; 29; 30; 31; 32; 33; 34; 35; 36; 37; 38; 39; 40; 41; 42; 43; 44; 45; 46; 47; 48; 49; 50; 51; 52; 53; 54; 55; 56; 57; 58; 59; 60; 61; 62; 63; 64; 65; 66; 67; 68; 69; 70; 71; 72; 73; 74; 75; 76; 77; 78; 79; 80; 81; 82; 83; 84; 85; 86; 87; 88; 89; 90; 91; 92; 93; 94; 95; 96; 97; 98; 99; 100; 101; 102; 103; 104; 105; 106; 107; 108; 109; 110; 111; 112; 113; 114; 115; 116; 117; 118; 119; 120; 121; 122; 123; 124
1;1,000000;0,492420;0,645342;0,675830;0,687558;0,691130;0,768565;0,717116;0,344564;0,347494;0,623589;0,751032;0,297987;0,375603;0,268812;0,321562;0,268812;0,310867;0,313097;0,339576;0,505171;0,338195;0,299269;0,340972;0,335479;0,469220;0,727129;0,418812;0,505171;0,377812;0,668812;0,352564;0,454527;0,468812;0,599899;0,293812;0,282069;0,313097;0,313097;0,633487;0,424902;0,421837;0,335479;0,668812;0,699660;0,335479;0,335479;0,418812;0,229028;0,293812;0,293812;0,323856;0,323856;0,323856;0,633487;0,268812;0,268812;0,268812;0,280496;0,335479;0,000000;0,000000;0,261856;0,268812;0,489292;0,335479;0,335479;0,358724;0,335479;0,335479;0,335479;0,000000;0,000000;0,642487;0,642487;0,642487;0,418812;0,663155;0,668812;0,293812;0,313097;0,507168;0,429014;0,507168;0,507168;0,668812;0,000000;0,293812;0,293812;0,293812;0,293812;0,502146;0,293812;0,293812;0,293812;0,293812;0,335479;0,335479;0,268812;0,268812;0,268812;0,268812;0,268812;0,335479;0,668812;0,538658;0,418812;0,305330;0,371830;0,418812;0,297987;0,507168;0,268812;0,268812;0,268812;0,268812;0,268812;0,507168;0,418812;0,418812;0,418812;0,335479;0,335479;0,335479;
2;;1,000000;0,459624;0,486940;0,492609;0,516077;0,541479;0,505471;0,398771;0,371676;0,472363;0,542286;0,402750;0,435767;0,428280;0,395695;0,428280;0,424162;0,393196;0,375291;0,358132;0,447775;0,446904;0,363519;0,358252;0,267336;0,523050;0,265351;0,361444;0,225415;0,000000;0,352020;0,243907;0,244201;0,427982;0,424444;0,458546;0,383740;0,383740;0,457418;0,376302;0,402806;0,354840;0,000000;0,522505;0,353033;0,353033;0,265351;0,292442;0,385282;0,385282;0,358686;0,358686;0,358686;0,457418;0,434932;0,434932;0,434932;0,586852;0,359279;0,272022;0,272022;0,462292;0,440933;0,280906;0,342372;0,342372;0,330674;0,352238;0,342296;0,342296;0,338605;0,302181;0,498837;0,498837;0,498837;0,257303;0,491476;0,000000;0,395748;0,377677;0,406220;0,416193;0,343176;0,342474;0,000000;0,000000;0,391023;0,385507;0,385507;0,385507;0,201036;0,385740;0,385740;0,385740;0,385740;0,341103;0,341103;0,412651;0,412651;0,412651;0,412651;0,412651;0,361870;0,000000;0,416791;0,256452;0,412419;0,320877;0,257086;0,419450;0,406220;0,412650;0,412650;0,412650;0,412650;0,412650;0,342474;0,255621;0,254813;0,254813;0,341587;0,341587;0,341587;
3;;;1,000000;0,793560;0,937683;0,792407;0,739423;0,765953;0,353411;0,356340;0,847671;0,720996;0,306834;0,352094;0,277659;0,330409;0,277659;0,319713;0,321944;0,348423;0,344326;0,559675;0,308116;0,349819;0,344326;0,478067;0,785730;0,427659;0,344326;0,314292;0,677659;0,361411;0,463373;0,477659;0,841959;0,302659;0,290916;0,321944;0,321944;0,688651;0,329026;0,302659;0,344326;0,677659;0,822944;0,344326;0,344326;0,427659;0,237874;0,302659;0,302659;0,332703;0,332703;0,332703;0,688651;0,277659;0,277659;0,277659;0,724419;0,344326;0,000000;0,000000;0,270703;0,277659;0,498139;0,344326;0,344326;0,367571;0,344326;0,344326;0,344326;0,000000;0,000000;0,555318;0,555318;0,555318;0,427659;0,775706;0,677659;0,302659;0,321944;0,688651;0,607813;0,344326;0,344326;0,677659;0,000000;0,302659;0,302659;0,302659;0,302659;0,510992;0,302659;0,302659;0,302659;0,302659;0,344326;0,344326;0,277659;0,277659;0,277659;0,277659;0,277659;0,344326;0,677659;0,889538;0,427659;0,314177;0,380676;0,427659;0,306834;0,688651;0,277659;0,277659;0,277659;0,277659;0,277659;0,344326;0,427659;0,427659;0,427659;0,344326;0,344326;0,344326;
4;;;;1,000000;0,722921;0,780145;0,788904;0,859786;0,331369;0,334298;0,735334;0,866215;0,284792;0,330052;0,255617;0,308367;0,255617;0,297671;0,299902;0,326381;0,322284;0,531975;0,286074;0,327777;0,322284;0,456025;0,967753;0,405617;0,322284;0,292250;0,655617;0,339369;0,441331;0,455617;0,832496;0,280617;0,268874;0,299902;0,299902;0,938953;0,306984;0,280617;0,322284;0,655617;0,798339;0,322284;0,322284;0,405617;0,215832;0,280617;0,280617;0,310661;0,310661;0,310661;0,938953;0,255617;0,255617;0,255617;0,418853;0,322284;0,000000;0,000000;0,248661;0,255617;0,476097;0,322284;0,322284;0,345529;0,322284;0,322284;0,322284;0,000000;0,000000;0,677476;0,677476;0,677476;0,405617;0,766377;0,655617;0,280617;0,299902;0,660951;0,580113;0,322284;0,322284;0,655617;0,000000;0,280617;0,280617;0,280617;0,280617;0,488950;0,280617;0,280617;0,280617;0,280617;0,322284;0,322284;0,255617;0,255617;0,255617;0,255617;0,255617;0,322284;0,655617;0,835067;0,405617;0,292135;0,358634;0,405617;0,284792;0,660951;0,255617;0,255617;0,255617;0,255617;0,255617;0,322284;0,405617;0,405617;0,405617;0,322284;0,322284;0,322284;
5;;;;;1,000000;0,761306;0,766841;0,727591;0,330183;0,333113;0,903949;0,759641;0,283606;0,328866;0,254431;0,307181;0,254431;0,296486;0,298716;0,325195;0,321098;0,513220;0,284888;0,326591;0,321098;0,454839;0,730449;0,404431;0,321098;0,291064;0,654431;0,338183;0,440145;0,454431;0,783554;0,279431;0,267688;0,298716;0,298716;0,642196;0,305798;0,279431;0,321098;0,654431;0,752687;0,321098;0,321098;0,404431;0,214646;0,279431;0,279431;0,309475;0,309475;0,309475;0,642196;0,254431;0,254431;0,254431;0,688788;0,321098;0,000000;0,000000;0,247475;0,254431;0,474911;0,321098;0,321098;0,344343;0,321098;0,321098;0,321098;0,000000;0,000000;0,726777;0,726777;0,726777;0,404431;0,717300;0,654431;0,279431;0,298716;0,642196;0,561358;0,321098;0,321098;0,654431;0,000000;0,279431;0,279431;0,279431;0,279431;0,487764;0,279431;0,279431;0,279431;0,279431;0,321098;0,321098;0,254431;0,254431;0,254431;0,254431;0,254431;0,321098;0,654431;0,845688;0,404431;0,290949;0,357449;0,404431;0,283606;0,642196;0,254431;0,254431;0,254431;0,254431;0,254431;0,321098;0,404431;0,404431;0,404431;0,321098;0,321098;0,321098;
6;;;;;;1,000000;0,775026;0,676688;0,284538;0,287467;0,788069;0,851094;0,237960;0,283221;0,208786;0,261535;0,208786;0,250840;0,253071;0,279549;0,275452;0,421929;0,239242;0,280946;0,275452;0,409194;0,776744;0,358786;0,275452;0,245419;0,608786;0,292538;0,394500;0,408786;0,597395;0,233786;0,222042;0,253071;0,253071;0,760702;0,260152;0,233786;0,275452;0,608786;0,587224;0,275452;0,275452;0,358786;0,169001;0,233786;0,233786;0,263830;0,263830;0,263830;0,678179;0,208786;0,208786;0,208786;0,358786;0,275452;0,000000;0,000000;0,201830;0,208786;0,429266;0,275452;0,275452;0,298698;0,275452;0,275452;0,275452;0,000000;0,000000;0,587224;0,587224;0,587224;0,358786;0,467572;0,608786;0,233786;0,253071;0,550905;0,470067;0,275452;0,275452;0,608786;0,000000;0,233786;0,233786;0,233786;0,233786;0,442119;0,233786;0,233786;0,233786;0,233786;0,275452;0,275452;0,208786;0,208786;0,208786;0,208786;0,208786;0,275452;0,608786;0,826357;0,358786;0,245304;0,311803;0,358786;0,237960;0,550905;0,208786;0,208786;0,208786;0,208786;0,208786;0,275452;0,358786;0,358786;0,358786;0,275452;0,275452;0,275452;
7;;;;;;;1,000000;0,867037;0,301041;0,303970;0,759178;0,810015;0,254463;0,299724;0,225289;0,278038;0,225289;0,267343;0,269574;0,296053;0,291956;0,454935;0,255746;0,297449;0,291956;0,425697;0,724950;0,375289;0,291956;0,261922;0,625289;0,309041;0,411003;0,425289;0,805483;0,250289;0,238546;0,269574;0,269574;0,849950;0,276656;0,250289;0,291956;0,625289;0,711852;0,291956;0,291956;0,375289;0,185504;0,250289;0,250289;0,280333;0,280333;0,280333;0,849950;0,225289;0,225289;0,225289;0,632895;0,291956;0,000000;0,000000;0,218333;0,225289;0,445769;0,291956;0,291956;0,315201;0,291956;0,291956;0,291956;0,000000;0,000000;0,604863;0,604863;0,604863;0,375289;0,805483;0,625289;0,250289;0,269574;0,583911;0,503073;0,291956;0,291956;0,625289;0,000000;0,250289;0,250289;0,250289;0,250289;0,458622;0,250289;0,250289;0,250289;0,250289;0,291956;0,291956;0,225289;0,225289;0,225289;0,225289;0,225289;0,291956;0,625289;0,583911;0,375289;0,261807;0,328306;0,375289;0,254463;0,583911;0,225289;0,225289;0,225289;0,225289;0,225289;0,291956;0,375289;0,375289;0,375289;0,291956;0,291956;0,291956;
8;;;;;;;;1,000000;0,322950;0,325880;0,571330;0,750047;0,276373;0,321633;0,247198;0,299948;0,247198;0,289253;0,291484;0,317962;0,313865;0,498754;0,277655;0,319358;0,313865;0,447606;0,774358;0,397198;0,313865;0,283831;0,647198;0,330951;0,432913;0,447198;0,915411;0,272198;0,260455;0,291484;0,291484;0,899358;0,298565;0,272198;0,313865;0,647198;0,779039;0,313865;0,313865;0,397198;0,207414;0,272198;0,272198;0,302243;0,302243;0,302243;0,899358;0,247198;0,247198;0,247198;0,697684;0,313865;0,000000;0,000000;0,240243;0,247198;0,467678;0,313865;0,313865;0,337110;0,313865;0,313865;0,313865;0,000000;0,000000;0,629837;0,629837;0,629837;0,397198;0,915411;0,647198;0,272198;0,291484;0,627730;0,546892;0,313865;0,313865;0,647198;0,000000;0,272198;0,272198;0,272198;0,272198;0,480532;0,272198;0,272198;0,272198;0,272198;0,313865;0,313865;0,247198;0,247198;0,247198;0,247198;0,247198;0,313865;0,647198;0,627730;0,397198;0,283717;0,350216;0,397198;0,276373;0,627730;0,247198;0,247198;0,247198;0,247198;0,247198;0,313865;0,397198;0,397198;0,397198;0,313865;0,313865;0,313865;
9;;;;;;;;;1,000000;0,640813;0,314218;0,286238;0,449433;0,596386;0,391083;0,382374;0,391083;0,669996;0,607962;0,537559;0,524417;0,471360;0,729766;0,570044;0,528620;0,552148;0,300752;0,425752;0,445233;0,312385;0,675752;0,573098;0,461466;0,475752;0,365664;0,691333;0,725135;0,479654;0,479654;0,342419;0,493817;0,441083;0,524417;0,675752;0,275752;0,524417;0,524417;0,425752;0,235967;0,300752;0,300752;0,330796;0,330796;0,330796;0,342419;0,643265;0,643265;0,643265;0,000000;0,535974;0,280219;0,280219;0,719321;0,784466;0,496232;0,342419;0,342419;0,365664;0,342419;0,342419;0,342419;0,000000;0,000000;0,275752;0,275752;0,275752;0,425752;0,300752;0,675752;0,632007;0,694942;0,342419;0,342419;0,342419;0,342419;0,675752;0,000000;0,300752;0,300752;0,300752;0,300752;0,509085;0,300752;0,300752;0,300752;0,300752;0,528603;0,528603;0,275752;0,275752;0,275752;0,275752;0,275752;0,554723;0,675752;0,342419;0,425752;0,654888;0,597118;0,425752;0,681793;0,342419;0,275752;0,275752;0,275752;0,275752;0,275752;0,342419;0,425752;0,425752;0,425752;0,342419;0,342419;0,342419;
10;;;;;;;;;;1,000000;0,317148;0,289167;0,307856;0,650751;0,278681;0,331431;0,278681;0,700885;0,739738;0,724086;0,345348;0,348064;0,611765;0,772120;0,878936;0,479089;0,303681;0,428681;0,345348;0,315314;0,678681;0,796974;0,464396;0,478681;0,368593;0,779379;0,733686;0,322967;0,322967;0,345348;0,330048;0,303681;0,345348;0,678681;0,278681;0,345348;0,345348;0,428681;0,238897;0,303681;0,303681;0,333725;0,333725;0,333725;0,345348;0,683360;0,683360;0,683360;0,000000;0,883560;0,428681;0,428681;0,642827;0,405718;0,499161;0,345348;0,345348;0,368593;0,345348;0,345348;0,345348;0,000000;0,000000;0,278681;0,278681;0,278681;0,428681;0,303681;0,678681;0,455718;0,494289;0,345348;0,345348;0,345348;0,345348;0,678681;0,000000;0,303681;0,303681;0,303681;0,303681;0,512015;0,303681;0,303681;0,303681;0,303681;0,345348;0,345348;0,278681;0,278681;0,278681;0,278681;0,278681;0,690696;0,678681;0,345348;0,428681;0,818148;0,381699;0,428681;0,723091;0,345348;0,278681;0,278681;0,278681;0,278681;0,278681;0,345348;0,428681;0,428681;0,428681;0,345348;0,345348;0,345348;
11;;;;;;;;;;;1,000000;0,813462;0,267641;0,312901;0,238466;0,291216;0,238466;0,280521;0,282751;0,309230;0,305133;0,481290;0,268923;0,310626;0,305133;0,438874;0,754384;0,388466;0,305133;0,275099;0,638466;0,322218;0,424181;0,438466;0,656757;0,263466;0,251723;0,282751;0,282751;0,610266;0,289833;0,263466;0,305133;0,638466;0,609715;0,305133;0,305133;0,388466;0,198682;0,263466;0,263466;0,293510;0,293510;0,293510;0,610266;0,238466;0,238466;0,238466;0,388466;0,305133;0,000000;0,000000;0,231510;0,238466;0,458946;0,305133;0,305133;0,328378;0,305133;0,305133;0,305133;0,000000;0,000000;0,476933;0,476933;0,476933;0,388466;0,526933;0,638466;0,263466;0,282751;0,610266;0,529428;0,305133;0,305133;0,638466;0,000000;0,263466;0,263466;0,263466;0,263466;0,471800;0,263466;0,263466;0,263466;0,263466;0,305133;0,305133;0,238466;0,238466;0,238466;0,238466;0,238466;0,305133;0,638466;0,848859;0,388466;0,274985;0,341484;0,388466;0,267641;0,610266;0,238466;0,238466;0,238466;0,238466;0,238466;0,305133;0,388466;0,388466;0,388466;0,305133;0,305133;0,305133;
12;;;;;;;;;;;;1,000000;0,239661;0,284921;0,210486;0,263236;0,210486;0,252540;0,254771;0,281250;0,277153;0,425329;0,240943;0,282646;0,277153;0,410894;0,858600;0,360486;0,277153;0,247119;0,610486;0,294238;0,396200;0,410486;0,689812;0,235486;0,223743;0,254771;0,254771;0,809605;0,261853;0,235486;0,277153;0,610486;0,583440;0,277153;0,277153;0,360486;0,170701;0,235486;0,235486;0,265530;0,265530;0,265530;0,809605;0,210486;0,210486;0,210486;0,360486;0,277153;0,000000;0,000000;0,203530;0,210486;0,430966;0,277153;0,277153;0,300398;0,277153;0,277153;0,277153;0,000000;0,000000;0,583440;0,583440;0,583440;0,360486;0,623693;0,610486;0,235486;0,254771;0,554305;0,473467;0,277153;0,277153;0,610486;0,000000;0,235486;0,235486;0,235486;0,235486;0,443819;0,235486;0,235486;0,235486;0,235486;0,277153;0,277153;0,210486;0,210486;0,210486;0,210486;0,210486;0,277153;0,610486;0,831458;0,360486;0,247004;0,313503;0,360486;0,239661;0,554305;0,210486;0,210486;0,210486;0,210486;0,210486;0,277153;0,360486;0,360486;0,360486;0,277153;0,277153;0,277153;
13;;;;;;;;;;;;;1,000000;0,589657;0,772956;0,606446;0,772956;0,434043;0,273460;0,299938;0,591682;0,538625;0,444152;0,301335;0,295841;0,619413;0,254175;0,379175;0,512499;0,265807;0,629175;0,312927;0,414889;0,429175;0,319086;0,254175;0,435795;0,670459;0,670459;0,295841;0,561082;0,508349;0,591682;0,629175;0,229175;0,591682;0,591682;0,379175;0,314168;0,436372;0,436372;0,284219;0,284219;0,284219;0,295841;0,229175;0,229175;0,229175;0,000000;0,295841;0,000000;0,000000;0,481653;0,458349;0,449654;0,295841;0,295841;0,319086;0,295841;0,519705;0,519705;0,000000;0,000000;0,229175;0,229175;0,229175;0,686372;0,254175;0,629175;0,254175;0,273460;0,295841;0,295841;0,295841;0,295841;0,629175;0,000000;0,254175;0,436372;0,436372;0,436372;0,686372;0,254175;0,254175;0,254175;0,254175;0,295841;0,295841;0,229175;0,229175;0,229175;0,229175;0,229175;0,295841;0,629175;0,295841;0,379175;0,265693;0,664384;0,379175;0,258349;0,295841;0,229175;0,229175;0,229175;0,229175;0,229175;0,295841;0,379175;0,379175;0,379175;0,295841;0,295841;0,295841;
14;;;;;;;;;;;;;;1,000000;0,607584;0,487908;0,607584;0,556965;0,589955;0,574304;0,537099;0,551222;0,608507;0,537149;0,526162;0,474843;0,299435;0,702050;0,537099;0,493761;0,674435;0,614859;0,460149;0,474435;0,364347;0,648186;0,657698;0,557940;0,557940;0,341101;0,567980;0,602179;0,529614;0,674435;0,274435;0,515578;0,515578;0,702050;0,314158;0,436361;0,436361;0,329479;0,329479;0,329479;0,341101;0,533578;0,533578;0,533578;0,000000;0,526162;0,266146;0,266146;0,642518;0,695011;0,494915;0,341101;0,341101;0,581874;0,535383;0,519695;0,519695;0,000000;0,000000;0,274435;0,274435;0,274435;0,686361;0,299435;0,674435;0,621527;0,602972;0,341101;0,341101;0,341101;0,341101;0,674435;0,000000;0,299435;0,436361;0,436361;0,436361;0,686361;0,299435;0,299435;0,299435;0,299435;0,341101;0,341101;0,274435;0,274435;0,274435;0,274435;0,274435;0,526162;0,674435;0,341101;0,424435;0,744241;0,487153;0,424435;0,646571;0,341101;0,274435;0,274435;0,274435;0,274435;0,274435;0,341101;0,424435;0,424435;0,424435;0,341101;0,341101;0,341101;
15;;;;;;;;;;;;;;;1,000000;0,633357;0,800000;0,375694;0,244285;0,270764;0,533333;0,480276;0,385802;0,272160;0,266667;0,561064;0,225000;0,350000;0,454150;0,236633;0,600000;0,283752;0,385714;0,400000;0,289912;0,225000;0,377446;0,656462;0,656462;0,266667;0,502733;0,450000;0,533333;0,600000;0,200000;0,533333;0,533333;0,350000;0,327796;0,450000;0,450000;0,255044;0,255044;0,255044;0,266667;0,200000;0,200000;0,200000;0,000000;0,266667;0,000000;0,000000;0,423304;0,400000;0,420480;0,266667;0,266667;0,289912;0,266667;0,533333;0,533333;0,000000;0,000000;0,200000;0,200000;0,200000;0,700000;0,225000;0,600000;0,225000;0,244285;0,266667;0,266667;0,266667;0,266667;0,600000;0,000000;0,225000;0,450000;0,450000;0,450000;0,700000;0,225000;0,225000;0,225000;0,225000;0,266667;0,266667;0,200000;0,200000;0,200000;0,200000;0,200000;0,266667;0,600000;0,266667;0,350000;0,236518;0,800000;0,350000;0,229175;0,266667;0,200000;0,200000;0,200000;0,200000;0,200000;0,266667;0,350000;0,350000;0,350000;0,266667;0,266667;0,266667;
16;;;;;;;;;;;;;;;;1,000000;0,633357;0,366984;0,297035;0,323513;0,524624;0,471566;0,377093;0,324910;0,319416;0,552355;0,277750;0,402750;0,445440;0,363703;0,652750;0,336502;0,438464;0,452750;0,342662;0,277750;0,368736;0,647494;0,647494;0,319416;0,494024;0,441290;0,524624;0,652750;0,252750;0,524624;0,524624;0,402750;0,398507;0,573712;0,573712;0,307794;0,307794;0,307794;0,319416;0,252750;0,252750;0,252750;0,000000;0,319416;0,000000;0,000000;0,414594;0,391290;0,473229;0,319416;0,319416;0,342662;0,319416;0,511670;0,511670;0,210630;0,194702;0,252750;0,252750;0,252750;0,402750;0,277750;0,652750;0,277750;0,297035;0,319416;0,319416;0,319416;0,319416;0,652750;0,000000;0,277750;0,573749;0,573749;0,573749;0,486083;0,277750;0,277750;0,277750;0,277750;0,319416;0,319416;0,252750;0,252750;0,252750;0,252750;0,252750;0,319416;0,652750;0,319416;0,402750;0,289268;0,711377;0,402750;0,281924;0,319416;0,252750;0,252750;0,252750;0,252750;0,252750;0,319416;0,402750;0,402750;0,402750;0,319416;0,319416;0,319416;
17;;;;;;;;;;;;;;;;;1,000000;0,375694;0,244285;0,270764;0,533333;0,480276;0,385802;0,272160;0,266667;0,561064;0,225000;0,350000;0,454150;0,236633;0,600000;0,283752;0,385714;0,400000;0,289912;0,225000;0,377446;0,656462;0,656462;0,266667;0,502733;0,450000;0,533333;0,600000;0,200000;0,533333;0,533333;0,350000;0,327796;0,450000;0,450000;0,255044;0,255044;0,255044;0,266667;0,200000;0,200000;0,200000;0,000000;0,266667;0,000000;0,000000;0,423304;0,400000;0,420480;0,266667;0,266667;0,289912;0,266667;0,533333;0,533333;0,000000;0,000000;0,200000;0,200000;0,200000;0,700000;0,225000;0,600000;0,225000;0,244285;0,266667;0,266667;0,266667;0,266667;0,600000;0,000000;0,225000;0,450000;0,450000;0,450000;0,700000;0,225000;0,225000;0,225000;0,225000;0,266667;0,266667;0,200000;0,200000;0,200000;0,200000;0,200000;0,266667;0,600000;0,266667;0,350000;0,236518;0,800000;0,350000;0,229175;0,266667;0,200000;0,200000;0,200000;0,200000;0,200000;0,266667;0,350000;0,350000;0,350000;0,266667;0,266667;0,266667;
18;;;;;;;;;;;;;;;;;;1,000000;0,572679;0,586404;0,509027;0,455970;0,840222;0,710447;0,617442;0,536758;0,267054;0,392054;0,429844;0,278687;0,642054;0,730613;0,427769;0,442054;0,331966;0,740808;0,667824;0,464264;0,464264;0,308721;0,478427;0,425694;0,509027;0,642054;0,242054;0,509027;0,509027;0,392054;0,202270;0,267054;0,267054;0,297098;0,297098;0,297098;0,308721;0,484109;0,484109;0,484109;0,000000;0,817325;0,392054;0,392054;0,719410;0,524919;0,462534;0,308721;0,308721;0,331966;0,308721;0,308721;0,308721;0,000000;0,000000;0,242054;0,242054;0,242054;0,392054;0,267054;0,642054;0,443936;0,509389;0,308721;0,308721;0,308721;0,308721;0,642054;0,000000;0,267054;0,267054;0,267054;0,267054;0,475388;0,267054;0,267054;0,267054;0,267054;0,308721;0,308721;0,242054;0,242054;0,242054;0,242054;0,242054;0,817226;0,642054;0,308721;0,392054;0,724538;0,581729;0,392054;0,698521;0,308721;0,242054;0,242054;0,242054;0,242054;0,242054;0,308721;0,392054;0,392054;0,392054;0,308721;0,308721;0,308721;
19;;;;;;;;;;;;;;;;;;;1,000000;0,697103;0,310952;0,313668;0,665666;0,632890;0,621904;0,444693;0,269285;0,394285;0,310952;0,280918;0,644285;0,656075;0,429999;0,444285;0,334197;0,670881;0,620795;0,288570;0,288570;0,310952;0,295652;0,269285;0,310952;0,644285;0,244285;0,310952;0,310952;0,394285;0,204500;0,269285;0,269285;0,299329;0,299329;0,299329;0,310952;0,656377;0,656377;0,656377;0,000000;0,621904;0,394285;0,394285;0,615844;0,413677;0,464765;0,310952;0,310952;0,334197;0,310952;0,310952;0,310952;0,000000;0,000000;0,244285;0,244285;0,244285;0,394285;0,269285;0,644285;0,463677;0,502247;0,310952;0,310952;0,310952;0,310952;0,644285;0,000000;0,269285;0,269285;0,269285;0,269285;0,477618;0,269285;0,269285;0,269285;0,269285;0,621904;0,621904;0,244285;0,244285;0,244285;0,244285;0,244285;0,621904;0,644285;0,310952;0,394285;0,708790;0,347303;0,394285;0,615179;0,310952;0,244285;0,244285;0,244285;0,244285;0,244285;0,310952;0,394285;0,394285;0,394285;0,310952;0,310952;0,310952;
20;;;;;;;;;;;;;;;;;;;;1,000000;0,337430;0,340147;0,618359;0,646615;0,635629;0,471172;0,295764;0,420764;0,337430;0,307397;0,670764;0,669800;0,456478;0,470764;0,360676;0,655229;0,605143;0,315049;0,315049;0,337430;0,322130;0,295764;0,337430;0,670764;0,270764;0,337430;0,337430;0,420764;0,230979;0,295764;0,295764;0,325808;0,325808;0,325808;0,337430;0,640725;0,640725;0,640725;0,000000;0,635629;0,382420;0,382420;0,600192;0,409029;0,491243;0,337430;0,337430;0,360676;0,337430;0,337430;0,337430;0,000000;0,000000;0,270764;0,270764;0,270764;0,420764;0,295764;0,670764;0,459029;0,497599;0,337430;0,337430;0,337430;0,337430;0,670764;0,000000;0,295764;0,295764;0,295764;0,295764;0,504097;0,295764;0,295764;0,295764;0,295764;0,550366;0,550366;0,270764;0,270764;0,270764;0,270764;0,270764;0,635629;0,670764;0,337430;0,420764;0,693138;0,373781;0,420764;0,599528;0,337430;0,270764;0,270764;0,270764;0,270764;0,270764;0,337430;0,420764;0,420764;0,420764;0,337430;0,337430;0,337430;
21;;;;;;;;;;;;;;;;;;;;;1,000000;0,613610;0,519136;0,338827;0,333333;0,694398;0,291667;0,416667;0,918919;0,539308;0,666667;0,350419;0,452381;0,466667;0,356579;0,291667;0,510779;0,621904;0,621904;0,333333;0,902923;0,875000;0,666667;0,666667;0,266667;0,666667;0,666667;0,416667;0,226882;0,291667;0,291667;0,321711;0,321711;0,321711;0,333333;0,266667;0,266667;0,266667;0,000000;0,333333;0,000000;0,000000;0,556637;0,533333;0,487146;0,333333;0,333333;0,356579;0,333333;0,333333;0,333333;0,000000;0,000000;0,266667;0,266667;0,266667;0,416667;0,291667;0,666667;0,291667;0,310952;0,333333;0,333333;0,333333;0,333333;0,666667;0,000000;0,291667;0,291667;0,291667;0,291667;0,500000;0,291667;0,291667;0,291667;0,291667;0,333333;0,333333;0,266667;0,266667;0,266667;0,266667;0,266667;0,333333;0,666667;0,333333;0,416667;0,303185;0,739368;0,416667;0,295841;0,333333;0,266667;0,266667;0,266667;0,266667;0,266667;0,333333;0,416667;0,416667;0,416667;0,333333;0,333333;0,333333;
22;;;;;;;;;;;;;;;;;;;;;;1,000000;0,466079;0,341543;0,336050;0,641340;0,454357;0,419383;0,640309;0,436299;0,669383;0,353135;0,455097;0,469383;0,584181;0,294383;0,457722;0,568846;0,568846;0,537691;0,655952;0,712178;0,837178;0,669383;0,404357;0,613610;0,613610;0,419383;0,356173;0,294383;0,294383;0,324427;0,324427;0,324427;0,537691;0,269383;0,269383;0,269383;0,274464;0,336050;0,000000;0,000000;0,503580;0,480276;0,489863;0,336050;0,336050;0,359295;0,336050;0,336050;0,336050;0,213538;0,193511;0,404357;0,404357;0,404357;0,419383;0,454357;0,669383;0,294383;0,313668;0,537691;0,456853;0,336050;0,336050;0,669383;0,000000;0,294383;0,294383;0,294383;0,294383;0,502716;0,294383;0,294383;0,294383;0,294383;0,336050;0,336050;0,269383;0,269383;0,269383;0,269383;0,269383;0,336050;0,669383;0,537691;0,419383;0,305901;0,686311;0,419383;0,298557;0,537691;0,269383;0,269383;0,269383;0,269383;0,269383;0,336050;0,419383;0,419383;0,419383;0,336050;0,336050;0,336050;
23;;;;;;;;;;;;;;;;;;;;;;;1,000000;0,689882;0,556830;0,546867;0,255457;0,380457;0,439952;0,267090;0,630457;0,647887;0,416171;0,430457;0,320369;0,662202;0,785765;0,474373;0,474373;0,297123;0,488536;0,435802;0,519136;0,630457;0,230457;0,519136;0,519136;0,380457;0,190672;0,255457;0,255457;0,285501;0,285501;0,285501;0,297123;0,640427;0,640427;0,640427;0,000000;0,556830;0,341516;0,341516;0,710738;0,706362;0,450936;0,297123;0,297123;0,320369;0,297123;0,297123;0,297123;0,000000;0,000000;0,230457;0,230457;0,230457;0,380457;0,255457;0,630457;0,582298;0,563771;0,297123;0,297123;0,297123;0,297123;0,630457;0,000000;0,255457;0,255457;0,255457;0,255457;0,463790;0,255457;0,255457;0,255457;0,255457;0,472981;0,472981;0,230457;0,230457;0,230457;0,230457;0,230457;0,734499;0,630457;0,297123;0,380457;0,650820;0,591837;0,380457;0,687065;0,297123;0,230457;0,230457;0,230457;0,230457;0,230457;0,297123;0,380457;0,380457;0,380457;0,297123;0,297123;0,297123;
24;;;;;;;;;;;;;;;;;;;;;;;;1,000000;0,677653;0,472568;0,297160;0,422160;0,338827;0,308793;0,672160;0,806608;0,457874;0,472160;0,362072;0,707975;0,585932;0,316445;0,316445;0,338827;0,323527;0,297160;0,338827;0,672160;0,272160;0,338827;0,338827;0,422160;0,232375;0,297160;0,297160;0,327204;0,327204;0,327204;0,338827;0,544320;0,544320;0,544320;0,000000;0,677653;0,422160;0,422160;0,475201;0,272160;0,492640;0,338827;0,338827;0,362072;0,338827;0,338827;0,338827;0,000000;0,000000;0,272160;0,272160;0,272160;0,422160;0,297160;0,672160;0,297160;0,316445;0,338827;0,338827;0,338827;0,338827;0,672160;0,000000;0,297160;0,297160;0,297160;0,297160;0,505493;0,297160;0,297160;0,297160;0,297160;0,338827;0,338827;0,272160;0,272160;0,272160;0,272160;0,272160;0,893221;0,672160;0,338827;0,422160;0,617356;0,375177;0,422160;0,530509;0,338827;0,272160;0,272160;0,272160;0,272160;0,272160;0,338827;0,422160;0,422160;0,422160;0,338827;0,338827;0,338827;
25;;;;;;;;;;;;;;;;;;;;;;;;;1,000000;0,467075;0,291667;0,416667;0,333333;0,303300;0,666667;0,700838;0,452381;0,466667;0,356579;0,814870;0,510670;0,310952;0,310952;0,333333;0,318033;0,291667;0,333333;0,666667;0,266667;0,333333;0,333333;0,416667;0,226882;0,291667;0,291667;0,321711;0,321711;0,321711;0,333333;0,533333;0,533333;0,533333;0,000000;0,666667;0,416667;0,416667;0,464214;0,266667;0,487146;0,333333;0,333333;0,356579;0,333333;0,333333;0,333333;0,000000;0,000000;0,266667;0,266667;0,266667;0,416667;0,291667;0,666667;0,291667;0,310952;0,333333;0,333333;0,333333;0,333333;0,666667;0,000000;0,291667;0,291667;0,291667;0,291667;0,500000;0,291667;0,291667;0,291667;0,291667;0,333333;0,333333;0,266667;0,266667;0,266667;0,266667;0,266667;0,666667;0,666667;0,333333;0,416667;0,606370;0,369684;0,416667;0,519522;0,333333;0,266667;0,266667;0,266667;0,266667;0,266667;0,333333;0,416667;0,416667;0,416667;0,333333;0,333333;0,333333;
26;;;;;;;;;;;;;;;;;;;;;;;;;;1,000000;0,425408;0,550408;0,615214;0,437041;0,800408;0,484160;0,586122;0,600408;0,490320;0,425408;0,538510;0,649635;0,649635;0,467075;0,663798;0,611064;0,694398;0,800408;0,400408;0,694398;0,694398;0,550408;0,360623;0,425408;0,425408;0,455452;0,455452;0,455452;0,467075;0,400408;0,400408;0,400408;0,000000;0,467075;0,000000;0,000000;0,584368;0,561064;0,620888;0,467075;0,467075;0,645427;0,686713;0,467075;0,467075;0,000000;0,000000;0,400408;0,400408;0,400408;0,550408;0,425408;0,800408;0,425408;0,444693;0,467075;0,467075;0,467075;0,467075;0,800408;0,000000;0,425408;0,425408;0,425408;0,425408;0,633741;0,425408;0,425408;0,425408;0,425408;0,467075;0,467075;0,400408;0,400408;0,400408;0,400408;0,400408;0,467075;0,800408;0,467075;0,550408;0,436926;0,767099;0,550408;0,429583;0,467075;0,400408;0,400408;0,400408;0,400408;0,400408;0,467075;0,550408;0,550408;0,550408;0,467075;0,467075;0,467075;
27;;;;;;;;;;;;;;;;;;;;;;;;;;;1,000000;0,375000;0,291667;0,261633;0,625000;0,308752;0,410714;0,425000;0,755347;0,250000;0,238257;0,269285;0,269285;0,875000;0,276367;0,250000;0,291667;0,625000;0,775000;0,291667;0,291667;0,375000;0,185215;0,250000;0,250000;0,280044;0,280044;0,280044;0,875000;0,225000;0,225000;0,225000;0,375000;0,291667;0,000000;0,000000;0,218044;0,225000;0,445480;0,291667;0,291667;0,314912;0,291667;0,291667;0,291667;0,000000;0,000000;0,614228;0,614228;0,614228;0,375000;0,689228;0,625000;0,250000;0,269285;0,583333;0,502495;0,291667;0,291667;0,625000;0,000000;0,250000;0,250000;0,250000;0,250000;0,458333;0,250000;0,250000;0,250000;0,250000;0,291667;0,291667;0,225000;0,225000;0,225000;0,225000;0,225000;0,291667;0,625000;0,814462;0,375000;0,261518;0,328017;0,375000;0,254175;0,583333;0,225000;0,225000;0,225000;0,225000;0,225000;0,291667;0,375000;0,375000;0,375000;0,291667;0,291667;0,291667;
28;;;;;;;;;;;;;;;;;;;;;;;;;;;;1,000000;0,416667;0,386633;0,750000;0,433752;0,535714;0,550000;0,439912;0,375000;0,363257;0,394285;0,394285;0,416667;0,401367;0,375000;0,416667;0,750000;0,350000;0,416667;0,416667;1,000000;0,310215;0,375000;0,375000;0,405044;0,405044;0,405044;0,416667;0,350000;0,350000;0,350000;0,000000;0,416667;0,000000;0,000000;0,343044;0,350000;0,570480;0,416667;0,416667;0,879824;0,833333;0,416667;0,416667;0,000000;0,000000;0,350000;0,350000;0,350000;0,500000;0,375000;0,750000;0,375000;0,394285;0,416667;0,416667;0,416667;0,416667;0,750000;0,000000;0,375000;0,375000;0,375000;0,375000;0,583333;0,375000;0,375000;0,375000;0,375000;0,416667;0,416667;0,350000;0,350000;0,350000;0,350000;0,350000;0,416667;0,750000;0,416667;0,500000;0,386518;0,453017;0,500000;0,379175;0,416667;0,350000;0,350000;0,350000;0,350000;0,350000;0,416667;0,500000;0,500000;0,500000;0,416667;0,416667;0,416667;
29;;;;;;;;;;;;;;;;;;;;;;;;;;;;;1,000000;0,539308;0,666667;0,350419;0,452381;0,466667;0,356579;0,291667;0,431595;0,542720;0,542720;0,333333;0,821841;0,793919;0,587483;0,666667;0,266667;0,587483;0,587483;0,416667;0,410874;0,291667;0,291667;0,321711;0,321711;0,321711;0,333333;0,266667;0,266667;0,266667;0,000000;0,333333;0,000000;0,000000;0,477453;0,454150;0,487146;0,333333;0,333333;0,356579;0,333333;0,333333;0,333333;0,277024;0,256996;0,266667;0,266667;0,266667;0,416667;0,291667;0,666667;0,291667;0,310952;0,333333;0,333333;0,333333;0,333333;0,666667;0,000000;0,291667;0,291667;0,291667;0,291667;0,500000;0,291667;0,291667;0,291667;0,291667;0,333333;0,333333;0,266667;0,266667;0,266667;0,266667;0,266667;0,333333;0,666667;0,333333;0,416667;0,303185;0,660184;0,416667;0,295841;0,333333;0,266667;0,266667;0,266667;0,266667;0,266667;0,333333;0,416667;0,416667;0,416667;0,333333;0,333333;0,333333;
30;;;;;;;;;;;;;;;;;;;;;;;;;;;;;;1,000000;0,636633;0,320385;0,422347;0,436633;0,326545;0,261633;0,249889;0,280918;0,280918;0,303300;0,459039;0,455974;0,303300;0,636633;0,236633;0,303300;0,303300;0,386633;0,614462;0,439543;0,439543;0,291677;0,291677;0,291677;0,303300;0,236633;0,236633;0,236633;0,000000;0,303300;0,000000;0,000000;0,229677;0,236633;0,457113;0,303300;0,303300;0,326545;0,303300;0,303300;0,303300;0,551650;0,542732;0,236633;0,236633;0,236633;0,386633;0,261633;0,636633;0,261633;0,280918;0,303300;0,303300;0,303300;0,303300;0,636633;0,609159;0,261633;0,261633;0,261633;0,261633;0,469966;0,261633;0,261633;0,261633;0,261633;0,303300;0,303300;0,236633;0,236633;0,236633;0,236633;0,236633;0,303300;0,636633;0,303300;0,386633;0,273151;0,339650;0,386633;0,265807;0,303300;0,236633;0,236633;0,236633;0,236633;0,236633;0,303300;0,386633;0,386633;0,386633;0,303300;0,303300;0,303300;
31;;;;;;;;;;;;;;;;;;;;;;;;;;;;;;;1,000000;0,683752;0,785714;0,800000;0,689912;0,625000;0,613257;0,644285;0,644285;0,666667;0,651367;0,625000;0,666667;1,000000;0,600000;0,666667;0,666667;0,750000;0,560215;0,625000;0,625000;0,655044;0,655044;0,655044;0,666667;0,600000;0,600000;0,600000;0,000000;0,666667;0,000000;0,000000;0,593044;0,600000;0,820480;0,666667;0,666667;0,689912;0,666667;0,666667;0,666667;0,000000;0,000000;0,600000;0,600000;0,600000;0,750000;0,625000;1,000000;0,625000;0,644285;0,666667;0,666667;0,666667;0,666667;1,000000;0,000000;0,625000;0,625000;0,625000;0,625000;0,833333;0,625000;0,625000;0,625000;0,625000;0,666667;0,666667;0,600000;0,600000;0,600000;0,600000;0,600000;0,666667;1,000000;0,666667;0,750000;0,636518;0,703017;0,750000;0,629175;0,666667;0,600000;0,600000;0,600000;0,600000;0,600000;0,666667;0,750000;0,750000;0,750000;0,666667;0,666667;0,666667;
32;;;;;;;;;;;;;;;;;;;;;;;;;;;;;;;;1,000000;0,469466;0,483752;0,373664;0,728142;0,619121;0,328037;0,328037;0,350419;0,335119;0,308752;0,350419;0,683752;0,283752;0,350419;0,350419;0,433752;0,243967;0,308752;0,308752;0,338796;0,338796;0,338796;0,350419;0,567504;0,567504;0,567504;0,000000;0,700838;0,433752;0,433752;0,498385;0,283752;0,504232;0,350419;0,350419;0,373664;0,350419;0,350419;0,350419;0,000000;0,000000;0,283752;0,283752;0,283752;0,433752;0,308752;0,683752;0,308752;0,328037;0,350419;0,350419;0,350419;0,350419;0,683752;0,000000;0,308752;0,308752;0,308752;0,308752;0,517085;0,308752;0,308752;0,308752;0,308752;0,350419;0,350419;0,283752;0,283752;0,283752;0,283752;0,283752;0,913387;0,683752;0,350419;0,433752;0,748048;0,386770;0,433752;0,660565;0,350419;0,283752;0,283752;0,283752;0,283752;0,283752;0,350419;0,433752;0,433752;0,433752;0,350419;0,350419;0,350419;
33;;;;;;;;;;;;;;;;;;;;;;;;;;;;;;;;;1,000000;0,585714;0,475626;0,410714;0,398971;0,429999;0,429999;0,452381;0,437081;0,410714;0,452381;0,785714;0,385714;0,452381;0,452381;0,535714;0,345930;0,410714;0,410714;0,440758;0,440758;0,440758;0,452381;0,385714;0,385714;0,385714;0,000000;0,452381;0,000000;0,000000;0,378758;0,385714;0,606194;0,452381;0,452381;0,475626;0,452381;0,452381;0,452381;0,000000;0,000000;0,385714;0,385714;0,385714;0,535714;0,410714;0,785714;0,410714;0,429999;0,452381;0,452381;0,452381;0,452381;0,785714;0,000000;0,410714;0,410714;0,410714;0,410714;0,619048;0,410714;0,410714;0,410714;0,410714;0,452381;0,452381;0,385714;0,385714;0,385714;0,385714;0,385714;0,452381;0,785714;0,452381;0,535714;0,422232;0,488732;0,535714;0,414889;0,452381;0,385714;0,385714;0,385714;0,385714;0,385714;0,452381;0,862250;0,535714;0,535714;0,452381;0,452381;0,452381;
34;;;;;;;;;;;;;;;;;;;;;;;;;;;;;;;;;;1,000000;0,489912;0,425000;0,413257;0,444285;0,444285;0,466667;0,451367;0,425000;0,466667;0,800000;0,400000;0,466667;0,466667;0,550000;0,360215;0,425000;0,425000;0,455044;0,455044;0,455044;0,466667;0,400000;0,400000;0,400000;0,000000;0,466667;0,000000;0,000000;0,393044;0,400000;0,620480;0,466667;0,466667;0,489912;0,466667;0,466667;0,466667;0,000000;0,000000;0,400000;0,400000;0,400000;0,550000;0,425000;0,800000;0,425000;0,444285;0,466667;0,466667;0,466667;0,466667;0,800000;0,000000;0,425000;0,425000;0,425000;0,425000;0,633333;0,425000;0,425000;0,425000;0,425000;0,466667;0,466667;0,400000;0,400000;0,400000;0,400000;0,400000;0,466667;0,800000;0,466667;0,904892;0,436518;0,503017;0,550000;0,429175;0,466667;0,400000;0,400000;0,400000;0,400000;0,400000;0,466667;0,550000;0,550000;0,550000;0,466667;0,466667;0,466667;
35;;;;;;;;;;;;;;;;;;;;;;;;;;;;;;;;;;;1,000000;0,314912;0,303169;0,334197;0,334197;0,803534;0,341279;0,314912;0,356579;0,689912;0,741253;0,356579;0,356579;0,439912;0,250127;0,314912;0,314912;0,344956;0,344956;0,344956;0,887592;0,289912;0,289912;0,289912;0,752919;0,356579;0,000000;0,000000;0,282956;0,289912;0,510392;0,356579;0,356579;0,379824;0,356579;0,356579;0,356579;0,000000;0,000000;0,579824;0,579824;0,579824;0,439912;1,000000;0,689912;0,314912;0,334197;0,713157;0,632319;0,356579;0,356579;0,689912;0,000000;0,314912;0,314912;0,314912;0,314912;0,523245;0,314912;0,314912;0,314912;0,314912;0,356579;0,356579;0,289912;0,289912;0,289912;0,289912;0,289912;0,356579;0,689912;0,713157;0,439912;0,326430;0,392929;0,439912;0,319086;0,713157;0,289912;0,289912;0,289912;0,289912;0,289912;0,356579;0,439912;0,439912;0,439912;0,356579;0,356579;0,356579;
36;;;;;;;;;;;;;;;;;;;;;;;;;;;;;;;;;;;;1,000000;0,578921;0,269285;0,269285;0,291667;0,276367;0,250000;0,291667;0,625000;0,225000;0,291667;0,291667;0,375000;0,185215;0,250000;0,250000;0,280044;0,280044;0,280044;0,291667;0,614503;0,614503;0,614503;0,000000;0,583333;0,375000;0,375000;0,734401;0,561203;0,445480;0,291667;0,291667;0,314912;0,291667;0,291667;0,291667;0,000000;0,000000;0,225000;0,225000;0,225000;0,375000;0,250000;0,625000;0,636203;0,617649;0,291667;0,291667;0,291667;0,291667;0,625000;0,000000;0,250000;0,250000;0,250000;0,250000;0,458333;0,250000;0,250000;0,250000;0,250000;0,291667;0,291667;0,225000;0,225000;0,225000;0,225000;0,225000;0,814754;0,625000;0,291667;0,375000;0,791478;0,328017;0,375000;0,696302;0,291667;0,225000;0,225000;0,225000;0,225000;0,225000;0,291667;0,375000;0,375000;0,375000;0,291667;0,291667;0,291667;
37;;;;;;;;;;;;;;;;;;;;;;;;;;;;;;;;;;;;;1,000000;0,466016;0,466016;0,279923;0,480179;0,427446;0,510779;0,613257;0,213257;0,510779;0,510779;0,363257;0,173472;0,238257;0,238257;0,268301;0,268301;0,268301;0,279923;0,564418;0,564418;0,564418;0,000000;0,510670;0,312071;0,312071;0,746010;0,736706;0,433736;0,279923;0,279923;0,303169;0,279923;0,279923;0,279923;0,000000;0,000000;0,213257;0,213257;0,213257;0,363257;0,238257;0,613257;0,593575;0,661697;0,279923;0,279923;0,279923;0,279923;0,613257;0,000000;0,238257;0,238257;0,238257;0,238257;0,446590;0,238257;0,238257;0,238257;0,238257;0,279923;0,279923;0,213257;0,213257;0,213257;0,213257;0,213257;0,510670;0,613257;0,279923;0,363257;0,739825;0,583481;0,363257;0,772833;0,279923;0,213257;0,213257;0,213257;0,213257;0,213257;0,279923;0,363257;0,363257;0,363257;0,279923;0,279923;0,279923;
38;;;;;;;;;;;;;;;;;;;;;;;;;;;;;;;;;;;;;;1,000000;0,712924;0,310952;0,591304;0,538570;0,621904;0,644285;0,244285;0,621904;0,621904;0,394285;0,341655;0,463859;0,463859;0,299329;0,299329;0,299329;0,310952;0,244285;0,244285;0,244285;0,000000;0,310952;0,000000;0,000000;0,511874;0,488570;0,464765;0,310952;0,310952;0,334197;0,310952;0,547192;0,547192;0,000000;0,000000;0,244285;0,244285;0,244285;0,713859;0,269285;0,644285;0,269285;0,288570;0,310952;0,310952;0,310952;0,310952;0,644285;0,000000;0,269285;0,463859;0,463859;0,463859;0,713859;0,269285;0,269285;0,269285;0,269285;0,310952;0,310952;0,244285;0,244285;0,244285;0,244285;0,244285;0,310952;0,644285;0,310952;0,394285;0,280803;0,694605;0,394285;0,273460;0,310952;0,244285;0,244285;0,244285;0,244285;0,244285;0,310952;0,394285;0,394285;0,394285;0,310952;0,310952;0,310952;
39;;;;;;;;;;;;;;;;;;;;;;;;;;;;;;;;;;;;;;;1,000000;0,310952;0,591304;0,538570;0,621904;0,644285;0,244285;0,621904;0,621904;0,394285;0,341655;0,463859;0,463859;0,299329;0,299329;0,299329;0,310952;0,244285;0,244285;0,244285;0,000000;0,310952;0,000000;0,000000;0,511874;0,488570;0,464765;0,310952;0,310952;0,334197;0,310952;0,547192;0,547192;0,000000;0,000000;0,244285;0,244285;0,244285;0,713859;0,269285;0,644285;0,269285;0,288570;0,310952;0,310952;0,310952;0,310952;0,644285;0,000000;0,269285;0,463859;0,463859;0,463859;0,713859;0,269285;0,269285;0,269285;0,269285;0,310952;0,310952;0,244285;0,244285;0,244285;0,244285;0,244285;0,310952;0,644285;0,310952;0,394285;0,280803;0,694605;0,394285;0,273460;0,310952;0,244285;0,244285;0,244285;0,244285;0,244285;0,310952;0,394285;0,394285;0,394285;0,310952;0,310952;0,310952;
40;;;;;;;;;;;;;;;;;;;;;;;;;;;;;;;;;;;;;;;;1,000000;0,318033;0,291667;0,333333;0,666667;0,773479;0,333333;0,333333;0,416667;0,226882;0,291667;0,291667;0,321711;0,321711;0,321711;1,000000;0,266667;0,266667;0,266667;0,416667;0,333333;0,000000;0,000000;0,259711;0,266667;0,487146;0,333333;0,333333;0,356579;0,333333;0,333333;0,333333;0,000000;0,000000;0,773479;0,773479;0,773479;0,416667;0,737415;0,666667;0,291667;0,310952;0,666667;0,585829;0,333333;0,333333;0,666667;0,000000;0,291667;0,291667;0,291667;0,291667;0,500000;0,291667;0,291667;0,291667;0,291667;0,333333;0,333333;0,266667;0,266667;0,266667;0,266667;0,266667;0,333333;0,666667;0,666667;0,416667;0,303185;0,369684;0,416667;0,295841;0,666667;0,266667;0,266667;0,266667;0,266667;0,266667;0,333333;0,416667;0,416667;0,416667;0,333333;0,333333;0,333333;
41;;;;;;;;;;;;;;;;;;;;;;;;;;;;;;;;;;;;;;;;;1,000000;0,777923;0,636067;0,651367;0,251367;0,636067;0,636067;0,401367;0,211582;0,276367;0,276367;0,306411;0,306411;0,306411;0,318033;0,251367;0,251367;0,251367;0,000000;0,318033;0,000000;0,000000;0,526037;0,502733;0,471846;0,318033;0,318033;0,341279;0,318033;0,318033;0,318033;0,000000;0,000000;0,251367;0,251367;0,251367;0,401367;0,276367;0,651367;0,276367;0,295652;0,318033;0,318033;0,318033;0,318033;0,651367;0,000000;0,276367;0,276367;0,276367;0,276367;0,484700;0,276367;0,276367;0,276367;0,276367;0,318033;0,318033;0,251367;0,251367;0,251367;0,251367;0,251367;0,318033;0,651367;0,318033;0,401367;0,287885;0,708768;0,401367;0,280541;0,318033;0,251367;0,251367;0,251367;0,251367;0,251367;0,318033;0,401367;0,401367;0,401367;0,318033;0,318033;0,318033;
42;;;;;;;;;;;;;;;;;;;;;;;;;;;;;;;;;;;;;;;;;;1,000000;0,875000;0,625000;0,225000;0,583333;0,583333;0,375000;0,185215;0,250000;0,250000;0,280044;0,280044;0,280044;0,291667;0,225000;0,225000;0,225000;0,000000;0,291667;0,000000;0,000000;0,473304;0,450000;0,445480;0,291667;0,291667;0,314912;0,291667;0,291667;0,291667;0,000000;0,000000;0,225000;0,225000;0,225000;0,375000;0,250000;0,625000;0,250000;0,269285;0,291667;0,291667;0,291667;0,291667;0,625000;0,000000;0,250000;0,250000;0,250000;0,250000;0,458333;0,250000;0,250000;0,250000;0,250000;0,291667;0,291667;0,225000;0,225000;0,225000;0,225000;0,225000;0,291667;0,625000;0,291667;0,375000;0,261518;0,656035;0,375000;0,254175;0,291667;0,225000;0,225000;0,225000;0,225000;0,225000;0,291667;0,375000;0,375000;0,375000;0,291667;0,291667;0,291667;
43;;;;;;;;;;;;;;;;;;;;;;;;;;;;;;;;;;;;;;;;;;;1,000000;0,666667;0,266667;0,666667;0,666667;0,416667;0,226882;0,291667;0,291667;0,321711;0,321711;0,321711;0,333333;0,266667;0,266667;0,266667;0,000000;0,333333;0,000000;0,000000;0,556637;0,533333;0,487146;0,333333;0,333333;0,356579;0,333333;0,333333;0,333333;0,000000;0,000000;0,266667;0,266667;0,266667;0,416667;0,291667;0,666667;0,291667;0,310952;0,333333;0,333333;0,333333;0,333333;0,666667;0,000000;0,291667;0,291667;0,291667;0,291667;0,500000;0,291667;0,291667;0,291667;0,291667;0,333333;0,333333;0,266667;0,266667;0,266667;0,266667;0,266667;0,333333;0,666667;0,333333;0,416667;0,303185;0,739368;0,416667;0,295841;0,333333;0,266667;0,266667;0,266667;0,266667;0,266667;0,333333;0,416667;0,416667;0,416667;0,333333;0,333333;0,333333;
44;;;;;;;;;;;;;;;;;;;;;;;;;;;;;;;;;;;;;;;;;;;;1,000000;0,600000;0,666667;0,666667;0,750000;0,560215;0,625000;0,625000;0,655044;0,655044;0,655044;0,666667;0,600000;0,600000;0,600000;0,000000;0,666667;0,000000;0,000000;0,593044;0,600000;0,820480;0,666667;0,666667;0,689912;0,666667;0,666667;0,666667;0,000000;0,000000;0,600000;0,600000;0,600000;0,750000;0,625000;1,000000;0,625000;0,644285;0,666667;0,666667;0,666667;0,666667;1,000000;0,000000;0,625000;0,625000;0,625000;0,625000;0,833333;0,625000;0,625000;0,625000;0,625000;0,666667;0,666667;0,600000;0,600000;0,600000;0,600000;0,600000;0,666667;1,000000;0,666667;0,750000;0,636518;0,703017;0,750000;0,629175;0,666667;0,600000;0,600000;0,600000;0,600000;0,600000;0,666667;0,750000;0,750000;0,750000;0,666667;0,666667;0,666667;
45;;;;;;;;;;;;;;;;;;;;;;;;;;;;;;;;;;;;;;;;;;;;;1,000000;0,266667;0,266667;0,350000;0,160215;0,225000;0,225000;0,255044;0,255044;0,255044;0,690956;0,200000;0,200000;0,200000;0,700000;0,266667;0,000000;0,000000;0,193044;0,200000;0,420480;0,266667;0,266667;0,289912;0,266667;0,266667;0,266667;0,000000;0,000000;0,600000;0,600000;0,600000;0,350000;0,675000;0,600000;0,225000;0,244285;0,533333;0,452495;0,266667;0,266667;0,600000;0,000000;0,225000;0,225000;0,225000;0,225000;0,433333;0,225000;0,225000;0,225000;0,225000;0,266667;0,266667;0,200000;0,200000;0,200000;0,200000;0,200000;0,266667;0,600000;0,533333;0,350000;0,236518;0,303017;0,350000;0,229175;0,533333;0,200000;0,200000;0,200000;0,200000;0,200000;0,266667;0,350000;0,350000;0,350000;0,266667;0,266667;0,266667;
46;;;;;;;;;;;;;;;;;;;;;;;;;;;;;;;;;;;;;;;;;;;;;;1,000000;0,666667;0,416667;0,226882;0,291667;0,291667;0,321711;0,321711;0,321711;0,333333;0,266667;0,266667;0,266667;0,000000;0,333333;0,000000;0,000000;0,556637;0,533333;0,487146;0,333333;0,333333;0,356579;0,333333;0,333333;0,333333;0,000000;0,000000;0,266667;0,266667;0,266667;0,416667;0,291667;0,666667;0,291667;0,310952;0,333333;0,333333;0,333333;0,333333;0,666667;0,000000;0,291667;0,291667;0,291667;0,291667;0,500000;0,291667;0,291667;0,291667;0,291667;0,333333;0,333333;0,266667;0,266667;0,266667;0,266667;0,266667;0,333333;0,666667;0,333333;0,416667;0,303185;0,739368;0,416667;0,295841;0,333333;0,266667;0,266667;0,266667;0,266667;0,266667;0,333333;0,416667;0,416667;0,416667;0,333333;0,333333;0,333333;
47;;;;;;;;;;;;;;;;;;;;;;;;;;;;;;;;;;;;;;;;;;;;;;;1,000000;0,416667;0,226882;0,291667;0,291667;0,321711;0,321711;0,321711;0,333333;0,266667;0,266667;0,266667;0,000000;0,333333;0,000000;0,000000;0,556637;0,533333;0,487146;0,333333;0,333333;0,356579;0,333333;0,333333;0,333333;0,000000;0,000000;0,266667;0,266667;0,266667;0,416667;0,291667;0,666667;0,291667;0,310952;0,333333;0,333333;0,333333;0,333333;0,666667;0,000000;0,291667;0,291667;0,291667;0,291667;0,500000;0,291667;0,291667;0,291667;0,291667;0,333333;0,333333;0,266667;0,266667;0,266667;0,266667;0,266667;0,333333;0,666667;0,333333;0,416667;0,303185;0,739368;0,416667;0,295841;0,333333;0,266667;0,266667;0,266667;0,266667;0,266667;0,333333;0,416667;0,416667;0,416667;0,333333;0,333333;0,333333;
48;;;;;;;;;;;;;;;;;;;;;;;;;;;;;;;;;;;;;;;;;;;;;;;;1,000000;0,310215;0,375000;0,375000;0,405044;0,405044;0,405044;0,416667;0,350000;0,350000;0,350000;0,000000;0,416667;0,000000;0,000000;0,343044;0,350000;0,570480;0,416667;0,416667;0,879824;0,833333;0,416667;0,416667;0,000000;0,000000;0,350000;0,350000;0,350000;0,500000;0,375000;0,750000;0,375000;0,394285;0,416667;0,416667;0,416667;0,416667;0,750000;0,000000;0,375000;0,375000;0,375000;0,375000;0,583333;0,375000;0,375000;0,375000;0,375000;0,416667;0,416667;0,350000;0,350000;0,350000;0,350000;0,350000;0,416667;0,750000;0,416667;0,500000;0,386518;0,453017;0,500000;0,379175;0,416667;0,350000;0,350000;0,350000;0,350000;0,350000;0,416667;0,500000;0,500000;0,500000;0,416667;0,416667;0,416667;
49;;;;;;;;;;;;;;;;;;;;;;;;;;;;;;;;;;;;;;;;;;;;;;;;;1,000000;0,574133;0,574133;0,215259;0,215259;0,215259;0,226882;0,160215;0,160215;0,160215;0,000000;0,226882;0,000000;0,000000;0,153259;0,160215;0,380695;0,226882;0,226882;0,250127;0,226882;0,461130;0,461130;0,564187;0,542609;0,160215;0,160215;0,160215;0,627796;0,185215;0,560215;0,185215;0,204500;0,226882;0,226882;0,226882;0,226882;0,560215;0,620566;0,185215;0,377796;0,377796;0,377796;0,627796;0,185215;0,185215;0,185215;0,185215;0,226882;0,226882;0,160215;0,160215;0,160215;0,160215;0,160215;0,226882;0,560215;0,226882;0,310215;0,196733;0,263233;0,310215;0,189390;0,226882;0,160215;0,160215;0,160215;0,160215;0,160215;0,226882;0,310215;0,310215;0,310215;0,226882;0,226882;0,226882;
50;;;;;;;;;;;;;;;;;;;;;;;;;;;;;;;;;;;;;;;;;;;;;;;;;;1,000000;0,750000;0,280044;0,280044;0,280044;0,291667;0,225000;0,225000;0,225000;0,000000;0,291667;0,000000;0,000000;0,218044;0,225000;0,445480;0,291667;0,291667;0,314912;0,291667;0,583333;0,583333;0,291667;0,275738;0,225000;0,225000;0,225000;0,750000;0,250000;0,625000;0,250000;0,269285;0,291667;0,291667;0,291667;0,291667;0,625000;0,000000;0,250000;0,500000;0,500000;0,500000;0,750000;0,250000;0,250000;0,250000;0,250000;0,291667;0,291667;0,225000;0,225000;0,225000;0,225000;0,225000;0,291667;0,625000;0,291667;0,375000;0,261518;0,328017;0,375000;0,254175;0,291667;0,225000;0,225000;0,225000;0,225000;0,225000;0,291667;0,375000;0,375000;0,375000;0,291667;0,291667;0,291667;
51;;;;;;;;;;;;;;;;;;;;;;;;;;;;;;;;;;;;;;;;;;;;;;;;;;;1,000000;0,280044;0,280044;0,280044;0,291667;0,225000;0,225000;0,225000;0,000000;0,291667;0,000000;0,000000;0,218044;0,225000;0,445480;0,291667;0,291667;0,314912;0,291667;0,583333;0,583333;0,291667;0,275738;0,225000;0,225000;0,225000;0,750000;0,250000;0,625000;0,250000;0,269285;0,291667;0,291667;0,291667;0,291667;0,625000;0,000000;0,250000;0,500000;0,500000;0,500000;0,750000;0,250000;0,250000;0,250000;0,250000;0,291667;0,291667;0,225000;0,225000;0,225000;0,225000;0,225000;0,291667;0,625000;0,291667;0,375000;0,261518;0,328017;0,375000;0,254175;0,291667;0,225000;0,225000;0,225000;0,225000;0,225000;0,291667;0,375000;0,375000;0,375000;0,291667;0,291667;0,291667;
52;;;;;;;;;;;;;;;;;;;;;;;;;;;;;;;;;;;;;;;;;;;;;;;;;;;;1,000000;0,691272;0,691272;0,321711;0,255044;0,255044;0,255044;0,000000;0,321711;0,000000;0,000000;0,248088;0,255044;0,475524;0,321711;0,321711;0,344956;0,321711;0,321711;0,321711;0,000000;0,000000;0,255044;0,255044;0,255044;0,405044;0,280044;0,655044;0,280044;0,299329;0,321711;0,321711;0,321711;0,321711;0,655044;0,000000;0,840132;0,280044;0,280044;0,280044;0,488377;0,280044;0,280044;0,280044;0,280044;0,321711;0,321711;0,255044;0,255044;0,255044;0,255044;0,255044;0,321711;0,655044;0,321711;0,405044;0,291562;0,358061;0,405044;0,284219;0,321711;0,255044;0,255044;0,255044;0,255044;0,255044;0,321711;0,405044;0,405044;0,405044;0,321711;0,321711;0,321711;
53;;;;;;;;;;;;;;;;;;;;;;;;;;;;;;;;;;;;;;;;;;;;;;;;;;;;;1,000000;0,691272;0,321711;0,255044;0,255044;0,255044;0,000000;0,321711;0,000000;0,000000;0,248088;0,255044;0,475524;0,321711;0,321711;0,344956;0,321711;0,321711;0,321711;0,000000;0,000000;0,255044;0,255044;0,255044;0,405044;0,280044;0,655044;0,280044;0,299329;0,321711;0,321711;0,321711;0,321711;0,655044;0,000000;0,840132;0,280044;0,280044;0,280044;0,488377;0,280044;0,280044;0,280044;0,280044;0,321711;0,321711;0,255044;0,255044;0,255044;0,255044;0,255044;0,321711;0,655044;0,321711;0,405044;0,291562;0,358061;0,405044;0,284219;0,321711;0,255044;0,255044;0,255044;0,255044;0,255044;0,321711;0,405044;0,405044;0,405044;0,321711;0,321711;0,321711;
54;;;;;;;;;;;;;;;;;;;;;;;;;;;;;;;;;;;;;;;;;;;;;;;;;;;;;;1,000000;0,321711;0,255044;0,255044;0,255044;0,000000;0,321711;0,000000;0,000000;0,248088;0,255044;0,475524;0,321711;0,321711;0,344956;0,321711;0,321711;0,321711;0,000000;0,000000;0,255044;0,255044;0,255044;0,405044;0,280044;0,655044;0,280044;0,299329;0,321711;0,321711;0,321711;0,321711;0,655044;0,000000;0,840132;0,280044;0,280044;0,280044;0,488377;0,280044;0,280044;0,280044;0,280044;0,321711;0,321711;0,255044;0,255044;0,255044;0,255044;0,255044;0,321711;0,655044;0,321711;0,405044;0,291562;0,358061;0,405044;0,284219;0,321711;0,255044;0,255044;0,255044;0,255044;0,255044;0,321711;0,405044;0,405044;0,405044;0,321711;0,321711;0,321711;
55;;;;;;;;;;;;;;;;;;;;;;;;;;;;;;;;;;;;;;;;;;;;;;;;;;;;;;;1,000000;0,266667;0,266667;0,266667;0,416667;0,333333;0,000000;0,000000;0,259711;0,266667;0,487146;0,333333;0,333333;0,356579;0,333333;0,333333;0,333333;0,000000;0,000000;0,690956;0,690956;0,690956;0,416667;0,821473;0,666667;0,291667;0,310952;0,666667;0,585829;0,333333;0,333333;0,666667;0,000000;0,291667;0,291667;0,291667;0,291667;0,500000;0,291667;0,291667;0,291667;0,291667;0,333333;0,333333;0,266667;0,266667;0,266667;0,266667;0,266667;0,333333;0,666667;0,666667;0,416667;0,303185;0,369684;0,416667;0,295841;0,666667;0,266667;0,266667;0,266667;0,266667;0,266667;0,333333;0,416667;0,416667;0,416667;0,333333;0,333333;0,333333;
56;;;;;;;;;;;;;;;;;;;;;;;;;;;;;;;;;;;;;;;;;;;;;;;;;;;;;;;;1,000000;0,800000;0,800000;0,000000;0,533333;0,350000;0,350000;0,559466;0,400000;0,420480;0,266667;0,266667;0,289912;0,266667;0,266667;0,266667;0,000000;0,000000;0,200000;0,200000;0,200000;0,350000;0,225000;0,600000;0,450000;0,488570;0,266667;0,266667;0,266667;0,266667;0,600000;0,000000;0,225000;0,225000;0,225000;0,225000;0,433333;0,225000;0,225000;0,225000;0,225000;0,266667;0,266667;0,200000;0,200000;0,200000;0,200000;0,200000;0,533333;0,600000;0,266667;0,350000;0,652413;0,303017;0,350000;0,558802;0,266667;0,200000;0,200000;0,200000;0,200000;0,200000;0,266667;0,350000;0,350000;0,350000;0,266667;0,266667;0,266667;
57;;;;;;;;;;;;;;;;;;;;;;;;;;;;;;;;;;;;;;;;;;;;;;;;;;;;;;;;;1,000000;0,800000;0,000000;0,533333;0,350000;0,350000;0,559466;0,400000;0,420480;0,266667;0,266667;0,289912;0,266667;0,266667;0,266667;0,000000;0,000000;0,200000;0,200000;0,200000;0,350000;0,225000;0,600000;0,450000;0,488570;0,266667;0,266667;0,266667;0,266667;0,600000;0,000000;0,225000;0,225000;0,225000;0,225000;0,433333;0,225000;0,225000;0,225000;0,225000;0,266667;0,266667;0,200000;0,200000;0,200000;0,200000;0,200000;0,533333;0,600000;0,266667;0,350000;0,652413;0,303017;0,350000;0,558802;0,266667;0,200000;0,200000;0,200000;0,200000;0,200000;0,266667;0,350000;0,350000;0,350000;0,266667;0,266667;0,266667;
58;;;;;;;;;;;;;;;;;;;;;;;;;;;;;;;;;;;;;;;;;;;;;;;;;;;;;;;;;;1,000000;0,000000;0,533333;0,350000;0,350000;0,559466;0,400000;0,420480;0,266667;0,266667;0,289912;0,266667;0,266667;0,266667;0,000000;0,000000;0,200000;0,200000;0,200000;0,350000;0,225000;0,600000;0,450000;0,488570;0,266667;0,266667;0,266667;0,266667;0,600000;0,000000;0,225000;0,225000;0,225000;0,225000;0,433333;0,225000;0,225000;0,225000;0,225000;0,266667;0,266667;0,200000;0,200000;0,200000;0,200000;0,200000;0,533333;0,600000;0,266667;0,350000;0,652413;0,303017;0,350000;0,558802;0,266667;0,200000;0,200000;0,200000;0,200000;0,200000;0,266667;0,350000;0,350000;0,350000;0,266667;0,266667;0,266667;
59;;;;;;;;;;;;;;;;;;;;;;;;;;;;;;;;;;;;;;;;;;;;;;;;;;;;;;;;;;;1,000000;0,000000;0,000000;0,000000;0,000000;0,000000;0,000000;0,000000;0,000000;0,000000;0,000000;0,000000;0,000000;0,000000;0,000000;0,350000;0,350000;0,350000;0,000000;0,750000;0,000000;0,000000;0,000000;0,416667;0,332331;0,000000;0,000000;0,000000;0,000000;0,000000;0,000000;0,000000;0,000000;0,000000;0,000000;0,000000;0,000000;0,000000;0,000000;0,000000;0,000000;0,000000;0,000000;0,000000;0,000000;0,000000;0,000000;0,416667;0,000000;0,000000;0,000000;0,000000;0,000000;0,416667;0,000000;0,000000;0,000000;0,000000;0,000000;0,000000;0,000000;0,000000;0,000000;0,000000;0,000000;0,000000;
60;;;;;;;;;;;;;;;;;;;;;;;;;;;;;;;;;;;;;;;;;;;;;;;;;;;;;;;;;;;;1,000000;0,416667;0,416667;0,464214;0,266667;0,487146;0,333333;0,333333;0,356579;0,333333;0,333333;0,333333;0,000000;0,000000;0,266667;0,266667;0,266667;0,416667;0,291667;0,666667;0,291667;0,310952;0,333333;0,333333;0,333333;0,333333;0,666667;0,000000;0,291667;0,291667;0,291667;0,291667;0,500000;0,291667;0,291667;0,291667;0,291667;0,333333;0,333333;0,266667;0,266667;0,266667;0,266667;0,266667;0,666667;0,666667;0,333333;0,416667;0,606370;0,369684;0,416667;0,519522;0,333333;0,266667;0,266667;0,266667;0,266667;0,266667;0,333333;0,416667;0,416667;0,416667;0,333333;0,333333;0,333333;
61;;;;;;;;;;;;;;;;;;;;;;;;;;;;;;;;;;;;;;;;;;;;;;;;;;;;;;;;;;;;;1,000000;0,500000;0,286859;0,000000;0,000000;0,000000;0,000000;0,000000;0,000000;0,000000;0,000000;0,000000;0,000000;0,000000;0,000000;0,000000;0,000000;0,000000;0,000000;0,000000;0,000000;0,000000;0,000000;0,000000;0,000000;0,000000;0,000000;0,000000;0,000000;0,000000;0,000000;0,000000;0,000000;0,000000;0,000000;0,000000;0,000000;0,000000;0,000000;0,000000;0,000000;0,000000;0,000000;0,416667;0,000000;0,000000;0,000000;0,386518;0,000000;0,000000;0,309339;0,000000;0,000000;0,000000;0,000000;0,000000;0,000000;0,000000;0,000000;0,000000;0,000000;0,000000;0,000000;0,000000;
62;;;;;;;;;;;;;;;;;;;;;;;;;;;;;;;;;;;;;;;;;;;;;;;;;;;;;;;;;;;;;;1,000000;0,286859;0,000000;0,000000;0,000000;0,000000;0,000000;0,000000;0,000000;0,000000;0,000000;0,000000;0,000000;0,000000;0,000000;0,000000;0,000000;0,000000;0,000000;0,000000;0,000000;0,000000;0,000000;0,000000;0,000000;0,000000;0,000000;0,000000;0,000000;0,000000;0,000000;0,000000;0,000000;0,000000;0,000000;0,000000;0,000000;0,000000;0,000000;0,000000;0,000000;0,000000;0,416667;0,000000;0,000000;0,000000;0,386518;0,000000;0,000000;0,309339;0,000000;0,000000;0,000000;0,000000;0,000000;0,000000;0,000000;0,000000;0,000000;0,000000;0,000000;0,000000;0,000000;
63;;;;;;;;;;;;;;;;;;;;;;;;;;;;;;;;;;;;;;;;;;;;;;;;;;;;;;;;;;;;;;;1,000000;0,846158;0,413524;0,259711;0,259711;0,282956;0,259711;0,259711;0,259711;0,000000;0,000000;0,193044;0,193044;0,193044;0,343044;0,218044;0,593044;0,691376;0,672821;0,259711;0,259711;0,259711;0,259711;0,593044;0,000000;0,218044;0,218044;0,218044;0,218044;0,426377;0,218044;0,218044;0,218044;0,218044;0,259711;0,259711;0,193044;0,193044;0,193044;0,193044;0,193044;0,464214;0,593044;0,259711;0,343044;0,761526;0,629338;0,343044;0,666350;0,259711;0,193044;0,193044;0,193044;0,193044;0,193044;0,259711;0,343044;0,343044;0,343044;0,259711;0,259711;0,259711;
64;;;;;;;;;;;;;;;;;;;;;;;;;;;;;;;;;;;;;;;;;;;;;;;;;;;;;;;;;;;;;;;;1,000000;0,420480;0,266667;0,266667;0,289912;0,266667;0,266667;0,266667;0,000000;0,000000;0,200000;0,200000;0,200000;0,350000;0,225000;0,600000;0,675000;0,656445;0,266667;0,266667;0,266667;0,266667;0,600000;0,000000;0,225000;0,225000;0,225000;0,225000;0,433333;0,225000;0,225000;0,225000;0,225000;0,266667;0,266667;0,200000;0,200000;0,200000;0,200000;0,200000;0,266667;0,600000;0,266667;0,350000;0,572850;0,606035;0,350000;0,558124;0,266667;0,200000;0,200000;0,200000;0,200000;0,200000;0,266667;0,350000;0,350000;0,350000;0,266667;0,266667;0,266667;
65;;;;;;;;;;;;;;;;;;;;;;;;;;;;;;;;;;;;;;;;;;;;;;;;;;;;;;;;;;;;;;;;;1,000000;0,708720;0,708720;0,510392;0,487146;0,487146;0,487146;0,000000;0,000000;0,420480;0,420480;0,420480;0,570480;0,445480;0,820480;0,445480;0,464765;0,487146;0,487146;0,487146;0,487146;0,820480;0,000000;0,445480;0,445480;0,445480;0,445480;0,653813;0,445480;0,445480;0,445480;0,445480;0,487146;0,487146;0,420480;0,420480;0,420480;0,420480;0,420480;0,487146;0,820480;0,487146;0,570480;0,456998;0,523497;0,570480;0,449654;0,487146;0,420480;0,420480;0,420480;0,420480;0,420480;0,487146;0,570480;0,570480;0,570480;0,487146;0,487146;0,487146;
66;;;;;;;;;;;;;;;;;;;;;;;;;;;;;;;;;;;;;;;;;;;;;;;;;;;;;;;;;;;;;;;;;;1,000000;0,666667;0,356579;0,333333;0,333333;0,333333;0,000000;0,000000;0,266667;0,266667;0,266667;0,416667;0,291667;0,666667;0,291667;0,310952;0,333333;0,333333;0,333333;0,333333;0,666667;0,000000;0,291667;0,291667;0,291667;0,291667;0,500000;0,291667;0,291667;0,291667;0,291667;0,333333;0,333333;0,266667;0,266667;0,266667;0,266667;0,266667;0,333333;0,666667;0,333333;0,416667;0,303185;0,369684;0,833333;0,295841;0,333333;0,266667;0,266667;0,266667;0,266667;0,266667;0,333333;0,416667;0,416667;0,416667;0,333333;0,333333;0,333333;
67;;;;;;;;;;;;;;;;;;;;;;;;;;;;;;;;;;;;;;;;;;;;;;;;;;;;;;;;;;;;;;;;;;;1,000000;0,356579;0,333333;0,333333;0,333333;0,000000;0,000000;0,266667;0,266667;0,266667;0,416667;0,291667;0,666667;0,291667;0,310952;0,333333;0,333333;0,333333;0,333333;0,666667;0,000000;0,291667;0,291667;0,291667;0,291667;0,500000;0,291667;0,291667;0,291667;0,291667;0,333333;0,333333;0,266667;0,266667;0,266667;0,266667;0,266667;0,333333;0,666667;0,333333;0,416667;0,303185;0,369684;0,833333;0,295841;0,333333;0,266667;0,266667;0,266667;0,266667;0,266667;0,333333;0,416667;0,416667;0,416667;0,333333;0,333333;0,333333;
68;;;;;;;;;;;;;;;;;;;;;;;;;;;;;;;;;;;;;;;;;;;;;;;;;;;;;;;;;;;;;;;;;;;;1,000000;0,713157;0,356579;0,356579;0,000000;0,000000;0,289912;0,289912;0,289912;0,439912;0,314912;0,689912;0,314912;0,334197;0,356579;0,356579;0,356579;0,356579;0,689912;0,000000;0,314912;0,314912;0,314912;0,314912;0,523245;0,314912;0,314912;0,314912;0,314912;0,356579;0,356579;0,289912;0,289912;0,289912;0,289912;0,289912;0,356579;0,689912;0,356579;0,439912;0,326430;0,392929;0,439912;0,319086;0,356579;0,289912;0,289912;0,289912;0,289912;0,289912;0,356579;0,439912;0,439912;0,439912;0,356579;0,356579;0,356579;
69;;;;;;;;;;;;;;;;;;;;;;;;;;;;;;;;;;;;;;;;;;;;;;;;;;;;;;;;;;;;;;;;;;;;;1,000000;0,333333;0,333333;0,000000;0,000000;0,266667;0,266667;0,266667;0,416667;0,291667;0,666667;0,291667;0,310952;0,333333;0,333333;0,333333;0,333333;0,666667;0,000000;0,291667;0,291667;0,291667;0,291667;0,500000;0,291667;0,291667;0,291667;0,291667;0,333333;0,333333;0,266667;0,266667;0,266667;0,266667;0,266667;0,333333;0,666667;0,333333;0,416667;0,303185;0,369684;0,416667;0,295841;0,333333;0,266667;0,266667;0,266667;0,266667;0,266667;0,333333;0,416667;0,416667;0,416667;0,333333;0,333333;0,333333;
70;;;;;;;;;;;;;;;;;;;;;;;;;;;;;;;;;;;;;;;;;;;;;;;;;;;;;;;;;;;;;;;;;;;;;;1,000000;0,666667;0,000000;0,000000;0,266667;0,266667;0,266667;0,833333;0,291667;0,666667;0,291667;0,310952;0,333333;0,333333;0,333333;0,333333;0,666667;0,000000;0,291667;0,583333;0,583333;0,583333;0,833333;0,291667;0,291667;0,291667;0,291667;0,333333;0,333333;0,266667;0,266667;0,266667;0,266667;0,266667;0,333333;0,666667;0,333333;0,416667;0,303185;0,369684;0,416667;0,295841;0,333333;0,266667;0,266667;0,266667;0,266667;0,266667;0,333333;0,416667;0,416667;0,416667;0,333333;0,333333;0,333333;
71;;;;;;;;;;;;;;;;;;;;;;;;;;;;;;;;;;;;;;;;;;;;;;;;;;;;;;;;;;;;;;;;;;;;;;;1,000000;0,000000;0,000000;0,266667;0,266667;0,266667;0,833333;0,291667;0,666667;0,291667;0,310952;0,333333;0,333333;0,333333;0,333333;0,666667;0,000000;0,291667;0,583333;0,583333;0,583333;0,833333;0,291667;0,291667;0,291667;0,291667;0,333333;0,333333;0,266667;0,266667;0,266667;0,266667;0,266667;0,333333;0,666667;0,333333;0,416667;0,303185;0,369684;0,416667;0,295841;0,333333;0,266667;0,266667;0,266667;0,266667;0,266667;0,333333;0,416667;0,416667;0,416667;0,333333;0,333333;0,333333;
72;;;;;;;;;;;;;;;;;;;;;;;;;;;;;;;;;;;;;;;;;;;;;;;;;;;;;;;;;;;;;;;;;;;;;;;;1,000000;0,630242;0,000000;0,000000;0,000000;0,000000;0,000000;0,000000;0,000000;0,000000;0,000000;0,000000;0,000000;0,000000;0,000000;0,666667;0,000000;0,000000;0,000000;0,000000;0,000000;0,000000;0,000000;0,000000;0,000000;0,000000;0,000000;0,000000;0,000000;0,000000;0,000000;0,000000;0,000000;0,000000;0,000000;0,000000;0,000000;0,000000;0,000000;0,000000;0,000000;0,000000;0,000000;0,000000;0,000000;0,000000;0,000000;0,000000;0,000000;0,000000;0,000000;0,000000;0,000000;
73;;;;;;;;;;;;;;;;;;;;;;;;;;;;;;;;;;;;;;;;;;;;;;;;;;;;;;;;;;;;;;;;;;;;;;;;;1,000000;0,000000;0,000000;0,000000;0,000000;0,000000;0,000000;0,000000;0,000000;0,000000;0,000000;0,000000;0,000000;0,000000;0,000000;0,000000;0,000000;0,000000;0,000000;0,000000;0,000000;0,000000;0,000000;0,000000;0,000000;0,000000;0,000000;0,000000;0,000000;0,000000;0,000000;0,000000;0,000000;0,000000;0,000000;0,000000;0,000000;0,000000;0,000000;0,000000;0,000000;0,000000;0,000000;0,000000;0,000000;0,000000;0,000000;0,000000;0,000000;0,000000;0,000000;0,000000;
74;;;;;;;;;;;;;;;;;;;;;;;;;;;;;;;;;;;;;;;;;;;;;;;;;;;;;;;;;;;;;;;;;;;;;;;;;;1,000000;0,800000;0,800000;0,350000;0,450000;0,600000;0,225000;0,244285;0,533333;0,452495;0,266667;0,266667;0,600000;0,000000;0,225000;0,225000;0,225000;0,225000;0,433333;0,225000;0,225000;0,225000;0,225000;0,266667;0,266667;0,200000;0,200000;0,200000;0,200000;0,200000;0,266667;0,600000;0,533333;0,350000;0,236518;0,303017;0,350000;0,229175;0,533333;0,200000;0,200000;0,200000;0,200000;0,200000;0,266667;0,350000;0,350000;0,350000;0,266667;0,266667;0,266667;
75;;;;;;;;;;;;;;;;;;;;;;;;;;;;;;;;;;;;;;;;;;;;;;;;;;;;;;;;;;;;;;;;;;;;;;;;;;;1,000000;0,800000;0,350000;0,450000;0,600000;0,225000;0,244285;0,533333;0,452495;0,266667;0,266667;0,600000;0,000000;0,225000;0,225000;0,225000;0,225000;0,433333;0,225000;0,225000;0,225000;0,225000;0,266667;0,266667;0,200000;0,200000;0,200000;0,200000;0,200000;0,266667;0,600000;0,533333;0,350000;0,236518;0,303017;0,350000;0,229175;0,533333;0,200000;0,200000;0,200000;0,200000;0,200000;0,266667;0,350000;0,350000;0,350000;0,266667;0,266667;0,266667;
76;;;;;;;;;;;;;;;;;;;;;;;;;;;;;;;;;;;;;;;;;;;;;;;;;;;;;;;;;;;;;;;;;;;;;;;;;;;;1,000000;0,350000;0,450000;0,600000;0,225000;0,244285;0,533333;0,452495;0,266667;0,266667;0,600000;0,000000;0,225000;0,225000;0,225000;0,225000;0,433333;0,225000;0,225000;0,225000;0,225000;0,266667;0,266667;0,200000;0,200000;0,200000;0,200000;0,200000;0,266667;0,600000;0,533333;0,350000;0,236518;0,303017;0,350000;0,229175;0,533333;0,200000;0,200000;0,200000;0,200000;0,200000;0,266667;0,350000;0,350000;0,350000;0,266667;0,266667;0,266667;
77;;;;;;;;;;;;;;;;;;;;;;;;;;;;;;;;;;;;;;;;;;;;;;;;;;;;;;;;;;;;;;;;;;;;;;;;;;;;;1,000000;0,375000;0,750000;0,375000;0,394285;0,416667;0,416667;0,416667;0,416667;0,750000;0,000000;0,375000;0,750000;0,750000;0,750000;1,000000;0,375000;0,375000;0,375000;0,375000;0,416667;0,416667;0,350000;0,350000;0,350000;0,350000;0,350000;0,416667;0,750000;0,416667;0,500000;0,386518;0,453017;0,500000;0,379175;0,416667;0,350000;0,350000;0,350000;0,350000;0,350000;0,416667;0,500000;0,500000;0,500000;0,416667;0,416667;0,416667;
78;;;;;;;;;;;;;;;;;;;;;;;;;;;;;;;;;;;;;;;;;;;;;;;;;;;;;;;;;;;;;;;;;;;;;;;;;;;;;;1,000000;0,625000;0,250000;0,269285;0,583333;0,502495;0,291667;0,291667;0,625000;0,000000;0,250000;0,250000;0,250000;0,250000;0,458333;0,250000;0,250000;0,250000;0,250000;0,291667;0,291667;0,225000;0,225000;0,225000;0,225000;0,225000;0,291667;0,625000;0,583333;0,375000;0,261518;0,328017;0,375000;0,254175;0,583333;0,225000;0,225000;0,225000;0,225000;0,225000;0,291667;0,375000;0,375000;0,375000;0,291667;0,291667;0,291667;
79;;;;;;;;;;;;;;;;;;;;;;;;;;;;;;;;;;;;;;;;;;;;;;;;;;;;;;;;;;;;;;;;;;;;;;;;;;;;;;;1,000000;0,625000;0,644285;0,666667;0,666667;0,666667;0,666667;1,000000;0,000000;0,625000;0,625000;0,625000;0,625000;0,833333;0,625000;0,625000;0,625000;0,625000;0,666667;0,666667;0,600000;0,600000;0,600000;0,600000;0,600000;0,666667;1,000000;0,666667;0,750000;0,636518;0,703017;0,750000;0,629175;0,666667;0,600000;0,600000;0,600000;0,600000;0,600000;0,666667;0,750000;0,750000;0,750000;0,666667;0,666667;0,666667;
80;;;;;;;;;;;;;;;;;;;;;;;;;;;;;;;;;;;;;;;;;;;;;;;;;;;;;;;;;;;;;;;;;;;;;;;;;;;;;;;;1,000000;0,731445;0,291667;0,291667;0,291667;0,291667;0,625000;0,000000;0,250000;0,250000;0,250000;0,250000;0,458333;0,250000;0,250000;0,250000;0,250000;0,291667;0,291667;0,225000;0,225000;0,225000;0,225000;0,225000;0,291667;0,625000;0,291667;0,375000;0,647850;0,328017;0,375000;0,836542;0,291667;0,225000;0,225000;0,225000;0,225000;0,225000;0,291667;0,375000;0,375000;0,375000;0,291667;0,291667;0,291667;
81;;;;;;;;;;;;;;;;;;;;;;;;;;;;;;;;;;;;;;;;;;;;;;;;;;;;;;;;;;;;;;;;;;;;;;;;;;;;;;;;;1,000000;0,310952;0,310952;0,310952;0,310952;0,644285;0,000000;0,269285;0,269285;0,269285;0,269285;0,477618;0,269285;0,269285;0,269285;0,269285;0,310952;0,310952;0,244285;0,244285;0,244285;0,244285;0,244285;0,310952;0,644285;0,310952;0,394285;0,734878;0,347303;0,394285;0,614569;0,310952;0,244285;0,244285;0,244285;0,244285;0,244285;0,310952;0,394285;0,394285;0,394285;0,310952;0,310952;0,310952;
82;;;;;;;;;;;;;;;;;;;;;;;;;;;;;;;;;;;;;;;;;;;;;;;;;;;;;;;;;;;;;;;;;;;;;;;;;;;;;;;;;;1,000000;0,585829;0,666667;0,666667;0,666667;0,000000;0,291667;0,291667;0,291667;0,291667;0,500000;0,291667;0,291667;0,291667;0,291667;0,333333;0,333333;0,266667;0,266667;0,266667;0,266667;0,266667;0,333333;0,666667;0,666667;0,416667;0,303185;0,369684;0,416667;0,295841;1,000000;0,266667;0,266667;0,266667;0,266667;0,266667;0,666667;0,416667;0,416667;0,416667;0,333333;0,333333;0,333333;
83;;;;;;;;;;;;;;;;;;;;;;;;;;;;;;;;;;;;;;;;;;;;;;;;;;;;;;;;;;;;;;;;;;;;;;;;;;;;;;;;;;;1,000000;0,588498;0,588454;0,666667;0,000000;0,291667;0,291667;0,291667;0,291667;0,500000;0,291667;0,291667;0,291667;0,291667;0,333333;0,333333;0,266667;0,266667;0,266667;0,266667;0,266667;0,333333;0,666667;0,585829;0,416667;0,303185;0,369684;0,416667;0,295841;0,585829;0,266667;0,266667;0,266667;0,266667;0,266667;0,588454;0,416667;0,416667;0,416667;0,333333;0,333333;0,333333;
84;;;;;;;;;;;;;;;;;;;;;;;;;;;;;;;;;;;;;;;;;;;;;;;;;;;;;;;;;;;;;;;;;;;;;;;;;;;;;;;;;;;;1,000000;0,666667;0,666667;0,000000;0,291667;0,291667;0,291667;0,291667;0,500000;0,291667;0,291667;0,291667;0,291667;0,333333;0,333333;0,266667;0,266667;0,266667;0,266667;0,266667;0,333333;0,666667;0,333333;0,416667;0,303185;0,369684;0,416667;0,295841;0,666667;0,266667;0,266667;0,266667;0,266667;0,266667;0,666667;0,416667;0,416667;0,416667;0,333333;0,333333;0,333333;
85;;;;;;;;;;;;;;;;;;;;;;;;;;;;;;;;;;;;;;;;;;;;;;;;;;;;;;;;;;;;;;;;;;;;;;;;;;;;;;;;;;;;;1,000000;0,666667;0,000000;0,291667;0,291667;0,291667;0,291667;0,500000;0,291667;0,291667;0,291667;0,291667;0,333333;0,333333;0,266667;0,266667;0,266667;0,266667;0,266667;0,333333;0,666667;0,333333;0,416667;0,303185;0,369684;0,416667;0,295841;0,666667;0,266667;0,266667;0,266667;0,266667;0,266667;1,000000;0,416667;0,416667;0,416667;0,333333;0,333333;0,333333;
86;;;;;;;;;;;;;;;;;;;;;;;;;;;;;;;;;;;;;;;;;;;;;;;;;;;;;;;;;;;;;;;;;;;;;;;;;;;;;;;;;;;;;;1,000000;0,000000;0,625000;0,625000;0,625000;0,625000;0,833333;0,625000;0,625000;0,625000;0,625000;0,666667;0,666667;0,600000;0,600000;0,600000;0,600000;0,600000;0,666667;1,000000;0,666667;0,750000;0,636518;0,703017;0,750000;0,629175;0,666667;0,600000;0,600000;0,600000;0,600000;0,600000;0,666667;0,750000;0,750000;0,750000;0,666667;0,666667;0,666667;
87;;;;;;;;;;;;;;;;;;;;;;;;;;;;;;;;;;;;;;;;;;;;;;;;;;;;;;;;;;;;;;;;;;;;;;;;;;;;;;;;;;;;;;;1,000000;0,000000;0,000000;0,000000;0,000000;0,000000;0,000000;0,000000;0,000000;0,000000;0,000000;0,000000;0,000000;0,000000;0,000000;0,000000;0,000000;0,000000;0,000000;0,000000;0,000000;0,000000;0,000000;0,000000;0,000000;0,000000;0,000000;0,000000;0,000000;0,000000;0,000000;0,000000;0,000000;0,000000;0,000000;0,000000;0,000000;0,000000;
88;;;;;;;;;;;;;;;;;;;;;;;;;;;;;;;;;;;;;;;;;;;;;;;;;;;;;;;;;;;;;;;;;;;;;;;;;;;;;;;;;;;;;;;;1,000000;0,250000;0,250000;0,250000;0,458333;0,250000;0,250000;0,250000;0,250000;0,291667;0,291667;0,225000;0,225000;0,225000;0,225000;0,225000;0,291667;0,625000;0,291667;0,375000;0,261518;0,328017;0,375000;0,254175;0,291667;0,225000;0,225000;0,225000;0,225000;0,225000;0,291667;0,375000;0,375000;0,375000;0,291667;0,291667;0,291667;
89;;;;;;;;;;;;;;;;;;;;;;;;;;;;;;;;;;;;;;;;;;;;;;;;;;;;;;;;;;;;;;;;;;;;;;;;;;;;;;;;;;;;;;;;;1,000000;0,750000;0,750000;0,750000;0,250000;0,250000;0,250000;0,250000;0,291667;0,291667;0,225000;0,225000;0,225000;0,225000;0,225000;0,291667;0,625000;0,291667;0,375000;0,261518;0,328017;0,375000;0,254175;0,291667;0,225000;0,225000;0,225000;0,225000;0,225000;0,291667;0,375000;0,375000;0,375000;0,291667;0,291667;0,291667;
90;;;;;;;;;;;;;;;;;;;;;;;;;;;;;;;;;;;;;;;;;;;;;;;;;;;;;;;;;;;;;;;;;;;;;;;;;;;;;;;;;;;;;;;;;;1,000000;0,750000;0,750000;0,250000;0,250000;0,250000;0,250000;0,291667;0,291667;0,225000;0,225000;0,225000;0,225000;0,225000;0,291667;0,625000;0,291667;0,375000;0,261518;0,328017;0,375000;0,254175;0,291667;0,225000;0,225000;0,225000;0,225000;0,225000;0,291667;0,375000;0,375000;0,375000;0,291667;0,291667;0,291667;
91;;;;;;;;;;;;;;;;;;;;;;;;;;;;;;;;;;;;;;;;;;;;;;;;;;;;;;;;;;;;;;;;;;;;;;;;;;;;;;;;;;;;;;;;;;;1,000000;0,750000;0,250000;0,250000;0,250000;0,250000;0,291667;0,291667;0,225000;0,225000;0,225000;0,225000;0,225000;0,291667;0,625000;0,291667;0,375000;0,261518;0,328017;0,375000;0,254175;0,291667;0,225000;0,225000;0,225000;0,225000;0,225000;0,291667;0,375000;0,375000;0,375000;0,291667;0,291667;0,291667;
92;;;;;;;;;;;;;;;;;;;;;;;;;;;;;;;;;;;;;;;;;;;;;;;;;;;;;;;;;;;;;;;;;;;;;;;;;;;;;;;;;;;;;;;;;;;;1,000000;0,458333;0,458333;0,458333;0,458333;0,500000;0,500000;0,433333;0,433333;0,433333;0,433333;0,433333;0,500000;0,833333;0,500000;0,583333;0,469852;0,536351;0,583333;0,462508;0,500000;0,433333;0,433333;0,433333;0,433333;0,433333;0,500000;0,583333;0,583333;0,583333;0,500000;0,500000;0,500000;
93;;;;;;;;;;;;;;;;;;;;;;;;;;;;;;;;;;;;;;;;;;;;;;;;;;;;;;;;;;;;;;;;;;;;;;;;;;;;;;;;;;;;;;;;;;;;;1,000000;0,750000;0,750000;0,750000;0,291667;0,291667;0,225000;0,225000;0,225000;0,225000;0,225000;0,291667;0,625000;0,291667;0,375000;0,261518;0,328017;0,375000;0,254175;0,291667;0,225000;0,225000;0,225000;0,225000;0,225000;0,291667;0,375000;0,375000;0,375000;0,291667;0,291667;0,291667;
94;;;;;;;;;;;;;;;;;;;;;;;;;;;;;;;;;;;;;;;;;;;;;;;;;;;;;;;;;;;;;;;;;;;;;;;;;;;;;;;;;;;;;;;;;;;;;;1,000000;0,750000;0,750000;0,291667;0,291667;0,225000;0,225000;0,225000;0,225000;0,225000;0,291667;0,625000;0,291667;0,375000;0,261518;0,328017;0,375000;0,254175;0,291667;0,225000;0,225000;0,225000;0,225000;0,225000;0,291667;0,375000;0,375000;0,375000;0,291667;0,291667;0,291667;
95;;;;;;;;;;;;;;;;;;;;;;;;;;;;;;;;;;;;;;;;;;;;;;;;;;;;;;;;;;;;;;;;;;;;;;;;;;;;;;;;;;;;;;;;;;;;;;;1,000000;0,750000;0,291667;0,291667;0,225000;0,225000;0,225000;0,225000;0,225000;0,291667;0,625000;0,291667;0,375000;0,261518;0,328017;0,375000;0,254175;0,291667;0,225000;0,225000;0,225000;0,225000;0,225000;0,291667;0,375000;0,375000;0,375000;0,291667;0,291667;0,291667;
96;;;;;;;;;;;;;;;;;;;;;;;;;;;;;;;;;;;;;;;;;;;;;;;;;;;;;;;;;;;;;;;;;;;;;;;;;;;;;;;;;;;;;;;;;;;;;;;;1,000000;0,291667;0,291667;0,225000;0,225000;0,225000;0,225000;0,225000;0,291667;0,625000;0,291667;0,375000;0,261518;0,328017;0,375000;0,254175;0,291667;0,225000;0,225000;0,225000;0,225000;0,225000;0,291667;0,375000;0,375000;0,375000;0,291667;0,291667;0,291667;
97;;;;;;;;;;;;;;;;;;;;;;;;;;;;;;;;;;;;;;;;;;;;;;;;;;;;;;;;;;;;;;;;;;;;;;;;;;;;;;;;;;;;;;;;;;;;;;;;;1,000000;0,666667;0,266667;0,266667;0,266667;0,266667;0,266667;0,333333;0,666667;0,333333;0,416667;0,303185;0,369684;0,416667;0,295841;0,333333;0,266667;0,266667;0,266667;0,266667;0,266667;0,333333;0,416667;0,416667;0,416667;0,333333;0,333333;0,333333;
98;;;;;;;;;;;;;;;;;;;;;;;;;;;;;;;;;;;;;;;;;;;;;;;;;;;;;;;;;;;;;;;;;;;;;;;;;;;;;;;;;;;;;;;;;;;;;;;;;;1,000000;0,266667;0,266667;0,266667;0,266667;0,266667;0,333333;0,666667;0,333333;0,416667;0,303185;0,369684;0,416667;0,295841;0,333333;0,266667;0,266667;0,266667;0,266667;0,266667;0,333333;0,416667;0,416667;0,416667;0,333333;0,333333;0,333333;
99;;;;;;;;;;;;;;;;;;;;;;;;;;;;;;;;;;;;;;;;;;;;;;;;;;;;;;;;;;;;;;;;;;;;;;;;;;;;;;;;;;;;;;;;;;;;;;;;;;;1,000000;0,800000;0,800000;0,800000;0,800000;0,266667;0,600000;0,266667;0,350000;0,236518;0,303017;0,350000;0,229175;0,266667;0,200000;0,200000;0,200000;0,200000;0,200000;0,266667;0,350000;0,350000;0,350000;0,266667;0,266667;0,266667;
100;;;;;;;;;;;;;;;;;;;;;;;;;;;;;;;;;;;;;;;;;;;;;;;;;;;;;;;;;;;;;;;;;;;;;;;;;;;;;;;;;;;;;;;;;;;;;;;;;;;;1,000000;0,800000;0,800000;0,800000;0,266667;0,600000;0,266667;0,350000;0,236518;0,303017;0,350000;0,229175;0,266667;0,200000;0,200000;0,200000;0,200000;0,200000;0,266667;0,350000;0,350000;0,350000;0,266667;0,266667;0,266667;
101;;;;;;;;;;;;;;;;;;;;;;;;;;;;;;;;;;;;;;;;;;;;;;;;;;;;;;;;;;;;;;;;;;;;;;;;;;;;;;;;;;;;;;;;;;;;;;;;;;;;;1,000000;0,800000;0,800000;0,266667;0,600000;0,266667;0,350000;0,236518;0,303017;0,350000;0,229175;0,266667;0,200000;0,200000;0,200000;0,200000;0,200000;0,266667;0,350000;0,350000;0,350000;0,266667;0,266667;0,266667;
102;;;;;;;;;;;;;;;;;;;;;;;;;;;;;;;;;;;;;;;;;;;;;;;;;;;;;;;;;;;;;;;;;;;;;;;;;;;;;;;;;;;;;;;;;;;;;;;;;;;;;;1,000000;0,800000;0,266667;0,600000;0,266667;0,350000;0,236518;0,303017;0,350000;0,229175;0,266667;0,200000;0,200000;0,200000;0,200000;0,200000;0,266667;0,350000;0,350000;0,350000;0,266667;0,266667;0,266667;
103;;;;;;;;;;;;;;;;;;;;;;;;;;;;;;;;;;;;;;;;;;;;;;;;;;;;;;;;;;;;;;;;;;;;;;;;;;;;;;;;;;;;;;;;;;;;;;;;;;;;;;;1,000000;0,266667;0,600000;0,266667;0,350000;0,236518;0,303017;0,350000;0,229175;0,266667;0,200000;0,200000;0,200000;0,200000;0,200000;0,266667;0,350000;0,350000;0,350000;0,266667;0,266667;0,266667;
104;;;;;;;;;;;;;;;;;;;;;;;;;;;;;;;;;;;;;;;;;;;;;;;;;;;;;;;;;;;;;;;;;;;;;;;;;;;;;;;;;;;;;;;;;;;;;;;;;;;;;;;;1,000000;0,666667;0,333333;0,416667;0,606370;0,369684;0,416667;0,519522;0,333333;0,266667;0,266667;0,266667;0,266667;0,266667;0,333333;0,416667;0,416667;0,416667;0,333333;0,333333;0,333333;
105;;;;;;;;;;;;;;;;;;;;;;;;;;;;;;;;;;;;;;;;;;;;;;;;;;;;;;;;;;;;;;;;;;;;;;;;;;;;;;;;;;;;;;;;;;;;;;;;;;;;;;;;;1,000000;0,666667;0,750000;0,636518;0,703017;0,750000;0,629175;0,666667;0,600000;0,600000;0,600000;0,600000;0,600000;0,666667;0,750000;0,750000;0,750000;0,666667;0,666667;0,666667;
106;;;;;;;;;;;;;;;;;;;;;;;;;;;;;;;;;;;;;;;;;;;;;;;;;;;;;;;;;;;;;;;;;;;;;;;;;;;;;;;;;;;;;;;;;;;;;;;;;;;;;;;;;;1,000000;0,416667;0,303185;0,369684;0,416667;0,295841;0,666667;0,266667;0,266667;0,266667;0,266667;0,266667;0,333333;0,416667;0,416667;0,416667;0,333333;0,333333;0,333333;
107;;;;;;;;;;;;;;;;;;;;;;;;;;;;;;;;;;;;;;;;;;;;;;;;;;;;;;;;;;;;;;;;;;;;;;;;;;;;;;;;;;;;;;;;;;;;;;;;;;;;;;;;;;;1,000000;0,386518;0,453017;0,500000;0,379175;0,416667;0,350000;0,350000;0,350000;0,350000;0,350000;0,416667;0,500000;0,500000;0,500000;0,416667;0,416667;0,416667;
108;;;;;;;;;;;;;;;;;;;;;;;;;;;;;;;;;;;;;;;;;;;;;;;;;;;;;;;;;;;;;;;;;;;;;;;;;;;;;;;;;;;;;;;;;;;;;;;;;;;;;;;;;;;;1,000000;0,339536;0,386518;0,842940;0,303185;0,236518;0,236518;0,236518;0,236518;0,236518;0,303185;0,386518;0,386518;0,386518;0,303185;0,303185;0,303185;
109;;;;;;;;;;;;;;;;;;;;;;;;;;;;;;;;;;;;;;;;;;;;;;;;;;;;;;;;;;;;;;;;;;;;;;;;;;;;;;;;;;;;;;;;;;;;;;;;;;;;;;;;;;;;;1,000000;0,453017;0,332192;0,369684;0,303017;0,303017;0,303017;0,303017;0,303017;0,369684;0,453017;0,453017;0,453017;0,369684;0,369684;0,369684;
110;;;;;;;;;;;;;;;;;;;;;;;;;;;;;;;;;;;;;;;;;;;;;;;;;;;;;;;;;;;;;;;;;;;;;;;;;;;;;;;;;;;;;;;;;;;;;;;;;;;;;;;;;;;;;;1,000000;0,379175;0,416667;0,350000;0,350000;0,350000;0,350000;0,350000;0,416667;0,500000;0,500000;0,500000;0,416667;0,416667;0,416667;
111;;;;;;;;;;;;;;;;;;;;;;;;;;;;;;;;;;;;;;;;;;;;;;;;;;;;;;;;;;;;;;;;;;;;;;;;;;;;;;;;;;;;;;;;;;;;;;;;;;;;;;;;;;;;;;;1,000000;0,295841;0,229175;0,229175;0,229175;0,229175;0,229175;0,295841;0,379175;0,379175;0,379175;0,295841;0,295841;0,295841;
112;;;;;;;;;;;;;;;;;;;;;;;;;;;;;;;;;;;;;;;;;;;;;;;;;;;;;;;;;;;;;;;;;;;;;;;;;;;;;;;;;;;;;;;;;;;;;;;;;;;;;;;;;;;;;;;;1,000000;0,266667;0,266667;0,266667;0,266667;0,266667;0,666667;0,416667;0,416667;0,416667;0,333333;0,333333;0,333333;
113;;;;;;;;;;;;;;;;;;;;;;;;;;;;;;;;;;;;;;;;;;;;;;;;;;;;;;;;;;;;;;;;;;;;;;;;;;;;;;;;;;;;;;;;;;;;;;;;;;;;;;;;;;;;;;;;;1,000000;0,800000;0,800000;0,800000;0,800000;0,266667;0,350000;0,350000;0,350000;0,266667;0,266667;0,266667;
114;;;;;;;;;;;;;;;;;;;;;;;;;;;;;;;;;;;;;;;;;;;;;;;;;;;;;;;;;;;;;;;;;;;;;;;;;;;;;;;;;;;;;;;;;;;;;;;;;;;;;;;;;;;;;;;;;;1,000000;0,800000;0,800000;0,800000;0,266667;0,350000;0,350000;0,350000;0,266667;0,266667;0,266667;
115;;;;;;;;;;;;;;;;;;;;;;;;;;;;;;;;;;;;;;;;;;;;;;;;;;;;;;;;;;;;;;;;;;;;;;;;;;;;;;;;;;;;;;;;;;;;;;;;;;;;;;;;;;;;;;;;;;;1,000000;0,800000;0,800000;0,266667;0,350000;0,350000;0,350000;0,266667;0,266667;0,266667;
116;;;;;;;;;;;;;;;;;;;;;;;;;;;;;;;;;;;;;;;;;;;;;;;;;;;;;;;;;;;;;;;;;;;;;;;;;;;;;;;;;;;;;;;;;;;;;;;;;;;;;;;;;;;;;;;;;;;;1,000000;0,800000;0,266667;0,350000;0,350000;0,350000;0,266667;0,266667;0,266667;
117;;;;;;;;;;;;;;;;;;;;;;;;;;;;;;;;;;;;;;;;;;;;;;;;;;;;;;;;;;;;;;;;;;;;;;;;;;;;;;;;;;;;;;;;;;;;;;;;;;;;;;;;;;;;;;;;;;;;;1,000000;0,266667;0,350000;0,350000;0,350000;0,266667;0,266667;0,266667;
118;;;;;;;;;;;;;;;;;;;;;;;;;;;;;;;;;;;;;;;;;;;;;;;;;;;;;;;;;;;;;;;;;;;;;;;;;;;;;;;;;;;;;;;;;;;;;;;;;;;;;;;;;;;;;;;;;;;;;;1,000000;0,416667;0,416667;0,416667;0,333333;0,333333;0,333333;
119;;;;;;;;;;;;;;;;;;;;;;;;;;;;;;;;;;;;;;;;;;;;;;;;;;;;;;;;;;;;;;;;;;;;;;;;;;;;;;;;;;;;;;;;;;;;;;;;;;;;;;;;;;;;;;;;;;;;;;;1,000000;0,500000;0,500000;0,416667;0,416667;0,416667;
120;;;;;;;;;;;;;;;;;;;;;;;;;;;;;;;;;;;;;;;;;;;;;;;;;;;;;;;;;;;;;;;;;;;;;;;;;;;;;;;;;;;;;;;;;;;;;;;;;;;;;;;;;;;;;;;;;;;;;;;;1,000000;0,500000;0,416667;0,416667;0,416667;
121;;;;;;;;;;;;;;;;;;;;;;;;;;;;;;;;;;;;;;;;;;;;;;;;;;;;;;;;;;;;;;;;;;;;;;;;;;;;;;;;;;;;;;;;;;;;;;;;;;;;;;;;;;;;;;;;;;;;;;;;;1,000000;0,416667;0,416667;0,416667;
122;;;;;;;;;;;;;;;;;;;;;;;;;;;;;;;;;;;;;;;;;;;;;;;;;;;;;;;;;;;;;;;;;;;;;;;;;;;;;;;;;;;;;;;;;;;;;;;;;;;;;;;;;;;;;;;;;;;;;;;;;;1,000000;0,666667;0,666667;
123;;;;;;;;;;;;;;;;;;;;;;;;;;;;;;;;;;;;;;;;;;;;;;;;;;;;;;;;;;;;;;;;;;;;;;;;;;;;;;;;;;;;;;;;;;;;;;;;;;;;;;;;;;;;;;;;;;;;;;;;;;;1,000000;0,666667;
124;;;;;;;;;;;;;;;;;;;;;;;;;;;;;;;;;;;;;;;;;;;;;;;;;;;;;;;;;;;;;;;;;;;;;;;;;;;;;;;;;;;;;;;;;;;;;;;;;;;;;;;;;;;;;;;;;;;;;;;;;;;;1,000000;
