;1; 2; 3; 4; 5; 6; 7; 8; 9; 10; 11; 12; 13; 14; 15; 16; 17; 18; 19; 20; 21; 22; 23; 24; 25; 26; 27; 28; 29
1;1,000000;0,800000;0,800000;0,800000;0,800000;0,800000;0,000000;0,000000;0,000000;0,000000;0,000000;0,000000;0,238889;0,000000;0,000000;0,000000;0,000000;0,000000;0,000000;0,000000;0,000000;0,000000;0,000000;0,350000;0,000000;0,000000;0,000000;0,000000;0,000000;
2;;1,000000;0,800000;0,800000;0,800000;0,800000;0,000000;0,000000;0,000000;0,000000;0,000000;0,000000;0,238889;0,000000;0,000000;0,000000;0,000000;0,000000;0,000000;0,000000;0,000000;0,000000;0,000000;0,350000;0,000000;0,000000;0,000000;0,000000;0,000000;
3;;;1,000000;0,800000;0,800000;0,800000;0,695238;0,000000;0,000000;0,000000;0,000000;0,702381;0,500000;0,541667;0,541667;0,000000;0,000000;0,000000;0,000000;0,000000;0,000000;0,000000;0,000000;0,541667;0,916667;0,000000;0,000000;0,916667;0,000000;
4;;;;1,000000;0,800000;0,800000;0,000000;0,000000;0,000000;0,000000;0,000000;0,000000;0,238889;0,000000;0,000000;0,000000;0,000000;0,000000;0,000000;0,000000;0,000000;0,000000;0,000000;0,350000;0,000000;0,000000;0,000000;0,000000;0,000000;
5;;;;;1,000000;0,800000;0,000000;0,000000;0,000000;0,000000;0,000000;0,000000;0,238889;0,000000;0,000000;0,000000;0,000000;0,000000;0,000000;0,000000;0,000000;0,000000;0,000000;0,350000;0,000000;0,000000;0,000000;0,000000;0,000000;
6;;;;;;1,000000;0,000000;0,000000;0,000000;0,000000;0,000000;0,000000;0,238889;0,000000;0,000000;0,000000;0,000000;0,000000;0,000000;0,000000;0,000000;0,000000;0,000000;0,350000;0,000000;0,000000;0,000000;0,000000;0,000000;
7;;;;;;;1,000000;0,666667;0,654386;0,654386;0,000000;0,763333;0,500000;0,525000;0,525000;0,655680;0,487027;0,654386;0,654386;0,000000;0,735478;0,735478;0,735478;0,525000;0,983333;0,650848;0,650848;0,983333;0,000000;
8;;;;;;;;1,000000;0,617150;0,617150;0,777778;0,000000;0,405128;0,000000;0,444444;0,337728;0,444444;0,617150;0,617150;0,000000;0,277778;0,277778;0,277778;0,000000;0,000000;0,333333;0,333333;0,000000;0,777778;
9;;;;;;;;;1,000000;0,666667;0,666667;0,000000;0,372222;0,000000;0,416667;0,336080;0,416667;0,666667;0,666667;0,000000;0,291667;0,291667;0,291667;0,000000;0,000000;0,333333;0,333333;0,000000;0,666667;
10;;;;;;;;;;1,000000;0,666667;0,000000;0,372222;0,000000;0,416667;0,336080;0,416667;0,666667;0,666667;0,000000;0,291667;0,291667;0,291667;0,000000;0,000000;0,333333;0,333333;0,000000;0,666667;
11;;;;;;;;;;;1,000000;0,000000;0,983333;0,000000;0,750000;0,836080;0,750000;0,666667;0,666667;0,000000;0,625000;0,625000;0,625000;0,000000;0,000000;0,666667;0,666667;0,000000;1,000000;
12;;;;;;;;;;;;1,000000;0,500000;0,550000;0,550000;0,000000;0,000000;0,000000;0,000000;0,000000;0,000000;0,000000;0,000000;0,550000;0,950000;0,000000;0,000000;0,950000;0,000000;
13;;;;;;;;;;;;;1,000000;0,520833;0,525000;0,441966;0,525000;0,372222;0,372222;0,979167;0,295833;0,295833;0,295833;0,513889;0,000000;0,372222;0,372222;0,000000;0,983333;
14;;;;;;;;;;;;;;1,000000;0,500000;0,000000;0,000000;0,000000;0,000000;0,750000;0,000000;0,000000;0,000000;0,500000;0,750000;0,000000;0,000000;0,750000;0,000000;
15;;;;;;;;;;;;;;;1,000000;0,461080;0,500000;0,416667;0,416667;0,000000;0,375000;0,375000;0,375000;0,500000;0,750000;0,416667;0,416667;0,750000;0,750000;
16;;;;;;;;;;;;;;;;1,000000;0,461080;0,336080;0,336080;0,000000;0,705596;0,705596;0,705596;0,000000;0,000000;0,618485;0,618485;0,000000;0,836080;
17;;;;;;;;;;;;;;;;;1,000000;0,416667;0,416667;0,000000;0,750000;0,750000;0,750000;0,000000;0,000000;0,833333;0,833333;0,000000;0,750000;
18;;;;;;;;;;;;;;;;;;1,000000;0,666667;0,000000;0,291667;0,291667;0,291667;0,000000;0,000000;0,333333;0,333333;0,000000;0,666667;
19;;;;;;;;;;;;;;;;;;;1,000000;0,000000;0,291667;0,291667;0,291667;0,000000;0,000000;0,333333;0,333333;0,000000;0,666667;
20;;;;;;;;;;;;;;;;;;;;1,000000;0,000000;0,000000;0,000000;0,000000;0,000000;0,000000;0,000000;0,000000;0,000000;
21;;;;;;;;;;;;;;;;;;;;;1,000000;0,750000;0,750000;0,000000;0,000000;0,583333;0,583333;0,000000;0,625000;
22;;;;;;;;;;;;;;;;;;;;;;1,000000;0,750000;0,000000;0,000000;0,583333;0,583333;0,000000;0,625000;
23;;;;;;;;;;;;;;;;;;;;;;;1,000000;0,000000;0,000000;0,583333;0,583333;0,000000;0,625000;
24;;;;;;;;;;;;;;;;;;;;;;;;1,000000;0,750000;0,000000;0,000000;0,750000;0,000000;
25;;;;;;;;;;;;;;;;;;;;;;;;;1,000000;0,000000;0,000000;1,000000;0,000000;
26;;;;;;;;;;;;;;;;;;;;;;;;;;1,000000;0,666667;0,000000;0,666667;
27;;;;;;;;;;;;;;;;;;;;;;;;;;;1,000000;0,000000;0,666667;
28;;;;;;;;;;;;;;;;;;;;;;;;;;;;1,000000;0,000000;
29;;;;;;;;;;;;;;;;;;;;;;;;;;;;;1,000000;
