;1; 2; 3; 4; 5; 6; 7; 8; 9; 10; 11; 12; 13; 14; 15; 16; 17; 18; 19; 20; 21; 22; 23; 24; 25; 26; 27; 28; 29; 30; 31; 32; 33; 34; 35; 36; 37; 38; 39; 40; 41; 42; 43; 44; 45; 46; 47; 48; 49; 50; 51; 52; 53; 54; 55; 56; 57; 58; 59; 60; 61; 62; 63; 64; 65; 66; 67; 68; 69; 70; 71; 72; 73; 74; 75; 76; 77; 78; 79; 80; 81; 82; 83; 84; 85; 86; 87; 88; 89; 90; 91; 92; 93; 94; 95; 96; 97; 98; 99; 100; 101; 102; 103; 104; 105; 106; 107; 108; 109; 110; 111; 112; 113; 114; 115; 116; 117; 118; 119; 120; 121; 122; 123; 124; 125; 126; 127; 128; 129; 130; 131; 132; 133; 134; 135; 136; 137
1;1,000000;0,698873;0,743311;0,755305;0,751752;0,732076;0,743029;0,795357;0,649052;0,795357;0,795357;0,397904;0,448700;0,397904;0,537003;0,454805;0,397904;0,750000;0,750000;0,750000;0,750000;0,559619;0,671977;0,791730;0,742901;0,742901;0,794333;0,765867;0,794333;0,794333;0,794333;0,490878;0,492043;0,760179;0,760179;0,595763;0,662801;0,662801;0,742981;0,785071;0,785071;0,665267;0,790942;0,790942;0,790942;0,691423;0,691423;0,167320;0,260237;0,167320;0,167320;0,167320;0,775517;0,167320;0,741808;0,741808;0,741808;0,397566;0,395226;0,482423;0,491367;0,593470;0,750000;0,750000;0,750000;0,750000;0,791256;0,791256;0,791256;0,331184;0,331184;0,660597;0,518736;0,495395;0,500000;0,500000;0,661474;0,763206;0,795883;0,795883;0,763206;0,795883;0,741673;0,741673;0,741673;0,330719;0,330719;0,496535;0,500000;0,500000;0,744061;0,744061;0,494246;0,000000;0,627307;0,741945;0,741112;0,741305;0,741305;0,500000;0,743198;0,743198;0,000000;0,000000;0,000000;0,661750;0,745822;0,664128;0,666667;0,666667;0,666667;0,397904;0,397904;0,397904;0,790991;0,790991;0,000000;0,000000;0,000000;0,000000;0,594278;0,594278;0,659481;0,659481;0,753953;0,000000;0,000000;0,746704;0,000000;0,000000;0,000000;0,000000;0,500000;0,000000;0,666667;0,666667;0,666667;
2;;1,000000;0,638841;0,728936;0,601220;0,712639;0,257035;0,202380;0,339399;0,202380;0,202380;0,389474;0,426806;0,389474;0,343537;0,364527;0,389474;0,249748;0,249748;0,249748;0,249748;0,594295;0,559547;0,585491;0,487387;0,487387;0,392792;0,471840;0,392792;0,392792;0,392792;0,470639;0,470000;0,733348;0,733348;0,335576;0,328695;0,328695;0,724891;0,765024;0,765024;0,687074;0,775058;0,775058;0,775058;0,591044;0,591044;0,000000;0,200000;0,000000;0,000000;0,000000;0,351340;0,000000;0,487203;0,487203;0,487203;0,200000;0,276160;0,776587;0,465383;0,787588;0,249748;0,249748;0,249748;0,249748;0,395072;0,395072;0,395072;0,326316;0,326316;0,644128;0,439185;0,444611;0,486590;0,486590;0,326316;0,362155;0,202380;0,202380;0,362155;0,202380;0,489809;0,489809;0,489809;0,328947;0,328947;0,690876;0,486590;0,486590;0,249748;0,249748;0,484695;0,960274;0,684036;0,732236;0,726363;0,726187;0,726187;0,474112;0,729507;0,729507;0,000000;0,000000;0,000000;0,328695;0,729507;0,966349;0,328695;0,328695;0,328695;0,389474;0,389474;0,389474;0,775632;0,775632;0,250000;0,250000;0,250000;0,250000;0,400000;0,400000;0,645098;0,645098;0,436496;0,470000;0,960526;0,249748;0,000000;0,000000;0,000000;0,000000;0,484211;0,484211;0,328695;0,328695;0,328695;
3;;;1,000000;0,734174;0,610729;0,764920;0,248929;0,200654;0,309370;0,200654;0,200654;0,385044;0,408537;0,385044;0,349743;0,613794;0,385044;0,245654;0,245654;0,245654;0,245654;0,470595;0,561990;0,758535;0,473888;0,473888;0,200654;0,485616;0,200654;0,200654;0,200654;0,480625;0,677390;0,431370;0,431370;0,247293;0,320654;0,320654;0,710356;0,760586;0,760586;0,470613;0,395900;0,395900;0,395900;0,527981;0,527981;0,000000;0,210609;0,000000;0,000000;0,000000;0,376210;0,000000;0,477737;0,477737;0,477737;0,205835;0,322897;0,373830;0,474703;0,565640;0,245654;0,245654;0,245654;0,245654;0,390484;0,390484;0,390484;0,625044;0,625044;0,320654;0,424143;0,395193;0,470654;0,470654;0,333333;0,577487;0,567721;0,567721;0,577487;0,567721;0,480484;0,480484;0,480484;0,000000;0,000000;0,237449;0,470654;0,470654;0,245654;0,245654;0,500000;0,920654;0,427544;0,245921;0,715291;0,485900;0,485900;0,449881;0,485900;0,485900;0,000000;0,000000;0,000000;0,320654;0,245654;0,320654;0,320654;0,320654;0,320654;0,385044;0,385044;0,385044;0,395900;0,395900;0,000000;0,000000;0,000000;0,000000;0,399827;0,399827;0,627737;0,627737;0,697528;0,469697;0,000000;0,931907;0,000000;0,000000;0,000000;0,000000;0,483333;0,483333;0,320654;0,320654;0,320654;
4;;;;1,000000;0,677902;0,804374;0,245674;0,201093;0,240343;0,201093;0,201093;0,200000;0,346978;0,200000;0,353672;0,614594;0,200000;0,243950;0,243950;0,243950;0,243950;0,356720;0,506201;0,397858;0,463634;0,463634;0,201093;0,350427;0,201093;0,201093;0,201093;0,304372;0,237500;0,439415;0,439415;0,261597;0,315378;0,315378;0,243950;0,765776;0,765776;0,428281;0,402186;0,402186;0,402186;0,398631;0,398631;0,000000;0,000000;0,000000;0,000000;0,000000;0,384704;0,000000;0,243950;0,243950;0,243950;0,000000;0,000000;0,201912;0,305291;0,201093;0,243950;0,243950;0,243950;0,243950;0,393445;0,393445;0,393445;0,000000;0,000000;0,315378;0,311112;0,367113;0,458236;0,458236;0,000000;0,321254;0,201093;0,201093;0,321254;0,201093;0,479159;0,479159;0,479159;0,000000;0,000000;0,233060;0,458236;0,458236;0,243950;0,243950;0,458458;0,886807;0,438695;0,243950;0,487900;0,487900;0,487900;0,426912;0,487900;0,487900;0,000000;0,000000;0,000000;0,315378;0,243950;0,315378;0,315378;0,315378;0,315378;0,200000;0,200000;0,200000;0,402186;0,402186;0,000000;0,000000;0,000000;0,000000;0,000000;0,000000;0,315378;0,315378;0,346265;0,000000;0,000000;0,243950;0,000000;0,000000;0,000000;0,000000;0,000000;0,000000;0,315378;0,315378;0,315378;
5;;;;;1,000000;0,766190;0,247650;0,202222;0,244295;0,202222;0,202222;0,200000;0,320913;0,200000;0,358787;0,597029;0,200000;0,245079;0,245079;0,245079;0,245079;0,323643;0,429107;0,389983;0,464823;0,464823;0,202222;0,332514;0,202222;0,202222;0,202222;0,305253;0,237500;0,425981;0,425981;0,264231;0,316508;0,316508;0,245079;0,758424;0,758424;0,406786;0,394509;0,394509;0,394509;0,367923;0,367923;0,171429;0,175000;0,171429;0,171429;0,171429;0,650093;0,171429;0,245079;0,245079;0,245079;0,000000;0,000000;0,202892;0,287378;0,201653;0,245079;0,245079;0,245079;0,245079;0,735591;0,735591;0,735591;0,000000;0,000000;0,316508;0,315368;0,370706;0,459365;0,459365;0,000000;0,302878;0,202222;0,202222;0,302878;0,202222;0,687658;0,687658;0,687658;0,314286;0,314286;0,264700;0,459365;0,459365;0,245079;0,245079;0,459365;0,887936;0,420783;0,244510;0,480223;0,480223;0,480223;0,428888;0,480223;0,480223;0,000000;0,000000;0,000000;0,316508;0,245079;0,316508;0,316508;0,316508;0,316508;0,200000;0,200000;0,200000;0,394509;0,394509;0,000000;0,000000;0,000000;0,000000;0,000000;0,000000;0,316508;0,316508;0,332483;0,000000;0,000000;0,245079;0,000000;0,000000;0,000000;0,000000;0,000000;0,000000;0,316508;0,316508;0,316508;
6;;;;;;1,000000;0,255614;0,210029;0,259300;0,210029;0,210029;0,200000;0,360490;0,200000;0,369191;0,713978;0,200000;0,250029;0,250029;0,250029;0,250029;0,348560;0,542920;0,392758;0,461884;0,461884;0,210029;0,396118;0,210029;0,210029;0,210029;0,291145;0,233333;0,465065;0,465065;0,272101;0,316695;0,316695;0,250029;0,791893;0,791893;0,468611;0,420057;0,420057;0,420057;0,458993;0,458993;0,000000;0,000000;0,000000;0,000000;0,000000;0,406396;0,000000;0,250029;0,250029;0,250029;0,000000;0,000000;0,216714;0,357429;0,210029;0,250029;0,250029;0,250029;0,250029;0,402985;0,402985;0,402985;0,000000;0,000000;0,316695;0,316207;0,361191;0,450029;0,450029;0,000000;0,321269;0,210029;0,210029;0,321269;0,210029;0,482985;0,482985;0,482985;0,000000;0,000000;0,250071;0,450029;0,450029;0,250029;0,250029;0,440000;0,850029;0,471776;0,250029;0,500057;0,500057;0,500057;0,416714;0,500057;0,500057;0,000000;0,000000;0,000000;0,316695;0,250029;0,316695;0,316695;0,316695;0,316695;0,200000;0,200000;0,200000;0,420057;0,420057;0,000000;0,000000;0,000000;0,000000;0,000000;0,000000;0,316695;0,316695;0,343498;0,000000;0,000000;0,250029;0,000000;0,000000;0,000000;0,000000;0,000000;0,000000;0,316695;0,316695;0,316695;
7;;;;;;;1,000000;0,782476;0,699291;0,782476;0,782476;0,000000;0,249694;0,000000;0,258349;0,248457;0,000000;0,252783;0,252783;0,252783;0,252783;0,468410;0,258984;0,219450;0,252783;0,252783;0,219450;0,247882;0,219450;0,219450;0,219450;0,000000;0,000000;0,241038;0,241038;0,270438;0,308339;0,308339;0,252783;0,229175;0,229175;0,257412;0,219450;0,219450;0,219450;0,260398;0,260398;0,000000;0,000000;0,000000;0,000000;0,000000;0,235009;0,000000;0,252783;0,252783;0,252783;0,000000;0,000000;0,000000;0,450590;0,000000;0,252783;0,252783;0,252783;0,252783;0,219450;0,219450;0,219450;0,000000;0,000000;0,616677;0,502050;0,327392;0,419450;0,419450;0,308339;0,241231;0,219450;0,219450;0,241231;0,219450;0,252783;0,252783;0,252783;0,000000;0,000000;0,000000;0,419450;0,419450;0,505566;0,505566;0,000000;0,752783;0,270438;0,000000;0,252783;0,252783;0,252783;0,379175;0,252783;0,252783;0,000000;0,000000;0,000000;0,616677;0,252783;0,308339;0,308339;0,308339;0,308339;0,000000;0,000000;0,000000;0,219450;0,219450;0,000000;0,000000;0,000000;0,000000;0,219450;0,219450;0,308339;0,308339;0,241038;0,000000;0,000000;0,252783;0,000000;0,000000;0,000000;0,000000;0,000000;0,000000;0,308339;0,308339;0,308339;
8;;;;;;;;1,000000;0,764845;0,800000;0,800000;0,000000;0,203390;0,000000;0,204488;0,203954;0,000000;0,225000;0,225000;0,225000;0,225000;0,385111;0,204508;0,200000;0,225000;0,225000;0,200000;0,208046;0,200000;0,200000;0,200000;0,000000;0,000000;0,207909;0,207909;0,222143;0,266667;0,266667;0,225000;0,200000;0,200000;0,211107;0,200000;0,200000;0,200000;0,207622;0,207622;0,000000;0,000000;0,000000;0,000000;0,000000;0,200000;0,000000;0,225000;0,225000;0,225000;0,000000;0,000000;0,000000;0,387857;0,000000;0,225000;0,225000;0,225000;0,225000;0,200000;0,200000;0,200000;0,000000;0,000000;0,533333;0,406348;0,250000;0,350000;0,350000;0,266667;0,203888;0,200000;0,200000;0,203888;0,200000;0,225000;0,225000;0,225000;0,000000;0,000000;0,000000;0,350000;0,350000;0,450000;0,450000;0,000000;0,600000;0,222143;0,000000;0,225000;0,225000;0,225000;0,300000;0,225000;0,225000;0,000000;0,000000;0,000000;0,800000;0,225000;0,266667;0,266667;0,266667;0,266667;0,000000;0,000000;0,000000;0,200000;0,200000;0,000000;0,000000;0,000000;0,000000;0,200000;0,200000;0,266667;0,266667;0,207909;0,000000;0,000000;0,225000;0,000000;0,000000;0,000000;0,000000;0,000000;0,000000;0,266667;0,266667;0,266667;
9;;;;;;;;;1,000000;0,764845;0,764845;0,208336;0,290875;0,208336;0,524197;0,240221;0,208336;0,253291;0,253291;0,253291;0,253291;0,460751;0,505578;0,378572;0,253291;0,253291;0,210434;0,296754;0,210434;0,210434;0,210434;0,252087;0,252087;0,236054;0,236054;0,246985;0,324719;0,324719;0,464287;0,218259;0,218259;0,262537;0,210434;0,210434;0,210434;0,302345;0,302345;0,000000;0,200000;0,000000;0,000000;0,000000;0,224345;0,000000;0,253291;0,253291;0,253291;0,200000;0,322492;0,333900;0,538061;0,393831;0,253291;0,253291;0,253291;0,253291;0,210434;0,210434;0,210434;0,322621;0,322621;0,613234;0,503174;0,651388;0,467577;0,467577;0,621781;0,234715;0,210434;0,210434;0,234715;0,210434;0,253291;0,253291;0,253291;0,000000;0,000000;0,000000;0,467577;0,467577;0,700112;0,700112;0,000000;0,896148;0,283392;0,000000;0,253291;0,253291;0,253291;0,441692;0,253291;0,253291;0,000000;0,000000;0,000000;0,630646;0,253291;0,324719;0,324719;0,324719;0,324719;0,208336;0,208336;0,208336;0,210434;0,210434;0,000000;0,000000;0,000000;0,000000;0,757885;0,757885;0,324719;0,324719;0,236054;0,439587;0,000000;0,253291;0,000000;0,000000;0,000000;0,000000;0,465478;0,465478;0,324719;0,324719;0,324719;
10;;;;;;;;;;1,000000;0,800000;0,000000;0,203390;0,000000;0,204488;0,203954;0,000000;0,225000;0,225000;0,225000;0,225000;0,385111;0,204508;0,200000;0,225000;0,225000;0,200000;0,208046;0,200000;0,200000;0,200000;0,000000;0,000000;0,207909;0,207909;0,222143;0,266667;0,266667;0,225000;0,200000;0,200000;0,211107;0,200000;0,200000;0,200000;0,207622;0,207622;0,000000;0,000000;0,000000;0,000000;0,000000;0,200000;0,000000;0,225000;0,225000;0,225000;0,000000;0,000000;0,000000;0,387857;0,000000;0,225000;0,225000;0,225000;0,225000;0,200000;0,200000;0,200000;0,000000;0,000000;0,533333;0,406348;0,250000;0,350000;0,350000;0,266667;0,203888;0,200000;0,200000;0,203888;0,200000;0,225000;0,225000;0,225000;0,000000;0,000000;0,000000;0,350000;0,350000;0,450000;0,450000;0,000000;0,600000;0,222143;0,000000;0,225000;0,225000;0,225000;0,300000;0,225000;0,225000;0,000000;0,000000;0,000000;0,800000;0,225000;0,266667;0,266667;0,266667;0,266667;0,000000;0,000000;0,000000;0,200000;0,200000;0,000000;0,000000;0,000000;0,000000;0,200000;0,200000;0,266667;0,266667;0,207909;0,000000;0,000000;0,225000;0,000000;0,000000;0,000000;0,000000;0,000000;0,000000;0,266667;0,266667;0,266667;
11;;;;;;;;;;;1,000000;0,000000;0,203390;0,000000;0,204488;0,203954;0,000000;0,225000;0,225000;0,225000;0,225000;0,385111;0,204508;0,200000;0,225000;0,225000;0,200000;0,208046;0,200000;0,200000;0,200000;0,000000;0,000000;0,207909;0,207909;0,222143;0,266667;0,266667;0,225000;0,200000;0,200000;0,211107;0,200000;0,200000;0,200000;0,207622;0,207622;0,000000;0,000000;0,000000;0,000000;0,000000;0,200000;0,000000;0,225000;0,225000;0,225000;0,000000;0,000000;0,000000;0,387857;0,000000;0,225000;0,225000;0,225000;0,225000;0,200000;0,200000;0,200000;0,000000;0,000000;0,533333;0,406348;0,250000;0,350000;0,350000;0,266667;0,203888;0,200000;0,200000;0,203888;0,200000;0,225000;0,225000;0,225000;0,000000;0,000000;0,000000;0,350000;0,350000;0,450000;0,450000;0,000000;0,600000;0,222143;0,000000;0,225000;0,225000;0,225000;0,300000;0,225000;0,225000;0,000000;0,000000;0,000000;0,800000;0,225000;0,266667;0,266667;0,266667;0,266667;0,000000;0,000000;0,000000;0,200000;0,200000;0,000000;0,000000;0,000000;0,000000;0,200000;0,200000;0,266667;0,266667;0,207909;0,000000;0,000000;0,225000;0,000000;0,000000;0,000000;0,000000;0,000000;0,000000;0,266667;0,266667;0,266667;
12;;;;;;;;;;;;1,000000;0,753810;0,800000;0,780035;0,750553;0,800000;0,000000;0,000000;0,000000;0,000000;0,383394;0,391265;0,200000;0,450000;0,450000;0,000000;0,000000;0,000000;0,000000;0,000000;0,650000;0,650000;0,000000;0,000000;0,000000;0,000000;0,000000;0,000000;0,000000;0,000000;0,000000;0,000000;0,000000;0,000000;0,000000;0,000000;0,000000;0,000000;0,000000;0,000000;0,000000;0,000000;0,000000;0,000000;0,000000;0,000000;0,000000;0,300000;0,200000;0,200000;0,200000;0,000000;0,000000;0,000000;0,000000;0,000000;0,000000;0,000000;0,533333;0,533333;0,000000;0,225754;0,000000;0,000000;0,000000;0,266667;0,000000;0,000000;0,000000;0,000000;0,000000;0,000000;0,000000;0,000000;0,000000;0,000000;0,000000;0,000000;0,000000;0,000000;0,000000;0,000000;0,000000;0,000000;0,000000;0,000000;0,000000;0,000000;0,300000;0,000000;0,000000;0,000000;0,000000;0,000000;0,000000;0,000000;0,000000;0,000000;0,000000;0,000000;0,600000;0,600000;0,600000;0,000000;0,000000;0,000000;0,000000;0,000000;0,000000;0,200000;0,200000;0,000000;0,000000;0,000000;0,300000;0,000000;0,000000;0,000000;0,000000;0,000000;0,000000;0,350000;0,350000;0,000000;0,000000;0,000000;
13;;;;;;;;;;;;;1,000000;0,753810;0,674030;0,692020;0,753810;0,246247;0,246247;0,246247;0,246247;0,442217;0,393987;0,766955;0,684398;0,684398;0,203390;0,425398;0,203390;0,203390;0,203390;0,590822;0,669761;0,223727;0,223727;0,274767;0,317675;0,317675;0,706994;0,383338;0,383338;0,340430;0,203390;0,203390;0,203390;0,463338;0,463338;0,000000;0,200000;0,000000;0,000000;0,000000;0,207909;0,000000;0,476108;0,476108;0,476108;0,200000;0,287397;0,289788;0,357107;0,375997;0,246247;0,246247;0,246247;0,246247;0,203390;0,203390;0,203390;0,618289;0,618289;0,317675;0,375346;0,374421;0,460532;0,460532;0,320064;0,395293;0,203390;0,203390;0,395293;0,203390;0,246247;0,246247;0,246247;0,000000;0,000000;0,000000;0,460532;0,460532;0,246247;0,246247;0,890379;0,889104;0,266956;0,000000;0,476108;0,246247;0,246247;0,434013;0,246247;0,246247;0,321429;0,321429;0,321429;0,317675;0,246247;0,317675;0,317675;0,317675;0,317675;0,753810;0,753810;0,753810;0,203390;0,203390;0,000000;0,000000;0,000000;0,000000;0,375878;0,375878;0,618966;0,618966;0,448959;0,435113;0,000000;0,246247;0,000000;0,000000;0,000000;0,000000;0,462921;0,462921;0,317675;0,317675;0,317675;
14;;;;;;;;;;;;;;1,000000;0,780035;0,750553;0,800000;0,000000;0,000000;0,000000;0,000000;0,383394;0,391265;0,200000;0,450000;0,450000;0,000000;0,000000;0,000000;0,000000;0,000000;0,650000;0,650000;0,000000;0,000000;0,000000;0,000000;0,000000;0,000000;0,000000;0,000000;0,000000;0,000000;0,000000;0,000000;0,000000;0,000000;0,000000;0,000000;0,000000;0,000000;0,000000;0,000000;0,000000;0,000000;0,000000;0,000000;0,000000;0,300000;0,200000;0,200000;0,200000;0,000000;0,000000;0,000000;0,000000;0,000000;0,000000;0,000000;0,533333;0,533333;0,000000;0,225754;0,000000;0,000000;0,000000;0,266667;0,000000;0,000000;0,000000;0,000000;0,000000;0,000000;0,000000;0,000000;0,000000;0,000000;0,000000;0,000000;0,000000;0,000000;0,000000;0,000000;0,000000;0,000000;0,000000;0,000000;0,000000;0,000000;0,300000;0,000000;0,000000;0,000000;0,000000;0,000000;0,000000;0,000000;0,000000;0,000000;0,000000;0,000000;0,600000;0,600000;0,600000;0,000000;0,000000;0,000000;0,000000;0,000000;0,000000;0,200000;0,200000;0,000000;0,000000;0,000000;0,300000;0,000000;0,000000;0,000000;0,000000;0,000000;0,000000;0,350000;0,350000;0,000000;0,000000;0,000000;
15;;;;;;;;;;;;;;;1,000000;0,645851;0,780035;0,000000;0,000000;0,000000;0,000000;0,461677;0,407752;0,763429;0,493155;0,493155;0,000000;0,390436;0,000000;0,000000;0,000000;0,637128;0,711452;0,220337;0,220337;0,538769;0,000000;0,000000;0,489132;0,380782;0,380782;0,340230;0,200000;0,200000;0,200000;0,405202;0,405202;0,000000;0,556264;0,000000;0,000000;0,000000;0,000000;0,000000;0,255344;0,255344;0,255344;0,576450;0,434361;0,579961;0,666893;0,770930;0,000000;0,000000;0,000000;0,000000;0,000000;0,000000;0,000000;0,640815;0,640815;0,638470;0,439177;0,484901;0,000000;0,000000;0,648067;0,406517;0,000000;0,000000;0,406517;0,000000;0,000000;0,000000;0,000000;0,000000;0,000000;0,237500;0,000000;0,000000;0,494221;0,494221;0,944182;0,000000;0,260074;0,246154;0,492583;0,246154;0,246154;0,500000;0,246154;0,246154;0,326923;0,326923;0,326923;0,327565;0,000000;0,000000;0,000000;0,000000;0,000000;0,780035;0,780035;0,780035;0,200000;0,200000;0,000000;0,000000;0,000000;0,000000;0,770553;0,770553;0,332267;0,332267;0,404655;0,500000;0,000000;0,000000;0,000000;0,000000;0,000000;0,000000;0,500000;0,500000;0,000000;0,000000;0,000000;
16;;;;;;;;;;;;;;;;1,000000;0,750553;0,245621;0,245621;0,245621;0,245621;0,366452;0,409433;0,375516;0,674117;0,674117;0,203954;0,323275;0,203954;0,203954;0,203954;0,663738;0,663738;0,414490;0,414490;0,264254;0,315066;0,315066;0,245621;0,556672;0,556672;0,390334;0,388680;0,388680;0,388680;0,349129;0,349129;0,000000;0,000000;0,000000;0,000000;0,000000;0,375185;0,000000;0,245621;0,245621;0,245621;0,000000;0,418730;0,346261;0,285255;0,368652;0,245621;0,245621;0,245621;0,245621;0,388971;0,388971;0,388971;0,619387;0,619387;0,315066;0,303104;0,361863;0,453954;0,453954;0,313703;0,218619;0,203954;0,203954;0,218619;0,203954;0,472305;0,472305;0,472305;0,000000;0,000000;0,227778;0,453954;0,453954;0,245621;0,245621;0,458333;0,870621;0,406026;0,241667;0,472014;0,472014;0,472014;0,419457;0,472014;0,472014;0,319444;0,319444;0,319444;0,315066;0,245621;0,315066;0,315066;0,315066;0,315066;0,750553;0,750553;0,750553;0,388680;0,388680;0,000000;0,000000;0,000000;0,000000;0,202592;0,202592;0,315066;0,315066;0,223727;0,418730;0,000000;0,245621;0,000000;0,000000;0,000000;0,000000;0,452592;0,452592;0,315066;0,315066;0,315066;
17;;;;;;;;;;;;;;;;;1,000000;0,000000;0,000000;0,000000;0,000000;0,383394;0,391265;0,200000;0,450000;0,450000;0,000000;0,000000;0,000000;0,000000;0,000000;0,650000;0,650000;0,000000;0,000000;0,000000;0,000000;0,000000;0,000000;0,000000;0,000000;0,000000;0,000000;0,000000;0,000000;0,000000;0,000000;0,000000;0,000000;0,000000;0,000000;0,000000;0,000000;0,000000;0,000000;0,000000;0,000000;0,000000;0,300000;0,200000;0,200000;0,200000;0,000000;0,000000;0,000000;0,000000;0,000000;0,000000;0,000000;0,533333;0,533333;0,000000;0,225754;0,000000;0,000000;0,000000;0,266667;0,000000;0,000000;0,000000;0,000000;0,000000;0,000000;0,000000;0,000000;0,000000;0,000000;0,000000;0,000000;0,000000;0,000000;0,000000;0,000000;0,000000;0,000000;0,000000;0,000000;0,000000;0,000000;0,300000;0,000000;0,000000;0,000000;0,000000;0,000000;0,000000;0,000000;0,000000;0,000000;0,000000;0,000000;0,600000;0,600000;0,600000;0,000000;0,000000;0,000000;0,000000;0,000000;0,000000;0,200000;0,200000;0,000000;0,000000;0,000000;0,300000;0,000000;0,000000;0,000000;0,000000;0,000000;0,000000;0,350000;0,350000;0,000000;0,000000;0,000000;
18;;;;;;;;;;;;;;;;;;1,000000;0,750000;0,750000;0,750000;0,251928;0,250937;0,225000;0,250000;0,250000;0,225000;0,245546;0,225000;0,225000;0,225000;0,000000;0,000000;0,241242;0,241242;0,259643;0,291667;0,291667;0,250000;0,233333;0,233333;0,251107;0,225000;0,225000;0,225000;0,252066;0,252066;0,000000;0,000000;0,000000;0,000000;0,000000;0,237500;0,000000;0,250000;0,250000;0,250000;0,000000;0,000000;0,000000;0,270833;0,000000;0,250000;0,250000;0,250000;0,250000;0,225000;0,225000;0,225000;0,000000;0,000000;0,291667;0,272727;0,291667;0,375000;0,375000;0,000000;0,241388;0,225000;0,225000;0,241388;0,225000;0,250000;0,250000;0,250000;0,000000;0,000000;0,000000;0,375000;0,375000;0,250000;0,250000;0,000000;0,625000;0,259643;0,000000;0,250000;0,250000;0,250000;0,333333;0,250000;0,250000;0,000000;0,000000;0,000000;0,291667;0,250000;0,291667;0,291667;0,291667;0,291667;0,000000;0,000000;0,000000;0,225000;0,225000;0,000000;0,000000;0,000000;0,000000;0,000000;0,000000;0,291667;0,291667;0,241242;0,000000;0,000000;0,250000;0,000000;0,000000;0,000000;0,000000;0,000000;0,000000;0,291667;0,291667;0,291667;
19;;;;;;;;;;;;;;;;;;;1,000000;0,750000;0,750000;0,251928;0,250937;0,225000;0,250000;0,250000;0,225000;0,245546;0,225000;0,225000;0,225000;0,000000;0,000000;0,241242;0,241242;0,259643;0,291667;0,291667;0,250000;0,233333;0,233333;0,251107;0,225000;0,225000;0,225000;0,252066;0,252066;0,000000;0,000000;0,000000;0,000000;0,000000;0,237500;0,000000;0,250000;0,250000;0,250000;0,000000;0,000000;0,000000;0,270833;0,000000;0,250000;0,250000;0,250000;0,250000;0,225000;0,225000;0,225000;0,000000;0,000000;0,291667;0,272727;0,291667;0,375000;0,375000;0,000000;0,241388;0,225000;0,225000;0,241388;0,225000;0,250000;0,250000;0,250000;0,000000;0,000000;0,000000;0,375000;0,375000;0,250000;0,250000;0,000000;0,625000;0,259643;0,000000;0,250000;0,250000;0,250000;0,333333;0,250000;0,250000;0,000000;0,000000;0,000000;0,291667;0,250000;0,291667;0,291667;0,291667;0,291667;0,000000;0,000000;0,000000;0,225000;0,225000;0,000000;0,000000;0,000000;0,000000;0,000000;0,000000;0,291667;0,291667;0,241242;0,000000;0,000000;0,250000;0,000000;0,000000;0,000000;0,000000;0,000000;0,000000;0,291667;0,291667;0,291667;
20;;;;;;;;;;;;;;;;;;;;1,000000;0,750000;0,251928;0,250937;0,225000;0,250000;0,250000;0,225000;0,245546;0,225000;0,225000;0,225000;0,000000;0,000000;0,241242;0,241242;0,259643;0,291667;0,291667;0,250000;0,233333;0,233333;0,251107;0,225000;0,225000;0,225000;0,252066;0,252066;0,000000;0,000000;0,000000;0,000000;0,000000;0,237500;0,000000;0,250000;0,250000;0,250000;0,000000;0,000000;0,000000;0,270833;0,000000;0,250000;0,250000;0,250000;0,250000;0,225000;0,225000;0,225000;0,000000;0,000000;0,291667;0,272727;0,291667;0,375000;0,375000;0,000000;0,241388;0,225000;0,225000;0,241388;0,225000;0,250000;0,250000;0,250000;0,000000;0,000000;0,000000;0,375000;0,375000;0,250000;0,250000;0,000000;0,625000;0,259643;0,000000;0,250000;0,250000;0,250000;0,333333;0,250000;0,250000;0,000000;0,000000;0,000000;0,291667;0,250000;0,291667;0,291667;0,291667;0,291667;0,000000;0,000000;0,000000;0,225000;0,225000;0,000000;0,000000;0,000000;0,000000;0,000000;0,000000;0,291667;0,291667;0,241242;0,000000;0,000000;0,250000;0,000000;0,000000;0,000000;0,000000;0,000000;0,000000;0,291667;0,291667;0,291667;
21;;;;;;;;;;;;;;;;;;;;;1,000000;0,251928;0,250937;0,225000;0,250000;0,250000;0,225000;0,245546;0,225000;0,225000;0,225000;0,000000;0,000000;0,241242;0,241242;0,259643;0,291667;0,291667;0,250000;0,233333;0,233333;0,251107;0,225000;0,225000;0,225000;0,252066;0,252066;0,000000;0,000000;0,000000;0,000000;0,000000;0,237500;0,000000;0,250000;0,250000;0,250000;0,000000;0,000000;0,000000;0,270833;0,000000;0,250000;0,250000;0,250000;0,250000;0,225000;0,225000;0,225000;0,000000;0,000000;0,291667;0,272727;0,291667;0,375000;0,375000;0,000000;0,241388;0,225000;0,225000;0,241388;0,225000;0,250000;0,250000;0,250000;0,000000;0,000000;0,000000;0,375000;0,375000;0,250000;0,250000;0,000000;0,625000;0,259643;0,000000;0,250000;0,250000;0,250000;0,333333;0,250000;0,250000;0,000000;0,000000;0,000000;0,291667;0,250000;0,291667;0,291667;0,291667;0,291667;0,000000;0,000000;0,000000;0,225000;0,225000;0,000000;0,000000;0,000000;0,000000;0,000000;0,000000;0,291667;0,291667;0,241242;0,000000;0,000000;0,250000;0,000000;0,000000;0,000000;0,000000;0,000000;0,000000;0,291667;0,291667;0,291667;
22;;;;;;;;;;;;;;;;;;;;;;1,000000;0,560337;0,782744;0,481011;0,481011;0,391762;0,449364;0,391762;0,391762;0,391762;0,482830;0,451625;0,346961;0,346961;0,705495;0,624640;0,624640;0,729504;0,384416;0,384416;0,394859;0,206928;0,206928;0,206928;0,593415;0,593415;0,170000;0,800000;0,170000;0,170000;0,170000;0,191032;0,170000;0,500582;0,500582;0,500582;0,800000;0,705927;0,683591;0,652093;0,750145;0,251928;0,251928;0,251928;0,251928;0,206928;0,206928;0,206928;0,623394;0,623394;0,930676;0,577526;0,417599;0,476928;0,476928;0,637237;0,424335;0,206928;0,206928;0,424335;0,206928;0,251928;0,251928;0,251928;0,000000;0,000000;0,000000;0,476928;0,476928;0,475111;0,475111;0,475835;0,926928;0,283747;0,000000;0,500582;0,251928;0,251928;0,457393;0,730144;0,730144;0,000000;0,000000;0,000000;0,625111;0,944356;0,955144;0,326928;0,326928;0,326928;0,383394;0,383394;0,383394;0,206928;0,206928;0,000000;0,000000;0,000000;0,000000;0,782737;0,782737;0,650582;0,650582;0,474959;0,673587;0,000000;0,251928;0,000000;0,000000;0,000000;0,000000;0,475835;0,475835;0,326928;0,326928;0,326928;
23;;;;;;;;;;;;;;;;;;;;;;;1,000000;0,780099;0,484834;0,484834;0,392299;0,483899;0,392299;0,392299;0,392299;0,482596;0,470362;0,537978;0,537978;0,488176;0,328317;0,328317;0,728301;0,562931;0,562931;0,457320;0,579097;0,579097;0,579097;0,640951;0,640951;0,000000;0,381009;0,000000;0,000000;0,000000;0,211833;0,000000;0,719814;0,719814;0,719814;0,389826;0,419526;0,487144;0,547451;0,778641;0,250937;0,250937;0,250937;0,250937;0,204508;0,204508;0,204508;0,638884;0,638884;0,636822;0,372015;0,737334;0,483079;0,483079;0,651679;0,602305;0,579808;0,579808;0,602305;0,579808;0,250937;0,250937;0,250937;0,000000;0,000000;0,465516;0,483079;0,483079;0,484884;0,484884;0,481239;0,947365;0,579350;0,489532;0,718383;0,484233;0,484233;0,470531;0,959354;0,959354;0,000000;0,000000;0,000000;0,328317;0,727708;0,959851;0,328317;0,328317;0,328317;0,391265;0,391265;0,391265;0,391376;0,391376;0,000000;0,000000;0,000000;0,000000;0,581657;0,581657;0,640346;0,640346;0,721975;0,475930;0,000000;0,953579;0,000000;0,000000;0,000000;0,000000;0,487105;0,487105;0,328317;0,328317;0,328317;
24;;;;;;;;;;;;;;;;;;;;;;;;1,000000;0,450000;0,450000;0,200000;0,553404;0,200000;0,200000;0,200000;0,380361;0,216667;0,207909;0,207909;0,361369;0,266667;0,266667;0,675000;0,400000;0,400000;0,389109;0,200000;0,200000;0,200000;0,586946;0,586946;0,000000;0,200000;0,000000;0,000000;0,000000;0,200000;0,000000;0,450000;0,450000;0,450000;0,200000;0,200000;0,333333;0,506853;0,200000;0,225000;0,225000;0,225000;0,225000;0,200000;0,200000;0,200000;0,266667;0,266667;0,266667;0,405720;0,250000;0,350000;0,350000;0,000000;0,542115;0,200000;0,200000;0,542115;0,200000;0,225000;0,225000;0,225000;0,000000;0,000000;0,000000;0,350000;0,350000;0,225000;0,225000;0,350000;0,600000;0,222143;0,000000;0,450000;0,225000;0,225000;0,300000;0,225000;0,225000;0,000000;0,000000;0,000000;0,266667;0,225000;0,266667;0,266667;0,266667;0,266667;0,200000;0,200000;0,200000;0,200000;0,200000;0,000000;0,000000;0,000000;0,000000;0,200000;0,200000;0,533333;0,533333;0,549653;0,000000;0,000000;0,225000;0,000000;0,000000;0,000000;0,000000;0,000000;0,000000;0,266667;0,266667;0,266667;
25;;;;;;;;;;;;;;;;;;;;;;;;;1,000000;0,750000;0,225000;0,245546;0,225000;0,225000;0,225000;0,500000;0,500000;0,241242;0,241242;0,259643;0,291667;0,291667;0,250000;0,233333;0,233333;0,251107;0,225000;0,225000;0,225000;0,252066;0,252066;0,000000;0,000000;0,000000;0,000000;0,000000;0,237500;0,000000;0,250000;0,250000;0,250000;0,000000;0,000000;0,000000;0,270833;0,000000;0,250000;0,250000;0,250000;0,250000;0,225000;0,225000;0,225000;0,291667;0,291667;0,291667;0,272727;0,291667;0,375000;0,375000;0,000000;0,241388;0,225000;0,225000;0,241388;0,225000;0,250000;0,250000;0,250000;0,000000;0,000000;0,000000;0,375000;0,375000;0,250000;0,250000;0,000000;0,625000;0,259643;0,000000;0,250000;0,250000;0,250000;0,333333;0,250000;0,250000;0,000000;0,000000;0,000000;0,291667;0,250000;0,291667;0,291667;0,291667;0,291667;0,450000;0,450000;0,450000;0,225000;0,225000;0,000000;0,000000;0,000000;0,000000;0,000000;0,000000;0,291667;0,291667;0,241242;0,000000;0,000000;0,250000;0,000000;0,000000;0,000000;0,000000;0,000000;0,000000;0,291667;0,291667;0,291667;
26;;;;;;;;;;;;;;;;;;;;;;;;;;1,000000;0,225000;0,245546;0,225000;0,225000;0,225000;0,500000;0,500000;0,241242;0,241242;0,259643;0,291667;0,291667;0,250000;0,233333;0,233333;0,251107;0,225000;0,225000;0,225000;0,252066;0,252066;0,000000;0,000000;0,000000;0,000000;0,000000;0,237500;0,000000;0,250000;0,250000;0,250000;0,000000;0,000000;0,000000;0,270833;0,000000;0,250000;0,250000;0,250000;0,250000;0,225000;0,225000;0,225000;0,291667;0,291667;0,291667;0,272727;0,291667;0,375000;0,375000;0,000000;0,241388;0,225000;0,225000;0,241388;0,225000;0,250000;0,250000;0,250000;0,000000;0,000000;0,000000;0,375000;0,375000;0,250000;0,250000;0,000000;0,625000;0,259643;0,000000;0,250000;0,250000;0,250000;0,333333;0,250000;0,250000;0,000000;0,000000;0,000000;0,291667;0,250000;0,291667;0,291667;0,291667;0,291667;0,450000;0,450000;0,450000;0,225000;0,225000;0,000000;0,000000;0,000000;0,000000;0,000000;0,000000;0,291667;0,291667;0,241242;0,000000;0,000000;0,250000;0,000000;0,000000;0,000000;0,000000;0,000000;0,000000;0,291667;0,291667;0,291667;
27;;;;;;;;;;;;;;;;;;;;;;;;;;;1,000000;0,722667;0,800000;0,800000;0,800000;0,000000;0,000000;0,384493;0,384493;0,222143;0,266667;0,266667;0,450000;0,200000;0,200000;0,211107;0,200000;0,200000;0,200000;0,207622;0,207622;0,000000;0,000000;0,000000;0,000000;0,000000;0,200000;0,000000;0,225000;0,225000;0,225000;0,000000;0,000000;0,000000;0,233333;0,000000;0,225000;0,225000;0,225000;0,225000;0,200000;0,200000;0,200000;0,000000;0,000000;0,266667;0,228977;0,250000;0,350000;0,350000;0,000000;0,203888;0,200000;0,200000;0,203888;0,200000;0,225000;0,225000;0,225000;0,000000;0,000000;0,000000;0,350000;0,350000;0,225000;0,225000;0,000000;0,600000;0,222143;0,000000;0,225000;0,225000;0,225000;0,300000;0,225000;0,225000;0,000000;0,000000;0,000000;0,266667;0,225000;0,266667;0,266667;0,266667;0,266667;0,000000;0,000000;0,000000;0,200000;0,200000;0,000000;0,000000;0,000000;0,000000;0,000000;0,000000;0,266667;0,266667;0,207909;0,000000;0,000000;0,225000;0,000000;0,000000;0,000000;0,000000;0,000000;0,000000;0,266667;0,266667;0,266667;
28;;;;;;;;;;;;;;;;;;;;;;;;;;;;1,000000;0,722667;0,722667;0,722667;0,000000;0,000000;0,568511;0,568511;0,282801;0,308046;0,308046;0,665904;0,367197;0,367197;0,442957;0,379498;0,379498;0,379498;0,513426;0,513426;0,000000;0,220000;0,000000;0,000000;0,000000;0,216091;0,000000;0,454782;0,454782;0,454782;0,212500;0,220000;0,328532;0,394962;0,362500;0,245546;0,245546;0,245546;0,245546;0,208046;0,208046;0,208046;0,000000;0,000000;0,308046;0,357118;0,332614;0,433046;0,433046;0,000000;0,303925;0,208046;0,208046;0,303925;0,208046;0,245546;0,245546;0,245546;0,000000;0,000000;0,250000;0,433046;0,433046;0,245546;0,245546;0,000000;0,808046;0,384193;0,250000;0,662412;0,454498;0,454498;0,392873;0,454498;0,454498;0,000000;0,000000;0,000000;0,308046;0,245546;0,308046;0,308046;0,308046;0,308046;0,000000;0,000000;0,000000;0,729448;0,729448;0,000000;0,000000;0,000000;0,000000;0,212500;0,212500;0,579782;0,579782;0,327307;0,000000;0,000000;0,245546;0,000000;0,000000;0,000000;0,000000;0,000000;0,000000;0,308046;0,308046;0,308046;
29;;;;;;;;;;;;;;;;;;;;;;;;;;;;;1,000000;0,800000;0,800000;0,000000;0,000000;0,384493;0,384493;0,222143;0,266667;0,266667;0,450000;0,200000;0,200000;0,211107;0,200000;0,200000;0,200000;0,207622;0,207622;0,000000;0,000000;0,000000;0,000000;0,000000;0,200000;0,000000;0,225000;0,225000;0,225000;0,000000;0,000000;0,000000;0,233333;0,000000;0,225000;0,225000;0,225000;0,225000;0,200000;0,200000;0,200000;0,000000;0,000000;0,266667;0,228977;0,250000;0,350000;0,350000;0,000000;0,203888;0,200000;0,200000;0,203888;0,200000;0,225000;0,225000;0,225000;0,000000;0,000000;0,000000;0,350000;0,350000;0,225000;0,225000;0,000000;0,600000;0,222143;0,000000;0,225000;0,225000;0,225000;0,300000;0,225000;0,225000;0,000000;0,000000;0,000000;0,266667;0,225000;0,266667;0,266667;0,266667;0,266667;0,000000;0,000000;0,000000;0,200000;0,200000;0,000000;0,000000;0,000000;0,000000;0,000000;0,000000;0,266667;0,266667;0,207909;0,000000;0,000000;0,225000;0,000000;0,000000;0,000000;0,000000;0,000000;0,000000;0,266667;0,266667;0,266667;
30;;;;;;;;;;;;;;;;;;;;;;;;;;;;;;1,000000;0,800000;0,000000;0,000000;0,384493;0,384493;0,222143;0,266667;0,266667;0,450000;0,200000;0,200000;0,211107;0,200000;0,200000;0,200000;0,207622;0,207622;0,000000;0,000000;0,000000;0,000000;0,000000;0,200000;0,000000;0,225000;0,225000;0,225000;0,000000;0,000000;0,000000;0,233333;0,000000;0,225000;0,225000;0,225000;0,225000;0,200000;0,200000;0,200000;0,000000;0,000000;0,266667;0,228977;0,250000;0,350000;0,350000;0,000000;0,203888;0,200000;0,200000;0,203888;0,200000;0,225000;0,225000;0,225000;0,000000;0,000000;0,000000;0,350000;0,350000;0,225000;0,225000;0,000000;0,600000;0,222143;0,000000;0,225000;0,225000;0,225000;0,300000;0,225000;0,225000;0,000000;0,000000;0,000000;0,266667;0,225000;0,266667;0,266667;0,266667;0,266667;0,000000;0,000000;0,000000;0,200000;0,200000;0,000000;0,000000;0,000000;0,000000;0,000000;0,000000;0,266667;0,266667;0,207909;0,000000;0,000000;0,225000;0,000000;0,000000;0,000000;0,000000;0,000000;0,000000;0,266667;0,266667;0,266667;
31;;;;;;;;;;;;;;;;;;;;;;;;;;;;;;;1,000000;0,000000;0,000000;0,384493;0,384493;0,222143;0,266667;0,266667;0,450000;0,200000;0,200000;0,211107;0,200000;0,200000;0,200000;0,207622;0,207622;0,000000;0,000000;0,000000;0,000000;0,000000;0,200000;0,000000;0,225000;0,225000;0,225000;0,000000;0,000000;0,000000;0,233333;0,000000;0,225000;0,225000;0,225000;0,225000;0,200000;0,200000;0,200000;0,000000;0,000000;0,266667;0,228977;0,250000;0,350000;0,350000;0,000000;0,203888;0,200000;0,200000;0,203888;0,200000;0,225000;0,225000;0,225000;0,000000;0,000000;0,000000;0,350000;0,350000;0,225000;0,225000;0,000000;0,600000;0,222143;0,000000;0,225000;0,225000;0,225000;0,300000;0,225000;0,225000;0,000000;0,000000;0,000000;0,266667;0,225000;0,266667;0,266667;0,266667;0,266667;0,000000;0,000000;0,000000;0,200000;0,200000;0,000000;0,000000;0,000000;0,000000;0,000000;0,000000;0,266667;0,266667;0,207909;0,000000;0,000000;0,225000;0,000000;0,000000;0,000000;0,000000;0,000000;0,000000;0,266667;0,266667;0,266667;
32;;;;;;;;;;;;;;;;;;;;;;;;;;;;;;;;1,000000;0,750000;0,000000;0,000000;0,000000;0,000000;0,000000;0,000000;0,350000;0,350000;0,000000;0,000000;0,000000;0,000000;0,000000;0,000000;0,000000;0,000000;0,000000;0,000000;0,000000;0,000000;0,000000;0,000000;0,000000;0,000000;0,000000;0,375000;0,225000;0,230000;0,216667;0,000000;0,000000;0,000000;0,000000;0,000000;0,000000;0,000000;0,611111;0,611111;0,000000;0,284674;0,000000;0,000000;0,000000;0,305556;0,380000;0,000000;0,000000;0,380000;0,000000;0,000000;0,000000;0,000000;0,000000;0,000000;0,000000;0,000000;0,000000;0,000000;0,000000;0,500000;0,000000;0,000000;0,000000;0,000000;0,000000;0,000000;0,375000;0,000000;0,000000;0,305556;0,305556;0,305556;0,000000;0,000000;0,000000;0,000000;0,000000;0,000000;0,650000;0,650000;0,650000;0,000000;0,000000;0,000000;0,000000;0,000000;0,000000;0,216667;0,216667;0,000000;0,000000;0,350000;0,375000;0,000000;0,000000;0,000000;0,000000;0,000000;0,000000;0,416667;0,416667;0,000000;0,000000;0,000000;
33;;;;;;;;;;;;;;;;;;;;;;;;;;;;;;;;;1,000000;0,000000;0,000000;0,000000;0,000000;0,000000;0,000000;0,000000;0,000000;0,000000;0,000000;0,000000;0,000000;0,000000;0,000000;0,000000;0,000000;0,000000;0,000000;0,000000;0,000000;0,000000;0,000000;0,000000;0,000000;0,000000;0,375000;0,225000;0,230000;0,216667;0,000000;0,000000;0,000000;0,000000;0,000000;0,000000;0,000000;0,611111;0,611111;0,000000;0,284674;0,000000;0,000000;0,000000;0,305556;0,000000;0,000000;0,000000;0,000000;0,000000;0,000000;0,000000;0,000000;0,000000;0,000000;0,000000;0,000000;0,000000;0,000000;0,000000;0,416667;0,000000;0,000000;0,000000;0,000000;0,000000;0,000000;0,375000;0,000000;0,000000;0,666667;0,666667;0,666667;0,000000;0,000000;0,000000;0,000000;0,000000;0,000000;0,650000;0,650000;0,650000;0,000000;0,000000;0,000000;0,000000;0,000000;0,000000;0,216667;0,216667;0,000000;0,000000;0,000000;0,375000;0,000000;0,000000;0,000000;0,000000;0,000000;0,000000;0,416667;0,416667;0,000000;0,000000;0,000000;
34;;;;;;;;;;;;;;;;;;;;;;;;;;;;;;;;;;1,000000;0,777286;0,249664;0,296798;0,296798;0,451160;0,423727;0,423727;0,443948;0,415818;0,415818;0,415818;0,433244;0,433244;0,000000;0,000000;0,000000;0,000000;0,000000;0,214236;0,000000;0,241242;0,241242;0,241242;0,000000;0,000000;0,211863;0,368587;0,207909;0,241242;0,241242;0,241242;0,241242;0,207909;0,207909;0,207909;0,000000;0,000000;0,296798;0,269969;0,302662;0,407909;0,407909;0,000000;0,220458;0,207909;0,207909;0,220458;0,207909;0,241242;0,241242;0,241242;0,000000;0,000000;0,232485;0,407909;0,407909;0,241242;0,241242;0,000000;0,741242;0,448630;0,241242;0,482485;0,482485;0,482485;0,361863;0,482485;0,482485;0,000000;0,000000;0,000000;0,296798;0,241242;0,296798;0,296798;0,296798;0,296798;0,000000;0,000000;0,000000;0,792397;0,792397;0,000000;0,000000;0,000000;0,000000;0,000000;0,000000;0,296798;0,296798;0,223727;0,000000;0,000000;0,241242;0,000000;0,000000;0,000000;0,000000;0,000000;0,000000;0,296798;0,296798;0,296798;
35;;;;;;;;;;;;;;;;;;;;;;;;;;;;;;;;;;;1,000000;0,249664;0,296798;0,296798;0,451160;0,423727;0,423727;0,443948;0,415818;0,415818;0,415818;0,433244;0,433244;0,000000;0,000000;0,000000;0,000000;0,000000;0,214236;0,000000;0,241242;0,241242;0,241242;0,000000;0,000000;0,211863;0,368587;0,207909;0,241242;0,241242;0,241242;0,241242;0,207909;0,207909;0,207909;0,000000;0,000000;0,296798;0,269969;0,302662;0,407909;0,407909;0,000000;0,220458;0,207909;0,207909;0,220458;0,207909;0,241242;0,241242;0,241242;0,000000;0,000000;0,232485;0,407909;0,407909;0,241242;0,241242;0,000000;0,741242;0,448630;0,241242;0,482485;0,482485;0,482485;0,361863;0,482485;0,482485;0,000000;0,000000;0,000000;0,296798;0,241242;0,296798;0,296798;0,296798;0,296798;0,000000;0,000000;0,000000;0,792397;0,792397;0,000000;0,000000;0,000000;0,000000;0,000000;0,000000;0,296798;0,296798;0,223727;0,000000;0,000000;0,241242;0,000000;0,000000;0,000000;0,000000;0,000000;0,000000;0,296798;0,296798;0,296798;
36;;;;;;;;;;;;;;;;;;;;;;;;;;;;;;;;;;;;1,000000;0,614822;0,614822;0,436369;0,235428;0,235428;0,274413;0,222143;0,222143;0,222143;0,478979;0,478979;0,175000;0,800000;0,175000;0,175000;0,175000;0,201850;0,175000;0,259643;0,259643;0,259643;0,800000;0,800000;0,800000;0,283105;0,200000;0,259643;0,259643;0,259643;0,259643;0,222143;0,222143;0,222143;0,000000;0,000000;0,322143;0,331545;0,367856;0,447143;0,447143;0,000000;0,252062;0,222143;0,222143;0,252062;0,222143;0,259643;0,259643;0,259643;0,000000;0,000000;0,000000;0,447143;0,447143;0,259643;0,259643;0,000000;0,822143;0,288570;0,000000;0,259643;0,259643;0,259643;0,415428;0,706819;0,706819;0,000000;0,000000;0,000000;0,322143;0,706819;0,894319;0,322143;0,322143;0,322143;0,000000;0,000000;0,000000;0,222143;0,222143;0,000000;0,000000;0,000000;0,000000;0,200000;0,200000;0,322143;0,322143;0,249664;0,380000;0,000000;0,259643;0,000000;0,000000;0,000000;0,000000;0,000000;0,000000;0,322143;0,322143;0,322143;
37;;;;;;;;;;;;;;;;;;;;;;;;;;;;;;;;;;;;;1,000000;0,666667;0,291667;0,288889;0,288889;0,317774;0,266667;0,266667;0,266667;0,626482;0,626482;0,000000;0,288889;0,000000;0,000000;0,000000;0,300000;0,000000;0,291667;0,291667;0,291667;0,266667;0,288889;0,288889;0,333333;0,000000;0,291667;0,291667;0,291667;0,291667;0,266667;0,266667;0,266667;0,000000;0,000000;0,333333;0,345644;0,361111;0,416667;0,416667;0,000000;0,303888;0,266667;0,266667;0,303888;0,266667;0,291667;0,291667;0,291667;0,000000;0,000000;0,000000;0,416667;0,416667;0,291667;0,291667;0,000000;0,666667;0,322143;0,000000;0,291667;0,291667;0,291667;0,388889;0,291667;0,291667;0,000000;0,000000;0,000000;0,333333;0,583333;0,333333;0,333333;0,333333;0,333333;0,000000;0,000000;0,000000;0,266667;0,266667;0,000000;0,000000;0,000000;0,000000;0,000000;0,000000;0,333333;0,333333;0,296798;0,000000;0,000000;0,291667;0,000000;0,000000;0,000000;0,000000;0,000000;0,000000;0,333333;0,333333;0,333333;
38;;;;;;;;;;;;;;;;;;;;;;;;;;;;;;;;;;;;;;1,000000;0,291667;0,288889;0,288889;0,317774;0,266667;0,266667;0,266667;0,626482;0,626482;0,000000;0,288889;0,000000;0,000000;0,000000;0,300000;0,000000;0,291667;0,291667;0,291667;0,266667;0,288889;0,288889;0,333333;0,000000;0,291667;0,291667;0,291667;0,291667;0,266667;0,266667;0,266667;0,000000;0,000000;0,333333;0,345644;0,361111;0,416667;0,416667;0,000000;0,303888;0,266667;0,266667;0,303888;0,266667;0,291667;0,291667;0,291667;0,000000;0,000000;0,000000;0,416667;0,416667;0,291667;0,291667;0,000000;0,666667;0,322143;0,000000;0,291667;0,291667;0,291667;0,388889;0,291667;0,291667;0,000000;0,000000;0,000000;0,333333;0,583333;0,333333;0,333333;0,333333;0,333333;0,000000;0,000000;0,000000;0,266667;0,266667;0,000000;0,000000;0,000000;0,000000;0,000000;0,000000;0,333333;0,333333;0,296798;0,000000;0,000000;0,291667;0,000000;0,000000;0,000000;0,000000;0,000000;0,000000;0,333333;0,333333;0,333333;
39;;;;;;;;;;;;;;;;;;;;;;;;;;;;;;;;;;;;;;;1,000000;0,233333;0,233333;0,469109;0,225000;0,225000;0,225000;0,720279;0,720279;0,000000;0,233333;0,000000;0,000000;0,000000;0,237500;0,000000;0,500000;0,500000;0,500000;0,225000;0,233333;0,400000;0,619353;0,225000;0,250000;0,250000;0,250000;0,250000;0,225000;0,225000;0,225000;0,000000;0,000000;0,291667;0,493220;0,291667;0,375000;0,375000;0,000000;0,447180;0,225000;0,225000;0,447180;0,225000;0,250000;0,250000;0,250000;0,000000;0,000000;0,000000;0,375000;0,375000;0,250000;0,250000;0,000000;0,625000;0,259643;0,000000;0,500000;0,250000;0,250000;0,333333;0,250000;0,250000;0,000000;0,000000;0,000000;0,291667;0,250000;0,291667;0,291667;0,291667;0,291667;0,000000;0,000000;0,000000;0,225000;0,225000;0,000000;0,000000;0,000000;0,000000;0,225000;0,225000;0,583333;0,583333;0,444253;0,000000;0,000000;0,250000;0,000000;0,000000;0,000000;0,000000;0,000000;0,000000;0,291667;0,291667;0,291667;
40;;;;;;;;;;;;;;;;;;;;;;;;;;;;;;;;;;;;;;;;1,000000;0,800000;0,412312;0,400000;0,400000;0,400000;0,395281;0,395281;0,000000;0,000000;0,000000;0,000000;0,000000;0,200000;0,000000;0,233333;0,233333;0,233333;0,000000;0,000000;0,200000;0,340115;0,200000;0,233333;0,233333;0,233333;0,233333;0,200000;0,200000;0,200000;0,000000;0,000000;0,288889;0,251515;0,285714;0,400000;0,400000;0,000000;0,355751;0,200000;0,200000;0,355751;0,200000;0,233333;0,233333;0,233333;0,000000;0,000000;0,216667;0,400000;0,400000;0,233333;0,233333;0,400000;0,733333;0,420157;0,233333;0,466667;0,466667;0,466667;0,350000;0,466667;0,466667;0,000000;0,000000;0,000000;0,288889;0,233333;0,288889;0,288889;0,288889;0,288889;0,000000;0,000000;0,000000;0,400000;0,400000;0,000000;0,000000;0,000000;0,000000;0,000000;0,000000;0,288889;0,288889;0,366675;0,000000;0,000000;0,233333;0,000000;0,000000;0,000000;0,000000;0,000000;0,000000;0,288889;0,288889;0,288889;
41;;;;;;;;;;;;;;;;;;;;;;;;;;;;;;;;;;;;;;;;;1,000000;0,412312;0,400000;0,400000;0,400000;0,395281;0,395281;0,000000;0,000000;0,000000;0,000000;0,000000;0,200000;0,000000;0,233333;0,233333;0,233333;0,000000;0,000000;0,200000;0,340115;0,200000;0,233333;0,233333;0,233333;0,233333;0,200000;0,200000;0,200000;0,000000;0,000000;0,288889;0,251515;0,285714;0,400000;0,400000;0,000000;0,355751;0,200000;0,200000;0,355751;0,200000;0,233333;0,233333;0,233333;0,000000;0,000000;0,216667;0,400000;0,400000;0,233333;0,233333;0,400000;0,733333;0,420157;0,233333;0,466667;0,466667;0,466667;0,350000;0,466667;0,466667;0,000000;0,000000;0,000000;0,288889;0,233333;0,288889;0,288889;0,288889;0,288889;0,000000;0,000000;0,000000;0,400000;0,400000;0,000000;0,000000;0,000000;0,000000;0,000000;0,000000;0,288889;0,288889;0,366675;0,000000;0,000000;0,233333;0,000000;0,000000;0,000000;0,000000;0,000000;0,000000;0,288889;0,288889;0,288889;
42;;;;;;;;;;;;;;;;;;;;;;;;;;;;;;;;;;;;;;;;;;1,000000;0,751186;0,751186;0,751186;0,490978;0,490978;0,000000;0,000000;0,000000;0,000000;0,000000;0,271001;0,000000;0,469109;0,469109;0,469109;0,000000;0,000000;0,373038;0,429170;0,383823;0,251107;0,251107;0,251107;0,251107;0,211107;0,211107;0,211107;0,000000;0,000000;0,317774;0,381985;0,364187;0,451107;0,451107;0,000000;0,313073;0,211107;0,211107;0,313073;0,211107;0,251107;0,251107;0,251107;0,316667;0,316667;0,616071;0,451107;0,451107;0,251107;0,251107;0,000000;0,851107;0,628690;0,695690;0,700141;0,716257;0,716257;0,418512;0,487387;0,487387;0,000000;0,000000;0,000000;0,317774;0,251107;0,317774;0,317774;0,317774;0,317774;0,000000;0,000000;0,000000;0,407387;0,407387;0,250000;0,250000;0,250000;0,250000;0,000000;0,000000;0,602442;0,602442;0,337021;0,000000;0,850000;0,251107;0,000000;0,000000;0,000000;0,000000;0,000000;0,000000;0,317774;0,317774;0,317774;
43;;;;;;;;;;;;;;;;;;;;;;;;;;;;;;;;;;;;;;;;;;;1,000000;0,800000;0,800000;0,397379;0,397379;0,000000;0,000000;0,000000;0,000000;0,000000;0,200000;0,000000;0,225000;0,225000;0,225000;0,000000;0,000000;0,200000;0,362572;0,200000;0,225000;0,225000;0,225000;0,225000;0,200000;0,200000;0,200000;0,000000;0,000000;0,266667;0,228977;0,250000;0,350000;0,350000;0,000000;0,203888;0,200000;0,200000;0,203888;0,200000;0,225000;0,225000;0,225000;0,000000;0,000000;0,420000;0,350000;0,350000;0,225000;0,225000;0,000000;0,600000;0,610529;0,450000;0,675000;0,450000;0,450000;0,300000;0,450000;0,450000;0,000000;0,000000;0,000000;0,266667;0,225000;0,266667;0,266667;0,266667;0,266667;0,000000;0,000000;0,000000;0,400000;0,400000;0,000000;0,000000;0,000000;0,000000;0,000000;0,000000;0,266667;0,266667;0,207909;0,000000;0,000000;0,225000;0,000000;0,000000;0,000000;0,000000;0,000000;0,000000;0,266667;0,266667;0,266667;
44;;;;;;;;;;;;;;;;;;;;;;;;;;;;;;;;;;;;;;;;;;;;1,000000;0,800000;0,397379;0,397379;0,000000;0,000000;0,000000;0,000000;0,000000;0,200000;0,000000;0,225000;0,225000;0,225000;0,000000;0,000000;0,200000;0,362572;0,200000;0,225000;0,225000;0,225000;0,225000;0,200000;0,200000;0,200000;0,000000;0,000000;0,266667;0,228977;0,250000;0,350000;0,350000;0,000000;0,203888;0,200000;0,200000;0,203888;0,200000;0,225000;0,225000;0,225000;0,000000;0,000000;0,420000;0,350000;0,350000;0,225000;0,225000;0,000000;0,600000;0,610529;0,450000;0,675000;0,450000;0,450000;0,300000;0,450000;0,450000;0,000000;0,000000;0,000000;0,266667;0,225000;0,266667;0,266667;0,266667;0,266667;0,000000;0,000000;0,000000;0,400000;0,400000;0,000000;0,000000;0,000000;0,000000;0,000000;0,000000;0,266667;0,266667;0,207909;0,000000;0,000000;0,225000;0,000000;0,000000;0,000000;0,000000;0,000000;0,000000;0,266667;0,266667;0,266667;
45;;;;;;;;;;;;;;;;;;;;;;;;;;;;;;;;;;;;;;;;;;;;;1,000000;0,397379;0,397379;0,000000;0,000000;0,000000;0,000000;0,000000;0,200000;0,000000;0,225000;0,225000;0,225000;0,000000;0,000000;0,200000;0,362572;0,200000;0,225000;0,225000;0,225000;0,225000;0,200000;0,200000;0,200000;0,000000;0,000000;0,266667;0,228977;0,250000;0,350000;0,350000;0,000000;0,203888;0,200000;0,200000;0,203888;0,200000;0,225000;0,225000;0,225000;0,000000;0,000000;0,420000;0,350000;0,350000;0,225000;0,225000;0,000000;0,600000;0,610529;0,450000;0,675000;0,450000;0,450000;0,300000;0,450000;0,450000;0,000000;0,000000;0,000000;0,266667;0,225000;0,266667;0,266667;0,266667;0,266667;0,000000;0,000000;0,000000;0,400000;0,400000;0,000000;0,000000;0,000000;0,000000;0,000000;0,000000;0,266667;0,266667;0,207909;0,000000;0,000000;0,225000;0,000000;0,000000;0,000000;0,000000;0,000000;0,000000;0,266667;0,266667;0,266667;
46;;;;;;;;;;;;;;;;;;;;;;;;;;;;;;;;;;;;;;;;;;;;;;1,000000;0,732358;0,000000;0,370000;0,000000;0,000000;0,000000;0,218708;0,000000;0,485698;0,485698;0,485698;0,383333;0,370000;0,392574;0,375580;0,384628;0,252066;0,252066;0,252066;0,252066;0,207622;0,207622;0,207622;0,000000;0,000000;0,326140;0,411001;0,410998;0,474288;0,474288;0,000000;0,311237;0,207622;0,207622;0,311237;0,207622;0,252066;0,252066;0,252066;0,000000;0,000000;0,258364;0,474288;0,474288;0,252066;0,252066;0,000000;0,918733;0,430215;0,252788;0,719059;0,486267;0,486267;0,453719;0,737940;0,737940;0,000000;0,000000;0,000000;0,326140;0,730197;0,652280;0,326140;0,326140;0,326140;0,000000;0,000000;0,000000;0,397379;0,397379;0,000000;0,000000;0,000000;0,000000;0,205556;0,205556;0,633846;0,633846;0,340463;0,000000;0,000000;0,252066;0,000000;0,000000;0,000000;0,000000;0,000000;0,000000;0,326140;0,326140;0,326140;
47;;;;;;;;;;;;;;;;;;;;;;;;;;;;;;;;;;;;;;;;;;;;;;;1,000000;0,000000;0,370000;0,000000;0,000000;0,000000;0,218708;0,000000;0,485698;0,485698;0,485698;0,383333;0,370000;0,392574;0,375580;0,384628;0,252066;0,252066;0,252066;0,252066;0,207622;0,207622;0,207622;0,000000;0,000000;0,326140;0,411001;0,410998;0,474288;0,474288;0,000000;0,311237;0,207622;0,207622;0,311237;0,207622;0,252066;0,252066;0,252066;0,000000;0,000000;0,258364;0,474288;0,474288;0,252066;0,252066;0,000000;0,918733;0,430215;0,252788;0,719059;0,486267;0,486267;0,453719;0,737940;0,737940;0,000000;0,000000;0,000000;0,326140;0,730197;0,652280;0,326140;0,326140;0,326140;0,000000;0,000000;0,000000;0,397379;0,397379;0,000000;0,000000;0,000000;0,000000;0,205556;0,205556;0,633846;0,633846;0,340463;0,000000;0,000000;0,252066;0,000000;0,000000;0,000000;0,000000;0,000000;0,000000;0,326140;0,326140;0,326140;
48;;;;;;;;;;;;;;;;;;;;;;;;;;;;;;;;;;;;;;;;;;;;;;;;1,000000;0,833333;0,833333;0,833333;0,833333;0,833333;0,833333;0,000000;0,000000;0,000000;0,183333;0,177778;0,177778;0,000000;0,000000;0,000000;0,000000;0,000000;0,000000;0,183333;0,183333;0,183333;0,000000;0,000000;0,000000;0,000000;0,000000;0,000000;0,000000;0,000000;0,000000;0,000000;0,000000;0,000000;0,000000;0,000000;0,000000;0,000000;0,250000;0,250000;0,200000;0,000000;0,000000;0,000000;0,000000;0,000000;0,000000;0,000000;0,000000;0,000000;0,000000;0,000000;0,000000;0,000000;0,000000;0,000000;0,000000;0,000000;0,000000;0,000000;0,000000;0,000000;0,000000;0,000000;0,000000;0,000000;0,000000;0,000000;0,000000;0,000000;0,000000;0,000000;0,000000;0,000000;0,000000;0,000000;0,000000;0,000000;0,000000;0,000000;0,000000;0,000000;0,000000;0,000000;0,000000;0,000000;0,000000;0,000000;0,000000;0,000000;
49;;;;;;;;;;;;;;;;;;;;;;;;;;;;;;;;;;;;;;;;;;;;;;;;;1,000000;0,833333;0,833333;0,833333;0,833333;0,833333;0,000000;0,000000;0,000000;0,800000;0,800000;0,800000;0,320000;0,200000;0,000000;0,000000;0,000000;0,000000;0,188889;0,188889;0,188889;0,000000;0,000000;0,000000;0,000000;0,000000;0,000000;0,000000;0,000000;0,000000;0,000000;0,000000;0,000000;0,000000;0,000000;0,000000;0,000000;0,277778;0,277778;0,222222;0,000000;0,000000;0,000000;0,000000;0,000000;0,000000;0,000000;0,000000;0,000000;0,000000;0,000000;0,000000;0,000000;0,000000;0,000000;0,000000;0,000000;0,000000;0,233333;0,000000;0,000000;0,000000;0,000000;0,000000;0,000000;0,000000;0,000000;0,000000;0,000000;0,000000;0,000000;0,000000;0,200000;0,200000;0,000000;0,000000;0,000000;0,350000;0,000000;0,000000;0,000000;0,000000;0,000000;0,000000;0,000000;0,000000;0,000000;0,000000;0,000000;
50;;;;;;;;;;;;;;;;;;;;;;;;;;;;;;;;;;;;;;;;;;;;;;;;;;1,000000;0,833333;0,833333;0,833333;0,833333;0,000000;0,000000;0,000000;0,183333;0,177778;0,177778;0,000000;0,000000;0,000000;0,000000;0,000000;0,000000;0,183333;0,183333;0,183333;0,000000;0,000000;0,000000;0,000000;0,000000;0,000000;0,000000;0,000000;0,000000;0,000000;0,000000;0,000000;0,000000;0,000000;0,000000;0,000000;0,250000;0,250000;0,200000;0,000000;0,000000;0,000000;0,000000;0,000000;0,000000;0,000000;0,000000;0,000000;0,000000;0,000000;0,000000;0,000000;0,000000;0,000000;0,000000;0,000000;0,000000;0,000000;0,000000;0,000000;0,000000;0,000000;0,000000;0,000000;0,000000;0,000000;0,000000;0,000000;0,000000;0,000000;0,000000;0,000000;0,000000;0,000000;0,000000;0,000000;0,000000;0,000000;0,000000;0,000000;0,000000;0,000000;0,000000;0,000000;0,000000;0,000000;0,000000;0,000000;
51;;;;;;;;;;;;;;;;;;;;;;;;;;;;;;;;;;;;;;;;;;;;;;;;;;;1,000000;0,833333;0,833333;0,833333;0,000000;0,000000;0,000000;0,183333;0,177778;0,177778;0,000000;0,000000;0,000000;0,000000;0,000000;0,000000;0,183333;0,183333;0,183333;0,000000;0,000000;0,000000;0,000000;0,000000;0,000000;0,000000;0,000000;0,000000;0,000000;0,000000;0,000000;0,000000;0,000000;0,000000;0,000000;0,250000;0,250000;0,200000;0,000000;0,000000;0,000000;0,000000;0,000000;0,000000;0,000000;0,000000;0,000000;0,000000;0,000000;0,000000;0,000000;0,000000;0,000000;0,000000;0,000000;0,000000;0,000000;0,000000;0,000000;0,000000;0,000000;0,000000;0,000000;0,000000;0,000000;0,000000;0,000000;0,000000;0,000000;0,000000;0,000000;0,000000;0,000000;0,000000;0,000000;0,000000;0,000000;0,000000;0,000000;0,000000;0,000000;0,000000;0,000000;0,000000;0,000000;0,000000;0,000000;
52;;;;;;;;;;;;;;;;;;;;;;;;;;;;;;;;;;;;;;;;;;;;;;;;;;;;1,000000;0,833333;0,833333;0,000000;0,000000;0,000000;0,183333;0,177778;0,177778;0,000000;0,000000;0,000000;0,000000;0,000000;0,000000;0,183333;0,183333;0,183333;0,000000;0,000000;0,000000;0,000000;0,000000;0,000000;0,000000;0,000000;0,000000;0,000000;0,000000;0,000000;0,000000;0,000000;0,000000;0,000000;0,250000;0,250000;0,200000;0,000000;0,000000;0,000000;0,000000;0,000000;0,000000;0,000000;0,000000;0,000000;0,000000;0,000000;0,000000;0,000000;0,000000;0,000000;0,000000;0,000000;0,000000;0,000000;0,000000;0,000000;0,000000;0,000000;0,000000;0,000000;0,000000;0,000000;0,000000;0,000000;0,000000;0,000000;0,000000;0,000000;0,000000;0,000000;0,000000;0,000000;0,000000;0,000000;0,000000;0,000000;0,000000;0,000000;0,000000;0,000000;0,000000;0,000000;0,000000;0,000000;
53;;;;;;;;;;;;;;;;;;;;;;;;;;;;;;;;;;;;;;;;;;;;;;;;;;;;;1,000000;0,833333;0,237500;0,237500;0,237500;0,191667;0,186667;0,186667;0,266667;0,000000;0,237500;0,237500;0,237500;0,237500;0,800000;0,800000;0,800000;0,000000;0,000000;0,300000;0,269545;0,312500;0,425000;0,425000;0,000000;0,207777;0,200000;0,200000;0,207777;0,200000;0,475000;0,475000;0,475000;0,666667;0,666667;0,666667;0,425000;0,425000;0,237500;0,237500;0,000000;0,800000;0,275994;0,270833;0,237500;0,237500;0,237500;0,380000;0,237500;0,237500;0,000000;0,000000;0,000000;0,300000;0,237500;0,300000;0,300000;0,300000;0,300000;0,000000;0,000000;0,000000;0,200000;0,200000;0,270833;0,270833;0,270833;0,270833;0,000000;0,000000;0,300000;0,300000;0,214236;0,000000;0,833333;0,237500;0,000000;0,000000;0,000000;0,000000;0,000000;0,000000;0,300000;0,300000;0,300000;
54;;;;;;;;;;;;;;;;;;;;;;;;;;;;;;;;;;;;;;;;;;;;;;;;;;;;;;1,000000;0,000000;0,000000;0,000000;0,183333;0,177778;0,177778;0,000000;0,000000;0,000000;0,000000;0,000000;0,000000;0,183333;0,183333;0,183333;0,000000;0,000000;0,000000;0,000000;0,000000;0,000000;0,000000;0,000000;0,000000;0,000000;0,000000;0,000000;0,000000;0,000000;0,000000;0,000000;0,250000;0,250000;0,200000;0,000000;0,000000;0,000000;0,000000;0,000000;0,000000;0,000000;0,000000;0,000000;0,000000;0,000000;0,000000;0,000000;0,000000;0,000000;0,000000;0,000000;0,000000;0,000000;0,000000;0,000000;0,000000;0,000000;0,000000;0,000000;0,000000;0,000000;0,000000;0,000000;0,000000;0,000000;0,000000;0,000000;0,000000;0,000000;0,000000;0,000000;0,000000;0,000000;0,000000;0,000000;0,000000;0,000000;0,000000;0,000000;0,000000;0,000000;0,000000;0,000000;
55;;;;;;;;;;;;;;;;;;;;;;;;;;;;;;;;;;;;;;;;;;;;;;;;;;;;;;;1,000000;0,750000;0,750000;0,000000;0,000000;0,233333;0,436835;0,225000;0,250000;0,250000;0,250000;0,250000;0,225000;0,225000;0,225000;0,000000;0,000000;0,291667;0,493220;0,291667;0,375000;0,375000;0,000000;0,447180;0,225000;0,225000;0,447180;0,225000;0,250000;0,250000;0,250000;0,000000;0,000000;0,000000;0,375000;0,375000;0,250000;0,250000;0,000000;0,625000;0,259643;0,000000;0,500000;0,250000;0,250000;0,333333;0,250000;0,250000;0,000000;0,000000;0,000000;0,291667;0,250000;0,291667;0,291667;0,291667;0,291667;0,000000;0,000000;0,000000;0,225000;0,225000;0,000000;0,000000;0,000000;0,000000;0,000000;0,000000;0,583333;0,583333;0,444253;0,000000;0,000000;0,250000;0,000000;0,000000;0,000000;0,000000;0,000000;0,000000;0,291667;0,291667;0,291667;
56;;;;;;;;;;;;;;;;;;;;;;;;;;;;;;;;;;;;;;;;;;;;;;;;;;;;;;;;1,000000;0,750000;0,000000;0,000000;0,233333;0,436835;0,225000;0,250000;0,250000;0,250000;0,250000;0,225000;0,225000;0,225000;0,000000;0,000000;0,291667;0,493220;0,291667;0,375000;0,375000;0,000000;0,447180;0,225000;0,225000;0,447180;0,225000;0,250000;0,250000;0,250000;0,000000;0,000000;0,000000;0,375000;0,375000;0,250000;0,250000;0,000000;0,625000;0,259643;0,000000;0,500000;0,250000;0,250000;0,333333;0,250000;0,250000;0,000000;0,000000;0,000000;0,291667;0,250000;0,291667;0,291667;0,291667;0,291667;0,000000;0,000000;0,000000;0,225000;0,225000;0,000000;0,000000;0,000000;0,000000;0,000000;0,000000;0,583333;0,583333;0,444253;0,000000;0,000000;0,250000;0,000000;0,000000;0,000000;0,000000;0,000000;0,000000;0,291667;0,291667;0,291667;
57;;;;;;;;;;;;;;;;;;;;;;;;;;;;;;;;;;;;;;;;;;;;;;;;;;;;;;;;;1,000000;0,000000;0,000000;0,233333;0,436835;0,225000;0,250000;0,250000;0,250000;0,250000;0,225000;0,225000;0,225000;0,000000;0,000000;0,291667;0,493220;0,291667;0,375000;0,375000;0,000000;0,447180;0,225000;0,225000;0,447180;0,225000;0,250000;0,250000;0,250000;0,000000;0,000000;0,000000;0,375000;0,375000;0,250000;0,250000;0,000000;0,625000;0,259643;0,000000;0,500000;0,250000;0,250000;0,333333;0,250000;0,250000;0,000000;0,000000;0,000000;0,291667;0,250000;0,291667;0,291667;0,291667;0,291667;0,000000;0,000000;0,000000;0,225000;0,225000;0,000000;0,000000;0,000000;0,000000;0,000000;0,000000;0,583333;0,583333;0,444253;0,000000;0,000000;0,250000;0,000000;0,000000;0,000000;0,000000;0,000000;0,000000;0,291667;0,291667;0,291667;
58;;;;;;;;;;;;;;;;;;;;;;;;;;;;;;;;;;;;;;;;;;;;;;;;;;;;;;;;;;1,000000;0,800000;0,800000;0,350000;0,200000;0,000000;0,000000;0,000000;0,000000;0,000000;0,000000;0,000000;0,000000;0,000000;0,000000;0,000000;0,000000;0,000000;0,000000;0,000000;0,000000;0,000000;0,000000;0,000000;0,000000;0,000000;0,000000;0,000000;0,000000;0,000000;0,000000;0,000000;0,000000;0,000000;0,000000;0,000000;0,000000;0,000000;0,000000;0,000000;0,000000;0,000000;0,000000;0,000000;0,000000;0,000000;0,000000;0,000000;0,000000;0,225000;0,000000;0,000000;0,000000;0,000000;0,000000;0,000000;0,000000;0,000000;0,000000;0,000000;0,000000;0,000000;0,000000;0,200000;0,200000;0,000000;0,000000;0,000000;0,300000;0,000000;0,000000;0,000000;0,000000;0,000000;0,000000;0,000000;0,000000;0,000000;0,000000;0,000000;
59;;;;;;;;;;;;;;;;;;;;;;;;;;;;;;;;;;;;;;;;;;;;;;;;;;;;;;;;;;;1,000000;0,642159;0,418742;0,354133;0,000000;0,000000;0,000000;0,000000;0,000000;0,000000;0,000000;0,388889;0,388889;0,000000;0,479119;0,000000;0,000000;0,000000;0,388889;0,000000;0,000000;0,000000;0,000000;0,000000;0,000000;0,000000;0,000000;0,000000;0,000000;0,000000;0,000000;0,000000;0,000000;0,000000;0,000000;0,000000;0,000000;0,000000;0,000000;0,000000;0,000000;0,500000;0,000000;0,000000;0,000000;0,000000;0,000000;0,000000;0,233333;0,000000;0,000000;0,000000;0,000000;0,300000;0,300000;0,300000;0,000000;0,000000;0,000000;0,000000;0,000000;0,000000;0,368716;0,368716;0,000000;0,000000;0,000000;0,500000;0,000000;0,000000;0,000000;0,000000;0,000000;0,000000;0,500000;1,000000;0,000000;0,000000;0,000000;
60;;;;;;;;;;;;;;;;;;;;;;;;;;;;;;;;;;;;;;;;;;;;;;;;;;;;;;;;;;;;1,000000;0,533355;0,800000;0,000000;0,000000;0,000000;0,000000;0,000000;0,000000;0,000000;0,288889;0,288889;0,288889;0,449344;0,000000;0,000000;0,000000;0,288889;0,200000;0,000000;0,000000;0,200000;0,000000;0,000000;0,000000;0,000000;0,000000;0,000000;0,216667;0,000000;0,000000;0,000000;0,000000;0,000000;0,000000;0,230037;0,233333;0,466667;0,233333;0,233333;0,350000;0,233333;0,233333;0,000000;0,000000;0,000000;0,000000;0,233333;0,000000;0,000000;0,000000;0,000000;0,200000;0,200000;0,200000;0,200000;0,200000;0,000000;0,000000;0,000000;0,000000;0,501086;0,501086;0,288889;0,288889;0,200000;0,486582;0,000000;0,000000;0,000000;0,000000;0,000000;0,000000;0,400000;0,400000;0,000000;0,000000;0,000000;
61;;;;;;;;;;;;;;;;;;;;;;;;;;;;;;;;;;;;;;;;;;;;;;;;;;;;;;;;;;;;;1,000000;0,725769;0,270833;0,270833;0,270833;0,270833;0,233333;0,233333;0,233333;0,300000;0,300000;0,587857;0,506951;0,395833;0,458333;0,458333;0,578484;0,268031;0,233333;0,233333;0,268031;0,233333;0,270833;0,270833;0,270833;0,000000;0,000000;0,221429;0,458333;0,458333;0,462857;0,462857;0,000000;0,833333;0,350340;0,237500;0,656380;0,437572;0,437572;0,391289;0,437572;0,437572;0,000000;0,000000;0,000000;0,587857;0,270833;0,333333;0,333333;0,333333;0,333333;0,200000;0,200000;0,200000;0,362572;0,362572;0,000000;0,000000;0,000000;0,000000;0,716827;0,716827;0,561835;0,561835;0,298592;0,380000;0,000000;0,270833;0,000000;0,000000;0,000000;0,000000;0,425000;0,425000;0,333333;0,333333;0,333333;
62;;;;;;;;;;;;;;;;;;;;;;;;;;;;;;;;;;;;;;;;;;;;;;;;;;;;;;;;;;;;;;1,000000;0,000000;0,000000;0,000000;0,000000;0,000000;0,000000;0,000000;0,266667;0,266667;0,266667;0,427756;0,000000;0,000000;0,000000;0,266667;0,200000;0,000000;0,000000;0,200000;0,000000;0,000000;0,000000;0,000000;0,000000;0,000000;0,210000;0,000000;0,000000;0,000000;0,000000;0,000000;0,000000;0,218773;0,225000;0,450000;0,225000;0,225000;0,300000;0,225000;0,225000;0,000000;0,000000;0,000000;0,000000;0,000000;0,000000;0,000000;0,000000;0,000000;0,200000;0,200000;0,200000;0,200000;0,200000;0,000000;0,000000;0,000000;0,000000;0,400000;0,400000;0,266667;0,266667;0,200000;0,300000;0,000000;0,000000;0,000000;0,000000;0,000000;0,000000;0,350000;0,350000;0,000000;0,000000;0,000000;
63;;;;;;;;;;;;;;;;;;;;;;;;;;;;;;;;;;;;;;;;;;;;;;;;;;;;;;;;;;;;;;;1,000000;0,750000;0,750000;0,750000;0,225000;0,225000;0,225000;0,000000;0,000000;0,291667;0,272727;0,291667;0,375000;0,375000;0,000000;0,241388;0,225000;0,225000;0,241388;0,225000;0,250000;0,250000;0,250000;0,000000;0,000000;0,000000;0,375000;0,375000;0,250000;0,250000;0,000000;0,625000;0,259643;0,000000;0,250000;0,250000;0,250000;0,333333;0,250000;0,250000;0,000000;0,000000;0,000000;0,291667;0,250000;0,291667;0,291667;0,291667;0,291667;0,000000;0,000000;0,000000;0,225000;0,225000;0,000000;0,000000;0,000000;0,000000;0,000000;0,000000;0,291667;0,291667;0,241242;0,000000;0,000000;0,250000;0,000000;0,000000;0,000000;0,000000;0,000000;0,000000;0,291667;0,291667;0,291667;
64;;;;;;;;;;;;;;;;;;;;;;;;;;;;;;;;;;;;;;;;;;;;;;;;;;;;;;;;;;;;;;;;1,000000;0,750000;0,750000;0,225000;0,225000;0,225000;0,000000;0,000000;0,291667;0,272727;0,291667;0,375000;0,375000;0,000000;0,241388;0,225000;0,225000;0,241388;0,225000;0,250000;0,250000;0,250000;0,000000;0,000000;0,000000;0,375000;0,375000;0,250000;0,250000;0,000000;0,625000;0,259643;0,000000;0,250000;0,250000;0,250000;0,333333;0,250000;0,250000;0,000000;0,000000;0,000000;0,291667;0,250000;0,291667;0,291667;0,291667;0,291667;0,000000;0,000000;0,000000;0,225000;0,225000;0,000000;0,000000;0,000000;0,000000;0,000000;0,000000;0,291667;0,291667;0,241242;0,000000;0,000000;0,250000;0,000000;0,000000;0,000000;0,000000;0,000000;0,000000;0,291667;0,291667;0,291667;
65;;;;;;;;;;;;;;;;;;;;;;;;;;;;;;;;;;;;;;;;;;;;;;;;;;;;;;;;;;;;;;;;;1,000000;0,750000;0,225000;0,225000;0,225000;0,000000;0,000000;0,291667;0,272727;0,291667;0,375000;0,375000;0,000000;0,241388;0,225000;0,225000;0,241388;0,225000;0,250000;0,250000;0,250000;0,000000;0,000000;0,000000;0,375000;0,375000;0,250000;0,250000;0,000000;0,625000;0,259643;0,000000;0,250000;0,250000;0,250000;0,333333;0,250000;0,250000;0,000000;0,000000;0,000000;0,291667;0,250000;0,291667;0,291667;0,291667;0,291667;0,000000;0,000000;0,000000;0,225000;0,225000;0,000000;0,000000;0,000000;0,000000;0,000000;0,000000;0,291667;0,291667;0,241242;0,000000;0,000000;0,250000;0,000000;0,000000;0,000000;0,000000;0,000000;0,000000;0,291667;0,291667;0,291667;
66;;;;;;;;;;;;;;;;;;;;;;;;;;;;;;;;;;;;;;;;;;;;;;;;;;;;;;;;;;;;;;;;;;1,000000;0,225000;0,225000;0,225000;0,000000;0,000000;0,291667;0,272727;0,291667;0,375000;0,375000;0,000000;0,241388;0,225000;0,225000;0,241388;0,225000;0,250000;0,250000;0,250000;0,000000;0,000000;0,000000;0,375000;0,375000;0,250000;0,250000;0,000000;0,625000;0,259643;0,000000;0,250000;0,250000;0,250000;0,333333;0,250000;0,250000;0,000000;0,000000;0,000000;0,291667;0,250000;0,291667;0,291667;0,291667;0,291667;0,000000;0,000000;0,000000;0,225000;0,225000;0,000000;0,000000;0,000000;0,000000;0,000000;0,000000;0,291667;0,291667;0,241242;0,000000;0,000000;0,250000;0,000000;0,000000;0,000000;0,000000;0,000000;0,000000;0,291667;0,291667;0,291667;
67;;;;;;;;;;;;;;;;;;;;;;;;;;;;;;;;;;;;;;;;;;;;;;;;;;;;;;;;;;;;;;;;;;;1,000000;0,800000;0,800000;0,000000;0,000000;0,266667;0,228977;0,250000;0,350000;0,350000;0,000000;0,203888;0,200000;0,200000;0,203888;0,200000;0,450000;0,450000;0,450000;0,266667;0,266667;0,226667;0,350000;0,350000;0,225000;0,225000;0,000000;0,600000;0,222143;0,000000;0,225000;0,225000;0,225000;0,300000;0,225000;0,225000;0,000000;0,000000;0,000000;0,266667;0,225000;0,266667;0,266667;0,266667;0,266667;0,000000;0,000000;0,000000;0,200000;0,200000;0,000000;0,000000;0,000000;0,000000;0,000000;0,000000;0,266667;0,266667;0,207909;0,000000;0,000000;0,225000;0,000000;0,000000;0,000000;0,000000;0,000000;0,000000;0,266667;0,266667;0,266667;
68;;;;;;;;;;;;;;;;;;;;;;;;;;;;;;;;;;;;;;;;;;;;;;;;;;;;;;;;;;;;;;;;;;;;1,000000;0,800000;0,000000;0,000000;0,266667;0,228977;0,250000;0,350000;0,350000;0,000000;0,203888;0,200000;0,200000;0,203888;0,200000;0,450000;0,450000;0,450000;0,266667;0,266667;0,226667;0,350000;0,350000;0,225000;0,225000;0,000000;0,600000;0,222143;0,000000;0,225000;0,225000;0,225000;0,300000;0,225000;0,225000;0,000000;0,000000;0,000000;0,266667;0,225000;0,266667;0,266667;0,266667;0,266667;0,000000;0,000000;0,000000;0,200000;0,200000;0,000000;0,000000;0,000000;0,000000;0,000000;0,000000;0,266667;0,266667;0,207909;0,000000;0,000000;0,225000;0,000000;0,000000;0,000000;0,000000;0,000000;0,000000;0,266667;0,266667;0,266667;
69;;;;;;;;;;;;;;;;;;;;;;;;;;;;;;;;;;;;;;;;;;;;;;;;;;;;;;;;;;;;;;;;;;;;;1,000000;0,000000;0,000000;0,266667;0,228977;0,250000;0,350000;0,350000;0,000000;0,203888;0,200000;0,200000;0,203888;0,200000;0,450000;0,450000;0,450000;0,266667;0,266667;0,226667;0,350000;0,350000;0,225000;0,225000;0,000000;0,600000;0,222143;0,000000;0,225000;0,225000;0,225000;0,300000;0,225000;0,225000;0,000000;0,000000;0,000000;0,266667;0,225000;0,266667;0,266667;0,266667;0,266667;0,000000;0,000000;0,000000;0,200000;0,200000;0,000000;0,000000;0,000000;0,000000;0,000000;0,000000;0,266667;0,266667;0,207909;0,000000;0,000000;0,225000;0,000000;0,000000;0,000000;0,000000;0,000000;0,000000;0,266667;0,266667;0,266667;
70;;;;;;;;;;;;;;;;;;;;;;;;;;;;;;;;;;;;;;;;;;;;;;;;;;;;;;;;;;;;;;;;;;;;;;1,000000;0,666667;0,000000;0,342421;0,000000;0,000000;0,000000;0,333333;0,000000;0,000000;0,000000;0,000000;0,000000;0,000000;0,000000;0,000000;0,000000;0,000000;0,000000;0,000000;0,000000;0,000000;0,000000;0,000000;0,000000;0,000000;0,000000;0,000000;0,000000;0,000000;0,388889;0,000000;0,000000;0,000000;0,000000;0,000000;0,000000;0,000000;0,000000;0,000000;0,000000;0,000000;0,533333;0,533333;0,533333;0,000000;0,000000;0,000000;0,000000;0,000000;0,000000;0,266667;0,266667;0,000000;0,000000;0,000000;0,388889;0,000000;0,000000;0,000000;0,000000;0,000000;0,000000;0,416667;0,416667;0,000000;0,000000;0,000000;
71;;;;;;;;;;;;;;;;;;;;;;;;;;;;;;;;;;;;;;;;;;;;;;;;;;;;;;;;;;;;;;;;;;;;;;;1,000000;0,000000;0,342421;0,000000;0,000000;0,000000;0,333333;0,000000;0,000000;0,000000;0,000000;0,000000;0,000000;0,000000;0,000000;0,000000;0,000000;0,000000;0,000000;0,000000;0,000000;0,000000;0,000000;0,000000;0,000000;0,000000;0,000000;0,000000;0,000000;0,388889;0,000000;0,000000;0,000000;0,000000;0,000000;0,000000;0,000000;0,000000;0,000000;0,000000;0,000000;0,533333;0,533333;0,533333;0,000000;0,000000;0,000000;0,000000;0,000000;0,000000;0,266667;0,266667;0,000000;0,000000;0,000000;0,388889;0,000000;0,000000;0,000000;0,000000;0,000000;0,000000;0,416667;0,416667;0,000000;0,000000;0,000000;
72;;;;;;;;;;;;;;;;;;;;;;;;;;;;;;;;;;;;;;;;;;;;;;;;;;;;;;;;;;;;;;;;;;;;;;;;1,000000;0,639681;0,361111;0,416667;0,416667;0,333333;0,303888;0,266667;0,266667;0,303888;0,266667;0,291667;0,291667;0,291667;0,000000;0,000000;0,000000;0,416667;0,416667;0,583333;0,583333;0,000000;0,666667;0,322143;0,000000;0,291667;0,291667;0,291667;0,388889;0,291667;0,291667;0,000000;0,000000;0,000000;0,666667;0,291667;0,333333;0,333333;0,333333;0,333333;0,000000;0,000000;0,000000;0,266667;0,266667;0,000000;0,000000;0,000000;0,000000;0,533333;0,533333;0,333333;0,333333;0,296798;0,000000;0,000000;0,291667;0,000000;0,000000;0,000000;0,000000;0,000000;0,000000;0,333333;0,333333;0,333333;
73;;;;;;;;;;;;;;;;;;;;;;;;;;;;;;;;;;;;;;;;;;;;;;;;;;;;;;;;;;;;;;;;;;;;;;;;;1,000000;0,471591;0,491477;0,491477;0,638841;0,335832;0,228977;0,228977;0,335832;0,228977;0,272727;0,272727;0,272727;0,000000;0,000000;0,000000;0,491477;0,491477;0,719888;0,719888;0,000000;0,928977;0,331545;0,000000;0,493220;0,272727;0,272727;0,710018;0,272727;0,272727;0,000000;0,000000;0,000000;0,639681;0,272727;0,345644;0,345644;0,345644;0,345644;0,225754;0,225754;0,225754;0,228977;0,228977;0,000000;0,000000;0,000000;0,000000;0,405508;0,405508;0,639053;0,639053;0,357870;0,479119;0,000000;0,272727;0,000000;0,000000;0,000000;0,000000;0,488254;0,488254;0,345644;0,345644;0,345644;
74;;;;;;;;;;;;;;;;;;;;;;;;;;;;;;;;;;;;;;;;;;;;;;;;;;;;;;;;;;;;;;;;;;;;;;;;;;1,000000;0,500000;0,500000;0,361111;0,322221;0,250000;0,250000;0,322221;0,250000;0,291667;0,291667;0,291667;0,000000;0,000000;0,000000;0,500000;0,500000;0,568335;0,568335;0,000000;0,916667;0,367856;0,000000;0,291667;0,291667;0,291667;0,500000;0,291667;0,291667;0,000000;0,000000;0,000000;0,361111;0,291667;0,361111;0,361111;0,361111;0,361111;0,000000;0,000000;0,000000;0,250000;0,250000;0,000000;0,000000;0,000000;0,000000;0,000000;0,000000;0,361111;0,361111;0,302662;0,000000;0,000000;0,291667;0,000000;0,000000;0,000000;0,000000;0,500000;0,000000;0,361111;0,361111;0,361111;
75;;;;;;;;;;;;;;;;;;;;;;;;;;;;;;;;;;;;;;;;;;;;;;;;;;;;;;;;;;;;;;;;;;;;;;;;;;;1,000000;0,500000;0,000000;0,428888;0,350000;0,350000;0,428888;0,350000;0,375000;0,375000;0,375000;0,000000;0,000000;0,000000;0,500000;0,500000;0,375000;0,375000;0,000000;0,750000;0,447143;0,000000;0,375000;0,375000;0,375000;0,500000;0,375000;0,375000;0,000000;0,000000;0,000000;0,416667;0,375000;0,416667;0,416667;0,416667;0,416667;0,000000;0,000000;0,000000;0,350000;0,350000;0,000000;0,000000;0,000000;0,000000;0,000000;0,000000;0,416667;0,416667;0,407909;0,000000;0,000000;0,375000;0,000000;0,000000;0,000000;0,000000;0,000000;0,000000;0,416667;0,416667;0,416667;
76;;;;;;;;;;;;;;;;;;;;;;;;;;;;;;;;;;;;;;;;;;;;;;;;;;;;;;;;;;;;;;;;;;;;;;;;;;;;1,000000;0,000000;0,428888;0,350000;0,350000;0,428888;0,350000;0,375000;0,375000;0,375000;0,000000;0,000000;0,000000;0,500000;0,500000;0,375000;0,375000;0,000000;0,750000;0,447143;0,000000;0,375000;0,375000;0,375000;0,500000;0,375000;0,375000;0,000000;0,000000;0,000000;0,416667;0,375000;0,416667;0,416667;0,416667;0,416667;0,000000;0,000000;0,000000;0,350000;0,350000;0,000000;0,000000;0,000000;0,000000;0,000000;0,000000;0,416667;0,416667;0,407909;0,000000;0,000000;0,375000;0,000000;0,000000;0,000000;0,000000;0,000000;0,000000;0,416667;0,416667;0,416667;
77;;;;;;;;;;;;;;;;;;;;;;;;;;;;;;;;;;;;;;;;;;;;;;;;;;;;;;;;;;;;;;;;;;;;;;;;;;;;;1,000000;0,000000;0,000000;0,000000;0,000000;0,000000;0,000000;0,000000;0,000000;0,000000;0,000000;0,000000;0,000000;0,000000;0,583333;0,583333;0,000000;0,000000;0,000000;0,000000;0,000000;0,000000;0,000000;0,388889;0,000000;0,000000;0,000000;0,000000;0,000000;0,333333;0,000000;0,000000;0,000000;0,000000;0,000000;0,266667;0,266667;0,266667;0,000000;0,000000;0,000000;0,000000;0,000000;0,000000;0,533333;0,533333;0,000000;0,000000;0,000000;0,388889;0,000000;0,000000;0,000000;0,000000;0,000000;0,000000;0,416667;0,416667;0,000000;0,000000;0,000000;
78;;;;;;;;;;;;;;;;;;;;;;;;;;;;;;;;;;;;;;;;;;;;;;;;;;;;;;;;;;;;;;;;;;;;;;;;;;;;;;1,000000;0,745911;0,745911;0,784838;0,745911;0,241388;0,241388;0,241388;0,000000;0,000000;0,000000;0,428888;0,428888;0,241388;0,241388;0,425000;0,803888;0,252062;0,000000;0,447180;0,241388;0,241388;0,386222;0,241388;0,241388;0,000000;0,000000;0,000000;0,303888;0,241388;0,303888;0,303888;0,303888;0,303888;0,000000;0,000000;0,000000;0,203888;0,203888;0,000000;0,000000;0,000000;0,000000;0,000000;0,000000;0,572180;0,572180;0,727536;0,000000;0,000000;0,708410;0,000000;0,000000;0,000000;0,000000;0,000000;0,000000;0,303888;0,303888;0,303888;
79;;;;;;;;;;;;;;;;;;;;;;;;;;;;;;;;;;;;;;;;;;;;;;;;;;;;;;;;;;;;;;;;;;;;;;;;;;;;;;;1,000000;0,800000;0,745911;0,800000;0,225000;0,225000;0,225000;0,000000;0,000000;0,000000;0,350000;0,350000;0,225000;0,225000;0,000000;0,600000;0,222143;0,000000;0,225000;0,225000;0,225000;0,300000;0,225000;0,225000;0,000000;0,000000;0,000000;0,266667;0,225000;0,266667;0,266667;0,266667;0,266667;0,000000;0,000000;0,000000;0,200000;0,200000;0,000000;0,000000;0,000000;0,000000;0,000000;0,000000;0,266667;0,266667;0,623727;0,000000;0,000000;0,675000;0,000000;0,000000;0,000000;0,000000;0,000000;0,000000;0,266667;0,266667;0,266667;
80;;;;;;;;;;;;;;;;;;;;;;;;;;;;;;;;;;;;;;;;;;;;;;;;;;;;;;;;;;;;;;;;;;;;;;;;;;;;;;;;1,000000;0,745911;0,800000;0,225000;0,225000;0,225000;0,000000;0,000000;0,000000;0,350000;0,350000;0,225000;0,225000;0,000000;0,600000;0,222143;0,000000;0,225000;0,225000;0,225000;0,300000;0,225000;0,225000;0,000000;0,000000;0,000000;0,266667;0,225000;0,266667;0,266667;0,266667;0,266667;0,000000;0,000000;0,000000;0,200000;0,200000;0,000000;0,000000;0,000000;0,000000;0,000000;0,000000;0,266667;0,266667;0,623727;0,000000;0,000000;0,675000;0,000000;0,000000;0,000000;0,000000;0,000000;0,000000;0,266667;0,266667;0,266667;
81;;;;;;;;;;;;;;;;;;;;;;;;;;;;;;;;;;;;;;;;;;;;;;;;;;;;;;;;;;;;;;;;;;;;;;;;;;;;;;;;;1,000000;0,745911;0,241388;0,241388;0,241388;0,000000;0,000000;0,000000;0,428888;0,428888;0,241388;0,241388;0,425000;0,803888;0,252062;0,000000;0,447180;0,241388;0,241388;0,386222;0,241388;0,241388;0,000000;0,000000;0,000000;0,303888;0,241388;0,303888;0,303888;0,303888;0,303888;0,000000;0,000000;0,000000;0,203888;0,203888;0,000000;0,000000;0,000000;0,000000;0,000000;0,000000;0,572180;0,572180;0,727536;0,000000;0,000000;0,708410;0,000000;0,000000;0,000000;0,000000;0,000000;0,000000;0,303888;0,303888;0,303888;
82;;;;;;;;;;;;;;;;;;;;;;;;;;;;;;;;;;;;;;;;;;;;;;;;;;;;;;;;;;;;;;;;;;;;;;;;;;;;;;;;;;1,000000;0,225000;0,225000;0,225000;0,000000;0,000000;0,000000;0,350000;0,350000;0,225000;0,225000;0,000000;0,600000;0,222143;0,000000;0,225000;0,225000;0,225000;0,300000;0,225000;0,225000;0,000000;0,000000;0,000000;0,266667;0,225000;0,266667;0,266667;0,266667;0,266667;0,000000;0,000000;0,000000;0,200000;0,200000;0,000000;0,000000;0,000000;0,000000;0,000000;0,000000;0,266667;0,266667;0,623727;0,000000;0,000000;0,675000;0,000000;0,000000;0,000000;0,000000;0,000000;0,000000;0,266667;0,266667;0,266667;
83;;;;;;;;;;;;;;;;;;;;;;;;;;;;;;;;;;;;;;;;;;;;;;;;;;;;;;;;;;;;;;;;;;;;;;;;;;;;;;;;;;;1,000000;0,750000;0,750000;0,000000;0,000000;0,000000;0,375000;0,375000;0,250000;0,250000;0,000000;0,625000;0,259643;0,000000;0,250000;0,250000;0,250000;0,333333;0,250000;0,250000;0,000000;0,000000;0,000000;0,291667;0,250000;0,291667;0,291667;0,291667;0,291667;0,000000;0,000000;0,000000;0,225000;0,225000;0,000000;0,000000;0,000000;0,000000;0,000000;0,000000;0,291667;0,291667;0,241242;0,000000;0,000000;0,250000;0,000000;0,000000;0,000000;0,000000;0,000000;0,000000;0,291667;0,291667;0,291667;
84;;;;;;;;;;;;;;;;;;;;;;;;;;;;;;;;;;;;;;;;;;;;;;;;;;;;;;;;;;;;;;;;;;;;;;;;;;;;;;;;;;;;1,000000;0,750000;0,000000;0,000000;0,000000;0,375000;0,375000;0,250000;0,250000;0,000000;0,625000;0,259643;0,000000;0,250000;0,250000;0,250000;0,333333;0,250000;0,250000;0,000000;0,000000;0,000000;0,291667;0,250000;0,291667;0,291667;0,291667;0,291667;0,000000;0,000000;0,000000;0,225000;0,225000;0,000000;0,000000;0,000000;0,000000;0,000000;0,000000;0,291667;0,291667;0,241242;0,000000;0,000000;0,250000;0,000000;0,000000;0,000000;0,000000;0,000000;0,000000;0,291667;0,291667;0,291667;
85;;;;;;;;;;;;;;;;;;;;;;;;;;;;;;;;;;;;;;;;;;;;;;;;;;;;;;;;;;;;;;;;;;;;;;;;;;;;;;;;;;;;;1,000000;0,000000;0,000000;0,000000;0,375000;0,375000;0,250000;0,250000;0,000000;0,625000;0,259643;0,000000;0,250000;0,250000;0,250000;0,333333;0,250000;0,250000;0,000000;0,000000;0,000000;0,291667;0,250000;0,291667;0,291667;0,291667;0,291667;0,000000;0,000000;0,000000;0,225000;0,225000;0,000000;0,000000;0,000000;0,000000;0,000000;0,000000;0,291667;0,291667;0,241242;0,000000;0,000000;0,250000;0,000000;0,000000;0,000000;0,000000;0,000000;0,000000;0,291667;0,291667;0,291667;
86;;;;;;;;;;;;;;;;;;;;;;;;;;;;;;;;;;;;;;;;;;;;;;;;;;;;;;;;;;;;;;;;;;;;;;;;;;;;;;;;;;;;;;1,000000;0,666667;0,666667;0,000000;0,000000;0,000000;0,000000;0,000000;0,000000;0,312500;0,291667;0,000000;0,000000;0,000000;0,000000;0,000000;0,000000;0,000000;0,000000;0,000000;0,000000;0,000000;0,000000;0,000000;0,000000;0,000000;0,000000;0,000000;0,000000;0,000000;0,000000;0,291667;0,291667;0,291667;0,291667;0,000000;0,000000;0,000000;0,000000;0,000000;0,000000;0,666667;0,000000;0,000000;0,000000;0,000000;0,000000;0,000000;0,000000;0,000000;0,000000;0,000000;
87;;;;;;;;;;;;;;;;;;;;;;;;;;;;;;;;;;;;;;;;;;;;;;;;;;;;;;;;;;;;;;;;;;;;;;;;;;;;;;;;;;;;;;;1,000000;0,666667;0,000000;0,000000;0,000000;0,000000;0,000000;0,000000;0,312500;0,291667;0,000000;0,000000;0,000000;0,000000;0,000000;0,000000;0,000000;0,000000;0,000000;0,000000;0,000000;0,000000;0,000000;0,000000;0,000000;0,000000;0,000000;0,000000;0,000000;0,000000;0,291667;0,291667;0,291667;0,291667;0,000000;0,000000;0,000000;0,000000;0,000000;0,000000;0,666667;0,000000;0,000000;0,000000;0,000000;0,000000;0,000000;0,000000;0,000000;0,000000;0,000000;
88;;;;;;;;;;;;;;;;;;;;;;;;;;;;;;;;;;;;;;;;;;;;;;;;;;;;;;;;;;;;;;;;;;;;;;;;;;;;;;;;;;;;;;;;1,000000;0,000000;0,000000;0,000000;0,000000;0,000000;0,000000;0,649358;0,750000;0,500000;0,500000;0,500000;0,000000;0,250000;0,250000;0,000000;0,000000;0,000000;0,000000;0,000000;0,000000;0,000000;0,000000;0,000000;0,000000;0,000000;0,000000;0,210000;0,210000;0,750000;0,750000;0,750000;0,750000;0,000000;0,000000;0,000000;0,000000;0,000000;0,000000;0,000000;0,000000;0,000000;0,000000;0,000000;0,000000;0,000000;0,000000;0,000000;0,000000;0,000000;
89;;;;;;;;;;;;;;;;;;;;;;;;;;;;;;;;;;;;;;;;;;;;;;;;;;;;;;;;;;;;;;;;;;;;;;;;;;;;;;;;;;;;;;;;;1,000000;0,500000;0,375000;0,375000;0,000000;0,750000;0,447143;0,000000;0,375000;0,375000;0,375000;0,500000;0,375000;0,375000;0,000000;0,000000;0,000000;0,416667;0,375000;0,416667;0,416667;0,416667;0,416667;0,000000;0,000000;0,000000;0,350000;0,350000;0,000000;0,000000;0,000000;0,000000;0,000000;0,000000;0,416667;0,416667;0,407909;0,000000;0,000000;0,375000;0,000000;0,000000;0,000000;0,000000;0,000000;0,000000;0,416667;0,416667;0,416667;
90;;;;;;;;;;;;;;;;;;;;;;;;;;;;;;;;;;;;;;;;;;;;;;;;;;;;;;;;;;;;;;;;;;;;;;;;;;;;;;;;;;;;;;;;;;1,000000;0,375000;0,375000;0,000000;0,750000;0,447143;0,000000;0,375000;0,375000;0,375000;0,500000;0,375000;0,375000;0,000000;0,000000;0,000000;0,416667;0,375000;0,416667;0,416667;0,416667;0,416667;0,000000;0,000000;0,000000;0,350000;0,350000;0,000000;0,000000;0,000000;0,000000;0,000000;0,000000;0,416667;0,416667;0,407909;0,000000;0,000000;0,375000;0,000000;0,000000;0,000000;0,000000;0,000000;0,000000;0,416667;0,416667;0,416667;
91;;;;;;;;;;;;;;;;;;;;;;;;;;;;;;;;;;;;;;;;;;;;;;;;;;;;;;;;;;;;;;;;;;;;;;;;;;;;;;;;;;;;;;;;;;;1,000000;0,750000;0,000000;0,625000;0,259643;0,000000;0,250000;0,250000;0,250000;0,333333;0,250000;0,250000;0,000000;0,000000;0,000000;0,583333;0,250000;0,291667;0,291667;0,291667;0,291667;0,000000;0,000000;0,000000;0,225000;0,225000;0,000000;0,000000;0,000000;0,000000;0,225000;0,225000;0,291667;0,291667;0,241242;0,000000;0,000000;0,250000;0,000000;0,000000;0,000000;0,000000;0,000000;0,000000;0,291667;0,291667;0,291667;
92;;;;;;;;;;;;;;;;;;;;;;;;;;;;;;;;;;;;;;;;;;;;;;;;;;;;;;;;;;;;;;;;;;;;;;;;;;;;;;;;;;;;;;;;;;;;1,000000;0,000000;0,625000;0,259643;0,000000;0,250000;0,250000;0,250000;0,333333;0,250000;0,250000;0,000000;0,000000;0,000000;0,583333;0,250000;0,291667;0,291667;0,291667;0,291667;0,000000;0,000000;0,000000;0,225000;0,225000;0,000000;0,000000;0,000000;0,000000;0,225000;0,225000;0,291667;0,291667;0,241242;0,000000;0,000000;0,250000;0,000000;0,000000;0,000000;0,000000;0,000000;0,000000;0,291667;0,291667;0,291667;
93;;;;;;;;;;;;;;;;;;;;;;;;;;;;;;;;;;;;;;;;;;;;;;;;;;;;;;;;;;;;;;;;;;;;;;;;;;;;;;;;;;;;;;;;;;;;;1,000000;0,000000;0,000000;0,000000;0,000000;0,000000;0,000000;0,000000;0,000000;0,000000;0,000000;0,000000;0,000000;0,000000;0,000000;0,000000;0,000000;0,000000;0,000000;0,000000;0,000000;0,000000;0,000000;0,000000;0,000000;0,000000;0,000000;0,000000;0,000000;0,000000;0,000000;0,000000;0,400000;0,000000;0,000000;0,000000;0,000000;0,000000;0,000000;0,000000;0,000000;0,000000;0,000000;0,000000;0,000000;
94;;;;;;;;;;;;;;;;;;;;;;;;;;;;;;;;;;;;;;;;;;;;;;;;;;;;;;;;;;;;;;;;;;;;;;;;;;;;;;;;;;;;;;;;;;;;;;1,000000;0,822143;0,000000;0,625000;0,625000;0,625000;0,833333;0,625000;0,625000;0,000000;0,000000;0,000000;0,666667;0,625000;0,666667;0,666667;0,666667;0,666667;0,000000;0,000000;0,000000;0,600000;0,600000;0,000000;0,000000;0,000000;0,000000;0,000000;0,000000;0,666667;0,666667;0,741242;0,000000;0,000000;0,625000;0,000000;0,000000;0,000000;0,000000;0,000000;0,000000;0,666667;0,666667;0,666667;
95;;;;;;;;;;;;;;;;;;;;;;;;;;;;;;;;;;;;;;;;;;;;;;;;;;;;;;;;;;;;;;;;;;;;;;;;;;;;;;;;;;;;;;;;;;;;;;;1,000000;0,705206;0,723029;0,697429;0,697429;0,415428;0,487598;0,487598;0,000000;0,000000;0,000000;0,322143;0,259643;0,322143;0,322143;0,322143;0,322143;0,000000;0,000000;0,000000;0,412598;0,412598;0,250000;0,250000;0,250000;0,250000;0,000000;0,000000;0,322143;0,322143;0,249664;0,000000;0,812500;0,259643;0,000000;0,000000;0,000000;0,000000;0,000000;0,000000;0,322143;0,322143;0,322143;
96;;;;;;;;;;;;;;;;;;;;;;;;;;;;;;;;;;;;;;;;;;;;;;;;;;;;;;;;;;;;;;;;;;;;;;;;;;;;;;;;;;;;;;;;;;;;;;;;1,000000;0,500000;0,500000;0,500000;0,000000;0,250000;0,250000;0,000000;0,000000;0,000000;0,000000;0,000000;0,000000;0,000000;0,000000;0,000000;0,000000;0,000000;0,000000;0,225000;0,225000;0,250000;0,250000;0,250000;0,250000;0,000000;0,000000;0,000000;0,000000;0,000000;0,000000;0,625000;0,000000;0,000000;0,000000;0,000000;0,000000;0,000000;0,000000;0,000000;0,000000;0,000000;
97;;;;;;;;;;;;;;;;;;;;;;;;;;;;;;;;;;;;;;;;;;;;;;;;;;;;;;;;;;;;;;;;;;;;;;;;;;;;;;;;;;;;;;;;;;;;;;;;;1,000000;0,500000;0,500000;0,333333;0,500000;0,500000;0,000000;0,000000;0,000000;0,291667;0,250000;0,291667;0,291667;0,291667;0,291667;0,000000;0,000000;0,000000;0,450000;0,450000;0,000000;0,000000;0,000000;0,000000;0,000000;0,000000;0,583333;0,583333;0,444253;0,000000;0,000000;0,250000;0,000000;0,000000;0,000000;0,000000;0,000000;0,000000;0,291667;0,291667;0,291667;
98;;;;;;;;;;;;;;;;;;;;;;;;;;;;;;;;;;;;;;;;;;;;;;;;;;;;;;;;;;;;;;;;;;;;;;;;;;;;;;;;;;;;;;;;;;;;;;;;;;1,000000;0,750000;0,333333;0,500000;0,500000;0,000000;0,000000;0,000000;0,291667;0,250000;0,291667;0,291667;0,291667;0,291667;0,000000;0,000000;0,000000;0,450000;0,450000;0,000000;0,000000;0,000000;0,000000;0,000000;0,000000;0,291667;0,291667;0,241242;0,000000;0,000000;0,250000;0,000000;0,000000;0,000000;0,000000;0,000000;0,000000;0,291667;0,291667;0,291667;
99;;;;;;;;;;;;;;;;;;;;;;;;;;;;;;;;;;;;;;;;;;;;;;;;;;;;;;;;;;;;;;;;;;;;;;;;;;;;;;;;;;;;;;;;;;;;;;;;;;;1,000000;0,333333;0,500000;0,500000;0,000000;0,000000;0,000000;0,291667;0,250000;0,291667;0,291667;0,291667;0,291667;0,000000;0,000000;0,000000;0,450000;0,450000;0,000000;0,000000;0,000000;0,000000;0,000000;0,000000;0,291667;0,291667;0,241242;0,000000;0,000000;0,250000;0,000000;0,000000;0,000000;0,000000;0,000000;0,000000;0,291667;0,291667;0,291667;
100;;;;;;;;;;;;;;;;;;;;;;;;;;;;;;;;;;;;;;;;;;;;;;;;;;;;;;;;;;;;;;;;;;;;;;;;;;;;;;;;;;;;;;;;;;;;;;;;;;;;1,000000;0,333333;0,333333;0,000000;0,000000;0,000000;0,388889;0,333333;0,388889;0,388889;0,388889;0,388889;0,300000;0,300000;0,300000;0,300000;0,300000;0,000000;0,000000;0,000000;0,000000;0,300000;0,300000;0,388889;0,388889;0,361863;0,500000;0,000000;0,333333;0,000000;0,000000;0,000000;0,000000;0,500000;0,500000;0,388889;0,388889;0,388889;
101;;;;;;;;;;;;;;;;;;;;;;;;;;;;;;;;;;;;;;;;;;;;;;;;;;;;;;;;;;;;;;;;;;;;;;;;;;;;;;;;;;;;;;;;;;;;;;;;;;;;;1,000000;1,000000;0,000000;0,000000;0,000000;0,291667;0,750000;0,875000;0,291667;0,291667;0,291667;0,000000;0,000000;0,000000;0,450000;0,450000;0,000000;0,000000;0,000000;0,000000;0,000000;0,000000;0,291667;0,291667;0,241242;0,000000;0,000000;0,250000;0,000000;0,000000;0,000000;0,000000;0,000000;0,000000;0,291667;0,291667;0,291667;
102;;;;;;;;;;;;;;;;;;;;;;;;;;;;;;;;;;;;;;;;;;;;;;;;;;;;;;;;;;;;;;;;;;;;;;;;;;;;;;;;;;;;;;;;;;;;;;;;;;;;;;1,000000;0,000000;0,000000;0,000000;0,291667;0,750000;0,875000;0,291667;0,291667;0,291667;0,000000;0,000000;0,000000;0,450000;0,450000;0,000000;0,000000;0,000000;0,000000;0,000000;0,000000;0,291667;0,291667;0,241242;0,000000;0,000000;0,250000;0,000000;0,000000;0,000000;0,000000;0,000000;0,000000;0,291667;0,291667;0,291667;
103;;;;;;;;;;;;;;;;;;;;;;;;;;;;;;;;;;;;;;;;;;;;;;;;;;;;;;;;;;;;;;;;;;;;;;;;;;;;;;;;;;;;;;;;;;;;;;;;;;;;;;;1,000000;0,666667;0,666667;0,000000;0,000000;0,000000;0,000000;0,000000;0,000000;0,000000;0,000000;0,000000;0,000000;0,000000;0,000000;0,000000;0,000000;0,000000;0,000000;0,000000;0,000000;0,000000;0,000000;0,000000;0,000000;0,000000;0,000000;0,000000;0,000000;0,000000;0,000000;0,000000;0,000000;0,000000;0,000000;
104;;;;;;;;;;;;;;;;;;;;;;;;;;;;;;;;;;;;;;;;;;;;;;;;;;;;;;;;;;;;;;;;;;;;;;;;;;;;;;;;;;;;;;;;;;;;;;;;;;;;;;;;1,000000;0,666667;0,000000;0,000000;0,000000;0,000000;0,000000;0,000000;0,000000;0,000000;0,000000;0,000000;0,000000;0,000000;0,000000;0,000000;0,000000;0,000000;0,000000;0,000000;0,000000;0,000000;0,000000;0,000000;0,000000;0,000000;0,000000;0,000000;0,000000;0,000000;0,000000;0,000000;0,000000;0,000000;
105;;;;;;;;;;;;;;;;;;;;;;;;;;;;;;;;;;;;;;;;;;;;;;;;;;;;;;;;;;;;;;;;;;;;;;;;;;;;;;;;;;;;;;;;;;;;;;;;;;;;;;;;;1,000000;0,000000;0,000000;0,000000;0,000000;0,000000;0,000000;0,000000;0,000000;0,000000;0,000000;0,000000;0,000000;0,000000;0,000000;0,000000;0,000000;0,000000;0,000000;0,000000;0,000000;0,000000;0,000000;0,000000;0,000000;0,000000;0,000000;0,000000;0,000000;0,000000;0,000000;0,000000;0,000000;
106;;;;;;;;;;;;;;;;;;;;;;;;;;;;;;;;;;;;;;;;;;;;;;;;;;;;;;;;;;;;;;;;;;;;;;;;;;;;;;;;;;;;;;;;;;;;;;;;;;;;;;;;;;1,000000;0,291667;0,333333;0,333333;0,333333;0,333333;0,000000;0,000000;0,000000;0,266667;0,266667;0,000000;0,000000;0,000000;0,000000;0,266667;0,266667;0,333333;0,333333;0,296798;0,000000;0,000000;0,291667;0,000000;0,000000;0,000000;0,000000;0,000000;0,000000;0,333333;0,333333;0,333333;
107;;;;;;;;;;;;;;;;;;;;;;;;;;;;;;;;;;;;;;;;;;;;;;;;;;;;;;;;;;;;;;;;;;;;;;;;;;;;;;;;;;;;;;;;;;;;;;;;;;;;;;;;;;;1,000000;0,875000;0,291667;0,291667;0,291667;0,000000;0,000000;0,000000;0,225000;0,225000;0,000000;0,000000;0,000000;0,000000;0,000000;0,000000;0,291667;0,291667;0,241242;0,000000;0,000000;0,250000;0,000000;0,000000;0,000000;0,000000;0,000000;0,000000;0,291667;0,291667;0,291667;
108;;;;;;;;;;;;;;;;;;;;;;;;;;;;;;;;;;;;;;;;;;;;;;;;;;;;;;;;;;;;;;;;;;;;;;;;;;;;;;;;;;;;;;;;;;;;;;;;;;;;;;;;;;;;1,000000;0,333333;0,333333;0,333333;0,000000;0,000000;0,000000;0,266667;0,266667;0,000000;0,000000;0,000000;0,000000;0,000000;0,000000;0,333333;0,333333;0,296798;0,000000;0,000000;0,291667;0,000000;0,000000;0,000000;0,000000;0,000000;0,000000;0,333333;0,333333;0,333333;
109;;;;;;;;;;;;;;;;;;;;;;;;;;;;;;;;;;;;;;;;;;;;;;;;;;;;;;;;;;;;;;;;;;;;;;;;;;;;;;;;;;;;;;;;;;;;;;;;;;;;;;;;;;;;;1,000000;0,666667;0,666667;0,000000;0,000000;0,000000;0,266667;0,266667;0,000000;0,000000;0,000000;0,000000;0,000000;0,000000;0,333333;0,333333;0,296798;0,000000;0,000000;0,291667;0,000000;0,000000;0,000000;0,000000;0,000000;0,000000;0,333333;0,333333;0,333333;
110;;;;;;;;;;;;;;;;;;;;;;;;;;;;;;;;;;;;;;;;;;;;;;;;;;;;;;;;;;;;;;;;;;;;;;;;;;;;;;;;;;;;;;;;;;;;;;;;;;;;;;;;;;;;;;1,000000;0,666667;0,000000;0,000000;0,000000;0,266667;0,266667;0,000000;0,000000;0,000000;0,000000;0,000000;0,000000;0,333333;0,333333;0,296798;0,000000;0,000000;0,291667;0,000000;0,000000;0,000000;0,000000;0,000000;0,000000;0,333333;0,333333;0,333333;
111;;;;;;;;;;;;;;;;;;;;;;;;;;;;;;;;;;;;;;;;;;;;;;;;;;;;;;;;;;;;;;;;;;;;;;;;;;;;;;;;;;;;;;;;;;;;;;;;;;;;;;;;;;;;;;;1,000000;0,000000;0,000000;0,000000;0,266667;0,266667;0,000000;0,000000;0,000000;0,000000;0,000000;0,000000;0,333333;0,333333;0,296798;0,000000;0,000000;0,291667;0,000000;0,000000;0,000000;0,000000;0,000000;0,000000;0,333333;0,333333;0,333333;
112;;;;;;;;;;;;;;;;;;;;;;;;;;;;;;;;;;;;;;;;;;;;;;;;;;;;;;;;;;;;;;;;;;;;;;;;;;;;;;;;;;;;;;;;;;;;;;;;;;;;;;;;;;;;;;;;1,000000;0,800000;0,800000;0,000000;0,000000;0,000000;0,000000;0,000000;0,000000;0,200000;0,200000;0,000000;0,000000;0,000000;0,300000;0,000000;0,000000;0,000000;0,000000;0,000000;0,000000;0,350000;0,350000;0,000000;0,000000;0,000000;
113;;;;;;;;;;;;;;;;;;;;;;;;;;;;;;;;;;;;;;;;;;;;;;;;;;;;;;;;;;;;;;;;;;;;;;;;;;;;;;;;;;;;;;;;;;;;;;;;;;;;;;;;;;;;;;;;;1,000000;0,800000;0,000000;0,000000;0,000000;0,000000;0,000000;0,000000;0,200000;0,200000;0,000000;0,000000;0,000000;0,300000;0,000000;0,000000;0,000000;0,000000;0,000000;0,000000;0,350000;0,350000;0,000000;0,000000;0,000000;
114;;;;;;;;;;;;;;;;;;;;;;;;;;;;;;;;;;;;;;;;;;;;;;;;;;;;;;;;;;;;;;;;;;;;;;;;;;;;;;;;;;;;;;;;;;;;;;;;;;;;;;;;;;;;;;;;;;1,000000;0,000000;0,000000;0,000000;0,000000;0,000000;0,000000;0,200000;0,200000;0,000000;0,000000;0,000000;0,300000;0,000000;0,000000;0,000000;0,000000;0,000000;0,000000;0,350000;0,350000;0,000000;0,000000;0,000000;
115;;;;;;;;;;;;;;;;;;;;;;;;;;;;;;;;;;;;;;;;;;;;;;;;;;;;;;;;;;;;;;;;;;;;;;;;;;;;;;;;;;;;;;;;;;;;;;;;;;;;;;;;;;;;;;;;;;;1,000000;0,800000;0,000000;0,000000;0,000000;0,000000;0,000000;0,000000;0,266667;0,266667;0,207909;0,000000;0,000000;0,225000;0,000000;0,000000;0,000000;0,000000;0,000000;0,000000;0,266667;0,266667;0,266667;
116;;;;;;;;;;;;;;;;;;;;;;;;;;;;;;;;;;;;;;;;;;;;;;;;;;;;;;;;;;;;;;;;;;;;;;;;;;;;;;;;;;;;;;;;;;;;;;;;;;;;;;;;;;;;;;;;;;;;1,000000;0,000000;0,000000;0,000000;0,000000;0,000000;0,000000;0,266667;0,266667;0,207909;0,000000;0,000000;0,225000;0,000000;0,000000;0,000000;0,000000;0,000000;0,000000;0,266667;0,266667;0,266667;
117;;;;;;;;;;;;;;;;;;;;;;;;;;;;;;;;;;;;;;;;;;;;;;;;;;;;;;;;;;;;;;;;;;;;;;;;;;;;;;;;;;;;;;;;;;;;;;;;;;;;;;;;;;;;;;;;;;;;;1,000000;0,750000;0,750000;0,750000;0,000000;0,000000;0,000000;0,000000;0,000000;0,000000;0,625000;0,000000;0,000000;0,000000;0,000000;0,000000;0,000000;0,000000;0,000000;0,000000;0,000000;
118;;;;;;;;;;;;;;;;;;;;;;;;;;;;;;;;;;;;;;;;;;;;;;;;;;;;;;;;;;;;;;;;;;;;;;;;;;;;;;;;;;;;;;;;;;;;;;;;;;;;;;;;;;;;;;;;;;;;;;1,000000;0,750000;0,750000;0,000000;0,000000;0,000000;0,000000;0,000000;0,000000;0,625000;0,000000;0,000000;0,000000;0,000000;0,000000;0,000000;0,000000;0,000000;0,000000;0,000000;
119;;;;;;;;;;;;;;;;;;;;;;;;;;;;;;;;;;;;;;;;;;;;;;;;;;;;;;;;;;;;;;;;;;;;;;;;;;;;;;;;;;;;;;;;;;;;;;;;;;;;;;;;;;;;;;;;;;;;;;;1,000000;0,750000;0,000000;0,000000;0,000000;0,000000;0,000000;0,000000;0,625000;0,000000;0,000000;0,000000;0,000000;0,000000;0,000000;0,000000;0,000000;0,000000;0,000000;
120;;;;;;;;;;;;;;;;;;;;;;;;;;;;;;;;;;;;;;;;;;;;;;;;;;;;;;;;;;;;;;;;;;;;;;;;;;;;;;;;;;;;;;;;;;;;;;;;;;;;;;;;;;;;;;;;;;;;;;;;1,000000;0,000000;0,000000;0,000000;0,000000;0,000000;0,000000;0,625000;0,000000;0,000000;0,000000;0,000000;0,000000;0,000000;0,000000;0,000000;0,000000;0,000000;
121;;;;;;;;;;;;;;;;;;;;;;;;;;;;;;;;;;;;;;;;;;;;;;;;;;;;;;;;;;;;;;;;;;;;;;;;;;;;;;;;;;;;;;;;;;;;;;;;;;;;;;;;;;;;;;;;;;;;;;;;;1,000000;0,800000;0,000000;0,000000;0,000000;0,300000;0,000000;0,000000;0,000000;0,000000;0,000000;0,000000;0,350000;0,350000;0,000000;0,000000;0,000000;
122;;;;;;;;;;;;;;;;;;;;;;;;;;;;;;;;;;;;;;;;;;;;;;;;;;;;;;;;;;;;;;;;;;;;;;;;;;;;;;;;;;;;;;;;;;;;;;;;;;;;;;;;;;;;;;;;;;;;;;;;;;1,000000;0,000000;0,000000;0,000000;0,300000;0,000000;0,000000;0,000000;0,000000;0,000000;0,000000;0,350000;0,350000;0,000000;0,000000;0,000000;
123;;;;;;;;;;;;;;;;;;;;;;;;;;;;;;;;;;;;;;;;;;;;;;;;;;;;;;;;;;;;;;;;;;;;;;;;;;;;;;;;;;;;;;;;;;;;;;;;;;;;;;;;;;;;;;;;;;;;;;;;;;;1,000000;0,666667;0,555364;0,000000;0,000000;0,291667;0,000000;0,000000;0,000000;0,000000;0,000000;0,000000;0,333333;0,333333;0,333333;
124;;;;;;;;;;;;;;;;;;;;;;;;;;;;;;;;;;;;;;;;;;;;;;;;;;;;;;;;;;;;;;;;;;;;;;;;;;;;;;;;;;;;;;;;;;;;;;;;;;;;;;;;;;;;;;;;;;;;;;;;;;;;1,000000;0,555364;0,000000;0,000000;0,291667;0,000000;0,000000;0,000000;0,000000;0,000000;0,000000;0,333333;0,333333;0,333333;
125;;;;;;;;;;;;;;;;;;;;;;;;;;;;;;;;;;;;;;;;;;;;;;;;;;;;;;;;;;;;;;;;;;;;;;;;;;;;;;;;;;;;;;;;;;;;;;;;;;;;;;;;;;;;;;;;;;;;;;;;;;;;;1,000000;0,000000;0,000000;0,723727;0,000000;0,000000;0,000000;0,000000;0,000000;0,000000;0,296798;0,296798;0,296798;
126;;;;;;;;;;;;;;;;;;;;;;;;;;;;;;;;;;;;;;;;;;;;;;;;;;;;;;;;;;;;;;;;;;;;;;;;;;;;;;;;;;;;;;;;;;;;;;;;;;;;;;;;;;;;;;;;;;;;;;;;;;;;;;1,000000;0,000000;0,000000;0,000000;0,000000;0,000000;0,000000;0,500000;0,500000;0,000000;0,000000;0,000000;
127;;;;;;;;;;;;;;;;;;;;;;;;;;;;;;;;;;;;;;;;;;;;;;;;;;;;;;;;;;;;;;;;;;;;;;;;;;;;;;;;;;;;;;;;;;;;;;;;;;;;;;;;;;;;;;;;;;;;;;;;;;;;;;;1,000000;0,000000;0,000000;0,000000;0,000000;0,000000;0,000000;0,000000;0,000000;0,000000;0,000000;
128;;;;;;;;;;;;;;;;;;;;;;;;;;;;;;;;;;;;;;;;;;;;;;;;;;;;;;;;;;;;;;;;;;;;;;;;;;;;;;;;;;;;;;;;;;;;;;;;;;;;;;;;;;;;;;;;;;;;;;;;;;;;;;;;1,000000;0,000000;0,000000;0,000000;0,000000;0,000000;0,000000;0,291667;0,291667;0,291667;
129;;;;;;;;;;;;;;;;;;;;;;;;;;;;;;;;;;;;;;;;;;;;;;;;;;;;;;;;;;;;;;;;;;;;;;;;;;;;;;;;;;;;;;;;;;;;;;;;;;;;;;;;;;;;;;;;;;;;;;;;;;;;;;;;;1,000000;0,666667;0,666667;0,666667;0,000000;0,000000;0,000000;0,000000;0,000000;
130;;;;;;;;;;;;;;;;;;;;;;;;;;;;;;;;;;;;;;;;;;;;;;;;;;;;;;;;;;;;;;;;;;;;;;;;;;;;;;;;;;;;;;;;;;;;;;;;;;;;;;;;;;;;;;;;;;;;;;;;;;;;;;;;;;1,000000;0,666667;0,666667;0,000000;0,000000;0,000000;0,000000;0,000000;
131;;;;;;;;;;;;;;;;;;;;;;;;;;;;;;;;;;;;;;;;;;;;;;;;;;;;;;;;;;;;;;;;;;;;;;;;;;;;;;;;;;;;;;;;;;;;;;;;;;;;;;;;;;;;;;;;;;;;;;;;;;;;;;;;;;;1,000000;0,666667;0,000000;0,000000;0,000000;0,000000;0,000000;
132;;;;;;;;;;;;;;;;;;;;;;;;;;;;;;;;;;;;;;;;;;;;;;;;;;;;;;;;;;;;;;;;;;;;;;;;;;;;;;;;;;;;;;;;;;;;;;;;;;;;;;;;;;;;;;;;;;;;;;;;;;;;;;;;;;;;1,000000;0,000000;0,000000;0,000000;0,000000;0,000000;
133;;;;;;;;;;;;;;;;;;;;;;;;;;;;;;;;;;;;;;;;;;;;;;;;;;;;;;;;;;;;;;;;;;;;;;;;;;;;;;;;;;;;;;;;;;;;;;;;;;;;;;;;;;;;;;;;;;;;;;;;;;;;;;;;;;;;;1,000000;0,500000;0,000000;0,000000;0,000000;
134;;;;;;;;;;;;;;;;;;;;;;;;;;;;;;;;;;;;;;;;;;;;;;;;;;;;;;;;;;;;;;;;;;;;;;;;;;;;;;;;;;;;;;;;;;;;;;;;;;;;;;;;;;;;;;;;;;;;;;;;;;;;;;;;;;;;;;1,000000;0,000000;0,000000;0,000000;
135;;;;;;;;;;;;;;;;;;;;;;;;;;;;;;;;;;;;;;;;;;;;;;;;;;;;;;;;;;;;;;;;;;;;;;;;;;;;;;;;;;;;;;;;;;;;;;;;;;;;;;;;;;;;;;;;;;;;;;;;;;;;;;;;;;;;;;;1,000000;0,666667;0,666667;
136;;;;;;;;;;;;;;;;;;;;;;;;;;;;;;;;;;;;;;;;;;;;;;;;;;;;;;;;;;;;;;;;;;;;;;;;;;;;;;;;;;;;;;;;;;;;;;;;;;;;;;;;;;;;;;;;;;;;;;;;;;;;;;;;;;;;;;;;1,000000;0,666667;
137;;;;;;;;;;;;;;;;;;;;;;;;;;;;;;;;;;;;;;;;;;;;;;;;;;;;;;;;;;;;;;;;;;;;;;;;;;;;;;;;;;;;;;;;;;;;;;;;;;;;;;;;;;;;;;;;;;;;;;;;;;;;;;;;;;;;;;;;;1,000000;
