;1; 2; 3; 4; 5; 6; 7; 8; 9; 10; 11; 12; 13; 14; 15; 16; 17; 18; 19; 20; 21; 22; 23; 24; 25; 26; 27; 28; 29; 30; 31; 32; 33; 34; 35; 36; 37; 38; 39; 40; 41; 42; 43; 44; 45; 46; 47; 48; 49; 50; 51; 52; 53; 54; 55; 56; 57; 58; 59; 60; 61; 62; 63; 64; 65; 66; 67; 68; 69; 70; 71; 72; 73; 74; 75; 76; 77; 78; 79; 80; 81; 82; 83; 84; 85; 86; 87; 88; 89; 90; 91; 92; 93; 94; 95; 96; 97; 98; 99; 100; 101; 102; 103; 104; 105; 106; 107; 108; 109; 110; 111; 112; 113; 114; 115; 116; 117; 118; 119; 120; 121; 122; 123; 124; 125; 126; 127; 128; 129; 130; 131; 132; 133; 134; 135; 136; 137
1;1,000000;0,441715;0,436479;0,396467;0,439919;0,381995;0,377811;0,402760;0,376626;0,410419;0,413438;0,188528;0,262203;0,190095;0,397402;0,310741;0,192507;0,415311;0,416637;0,417864;0,419005;0,398678;0,539127;0,420826;0,393336;0,394371;0,437754;0,492771;0,439103;0,439728;0,440323;0,277101;0,166188;0,450327;0,450958;0,359635;0,388959;0,389606;0,402406;0,463002;0,463544;0,439571;0,461830;0,462235;0,462626;0,476329;0,476860;0,110338;0,182096;0,110631;0,110776;0,110921;0,230558;0,111209;0,436427;0,436743;0,437050;0,247110;0,185959;0,341505;0,344399;0,362646;0,439117;0,439345;0,439567;0,439785;0,448427;0,448639;0,448847;0,189778;0,189940;0,364625;0,357112;0,305130;0,384048;0,384325;0,373942;0,479280;0,452238;0,452403;0,479831;0,452724;0,439897;0,440074;0,440248;0,220317;0,220385;0,255623;0,387530;0,387751;0,433117;0,433292;0,275343;0,000000;0,405285;0,445910;0,438192;0,448874;0,449034;0,188915;0,443635;0,443826;0,000000;0,000000;0,000000;0,385218;0,428567;0,377072;0,428122;0,428251;0,428379;0,243591;0,243696;0,243801;0,475558;0,475665;0,000000;0,000000;0,000000;0,000000;0,358347;0,358433;0,414972;0,415111;0,466107;0,000000;0,000000;0,428910;0,000000;0,000000;0,000000;0,000000;0,356616;0,000000;0,431044;0,431141;0,431237;
2;;1,000000;0,467675;0,502375;0,432116;0,476366;0,129717;0,111021;0,220672;0,112448;0,113144;0,180909;0,327998;0,182540;0,187499;0,318092;0,185020;0,142515;0,142844;0,143176;0,143510;0,515707;0,474537;0,366939;0,287373;0,287829;0,259251;0,317464;0,259916;0,260251;0,260587;0,275990;0,159583;0,493460;0,494089;0,307266;0,190901;0,191056;0,443855;0,543132;0,543685;0,528897;0,515588;0,515990;0,516380;0,451087;0,451488;0,000000;0,070840;0,000000;0,000000;0,000000;0,208461;0,000000;0,305746;0,305864;0,305982;0,143072;0,180650;0,256436;0,344245;0,427792;0,164851;0,164940;0,165030;0,165120;0,284033;0,284163;0,284292;0,176354;0,176516;0,401987;0,297936;0,287194;0,287046;0,287046;0,177498;0,276601;0,145708;0,145776;0,276845;0,145910;0,340448;0,340521;0,340593;0,225585;0,225677;0,228345;0,291191;0,291191;0,166671;0,166770;0,279944;0,557315;0,515651;0,438618;0,469525;0,494738;0,494900;0,318604;0,465119;0,465313;0,000000;0,000000;0,000000;0,200475;0,471369;0,588601;0,214071;0,214116;0,214162;0,236219;0,236325;0,236430;0,524056;0,524165;0,186572;0,186632;0,186691;0,186751;0,245256;0,245385;0,407573;0,407573;0,328617;0,278188;0,504420;0,174151;0,000000;0,000000;0,000000;0,000000;0,279692;0,282151;0,218263;0,218298;0,218334;
3;;;1,000000;0,542286;0,454554;0,564102;0,114795;0,096099;0,191676;0,097526;0,098222;0,187031;0,307474;0,188529;0,226591;0,597652;0,190850;0,127593;0,127922;0,128254;0,128588;0,322826;0,456482;0,466336;0,275120;0,275530;0,115354;0,346189;0,115754;0,115954;0,116152;0,336436;0,277112;0,290895;0,291053;0,170890;0,175979;0,176134;0,446649;0,581613;0,582191;0,359011;0,268839;0,269036;0,269233;0,415429;0,415504;0,000000;0,061893;0,000000;0,000000;0,000000;0,143638;0,000000;0,305743;0,305861;0,305979;0,120716;0,172860;0,281684;0,387381;0,364907;0,149929;0,150019;0,150108;0,150198;0,274681;0,274811;0,274941;0,365490;0,365490;0,183230;0,301638;0,272272;0,272124;0,272124;0,180689;0,437748;0,393863;0,393931;0,438239;0,394069;0,331097;0,331169;0,331242;0,000000;0,000000;0,074620;0,276269;0,276269;0,151749;0,151848;0,334943;0,542393;0,314189;0,158537;0,493732;0,338212;0,338273;0,307097;0,331419;0,331588;0,000000;0,000000;0,000000;0,185553;0,152656;0,191994;0,199149;0,199194;0,199240;0,241062;0,241166;0,241269;0,285431;0,285539;0,000000;0,000000;0,000000;0,000000;0,241187;0,241299;0,407570;0,407570;0,497787;0,281380;0,000000;0,574684;0,000000;0,000000;0,000000;0,000000;0,282884;0,285342;0,203341;0,203377;0,203412;
4;;;;1,000000;0,560668;0,677377;0,116808;0,098111;0,103049;0,099538;0,100234;0,097561;0,242190;0,098738;0,183626;0,341997;0,100474;0,129605;0,129934;0,130267;0,130601;0,195645;0,340260;0,274621;0,280480;0,280937;0,117366;0,239787;0,117767;0,117966;0,118164;0,223705;0,089391;0,318033;0,318191;0,109839;0,177991;0,178147;0,139284;0,640790;0,641397;0,320580;0,295977;0,296173;0,296370;0,277406;0,277574;0,000000;0,000000;0,000000;0,000000;0,000000;0,165632;0,000000;0,147304;0,147438;0,147571;0,000000;0,000000;0,096005;0,185771;0,142736;0,151941;0,152031;0,152121;0,152211;0,296676;0,296805;0,296935;0,000000;0,000000;0,185242;0,170468;0,274284;0,274136;0,274136;0,000000;0,244436;0,132798;0,132866;0,244694;0,133000;0,353091;0,353163;0,353236;0,000000;0,000000;0,092754;0,278281;0,278281;0,153761;0,153861;0,307894;0,544405;0,341327;0,176670;0,355166;0,365349;0,365411;0,156238;0,358557;0,358726;0,000000;0,000000;0,000000;0,187565;0,154668;0,194006;0,201161;0,201206;0,201252;0,134380;0,134479;0,134578;0,312568;0,312676;0,000000;0,000000;0,000000;0,000000;0,000000;0,000000;0,197978;0,198054;0,275017;0,000000;0,000000;0,161241;0,000000;0,000000;0,000000;0,000000;0,000000;0,000000;0,205353;0,205389;0,205425;
5;;;;;1,000000;0,633861;0,125741;0,107045;0,111983;0,108472;0,109167;0,099362;0,233239;0,100539;0,149028;0,348237;0,102276;0,138539;0,138868;0,139200;0,139534;0,184856;0,293292;0,263832;0,291830;0,292286;0,126300;0,230420;0,126700;0,126899;0,127098;0,211094;0,091192;0,308666;0,308824;0,118772;0,186925;0,187080;0,148217;0,654810;0,654810;0,311214;0,286611;0,286807;0,287004;0,268039;0,268207;0,120716;0,072944;0,121009;0,121154;0,121299;0,317894;0,121587;0,156238;0,156371;0,156504;0,000000;0,000000;0,083806;0,176404;0,130537;0,160875;0,160964;0,161054;0,161144;0,535040;0,535252;0,535460;0,000000;0,000000;0,194176;0,179401;0,283218;0,283069;0,283069;0,000000;0,233647;0,141732;0,141799;0,233905;0,141934;0,516024;0,516203;0,516379;0,230695;0,230763;0,154900;0,287215;0,287215;0,162695;0,162794;0,293835;0,553339;0,331960;0,164471;0,345800;0,355983;0,356044;0,165171;0,349190;0,349359;0,000000;0,000000;0,000000;0,196499;0,163602;0,202939;0,210095;0,210140;0,210185;0,136182;0,136281;0,136379;0,303202;0,303310;0,000000;0,000000;0,000000;0,000000;0,000000;0,000000;0,206911;0,206988;0,264228;0,000000;0,000000;0,170175;0,000000;0,000000;0,000000;0,000000;0,000000;0,000000;0,214287;0,214322;0,214358;
6;;;;;;1,000000;0,125436;0,106740;0,111678;0,108167;0,108862;0,105239;0,239291;0,106416;0,183537;0,439357;0,108152;0,138234;0,138563;0,138895;0,139229;0,183415;0,327787;0,262391;0,298507;0,298964;0,125995;0,260875;0,126395;0,126595;0,126793;0,217725;0,097069;0,339121;0,339279;0,118467;0,186620;0,186775;0,147913;0,708439;0,708439;0,341669;0,317065;0,317262;0,317458;0,298494;0,298662;0,000000;0,000000;0,000000;0,000000;0,000000;0,191914;0,000000;0,155933;0,156066;0,156199;0,000000;0,000000;0,106213;0,206859;0,152945;0,160570;0,160659;0,160749;0,160839;0,322957;0,323087;0,323217;0,000000;0,000000;0,193871;0,179096;0,282913;0,282764;0,282764;0,000000;0,232206;0,141427;0,141494;0,232464;0,141629;0,379373;0,379445;0,379518;0,000000;0,000000;0,102962;0,286910;0,286910;0,162390;0,162489;0,294211;0,553034;0,362415;0,186879;0,376254;0,386437;0,386499;0,164866;0,379645;0,379814;0,000000;0,000000;0,000000;0,196194;0,163297;0,202634;0,209790;0,209835;0,209880;0,142059;0,142158;0,142256;0,333656;0,333764;0,000000;0,000000;0,000000;0,000000;0,000000;0,000000;0,206606;0,206683;0,262786;0,000000;0,000000;0,169870;0,000000;0,000000;0,000000;0,000000;0,000000;0,000000;0,213982;0,214017;0,214053;
7;;;;;;;1,000000;0,763656;0,574815;0,770162;0,772981;0,000000;0,096684;0,000000;0,119628;0,099373;0,000000;0,157603;0,157932;0,158264;0,158598;0,275889;0,146615;0,139066;0,159916;0,160251;0,145364;0,156491;0,145764;0,145963;0,146162;0,000000;0,000000;0,156647;0,156886;0,137836;0,205989;0,206144;0,167281;0,143309;0,143598;0,145095;0,149098;0,149283;0,149466;0,179298;0,179477;0,000000;0,000000;0,000000;0,000000;0,000000;0,101203;0,000000;0,175302;0,175435;0,175568;0,000000;0,000000;0,000000;0,322415;0,000000;0,179939;0,180028;0,180118;0,180208;0,155487;0,155603;0,155717;0,000000;0,000000;0,540140;0,400858;0,302282;0,302133;0,302133;0,286011;0,166495;0,160796;0,160863;0,166739;0,160998;0,180543;0,180652;0,180760;0,000000;0,000000;0,000000;0,306279;0,306279;0,464127;0,464202;0,000000;0,572403;0,150716;0,000000;0,178477;0,183008;0,183102;0,184235;0,180218;0,180354;0,000000;0,000000;0,000000;0,536418;0,182666;0,222003;0,229159;0,229204;0,229249;0,000000;0,000000;0,000000;0,160405;0,160488;0,000000;0,000000;0,000000;0,000000;0,220017;0,220112;0,225975;0,226052;0,173392;0,000000;0,000000;0,189239;0,000000;0,000000;0,000000;0,000000;0,000000;0,000000;0,233351;0,233386;0,233422;
8;;;;;;;;1,000000;0,589074;0,779850;0,783016;0,000000;0,077988;0,000000;0,098861;0,080676;0,000000;0,138907;0,139236;0,139568;0,139902;0,219699;0,127918;0,120370;0,141220;0,141554;0,126668;0,137794;0,127068;0,127267;0,127466;0,000000;0,000000;0,137950;0,138190;0,119140;0,187293;0,187448;0,148585;0,124612;0,124901;0,126398;0,130402;0,130587;0,130770;0,160601;0,160781;0,000000;0,000000;0,000000;0,000000;0,000000;0,082507;0,000000;0,156605;0,156739;0,156872;0,000000;0,000000;0,000000;0,266226;0,000000;0,161242;0,161332;0,161422;0,161512;0,136791;0,136907;0,137021;0,000000;0,000000;0,483950;0,344668;0,283585;0,283437;0,283437;0,265244;0,147799;0,142100;0,142167;0,148042;0,142301;0,161847;0,161956;0,162064;0,000000;0,000000;0,000000;0,287583;0,287583;0,407937;0,408012;0,000000;0,553706;0,132020;0,000000;0,159781;0,164312;0,164406;0,165539;0,161522;0,161658;0,000000;0,000000;0,000000;0,767889;0,163969;0,203307;0,210463;0,210508;0,210553;0,000000;0,000000;0,000000;0,141709;0,141792;0,000000;0,000000;0,000000;0,000000;0,199251;0,199346;0,207279;0,207356;0,154695;0,000000;0,000000;0,170543;0,000000;0,000000;0,000000;0,000000;0,000000;0,000000;0,214654;0,214690;0,214726;
9;;;;;;;;;1,000000;0,592561;0,594097;0,112770;0,234639;0,113828;0,315372;0,184716;0,115392;0,143845;0,144174;0,144506;0,144840;0,357327;0,424665;0,241834;0,146158;0,146493;0,131606;0,203337;0,132006;0,132205;0,132404;0,110942;0,105228;0,142889;0,143128;0,190794;0,192231;0,192386;0,307912;0,129550;0,129839;0,131336;0,135340;0,135525;0,135708;0,242135;0,242346;0,000000;0,065924;0,000000;0,000000;0,000000;0,087445;0,000000;0,161544;0,161677;0,161810;0,124747;0,205166;0,263657;0,534307;0,299499;0,166180;0,166270;0,166360;0,166450;0,141729;0,141845;0,141959;0,207211;0,207372;0,447424;0,533459;0,561099;0,288375;0,288375;0,422630;0,152737;0,147038;0,147105;0,152980;0,147240;0,166785;0,166894;0,167002;0,000000;0,000000;0,000000;0,292521;0,292521;0,545856;0,546032;0,000000;0,558644;0,136958;0,000000;0,164719;0,169250;0,169344;0,357146;0,166460;0,166596;0,000000;0,000000;0,000000;0,478831;0,168907;0,208245;0,215401;0,215446;0,215491;0,146486;0,146578;0,146669;0,146647;0,146730;0,000000;0,000000;0,000000;0,000000;0,551417;0,551520;0,212217;0,212294;0,159633;0,309045;0,000000;0,175481;0,000000;0,000000;0,000000;0,000000;0,310549;0,313007;0,219592;0,219628;0,219664;
10;;;;;;;;;;1,000000;0,788641;0,000000;0,079414;0,000000;0,101696;0,082103;0,000000;0,140333;0,140662;0,140995;0,141328;0,222431;0,129345;0,121796;0,142647;0,142981;0,128094;0,139221;0,128494;0,128694;0,128892;0,000000;0,000000;0,139377;0,139617;0,120567;0,188719;0,188875;0,150012;0,126039;0,126328;0,127825;0,131829;0,132014;0,132196;0,162028;0,162207;0,000000;0,000000;0,000000;0,000000;0,000000;0,083934;0,000000;0,158032;0,158166;0,158299;0,000000;0,000000;0,000000;0,268957;0,000000;0,162669;0,162759;0,162848;0,162938;0,138218;0,138333;0,138448;0,000000;0,000000;0,486682;0,347400;0,285012;0,284864;0,284864;0,268079;0,149226;0,143526;0,143594;0,149469;0,143728;0,163274;0,163382;0,163491;0,000000;0,000000;0,000000;0,289009;0,289009;0,410669;0,410744;0,000000;0,555133;0,133446;0,000000;0,161207;0,165738;0,165833;0,166966;0,162949;0,163085;0,000000;0,000000;0,000000;0,769930;0,165396;0,204734;0,211889;0,211934;0,211980;0,000000;0,000000;0,000000;0,143135;0,143218;0,000000;0,000000;0,000000;0,000000;0,202085;0,202180;0,208706;0,208782;0,156122;0,000000;0,000000;0,171969;0,000000;0,000000;0,000000;0,000000;0,000000;0,000000;0,216081;0,216117;0,216153;
11;;;;;;;;;;;1,000000;0,000000;0,080110;0,000000;0,102971;0,082799;0,000000;0,141029;0,141358;0,141690;0,142024;0,223793;0,130041;0,122492;0,143342;0,143677;0,128790;0,139917;0,129190;0,129390;0,129588;0,000000;0,000000;0,140073;0,140312;0,121262;0,189415;0,189570;0,150708;0,126735;0,127024;0,128521;0,132524;0,132710;0,132892;0,162724;0,162903;0,000000;0,000000;0,000000;0,000000;0,000000;0,084629;0,000000;0,158728;0,158861;0,158994;0,000000;0,000000;0,000000;0,270320;0,000000;0,163365;0,163454;0,163544;0,163634;0,138913;0,139029;0,139143;0,000000;0,000000;0,488044;0,348762;0,285708;0,285559;0,285559;0,269354;0,149921;0,144222;0,144289;0,150165;0,144424;0,163969;0,164078;0,164186;0,000000;0,000000;0,000000;0,289705;0,289705;0,412031;0,412106;0,000000;0,555829;0,134142;0,000000;0,161903;0,166434;0,166528;0,167661;0,163644;0,163781;0,000000;0,000000;0,000000;0,771105;0,166092;0,205430;0,212585;0,212630;0,212676;0,000000;0,000000;0,000000;0,143831;0,143914;0,000000;0,000000;0,000000;0,000000;0,203360;0,203455;0,209401;0,209478;0,156818;0,000000;0,000000;0,172665;0,000000;0,000000;0,000000;0,000000;0,000000;0,000000;0,216777;0,216812;0,216848;
12;;;;;;;;;;;;1,000000;0,601890;0,792955;0,536841;0,603976;0,798315;0,000000;0,000000;0,000000;0,000000;0,211241;0,210188;0,177806;0,419958;0,420742;0,000000;0,000000;0,000000;0,000000;0,000000;0,527776;0,508524;0,000000;0,000000;0,000000;0,000000;0,000000;0,000000;0,000000;0,000000;0,000000;0,000000;0,000000;0,000000;0,000000;0,000000;0,000000;0,000000;0,000000;0,000000;0,000000;0,000000;0,000000;0,000000;0,000000;0,000000;0,000000;0,154427;0,130511;0,157908;0,181070;0,000000;0,000000;0,000000;0,000000;0,000000;0,000000;0,000000;0,525285;0,525285;0,000000;0,140346;0,000000;0,000000;0,000000;0,252997;0,000000;0,000000;0,000000;0,000000;0,000000;0,000000;0,000000;0,000000;0,000000;0,000000;0,000000;0,000000;0,000000;0,000000;0,000000;0,000000;0,000000;0,000000;0,000000;0,000000;0,000000;0,000000;0,216926;0,000000;0,000000;0,000000;0,000000;0,000000;0,000000;0,000000;0,000000;0,000000;0,000000;0,000000;0,609296;0,609342;0,609387;0,000000;0,000000;0,000000;0,000000;0,000000;0,000000;0,191261;0,191351;0,000000;0,000000;0,000000;0,353687;0,000000;0,000000;0,000000;0,000000;0,000000;0,000000;0,355191;0,357650;0,000000;0,000000;0,000000;
13;;;;;;;;;;;;;1,000000;0,603864;0,620676;0,672038;0,606445;0,109482;0,109811;0,110143;0,110477;0,398020;0,394061;0,452939;0,516526;0,517195;0,097242;0,219530;0,097643;0,097842;0,098041;0,534352;0,418615;0,108525;0,108765;0,152442;0,157867;0,158023;0,419156;0,213721;0,214203;0,144790;0,100977;0,101162;0,101345;0,273559;0,273758;0,000000;0,064589;0,000000;0,000000;0,000000;0,053082;0,000000;0,278946;0,279063;0,279182;0,123412;0,233993;0,252250;0,321672;0,281950;0,131817;0,131907;0,131997;0,132087;0,107366;0,107481;0,107596;0,486680;0,486923;0,165118;0,336211;0,254160;0,254012;0,254012;0,238181;0,234697;0,112675;0,112742;0,234941;0,112876;0,132422;0,132531;0,132639;0,000000;0,000000;0,000000;0,258158;0,258158;0,133638;0,133737;0,542672;0,524281;0,102594;0,000000;0,280125;0,134886;0,134981;0,349399;0,132097;0,132233;0,276558;0,276614;0,276670;0,167441;0,134544;0,173882;0,181037;0,181083;0,181128;0,623986;0,624089;0,624192;0,112284;0,112367;0,000000;0,000000;0,000000;0,000000;0,302320;0,302432;0,380773;0,380773;0,286713;0,338872;0,000000;0,141118;0,000000;0,000000;0,000000;0,000000;0,340376;0,342834;0,185229;0,185265;0,185301;
14;;;;;;;;;;;;;;1,000000;0,538490;0,605673;0,801455;0,000000;0,000000;0,000000;0,000000;0,212739;0,211686;0,178906;0,421525;0,422308;0,000000;0,000000;0,000000;0,000000;0,000000;0,528962;0,509711;0,000000;0,000000;0,000000;0,000000;0,000000;0,000000;0,000000;0,000000;0,000000;0,000000;0,000000;0,000000;0,000000;0,000000;0,000000;0,000000;0,000000;0,000000;0,000000;0,000000;0,000000;0,000000;0,000000;0,000000;0,000000;0,155484;0,131568;0,158965;0,182128;0,000000;0,000000;0,000000;0,000000;0,000000;0,000000;0,000000;0,526783;0,526783;0,000000;0,141403;0,000000;0,000000;0,000000;0,254054;0,000000;0,000000;0,000000;0,000000;0,000000;0,000000;0,000000;0,000000;0,000000;0,000000;0,000000;0,000000;0,000000;0,000000;0,000000;0,000000;0,000000;0,000000;0,000000;0,000000;0,000000;0,000000;0,217983;0,000000;0,000000;0,000000;0,000000;0,000000;0,000000;0,000000;0,000000;0,000000;0,000000;0,000000;0,610483;0,610528;0,610573;0,000000;0,000000;0,000000;0,000000;0,000000;0,000000;0,192318;0,192408;0,000000;0,000000;0,000000;0,354744;0,000000;0,000000;0,000000;0,000000;0,000000;0,000000;0,356249;0,358707;0,000000;0,000000;0,000000;
15;;;;;;;;;;;;;;;1,000000;0,498148;0,540669;0,000000;0,000000;0,000000;0,000000;0,439127;0,354492;0,494160;0,326914;0,327697;0,000000;0,165553;0,000000;0,000000;0,000000;0,470701;0,362849;0,105560;0,105833;0,209721;0,000000;0,000000;0,289933;0,201070;0,201570;0,186703;0,097254;0,097464;0,097671;0,208624;0,208897;0,000000;0,231438;0,000000;0,000000;0,000000;0,000000;0,000000;0,154089;0,154293;0,154495;0,398136;0,352090;0,464564;0,539669;0,496968;0,000000;0,000000;0,000000;0,000000;0,000000;0,000000;0,000000;0,465148;0,465375;0,408413;0,240481;0,339320;0,000000;0,000000;0,407440;0,120911;0,000000;0,000000;0,121169;0,000000;0,000000;0,000000;0,000000;0,000000;0,000000;0,052622;0,000000;0,000000;0,336172;0,336329;0,530015;0,000000;0,145086;0,136538;0,290850;0,134654;0,134758;0,301358;0,131621;0,131770;0,269180;0,269236;0,269293;0,215298;0,000000;0,000000;0,000000;0,000000;0,000000;0,559800;0,559895;0,559989;0,109887;0,109979;0,000000;0,000000;0,000000;0,000000;0,524632;0,524725;0,211305;0,211407;0,168044;0,414935;0,000000;0,000000;0,000000;0,000000;0,000000;0,000000;0,375400;0,396702;0,000000;0,000000;0,000000;
16;;;;;;;;;;;;;;;;1,000000;0,607924;0,112170;0,112499;0,112832;0,113166;0,273828;0,330738;0,280071;0,530141;0,530752;0,099931;0,164656;0,100332;0,100531;0,100729;0,429296;0,415340;0,242902;0,243060;0,092404;0,160556;0,160712;0,121849;0,342204;0,342609;0,245449;0,220846;0,221042;0,221239;0,202275;0,202443;0,000000;0,000000;0,000000;0,000000;0,000000;0,118328;0,000000;0,129869;0,130003;0,130136;0,000000;0,128446;0,168932;0,252061;0,269336;0,134506;0,134596;0,134686;0,134776;0,249371;0,249501;0,249631;0,486668;0,486668;0,167807;0,276922;0,256849;0,256701;0,256701;0,227016;0,121063;0,115363;0,115431;0,121306;0,115565;0,305787;0,305859;0,305932;0,000000;0,000000;0,058310;0,260846;0,260846;0,136326;0,136426;0,353369;0,526970;0,266196;0,142227;0,280035;0,290218;0,290280;0,339887;0,283426;0,283595;0,279326;0,279382;0,279438;0,170130;0,137233;0,176571;0,183726;0,183771;0,183817;0,623820;0,623922;0,624022;0,237437;0,237545;0,000000;0,000000;0,000000;0,000000;0,165280;0,165370;0,180543;0,180619;0,127959;0,327706;0,000000;0,143807;0,000000;0,000000;0,000000;0,000000;0,329210;0,331669;0,187918;0,187954;0,187990;
17;;;;;;;;;;;;;;;;;1,000000;0,000000;0,000000;0,000000;0,000000;0,215060;0,214007;0,180542;0,423936;0,424720;0,000000;0,000000;0,000000;0,000000;0,000000;0,531034;0,511782;0,000000;0,000000;0,000000;0,000000;0,000000;0,000000;0,000000;0,000000;0,000000;0,000000;0,000000;0,000000;0,000000;0,000000;0,000000;0,000000;0,000000;0,000000;0,000000;0,000000;0,000000;0,000000;0,000000;0,000000;0,000000;0,157049;0,133133;0,160530;0,183692;0,000000;0,000000;0,000000;0,000000;0,000000;0,000000;0,000000;0,529104;0,529104;0,000000;0,142968;0,000000;0,000000;0,000000;0,255619;0,000000;0,000000;0,000000;0,000000;0,000000;0,000000;0,000000;0,000000;0,000000;0,000000;0,000000;0,000000;0,000000;0,000000;0,000000;0,000000;0,000000;0,000000;0,000000;0,000000;0,000000;0,000000;0,219548;0,000000;0,000000;0,000000;0,000000;0,000000;0,000000;0,000000;0,000000;0,000000;0,000000;0,000000;0,612555;0,612600;0,612645;0,000000;0,000000;0,000000;0,000000;0,000000;0,000000;0,193883;0,193973;0,000000;0,000000;0,000000;0,356309;0,000000;0,000000;0,000000;0,000000;0,000000;0,000000;0,357813;0,360272;0,000000;0,000000;0,000000;
18;;;;;;;;;;;;;;;;;;1,000000;0,803332;0,804492;0,805609;0,144470;0,159412;0,151864;0,172714;0,173048;0,158162;0,169289;0,158562;0,158761;0,158960;0,000000;0,000000;0,169444;0,169684;0,150634;0,218787;0,218942;0,180079;0,156106;0,156395;0,157892;0,161896;0,162081;0,162264;0,192095;0,192275;0,000000;0,000000;0,000000;0,000000;0,000000;0,114001;0,000000;0,188099;0,188233;0,188366;0,000000;0,000000;0,000000;0,115450;0,000000;0,192736;0,192826;0,192916;0,193006;0,168285;0,168401;0,168515;0,000000;0,000000;0,226038;0,211263;0,315079;0,314931;0,314931;0,000000;0,179293;0,173594;0,173661;0,179536;0,173795;0,193341;0,193450;0,193558;0,000000;0,000000;0,000000;0,319077;0,319077;0,194557;0,194656;0,000000;0,585200;0,163514;0,000000;0,191275;0,195806;0,195900;0,197033;0,193016;0,193152;0,000000;0,000000;0,000000;0,228361;0,195463;0,234801;0,241957;0,242002;0,242047;0,000000;0,000000;0,000000;0,173203;0,173286;0,000000;0,000000;0,000000;0,000000;0,000000;0,000000;0,238773;0,238850;0,186189;0,000000;0,000000;0,202037;0,000000;0,000000;0,000000;0,000000;0,000000;0,000000;0,246148;0,246184;0,246220;
19;;;;;;;;;;;;;;;;;;;1,000000;0,805609;0,806685;0,144799;0,159741;0,152192;0,173043;0,173377;0,158490;0,169617;0,158891;0,159090;0,159289;0,000000;0,000000;0,169773;0,170013;0,150963;0,219115;0,219271;0,180408;0,156435;0,156724;0,158221;0,162225;0,162410;0,162593;0,192424;0,192604;0,000000;0,000000;0,000000;0,000000;0,000000;0,114330;0,000000;0,188428;0,188562;0,188695;0,000000;0,000000;0,000000;0,115779;0,000000;0,193065;0,193155;0,193245;0,193335;0,168614;0,168729;0,168844;0,000000;0,000000;0,226366;0,211592;0,315408;0,315260;0,315260;0,000000;0,179622;0,173923;0,173990;0,179865;0,174124;0,193670;0,193779;0,193887;0,000000;0,000000;0,000000;0,319406;0,319406;0,194886;0,194985;0,000000;0,585529;0,163842;0,000000;0,191604;0,196134;0,196229;0,197362;0,193345;0,193481;0,000000;0,000000;0,000000;0,228689;0,195792;0,235130;0,242285;0,242331;0,242376;0,000000;0,000000;0,000000;0,173532;0,173615;0,000000;0,000000;0,000000;0,000000;0,000000;0,000000;0,239102;0,239178;0,186518;0,000000;0,000000;0,202366;0,000000;0,000000;0,000000;0,000000;0,000000;0,000000;0,246477;0,246513;0,246549;
20;;;;;;;;;;;;;;;;;;;;1,000000;0,807723;0,145131;0,160074;0,152525;0,173375;0,173710;0,158823;0,169950;0,159223;0,159422;0,159621;0,000000;0,000000;0,170106;0,170345;0,151295;0,219448;0,219603;0,180740;0,156768;0,157056;0,158554;0,162557;0,162742;0,162925;0,192756;0,192936;0,000000;0,000000;0,000000;0,000000;0,000000;0,114662;0,000000;0,188761;0,188894;0,189027;0,000000;0,000000;0,000000;0,116111;0,000000;0,193398;0,193487;0,193577;0,193667;0,168946;0,169062;0,169176;0,000000;0,000000;0,226699;0,211924;0,315740;0,315592;0,315592;0,000000;0,179954;0,174255;0,174322;0,180198;0,174457;0,194002;0,194111;0,194219;0,000000;0,000000;0,000000;0,319738;0,319738;0,195218;0,195317;0,000000;0,585862;0,164175;0,000000;0,191936;0,196467;0,196561;0,197694;0,193677;0,193813;0,000000;0,000000;0,000000;0,229022;0,196125;0,235462;0,242618;0,242663;0,242708;0,000000;0,000000;0,000000;0,173864;0,173947;0,000000;0,000000;0,000000;0,000000;0,000000;0,000000;0,239434;0,239511;0,186851;0,000000;0,000000;0,202698;0,000000;0,000000;0,000000;0,000000;0,000000;0,000000;0,246810;0,246845;0,246881;
21;;;;;;;;;;;;;;;;;;;;;1,000000;0,145465;0,160408;0,152859;0,173709;0,174044;0,159157;0,170284;0,159557;0,159756;0,159955;0,000000;0,000000;0,170440;0,170679;0,151629;0,219782;0,219937;0,181074;0,157101;0,157390;0,158888;0,162891;0,163076;0,163259;0,193090;0,193270;0,000000;0,000000;0,000000;0,000000;0,000000;0,114996;0,000000;0,189095;0,189228;0,189361;0,000000;0,000000;0,000000;0,116445;0,000000;0,193731;0,193821;0,193911;0,194001;0,169280;0,169396;0,169510;0,000000;0,000000;0,227033;0,212258;0,316074;0,315926;0,315926;0,000000;0,180288;0,174589;0,174656;0,180531;0,174791;0,194336;0,194445;0,194553;0,000000;0,000000;0,000000;0,320072;0,320072;0,195552;0,195651;0,000000;0,586196;0,164509;0,000000;0,192270;0,196801;0,196895;0,198028;0,194011;0,194147;0,000000;0,000000;0,000000;0,229356;0,196458;0,235796;0,242952;0,242997;0,243042;0,000000;0,000000;0,000000;0,174198;0,174281;0,000000;0,000000;0,000000;0,000000;0,000000;0,000000;0,239768;0,239845;0,187185;0,000000;0,000000;0,203032;0,000000;0,000000;0,000000;0,000000;0,000000;0,000000;0,247144;0,247179;0,247215;
22;;;;;;;;;;;;;;;;;;;;;;1,000000;0,590376;0,586195;0,297551;0,297962;0,272188;0,364816;0,272853;0,273188;0,273523;0,314300;0,189129;0,232263;0,232621;0,573212;0,415189;0,415189;0,541690;0,259906;0,260388;0,258419;0,135965;0,136150;0,136333;0,540846;0,541288;0,131698;0,316800;0,132000;0,132150;0,132299;0,158180;0,132595;0,392574;0,392691;0,392810;0,496054;0,492386;0,576043;0,628515;0,551077;0,166805;0,166895;0,166985;0,167075;0,142354;0,142469;0,142584;0,389700;0,389700;0,591853;0,497507;0,289148;0,289000;0,289000;0,393164;0,362050;0,147663;0,147730;0,362294;0,147864;0,167410;0,167519;0,167627;0,000000;0,000000;0,000000;0,293146;0,293146;0,337759;0,337834;0,287490;0,559269;0,137582;0,000000;0,393753;0,169874;0,169969;0,342902;0,520462;0,520656;0,000000;0,000000;0,000000;0,410050;0,660917;0,643944;0,216025;0,216071;0,216116;0,265272;0,265376;0,265479;0,147272;0,147355;0,000000;0,000000;0,000000;0,000000;0,504995;0,505082;0,494401;0,494401;0,414066;0,454924;0,000000;0,176106;0,000000;0,000000;0,000000;0,000000;0,300697;0,303156;0,220217;0,220253;0,220289;
23;;;;;;;;;;;;;;;;;;;;;;;1,000000;0,581664;0,308774;0,309185;0,282736;0,413313;0,283401;0,283736;0,284072;0,315888;0,188077;0,379149;0,379224;0,481391;0,207798;0,207954;0,534276;0,401234;0,401627;0,366319;0,403390;0,403542;0,403696;0,565852;0,566130;0,000000;0,189666;0,000000;0,000000;0,000000;0,103013;0,000000;0,527076;0,527287;0,527494;0,311369;0,348817;0,419953;0,525303;0,480641;0,181748;0,181838;0,181928;0,182018;0,157297;0,157412;0,157527;0,388647;0,388647;0,425396;0,298555;0,541592;0,303943;0,303943;0,384988;0,482892;0,429723;0,429791;0,483336;0,429929;0,182353;0,182461;0,182570;0,000000;0,000000;0,128738;0,308088;0,308088;0,348875;0,349018;0,290087;0,574212;0,438409;0,307356;0,485291;0,339858;0,339919;0,361520;0,658234;0,658234;0,000000;0,000000;0,000000;0,217372;0,520559;0,637792;0,230968;0,231013;0,231059;0,264220;0,264323;0,264426;0,287077;0,287185;0,000000;0,000000;0,000000;0,000000;0,436411;0,436504;0,487570;0,487688;0,542822;0,301735;0,000000;0,612562;0,000000;0,000000;0,000000;0,000000;0,303239;0,305698;0,235160;0,235196;0,235232;
24;;;;;;;;;;;;;;;;;;;;;;;;1,000000;0,392711;0,393121;0,139624;0,420497;0,140025;0,140224;0,140422;0,350342;0,169388;0,150907;0,151147;0,273287;0,200249;0,200405;0,620123;0,338882;0,339365;0,262177;0,143359;0,143544;0,143727;0,474526;0,474726;0,000000;0,133120;0,000000;0,000000;0,000000;0,095464;0,000000;0,396332;0,396449;0,396568;0,191943;0,161860;0,271271;0,369475;0,178296;0,174199;0,174289;0,174379;0,174469;0,149748;0,149863;0,149978;0,277188;0,277349;0,207500;0,316216;0,296542;0,296394;0,296394;0,000000;0,443822;0,155057;0,155124;0,444066;0,155258;0,174804;0,174913;0,175021;0,000000;0,000000;0,000000;0,300539;0,300539;0,176020;0,176119;0,348607;0,566663;0,144976;0,000000;0,397511;0,177268;0,177363;0,178496;0,174479;0,174615;0,000000;0,000000;0,000000;0,209823;0,176926;0,216264;0,223419;0,223464;0,223510;0,213458;0,213554;0,213650;0,154666;0,154748;0,000000;0,000000;0,000000;0,000000;0,199395;0,199489;0,498159;0,498159;0,495839;0,000000;0,000000;0,183500;0,000000;0,000000;0,000000;0,000000;0,000000;0,000000;0,227611;0,227647;0,227683;
25;;;;;;;;;;;;;;;;;;;;;;;;;1,000000;0,728861;0,160475;0,171602;0,160875;0,161074;0,161273;0,410281;0,397618;0,171758;0,171997;0,152947;0,221100;0,221255;0,182392;0,158420;0,158709;0,160206;0,164209;0,164394;0,164577;0,194408;0,194588;0,000000;0,000000;0,000000;0,000000;0,000000;0,116314;0,000000;0,190413;0,190546;0,190679;0,000000;0,000000;0,000000;0,117764;0,000000;0,195050;0,195139;0,195229;0,195319;0,170598;0,170714;0,170828;0,302801;0,302963;0,228351;0,213576;0,317392;0,317244;0,317244;0,000000;0,181606;0,175907;0,175974;0,181850;0,176109;0,195654;0,195763;0,195871;0,000000;0,000000;0,000000;0,321390;0,321390;0,196870;0,196969;0,000000;0,587514;0,165827;0,000000;0,193588;0,198119;0,198213;0,199346;0,195329;0,195465;0,000000;0,000000;0,000000;0,230674;0,197777;0,237114;0,244270;0,244315;0,244360;0,475021;0,475126;0,475230;0,175516;0,175599;0,000000;0,000000;0,000000;0,000000;0,000000;0,000000;0,241086;0,241163;0,188503;0,000000;0,000000;0,204350;0,000000;0,000000;0,000000;0,000000;0,000000;0,000000;0,248462;0,248497;0,248533;
26;;;;;;;;;;;;;;;;;;;;;;;;;;1,000000;0,160809;0,171936;0,161210;0,161409;0,161607;0,411065;0,398401;0,172092;0,172332;0,153282;0,221434;0,221590;0,182727;0,158754;0,159043;0,160540;0,164544;0,164729;0,164912;0,194743;0,194923;0,000000;0,000000;0,000000;0,000000;0,000000;0,116649;0,000000;0,190747;0,190881;0,191014;0,000000;0,000000;0,000000;0,118098;0,000000;0,195384;0,195474;0,195564;0,195654;0,170933;0,171048;0,171163;0,303369;0,303531;0,228685;0,213911;0,317727;0,317579;0,317579;0,000000;0,181941;0,176241;0,176309;0,182184;0,176443;0,195989;0,196098;0,196206;0,000000;0,000000;0,000000;0,321724;0,321724;0,197204;0,197304;0,000000;0,587848;0,166161;0,000000;0,193922;0,198453;0,198548;0,199681;0,195664;0,195800;0,000000;0,000000;0,000000;0,231008;0,198111;0,237449;0,244604;0,244649;0,244695;0,475805;0,475910;0,476014;0,175850;0,175933;0,000000;0,000000;0,000000;0,000000;0,000000;0,000000;0,241421;0,241497;0,188837;0,000000;0,000000;0,204684;0,000000;0,000000;0,000000;0,000000;0,000000;0,000000;0,248796;0,248832;0,248868;
27;;;;;;;;;;;;;;;;;;;;;;;;;;;1,000000;0,680055;0,844087;0,844663;0,845226;0,000000;0,000000;0,351038;0,351396;0,138395;0,206547;0,206703;0,443087;0,143867;0,144156;0,145653;0,149657;0,149842;0,150025;0,179856;0,180036;0,000000;0,000000;0,000000;0,000000;0,000000;0,101762;0,000000;0,175860;0,175994;0,176127;0,000000;0,000000;0,000000;0,103211;0,000000;0,180497;0,180587;0,180677;0,180767;0,156046;0,156161;0,156276;0,000000;0,000000;0,213798;0,199024;0,302840;0,302692;0,302692;0,000000;0,167054;0,161355;0,161422;0,167297;0,161556;0,181102;0,181211;0,181319;0,000000;0,000000;0,000000;0,306837;0,306837;0,182318;0,182417;0,000000;0,572961;0,151274;0,000000;0,179036;0,183566;0,183661;0,184794;0,180777;0,180913;0,000000;0,000000;0,000000;0,216121;0,183224;0,222562;0,229717;0,229762;0,229808;0,000000;0,000000;0,000000;0,160964;0,161047;0,000000;0,000000;0,000000;0,000000;0,000000;0,000000;0,226534;0,226610;0,173950;0,000000;0,000000;0,189798;0,000000;0,000000;0,000000;0,000000;0,000000;0,000000;0,233909;0,233945;0,233981;
28;;;;;;;;;;;;;;;;;;;;;;;;;;;;1,000000;0,680758;0,681097;0,681427;0,000000;0,000000;0,518747;0,519045;0,234789;0,217674;0,217830;0,523563;0,284411;0,284874;0,396943;0,297824;0,298020;0,298217;0,473276;0,473351;0,000000;0,083239;0,000000;0,000000;0,000000;0,112889;0,000000;0,360314;0,360431;0,360550;0,142062;0,111979;0,251460;0,350754;0,259869;0,191624;0,191714;0,191804;0,191894;0,167173;0,167288;0,167403;0,000000;0,000000;0,224925;0,280198;0,313967;0,313819;0,313819;0,000000;0,256031;0,172482;0,172549;0,256310;0,172683;0,192229;0,192338;0,192446;0,000000;0,000000;0,073073;0,317964;0,317964;0,193445;0,193544;0,000000;0,584088;0,343173;0,156989;0,531664;0,367196;0,367257;0,195921;0,360403;0,360572;0,000000;0,000000;0,000000;0,227248;0,194351;0,233689;0,240844;0,240889;0,240935;0,000000;0,000000;0,000000;0,649293;0,649293;0,000000;0,000000;0,000000;0,000000;0,149515;0,149608;0,462141;0,462141;0,285864;0,000000;0,000000;0,200925;0,000000;0,000000;0,000000;0,000000;0,000000;0,000000;0,245036;0,245072;0,245108;
29;;;;;;;;;;;;;;;;;;;;;;;;;;;;;1,000000;0,845775;0,846310;0,000000;0,000000;0,351703;0,352061;0,138795;0,206948;0,207103;0,443752;0,144267;0,144556;0,146053;0,150057;0,150242;0,150425;0,180256;0,180436;0,000000;0,000000;0,000000;0,000000;0,000000;0,102162;0,000000;0,176261;0,176394;0,176527;0,000000;0,000000;0,000000;0,103611;0,000000;0,180897;0,180987;0,181077;0,181167;0,156446;0,156562;0,156676;0,000000;0,000000;0,214199;0,199424;0,303240;0,303092;0,303092;0,000000;0,167454;0,161755;0,161822;0,167697;0,161957;0,181502;0,181611;0,181719;0,000000;0,000000;0,000000;0,307238;0,307238;0,182718;0,182817;0,000000;0,573362;0,151675;0,000000;0,179436;0,183967;0,184061;0,185194;0,181177;0,181313;0,000000;0,000000;0,000000;0,216522;0,183624;0,222962;0,230118;0,230163;0,230208;0,000000;0,000000;0,000000;0,161364;0,161447;0,000000;0,000000;0,000000;0,000000;0,000000;0,000000;0,226934;0,227011;0,174350;0,000000;0,000000;0,190198;0,000000;0,000000;0,000000;0,000000;0,000000;0,000000;0,234309;0,234345;0,234381;
30;;;;;;;;;;;;;;;;;;;;;;;;;;;;;;1,000000;0,846834;0,000000;0,000000;0,352038;0,352396;0,138994;0,207147;0,207302;0,444087;0,144467;0,144756;0,146253;0,150256;0,150442;0,150624;0,180456;0,180635;0,000000;0,000000;0,000000;0,000000;0,000000;0,102362;0,000000;0,176460;0,176594;0,176727;0,000000;0,000000;0,000000;0,103811;0,000000;0,181097;0,181187;0,181276;0,181366;0,156645;0,156761;0,156876;0,000000;0,000000;0,214398;0,199623;0,303440;0,303292;0,303292;0,000000;0,167654;0,161954;0,162022;0,167897;0,162156;0,181701;0,181810;0,181918;0,000000;0,000000;0,000000;0,307437;0,307437;0,182917;0,183016;0,000000;0,573561;0,151874;0,000000;0,179635;0,184166;0,184261;0,185394;0,181377;0,181513;0,000000;0,000000;0,000000;0,216721;0,183824;0,223162;0,230317;0,230362;0,230408;0,000000;0,000000;0,000000;0,161563;0,161646;0,000000;0,000000;0,000000;0,000000;0,000000;0,000000;0,227134;0,227210;0,174550;0,000000;0,000000;0,190397;0,000000;0,000000;0,000000;0,000000;0,000000;0,000000;0,234509;0,234545;0,234580;
31;;;;;;;;;;;;;;;;;;;;;;;;;;;;;;;1,000000;0,000000;0,000000;0,352373;0,352731;0,139193;0,207345;0,207501;0,444423;0,144665;0,144954;0,146451;0,150455;0,150640;0,150823;0,180654;0,180834;0,000000;0,000000;0,000000;0,000000;0,000000;0,102560;0,000000;0,176658;0,176792;0,176925;0,000000;0,000000;0,000000;0,104009;0,000000;0,181295;0,181385;0,181475;0,181565;0,156844;0,156960;0,157074;0,000000;0,000000;0,214597;0,199822;0,303638;0,303490;0,303490;0,000000;0,167852;0,162153;0,162220;0,168095;0,162354;0,181900;0,182009;0,182117;0,000000;0,000000;0,000000;0,307636;0,307636;0,183116;0,183215;0,000000;0,573759;0,152072;0,000000;0,179834;0,184364;0,184459;0,185592;0,181575;0,181711;0,000000;0,000000;0,000000;0,216920;0,184022;0,223360;0,230515;0,230561;0,230606;0,000000;0,000000;0,000000;0,161762;0,161845;0,000000;0,000000;0,000000;0,000000;0,000000;0,000000;0,227332;0,227408;0,174748;0,000000;0,000000;0,190596;0,000000;0,000000;0,000000;0,000000;0,000000;0,000000;0,234707;0,234743;0,234779;
32;;;;;;;;;;;;;;;;;;;;;;;;;;;;;;;;1,000000;0,485263;0,000000;0,000000;0,000000;0,000000;0,000000;0,000000;0,169987;0,170349;0,000000;0,000000;0,000000;0,000000;0,000000;0,000000;0,000000;0,000000;0,000000;0,000000;0,000000;0,000000;0,000000;0,000000;0,000000;0,000000;0,000000;0,152599;0,128683;0,156080;0,179242;0,000000;0,000000;0,000000;0,000000;0,000000;0,000000;0,000000;0,515557;0,515557;0,000000;0,138518;0,000000;0,000000;0,000000;0,251169;0,118605;0,000000;0,000000;0,118757;0,000000;0,000000;0,000000;0,000000;0,000000;0,000000;0,000000;0,000000;0,000000;0,000000;0,000000;0,341608;0,000000;0,000000;0,000000;0,000000;0,000000;0,000000;0,215098;0,000000;0,000000;0,366304;0,366360;0,366417;0,000000;0,000000;0,000000;0,000000;0,000000;0,000000;0,586036;0,586081;0,586126;0,000000;0,000000;0,000000;0,000000;0,000000;0,000000;0,189433;0,189523;0,000000;0,000000;0,143402;0,351859;0,000000;0,000000;0,000000;0,000000;0,000000;0,000000;0,353363;0,355822;0,000000;0,000000;0,000000;
33;;;;;;;;;;;;;;;;;;;;;;;;;;;;;;;;;1,000000;0,000000;0,000000;0,000000;0,000000;0,000000;0,000000;0,000000;0,000000;0,000000;0,000000;0,000000;0,000000;0,000000;0,000000;0,000000;0,000000;0,000000;0,000000;0,000000;0,000000;0,000000;0,000000;0,000000;0,000000;0,000000;0,146885;0,122968;0,150365;0,173528;0,000000;0,000000;0,000000;0,000000;0,000000;0,000000;0,000000;0,503173;0,503173;0,000000;0,132803;0,000000;0,000000;0,000000;0,245454;0,000000;0,000000;0,000000;0,000000;0,000000;0,000000;0,000000;0,000000;0,000000;0,000000;0,000000;0,000000;0,000000;0,000000;0,000000;0,436242;0,000000;0,000000;0,000000;0,000000;0,000000;0,000000;0,209384;0,000000;0,000000;0,661821;0,661949;0,662076;0,000000;0,000000;0,000000;0,000000;0,000000;0,000000;0,566784;0,566829;0,566875;0,000000;0,000000;0,000000;0,000000;0,000000;0,000000;0,183719;0,183809;0,000000;0,000000;0,000000;0,346145;0,000000;0,000000;0,000000;0,000000;0,000000;0,000000;0,347649;0,350108;0,000000;0,000000;0,000000;
34;;;;;;;;;;;;;;;;;;;;;;;;;;;;;;;;;;1,000000;0,801931;0,149678;0,217830;0,217986;0,403162;0,362657;0,363120;0,400673;0,376069;0,376266;0,376463;0,357498;0,357666;0,000000;0,000000;0,000000;0,000000;0,000000;0,113045;0,000000;0,187143;0,187277;0,187410;0,000000;0,000000;0,142196;0,265863;0,188927;0,191780;0,191870;0,191960;0,192050;0,167329;0,167444;0,167559;0,000000;0,000000;0,225081;0,210307;0,314123;0,313975;0,313975;0,000000;0,178337;0,172637;0,172705;0,178580;0,172839;0,192385;0,192493;0,192602;0,000000;0,000000;0,138944;0,318120;0,318120;0,193600;0,193700;0,000000;0,584244;0,421419;0,222861;0,435259;0,445442;0,445503;0,196077;0,438649;0,438818;0,000000;0,000000;0,000000;0,227404;0,194507;0,233845;0,241000;0,241045;0,241091;0,000000;0,000000;0,000000;0,830010;0,830141;0,000000;0,000000;0,000000;0,000000;0,000000;0,000000;0,237817;0,237893;0,185233;0,000000;0,000000;0,201080;0,000000;0,000000;0,000000;0,000000;0,000000;0,000000;0,245192;0,245228;0,245264;
35;;;;;;;;;;;;;;;;;;;;;;;;;;;;;;;;;;;1,000000;0,149917;0,218070;0,218225;0,403520;0,362815;0,363277;0,400831;0,376227;0,376424;0,376620;0,357656;0,357824;0,000000;0,000000;0,000000;0,000000;0,000000;0,113284;0,000000;0,187383;0,187516;0,187649;0,000000;0,000000;0,142469;0,266021;0,189200;0,192020;0,192109;0,192199;0,192289;0,167568;0,167684;0,167798;0,000000;0,000000;0,225321;0,210546;0,314362;0,314214;0,314214;0,000000;0,178576;0,172877;0,172944;0,178820;0,173079;0,192624;0,192733;0,192841;0,000000;0,000000;0,139217;0,318360;0,318360;0,193840;0,193939;0,000000;0,584484;0,421577;0,223134;0,435417;0,445599;0,445661;0,196316;0,438807;0,438976;0,000000;0,000000;0,000000;0,227644;0,194747;0,234084;0,241240;0,241285;0,241330;0,000000;0,000000;0,000000;0,830306;0,830436;0,000000;0,000000;0,000000;0,000000;0,000000;0,000000;0,238056;0,238133;0,185473;0,000000;0,000000;0,201320;0,000000;0,000000;0,000000;0,000000;0,000000;0,000000;0,245432;0,245467;0,245503;
36;;;;;;;;;;;;;;;;;;;;;;;;;;;;;;;;;;;;1,000000;0,532537;0,532867;0,339364;0,136340;0,136628;0,138126;0,142129;0,142314;0,142497;0,555996;0,556430;0,170509;0,447924;0,170810;0,170960;0,171109;0,204074;0,171406;0,168333;0,168466;0,168599;0,626843;0,542464;0,463166;0,294045;0,192067;0,172970;0,173059;0,173149;0,173239;0,148518;0,148634;0,148748;0,000000;0,000000;0,206271;0,191496;0,295312;0,295164;0,295164;0,000000;0,159526;0,153827;0,153894;0,159769;0,154029;0,173574;0,173683;0,173791;0,000000;0,000000;0,000000;0,299310;0,299310;0,174790;0,174889;0,000000;0,565434;0,143747;0,000000;0,171508;0,176039;0,176133;0,177266;0,534138;0,534332;0,000000;0,000000;0,000000;0,208594;0,540388;0,657620;0,222190;0,222235;0,222280;0,000000;0,000000;0,000000;0,153436;0,153519;0,000000;0,000000;0,000000;0,000000;0,156834;0,156928;0,219006;0,219083;0,166423;0,260693;0,000000;0,182270;0,000000;0,000000;0,000000;0,000000;0,000000;0,000000;0,226382;0,226417;0,226453;
37;;;;;;;;;;;;;;;;;;;;;;;;;;;;;;;;;;;;;1,000000;0,676374;0,228465;0,204492;0,204781;0,206278;0,210282;0,210467;0,210650;0,468101;0,468304;0,000000;0,254722;0,000000;0,000000;0,000000;0,162387;0,000000;0,236485;0,236619;0,236752;0,325318;0,289985;0,260276;0,163836;0,000000;0,241122;0,241212;0,241302;0,241392;0,216671;0,216786;0,216901;0,000000;0,000000;0,274423;0,259649;0,363465;0,363317;0,363317;0,000000;0,227679;0,221980;0,222047;0,227922;0,222181;0,241727;0,241836;0,241944;0,000000;0,000000;0,000000;0,367462;0,367462;0,242943;0,243042;0,000000;0,633586;0,211899;0,000000;0,239660;0,244191;0,244286;0,245419;0,241402;0,241538;0,000000;0,000000;0,000000;0,276746;0,612793;0,283187;0,290342;0,290387;0,290433;0,000000;0,000000;0,000000;0,221589;0,221671;0,000000;0,000000;0,000000;0,000000;0,000000;0,000000;0,287159;0,287235;0,234575;0,000000;0,000000;0,250423;0,000000;0,000000;0,000000;0,000000;0,000000;0,000000;0,294534;0,294570;0,294606;
38;;;;;;;;;;;;;;;;;;;;;;;;;;;;;;;;;;;;;;1,000000;0,228620;0,204648;0,204936;0,206434;0,210437;0,210622;0,210805;0,468101;0,468304;0,000000;0,255178;0,000000;0,000000;0,000000;0,162542;0,000000;0,236641;0,236774;0,236907;0,325774;0,290441;0,260732;0,163991;0,000000;0,241278;0,241367;0,241457;0,241547;0,216826;0,216942;0,217056;0,000000;0,000000;0,274579;0,259804;0,363620;0,363472;0,363472;0,000000;0,227834;0,222135;0,222202;0,228077;0,222337;0,241882;0,241991;0,242099;0,000000;0,000000;0,000000;0,367618;0,367618;0,243098;0,243197;0,000000;0,633742;0,212055;0,000000;0,239816;0,244347;0,244441;0,245574;0,241557;0,241693;0,000000;0,000000;0,000000;0,276902;0,612793;0,283342;0,290498;0,290543;0,290588;0,000000;0,000000;0,000000;0,221744;0,221827;0,000000;0,000000;0,000000;0,000000;0,000000;0,000000;0,287314;0,287391;0,234731;0,000000;0,000000;0,250578;0,000000;0,000000;0,000000;0,000000;0,000000;0,000000;0,294690;0,294725;0,294761;
39;;;;;;;;;;;;;;;;;;;;;;;;;;;;;;;;;;;;;;;1,000000;0,165785;0,166074;0,327598;0,171574;0,171760;0,171942;0,577592;0,577791;0,000000;0,167369;0,000000;0,000000;0,000000;0,123679;0,000000;0,461753;0,461870;0,461989;0,226192;0,196109;0,338184;0,472541;0,211106;0,202415;0,202504;0,202594;0,202684;0,177963;0,178079;0,178194;0,000000;0,000000;0,235716;0,381637;0,324758;0,324610;0,324610;0,000000;0,357470;0,183272;0,183340;0,357749;0,183474;0,203019;0,203128;0,203236;0,000000;0,000000;0,000000;0,328755;0,328755;0,204235;0,204334;0,000000;0,594879;0,173192;0,000000;0,462932;0,205484;0,205579;0,206712;0,202695;0,202831;0,000000;0,000000;0,000000;0,238039;0,205142;0,244480;0,251635;0,251680;0,251726;0,000000;0,000000;0,000000;0,182881;0,182964;0,000000;0,000000;0,000000;0,000000;0,233644;0,233738;0,563580;0,563580;0,387303;0,000000;0,000000;0,211715;0,000000;0,000000;0,000000;0,000000;0,000000;0,000000;0,255827;0,255862;0,255898;
40;;;;;;;;;;;;;;;;;;;;;;;;;;;;;;;;;;;;;;;;1,000000;0,787691;0,365205;0,340601;0,340798;0,340994;0,322030;0,322198;0,000000;0,000000;0,000000;0,000000;0,000000;0,099707;0,000000;0,173805;0,173939;0,174072;0,000000;0,000000;0,127431;0,230395;0,174163;0,178442;0,178532;0,178621;0,178711;0,153991;0,154106;0,154221;0,000000;0,000000;0,211743;0,196969;0,300785;0,300637;0,300637;0,000000;0,308697;0,159299;0,159367;0,308955;0,159501;0,179047;0,179155;0,179264;0,000000;0,000000;0,124180;0,304782;0,304782;0,180262;0,180362;0,354052;0,570906;0,385951;0,208097;0,399790;0,409973;0,410035;0,182739;0,403181;0,403350;0,000000;0,000000;0,000000;0,214066;0,181169;0,220507;0,227662;0,227707;0,227753;0,000000;0,000000;0,000000;0,357192;0,357300;0,000000;0,000000;0,000000;0,000000;0,000000;0,000000;0,224479;0,224555;0,339278;0,000000;0,000000;0,187742;0,000000;0,000000;0,000000;0,000000;0,000000;0,000000;0,231854;0,231890;0,231926;
41;;;;;;;;;;;;;;;;;;;;;;;;;;;;;;;;;;;;;;;;;1,000000;0,365667;0,341064;0,341260;0,341457;0,322493;0,322661;0,000000;0,000000;0,000000;0,000000;0,000000;0,099996;0,000000;0,174094;0,174228;0,174361;0,000000;0,000000;0,127758;0,230857;0,174490;0,178731;0,178821;0,178910;0,179000;0,154280;0,154395;0,154510;0,000000;0,000000;0,212032;0,197258;0,301074;0,300926;0,300926;0,000000;0,309179;0,159588;0,159656;0,309437;0,159790;0,179336;0,179444;0,179553;0,000000;0,000000;0,124507;0,305071;0,305071;0,180551;0,180651;0,354414;0,571195;0,386413;0,208423;0,400253;0,410436;0,410497;0,183028;0,403644;0,403812;0,000000;0,000000;0,000000;0,214355;0,181458;0,220796;0,227951;0,227996;0,228042;0,000000;0,000000;0,000000;0,357655;0,357763;0,000000;0,000000;0,000000;0,000000;0,000000;0,000000;0,224768;0,224844;0,339760;0,000000;0,000000;0,188031;0,000000;0,000000;0,000000;0,000000;0,000000;0,000000;0,232143;0,232179;0,232215;
42;;;;;;;;;;;;;;;;;;;;;;;;;;;;;;;;;;;;;;;;;;1,000000;0,720277;0,720496;0,720711;0,450299;0,450443;0,000000;0,000000;0,000000;0,000000;0,000000;0,193389;0,000000;0,343211;0,343328;0,343447;0,000000;0,000000;0,242084;0,343525;0,340931;0,180228;0,180318;0,180407;0,180497;0,155777;0,155892;0,156007;0,000000;0,000000;0,213529;0,263095;0,302571;0,302423;0,302423;0,000000;0,238927;0,161085;0,161153;0,239206;0,161287;0,180833;0,180941;0,181050;0,261563;0,261654;0,421408;0,306568;0,306568;0,182048;0,182148;0,000000;0,572692;0,633724;0,629315;0,608501;0,673349;0,673349;0,184525;0,441197;0,441366;0,000000;0,000000;0,000000;0,215852;0,182955;0,222293;0,229448;0,229493;0,229539;0,000000;0,000000;0,000000;0,395208;0,395316;0,222550;0,222609;0,222669;0,222729;0,000000;0,000000;0,445038;0,445038;0,268761;0,000000;0,540398;0,189528;0,000000;0,000000;0,000000;0,000000;0,000000;0,000000;0,233640;0,233676;0,233712;
43;;;;;;;;;;;;;;;;;;;;;;;;;;;;;;;;;;;;;;;;;;;1,000000;0,829748;0,830109;0,335443;0,335611;0,000000;0,000000;0,000000;0,000000;0,000000;0,105496;0,000000;0,179595;0,179728;0,179861;0,000000;0,000000;0,133890;0,243807;0,180622;0,184232;0,184321;0,184411;0,184501;0,159780;0,159896;0,160010;0,000000;0,000000;0,217533;0,202758;0,306575;0,306426;0,306426;0,000000;0,170788;0,165089;0,165156;0,171032;0,165291;0,184836;0,184945;0,185053;0,000000;0,000000;0,305001;0,310572;0,310572;0,186052;0,186151;0,000000;0,576696;0,629986;0,483620;0,676868;0,423386;0,423447;0,188528;0,416594;0,416762;0,000000;0,000000;0,000000;0,219856;0,186959;0,226296;0,233452;0,233497;0,233542;0,000000;0,000000;0,000000;0,370605;0,370713;0,000000;0,000000;0,000000;0,000000;0,000000;0,000000;0,230268;0,230345;0,177685;0,000000;0,000000;0,193532;0,000000;0,000000;0,000000;0,000000;0,000000;0,000000;0,237644;0,237679;0,237715;
44;;;;;;;;;;;;;;;;;;;;;;;;;;;;;;;;;;;;;;;;;;;;1,000000;0,830464;0,335639;0,335807;0,000000;0,000000;0,000000;0,000000;0,000000;0,105681;0,000000;0,179780;0,179914;0,180047;0,000000;0,000000;0,134100;0,244004;0,180832;0,184417;0,184506;0,184596;0,184686;0,159965;0,160081;0,160196;0,000000;0,000000;0,217718;0,202943;0,306760;0,306612;0,306612;0,000000;0,170974;0,165274;0,165342;0,171217;0,165476;0,185021;0,185130;0,185238;0,000000;0,000000;0,305362;0,310757;0,310757;0,186237;0,186336;0,000000;0,576881;0,630138;0,483980;0,677020;0,423582;0,423644;0,188714;0,416790;0,416959;0,000000;0,000000;0,000000;0,220041;0,187144;0,226482;0,233637;0,233682;0,233728;0,000000;0,000000;0,000000;0,370801;0,370909;0,000000;0,000000;0,000000;0,000000;0,000000;0,000000;0,230454;0,230530;0,177870;0,000000;0,000000;0,193717;0,000000;0,000000;0,000000;0,000000;0,000000;0,000000;0,237829;0,237865;0,237900;
45;;;;;;;;;;;;;;;;;;;;;;;;;;;;;;;;;;;;;;;;;;;;;1,000000;0,335836;0,336004;0,000000;0,000000;0,000000;0,000000;0,000000;0,105864;0,000000;0,179963;0,180096;0,180229;0,000000;0,000000;0,134307;0,244200;0,181038;0,184599;0,184689;0,184779;0,184869;0,160148;0,160264;0,160378;0,000000;0,000000;0,217901;0,203126;0,306942;0,306794;0,306794;0,000000;0,171156;0,165457;0,165524;0,171399;0,165659;0,185204;0,185313;0,185421;0,000000;0,000000;0,305716;0,310940;0,310940;0,186420;0,186519;0,000000;0,577064;0,630292;0,484335;0,677174;0,423779;0,423840;0,188896;0,416987;0,417155;0,000000;0,000000;0,000000;0,220224;0,187326;0,226664;0,233820;0,233865;0,233910;0,000000;0,000000;0,000000;0,370998;0,371106;0,000000;0,000000;0,000000;0,000000;0,000000;0,000000;0,230636;0,230713;0,178052;0,000000;0,000000;0,193900;0,000000;0,000000;0,000000;0,000000;0,000000;0,000000;0,238011;0,238047;0,238083;
46;;;;;;;;;;;;;;;;;;;;;;;;;;;;;;;;;;;;;;;;;;;;;;1,000000;0,761124;0,000000;0,181238;0,000000;0,000000;0,000000;0,135696;0,000000;0,398551;0,398668;0,398787;0,303153;0,242003;0,379096;0,419995;0,287769;0,214431;0,214521;0,214610;0,214700;0,189980;0,190095;0,190210;0,000000;0,000000;0,247732;0,318435;0,336774;0,336626;0,336626;0,000000;0,294268;0,195288;0,195356;0,294547;0,195490;0,215035;0,215144;0,215252;0,000000;0,000000;0,086374;0,340771;0,340771;0,216251;0,216350;0,000000;0,606895;0,380792;0,170291;0,585019;0,404815;0,404876;0,218728;0,684335;0,684461;0,000000;0,000000;0,000000;0,250055;0,666656;0,591297;0,263651;0,263696;0,263742;0,000000;0,000000;0,000000;0,352034;0,352142;0,000000;0,000000;0,000000;0,000000;0,164688;0,164782;0,500378;0,500378;0,324101;0,000000;0,000000;0,223731;0,000000;0,000000;0,000000;0,000000;0,000000;0,000000;0,267843;0,267879;0,267914;
47;;;;;;;;;;;;;;;;;;;;;;;;;;;;;;;;;;;;;;;;;;;;;;;1,000000;0,000000;0,181426;0,000000;0,000000;0,000000;0,135875;0,000000;0,398761;0,398878;0,398997;0,303342;0,242191;0,379390;0,420069;0,287976;0,214610;0,214700;0,214790;0,214880;0,190159;0,190275;0,190389;0,000000;0,000000;0,247912;0,318645;0,336953;0,336805;0,336805;0,000000;0,294477;0,195468;0,195535;0,294756;0,195670;0,215215;0,215324;0,215432;0,000000;0,000000;0,086486;0,340951;0,340951;0,216431;0,216530;0,000000;0,607074;0,380960;0,170403;0,585164;0,404983;0,405044;0,218907;0,684777;0,684902;0,000000;0,000000;0,000000;0,250235;0,667180;0,591852;0,263831;0,263876;0,263921;0,000000;0,000000;0,000000;0,352202;0,352310;0,000000;0,000000;0,000000;0,000000;0,164826;0,164919;0,500588;0,500588;0,324311;0,000000;0,000000;0,223911;0,000000;0,000000;0,000000;0,000000;0,000000;0,000000;0,268022;0,268058;0,268094;
48;;;;;;;;;;;;;;;;;;;;;;;;;;;;;;;;;;;;;;;;;;;;;;;;1,000000;0,744393;0,893556;0,893767;0,893974;0,698766;0,894380;0,000000;0,000000;0,000000;0,250548;0,215014;0,184948;0,000000;0,000000;0,000000;0,000000;0,000000;0,000000;0,235463;0,235666;0,235866;0,000000;0,000000;0,000000;0,000000;0,000000;0,000000;0,000000;0,000000;0,000000;0,000000;0,000000;0,000000;0,000000;0,000000;0,000000;0,000000;0,326224;0,326292;0,169731;0,000000;0,000000;0,000000;0,000000;0,000000;0,000000;0,000000;0,000000;0,000000;0,000000;0,000000;0,000000;0,000000;0,000000;0,000000;0,000000;0,000000;0,000000;0,000000;0,000000;0,000000;0,000000;0,000000;0,000000;0,000000;0,000000;0,000000;0,000000;0,000000;0,000000;0,000000;0,000000;0,000000;0,000000;0,000000;0,000000;0,000000;0,000000;0,000000;0,000000;0,000000;0,000000;0,000000;0,000000;0,000000;0,000000;0,000000;0,000000;0,000000;
49;;;;;;;;;;;;;;;;;;;;;;;;;;;;;;;;;;;;;;;;;;;;;;;;;1,000000;0,744687;0,744830;0,744972;0,556423;0,745250;0,000000;0,000000;0,000000;0,654530;0,569318;0,489602;0,206940;0,201037;0,000000;0,000000;0,000000;0,000000;0,187691;0,187894;0,188094;0,000000;0,000000;0,000000;0,000000;0,000000;0,000000;0,000000;0,000000;0,000000;0,000000;0,000000;0,000000;0,000000;0,000000;0,000000;0,000000;0,278452;0,278520;0,121958;0,000000;0,000000;0,000000;0,000000;0,000000;0,000000;0,000000;0,000000;0,000000;0,000000;0,000000;0,000000;0,000000;0,000000;0,000000;0,000000;0,000000;0,000000;0,233116;0,000000;0,000000;0,000000;0,000000;0,000000;0,000000;0,000000;0,000000;0,000000;0,000000;0,000000;0,000000;0,000000;0,163635;0,163729;0,000000;0,000000;0,000000;0,270546;0,000000;0,000000;0,000000;0,000000;0,000000;0,000000;0,000000;0,000000;0,000000;0,000000;0,000000;
50;;;;;;;;;;;;;;;;;;;;;;;;;;;;;;;;;;;;;;;;;;;;;;;;;;1,000000;0,894178;0,894380;0,699017;0,894775;0,000000;0,000000;0,000000;0,250850;0,215316;0,185250;0,000000;0,000000;0,000000;0,000000;0,000000;0,000000;0,235756;0,235959;0,236159;0,000000;0,000000;0,000000;0,000000;0,000000;0,000000;0,000000;0,000000;0,000000;0,000000;0,000000;0,000000;0,000000;0,000000;0,000000;0,000000;0,326517;0,326585;0,170023;0,000000;0,000000;0,000000;0,000000;0,000000;0,000000;0,000000;0,000000;0,000000;0,000000;0,000000;0,000000;0,000000;0,000000;0,000000;0,000000;0,000000;0,000000;0,000000;0,000000;0,000000;0,000000;0,000000;0,000000;0,000000;0,000000;0,000000;0,000000;0,000000;0,000000;0,000000;0,000000;0,000000;0,000000;0,000000;0,000000;0,000000;0,000000;0,000000;0,000000;0,000000;0,000000;0,000000;0,000000;0,000000;0,000000;0,000000;0,000000;0,000000;
51;;;;;;;;;;;;;;;;;;;;;;;;;;;;;;;;;;;;;;;;;;;;;;;;;;;1,000000;0,894579;0,699140;0,894969;0,000000;0,000000;0,000000;0,251000;0,215466;0,185400;0,000000;0,000000;0,000000;0,000000;0,000000;0,000000;0,235901;0,236104;0,236304;0,000000;0,000000;0,000000;0,000000;0,000000;0,000000;0,000000;0,000000;0,000000;0,000000;0,000000;0,000000;0,000000;0,000000;0,000000;0,000000;0,326662;0,326730;0,170169;0,000000;0,000000;0,000000;0,000000;0,000000;0,000000;0,000000;0,000000;0,000000;0,000000;0,000000;0,000000;0,000000;0,000000;0,000000;0,000000;0,000000;0,000000;0,000000;0,000000;0,000000;0,000000;0,000000;0,000000;0,000000;0,000000;0,000000;0,000000;0,000000;0,000000;0,000000;0,000000;0,000000;0,000000;0,000000;0,000000;0,000000;0,000000;0,000000;0,000000;0,000000;0,000000;0,000000;0,000000;0,000000;0,000000;0,000000;0,000000;0,000000;
52;;;;;;;;;;;;;;;;;;;;;;;;;;;;;;;;;;;;;;;;;;;;;;;;;;;;1,000000;0,699261;0,895160;0,000000;0,000000;0,000000;0,251149;0,215615;0,185549;0,000000;0,000000;0,000000;0,000000;0,000000;0,000000;0,236046;0,236249;0,236449;0,000000;0,000000;0,000000;0,000000;0,000000;0,000000;0,000000;0,000000;0,000000;0,000000;0,000000;0,000000;0,000000;0,000000;0,000000;0,000000;0,326807;0,326875;0,170314;0,000000;0,000000;0,000000;0,000000;0,000000;0,000000;0,000000;0,000000;0,000000;0,000000;0,000000;0,000000;0,000000;0,000000;0,000000;0,000000;0,000000;0,000000;0,000000;0,000000;0,000000;0,000000;0,000000;0,000000;0,000000;0,000000;0,000000;0,000000;0,000000;0,000000;0,000000;0,000000;0,000000;0,000000;0,000000;0,000000;0,000000;0,000000;0,000000;0,000000;0,000000;0,000000;0,000000;0,000000;0,000000;0,000000;0,000000;0,000000;0,000000;
53;;;;;;;;;;;;;;;;;;;;;;;;;;;;;;;;;;;;;;;;;;;;;;;;;;;;;1,000000;0,699498;0,131700;0,131833;0,131966;0,187452;0,151918;0,121852;0,059051;0,000000;0,136337;0,136426;0,136516;0,136606;0,619602;0,619726;0,619849;0,000000;0,000000;0,169638;0,154863;0,258680;0,258531;0,258531;0,000000;0,122893;0,117194;0,117261;0,123137;0,117396;0,329421;0,329493;0,329566;0,530789;0,530910;0,331495;0,262677;0,262677;0,138157;0,138256;0,000000;0,528801;0,222190;0,220066;0,134875;0,139406;0,139500;0,140633;0,136616;0,136752;0,000000;0,000000;0,000000;0,171961;0,139064;0,178401;0,185557;0,185602;0,185647;0,000000;0,000000;0,000000;0,116803;0,116886;0,232336;0,232395;0,232455;0,232515;0,000000;0,000000;0,182373;0,182450;0,129790;0,000000;0,550184;0,145637;0,000000;0,000000;0,000000;0,000000;0,000000;0,000000;0,189749;0,189784;0,189820;
54;;;;;;;;;;;;;;;;;;;;;;;;;;;;;;;;;;;;;;;;;;;;;;;;;;;;;;1,000000;0,000000;0,000000;0,000000;0,251445;0,215912;0,185846;0,000000;0,000000;0,000000;0,000000;0,000000;0,000000;0,236334;0,236536;0,236737;0,000000;0,000000;0,000000;0,000000;0,000000;0,000000;0,000000;0,000000;0,000000;0,000000;0,000000;0,000000;0,000000;0,000000;0,000000;0,000000;0,327095;0,327163;0,170601;0,000000;0,000000;0,000000;0,000000;0,000000;0,000000;0,000000;0,000000;0,000000;0,000000;0,000000;0,000000;0,000000;0,000000;0,000000;0,000000;0,000000;0,000000;0,000000;0,000000;0,000000;0,000000;0,000000;0,000000;0,000000;0,000000;0,000000;0,000000;0,000000;0,000000;0,000000;0,000000;0,000000;0,000000;0,000000;0,000000;0,000000;0,000000;0,000000;0,000000;0,000000;0,000000;0,000000;0,000000;0,000000;0,000000;0,000000;0,000000;0,000000;
55;;;;;;;;;;;;;;;;;;;;;;;;;;;;;;;;;;;;;;;;;;;;;;;;;;;;;;;1,000000;0,803530;0,803830;0,000000;0,000000;0,172291;0,308065;0,221134;0,210435;0,210525;0,210615;0,210705;0,185984;0,186099;0,186214;0,000000;0,000000;0,243736;0,397251;0,332778;0,332630;0,332630;0,000000;0,373083;0,191292;0,191360;0,373362;0,191494;0,211040;0,211149;0,211257;0,000000;0,000000;0,000000;0,336775;0,336775;0,212255;0,212355;0,000000;0,602899;0,181212;0,000000;0,478545;0,213504;0,213599;0,214732;0,210715;0,210851;0,000000;0,000000;0,000000;0,246059;0,213162;0,252500;0,259655;0,259700;0,259746;0,000000;0,000000;0,000000;0,190901;0,190984;0,000000;0,000000;0,000000;0,000000;0,000000;0,000000;0,579193;0,579193;0,402917;0,000000;0,000000;0,219735;0,000000;0,000000;0,000000;0,000000;0,000000;0,000000;0,263847;0,263883;0,263919;
56;;;;;;;;;;;;;;;;;;;;;;;;;;;;;;;;;;;;;;;;;;;;;;;;;;;;;;;;1,000000;0,804127;0,000000;0,000000;0,172495;0,308182;0,221339;0,210569;0,210658;0,210748;0,210838;0,186117;0,186233;0,186347;0,000000;0,000000;0,243870;0,397368;0,332912;0,332763;0,332763;0,000000;0,373200;0,191426;0,191493;0,373479;0,191628;0,211173;0,211282;0,211390;0,000000;0,000000;0,000000;0,336909;0,336909;0,212389;0,212488;0,000000;0,603033;0,181346;0,000000;0,478662;0,213638;0,213732;0,214865;0,210848;0,210984;0,000000;0,000000;0,000000;0,246193;0,213296;0,252633;0,259789;0,259834;0,259879;0,000000;0,000000;0,000000;0,191035;0,191118;0,000000;0,000000;0,000000;0,000000;0,000000;0,000000;0,579311;0,579311;0,403034;0,000000;0,000000;0,219869;0,000000;0,000000;0,000000;0,000000;0,000000;0,000000;0,263981;0,264016;0,264052;
57;;;;;;;;;;;;;;;;;;;;;;;;;;;;;;;;;;;;;;;;;;;;;;;;;;;;;;;;;1,000000;0,000000;0,000000;0,172697;0,308301;0,221541;0,210702;0,210791;0,210881;0,210971;0,186250;0,186366;0,186481;0,000000;0,000000;0,244003;0,397487;0,333045;0,332897;0,332897;0,000000;0,373319;0,191559;0,191627;0,373598;0,191761;0,211306;0,211415;0,211523;0,000000;0,000000;0,000000;0,337042;0,337042;0,212522;0,212621;0,000000;0,603166;0,181479;0,000000;0,478781;0,213771;0,213866;0,214998;0,210982;0,211118;0,000000;0,000000;0,000000;0,246326;0,213429;0,252767;0,259922;0,259967;0,260013;0,000000;0,000000;0,000000;0,191168;0,191251;0,000000;0,000000;0,000000;0,000000;0,000000;0,000000;0,579430;0,579430;0,403153;0,000000;0,000000;0,220002;0,000000;0,000000;0,000000;0,000000;0,000000;0,000000;0,264114;0,264149;0,264185;
58;;;;;;;;;;;;;;;;;;;;;;;;;;;;;;;;;;;;;;;;;;;;;;;;;;;;;;;;;;1,000000;0,753561;0,670910;0,328643;0,273269;0,000000;0,000000;0,000000;0,000000;0,000000;0,000000;0,000000;0,000000;0,000000;0,000000;0,000000;0,000000;0,000000;0,000000;0,000000;0,000000;0,000000;0,000000;0,000000;0,000000;0,000000;0,000000;0,000000;0,000000;0,000000;0,000000;0,000000;0,000000;0,000000;0,000000;0,000000;0,000000;0,000000;0,000000;0,000000;0,000000;0,000000;0,000000;0,000000;0,000000;0,000000;0,000000;0,000000;0,000000;0,303713;0,000000;0,000000;0,000000;0,000000;0,000000;0,000000;0,000000;0,000000;0,000000;0,000000;0,000000;0,000000;0,000000;0,222459;0,222552;0,000000;0,000000;0,000000;0,348228;0,000000;0,000000;0,000000;0,000000;0,000000;0,000000;0,000000;0,000000;0,000000;0,000000;0,000000;
59;;;;;;;;;;;;;;;;;;;;;;;;;;;;;;;;;;;;;;;;;;;;;;;;;;;;;;;;;;;1,000000;0,688119;0,414200;0,399932;0,000000;0,000000;0,000000;0,000000;0,000000;0,000000;0,000000;0,248867;0,249029;0,000000;0,137360;0,000000;0,000000;0,000000;0,250011;0,000000;0,000000;0,000000;0,000000;0,000000;0,000000;0,000000;0,000000;0,000000;0,000000;0,000000;0,000000;0,000000;0,000000;0,000000;0,000000;0,000000;0,000000;0,000000;0,000000;0,000000;0,000000;0,213940;0,000000;0,000000;0,000000;0,000000;0,000000;0,000000;0,268380;0,000000;0,000000;0,000000;0,000000;0,188143;0,188235;0,188326;0,000000;0,000000;0,000000;0,000000;0,000000;0,000000;0,374533;0,374645;0,000000;0,000000;0,000000;0,350701;0,000000;0,000000;0,000000;0,000000;0,000000;0,000000;0,352205;0,697961;0,000000;0,000000;0,000000;
60;;;;;;;;;;;;;;;;;;;;;;;;;;;;;;;;;;;;;;;;;;;;;;;;;;;;;;;;;;;;1,000000;0,528997;0,622756;0,000000;0,000000;0,000000;0,000000;0,000000;0,000000;0,000000;0,224951;0,225112;0,266854;0,193261;0,000000;0,000000;0,000000;0,226094;0,087728;0,000000;0,000000;0,087879;0,000000;0,000000;0,000000;0,000000;0,000000;0,000000;0,089258;0,000000;0,000000;0,000000;0,000000;0,000000;0,000000;0,181722;0,173174;0,346232;0,171291;0,171395;0,190024;0,168257;0,168406;0,000000;0,000000;0,000000;0,000000;0,238671;0,000000;0,000000;0,000000;0,000000;0,164227;0,164318;0,164409;0,146524;0,146616;0,000000;0,000000;0,000000;0,000000;0,499491;0,499584;0,229507;0,229609;0,111472;0,539565;0,000000;0,000000;0,000000;0,000000;0,000000;0,000000;0,328289;0,330747;0,000000;0,000000;0,000000;
61;;;;;;;;;;;;;;;;;;;;;;;;;;;;;;;;;;;;;;;;;;;;;;;;;;;;;;;;;;;;;1,000000;0,617230;0,137786;0,137876;0,137965;0,138055;0,113335;0,113450;0,113565;0,252348;0,252510;0,460298;0,537603;0,260129;0,259981;0,259981;0,522240;0,203781;0,118643;0,118711;0,204060;0,118845;0,138391;0,138499;0,138608;0,000000;0,000000;0,078160;0,264126;0,264126;0,384285;0,384360;0,000000;0,530250;0,289157;0,162077;0,478246;0,313179;0,313241;0,367763;0,306387;0,306556;0,000000;0,000000;0,000000;0,456577;0,140513;0,179851;0,187006;0,187051;0,187097;0,191624;0,191715;0,191806;0,260398;0,260506;0,000000;0,000000;0,000000;0,000000;0,688379;0,688460;0,409892;0,409892;0,233615;0,354182;0,000000;0,147086;0,000000;0,000000;0,000000;0,000000;0,355686;0,358145;0,191198;0,191234;0,191270;
62;;;;;;;;;;;;;;;;;;;;;;;;;;;;;;;;;;;;;;;;;;;;;;;;;;;;;;;;;;;;;;1,000000;0,000000;0,000000;0,000000;0,000000;0,000000;0,000000;0,000000;0,275510;0,275672;0,326678;0,293306;0,000000;0,000000;0,000000;0,276654;0,136572;0,000000;0,000000;0,136722;0,000000;0,000000;0,000000;0,000000;0,000000;0,000000;0,135989;0,000000;0,000000;0,000000;0,000000;0,000000;0,000000;0,228453;0,219906;0,445078;0,218022;0,218126;0,240583;0,214988;0,215137;0,000000;0,000000;0,000000;0,000000;0,000000;0,000000;0,000000;0,000000;0,000000;0,214786;0,214878;0,214969;0,193255;0,193347;0,000000;0,000000;0,000000;0,000000;0,458772;0,458901;0,278351;0,278453;0,160316;0,377344;0,000000;0,000000;0,000000;0,000000;0,000000;0,000000;0,378848;0,381307;0,000000;0,000000;0,000000;
63;;;;;;;;;;;;;;;;;;;;;;;;;;;;;;;;;;;;;;;;;;;;;;;;;;;;;;;;;;;;;;;1,000000;0,845674;0,845885;0,846094;0,190621;0,190736;0,190851;0,000000;0,000000;0,248373;0,233599;0,337415;0,337267;0,337267;0,000000;0,201629;0,195929;0,195997;0,201872;0,196131;0,215677;0,215785;0,215894;0,000000;0,000000;0,000000;0,341412;0,341412;0,216892;0,216992;0,000000;0,607536;0,185849;0,000000;0,213610;0,218141;0,218236;0,219369;0,215352;0,215488;0,000000;0,000000;0,000000;0,250696;0,217799;0,257137;0,264292;0,264337;0,264383;0,000000;0,000000;0,000000;0,195538;0,195621;0,000000;0,000000;0,000000;0,000000;0,000000;0,000000;0,261109;0,261185;0,208525;0,000000;0,000000;0,224372;0,000000;0,000000;0,000000;0,000000;0,000000;0,000000;0,268484;0,268520;0,268556;
64;;;;;;;;;;;;;;;;;;;;;;;;;;;;;;;;;;;;;;;;;;;;;;;;;;;;;;;;;;;;;;;;1,000000;0,846094;0,846301;0,190710;0,190826;0,190940;0,000000;0,000000;0,248463;0,233688;0,337505;0,337356;0,337356;0,000000;0,201718;0,196019;0,196086;0,201962;0,196221;0,215766;0,215875;0,215983;0,000000;0,000000;0,000000;0,341502;0,341502;0,216982;0,217081;0,000000;0,607626;0,185939;0,000000;0,213700;0,218231;0,218325;0,219458;0,215441;0,215577;0,000000;0,000000;0,000000;0,250786;0,217889;0,257226;0,264382;0,264427;0,264472;0,000000;0,000000;0,000000;0,195628;0,195711;0,000000;0,000000;0,000000;0,000000;0,000000;0,000000;0,261198;0,261275;0,208615;0,000000;0,000000;0,224462;0,000000;0,000000;0,000000;0,000000;0,000000;0,000000;0,268574;0,268609;0,268645;
65;;;;;;;;;;;;;;;;;;;;;;;;;;;;;;;;;;;;;;;;;;;;;;;;;;;;;;;;;;;;;;;;;1,000000;0,846505;0,190800;0,190916;0,191030;0,000000;0,000000;0,248553;0,233778;0,337594;0,337446;0,337446;0,000000;0,201808;0,196109;0,196176;0,202051;0,196311;0,215856;0,215965;0,216073;0,000000;0,000000;0,000000;0,341592;0,341592;0,217072;0,217171;0,000000;0,607716;0,186029;0,000000;0,213790;0,218321;0,218415;0,219548;0,215531;0,215667;0,000000;0,000000;0,000000;0,250876;0,217978;0,257316;0,264472;0,264517;0,264562;0,000000;0,000000;0,000000;0,195718;0,195801;0,000000;0,000000;0,000000;0,000000;0,000000;0,000000;0,261288;0,261365;0,208704;0,000000;0,000000;0,224552;0,000000;0,000000;0,000000;0,000000;0,000000;0,000000;0,268664;0,268699;0,268735;
66;;;;;;;;;;;;;;;;;;;;;;;;;;;;;;;;;;;;;;;;;;;;;;;;;;;;;;;;;;;;;;;;;;1,000000;0,190890;0,191006;0,191120;0,000000;0,000000;0,248643;0,233868;0,337684;0,337536;0,337536;0,000000;0,201898;0,196199;0,196266;0,202141;0,196401;0,215946;0,216055;0,216163;0,000000;0,000000;0,000000;0,341682;0,341682;0,217162;0,217261;0,000000;0,607806;0,186119;0,000000;0,213880;0,218411;0,218505;0,219638;0,215621;0,215757;0,000000;0,000000;0,000000;0,250966;0,218068;0,257406;0,264562;0,264607;0,264652;0,000000;0,000000;0,000000;0,195808;0,195891;0,000000;0,000000;0,000000;0,000000;0,000000;0,000000;0,261378;0,261455;0,208794;0,000000;0,000000;0,224642;0,000000;0,000000;0,000000;0,000000;0,000000;0,000000;0,268753;0,268789;0,268825;
67;;;;;;;;;;;;;;;;;;;;;;;;;;;;;;;;;;;;;;;;;;;;;;;;;;;;;;;;;;;;;;;;;;;1,000000;0,849670;0,849862;0,000000;0,000000;0,223922;0,209147;0,312964;0,312815;0,312815;0,000000;0,177177;0,171478;0,171545;0,177421;0,171680;0,460464;0,460536;0,460609;0,345442;0,345510;0,188949;0,316961;0,316961;0,192441;0,192540;0,000000;0,583085;0,161398;0,000000;0,189159;0,193690;0,193784;0,194917;0,190900;0,191036;0,000000;0,000000;0,000000;0,226245;0,193348;0,232685;0,239841;0,239886;0,239931;0,000000;0,000000;0,000000;0,171087;0,171170;0,000000;0,000000;0,000000;0,000000;0,000000;0,000000;0,236657;0,236734;0,184074;0,000000;0,000000;0,199921;0,000000;0,000000;0,000000;0,000000;0,000000;0,000000;0,244033;0,244068;0,244104;
68;;;;;;;;;;;;;;;;;;;;;;;;;;;;;;;;;;;;;;;;;;;;;;;;;;;;;;;;;;;;;;;;;;;;1,000000;0,850052;0,000000;0,000000;0,224037;0,209263;0,313079;0,312931;0,312931;0,000000;0,177293;0,171594;0,171661;0,177536;0,171795;0,460594;0,460666;0,460739;0,345645;0,345713;0,189151;0,317076;0,317076;0,192557;0,192656;0,000000;0,583200;0,161513;0,000000;0,189275;0,193805;0,193900;0,195033;0,191016;0,191152;0,000000;0,000000;0,000000;0,226360;0,193463;0,232801;0,239956;0,240001;0,240047;0,000000;0,000000;0,000000;0,171203;0,171285;0,000000;0,000000;0,000000;0,000000;0,000000;0,000000;0,236773;0,236849;0,184189;0,000000;0,000000;0,200037;0,000000;0,000000;0,000000;0,000000;0,000000;0,000000;0,244148;0,244184;0,244220;
69;;;;;;;;;;;;;;;;;;;;;;;;;;;;;;;;;;;;;;;;;;;;;;;;;;;;;;;;;;;;;;;;;;;;;1,000000;0,000000;0,000000;0,224152;0,209377;0,313194;0,313046;0,313046;0,000000;0,177407;0,171708;0,171775;0,177651;0,171910;0,460724;0,460796;0,460869;0,345845;0,345913;0,189352;0,317191;0,317191;0,192671;0,192770;0,000000;0,583315;0,161628;0,000000;0,189389;0,193920;0,194015;0,195147;0,191131;0,191267;0,000000;0,000000;0,000000;0,226475;0,193578;0,232916;0,240071;0,240116;0,240162;0,000000;0,000000;0,000000;0,171317;0,171400;0,000000;0,000000;0,000000;0,000000;0,000000;0,000000;0,236887;0,236964;0,184304;0,000000;0,000000;0,200151;0,000000;0,000000;0,000000;0,000000;0,000000;0,000000;0,244263;0,244298;0,244334;
70;;;;;;;;;;;;;;;;;;;;;;;;;;;;;;;;;;;;;;;;;;;;;;;;;;;;;;;;;;;;;;;;;;;;;;1,000000;0,703744;0,000000;0,234786;0,000000;0,000000;0,000000;0,347437;0,000000;0,000000;0,000000;0,000000;0,000000;0,000000;0,000000;0,000000;0,000000;0,000000;0,000000;0,000000;0,000000;0,000000;0,000000;0,000000;0,000000;0,000000;0,000000;0,000000;0,000000;0,000000;0,311366;0,000000;0,000000;0,000000;0,000000;0,000000;0,000000;0,000000;0,000000;0,000000;0,000000;0,000000;0,579316;0,579420;0,579523;0,000000;0,000000;0,000000;0,000000;0,000000;0,000000;0,285701;0,285791;0,000000;0,000000;0,000000;0,448127;0,000000;0,000000;0,000000;0,000000;0,000000;0,000000;0,449631;0,452090;0,000000;0,000000;0,000000;
71;;;;;;;;;;;;;;;;;;;;;;;;;;;;;;;;;;;;;;;;;;;;;;;;;;;;;;;;;;;;;;;;;;;;;;;1,000000;0,000000;0,234947;0,000000;0,000000;0,000000;0,347598;0,000000;0,000000;0,000000;0,000000;0,000000;0,000000;0,000000;0,000000;0,000000;0,000000;0,000000;0,000000;0,000000;0,000000;0,000000;0,000000;0,000000;0,000000;0,000000;0,000000;0,000000;0,000000;0,311528;0,000000;0,000000;0,000000;0,000000;0,000000;0,000000;0,000000;0,000000;0,000000;0,000000;0,000000;0,579316;0,579420;0,579523;0,000000;0,000000;0,000000;0,000000;0,000000;0,000000;0,285863;0,285953;0,000000;0,000000;0,000000;0,448289;0,000000;0,000000;0,000000;0,000000;0,000000;0,000000;0,449793;0,452252;0,000000;0,000000;0,000000;
72;;;;;;;;;;;;;;;;;;;;;;;;;;;;;;;;;;;;;;;;;;;;;;;;;;;;;;;;;;;;;;;;;;;;;;;;1,000000;0,538741;0,370716;0,370568;0,370568;0,378409;0,234930;0,229231;0,229298;0,235173;0,229432;0,248978;0,249087;0,249195;0,000000;0,000000;0,000000;0,374714;0,374714;0,602010;0,602085;0,000000;0,640837;0,219150;0,000000;0,246912;0,251442;0,251537;0,252670;0,248653;0,248789;0,000000;0,000000;0,000000;0,674301;0,251100;0,290438;0,297593;0,297638;0,297684;0,000000;0,000000;0,000000;0,228840;0,228923;0,000000;0,000000;0,000000;0,000000;0,600436;0,600561;0,294410;0,294486;0,241826;0,000000;0,000000;0,257674;0,000000;0,000000;0,000000;0,000000;0,000000;0,000000;0,301785;0,301821;0,301857;
73;;;;;;;;;;;;;;;;;;;;;;;;;;;;;;;;;;;;;;;;;;;;;;;;;;;;;;;;;;;;;;;;;;;;;;;;;1,000000;0,355941;0,355793;0,355793;0,485057;0,292967;0,214456;0,214523;0,293246;0,214658;0,234203;0,234312;0,234420;0,000000;0,000000;0,000000;0,359939;0,359939;0,660632;0,660734;0,000000;0,626063;0,204376;0,000000;0,398429;0,236668;0,236762;0,737516;0,233878;0,234014;0,000000;0,000000;0,000000;0,535019;0,236326;0,275663;0,282819;0,282864;0,282909;0,174062;0,174153;0,174244;0,214065;0,214148;0,000000;0,000000;0,000000;0,000000;0,359579;0,359683;0,499078;0,499078;0,322801;0,336620;0,000000;0,242899;0,000000;0,000000;0,000000;0,000000;0,338124;0,340583;0,287011;0,287046;0,287082;
74;;;;;;;;;;;;;;;;;;;;;;;;;;;;;;;;;;;;;;;;;;;;;;;;;;;;;;;;;;;;;;;;;;;;;;;;;;1,000000;0,459610;0,459610;0,422556;0,323972;0,318272;0,318340;0,324215;0,318474;0,338019;0,338128;0,338237;0,000000;0,000000;0,000000;0,463755;0,463755;0,718173;0,718315;0,000000;0,729879;0,308192;0,000000;0,335953;0,340484;0,340579;0,341712;0,337695;0,337831;0,000000;0,000000;0,000000;0,373039;0,340142;0,379480;0,386635;0,386680;0,386726;0,000000;0,000000;0,000000;0,317881;0,317964;0,000000;0,000000;0,000000;0,000000;0,000000;0,000000;0,383452;0,383528;0,330868;0,000000;0,000000;0,346715;0,000000;0,000000;0,000000;0,000000;0,451601;0,000000;0,390827;0,390863;0,390898;
75;;;;;;;;;;;;;;;;;;;;;;;;;;;;;;;;;;;;;;;;;;;;;;;;;;;;;;;;;;;;;;;;;;;;;;;;;;;1,000000;0,459462;0,000000;0,323823;0,318124;0,318191;0,324067;0,318326;0,337871;0,337980;0,338088;0,000000;0,000000;0,000000;0,463607;0,463607;0,339087;0,339186;0,000000;0,729731;0,308044;0,000000;0,335805;0,340336;0,340431;0,341563;0,337547;0,337683;0,000000;0,000000;0,000000;0,372891;0,339994;0,379332;0,386487;0,386532;0,386578;0,000000;0,000000;0,000000;0,317733;0,317816;0,000000;0,000000;0,000000;0,000000;0,000000;0,000000;0,383303;0,383380;0,330720;0,000000;0,000000;0,346567;0,000000;0,000000;0,000000;0,000000;0,000000;0,000000;0,390679;0,390714;0,390750;
76;;;;;;;;;;;;;;;;;;;;;;;;;;;;;;;;;;;;;;;;;;;;;;;;;;;;;;;;;;;;;;;;;;;;;;;;;;;;1,000000;0,000000;0,323823;0,318124;0,318191;0,324067;0,318326;0,337871;0,337980;0,338088;0,000000;0,000000;0,000000;0,463607;0,463607;0,339087;0,339186;0,000000;0,729731;0,308044;0,000000;0,335805;0,340336;0,340431;0,341563;0,337547;0,337683;0,000000;0,000000;0,000000;0,372891;0,339994;0,379332;0,386487;0,386532;0,386578;0,000000;0,000000;0,000000;0,317733;0,317816;0,000000;0,000000;0,000000;0,000000;0,000000;0,000000;0,383303;0,383380;0,330720;0,000000;0,000000;0,346567;0,000000;0,000000;0,000000;0,000000;0,000000;0,000000;0,390679;0,390714;0,390750;
77;;;;;;;;;;;;;;;;;;;;;;;;;;;;;;;;;;;;;;;;;;;;;;;;;;;;;;;;;;;;;;;;;;;;;;;;;;;;;1,000000;0,000000;0,000000;0,000000;0,000000;0,000000;0,000000;0,000000;0,000000;0,000000;0,000000;0,000000;0,000000;0,000000;0,639992;0,640149;0,000000;0,000000;0,000000;0,000000;0,000000;0,000000;0,000000;0,312510;0,000000;0,000000;0,000000;0,000000;0,000000;0,381681;0,000000;0,000000;0,000000;0,000000;0,000000;0,286713;0,286804;0,286895;0,000000;0,000000;0,000000;0,000000;0,000000;0,000000;0,584311;0,584415;0,000000;0,000000;0,000000;0,449271;0,000000;0,000000;0,000000;0,000000;0,000000;0,000000;0,450775;0,453233;0,000000;0,000000;0,000000;
78;;;;;;;;;;;;;;;;;;;;;;;;;;;;;;;;;;;;;;;;;;;;;;;;;;;;;;;;;;;;;;;;;;;;;;;;;;;;;;1,000000;0,762484;0,762577;0,852902;0,762762;0,202233;0,202342;0,202450;0,000000;0,000000;0,000000;0,327969;0,327969;0,203449;0,203548;0,302670;0,594093;0,172406;0,000000;0,374262;0,204698;0,204792;0,205925;0,201908;0,202044;0,000000;0,000000;0,000000;0,237253;0,204356;0,243693;0,250849;0,250894;0,250939;0,000000;0,000000;0,000000;0,182095;0,182178;0,000000;0,000000;0,000000;0,000000;0,000000;0,000000;0,474910;0,474910;0,769605;0,000000;0,000000;0,722339;0,000000;0,000000;0,000000;0,000000;0,000000;0,000000;0,255041;0,255076;0,255112;
79;;;;;;;;;;;;;;;;;;;;;;;;;;;;;;;;;;;;;;;;;;;;;;;;;;;;;;;;;;;;;;;;;;;;;;;;;;;;;;;1,000000;0,859205;0,763211;0,859503;0,196534;0,196643;0,196751;0,000000;0,000000;0,000000;0,322270;0,322270;0,197750;0,197849;0,000000;0,588393;0,166707;0,000000;0,194468;0,198999;0,199093;0,200226;0,196209;0,196345;0,000000;0,000000;0,000000;0,231554;0,198656;0,237994;0,245150;0,245195;0,245240;0,000000;0,000000;0,000000;0,176396;0,176479;0,000000;0,000000;0,000000;0,000000;0,000000;0,000000;0,241966;0,242043;0,692653;0,000000;0,000000;0,735596;0,000000;0,000000;0,000000;0,000000;0,000000;0,000000;0,249341;0,249377;0,249413;
80;;;;;;;;;;;;;;;;;;;;;;;;;;;;;;;;;;;;;;;;;;;;;;;;;;;;;;;;;;;;;;;;;;;;;;;;;;;;;;;;1,000000;0,763303;0,859650;0,196601;0,196710;0,196818;0,000000;0,000000;0,000000;0,322337;0,322337;0,197817;0,197916;0,000000;0,588461;0,166774;0,000000;0,194535;0,199066;0,199160;0,200293;0,196276;0,196413;0,000000;0,000000;0,000000;0,231621;0,198724;0,238062;0,245217;0,245262;0,245308;0,000000;0,000000;0,000000;0,176463;0,176546;0,000000;0,000000;0,000000;0,000000;0,000000;0,000000;0,242033;0,242110;0,692721;0,000000;0,000000;0,735664;0,000000;0,000000;0,000000;0,000000;0,000000;0,000000;0,249409;0,249444;0,249480;
81;;;;;;;;;;;;;;;;;;;;;;;;;;;;;;;;;;;;;;;;;;;;;;;;;;;;;;;;;;;;;;;;;;;;;;;;;;;;;;;;;1,000000;0,763483;0,202477;0,202585;0,202694;0,000000;0,000000;0,000000;0,328212;0,328212;0,203692;0,203792;0,302822;0,594336;0,172649;0,000000;0,374541;0,204941;0,205036;0,206169;0,202152;0,202288;0,000000;0,000000;0,000000;0,237496;0,204599;0,243937;0,251092;0,251137;0,251183;0,000000;0,000000;0,000000;0,182338;0,182421;0,000000;0,000000;0,000000;0,000000;0,000000;0,000000;0,475189;0,475189;0,770142;0,000000;0,000000;0,723109;0,000000;0,000000;0,000000;0,000000;0,000000;0,000000;0,255284;0,255320;0,255356;
82;;;;;;;;;;;;;;;;;;;;;;;;;;;;;;;;;;;;;;;;;;;;;;;;;;;;;;;;;;;;;;;;;;;;;;;;;;;;;;;;;;1,000000;0,196736;0,196845;0,196953;0,000000;0,000000;0,000000;0,322471;0,322471;0,197951;0,198051;0,000000;0,588595;0,166908;0,000000;0,194669;0,199200;0,199295;0,200428;0,196411;0,196547;0,000000;0,000000;0,000000;0,231755;0,198858;0,238196;0,245351;0,245396;0,245442;0,000000;0,000000;0,000000;0,176598;0,176680;0,000000;0,000000;0,000000;0,000000;0,000000;0,000000;0,242168;0,242244;0,692859;0,000000;0,000000;0,735802;0,000000;0,000000;0,000000;0,000000;0,000000;0,000000;0,249543;0,249579;0,249615;
83;;;;;;;;;;;;;;;;;;;;;;;;;;;;;;;;;;;;;;;;;;;;;;;;;;;;;;;;;;;;;;;;;;;;;;;;;;;;;;;;;;;1,000000;0,821420;0,821591;0,000000;0,000000;0,000000;0,342017;0,342017;0,217497;0,217596;0,000000;0,608141;0,186454;0,000000;0,214215;0,218746;0,218840;0,219973;0,215956;0,216092;0,000000;0,000000;0,000000;0,251301;0,218404;0,257741;0,264897;0,264942;0,264987;0,000000;0,000000;0,000000;0,196143;0,196226;0,000000;0,000000;0,000000;0,000000;0,000000;0,000000;0,261713;0,261790;0,209130;0,000000;0,000000;0,224977;0,000000;0,000000;0,000000;0,000000;0,000000;0,000000;0,269089;0,269124;0,269160;
84;;;;;;;;;;;;;;;;;;;;;;;;;;;;;;;;;;;;;;;;;;;;;;;;;;;;;;;;;;;;;;;;;;;;;;;;;;;;;;;;;;;;1,000000;0,821761;0,000000;0,000000;0,000000;0,342126;0,342126;0,217606;0,217705;0,000000;0,608249;0,186563;0,000000;0,214324;0,218855;0,218949;0,220082;0,216065;0,216201;0,000000;0,000000;0,000000;0,251410;0,218512;0,257850;0,265006;0,265051;0,265096;0,000000;0,000000;0,000000;0,196252;0,196335;0,000000;0,000000;0,000000;0,000000;0,000000;0,000000;0,261822;0,261899;0,209238;0,000000;0,000000;0,225086;0,000000;0,000000;0,000000;0,000000;0,000000;0,000000;0,269197;0,269233;0,269269;
85;;;;;;;;;;;;;;;;;;;;;;;;;;;;;;;;;;;;;;;;;;;;;;;;;;;;;;;;;;;;;;;;;;;;;;;;;;;;;;;;;;;;;1,000000;0,000000;0,000000;0,000000;0,342234;0,342234;0,217714;0,217813;0,000000;0,608358;0,186671;0,000000;0,214432;0,218963;0,219057;0,220190;0,216173;0,216309;0,000000;0,000000;0,000000;0,251518;0,218621;0,257958;0,265114;0,265159;0,265204;0,000000;0,000000;0,000000;0,196360;0,196443;0,000000;0,000000;0,000000;0,000000;0,000000;0,000000;0,261930;0,262007;0,209347;0,000000;0,000000;0,225194;0,000000;0,000000;0,000000;0,000000;0,000000;0,000000;0,269306;0,269341;0,269377;
86;;;;;;;;;;;;;;;;;;;;;;;;;;;;;;;;;;;;;;;;;;;;;;;;;;;;;;;;;;;;;;;;;;;;;;;;;;;;;;;;;;;;;;1,000000;0,760079;0,561126;0,000000;0,000000;0,000000;0,000000;0,000000;0,000000;0,287121;0,391047;0,000000;0,000000;0,000000;0,000000;0,000000;0,000000;0,000000;0,000000;0,000000;0,000000;0,000000;0,000000;0,000000;0,000000;0,000000;0,000000;0,000000;0,000000;0,000000;0,000000;0,403317;0,403377;0,403436;0,403496;0,000000;0,000000;0,000000;0,000000;0,000000;0,000000;0,721165;0,000000;0,000000;0,000000;0,000000;0,000000;0,000000;0,000000;0,000000;0,000000;0,000000;
87;;;;;;;;;;;;;;;;;;;;;;;;;;;;;;;;;;;;;;;;;;;;;;;;;;;;;;;;;;;;;;;;;;;;;;;;;;;;;;;;;;;;;;;1,000000;0,561222;0,000000;0,000000;0,000000;0,000000;0,000000;0,000000;0,287213;0,391138;0,000000;0,000000;0,000000;0,000000;0,000000;0,000000;0,000000;0,000000;0,000000;0,000000;0,000000;0,000000;0,000000;0,000000;0,000000;0,000000;0,000000;0,000000;0,000000;0,000000;0,403408;0,403468;0,403528;0,403587;0,000000;0,000000;0,000000;0,000000;0,000000;0,000000;0,721257;0,000000;0,000000;0,000000;0,000000;0,000000;0,000000;0,000000;0,000000;0,000000;0,000000;
88;;;;;;;;;;;;;;;;;;;;;;;;;;;;;;;;;;;;;;;;;;;;;;;;;;;;;;;;;;;;;;;;;;;;;;;;;;;;;;;;;;;;;;;;1,000000;0,000000;0,000000;0,000000;0,000000;0,000000;0,000000;0,490762;0,564755;0,368256;0,387934;0,388078;0,000000;0,165005;0,165154;0,000000;0,000000;0,000000;0,000000;0,000000;0,000000;0,000000;0,000000;0,000000;0,000000;0,000000;0,000000;0,143272;0,143364;0,666576;0,666635;0,666693;0,666751;0,000000;0,000000;0,000000;0,000000;0,000000;0,000000;0,000000;0,000000;0,000000;0,000000;0,000000;0,000000;0,000000;0,000000;0,000000;0,000000;0,000000;
89;;;;;;;;;;;;;;;;;;;;;;;;;;;;;;;;;;;;;;;;;;;;;;;;;;;;;;;;;;;;;;;;;;;;;;;;;;;;;;;;;;;;;;;;;1,000000;0,467753;0,343233;0,343332;0,000000;0,733876;0,312189;0,000000;0,339951;0,344481;0,344576;0,345709;0,341692;0,341828;0,000000;0,000000;0,000000;0,377037;0,344139;0,383477;0,390632;0,390678;0,390723;0,000000;0,000000;0,000000;0,321879;0,321962;0,000000;0,000000;0,000000;0,000000;0,000000;0,000000;0,387449;0,387525;0,334865;0,000000;0,000000;0,350713;0,000000;0,000000;0,000000;0,000000;0,000000;0,000000;0,394824;0,394860;0,394896;
90;;;;;;;;;;;;;;;;;;;;;;;;;;;;;;;;;;;;;;;;;;;;;;;;;;;;;;;;;;;;;;;;;;;;;;;;;;;;;;;;;;;;;;;;;;1,000000;0,343233;0,343332;0,000000;0,733876;0,312189;0,000000;0,339951;0,344481;0,344576;0,345709;0,341692;0,341828;0,000000;0,000000;0,000000;0,377037;0,344139;0,383477;0,390632;0,390678;0,390723;0,000000;0,000000;0,000000;0,321879;0,321962;0,000000;0,000000;0,000000;0,000000;0,000000;0,000000;0,387449;0,387525;0,334865;0,000000;0,000000;0,350713;0,000000;0,000000;0,000000;0,000000;0,000000;0,000000;0,394824;0,394860;0,394896;
91;;;;;;;;;;;;;;;;;;;;;;;;;;;;;;;;;;;;;;;;;;;;;;;;;;;;;;;;;;;;;;;;;;;;;;;;;;;;;;;;;;;;;;;;;;;1,000000;0,788159;0,000000;0,609356;0,187670;0,000000;0,215431;0,219962;0,220056;0,221189;0,217172;0,217308;0,000000;0,000000;0,000000;0,598288;0,219619;0,258957;0,266113;0,266158;0,266203;0,000000;0,000000;0,000000;0,197359;0,197442;0,000000;0,000000;0,000000;0,000000;0,275560;0,275655;0,262929;0,263006;0,210345;0,000000;0,000000;0,226193;0,000000;0,000000;0,000000;0,000000;0,000000;0,000000;0,270304;0,270340;0,270376;
92;;;;;;;;;;;;;;;;;;;;;;;;;;;;;;;;;;;;;;;;;;;;;;;;;;;;;;;;;;;;;;;;;;;;;;;;;;;;;;;;;;;;;;;;;;;;1,000000;0,000000;0,609456;0,187769;0,000000;0,215530;0,220061;0,220155;0,221288;0,217271;0,217407;0,000000;0,000000;0,000000;0,598363;0,219719;0,259056;0,266212;0,266257;0,266302;0,000000;0,000000;0,000000;0,197458;0,197541;0,000000;0,000000;0,000000;0,000000;0,275692;0,275787;0,263028;0,263105;0,210445;0,000000;0,000000;0,226292;0,000000;0,000000;0,000000;0,000000;0,000000;0,000000;0,270404;0,270439;0,270475;
93;;;;;;;;;;;;;;;;;;;;;;;;;;;;;;;;;;;;;;;;;;;;;;;;;;;;;;;;;;;;;;;;;;;;;;;;;;;;;;;;;;;;;;;;;;;;;1,000000;0,000000;0,000000;0,000000;0,000000;0,000000;0,000000;0,000000;0,000000;0,000000;0,000000;0,000000;0,000000;0,000000;0,000000;0,000000;0,000000;0,000000;0,000000;0,000000;0,000000;0,000000;0,000000;0,000000;0,000000;0,000000;0,000000;0,000000;0,000000;0,000000;0,000000;0,000000;0,327467;0,000000;0,000000;0,000000;0,000000;0,000000;0,000000;0,000000;0,000000;0,000000;0,000000;0,000000;0,000000;
94;;;;;;;;;;;;;;;;;;;;;;;;;;;;;;;;;;;;;;;;;;;;;;;;;;;;;;;;;;;;;;;;;;;;;;;;;;;;;;;;;;;;;;;;;;;;;;1,000000;0,578313;0,000000;0,606074;0,610605;0,610700;0,611833;0,607816;0,607952;0,000000;0,000000;0,000000;0,643160;0,610263;0,649601;0,656756;0,656801;0,656847;0,000000;0,000000;0,000000;0,588002;0,588085;0,000000;0,000000;0,000000;0,000000;0,000000;0,000000;0,653573;0,653649;0,600989;0,000000;0,000000;0,616836;0,000000;0,000000;0,000000;0,000000;0,000000;0,000000;0,660948;0,660984;0,661020;
95;;;;;;;;;;;;;;;;;;;;;;;;;;;;;;;;;;;;;;;;;;;;;;;;;;;;;;;;;;;;;;;;;;;;;;;;;;;;;;;;;;;;;;;;;;;;;;;1,000000;0,702196;0,711887;0,704298;0,704394;0,190146;0,461943;0,462112;0,000000;0,000000;0,000000;0,221473;0,188576;0,227914;0,235069;0,235114;0,235160;0,000000;0,000000;0,000000;0,415954;0,416062;0,248108;0,248167;0,248227;0,248287;0,000000;0,000000;0,231886;0,231962;0,179302;0,000000;0,565956;0,195150;0,000000;0,000000;0,000000;0,000000;0,000000;0,000000;0,239261;0,239297;0,239333;
96;;;;;;;;;;;;;;;;;;;;;;;;;;;;;;;;;;;;;;;;;;;;;;;;;;;;;;;;;;;;;;;;;;;;;;;;;;;;;;;;;;;;;;;;;;;;;;;;1,000000;0,546874;0,565957;0,566100;0,000000;0,248922;0,249071;0,000000;0,000000;0,000000;0,000000;0,000000;0,000000;0,000000;0,000000;0,000000;0,000000;0,000000;0,000000;0,227189;0,227281;0,352034;0,352093;0,352153;0,352212;0,000000;0,000000;0,000000;0,000000;0,000000;0,000000;0,669882;0,000000;0,000000;0,000000;0,000000;0,000000;0,000000;0,000000;0,000000;0,000000;0,000000;
97;;;;;;;;;;;;;;;;;;;;;;;;;;;;;;;;;;;;;;;;;;;;;;;;;;;;;;;;;;;;;;;;;;;;;;;;;;;;;;;;;;;;;;;;;;;;;;;;;1,000000;0,482575;0,482636;0,217907;0,475783;0,475951;0,000000;0,000000;0,000000;0,249235;0,216337;0,255675;0,262830;0,262876;0,262921;0,000000;0,000000;0,000000;0,429794;0,429902;0,000000;0,000000;0,000000;0,000000;0,000000;0,000000;0,580372;0,580372;0,404095;0,000000;0,000000;0,222911;0,000000;0,000000;0,000000;0,000000;0,000000;0,000000;0,267022;0,267058;0,267094;
98;;;;;;;;;;;;;;;;;;;;;;;;;;;;;;;;;;;;;;;;;;;;;;;;;;;;;;;;;;;;;;;;;;;;;;;;;;;;;;;;;;;;;;;;;;;;;;;;;;1,000000;0,785218;0,222438;0,485966;0,486134;0,000000;0,000000;0,000000;0,253765;0,220868;0,260206;0,267361;0,267406;0,267452;0,000000;0,000000;0,000000;0,439977;0,440085;0,000000;0,000000;0,000000;0,000000;0,000000;0,000000;0,264178;0,264254;0,211594;0,000000;0,000000;0,227442;0,000000;0,000000;0,000000;0,000000;0,000000;0,000000;0,271553;0,271589;0,271625;
99;;;;;;;;;;;;;;;;;;;;;;;;;;;;;;;;;;;;;;;;;;;;;;;;;;;;;;;;;;;;;;;;;;;;;;;;;;;;;;;;;;;;;;;;;;;;;;;;;;;1,000000;0,222532;0,486027;0,486196;0,000000;0,000000;0,000000;0,253860;0,220963;0,260301;0,267456;0,267501;0,267547;0,000000;0,000000;0,000000;0,440038;0,440146;0,000000;0,000000;0,000000;0,000000;0,000000;0,000000;0,264272;0,264349;0,211689;0,000000;0,000000;0,227536;0,000000;0,000000;0,000000;0,000000;0,000000;0,000000;0,271648;0,271683;0,271719;
100;;;;;;;;;;;;;;;;;;;;;;;;;;;;;;;;;;;;;;;;;;;;;;;;;;;;;;;;;;;;;;;;;;;;;;;;;;;;;;;;;;;;;;;;;;;;;;;;;;;;1,000000;0,219648;0,219785;0,000000;0,000000;0,000000;0,254993;0,222096;0,261434;0,268589;0,268634;0,268680;0,250642;0,250734;0,250825;0,199835;0,199918;0,000000;0,000000;0,000000;0,000000;0,250774;0,250864;0,265405;0,265482;0,212822;0,413200;0,000000;0,228669;0,000000;0,000000;0,000000;0,000000;0,414704;0,417163;0,272781;0,272816;0,272852;
101;;;;;;;;;;;;;;;;;;;;;;;;;;;;;;;;;;;;;;;;;;;;;;;;;;;;;;;;;;;;;;;;;;;;;;;;;;;;;;;;;;;;;;;;;;;;;;;;;;;;;1,000000;1,000000;0,000000;0,000000;0,000000;0,250976;0,759285;0,876518;0,264572;0,264617;0,264663;0,000000;0,000000;0,000000;0,433185;0,433293;0,000000;0,000000;0,000000;0,000000;0,000000;0,000000;0,261388;0,261465;0,208805;0,000000;0,000000;0,224652;0,000000;0,000000;0,000000;0,000000;0,000000;0,000000;0,268764;0,268799;0,268835;
102;;;;;;;;;;;;;;;;;;;;;;;;;;;;;;;;;;;;;;;;;;;;;;;;;;;;;;;;;;;;;;;;;;;;;;;;;;;;;;;;;;;;;;;;;;;;;;;;;;;;;;1,000000;0,000000;0,000000;0,000000;0,251112;0,759479;0,876711;0,264708;0,264753;0,264799;0,000000;0,000000;0,000000;0,433353;0,433461;0,000000;0,000000;0,000000;0,000000;0,000000;0,000000;0,261524;0,261601;0,208941;0,000000;0,000000;0,224788;0,000000;0,000000;0,000000;0,000000;0,000000;0,000000;0,268900;0,268935;0,268971;
103;;;;;;;;;;;;;;;;;;;;;;;;;;;;;;;;;;;;;;;;;;;;;;;;;;;;;;;;;;;;;;;;;;;;;;;;;;;;;;;;;;;;;;;;;;;;;;;;;;;;;;;1,000000;0,833248;0,833374;0,000000;0,000000;0,000000;0,000000;0,000000;0,000000;0,000000;0,000000;0,000000;0,000000;0,000000;0,000000;0,000000;0,000000;0,000000;0,000000;0,000000;0,000000;0,000000;0,000000;0,000000;0,000000;0,000000;0,000000;0,000000;0,000000;0,000000;0,000000;0,000000;0,000000;0,000000;0,000000;
104;;;;;;;;;;;;;;;;;;;;;;;;;;;;;;;;;;;;;;;;;;;;;;;;;;;;;;;;;;;;;;;;;;;;;;;;;;;;;;;;;;;;;;;;;;;;;;;;;;;;;;;;1,000000;0,833498;0,000000;0,000000;0,000000;0,000000;0,000000;0,000000;0,000000;0,000000;0,000000;0,000000;0,000000;0,000000;0,000000;0,000000;0,000000;0,000000;0,000000;0,000000;0,000000;0,000000;0,000000;0,000000;0,000000;0,000000;0,000000;0,000000;0,000000;0,000000;0,000000;0,000000;0,000000;0,000000;
105;;;;;;;;;;;;;;;;;;;;;;;;;;;;;;;;;;;;;;;;;;;;;;;;;;;;;;;;;;;;;;;;;;;;;;;;;;;;;;;;;;;;;;;;;;;;;;;;;;;;;;;;;1,000000;0,000000;0,000000;0,000000;0,000000;0,000000;0,000000;0,000000;0,000000;0,000000;0,000000;0,000000;0,000000;0,000000;0,000000;0,000000;0,000000;0,000000;0,000000;0,000000;0,000000;0,000000;0,000000;0,000000;0,000000;0,000000;0,000000;0,000000;0,000000;0,000000;0,000000;0,000000;0,000000;
106;;;;;;;;;;;;;;;;;;;;;;;;;;;;;;;;;;;;;;;;;;;;;;;;;;;;;;;;;;;;;;;;;;;;;;;;;;;;;;;;;;;;;;;;;;;;;;;;;;;;;;;;;;1,000000;0,253423;0,292761;0,299916;0,299962;0,300007;0,000000;0,000000;0,000000;0,231163;0,231246;0,000000;0,000000;0,000000;0,000000;0,315687;0,315783;0,296733;0,296809;0,244149;0,000000;0,000000;0,259997;0,000000;0,000000;0,000000;0,000000;0,000000;0,000000;0,304108;0,304144;0,304180;
107;;;;;;;;;;;;;;;;;;;;;;;;;;;;;;;;;;;;;;;;;;;;;;;;;;;;;;;;;;;;;;;;;;;;;;;;;;;;;;;;;;;;;;;;;;;;;;;;;;;;;;;;;;;1,000000;0,882767;0,267019;0,267064;0,267110;0,000000;0,000000;0,000000;0,198265;0,198348;0,000000;0,000000;0,000000;0,000000;0,000000;0,000000;0,263836;0,263912;0,211252;0,000000;0,000000;0,227099;0,000000;0,000000;0,000000;0,000000;0,000000;0,000000;0,271211;0,271247;0,271283;
108;;;;;;;;;;;;;;;;;;;;;;;;;;;;;;;;;;;;;;;;;;;;;;;;;;;;;;;;;;;;;;;;;;;;;;;;;;;;;;;;;;;;;;;;;;;;;;;;;;;;;;;;;;;;1,000000;0,306357;0,306402;0,306448;0,000000;0,000000;0,000000;0,237603;0,237686;0,000000;0,000000;0,000000;0,000000;0,000000;0,000000;0,303173;0,303250;0,250590;0,000000;0,000000;0,266437;0,000000;0,000000;0,000000;0,000000;0,000000;0,000000;0,310549;0,310584;0,310620;
109;;;;;;;;;;;;;;;;;;;;;;;;;;;;;;;;;;;;;;;;;;;;;;;;;;;;;;;;;;;;;;;;;;;;;;;;;;;;;;;;;;;;;;;;;;;;;;;;;;;;;;;;;;;;;1,000000;0,796777;0,796913;0,000000;0,000000;0,000000;0,244759;0,244841;0,000000;0,000000;0,000000;0,000000;0,000000;0,000000;0,310329;0,310405;0,257745;0,000000;0,000000;0,273593;0,000000;0,000000;0,000000;0,000000;0,000000;0,000000;0,317704;0,317740;0,317776;
110;;;;;;;;;;;;;;;;;;;;;;;;;;;;;;;;;;;;;;;;;;;;;;;;;;;;;;;;;;;;;;;;;;;;;;;;;;;;;;;;;;;;;;;;;;;;;;;;;;;;;;;;;;;;;;1,000000;0,797049;0,000000;0,000000;0,000000;0,244804;0,244887;0,000000;0,000000;0,000000;0,000000;0,000000;0,000000;0,310374;0,310450;0,257790;0,000000;0,000000;0,273638;0,000000;0,000000;0,000000;0,000000;0,000000;0,000000;0,317749;0,317785;0,317821;
111;;;;;;;;;;;;;;;;;;;;;;;;;;;;;;;;;;;;;;;;;;;;;;;;;;;;;;;;;;;;;;;;;;;;;;;;;;;;;;;;;;;;;;;;;;;;;;;;;;;;;;;;;;;;;;;1,000000;0,000000;0,000000;0,000000;0,244849;0,244932;0,000000;0,000000;0,000000;0,000000;0,000000;0,000000;0,310419;0,310496;0,257836;0,000000;0,000000;0,273683;0,000000;0,000000;0,000000;0,000000;0,000000;0,000000;0,317795;0,317830;0,317866;
112;;;;;;;;;;;;;;;;;;;;;;;;;;;;;;;;;;;;;;;;;;;;;;;;;;;;;;;;;;;;;;;;;;;;;;;;;;;;;;;;;;;;;;;;;;;;;;;;;;;;;;;;;;;;;;;;1,000000;0,864252;0,864348;0,000000;0,000000;0,000000;0,000000;0,000000;0,000000;0,224977;0,225067;0,000000;0,000000;0,000000;0,387403;0,000000;0,000000;0,000000;0,000000;0,000000;0,000000;0,388907;0,391366;0,000000;0,000000;0,000000;
113;;;;;;;;;;;;;;;;;;;;;;;;;;;;;;;;;;;;;;;;;;;;;;;;;;;;;;;;;;;;;;;;;;;;;;;;;;;;;;;;;;;;;;;;;;;;;;;;;;;;;;;;;;;;;;;;;1,000000;0,864444;0,000000;0,000000;0,000000;0,000000;0,000000;0,000000;0,225068;0,225159;0,000000;0,000000;0,000000;0,387495;0,000000;0,000000;0,000000;0,000000;0,000000;0,000000;0,388999;0,391458;0,000000;0,000000;0,000000;
114;;;;;;;;;;;;;;;;;;;;;;;;;;;;;;;;;;;;;;;;;;;;;;;;;;;;;;;;;;;;;;;;;;;;;;;;;;;;;;;;;;;;;;;;;;;;;;;;;;;;;;;;;;;;;;;;;;1,000000;0,000000;0,000000;0,000000;0,000000;0,000000;0,000000;0,225159;0,225250;0,000000;0,000000;0,000000;0,387586;0,000000;0,000000;0,000000;0,000000;0,000000;0,000000;0,389090;0,391549;0,000000;0,000000;0,000000;
115;;;;;;;;;;;;;;;;;;;;;;;;;;;;;;;;;;;;;;;;;;;;;;;;;;;;;;;;;;;;;;;;;;;;;;;;;;;;;;;;;;;;;;;;;;;;;;;;;;;;;;;;;;;;;;;;;;;1,000000;0,852316;0,000000;0,000000;0,000000;0,000000;0,000000;0,000000;0,241575;0,241652;0,188991;0,000000;0,000000;0,204839;0,000000;0,000000;0,000000;0,000000;0,000000;0,000000;0,248950;0,248986;0,249022;
116;;;;;;;;;;;;;;;;;;;;;;;;;;;;;;;;;;;;;;;;;;;;;;;;;;;;;;;;;;;;;;;;;;;;;;;;;;;;;;;;;;;;;;;;;;;;;;;;;;;;;;;;;;;;;;;;;;;;1,000000;0,000000;0,000000;0,000000;0,000000;0,000000;0,000000;0,241658;0,241734;0,189074;0,000000;0,000000;0,204922;0,000000;0,000000;0,000000;0,000000;0,000000;0,000000;0,249033;0,249069;0,249105;
117;;;;;;;;;;;;;;;;;;;;;;;;;;;;;;;;;;;;;;;;;;;;;;;;;;;;;;;;;;;;;;;;;;;;;;;;;;;;;;;;;;;;;;;;;;;;;;;;;;;;;;;;;;;;;;;;;;;;;1,000000;0,874512;0,874598;0,874682;0,000000;0,000000;0,000000;0,000000;0,000000;0,000000;0,682152;0,000000;0,000000;0,000000;0,000000;0,000000;0,000000;0,000000;0,000000;0,000000;0,000000;
118;;;;;;;;;;;;;;;;;;;;;;;;;;;;;;;;;;;;;;;;;;;;;;;;;;;;;;;;;;;;;;;;;;;;;;;;;;;;;;;;;;;;;;;;;;;;;;;;;;;;;;;;;;;;;;;;;;;;;;1,000000;0,874682;0,874767;0,000000;0,000000;0,000000;0,000000;0,000000;0,000000;0,682211;0,000000;0,000000;0,000000;0,000000;0,000000;0,000000;0,000000;0,000000;0,000000;0,000000;
119;;;;;;;;;;;;;;;;;;;;;;;;;;;;;;;;;;;;;;;;;;;;;;;;;;;;;;;;;;;;;;;;;;;;;;;;;;;;;;;;;;;;;;;;;;;;;;;;;;;;;;;;;;;;;;;;;;;;;;;1,000000;0,874851;0,000000;0,000000;0,000000;0,000000;0,000000;0,000000;0,682271;0,000000;0,000000;0,000000;0,000000;0,000000;0,000000;0,000000;0,000000;0,000000;0,000000;
120;;;;;;;;;;;;;;;;;;;;;;;;;;;;;;;;;;;;;;;;;;;;;;;;;;;;;;;;;;;;;;;;;;;;;;;;;;;;;;;;;;;;;;;;;;;;;;;;;;;;;;;;;;;;;;;;;;;;;;;;1,000000;0,000000;0,000000;0,000000;0,000000;0,000000;0,000000;0,682331;0,000000;0,000000;0,000000;0,000000;0,000000;0,000000;0,000000;0,000000;0,000000;0,000000;
121;;;;;;;;;;;;;;;;;;;;;;;;;;;;;;;;;;;;;;;;;;;;;;;;;;;;;;;;;;;;;;;;;;;;;;;;;;;;;;;;;;;;;;;;;;;;;;;;;;;;;;;;;;;;;;;;;;;;;;;;;1,000000;0,849661;0,000000;0,000000;0,000000;0,387535;0,000000;0,000000;0,000000;0,000000;0,000000;0,000000;0,389039;0,391498;0,000000;0,000000;0,000000;
122;;;;;;;;;;;;;;;;;;;;;;;;;;;;;;;;;;;;;;;;;;;;;;;;;;;;;;;;;;;;;;;;;;;;;;;;;;;;;;;;;;;;;;;;;;;;;;;;;;;;;;;;;;;;;;;;;;;;;;;;;;1,000000;0,000000;0,000000;0,000000;0,387625;0,000000;0,000000;0,000000;0,000000;0,000000;0,000000;0,389129;0,391588;0,000000;0,000000;0,000000;
123;;;;;;;;;;;;;;;;;;;;;;;;;;;;;;;;;;;;;;;;;;;;;;;;;;;;;;;;;;;;;;;;;;;;;;;;;;;;;;;;;;;;;;;;;;;;;;;;;;;;;;;;;;;;;;;;;;;;;;;;;;;1,000000;0,681021;0,504744;0,000000;0,000000;0,270409;0,000000;0,000000;0,000000;0,000000;0,000000;0,000000;0,314521;0,314556;0,314592;
124;;;;;;;;;;;;;;;;;;;;;;;;;;;;;;;;;;;;;;;;;;;;;;;;;;;;;;;;;;;;;;;;;;;;;;;;;;;;;;;;;;;;;;;;;;;;;;;;;;;;;;;;;;;;;;;;;;;;;;;;;;;;1,000000;0,504744;0,000000;0,000000;0,270486;0,000000;0,000000;0,000000;0,000000;0,000000;0,000000;0,314597;0,314633;0,314669;
125;;;;;;;;;;;;;;;;;;;;;;;;;;;;;;;;;;;;;;;;;;;;;;;;;;;;;;;;;;;;;;;;;;;;;;;;;;;;;;;;;;;;;;;;;;;;;;;;;;;;;;;;;;;;;;;;;;;;;;;;;;;;;1,000000;0,000000;0,000000;0,766892;0,000000;0,000000;0,000000;0,000000;0,000000;0,000000;0,261937;0,261973;0,262009;
126;;;;;;;;;;;;;;;;;;;;;;;;;;;;;;;;;;;;;;;;;;;;;;;;;;;;;;;;;;;;;;;;;;;;;;;;;;;;;;;;;;;;;;;;;;;;;;;;;;;;;;;;;;;;;;;;;;;;;;;;;;;;;;1,000000;0,000000;0,000000;0,000000;0,000000;0,000000;0,000000;0,551465;0,553924;0,000000;0,000000;0,000000;
127;;;;;;;;;;;;;;;;;;;;;;;;;;;;;;;;;;;;;;;;;;;;;;;;;;;;;;;;;;;;;;;;;;;;;;;;;;;;;;;;;;;;;;;;;;;;;;;;;;;;;;;;;;;;;;;;;;;;;;;;;;;;;;;1,000000;0,000000;0,000000;0,000000;0,000000;0,000000;0,000000;0,000000;0,000000;0,000000;0,000000;
128;;;;;;;;;;;;;;;;;;;;;;;;;;;;;;;;;;;;;;;;;;;;;;;;;;;;;;;;;;;;;;;;;;;;;;;;;;;;;;;;;;;;;;;;;;;;;;;;;;;;;;;;;;;;;;;;;;;;;;;;;;;;;;;;1,000000;0,000000;0,000000;0,000000;0,000000;0,000000;0,000000;0,277784;0,277820;0,277856;
129;;;;;;;;;;;;;;;;;;;;;;;;;;;;;;;;;;;;;;;;;;;;;;;;;;;;;;;;;;;;;;;;;;;;;;;;;;;;;;;;;;;;;;;;;;;;;;;;;;;;;;;;;;;;;;;;;;;;;;;;;;;;;;;;;1,000000;0,861162;0,861245;0,861328;0,000000;0,000000;0,000000;0,000000;0,000000;
130;;;;;;;;;;;;;;;;;;;;;;;;;;;;;;;;;;;;;;;;;;;;;;;;;;;;;;;;;;;;;;;;;;;;;;;;;;;;;;;;;;;;;;;;;;;;;;;;;;;;;;;;;;;;;;;;;;;;;;;;;;;;;;;;;;1,000000;0,861328;0,861410;0,000000;0,000000;0,000000;0,000000;0,000000;
131;;;;;;;;;;;;;;;;;;;;;;;;;;;;;;;;;;;;;;;;;;;;;;;;;;;;;;;;;;;;;;;;;;;;;;;;;;;;;;;;;;;;;;;;;;;;;;;;;;;;;;;;;;;;;;;;;;;;;;;;;;;;;;;;;;;1,000000;0,861491;0,000000;0,000000;0,000000;0,000000;0,000000;
132;;;;;;;;;;;;;;;;;;;;;;;;;;;;;;;;;;;;;;;;;;;;;;;;;;;;;;;;;;;;;;;;;;;;;;;;;;;;;;;;;;;;;;;;;;;;;;;;;;;;;;;;;;;;;;;;;;;;;;;;;;;;;;;;;;;;1,000000;0,000000;0,000000;0,000000;0,000000;0,000000;
133;;;;;;;;;;;;;;;;;;;;;;;;;;;;;;;;;;;;;;;;;;;;;;;;;;;;;;;;;;;;;;;;;;;;;;;;;;;;;;;;;;;;;;;;;;;;;;;;;;;;;;;;;;;;;;;;;;;;;;;;;;;;;;;;;;;;;1,000000;0,555428;0,000000;0,000000;0,000000;
134;;;;;;;;;;;;;;;;;;;;;;;;;;;;;;;;;;;;;;;;;;;;;;;;;;;;;;;;;;;;;;;;;;;;;;;;;;;;;;;;;;;;;;;;;;;;;;;;;;;;;;;;;;;;;;;;;;;;;;;;;;;;;;;;;;;;;;1,000000;0,000000;0,000000;0,000000;
135;;;;;;;;;;;;;;;;;;;;;;;;;;;;;;;;;;;;;;;;;;;;;;;;;;;;;;;;;;;;;;;;;;;;;;;;;;;;;;;;;;;;;;;;;;;;;;;;;;;;;;;;;;;;;;;;;;;;;;;;;;;;;;;;;;;;;;;1,000000;0,802982;0,803086;
136;;;;;;;;;;;;;;;;;;;;;;;;;;;;;;;;;;;;;;;;;;;;;;;;;;;;;;;;;;;;;;;;;;;;;;;;;;;;;;;;;;;;;;;;;;;;;;;;;;;;;;;;;;;;;;;;;;;;;;;;;;;;;;;;;;;;;;;;1,000000;0,803190;
137;;;;;;;;;;;;;;;;;;;;;;;;;;;;;;;;;;;;;;;;;;;;;;;;;;;;;;;;;;;;;;;;;;;;;;;;;;;;;;;;;;;;;;;;;;;;;;;;;;;;;;;;;;;;;;;;;;;;;;;;;;;;;;;;;;;;;;;;;1,000000;
