;1; 2; 3; 4; 5; 6; 7; 8; 9; 10; 11; 12; 13; 14; 15; 16; 17; 18; 19; 20; 21; 22; 23; 24; 25; 26; 27; 28; 29; 30; 31; 32; 33; 34; 35; 36; 37; 38; 39; 40; 41; 42; 43; 44; 45; 46; 47; 48; 49; 50; 51
1;1,000000;0,769757;0,628393;0,711610;0,627823;0,782362;0,669919;0,759036;0,488189;0,488189;0,488189;0,488189;0,488189;0,963334;0,569508;0,645569;0,645581;0,645581;0,283516;0,346604;0,303979;0,298848;0,645581;0,645581;0,446691;0,645569;0,736783;0,306280;0,639585;0,639585;0,957347;0,963334;0,488189;0,366843;0,292853;0,401130;0,332633;0,332633;0,332633;0,380732;0,488189;0,645581;0,645581;0,332633;0,332633;0,332633;0,254855;0,956680;0,254855;0,488189;0,488189;
2;;1,000000;0,785856;0,776597;0,773811;0,800000;0,780435;0,788553;0,400000;0,400000;0,800000;0,400000;0,400000;0,800000;0,498798;0,577778;0,577778;0,577778;0,230037;0,275000;0,221012;0,222143;0,577778;0,577778;0,426054;0,577778;0,700000;0,241093;0,533333;0,533333;0,800000;0,800000;0,800000;0,230037;0,244285;0,245000;0,288889;0,288889;0,288889;0,225000;0,800000;0,577778;0,577778;0,288889;0,288889;0,288889;0,233333;0,400000;0,233333;0,400000;0,400000;
3;;;1,000000;0,630785;0,626959;0,792297;0,692664;0,767149;0,500000;0,500000;0,495212;0,500000;0,500000;0,495445;0,533031;0,658590;0,658146;0,658146;0,717876;0,628142;0,690422;0,704610;0,658146;0,658146;0,706343;0,657687;0,743991;0,691378;0,652791;0,652791;0,493768;0,495445;0,495212;0,710343;0,705315;0,671127;0,666667;0,666667;0,666667;0,742336;0,495212;0,658146;0,658146;0,666667;0,666667;0,666667;0,747934;0,497460;0,748155;0,500000;0,500000;
4;;;;1,000000;0,719295;0,785346;0,779019;0,762850;0,442353;0,442353;0,855398;0,442353;0,442353;0,855331;0,527193;0,605398;0,605398;0,605398;0,272253;0,317765;0,276955;0,275799;0,605398;0,605398;0,439901;0,605398;0,707328;0,286073;0,568529;0,568529;0,442353;0,855331;0,855398;0,272253;0,280908;0,290957;0,317353;0,317353;0,317353;0,257765;0,855398;0,605398;0,605398;0,317353;0,317353;0,317353;0,254853;0,442353;0,254853;0,442353;0,442353;
5;;;;;1,000000;0,783486;0,677690;0,768578;0,485955;0,485955;0,957923;0,485955;0,485955;0,485955;0,581823;0,652367;0,652367;0,652367;0,287170;0,347147;0,308905;0,303707;0,652367;0,652367;0,458718;0,652367;0,739425;0,308888;0,625894;0,625894;0,948312;0,485955;0,957923;0,287170;0,295168;0,316562;0,333177;0,333177;0,333177;0,262532;0,957923;0,652367;0,652367;0,333177;0,333177;0,333177;0,256788;0,485955;0,256788;0,485955;0,485955;
6;;;;;;1,000000;0,653142;0,963020;0,350000;0,350000;0,700000;0,350000;0,350000;0,700000;0,465865;0,533333;0,533333;0,533333;0,218773;0,250000;0,211819;0,212653;0,533333;0,533333;0,417369;0,533333;0,675000;0,225683;0,488889;0,488889;0,700000;0,700000;0,700000;0,218773;0,229523;0,228125;0,266667;0,266667;0,266667;0,216667;0,700000;0,533333;0,533333;0,266667;0,266667;0,266667;0,225000;0,350000;0,225000;0,350000;0,350000;
7;;;;;;;1,000000;0,736024;0,457714;0,457714;0,915428;0,457714;0,457714;0,915428;0,590777;0,648761;0,648761;0,648761;0,280868;0,329523;0,290746;0,288570;0,648761;0,648761;0,493785;0,648761;0,773142;0,296663;0,636825;0,636825;0,457714;0,915428;0,915428;0,280868;0,288570;0,302244;0,324381;0,324381;0,324381;0,262857;0,915428;0,648761;0,648761;0,324381;0,324381;0,324381;0,257714;0,457714;0,257714;0,457714;0,457714;
8;;;;;;;;1,000000;0,407909;0,407909;0,815818;0,407909;0,407909;0,815818;0,522524;0,593596;0,593596;0,593596;0,244273;0,286863;0,239466;0,239938;0,593596;0,593596;0,449781;0,593596;0,932016;0,255329;0,557060;0,557060;0,778191;0,815818;0,815818;0,244273;0,256149;0,259236;0,296798;0,296798;0,296798;0,236863;0,815818;0,593596;0,593596;0,296798;0,296798;0,296798;0,241242;0,407909;0,241242;0,407909;0,407909;
9;;;;;;;;;1,000000;0,500000;0,500000;0,500000;0,500000;0,500000;0,468678;0,416667;0,416667;0,416667;0,443773;0,450000;0,474319;0,469796;0,416667;0,416667;0,429523;0,416667;0,375000;0,450683;0,444444;0,444444;0,500000;0,500000;0,500000;0,443773;0,429523;0,453125;0,416667;0,416667;0,416667;0,416667;0,500000;0,416667;0,416667;0,416667;0,416667;0,416667;0,375000;0,500000;0,375000;0,500000;0,500000;
10;;;;;;;;;;1,000000;0,500000;0,500000;0,500000;0,500000;0,468678;0,416667;0,416667;0,416667;0,443773;0,450000;0,474319;0,469796;0,416667;0,416667;0,429523;0,416667;0,375000;0,450683;0,444444;0,444444;0,500000;0,500000;0,500000;0,443773;0,429523;0,453125;0,416667;0,416667;0,416667;0,416667;0,500000;0,416667;0,416667;0,416667;0,416667;0,416667;0,375000;0,500000;0,375000;0,500000;0,500000;
11;;;;;;;;;;;1,000000;0,500000;0,500000;0,500000;0,865865;0,833333;0,833333;0,833333;0,443773;0,450000;0,474319;0,469796;0,833333;0,833333;0,817369;0,833333;0,750000;0,450683;0,444444;0,444444;0,500000;0,500000;1,000000;0,443773;0,429523;0,453125;0,416667;0,416667;0,416667;0,416667;1,000000;0,833333;0,833333;0,416667;0,416667;0,416667;0,375000;0,500000;0,375000;0,500000;0,500000;
12;;;;;;;;;;;;1,000000;0,500000;0,500000;0,468678;0,416667;0,416667;0,416667;0,443773;0,450000;0,474319;0,469796;0,416667;0,416667;0,429523;0,416667;0,375000;0,450683;0,444444;0,444444;0,500000;0,500000;0,500000;0,443773;0,429523;0,453125;0,416667;0,416667;0,416667;0,416667;0,500000;0,416667;0,416667;0,416667;0,416667;0,416667;0,375000;0,500000;0,375000;0,500000;0,500000;
13;;;;;;;;;;;;;1,000000;0,500000;0,468678;0,416667;0,416667;0,416667;0,443773;0,450000;0,474319;0,469796;0,416667;0,416667;0,429523;0,416667;0,375000;0,450683;0,444444;0,444444;0,500000;0,500000;0,500000;0,443773;0,429523;0,453125;0,416667;0,416667;0,416667;0,416667;0,500000;0,416667;0,416667;0,416667;0,416667;0,416667;0,375000;0,500000;0,375000;0,500000;0,500000;
14;;;;;;;;;;;;;;1,000000;0,468678;0,416667;0,416667;0,416667;0,443773;0,450000;0,474319;0,469796;0,416667;0,416667;0,429523;0,416667;0,750000;0,450683;0,888889;0,888889;0,500000;1,000000;0,500000;0,443773;0,429523;0,453125;0,416667;0,416667;0,416667;0,416667;0,500000;0,416667;0,416667;0,416667;0,416667;0,416667;0,375000;0,500000;0,375000;0,500000;0,500000;
15;;;;;;;;;;;;;;;1,000000;0,643643;0,643643;0,643643;0,353658;0,378017;0,381261;0,376669;0,643643;0,643643;0,524851;0,643643;0,532532;0,364714;0,369684;0,369684;0,468678;0,468678;0,865865;0,353658;0,347303;0,368621;0,357567;0,357567;0,357567;0,328017;0,865865;0,643643;0,643643;0,357567;0,357567;0,357567;0,302012;0,468678;0,302012;0,468678;0,468678;
16;;;;;;;;;;;;;;;;1,000000;0,666667;0,666667;0,318773;0,338889;0,328486;0,326939;0,666667;0,666667;0,595147;0,666667;0,583333;0,325683;0,333333;0,333333;0,416667;0,416667;0,833333;0,318773;0,318412;0,328125;0,333333;0,333333;0,333333;0,305556;0,833333;0,666667;0,666667;0,333333;0,333333;0,333333;0,291667;0,833333;0,291667;0,416667;0,416667;
17;;;;;;;;;;;;;;;;;1,000000;0,666667;0,318773;0,338889;0,328486;0,326939;0,666667;0,666667;0,595147;0,666667;0,583333;0,325683;0,333333;0,333333;0,416667;0,416667;0,833333;0,318773;0,318412;0,328125;0,333333;0,333333;0,333333;0,305556;0,833333;0,666667;0,666667;0,333333;0,333333;0,333333;0,291667;0,416667;0,291667;0,416667;0,416667;
18;;;;;;;;;;;;;;;;;;1,000000;0,318773;0,338889;0,328486;0,326939;0,666667;0,666667;0,595147;0,666667;0,583333;0,325683;0,333333;0,333333;0,416667;0,416667;0,833333;0,318773;0,318412;0,328125;0,333333;0,333333;0,333333;0,305556;0,833333;0,666667;0,666667;0,333333;0,333333;0,333333;0,291667;0,416667;0,291667;0,416667;0,416667;
19;;;;;;;;;;;;;;;;;;;1,000000;0,727294;0,698046;0,707732;0,318773;0,318773;0,283179;0,318773;0,256273;0,866738;0,310037;0,310037;0,443773;0,443773;0,443773;0,468592;0,493795;0,415788;0,318773;0,318773;0,318773;0,260037;0,443773;0,318773;0,318773;0,318773;0,318773;0,318773;0,768819;0,443773;0,768819;0,443773;0,443773;
20;;;;;;;;;;;;;;;;;;;;1,000000;0,666831;0,678074;0,338889;0,338889;0,503728;0,338889;0,283333;0,760464;0,341667;0,341667;0,450000;0,450000;0,450000;0,641605;0,639608;0,335000;0,338889;0,338889;0,338889;0,539117;0,450000;0,338889;0,338889;0,338889;0,338889;0,338889;0,943863;0,450000;0,720658;0,450000;0,450000;
21;;;;;;;;;;;;;;;;;;;;;1,000000;0,694190;0,328486;0,328486;0,410789;0,328486;0,255569;0,666712;0,324716;0,324716;0,474319;0,474319;0,474319;0,436170;0,525837;0,637993;0,328486;0,328486;0,328486;0,581484;0,474319;0,328486;0,328486;0,328486;0,328486;0,328486;0,741114;0,474319;0,742203;0,474319;0,474319;
22;;;;;;;;;;;;;;;;;;;;;;1,000000;0,326939;0,326939;0,288570;0,326939;0,255510;0,674397;0,322143;0,322143;0,469796;0,469796;0,469796;0,450380;0,486436;0,420250;0,326939;0,326939;0,326939;0,259643;0,469796;0,326939;0,326939;0,326939;0,326939;0,326939;0,746179;0,469796;0,747598;0,469796;0,469796;
23;;;;;;;;;;;;;;;;;;;;;;;1,000000;0,666667;0,595147;0,666667;0,583333;0,325683;0,333333;0,333333;0,416667;0,416667;0,833333;0,318773;0,318412;0,328125;0,333333;0,333333;0,333333;0,305556;0,833333;0,666667;0,666667;0,333333;0,333333;0,333333;0,291667;0,416667;0,291667;0,416667;0,416667;
24;;;;;;;;;;;;;;;;;;;;;;;;1,000000;0,595147;0,666667;0,583333;0,325683;0,333333;0,333333;0,416667;0,416667;0,833333;0,318773;0,318412;0,328125;0,333333;0,333333;0,333333;0,305556;0,833333;0,666667;0,666667;0,333333;0,333333;0,333333;0,291667;0,416667;0,291667;0,416667;0,416667;
25;;;;;;;;;;;;;;;;;;;;;;;;;1,000000;0,595147;0,484036;0,294235;0,310952;0,310952;0,429523;0,429523;0,817369;0,608355;0,801916;0,629515;0,318412;0,318412;0,318412;0,666315;0,817369;0,595147;0,595147;0,318412;0,318412;0,318412;0,262857;0,429523;0,262857;0,429523;0,429523;
26;;;;;;;;;;;;;;;;;;;;;;;;;;1,000000;0,583333;0,325683;0,333333;0,333333;0,416667;0,416667;0,833333;0,592603;0,318412;0,603011;0,333333;0,333333;0,333333;0,572809;0,833333;0,666667;0,666667;0,333333;0,333333;0,333333;0,291667;0,416667;0,291667;0,416667;0,416667;
27;;;;;;;;;;;;;;;;;;;;;;;;;;;1,000000;0,263183;0,555556;0,555556;0,375000;0,750000;0,750000;0,256273;0,262857;0,265625;0,291667;0,291667;0,291667;0,250000;0,750000;0,583333;0,583333;0,291667;0,291667;0,291667;0,250000;0,375000;0,250000;0,375000;0,375000;
28;;;;;;;;;;;;;;;;;;;;;;;;;;;;1,000000;0,321093;0,321093;0,450683;0,450683;0,450683;0,496234;0,515908;0,307617;0,325683;0,325683;0,325683;0,271093;0,450683;0,325683;0,325683;0,325683;0,325683;0,325683;0,789550;0,450683;0,789550;0,450683;0,450683;
29;;;;;;;;;;;;;;;;;;;;;;;;;;;;;1,000000;0,666667;0,444444;0,888889;0,444444;0,310037;0,310952;0,325000;0,333333;0,333333;0,333333;0,291667;0,444444;0,333333;0,333333;0,333333;0,333333;0,333333;0,277778;0,444444;0,277778;0,444444;0,444444;
30;;;;;;;;;;;;;;;;;;;;;;;;;;;;;;1,000000;0,444444;0,888889;0,444444;0,310037;0,310952;0,325000;0,333333;0,333333;0,333333;0,291667;0,444444;0,333333;0,333333;0,333333;0,333333;0,333333;0,277778;0,444444;0,277778;0,444444;0,444444;
31;;;;;;;;;;;;;;;;;;;;;;;;;;;;;;;1,000000;0,500000;0,500000;0,443773;0,429523;0,453125;0,416667;0,416667;0,416667;0,416667;0,500000;0,416667;0,416667;0,416667;0,416667;0,416667;0,375000;0,500000;0,375000;0,500000;0,500000;
32;;;;;;;;;;;;;;;;;;;;;;;;;;;;;;;;1,000000;0,500000;0,443773;0,429523;0,453125;0,416667;0,416667;0,416667;0,416667;0,500000;0,416667;0,416667;0,416667;0,416667;0,416667;0,375000;0,500000;0,375000;0,500000;0,500000;
33;;;;;;;;;;;;;;;;;;;;;;;;;;;;;;;;;1,000000;0,443773;0,429523;0,453125;0,416667;0,416667;0,416667;0,416667;1,000000;0,833333;0,833333;0,416667;0,416667;0,416667;0,375000;0,500000;0,375000;0,500000;0,500000;
34;;;;;;;;;;;;;;;;;;;;;;;;;;;;;;;;;;1,000000;0,719284;0,712862;0,318773;0,318773;0,318773;0,740616;0,443773;0,318773;0,318773;0,318773;0,318773;0,318773;0,471750;0,443773;0,471750;0,443773;0,443773;
35;;;;;;;;;;;;;;;;;;;;;;;;;;;;;;;;;;;1,000000;0,707622;0,318412;0,318412;0,318412;0,731693;0,429523;0,318412;0,318412;0,318412;0,318412;0,318412;0,485401;0,429523;0,485401;0,429523;0,429523;
36;;;;;;;;;;;;;;;;;;;;;;;;;;;;;;;;;;;;1,000000;0,328125;0,328125;0,328125;0,729501;0,453125;0,328125;0,328125;0,328125;0,328125;0,328125;0,265625;0,453125;0,265625;0,453125;0,453125;
37;;;;;;;;;;;;;;;;;;;;;;;;;;;;;;;;;;;;;1,000000;0,666667;0,666667;0,305556;0,416667;0,333333;0,333333;0,333333;0,333333;0,333333;0,291667;0,416667;0,291667;0,416667;0,416667;
38;;;;;;;;;;;;;;;;;;;;;;;;;;;;;;;;;;;;;;1,000000;0,666667;0,305556;0,416667;0,333333;0,333333;0,333333;0,333333;0,333333;0,291667;0,416667;0,291667;0,416667;0,416667;
39;;;;;;;;;;;;;;;;;;;;;;;;;;;;;;;;;;;;;;;1,000000;0,305556;0,416667;0,333333;0,333333;0,333333;0,333333;0,333333;0,291667;0,416667;0,291667;0,416667;0,416667;
40;;;;;;;;;;;;;;;;;;;;;;;;;;;;;;;;;;;;;;;;1,000000;0,416667;0,305556;0,305556;0,305556;0,305556;0,305556;0,250000;0,416667;0,250000;0,416667;0,416667;
41;;;;;;;;;;;;;;;;;;;;;;;;;;;;;;;;;;;;;;;;;1,000000;0,833333;0,833333;0,416667;0,416667;0,416667;0,375000;0,500000;0,375000;0,500000;0,500000;
42;;;;;;;;;;;;;;;;;;;;;;;;;;;;;;;;;;;;;;;;;;1,000000;0,666667;0,333333;0,333333;0,333333;0,291667;0,416667;0,291667;0,416667;0,416667;
43;;;;;;;;;;;;;;;;;;;;;;;;;;;;;;;;;;;;;;;;;;;1,000000;0,333333;0,333333;0,333333;0,291667;0,416667;0,291667;0,416667;0,416667;
44;;;;;;;;;;;;;;;;;;;;;;;;;;;;;;;;;;;;;;;;;;;;1,000000;0,666667;0,666667;0,291667;0,416667;0,291667;0,416667;0,416667;
45;;;;;;;;;;;;;;;;;;;;;;;;;;;;;;;;;;;;;;;;;;;;;1,000000;0,666667;0,291667;0,416667;0,291667;0,416667;0,416667;
46;;;;;;;;;;;;;;;;;;;;;;;;;;;;;;;;;;;;;;;;;;;;;;1,000000;0,291667;0,416667;0,291667;0,416667;0,416667;
47;;;;;;;;;;;;;;;;;;;;;;;;;;;;;;;;;;;;;;;;;;;;;;;1,000000;0,375000;0,750000;0,375000;0,375000;
48;;;;;;;;;;;;;;;;;;;;;;;;;;;;;;;;;;;;;;;;;;;;;;;;1,000000;0,375000;0,500000;0,500000;
49;;;;;;;;;;;;;;;;;;;;;;;;;;;;;;;;;;;;;;;;;;;;;;;;;1,000000;0,375000;0,375000;
50;;;;;;;;;;;;;;;;;;;;;;;;;;;;;;;;;;;;;;;;;;;;;;;;;;1,000000;0,500000;
51;;;;;;;;;;;;;;;;;;;;;;;;;;;;;;;;;;;;;;;;;;;;;;;;;;;1,000000;
