;1; 2; 3; 4; 5; 6; 7; 8; 9; 10; 11; 12; 13; 14; 15; 16; 17; 18; 19; 20; 21; 22; 23; 24; 25; 26; 27; 28; 29; 30; 31; 32; 33; 34; 35; 36; 37; 38; 39; 40; 41; 42; 43; 44; 45; 46; 47; 48; 49; 50; 51; 52; 53; 54; 55; 56; 57; 58; 59; 60; 61; 62; 63; 64; 65; 66; 67; 68; 69; 70; 71; 72; 73; 74; 75; 76; 77; 78; 79; 80; 81; 82; 83; 84; 85; 86; 87; 88; 89; 90; 91; 92; 93; 94; 95; 96; 97; 98; 99; 100; 101; 102; 103; 104; 105; 106; 107; 108; 109
1;1,000000;0,167130;0,363714;0,441327;0,236459;0,260480;0,000000;0,000000;0,000000;0,261312;0,199381;0,519609;0,568433;0,186438;0,186993;0,187581;0,367339;0,367339;0,386960;0,313383;0,315323;0,337896;0,307257;0,386468;0,176560;0,443314;0,429680;0,441714;0,453455;0,421642;0,422344;0,423014;0,453045;0,453469;0,453875;0,454265;0,468306;0,260104;0,387441;0,354355;0,446000;0,481113;0,455181;0,430479;0,430854;0,431217;0,431569;0,000000;0,412638;0,413020;0,413392;0,353915;0,430981;0,431309;0,431629;0,355005;0,536309;0,433568;0,433909;0,000000;0,523914;0,463016;0,402152;0,424188;0,432595;0,359366;0,327095;0,000000;0,000000;0,000000;0,388164;0,388489;0,419913;0,444433;0,375746;0,433716;0,433938;0,374684;0,449043;0,449275;0,438280;0,452306;0,372514;0,439091;0,439291;0,118110;0,118306;0,118247;0,118440;0,118382;0,118574;0,118764;0,118830;0,118895;0,371417;0,448506;0,370281;0,287345;0,523914;0,430906;0,440778;0,440903;0,441025;0,443056;0,299914;0,434636;0,434761;0,434884;0,291132;
2;;1,000000;0,359445;0,456872;0,283937;0,279503;0,000000;0,000000;0,645109;0,394828;0,335841;0,387211;0,393874;0,192946;0,193501;0,194089;0,381416;0,381416;0,417227;0,564027;0,564802;0,335256;0,334589;0,477660;0,469764;0,416044;0,307427;0,390523;0,330153;0,403670;0,403910;0,404158;0,186522;0,186616;0,186711;0,186805;0,188028;0,350351;0,364895;0,479467;0,397018;0,448501;0,490426;0,242025;0,242151;0,242278;0,242406;0,645109;0,279799;0,279905;0,280012;0,496436;0,243475;0,243601;0,243727;0,276138;0,000000;0,399463;0,399632;0,645109;0,514673;0,498578;0,258240;0,252714;0,243601;0,278577;0,558995;0,000000;0,000000;0,000000;0,510667;0,510667;0,242638;0,254434;0,676468;0,246883;0,247002;0,281671;0,592412;0,592412;0,592884;0,594106;0,487181;0,409270;0,409376;0,505263;0,528270;0,505517;0,528516;0,505763;0,528755;0,505980;0,506096;0,506212;0,723466;0,491743;0,507682;0,363458;0,514673;0,554378;0,252631;0,252708;0,252785;0,595337;0,661980;0,254204;0,254270;0,254336;0,367493;
3;;;1,000000;0,560159;0,606951;0,222651;0,000000;0,000000;0,588256;0,132218;0,117667;0,484231;0,523106;0,000000;0,000000;0,000000;0,000000;0,000000;0,333496;0,356184;0,356371;0,278404;0,277737;0,390172;0,412912;0,328556;0,249205;0,303036;0,246422;0,177654;0,177863;0,178071;0,129669;0,129764;0,129858;0,129953;0,131176;0,630343;0,550164;0,421245;0,338796;0,629280;0,751829;0,185172;0,185299;0,185426;0,185553;0,588256;0,222946;0,223052;0,223160;0,412704;0,186623;0,186749;0,186874;0,219285;0,383239;0,341242;0,341410;0,588256;0,509815;0,751829;0,516700;0,559705;0,576771;0,221724;0,500773;0,000000;0,000000;0,000000;0,426935;0,426935;0,580383;0,630520;0,222066;0,543620;0,543850;0,463757;0,504924;0,504924;0,505397;0,506619;0,428959;0,351048;0,351154;0,000000;0,000000;0,000000;0,000000;0,000000;0,000000;0,000000;0,000000;0,000000;0,635979;0,404256;0,423950;0,306605;0,509815;0,404640;0,195778;0,195856;0,195932;0,507850;0,307203;0,197351;0,197417;0,197483;0,630343;
4;;;;1,000000;0,197375;0,413146;0,000000;0,000000;0,558547;0,102509;0,087958;0,578859;0,579845;0,000000;0,000000;0,000000;0,000000;0,000000;0,332550;0,512834;0,513530;0,248695;0,248028;0,425155;0,383203;0,363539;0,248449;0,338018;0,245476;0,147946;0,148154;0,148362;0,099960;0,100055;0,100149;0,100244;0,101467;0,569395;0,511653;0,420489;0,338040;0,732286;0,612069;0,155463;0,155590;0,155717;0,155844;0,558547;0,193237;0,193343;0,193451;0,411758;0,156914;0,157040;0,157165;0,189576;0,421427;0,340486;0,340654;0,558547;0,531695;0,619635;0,406564;0,458929;0,455892;0,192015;0,500017;0,000000;0,000000;0,000000;0,425990;0,425990;0,521672;0,481174;0,579861;0,534787;0,534787;0,644895;0,539907;0,539907;0,540379;0,541602;0,428203;0,350292;0,350398;0,000000;0,000000;0,000000;0,000000;0,000000;0,000000;0,000000;0,000000;0,000000;0,670961;0,439239;0,423005;0,276896;0,531695;0,457771;0,166070;0,166147;0,166223;0,542832;0,277494;0,167642;0,167708;0,167774;0,569395;
5;;;;;1,000000;0,273223;0,000000;0,000000;0,638828;0,182790;0,168239;0,231570;0,226976;0,000000;0,000000;0,000000;0,000000;0,000000;0,268378;0,308067;0,308349;0,328975;0,328309;0,317209;0,463483;0,232295;0,254714;0,225724;0,248611;0,228226;0,228434;0,228643;0,180241;0,180336;0,180430;0,180524;0,181748;0,344070;0,304515;0,264115;0,248475;0,198679;0,208945;0,235744;0,235870;0,235998;0,236125;0,638828;0,273518;0,273624;0,273731;0,266392;0,237194;0,237320;0,237446;0,269857;0,000000;0,235397;0,235555;0,638828;0,000000;0,213161;0,251959;0,246433;0,237320;0,272296;0,300651;0,000000;0,000000;0,000000;0,275114;0,275255;0,236357;0,248153;0,272638;0,240602;0,240721;0,275390;0,238962;0,239096;0,239348;0,239793;0,274091;0,241460;0,241569;0,000000;0,000000;0,000000;0,000000;0,000000;0,000000;0,000000;0,000000;0,000000;0,275165;0,256220;0,276963;0,357177;0,000000;0,239898;0,246350;0,246427;0,246504;0,242647;0,357775;0,247923;0,247989;0,248055;0,361212;
6;;;;;;1,000000;0,000000;0,000000;0,634395;0,178357;0,163806;0,388264;0,389189;0,000000;0,000000;0,000000;0,000000;0,000000;0,263944;0,303634;0,303916;0,324542;0,323875;0,312776;0,459050;0,227862;0,250281;0,221291;0,244178;0,223793;0,224001;0,224210;0,175808;0,175902;0,175997;0,176091;0,177314;0,339637;0,561241;0,259682;0,244042;0,384855;0,204512;0,231311;0,231437;0,231565;0,231692;0,634395;0,269085;0,269191;0,269298;0,261959;0,232761;0,232887;0,233013;0,265424;0,227708;0,230964;0,231122;0,634395;0,000000;0,208728;0,557983;0,543863;0,520966;0,267863;0,296217;0,000000;0,000000;0,000000;0,270681;0,270822;0,516810;0,545348;0,268205;0,526516;0,526599;0,610526;0,234529;0,234663;0,234915;0,235360;0,269658;0,237027;0,237136;0,000000;0,000000;0,000000;0,000000;0,000000;0,000000;0,000000;0,000000;0,000000;0,270731;0,251787;0,272530;0,352744;0,000000;0,235465;0,241917;0,241994;0,242071;0,238214;0,353342;0,243490;0,243556;0,243622;0,356779;
7;;;;;;;1,000000;0,000000;0,000000;0,000000;0,000000;0,000000;0,000000;0,000000;0,000000;0,000000;0,000000;0,000000;0,000000;0,000000;0,000000;0,000000;0,000000;0,000000;0,000000;0,000000;0,000000;0,000000;0,000000;0,000000;0,000000;0,000000;0,000000;0,000000;0,000000;0,000000;0,000000;0,000000;0,000000;0,000000;0,000000;0,000000;0,000000;0,000000;0,000000;0,000000;0,000000;0,000000;0,000000;0,000000;0,000000;0,000000;0,000000;0,000000;0,000000;0,000000;0,000000;0,000000;0,000000;0,000000;0,000000;0,000000;0,000000;0,000000;0,000000;0,000000;0,000000;0,000000;0,000000;0,000000;0,000000;0,000000;0,000000;0,000000;0,000000;0,000000;0,000000;0,000000;0,000000;0,000000;0,000000;0,000000;0,000000;0,000000;0,000000;0,000000;0,000000;0,000000;0,000000;0,000000;0,000000;0,000000;0,000000;0,000000;0,000000;0,000000;0,000000;0,000000;0,000000;0,000000;0,000000;0,000000;0,000000;0,000000;0,000000;0,000000;0,000000;0,000000;0,000000;
8;;;;;;;;1,000000;0,000000;0,000000;0,000000;0,000000;0,000000;0,000000;0,000000;0,000000;0,000000;0,000000;0,000000;0,000000;0,000000;0,000000;0,000000;0,000000;0,000000;0,000000;0,000000;0,000000;0,000000;0,000000;0,000000;0,000000;0,000000;0,000000;0,000000;0,000000;0,000000;0,000000;0,000000;0,000000;0,000000;0,000000;0,000000;0,000000;0,000000;0,000000;0,000000;0,000000;0,000000;0,000000;0,000000;0,000000;0,000000;0,000000;0,000000;0,000000;0,000000;0,000000;0,000000;0,000000;0,000000;0,000000;0,000000;0,000000;0,000000;0,000000;0,000000;0,000000;0,000000;0,000000;0,000000;0,000000;0,000000;0,000000;0,000000;0,000000;0,000000;0,000000;0,000000;0,000000;0,000000;0,000000;0,000000;0,000000;0,000000;0,000000;0,000000;0,000000;0,000000;0,000000;0,000000;0,000000;0,000000;0,000000;0,000000;0,000000;0,000000;0,000000;0,000000;0,000000;0,000000;0,000000;0,000000;0,000000;0,000000;0,000000;0,000000;0,000000;0,000000;
9;;;;;;;;;1,000000;0,543962;0,529411;0,592742;0,588148;0,000000;0,000000;0,000000;0,000000;0,000000;0,629550;0,669239;0,669521;0,690148;0,689481;0,678382;0,824656;0,593467;0,615886;0,586896;0,609783;0,589398;0,589607;0,589815;0,541413;0,541508;0,541602;0,541697;0,542920;0,705242;0,665687;0,625287;0,609647;0,559851;0,570117;0,596916;0,597043;0,597170;0,597297;1,000000;0,634690;0,634796;0,634904;0,627564;0,598367;0,598493;0,598618;0,631029;0,000000;0,596569;0,596727;1,000000;0,000000;0,574333;0,613131;0,607605;0,598492;0,633468;0,661823;0,000000;0,000000;0,000000;0,636286;0,636428;0,597529;0,609326;0,633810;0,601774;0,601893;0,636563;0,600135;0,600268;0,600521;0,600965;0,635263;0,602632;0,602742;0,000000;0,000000;0,000000;0,000000;0,000000;0,000000;0,000000;0,000000;0,000000;0,636337;0,617392;0,638135;0,718349;0,000000;0,601071;0,607522;0,607599;0,607676;0,603819;0,718947;0,609095;0,609161;0,609227;0,722384;
10;;;;;;;;;;1,000000;0,592529;0,232042;0,219520;0,348214;0,348769;0,349357;0,637763;0,639161;0,173512;0,311125;0,311292;0,234110;0,233443;0,338847;0,368617;0,137429;0,159848;0,130858;0,153745;0,133360;0,133569;0,133777;0,085375;0,085470;0,085564;0,085659;0,086882;0,249204;0,209649;0,169249;0,153609;0,103813;0,114079;0,140878;0,141005;0,141132;0,141259;0,543962;0,178652;0,178758;0,178866;0,171526;0,142328;0,142454;0,142580;0,174991;0,000000;0,140531;0,140689;0,543962;0,000000;0,118295;0,157093;0,151567;0,142454;0,177430;0,205785;0,000000;0,000000;0,000000;0,180248;0,180390;0,141491;0,153287;0,177772;0,145736;0,145855;0,180524;0,144097;0,144230;0,144482;0,144927;0,179225;0,146594;0,146704;0,156790;0,156985;0,156926;0,157120;0,157062;0,157253;0,157444;0,157509;0,157575;0,180299;0,161354;0,182097;0,262311;0,000000;0,145033;0,151484;0,151561;0,151638;0,147781;0,262909;0,153057;0,153123;0,153189;0,266346;
11;;;;;;;;;;;1,000000;0,189835;0,177313;0,551830;0,553031;0,554165;0,582812;0,583946;0,158961;0,268917;0,269085;0,219558;0,218892;0,296640;0,354066;0,122878;0,145297;0,116307;0,139194;0,118809;0,119017;0,119226;0,070824;0,070919;0,071013;0,071108;0,072331;0,234653;0,195098;0,154698;0,139058;0,089262;0,099528;0,126327;0,126454;0,126581;0,126708;0,529411;0,164101;0,164207;0,164315;0,156975;0,127777;0,127903;0,128029;0,160440;0,000000;0,125980;0,126138;0,529411;0,000000;0,103744;0,142542;0,137016;0,127903;0,162879;0,191234;0,000000;0,000000;0,000000;0,165697;0,165839;0,126940;0,138736;0,163221;0,131185;0,131304;0,165973;0,129546;0,129679;0,129931;0,130376;0,164674;0,132043;0,132153;0,137402;0,137597;0,137539;0,137732;0,137674;0,137866;0,138056;0,138122;0,138187;0,165748;0,146803;0,167546;0,247760;0,000000;0,130482;0,136933;0,137010;0,137087;0,133230;0,248358;0,138506;0,138572;0,138638;0,251795;
12;;;;;;;;;;;;1,000000;0,631959;0,000000;0,000000;0,000000;0,000000;0,000000;0,222292;0,365937;0,365971;0,282889;0,282223;0,471826;0,417397;0,566183;0,606296;0,572519;0,398990;0,342085;0,342325;0,342573;0,134155;0,134250;0,134344;0,134439;0,135662;0,297984;0,583959;0,492433;0,524753;0,659326;0,645511;0,189658;0,189785;0,189912;0,190039;0,592742;0,227432;0,227538;0,227646;0,417050;0,346386;0,346509;0,346633;0,424115;0,556607;0,412430;0,412598;0,592742;0,000000;0,651675;0,381682;0,367562;0,344665;0,427043;0,571961;0,000000;0,000000;0,000000;0,468423;0,468707;0,517303;0,457101;0,226552;0,350216;0,350298;0,434225;0,593423;0,593629;0,587061;0,604488;0,695404;0,422236;0,422342;0,110955;0,111151;0,111092;0,111285;0,111228;0,111419;0,111609;0,111675;0,111741;0,499684;0,475057;0,430975;0,470146;0,000000;0,367676;0,402375;0,402430;0,402485;0,591288;0,600395;0,201837;0,201903;0,201969;0,315126;
13;;;;;;;;;;;;;1,000000;0,000000;0,000000;0,000000;0,000000;0,000000;0,404267;0,357391;0,357425;0,278296;0,277629;0,452598;0,412804;0,569357;0,458857;0,564539;0,608415;0,337105;0,337346;0,337593;0,129561;0,129656;0,129750;0,129845;0,131068;0,594767;0,456462;0,433030;0,535566;0,660727;0,639578;0,185064;0,185191;0,185318;0,185445;0,588148;0,222838;0,222944;0,223052;0,483476;0,186515;0,186641;0,186766;0,416249;0,564745;0,500619;0,500894;0,588148;0,564371;0,645603;0,382607;0,429072;0,426035;0,419075;0,397970;0,000000;0,000000;0,000000;0,497707;0,497707;0,523319;0,463117;0,221958;0,351141;0,351224;0,435150;0,583733;0,583936;0,577079;0,594363;0,439957;0,525972;0,526146;0,105702;0,105897;0,105838;0,106032;0,105974;0,106166;0,106356;0,106421;0,106487;0,490950;0,565972;0,494722;0,460947;0,564371;0,367607;0,195670;0,195748;0,195824;0,581246;0,595416;0,197243;0,197309;0,197375;0,594767;
14;;;;;;;;;;;;;;1,000000;0,752740;0,754600;0,370504;0,371168;0,000000;0,000000;0,000000;0,000000;0,000000;0,000000;0,000000;0,000000;0,000000;0,000000;0,000000;0,000000;0,000000;0,000000;0,000000;0,000000;0,000000;0,000000;0,000000;0,000000;0,000000;0,000000;0,000000;0,000000;0,000000;0,000000;0,000000;0,000000;0,000000;0,000000;0,000000;0,000000;0,000000;0,000000;0,000000;0,000000;0,000000;0,000000;0,000000;0,000000;0,000000;0,000000;0,000000;0,000000;0,000000;0,000000;0,000000;0,000000;0,000000;0,000000;0,000000;0,000000;0,000000;0,000000;0,000000;0,000000;0,000000;0,000000;0,000000;0,000000;0,000000;0,000000;0,000000;0,000000;0,000000;0,000000;0,000000;0,000000;0,000000;0,000000;0,000000;0,000000;0,000000;0,000000;0,000000;0,000000;0,000000;0,000000;0,000000;0,000000;0,000000;0,000000;0,000000;0,000000;0,000000;0,000000;0,000000;0,000000;0,000000;0,000000;0,000000;
15;;;;;;;;;;;;;;;1,000000;0,756372;0,371059;0,371722;0,000000;0,000000;0,000000;0,000000;0,000000;0,000000;0,000000;0,000000;0,000000;0,000000;0,000000;0,000000;0,000000;0,000000;0,000000;0,000000;0,000000;0,000000;0,000000;0,000000;0,000000;0,000000;0,000000;0,000000;0,000000;0,000000;0,000000;0,000000;0,000000;0,000000;0,000000;0,000000;0,000000;0,000000;0,000000;0,000000;0,000000;0,000000;0,000000;0,000000;0,000000;0,000000;0,000000;0,000000;0,000000;0,000000;0,000000;0,000000;0,000000;0,000000;0,000000;0,000000;0,000000;0,000000;0,000000;0,000000;0,000000;0,000000;0,000000;0,000000;0,000000;0,000000;0,000000;0,000000;0,000000;0,000000;0,000000;0,000000;0,000000;0,000000;0,000000;0,000000;0,000000;0,000000;0,000000;0,000000;0,000000;0,000000;0,000000;0,000000;0,000000;0,000000;0,000000;0,000000;0,000000;0,000000;0,000000;0,000000;0,000000;0,000000;0,000000;
16;;;;;;;;;;;;;;;;1,000000;0,371647;0,372311;0,000000;0,000000;0,000000;0,000000;0,000000;0,000000;0,000000;0,000000;0,000000;0,000000;0,000000;0,000000;0,000000;0,000000;0,000000;0,000000;0,000000;0,000000;0,000000;0,000000;0,000000;0,000000;0,000000;0,000000;0,000000;0,000000;0,000000;0,000000;0,000000;0,000000;0,000000;0,000000;0,000000;0,000000;0,000000;0,000000;0,000000;0,000000;0,000000;0,000000;0,000000;0,000000;0,000000;0,000000;0,000000;0,000000;0,000000;0,000000;0,000000;0,000000;0,000000;0,000000;0,000000;0,000000;0,000000;0,000000;0,000000;0,000000;0,000000;0,000000;0,000000;0,000000;0,000000;0,000000;0,000000;0,000000;0,000000;0,000000;0,000000;0,000000;0,000000;0,000000;0,000000;0,000000;0,000000;0,000000;0,000000;0,000000;0,000000;0,000000;0,000000;0,000000;0,000000;0,000000;0,000000;0,000000;0,000000;0,000000;0,000000;0,000000;0,000000;
17;;;;;;;;;;;;;;;;;1,000000;0,726839;0,000000;0,000000;0,000000;0,000000;0,000000;0,000000;0,000000;0,000000;0,000000;0,000000;0,000000;0,000000;0,000000;0,000000;0,000000;0,000000;0,000000;0,000000;0,000000;0,000000;0,000000;0,000000;0,000000;0,000000;0,000000;0,000000;0,000000;0,000000;0,000000;0,000000;0,000000;0,000000;0,000000;0,000000;0,000000;0,000000;0,000000;0,000000;0,000000;0,000000;0,000000;0,000000;0,000000;0,000000;0,000000;0,000000;0,000000;0,000000;0,000000;0,000000;0,000000;0,000000;0,000000;0,000000;0,000000;0,000000;0,000000;0,000000;0,000000;0,000000;0,000000;0,000000;0,000000;0,000000;0,000000;0,000000;0,000000;0,000000;0,000000;0,000000;0,000000;0,000000;0,000000;0,000000;0,000000;0,000000;0,000000;0,000000;0,000000;0,000000;0,000000;0,000000;0,000000;0,000000;0,000000;0,000000;0,000000;0,000000;0,000000;0,000000;0,000000;
18;;;;;;;;;;;;;;;;;;1,000000;0,000000;0,000000;0,000000;0,000000;0,000000;0,000000;0,000000;0,000000;0,000000;0,000000;0,000000;0,000000;0,000000;0,000000;0,000000;0,000000;0,000000;0,000000;0,000000;0,000000;0,000000;0,000000;0,000000;0,000000;0,000000;0,000000;0,000000;0,000000;0,000000;0,000000;0,000000;0,000000;0,000000;0,000000;0,000000;0,000000;0,000000;0,000000;0,000000;0,000000;0,000000;0,000000;0,000000;0,000000;0,000000;0,000000;0,000000;0,000000;0,000000;0,000000;0,000000;0,000000;0,000000;0,000000;0,000000;0,000000;0,000000;0,000000;0,000000;0,000000;0,000000;0,000000;0,000000;0,000000;0,000000;0,000000;0,000000;0,000000;0,000000;0,000000;0,000000;0,000000;0,000000;0,000000;0,000000;0,000000;0,000000;0,000000;0,000000;0,000000;0,000000;0,000000;0,000000;0,000000;0,000000;0,000000;0,000000;0,000000;0,000000;0,000000;0,000000;
19;;;;;;;;;;;;;;;;;;;1,000000;0,298789;0,299071;0,319697;0,319030;0,442216;0,454205;0,351952;0,245436;0,352833;0,366441;0,218948;0,219156;0,219365;0,170963;0,171057;0,171152;0,171246;0,172469;0,334792;0,295237;0,254837;0,239197;0,366165;0,391046;0,226466;0,226592;0,226719;0,226847;0,629550;0,264240;0,264346;0,264453;0,532724;0,227916;0,228042;0,228168;0,260579;0,000000;0,226119;0,226277;0,629550;0,566546;0,398539;0,242681;0,237155;0,228042;0,263018;0,291372;0,000000;0,000000;0,000000;0,546955;0,546955;0,227079;0,238875;0,263360;0,231324;0,231443;0,266112;0,457588;0,457744;0,458186;0,459082;0,264813;0,232182;0,232291;0,000000;0,000000;0,000000;0,000000;0,000000;0,000000;0,000000;0,000000;0,000000;0,540197;0,418963;0,543970;0,347899;0,566546;0,230620;0,781254;0,781442;0,781627;0,462775;0,348497;0,238645;0,238711;0,238777;0,351934;
20;;;;;;;;;;;;;;;;;;;;1,000000;0,559511;0,359387;0,358720;0,413111;0,493895;0,262706;0,285125;0,256135;0,279022;0,258637;0,258846;0,259054;0,210652;0,210747;0,210841;0,210936;0,212159;0,374482;0,385651;0,294526;0,278886;0,363409;0,366552;0,266155;0,266282;0,266409;0,266536;0,669239;0,303929;0,304035;0,304143;0,296803;0,267606;0,267732;0,267857;0,300268;0,179632;0,265808;0,265967;0,669239;0,000000;0,373712;0,282371;0,276844;0,267731;0,302707;0,331062;0,000000;0,000000;0,000000;0,305525;0,305667;0,428712;0,353276;0,729942;0,271013;0,271132;0,305802;0,269374;0,269507;0,269760;0,270204;0,304502;0,271872;0,271981;0,111466;0,111661;0,111602;0,111796;0,111738;0,111929;0,112120;0,112185;0,112251;0,305576;0,286631;0,307374;0,387588;0,000000;0,807812;0,276762;0,276839;0,276915;0,273058;0,388186;0,278334;0,278400;0,278466;0,391623;
21;;;;;;;;;;;;;;;;;;;;;1,000000;0,359668;0,359002;0,413279;0,494176;0,262988;0,285407;0,256417;0,279304;0,258919;0,259127;0,259336;0,210934;0,211029;0,211123;0,211217;0,212441;0,374763;0,385838;0,294808;0,279168;0,363596;0,366740;0,266437;0,266563;0,266691;0,266818;0,669521;0,304211;0,304317;0,304424;0,297085;0,267887;0,268013;0,268139;0,300550;0,179760;0,266090;0,266248;0,669521;0,000000;0,373900;0,282652;0,277126;0,268013;0,302989;0,331344;0,000000;0,000000;0,000000;0,305807;0,305948;0,428899;0,353463;0,730893;0,271295;0,271414;0,306083;0,269655;0,269789;0,270041;0,270486;0,304784;0,272153;0,272262;0,111595;0,111790;0,111731;0,111925;0,111867;0,112059;0,112249;0,112314;0,112380;0,305858;0,286913;0,307656;0,387870;0,000000;0,808406;0,277043;0,277120;0,277197;0,273340;0,388468;0,278616;0,278682;0,278748;0,391905;
22;;;;;;;;;;;;;;;;;;;;;;1,000000;0,379628;0,368529;0,514803;0,283615;0,306033;0,277043;0,299930;0,279546;0,279754;0,279963;0,231561;0,231655;0,231750;0,231844;0,233067;0,395390;0,355835;0,315434;0,299795;0,249999;0,260264;0,287063;0,287190;0,287317;0,287445;0,690148;0,324837;0,324943;0,325051;0,317712;0,288514;0,288640;0,288766;0,321177;0,000000;0,286717;0,286875;0,690148;0,000000;0,264481;0,303279;0,297753;0,288639;0,323616;0,351970;0,000000;0,000000;0,000000;0,326433;0,326575;0,287677;0,299473;0,323958;0,291922;0,292041;0,326710;0,290282;0,290415;0,290668;0,291113;0,325411;0,292780;0,292889;0,000000;0,000000;0,000000;0,000000;0,000000;0,000000;0,000000;0,000000;0,000000;0,326484;0,307540;0,328282;0,408497;0,000000;0,291218;0,297670;0,297747;0,297824;0,293966;0,409095;0,299243;0,299309;0,299374;0,412532;
23;;;;;;;;;;;;;;;;;;;;;;;1,000000;0,367862;1,000000;0,282948;0,305367;0,276376;0,299264;0,278879;0,279087;0,279296;0,230894;0,230988;0,231083;0,231177;0,232400;0,394723;0,355168;0,314768;0,299128;0,249332;0,259598;0,286397;0,286523;0,286650;0,286778;0,689481;0,324171;0,324277;0,324384;0,317045;0,287847;0,287973;0,288099;0,320510;0,000000;0,286050;0,286208;0,689481;0,000000;0,263814;0,302612;0,297086;0,287973;0,322949;0,351303;0,000000;0,000000;0,000000;0,325766;0,325908;0,287010;0,298806;0,323291;0,291255;0,291374;0,326043;0,289615;0,289749;0,290001;0,290446;0,324744;0,292113;0,292222;0,000000;0,000000;0,000000;0,000000;0,000000;0,000000;0,000000;0,000000;0,000000;0,325817;0,306873;0,327616;0,407830;0,000000;0,290551;0,297003;0,297080;0,297157;0,293300;0,408428;0,298576;0,298642;0,298708;0,411865;
24;;;;;;;;;;;;;;;;;;;;;;;;1,000000;0,503037;0,446771;0,348396;0,421251;0,355142;0,697397;0,697831;0,698254;0,219795;0,219889;0,219984;0,220078;0,221301;0,383624;0,405864;0,520436;0,437987;0,479229;0,521154;0,275297;0,275424;0,275551;0,275679;0,678382;0,313071;0,313177;0,313285;0,521425;0,276748;0,276874;0,277000;0,309411;0,000000;0,440433;0,440601;0,678382;0,524110;0,529306;0,291513;0,285987;0,276873;0,311850;0,599964;0,000000;0,000000;0,000000;0,535656;0,535656;0,275911;0,287707;0,312191;0,280156;0,280275;0,314944;0,623139;0,623139;0,623612;0,624834;0,528150;0,450239;0,450345;0,124302;0,124497;0,124438;0,124632;0,124574;0,124766;0,124956;0,125021;0,125087;0,754194;0,522471;0,532671;0,396730;0,524110;0,279452;0,285904;0,285981;0,286058;0,626065;0,397329;0,287477;0,287543;0,287608;0,400766;
25;;;;;;;;;;;;;;;;;;;;;;;;;1,000000;0,418122;0,440541;0,411551;0,434438;0,414054;0,414262;0,414471;0,366069;0,366163;0,366258;0,366352;0,367575;0,529898;0,490343;0,449942;0,434303;0,384507;0,394772;0,421571;0,421698;0,421825;0,421953;0,824656;0,459345;0,459451;0,459559;0,452220;0,423022;0,423148;0,423274;0,455685;0,000000;0,421225;0,421383;0,824656;0,000000;0,398989;0,437787;0,432261;0,423147;0,458123;0,486478;0,000000;0,000000;0,000000;0,460941;0,461083;0,422185;0,433981;0,458465;0,426429;0,426549;0,461218;0,424790;0,424923;0,425176;0,425621;0,459919;0,427288;0,427397;0,000000;0,000000;0,000000;0,000000;0,000000;0,000000;0,000000;0,000000;0,000000;0,460992;0,442048;0,462790;0,543004;0,000000;0,425726;0,432178;0,432255;0,432332;0,428474;0,543603;0,433750;0,433817;0,433882;0,547040;
26;;;;;;;;;;;;;;;;;;;;;;;;;;1,000000;0,672732;0,702567;0,621052;0,182865;0,183074;0,183282;0,134880;0,134975;0,135069;0,135164;0,136387;0,298709;0,348538;0,463110;0,617822;0,417613;0,459538;0,190383;0,190510;0,190637;0,190764;0,593467;0,228157;0,228263;0,228371;0,697338;0,404579;0,404701;0,404826;0,736865;0,000000;0,604621;0,604621;0,593467;0,525283;0,467690;0,206598;0,201072;0,191959;0,736865;0,542638;0,000000;0,000000;0,000000;0,445392;0,445392;0,190996;0,202792;0,227277;0,195241;0,195360;0,230029;0,561523;0,561523;0,561996;0,563218;0,470824;0,392913;0,393019;0,000000;0,000000;0,000000;0,000000;0,000000;0,000000;0,000000;0,000000;0,000000;0,692578;0,775021;0,697338;0,736865;0,525283;0,194538;0,200989;0,201066;0,201143;0,564449;0,312414;0,202562;0,202628;0,202694;0,315851;
27;;;;;;;;;;;;;;;;;;;;;;;;;;;1,000000;0,678379;0,644968;0,205284;0,205492;0,205701;0,157299;0,157394;0,157488;0,157582;0,158806;0,321128;0,324008;0,656067;0,608793;0,271999;0,296783;0,212802;0,212928;0,213056;0,213183;0,615886;0,250576;0,250682;0,250789;0,563872;0,493209;0,493331;0,493455;0,570938;0,000000;0,559578;0,559812;0,615886;0,000000;0,304311;0,229017;0,223491;0,214378;0,573866;0,656067;0,000000;0,000000;0,000000;0,252172;0,252314;0,213415;0,225211;0,249696;0,217660;0,217779;0,252448;0,363255;0,363414;0,363857;0,364754;0,678628;0,541654;0,541654;0,000000;0,000000;0,000000;0,000000;0,000000;0,000000;0,000000;0,000000;0,000000;0,445831;0,650567;0,577797;0,616969;0,000000;0,216957;0,223408;0,223485;0,223562;0,368482;0,334833;0,224981;0,225047;0,225113;0,338270;
28;;;;;;;;;;;;;;;;;;;;;;;;;;;;1,000000;0,662524;0,176294;0,176502;0,176711;0,128309;0,128404;0,128498;0,128592;0,129816;0,292138;0,316454;0,431027;0,617336;0,392093;0,434017;0,183812;0,183938;0,184066;0,184193;0,586896;0,221586;0,221692;0,221799;0,715685;0,414663;0,414786;0,414910;0,764143;0,000000;0,588524;0,588524;0,586896;0,531974;0,442169;0,200027;0,194501;0,185388;0,764143;0,510554;0,000000;0,000000;0,000000;0,446273;0,446273;0,184425;0,196221;0,220706;0,188670;0,188789;0,223458;0,536003;0,536003;0,536475;0,537698;0,776081;0,360830;0,360935;0,000000;0,000000;0,000000;0,000000;0,000000;0,000000;0,000000;0,000000;0,000000;0,667057;0,782595;0,715685;0,764143;0,531974;0,187966;0,194418;0,194495;0,194572;0,538928;0,305843;0,195991;0,196057;0,196123;0,309280;
29;;;;;;;;;;;;;;;;;;;;;;;;;;;;;1,000000;0,199181;0,199389;0,199598;0,151196;0,151291;0,151385;0,151480;0,152703;0,315025;0,275470;0,452382;0,452140;0,279091;0,303972;0,206699;0,206825;0,206953;0,207080;0,609783;0,244473;0,244579;0,244686;0,445650;0,580080;0,580285;0,580487;0,550148;0,000000;0,467157;0,467372;0,609783;0,523367;0,311465;0,222914;0,217388;0,208275;0,552974;0,417323;0,000000;0,000000;0,000000;0,459881;0,459881;0,207312;0,219108;0,243593;0,211557;0,211676;0,246345;0,370514;0,370670;0,371112;0,372008;0,485575;0,392599;0,392746;0,000000;0,000000;0,000000;0,000000;0,000000;0,000000;0,000000;0,000000;0,000000;0,453123;0,637675;0,456896;0,594846;0,523367;0,210854;0,217305;0,217382;0,217459;0,375701;0,328730;0,218878;0,218944;0,219010;0,332167;
30;;;;;;;;;;;;;;;;;;;;;;;;;;;;;;1,000000;0,793582;0,794228;0,130812;0,130906;0,131001;0,131095;0,132318;0,294641;0,255086;0,214685;0,199046;0,149250;0,159515;0,186314;0,186441;0,186568;0,186696;0,589398;0,224088;0,224194;0,224302;0,216963;0,187765;0,187891;0,188017;0,220427;0,000000;0,185967;0,186126;0,589398;0,000000;0,163731;0,202530;0,197003;0,187890;0,222866;0,251221;0,000000;0,000000;0,000000;0,225684;0,225826;0,186927;0,198724;0,223208;0,191172;0,191292;0,225961;0,189533;0,189666;0,189919;0,190363;0,224661;0,192031;0,192140;0,000000;0,000000;0,000000;0,000000;0,000000;0,000000;0,000000;0,000000;0,000000;0,225735;0,206790;0,227533;0,307747;0,000000;0,190469;0,196921;0,196998;0,197075;0,193217;0,741690;0,198493;0,198559;0,198625;0,311783;
31;;;;;;;;;;;;;;;;;;;;;;;;;;;;;;;1,000000;0,794860;0,131020;0,131114;0,131209;0,131303;0,132526;0,294849;0,255294;0,214893;0,199254;0,149458;0,159723;0,186522;0,186649;0,186776;0,186904;0,589607;0,224296;0,224402;0,224510;0,217171;0,187973;0,188099;0,188225;0,220636;0,000000;0,186176;0,186334;0,589607;0,000000;0,163940;0,202738;0,197212;0,188099;0,223075;0,251429;0,000000;0,000000;0,000000;0,225892;0,226034;0,187136;0,198932;0,223417;0,191381;0,191500;0,226169;0,189741;0,189874;0,190127;0,190572;0,224870;0,192239;0,192348;0,000000;0,000000;0,000000;0,000000;0,000000;0,000000;0,000000;0,000000;0,000000;0,225943;0,206999;0,227741;0,307956;0,000000;0,190677;0,197129;0,197206;0,197283;0,193425;0,741931;0,198702;0,198768;0,198833;0,311991;
32;;;;;;;;;;;;;;;;;;;;;;;;;;;;;;;;1,000000;0,131228;0,131323;0,131417;0,131512;0,132735;0,295057;0,255502;0,215102;0,199462;0,149666;0,159932;0,186731;0,186858;0,186985;0,187112;0,589815;0,224505;0,224611;0,224719;0,217379;0,188182;0,188308;0,188433;0,220844;0,000000;0,186384;0,186542;0,589815;0,000000;0,164148;0,202946;0,197420;0,188307;0,223283;0,251638;0,000000;0,000000;0,000000;0,226101;0,226243;0,187344;0,199141;0,223625;0,191589;0,191708;0,226378;0,189950;0,190083;0,190335;0,190780;0,225078;0,192447;0,192557;0,000000;0,000000;0,000000;0,000000;0,000000;0,000000;0,000000;0,000000;0,000000;0,226152;0,207207;0,227950;0,308164;0,000000;0,190886;0,197337;0,197414;0,197491;0,193634;0,742178;0,198910;0,198976;0,199042;0,312199;
33;;;;;;;;;;;;;;;;;;;;;;;;;;;;;;;;;1,000000;0,783362;0,783958;0,784543;0,763720;0,246656;0,207101;0,166700;0,151060;0,101264;0,111530;0,138329;0,138456;0,138583;0,138710;0,541413;0,176103;0,176209;0,176317;0,168977;0,139780;0,139906;0,140031;0,172442;0,000000;0,137982;0,138141;0,541413;0,000000;0,115746;0,154545;0,149018;0,139905;0,174881;0,203236;0,000000;0,000000;0,000000;0,177699;0,177841;0,138942;0,150739;0,175223;0,143187;0,143306;0,177976;0,141548;0,141681;0,141934;0,142378;0,176676;0,144046;0,144155;0,000000;0,000000;0,000000;0,000000;0,000000;0,000000;0,000000;0,000000;0,000000;0,177750;0,158805;0,179548;0,259762;0,000000;0,142484;0,148936;0,149013;0,149089;0,145232;0,260360;0,417589;0,417642;0,417697;0,263797;
34;;;;;;;;;;;;;;;;;;;;;;;;;;;;;;;;;;1,000000;0,784543;0,785116;0,764136;0,246750;0,207195;0,166795;0,151155;0,101359;0,111625;0,138424;0,138550;0,138677;0,138805;0,541508;0,176198;0,176304;0,176411;0,169072;0,139874;0,140000;0,140126;0,172537;0,000000;0,138077;0,138235;0,541508;0,000000;0,115841;0,154639;0,149113;0,140000;0,174976;0,203330;0,000000;0,000000;0,000000;0,177793;0,177935;0,139037;0,150833;0,175318;0,143282;0,143401;0,178070;0,141642;0,141776;0,142028;0,142473;0,176771;0,144140;0,144249;0,000000;0,000000;0,000000;0,000000;0,000000;0,000000;0,000000;0,000000;0,000000;0,177844;0,158900;0,179643;0,259857;0,000000;0,142578;0,149030;0,149107;0,149184;0,145327;0,260455;0,417824;0,417878;0,417932;0,263892;
35;;;;;;;;;;;;;;;;;;;;;;;;;;;;;;;;;;;1,000000;0,785677;0,764544;0,246845;0,207290;0,166889;0,151249;0,101454;0,111719;0,138518;0,138645;0,138772;0,138899;0,541602;0,176292;0,176398;0,176506;0,169167;0,139969;0,140095;0,140220;0,172631;0,000000;0,138171;0,138330;0,541602;0,000000;0,115935;0,154734;0,149207;0,140094;0,175070;0,203425;0,000000;0,000000;0,000000;0,177888;0,178030;0,139131;0,150928;0,175412;0,143376;0,143495;0,178165;0,141737;0,141870;0,142123;0,142567;0,176865;0,144235;0,144344;0,000000;0,000000;0,000000;0,000000;0,000000;0,000000;0,000000;0,000000;0,000000;0,177939;0,158994;0,179737;0,259951;0,000000;0,142673;0,149125;0,149202;0,149279;0,145421;0,260549;0,418060;0,418114;0,418168;0,263986;
36;;;;;;;;;;;;;;;;;;;;;;;;;;;;;;;;;;;;1,000000;0,764944;0,246939;0,207384;0,166983;0,151344;0,101548;0,111813;0,138613;0,138739;0,138866;0,138994;0,541697;0,176386;0,176493;0,176600;0,169261;0,140063;0,140189;0,140315;0,172726;0,000000;0,138266;0,138424;0,541697;0,000000;0,116030;0,154828;0,149302;0,140189;0,175165;0,203519;0,000000;0,000000;0,000000;0,177982;0,178124;0,139226;0,151022;0,175507;0,143471;0,143590;0,178259;0,141831;0,141965;0,142217;0,142662;0,176960;0,144329;0,144438;0,000000;0,000000;0,000000;0,000000;0,000000;0,000000;0,000000;0,000000;0,000000;0,178033;0,159089;0,179831;0,260046;0,000000;0,142767;0,149219;0,149296;0,149373;0,145516;0,260644;0,418297;0,418351;0,418405;0,264081;
37;;;;;;;;;;;;;;;;;;;;;;;;;;;;;;;;;;;;;1,000000;0,248162;0,208607;0,168207;0,152567;0,102771;0,113037;0,139836;0,139962;0,140089;0,140217;0,542920;0,177610;0,177716;0,177823;0,170484;0,141286;0,141412;0,141538;0,173949;0,000000;0,139489;0,139647;0,542920;0,000000;0,117253;0,156051;0,150525;0,141412;0,176388;0,204742;0,000000;0,000000;0,000000;0,179205;0,179347;0,140449;0,152245;0,176730;0,144694;0,144813;0,179482;0,143054;0,143188;0,143440;0,143885;0,178183;0,145552;0,145661;0,000000;0,000000;0,000000;0,000000;0,000000;0,000000;0,000000;0,000000;0,000000;0,179256;0,160312;0,181055;0,261269;0,000000;0,143990;0,150442;0,150519;0,150596;0,146739;0,261867;0,573189;0,573289;0,573388;0,265304;
38;;;;;;;;;;;;;;;;;;;;;;;;;;;;;;;;;;;;;;1,000000;0,370930;0,330529;0,314890;0,265094;0,275359;0,302158;0,302285;0,302412;0,302540;0,705242;0,339932;0,340038;0,340146;0,332807;0,303609;0,303735;0,303861;0,336272;0,000000;0,301812;0,301970;0,705242;0,000000;0,279576;0,318374;0,663678;0,675067;0,338710;0,367065;0,000000;0,000000;0,000000;0,341528;0,341670;0,302772;0,314568;0,339052;0,307016;0,307136;0,341805;0,305377;0,305510;0,305763;0,306207;0,340506;0,307875;0,307984;0,000000;0,000000;0,000000;0,000000;0,000000;0,000000;0,000000;0,000000;0,000000;0,341579;0,322635;0,343377;0,423591;0,000000;0,306313;0,312765;0,312842;0,312919;0,309061;0,424190;0,314337;0,314403;0,314469;1,000000;
39;;;;;;;;;;;;;;;;;;;;;;;;;;;;;;;;;;;;;;;1,000000;0,496048;0,413599;0,644647;0,494909;0,262603;0,262730;0,262857;0,262985;0,665687;0,300377;0,300483;0,300591;0,293252;0,264054;0,264180;0,264306;0,296717;0,444385;0,416044;0,416212;0,665687;0,000000;0,502123;0,840423;0,685227;0,694603;0,299155;0,575575;0,000000;0,000000;0,000000;0,301973;0,302115;0,685056;0,624854;0,299497;0,523193;0,523276;0,607203;0,420723;0,420882;0,421325;0,422222;0,503761;0,425851;0,425956;0,000000;0,000000;0,000000;0,000000;0,000000;0,000000;0,000000;0,000000;0,000000;0,503298;0,382432;0,303822;0,384036;0,000000;0,434106;0,273210;0,273287;0,273364;0,425950;0,384635;0,274782;0,274848;0,274914;0,388072;
40;;;;;;;;;;;;;;;;;;;;;;;;;;;;;;;;;;;;;;;;1,000000;0,528171;0,444039;0,468822;0,222203;0,222329;0,222457;0,222584;0,625287;0,259977;0,260083;0,260190;0,252851;0,223653;0,223779;0,223905;0,256316;0,000000;0,530616;0,530785;0,625287;0,000000;0,476351;0,238418;0,232892;0,223779;0,258755;1,000000;0,000000;0,000000;0,000000;0,261573;0,261714;0,222816;0,234612;0,259097;0,227061;0,227180;0,261849;0,535295;0,535454;0,535897;0,536794;0,618334;0,885587;0,885587;0,000000;0,000000;0,000000;0,000000;0,000000;0,000000;0,000000;0,000000;0,000000;0,617870;0,782641;0,263422;0,343636;0,000000;0,226357;0,232809;0,232886;0,232963;0,540522;0,344234;0,234382;0,234448;0,234514;0,347671;
41;;;;;;;;;;;;;;;;;;;;;;;;;;;;;;;;;;;;;;;;;1,000000;0,361590;0,386374;0,206563;0,206690;0,206817;0,206944;0,609647;0,244337;0,244443;0,244551;0,461575;0,390912;0,391034;0,391159;0,691574;0,000000;0,637432;0,637432;0,609647;0,000000;0,393902;0,222779;0,217252;0,208139;0,691574;0,607699;0,000000;0,000000;0,000000;0,245933;0,246075;0,207176;0,218973;0,243457;0,211421;0,211540;0,246210;0,452846;0,453005;0,453448;0,454345;0,535885;0,682836;0,682998;0,000000;0,000000;0,000000;0,000000;0,000000;0,000000;0,000000;0,000000;0,000000;0,535422;0,662087;0,475501;0,691574;0,000000;0,210718;0,217170;0,217247;0,217323;0,458073;0,328594;0,218742;0,218808;0,218874;0,332031;
42;;;;;;;;;;;;;;;;;;;;;;;;;;;;;;;;;;;;;;;;;;1,000000;0,740475;0,156767;0,156894;0,157021;0,157149;0,559851;0,194541;0,194647;0,194755;0,445374;0,158218;0,158344;0,158469;0,190880;0,478876;0,364035;0,364204;0,559851;0,571283;0,744280;0,378273;0,364153;0,341256;0,193319;0,523567;0,000000;0,000000;0,000000;0,459605;0,459605;0,593211;0,533010;0,193661;0,346807;0,346890;0,430817;0,593981;0,593981;0,594453;0,595676;0,451753;0,373842;0,373948;0,000000;0,000000;0,000000;0,000000;0,000000;0,000000;0,000000;0,000000;0,000000;0,725035;0,493313;0,456620;0,278200;0,571283;0,411864;0,167374;0,167451;0,167528;0,596906;0,278799;0,168946;0,169012;0,169078;0,282236;
43;;;;;;;;;;;;;;;;;;;;;;;;;;;;;;;;;;;;;;;;;;;1,000000;0,167033;0,167159;0,167287;0,167414;0,570117;0,204807;0,204913;0,205020;0,470255;0,168483;0,168609;0,168735;0,201146;0,528444;0,388819;0,388987;0,570117;0,582996;1,000000;0,183248;0,177722;0,168609;0,203585;0,548350;0,000000;0,000000;0,000000;0,484486;0,484486;0,410922;0,335486;0,203927;0,171891;0,172010;0,206679;0,635906;0,635906;0,636378;0,637600;0,476536;0,398625;0,398731;0,000000;0,000000;0,000000;0,000000;0,000000;0,000000;0,000000;0,000000;0,000000;0,766960;0,535237;0,481501;0,288466;0,582996;0,415008;0,177639;0,177716;0,177793;0,638831;0,289064;0,179212;0,179278;0,179344;0,292501;
44;;;;;;;;;;;;;;;;;;;;;;;;;;;;;;;;;;;;;;;;;;;;1,000000;0,834346;0,834689;0,835028;0,596916;0,231606;0,231712;0,231820;0,224480;0,195282;0,195408;0,195534;0,227945;0,000000;0,193485;0,193643;0,596916;0,000000;0,171249;0,210047;0,204521;0,195408;0,230384;0,258739;0,000000;0,000000;0,000000;0,233202;0,233344;0,194445;0,206241;0,230726;0,198690;0,198809;0,233478;0,197051;0,197184;0,197436;0,197881;0,232179;0,199548;0,199657;0,000000;0,000000;0,000000;0,000000;0,000000;0,000000;0,000000;0,000000;0,000000;0,233253;0,214308;0,235051;0,315265;0,000000;0,197987;0,204438;0,204515;0,204592;0,200735;0,315863;0,206011;0,206077;0,206143;0,319300;
45;;;;;;;;;;;;;;;;;;;;;;;;;;;;;;;;;;;;;;;;;;;;;1,000000;0,835028;0,835361;0,597043;0,231732;0,231839;0,231946;0,224607;0,195409;0,195535;0,195661;0,228072;0,000000;0,193612;0,193770;0,597043;0,000000;0,171376;0,210174;0,204648;0,195535;0,230511;0,258865;0,000000;0,000000;0,000000;0,233328;0,233470;0,194572;0,206368;0,230853;0,198817;0,198936;0,233605;0,197177;0,197310;0,197563;0,198008;0,232306;0,199675;0,199784;0,000000;0,000000;0,000000;0,000000;0,000000;0,000000;0,000000;0,000000;0,000000;0,233379;0,214435;0,235177;0,315392;0,000000;0,198113;0,204565;0,204642;0,204719;0,200861;0,315990;0,206138;0,206204;0,206269;0,319427;
46;;;;;;;;;;;;;;;;;;;;;;;;;;;;;;;;;;;;;;;;;;;;;;1,000000;0,835689;0,597170;0,231860;0,231966;0,232073;0,224734;0,195536;0,195662;0,195788;0,228199;0,000000;0,193739;0,193897;0,597170;0,000000;0,171503;0,210301;0,204775;0,195662;0,230638;0,258992;0,000000;0,000000;0,000000;0,233456;0,233597;0,194699;0,206495;0,230980;0,198944;0,199063;0,233732;0,197304;0,197438;0,197690;0,198135;0,232433;0,199802;0,199911;0,000000;0,000000;0,000000;0,000000;0,000000;0,000000;0,000000;0,000000;0,000000;0,233507;0,214562;0,235305;0,315519;0,000000;0,198240;0,204692;0,204769;0,204846;0,200989;0,316117;0,206265;0,206331;0,206397;0,319554;
47;;;;;;;;;;;;;;;;;;;;;;;;;;;;;;;;;;;;;;;;;;;;;;;1,000000;0,597297;0,231987;0,232093;0,232201;0,224861;0,195664;0,195790;0,195915;0,228326;0,000000;0,193866;0,194025;0,597297;0,000000;0,171630;0,210429;0,204902;0,195789;0,230765;0,259120;0,000000;0,000000;0,000000;0,233583;0,233725;0,194826;0,206623;0,231107;0,199071;0,199190;0,233860;0,197432;0,197565;0,197818;0,198262;0,232560;0,199930;0,200039;0,000000;0,000000;0,000000;0,000000;0,000000;0,000000;0,000000;0,000000;0,000000;0,233634;0,214689;0,235432;0,315646;0,000000;0,198368;0,204820;0,204897;0,204973;0,201116;0,316244;0,206392;0,206458;0,206524;0,319681;
48;;;;;;;;;;;;;;;;;;;;;;;;;;;;;;;;;;;;;;;;;;;;;;;;1,000000;0,634690;0,634796;0,634904;0,627564;0,598367;0,598493;0,598618;0,631029;0,000000;0,596569;0,596727;1,000000;0,000000;0,574333;0,613131;0,607605;0,598492;0,633468;0,661823;0,000000;0,000000;0,000000;0,636286;0,636428;0,597529;0,609326;0,633810;0,601774;0,601893;0,636563;0,600135;0,600268;0,600521;0,600965;0,635263;0,602632;0,602742;0,000000;0,000000;0,000000;0,000000;0,000000;0,000000;0,000000;0,000000;0,000000;0,636337;0,617392;0,638135;0,718349;0,000000;0,601071;0,607522;0,607599;0,607676;0,603819;0,718947;0,609095;0,609161;0,609227;0,722384;
49;;;;;;;;;;;;;;;;;;;;;;;;;;;;;;;;;;;;;;;;;;;;;;;;;1,000000;0,767506;0,767895;0,262254;0,233056;0,233182;0,233308;0,265719;0,000000;0,231259;0,231417;0,634690;0,000000;0,209023;0,247821;0,242295;0,233182;0,268158;0,296513;0,000000;0,000000;0,000000;0,270976;0,271117;0,232219;0,244015;0,268500;0,236464;0,236583;0,271252;0,234824;0,234958;0,235210;0,235655;0,269953;0,237322;0,237431;0,000000;0,000000;0,000000;0,000000;0,000000;0,000000;0,000000;0,000000;0,000000;0,271027;0,252082;0,272825;0,353039;0,000000;0,235760;0,242212;0,242289;0,242366;0,238509;0,353637;0,243785;0,243851;0,243917;0,357074;
50;;;;;;;;;;;;;;;;;;;;;;;;;;;;;;;;;;;;;;;;;;;;;;;;;;1,000000;0,768280;0,262360;0,233162;0,233288;0,233414;0,265825;0,000000;0,231365;0,231523;0,634796;0,000000;0,209129;0,247927;0,242401;0,233288;0,268264;0,296619;0,000000;0,000000;0,000000;0,271082;0,271224;0,232325;0,244121;0,268606;0,236570;0,236689;0,271358;0,234931;0,235064;0,235316;0,235761;0,270059;0,237428;0,237538;0,000000;0,000000;0,000000;0,000000;0,000000;0,000000;0,000000;0,000000;0,000000;0,271133;0,252188;0,272931;0,353145;0,000000;0,235867;0,242318;0,242395;0,242472;0,238615;0,353743;0,243891;0,243957;0,244023;0,357180;
51;;;;;;;;;;;;;;;;;;;;;;;;;;;;;;;;;;;;;;;;;;;;;;;;;;;1,000000;0,262468;0,233270;0,233396;0,233522;0,265933;0,000000;0,231473;0,231631;0,634904;0,000000;0,209237;0,248035;0,242509;0,233396;0,268372;0,296726;0,000000;0,000000;0,000000;0,271189;0,271331;0,232433;0,244229;0,268714;0,236678;0,236797;0,271466;0,235038;0,235171;0,235424;0,235869;0,270167;0,237536;0,237645;0,000000;0,000000;0,000000;0,000000;0,000000;0,000000;0,000000;0,000000;0,000000;0,271240;0,252296;0,273038;0,353253;0,000000;0,235974;0,242426;0,242503;0,242580;0,238722;0,353851;0,243999;0,244065;0,244130;0,357288;
52;;;;;;;;;;;;;;;;;;;;;;;;;;;;;;;;;;;;;;;;;;;;;;;;;;;;1,000000;0,552305;0,552428;0,552552;0,630034;0,000000;0,224133;0,224292;0,627564;0,646419;0,477747;0,240696;0,235169;0,226056;0,632962;0,289387;0,000000;0,000000;0,000000;0,626164;0,626164;0,225093;0,236890;0,261374;0,229338;0,229457;0,264127;0,536796;0,536953;0,537394;0,538291;0,262827;0,230197;0,230306;0,000000;0,000000;0,000000;0,000000;0,000000;0,000000;0,000000;0,000000;0,000000;0,619406;0,773891;1,000000;0,676065;0,646419;0,228635;0,235087;0,235164;0,235241;0,541984;0,346512;0,236659;0,236725;0,236791;0,349949;
53;;;;;;;;;;;;;;;;;;;;;;;;;;;;;;;;;;;;;;;;;;;;;;;;;;;;;1,000000;0,804061;0,804375;0,559371;0,000000;0,194936;0,195094;0,598367;0,000000;0,172700;0,211498;0,205972;0,196858;0,562299;0,260189;0,000000;0,000000;0,000000;0,234652;0,234794;0,195896;0,207692;0,232176;0,200141;0,200260;0,234929;0,198501;0,198634;0,198887;0,199332;0,233630;0,200999;0,201108;0,000000;0,000000;0,000000;0,000000;0,000000;0,000000;0,000000;0,000000;0,000000;0,234703;0,440619;0,566230;0,605401;0,000000;0,199437;0,205889;0,205966;0,206043;0,202185;0,317314;0,207462;0,207528;0,207593;0,320751;
54;;;;;;;;;;;;;;;;;;;;;;;;;;;;;;;;;;;;;;;;;;;;;;;;;;;;;;1,000000;0,804684;0,559493;0,000000;0,195062;0,195220;0,598493;0,000000;0,172826;0,211624;0,206098;0,196984;0,562421;0,260315;0,000000;0,000000;0,000000;0,234778;0,234920;0,196022;0,207818;0,232302;0,200266;0,200386;0,235055;0,198627;0,198760;0,199013;0,199458;0,233756;0,201125;0,201234;0,000000;0,000000;0,000000;0,000000;0,000000;0,000000;0,000000;0,000000;0,000000;0,234829;0,440742;0,566353;0,605524;0,000000;0,199563;0,206015;0,206092;0,206169;0,202311;0,317440;0,207587;0,207654;0,207719;0,320877;
55;;;;;;;;;;;;;;;;;;;;;;;;;;;;;;;;;;;;;;;;;;;;;;;;;;;;;;;1,000000;0,559617;0,000000;0,195187;0,195346;0,598618;0,000000;0,172951;0,211750;0,206223;0,197110;0,562545;0,260441;0,000000;0,000000;0,000000;0,234904;0,235046;0,196147;0,207944;0,232428;0,200392;0,200511;0,235181;0,198753;0,198886;0,199139;0,199583;0,233881;0,201251;0,201360;0,000000;0,000000;0,000000;0,000000;0,000000;0,000000;0,000000;0,000000;0,000000;0,234955;0,440866;0,566477;0,605648;0,000000;0,199689;0,206141;0,206218;0,206294;0,202437;0,317565;0,207713;0,207779;0,207845;0,321002;
56;;;;;;;;;;;;;;;;;;;;;;;;;;;;;;;;;;;;;;;;;;;;;;;;;;;;;;;;1,000000;0,000000;0,560666;0,560881;0,631029;0,000000;0,205362;0,244161;0,238634;0,229521;1,000000;0,292852;0,000000;0,000000;0,000000;0,267315;0,267457;0,228558;0,240355;0,264839;0,232803;0,232922;0,267592;0,231164;0,231297;0,231550;0,231994;0,266292;0,233662;0,233771;0,000000;0,000000;0,000000;0,000000;0,000000;0,000000;0,000000;0,000000;0,000000;0,267366;0,780317;0,643959;1,000000;0,000000;0,232100;0,238551;0,238629;0,238705;0,234848;0,349976;0,240124;0,240190;0,240256;0,353413;
57;;;;;;;;;;;;;;;;;;;;;;;;;;;;;;;;;;;;;;;;;;;;;;;;;;;;;;;;;1,000000;0,000000;0,000000;0,000000;0,000000;0,537751;0,304526;0,298084;0,287344;0,000000;0,000000;0,000000;0,000000;0,000000;0,000000;0,000000;0,590355;0,522652;0,000000;0,291282;0,291427;0,331437;0,000000;0,000000;0,000000;0,000000;0,000000;0,000000;0,000000;0,000000;0,000000;0,000000;0,000000;0,000000;0,000000;0,000000;0,000000;0,000000;0,000000;0,000000;0,000000;0,000000;0,000000;0,296509;0,000000;0,000000;0,000000;0,000000;0,000000;0,000000;0,000000;0,000000;0,000000;
58;;;;;;;;;;;;;;;;;;;;;;;;;;;;;;;;;;;;;;;;;;;;;;;;;;;;;;;;;;1,000000;0,741751;0,596569;0,000000;0,396347;0,209701;0,204174;0,195061;0,563492;0,610144;0,000000;0,000000;0,000000;0,232855;0,232997;0,194098;0,205895;0,230379;0,198343;0,198462;0,233132;0,455291;0,455450;0,455893;0,456790;0,538330;0,460419;0,460525;0,000000;0,000000;0,000000;0,000000;0,000000;0,000000;0,000000;0,000000;0,000000;0,537867;0,646011;0,234704;0,605364;0,000000;0,197640;0,204091;0,204169;0,204245;0,460518;0,315516;0,205664;0,205730;0,205796;0,318953;
59;;;;;;;;;;;;;;;;;;;;;;;;;;;;;;;;;;;;;;;;;;;;;;;;;;;;;;;;;;;1,000000;0,596727;0,000000;0,396515;0,209859;0,204332;0,195219;0,563707;0,610312;0,000000;0,000000;0,000000;0,233013;0,233155;0,194256;0,206053;0,230537;0,198501;0,198621;0,233290;0,455460;0,455619;0,456062;0,456959;0,538498;0,460588;0,460693;0,000000;0,000000;0,000000;0,000000;0,000000;0,000000;0,000000;0,000000;0,000000;0,538035;0,646011;0,234862;0,605579;0,000000;0,197798;0,204250;0,204327;0,204404;0,460687;0,315675;0,205822;0,205888;0,205954;0,319112;
60;;;;;;;;;;;;;;;;;;;;;;;;;;;;;;;;;;;;;;;;;;;;;;;;;;;;;;;;;;;;1,000000;0,000000;0,574333;0,613131;0,607605;0,598492;0,633468;0,661823;0,000000;0,000000;0,000000;0,636286;0,636428;0,597529;0,609326;0,633810;0,601774;0,601893;0,636563;0,600135;0,600268;0,600521;0,600965;0,635263;0,602632;0,602742;0,000000;0,000000;0,000000;0,000000;0,000000;0,000000;0,000000;0,000000;0,000000;0,636337;0,617392;0,638135;0,718349;0,000000;0,601071;0,607522;0,607599;0,607676;0,603819;0,718947;0,609095;0,609161;0,609227;0,722384;
61;;;;;;;;;;;;;;;;;;;;;;;;;;;;;;;;;;;;;;;;;;;;;;;;;;;;;;;;;;;;;1,000000;0,588197;0,000000;0,000000;0,000000;0,000000;0,000000;0,000000;0,000000;0,000000;0,656607;0,656793;0,000000;0,000000;0,000000;0,000000;0,000000;0,000000;0,617451;0,617614;0,617910;0,618418;0,000000;0,000000;0,000000;0,000000;0,000000;0,000000;0,000000;0,000000;0,000000;0,000000;0,000000;0,000000;0,657266;0,567664;0,659232;0,000000;1,000000;0,000000;0,000000;0,000000;0,000000;0,621836;0,000000;0,000000;0,000000;0,000000;0,000000;
62;;;;;;;;;;;;;;;;;;;;;;;;;;;;;;;;;;;;;;;;;;;;;;;;;;;;;;;;;;;;;;1,000000;0,187465;0,181938;0,172825;0,207801;0,555878;0,000000;0,000000;0,000000;0,491979;0,491979;0,418082;0,342646;0,208143;0,176107;0,176226;0,210896;0,644058;0,644058;0,644530;0,645753;0,484064;0,406153;0,406259;0,000000;0,000000;0,000000;0,000000;0,000000;0,000000;0,000000;0,000000;0,000000;0,775112;0,543390;0,488994;0,292682;0,588197;0,422168;0,181855;0,181933;0,182009;0,646983;0,293280;0,183428;0,183494;0,183560;0,296717;
63;;;;;;;;;;;;;;;;;;;;;;;;;;;;;;;;;;;;;;;;;;;;;;;;;;;;;;;;;;;;;;;1,000000;0,739288;0,820963;0,246599;0,274954;0,000000;0,000000;0,000000;0,249417;0,249559;0,510228;0,538766;0,246941;0,519934;0,520017;0,603944;0,213266;0,213399;0,213652;0,214096;0,248395;0,215764;0,215873;0,000000;0,000000;0,000000;0,000000;0,000000;0,000000;0,000000;0,000000;0,000000;0,249468;0,230524;0,251266;0,331480;0,000000;0,214202;0,220654;0,220731;0,220808;0,216950;0,332079;0,222226;0,222292;0,222358;0,335516;
64;;;;;;;;;;;;;;;;;;;;;;;;;;;;;;;;;;;;;;;;;;;;;;;;;;;;;;;;;;;;;;;;1,000000;0,807053;0,241073;0,269428;0,000000;0,000000;0,000000;0,243891;0,244033;0,496108;0,524646;0,241415;0,505815;0,505897;0,589824;0,207740;0,207873;0,208126;0,208570;0,242868;0,210237;0,210347;0,000000;0,000000;0,000000;0,000000;0,000000;0,000000;0,000000;0,000000;0,000000;0,243942;0,224997;0,245740;0,325954;0,000000;0,208676;0,215127;0,215204;0,215281;0,211424;0,326552;0,216700;0,216766;0,216832;0,663678;
65;;;;;;;;;;;;;;;;;;;;;;;;;;;;;;;;;;;;;;;;;;;;;;;;;;;;;;;;;;;;;;;;;1,000000;0,231960;0,260315;0,000000;0,000000;0,000000;0,234778;0,234920;0,473211;0,501749;0,232302;0,482918;0,483000;0,566927;0,198627;0,198760;0,199012;0,199457;0,233755;0,201124;0,201234;0,000000;0,000000;0,000000;0,000000;0,000000;0,000000;0,000000;0,000000;0,000000;0,234829;0,215884;0,236627;0,316841;0,000000;0,199563;0,206014;0,206091;0,206168;0,202311;0,317439;0,207587;0,207653;0,207719;0,675067;
66;;;;;;;;;;;;;;;;;;;;;;;;;;;;;;;;;;;;;;;;;;;;;;;;;;;;;;;;;;;;;;;;;;1,000000;0,295291;0,000000;0,000000;0,000000;0,269754;0,269896;0,230997;0,242793;0,267278;0,235242;0,235361;0,270031;0,233603;0,233736;0,233988;0,234433;0,268731;0,236100;0,236210;0,000000;0,000000;0,000000;0,000000;0,000000;0,000000;0,000000;0,000000;0,000000;0,269805;0,780317;0,646887;1,000000;0,000000;0,234539;0,240990;0,241067;0,241144;0,237287;0,352415;0,242563;0,242629;0,242695;0,355852;
67;;;;;;;;;;;;;;;;;;;;;;;;;;;;;;;;;;;;;;;;;;;;;;;;;;;;;;;;;;;;;;;;;;;1,000000;0,000000;0,000000;0,000000;0,298109;0,298250;0,259352;0,271148;0,295633;0,263597;0,263716;0,298385;0,614823;0,614981;0,615425;0,616322;0,697861;0,885587;0,885587;0,000000;0,000000;0,000000;0,000000;0,000000;0,000000;0,000000;0,000000;0,000000;0,697398;0,782641;0,299958;0,380172;0,000000;0,262893;0,269345;0,269422;0,269499;0,620050;0,380770;0,270918;0,270984;0,271050;0,384207;
68;;;;;;;;;;;;;;;;;;;;;;;;;;;;;;;;;;;;;;;;;;;;;;;;;;;;;;;;;;;;;;;;;;;;1,000000;0,780172;0,780425;0,000000;0,000000;0,000000;0,000000;0,000000;0,000000;0,000000;0,000000;0,000000;0,000000;0,000000;0,000000;0,000000;0,000000;0,000000;0,000000;0,000000;0,000000;0,000000;0,000000;0,000000;0,000000;0,000000;0,000000;0,000000;0,000000;0,000000;0,000000;0,000000;0,000000;0,000000;0,000000;0,000000;0,000000;0,000000;0,000000;0,000000;0,000000;0,000000;
69;;;;;;;;;;;;;;;;;;;;;;;;;;;;;;;;;;;;;;;;;;;;;;;;;;;;;;;;;;;;;;;;;;;;;1,000000;0,780676;0,000000;0,000000;0,000000;0,000000;0,000000;0,000000;0,000000;0,000000;0,000000;0,000000;0,000000;0,000000;0,000000;0,000000;0,000000;0,000000;0,000000;0,000000;0,000000;0,000000;0,000000;0,000000;0,000000;0,000000;0,000000;0,000000;0,000000;0,000000;0,000000;0,000000;0,000000;0,000000;0,000000;0,000000;0,000000;0,000000;0,000000;0,000000;0,000000;
70;;;;;;;;;;;;;;;;;;;;;;;;;;;;;;;;;;;;;;;;;;;;;;;;;;;;;;;;;;;;;;;;;;;;;;1,000000;0,000000;0,000000;0,000000;0,000000;0,000000;0,000000;0,000000;0,000000;0,000000;0,000000;0,000000;0,000000;0,000000;0,000000;0,000000;0,000000;0,000000;0,000000;0,000000;0,000000;0,000000;0,000000;0,000000;0,000000;0,000000;0,000000;0,000000;0,000000;0,000000;0,000000;0,000000;0,000000;0,000000;0,000000;0,000000;0,000000;0,000000;0,000000;0,000000;
71;;;;;;;;;;;;;;;;;;;;;;;;;;;;;;;;;;;;;;;;;;;;;;;;;;;;;;;;;;;;;;;;;;;;;;;1,000000;0,640395;0,233815;0,245611;0,270096;0,238060;0,238179;0,272848;0,551028;0,551184;0,551626;0,552522;0,271549;0,238918;0,239027;0,000000;0,000000;0,000000;0,000000;0,000000;0,000000;0,000000;0,000000;0,000000;0,633637;0,512403;0,637410;0,354635;0,656607;0,237356;0,243808;0,243885;0,243962;0,556215;0,355233;0,245381;0,245447;0,245513;0,358670;
72;;;;;;;;;;;;;;;;;;;;;;;;;;;;;;;;;;;;;;;;;;;;;;;;;;;;;;;;;;;;;;;;;;;;;;;;1,000000;0,233957;0,245753;0,270238;0,238202;0,238321;0,272990;0,551028;0,551184;0,551626;0,552522;0,271691;0,239060;0,239169;0,000000;0,000000;0,000000;0,000000;0,000000;0,000000;0,000000;0,000000;0,000000;0,633637;0,512403;0,637410;0,354777;0,656793;0,237498;0,243950;0,244027;0,244104;0,556215;0,355375;0,245523;0,245589;0,245655;0,358812;
73;;;;;;;;;;;;;;;;;;;;;;;;;;;;;;;;;;;;;;;;;;;;;;;;;;;;;;;;;;;;;;;;;;;;;;;;;1,000000;0,691711;0,231339;0,766670;0,766670;0,876777;0,197664;0,197797;0,198050;0,198494;0,232792;0,200161;0,200271;0,000000;0,000000;0,000000;0,000000;0,000000;0,000000;0,000000;0,000000;0,000000;0,233866;0,214921;0,235664;0,315878;0,000000;0,477168;0,205051;0,205129;0,205205;0,201348;0,316476;0,206624;0,206690;0,206756;0,319913;
74;;;;;;;;;;;;;;;;;;;;;;;;;;;;;;;;;;;;;;;;;;;;;;;;;;;;;;;;;;;;;;;;;;;;;;;;;;1,000000;0,243135;0,736894;0,737031;0,591310;0,209460;0,209593;0,209846;0,210291;0,244589;0,211958;0,212067;0,000000;0,000000;0,000000;0,000000;0,000000;0,000000;0,000000;0,000000;0,000000;0,245662;0,226718;0,247460;0,327674;0,000000;0,401731;0,216848;0,216925;0,217002;0,213144;0,328273;0,218420;0,218487;0,218552;0,331710;
75;;;;;;;;;;;;;;;;;;;;;;;;;;;;;;;;;;;;;;;;;;;;;;;;;;;;;;;;;;;;;;;;;;;;;;;;;;;1,000000;0,235584;0,235703;0,270372;0,233945;0,234078;0,234330;0,234775;0,269073;0,236442;0,236552;0,000000;0,000000;0,000000;0,000000;0,000000;0,000000;0,000000;0,000000;0,000000;0,270147;0,251202;0,271945;0,352159;0,000000;0,877910;0,241332;0,241409;0,241486;0,237629;0,352757;0,242905;0,242971;0,243037;0,356194;
76;;;;;;;;;;;;;;;;;;;;;;;;;;;;;;;;;;;;;;;;;;;;;;;;;;;;;;;;;;;;;;;;;;;;;;;;;;;;1,000000;0,779785;0,889893;0,201909;0,202042;0,202294;0,202739;0,237037;0,204406;0,204516;0,000000;0,000000;0,000000;0,000000;0,000000;0,000000;0,000000;0,000000;0,000000;0,238111;0,219166;0,239909;0,320123;0,000000;0,202845;0,209296;0,209373;0,209450;0,205593;0,320721;0,210869;0,210935;0,211001;0,324158;
77;;;;;;;;;;;;;;;;;;;;;;;;;;;;;;;;;;;;;;;;;;;;;;;;;;;;;;;;;;;;;;;;;;;;;;;;;;;;;1,000000;0,889893;0,202028;0,202161;0,202414;0,202858;0,237156;0,204526;0,204635;0,000000;0,000000;0,000000;0,000000;0,000000;0,000000;0,000000;0,000000;0,000000;0,238230;0,219285;0,240028;0,320242;0,000000;0,202964;0,209416;0,209493;0,209569;0,205712;0,320840;0,210988;0,211054;0,211120;0,324277;
78;;;;;;;;;;;;;;;;;;;;;;;;;;;;;;;;;;;;;;;;;;;;;;;;;;;;;;;;;;;;;;;;;;;;;;;;;;;;;;1,000000;0,236697;0,236830;0,237083;0,237528;0,271826;0,239195;0,239304;0,000000;0,000000;0,000000;0,000000;0,000000;0,000000;0,000000;0,000000;0,000000;0,272899;0,253955;0,274697;0,354911;0,000000;0,237633;0,244085;0,244162;0,244239;0,240381;0,355510;0,245658;0,245724;0,245789;0,358947;
79;;;;;;;;;;;;;;;;;;;;;;;;;;;;;;;;;;;;;;;;;;;;;;;;;;;;;;;;;;;;;;;;;;;;;;;;;;;;;;;1,000000;0,737891;0,738364;0,739586;0,543009;0,465098;0,465204;0,000000;0,000000;0,000000;0,000000;0,000000;0,000000;0,000000;0,000000;0,000000;0,868946;0,637223;0,548042;0,318484;0,617451;0,201205;0,207657;0,207734;0,207811;0,740817;0,319082;0,209230;0,209296;0,209362;0,322519;
80;;;;;;;;;;;;;;;;;;;;;;;;;;;;;;;;;;;;;;;;;;;;;;;;;;;;;;;;;;;;;;;;;;;;;;;;;;;;;;;;1,000000;0,738364;0,739586;0,543168;0,465257;0,465363;0,000000;0,000000;0,000000;0,000000;0,000000;0,000000;0,000000;0,000000;0,000000;0,868946;0,637223;0,548199;0,318617;0,617614;0,201339;0,207790;0,207867;0,207944;0,740817;0,319215;0,209363;0,209429;0,209495;0,322652;
81;;;;;;;;;;;;;;;;;;;;;;;;;;;;;;;;;;;;;;;;;;;;;;;;;;;;;;;;;;;;;;;;;;;;;;;;;;;;;;;;;1,000000;0,740058;0,543611;0,465700;0,465806;0,000000;0,000000;0,000000;0,000000;0,000000;0,000000;0,000000;0,000000;0,000000;0,869418;0,637695;0,548641;0,318869;0,617910;0,201591;0,208043;0,208120;0,208197;1,000000;0,319468;0,209615;0,209682;0,209747;0,322905;
82;;;;;;;;;;;;;;;;;;;;;;;;;;;;;;;;;;;;;;;;;;;;;;;;;;;;;;;;;;;;;;;;;;;;;;;;;;;;;;;;;;1,000000;0,544508;0,466597;0,466703;0,000000;0,000000;0,000000;0,000000;0,000000;0,000000;0,000000;0,000000;0,000000;0,870640;0,638918;0,549537;0,319314;0,618418;0,202036;0,208487;0,208564;0,208641;0,742512;0,319912;0,210060;0,210126;0,210192;0,323349;
83;;;;;;;;;;;;;;;;;;;;;;;;;;;;;;;;;;;;;;;;;;;;;;;;;;;;;;;;;;;;;;;;;;;;;;;;;;;;;;;;;;;1,000000;0,548137;0,548242;0,000000;0,000000;0,000000;0,000000;0,000000;0,000000;0,000000;0,000000;0,000000;0,625584;0,504718;0,273398;0,353612;0,000000;0,236334;0,242785;0,242863;0,242939;0,548236;0,354210;0,244358;0,244424;0,244490;0,357647;
84;;;;;;;;;;;;;;;;;;;;;;;;;;;;;;;;;;;;;;;;;;;;;;;;;;;;;;;;;;;;;;;;;;;;;;;;;;;;;;;;;;;;1,000000;0,771174;0,000000;0,000000;0,000000;0,000000;0,000000;0,000000;0,000000;0,000000;0,000000;0,547673;0,668228;0,240767;0,320981;0,000000;0,203703;0,210155;0,210232;0,210309;0,470325;0,321580;0,211727;0,211793;0,211859;0,325017;
85;;;;;;;;;;;;;;;;;;;;;;;;;;;;;;;;;;;;;;;;;;;;;;;;;;;;;;;;;;;;;;;;;;;;;;;;;;;;;;;;;;;;;1,000000;0,000000;0,000000;0,000000;0,000000;0,000000;0,000000;0,000000;0,000000;0,000000;0,547779;0,668228;0,240876;0,321091;0,000000;0,203812;0,210264;0,210341;0,210418;0,470431;0,321689;0,211837;0,211903;0,211968;0,325126;
86;;;;;;;;;;;;;;;;;;;;;;;;;;;;;;;;;;;;;;;;;;;;;;;;;;;;;;;;;;;;;;;;;;;;;;;;;;;;;;;;;;;;;;1,000000;0,830774;0,890560;0,831071;0,890776;0,831364;0,753150;0,753197;0,753245;0,000000;0,000000;0,000000;0,000000;0,000000;0,000000;0,000000;0,000000;0,000000;0,000000;0,000000;0,000000;0,000000;0,000000;0,000000;
87;;;;;;;;;;;;;;;;;;;;;;;;;;;;;;;;;;;;;;;;;;;;;;;;;;;;;;;;;;;;;;;;;;;;;;;;;;;;;;;;;;;;;;;1,000000;0,830929;0,900627;0,831080;0,900822;0,830863;0,830937;0,831011;0,000000;0,000000;0,000000;0,000000;0,000000;0,000000;0,000000;0,000000;0,000000;0,000000;0,000000;0,000000;0,000000;0,000000;0,000000;
88;;;;;;;;;;;;;;;;;;;;;;;;;;;;;;;;;;;;;;;;;;;;;;;;;;;;;;;;;;;;;;;;;;;;;;;;;;;;;;;;;;;;;;;;1,000000;0,831223;0,890988;0,831513;0,753251;0,753299;0,753347;0,000000;0,000000;0,000000;0,000000;0,000000;0,000000;0,000000;0,000000;0,000000;0,000000;0,000000;0,000000;0,000000;0,000000;0,000000;
89;;;;;;;;;;;;;;;;;;;;;;;;;;;;;;;;;;;;;;;;;;;;;;;;;;;;;;;;;;;;;;;;;;;;;;;;;;;;;;;;;;;;;;;;;1,000000;0,831373;0,901015;0,831159;0,831232;0,831304;0,000000;0,000000;0,000000;0,000000;0,000000;0,000000;0,000000;0,000000;0,000000;0,000000;0,000000;0,000000;0,000000;0,000000;0,000000;
90;;;;;;;;;;;;;;;;;;;;;;;;;;;;;;;;;;;;;;;;;;;;;;;;;;;;;;;;;;;;;;;;;;;;;;;;;;;;;;;;;;;;;;;;;;1,000000;0,831661;0,753355;0,753402;0,753450;0,000000;0,000000;0,000000;0,000000;0,000000;0,000000;0,000000;0,000000;0,000000;0,000000;0,000000;0,000000;0,000000;0,000000;0,000000;
91;;;;;;;;;;;;;;;;;;;;;;;;;;;;;;;;;;;;;;;;;;;;;;;;;;;;;;;;;;;;;;;;;;;;;;;;;;;;;;;;;;;;;;;;;;;1,000000;0,831450;0,831521;0,831593;0,000000;0,000000;0,000000;0,000000;0,000000;0,000000;0,000000;0,000000;0,000000;0,000000;0,000000;0,000000;0,000000;0,000000;0,000000;
92;;;;;;;;;;;;;;;;;;;;;;;;;;;;;;;;;;;;;;;;;;;;;;;;;;;;;;;;;;;;;;;;;;;;;;;;;;;;;;;;;;;;;;;;;;;;1,000000;0,891706;0,891806;0,000000;0,000000;0,000000;0,000000;0,000000;0,000000;0,000000;0,000000;0,000000;0,000000;0,000000;0,000000;0,000000;0,000000;0,000000;
93;;;;;;;;;;;;;;;;;;;;;;;;;;;;;;;;;;;;;;;;;;;;;;;;;;;;;;;;;;;;;;;;;;;;;;;;;;;;;;;;;;;;;;;;;;;;;1,000000;0,891905;0,000000;0,000000;0,000000;0,000000;0,000000;0,000000;0,000000;0,000000;0,000000;0,000000;0,000000;0,000000;0,000000;0,000000;0,000000;
94;;;;;;;;;;;;;;;;;;;;;;;;;;;;;;;;;;;;;;;;;;;;;;;;;;;;;;;;;;;;;;;;;;;;;;;;;;;;;;;;;;;;;;;;;;;;;;1,000000;0,000000;0,000000;0,000000;0,000000;0,000000;0,000000;0,000000;0,000000;0,000000;0,000000;0,000000;0,000000;0,000000;0,000000;0,000000;
95;;;;;;;;;;;;;;;;;;;;;;;;;;;;;;;;;;;;;;;;;;;;;;;;;;;;;;;;;;;;;;;;;;;;;;;;;;;;;;;;;;;;;;;;;;;;;;;1,000000;0,768277;0,630652;0,354686;0,657266;0,237407;0,243859;0,243936;0,244013;0,871871;0,355284;0,245432;0,245498;0,245564;0,358721;
96;;;;;;;;;;;;;;;;;;;;;;;;;;;;;;;;;;;;;;;;;;;;;;;;;;;;;;;;;;;;;;;;;;;;;;;;;;;;;;;;;;;;;;;;;;;;;;;;1,000000;0,773891;0,780317;0,567664;0,218463;0,224914;0,224991;0,225068;0,640148;0,336339;0,226487;0,226553;0,226619;0,339776;
97;;;;;;;;;;;;;;;;;;;;;;;;;;;;;;;;;;;;;;;;;;;;;;;;;;;;;;;;;;;;;;;;;;;;;;;;;;;;;;;;;;;;;;;;;;;;;;;;;1,000000;0,689990;0,659232;0,239205;0,245657;0,245734;0,245811;0,553230;0,357082;0,247230;0,247296;0,247362;0,360519;
98;;;;;;;;;;;;;;;;;;;;;;;;;;;;;;;;;;;;;;;;;;;;;;;;;;;;;;;;;;;;;;;;;;;;;;;;;;;;;;;;;;;;;;;;;;;;;;;;;;1,000000;0,000000;0,319420;0,325871;0,325948;0,326025;0,322168;0,437296;0,327444;0,327510;0,327576;0,440733;
99;;;;;;;;;;;;;;;;;;;;;;;;;;;;;;;;;;;;;;;;;;;;;;;;;;;;;;;;;;;;;;;;;;;;;;;;;;;;;;;;;;;;;;;;;;;;;;;;;;;1,000000;0,000000;0,000000;0,000000;0,000000;0,621836;0,000000;0,000000;0,000000;0,000000;0,000000;
100;;;;;;;;;;;;;;;;;;;;;;;;;;;;;;;;;;;;;;;;;;;;;;;;;;;;;;;;;;;;;;;;;;;;;;;;;;;;;;;;;;;;;;;;;;;;;;;;;;;;1,000000;0,208593;0,208670;0,208747;0,204890;0,320018;0,210166;0,210232;0,210298;0,323455;
101;;;;;;;;;;;;;;;;;;;;;;;;;;;;;;;;;;;;;;;;;;;;;;;;;;;;;;;;;;;;;;;;;;;;;;;;;;;;;;;;;;;;;;;;;;;;;;;;;;;;;1,000000;0,847212;0,847331;0,211341;0,326470;0,216617;0,216683;0,216749;0,329907;
102;;;;;;;;;;;;;;;;;;;;;;;;;;;;;;;;;;;;;;;;;;;;;;;;;;;;;;;;;;;;;;;;;;;;;;;;;;;;;;;;;;;;;;;;;;;;;;;;;;;;;;1,000000;0,847450;0,211418;0,326547;0,216694;0,216760;0,216826;0,329984;
103;;;;;;;;;;;;;;;;;;;;;;;;;;;;;;;;;;;;;;;;;;;;;;;;;;;;;;;;;;;;;;;;;;;;;;;;;;;;;;;;;;;;;;;;;;;;;;;;;;;;;;;1,000000;0,211495;0,326623;0,216771;0,216837;0,216903;0,330060;
104;;;;;;;;;;;;;;;;;;;;;;;;;;;;;;;;;;;;;;;;;;;;;;;;;;;;;;;;;;;;;;;;;;;;;;;;;;;;;;;;;;;;;;;;;;;;;;;;;;;;;;;;1,000000;0,322766;0,212914;0,212980;0,213046;0,326203;
105;;;;;;;;;;;;;;;;;;;;;;;;;;;;;;;;;;;;;;;;;;;;;;;;;;;;;;;;;;;;;;;;;;;;;;;;;;;;;;;;;;;;;;;;;;;;;;;;;;;;;;;;;1,000000;0,328042;0,328108;0,328174;0,441331;
106;;;;;;;;;;;;;;;;;;;;;;;;;;;;;;;;;;;;;;;;;;;;;;;;;;;;;;;;;;;;;;;;;;;;;;;;;;;;;;;;;;;;;;;;;;;;;;;;;;;;;;;;;;1,000000;0,832158;0,832280;0,331479;
107;;;;;;;;;;;;;;;;;;;;;;;;;;;;;;;;;;;;;;;;;;;;;;;;;;;;;;;;;;;;;;;;;;;;;;;;;;;;;;;;;;;;;;;;;;;;;;;;;;;;;;;;;;;1,000000;0,832401;0,331545;
108;;;;;;;;;;;;;;;;;;;;;;;;;;;;;;;;;;;;;;;;;;;;;;;;;;;;;;;;;;;;;;;;;;;;;;;;;;;;;;;;;;;;;;;;;;;;;;;;;;;;;;;;;;;;1,000000;0,331611;
109;;;;;;;;;;;;;;;;;;;;;;;;;;;;;;;;;;;;;;;;;;;;;;;;;;;;;;;;;;;;;;;;;;;;;;;;;;;;;;;;;;;;;;;;;;;;;;;;;;;;;;;;;;;;;1,000000;
