;1; 2; 3; 4; 5; 6; 7; 8; 9; 10; 11; 12; 13; 14; 15; 16; 17; 18; 19; 20; 21; 22; 23; 24; 25; 26; 27; 28; 29; 30; 31; 32; 33; 34; 35; 36; 37; 38; 39; 40; 41; 42
1;1,000000;0,356312;0,304753;0,129261;0,361558;0,335735;0,267258;0,267258;0,252011;0,357559;0,000000;0,319629;0,238171;0,267654;0,267179;0,267179;0,000000;0,412242;0,319629;0,278316;0,267399;0,267399;0,267148;0,267148;0,378553;0,000000;0,331776;0,266070;0,000000;0,000000;0,267341;0,282433;0,319629;0,000000;0,367472;0,000000;0,277808;0,383532;0,000000;0,000000;0,267341;0,419235;
2;;1,000000;0,647016;0,654080;0,580702;0,529080;0,529080;0,529080;0,599559;0,576521;0,779080;0,529080;0,612413;0,529080;0,529080;0,529080;0,779080;0,563192;0,529080;0,529080;0,529080;0,529080;0,529080;0,529080;0,445746;0,779080;0,594395;0,529080;0,779080;0,779080;0,529080;0,529080;0,529080;0,779080;0,652222;0,779080;0,856053;0,628182;0,779080;0,779080;0,529080;0,666852;
3;;;1,000000;0,692311;0,786856;0,806219;0,567311;0,567311;0,736983;0,744189;0,817311;0,852282;0,650645;0,567311;0,567311;0,567311;0,817311;0,507223;0,852282;0,567311;0,567311;0,567311;0,567311;0,567311;0,695232;0,817311;0,652104;0,852081;0,817311;0,817311;0,567311;0,567311;0,852282;0,817311;0,709907;0,817311;0,567311;0,685414;0,817311;0,817311;0,567311;0,685616;
4;;;;1,000000;0,592287;0,625000;0,625000;0,625000;0,695480;0,772433;0,875000;0,625000;0,708333;0,625000;0,625000;0,625000;0,875000;0,754172;0,625000;0,625000;0,625000;0,625000;0,625000;0,625000;0,541667;0,875000;0,578017;0,625000;0,875000;0,875000;0,625000;0,625000;0,625000;0,875000;0,668218;0,875000;0,625000;0,541667;0,875000;0,875000;0,625000;0,541667;
5;;;;;1,000000;0,888511;0,467287;0,467287;0,537767;0,452429;0,717287;0,934574;0,550620;0,467287;0,467287;0,467287;0,717287;0,407199;0,934574;0,467287;0,467287;0,467287;0,467287;0,467287;0,383954;0,717287;0,420304;0,467287;0,717287;0,717287;0,467287;0,467287;0,934574;0,717287;0,792199;0,717287;0,467287;0,383954;0,717287;0,717287;0,467287;0,767907;
6;;;;;;1,000000;0,500000;0,500000;0,570480;0,485141;0,750000;0,953937;0,583333;0,500000;0,500000;0,500000;0,750000;0,439912;0,953937;0,500000;0,500000;0,500000;0,500000;0,500000;0,416667;0,750000;0,453017;0,500000;0,750000;0,750000;0,500000;0,500000;0,953937;0,750000;0,811562;0,750000;0,500000;0,416667;0,750000;0,750000;0,500000;0,787270;
7;;;;;;;1,000000;0,500000;0,570480;0,485141;0,750000;0,500000;0,583333;0,500000;0,500000;0,500000;0,750000;0,439912;0,500000;0,500000;0,500000;0,500000;0,500000;0,500000;0,416667;0,750000;0,453017;0,500000;0,750000;0,750000;0,500000;0,500000;0,500000;0,750000;0,543218;0,750000;0,500000;0,416667;0,750000;0,750000;0,500000;0,416667;
8;;;;;;;;1,000000;0,570480;0,485141;0,750000;0,500000;0,583333;0,500000;0,500000;0,500000;0,750000;0,439912;0,500000;0,500000;0,500000;0,500000;0,500000;0,500000;0,416667;0,750000;0,453017;0,500000;0,750000;0,750000;0,500000;0,500000;0,500000;0,750000;0,543218;0,750000;0,500000;0,416667;0,750000;0,750000;0,500000;0,416667;
9;;;;;;;;;1,000000;0,682713;0,820480;0,570480;0,653813;0,570480;0,570480;0,570480;0,820480;0,687499;0,570480;0,875248;0,570480;0,570480;0,570480;0,570480;0,939242;0,820480;0,523497;0,570480;0,820480;0,820480;0,570480;0,570480;0,570480;0,820480;0,749815;0,820480;0,570480;0,487146;0,820480;0,820480;0,570480;0,487146;
10;;;;;;;;;;1,000000;0,735141;0,485141;0,568475;0,485141;0,485141;0,485141;0,735141;0,620049;0,485141;0,485141;0,485141;0,485141;0,485141;0,485141;0,640962;0,735141;0,438159;0,485141;0,735141;0,735141;0,485141;0,485141;0,485141;0,735141;0,528359;0,735141;0,485141;0,401808;0,735141;0,735141;0,485141;0,401808;
11;;;;;;;;;;;1,000000;0,750000;0,833333;0,750000;0,750000;0,750000;1,000000;0,689912;0,750000;0,750000;0,750000;0,750000;0,750000;0,750000;0,666667;1,000000;0,703017;0,750000;1,000000;1,000000;0,750000;0,750000;0,750000;1,000000;0,793218;1,000000;0,750000;0,666667;1,000000;1,000000;0,750000;0,666667;
12;;;;;;;;;;;;1,000000;0,583333;0,500000;0,500000;0,500000;0,750000;0,439912;1,000000;0,500000;0,500000;0,500000;0,500000;0,500000;0,416667;0,750000;0,453017;0,500000;0,750000;0,750000;0,500000;0,500000;1,000000;0,750000;0,857625;0,750000;0,500000;0,416667;0,750000;0,750000;0,500000;0,833333;
13;;;;;;;;;;;;;1,000000;0,583333;0,583333;0,583333;0,833333;0,523245;0,583333;0,583333;0,583333;0,583333;0,583333;0,583333;0,500000;0,833333;0,536351;0,583333;0,833333;0,833333;0,583333;0,583333;0,583333;0,833333;0,626551;0,833333;0,583333;0,500000;0,833333;0,833333;0,583333;0,500000;
14;;;;;;;;;;;;;;1,000000;0,500000;0,500000;0,750000;0,439912;0,500000;0,500000;0,500000;0,500000;0,500000;0,500000;0,416667;0,750000;0,453017;0,500000;0,750000;0,750000;0,500000;0,500000;0,500000;0,750000;0,543218;0,750000;0,500000;0,416667;0,750000;0,750000;0,500000;0,416667;
15;;;;;;;;;;;;;;;1,000000;0,500000;0,750000;0,439912;0,500000;0,500000;0,500000;0,500000;0,500000;0,500000;0,416667;0,750000;0,453017;0,500000;0,750000;0,750000;0,500000;0,500000;0,500000;0,750000;0,543218;0,750000;0,500000;0,416667;0,750000;0,750000;0,500000;0,416667;
16;;;;;;;;;;;;;;;;1,000000;0,750000;0,439912;0,500000;0,500000;0,500000;0,500000;0,500000;0,500000;0,416667;0,750000;0,453017;0,500000;0,750000;0,750000;0,500000;0,500000;0,500000;0,750000;0,543218;0,750000;0,500000;0,416667;0,750000;0,750000;0,500000;0,416667;
17;;;;;;;;;;;;;;;;;1,000000;0,689912;0,750000;0,750000;0,750000;0,750000;0,750000;0,750000;0,666667;1,000000;0,703017;0,750000;1,000000;1,000000;0,750000;0,750000;0,750000;1,000000;0,793218;1,000000;0,750000;0,666667;1,000000;1,000000;0,750000;0,666667;
18;;;;;;;;;;;;;;;;;;1,000000;0,439912;0,812250;0,439912;0,439912;0,439912;0,439912;0,645583;0,689912;0,567889;0,439912;0,689912;0,689912;0,439912;0,439912;0,439912;0,689912;0,811872;0,689912;0,439912;0,601676;0,689912;0,689912;0,439912;0,356579;
19;;;;;;;;;;;;;;;;;;;1,000000;0,500000;0,500000;0,500000;0,500000;0,500000;0,416667;0,750000;0,453017;0,500000;0,750000;0,750000;0,500000;0,500000;1,000000;0,750000;0,857625;0,750000;0,500000;0,416667;0,750000;0,750000;0,500000;0,833333;
20;;;;;;;;;;;;;;;;;;;;1,000000;0,500000;0,500000;0,500000;0,500000;0,833333;0,750000;0,453017;0,500000;0,750000;0,750000;0,500000;0,500000;0,500000;0,750000;0,874566;0,750000;0,500000;0,416667;0,750000;0,750000;0,500000;0,416667;
21;;;;;;;;;;;;;;;;;;;;;1,000000;0,500000;0,500000;0,500000;0,416667;0,750000;0,453017;0,500000;0,750000;0,750000;0,500000;0,500000;0,500000;0,750000;0,543218;0,750000;0,500000;0,416667;0,750000;0,750000;0,500000;0,416667;
22;;;;;;;;;;;;;;;;;;;;;;1,000000;0,500000;0,500000;0,416667;0,750000;0,453017;0,500000;0,750000;0,750000;0,500000;0,500000;0,500000;0,750000;0,543218;0,750000;0,500000;0,416667;0,750000;0,750000;0,500000;0,416667;
23;;;;;;;;;;;;;;;;;;;;;;;1,000000;0,500000;0,416667;0,750000;0,453017;0,500000;0,750000;0,750000;0,500000;0,500000;0,500000;0,750000;0,543218;0,750000;0,500000;0,416667;0,750000;0,750000;0,500000;0,416667;
24;;;;;;;;;;;;;;;;;;;;;;;;1,000000;0,416667;0,750000;0,453017;0,500000;0,750000;0,750000;0,500000;0,500000;0,500000;0,750000;0,543218;0,750000;0,500000;0,416667;0,750000;0,750000;0,500000;0,416667;
25;;;;;;;;;;;;;;;;;;;;;;;;;1,000000;0,666667;0,369684;0,416667;0,666667;0,666667;0,416667;0,416667;0,416667;0,666667;0,707900;0,666667;0,416667;0,333333;0,666667;0,666667;0,416667;0,333333;
26;;;;;;;;;;;;;;;;;;;;;;;;;;1,000000;0,703017;0,750000;1,000000;1,000000;0,750000;0,750000;0,750000;1,000000;0,793218;1,000000;0,750000;0,666667;1,000000;1,000000;0,750000;0,666667;
27;;;;;;;;;;;;;;;;;;;;;;;;;;;1,000000;0,453017;0,703017;0,703017;0,453017;0,453017;0,453017;0,703017;0,656920;0,703017;0,453017;0,632879;0,703017;0,703017;0,453017;0,369684;
28;;;;;;;;;;;;;;;;;;;;;;;;;;;;1,000000;0,750000;0,750000;0,500000;0,500000;0,500000;0,750000;0,543218;0,750000;0,500000;0,833333;0,750000;0,750000;0,500000;0,416667;
29;;;;;;;;;;;;;;;;;;;;;;;;;;;;;1,000000;1,000000;0,750000;0,750000;0,750000;1,000000;0,793218;1,000000;0,750000;0,666667;1,000000;1,000000;0,750000;0,666667;
30;;;;;;;;;;;;;;;;;;;;;;;;;;;;;;1,000000;0,750000;0,750000;0,750000;1,000000;0,793218;1,000000;0,750000;0,666667;1,000000;1,000000;0,750000;0,666667;
31;;;;;;;;;;;;;;;;;;;;;;;;;;;;;;;1,000000;0,500000;0,500000;0,750000;0,543218;0,750000;0,500000;0,416667;0,750000;0,750000;1,000000;0,416667;
32;;;;;;;;;;;;;;;;;;;;;;;;;;;;;;;;1,000000;0,500000;0,750000;0,543218;0,750000;0,500000;0,416667;0,750000;0,750000;0,500000;0,416667;
33;;;;;;;;;;;;;;;;;;;;;;;;;;;;;;;;;1,000000;0,750000;0,857625;0,750000;0,500000;0,416667;0,750000;0,750000;0,500000;0,833333;
34;;;;;;;;;;;;;;;;;;;;;;;;;;;;;;;;;;1,000000;0,793218;1,000000;0,750000;0,666667;1,000000;1,000000;0,750000;0,666667;
35;;;;;;;;;;;;;;;;;;;;;;;;;;;;;;;;;;;1,000000;0,793218;0,543218;0,690707;0,793218;0,793218;0,543218;0,690958;
36;;;;;;;;;;;;;;;;;;;;;;;;;;;;;;;;;;;;1,000000;0,750000;0,666667;1,000000;1,000000;0,750000;0,666667;
37;;;;;;;;;;;;;;;;;;;;;;;;;;;;;;;;;;;;;1,000000;0,416667;0,750000;0,750000;0,500000;0,416667;
38;;;;;;;;;;;;;;;;;;;;;;;;;;;;;;;;;;;;;;1,000000;0,666667;0,666667;0,416667;0,333333;
39;;;;;;;;;;;;;;;;;;;;;;;;;;;;;;;;;;;;;;;1,000000;1,000000;0,750000;0,666667;
40;;;;;;;;;;;;;;;;;;;;;;;;;;;;;;;;;;;;;;;;1,000000;0,750000;0,666667;
41;;;;;;;;;;;;;;;;;;;;;;;;;;;;;;;;;;;;;;;;;1,000000;0,416667;
42;;;;;;;;;;;;;;;;;;;;;;;;;;;;;;;;;;;;;;;;;;1,000000;
