<?xml version="1.0" encoding="UTF-8" standalone="no"?>
<!-- Created by igraph (http://igraph.org/) for use in Inkscape (http://www.inkscape.org/) -->

<svg xmlns:dc="http://purl.org/dc/elements/1.1/" xmlns:cc="http://creativecommons.org/ns#" xmlns:rdf="http://www.w3.org/1999/02/22-rdf-syntax-ns#" xmlns:svg="http://www.w3.org/2000/svg" xmlns="http://www.w3.org/2000/svg" xmlns:sodipodi="http://sodipodi.sourceforge.net/DTD/sodipodi-0.dtd" xmlns:inkscape="http://www.inkscape.org/namespaces/inkscape"
width="400px" height="400px"> <defs id="defs3">
<marker
   inkscape:stockid="Arrow2Lend0"
   orient="auto"
   refY="0.0"
   refX="0.0"
   id="Arrow2Lend0"
   style="overflow:visible;">
  <path
     id="pathArrow0"
     style="font-size:12.0;fill-rule:evenodd;stroke-width:0.62500000;stroke-linejoin:round;fill:black"
     d="M 8.7185878,4.0337352 L -2.2072895,0.016013256 L 8.7185884,-4.0017078 C 6.9730900,-1.6296469 6.9831476,1.6157441 8.7185878,4.0337352 z "
     transform="scale(1.1) rotate(180) translate(1,0)" />
</marker>
</defs>
<g inkscape:groupmode="layer" id="layer2" inkscape:label="Lines" sodipodi:insensitive="true">
<path
    style="fill:none;stroke:black;stroke-width:2;stroke-linecap:butt;stroke-linejoin:miter;stroke-miterlimit:4;stroke-opacity:1;stroke-dasharray:none"
    d="M 251.13308546451037,20.97853223063861 197.03887640141346,11.6919841926202"
    id="path0"
    inkscape:connector-type="polyline"
    inkscape:connector-curvature="0"
    inkscape:connection-start="#g0"
    inkscape:connection-start-point="d4"
    inkscape:connection-end="#g1"
    inkscape:connection-end-point="d4" />
<path
    style="fill:none;stroke:black;stroke-width:2;stroke-linecap:butt;stroke-linejoin:miter;stroke-miterlimit:4;stroke-opacity:1;stroke-dasharray:none"
    d="M 251.13308546451037,20.97853223063861 147.34308892645134,38.67960745025735"
    id="path1"
    inkscape:connector-type="polyline"
    inkscape:connector-curvature="0"
    inkscape:connection-start="#g0"
    inkscape:connection-start-point="d4"
    inkscape:connection-end="#g2"
    inkscape:connection-end-point="d4" />
<path
    style="fill:none;stroke:black;stroke-width:2;stroke-linecap:butt;stroke-linejoin:miter;stroke-miterlimit:4;stroke-opacity:1;stroke-dasharray:none"
    d="M 251.13308546451037,20.97853223063861 238.36229557854574,101.89751386838597"
    id="path2"
    inkscape:connector-type="polyline"
    inkscape:connector-curvature="0"
    inkscape:connection-start="#g0"
    inkscape:connection-start-point="d4"
    inkscape:connection-end="#g3"
    inkscape:connection-end-point="d4" />
<path
    style="fill:none;stroke:black;stroke-width:2;stroke-linecap:butt;stroke-linejoin:miter;stroke-miterlimit:4;stroke-opacity:1;stroke-dasharray:none"
    d="M 187.1830563192527,10.0 146.0190030031169,35.14754986940709"
    id="path3"
    inkscape:connector-type="polyline"
    inkscape:connector-curvature="0"
    inkscape:connection-start="#g1"
    inkscape:connection-start-point="d4"
    inkscape:connection-end="#g2"
    inkscape:connection-end-point="d4" />
<path
    style="fill:none;stroke:black;stroke-width:2;stroke-linecap:butt;stroke-linejoin:miter;stroke-miterlimit:4;stroke-opacity:1;stroke-dasharray:none"
    d="M 187.1830563192527,10.0 232.42100090715059,102.78665996791446"
    id="path4"
    inkscape:connector-type="polyline"
    inkscape:connector-curvature="0"
    inkscape:connection-start="#g1"
    inkscape:connection-start-point="d4"
    inkscape:connection-end="#g3"
    inkscape:connection-end-point="d4" />
<path
    style="fill:none;stroke:black;stroke-width:2;stroke-linecap:butt;stroke-linejoin:miter;stroke-miterlimit:4;stroke-opacity:1;stroke-dasharray:none"
    d="M 137.48542281175816,40.36080308766241 228.6843676511223,105.93729435116717"
    id="path5"
    inkscape:connector-type="polyline"
    inkscape:connector-curvature="0"
    inkscape:connection-start="#g2"
    inkscape:connection-start-point="d4"
    inkscape:connection-end="#g3"
    inkscape:connection-end-point="d4" />
<path
    style="fill:none;stroke:black;stroke-width:2;stroke-linecap:butt;stroke-linejoin:miter;stroke-miterlimit:4;stroke-opacity:1;stroke-dasharray:none"
    d="M 158.42005150594036,291.92603847873585 140.35082331207062,195.83416424695508"
    id="path6"
    inkscape:connector-type="polyline"
    inkscape:connector-curvature="0"
    inkscape:connection-start="#g4"
    inkscape:connection-start-point="d4"
    inkscape:connection-end="#g5"
    inkscape:connection-end-point="d4" />
<path
    style="fill:none;stroke:black;stroke-width:2;stroke-linecap:butt;stroke-linejoin:miter;stroke-miterlimit:4;stroke-opacity:1;stroke-dasharray:none"
    d="M 158.42005150594036,291.92603847873585 216.45972201978918,200.5513401983437"
    id="path7"
    inkscape:connector-type="polyline"
    inkscape:connector-curvature="0"
    inkscape:connection-start="#g4"
    inkscape:connection-start-point="d4"
    inkscape:connection-end="#g6"
    inkscape:connection-end-point="d4" />
<path
    style="fill:none;stroke:black;stroke-width:2;stroke-linecap:butt;stroke-linejoin:miter;stroke-miterlimit:4;stroke-opacity:1;stroke-dasharray:none"
    d="M 138.5028003799742,186.0064070642381 211.8481093190536,191.3795863156527"
    id="path8"
    inkscape:connector-type="polyline"
    inkscape:connector-curvature="0"
    inkscape:connection-start="#g5"
    inkscape:connection-start-point="d4"
    inkscape:connection-end="#g6"
    inkscape:connection-end-point="d4" />
<path
    style="fill:none;stroke:black;stroke-width:2;stroke-linecap:butt;stroke-linejoin:miter;stroke-miterlimit:4;stroke-opacity:1;stroke-dasharray:none"
    d="M 187.1830563192527,10.0 232.42100090715059,102.78665996791446"
    id="path9"
    inkscape:connector-type="polyline"
    inkscape:connector-curvature="0"
    inkscape:connection-start="#g1"
    inkscape:connection-start-point="d4"
    inkscape:connection-end="#g3"
    inkscape:connection-end-point="d4" />
<path
    style="fill:none;stroke:black;stroke-width:2;stroke-linecap:butt;stroke-linejoin:miter;stroke-miterlimit:4;stroke-opacity:1;stroke-dasharray:none"
    d="M 251.13308546451037,20.97853223063861 238.36229557854574,101.89751386838597"
    id="path10"
    inkscape:connector-type="polyline"
    inkscape:connector-curvature="0"
    inkscape:connection-start="#g0"
    inkscape:connection-start-point="d4"
    inkscape:connection-end="#g3"
    inkscape:connection-end-point="d4" />
<path
    style="fill:none;stroke:black;stroke-width:2;stroke-linecap:butt;stroke-linejoin:miter;stroke-miterlimit:4;stroke-opacity:1;stroke-dasharray:none"
    d="M 251.13308546451037,20.97853223063861 197.03887640141346,11.6919841926202"
    id="path11"
    inkscape:connector-type="polyline"
    inkscape:connector-curvature="0"
    inkscape:connection-start="#g0"
    inkscape:connection-start-point="d4"
    inkscape:connection-end="#g1"
    inkscape:connection-end-point="d4" />
<path
    style="fill:none;stroke:black;stroke-width:2;stroke-linecap:butt;stroke-linejoin:miter;stroke-miterlimit:4;stroke-opacity:1;stroke-dasharray:none"
    d="M 158.42005150594036,291.92603847873585 244.73428101877425,235.18765642456452"
    id="path12"
    inkscape:connector-type="polyline"
    inkscape:connector-curvature="0"
    inkscape:connection-start="#g4"
    inkscape:connection-start-point="d4"
    inkscape:connection-end="#g7"
    inkscape:connection-end-point="d4" />
<path
    style="fill:none;stroke:black;stroke-width:2;stroke-linecap:butt;stroke-linejoin:miter;stroke-miterlimit:4;stroke-opacity:1;stroke-dasharray:none"
    d="M 253.0905536085119,229.6946874272008 178.7377622084645,210.39982612834092"
    id="path13"
    inkscape:connector-type="polyline"
    inkscape:connector-curvature="0"
    inkscape:connection-start="#g7"
    inkscape:connection-start-point="d4"
    inkscape:connection-end="#g8"
    inkscape:connection-end-point="d4" />
<path
    style="fill:none;stroke:black;stroke-width:2;stroke-linecap:butt;stroke-linejoin:miter;stroke-miterlimit:4;stroke-opacity:1;stroke-dasharray:none"
    d="M 158.42005150594036,291.92603847873585 167.80249908360867,217.80880915250435"
    id="path14"
    inkscape:connector-type="polyline"
    inkscape:connector-curvature="0"
    inkscape:connection-start="#g4"
    inkscape:connection-start-point="d4"
    inkscape:connection-end="#g8"
    inkscape:connection-end-point="d4" />
<path
    style="fill:none;stroke:black;stroke-width:2;stroke-linecap:butt;stroke-linejoin:miter;stroke-miterlimit:4;stroke-opacity:1;stroke-dasharray:none"
    d="M 138.5028003799742,186.0064070642381 61.06421214662141,172.24682706442348"
    id="path15"
    inkscape:connector-type="polyline"
    inkscape:connector-curvature="0"
    inkscape:connection-start="#g5"
    inkscape:connection-start-point="d4"
    inkscape:connection-end="#g9"
    inkscape:connection-end-point="d4" />
<path
    style="fill:none;stroke:black;stroke-width:2;stroke-linecap:butt;stroke-linejoin:miter;stroke-miterlimit:4;stroke-opacity:1;stroke-dasharray:none"
    d="M 138.5028003799742,186.0064070642381 98.30148169339016,131.56505949489824"
    id="path16"
    inkscape:connector-type="polyline"
    inkscape:connector-curvature="0"
    inkscape:connection-start="#g5"
    inkscape:connection-start-point="d4"
    inkscape:connection-end="#g10"
    inkscape:connection-end-point="d4" />
<path
    style="fill:none;stroke:black;stroke-width:2;stroke-linecap:butt;stroke-linejoin:miter;stroke-miterlimit:4;stroke-opacity:1;stroke-dasharray:none"
    d="M 138.5028003799742,186.0064070642381 211.8481093190536,191.3795863156527"
    id="path17"
    inkscape:connector-type="polyline"
    inkscape:connector-curvature="0"
    inkscape:connection-start="#g5"
    inkscape:connection-start-point="d4"
    inkscape:connection-end="#g6"
    inkscape:connection-end-point="d4" />
<path
    style="fill:none;stroke:black;stroke-width:2;stroke-linecap:butt;stroke-linejoin:miter;stroke-miterlimit:4;stroke-opacity:1;stroke-dasharray:none"
    d="M 51.21842759663011,170.49739098523892 85.77269657796558,131.04336230572827"
    id="path18"
    inkscape:connector-type="polyline"
    inkscape:connector-curvature="0"
    inkscape:connection-start="#g9"
    inkscape:connection-start-point="d4"
    inkscape:connection-end="#g10"
    inkscape:connection-end-point="d4" />
<path
    style="fill:none;stroke:black;stroke-width:2;stroke-linecap:butt;stroke-linejoin:miter;stroke-miterlimit:4;stroke-opacity:1;stroke-dasharray:none"
    d="M 221.8213826907209,192.1102149860403 61.139135393303505,171.75419519155895"
    id="path19"
    inkscape:connector-type="polyline"
    inkscape:connector-curvature="0"
    inkscape:connection-start="#g6"
    inkscape:connection-start-point="d4"
    inkscape:connection-end="#g9"
    inkscape:connection-end-point="d4" />
<path
    style="fill:none;stroke:black;stroke-width:2;stroke-linecap:butt;stroke-linejoin:miter;stroke-miterlimit:4;stroke-opacity:1;stroke-dasharray:none"
    d="M 221.8213826907209,192.1102149860403 101.19761227610945,128.20226060324433"
    id="path20"
    inkscape:connector-type="polyline"
    inkscape:connector-curvature="0"
    inkscape:connection-start="#g6"
    inkscape:connection-start-point="d4"
    inkscape:connection-end="#g10"
    inkscape:connection-end-point="d4" />
<path
    style="fill:none;stroke:black;stroke-width:2;stroke-linecap:butt;stroke-linejoin:miter;stroke-miterlimit:4;stroke-opacity:1;stroke-dasharray:none"
    d="M 158.42005150594036,291.92603847873585 244.73428101877425,235.18765642456452"
    id="path21"
    inkscape:connector-type="polyline"
    inkscape:connector-curvature="0"
    inkscape:connection-start="#g4"
    inkscape:connection-start-point="d4"
    inkscape:connection-end="#g7"
    inkscape:connection-end-point="d4" />
<path
    style="fill:none;stroke:black;stroke-width:2;stroke-linecap:butt;stroke-linejoin:miter;stroke-miterlimit:4;stroke-opacity:1;stroke-dasharray:none"
    d="M 253.0905536085119,229.6946874272008 274.1829824061149,299.11092247291464"
    id="path22"
    inkscape:connector-type="polyline"
    inkscape:connector-curvature="0"
    inkscape:connection-start="#g7"
    inkscape:connection-start-point="d4"
    inkscape:connection-end="#g11"
    inkscape:connection-end-point="d4" />
<path
    style="fill:none;stroke:black;stroke-width:2;stroke-linecap:butt;stroke-linejoin:miter;stroke-miterlimit:4;stroke-opacity:1;stroke-dasharray:none"
    d="M 158.42005150594036,291.92603847873585 267.18846022411645,307.28111402546244"
    id="path23"
    inkscape:connector-type="polyline"
    inkscape:connector-curvature="0"
    inkscape:connection-start="#g4"
    inkscape:connection-start-point="d4"
    inkscape:connection-end="#g11"
    inkscape:connection-end-point="d4" />
<path
    style="fill:none;stroke:black;stroke-width:2;stroke-linecap:butt;stroke-linejoin:miter;stroke-miterlimit:4;stroke-opacity:1;stroke-dasharray:none"
    d="M 158.42005150594036,291.92603847873585 19.945334826601773,277.38728719960034"
    id="path24"
    inkscape:connector-type="polyline"
    inkscape:connector-curvature="0"
    inkscape:connection-start="#g4"
    inkscape:connection-start-point="d4"
    inkscape:connection-end="#g12"
    inkscape:connection-end-point="d4" />
<path
    style="fill:none;stroke:black;stroke-width:2;stroke-linecap:butt;stroke-linejoin:miter;stroke-miterlimit:4;stroke-opacity:1;stroke-dasharray:none"
    d="M 158.42005150594036,291.92603847873585 36.99191331016408,323.73705236475945"
    id="path25"
    inkscape:connector-type="polyline"
    inkscape:connector-curvature="0"
    inkscape:connection-start="#g4"
    inkscape:connection-start-point="d4"
    inkscape:connection-end="#g13"
    inkscape:connection-end-point="d4" />
<path
    style="fill:none;stroke:black;stroke-width:2;stroke-linecap:butt;stroke-linejoin:miter;stroke-miterlimit:4;stroke-opacity:1;stroke-dasharray:none"
    d="M 10.0,276.34310561252755 24.041246724111172,316.8234922912487"
    id="path26"
    inkscape:connector-type="polyline"
    inkscape:connector-curvature="0"
    inkscape:connection-start="#g12"
    inkscape:connection-start-point="d4"
    inkscape:connection-end="#g13"
    inkscape:connection-end-point="d4" />
<path
    style="fill:none;stroke:black;stroke-width:2;stroke-linecap:butt;stroke-linejoin:miter;stroke-miterlimit:4;stroke-opacity:1;stroke-dasharray:none"
    d="M 158.42005150594036,291.92603847873585 19.945334826601773,277.38728719960034"
    id="path27"
    inkscape:connector-type="polyline"
    inkscape:connector-curvature="0"
    inkscape:connection-start="#g4"
    inkscape:connection-start-point="d4"
    inkscape:connection-end="#g12"
    inkscape:connection-end-point="d4" />
<path
    style="fill:none;stroke:black;stroke-width:2;stroke-linecap:butt;stroke-linejoin:miter;stroke-miterlimit:4;stroke-opacity:1;stroke-dasharray:none"
    d="M 158.42005150594036,291.92603847873585 36.99191331016408,323.73705236475945"
    id="path28"
    inkscape:connector-type="polyline"
    inkscape:connector-curvature="0"
    inkscape:connection-start="#g4"
    inkscape:connection-start-point="d4"
    inkscape:connection-end="#g13"
    inkscape:connection-end-point="d4" />
<path
    style="fill:none;stroke:black;stroke-width:2;stroke-linecap:butt;stroke-linejoin:miter;stroke-miterlimit:4;stroke-opacity:1;stroke-dasharray:none"
    d="M 10.0,276.34310561252755 24.041246724111172,316.8234922912487"
    id="path29"
    inkscape:connector-type="polyline"
    inkscape:connector-curvature="0"
    inkscape:connection-start="#g12"
    inkscape:connection-start-point="d4"
    inkscape:connection-end="#g13"
    inkscape:connection-end-point="d4" />
<path
    style="fill:none;stroke:black;stroke-width:2;stroke-linecap:butt;stroke-linejoin:miter;stroke-miterlimit:4;stroke-opacity:1;stroke-dasharray:none"
    d="M 236.80337151798014,111.77525428679087 146.48305045101839,179.9801637233499"
    id="path30"
    inkscape:connector-type="polyline"
    inkscape:connector-curvature="0"
    inkscape:connection-start="#g3"
    inkscape:connection-start-point="d4"
    inkscape:connection-end="#g5"
    inkscape:connection-end-point="d4" />
<path
    style="fill:none;stroke:black;stroke-width:2;stroke-linecap:butt;stroke-linejoin:miter;stroke-miterlimit:4;stroke-opacity:1;stroke-dasharray:none"
    d="M 236.80337151798014,111.77525428679087 223.65471362741414,182.27970647037523"
    id="path31"
    inkscape:connector-type="polyline"
    inkscape:connector-curvature="0"
    inkscape:connection-start="#g3"
    inkscape:connection-start-point="d4"
    inkscape:connection-end="#g6"
    inkscape:connection-end-point="d4" />
<path
    style="fill:none;stroke:black;stroke-width:2;stroke-linecap:butt;stroke-linejoin:miter;stroke-miterlimit:4;stroke-opacity:1;stroke-dasharray:none"
    d="M 138.5028003799742,186.0064070642381 211.8481093190536,191.3795863156527"
    id="path32"
    inkscape:connector-type="polyline"
    inkscape:connector-curvature="0"
    inkscape:connection-start="#g5"
    inkscape:connection-start-point="d4"
    inkscape:connection-end="#g6"
    inkscape:connection-end-point="d4" />
<path
    style="fill:none;stroke:black;stroke-width:2;stroke-linecap:butt;stroke-linejoin:miter;stroke-miterlimit:4;stroke-opacity:1;stroke-dasharray:none"
    d="M 158.42005150594036,291.92603847873585 244.73428101877425,235.18765642456452"
    id="path33"
    inkscape:connector-type="polyline"
    inkscape:connector-curvature="0"
    inkscape:connection-start="#g4"
    inkscape:connection-start-point="d4"
    inkscape:connection-end="#g7"
    inkscape:connection-end-point="d4" />
<path
    style="fill:none;stroke:black;stroke-width:2;stroke-linecap:butt;stroke-linejoin:miter;stroke-miterlimit:4;stroke-opacity:1;stroke-dasharray:none"
    d="M 253.0905536085119,229.6946874272008 274.1829824061149,299.11092247291464"
    id="path34"
    inkscape:connector-type="polyline"
    inkscape:connector-curvature="0"
    inkscape:connection-start="#g7"
    inkscape:connection-start-point="d4"
    inkscape:connection-end="#g11"
    inkscape:connection-end-point="d4" />
<path
    style="fill:none;stroke:black;stroke-width:2;stroke-linecap:butt;stroke-linejoin:miter;stroke-miterlimit:4;stroke-opacity:1;stroke-dasharray:none"
    d="M 158.42005150594036,291.92603847873585 267.18846022411645,307.28111402546244"
    id="path35"
    inkscape:connector-type="polyline"
    inkscape:connector-curvature="0"
    inkscape:connection-start="#g4"
    inkscape:connection-start-point="d4"
    inkscape:connection-end="#g11"
    inkscape:connection-end-point="d4" />
<path
    style="fill:none;stroke:black;stroke-width:2;stroke-linecap:butt;stroke-linejoin:miter;stroke-miterlimit:4;stroke-opacity:1;stroke-dasharray:none"
    d="M 158.42005150594036,291.92603847873585 134.12606235906094,377.652763555827"
    id="path36"
    inkscape:connector-type="polyline"
    inkscape:connector-curvature="0"
    inkscape:connection-start="#g4"
    inkscape:connection-start-point="d4"
    inkscape:connection-end="#g14"
    inkscape:connection-end-point="d4" />
<path
    style="fill:none;stroke:black;stroke-width:2;stroke-linecap:butt;stroke-linejoin:miter;stroke-miterlimit:4;stroke-opacity:1;stroke-dasharray:none"
    d="M 131.39954312100548,387.27389097648376 76.15584755441986,365.6243511606734"
    id="path37"
    inkscape:connector-type="polyline"
    inkscape:connector-curvature="0"
    inkscape:connection-start="#g14"
    inkscape:connection-start-point="d4"
    inkscape:connection-end="#g15"
    inkscape:connection-end-point="d4" />
<path
    style="fill:none;stroke:black;stroke-width:2;stroke-linecap:butt;stroke-linejoin:miter;stroke-miterlimit:4;stroke-opacity:1;stroke-dasharray:none"
    d="M 158.42005150594036,291.92603847873585 74.78794184945306,355.8999219897452"
    id="path38"
    inkscape:connector-type="polyline"
    inkscape:connector-curvature="0"
    inkscape:connection-start="#g4"
    inkscape:connection-start-point="d4"
    inkscape:connection-end="#g15"
    inkscape:connection-end-point="d4" />
<path
    style="fill:none;stroke:black;stroke-width:2;stroke-linecap:butt;stroke-linejoin:miter;stroke-miterlimit:4;stroke-opacity:1;stroke-dasharray:none"
    d="M 138.5028003799742,186.0064070642381 61.06421214662141,172.24682706442348"
    id="path39"
    inkscape:connector-type="polyline"
    inkscape:connector-curvature="0"
    inkscape:connection-start="#g5"
    inkscape:connection-start-point="d4"
    inkscape:connection-end="#g9"
    inkscape:connection-end-point="d4" />
<path
    style="fill:none;stroke:black;stroke-width:2;stroke-linecap:butt;stroke-linejoin:miter;stroke-miterlimit:4;stroke-opacity:1;stroke-dasharray:none"
    d="M 138.5028003799742,186.0064070642381 98.30148169339016,131.56505949489824"
    id="path40"
    inkscape:connector-type="polyline"
    inkscape:connector-curvature="0"
    inkscape:connection-start="#g5"
    inkscape:connection-start-point="d4"
    inkscape:connection-end="#g10"
    inkscape:connection-end-point="d4" />
<path
    style="fill:none;stroke:black;stroke-width:2;stroke-linecap:butt;stroke-linejoin:miter;stroke-miterlimit:4;stroke-opacity:1;stroke-dasharray:none"
    d="M 138.5028003799742,186.0064070642381 211.8481093190536,191.3795863156527"
    id="path41"
    inkscape:connector-type="polyline"
    inkscape:connector-curvature="0"
    inkscape:connection-start="#g5"
    inkscape:connection-start-point="d4"
    inkscape:connection-end="#g6"
    inkscape:connection-end-point="d4" />
<path
    style="fill:none;stroke:black;stroke-width:2;stroke-linecap:butt;stroke-linejoin:miter;stroke-miterlimit:4;stroke-opacity:1;stroke-dasharray:none"
    d="M 51.21842759663011,170.49739098523892 85.77269657796558,131.04336230572827"
    id="path42"
    inkscape:connector-type="polyline"
    inkscape:connector-curvature="0"
    inkscape:connection-start="#g9"
    inkscape:connection-start-point="d4"
    inkscape:connection-end="#g10"
    inkscape:connection-end-point="d4" />
<path
    style="fill:none;stroke:black;stroke-width:2;stroke-linecap:butt;stroke-linejoin:miter;stroke-miterlimit:4;stroke-opacity:1;stroke-dasharray:none"
    d="M 221.8213826907209,192.1102149860403 61.139135393303505,171.75419519155895"
    id="path43"
    inkscape:connector-type="polyline"
    inkscape:connector-curvature="0"
    inkscape:connection-start="#g6"
    inkscape:connection-start-point="d4"
    inkscape:connection-end="#g9"
    inkscape:connection-end-point="d4" />
<path
    style="fill:none;stroke:black;stroke-width:2;stroke-linecap:butt;stroke-linejoin:miter;stroke-miterlimit:4;stroke-opacity:1;stroke-dasharray:none"
    d="M 221.8213826907209,192.1102149860403 101.19761227610945,128.20226060324433"
    id="path44"
    inkscape:connector-type="polyline"
    inkscape:connector-curvature="0"
    inkscape:connection-start="#g6"
    inkscape:connection-start-point="d4"
    inkscape:connection-end="#g10"
    inkscape:connection-end-point="d4" />
<path
    style="fill:none;stroke:black;stroke-width:2;stroke-linecap:butt;stroke-linejoin:miter;stroke-miterlimit:4;stroke-opacity:1;stroke-dasharray:none"
    d="M 380.3562713841963,199.6443210904473 363.14987348575204,242.8031443266213"
    id="path45"
    inkscape:connector-type="polyline"
    inkscape:connector-curvature="0"
    inkscape:connection-start="#g16"
    inkscape:connection-start-point="d4"
    inkscape:connection-end="#g17"
    inkscape:connection-end-point="d4" />
<path
    style="fill:none;stroke:black;stroke-width:2;stroke-linecap:butt;stroke-linejoin:miter;stroke-miterlimit:4;stroke-opacity:1;stroke-dasharray:none"
    d="M 221.8213826907209,192.1102149860403 370.3675446278873,199.16962351535727"
    id="path46"
    inkscape:connector-type="polyline"
    inkscape:connector-curvature="0"
    inkscape:connection-start="#g6"
    inkscape:connection-start-point="d4"
    inkscape:connection-end="#g16"
    inkscape:connection-end-point="d4" />
<path
    style="fill:none;stroke:black;stroke-width:2;stroke-linecap:butt;stroke-linejoin:miter;stroke-miterlimit:4;stroke-opacity:1;stroke-dasharray:none"
    d="M 221.8213826907209,192.1102149860403 350.27940149907954,248.09676886517445"
    id="path47"
    inkscape:connector-type="polyline"
    inkscape:connector-curvature="0"
    inkscape:connection-start="#g6"
    inkscape:connection-start-point="d4"
    inkscape:connection-end="#g17"
    inkscape:connection-end-point="d4" />
<path
    style="fill:none;stroke:black;stroke-width:2;stroke-linecap:butt;stroke-linejoin:miter;stroke-miterlimit:4;stroke-opacity:1;stroke-dasharray:none"
    d="M 138.5028003799742,186.0064070642381 61.06421214662141,172.24682706442348"
    id="path48"
    inkscape:connector-type="polyline"
    inkscape:connector-curvature="0"
    inkscape:connection-start="#g5"
    inkscape:connection-start-point="d4"
    inkscape:connection-end="#g9"
    inkscape:connection-end-point="d4" />
<path
    style="fill:none;stroke:black;stroke-width:2;stroke-linecap:butt;stroke-linejoin:miter;stroke-miterlimit:4;stroke-opacity:1;stroke-dasharray:none"
    d="M 138.5028003799742,186.0064070642381 98.30148169339016,131.56505949489824"
    id="path49"
    inkscape:connector-type="polyline"
    inkscape:connector-curvature="0"
    inkscape:connection-start="#g5"
    inkscape:connection-start-point="d4"
    inkscape:connection-end="#g10"
    inkscape:connection-end-point="d4" />
<path
    style="fill:none;stroke:black;stroke-width:2;stroke-linecap:butt;stroke-linejoin:miter;stroke-miterlimit:4;stroke-opacity:1;stroke-dasharray:none"
    d="M 138.5028003799742,186.0064070642381 211.8481093190536,191.3795863156527"
    id="path50"
    inkscape:connector-type="polyline"
    inkscape:connector-curvature="0"
    inkscape:connection-start="#g5"
    inkscape:connection-start-point="d4"
    inkscape:connection-end="#g6"
    inkscape:connection-end-point="d4" />
<path
    style="fill:none;stroke:black;stroke-width:2;stroke-linecap:butt;stroke-linejoin:miter;stroke-miterlimit:4;stroke-opacity:1;stroke-dasharray:none"
    d="M 51.21842759663011,170.49739098523892 85.77269657796558,131.04336230572827"
    id="path51"
    inkscape:connector-type="polyline"
    inkscape:connector-curvature="0"
    inkscape:connection-start="#g9"
    inkscape:connection-start-point="d4"
    inkscape:connection-end="#g10"
    inkscape:connection-end-point="d4" />
<path
    style="fill:none;stroke:black;stroke-width:2;stroke-linecap:butt;stroke-linejoin:miter;stroke-miterlimit:4;stroke-opacity:1;stroke-dasharray:none"
    d="M 221.8213826907209,192.1102149860403 61.139135393303505,171.75419519155895"
    id="path52"
    inkscape:connector-type="polyline"
    inkscape:connector-curvature="0"
    inkscape:connection-start="#g6"
    inkscape:connection-start-point="d4"
    inkscape:connection-end="#g9"
    inkscape:connection-end-point="d4" />
<path
    style="fill:none;stroke:black;stroke-width:2;stroke-linecap:butt;stroke-linejoin:miter;stroke-miterlimit:4;stroke-opacity:1;stroke-dasharray:none"
    d="M 221.8213826907209,192.1102149860403 101.19761227610945,128.20226060324433"
    id="path53"
    inkscape:connector-type="polyline"
    inkscape:connector-curvature="0"
    inkscape:connection-start="#g6"
    inkscape:connection-start-point="d4"
    inkscape:connection-end="#g10"
    inkscape:connection-end-point="d4" />
<path
    style="fill:none;stroke:black;stroke-width:2;stroke-linecap:butt;stroke-linejoin:miter;stroke-miterlimit:4;stroke-opacity:1;stroke-dasharray:none"
    d="M 138.5028003799742,186.0064070642381 61.06421214662141,172.24682706442348"
    id="path54"
    inkscape:connector-type="polyline"
    inkscape:connector-curvature="0"
    inkscape:connection-start="#g5"
    inkscape:connection-start-point="d4"
    inkscape:connection-end="#g9"
    inkscape:connection-end-point="d4" />
<path
    style="fill:none;stroke:black;stroke-width:2;stroke-linecap:butt;stroke-linejoin:miter;stroke-miterlimit:4;stroke-opacity:1;stroke-dasharray:none"
    d="M 221.8213826907209,192.1102149860403 61.139135393303505,171.75419519155895"
    id="path55"
    inkscape:connector-type="polyline"
    inkscape:connector-curvature="0"
    inkscape:connection-start="#g6"
    inkscape:connection-start-point="d4"
    inkscape:connection-end="#g9"
    inkscape:connection-end-point="d4" />
<path
    style="fill:none;stroke:black;stroke-width:2;stroke-linecap:butt;stroke-linejoin:miter;stroke-miterlimit:4;stroke-opacity:1;stroke-dasharray:none"
    d="M 138.5028003799742,186.0064070642381 211.8481093190536,191.3795863156527"
    id="path56"
    inkscape:connector-type="polyline"
    inkscape:connector-curvature="0"
    inkscape:connection-start="#g5"
    inkscape:connection-start-point="d4"
    inkscape:connection-end="#g6"
    inkscape:connection-end-point="d4" />
<path
    style="fill:none;stroke:black;stroke-width:2;stroke-linecap:butt;stroke-linejoin:miter;stroke-miterlimit:4;stroke-opacity:1;stroke-dasharray:none"
    d="M 253.0905536085119,229.6946874272008 178.7377622084645,210.39982612834092"
    id="path57"
    inkscape:connector-type="polyline"
    inkscape:connector-curvature="0"
    inkscape:connection-start="#g7"
    inkscape:connection-start-point="d4"
    inkscape:connection-end="#g8"
    inkscape:connection-end-point="d4" />
<path
    style="fill:none;stroke:black;stroke-width:2;stroke-linecap:butt;stroke-linejoin:miter;stroke-miterlimit:4;stroke-opacity:1;stroke-dasharray:none"
    d="M 158.42005150594036,291.92603847873585 244.73428101877425,235.18765642456452"
    id="path58"
    inkscape:connector-type="polyline"
    inkscape:connector-curvature="0"
    inkscape:connection-start="#g4"
    inkscape:connection-start-point="d4"
    inkscape:connection-end="#g7"
    inkscape:connection-end-point="d4" />
<path
    style="fill:none;stroke:black;stroke-width:2;stroke-linecap:butt;stroke-linejoin:miter;stroke-miterlimit:4;stroke-opacity:1;stroke-dasharray:none"
    d="M 158.42005150594036,291.92603847873585 167.80249908360867,217.80880915250435"
    id="path59"
    inkscape:connector-type="polyline"
    inkscape:connector-curvature="0"
    inkscape:connection-start="#g4"
    inkscape:connection-start-point="d4"
    inkscape:connection-end="#g8"
    inkscape:connection-end-point="d4" />
<path
    style="fill:none;stroke:black;stroke-width:2;stroke-linecap:butt;stroke-linejoin:miter;stroke-miterlimit:4;stroke-opacity:1;stroke-dasharray:none"
    d="M 236.80337151798014,111.77525428679087 251.7223303600619,219.7887313833653"
    id="path60"
    inkscape:connector-type="polyline"
    inkscape:connector-curvature="0"
    inkscape:connection-start="#g3"
    inkscape:connection-start-point="d4"
    inkscape:connection-end="#g7"
    inkscape:connection-end-point="d4" />
<path
    style="fill:none;stroke:black;stroke-width:2;stroke-linecap:butt;stroke-linejoin:miter;stroke-miterlimit:4;stroke-opacity:1;stroke-dasharray:none"
    d="M 253.0905536085119,229.6946874272008 178.7377622084645,210.39982612834092"
    id="path61"
    inkscape:connector-type="polyline"
    inkscape:connector-curvature="0"
    inkscape:connection-start="#g7"
    inkscape:connection-start-point="d4"
    inkscape:connection-end="#g8"
    inkscape:connection-end-point="d4" />
<path
    style="fill:none;stroke:black;stroke-width:2;stroke-linecap:butt;stroke-linejoin:miter;stroke-miterlimit:4;stroke-opacity:1;stroke-dasharray:none"
    d="M 236.80337151798014,111.77525428679087 174.8195650291684,199.71432875500176"
    id="path62"
    inkscape:connector-type="polyline"
    inkscape:connector-curvature="0"
    inkscape:connection-start="#g3"
    inkscape:connection-start-point="d4"
    inkscape:connection-end="#g8"
    inkscape:connection-end-point="d4" />
<path
    style="fill:none;stroke:black;stroke-width:2;stroke-linecap:butt;stroke-linejoin:miter;stroke-miterlimit:4;stroke-opacity:1;stroke-dasharray:none"
    d="M 236.80337151798014,111.77525428679087 305.9976528400799,137.3194049331674"
    id="path63"
    inkscape:connector-type="polyline"
    inkscape:connector-curvature="0"
    inkscape:connection-start="#g3"
    inkscape:connection-start-point="d4"
    inkscape:connection-end="#g18"
    inkscape:connection-end-point="d4" />
<path
    style="fill:none;stroke:black;stroke-width:2;stroke-linecap:butt;stroke-linejoin:miter;stroke-miterlimit:4;stroke-opacity:1;stroke-dasharray:none"
    d="M 236.80337151798014,111.77525428679087 223.65471362741414,182.27970647037523"
    id="path64"
    inkscape:connector-type="polyline"
    inkscape:connector-curvature="0"
    inkscape:connection-start="#g3"
    inkscape:connection-start-point="d4"
    inkscape:connection-end="#g6"
    inkscape:connection-end-point="d4" />
<path
    style="fill:none;stroke:black;stroke-width:2;stroke-linecap:butt;stroke-linejoin:miter;stroke-miterlimit:4;stroke-opacity:1;stroke-dasharray:none"
    d="M 221.8213826907209,192.1102149860403 306.6115580990392,145.59251308548508"
    id="path65"
    inkscape:connector-type="polyline"
    inkscape:connector-curvature="0"
    inkscape:connection-start="#g6"
    inkscape:connection-start-point="d4"
    inkscape:connection-end="#g18"
    inkscape:connection-end-point="d4" />
<path
    style="fill:none;stroke:black;stroke-width:2;stroke-linecap:butt;stroke-linejoin:miter;stroke-miterlimit:4;stroke-opacity:1;stroke-dasharray:none"
    d="M 236.80337151798014,111.77525428679087 251.7223303600619,219.7887313833653"
    id="path66"
    inkscape:connector-type="polyline"
    inkscape:connector-curvature="0"
    inkscape:connection-start="#g3"
    inkscape:connection-start-point="d4"
    inkscape:connection-end="#g7"
    inkscape:connection-end-point="d4" />
<path
    style="fill:none;stroke:black;stroke-width:2;stroke-linecap:butt;stroke-linejoin:miter;stroke-miterlimit:4;stroke-opacity:1;stroke-dasharray:none"
    d="M 158.42005150594036,291.92603847873585 258.86066650140333,367.8469757683911"
    id="path67"
    inkscape:connector-type="polyline"
    inkscape:connector-curvature="0"
    inkscape:connection-start="#g4"
    inkscape:connection-start-point="d4"
    inkscape:connection-end="#g19"
    inkscape:connection-end-point="d4" />
<path
    style="fill:none;stroke:black;stroke-width:2;stroke-linecap:butt;stroke-linejoin:miter;stroke-miterlimit:4;stroke-opacity:1;stroke-dasharray:none"
    d="M 158.42005150594036,291.92603847873585 193.25050404026007,380.69100469118894"
    id="path68"
    inkscape:connector-type="polyline"
    inkscape:connector-curvature="0"
    inkscape:connection-start="#g4"
    inkscape:connection-start-point="d4"
    inkscape:connection-end="#g20"
    inkscape:connection-end-point="d4" />
<path
    style="fill:none;stroke:black;stroke-width:2;stroke-linecap:butt;stroke-linejoin:miter;stroke-miterlimit:4;stroke-opacity:1;stroke-dasharray:none"
    d="M 266.83809906544775,373.8769483791186 206.64765009804745,387.7534896169154"
    id="path69"
    inkscape:connector-type="polyline"
    inkscape:connector-curvature="0"
    inkscape:connection-start="#g19"
    inkscape:connection-start-point="d4"
    inkscape:connection-end="#g20"
    inkscape:connection-end-point="d4" />
<path
    style="fill:none;stroke:black;stroke-width:2;stroke-linecap:butt;stroke-linejoin:miter;stroke-miterlimit:4;stroke-opacity:1;stroke-dasharray:none"
    d="M 236.80337151798014,111.77525428679087 329.86820561813624,44.19065214392329"
    id="path70"
    inkscape:connector-type="polyline"
    inkscape:connector-curvature="0"
    inkscape:connection-start="#g3"
    inkscape:connection-start-point="d4"
    inkscape:connection-end="#g21"
    inkscape:connection-end-point="d4" />
<path
    style="fill:none;stroke:black;stroke-width:2;stroke-linecap:butt;stroke-linejoin:miter;stroke-miterlimit:4;stroke-opacity:1;stroke-dasharray:none"
    d="M 236.80337151798014,111.77525428679087 380.15183522403686,86.50647965040304"
    id="path71"
    inkscape:connector-type="polyline"
    inkscape:connector-curvature="0"
    inkscape:connection-start="#g3"
    inkscape:connection-start-point="d4"
    inkscape:connection-end="#g22"
    inkscape:connection-end-point="d4" />
  </g>

  <g inkscape:label="Nodes"                     inkscape:groupmode="layer" id="layer1">
  <!-- Vertices -->
    <g id="g0" transform="translate(251.13308546451037,20.97853223063861)">
     <circle cx="0" cy="0" r="10" fill="red"/>
      <text sodipodi:linespacing="125%" y="5.0" x="0" id="text0" style="font-size:16pxpx;font-style:normal;font-weight:normal;text-align:center;line-height:125%;letter-spacing:0px;word-spacing:0px;text-anchor:middle;fill:#000000;fill-opacity:1;stroke:none;font-family:Sans">
<tspan y="5.0" x="0" id="tspan0" sodipodi:role="line">1</tspan></text>
    </g>
    <g id="g1" transform="translate(187.1830563192527,10.0)">
     <circle cx="0" cy="0" r="10" fill="red"/>
      <text sodipodi:linespacing="125%" y="5.0" x="0" id="text1" style="font-size:16pxpx;font-style:normal;font-weight:normal;text-align:center;line-height:125%;letter-spacing:0px;word-spacing:0px;text-anchor:middle;fill:#000000;fill-opacity:1;stroke:none;font-family:Sans">
<tspan y="5.0" x="0" id="tspan1" sodipodi:role="line">2</tspan></text>
    </g>
    <g id="g2" transform="translate(137.48542281175816,40.36080308766241)">
     <circle cx="0" cy="0" r="10" fill="red"/>
      <text sodipodi:linespacing="125%" y="5.0" x="0" id="text2" style="font-size:16pxpx;font-style:normal;font-weight:normal;text-align:center;line-height:125%;letter-spacing:0px;word-spacing:0px;text-anchor:middle;fill:#000000;fill-opacity:1;stroke:none;font-family:Sans">
<tspan y="5.0" x="0" id="tspan2" sodipodi:role="line">3</tspan></text>
    </g>
    <g id="g3" transform="translate(236.80337151798014,111.77525428679087)">
     <circle cx="0" cy="0" r="10" fill="red"/>
      <text sodipodi:linespacing="125%" y="5.0" x="0" id="text3" style="font-size:16pxpx;font-style:normal;font-weight:normal;text-align:center;line-height:125%;letter-spacing:0px;word-spacing:0px;text-anchor:middle;fill:#000000;fill-opacity:1;stroke:none;font-family:Sans">
<tspan y="5.0" x="0" id="tspan3" sodipodi:role="line">4</tspan></text>
    </g>
    <g id="g4" transform="translate(158.42005150594036,291.92603847873585)">
     <circle cx="0" cy="0" r="10" fill="red"/>
      <text sodipodi:linespacing="125%" y="5.0" x="0" id="text4" style="font-size:16pxpx;font-style:normal;font-weight:normal;text-align:center;line-height:125%;letter-spacing:0px;word-spacing:0px;text-anchor:middle;fill:#000000;fill-opacity:1;stroke:none;font-family:Sans">
<tspan y="5.0" x="0" id="tspan4" sodipodi:role="line">5</tspan></text>
    </g>
    <g id="g5" transform="translate(138.5028003799742,186.0064070642381)">
     <circle cx="0" cy="0" r="10" fill="red"/>
      <text sodipodi:linespacing="125%" y="5.0" x="0" id="text5" style="font-size:16pxpx;font-style:normal;font-weight:normal;text-align:center;line-height:125%;letter-spacing:0px;word-spacing:0px;text-anchor:middle;fill:#000000;fill-opacity:1;stroke:none;font-family:Sans">
<tspan y="5.0" x="0" id="tspan5" sodipodi:role="line">6</tspan></text>
    </g>
    <g id="g6" transform="translate(221.8213826907209,192.1102149860403)">
     <circle cx="0" cy="0" r="10" fill="red"/>
      <text sodipodi:linespacing="125%" y="5.0" x="0" id="text6" style="font-size:16pxpx;font-style:normal;font-weight:normal;text-align:center;line-height:125%;letter-spacing:0px;word-spacing:0px;text-anchor:middle;fill:#000000;fill-opacity:1;stroke:none;font-family:Sans">
<tspan y="5.0" x="0" id="tspan6" sodipodi:role="line">7</tspan></text>
    </g>
    <g id="g7" transform="translate(253.0905536085119,229.6946874272008)">
     <circle cx="0" cy="0" r="10" fill="red"/>
      <text sodipodi:linespacing="125%" y="5.0" x="0" id="text7" style="font-size:16pxpx;font-style:normal;font-weight:normal;text-align:center;line-height:125%;letter-spacing:0px;word-spacing:0px;text-anchor:middle;fill:#000000;fill-opacity:1;stroke:none;font-family:Sans">
<tspan y="5.0" x="0" id="tspan7" sodipodi:role="line">8</tspan></text>
    </g>
    <g id="g8" transform="translate(169.05836942932055,207.8879830944202)">
     <circle cx="0" cy="0" r="10" fill="red"/>
      <text sodipodi:linespacing="125%" y="5.0" x="0" id="text8" style="font-size:16pxpx;font-style:normal;font-weight:normal;text-align:center;line-height:125%;letter-spacing:0px;word-spacing:0px;text-anchor:middle;fill:#000000;fill-opacity:1;stroke:none;font-family:Sans">
<tspan y="5.0" x="0" id="tspan8" sodipodi:role="line">9</tspan></text>
    </g>
    <g id="g9" transform="translate(51.21842759663011,170.49739098523892)">
     <circle cx="0" cy="0" r="10" fill="red"/>
      <text sodipodi:linespacing="125%" y="5.0" x="0" id="text9" style="font-size:16pxpx;font-style:normal;font-weight:normal;text-align:center;line-height:125%;letter-spacing:0px;word-spacing:0px;text-anchor:middle;fill:#000000;fill-opacity:1;stroke:none;font-family:Sans">
<tspan y="5.0" x="0" id="tspan9" sodipodi:role="line">10</tspan></text>
    </g>
    <g id="g10" transform="translate(92.36119700526093,123.5206193140045)">
     <circle cx="0" cy="0" r="10" fill="red"/>
      <text sodipodi:linespacing="125%" y="5.0" x="0" id="text10" style="font-size:16pxpx;font-style:normal;font-weight:normal;text-align:center;line-height:125%;letter-spacing:0px;word-spacing:0px;text-anchor:middle;fill:#000000;fill-opacity:1;stroke:none;font-family:Sans">
<tspan y="5.0" x="0" id="tspan10" sodipodi:role="line">11</tspan></text>
    </g>
    <g id="g11" transform="translate(277.0902774178646,308.67897534247254)">
     <circle cx="0" cy="0" r="10" fill="red"/>
      <text sodipodi:linespacing="125%" y="5.0" x="0" id="text11" style="font-size:16pxpx;font-style:normal;font-weight:normal;text-align:center;line-height:125%;letter-spacing:0px;word-spacing:0px;text-anchor:middle;fill:#000000;fill-opacity:1;stroke:none;font-family:Sans">
<tspan y="5.0" x="0" id="tspan11" sodipodi:role="line">12</tspan></text>
    </g>
    <g id="g12" transform="translate(10.0,276.34310561252755)">
     <circle cx="0" cy="0" r="10" fill="red"/>
      <text sodipodi:linespacing="125%" y="5.0" x="0" id="text12" style="font-size:16pxpx;font-style:normal;font-weight:normal;text-align:center;line-height:125%;letter-spacing:0px;word-spacing:0px;text-anchor:middle;fill:#000000;fill-opacity:1;stroke:none;font-family:Sans">
<tspan y="5.0" x="0" id="tspan12" sodipodi:role="line">13</tspan></text>
    </g>
    <g id="g13" transform="translate(27.318355231403846,326.27127297410914)">
     <circle cx="0" cy="0" r="10" fill="red"/>
      <text sodipodi:linespacing="125%" y="5.0" x="0" id="text13" style="font-size:16pxpx;font-style:normal;font-weight:normal;text-align:center;line-height:125%;letter-spacing:0px;word-spacing:0px;text-anchor:middle;fill:#000000;fill-opacity:1;stroke:none;font-family:Sans">
<tspan y="5.0" x="0" id="tspan13" sodipodi:role="line">14</tspan></text>
    </g>
    <g id="g14" transform="translate(131.39954312100548,387.27389097648376)">
     <circle cx="0" cy="0" r="10" fill="red"/>
      <text sodipodi:linespacing="125%" y="5.0" x="0" id="text14" style="font-size:16pxpx;font-style:normal;font-weight:normal;text-align:center;line-height:125%;letter-spacing:0px;word-spacing:0px;text-anchor:middle;fill:#000000;fill-opacity:1;stroke:none;font-family:Sans">
<tspan y="5.0" x="0" id="tspan14" sodipodi:role="line">15</tspan></text>
    </g>
    <g id="g15" transform="translate(66.84527635663758,361.97561658947933)">
     <circle cx="0" cy="0" r="10" fill="red"/>
      <text sodipodi:linespacing="125%" y="5.0" x="0" id="text15" style="font-size:16pxpx;font-style:normal;font-weight:normal;text-align:center;line-height:125%;letter-spacing:0px;word-spacing:0px;text-anchor:middle;fill:#000000;fill-opacity:1;stroke:none;font-family:Sans">
<tspan y="5.0" x="0" id="tspan15" sodipodi:role="line">16</tspan></text>
    </g>
    <g id="g16" transform="translate(380.3562713841963,199.6443210904473)">
     <circle cx="0" cy="0" r="10" fill="red"/>
      <text sodipodi:linespacing="125%" y="5.0" x="0" id="text16" style="font-size:16pxpx;font-style:normal;font-weight:normal;text-align:center;line-height:125%;letter-spacing:0px;word-spacing:0px;text-anchor:middle;fill:#000000;fill-opacity:1;stroke:none;font-family:Sans">
<tspan y="5.0" x="0" id="tspan16" sodipodi:role="line">17</tspan></text>
    </g>
    <g id="g17" transform="translate(359.4465693963496,252.09214528589646)">
     <circle cx="0" cy="0" r="10" fill="red"/>
      <text sodipodi:linespacing="125%" y="5.0" x="0" id="text17" style="font-size:16pxpx;font-style:normal;font-weight:normal;text-align:center;line-height:125%;letter-spacing:0px;word-spacing:0px;text-anchor:middle;fill:#000000;fill-opacity:1;stroke:none;font-family:Sans">
<tspan y="5.0" x="0" id="tspan17" sodipodi:role="line">18</tspan></text>
    </g>
    <g id="g18" transform="translate(315.3788161179092,140.78260801047995)">
     <circle cx="0" cy="0" r="10" fill="red"/>
      <text sodipodi:linespacing="125%" y="5.0" x="0" id="text18" style="font-size:16pxpx;font-style:normal;font-weight:normal;text-align:center;line-height:125%;letter-spacing:0px;word-spacing:0px;text-anchor:middle;fill:#000000;fill-opacity:1;stroke:none;font-family:Sans">
<tspan y="5.0" x="0" id="tspan18" sodipodi:role="line">19</tspan></text>
    </g>
    <g id="g19" transform="translate(266.83809906544775,373.8769483791186)">
     <circle cx="0" cy="0" r="10" fill="red"/>
      <text sodipodi:linespacing="125%" y="5.0" x="0" id="text19" style="font-size:16pxpx;font-style:normal;font-weight:normal;text-align:center;line-height:125%;letter-spacing:0px;word-spacing:0px;text-anchor:middle;fill:#000000;fill-opacity:1;stroke:none;font-family:Sans">
<tspan y="5.0" x="0" id="tspan19" sodipodi:role="line">20</tspan></text>
    </g>
    <g id="g20" transform="translate(196.9032572950713,390.0)">
     <circle cx="0" cy="0" r="10" fill="red"/>
      <text sodipodi:linespacing="125%" y="5.0" x="0" id="text20" style="font-size:16pxpx;font-style:normal;font-weight:normal;text-align:center;line-height:125%;letter-spacing:0px;word-spacing:0px;text-anchor:middle;fill:#000000;fill-opacity:1;stroke:none;font-family:Sans">
<tspan y="5.0" x="0" id="tspan20" sodipodi:role="line">21</tspan></text>
    </g>
    <g id="g21" transform="translate(337.95965529838793,38.31456143053613)">
     <circle cx="0" cy="0" r="10" fill="red"/>
      <text sodipodi:linespacing="125%" y="5.0" x="0" id="text21" style="font-size:16pxpx;font-style:normal;font-weight:normal;text-align:center;line-height:125%;letter-spacing:0px;word-spacing:0px;text-anchor:middle;fill:#000000;fill-opacity:1;stroke:none;font-family:Sans">
<tspan y="5.0" x="0" id="tspan21" sodipodi:role="line">22</tspan></text>
    </g>
    <g id="g22" transform="translate(390.0,84.77049274219237)">
     <circle cx="0" cy="0" r="10" fill="red"/>
      <text sodipodi:linespacing="125%" y="5.0" x="0" id="text22" style="font-size:16pxpx;font-style:normal;font-weight:normal;text-align:center;line-height:125%;letter-spacing:0px;word-spacing:0px;text-anchor:middle;fill:#000000;fill-opacity:1;stroke:none;font-family:Sans">
<tspan y="5.0" x="0" id="tspan22" sodipodi:role="line">23</tspan></text>
    </g>
</g>

</svg>
