;1; 2; 3; 4; 5; 6; 7; 8; 9; 10; 11; 12; 13; 14; 15; 16; 17; 18; 19; 20; 21; 22; 23; 24; 25; 26; 27; 28; 29; 30; 31; 32; 33; 34; 35; 36; 37; 38; 39; 40; 41; 42; 43; 44; 45; 46; 47; 48; 49; 50; 51; 52; 53; 54; 55; 56; 57; 58; 59; 60; 61; 62; 63; 64; 65; 66; 67; 68; 69; 70; 71; 72
1;1,000000;0,000000;0,213500;0,296964;0,381416;0,262810;0,262810;0,000000;0,411445;0,408392;0,411445;0,411445;0,210722;0,375519;0,392954;0,411757;0,392954;0,327518;0,263544;0,000000;0,377635;0,310594;0,303722;0,406316;0,406316;0,406316;0,386183;0,386183;0,408005;0,376985;0,262728;0,262728;0,444557;0,473804;0,473804;0,000000;0,354985;0,354985;0,354985;0,000000;0,354979;0,354979;0,354979;0,000000;0,272953;0,271141;0,434778;0,434778;0,273315;0,353424;0,353424;0,262714;0,262714;0,264738;0,265145;0,432832;0,432832;0,432832;0,432832;0,432832;0,408392;0,329459;0,352973;0,352973;0,365317;0,000000;0,354955;0,354955;0,354955;0,353732;0,353732;0,000000;
2;;1,000000;0,824719;0,750000;0,690060;0,750000;0,750000;1,000000;0,625000;0,625000;0,625000;0,625000;0,875000;0,698304;0,651367;0,625000;0,651367;0,689912;0,750000;1,000000;0,689912;0,724908;0,732883;0,629175;0,629175;0,629175;0,644285;0,644285;0,625000;0,670764;0,750000;0,750000;0,629175;0,600000;0,600000;1,000000;0,666667;0,666667;0,666667;1,000000;0,666667;0,666667;0,666667;1,000000;0,824123;0,750000;0,600000;0,600000;0,750000;0,666667;0,666667;0,750000;0,750000;0,750000;0,750000;0,600000;0,600000;0,600000;0,600000;0,600000;0,625000;0,703017;0,666667;0,666667;0,666667;1,000000;0,666667;0,666667;0,666667;0,666667;0,666667;1,000000;
3;;;1,000000;0,574719;0,702883;0,574719;0,574719;0,824719;0,449719;0,449719;0,449719;0,449719;0,699719;0,523023;0,476086;0,449719;0,476086;0,514631;0,574719;0,824719;0,514631;0,549627;0,557602;0,453893;0,453893;0,453893;0,469004;0,469004;0,449719;0,495483;0,574719;0,574719;0,818704;0,864379;0,864379;0,824719;0,491386;0,491386;0,491386;0,824719;0,491386;0,491386;0,491386;0,824719;0,648842;0,574719;0,424719;0,424719;0,574719;0,491386;0,491386;0,574719;0,574719;0,574719;0,574719;0,424719;0,424719;0,424719;0,424719;0,424719;0,449719;0,527736;0,491386;0,491386;0,491386;0,824719;0,491386;0,491386;0,491386;0,491386;0,491386;0,824719;
4;;;;1,000000;0,880119;0,500000;0,500000;0,750000;0,375000;0,375000;0,375000;0,375000;0,625000;0,448304;0,401367;0,375000;0,401367;0,439912;0,500000;0,750000;0,439912;0,474908;0,482883;0,379175;0,379175;0,379175;0,394285;0,394285;0,375000;0,420764;0,500000;0,500000;0,758349;0,700000;0,700000;0,750000;0,416667;0,416667;0,416667;0,750000;0,416667;0,416667;0,416667;0,750000;0,574123;0,500000;0,350000;0,350000;0,500000;0,416667;0,416667;0,500000;0,500000;0,500000;0,500000;0,350000;0,350000;0,350000;0,350000;0,350000;0,375000;0,453017;0,416667;0,416667;0,416667;0,750000;0,416667;0,416667;0,416667;0,416667;0,416667;0,750000;
5;;;;;1,000000;0,440060;0,440060;0,690060;0,315060;0,315060;0,315060;0,315060;0,565060;0,388364;0,341426;0,315060;0,341426;0,379972;0,440060;0,690060;0,379972;0,414968;0,422943;0,319234;0,319234;0,319234;0,334345;0,334345;0,315060;0,360823;0,440060;0,440060;0,807672;0,869435;0,869435;0,690060;0,356726;0,356726;0,356726;0,690060;0,356726;0,356726;0,356726;0,690060;0,514182;0,440060;0,290060;0,290060;0,440060;0,356726;0,356726;0,440060;0,440060;0,440060;0,440060;0,290060;0,290060;0,290060;0,290060;0,290060;0,315060;0,393077;0,356726;0,356726;0,356726;0,690060;0,356726;0,356726;0,356726;0,356726;0,356726;0,690060;
6;;;;;;1,000000;0,500000;0,750000;0,375000;0,375000;0,375000;0,375000;0,625000;0,448304;0,401367;0,375000;0,401367;0,439912;0,500000;0,750000;0,439912;0,474908;0,482883;0,379175;0,379175;0,379175;0,394285;0,394285;0,375000;0,420764;0,500000;0,500000;0,379175;0,350000;0,350000;0,750000;0,416667;0,416667;0,416667;0,750000;0,416667;0,416667;0,416667;0,750000;0,574123;0,500000;0,350000;0,350000;0,500000;0,416667;0,416667;0,500000;0,500000;0,500000;0,500000;0,350000;0,350000;0,350000;0,350000;0,350000;0,375000;0,453017;0,416667;0,416667;0,416667;0,750000;0,416667;0,416667;0,416667;0,416667;0,416667;0,750000;
7;;;;;;;1,000000;0,750000;0,375000;0,375000;0,375000;0,375000;0,625000;0,448304;0,401367;0,375000;0,401367;0,439912;0,500000;0,750000;0,439912;0,474908;0,482883;0,379175;0,379175;0,379175;0,394285;0,394285;0,375000;0,420764;0,500000;0,500000;0,379175;0,350000;0,350000;0,750000;0,416667;0,416667;0,416667;0,750000;0,416667;0,416667;0,416667;0,750000;0,574123;0,500000;0,350000;0,350000;0,500000;0,416667;0,416667;0,500000;0,500000;0,500000;0,500000;0,350000;0,350000;0,350000;0,350000;0,350000;0,375000;0,453017;0,416667;0,416667;0,416667;0,750000;0,416667;0,416667;0,416667;0,416667;0,416667;0,750000;
8;;;;;;;;1,000000;0,625000;0,625000;0,625000;0,625000;0,875000;0,698304;0,651367;0,625000;0,651367;0,689912;0,750000;1,000000;0,689912;0,724908;0,732883;0,629175;0,629175;0,629175;0,644285;0,644285;0,625000;0,670764;0,750000;0,750000;0,629175;0,600000;0,600000;1,000000;0,666667;0,666667;0,666667;1,000000;0,666667;0,666667;0,666667;1,000000;0,824123;0,750000;0,600000;0,600000;0,750000;0,666667;0,666667;0,750000;0,750000;0,750000;0,750000;0,600000;0,600000;0,600000;0,600000;0,600000;0,625000;0,703017;0,666667;0,666667;0,666667;1,000000;0,666667;0,666667;0,666667;0,666667;0,666667;1,000000;
9;;;;;;;;;1,000000;0,750000;0,750000;0,750000;0,500000;0,323304;0,276367;0,250000;0,276367;0,314912;0,375000;0,625000;0,314912;0,349908;0,357883;0,254175;0,254175;0,254175;0,269285;0,269285;0,250000;0,295764;0,375000;0,375000;0,254175;0,225000;0,225000;0,625000;0,291667;0,291667;0,291667;0,625000;0,291667;0,291667;0,291667;0,625000;0,449123;0,375000;0,225000;0,225000;0,375000;0,291667;0,291667;0,375000;0,375000;0,375000;0,375000;0,225000;0,225000;0,225000;0,225000;0,225000;0,750000;0,328017;0,291667;0,291667;0,291667;0,625000;0,291667;0,291667;0,291667;0,291667;0,291667;0,625000;
10;;;;;;;;;;1,000000;0,750000;0,750000;0,500000;0,323304;0,276367;0,250000;0,276367;0,314912;0,375000;0,625000;0,314912;0,349908;0,357883;0,254175;0,254175;0,254175;0,269285;0,269285;0,250000;0,295764;0,375000;0,375000;0,254175;0,225000;0,225000;0,625000;0,291667;0,291667;0,291667;0,625000;0,291667;0,291667;0,291667;0,625000;0,449123;0,375000;0,225000;0,225000;0,375000;0,291667;0,291667;0,375000;0,375000;0,375000;0,375000;0,225000;0,225000;0,225000;0,225000;0,225000;1,000000;0,328017;0,291667;0,291667;0,291667;0,625000;0,291667;0,291667;0,291667;0,291667;0,291667;0,625000;
11;;;;;;;;;;;1,000000;0,750000;0,500000;0,323304;0,276367;0,250000;0,276367;0,314912;0,375000;0,625000;0,314912;0,349908;0,357883;0,254175;0,254175;0,254175;0,269285;0,269285;0,250000;0,295764;0,375000;0,375000;0,254175;0,225000;0,225000;0,625000;0,291667;0,291667;0,291667;0,625000;0,291667;0,291667;0,291667;0,625000;0,449123;0,375000;0,225000;0,225000;0,375000;0,291667;0,291667;0,375000;0,375000;0,375000;0,375000;0,225000;0,225000;0,225000;0,225000;0,225000;0,750000;0,328017;0,291667;0,291667;0,291667;0,625000;0,291667;0,291667;0,291667;0,291667;0,291667;0,625000;
12;;;;;;;;;;;;1,000000;0,500000;0,323304;0,276367;0,250000;0,276367;0,314912;0,375000;0,625000;0,314912;0,349908;0,357883;0,254175;0,254175;0,254175;0,269285;0,269285;0,250000;0,295764;0,375000;0,375000;0,254175;0,225000;0,225000;0,625000;0,291667;0,291667;0,291667;0,625000;0,291667;0,291667;0,291667;0,625000;0,449123;0,375000;0,225000;0,225000;0,375000;0,291667;0,291667;0,375000;0,375000;0,375000;0,375000;0,225000;0,225000;0,225000;0,225000;0,225000;0,750000;0,328017;0,291667;0,291667;0,291667;0,625000;0,291667;0,291667;0,291667;0,291667;0,291667;0,625000;
13;;;;;;;;;;;;;1,000000;0,573304;0,526367;0,500000;0,526367;0,564912;0,625000;0,875000;0,564912;0,599908;0,607883;0,504175;0,504175;0,504175;0,519285;0,519285;0,500000;0,545764;0,625000;0,625000;0,504175;0,475000;0,475000;0,875000;0,541667;0,541667;0,541667;0,875000;0,541667;0,541667;0,541667;0,875000;0,699123;0,625000;0,475000;0,475000;0,625000;0,541667;0,541667;0,625000;0,625000;0,625000;0,625000;0,475000;0,475000;0,475000;0,475000;0,475000;0,500000;0,578017;0,541667;0,541667;0,541667;0,875000;0,541667;0,541667;0,541667;0,541667;0,541667;0,875000;
14;;;;;;;;;;;;;;1,000000;0,668384;0,693678;0,668384;0,759682;0,448304;0,698304;0,388216;0,423212;0,431188;0,327479;0,327479;0,327479;0,342590;0,342590;0,323304;0,369068;0,448304;0,448304;0,327479;0,298304;0,298304;0,698304;0,364971;0,364971;0,364971;0,698304;0,364971;0,364971;0,364971;0,698304;0,522427;0,448304;0,298304;0,298304;0,448304;0,364971;0,364971;0,448304;0,448304;0,448304;0,448304;0,298304;0,298304;0,298304;0,298304;0,298304;0,323304;0,401322;0,601034;0,601034;0,364971;0,698304;0,364971;0,364971;0,364971;0,364971;0,364971;0,698304;
15;;;;;;;;;;;;;;;1,000000;0,724486;0,699085;0,615062;0,763382;0,651367;0,341279;0,376275;0,384250;0,280541;0,280541;0,280541;0,295652;0,295652;0,276367;0,322130;0,401367;0,401367;0,280541;0,251367;0,251367;0,651367;0,318033;0,318033;0,318033;0,651367;0,318033;0,318033;0,318033;0,651367;0,475489;0,401367;0,251367;0,251367;0,401367;0,318033;0,318033;0,401367;0,401367;0,401367;0,401367;0,251367;0,251367;0,251367;0,251367;0,251367;0,276367;0,354384;0,533317;0,533317;0,318033;0,651367;0,318033;0,318033;0,318033;0,318033;0,318033;0,651367;
16;;;;;;;;;;;;;;;;1,000000;0,724486;0,816004;0,375000;0,625000;0,314912;0,349908;0,357883;0,254175;0,254175;0,254175;0,269285;0,269285;0,250000;0,295764;0,375000;0,375000;0,254175;0,225000;0,225000;0,625000;0,291667;0,291667;0,291667;0,625000;0,291667;0,291667;0,291667;0,625000;0,449123;0,375000;0,225000;0,225000;0,375000;0,291667;0,291667;0,375000;0,375000;0,375000;0,375000;0,225000;0,225000;0,225000;0,225000;0,225000;0,250000;0,328017;0,583333;0,583333;0,291667;0,625000;0,291667;0,291667;0,291667;0,291667;0,291667;0,625000;
17;;;;;;;;;;;;;;;;;1,000000;0,615062;0,763382;0,651367;0,341279;0,376275;0,384250;0,280541;0,280541;0,280541;0,295652;0,295652;0,276367;0,322130;0,401367;0,401367;0,280541;0,251367;0,251367;0,651367;0,318033;0,318033;0,318033;0,651367;0,318033;0,318033;0,318033;0,651367;0,475489;0,401367;0,251367;0,251367;0,401367;0,318033;0,318033;0,401367;0,401367;0,401367;0,401367;0,251367;0,251367;0,251367;0,251367;0,251367;0,276367;0,354384;0,533317;0,533317;0,318033;0,651367;0,318033;0,318033;0,318033;0,318033;0,318033;0,651367;
18;;;;;;;;;;;;;;;;;;1,000000;0,439912;0,689912;0,379824;0,414820;0,422795;0,319086;0,319086;0,319086;0,334197;0,334197;0,314912;0,360676;0,439912;0,439912;0,319086;0,289912;0,289912;0,689912;0,356579;0,356579;0,356579;0,689912;0,356579;0,356579;0,356579;0,689912;0,514035;0,439912;0,289912;0,289912;0,439912;0,356579;0,356579;0,439912;0,439912;0,439912;0,439912;0,289912;0,289912;0,289912;0,289912;0,289912;0,314912;0,392929;0,356579;0,356579;0,356579;0,689912;0,356579;0,356579;0,356579;0,356579;0,356579;0,689912;
19;;;;;;;;;;;;;;;;;;;1,000000;0,750000;0,439912;0,474908;0,482883;0,379175;0,379175;0,379175;0,394285;0,394285;0,375000;0,420764;0,500000;0,500000;0,379175;0,350000;0,350000;0,750000;0,416667;0,416667;0,416667;0,750000;0,416667;0,416667;0,416667;0,750000;0,574123;0,500000;0,350000;0,350000;0,500000;0,416667;0,416667;0,500000;0,500000;0,500000;0,500000;0,350000;0,350000;0,350000;0,350000;0,350000;0,375000;0,453017;0,416667;0,416667;0,416667;0,750000;0,416667;0,416667;0,416667;0,416667;0,416667;0,750000;
20;;;;;;;;;;;;;;;;;;;;1,000000;0,689912;0,724908;0,732883;0,629175;0,629175;0,629175;0,644285;0,644285;0,625000;0,670764;0,750000;0,750000;0,629175;0,600000;0,600000;1,000000;0,666667;0,666667;0,666667;1,000000;0,666667;0,666667;0,666667;1,000000;0,824123;0,750000;0,600000;0,600000;0,750000;0,666667;0,666667;0,750000;0,750000;0,750000;0,750000;0,600000;0,600000;0,600000;0,600000;0,600000;0,625000;0,703017;0,666667;0,666667;0,666667;1,000000;0,666667;0,666667;0,666667;0,666667;0,666667;1,000000;
21;;;;;;;;;;;;;;;;;;;;;1,000000;0,776598;0,646158;0,319086;0,319086;0,319086;0,334197;0,334197;0,314912;0,360676;0,439912;0,439912;0,319086;0,289912;0,289912;0,689912;0,356579;0,356579;0,356579;0,689912;0,356579;0,356579;0,356579;0,689912;0,514035;0,826782;0,289912;0,289912;0,439912;0,587720;0,587720;0,439912;0,439912;0,439912;0,439912;0,289912;0,289912;0,289912;0,289912;0,289912;0,314912;0,392929;0,356579;0,356579;0,356579;0,689912;0,356579;0,356579;0,356579;0,356579;0,356579;0,689912;
22;;;;;;;;;;;;;;;;;;;;;;1,000000;0,589495;0,354083;0,354083;0,354083;0,369193;0,369193;0,349908;0,395672;0,474908;0,474908;0,354083;0,324908;0,324908;0,724908;0,391575;0,391575;0,391575;0,724908;0,391575;0,391575;0,391575;0,724908;0,549031;0,949816;0,324908;0,324908;0,474908;0,610909;0,610909;0,474908;0,474908;0,474908;0,474908;0,324908;0,324908;0,324908;0,324908;0,324908;0,349908;0,427925;0,391575;0,391575;0,391575;0,724908;0,391575;0,391575;0,391575;0,391575;0,391575;0,724908;
23;;;;;;;;;;;;;;;;;;;;;;;1,000000;0,362058;0,362058;0,362058;0,377168;0,377168;0,357883;0,403647;0,482883;0,482883;0,362058;0,332883;0,332883;0,732883;0,399550;0,399550;0,399550;0,732883;0,399550;0,399550;0,399550;0,732883;0,557006;0,482883;0,332883;0,332883;0,482883;0,645252;0,645252;0,482883;0,482883;0,482883;0,482883;0,332883;0,332883;0,332883;0,332883;0,332883;0,357883;0,435901;0,399550;0,399550;0,399550;0,732883;0,399550;0,399550;0,399550;0,399550;0,399550;0,732883;
24;;;;;;;;;;;;;;;;;;;;;;;;1,000000;0,746961;0,746961;0,273460;0,273460;0,254175;0,299938;0,379175;0,379175;0,258349;0,229175;0,229175;0,629175;0,295841;0,295841;0,295841;0,629175;0,295841;0,295841;0,295841;0,629175;0,453297;0,379175;0,842032;0,842032;0,379175;0,295841;0,295841;0,379175;0,379175;0,379175;0,379175;0,229175;0,229175;0,229175;0,229175;0,229175;0,254175;0,332192;0,295841;0,295841;0,295841;0,629175;0,295841;0,295841;0,295841;0,295841;0,295841;0,629175;
25;;;;;;;;;;;;;;;;;;;;;;;;;1,000000;0,746961;0,273460;0,273460;0,254175;0,299938;0,379175;0,379175;0,258349;0,229175;0,229175;0,629175;0,295841;0,295841;0,295841;0,629175;0,295841;0,295841;0,295841;0,629175;0,453297;0,379175;0,842032;0,842032;0,379175;0,295841;0,295841;0,379175;0,379175;0,379175;0,379175;0,229175;0,229175;0,229175;0,229175;0,229175;0,254175;0,332192;0,295841;0,295841;0,295841;0,629175;0,295841;0,295841;0,295841;0,295841;0,295841;0,629175;
26;;;;;;;;;;;;;;;;;;;;;;;;;;1,000000;0,273460;0,273460;0,254175;0,299938;0,379175;0,379175;0,258349;0,229175;0,229175;0,629175;0,295841;0,295841;0,295841;0,629175;0,295841;0,295841;0,295841;0,629175;0,453297;0,379175;0,842032;0,842032;0,379175;0,295841;0,295841;0,379175;0,379175;0,379175;0,379175;0,229175;0,229175;0,229175;0,229175;0,229175;0,254175;0,332192;0,295841;0,295841;0,295841;0,629175;0,295841;0,295841;0,295841;0,295841;0,295841;0,629175;
27;;;;;;;;;;;;;;;;;;;;;;;;;;;1,000000;0,713340;0,807855;0,651277;0,394285;0,394285;0,273460;0,244285;0,244285;0,644285;0,310952;0,310952;0,310952;0,644285;0,310952;0,310952;0,310952;0,644285;0,468408;0,394285;0,244285;0,244285;0,394285;0,310952;0,310952;0,394285;0,394285;0,788570;0,394285;0,244285;0,244285;0,244285;0,244285;0,244285;0,269285;0,347303;0,310952;0,310952;0,310952;0,644285;0,310952;0,310952;0,310952;0,621904;0,621904;0,644285;
28;;;;;;;;;;;;;;;;;;;;;;;;;;;;1,000000;0,807855;0,651277;0,394285;0,394285;0,273460;0,244285;0,244285;0,644285;0,310952;0,310952;0,310952;0,644285;0,310952;0,310952;0,310952;0,644285;0,468408;0,394285;0,244285;0,244285;0,394285;0,310952;0,310952;0,394285;0,394285;0,788570;0,394285;0,244285;0,244285;0,244285;0,244285;0,244285;0,269285;0,347303;0,310952;0,310952;0,310952;0,644285;0,310952;0,310952;0,310952;0,621904;0,621904;0,644285;
29;;;;;;;;;;;;;;;;;;;;;;;;;;;;;1,000000;0,717164;0,375000;0,375000;0,254175;0,225000;0,225000;0,625000;0,291667;0,291667;0,291667;0,625000;0,291667;0,291667;0,291667;0,625000;0,449123;0,375000;0,225000;0,225000;0,375000;0,291667;0,291667;0,375000;0,375000;0,750000;0,375000;0,225000;0,225000;0,225000;0,225000;0,225000;0,250000;0,328017;0,291667;0,291667;0,291667;0,625000;0,291667;0,291667;0,291667;0,583333;0,583333;0,625000;
30;;;;;;;;;;;;;;;;;;;;;;;;;;;;;;1,000000;0,420764;0,420764;0,299938;0,270764;0,270764;0,670764;0,337430;0,337430;0,337430;0,670764;0,337430;0,337430;0,337430;0,670764;0,494886;0,420764;0,270764;0,270764;0,420764;0,337430;0,337430;0,420764;0,420764;0,420764;0,420764;0,270764;0,270764;0,270764;0,270764;0,270764;0,295764;0,373781;0,337430;0,337430;0,337430;0,670764;0,337430;0,337430;0,337430;0,550991;0,550991;0,670764;
31;;;;;;;;;;;;;;;;;;;;;;;;;;;;;;;1,000000;0,500000;0,379175;0,350000;0,350000;0,750000;0,416667;0,416667;0,416667;0,750000;0,416667;0,416667;0,416667;0,750000;0,574123;0,500000;0,350000;0,350000;0,500000;0,416667;0,416667;0,500000;0,500000;0,500000;0,500000;0,350000;0,350000;0,350000;0,350000;0,350000;0,375000;0,453017;0,416667;0,416667;0,416667;0,750000;0,416667;0,416667;0,416667;0,416667;0,416667;0,750000;
32;;;;;;;;;;;;;;;;;;;;;;;;;;;;;;;;1,000000;0,379175;0,350000;0,350000;0,750000;0,416667;0,416667;0,416667;0,750000;0,416667;0,416667;0,416667;0,750000;0,574123;0,500000;0,350000;0,350000;0,500000;0,416667;0,416667;0,500000;0,500000;0,500000;0,500000;0,350000;0,350000;0,350000;0,350000;0,350000;0,375000;0,453017;0,416667;0,416667;0,416667;0,750000;0,416667;0,416667;0,416667;0,416667;0,416667;0,750000;
33;;;;;;;;;;;;;;;;;;;;;;;;;;;;;;;;;1,000000;0,842096;0,842096;0,629175;0,295841;0,295841;0,295841;0,629175;0,295841;0,295841;0,295841;0,629175;0,453297;0,379175;0,229175;0,229175;0,379175;0,295841;0,295841;0,379175;0,379175;0,379175;0,379175;0,229175;0,229175;0,229175;0,229175;0,229175;0,254175;0,332192;0,295841;0,295841;0,295841;0,629175;0,295841;0,295841;0,295841;0,295841;0,295841;0,629175;
34;;;;;;;;;;;;;;;;;;;;;;;;;;;;;;;;;;1,000000;0,800000;0,600000;0,266667;0,266667;0,266667;0,600000;0,266667;0,266667;0,266667;0,600000;0,424123;0,350000;0,200000;0,200000;0,350000;0,266667;0,266667;0,350000;0,350000;0,350000;0,350000;0,200000;0,200000;0,200000;0,200000;0,200000;0,225000;0,303017;0,266667;0,266667;0,266667;0,600000;0,266667;0,266667;0,266667;0,266667;0,266667;0,600000;
35;;;;;;;;;;;;;;;;;;;;;;;;;;;;;;;;;;;1,000000;0,600000;0,266667;0,266667;0,266667;0,600000;0,266667;0,266667;0,266667;0,600000;0,424123;0,350000;0,200000;0,200000;0,350000;0,266667;0,266667;0,350000;0,350000;0,350000;0,350000;0,200000;0,200000;0,200000;0,200000;0,200000;0,225000;0,303017;0,266667;0,266667;0,266667;0,600000;0,266667;0,266667;0,266667;0,266667;0,266667;0,600000;
36;;;;;;;;;;;;;;;;;;;;;;;;;;;;;;;;;;;;1,000000;0,666667;0,666667;0,666667;1,000000;0,666667;0,666667;0,666667;1,000000;0,824123;0,750000;0,600000;0,600000;0,750000;0,666667;0,666667;0,750000;0,750000;0,750000;0,750000;0,600000;0,600000;0,600000;0,600000;0,600000;0,625000;0,703017;0,666667;0,666667;0,666667;1,000000;0,666667;0,666667;0,666667;0,666667;0,666667;1,000000;
37;;;;;;;;;;;;;;;;;;;;;;;;;;;;;;;;;;;;;1,000000;0,666667;0,666667;0,666667;0,333333;0,333333;0,333333;0,666667;0,490789;0,416667;0,266667;0,266667;0,416667;0,333333;0,333333;0,416667;0,416667;0,416667;0,416667;0,266667;0,266667;0,266667;0,266667;0,266667;0,291667;0,369684;0,333333;0,333333;0,333333;0,666667;0,333333;0,333333;0,333333;0,333333;0,333333;0,666667;
38;;;;;;;;;;;;;;;;;;;;;;;;;;;;;;;;;;;;;;1,000000;0,666667;0,666667;0,333333;0,333333;0,333333;0,666667;0,490789;0,416667;0,266667;0,266667;0,416667;0,333333;0,333333;0,416667;0,416667;0,416667;0,416667;0,266667;0,266667;0,266667;0,266667;0,266667;0,291667;0,369684;0,333333;0,333333;0,333333;0,666667;0,333333;0,333333;0,333333;0,333333;0,333333;0,666667;
39;;;;;;;;;;;;;;;;;;;;;;;;;;;;;;;;;;;;;;;1,000000;0,666667;0,333333;0,333333;0,333333;0,666667;0,490789;0,416667;0,266667;0,266667;0,416667;0,333333;0,333333;0,416667;0,416667;0,416667;0,416667;0,266667;0,266667;0,266667;0,266667;0,266667;0,291667;0,369684;0,333333;0,333333;0,333333;0,666667;0,333333;0,333333;0,333333;0,333333;0,333333;0,666667;
40;;;;;;;;;;;;;;;;;;;;;;;;;;;;;;;;;;;;;;;;1,000000;0,666667;0,666667;0,666667;1,000000;0,824123;0,750000;0,600000;0,600000;0,750000;0,666667;0,666667;0,750000;0,750000;0,750000;0,750000;0,600000;0,600000;0,600000;0,600000;0,600000;0,625000;0,703017;0,666667;0,666667;0,666667;1,000000;0,666667;0,666667;0,666667;0,666667;0,666667;1,000000;
41;;;;;;;;;;;;;;;;;;;;;;;;;;;;;;;;;;;;;;;;;1,000000;0,666667;0,666667;0,666667;0,490789;0,416667;0,266667;0,266667;0,416667;0,333333;0,333333;0,416667;0,416667;0,416667;0,416667;0,266667;0,266667;0,266667;0,266667;0,266667;0,291667;0,369684;0,333333;0,333333;0,333333;0,666667;0,333333;0,333333;0,333333;0,333333;0,333333;0,666667;
42;;;;;;;;;;;;;;;;;;;;;;;;;;;;;;;;;;;;;;;;;;1,000000;0,666667;0,666667;0,490789;0,416667;0,266667;0,266667;0,416667;0,333333;0,333333;0,416667;0,416667;0,416667;0,416667;0,266667;0,266667;0,266667;0,266667;0,266667;0,291667;0,369684;0,333333;0,333333;0,333333;0,666667;0,333333;0,333333;0,333333;0,333333;0,333333;0,666667;
43;;;;;;;;;;;;;;;;;;;;;;;;;;;;;;;;;;;;;;;;;;;1,000000;0,666667;0,490789;0,416667;0,266667;0,266667;0,416667;0,333333;0,333333;0,416667;0,416667;0,416667;0,416667;0,266667;0,266667;0,266667;0,266667;0,266667;0,291667;0,369684;0,333333;0,333333;0,333333;0,666667;0,333333;0,333333;0,333333;0,333333;0,333333;0,666667;
44;;;;;;;;;;;;;;;;;;;;;;;;;;;;;;;;;;;;;;;;;;;;1,000000;0,824123;0,750000;0,600000;0,600000;0,750000;0,666667;0,666667;0,750000;0,750000;0,750000;0,750000;0,600000;0,600000;0,600000;0,600000;0,600000;0,625000;0,703017;0,666667;0,666667;0,666667;1,000000;0,666667;0,666667;0,666667;0,666667;0,666667;1,000000;
45;;;;;;;;;;;;;;;;;;;;;;;;;;;;;;;;;;;;;;;;;;;;;1,000000;0,574123;0,424123;0,424123;0,574123;0,490789;0,490789;0,574123;0,574123;0,574123;0,574123;0,424123;0,424123;0,424123;0,424123;0,424123;0,449123;0,663571;0,490789;0,490789;0,745025;0,824123;0,490789;0,490789;0,490789;0,490789;0,490789;0,824123;
46;;;;;;;;;;;;;;;;;;;;;;;;;;;;;;;;;;;;;;;;;;;;;;1,000000;0,350000;0,350000;0,500000;0,416667;0,416667;0,500000;0,500000;0,500000;0,500000;0,350000;0,350000;0,350000;0,350000;0,350000;0,375000;0,453017;0,416667;0,416667;0,416667;0,750000;0,416667;0,416667;0,416667;0,416667;0,416667;0,750000;
47;;;;;;;;;;;;;;;;;;;;;;;;;;;;;;;;;;;;;;;;;;;;;;;1,000000;0,800000;0,350000;0,266667;0,266667;0,350000;0,350000;0,350000;0,350000;0,200000;0,200000;0,200000;0,200000;0,200000;0,225000;0,303017;0,266667;0,266667;0,266667;0,600000;0,266667;0,266667;0,266667;0,266667;0,266667;0,600000;
48;;;;;;;;;;;;;;;;;;;;;;;;;;;;;;;;;;;;;;;;;;;;;;;;1,000000;0,350000;0,266667;0,266667;0,350000;0,350000;0,350000;0,350000;0,200000;0,200000;0,200000;0,200000;0,200000;0,225000;0,303017;0,266667;0,266667;0,266667;0,600000;0,266667;0,266667;0,266667;0,266667;0,266667;0,600000;
49;;;;;;;;;;;;;;;;;;;;;;;;;;;;;;;;;;;;;;;;;;;;;;;;;1,000000;0,416667;0,416667;0,500000;0,500000;0,500000;0,500000;0,350000;0,350000;0,350000;0,350000;0,350000;0,375000;0,906035;0,416667;0,416667;0,833333;0,750000;0,416667;0,416667;0,416667;0,416667;0,416667;0,750000;
50;;;;;;;;;;;;;;;;;;;;;;;;;;;;;;;;;;;;;;;;;;;;;;;;;;1,000000;0,666667;0,416667;0,416667;0,416667;0,416667;0,266667;0,266667;0,266667;0,266667;0,266667;0,291667;0,369684;0,333333;0,333333;0,333333;0,666667;0,333333;0,333333;0,333333;0,333333;0,333333;0,666667;
51;;;;;;;;;;;;;;;;;;;;;;;;;;;;;;;;;;;;;;;;;;;;;;;;;;;1,000000;0,416667;0,416667;0,416667;0,416667;0,266667;0,266667;0,266667;0,266667;0,266667;0,291667;0,369684;0,333333;0,333333;0,333333;0,666667;0,333333;0,333333;0,333333;0,333333;0,333333;0,666667;
52;;;;;;;;;;;;;;;;;;;;;;;;;;;;;;;;;;;;;;;;;;;;;;;;;;;;1,000000;0,500000;0,500000;0,500000;0,350000;0,350000;0,350000;0,350000;0,350000;0,375000;0,453017;0,416667;0,416667;0,416667;0,750000;0,416667;0,416667;0,416667;0,416667;0,416667;0,750000;
53;;;;;;;;;;;;;;;;;;;;;;;;;;;;;;;;;;;;;;;;;;;;;;;;;;;;;1,000000;0,500000;0,500000;0,350000;0,350000;0,350000;0,350000;0,350000;0,375000;0,453017;0,416667;0,416667;0,416667;0,750000;0,416667;0,416667;0,416667;0,416667;0,416667;0,750000;
54;;;;;;;;;;;;;;;;;;;;;;;;;;;;;;;;;;;;;;;;;;;;;;;;;;;;;;1,000000;0,500000;0,350000;0,350000;0,350000;0,350000;0,350000;0,375000;0,453017;0,416667;0,416667;0,416667;0,750000;0,416667;0,416667;0,416667;0,833333;0,833333;0,750000;
55;;;;;;;;;;;;;;;;;;;;;;;;;;;;;;;;;;;;;;;;;;;;;;;;;;;;;;;1,000000;0,350000;0,350000;0,350000;0,350000;0,350000;0,375000;0,453017;0,416667;0,416667;0,416667;0,750000;0,416667;0,416667;0,416667;0,416667;0,416667;0,750000;
56;;;;;;;;;;;;;;;;;;;;;;;;;;;;;;;;;;;;;;;;;;;;;;;;;;;;;;;;1,000000;0,800000;0,800000;0,800000;0,800000;0,225000;0,303017;0,266667;0,266667;0,266667;0,600000;0,266667;0,266667;0,266667;0,266667;0,266667;0,600000;
57;;;;;;;;;;;;;;;;;;;;;;;;;;;;;;;;;;;;;;;;;;;;;;;;;;;;;;;;;1,000000;0,800000;0,800000;0,800000;0,225000;0,303017;0,266667;0,266667;0,266667;0,600000;0,266667;0,266667;0,266667;0,266667;0,266667;0,600000;
58;;;;;;;;;;;;;;;;;;;;;;;;;;;;;;;;;;;;;;;;;;;;;;;;;;;;;;;;;;1,000000;0,800000;0,800000;0,225000;0,303017;0,266667;0,266667;0,266667;0,600000;0,266667;0,266667;0,266667;0,266667;0,266667;0,600000;
59;;;;;;;;;;;;;;;;;;;;;;;;;;;;;;;;;;;;;;;;;;;;;;;;;;;;;;;;;;;1,000000;0,800000;0,225000;0,303017;0,266667;0,266667;0,266667;0,600000;0,266667;0,266667;0,266667;0,266667;0,266667;0,600000;
60;;;;;;;;;;;;;;;;;;;;;;;;;;;;;;;;;;;;;;;;;;;;;;;;;;;;;;;;;;;;1,000000;0,225000;0,303017;0,266667;0,266667;0,266667;0,600000;0,266667;0,266667;0,266667;0,266667;0,266667;0,600000;
61;;;;;;;;;;;;;;;;;;;;;;;;;;;;;;;;;;;;;;;;;;;;;;;;;;;;;;;;;;;;;1,000000;0,328017;0,291667;0,291667;0,291667;0,625000;0,291667;0,291667;0,291667;0,291667;0,291667;0,625000;
62;;;;;;;;;;;;;;;;;;;;;;;;;;;;;;;;;;;;;;;;;;;;;;;;;;;;;;;;;;;;;;1,000000;0,369684;0,369684;0,739368;0,703017;0,369684;0,369684;0,369684;0,369684;0,369684;0,703017;
63;;;;;;;;;;;;;;;;;;;;;;;;;;;;;;;;;;;;;;;;;;;;;;;;;;;;;;;;;;;;;;;1,000000;0,666667;0,333333;0,666667;0,333333;0,333333;0,333333;0,333333;0,333333;0,666667;
64;;;;;;;;;;;;;;;;;;;;;;;;;;;;;;;;;;;;;;;;;;;;;;;;;;;;;;;;;;;;;;;;1,000000;0,333333;0,666667;0,333333;0,333333;0,333333;0,333333;0,333333;0,666667;
65;;;;;;;;;;;;;;;;;;;;;;;;;;;;;;;;;;;;;;;;;;;;;;;;;;;;;;;;;;;;;;;;;1,000000;0,666667;0,333333;0,333333;0,333333;0,333333;0,333333;0,666667;
66;;;;;;;;;;;;;;;;;;;;;;;;;;;;;;;;;;;;;;;;;;;;;;;;;;;;;;;;;;;;;;;;;;1,000000;0,666667;0,666667;0,666667;0,666667;0,666667;1,000000;
67;;;;;;;;;;;;;;;;;;;;;;;;;;;;;;;;;;;;;;;;;;;;;;;;;;;;;;;;;;;;;;;;;;;1,000000;0,666667;0,666667;0,333333;0,333333;0,666667;
68;;;;;;;;;;;;;;;;;;;;;;;;;;;;;;;;;;;;;;;;;;;;;;;;;;;;;;;;;;;;;;;;;;;;1,000000;0,666667;0,333333;0,333333;0,666667;
69;;;;;;;;;;;;;;;;;;;;;;;;;;;;;;;;;;;;;;;;;;;;;;;;;;;;;;;;;;;;;;;;;;;;;1,000000;0,333333;0,333333;0,666667;
70;;;;;;;;;;;;;;;;;;;;;;;;;;;;;;;;;;;;;;;;;;;;;;;;;;;;;;;;;;;;;;;;;;;;;;1,000000;0,666667;0,666667;
71;;;;;;;;;;;;;;;;;;;;;;;;;;;;;;;;;;;;;;;;;;;;;;;;;;;;;;;;;;;;;;;;;;;;;;;1,000000;0,666667;
72;;;;;;;;;;;;;;;;;;;;;;;;;;;;;;;;;;;;;;;;;;;;;;;;;;;;;;;;;;;;;;;;;;;;;;;;1,000000;
