;1; 2; 3; 4; 5; 6; 7; 8; 9; 10; 11; 12; 13; 14; 15; 16; 17; 18; 19; 20; 21; 22; 23; 24; 25; 26; 27; 28; 29; 30; 31; 32; 33; 34; 35; 36; 37; 38; 39; 40; 41; 42; 43; 44; 45; 46; 47; 48; 49; 50; 51; 52; 53; 54; 55; 56; 57; 58; 59; 60; 61; 62; 63; 64; 65; 66; 67; 68; 69; 70; 71
1;1,000000;0,000000;0,457165;0,364524;0,364524;0,186662;0,276082;0,443017;0,501654;0,443017;0,479837;0,000000;0,000000;0,000000;0,000000;0,000000;0,000000;0,000000;0,467487;0,000000;0,356057;0,394214;0,370605;0,370605;0,370605;0,370580;0,370580;0,370580;0,199660;0,452457;0,452457;0,452457;0,452457;0,000000;0,408751;0,440708;0,373894;0,390649;0,377554;0,272041;0,272041;0,440104;0,284736;0,261525;0,261525;0,416669;0,385072;0,000000;0,000000;0,000000;0,371121;0,379642;0,379642;0,422734;0,422734;0,422734;0,422734;0,368443;0,368443;0,385072;0,272701;0,272009;0,272009;0,371121;0,428961;0,428961;0,431626;0,431626;0,424934;0,424934;0,424934;
2;;1,000000;0,629175;0,666667;0,666667;0,833333;0,705757;0,625000;0,620603;0,625000;0,664373;0,000000;0,000000;0,000000;0,000000;0,000000;0,000000;0,000000;0,000000;0,000000;0,703017;0,720692;0,666667;0,666667;0,666667;0,666667;0,666667;0,666667;0,916667;0,600000;0,600000;0,600000;0,600000;1,000000;0,675000;0,621140;0,727867;0,666667;0,666667;0,750000;0,750000;0,670764;0,750000;0,621221;0,621221;0,698304;0,666667;0,000000;0,000000;0,000000;0,666667;0,666667;0,666667;0,625000;0,625000;0,625000;0,625000;0,666667;0,666667;0,666667;0,750000;0,750000;0,750000;0,666667;0,625000;0,625000;0,625000;0,625000;0,625000;0,625000;0,625000;
3;;;1,000000;0,544710;0,544710;0,462508;0,334932;0,254175;0,249777;0,254175;0,293548;0,000000;0,000000;0,000000;0,000000;0,000000;0,000000;0,000000;0,000000;0,000000;0,332192;0,349867;0,295841;0,295841;0,295841;0,295841;0,295841;0,295841;0,545841;0,717077;0,717077;0,717077;0,717077;0,629175;0,304175;0,250314;0,357041;0,295841;0,295841;0,379175;0,379175;0,299938;0,379175;0,250396;0,250396;0,327479;0,295841;0,000000;0,000000;0,000000;0,295841;0,295841;0,295841;0,254175;0,254175;0,254175;0,254175;0,295841;0,295841;0,295841;0,379175;0,379175;0,379175;0,295841;0,254175;0,254175;0,254175;0,254175;0,254175;0,254175;0,254175;
4;;;;1,000000;0,666667;0,500000;0,372424;0,291667;0,287269;0,291667;0,331040;0,000000;0,000000;0,000000;0,000000;0,000000;0,000000;0,000000;0,000000;0,000000;0,369684;0,387359;0,333333;0,333333;0,333333;0,333333;0,333333;0,333333;0,583333;0,533333;0,533333;0,533333;0,533333;0,666667;0,341667;0,287807;0,394533;0,333333;0,333333;0,416667;0,416667;0,337430;0,416667;0,287888;0,287888;0,364971;0,333333;0,000000;0,000000;0,000000;0,333333;0,333333;0,333333;0,291667;0,291667;0,291667;0,291667;0,333333;0,333333;0,333333;0,416667;0,416667;0,416667;0,333333;0,291667;0,291667;0,291667;0,291667;0,291667;0,291667;0,291667;
5;;;;;1,000000;0,500000;0,372424;0,291667;0,287269;0,291667;0,331040;0,000000;0,000000;0,000000;0,000000;0,000000;0,000000;0,000000;0,000000;0,000000;0,369684;0,387359;0,333333;0,333333;0,333333;0,333333;0,333333;0,333333;0,583333;0,533333;0,533333;0,533333;0,533333;0,666667;0,341667;0,287807;0,394533;0,333333;0,333333;0,416667;0,416667;0,337430;0,416667;0,287888;0,287888;0,364971;0,333333;0,000000;0,000000;0,000000;0,333333;0,333333;0,333333;0,291667;0,291667;0,291667;0,291667;0,333333;0,333333;0,333333;0,416667;0,416667;0,416667;0,333333;0,291667;0,291667;0,291667;0,291667;0,291667;0,291667;0,291667;
6;;;;;;1,000000;0,539091;0,458333;0,649928;0,458333;0,497707;0,000000;0,000000;0,000000;0,000000;0,000000;0,000000;0,000000;0,244254;0,000000;0,536351;0,554026;0,500000;0,500000;0,500000;0,500000;0,500000;0,500000;0,750000;0,433333;0,433333;0,433333;0,433333;0,833333;0,508333;0,661533;0,561200;0,500000;0,500000;0,583333;0,583333;0,504097;0,583333;0,454555;0,454555;0,531638;0,500000;0,000000;0,000000;0,000000;0,500000;0,500000;0,500000;0,458333;0,458333;0,458333;0,458333;0,500000;0,500000;0,500000;0,583333;0,583333;0,583333;0,500000;0,458333;0,458333;0,458333;0,458333;0,458333;0,458333;0,458333;
7;;;;;;;1,000000;0,515284;0,596915;0,515284;0,636238;0,000000;0,000000;0,000000;0,000000;0,197865;0,197865;0,197865;0,267539;0,197865;0,408775;0,426450;0,372424;0,372424;0,372424;0,372424;0,372424;0,372424;0,622424;0,305757;0,305757;0,305757;0,305757;0,705757;0,683664;0,641366;0,433624;0,372424;0,372424;0,455757;0,455757;0,525910;0,455757;0,495621;0,495621;0,404062;0,598617;0,000000;0,000000;0,000000;0,372424;0,372424;0,372424;0,330757;0,330757;0,330757;0,330757;0,372424;0,372424;0,598617;0,758237;0,455757;0,455757;0,372424;0,330757;0,330757;0,727433;0,727433;0,330757;0,330757;0,330757;
8;;;;;;;;1,000000;0,582881;0,750000;0,631485;0,000000;0,000000;0,000000;0,000000;0,000000;0,000000;0,000000;0,196466;0,000000;0,656035;0,542875;0,291667;0,291667;0,291667;0,291667;0,291667;0,291667;0,541667;0,225000;0,225000;0,225000;0,225000;0,625000;0,797805;0,677727;0,352867;0,291667;0,291667;0,375000;0,375000;0,510626;0,375000;0,246221;0,246221;0,323304;0,583333;0,000000;0,000000;0,000000;0,291667;0,291667;0,291667;0,250000;0,250000;0,250000;0,250000;0,291667;0,291667;0,583333;0,375000;0,375000;0,375000;0,291667;0,250000;0,250000;0,500000;0,500000;0,500000;0,500000;0,500000;
9;;;;;;;;;1,000000;0,582881;0,573071;0,000000;0,000000;0,000000;0,000000;0,164138;0,164138;0,164138;0,281990;0,164138;0,590915;0,477755;0,287269;0,287269;0,287269;0,287269;0,287269;0,287269;0,537269;0,220603;0,220603;0,220603;0,220603;0,620603;0,689492;0,642126;0,466937;0,287269;0,287269;0,370603;0,370603;0,432666;0,370603;0,400579;0,400579;0,425039;0,503468;0,000000;0,000000;0,000000;0,287269;0,287269;0,287269;0,245603;0,245603;0,245603;0,245603;0,287269;0,287269;0,503468;0,707515;0,370603;0,370603;0,287269;0,420134;0,420134;0,603514;0,603514;0,434880;0,434880;0,434880;
10;;;;;;;;;;1,000000;0,631485;0,000000;0,000000;0,000000;0,000000;0,000000;0,000000;0,000000;0,196466;0,000000;0,656035;0,542875;0,291667;0,291667;0,291667;0,291667;0,291667;0,291667;0,541667;0,225000;0,225000;0,225000;0,225000;0,625000;0,797805;0,677727;0,352867;0,291667;0,291667;0,375000;0,375000;0,510626;0,375000;0,246221;0,246221;0,323304;0,583333;0,000000;0,000000;0,000000;0,291667;0,291667;0,291667;0,250000;0,250000;0,250000;0,250000;0,291667;0,291667;0,583333;0,375000;0,375000;0,375000;0,291667;0,250000;0,250000;0,500000;0,500000;0,500000;0,500000;0,500000;
11;;;;;;;;;;;1,000000;0,000000;0,000000;0,000000;0,000000;0,000000;0,000000;0,000000;0,278325;0,000000;0,491358;0,516645;0,331040;0,331040;0,331040;0,331040;0,331040;0,331040;0,581040;0,264373;0,264373;0,264373;0,264373;0,664373;0,615036;0,556205;0,392240;0,331040;0,331040;0,414373;0,414373;0,492805;0,414373;0,285595;0,285595;0,362678;0,565512;0,000000;0,000000;0,000000;0,331040;0,331040;0,331040;0,289373;0,289373;0,289373;0,289373;0,524677;0,524677;0,565512;0,712239;0,414373;0,414373;0,331040;0,289373;0,289373;0,658805;0,658805;0,588723;0,588723;0,588723;
12;;;;;;;;;;;;1,000000;0,666667;0,666667;0,666667;0,000000;0,000000;0,000000;0,000000;0,000000;0,000000;0,000000;0,000000;0,000000;0,000000;0,000000;0,000000;0,000000;0,000000;0,000000;0,000000;0,000000;0,000000;0,000000;0,000000;0,000000;0,000000;0,000000;0,000000;0,000000;0,000000;0,000000;0,000000;0,000000;0,000000;0,000000;0,000000;0,000000;0,000000;0,000000;0,000000;0,000000;0,000000;0,000000;0,000000;0,000000;0,000000;0,000000;0,000000;0,000000;0,000000;0,000000;0,000000;0,000000;0,000000;0,000000;0,000000;0,000000;0,000000;0,000000;0,000000;
13;;;;;;;;;;;;;1,000000;0,666667;0,666667;0,000000;0,000000;0,000000;0,000000;0,000000;0,000000;0,000000;0,000000;0,000000;0,000000;0,000000;0,000000;0,000000;0,000000;0,000000;0,000000;0,000000;0,000000;0,000000;0,000000;0,000000;0,000000;0,000000;0,000000;0,000000;0,000000;0,000000;0,000000;0,000000;0,000000;0,000000;0,000000;0,000000;0,000000;0,000000;0,000000;0,000000;0,000000;0,000000;0,000000;0,000000;0,000000;0,000000;0,000000;0,000000;0,000000;0,000000;0,000000;0,000000;0,000000;0,000000;0,000000;0,000000;0,000000;0,000000;0,000000;
14;;;;;;;;;;;;;;1,000000;0,666667;0,000000;0,000000;0,000000;0,000000;0,000000;0,000000;0,000000;0,000000;0,000000;0,000000;0,000000;0,000000;0,000000;0,000000;0,000000;0,000000;0,000000;0,000000;0,000000;0,000000;0,000000;0,000000;0,000000;0,000000;0,000000;0,000000;0,000000;0,000000;0,000000;0,000000;0,000000;0,000000;0,000000;0,000000;0,000000;0,000000;0,000000;0,000000;0,000000;0,000000;0,000000;0,000000;0,000000;0,000000;0,000000;0,000000;0,000000;0,000000;0,000000;0,000000;0,000000;0,000000;0,000000;0,000000;0,000000;0,000000;
15;;;;;;;;;;;;;;;1,000000;0,000000;0,000000;0,000000;0,000000;0,000000;0,000000;0,000000;0,000000;0,000000;0,000000;0,000000;0,000000;0,000000;0,000000;0,000000;0,000000;0,000000;0,000000;0,000000;0,000000;0,000000;0,000000;0,000000;0,000000;0,000000;0,000000;0,000000;0,000000;0,000000;0,000000;0,000000;0,000000;0,000000;0,000000;0,000000;0,000000;0,000000;0,000000;0,000000;0,000000;0,000000;0,000000;0,000000;0,000000;0,000000;0,000000;0,000000;0,000000;0,000000;0,000000;0,000000;0,000000;0,000000;0,000000;0,000000;0,000000;
16;;;;;;;;;;;;;;;;1,000000;0,750000;0,750000;0,669032;0,750000;0,000000;0,000000;0,000000;0,000000;0,000000;0,000000;0,000000;0,000000;0,000000;0,000000;0,000000;0,000000;0,000000;0,000000;0,000000;0,181904;0,000000;0,000000;0,000000;0,000000;0,000000;0,000000;0,000000;0,298899;0,298899;0,000000;0,000000;0,000000;0,000000;0,000000;0,000000;0,000000;0,000000;0,000000;0,000000;0,000000;0,000000;0,000000;0,000000;0,000000;0,000000;0,000000;0,000000;0,000000;0,000000;0,000000;0,000000;0,000000;0,000000;0,000000;0,000000;
17;;;;;;;;;;;;;;;;;1,000000;0,750000;0,669032;0,750000;0,000000;0,000000;0,000000;0,000000;0,000000;0,000000;0,000000;0,000000;0,000000;0,000000;0,000000;0,000000;0,000000;0,000000;0,000000;0,181904;0,000000;0,000000;0,000000;0,000000;0,000000;0,000000;0,000000;0,298899;0,298899;0,000000;0,000000;0,000000;0,000000;0,000000;0,000000;0,000000;0,000000;0,000000;0,000000;0,000000;0,000000;0,000000;0,000000;0,000000;0,000000;0,000000;0,000000;0,000000;0,000000;0,000000;0,000000;0,000000;0,000000;0,000000;0,000000;
18;;;;;;;;;;;;;;;;;;1,000000;0,669032;0,750000;0,000000;0,000000;0,000000;0,000000;0,000000;0,000000;0,000000;0,000000;0,000000;0,000000;0,000000;0,000000;0,000000;0,000000;0,000000;0,181904;0,000000;0,000000;0,000000;0,000000;0,000000;0,000000;0,000000;0,298899;0,298899;0,000000;0,000000;0,000000;0,000000;0,000000;0,000000;0,000000;0,000000;0,000000;0,000000;0,000000;0,000000;0,000000;0,000000;0,000000;0,000000;0,000000;0,000000;0,000000;0,000000;0,000000;0,000000;0,000000;0,000000;0,000000;0,000000;
19;;;;;;;;;;;;;;;;;;;1,000000;0,669032;0,000000;0,000000;0,000000;0,000000;0,000000;0,000000;0,000000;0,000000;0,000000;0,000000;0,000000;0,000000;0,000000;0,000000;0,316679;0,318547;0,000000;0,000000;0,000000;0,000000;0,000000;0,175713;0,000000;0,370063;0,370063;0,000000;0,238132;0,000000;0,000000;0,000000;0,000000;0,000000;0,000000;0,000000;0,000000;0,000000;0,000000;0,000000;0,000000;0,238132;0,327079;0,000000;0,000000;0,000000;0,000000;0,000000;0,397865;0,397865;0,000000;0,000000;0,000000;
20;;;;;;;;;;;;;;;;;;;;1,000000;0,000000;0,000000;0,000000;0,000000;0,000000;0,000000;0,000000;0,000000;0,000000;0,000000;0,000000;0,000000;0,000000;0,000000;0,000000;0,181904;0,000000;0,000000;0,000000;0,000000;0,000000;0,000000;0,000000;0,298899;0,298899;0,000000;0,000000;0,000000;0,000000;0,000000;0,000000;0,000000;0,000000;0,000000;0,000000;0,000000;0,000000;0,000000;0,000000;0,000000;0,000000;0,000000;0,000000;0,000000;0,000000;0,000000;0,000000;0,000000;0,000000;0,000000;0,000000;
21;;;;;;;;;;;;;;;;;;;;;1,000000;0,698909;0,369684;0,369684;0,369684;0,369684;0,369684;0,369684;0,619684;0,303017;0,303017;0,303017;0,303017;0,703017;0,756035;0,591044;0,430884;0,369684;0,369684;0,453017;0,453017;0,373781;0,453017;0,324239;0,324239;0,401322;0,369684;0,000000;0,000000;0,000000;0,369684;0,369684;0,369684;0,328017;0,328017;0,328017;0,328017;0,633347;0,633347;0,369684;0,453017;0,453017;0,453017;0,369684;0,328017;0,328017;0,328017;0,328017;0,656035;0,656035;0,656035;
22;;;;;;;;;;;;;;;;;;;;;;1,000000;0,387359;0,387359;0,387359;0,387359;0,387359;0,387359;0,637359;0,320692;0,320692;0,320692;0,320692;0,720692;0,642875;0,477884;0,448559;0,387359;0,387359;0,470692;0,470692;0,391456;0,470692;0,341913;0,341913;0,418997;0,387359;0,000000;0,000000;0,000000;0,387359;0,387359;0,387359;0,345692;0,345692;0,345692;0,345692;0,626756;0,626756;0,387359;0,470692;0,470692;0,470692;0,387359;0,345692;0,345692;0,345692;0,345692;0,542875;0,542875;0,542875;
23;;;;;;;;;;;;;;;;;;;;;;;1,000000;0,666667;0,666667;0,333333;0,333333;0,333333;0,583333;0,266667;0,266667;0,266667;0,266667;0,666667;0,341667;0,287807;0,394533;0,333333;0,333333;0,416667;0,416667;0,337430;0,416667;0,287888;0,287888;0,364971;0,333333;0,000000;0,000000;0,000000;0,333333;0,333333;0,333333;0,291667;0,291667;0,291667;0,291667;0,333333;0,333333;0,333333;0,416667;0,416667;0,416667;0,333333;0,291667;0,291667;0,291667;0,291667;0,291667;0,291667;0,291667;
24;;;;;;;;;;;;;;;;;;;;;;;;1,000000;0,666667;0,333333;0,333333;0,333333;0,583333;0,266667;0,266667;0,266667;0,266667;0,666667;0,341667;0,287807;0,394533;0,333333;0,333333;0,416667;0,416667;0,337430;0,416667;0,287888;0,287888;0,364971;0,333333;0,000000;0,000000;0,000000;0,333333;0,333333;0,333333;0,291667;0,291667;0,291667;0,291667;0,333333;0,333333;0,333333;0,416667;0,416667;0,416667;0,333333;0,291667;0,291667;0,291667;0,291667;0,291667;0,291667;0,291667;
25;;;;;;;;;;;;;;;;;;;;;;;;;1,000000;0,333333;0,333333;0,333333;0,583333;0,266667;0,266667;0,266667;0,266667;0,666667;0,341667;0,287807;0,394533;0,333333;0,333333;0,416667;0,416667;0,337430;0,416667;0,287888;0,287888;0,364971;0,333333;0,000000;0,000000;0,000000;0,333333;0,333333;0,333333;0,291667;0,291667;0,291667;0,291667;0,333333;0,333333;0,333333;0,416667;0,416667;0,416667;0,333333;0,291667;0,291667;0,291667;0,291667;0,291667;0,291667;0,291667;
26;;;;;;;;;;;;;;;;;;;;;;;;;;1,000000;0,666667;0,666667;0,583333;0,266667;0,266667;0,266667;0,266667;0,666667;0,341667;0,287807;0,394533;0,333333;0,333333;0,416667;0,416667;0,337430;0,416667;0,287888;0,287888;0,364971;0,333333;0,000000;0,000000;0,000000;0,333333;0,333333;0,333333;0,291667;0,291667;0,291667;0,291667;0,333333;0,333333;0,333333;0,416667;0,416667;0,416667;0,333333;0,291667;0,291667;0,291667;0,291667;0,291667;0,291667;0,291667;
27;;;;;;;;;;;;;;;;;;;;;;;;;;;1,000000;0,666667;0,583333;0,266667;0,266667;0,266667;0,266667;0,666667;0,341667;0,287807;0,394533;0,333333;0,333333;0,416667;0,416667;0,337430;0,416667;0,287888;0,287888;0,364971;0,333333;0,000000;0,000000;0,000000;0,333333;0,333333;0,333333;0,291667;0,291667;0,291667;0,291667;0,333333;0,333333;0,333333;0,416667;0,416667;0,416667;0,333333;0,291667;0,291667;0,291667;0,291667;0,291667;0,291667;0,291667;
28;;;;;;;;;;;;;;;;;;;;;;;;;;;;1,000000;0,583333;0,266667;0,266667;0,266667;0,266667;0,666667;0,341667;0,287807;0,394533;0,333333;0,333333;0,416667;0,416667;0,337430;0,416667;0,287888;0,287888;0,364971;0,333333;0,000000;0,000000;0,000000;0,333333;0,333333;0,333333;0,291667;0,291667;0,291667;0,291667;0,333333;0,333333;0,333333;0,416667;0,416667;0,416667;0,333333;0,291667;0,291667;0,291667;0,291667;0,291667;0,291667;0,291667;
29;;;;;;;;;;;;;;;;;;;;;;;;;;;;;1,000000;0,516667;0,516667;0,516667;0,516667;0,916667;0,591667;0,537807;0,644533;0,583333;0,583333;0,666667;0,666667;0,587430;0,666667;0,537888;0,537888;0,614971;0,583333;0,000000;0,000000;0,000000;0,583333;0,583333;0,583333;0,541667;0,541667;0,541667;0,541667;0,583333;0,583333;0,583333;0,666667;0,666667;0,666667;0,583333;0,541667;0,541667;0,541667;0,541667;0,541667;0,541667;0,541667;
30;;;;;;;;;;;;;;;;;;;;;;;;;;;;;;1,000000;0,800000;0,800000;0,800000;0,600000;0,275000;0,221140;0,327867;0,266667;0,266667;0,350000;0,350000;0,270764;0,350000;0,221221;0,221221;0,298304;0,266667;0,000000;0,000000;0,000000;0,266667;0,266667;0,266667;0,225000;0,225000;0,225000;0,225000;0,266667;0,266667;0,266667;0,350000;0,350000;0,350000;0,266667;0,225000;0,225000;0,225000;0,225000;0,225000;0,225000;0,225000;
31;;;;;;;;;;;;;;;;;;;;;;;;;;;;;;;1,000000;0,800000;0,800000;0,600000;0,275000;0,221140;0,327867;0,266667;0,266667;0,350000;0,350000;0,270764;0,350000;0,221221;0,221221;0,298304;0,266667;0,000000;0,000000;0,000000;0,266667;0,266667;0,266667;0,225000;0,225000;0,225000;0,225000;0,266667;0,266667;0,266667;0,350000;0,350000;0,350000;0,266667;0,225000;0,225000;0,225000;0,225000;0,225000;0,225000;0,225000;
32;;;;;;;;;;;;;;;;;;;;;;;;;;;;;;;;1,000000;0,800000;0,600000;0,275000;0,221140;0,327867;0,266667;0,266667;0,350000;0,350000;0,270764;0,350000;0,221221;0,221221;0,298304;0,266667;0,000000;0,000000;0,000000;0,266667;0,266667;0,266667;0,225000;0,225000;0,225000;0,225000;0,266667;0,266667;0,266667;0,350000;0,350000;0,350000;0,266667;0,225000;0,225000;0,225000;0,225000;0,225000;0,225000;0,225000;
33;;;;;;;;;;;;;;;;;;;;;;;;;;;;;;;;;1,000000;0,600000;0,275000;0,221140;0,327867;0,266667;0,266667;0,350000;0,350000;0,270764;0,350000;0,221221;0,221221;0,298304;0,266667;0,000000;0,000000;0,000000;0,266667;0,266667;0,266667;0,225000;0,225000;0,225000;0,225000;0,266667;0,266667;0,266667;0,350000;0,350000;0,350000;0,266667;0,225000;0,225000;0,225000;0,225000;0,225000;0,225000;0,225000;
34;;;;;;;;;;;;;;;;;;;;;;;;;;;;;;;;;;1,000000;0,675000;0,621140;0,727867;0,666667;0,666667;0,750000;0,750000;0,670764;0,750000;0,621221;0,621221;0,698304;0,666667;0,000000;0,000000;0,000000;0,666667;0,666667;0,666667;0,625000;0,625000;0,625000;0,625000;0,666667;0,666667;0,666667;0,750000;0,750000;0,750000;0,666667;0,625000;0,625000;0,625000;0,625000;0,625000;0,625000;0,625000;
35;;;;;;;;;;;;;;;;;;;;;;;;;;;;;;;;;;;1,000000;0,725532;0,402867;0,341667;0,341667;0,425000;0,425000;0,510626;0,425000;0,296221;0,296221;0,373304;0,583333;0,000000;0,000000;0,000000;0,341667;0,341667;0,341667;0,300000;0,300000;0,300000;0,300000;0,341667;0,341667;0,583333;0,750000;0,425000;0,425000;0,341667;0,300000;0,300000;0,706231;0,706231;0,600000;0,600000;0,600000;
36;;;;;;;;;;;;;;;;;;;;;;;;;;;;;;;;;;;;1,000000;0,349007;0,287807;0,287807;0,371140;0,371140;0,502892;0,371140;0,411805;0,411805;0,319444;0,575600;0,000000;0,000000;0,000000;0,287807;0,287807;0,287807;0,246140;0,246140;0,246140;0,246140;0,287807;0,287807;0,575600;0,371140;0,371140;0,371140;0,287807;0,246140;0,246140;0,645941;0,645941;0,435010;0,435010;0,435010;
37;;;;;;;;;;;;;;;;;;;;;;;;;;;;;;;;;;;;;1,000000;0,666667;0,666667;0,477867;0,477867;0,492724;0,477867;0,349088;0,349088;0,709380;0,630136;0,000000;0,000000;0,000000;0,394533;0,394533;0,394533;0,352867;0,352867;0,352867;0,352867;0,394533;0,394533;0,630136;0,477867;0,477867;0,477867;0,394533;0,721933;0,721933;0,352867;0,352867;0,352867;0,352867;0,352867;
38;;;;;;;;;;;;;;;;;;;;;;;;;;;;;;;;;;;;;;1,000000;0,666667;0,416667;0,416667;0,683929;0,416667;0,287888;0,287888;0,601068;0,333333;0,000000;0,000000;0,000000;0,333333;0,333333;0,333333;0,291667;0,291667;0,291667;0,291667;0,333333;0,333333;0,333333;0,416667;0,416667;0,416667;0,333333;0,506222;0,506222;0,291667;0,291667;0,291667;0,291667;0,291667;
39;;;;;;;;;;;;;;;;;;;;;;;;;;;;;;;;;;;;;;;1,000000;0,416667;0,416667;0,561573;0,416667;0,287888;0,287888;0,845774;0,333333;0,000000;0,000000;0,000000;0,333333;0,333333;0,333333;0,291667;0,291667;0,291667;0,291667;0,333333;0,333333;0,333333;0,416667;0,416667;0,416667;0,333333;0,291667;0,291667;0,291667;0,291667;0,291667;0,291667;0,291667;
40;;;;;;;;;;;;;;;;;;;;;;;;;;;;;;;;;;;;;;;;1,000000;0,500000;0,420764;0,500000;0,371221;0,371221;0,448304;0,416667;0,000000;0,000000;0,000000;0,416667;0,416667;0,416667;0,375000;0,375000;0,375000;0,375000;0,416667;0,416667;0,416667;0,500000;0,500000;0,500000;0,416667;0,375000;0,375000;0,375000;0,375000;0,375000;0,375000;0,375000;
41;;;;;;;;;;;;;;;;;;;;;;;;;;;;;;;;;;;;;;;;;1,000000;0,420764;0,500000;0,371221;0,371221;0,448304;0,416667;0,000000;0,000000;0,000000;0,416667;0,416667;0,416667;0,375000;0,375000;0,375000;0,375000;0,416667;0,416667;0,416667;0,500000;0,500000;0,500000;0,416667;0,375000;0,375000;0,375000;0,375000;0,375000;0,375000;0,375000;
42;;;;;;;;;;;;;;;;;;;;;;;;;;;;;;;;;;;;;;;;;;1,000000;0,420764;0,291985;0,291985;0,680871;0,593959;0,000000;0,000000;0,000000;0,337430;0,337430;0,337430;0,295764;0,295764;0,295764;0,295764;0,337430;0,337430;0,593959;0,420764;0,420764;0,420764;0,337430;0,629741;0,629741;0,510626;0,510626;0,295764;0,295764;0,295764;
43;;;;;;;;;;;;;;;;;;;;;;;;;;;;;;;;;;;;;;;;;;;1,000000;0,371221;0,371221;0,448304;0,416667;0,000000;0,000000;0,000000;0,416667;0,416667;0,416667;0,375000;0,375000;0,375000;0,375000;0,416667;0,416667;0,416667;0,500000;0,500000;0,500000;0,416667;0,375000;0,375000;0,375000;0,375000;0,375000;0,375000;0,375000;
44;;;;;;;;;;;;;;;;;;;;;;;;;;;;;;;;;;;;;;;;;;;;1,000000;0,500000;0,319526;0,287888;0,000000;0,000000;0,000000;0,287888;0,287888;0,287888;0,246221;0,246221;0,246221;0,246221;0,287888;0,287888;0,287888;0,371221;0,371221;0,371221;0,287888;0,246221;0,246221;0,246221;0,246221;0,246221;0,246221;0,246221;
45;;;;;;;;;;;;;;;;;;;;;;;;;;;;;;;;;;;;;;;;;;;;;1,000000;0,319526;0,287888;0,000000;0,000000;0,000000;0,287888;0,287888;0,287888;0,246221;0,246221;0,246221;0,246221;0,287888;0,287888;0,287888;0,371221;0,371221;0,371221;0,287888;0,246221;0,246221;0,246221;0,246221;0,246221;0,246221;0,246221;
46;;;;;;;;;;;;;;;;;;;;;;;;;;;;;;;;;;;;;;;;;;;;;;1,000000;0,588238;0,000000;0,000000;0,000000;0,364971;0,364971;0,364971;0,323304;0,323304;0,323304;0,323304;0,364971;0,364971;0,588238;0,448304;0,448304;0,448304;0,364971;0,694335;0,694335;0,323304;0,323304;0,323304;0,323304;0,323304;
47;;;;;;;;;;;;;;;;;;;;;;;;;;;;;;;;;;;;;;;;;;;;;;;1,000000;0,000000;0,000000;0,000000;0,333333;0,333333;0,333333;0,291667;0,291667;0,291667;0,291667;0,333333;0,333333;1,000000;0,416667;0,416667;0,416667;0,333333;0,583333;0,583333;0,583333;0,583333;0,291667;0,291667;0,291667;
48;;;;;;;;;;;;;;;;;;;;;;;;;;;;;;;;;;;;;;;;;;;;;;;;1,000000;0,500000;0,500000;0,000000;0,000000;0,000000;0,000000;0,000000;0,000000;0,000000;0,000000;0,000000;0,000000;0,000000;0,000000;0,000000;0,000000;0,000000;0,000000;0,000000;0,000000;0,000000;0,000000;0,000000;
49;;;;;;;;;;;;;;;;;;;;;;;;;;;;;;;;;;;;;;;;;;;;;;;;;1,000000;0,500000;0,000000;0,000000;0,000000;0,000000;0,000000;0,000000;0,000000;0,000000;0,000000;0,000000;0,000000;0,000000;0,000000;0,000000;0,000000;0,000000;0,000000;0,000000;0,000000;0,000000;0,000000;
50;;;;;;;;;;;;;;;;;;;;;;;;;;;;;;;;;;;;;;;;;;;;;;;;;;1,000000;0,000000;0,000000;0,000000;0,000000;0,000000;0,000000;0,000000;0,000000;0,000000;0,000000;0,000000;0,000000;0,000000;0,000000;0,000000;0,000000;0,000000;0,000000;0,000000;0,000000;0,000000;
51;;;;;;;;;;;;;;;;;;;;;;;;;;;;;;;;;;;;;;;;;;;;;;;;;;;1,000000;0,666667;0,666667;0,291667;0,291667;0,291667;0,291667;0,333333;0,333333;0,333333;0,416667;0,416667;0,416667;1,000000;0,291667;0,291667;0,291667;0,291667;0,291667;0,291667;0,291667;
52;;;;;;;;;;;;;;;;;;;;;;;;;;;;;;;;;;;;;;;;;;;;;;;;;;;;1,000000;0,666667;0,291667;0,291667;0,291667;0,291667;0,333333;0,333333;0,333333;0,416667;0,416667;0,416667;0,666667;0,291667;0,291667;0,291667;0,291667;0,291667;0,291667;0,291667;
53;;;;;;;;;;;;;;;;;;;;;;;;;;;;;;;;;;;;;;;;;;;;;;;;;;;;;1,000000;0,291667;0,291667;0,291667;0,291667;0,333333;0,333333;0,333333;0,416667;0,416667;0,416667;0,666667;0,291667;0,291667;0,291667;0,291667;0,291667;0,291667;0,291667;
54;;;;;;;;;;;;;;;;;;;;;;;;;;;;;;;;;;;;;;;;;;;;;;;;;;;;;;1,000000;0,750000;0,750000;0,750000;0,291667;0,291667;0,291667;0,375000;0,375000;0,375000;0,291667;0,250000;0,250000;0,250000;0,250000;0,250000;0,250000;0,250000;
55;;;;;;;;;;;;;;;;;;;;;;;;;;;;;;;;;;;;;;;;;;;;;;;;;;;;;;;1,000000;0,750000;0,750000;0,291667;0,291667;0,291667;0,375000;0,375000;0,375000;0,291667;0,250000;0,250000;0,250000;0,250000;0,250000;0,250000;0,250000;
56;;;;;;;;;;;;;;;;;;;;;;;;;;;;;;;;;;;;;;;;;;;;;;;;;;;;;;;;1,000000;0,750000;0,291667;0,291667;0,291667;0,375000;0,375000;0,375000;0,291667;0,250000;0,250000;0,250000;0,250000;0,250000;0,250000;0,250000;
57;;;;;;;;;;;;;;;;;;;;;;;;;;;;;;;;;;;;;;;;;;;;;;;;;;;;;;;;;1,000000;0,291667;0,291667;0,291667;0,375000;0,375000;0,375000;0,291667;0,250000;0,250000;0,250000;0,250000;0,250000;0,250000;0,250000;
58;;;;;;;;;;;;;;;;;;;;;;;;;;;;;;;;;;;;;;;;;;;;;;;;;;;;;;;;;;1,000000;0,666667;0,333333;0,416667;0,416667;0,416667;0,333333;0,291667;0,291667;0,291667;0,291667;0,291667;0,291667;0,291667;
59;;;;;;;;;;;;;;;;;;;;;;;;;;;;;;;;;;;;;;;;;;;;;;;;;;;;;;;;;;;1,000000;0,333333;0,416667;0,416667;0,416667;0,333333;0,291667;0,291667;0,291667;0,291667;0,291667;0,291667;0,291667;
60;;;;;;;;;;;;;;;;;;;;;;;;;;;;;;;;;;;;;;;;;;;;;;;;;;;;;;;;;;;;1,000000;0,416667;0,416667;0,416667;0,333333;0,583333;0,583333;0,583333;0,583333;0,291667;0,291667;0,291667;
61;;;;;;;;;;;;;;;;;;;;;;;;;;;;;;;;;;;;;;;;;;;;;;;;;;;;;;;;;;;;;1,000000;0,500000;0,500000;0,416667;0,375000;0,375000;0,750000;0,750000;0,375000;0,375000;0,375000;
62;;;;;;;;;;;;;;;;;;;;;;;;;;;;;;;;;;;;;;;;;;;;;;;;;;;;;;;;;;;;;;1,000000;0,500000;0,416667;0,375000;0,375000;0,375000;0,375000;0,375000;0,375000;0,375000;
63;;;;;;;;;;;;;;;;;;;;;;;;;;;;;;;;;;;;;;;;;;;;;;;;;;;;;;;;;;;;;;;1,000000;0,416667;0,375000;0,375000;0,375000;0,375000;0,375000;0,375000;0,375000;
64;;;;;;;;;;;;;;;;;;;;;;;;;;;;;;;;;;;;;;;;;;;;;;;;;;;;;;;;;;;;;;;;1,000000;0,291667;0,291667;0,291667;0,291667;0,291667;0,291667;0,291667;
65;;;;;;;;;;;;;;;;;;;;;;;;;;;;;;;;;;;;;;;;;;;;;;;;;;;;;;;;;;;;;;;;;1,000000;0,750000;0,250000;0,250000;0,250000;0,250000;0,250000;
66;;;;;;;;;;;;;;;;;;;;;;;;;;;;;;;;;;;;;;;;;;;;;;;;;;;;;;;;;;;;;;;;;;1,000000;0,250000;0,250000;0,250000;0,250000;0,250000;
67;;;;;;;;;;;;;;;;;;;;;;;;;;;;;;;;;;;;;;;;;;;;;;;;;;;;;;;;;;;;;;;;;;;1,000000;0,750000;0,250000;0,250000;0,250000;
68;;;;;;;;;;;;;;;;;;;;;;;;;;;;;;;;;;;;;;;;;;;;;;;;;;;;;;;;;;;;;;;;;;;;1,000000;0,250000;0,250000;0,250000;
69;;;;;;;;;;;;;;;;;;;;;;;;;;;;;;;;;;;;;;;;;;;;;;;;;;;;;;;;;;;;;;;;;;;;;1,000000;0,750000;0,750000;
70;;;;;;;;;;;;;;;;;;;;;;;;;;;;;;;;;;;;;;;;;;;;;;;;;;;;;;;;;;;;;;;;;;;;;;1,000000;0,750000;
71;;;;;;;;;;;;;;;;;;;;;;;;;;;;;;;;;;;;;;;;;;;;;;;;;;;;;;;;;;;;;;;;;;;;;;;1,000000;
