;1; 2; 3; 4; 5; 6; 7; 8; 9; 10; 11; 12; 13; 14; 15; 16; 17; 18; 19; 20; 21; 22; 23; 24; 25; 26; 27; 28; 29; 30; 31; 32; 33; 34; 35; 36; 37; 38; 39; 40; 41; 42; 43; 44; 45; 46; 47; 48; 49; 50; 51; 52; 53; 54; 55; 56; 57; 58
1;1,000000;0,248435;0,276696;0,441867;0,409781;0,420696;0,564089;0,407089;0,178806;0,259085;0,181256;0,407934;0,410523;0,412834;0,414916;0,408182;0,398194;0,321109;0,396129;0,277267;0,210715;0,211073;0,211445;0,411546;0,413040;0,356315;0,357456;0,417927;0,428902;0,419458;0,420170;0,366316;0,367196;0,368039;0,391144;0,243011;0,000000;0,000000;0,000000;0,000000;0,000000;0,000000;0,255596;0,414367;0,414892;0,345066;0,430352;0,430744;0,440079;0,431497;0,428699;0,429020;0,429332;0,426500;0,426837;0,389765;0,372131;0,372561;
2;;1,000000;0,387432;0,655939;0,587458;0,609782;0,347559;0,591955;0,167931;0,215268;0,169769;0,136298;0,136745;0,137193;0,137638;0,176128;0,526225;0,192290;0,184295;0,124730;0,000000;0,000000;0,000000;0,538821;0,540248;0,278053;0,278053;0,169183;0,184017;0,169611;0,169826;0,207212;0,207386;0,207565;0,183594;0,277472;0,000000;0,000000;0,000000;0,000000;0,000000;0,000000;0,604005;0,172470;0,172682;0,238345;0,165211;0,165348;0,156067;0,165621;0,176422;0,176591;0,176759;0,175912;0,176087;0,216322;0,216430;0,216658;
3;;;1,000000;0,672289;0,603183;0,622047;0,367719;0,604179;0,168528;0,218522;0,170366;0,139533;0,139980;0,140428;0,140874;0,179363;0,537172;0,195525;0,187530;0,127966;0,000000;0,000000;0,000000;0,549039;0,550397;0,281288;0,281288;0,172419;0,187253;0,172846;0,173061;0,210447;0,210622;0,210801;0,186829;0,280708;0,000000;0,000000;0,000000;0,000000;0,000000;0,000000;0,607127;0,175705;0,175917;0,241580;0,168446;0,168583;0,159302;0,168856;0,179657;0,179826;0,179994;0,179148;0,179322;0,219558;0,219665;0,219893;
4;;;;1,000000;0,781750;0,720352;0,483024;0,762287;0,223052;0,215546;0,224889;0,079367;0,079814;0,080262;0,080708;0,119197;0,722825;0,135359;0,127364;0,067800;0,000000;0,000000;0,000000;0,722825;0,722825;0,221122;0,221122;0,112253;0,127087;0,112680;0,112895;0,150281;0,150456;0,150635;0,126663;0,220541;0,000000;0,000000;0,000000;0,000000;0,000000;0,000000;0,543720;0,115539;0,115751;0,181414;0,108280;0,108417;0,099136;0,108690;0,119491;0,119660;0,119828;0,118982;0,119156;0,159392;0,159499;0,159727;
5;;;;;1,000000;0,671360;0,406799;0,666185;0,000000;0,105155;0,000000;0,122214;0,122661;0,123109;0,123555;0,162044;0,834795;0,178206;0,170211;0,110647;0,000000;0,000000;0,000000;0,834795;0,834795;0,263969;0,263969;0,155100;0,169933;0,155527;0,155742;0,193128;0,193303;0,193482;0,169510;0,263388;0,000000;0,000000;0,000000;0,000000;0,000000;0,000000;0,627994;0,158386;0,158598;0,224261;0,151127;0,151264;0,141983;0,151537;0,162338;0,162507;0,162675;0,161829;0,162003;0,202239;0,202346;0,202574;
6;;;;;;1,000000;0,407527;0,903994;0,175735;0,211346;0,177572;0,124956;0,125403;0,125851;0,126296;0,164785;0,836565;0,180947;0,172952;0,113388;0,000000;0,000000;0,000000;0,836565;0,836565;0,266710;0,266710;0,157841;0,172675;0,158268;0,158483;0,195869;0,196044;0,196223;0,172251;0,266130;0,000000;0,000000;0,000000;0,000000;0,000000;0,000000;0,264304;0,161127;0,161339;0,227002;0,153868;0,154005;0,144724;0,154279;0,165079;0,165249;0,165416;0,164570;0,164745;0,204980;0,205087;0,205315;
7;;;;;;;1,000000;0,489069;0,461365;0,328863;0,465817;0,000000;0,000000;0,000000;0,000000;0,000000;0,378495;0,000000;0,000000;0,000000;0,000000;0,000000;0,000000;0,391847;0,393340;0,000000;0,000000;0,000000;0,000000;0,000000;0,000000;0,000000;0,000000;0,000000;0,000000;0,000000;0,000000;0,000000;0,000000;0,000000;0,000000;0,000000;0,274065;0,000000;0,000000;0,000000;0,000000;0,000000;0,000000;0,000000;0,220722;0,221000;0,221274;0,000000;0,000000;0,000000;0,000000;0,000000;
8;;;;;;;;1,000000;0,200857;0,223802;0,202695;0,109472;0,109919;0,110367;0,110813;0,149302;0,831390;0,165464;0,157469;0,097905;0,000000;0,000000;0,000000;0,831390;0,831390;0,251227;0,251227;0,142358;0,157191;0,142785;0,143000;0,180386;0,180561;0,180740;0,156768;0,250646;0,000000;0,000000;0,000000;0,000000;0,000000;0,000000;0,248821;0,145644;0,145856;0,211519;0,138385;0,138522;0,129241;0,138795;0,149596;0,149765;0,149933;0,149087;0,149261;0,189497;0,189604;0,189832;
9;;;;;;;;;1,000000;0,547327;0,677868;0,000000;0,000000;0,000000;0,000000;0,000000;0,000000;0,000000;0,000000;0,000000;0,000000;0,000000;0,000000;0,000000;0,000000;0,000000;0,000000;0,000000;0,000000;0,000000;0,000000;0,000000;0,000000;0,000000;0,000000;0,000000;0,000000;0,000000;0,000000;0,000000;0,000000;0,000000;0,000000;0,000000;0,000000;0,000000;0,000000;0,000000;0,000000;0,000000;0,354724;0,355002;0,355277;0,000000;0,000000;0,000000;0,000000;0,000000;
10;;;;;;;;;;1,000000;0,551541;0,107379;0,107826;0,108274;0,108719;0,147209;0,147611;0,163371;0,155376;0,095811;0,000000;0,000000;0,000000;0,155857;0,156830;0,249134;0,249134;0,140264;0,155098;0,140692;0,140907;0,178293;0,178467;0,178646;0,154675;0,248553;0,000000;0,000000;0,000000;0,000000;0,000000;0,000000;0,246728;0,143551;0,143763;0,209426;0,136292;0,136429;0,127147;0,136702;0,648340;0,648721;0,649093;0,146993;0,147168;0,187403;0,187511;0,187739;
11;;;;;;;;;;;1,000000;0,000000;0,000000;0,000000;0,000000;0,000000;0,000000;0,000000;0,000000;0,000000;0,000000;0,000000;0,000000;0,000000;0,000000;0,000000;0,000000;0,000000;0,000000;0,000000;0,000000;0,000000;0,000000;0,000000;0,000000;0,000000;0,000000;0,000000;0,000000;0,000000;0,000000;0,000000;0,000000;0,000000;0,000000;0,000000;0,000000;0,000000;0,000000;0,000000;0,357174;0,357453;0,357727;0,000000;0,000000;0,000000;0,000000;0,000000;
12;;;;;;;;;;;;1,000000;0,775325;0,777428;0,779414;0,602190;0,164671;0,449358;0,407639;0,112871;0,000000;0,000000;0,000000;0,172917;0,173889;0,266193;0,266193;0,157324;0,172158;0,157751;0,157966;0,195352;0,195527;0,195706;0,415573;0,652572;0,000000;0,000000;0,000000;0,000000;0,000000;0,000000;0,263787;0,385392;0,385637;0,429097;0,153351;0,153488;0,144207;0,153761;0,164562;0,164731;0,164899;0,164053;0,164228;0,204463;0,204570;0,204798;
13;;;;;;;;;;;;;1,000000;0,779414;0,781295;0,603169;0,165118;0,450148;0,408429;0,113318;0,000000;0,000000;0,000000;0,173364;0,174336;0,266641;0,266641;0,157771;0,172605;0,158198;0,158413;0,195800;0,195974;0,196153;0,416362;0,653362;0,000000;0,000000;0,000000;0,000000;0,000000;0,000000;0,264234;0,386181;0,386427;0,429887;0,153798;0,153936;0,144654;0,154209;0,165009;0,165179;0,165347;0,164500;0,164675;0,204910;0,205017;0,205245;
14;;;;;;;;;;;;;;1,000000;0,783080;0,604100;0,165566;0,450950;0,409232;0,113766;0,000000;0,000000;0,000000;0,173812;0,174784;0,267089;0,267089;0,158219;0,173053;0,158646;0,158861;0,196248;0,196422;0,196601;0,417165;0,654164;0,000000;0,000000;0,000000;0,000000;0,000000;0,000000;0,264682;0,386984;0,387230;0,430690;0,154246;0,154384;0,145102;0,154657;0,165457;0,165627;0,165795;0,164948;0,165123;0,205358;0,205465;0,205693;
15;;;;;;;;;;;;;;;1,000000;0,604985;0,166012;0,451757;0,410038;0,114211;0,000000;0,000000;0,000000;0,174257;0,175230;0,267534;0,267534;0,158664;0,173498;0,159092;0,159307;0,196693;0,196867;0,197047;0,417972;0,654971;0,000000;0,000000;0,000000;0,000000;0,000000;0,000000;0,265128;0,387791;0,388036;0,431497;0,154692;0,154829;0,145548;0,155102;0,165903;0,166072;0,166240;0,165393;0,165568;0,205803;0,205911;0,206139;
16;;;;;;;;;;;;;;;;1,000000;0,204501;0,511089;0,585370;0,337264;0,000000;0,000000;0,000000;0,212747;0,213719;0,306023;0,306023;0,197154;0,211988;0,197581;0,197796;0,235182;0,235357;0,235536;0,589299;0,305443;0,000000;0,000000;0,000000;0,000000;0,000000;0,000000;0,303617;0,627267;0,627685;0,648344;0,193181;0,193318;0,184037;0,193591;0,204392;0,204561;0,204729;0,455226;0,455429;0,244293;0,244400;0,244628;
17;;;;;;;;;;;;;;;;;1,000000;0,220663;0,212668;0,153103;0,000000;0,000000;0,000000;1,000000;1,000000;0,306426;0,306426;0,197556;0,212390;0,197984;0,198199;0,235585;0,235759;0,235938;0,211967;0,305845;0,000000;0,000000;0,000000;0,000000;0,000000;0,000000;0,304020;0,200843;0,201055;0,266718;0,193584;0,193721;0,184440;0,193994;0,204795;0,204964;0,205132;0,204285;0,204460;0,244695;0,244803;0,245031;
18;;;;;;;;;;;;;;;;;;1,000000;0,551853;0,421853;0,000000;0,000000;0,000000;0,228908;0,229881;0,322185;0,322185;0,213316;0,228150;0,213743;0,213958;0,251344;0,251519;0,251698;0,925388;0,796786;0,000000;0,000000;0,000000;0,000000;0,000000;0,000000;0,319779;0,872180;0,872180;0,891618;0,209343;0,209480;0,200199;0,209753;0,220554;0,220723;0,220891;0,539815;0,540017;0,260455;0,260562;0,260790;
19;;;;;;;;;;;;;;;;;;;1,000000;0,423174;0,230360;0,230718;0,231090;0,220914;0,221886;0,314190;0,314190;0,205321;0,220155;0,205748;0,205963;0,243349;0,243524;0,243703;0,635722;0,755067;0,000000;0,000000;0,000000;0,000000;0,000000;0,000000;0,311784;0,678401;0,678825;0,700137;0,201348;0,201485;0,192204;0,201758;0,212559;0,212728;0,212896;0,570726;0,570980;0,252460;0,252567;0,252795;
20;;;;;;;;;;;;;;;;;;;;1,000000;0,630540;0,631207;0,631851;0,161349;0,162322;0,254626;0,254626;0,145756;0,160590;0,146184;0,146399;0,183785;0,183959;0,184138;0,389815;0,254045;0,000000;0,000000;0,000000;0,000000;0,000000;0,000000;0,252220;0,360102;0,360365;0,402632;0,141784;0,141921;0,132639;0,142194;0,152994;0,153164;0,153332;0,629660;0,630001;0,192895;0,193003;0,193231;
21;;;;;;;;;;;;;;;;;;;;;1,000000;0,778975;0,780022;0,000000;0,000000;0,000000;0,000000;0,000000;0,000000;0,000000;0,000000;0,000000;0,000000;0,000000;0,000000;0,000000;0,000000;0,000000;0,000000;0,000000;0,000000;0,000000;0,000000;0,000000;0,000000;0,000000;0,000000;0,000000;0,000000;0,000000;0,000000;0,000000;0,000000;0,384709;0,385014;0,000000;0,000000;0,000000;
22;;;;;;;;;;;;;;;;;;;;;;1,000000;0,781037;0,000000;0,000000;0,000000;0,000000;0,000000;0,000000;0,000000;0,000000;0,000000;0,000000;0,000000;0,000000;0,000000;0,000000;0,000000;0,000000;0,000000;0,000000;0,000000;0,000000;0,000000;0,000000;0,000000;0,000000;0,000000;0,000000;0,000000;0,000000;0,000000;0,000000;0,385067;0,385372;0,000000;0,000000;0,000000;
23;;;;;;;;;;;;;;;;;;;;;;;1,000000;0,000000;0,000000;0,000000;0,000000;0,000000;0,000000;0,000000;0,000000;0,000000;0,000000;0,000000;0,000000;0,000000;0,000000;0,000000;0,000000;0,000000;0,000000;0,000000;0,000000;0,000000;0,000000;0,000000;0,000000;0,000000;0,000000;0,000000;0,000000;0,000000;0,000000;0,385440;0,385744;0,000000;0,000000;0,000000;
24;;;;;;;;;;;;;;;;;;;;;;;;1,000000;1,000000;0,314672;0,314672;0,205802;0,220636;0,206229;0,206444;0,243831;0,244005;0,244184;0,220212;0,314091;0,000000;0,000000;0,000000;0,000000;0,000000;0,000000;0,312265;0,209089;0,209300;0,274964;0,201829;0,201967;0,192685;0,202240;0,213040;0,213210;0,213378;0,212531;0,212706;0,252941;0,253048;0,253276;
25;;;;;;;;;;;;;;;;;;;;;;;;;1,000000;0,315644;0,315644;0,206775;0,221608;0,207202;0,207417;0,244803;0,244978;0,245157;0,221185;0,315063;0,000000;0,000000;0,000000;0,000000;0,000000;0,000000;0,313238;0,210061;0,210273;0,275936;0,202802;0,202939;0,193658;0,203212;0,214013;0,214182;0,214350;0,213504;0,213678;0,253914;0,254021;0,254249;
26;;;;;;;;;;;;;;;;;;;;;;;;;;1,000000;0,407948;0,299079;0,313913;0,299506;0,299721;0,337107;0,337282;0,337461;0,313489;0,407368;0,000000;0,000000;0,000000;0,000000;0,000000;0,000000;0,405542;0,302365;0,302577;0,368240;0,295106;0,295243;0,285962;0,295516;0,306317;0,306486;0,306654;0,305808;0,305982;0,346218;0,346325;0,346553;
27;;;;;;;;;;;;;;;;;;;;;;;;;;;1,000000;0,299079;0,313913;0,299506;0,299721;0,337107;0,337282;0,337461;0,313489;0,407368;0,000000;0,000000;0,000000;0,000000;0,000000;0,000000;0,405542;0,302365;0,302577;0,368240;0,295106;0,295243;0,285962;0,295516;0,306317;0,306486;0,306654;0,305808;0,305982;0,346218;0,346325;0,346553;
28;;;;;;;;;;;;;;;;;;;;;;;;;;;;1,000000;0,602864;0,788599;0,789299;0,228238;0,228412;0,228591;0,204620;0,298498;0,000000;0,000000;0,000000;0,000000;0,000000;0,000000;0,296673;0,193496;0,193708;0,259371;0,457665;0,457831;0,435806;0,458167;0,197447;0,197617;0,197785;0,196938;0,197113;0,572734;0,572666;0,572870;
29;;;;;;;;;;;;;;;;;;;;;;;;;;;;;1,000000;0,603563;0,603900;0,243072;0,243246;0,243425;0,219454;0,313332;0,000000;0,000000;0,000000;0,000000;0,000000;0,000000;0,311506;0,208330;0,208542;0,274205;0,676564;0,676850;0,707298;0,677407;0,212281;0,212451;0,212619;0,211772;0,211947;0,589610;0,553039;0,553312;
30;;;;;;;;;;;;;;;;;;;;;;;;;;;;;;1,000000;0,790650;0,228665;0,228840;0,229019;0,205047;0,298926;0,000000;0,000000;0,000000;0,000000;0,000000;0,000000;0,297100;0,193923;0,194135;0,259798;0,458170;0,458336;0,436312;0,458672;0,197875;0,198044;0,198212;0,197366;0,197540;0,573239;0,573171;0,573376;
31;;;;;;;;;;;;;;;;;;;;;;;;;;;;;;;1,000000;0,228880;0,229055;0,229234;0,205262;0,299140;0,000000;0,000000;0,000000;0,000000;0,000000;0,000000;0,297315;0,194138;0,194350;0,260013;0,458433;0,458600;0,436575;0,458935;0,198090;0,198259;0,198427;0,197581;0,197755;0,573502;0,573434;0,573639;
32;;;;;;;;;;;;;;;;;;;;;;;;;;;;;;;;1,000000;0,684413;0,685201;0,242648;0,336527;0,000000;0,000000;0,000000;0,000000;0,000000;0,000000;0,334701;0,231524;0,231736;0,297399;0,224265;0,224402;0,215121;0,224675;0,235476;0,235645;0,235813;0,234967;0,235141;0,275377;0,275484;0,275712;
33;;;;;;;;;;;;;;;;;;;;;;;;;;;;;;;;;1,000000;0,685974;0,242823;0,336701;0,000000;0,000000;0,000000;0,000000;0,000000;0,000000;0,334876;0,231699;0,231911;0,297574;0,224440;0,224577;0,215296;0,224850;0,235651;0,235820;0,235988;0,235141;0,235316;0,275551;0,275659;0,275887;
34;;;;;;;;;;;;;;;;;;;;;;;;;;;;;;;;;;1,000000;0,243002;0,336880;0,000000;0,000000;0,000000;0,000000;0,000000;0,000000;0,335055;0,231878;0,232090;0,297753;0,224619;0,224756;0,215475;0,225029;0,235830;0,235999;0,236167;0,235320;0,235495;0,275730;0,275838;0,276066;
35;;;;;;;;;;;;;;;;;;;;;;;;;;;;;;;;;;;1,000000;0,763001;0,000000;0,000000;0,000000;0,000000;0,000000;0,000000;0,311083;0,797568;0,797568;0,817006;0,200647;0,200784;0,191503;0,201057;0,211858;0,212027;0,212195;0,507777;0,507980;0,251759;0,251866;0,252094;
36;;;;;;;;;;;;;;;;;;;;;;;;;;;;;;;;;;;;1,000000;0,000000;0,000000;0,000000;0,000000;0,000000;0,000000;0,404961;0,732820;0,733065;0,776526;0,294525;0,294663;0,285381;0,294936;0,305736;0,305906;0,306074;0,305227;0,305402;0,345637;0,345745;0,345973;
37;;;;;;;;;;;;;;;;;;;;;;;;;;;;;;;;;;;;;1,000000;0,882356;0,882674;0,882986;0,883292;0,883592;0,000000;0,000000;0,000000;0,000000;0,000000;0,000000;0,000000;0,000000;0,000000;0,000000;0,000000;0,000000;0,000000;0,000000;0,000000;0,000000;
38;;;;;;;;;;;;;;;;;;;;;;;;;;;;;;;;;;;;;;1,000000;0,882986;0,883292;0,883592;0,883888;0,000000;0,000000;0,000000;0,000000;0,000000;0,000000;0,000000;0,000000;0,000000;0,000000;0,000000;0,000000;0,000000;0,000000;0,000000;0,000000;
39;;;;;;;;;;;;;;;;;;;;;;;;;;;;;;;;;;;;;;;1,000000;0,883592;0,883888;0,884178;0,000000;0,000000;0,000000;0,000000;0,000000;0,000000;0,000000;0,000000;0,000000;0,000000;0,000000;0,000000;0,000000;0,000000;0,000000;0,000000;
40;;;;;;;;;;;;;;;;;;;;;;;;;;;;;;;;;;;;;;;;1,000000;0,884178;0,884463;0,000000;0,000000;0,000000;0,000000;0,000000;0,000000;0,000000;0,000000;0,000000;0,000000;0,000000;0,000000;0,000000;0,000000;0,000000;0,000000;
41;;;;;;;;;;;;;;;;;;;;;;;;;;;;;;;;;;;;;;;;;1,000000;0,884744;0,000000;0,000000;0,000000;0,000000;0,000000;0,000000;0,000000;0,000000;0,000000;0,000000;0,000000;0,000000;0,000000;0,000000;0,000000;0,000000;
42;;;;;;;;;;;;;;;;;;;;;;;;;;;;;;;;;;;;;;;;;;1,000000;0,000000;0,000000;0,000000;0,000000;0,000000;0,000000;0,000000;0,000000;0,000000;0,000000;0,000000;0,000000;0,000000;0,000000;0,000000;0,000000;
43;;;;;;;;;;;;;;;;;;;;;;;;;;;;;;;;;;;;;;;;;;;1,000000;0,299959;0,300171;0,365834;0,292700;0,292837;0,283556;0,293110;0,303911;0,304080;0,304248;0,303402;0,303576;0,343812;0,343919;0,344147;
44;;;;;;;;;;;;;;;;;;;;;;;;;;;;;;;;;;;;;;;;;;;;1,000000;0,744361;0,763798;0,189523;0,189660;0,180379;0,189933;0,200734;0,200903;0,201071;0,478065;0,478267;0,240635;0,240742;0,240970;
45;;;;;;;;;;;;;;;;;;;;;;;;;;;;;;;;;;;;;;;;;;;;;1,000000;0,763798;0,189735;0,189872;0,180591;0,190145;0,200946;0,201115;0,201283;0,478327;0,478530;0,240847;0,240954;0,241182;
46;;;;;;;;;;;;;;;;;;;;;;;;;;;;;;;;;;;;;;;;;;;;;;1,000000;0,255398;0,255535;0,246254;0,255808;0,266609;0,266778;0,266946;0,520594;0,520797;0,306510;0,306617;0,306845;
47;;;;;;;;;;;;;;;;;;;;;;;;;;;;;;;;;;;;;;;;;;;;;;;1,000000;0,820083;0,874590;0,820755;0,193475;0,193644;0,193812;0,192966;0,193140;0,559300;0,559232;0,559437;
48;;;;;;;;;;;;;;;;;;;;;;;;;;;;;;;;;;;;;;;;;;;;;;;;1,000000;0,874836;0,821085;0,193612;0,193781;0,193949;0,193103;0,193277;0,559467;0,559399;0,559603;
49;;;;;;;;;;;;;;;;;;;;;;;;;;;;;;;;;;;;;;;;;;;;;;;;;1,000000;0,875316;0,184331;0,184500;0,184668;0,183821;0,183996;0,537442;0,537374;0,537578;
50;;;;;;;;;;;;;;;;;;;;;;;;;;;;;;;;;;;;;;;;;;;;;;;;;;1,000000;0,193885;0,194054;0,194222;0,193376;0,193551;0,559803;0,559734;0,559939;
51;;;;;;;;;;;;;;;;;;;;;;;;;;;;;;;;;;;;;;;;;;;;;;;;;;;1,000000;0,827270;0,827568;0,204176;0,204351;0,244586;0,244694;0,244922;
52;;;;;;;;;;;;;;;;;;;;;;;;;;;;;;;;;;;;;;;;;;;;;;;;;;;;1,000000;0,827861;0,204346;0,204521;0,244756;0,244863;0,245091;
53;;;;;;;;;;;;;;;;;;;;;;;;;;;;;;;;;;;;;;;;;;;;;;;;;;;;;1,000000;0,204514;0,204688;0,244924;0,245031;0,245259;
54;;;;;;;;;;;;;;;;;;;;;;;;;;;;;;;;;;;;;;;;;;;;;;;;;;;;;;1,000000;0,788925;0,244077;0,244185;0,244413;
55;;;;;;;;;;;;;;;;;;;;;;;;;;;;;;;;;;;;;;;;;;;;;;;;;;;;;;;1,000000;0,244252;0,244359;0,244587;
56;;;;;;;;;;;;;;;;;;;;;;;;;;;;;;;;;;;;;;;;;;;;;;;;;;;;;;;;1,000000;0,674301;0,674506;
57;;;;;;;;;;;;;;;;;;;;;;;;;;;;;;;;;;;;;;;;;;;;;;;;;;;;;;;;;1,000000;1,000000;
58;;;;;;;;;;;;;;;;;;;;;;;;;;;;;;;;;;;;;;;;;;;;;;;;;;;;;;;;;;1,000000;
