;1; 2; 3; 4; 5; 6; 7; 8; 9; 10; 11; 12; 13; 14; 15; 16; 17; 18; 19; 20; 21; 22; 23; 24; 25; 26; 27; 28; 29; 30; 31; 32; 33; 34; 35; 36; 37; 38; 39; 40; 41; 42; 43; 44; 45; 46; 47; 48; 49; 50; 51; 52; 53; 54; 55; 56; 57; 58; 59; 60; 61; 62; 63; 64; 65; 66; 67; 68; 69; 70; 71; 72; 73; 74; 75; 76; 77; 78; 79; 80; 81; 82; 83; 84; 85; 86; 87; 88; 89; 90; 91; 92; 93; 94; 95; 96; 97; 98; 99; 100; 101; 102; 103; 104
1;1,000000;0,307882;0,622857;0,384292;0,175175;0,383204;0,422968;0,415177;0,000000;0,000000;0,333376;0,324202;0,205978;0,326290;0,450843;0,301617;0,208625;0,312948;0,207369;0,223763;0,240750;0,182573;0,000000;0,000000;0,000000;0,252128;0,403620;0,573126;0,000000;0,000000;0,000000;0,000000;0,000000;0,000000;0,000000;0,000000;0,320907;0,213205;0,401269;0,000000;0,229615;0,229615;0,000000;0,000000;0,000000;0,000000;0,000000;0,000000;0,358109;0,261854;0,000000;0,269263;0,394025;0,400650;0,100900;0,000000;0,000000;0,155375;0,230202;0,229615;0,229615;0,401203;0,210775;0,262847;0,300079;0,325408;0,000000;0,000000;0,229615;0,000000;0,274707;0,274707;0,000000;0,229615;0,261854;0,000000;0,261854;0,255670;0,000000;0,256531;0,230636;0,256531;0,261854;0,312948;0,000000;0,000000;0,000000;0,000000;0,000000;0,000000;0,000000;0,000000;0,262726;0,262726;0,229764;0,403009;0,403009;0,403009;0,403009;0,401203;0,129422;0,129422;0,129422;0,265057;
2;;1,000000;0,432801;0,470847;0,341435;0,397784;0,419754;0,230660;0,341435;0,341435;0,591947;0,618144;0,186972;0,313993;0,506425;0,518779;0,609007;0,341435;0,376063;0,386067;0,403337;0,477656;0,316343;0,258102;0,316343;0,402936;0,428363;0,364393;0,142642;0,142642;0,000000;0,229653;0,202885;0,000000;0,000000;0,000000;0,287496;0,380676;0,440257;0,610067;0,427212;0,427212;0,000000;0,000000;0,000000;0,000000;0,000000;0,000000;0,527736;0,579300;0,591435;0,313993;0,563246;0,581728;0,647151;0,591435;0,563993;0,534256;0,518602;0,427212;0,427212;0,444461;0,551060;0,313993;0,480286;0,467908;0,341435;0,341435;0,448539;0,258102;0,216435;0,216435;0,610067;0,448539;0,608408;0,594327;0,608408;0,611128;0,341435;0,313993;0,469401;0,341435;0,579300;0,313993;0,591435;0,610067;0,258102;0,258102;0,258102;0,591435;0,610067;0,591435;0,313993;0,313993;0,438993;0,188993;0,188993;0,188993;0,188993;0,423386;0,000000;0,000000;0,000000;0,313993;
3;;;1,000000;0,364994;0,351313;0,192108;0,220151;0,338175;0,262655;0,262655;0,367694;0,485545;0,170951;0,316901;0,486351;0,347625;0,087963;0,340361;0,229626;0,337486;0,346288;0,179293;0,301871;0,366157;0,301871;0,348237;0,437655;0,437655;0,254349;0,254349;0,440849;0,270281;0,256301;0,271157;0,271157;0,271157;0,343163;0,395204;0,430534;0,282898;0,426144;0,426144;0,000000;0,000000;0,000000;0,000000;0,000000;0,000000;0,383250;0,272943;0,000000;0,269259;0,419166;0,431329;0,100895;0,000000;0,000000;0,251881;0,223723;0,426144;0,426144;0,440772;0,196394;0,000000;0,000000;0,470975;0,262588;0,262588;0,454350;0,354490;0,405617;0,405617;0,282898;0,454350;0,272943;0,262836;0,272943;0,269151;0,262193;0,256454;0,230346;0,256454;0,272943;0,340361;0,000000;0,282898;0,354743;0,354743;0,354743;0,000000;0,282898;0,000000;0,000000;0,000000;0,000000;0,000000;0,000000;0,000000;0,000000;0,440772;0,264414;0,264414;0,264414;0,000000;
4;;;;1,000000;0,614425;0,616024;0,455802;0,404244;0,362672;0,362672;0,677549;0,652818;0,278096;0,613584;0,487478;0,737161;0,600032;0,737478;0,364992;0,418113;0,435382;0,513066;0,337580;0,279339;0,337580;0,677899;0,381936;0,231026;0,163879;0,163879;0,000000;0,250890;0,224122;0,000000;0,000000;0,000000;0,308734;0,605356;0,570812;0,362672;0,570812;0,570812;0,000000;0,000000;0,000000;0,000000;0,000000;0,000000;0,771934;0,302923;0,612672;0,574336;0,698137;0,690164;0,774590;0,612672;0,552923;0,566301;0,550648;0,570812;0,570812;0,570812;0,583106;0,302923;0,302923;0,570812;0,362672;0,362672;0,570812;0,279339;0,237672;0,237672;0,362672;0,570812;0,362672;0,362672;0,362672;0,362672;0,362672;0,302923;0,501446;0,362672;0,302923;0,632569;0,612672;0,362672;0,279339;0,279339;0,279339;0,612672;0,362672;0,612672;0,302923;0,302923;0,427923;0,177923;0,177923;0,177923;0,177923;0,465902;0,146039;0,146039;0,146039;0,302923;
5;;;;;1,000000;0,255467;0,254681;0,000000;0,500000;0,500000;0,653343;0,625697;0,345537;0,338767;0,626947;0,725717;0,387669;0,876947;0,000000;0,370115;0,379032;0,359402;0,474908;0,416667;0,474908;0,817368;0,278894;0,278894;0,301207;0,301207;0,000000;0,388218;0,361450;0,000000;0,000000;0,000000;0,446062;0,744825;0,710280;0,500000;0,710280;0,710280;0,000000;0,000000;0,000000;0,000000;0,000000;0,000000;0,705171;0,000000;0,750000;0,000000;0,665460;0,628918;0,365257;0,750000;0,000000;0,335078;0,291972;0,710280;0,710280;0,710280;0,357971;0,000000;0,000000;0,710280;0,500000;0,500000;0,710280;0,416667;0,375000;0,375000;0,500000;0,710280;0,500000;0,500000;0,500000;0,500000;0,500000;0,000000;0,367283;0,500000;0,000000;0,362227;0,750000;0,500000;0,416667;0,416667;0,416667;0,750000;0,500000;0,750000;0,000000;0,000000;0,000000;0,000000;0,000000;0,000000;0,000000;0,278894;0,000000;0,000000;0,000000;0,000000;
6;;;;;;1,000000;0,640099;0,655853;0,255467;0,255467;0,340364;0,335827;0,101004;0,409887;0,130467;0,391426;0,526968;0,255467;0,471957;0,345050;0,362319;0,565276;0,230375;0,172134;0,230375;0,248745;0,228117;0,000000;0,056674;0,056674;0,000000;0,143685;0,116917;0,000000;0,000000;0,000000;0,201529;0,238351;0,172134;0,255467;0,172134;0,172134;0,000000;0,000000;0,000000;0,000000;0,000000;0,000000;0,395066;0,409887;0,505467;0,409887;0,358326;0,354341;0,606133;0,505467;0,659887;0,493238;0,477584;0,172134;0,172134;0,172134;0,510042;0,409887;0,409887;0,172134;0,255467;0,255467;0,172134;0,172134;0,130467;0,130467;0,255467;0,172134;0,255467;0,255467;0,255467;0,255467;0,255467;0,409887;0,428383;0,255467;0,409887;0,409887;0,505467;0,255467;0,172134;0,172134;0,172134;0,505467;0,255467;0,505467;0,409887;0,409887;0,534887;0,284887;0,284887;0,284887;0,284887;0,326554;0,144681;0,144681;0,144681;0,409887;
7;;;;;;;1,000000;0,650858;0,254681;0,254681;0,336459;0,331923;0,391886;0,407167;0,129681;0,387521;0,559716;0,254681;0,469237;0,341145;0,358414;0,428365;0,229589;0,171348;0,229589;0,247959;0,225397;0,000000;0,055888;0,055888;0,000000;0,142899;0,116131;0,000000;0,000000;0,000000;0,200743;0,237564;0,171348;0,254681;0,171348;0,171348;0,000000;0,000000;0,000000;0,000000;0,000000;0,000000;0,391162;0,674186;0,504681;0,407167;0,354421;0,350436;0,602229;0,504681;0,657167;0,489333;0,473680;0,171348;0,171348;0,171348;0,506138;0,407167;0,407167;0,171348;0,254681;0,254681;0,171348;0,171348;0,129681;0,129681;0,254681;0,171348;0,510476;0,254681;0,510476;0,254681;0,254681;0,407167;0,424478;0,254681;0,674186;0,407167;0,504681;0,254681;0,171348;0,171348;0,171348;0,504681;0,254681;0,504681;0,407167;0,407167;0,532167;0,282167;0,282167;0,282167;0,282167;0,323834;0,136430;0,136430;0,136430;0,407167;
8;;;;;;;;1,000000;0,000000;0,000000;0,208474;0,213369;0,287086;0,416667;0,000000;0,199105;0,302013;0,000000;0,478736;0,192315;0,200794;0,452460;0,000000;0,000000;0,000000;0,000000;0,234896;0,000000;0,000000;0,000000;0,000000;0,000000;0,000000;0,000000;0,000000;0,000000;0,000000;0,000000;0,000000;0,000000;0,000000;0,000000;0,000000;0,000000;0,000000;0,000000;0,000000;0,000000;0,253461;0,416667;0,000000;0,416667;0,226140;0,254389;0,433123;0,000000;0,666667;0,360492;0,410981;0,000000;0,000000;0,000000;0,364405;0,416667;0,416667;0,000000;0,000000;0,000000;0,000000;0,000000;0,000000;0,000000;0,000000;0,000000;0,000000;0,000000;0,000000;0,000000;0,000000;0,416667;0,286803;0,000000;0,416667;0,416667;0,000000;0,000000;0,000000;0,000000;0,000000;0,000000;0,000000;0,000000;0,416667;0,416667;0,541667;0,291667;0,291667;0,291667;0,291667;0,333333;0,000000;0,000000;0,000000;0,416667;
9;;;;;;;;;1,000000;0,500000;0,327683;0,315608;0,345537;0,000000;0,375000;0,401944;0,387669;0,500000;0,000000;0,370115;0,379032;0,359402;0,474908;0,416667;0,474908;0,493278;0,000000;0,000000;0,301207;0,301207;0,000000;0,388218;0,361450;0,000000;0,000000;0,000000;0,446062;0,482883;0,416667;0,500000;0,416667;0,416667;0,000000;0,000000;0,000000;0,000000;0,000000;0,000000;0,344412;0,000000;0,750000;0,000000;0,347224;0,315137;0,365257;0,750000;0,000000;0,335078;0,291972;0,416667;0,416667;0,416667;0,357971;0,000000;0,000000;0,416667;0,500000;0,500000;0,416667;0,416667;0,375000;0,375000;0,500000;0,416667;0,500000;0,500000;0,500000;0,500000;0,500000;0,000000;0,367283;0,500000;0,000000;0,000000;0,750000;0,500000;0,416667;0,416667;0,416667;0,750000;0,500000;0,750000;0,000000;0,000000;0,000000;0,000000;0,000000;0,000000;0,000000;0,000000;0,000000;0,000000;0,000000;0,000000;
10;;;;;;;;;;1,000000;0,327683;0,315608;0,345537;0,000000;0,375000;0,401944;0,387669;0,500000;0,000000;0,370115;0,379032;0,359402;0,474908;0,416667;0,474908;0,493278;0,000000;0,000000;0,301207;0,301207;0,000000;0,388218;0,361450;0,000000;0,000000;0,000000;0,446062;0,482883;0,416667;0,500000;0,416667;0,416667;0,000000;0,000000;0,000000;0,000000;0,000000;0,000000;0,344412;0,000000;0,750000;0,000000;0,347224;0,315137;0,365257;0,750000;0,000000;0,335078;0,291972;0,416667;0,416667;0,416667;0,357971;0,000000;0,000000;0,416667;0,500000;0,500000;0,416667;0,416667;0,375000;0,375000;0,500000;0,416667;0,500000;0,500000;0,500000;0,500000;0,500000;0,000000;0,367283;0,500000;0,000000;0,000000;0,750000;0,500000;0,416667;0,416667;0,416667;0,750000;0,500000;0,750000;0,000000;0,000000;0,000000;0,000000;0,000000;0,000000;0,000000;0,000000;0,000000;0,000000;0,000000;0,000000;
11;;;;;;;;;;;1,000000;0,700626;0,173220;0,701613;0,711363;0,738599;0,510566;0,776396;0,353876;0,328647;0,345916;0,346655;0,302591;0,244349;0,302591;0,716817;0,575533;0,539462;0,128889;0,128889;0,000000;0,215901;0,189133;0,000000;0,000000;0,000000;0,273744;0,761195;0,836363;0,327683;0,609729;0,609729;0,000000;0,000000;0,000000;0,000000;0,000000;0,000000;0,773373;0,291807;0,577683;0,291807;0,699575;0,691602;0,589731;0,577683;0,541807;0,476836;0,461182;0,609729;0,609729;0,609729;0,493640;0,291807;0,291807;0,609729;0,327683;0,327683;0,609729;0,244349;0,202683;0,202683;0,327683;0,609729;0,327683;0,327683;0,327683;0,327683;0,327683;0,291807;0,411981;0,327683;0,291807;0,720598;0,577683;0,327683;0,244349;0,244349;0,244349;0,577683;0,327683;0,577683;0,291807;0,291807;0,416807;0,166807;0,166807;0,166807;0,166807;0,553931;0,000000;0,000000;0,000000;0,291807;
12;;;;;;;;;;;;1,000000;0,161145;0,702249;0,717612;0,713868;0,506030;0,748750;0,358772;0,324111;0,341380;0,342119;0,290516;0,232274;0,290516;0,689171;0,730660;0,587249;0,116814;0,116814;0,000000;0,203825;0,177058;0,000000;0,000000;0,000000;0,261669;0,616628;0,582083;0,592522;0,582083;0,582083;0,000000;0,000000;0,000000;0,000000;0,000000;0,000000;0,748641;0,296703;0,565608;0,296703;0,674844;0,666871;0,585195;0,565608;0,546703;0,472299;0,456646;0,582083;0,582083;0,582083;0,489104;0,296703;0,296703;0,873971;0,315608;0,315608;0,582083;0,232274;0,190608;0,190608;0,592522;0,582083;0,315608;0,315608;0,315608;0,315608;0,315608;0,296703;0,407444;0,315608;0,296703;0,721234;0,565608;0,592522;0,232274;0,232274;0,232274;0,565608;0,592522;0,565608;0,296703;0,296703;0,421703;0,171703;0,171703;0,171703;0,171703;0,554567;0,000000;0,000000;0,000000;0,296703;
13;;;;;;;;;;;;;1,000000;0,000000;0,220537;0,247481;0,233206;0,345537;0,000000;0,215652;0,224569;0,702846;0,320445;0,262204;0,320445;0,338815;0,000000;0,000000;0,146744;0,146744;0,000000;0,233755;0,206987;0,000000;0,000000;0,000000;0,291598;0,328420;0,262204;0,345537;0,262204;0,262204;0,000000;0,000000;0,000000;0,000000;0,000000;0,000000;0,189949;0,000000;0,595537;0,000000;0,192761;0,160674;0,210794;0,595537;0,000000;0,180614;0,137509;0,262204;0,262204;0,262204;0,203508;0,000000;0,000000;0,262204;0,345537;0,345537;0,262204;0,262204;0,220537;0,220537;0,345537;0,262204;0,345537;0,345537;0,345537;0,345537;0,345537;0,000000;0,212820;0,345537;0,000000;0,000000;0,595537;0,345537;0,262204;0,262204;0,262204;0,595537;0,345537;0,595537;0,000000;0,000000;0,000000;0,000000;0,000000;0,000000;0,000000;0,000000;0,653990;0,653990;0,653990;0,000000;
14;;;;;;;;;;;;;;1,000000;0,351540;0,709754;0,385346;0,476540;0,562070;0,275648;0,284127;0,298849;0,000000;0,000000;0,000000;0,415720;0,730382;0,393207;0,000000;0,000000;0,000000;0,000000;0,000000;0,000000;0,000000;0,000000;0,000000;0,352964;0,393207;0,000000;0,393207;0,393207;0,000000;0,000000;0,000000;0,000000;0,000000;0,000000;0,801204;0,500000;0,000000;0,500000;0,730485;0,755092;0,516456;0,000000;0,750000;0,443825;0,494314;0,393207;0,393207;0,393207;0,447738;0,771886;0,500000;0,393207;0,000000;0,000000;0,393207;0,000000;0,000000;0,000000;0,000000;0,393207;0,000000;0,000000;0,000000;0,000000;0,000000;0,500000;0,370136;0,000000;0,500000;0,981015;0,000000;0,000000;0,000000;0,000000;0,000000;0,000000;0,000000;0,000000;0,500000;0,500000;0,625000;0,375000;0,375000;0,375000;0,375000;0,814348;0,000000;0,000000;0,000000;0,500000;
15;;;;;;;;;;;;;;;1,000000;0,598770;0,262669;0,750000;0,000000;0,245115;0,254032;0,234402;0,349908;0,291667;0,349908;0,690421;0,583333;0,583333;0,176207;0,176207;0,000000;0,263218;0,236450;0,000000;0,000000;0,000000;0,321062;0,761142;0,875000;0,375000;0,583333;0,583333;0,000000;0,000000;0,000000;0,000000;0,000000;0,000000;0,578224;0,000000;0,625000;0,000000;0,538513;0,501971;0,240257;0,625000;0,000000;0,210078;0,166972;0,583333;0,583333;0,583333;0,232971;0,000000;0,000000;0,794640;0,375000;0,375000;0,583333;0,291667;0,250000;0,250000;0,375000;0,583333;0,375000;0,375000;0,375000;0,375000;0,375000;0,000000;0,242283;0,375000;0,000000;0,375000;0,625000;0,375000;0,291667;0,291667;0,291667;0,625000;0,375000;0,625000;0,000000;0,000000;0,000000;0,000000;0,000000;0,000000;0,000000;0,291667;0,000000;0,000000;0,000000;0,000000;
16;;;;;;;;;;;;;;;;1,000000;0,561628;0,848770;0,344508;0,379709;0,396979;0,397718;0,376852;0,318611;0,376852;0,789191;0,478106;0,348317;0,203151;0,203151;0,000000;0,290162;0,263394;0,000000;0,000000;0,000000;0,348006;0,716648;0,682104;0,401944;0,682104;0,682104;0,000000;0,000000;0,000000;0,000000;0,000000;0,000000;0,832985;0,282438;0,651944;0,282438;0,759187;0,751214;0,640793;0,651944;0,532438;0,527898;0,512244;0,682104;0,682104;0,682104;0,544702;0,282438;0,282438;0,682104;0,401944;0,401944;0,682104;0,318611;0,276944;0,276944;0,401944;0,682104;0,401944;0,401944;0,401944;0,401944;0,401944;0,282438;0,463043;0,401944;0,282438;0,728739;0,651944;0,401944;0,318611;0,318611;0,318611;0,651944;0,401944;0,651944;0,282438;0,282438;0,407438;0,157438;0,157438;0,157438;0,157438;0,562072;0,000000;0,000000;0,000000;0,282438;
17;;;;;;;;;;;;;;;;;1,000000;0,387669;0,447416;0,515252;0,532521;0,617617;0,362577;0,304336;0,362577;0,380947;0,203576;0,000000;0,188876;0,188876;0,000000;0,275887;0,249119;0,000000;0,000000;0,000000;0,333731;0,370553;0,304336;0,387669;0,304336;0,304336;0,000000;0,000000;0,000000;0,000000;0,000000;0,000000;0,565269;0,669366;0,637669;0,385346;0,528528;0,524543;0,776336;0,637669;0,635346;0,663440;0,647787;0,304336;0,304336;0,304336;0,680245;0,385346;0,385346;0,304336;0,387669;0,387669;0,304336;0,304336;0,262669;0,262669;0,387669;0,304336;0,660617;0,387669;0,660617;0,387669;0,387669;0,385346;0,598586;0,387669;0,669366;0,385346;0,637669;0,387669;0,304336;0,304336;0,304336;0,637669;0,387669;0,637669;0,385346;0,385346;0,510346;0,260346;0,260346;0,260346;0,260346;0,302013;0,000000;0,000000;0,000000;0,385346;
18;;;;;;;;;;;;;;;;;;1,000000;0,000000;0,370115;0,379032;0,359402;0,474908;0,416667;0,474908;0,940421;0,416667;0,416667;0,301207;0,301207;0,000000;0,388218;0,361450;0,000000;0,000000;0,000000;0,446062;0,867878;0,833333;0,500000;0,833333;0,833333;0,000000;0,000000;0,000000;0,000000;0,000000;0,000000;0,828224;0,000000;0,750000;0,000000;0,788513;0,751971;0,365257;0,750000;0,000000;0,335078;0,291972;0,833333;0,833333;0,833333;0,357971;0,000000;0,000000;0,833333;0,500000;0,500000;0,833333;0,416667;0,375000;0,375000;0,500000;0,833333;0,500000;0,500000;0,500000;0,500000;0,500000;0,000000;0,367283;0,500000;0,000000;0,500000;0,750000;0,500000;0,416667;0,416667;0,416667;0,750000;0,500000;0,750000;0,000000;0,000000;0,000000;0,000000;0,000000;0,000000;0,000000;0,416667;0,000000;0,000000;0,000000;0,000000;
19;;;;;;;;;;;;;;;;;;;1,000000;0,590775;0,546515;0,360919;0,000000;0,000000;0,000000;0,000000;0,380299;0,000000;0,000000;0,000000;0,000000;0,000000;0,000000;0,000000;0,000000;0,000000;0,509988;0,000000;0,000000;0,000000;0,000000;0,000000;0,000000;0,000000;0,000000;0,000000;0,000000;0,000000;0,398864;0,562070;0,000000;0,562070;0,371543;0,399792;0,578525;0,000000;0,812070;0,710041;0,556384;0,000000;0,000000;0,000000;0,509808;0,562070;0,562070;0,000000;0,000000;0,000000;0,000000;0,000000;0,220429;0,220429;0,000000;0,000000;0,000000;0,000000;0,000000;0,000000;0,000000;0,562070;0,432206;0,000000;0,562070;0,562070;0,000000;0,000000;0,000000;0,000000;0,000000;0,000000;0,000000;0,000000;0,562070;0,562070;0,687070;0,437070;0,437070;0,437070;0,437070;0,478736;0,000000;0,000000;0,000000;0,562070;
20;;;;;;;;;;;;;;;;;;;;1,000000;0,619396;0,351341;0,345023;0,286781;0,345023;0,363393;0,093878;0,000000;0,171322;0,171322;0,000000;0,258333;0,231565;0,000000;0,000000;0,000000;0,631705;0,352998;0,286781;0,370115;0,286781;0,286781;0,000000;0,000000;0,000000;0,000000;0,000000;0,000000;0,383350;0,275648;0,620115;0,275648;0,346609;0,342625;0,594417;0,620115;0,525648;0,778572;0,465868;0,286781;0,286781;0,286781;0,498326;0,275648;0,275648;0,286781;0,370115;0,370115;0,286781;0,286781;0,535225;0,535225;0,370115;0,286781;0,370115;0,370115;0,370115;0,370115;0,370115;0,275648;0,416667;0,370115;0,275648;0,275648;0,620115;0,370115;0,286781;0,286781;0,286781;0,620115;0,370115;0,620115;0,275648;0,275648;0,400648;0,150648;0,150648;0,150648;0,150648;0,192315;0,000000;0,000000;0,000000;0,275648;
21;;;;;;;;;;;;;;;;;;;;;1,000000;0,368611;0,353940;0,295699;0,353940;0,372310;0,102357;0,000000;0,180239;0,180239;0,000000;0,267250;0,240482;0,000000;0,000000;0,000000;0,576083;0,361915;0,295699;0,379032;0,295699;0,295699;0,000000;0,000000;0,000000;0,000000;0,000000;0,000000;0,400619;0,284127;0,629032;0,284127;0,363879;0,359894;0,611686;0,629032;0,534127;0,590847;0,483137;0,295699;0,295699;0,295699;0,515595;0,284127;0,284127;0,295699;0,379032;0,379032;0,295699;0,295699;0,614650;0,614650;0,379032;0,295699;0,379032;0,379032;0,379032;0,379032;0,379032;0,284127;0,433936;0,379032;0,284127;0,284127;0,629032;0,379032;0,295699;0,295699;0,295699;0,629032;0,379032;0,629032;0,284127;0,284127;0,409127;0,159127;0,159127;0,159127;0,159127;0,200794;0,000000;0,000000;0,000000;0,284127;
22;;;;;;;;;;;;;;;;;;;;;;1,000000;0,334310;0,276069;0,334310;0,352680;0,117079;0,000000;0,160609;0,160609;0,000000;0,247620;0,220852;0,000000;0,000000;0,000000;0,305463;0,342285;0,276069;0,359402;0,276069;0,276069;0,000000;0,000000;0,000000;0,000000;0,000000;0,000000;0,401358;0,621105;0,609402;0,298849;0,364617;0,360633;0,612425;0,609402;0,548849;0,499530;0,483876;0,276069;0,276069;0,276069;0,516334;0,298849;0,298849;0,276069;0,359402;0,359402;0,276069;0,276069;0,234402;0,234402;0,359402;0,276069;0,666275;0,359402;0,666275;0,359402;0,359402;0,298849;0,434675;0,359402;0,621105;0,298849;0,609402;0,359402;0,276069;0,276069;0,276069;0,609402;0,359402;0,609402;0,298849;0,298849;0,423849;0,173849;0,173849;0,173849;0,173849;0,215516;0,625294;0,625294;0,625294;0,298849;
23;;;;;;;;;;;;;;;;;;;;;;;1,000000;0,783149;0,555154;0,468186;0,000000;0,000000;0,276115;0,276115;0,000000;0,363126;0,336358;0,000000;0,000000;0,000000;0,420970;0,457791;0,391575;0,474908;0,391575;0,391575;0,000000;0,000000;0,000000;0,000000;0,000000;0,000000;0,319320;0,000000;0,724908;0,000000;0,322132;0,290045;0,340165;0,724908;0,000000;0,309986;0,266880;0,391575;0,391575;0,391575;0,332879;0,000000;0,000000;0,391575;0,474908;0,474908;0,391575;0,391575;0,349908;0,349908;0,474908;0,391575;0,474908;0,474908;0,474908;0,474908;0,474908;0,000000;0,342191;0,474908;0,000000;0,000000;0,724908;0,474908;0,391575;0,391575;0,391575;0,724908;0,474908;0,724908;0,000000;0,000000;0,000000;0,000000;0,000000;0,000000;0,000000;0,000000;0,000000;0,000000;0,000000;0,000000;
24;;;;;;;;;;;;;;;;;;;;;;;;1,000000;0,783149;0,409944;0,000000;0,000000;0,217873;0,217873;0,000000;0,304884;0,278117;0,000000;0,000000;0,000000;0,362728;0,399550;0,333333;0,416667;0,333333;0,333333;0,000000;0,000000;0,000000;0,000000;0,000000;0,000000;0,261079;0,000000;0,666667;0,000000;0,263890;0,231803;0,281923;0,666667;0,000000;0,251744;0,208639;0,333333;0,333333;0,333333;0,274638;0,000000;0,000000;0,333333;0,416667;0,416667;0,333333;0,333333;0,291667;0,291667;0,416667;0,333333;0,416667;0,416667;0,416667;0,416667;0,416667;0,000000;0,283949;0,416667;0,000000;0,000000;0,666667;0,416667;0,333333;0,333333;0,333333;0,666667;0,416667;0,666667;0,000000;0,000000;0,000000;0,000000;0,000000;0,000000;0,000000;0,000000;0,000000;0,000000;0,000000;0,000000;
25;;;;;;;;;;;;;;;;;;;;;;;;;1,000000;0,468186;0,000000;0,000000;0,276115;0,276115;0,000000;0,363126;0,336358;0,000000;0,000000;0,000000;0,420970;0,457791;0,391575;0,474908;0,391575;0,391575;0,000000;0,000000;0,000000;0,000000;0,000000;0,000000;0,319320;0,000000;0,724908;0,000000;0,322132;0,290045;0,340165;0,724908;0,000000;0,309986;0,266880;0,391575;0,391575;0,391575;0,332879;0,000000;0,000000;0,391575;0,474908;0,474908;0,391575;0,391575;0,349908;0,349908;0,474908;0,391575;0,474908;0,474908;0,474908;0,474908;0,474908;0,000000;0,342191;0,474908;0,000000;0,000000;0,724908;0,474908;0,391575;0,391575;0,391575;0,724908;0,474908;0,724908;0,000000;0,000000;0,000000;0,000000;0,000000;0,000000;0,000000;0,000000;0,000000;0,000000;0,000000;0,000000;
26;;;;;;;;;;;;;;;;;;;;;;;;;;1,000000;0,355846;0,355846;0,294485;0,294485;0,000000;0,381496;0,354728;0,000000;0,000000;0,000000;0,439339;0,808299;0,773754;0,493278;0,773754;0,773754;0,000000;0,000000;0,000000;0,000000;0,000000;0,000000;0,768645;0,000000;0,743278;0,000000;0,728934;0,692392;0,358534;0,743278;0,000000;0,328355;0,285250;0,773754;0,773754;0,773754;0,351249;0,000000;0,000000;0,773754;0,493278;0,493278;0,773754;0,409944;0,368278;0,368278;0,493278;0,773754;0,493278;0,493278;0,493278;0,493278;0,493278;0,000000;0,360560;0,493278;0,000000;0,439180;0,743278;0,493278;0,409944;0,409944;0,409944;0,743278;0,493278;0,743278;0,000000;0,000000;0,000000;0,000000;0,000000;0,000000;0,000000;0,355846;0,000000;0,000000;0,000000;0,000000;
27;;;;;;;;;;;;;;;;;;;;;;;;;;;1,000000;0,666667;0,000000;0,000000;0,000000;0,000000;0,000000;0,000000;0,000000;0,000000;0,000000;0,293091;0,333333;0,000000;0,333333;0,333333;0,000000;0,000000;0,000000;0,000000;0,000000;0,000000;0,569556;0,318230;0,000000;0,318230;0,498837;0,523445;0,334686;0,000000;0,568230;0,262055;0,312544;0,333333;0,333333;0,333333;0,265968;0,318230;0,318230;0,588454;0,000000;0,000000;0,333333;0,000000;0,000000;0,000000;0,000000;0,333333;0,000000;0,000000;0,000000;0,000000;0,000000;0,318230;0,188366;0,000000;0,318230;0,749367;0,000000;0,000000;0,000000;0,000000;0,000000;0,000000;0,000000;0,000000;0,318230;0,318230;0,443230;0,193230;0,193230;0,193230;0,193230;0,582700;0,000000;0,000000;0,000000;0,318230;
28;;;;;;;;;;;;;;;;;;;;;;;;;;;;1,000000;0,000000;0,000000;0,000000;0,000000;0,000000;0,000000;0,000000;0,000000;0,000000;0,293091;0,333333;0,000000;0,333333;0,333333;0,000000;0,000000;0,000000;0,000000;0,000000;0,000000;0,383954;0,000000;0,000000;0,000000;0,346840;0,342852;0,000000;0,000000;0,000000;0,000000;0,000000;0,333333;0,333333;0,333333;0,000000;0,000000;0,000000;0,588454;0,000000;0,000000;0,333333;0,000000;0,000000;0,000000;0,000000;0,333333;0,000000;0,000000;0,000000;0,000000;0,000000;0,000000;0,000000;0,000000;0,000000;0,416667;0,000000;0,000000;0,000000;0,000000;0,000000;0,000000;0,000000;0,000000;0,000000;0,000000;0,000000;0,000000;0,000000;0,000000;0,000000;0,333333;0,000000;0,000000;0,000000;0,000000;
29;;;;;;;;;;;;;;;;;;;;;;;;;;;;;1,000000;0,500000;0,466075;0,189424;0,162657;0,000000;0,000000;0,000000;0,247268;0,284090;0,217873;0,301207;0,217873;0,217873;0,000000;0,000000;0,000000;0,460749;0,460749;0,000000;0,145619;0,000000;0,551207;0,000000;0,148430;0,116343;0,166463;0,551207;0,000000;0,136284;0,093179;0,217873;0,217873;0,217873;0,159178;0,000000;0,000000;0,217873;0,301207;0,301207;0,217873;0,217873;0,176207;0,176207;0,301207;0,217873;0,301207;0,301207;0,301207;0,301207;0,301207;0,000000;0,168489;0,301207;0,000000;0,000000;0,551207;0,301207;0,217873;0,217873;0,217873;0,551207;0,301207;0,551207;0,000000;0,000000;0,000000;0,000000;0,000000;0,000000;0,000000;0,000000;0,000000;0,000000;0,000000;0,000000;
30;;;;;;;;;;;;;;;;;;;;;;;;;;;;;;1,000000;0,466075;0,189424;0,162657;0,000000;0,000000;0,000000;0,247268;0,284090;0,217873;0,301207;0,217873;0,217873;0,000000;0,000000;0,000000;0,460749;0,460749;0,000000;0,145619;0,000000;0,551207;0,000000;0,148430;0,116343;0,166463;0,551207;0,000000;0,136284;0,093179;0,217873;0,217873;0,217873;0,159178;0,000000;0,000000;0,217873;0,301207;0,301207;0,217873;0,217873;0,176207;0,176207;0,301207;0,217873;0,301207;0,301207;0,301207;0,301207;0,301207;0,000000;0,168489;0,301207;0,000000;0,000000;0,551207;0,301207;0,217873;0,217873;0,217873;0,551207;0,301207;0,551207;0,000000;0,000000;0,000000;0,000000;0,000000;0,000000;0,000000;0,000000;0,000000;0,000000;0,000000;0,000000;
31;;;;;;;;;;;;;;;;;;;;;;;;;;;;;;;1,000000;0,000000;0,000000;0,000000;0,000000;0,000000;0,000000;0,000000;0,000000;0,000000;0,000000;0,000000;0,000000;0,000000;0,000000;0,415796;0,415796;0,000000;0,000000;0,000000;0,000000;0,000000;0,000000;0,000000;0,000000;0,000000;0,000000;0,000000;0,000000;0,000000;0,000000;0,000000;0,000000;0,000000;0,000000;0,000000;0,000000;0,000000;0,000000;0,000000;0,000000;0,000000;0,000000;0,000000;0,000000;0,000000;0,000000;0,000000;0,000000;0,000000;0,000000;0,000000;0,000000;0,000000;0,000000;0,000000;0,000000;0,000000;0,000000;0,000000;0,000000;0,000000;0,000000;0,000000;0,000000;0,000000;0,000000;0,000000;0,000000;0,000000;0,000000;0,000000;0,000000;0,000000;
32;;;;;;;;;;;;;;;;;;;;;;;;;;;;;;;;1,000000;0,715749;0,638749;0,638749;0,638749;0,334279;0,371101;0,304884;0,388218;0,304884;0,304884;0,000000;0,000000;0,000000;0,000000;0,000000;0,000000;0,232630;0,000000;0,638218;0,000000;0,235441;0,203354;0,253474;0,638218;0,000000;0,223295;0,180190;0,304884;0,304884;0,304884;0,246189;0,000000;0,000000;0,304884;0,388218;0,388218;0,304884;0,565270;0,263218;0,263218;0,388218;0,304884;0,388218;0,388218;0,388218;0,388218;0,388218;0,000000;0,255500;0,388218;0,000000;0,000000;0,638218;0,388218;0,304884;0,304884;0,304884;0,638218;0,388218;0,638218;0,000000;0,000000;0,000000;0,000000;0,000000;0,000000;0,000000;0,000000;0,000000;0,000000;0,000000;0,000000;
33;;;;;;;;;;;;;;;;;;;;;;;;;;;;;;;;;1,000000;0,663205;0,663205;0,663205;0,307511;0,344333;0,278117;0,361450;0,278117;0,278117;0,000000;0,000000;0,000000;0,000000;0,000000;0,000000;0,205862;0,000000;0,611450;0,000000;0,208674;0,176587;0,226707;0,611450;0,000000;0,196527;0,153422;0,278117;0,278117;0,278117;0,219421;0,000000;0,000000;0,278117;0,361450;0,361450;0,278117;0,572510;0,236450;0,236450;0,361450;0,278117;0,361450;0,361450;0,361450;0,361450;0,739177;0,000000;0,228732;0,361450;0,000000;0,000000;0,611450;0,361450;0,278117;0,278117;0,278117;0,611450;0,361450;0,611450;0,000000;0,000000;0,000000;0,000000;0,000000;0,000000;0,000000;0,000000;0,000000;0,000000;0,000000;0,000000;
34;;;;;;;;;;;;;;;;;;;;;;;;;;;;;;;;;;1,000000;0,750000;0,750000;0,000000;0,000000;0,000000;0,000000;0,000000;0,000000;0,000000;0,000000;0,000000;0,000000;0,000000;0,000000;0,000000;0,000000;0,000000;0,000000;0,000000;0,000000;0,000000;0,000000;0,000000;0,000000;0,000000;0,000000;0,000000;0,000000;0,000000;0,000000;0,000000;0,000000;0,000000;0,000000;0,000000;0,583333;0,000000;0,000000;0,000000;0,000000;0,000000;0,000000;0,000000;0,000000;0,375000;0,000000;0,000000;0,000000;0,000000;0,000000;0,000000;0,000000;0,000000;0,000000;0,000000;0,000000;0,000000;0,000000;0,000000;0,000000;0,000000;0,000000;0,000000;0,000000;0,000000;0,000000;0,000000;0,000000;0,000000;0,000000;
35;;;;;;;;;;;;;;;;;;;;;;;;;;;;;;;;;;;1,000000;0,750000;0,000000;0,000000;0,000000;0,000000;0,000000;0,000000;0,000000;0,000000;0,000000;0,000000;0,000000;0,000000;0,000000;0,000000;0,000000;0,000000;0,000000;0,000000;0,000000;0,000000;0,000000;0,000000;0,000000;0,000000;0,000000;0,000000;0,000000;0,000000;0,000000;0,000000;0,000000;0,000000;0,000000;0,583333;0,000000;0,000000;0,000000;0,000000;0,000000;0,000000;0,000000;0,000000;0,375000;0,000000;0,000000;0,000000;0,000000;0,000000;0,000000;0,000000;0,000000;0,000000;0,000000;0,000000;0,000000;0,000000;0,000000;0,000000;0,000000;0,000000;0,000000;0,000000;0,000000;0,000000;0,000000;0,000000;0,000000;0,000000;
36;;;;;;;;;;;;;;;;;;;;;;;;;;;;;;;;;;;;1,000000;0,000000;0,000000;0,000000;0,000000;0,000000;0,000000;0,000000;0,000000;0,000000;0,000000;0,000000;0,000000;0,000000;0,000000;0,000000;0,000000;0,000000;0,000000;0,000000;0,000000;0,000000;0,000000;0,000000;0,000000;0,000000;0,000000;0,000000;0,000000;0,000000;0,000000;0,000000;0,000000;0,000000;0,583333;0,000000;0,000000;0,000000;0,000000;0,000000;0,000000;0,000000;0,000000;0,375000;0,000000;0,000000;0,000000;0,000000;0,000000;0,000000;0,000000;0,000000;0,000000;0,000000;0,000000;0,000000;0,000000;0,000000;0,000000;0,000000;0,000000;0,000000;0,000000;0,000000;0,000000;0,000000;0,000000;0,000000;0,000000;
37;;;;;;;;;;;;;;;;;;;;;;;;;;;;;;;;;;;;;1,000000;0,428945;0,362728;0,446062;0,362728;0,362728;0,000000;0,000000;0,000000;0,000000;0,000000;0,000000;0,290474;0,000000;0,696062;0,000000;0,293285;0,261198;0,311318;0,696062;0,000000;0,569092;0,238034;0,362728;0,362728;0,362728;0,304033;0,000000;0,000000;0,362728;0,446062;0,446062;0,362728;0,362728;0,596480;0,596480;0,446062;0,362728;0,446062;0,446062;0,446062;0,446062;0,446062;0,000000;0,313344;0,446062;0,000000;0,000000;0,696062;0,446062;0,362728;0,362728;0,362728;0,696062;0,446062;0,696062;0,000000;0,000000;0,000000;0,000000;0,000000;0,000000;0,000000;0,000000;0,000000;0,000000;0,000000;0,000000;
38;;;;;;;;;;;;;;;;;;;;;;;;;;;;;;;;;;;;;;1,000000;0,886142;0,482883;0,701212;0,701212;0,000000;0,000000;0,000000;0,000000;0,000000;0,000000;0,696103;0,000000;0,732883;0,000000;0,656392;0,619850;0,348140;0,732883;0,000000;0,317961;0,274855;0,701212;0,701212;0,701212;0,340854;0,000000;0,000000;0,701212;0,482883;0,482883;0,701212;0,399550;0,357883;0,357883;0,482883;0,701212;0,482883;0,482883;0,482883;0,482883;0,482883;0,000000;0,350166;0,482883;0,000000;0,376424;0,732883;0,482883;0,399550;0,399550;0,399550;0,732883;0,482883;0,732883;0,000000;0,000000;0,000000;0,000000;0,000000;0,000000;0,000000;0,293091;0,000000;0,000000;0,000000;0,000000;
39;;;;;;;;;;;;;;;;;;;;;;;;;;;;;;;;;;;;;;;1,000000;0,416667;0,666667;0,666667;0,000000;0,000000;0,000000;0,000000;0,000000;0,000000;0,661558;0,000000;0,666667;0,000000;0,621847;0,585305;0,281923;0,666667;0,000000;0,251744;0,208639;0,666667;0,666667;0,666667;0,274638;0,000000;0,000000;0,666667;0,416667;0,416667;0,666667;0,333333;0,291667;0,291667;0,416667;0,666667;0,416667;0,416667;0,416667;0,416667;0,416667;0,000000;0,283949;0,416667;0,000000;0,416667;0,666667;0,416667;0,333333;0,333333;0,333333;0,666667;0,416667;0,666667;0,000000;0,000000;0,000000;0,000000;0,000000;0,000000;0,000000;0,333333;0,000000;0,000000;0,000000;0,000000;
40;;;;;;;;;;;;;;;;;;;;;;;;;;;;;;;;;;;;;;;;1,000000;0,416667;0,416667;0,000000;0,000000;0,000000;0,000000;0,000000;0,000000;0,344412;0,000000;0,750000;0,000000;0,347224;0,315137;0,365257;0,750000;0,000000;0,335078;0,291972;0,416667;0,416667;0,416667;0,357971;0,000000;0,000000;0,754824;0,500000;0,500000;0,416667;0,416667;0,375000;0,375000;1,000000;0,416667;0,500000;0,500000;0,500000;0,500000;0,500000;0,000000;0,367283;0,500000;0,000000;0,000000;0,750000;1,000000;0,416667;0,416667;0,416667;0,750000;1,000000;0,750000;0,000000;0,000000;0,000000;0,000000;0,000000;0,000000;0,000000;0,000000;0,000000;0,000000;0,000000;0,000000;
41;;;;;;;;;;;;;;;;;;;;;;;;;;;;;;;;;;;;;;;;;1,000000;0,666667;0,000000;0,000000;0,000000;0,000000;0,000000;0,000000;0,661558;0,000000;0,666667;0,000000;0,621847;0,585305;0,281923;0,666667;0,000000;0,251744;0,208639;0,666667;0,666667;0,666667;0,274638;0,000000;0,000000;0,666667;0,416667;0,416667;0,666667;0,333333;0,291667;0,291667;0,416667;0,666667;0,416667;0,416667;0,416667;0,416667;0,416667;0,000000;0,283949;0,416667;0,000000;0,416667;0,666667;0,416667;0,333333;0,333333;0,333333;0,666667;0,416667;0,666667;0,000000;0,000000;0,000000;0,000000;0,000000;0,000000;0,000000;0,333333;0,000000;0,000000;0,000000;0,000000;
42;;;;;;;;;;;;;;;;;;;;;;;;;;;;;;;;;;;;;;;;;;1,000000;0,000000;0,000000;0,000000;0,000000;0,000000;0,000000;0,661558;0,000000;0,666667;0,000000;0,621847;0,585305;0,281923;0,666667;0,000000;0,251744;0,208639;0,666667;0,666667;0,666667;0,274638;0,000000;0,000000;0,666667;0,416667;0,416667;0,666667;0,333333;0,291667;0,291667;0,416667;0,666667;0,416667;0,416667;0,416667;0,416667;0,416667;0,000000;0,283949;0,416667;0,000000;0,416667;0,666667;0,416667;0,333333;0,333333;0,333333;0,666667;0,416667;0,666667;0,000000;0,000000;0,000000;0,000000;0,000000;0,000000;0,000000;0,333333;0,000000;0,000000;0,000000;0,000000;
43;;;;;;;;;;;;;;;;;;;;;;;;;;;;;;;;;;;;;;;;;;;1,000000;0,500000;0,500000;0,000000;0,000000;0,500000;0,000000;0,000000;0,000000;0,000000;0,000000;0,000000;0,000000;0,000000;0,000000;0,000000;0,000000;0,000000;0,000000;0,000000;0,000000;0,000000;0,000000;0,000000;0,000000;0,000000;0,000000;0,000000;0,000000;0,000000;0,000000;0,000000;0,000000;0,000000;0,000000;0,000000;0,000000;0,000000;0,000000;0,000000;0,000000;0,000000;0,000000;0,000000;0,000000;0,000000;0,000000;0,000000;0,000000;0,000000;0,000000;0,000000;0,000000;0,000000;0,000000;0,000000;0,000000;0,000000;0,000000;0,000000;0,000000;0,000000;
44;;;;;;;;;;;;;;;;;;;;;;;;;;;;;;;;;;;;;;;;;;;;1,000000;0,500000;0,000000;0,000000;0,500000;0,000000;0,000000;0,000000;0,000000;0,000000;0,000000;0,000000;0,000000;0,000000;0,000000;0,000000;0,000000;0,000000;0,000000;0,000000;0,000000;0,000000;0,000000;0,000000;0,000000;0,000000;0,000000;0,000000;0,000000;0,000000;0,000000;0,000000;0,000000;0,000000;0,000000;0,000000;0,000000;0,000000;0,000000;0,000000;0,000000;0,000000;0,000000;0,000000;0,000000;0,000000;0,000000;0,000000;0,000000;0,000000;0,000000;0,000000;0,000000;0,000000;0,000000;0,000000;0,000000;0,000000;0,000000;0,000000;0,000000;
45;;;;;;;;;;;;;;;;;;;;;;;;;;;;;;;;;;;;;;;;;;;;;1,000000;0,000000;0,000000;1,000000;0,000000;0,000000;0,000000;0,000000;0,000000;0,000000;0,000000;0,000000;0,000000;0,000000;0,000000;0,000000;0,000000;0,000000;0,000000;0,000000;0,000000;0,000000;0,000000;0,000000;0,000000;0,000000;0,000000;0,000000;0,000000;0,000000;0,000000;0,000000;0,000000;0,000000;0,000000;0,000000;0,000000;0,000000;0,000000;0,000000;0,000000;0,000000;0,000000;0,000000;0,000000;0,000000;0,000000;0,000000;0,000000;0,000000;0,000000;0,000000;0,000000;0,000000;0,000000;0,000000;0,000000;0,000000;0,000000;0,000000;
46;;;;;;;;;;;;;;;;;;;;;;;;;;;;;;;;;;;;;;;;;;;;;;1,000000;0,500000;0,000000;0,000000;0,000000;0,000000;0,000000;0,000000;0,000000;0,000000;0,000000;0,000000;0,000000;0,000000;0,000000;0,000000;0,000000;0,000000;0,000000;0,000000;0,000000;0,000000;0,000000;0,000000;0,000000;0,000000;0,000000;0,000000;0,000000;0,000000;0,000000;0,000000;0,000000;0,000000;0,000000;0,000000;0,000000;0,000000;0,000000;0,000000;0,000000;0,000000;0,000000;0,000000;0,000000;0,000000;0,000000;0,000000;0,000000;0,000000;0,000000;0,000000;0,000000;0,000000;0,000000;0,000000;0,000000;0,000000;0,000000;
47;;;;;;;;;;;;;;;;;;;;;;;;;;;;;;;;;;;;;;;;;;;;;;;1,000000;0,000000;0,000000;0,000000;0,000000;0,000000;0,000000;0,000000;0,000000;0,000000;0,000000;0,000000;0,000000;0,000000;0,000000;0,000000;0,000000;0,000000;0,000000;0,000000;0,000000;0,000000;0,000000;0,000000;0,000000;0,000000;0,000000;0,000000;0,000000;0,000000;0,000000;0,000000;0,000000;0,000000;0,000000;0,000000;0,000000;0,000000;0,000000;0,000000;0,000000;0,000000;0,000000;0,000000;0,000000;0,000000;0,000000;0,000000;0,000000;0,000000;0,000000;0,000000;0,000000;0,000000;0,000000;0,000000;0,000000;0,000000;
48;;;;;;;;;;;;;;;;;;;;;;;;;;;;;;;;;;;;;;;;;;;;;;;;1,000000;0,000000;0,000000;0,000000;0,000000;0,000000;0,000000;0,000000;0,000000;0,000000;0,000000;0,000000;0,000000;0,000000;0,000000;0,000000;0,000000;0,000000;0,000000;0,000000;0,000000;0,000000;0,000000;0,000000;0,000000;0,000000;0,000000;0,000000;0,000000;0,000000;0,000000;0,000000;0,000000;0,000000;0,000000;0,000000;0,000000;0,000000;0,000000;0,000000;0,000000;0,000000;0,000000;0,000000;0,000000;0,000000;0,000000;0,000000;0,000000;0,000000;0,000000;0,000000;0,000000;0,000000;0,000000;0,000000;0,000000;
49;;;;;;;;;;;;;;;;;;;;;;;;;;;;;;;;;;;;;;;;;;;;;;;;;1,000000;0,336795;0,594412;0,336795;1,000000;0,785987;0,644434;0,594412;0,586795;0,531538;0,515885;0,661558;0,661558;0,661558;0,548343;0,336795;0,336795;0,661558;0,344412;0,344412;0,661558;0,261079;0,219412;0,219412;0,344412;0,661558;0,344412;0,344412;0,344412;0,344412;0,344412;0,336795;0,466683;0,344412;0,336795;0,820189;0,594412;0,344412;0,261079;0,261079;0,261079;0,594412;0,344412;0,594412;0,336795;0,336795;0,461795;0,211795;0,211795;0,211795;0,211795;0,653522;0,000000;0,000000;0,000000;0,336795;
50;;;;;;;;;;;;;;;;;;;;;;;;;;;;;;;;;;;;;;;;;;;;;;;;;;1,000000;0,000000;0,500000;0,309473;0,337722;0,516456;0,000000;0,750000;0,443825;0,494314;0,000000;0,000000;0,000000;0,447738;0,500000;0,500000;0,000000;0,000000;0,000000;0,000000;0,000000;0,000000;0,000000;0,000000;0,000000;0,500000;0,000000;0,500000;0,000000;0,000000;0,500000;0,370136;0,000000;1,000000;0,500000;0,000000;0,000000;0,000000;0,000000;0,000000;0,000000;0,000000;0,000000;0,500000;0,500000;0,625000;0,375000;0,375000;0,375000;0,375000;0,416667;0,000000;0,000000;0,000000;0,500000;
51;;;;;;;;;;;;;;;;;;;;;;;;;;;;;;;;;;;;;;;;;;;;;;;;;;;1,000000;0,000000;0,597224;0,565137;0,615257;1,000000;0,000000;0,585078;0,541972;0,666667;0,666667;0,666667;0,607971;0,000000;0,000000;0,666667;0,750000;0,750000;0,666667;0,666667;0,625000;0,625000;0,750000;0,666667;0,750000;0,750000;0,750000;0,750000;0,750000;0,000000;0,617283;0,750000;0,000000;0,000000;1,000000;0,750000;0,666667;0,666667;0,666667;1,000000;0,750000;1,000000;0,000000;0,000000;0,000000;0,000000;0,000000;0,000000;0,000000;0,000000;0,000000;0,000000;0,000000;0,000000;
52;;;;;;;;;;;;;;;;;;;;;;;;;;;;;;;;;;;;;;;;;;;;;;;;;;;;1,000000;0,309473;0,337722;0,838125;0,000000;0,750000;0,443825;0,494314;0,000000;0,000000;0,000000;0,447738;0,500000;0,500000;0,000000;0,000000;0,000000;0,000000;0,000000;0,000000;0,000000;0,000000;0,000000;0,000000;0,000000;0,000000;0,000000;0,000000;0,500000;0,370136;0,000000;0,500000;0,500000;0,000000;0,000000;0,000000;0,000000;0,000000;0,000000;0,000000;0,000000;0,500000;0,500000;0,625000;0,375000;0,375000;0,375000;0,375000;0,416667;0,000000;0,000000;0,000000;0,500000;
53;;;;;;;;;;;;;;;;;;;;;;;;;;;;;;;;;;;;;;;;;;;;;;;;;;;;;1,000000;0,712190;0,607693;0,597224;0,559473;0,494798;0,479144;0,621847;0,621847;0,621847;0,511602;0,309473;0,309473;0,621847;0,347224;0,347224;0,621847;0,263890;0,222224;0,222224;0,347224;0,621847;0,347224;0,347224;0,347224;0,347224;0,347224;0,309473;0,429943;0,347224;0,309473;0,749470;0,597224;0,347224;0,263890;0,263890;0,263890;0,597224;0,347224;0,597224;0,309473;0,309473;0,434473;0,184473;0,184473;0,184473;0,184473;0,582804;0,000000;0,000000;0,000000;0,309473;
54;;;;;;;;;;;;;;;;;;;;;;;;;;;;;;;;;;;;;;;;;;;;;;;;;;;;;;1,000000;0,603708;0,565137;0,587722;0,490813;0,475159;0,585305;0,585305;0,585305;0,507617;0,337722;0,337722;0,585305;0,315137;0,315137;0,585305;0,231803;0,190137;0,190137;0,315137;0,585305;0,315137;0,315137;0,315137;0,315137;0,315137;0,337722;0,425958;0,315137;0,337722;0,774077;0,565137;0,315137;0,231803;0,231803;0,231803;0,565137;0,315137;0,565137;0,337722;0,337722;0,462722;0,212722;0,212722;0,212722;0,212722;0,607411;0,000000;0,000000;0,000000;0,337722;
55;;;;;;;;;;;;;;;;;;;;;;;;;;;;;;;;;;;;;;;;;;;;;;;;;;;;;;;1,000000;0,615257;0,766456;0,742605;0,726952;0,281923;0,281923;0,281923;0,759410;0,516456;0,516456;0,281923;0,365257;0,365257;0,281923;0,281923;0,240257;0,240257;0,365257;0,281923;0,365257;0,365257;0,365257;0,365257;0,365257;0,516456;0,677750;0,365257;0,516456;0,516456;0,615257;0,365257;0,281923;0,281923;0,281923;0,615257;0,365257;0,615257;0,516456;0,516456;0,641456;0,391456;0,391456;0,391456;0,391456;0,433123;0,000000;0,000000;0,000000;0,516456;
56;;;;;;;;;;;;;;;;;;;;;;;;;;;;;;;;;;;;;;;;;;;;;;;;;;;;;;;;1,000000;0,000000;0,585078;0,541972;0,666667;0,666667;0,666667;0,607971;0,000000;0,000000;0,666667;0,750000;0,750000;0,666667;0,666667;0,625000;0,625000;0,750000;0,666667;0,750000;0,750000;0,750000;0,750000;0,750000;0,000000;0,617283;0,750000;0,000000;0,000000;1,000000;0,750000;0,666667;0,666667;0,666667;1,000000;0,750000;1,000000;0,000000;0,000000;0,000000;0,000000;0,000000;0,000000;0,000000;0,000000;0,000000;0,000000;0,000000;0,000000;
57;;;;;;;;;;;;;;;;;;;;;;;;;;;;;;;;;;;;;;;;;;;;;;;;;;;;;;;;;1,000000;0,693825;0,744314;0,000000;0,000000;0,000000;0,697738;0,750000;0,750000;0,000000;0,000000;0,000000;0,000000;0,000000;0,000000;0,000000;0,000000;0,000000;0,000000;0,000000;0,000000;0,000000;0,000000;0,750000;0,620136;0,000000;0,750000;0,750000;0,000000;0,000000;0,000000;0,000000;0,000000;0,000000;0,000000;0,000000;0,750000;0,750000;0,875000;0,625000;0,625000;0,625000;0,625000;0,666667;0,000000;0,000000;0,000000;0,750000;
58;;;;;;;;;;;;;;;;;;;;;;;;;;;;;;;;;;;;;;;;;;;;;;;;;;;;;;;;;;1,000000;0,614056;0,251744;0,251744;0,251744;0,646515;0,443825;0,443825;0,251744;0,335078;0,335078;0,251744;0,251744;0,623245;0,623245;0,335078;0,251744;0,335078;0,335078;0,335078;0,335078;0,335078;0,443825;0,564855;0,335078;0,443825;0,443825;0,585078;0,335078;0,251744;0,251744;0,251744;0,585078;0,335078;0,585078;0,443825;0,443825;0,568825;0,318825;0,318825;0,318825;0,318825;0,360492;0,000000;0,000000;0,000000;0,443825;
59;;;;;;;;;;;;;;;;;;;;;;;;;;;;;;;;;;;;;;;;;;;;;;;;;;;;;;;;;;;1,000000;0,208639;0,208639;0,208639;0,630861;0,494314;0,494314;0,208639;0,291972;0,291972;0,208639;0,208639;0,166972;0,166972;0,291972;0,208639;0,291972;0,291972;0,291972;0,291972;0,291972;0,494314;0,549201;0,291972;0,494314;0,494314;0,541972;0,291972;0,208639;0,208639;0,208639;0,541972;0,291972;0,541972;0,494314;0,494314;0,619314;0,369314;0,369314;0,369314;0,369314;0,410981;0,000000;0,000000;0,000000;0,494314;
60;;;;;;;;;;;;;;;;;;;;;;;;;;;;;;;;;;;;;;;;;;;;;;;;;;;;;;;;;;;;1,000000;0,666667;0,666667;0,274638;0,000000;0,000000;0,666667;0,416667;0,416667;0,666667;0,333333;0,291667;0,291667;0,416667;0,666667;0,416667;0,416667;0,416667;0,416667;0,416667;0,000000;0,283949;0,416667;0,000000;0,416667;0,666667;0,416667;0,333333;0,333333;0,333333;0,666667;0,416667;0,666667;0,000000;0,000000;0,000000;0,000000;0,000000;0,000000;0,000000;0,333333;0,000000;0,000000;0,000000;0,000000;
61;;;;;;;;;;;;;;;;;;;;;;;;;;;;;;;;;;;;;;;;;;;;;;;;;;;;;;;;;;;;;1,000000;0,666667;0,274638;0,000000;0,000000;0,666667;0,416667;0,416667;0,666667;0,333333;0,291667;0,291667;0,416667;0,666667;0,416667;0,416667;0,416667;0,416667;0,416667;0,000000;0,283949;0,416667;0,000000;0,416667;0,666667;0,416667;0,333333;0,333333;0,333333;0,666667;0,416667;0,666667;0,000000;0,000000;0,000000;0,000000;0,000000;0,000000;0,000000;0,333333;0,000000;0,000000;0,000000;0,000000;
62;;;;;;;;;;;;;;;;;;;;;;;;;;;;;;;;;;;;;;;;;;;;;;;;;;;;;;;;;;;;;;1,000000;0,274638;0,000000;0,000000;0,666667;0,416667;0,416667;0,666667;0,333333;0,291667;0,291667;0,416667;0,666667;0,416667;0,416667;0,416667;0,833333;0,416667;0,000000;0,283949;0,416667;0,000000;0,416667;0,666667;0,416667;0,333333;0,333333;0,333333;0,666667;0,416667;0,666667;0,000000;0,000000;0,000000;0,000000;0,000000;0,000000;0,000000;0,666667;0,000000;0,000000;0,000000;0,000000;
63;;;;;;;;;;;;;;;;;;;;;;;;;;;;;;;;;;;;;;;;;;;;;;;;;;;;;;;;;;;;;;;1,000000;0,447738;0,447738;0,274638;0,357971;0,357971;0,274638;0,274638;0,232971;0,232971;0,357971;0,274638;0,357971;0,357971;0,357971;0,357971;0,357971;0,447738;0,581660;0,357971;0,447738;0,447738;0,607971;0,357971;0,274638;0,274638;0,274638;0,607971;0,357971;0,607971;0,447738;0,447738;0,572738;0,322738;0,322738;0,322738;0,322738;0,364405;0,000000;0,000000;0,000000;0,447738;
64;;;;;;;;;;;;;;;;;;;;;;;;;;;;;;;;;;;;;;;;;;;;;;;;;;;;;;;;;;;;;;;;1,000000;0,500000;0,000000;0,000000;0,000000;0,000000;0,000000;0,000000;0,000000;0,000000;0,000000;0,000000;0,000000;0,000000;0,000000;0,000000;0,500000;0,370136;0,000000;0,500000;0,500000;0,000000;0,000000;0,000000;0,000000;0,000000;0,000000;0,000000;0,000000;0,500000;0,500000;0,625000;0,375000;0,375000;0,375000;0,375000;0,416667;0,000000;0,000000;0,000000;0,500000;
65;;;;;;;;;;;;;;;;;;;;;;;;;;;;;;;;;;;;;;;;;;;;;;;;;;;;;;;;;;;;;;;;;1,000000;0,000000;0,000000;0,000000;0,000000;0,000000;0,000000;0,000000;0,000000;0,000000;0,000000;0,000000;0,000000;0,000000;0,000000;0,500000;0,370136;0,000000;0,500000;0,500000;0,000000;0,000000;0,000000;0,000000;0,000000;0,000000;0,000000;0,000000;0,500000;0,500000;0,625000;0,375000;0,375000;0,375000;0,375000;0,416667;0,000000;0,000000;0,000000;0,500000;
66;;;;;;;;;;;;;;;;;;;;;;;;;;;;;;;;;;;;;;;;;;;;;;;;;;;;;;;;;;;;;;;;;;1,000000;0,416667;0,416667;0,666667;0,333333;0,291667;0,291667;0,754824;0,666667;0,416667;0,416667;0,416667;0,416667;0,416667;0,000000;0,283949;0,416667;0,000000;0,416667;0,666667;0,754824;0,333333;0,333333;0,333333;0,666667;0,754824;0,666667;0,000000;0,000000;0,000000;0,000000;0,000000;0,000000;0,000000;0,333333;0,000000;0,000000;0,000000;0,000000;
67;;;;;;;;;;;;;;;;;;;;;;;;;;;;;;;;;;;;;;;;;;;;;;;;;;;;;;;;;;;;;;;;;;;1,000000;0,500000;0,416667;0,416667;0,375000;0,375000;0,500000;0,416667;0,500000;0,500000;0,500000;0,500000;0,500000;0,000000;0,367283;0,500000;0,000000;0,000000;0,750000;0,500000;0,416667;0,416667;0,416667;0,750000;0,500000;0,750000;0,000000;0,000000;0,000000;0,000000;0,000000;0,000000;0,000000;0,000000;0,000000;0,000000;0,000000;0,000000;
68;;;;;;;;;;;;;;;;;;;;;;;;;;;;;;;;;;;;;;;;;;;;;;;;;;;;;;;;;;;;;;;;;;;;1,000000;0,416667;0,416667;0,375000;0,375000;0,500000;0,416667;0,500000;0,500000;0,500000;0,500000;0,500000;0,000000;0,367283;0,500000;0,000000;0,000000;0,750000;0,500000;0,416667;0,416667;0,416667;0,750000;0,500000;0,750000;0,000000;0,000000;0,000000;0,000000;0,000000;0,000000;0,000000;0,000000;0,000000;0,000000;0,000000;0,000000;
69;;;;;;;;;;;;;;;;;;;;;;;;;;;;;;;;;;;;;;;;;;;;;;;;;;;;;;;;;;;;;;;;;;;;;1,000000;0,333333;0,291667;0,291667;0,416667;1,000000;0,416667;0,416667;0,416667;0,416667;0,416667;0,000000;0,283949;0,416667;0,000000;0,416667;0,666667;0,416667;0,333333;0,333333;0,333333;0,666667;0,416667;0,666667;0,000000;0,000000;0,000000;0,000000;0,000000;0,000000;0,000000;0,333333;0,000000;0,000000;0,000000;0,000000;
70;;;;;;;;;;;;;;;;;;;;;;;;;;;;;;;;;;;;;;;;;;;;;;;;;;;;;;;;;;;;;;;;;;;;;;1,000000;0,291667;0,291667;0,416667;0,333333;0,416667;0,416667;0,416667;0,416667;0,833333;0,000000;0,283949;0,416667;0,000000;0,000000;0,666667;0,416667;0,333333;0,333333;0,333333;0,666667;0,416667;0,666667;0,000000;0,000000;0,000000;0,000000;0,000000;0,000000;0,000000;0,000000;0,000000;0,000000;0,000000;0,000000;
71;;;;;;;;;;;;;;;;;;;;;;;;;;;;;;;;;;;;;;;;;;;;;;;;;;;;;;;;;;;;;;;;;;;;;;;1,000000;0,750000;0,375000;0,291667;0,375000;0,375000;0,375000;0,375000;0,375000;0,000000;0,242283;0,375000;0,000000;0,000000;0,625000;0,375000;0,291667;0,291667;0,291667;0,625000;0,375000;0,625000;0,000000;0,000000;0,000000;0,000000;0,000000;0,000000;0,000000;0,000000;0,000000;0,000000;0,000000;0,000000;
72;;;;;;;;;;;;;;;;;;;;;;;;;;;;;;;;;;;;;;;;;;;;;;;;;;;;;;;;;;;;;;;;;;;;;;;;1,000000;0,375000;0,291667;0,375000;0,375000;0,375000;0,375000;0,375000;0,000000;0,242283;0,375000;0,000000;0,000000;0,625000;0,375000;0,291667;0,291667;0,291667;0,625000;0,375000;0,625000;0,000000;0,000000;0,000000;0,000000;0,000000;0,000000;0,000000;0,000000;0,000000;0,000000;0,000000;0,000000;
73;;;;;;;;;;;;;;;;;;;;;;;;;;;;;;;;;;;;;;;;;;;;;;;;;;;;;;;;;;;;;;;;;;;;;;;;;1,000000;0,416667;0,500000;0,500000;0,500000;0,500000;0,500000;0,000000;0,367283;0,500000;0,000000;0,000000;0,750000;1,000000;0,416667;0,416667;0,416667;0,750000;1,000000;0,750000;0,000000;0,000000;0,000000;0,000000;0,000000;0,000000;0,000000;0,000000;0,000000;0,000000;0,000000;0,000000;
74;;;;;;;;;;;;;;;;;;;;;;;;;;;;;;;;;;;;;;;;;;;;;;;;;;;;;;;;;;;;;;;;;;;;;;;;;;1,000000;0,416667;0,416667;0,416667;0,416667;0,416667;0,000000;0,283949;0,416667;0,000000;0,416667;0,666667;0,416667;0,333333;0,333333;0,333333;0,666667;0,416667;0,666667;0,000000;0,000000;0,000000;0,000000;0,000000;0,000000;0,000000;0,333333;0,000000;0,000000;0,000000;0,000000;
75;;;;;;;;;;;;;;;;;;;;;;;;;;;;;;;;;;;;;;;;;;;;;;;;;;;;;;;;;;;;;;;;;;;;;;;;;;;1,000000;0,500000;1,000000;0,500000;0,500000;0,000000;0,367283;0,500000;0,500000;0,000000;0,750000;0,500000;0,416667;0,416667;0,416667;0,750000;0,500000;0,750000;0,000000;0,000000;0,000000;0,000000;0,000000;0,000000;0,000000;0,000000;0,000000;0,000000;0,000000;0,000000;
76;;;;;;;;;;;;;;;;;;;;;;;;;;;;;;;;;;;;;;;;;;;;;;;;;;;;;;;;;;;;;;;;;;;;;;;;;;;;1,000000;0,500000;0,500000;0,500000;0,000000;0,367283;0,500000;0,000000;0,000000;0,750000;0,500000;0,416667;0,416667;0,416667;0,750000;0,500000;0,750000;0,000000;0,000000;0,000000;0,000000;0,000000;0,000000;0,000000;0,000000;0,000000;0,000000;0,000000;0,000000;
77;;;;;;;;;;;;;;;;;;;;;;;;;;;;;;;;;;;;;;;;;;;;;;;;;;;;;;;;;;;;;;;;;;;;;;;;;;;;;1,000000;0,500000;0,500000;0,000000;0,367283;0,500000;0,500000;0,000000;0,750000;0,500000;0,416667;0,416667;0,416667;0,750000;0,500000;0,750000;0,000000;0,000000;0,000000;0,000000;0,000000;0,000000;0,000000;0,000000;0,000000;0,000000;0,000000;0,000000;
78;;;;;;;;;;;;;;;;;;;;;;;;;;;;;;;;;;;;;;;;;;;;;;;;;;;;;;;;;;;;;;;;;;;;;;;;;;;;;;1,000000;0,500000;0,000000;0,367283;0,500000;0,000000;0,000000;0,750000;0,500000;0,416667;0,416667;0,416667;0,750000;0,500000;0,750000;0,000000;0,000000;0,000000;0,000000;0,000000;0,000000;0,000000;0,416667;0,000000;0,000000;0,000000;0,000000;
79;;;;;;;;;;;;;;;;;;;;;;;;;;;;;;;;;;;;;;;;;;;;;;;;;;;;;;;;;;;;;;;;;;;;;;;;;;;;;;;1,000000;0,000000;0,367283;0,500000;0,000000;0,000000;0,750000;0,500000;0,416667;0,416667;0,416667;0,750000;0,500000;0,750000;0,000000;0,000000;0,000000;0,000000;0,000000;0,000000;0,000000;0,000000;0,000000;0,000000;0,000000;0,000000;
80;;;;;;;;;;;;;;;;;;;;;;;;;;;;;;;;;;;;;;;;;;;;;;;;;;;;;;;;;;;;;;;;;;;;;;;;;;;;;;;;1,000000;0,370136;0,500000;0,500000;0,500000;0,000000;0,000000;0,000000;0,000000;0,000000;0,000000;0,000000;0,000000;0,500000;0,500000;0,625000;0,375000;0,375000;0,375000;0,375000;0,416667;0,000000;0,000000;0,000000;0,500000;
81;;;;;;;;;;;;;;;;;;;;;;;;;;;;;;;;;;;;;;;;;;;;;;;;;;;;;;;;;;;;;;;;;;;;;;;;;;;;;;;;;1,000000;0,367283;0,370136;0,370136;0,617283;0,367283;0,283949;0,283949;0,283949;0,617283;0,367283;0,617283;0,370136;0,370136;0,495136;0,245136;0,245136;0,245136;0,245136;0,286803;0,000000;0,000000;0,000000;0,370136;
82;;;;;;;;;;;;;;;;;;;;;;;;;;;;;;;;;;;;;;;;;;;;;;;;;;;;;;;;;;;;;;;;;;;;;;;;;;;;;;;;;;1,000000;0,000000;0,000000;0,750000;0,500000;0,416667;0,416667;0,416667;0,750000;0,500000;0,750000;0,000000;0,000000;0,000000;0,000000;0,000000;0,000000;0,000000;0,000000;0,000000;0,000000;0,000000;0,000000;
83;;;;;;;;;;;;;;;;;;;;;;;;;;;;;;;;;;;;;;;;;;;;;;;;;;;;;;;;;;;;;;;;;;;;;;;;;;;;;;;;;;;1,000000;0,500000;0,000000;0,000000;0,000000;0,000000;0,000000;0,000000;0,000000;0,000000;0,500000;0,500000;0,625000;0,375000;0,375000;0,375000;0,375000;0,416667;0,000000;0,000000;0,000000;0,500000;
84;;;;;;;;;;;;;;;;;;;;;;;;;;;;;;;;;;;;;;;;;;;;;;;;;;;;;;;;;;;;;;;;;;;;;;;;;;;;;;;;;;;;1,000000;0,000000;0,000000;0,000000;0,000000;0,000000;0,000000;0,000000;0,000000;0,500000;0,500000;0,625000;0,375000;0,375000;0,375000;0,375000;0,833333;0,000000;0,000000;0,000000;0,500000;
85;;;;;;;;;;;;;;;;;;;;;;;;;;;;;;;;;;;;;;;;;;;;;;;;;;;;;;;;;;;;;;;;;;;;;;;;;;;;;;;;;;;;;1,000000;0,750000;0,666667;0,666667;0,666667;1,000000;0,750000;1,000000;0,000000;0,000000;0,000000;0,000000;0,000000;0,000000;0,000000;0,000000;0,000000;0,000000;0,000000;0,000000;
86;;;;;;;;;;;;;;;;;;;;;;;;;;;;;;;;;;;;;;;;;;;;;;;;;;;;;;;;;;;;;;;;;;;;;;;;;;;;;;;;;;;;;;1,000000;0,416667;0,416667;0,416667;0,750000;1,000000;0,750000;0,000000;0,000000;0,000000;0,000000;0,000000;0,000000;0,000000;0,000000;0,000000;0,000000;0,000000;0,000000;
87;;;;;;;;;;;;;;;;;;;;;;;;;;;;;;;;;;;;;;;;;;;;;;;;;;;;;;;;;;;;;;;;;;;;;;;;;;;;;;;;;;;;;;;1,000000;0,666667;0,666667;0,666667;0,416667;0,666667;0,000000;0,000000;0,000000;0,000000;0,000000;0,000000;0,000000;0,000000;0,000000;0,000000;0,000000;0,000000;
88;;;;;;;;;;;;;;;;;;;;;;;;;;;;;;;;;;;;;;;;;;;;;;;;;;;;;;;;;;;;;;;;;;;;;;;;;;;;;;;;;;;;;;;;1,000000;0,666667;0,666667;0,416667;0,666667;0,000000;0,000000;0,000000;0,000000;0,000000;0,000000;0,000000;0,000000;0,000000;0,000000;0,000000;0,000000;
89;;;;;;;;;;;;;;;;;;;;;;;;;;;;;;;;;;;;;;;;;;;;;;;;;;;;;;;;;;;;;;;;;;;;;;;;;;;;;;;;;;;;;;;;;1,000000;0,666667;0,416667;0,666667;0,000000;0,000000;0,000000;0,000000;0,000000;0,000000;0,000000;0,000000;0,000000;0,000000;0,000000;0,000000;
90;;;;;;;;;;;;;;;;;;;;;;;;;;;;;;;;;;;;;;;;;;;;;;;;;;;;;;;;;;;;;;;;;;;;;;;;;;;;;;;;;;;;;;;;;;1,000000;0,750000;1,000000;0,000000;0,000000;0,000000;0,000000;0,000000;0,000000;0,000000;0,000000;0,000000;0,000000;0,000000;0,000000;
91;;;;;;;;;;;;;;;;;;;;;;;;;;;;;;;;;;;;;;;;;;;;;;;;;;;;;;;;;;;;;;;;;;;;;;;;;;;;;;;;;;;;;;;;;;;1,000000;0,750000;0,000000;0,000000;0,000000;0,000000;0,000000;0,000000;0,000000;0,000000;0,000000;0,000000;0,000000;0,000000;
92;;;;;;;;;;;;;;;;;;;;;;;;;;;;;;;;;;;;;;;;;;;;;;;;;;;;;;;;;;;;;;;;;;;;;;;;;;;;;;;;;;;;;;;;;;;;1,000000;0,000000;0,000000;0,000000;0,000000;0,000000;0,000000;0,000000;0,000000;0,000000;0,000000;0,000000;0,000000;
93;;;;;;;;;;;;;;;;;;;;;;;;;;;;;;;;;;;;;;;;;;;;;;;;;;;;;;;;;;;;;;;;;;;;;;;;;;;;;;;;;;;;;;;;;;;;;1,000000;0,500000;0,625000;0,375000;0,375000;0,375000;0,375000;0,416667;0,000000;0,000000;0,000000;0,500000;
94;;;;;;;;;;;;;;;;;;;;;;;;;;;;;;;;;;;;;;;;;;;;;;;;;;;;;;;;;;;;;;;;;;;;;;;;;;;;;;;;;;;;;;;;;;;;;;1,000000;0,625000;0,375000;0,375000;0,375000;0,375000;0,416667;0,000000;0,000000;0,000000;0,500000;
95;;;;;;;;;;;;;;;;;;;;;;;;;;;;;;;;;;;;;;;;;;;;;;;;;;;;;;;;;;;;;;;;;;;;;;;;;;;;;;;;;;;;;;;;;;;;;;;1,000000;0,500000;0,500000;0,500000;0,500000;0,541667;0,000000;0,000000;0,000000;0,625000;
96;;;;;;;;;;;;;;;;;;;;;;;;;;;;;;;;;;;;;;;;;;;;;;;;;;;;;;;;;;;;;;;;;;;;;;;;;;;;;;;;;;;;;;;;;;;;;;;;1,000000;0,750000;0,750000;0,750000;0,291667;0,000000;0,000000;0,000000;0,375000;
97;;;;;;;;;;;;;;;;;;;;;;;;;;;;;;;;;;;;;;;;;;;;;;;;;;;;;;;;;;;;;;;;;;;;;;;;;;;;;;;;;;;;;;;;;;;;;;;;;1,000000;0,750000;0,750000;0,291667;0,000000;0,000000;0,000000;0,375000;
98;;;;;;;;;;;;;;;;;;;;;;;;;;;;;;;;;;;;;;;;;;;;;;;;;;;;;;;;;;;;;;;;;;;;;;;;;;;;;;;;;;;;;;;;;;;;;;;;;;1,000000;0,750000;0,291667;0,000000;0,000000;0,000000;0,375000;
99;;;;;;;;;;;;;;;;;;;;;;;;;;;;;;;;;;;;;;;;;;;;;;;;;;;;;;;;;;;;;;;;;;;;;;;;;;;;;;;;;;;;;;;;;;;;;;;;;;;1,000000;0,291667;0,000000;0,000000;0,000000;0,375000;
100;;;;;;;;;;;;;;;;;;;;;;;;;;;;;;;;;;;;;;;;;;;;;;;;;;;;;;;;;;;;;;;;;;;;;;;;;;;;;;;;;;;;;;;;;;;;;;;;;;;;1,000000;0,000000;0,000000;0,000000;0,416667;
101;;;;;;;;;;;;;;;;;;;;;;;;;;;;;;;;;;;;;;;;;;;;;;;;;;;;;;;;;;;;;;;;;;;;;;;;;;;;;;;;;;;;;;;;;;;;;;;;;;;;;1,000000;0,750000;0,750000;0,000000;
102;;;;;;;;;;;;;;;;;;;;;;;;;;;;;;;;;;;;;;;;;;;;;;;;;;;;;;;;;;;;;;;;;;;;;;;;;;;;;;;;;;;;;;;;;;;;;;;;;;;;;;1,000000;0,750000;0,000000;
103;;;;;;;;;;;;;;;;;;;;;;;;;;;;;;;;;;;;;;;;;;;;;;;;;;;;;;;;;;;;;;;;;;;;;;;;;;;;;;;;;;;;;;;;;;;;;;;;;;;;;;;1,000000;0,000000;
104;;;;;;;;;;;;;;;;;;;;;;;;;;;;;;;;;;;;;;;;;;;;;;;;;;;;;;;;;;;;;;;;;;;;;;;;;;;;;;;;;;;;;;;;;;;;;;;;;;;;;;;;1,000000;
