;1; 2; 3; 4; 5; 6; 7; 8; 9; 10; 11; 12; 13; 14; 15; 16; 17; 18; 19; 20; 21; 22; 23; 24; 25; 26; 27; 28; 29; 30; 31; 32; 33; 34; 35; 36; 37; 38; 39; 40; 41; 42; 43; 44; 45; 46; 47; 48; 49; 50; 51; 52; 53; 54; 55; 56; 57; 58; 59; 60; 61; 62; 63
1;1,000000;0,284147;0,468116;0,442945;0,407231;0,277318;0,657231;0,225521;0,488481;0,420049;0,418847;0,750000;0,270975;0,425249;0,407231;0,375000;0,282231;0,421587;0,440793;0,539284;0,539284;0,539284;0,187642;0,187642;0,750000;0,187642;0,187642;0,187642;0,145975;0,145975;0,239725;0,469731;0,282231;0,282231;0,282231;0,145975;0,145975;0,145975;0,657231;0,407231;0,000000;0,000000;0,000000;0,657231;0,413424;0,407231;0,282231;0,282231;0,282231;0,270975;0,000000;0,000000;0,000000;0,000000;0,407231;0,407231;0,520975;0,520975;0,323898;0,323898;0,657231;0,323898;0,323898;
2;;1,000000;0,243828;0,277484;0,286759;0,430557;0,000000;0,202970;0,261032;0,158963;0,320970;0,000000;0,262617;0,253564;0,286759;0,414195;0,442826;0,363943;0,344631;0,159147;0,159147;0,159147;0,177195;0,177195;0,000000;0,000000;0,000000;0,000000;0,000000;0,000000;0,000000;0,368046;0,429497;0,429497;0,429497;0,138442;0,138442;0,138442;0,000000;0,262617;0,179283;0,179283;0,179283;0,000000;0,347787;0,278607;0,488033;0,488033;0,488033;0,000000;0,000000;0,000000;0,262617;0,262617;0,275271;0,275271;0,000000;0,000000;0,354652;0,354652;0,000000;0,374964;0,374964;
3;;;1,000000;0,405351;0,369636;0,426870;0,619636;0,237149;0,450886;0,388165;0,386964;0,718116;0,282603;0,393366;0,369636;0,343116;0,244636;0,389703;0,408910;0,447871;0,447871;0,447871;0,199270;0,199270;0,718116;0,199270;0,199270;0,199270;0,157603;0,157603;0,251353;0,432136;0,244636;0,244636;0,244636;0,157603;0,157603;0,157603;0,619636;0,369636;0,000000;0,000000;0,000000;0,619636;0,375829;0,369636;0,244636;0,244636;0,244636;0,282603;0,000000;0,000000;0,000000;0,000000;0,369636;0,369636;0,532603;0,532603;0,286303;0,286303;0,619636;0,286303;0,286303;
4;;;;1,000000;0,535714;0,000000;0,785714;0,000000;0,616964;0,377971;0,339074;0,407722;0,000000;0,330173;0,535714;0,319451;0,410714;0,395263;0,416817;0,000000;0,000000;0,000000;0,000000;0,000000;0,424308;0,000000;0,000000;0,000000;0,000000;0,000000;0,000000;0,598214;0,410714;0,410714;0,410714;0,000000;0,000000;0,000000;0,785714;0,535714;0,000000;0,000000;0,000000;0,785714;0,541907;0,535714;0,410714;0,410714;0,410714;0,000000;0,000000;0,000000;0,000000;0,000000;0,535714;0,535714;0,000000;0,000000;0,452381;0,452381;0,785714;0,452381;0,452381;
5;;;;;1,000000;0,000000;0,750000;0,000000;0,581250;0,342257;0,303359;0,372008;0,000000;0,294459;1,000000;0,283736;0,375000;0,359549;0,381102;0,000000;0,000000;0,000000;0,000000;0,000000;0,388594;0,000000;0,000000;0,000000;0,000000;0,000000;0,000000;0,562500;0,375000;0,375000;0,375000;0,000000;0,000000;0,000000;0,750000;0,500000;0,000000;0,000000;0,000000;0,750000;0,506193;0,500000;0,375000;0,375000;0,375000;0,000000;0,000000;0,000000;0,000000;0,000000;0,500000;0,500000;0,000000;0,000000;0,416667;0,416667;0,750000;0,416667;0,416667;
6;;;;;;1,000000;0,000000;0,484766;0,000000;0,465428;0,460288;0,000000;0,304972;0,226549;0,000000;0,463557;0,445164;0,435786;0,422151;0,439807;0,439807;0,439807;0,389785;0,389785;0,000000;0,411668;0,411668;0,411668;0,495138;0,495138;0,430706;0,000000;0,000000;0,000000;0,000000;0,450860;0,450860;0,450860;0,000000;0,304972;0,221638;0,221638;0,221638;0,000000;0,000000;0,000000;0,000000;0,000000;0,000000;0,317668;0,000000;0,000000;0,304972;0,304972;0,000000;0,000000;0,000000;0,000000;0,221638;0,221638;0,000000;0,000000;0,000000;
7;;;;;;;1,000000;0,000000;0,831250;0,592257;0,553359;0,622008;0,000000;0,544459;0,750000;0,533736;0,625000;0,609549;0,631102;0,000000;0,000000;0,000000;0,000000;0,000000;0,638594;0,000000;0,000000;0,000000;0,000000;0,000000;0,000000;0,812500;0,625000;0,625000;0,625000;0,000000;0,000000;0,000000;1,000000;0,750000;0,000000;0,000000;0,000000;1,000000;0,756193;0,750000;0,625000;0,625000;0,625000;0,000000;0,000000;0,000000;0,000000;0,000000;0,750000;0,750000;0,000000;0,000000;0,666667;0,666667;1,000000;0,666667;0,666667;
8;;;;;;;;1,000000;0,000000;0,269511;0,576775;0,495758;0,454545;0,326204;0,000000;0,605498;0,510145;0,573187;0,556426;0,329545;0,329545;0,329545;0,371212;0,371212;0,522190;0,371212;0,371212;0,371212;0,656524;0,656524;0,681519;0,000000;0,000000;0,000000;0,000000;0,329545;0,329545;0,329545;0,000000;0,000000;0,000000;0,000000;0,000000;0,000000;0,000000;0,000000;0,000000;0,000000;0,000000;0,454545;0,000000;0,000000;0,000000;0,000000;0,000000;0,000000;0,704545;0,704545;0,000000;0,000000;0,000000;0,000000;0,000000;
9;;;;;;;;;1,000000;0,423507;0,384609;0,453258;0,000000;0,375709;0,581250;0,364986;0,456250;0,440799;0,462352;0,000000;0,000000;0,000000;0,000000;0,000000;0,469844;0,000000;0,000000;0,000000;0,000000;0,000000;0,000000;0,643750;0,456250;0,456250;0,456250;0,000000;0,000000;0,000000;0,831250;0,581250;0,000000;0,000000;0,000000;0,831250;0,587443;0,581250;0,811134;0,811134;0,811134;0,000000;0,000000;0,000000;0,000000;0,000000;0,581250;0,581250;0,000000;0,000000;0,497917;0,497917;0,831250;0,497917;0,497917;
10;;;;;;;;;;1,000000;0,338896;0,670049;0,314966;0,345298;0,342257;0,447094;0,217257;0,474490;0,491359;0,189966;0,189966;0,189966;0,531423;0,531423;0,670049;0,231632;0,231632;0,231632;0,189966;0,189966;0,283716;0,404757;0,217257;0,217257;0,217257;0,598606;0,598606;0,598606;0,592257;0,342257;0,000000;0,000000;0,000000;0,592257;0,348450;0,342257;0,217257;0,217257;0,217257;0,314966;0,000000;0,000000;0,000000;0,000000;0,342257;0,342257;0,564966;0,564966;0,258924;0,258924;0,592257;0,258924;0,258924;
11;;;;;;;;;;;1,000000;0,668847;0,346423;0,344096;0,303359;0,654837;0,738599;0,700212;0,704508;0,221423;0,221423;0,221423;0,492456;0,492456;0,668847;0,263089;0,263089;0,263089;0,221423;0,221423;0,315173;0,365859;0,178359;0,178359;0,178359;0,446542;0,446542;0,446542;0,553359;0,303359;0,000000;0,000000;0,000000;0,553359;0,309552;0,303359;0,178359;0,178359;0,178359;0,346423;0,000000;0,000000;0,000000;0,000000;0,303359;0,303359;0,596423;0,596423;0,220026;0,220026;0,553359;0,220026;0,220026;
12;;;;;;;;;;;;1,000000;0,541213;0,675249;0,372008;0,625000;0,247008;0,671587;0,690793;0,416213;0,416213;0,416213;0,457879;0,457879;1,000000;0,457879;0,457879;0,457879;0,416213;0,416213;0,509963;0,434508;0,247008;0,247008;0,247008;0,416213;0,416213;0,416213;0,622008;0,372008;0,000000;0,000000;0,000000;0,622008;0,378200;0,372008;0,247008;0,247008;0,247008;0,541213;0,000000;0,000000;0,000000;0,000000;0,372008;0,372008;0,791213;0,791213;0,288674;0,288674;0,622008;0,288674;0,288674;
13;;;;;;;;;;;;;1,000000;0,371659;0,000000;0,329971;0,000000;0,295879;0,292638;0,375000;0,375000;0,375000;0,416667;0,416667;0,567645;0,416667;0,416667;0,416667;0,375000;0,375000;0,468750;0,000000;0,000000;0,000000;0,000000;0,375000;0,375000;0,375000;0,000000;0,500000;0,416667;0,416667;0,416667;0,000000;0,000000;0,000000;0,000000;0,000000;0,000000;0,500000;0,000000;0,000000;0,500000;0,500000;0,000000;0,000000;0,750000;0,750000;0,416667;0,416667;0,000000;0,000000;0,000000;
14;;;;;;;;;;;;;;1,000000;0,294459;0,300249;0,169459;0,346836;0,366042;0,246659;0,246659;0,246659;0,288325;0,288325;0,675249;0,288325;0,288325;0,288325;0,246659;0,246659;0,340409;0,356959;0,169459;0,169459;0,169459;0,246659;0,246659;0,246659;0,544459;0,294459;0,489912;0,489912;0,489912;0,544459;0,300652;0,294459;0,169459;0,169459;0,169459;0,371659;0,000000;0,000000;0,349522;0,349522;0,294459;0,294459;0,621659;0,621659;0,404082;0,404082;0,544459;0,211126;0,211126;
15;;;;;;;;;;;;;;;1,000000;0,283736;0,375000;0,359549;0,381102;0,000000;0,000000;0,000000;0,000000;0,000000;0,388594;0,000000;0,000000;0,000000;0,000000;0,000000;0,000000;0,562500;0,375000;0,375000;0,375000;0,000000;0,000000;0,000000;0,750000;0,500000;0,000000;0,000000;0,000000;0,750000;0,506193;0,500000;0,375000;0,375000;0,375000;0,000000;0,000000;0,000000;0,000000;0,000000;0,500000;0,500000;0,000000;0,000000;0,416667;0,416667;0,750000;0,416667;0,416667;
16;;;;;;;;;;;;;;;;1,000000;0,657583;0,794220;0,798071;0,204971;0,204971;0,204971;0,460207;0,460207;0,625000;0,246638;0,246638;0,246638;0,375842;0,375842;0,432091;0,346236;0,158736;0,158736;0,158736;0,204971;0,204971;0,204971;0,533736;0,283736;0,000000;0,000000;0,000000;0,533736;0,289929;0,283736;0,158736;0,158736;0,158736;0,625842;0,000000;0,000000;0,000000;0,000000;0,283736;0,283736;0,579971;0,579971;0,200403;0,200403;0,533736;0,200403;0,200403;
17;;;;;;;;;;;;;;;;;1,000000;0,722837;0,727163;0,000000;0,000000;0,000000;0,000000;0,000000;0,263594;0,000000;0,000000;0,000000;0,000000;0,000000;0,000000;0,437500;0,250000;0,250000;0,250000;0,000000;0,000000;0,000000;0,625000;0,375000;0,000000;0,000000;0,000000;0,625000;0,381193;0,375000;0,250000;0,250000;0,250000;0,000000;0,000000;0,000000;0,000000;0,000000;0,375000;0,375000;0,000000;0,000000;0,291667;0,291667;0,625000;0,291667;0,291667;
18;;;;;;;;;;;;;;;;;;1,000000;0,679089;0,170879;0,170879;0,170879;0,407810;0,407810;0,671587;0,212546;0,212546;0,212546;0,323615;0,323615;0,379865;0,422049;0,234549;0,234549;0,234549;0,170879;0,170879;0,170879;0,609549;0,359549;0,000000;0,000000;0,000000;0,609549;0,365742;0,359549;0,234549;0,234549;0,234549;0,573615;0,000000;0,000000;0,000000;0,000000;0,359549;0,359549;0,545879;0,545879;0,276216;0,276216;0,609549;0,276216;0,276216;
19;;;;;;;;;;;;;;;;;;;1,000000;0,167638;0,167638;0,167638;0,402700;0,402700;0,690793;0,209304;0,209304;0,209304;0,318542;0,318542;0,374791;0,443602;0,256102;0,256102;0,256102;0,167638;0,167638;0,167638;0,631102;0,381102;0,000000;0,000000;0,000000;0,631102;0,387295;0,381102;0,256102;0,256102;0,256102;0,568542;0,000000;0,000000;0,000000;0,000000;0,381102;0,381102;0,542638;0,542638;0,297769;0,297769;0,631102;0,297769;0,297769;
20;;;;;;;;;;;;;;;;;;;;1,000000;0,750000;0,750000;0,291667;0,291667;0,442645;0,291667;0,291667;0,291667;0,250000;0,250000;0,343750;0,000000;0,000000;0,000000;0,000000;0,250000;0,250000;0,250000;0,000000;0,000000;0,000000;0,000000;0,000000;0,000000;0,000000;0,000000;0,000000;0,000000;0,000000;0,375000;0,000000;0,000000;0,000000;0,000000;0,000000;0,000000;0,625000;0,625000;0,000000;0,000000;0,000000;0,000000;0,000000;
21;;;;;;;;;;;;;;;;;;;;;1,000000;0,750000;0,291667;0,291667;0,442645;0,291667;0,291667;0,291667;0,250000;0,250000;0,343750;0,000000;0,000000;0,000000;0,000000;0,250000;0,250000;0,250000;0,000000;0,000000;0,000000;0,000000;0,000000;0,000000;0,000000;0,000000;0,000000;0,000000;0,000000;0,375000;0,000000;0,000000;0,000000;0,000000;0,000000;0,000000;0,625000;0,625000;0,000000;0,000000;0,000000;0,000000;0,000000;
22;;;;;;;;;;;;;;;;;;;;;;1,000000;0,291667;0,291667;0,442645;0,291667;0,291667;0,291667;0,250000;0,250000;0,343750;0,000000;0,000000;0,000000;0,000000;0,250000;0,250000;0,250000;0,000000;0,000000;0,000000;0,000000;0,000000;0,000000;0,000000;0,000000;0,000000;0,000000;0,000000;0,375000;0,000000;0,000000;0,000000;0,000000;0,000000;0,000000;0,625000;0,625000;0,000000;0,000000;0,000000;0,000000;0,000000;
23;;;;;;;;;;;;;;;;;;;;;;;1,000000;0,666667;0,484311;0,333333;0,333333;0,333333;0,291667;0,291667;0,385417;0,000000;0,000000;0,000000;0,000000;0,291667;0,291667;0,291667;0,000000;0,000000;0,000000;0,000000;0,000000;0,000000;0,000000;0,000000;0,000000;0,000000;0,000000;0,416667;0,000000;0,000000;0,000000;0,000000;0,000000;0,000000;0,666667;0,666667;0,000000;0,000000;0,000000;0,000000;0,000000;
24;;;;;;;;;;;;;;;;;;;;;;;;1,000000;0,484311;0,333333;0,333333;0,333333;0,291667;0,291667;0,385417;0,000000;0,000000;0,000000;0,000000;0,291667;0,291667;0,291667;0,000000;0,000000;0,000000;0,000000;0,000000;0,000000;0,000000;0,000000;0,000000;0,000000;0,000000;0,416667;0,000000;0,000000;0,000000;0,000000;0,000000;0,000000;0,666667;0,666667;0,000000;0,000000;0,000000;0,000000;0,000000;
25;;;;;;;;;;;;;;;;;;;;;;;;;1,000000;0,484311;0,484311;0,484311;0,442645;0,442645;0,536395;0,451094;0,263594;0,263594;0,263594;0,442645;0,442645;0,442645;0,638594;0,388594;0,000000;0,000000;0,000000;0,638594;0,394787;0,388594;0,263594;0,263594;0,263594;0,567645;0,000000;0,000000;0,000000;0,000000;0,388594;0,388594;0,817645;0,817645;0,305261;0,305261;0,638594;0,305261;0,305261;
26;;;;;;;;;;;;;;;;;;;;;;;;;;1,000000;0,666667;0,666667;0,291667;0,291667;0,385417;0,000000;0,000000;0,000000;0,000000;0,291667;0,291667;0,291667;0,000000;0,000000;0,000000;0,000000;0,000000;0,000000;0,000000;0,000000;0,000000;0,000000;0,000000;0,416667;0,000000;0,000000;0,000000;0,000000;0,000000;0,000000;0,666667;0,666667;0,000000;0,000000;0,000000;0,000000;0,000000;
27;;;;;;;;;;;;;;;;;;;;;;;;;;;1,000000;0,666667;0,291667;0,291667;0,385417;0,000000;0,000000;0,000000;0,000000;0,291667;0,291667;0,291667;0,000000;0,000000;0,000000;0,000000;0,000000;0,000000;0,000000;0,000000;0,000000;0,000000;0,000000;0,416667;0,000000;0,000000;0,000000;0,000000;0,000000;0,000000;0,666667;0,666667;0,000000;0,000000;0,000000;0,000000;0,000000;
28;;;;;;;;;;;;;;;;;;;;;;;;;;;;1,000000;0,291667;0,291667;0,385417;0,000000;0,000000;0,000000;0,000000;0,291667;0,291667;0,291667;0,000000;0,000000;0,000000;0,000000;0,000000;0,000000;0,000000;0,000000;0,000000;0,000000;0,000000;0,416667;0,000000;0,000000;0,000000;0,000000;0,000000;0,000000;0,666667;0,666667;0,000000;0,000000;0,000000;0,000000;0,000000;
29;;;;;;;;;;;;;;;;;;;;;;;;;;;;;1,000000;0,750000;0,775620;0,000000;0,000000;0,000000;0,000000;0,250000;0,250000;0,250000;0,000000;0,000000;0,000000;0,000000;0,000000;0,000000;0,000000;0,000000;0,000000;0,000000;0,000000;0,750000;0,000000;0,000000;0,000000;0,000000;0,000000;0,000000;0,625000;0,625000;0,000000;0,000000;0,000000;0,000000;0,000000;
30;;;;;;;;;;;;;;;;;;;;;;;;;;;;;;1,000000;0,775620;0,000000;0,000000;0,000000;0,000000;0,250000;0,250000;0,250000;0,000000;0,000000;0,000000;0,000000;0,000000;0,000000;0,000000;0,000000;0,000000;0,000000;0,000000;0,750000;0,000000;0,000000;0,000000;0,000000;0,000000;0,000000;0,625000;0,625000;0,000000;0,000000;0,000000;0,000000;0,000000;
31;;;;;;;;;;;;;;;;;;;;;;;;;;;;;;;1,000000;0,000000;0,000000;0,000000;0,000000;0,343750;0,343750;0,343750;0,000000;0,000000;0,000000;0,000000;0,000000;0,000000;0,000000;0,000000;0,000000;0,000000;0,000000;0,806249;0,000000;0,000000;0,000000;0,000000;0,000000;0,000000;0,718750;0,718750;0,000000;0,000000;0,000000;0,000000;0,000000;
32;;;;;;;;;;;;;;;;;;;;;;;;;;;;;;;;1,000000;0,804161;0,804161;0,804161;0,000000;0,000000;0,000000;0,812500;0,562500;0,000000;0,000000;0,000000;0,812500;0,568693;0,562500;0,437500;0,437500;0,437500;0,000000;0,000000;0,000000;0,000000;0,000000;0,562500;0,562500;0,000000;0,000000;0,479167;0,479167;0,812500;0,479167;0,479167;
33;;;;;;;;;;;;;;;;;;;;;;;;;;;;;;;;;1,000000;0,750000;0,750000;0,000000;0,000000;0,000000;0,625000;0,375000;0,000000;0,000000;0,000000;0,625000;0,381193;0,375000;0,250000;0,250000;0,250000;0,000000;0,000000;0,000000;0,000000;0,000000;0,375000;0,375000;0,000000;0,000000;0,291667;0,291667;0,625000;0,291667;0,291667;
34;;;;;;;;;;;;;;;;;;;;;;;;;;;;;;;;;;1,000000;0,750000;0,000000;0,000000;0,000000;0,625000;0,375000;0,000000;0,000000;0,000000;0,625000;0,381193;0,375000;0,250000;0,250000;0,250000;0,000000;0,000000;0,000000;0,000000;0,000000;0,375000;0,375000;0,000000;0,000000;0,291667;0,291667;0,625000;0,291667;0,291667;
35;;;;;;;;;;;;;;;;;;;;;;;;;;;;;;;;;;;1,000000;0,000000;0,000000;0,000000;0,625000;0,375000;0,000000;0,000000;0,000000;0,625000;0,381193;0,375000;0,250000;0,250000;0,250000;0,000000;0,000000;0,000000;0,000000;0,000000;0,375000;0,375000;0,000000;0,000000;0,291667;0,291667;0,625000;0,291667;0,291667;
36;;;;;;;;;;;;;;;;;;;;;;;;;;;;;;;;;;;;1,000000;0,750000;0,750000;0,000000;0,000000;0,000000;0,000000;0,000000;0,000000;0,000000;0,000000;0,000000;0,000000;0,000000;0,375000;0,000000;0,000000;0,000000;0,000000;0,000000;0,000000;0,625000;0,625000;0,000000;0,000000;0,000000;0,000000;0,000000;
37;;;;;;;;;;;;;;;;;;;;;;;;;;;;;;;;;;;;;1,000000;0,750000;0,000000;0,000000;0,000000;0,000000;0,000000;0,000000;0,000000;0,000000;0,000000;0,000000;0,000000;0,375000;0,000000;0,000000;0,000000;0,000000;0,000000;0,000000;0,625000;0,625000;0,000000;0,000000;0,000000;0,000000;0,000000;
38;;;;;;;;;;;;;;;;;;;;;;;;;;;;;;;;;;;;;;1,000000;0,000000;0,000000;0,000000;0,000000;0,000000;0,000000;0,000000;0,000000;0,000000;0,000000;0,000000;0,375000;0,000000;0,000000;0,000000;0,000000;0,000000;0,000000;0,625000;0,625000;0,000000;0,000000;0,000000;0,000000;0,000000;
39;;;;;;;;;;;;;;;;;;;;;;;;;;;;;;;;;;;;;;;1,000000;0,750000;0,000000;0,000000;0,000000;1,000000;0,756193;0,750000;0,625000;0,625000;0,625000;0,000000;0,000000;0,000000;0,000000;0,000000;0,750000;0,750000;0,000000;0,000000;0,666667;0,666667;1,000000;0,666667;0,666667;
40;;;;;;;;;;;;;;;;;;;;;;;;;;;;;;;;;;;;;;;;1,000000;0,416667;0,416667;0,416667;0,750000;0,506193;0,500000;0,375000;0,375000;0,375000;0,000000;0,000000;0,000000;0,500000;0,500000;0,500000;0,500000;0,000000;0,000000;0,833333;0,833333;0,750000;0,416667;0,416667;
41;;;;;;;;;;;;;;;;;;;;;;;;;;;;;;;;;;;;;;;;;1,000000;0,666667;0,666667;0,000000;0,000000;0,000000;0,000000;0,000000;0,000000;0,000000;0,000000;0,000000;0,416667;0,416667;0,000000;0,000000;0,000000;0,000000;0,333333;0,333333;0,000000;0,000000;0,000000;
42;;;;;;;;;;;;;;;;;;;;;;;;;;;;;;;;;;;;;;;;;;1,000000;0,666667;0,000000;0,000000;0,000000;0,000000;0,000000;0,000000;0,000000;0,000000;0,000000;0,416667;0,416667;0,000000;0,000000;0,000000;0,000000;0,333333;0,333333;0,000000;0,000000;0,000000;
43;;;;;;;;;;;;;;;;;;;;;;;;;;;;;;;;;;;;;;;;;;;1,000000;0,000000;0,000000;0,000000;0,000000;0,000000;0,000000;0,000000;0,000000;0,000000;0,416667;0,416667;0,000000;0,000000;0,000000;0,000000;0,333333;0,333333;0,000000;0,000000;0,000000;
44;;;;;;;;;;;;;;;;;;;;;;;;;;;;;;;;;;;;;;;;;;;;1,000000;0,756193;0,750000;0,625000;0,625000;0,625000;0,000000;0,000000;0,000000;0,000000;0,000000;0,750000;0,750000;0,000000;0,000000;0,666667;0,666667;1,000000;0,666667;0,666667;
45;;;;;;;;;;;;;;;;;;;;;;;;;;;;;;;;;;;;;;;;;;;;;1,000000;0,506193;0,381193;0,381193;0,381193;0,000000;0,000000;0,000000;0,000000;0,000000;0,506193;0,506193;0,000000;0,000000;0,422859;0,422859;0,756193;0,666667;0,666667;
46;;;;;;;;;;;;;;;;;;;;;;;;;;;;;;;;;;;;;;;;;;;;;;1,000000;0,375000;0,375000;0,375000;0,000000;0,000000;0,000000;0,000000;0,000000;0,500000;0,500000;0,000000;0,000000;0,416667;0,416667;0,750000;0,833333;0,833333;
47;;;;;;;;;;;;;;;;;;;;;;;;;;;;;;;;;;;;;;;;;;;;;;;1,000000;0,750000;0,750000;0,000000;0,000000;0,000000;0,000000;0,000000;0,375000;0,375000;0,000000;0,000000;0,291667;0,291667;0,625000;0,291667;0,291667;
48;;;;;;;;;;;;;;;;;;;;;;;;;;;;;;;;;;;;;;;;;;;;;;;;1,000000;0,750000;0,000000;0,000000;0,000000;0,000000;0,000000;0,375000;0,375000;0,000000;0,000000;0,291667;0,291667;0,625000;0,291667;0,291667;
49;;;;;;;;;;;;;;;;;;;;;;;;;;;;;;;;;;;;;;;;;;;;;;;;;1,000000;0,000000;0,000000;0,000000;0,000000;0,000000;0,375000;0,375000;0,000000;0,000000;0,291667;0,291667;0,625000;0,291667;0,291667;
50;;;;;;;;;;;;;;;;;;;;;;;;;;;;;;;;;;;;;;;;;;;;;;;;;;1,000000;0,000000;0,000000;0,000000;0,000000;0,000000;0,000000;0,750000;0,750000;0,000000;0,000000;0,000000;0,000000;0,000000;
51;;;;;;;;;;;;;;;;;;;;;;;;;;;;;;;;;;;;;;;;;;;;;;;;;;;1,000000;0,000000;0,000000;0,000000;0,000000;0,000000;0,000000;0,000000;0,000000;0,000000;0,000000;0,000000;0,000000;
52;;;;;;;;;;;;;;;;;;;;;;;;;;;;;;;;;;;;;;;;;;;;;;;;;;;;1,000000;0,000000;0,000000;0,000000;0,000000;0,000000;0,000000;0,000000;0,000000;0,000000;0,000000;0,000000;
53;;;;;;;;;;;;;;;;;;;;;;;;;;;;;;;;;;;;;;;;;;;;;;;;;;;;;1,000000;0,500000;0,000000;0,000000;0,000000;0,000000;0,416667;0,416667;0,000000;0,000000;0,000000;
54;;;;;;;;;;;;;;;;;;;;;;;;;;;;;;;;;;;;;;;;;;;;;;;;;;;;;;1,000000;0,000000;0,000000;0,000000;0,000000;0,416667;0,416667;0,000000;0,000000;0,000000;
55;;;;;;;;;;;;;;;;;;;;;;;;;;;;;;;;;;;;;;;;;;;;;;;;;;;;;;;1,000000;0,500000;0,000000;0,000000;0,416667;0,416667;0,750000;0,416667;0,416667;
56;;;;;;;;;;;;;;;;;;;;;;;;;;;;;;;;;;;;;;;;;;;;;;;;;;;;;;;;1,000000;0,000000;0,000000;0,416667;0,416667;0,750000;0,416667;0,416667;
57;;;;;;;;;;;;;;;;;;;;;;;;;;;;;;;;;;;;;;;;;;;;;;;;;;;;;;;;;1,000000;1,000000;0,000000;0,000000;0,000000;0,000000;0,000000;
58;;;;;;;;;;;;;;;;;;;;;;;;;;;;;;;;;;;;;;;;;;;;;;;;;;;;;;;;;;1,000000;0,000000;0,000000;0,000000;0,000000;0,000000;
59;;;;;;;;;;;;;;;;;;;;;;;;;;;;;;;;;;;;;;;;;;;;;;;;;;;;;;;;;;;1,000000;0,666667;0,666667;0,333333;0,333333;
60;;;;;;;;;;;;;;;;;;;;;;;;;;;;;;;;;;;;;;;;;;;;;;;;;;;;;;;;;;;;1,000000;0,666667;0,333333;0,333333;
61;;;;;;;;;;;;;;;;;;;;;;;;;;;;;;;;;;;;;;;;;;;;;;;;;;;;;;;;;;;;;1,000000;0,666667;0,666667;
62;;;;;;;;;;;;;;;;;;;;;;;;;;;;;;;;;;;;;;;;;;;;;;;;;;;;;;;;;;;;;;1,000000;0,666667;
63;;;;;;;;;;;;;;;;;;;;;;;;;;;;;;;;;;;;;;;;;;;;;;;;;;;;;;;;;;;;;;;1,000000;
