;1; 2; 3; 4; 5; 6; 7; 8; 9; 10; 11; 12; 13; 14; 15; 16; 17; 18; 19; 20; 21; 22; 23; 24; 25; 26; 27; 28; 29; 30; 31; 32; 33; 34; 35; 36; 37; 38; 39; 40; 41; 42; 43; 44; 45; 46; 47; 48; 49; 50; 51; 52; 53; 54; 55; 56; 57; 58; 59; 60; 61; 62; 63; 64; 65; 66; 67; 68; 69; 70; 71; 72; 73; 74; 75; 76; 77; 78; 79; 80; 81; 82; 83; 84; 85; 86; 87; 88; 89; 90; 91; 92; 93; 94; 95; 96; 97; 98; 99; 100; 101; 102; 103; 104; 105; 106; 107; 108; 109; 110; 111; 112; 113; 114; 115; 116; 117; 118; 119; 120; 121; 122; 123; 124; 125; 126; 127; 128; 129; 130; 131; 132; 133; 134; 135
1;1,000000;0,578348;0,561533;0,504891;0,492243;0,531815;0,483749;0,534124;0,460669;0,419328;0,262220;0,471549;0,479332;0,449578;0,462482;0,326670;0,440089;0,477439;0,389702;0,301534;0,502199;0,351990;0,439045;0,439045;0,262220;0,598515;0,262220;0,522381;0,473979;0,334871;0,449063;0,478588;0,354836;0,419246;0,390314;0,000000;0,000000;0,000000;0,319909;0,320274;0,254544;0,254544;0,393847;0,361447;0,452216;0,444017;0,421593;0,409032;0,383008;0,359844;0,344239;0,335306;0,264009;0,127634;0,208007;0,127634;0,127634;0,277924;0,465960;0,422445;0,378700;0,351158;0,000000;0,000000;0,000000;0,205070;0,373411;0,386142;0,386142;0,389153;0,262008;0,430969;0,430969;0,404900;0,404900;0,264532;0,385611;0,362190;0,338973;0,403719;0,000000;0,000000;0,261087;0,266941;0,377443;0,171398;0,277924;0,241419;0,359844;0,448555;0,348563;0,348563;0,348563;0,341124;0,269419;0,269419;0,000000;0,000000;0,214105;0,177754;0,000000;0,371899;0,371899;0,000000;0,000000;0,263257;0,393149;0,393149;0,000000;0,000000;0,000000;0,265042;0,261087;0,000000;0,444017;0,533176;0,533176;0,373969;0,345553;0,000000;0,000000;0,000000;0,000000;0,487631;0,487631;0,000000;0,000000;0,000000;0,000000;0,000000;0,341124;0,358913;0,261087;0,000000;0,000000;
2;;1,000000;0,571321;0,556741;0,505240;0,488953;0,586718;0,589229;0,546080;0,387517;0,345889;0,158085;0,569598;0,496594;0,584159;0,533472;0,477747;0,338308;0,534476;0,434075;0,494396;0,311515;0,492891;0,492891;0,346200;0,457993;0,346200;0,581250;0,530636;0,497548;0,503778;0,509117;0,352440;0,540074;0,529826;0,000000;0,000000;0,000000;0,381195;0,408928;0,408330;0,408330;0,496497;0,683700;0,601644;0,500882;0,415380;0,464498;0,520396;0,534311;0,168988;0,554801;0,456982;0,132083;0,340085;0,132083;0,132083;0,665380;0,498714;0,505000;0,520396;0,670444;0,173750;0,173750;0,173750;0,670032;0,486101;0,269849;0,269849;0,269849;0,667549;0,481178;0,481178;0,558700;0,558700;0,519106;0,269849;0,547475;0,168988;0,706740;0,000000;0,000000;0,655702;0,398530;0,348525;0,343236;0,517553;0,428085;0,534311;0,592074;0,311515;0,311515;0,311515;0,168988;0,316178;0,316178;0,644849;0,397463;0,421843;0,349142;0,257083;0,520396;0,520396;0,000000;0,000000;0,394849;0,414990;0,414990;0,000000;0,000000;0,000000;0,000000;0,670135;0,000000;0,500882;0,588786;0,588786;0,498714;0,394849;0,127322;0,127322;0,127322;0,127322;0,545373;0,545373;0,102322;0,102322;0,102322;0,102322;0,102322;0,311515;0,393056;0,515808;0,000000;0,000000;
3;;;1,000000;0,642956;0,731424;0,637622;0,719471;0,713408;0,775154;0,306621;0,260767;0,177761;0,475237;0,602998;0,437823;0,000000;0,459097;0,188706;0,314312;0,225885;0,534148;0,323682;0,602998;0,602998;0,435078;0,279508;0,435078;0,519665;0,611091;0,423472;0,521072;0,785141;0,000000;0,573376;0,551111;0,000000;0,000000;0,000000;0,278798;0,226505;0,268428;0,268428;0,493687;0,323682;0,469936;0,602998;0,414980;0,461688;0,514548;0,000000;0,000000;0,354885;0,000000;0,000000;0,194958;0,000000;0,000000;0,664980;0,777090;0,436290;0,514644;0,323682;0,000000;0,000000;0,000000;0,489335;0,662343;0,282016;0,282016;0,282016;0,407016;0,602998;0,602998;0,282016;0,282016;0,000000;0,282016;0,228678;0,000000;0,498313;0,000000;0,000000;0,665091;0,000000;0,230283;0,000000;0,254624;0,000000;0,000000;0,527161;0,323682;0,323682;0,323682;0,000000;0,238429;0,238429;0,657016;0,409630;0,208367;0,172016;0,000000;0,498602;0,498602;0,000000;0,000000;0,681214;0,282016;0,282016;0,000000;0,000000;0,000000;0,000000;0,514866;0,000000;0,602998;0,469665;0,469665;0,688929;0,769665;0,000000;0,000000;0,000000;0,000000;0,519665;0,519665;0,000000;0,000000;0,000000;0,000000;0,000000;0,323682;0,351583;0,255349;0,000000;0,000000;
4;;;;1,000000;0,640309;0,720608;0,842754;0,843873;0,923070;0,307658;0,322958;0,170961;0,660866;0,645915;0,414287;0,000000;0,502014;0,180265;0,313587;0,225160;0,577064;0,322958;0,645915;0,645915;0,322958;0,426616;0,322958;0,562582;0,910669;0,466388;0,563989;0,645915;0,000000;0,607144;0,580405;0,000000;0,000000;0,000000;0,195879;0,185405;0,267704;0,267704;0,316630;0,322958;0,460908;0,645915;0,281291;0,300576;0,645915;0,000000;0,000000;0,397802;0,000000;0,000000;0,194233;0,000000;0,000000;0,406291;0,645915;0,653716;0,645915;0,322958;0,000000;0,000000;0,000000;0,312447;0,705260;0,281291;0,281291;0,281291;0,406291;0,645915;0,645915;0,281291;0,281291;0,000000;0,281291;0,000000;0,000000;0,645915;0,000000;0,000000;0,406291;0,000000;0,216994;0,000000;0,000000;0,000000;0,000000;0,498755;0,322958;0,322958;0,322958;0,000000;0,237704;0,237704;0,656291;0,408905;0,000000;0,000000;0,000000;0,645915;0,645915;0,000000;0,000000;0,406291;0,281291;0,281291;0,000000;0,000000;0,000000;0,000000;0,276461;0,000000;0,645915;0,512582;0,512582;0,322958;0,812582;0,000000;0,000000;0,000000;0,000000;0,562582;0,562582;0,000000;0,000000;0,000000;0,000000;0,000000;0,322958;0,281291;0,000000;0,000000;0,000000;
5;;;;;1,000000;0,569403;0,859901;0,577727;0,716366;0,287432;0,302732;0,257759;0,429151;0,661060;0,516997;0,000000;0,517159;0,234396;0,431425;0,412854;0,694006;0,543022;0,661060;0,661060;0,302732;0,219226;0,302732;0,577727;0,603921;0,481534;0,579134;0,946284;0,000000;0,479823;0,507299;0,000000;0,000000;0,000000;0,217422;0,206948;0,289246;0,289246;0,616934;0,344500;0,514975;0,661060;0,518151;0,584934;0,344500;0,000000;0,000000;0,412947;0,000000;0,000000;0,215776;0,000000;0,000000;0,768151;0,917519;0,494353;0,344500;0,344500;0,000000;0,000000;0,000000;0,592506;0,720405;0,302834;0,302834;0,302834;0,427834;0,661060;0,661060;0,302834;0,302834;0,000000;0,302834;0,000000;0,000000;0,601484;0,000000;0,000000;0,709387;0,000000;0,294415;0,000000;0,323363;0,000000;0,000000;0,513900;0,344500;0,344500;0,344500;0,000000;0,259247;0,259247;0,677834;0,430448;0,223392;0,187042;0,000000;0,344500;0,344500;0,000000;0,000000;0,427834;0,302834;0,302834;0,000000;0,000000;0,000000;0,000000;0,559162;0,000000;0,661060;0,527727;0,527727;0,601484;0,827727;0,000000;0,000000;0,000000;0,000000;0,577727;0,577727;0,000000;0,000000;0,000000;0,000000;0,000000;0,344500;0,415715;0,270375;0,000000;0,000000;
6;;;;;;1,000000;0,625616;0,626735;0,705932;0,282220;0,406582;0,252908;0,442577;0,575009;0,343381;0,000000;0,431108;0,083328;0,396167;0,326104;0,581696;0,337226;0,575009;0,575009;0,226020;0,183918;0,226020;0,491676;0,693531;0,395482;0,493082;0,575009;0,000000;0,621770;0,586891;0,000000;0,000000;0,000000;0,341839;0,326243;0,281972;0,281972;0,563001;0,337226;0,390001;0,575009;0,619501;0,589238;0,702576;0,000000;0,177299;0,326896;0,000000;0,000000;0,208501;0,000000;0,000000;0,420559;0,575009;0,618983;0,691995;0,337226;0,000000;0,000000;0,000000;0,550451;0,634354;0,295559;0,295559;0,295559;0,420559;0,575009;0,575009;0,295559;0,295559;0,000000;0,295559;0,000000;0,177299;0,514498;0,000000;0,000000;0,420559;0,000000;0,120057;0,000000;0,260633;0,000000;0,000000;0,427848;0,337226;0,337226;0,337226;0,177299;0,352470;0,352470;0,670559;0,423173;0,000000;0,000000;0,000000;0,514498;0,514498;0,000000;0,000000;0,692259;0,295559;0,295559;0,000000;0,000000;0,000000;0,000000;0,290729;0,000000;0,575009;0,441676;0,441676;0,525592;0,741676;0,135633;0,135633;0,135633;0,135633;0,491676;0,491676;0,110633;0,110633;0,110633;0,110633;0,110633;0,337226;0,184354;0,000000;0,000000;0,000000;
7;;;;;;;1,000000;0,748881;0,828077;0,241929;0,257229;0,289860;0,510809;0,643983;0,412355;0,000000;0,500082;0,114536;0,347208;0,258781;0,575132;0,356579;0,643983;0,643983;0,257229;0,254410;0,257229;0,560650;0,815677;0,464456;0,562056;0,861571;0,000000;0,713311;0,703064;0,000000;0,000000;0,000000;0,229500;0,219026;0,301324;0,301324;0,615763;0,356579;0,458975;0,643983;0,575396;0,577348;0,586222;0,000000;0,000000;0,395870;0,000000;0,000000;0,227854;0,000000;0,000000;0,825396;0,942381;0,558724;0,586222;0,356579;0,000000;0,000000;0,000000;0,649751;0,703328;0,314912;0,314912;0,314912;0,439912;0,643983;0,643983;0,314912;0,314912;0,000000;0,314912;0,000000;0,000000;0,879978;0,000000;0,000000;0,439912;0,000000;0,151265;0,000000;0,347634;0,000000;0,000000;0,496822;0,356579;0,356579;0,356579;0,000000;0,271325;0,271325;0,689912;0,442526;0,000000;0,000000;0,000000;0,586222;0,586222;0,000000;0,000000;0,439912;0,314912;0,314912;0,000000;0,000000;0,000000;0,000000;0,310082;0,000000;0,643983;0,510650;0,510650;0,658729;0,810650;0,000000;0,000000;0,000000;0,000000;0,560650;0,560650;0,000000;0,000000;0,000000;0,000000;0,000000;0,356579;0,215562;0,000000;0,000000;0,000000;
8;;;;;;;;1,000000;0,975655;0,276367;0,291667;0,139670;0,511929;0,583333;0,351705;0,000000;0,439432;0,148974;0,282296;0,193869;0,514483;0,291667;0,583333;0,583333;0,291667;0,364034;0,291667;0,500000;0,816796;0,403807;0,501407;0,583333;0,000000;0,544563;0,517823;0,000000;0,000000;0,000000;0,164588;0,154114;0,236413;0,236413;0,285339;0,291667;0,398326;0,583333;0,250000;0,269285;0,583333;0,000000;0,000000;0,335220;0,000000;0,000000;0,162942;0,000000;0,000000;0,375000;0,583333;0,559843;0,583333;0,291667;0,000000;0,000000;0,000000;0,281156;0,642678;0,250000;0,250000;0,250000;0,375000;0,583333;0,583333;0,250000;0,250000;0,000000;0,250000;0,000000;0,000000;0,583333;0,000000;0,000000;0,375000;0,000000;0,185703;0,000000;0,000000;0,000000;0,000000;0,436173;0,291667;0,291667;0,291667;0,000000;0,206413;0,206413;0,625000;0,377614;0,000000;0,000000;0,000000;0,583333;0,583333;0,000000;0,000000;0,375000;0,250000;0,250000;0,000000;0,000000;0,000000;0,000000;0,245170;0,000000;0,583333;0,450000;0,450000;0,291667;0,750000;0,000000;0,000000;0,000000;0,000000;0,500000;0,500000;0,000000;0,000000;0,000000;0,000000;0,000000;0,291667;0,250000;0,000000;0,000000;0,000000;
9;;;;;;;;;1,000000;0,400294;0,328125;0,242654;0,591126;0,721972;0,521435;0,000000;0,578071;0,231038;0,362947;0,274520;0,653121;0,372317;0,721972;0,721972;0,328125;0,426125;0,328125;0,638638;0,895993;0,542445;0,640045;0,721972;0,000000;0,569517;0,542778;0,000000;0,000000;0,000000;0,344989;0,292696;0,317063;0,317063;0,365990;0,372317;0,536964;0,721972;0,330651;0,349936;0,608288;0,000000;0,000000;0,473859;0,000000;0,000000;0,243593;0,000000;0,000000;0,455651;0,721972;0,639040;0,608288;0,372317;0,000000;0,000000;0,000000;0,361807;0,781317;0,330651;0,330651;0,330651;0,455651;0,721972;0,721972;0,330651;0,330651;0,000000;0,330651;0,130560;0,000000;0,608288;0,000000;0,000000;0,455651;0,000000;0,222161;0,000000;0,000000;0,000000;0,000000;0,660189;0,372317;0,372317;0,372317;0,000000;0,287064;0,287064;0,705651;0,458265;0,000000;0,000000;0,000000;0,608288;0,608288;0,000000;0,000000;0,455651;0,330651;0,330651;0,000000;0,000000;0,000000;0,000000;0,325820;0,000000;0,721972;0,588638;0,588638;0,372317;0,888638;0,000000;0,000000;0,000000;0,000000;0,638638;0,638638;0,000000;0,000000;0,000000;0,000000;0,000000;0,372317;0,286458;0,000000;0,000000;0,000000;
10;;;;;;;;;;1,000000;0,542305;0,313430;0,501165;0,318033;0,587021;0,291052;0,456036;0,380208;0,000000;0,235567;0,319125;0,000000;0,318033;0,318033;0,318033;0,468729;0,318033;0,399023;0,318033;0,418626;0,375008;0,318033;0,254702;0,000000;0,000000;0,000000;0,000000;0,000000;0,290906;0,349035;0,214196;0,214196;0,000000;0,000000;0,381619;0,541675;0,000000;0,000000;0,000000;0,471583;0,227151;0,499386;0,277947;0,213035;0,176299;0,213035;0,213035;0,000000;0,318033;0,408354;0,000000;0,218379;0,254702;0,254702;0,254702;0,253439;0,313970;0,000000;0,000000;0,000000;0,301712;0,318033;0,318033;0,000000;0,000000;0,338035;0,000000;0,412078;0,227151;0,000000;0,000000;0,000000;0,000000;0,213035;0,435402;0,254702;0,310484;0,291052;0,471583;0,561057;0,000000;0,000000;0,000000;0,227151;0,164137;0,164137;0,000000;0,000000;0,291052;0,254702;0,338035;0,000000;0,000000;0,000000;0,000000;0,000000;0,000000;0,000000;0,000000;0,000000;0,000000;0,000000;0,224557;0,000000;0,541675;0,408342;0,408342;0,000000;0,401367;0,185484;0,185484;0,185484;0,185484;0,458342;0,458342;0,160484;0,160484;0,160484;0,160484;0,160484;0,000000;0,501959;0,338035;0,000000;0,000000;
11;;;;;;;;;;;1,000000;0,366738;0,624473;0,333333;0,204235;0,000000;0,248454;0,371868;0,000000;0,232129;0,239115;0,000000;0,333333;0,333333;0,333333;0,249827;0,333333;0,291667;0,333333;0,245332;0,244403;0,333333;0,000000;0,000000;0,000000;0,000000;0,000000;0,000000;0,285899;0,279905;0,000000;0,000000;0,000000;0,000000;0,418999;0,333333;0,000000;0,000000;0,000000;0,000000;0,333333;0,194291;0,000000;0,000000;0,000000;0,000000;0,000000;0,000000;0,333333;0,229924;0,000000;0,000000;0,000000;0,000000;0,000000;0,359622;0,329270;0,000000;0,000000;0,000000;0,000000;0,333333;0,333333;0,000000;0,000000;0,000000;0,000000;0,000000;0,333333;0,000000;0,000000;0,000000;0,000000;0,000000;0,227370;0,000000;0,416667;0,000000;0,000000;0,525301;0,000000;0,000000;0,000000;0,333333;0,270319;0,270319;0,000000;0,000000;0,000000;0,000000;0,000000;0,000000;0,000000;0,000000;0,000000;0,000000;0,000000;0,000000;0,000000;0,000000;0,000000;0,000000;0,000000;0,000000;0,333333;0,266667;0,266667;0,000000;0,416667;0,291667;0,291667;0,291667;0,291667;0,291667;0,291667;0,266667;0,266667;0,266667;0,266667;0,266667;0,000000;0,291667;0,000000;0,000000;0,000000;
12;;;;;;;;;;;;1,000000;0,351286;0,181337;0,182723;0,000000;0,209402;0,272979;0,191401;0,316836;0,194370;0,230200;0,181337;0,181337;0,181337;0,164580;0,181337;0,139670;0,181337;0,093335;0,092407;0,291194;0,230200;0,064049;0,081507;0,000000;0,000000;0,000000;0,408456;0,468326;0,000000;0,000000;0,153531;0,000000;0,119070;0,181337;0,146431;0,131543;0,000000;0,000000;0,489386;0,042295;0,000000;0,000000;0,000000;0,000000;0,000000;0,271431;0,370519;0,077928;0,000000;0,000000;0,000000;0,000000;0,000000;0,198578;0,177274;0,222533;0,222533;0,335519;0,000000;0,181337;0,181337;0,000000;0,000000;0,000000;0,393490;0,136189;0,476823;0,188098;0,000000;0,000000;0,000000;0,222533;0,238979;0,000000;0,271431;0,000000;0,000000;0,323426;0,000000;0,000000;0,000000;0,413319;0,354611;0,354611;0,000000;0,000000;0,000000;0,000000;0,000000;0,000000;0,000000;0,000000;0,000000;0,000000;0,000000;0,000000;0,000000;0,000000;0,000000;0,000000;0,000000;0,000000;0,181337;0,114670;0,114670;0,188098;0,264670;0,534363;0,534363;0,534363;0,534363;0,139670;0,139670;0,580879;0,580879;0,580879;0,580879;0,580879;0,413319;0,139670;0,000000;0,000000;0,000000;
13;;;;;;;;;;;;;1,000000;0,641629;0,496662;0,465659;0,597044;0,349037;0,318819;0,492291;0,441022;0,195145;0,434757;0,434757;0,433630;0,472690;0,433630;0,516629;0,674626;0,373177;0,352831;0,434757;0,392957;0,356144;0,329405;0,000000;0,000000;0,000000;0,431298;0,373597;0,311237;0,311237;0,188818;0,399177;0,672873;0,434757;0,153478;0,172764;0,394915;0,392957;0,414019;0,418938;0,217764;0,152852;0,186237;0,152852;0,152852;0,278478;0,434757;0,439697;0,394915;0,195145;0,194519;0,194519;0,194519;0,436823;0,494102;0,325040;0,325040;0,448456;0,278478;0,434757;0,434757;0,315844;0,315844;0,559624;0,508304;0,431415;0,629670;0,394915;0,000000;0,000000;0,278478;0,317911;0,373942;0,194519;0,288876;0,356811;0,392957;0,582087;0,195145;0,195145;0,195145;0,205543;0,238841;0,238841;0,528478;0,281093;0,230869;0,194519;0,277852;0,394915;0,394915;0,000000;0,000000;0,278478;0,153478;0,153478;0,000000;0,000000;0,000000;0,000000;0,311237;0,000000;0,434757;0,441629;0,441629;0,195145;0,601424;0,163876;0,163876;0,163876;0,163876;0,351424;0,351424;0,138876;0,138876;0,138876;0,138876;0,138876;0,195145;0,335578;0,277852;0,000000;0,000000;
14;;;;;;;;;;;;;;1,000000;0,435039;0,369684;0,772960;0,427716;0,586308;0,483021;0,799393;0,333333;0,666667;0,666667;0,333333;0,554527;0,333333;0,875000;0,609527;0,487140;0,584740;0,666667;0,333333;0,333333;0,344500;0,000000;0,000000;0,000000;0,206255;0,195781;0,278079;0,278079;0,327006;0,666667;0,747855;0,666667;0,291667;0,310952;0,333333;0,333333;0,000000;0,619065;0,000000;0,000000;0,204609;0,000000;0,000000;0,416667;0,666667;0,499959;0,333333;0,333333;0,000000;0,000000;0,000000;0,322823;0,726012;0,291667;0,291667;0,291667;0,416667;0,666667;0,666667;0,583333;0,583333;0,416667;0,291667;0,333333;0,000000;0,333333;0,000000;0,000000;0,416667;0,000000;0,227370;0,000000;0,000000;0,270323;0,333333;0,750693;0,333333;0,333333;0,333333;0,000000;0,248080;0,248080;0,666667;0,419281;0,000000;0,000000;0,000000;0,333333;0,333333;0,000000;0,000000;0,416667;0,291667;0,291667;0,000000;0,000000;0,000000;0,000000;0,286836;0,000000;0,666667;0,800000;0,800000;0,333333;0,833333;0,000000;0,000000;0,000000;0,000000;0,583333;0,583333;0,000000;0,000000;0,000000;0,000000;0,000000;0,333333;0,291667;0,000000;0,000000;0,000000;
15;;;;;;;;;;;;;;;1,000000;0,399333;0,583129;0,483996;0,440714;0,384103;0,631250;0,612993;0,435039;0,435039;0,410871;0,400758;0,410871;0,580467;0,473852;0,516807;0,501690;0,435039;0,424983;0,227236;0,238403;0,000000;0,000000;0,000000;0,185148;0,361020;0,383546;0,383546;0,220908;0,436422;0,596874;0,668356;0,185569;0,204854;0,227236;0,454501;0,201028;0,489977;0,448072;0,185333;0,336106;0,185333;0,185333;0,310569;0,435039;0,430268;0,227236;0,463338;0,227000;0,227000;0,227000;0,216725;0,610941;0,185569;0,185569;0,185569;0,630005;0,435039;0,435039;0,484819;0,484819;0,310333;0,185569;0,497870;0,000000;0,227236;0,000000;0,000000;0,310569;0,350665;0,394633;0,401581;0,000000;0,399333;0,454501;0,595231;0,227236;0,227236;0,227236;0,000000;0,141983;0,141983;0,560569;0,313183;0,263350;0,227000;0,568715;0,227236;0,227236;0,000000;0,000000;0,310569;0,353089;0,353089;0,000000;0,000000;0,000000;0,000000;0,383546;0,000000;0,668356;0,573831;0,573831;0,227236;0,601705;0,000000;0,000000;0,000000;0,000000;0,543356;0,543356;0,000000;0,000000;0,000000;0,000000;0,000000;0,227236;0,354279;0,310333;0,000000;0,000000;
16;;;;;;;;;;;;;;;;1,000000;0,530785;0,399253;0,289645;0,505857;0,234770;0,000000;0,000000;0,000000;0,000000;0,328594;0,000000;0,488469;0,000000;0,280896;0,000000;0,000000;0,739368;0,000000;0,000000;0,000000;0,000000;0,000000;0,000000;0,337855;0,329179;0,329179;0,000000;0,631890;0,555536;0,000000;0,000000;0,000000;0,000000;0,739368;0,000000;0,564680;0,392929;0,328017;0,423668;0,328017;0,328017;0,000000;0,000000;0,292389;0,000000;0,000000;0,369684;0,369684;0,369684;0,000000;0,000000;0,000000;0,000000;0,000000;0,000000;0,000000;0,000000;0,548557;0,548557;0,906035;0,000000;0,655598;0,000000;0,000000;0,000000;0,000000;0,000000;0,548668;0,488751;0,369684;0,000000;0,894613;0,739368;0,690550;0,000000;0,000000;0,000000;0,000000;0,000000;0,000000;0,000000;0,000000;0,406035;0,369684;0,453017;0,000000;0,000000;0,000000;0,000000;0,000000;0,222735;0,222735;0,000000;0,000000;0,000000;0,000000;0,339539;0,000000;0,000000;0,303017;0,303017;0,000000;0,000000;0,000000;0,000000;0,000000;0,000000;0,000000;0,000000;0,000000;0,000000;0,000000;0,000000;0,000000;0,000000;0,328017;0,453017;0,000000;0,000000;
17;;;;;;;;;;;;;;;;;1,000000;0,433980;0,435318;0,489509;0,572353;0,266546;0,522766;0,522766;0,248454;0,388185;0,248454;0,647960;0,465626;0,492654;0,440839;0,522766;0,458083;0,266546;0,277713;0,000000;0,000000;0,000000;0,301306;0,303242;0,418288;0,418288;0,260219;0,515676;0,660629;0,522766;0,224879;0,244165;0,266546;0,458083;0,181516;0,579012;0,240862;0,317103;0,399939;0,317103;0,317103;0,349879;0,522766;0,538741;0,266546;0,266546;0,217616;0,217616;0,217616;0,256035;0,582111;0,363132;0,363132;0,363132;0,349879;0,522766;0,522766;0,570484;0,570484;0,624750;0,363132;0,374313;0,181516;0,266546;0,000000;0,000000;0,349879;0,454285;0,498250;0,217616;0,000000;0,421937;0,458083;0,642896;0,266546;0,266546;0,266546;0,000000;0,181293;0,181293;0,599879;0,352494;0,253967;0,217616;0,567337;0,266546;0,266546;0,000000;0,000000;0,349879;0,502187;0,502187;0,000000;0,000000;0,000000;0,000000;0,418288;0,000000;0,522766;0,572960;0,572960;0,266546;0,689432;0,000000;0,000000;0,000000;0,000000;0,439432;0,439432;0,000000;0,000000;0,000000;0,000000;0,000000;0,266546;0,532560;0,300950;0,000000;0,000000;
18;;;;;;;;;;;;;;;;;;1,000000;0,288122;0,247284;0,333586;0,176867;0,190641;0,190641;0,190641;0,550541;0,190641;0,537455;0,190641;0,387825;0,319369;0,323539;0,410222;0,000000;0,000000;0,000000;0,000000;0,000000;0,226003;0,242841;0,272605;0,272605;0,084911;0,434030;0,400935;0,396465;0,000000;0,092433;0,000000;0,440779;0,351893;0,471744;0,385168;0,458139;0,447047;0,458139;0,458139;0,000000;0,190641;0,378683;0,000000;0,206546;0,401780;0,401780;0,401780;0,000000;0,338774;0,133774;0,133774;0,133774;0,289880;0,190641;0,190641;0,350696;0,350696;0,318248;0,133774;0,447314;0,175441;0,000000;0,000000;0,000000;0,295632;0,439734;0,497142;0,416117;0,000000;0,393450;0,440779;0,519496;0,000000;0,000000;0,000000;0,000000;0,000000;0,000000;0,000000;0,000000;0,358977;0,403635;0,288860;0,000000;0,000000;0,000000;0,000000;0,000000;0,304852;0,304852;0,000000;0,000000;0,000000;0,000000;0,295632;0,000000;0,396465;0,433382;0,433382;0,000000;0,273974;0,000000;0,000000;0,000000;0,000000;0,313132;0,313132;0,000000;0,000000;0,000000;0,000000;0,000000;0,000000;0,459698;0,295632;0,000000;0,000000;
19;;;;;;;;;;;;;;;;;;;1,000000;0,531008;0,701162;0,618307;0,323963;0,323963;0,000000;0,212205;0,000000;0,502975;0,251469;0,232803;0,323963;0,323963;0,544567;0,323963;0,335130;0,000000;0,000000;0,000000;0,196884;0,389433;0,268709;0,268709;0,317635;0,586308;0,496308;0,323963;0,282296;0,301581;0,323963;0,253294;0,294534;0,344761;0,000000;0,000000;0,195238;0,000000;0,000000;0,407296;0,323963;0,313611;0,323963;0,323963;0,000000;0,000000;0,000000;0,313452;0,382204;0,282296;0,282296;0,282296;0,407296;0,323963;0,323963;0,502975;0,502975;0,336628;0,282296;0,253294;0,000000;0,323963;0,000000;0,000000;0,407296;0,000000;0,000000;0,000000;0,000000;0,190284;0,253294;0,366588;0,323963;0,323963;0,323963;0,000000;0,238710;0,238710;0,657296;0,409910;0,000000;0,000000;0,000000;0,323963;0,323963;0,000000;0,000000;0,407296;0,282296;0,282296;0,000000;0,000000;0,000000;0,000000;0,277466;0,000000;0,323963;0,452975;0,452975;0,323963;0,407296;0,000000;0,000000;0,000000;0,000000;0,282296;0,282296;0,000000;0,000000;0,000000;0,000000;0,000000;0,323963;0,000000;0,000000;0,000000;0,000000;
20;;;;;;;;;;;;;;;;;;;;1,000000;0,522527;0,481132;0,235536;0,235536;0,000000;0,205143;0,000000;0,399687;0,163042;0,259783;0,235536;0,235536;0,433156;0,235536;0,246703;0,000000;0,000000;0,000000;0,533435;0,478818;0,343116;0,343116;0,229208;0,483021;0,433650;0,235536;0,193869;0,213154;0,235536;0,433156;0,468141;0,394467;0,208947;0,144035;0,218116;0,144035;0,144035;0,318869;0,235536;0,287746;0,235536;0,235536;0,185701;0,185701;0,185701;0,504949;0,293777;0,391673;0,391673;0,391673;0,318869;0,235536;0,235536;0,399687;0,399687;0,599823;0,391673;0,349386;0,468141;0,235536;0,000000;0,000000;0,318869;0,336594;0,277645;0,185701;0,315463;0,397010;0,433156;0,354477;0,235536;0,235536;0,235536;0,232129;0,306968;0,306968;0,568869;0,321483;0,222052;0,185701;0,269035;0,235536;0,235536;0,000000;0,000000;0,318869;0,193869;0,193869;0,000000;0,000000;0,000000;0,000000;0,343116;0,000000;0,235536;0,349687;0,349687;0,235536;0,318869;0,190463;0,190463;0,190463;0,190463;0,193869;0,193869;0,165463;0,165463;0,165463;0,165463;0,165463;0,235536;0,144035;0,269035;0,000000;0,000000;
21;;;;;;;;;;;;;;;;;;;;;1,000000;0,793723;0,597816;0,597816;0,239115;0,483866;0,239115;0,782761;0,540676;0,418289;0,644149;0,597816;0,402221;0,337430;0,348597;0,000000;0,000000;0,000000;0,210352;0,313687;0,282176;0,282176;0,331103;0,542156;0,547248;0,810816;0,295764;0,315049;0,337430;0,405459;0,206947;0,499971;0,000000;0,000000;0,208706;0,000000;0,000000;0,420764;0,597816;0,492628;0,337430;0,549846;0,000000;0,000000;0,000000;0,326920;0,657161;0,295764;0,295764;0,295764;0,716512;0,597816;0,597816;0,458823;0,458823;0,281753;0,295764;0,324135;0,000000;0,337430;0,000000;0,000000;0,420764;0,000000;0,133152;0,000000;0,000000;0,135409;0,405459;0,550086;0,337430;0,337430;0,337430;0,000000;0,252177;0,252177;0,670764;0,423378;0,000000;0,000000;0,000000;0,337430;0,337430;0,000000;0,000000;0,420764;0,295764;0,295764;0,000000;0,000000;0,000000;0,000000;0,290934;0,000000;0,810816;0,743907;0,743907;0,337430;0,764483;0,000000;0,000000;0,000000;0,000000;0,685816;0,685816;0,000000;0,000000;0,000000;0,000000;0,000000;0,337430;0,197448;0,000000;0,000000;0,000000;
22;;;;;;;;;;;;;;;;;;;;;;1,000000;0,333333;0,333333;0,000000;0,000000;0,000000;0,291667;0,260840;0,242173;0,333333;0,333333;0,333333;0,333333;0,344500;0,000000;0,000000;0,000000;0,206255;0,437793;0,278079;0,278079;0,327006;0,333333;0,237282;0,333333;0,291667;0,310952;0,333333;0,000000;0,333333;0,223996;0,000000;0,000000;0,204609;0,000000;0,000000;0,416667;0,333333;0,268106;0,333333;0,333333;0,000000;0,000000;0,000000;0,322823;0,391575;0,291667;0,291667;0,291667;0,416667;0,333333;0,333333;0,291667;0,291667;0,000000;0,291667;0,000000;0,000000;0,333333;0,000000;0,000000;0,416667;0,000000;0,000000;0,000000;0,000000;0,000000;0,000000;0,220600;0,333333;0,333333;0,333333;0,000000;0,248080;0,248080;0,666667;0,419281;0,000000;0,000000;0,000000;0,333333;0,333333;0,000000;0,000000;0,416667;0,291667;0,291667;0,000000;0,000000;0,000000;0,000000;0,286836;0,000000;0,333333;0,266667;0,266667;0,333333;0,416667;0,000000;0,000000;0,000000;0,000000;0,291667;0,291667;0,000000;0,000000;0,000000;0,000000;0,000000;0,333333;0,000000;0,000000;0,000000;0,000000;
23;;;;;;;;;;;;;;;;;;;;;;;1,000000;0,666667;0,333333;0,249827;0,333333;0,583333;0,609527;0,487140;0,584740;0,666667;0,000000;0,333333;0,344500;0,000000;0,000000;0,000000;0,206255;0,195781;0,278079;0,278079;0,327006;0,333333;0,481659;0,666667;0,291667;0,310952;0,333333;0,000000;0,000000;0,418554;0,000000;0,000000;0,204609;0,000000;0,000000;0,416667;0,666667;0,499959;0,333333;0,333333;0,000000;0,000000;0,000000;0,322823;0,726012;0,291667;0,291667;0,291667;0,416667;0,666667;0,666667;0,291667;0,291667;0,000000;0,291667;0,000000;0,000000;0,333333;0,000000;0,000000;0,416667;0,000000;0,227370;0,000000;0,000000;0,000000;0,000000;0,519506;0,333333;0,333333;0,333333;0,000000;0,248080;0,248080;0,666667;0,419281;0,000000;0,000000;0,000000;0,333333;0,333333;0,000000;0,000000;0,416667;0,291667;0,291667;0,000000;0,000000;0,000000;0,000000;0,286836;0,000000;0,666667;0,533333;0,533333;0,333333;0,833333;0,000000;0,000000;0,000000;0,000000;0,583333;0,583333;0,000000;0,000000;0,000000;0,000000;0,000000;0,333333;0,291667;0,000000;0,000000;0,000000;
24;;;;;;;;;;;;;;;;;;;;;;;;1,000000;0,333333;0,249827;0,333333;0,583333;0,609527;0,487140;0,584740;0,666667;0,000000;0,333333;0,344500;0,000000;0,000000;0,000000;0,206255;0,195781;0,278079;0,278079;0,327006;0,333333;0,481659;0,666667;0,291667;0,310952;0,333333;0,000000;0,000000;0,418554;0,000000;0,000000;0,204609;0,000000;0,000000;0,416667;0,666667;0,499959;0,333333;0,333333;0,000000;0,000000;0,000000;0,322823;0,726012;0,291667;0,291667;0,291667;0,416667;0,666667;0,666667;0,291667;0,291667;0,000000;0,291667;0,000000;0,000000;0,333333;0,000000;0,000000;0,416667;0,000000;0,227370;0,000000;0,000000;0,000000;0,000000;0,519506;0,333333;0,333333;0,333333;0,000000;0,248080;0,248080;0,666667;0,419281;0,000000;0,000000;0,000000;0,333333;0,333333;0,000000;0,000000;0,416667;0,291667;0,291667;0,000000;0,000000;0,000000;0,000000;0,286836;0,000000;0,666667;0,533333;0,533333;0,333333;0,833333;0,000000;0,000000;0,000000;0,000000;0,583333;0,583333;0,000000;0,000000;0,000000;0,000000;0,000000;0,333333;0,291667;0,000000;0,000000;0,000000;
25;;;;;;;;;;;;;;;;;;;;;;;;;1,000000;0,450062;0,666667;0,291667;0,560579;0,245332;0,244403;0,333333;0,000000;0,000000;0,000000;0,000000;0,000000;0,000000;0,000000;0,000000;0,000000;0,000000;0,000000;0,000000;0,454623;0,333333;0,000000;0,000000;0,000000;0,000000;0,000000;0,194291;0,000000;0,000000;0,000000;0,000000;0,000000;0,000000;0,333333;0,229924;0,000000;0,000000;0,000000;0,000000;0,000000;0,000000;0,329270;0,000000;0,000000;0,000000;0,000000;0,333333;0,333333;0,000000;0,000000;0,000000;0,000000;0,272799;0,000000;0,000000;0,000000;0,000000;0,000000;0,000000;0,227370;0,000000;0,000000;0,000000;0,000000;0,291667;0,000000;0,000000;0,000000;0,000000;0,000000;0,000000;0,000000;0,000000;0,000000;0,000000;0,000000;0,000000;0,000000;0,000000;0,000000;0,000000;0,000000;0,000000;0,000000;0,000000;0,000000;0,000000;0,000000;0,000000;0,333333;0,266667;0,266667;0,000000;0,416667;0,000000;0,000000;0,000000;0,000000;0,291667;0,291667;0,000000;0,000000;0,000000;0,000000;0,000000;0,000000;0,291667;0,000000;0,000000;0,000000;
26;;;;;;;;;;;;;;;;;;;;;;;;;;1,000000;0,450062;0,645641;0,447368;0,161826;0,360085;0,249827;0,292244;0,154092;0,120363;0,000000;0,000000;0,000000;0,122931;0,077631;0,000000;0,000000;0,000000;0,292244;0,443846;0,526751;0,000000;0,000000;0,197379;0,559990;0,000000;0,429247;0,000000;0,000000;0,000000;0,000000;0,000000;0,000000;0,249827;0,195769;0,197379;0,270456;0,000000;0,000000;0,000000;0,000000;0,245764;0,000000;0,000000;0,000000;0,353789;0,249827;0,249827;0,250577;0,250577;0,375577;0,000000;0,590375;0,000000;0,197379;0,000000;0,000000;0,000000;0,000000;0,143864;0,000000;0,000000;0,229233;0,559990;0,506763;0,000000;0,000000;0,000000;0,000000;0,000000;0,000000;0,000000;0,000000;0,000000;0,000000;0,000000;0,197379;0,197379;0,000000;0,000000;0,000000;0,000000;0,000000;0,000000;0,000000;0,000000;0,000000;0,000000;0,000000;0,526751;0,631432;0,631432;0,000000;0,333161;0,000000;0,000000;0,000000;0,000000;0,443418;0,443418;0,000000;0,000000;0,000000;0,000000;0,000000;0,000000;0,208161;0,000000;0,000000;0,000000;
27;;;;;;;;;;;;;;;;;;;;;;;;;;;1,000000;0,291667;0,560579;0,245332;0,244403;0,333333;0,000000;0,000000;0,000000;0,000000;0,000000;0,000000;0,000000;0,000000;0,000000;0,000000;0,000000;0,000000;0,454623;0,333333;0,000000;0,000000;0,000000;0,000000;0,000000;0,194291;0,000000;0,000000;0,000000;0,000000;0,000000;0,000000;0,333333;0,229924;0,000000;0,000000;0,000000;0,000000;0,000000;0,000000;0,329270;0,000000;0,000000;0,000000;0,000000;0,333333;0,333333;0,000000;0,000000;0,000000;0,000000;0,272799;0,000000;0,000000;0,000000;0,000000;0,000000;0,000000;0,227370;0,000000;0,000000;0,000000;0,000000;0,291667;0,000000;0,000000;0,000000;0,000000;0,000000;0,000000;0,000000;0,000000;0,000000;0,000000;0,000000;0,000000;0,000000;0,000000;0,000000;0,000000;0,000000;0,000000;0,000000;0,000000;0,000000;0,000000;0,000000;0,000000;0,333333;0,266667;0,266667;0,000000;0,416667;0,000000;0,000000;0,000000;0,000000;0,291667;0,291667;0,000000;0,000000;0,000000;0,000000;0,000000;0,000000;0,291667;0,000000;0,000000;0,000000;
28;;;;;;;;;;;;;;;;;;;;;;;;;;;;1,000000;0,526193;0,403807;0,647801;0,583333;0,291667;0,291667;0,302834;0,000000;0,000000;0,000000;0,164588;0,241270;0,236413;0,236413;0,285339;0,814589;0,622855;0,814467;0,250000;0,269285;0,291667;0,522341;0,000000;0,594917;0,000000;0,000000;0,273262;0,000000;0,000000;0,375000;0,583333;0,416625;0,291667;0,524204;0,000000;0,000000;0,000000;0,281156;0,642678;0,250000;0,250000;0,250000;0,690871;0,583333;0,583333;0,689589;0,689589;0,375000;0,250000;0,441017;0,000000;0,291667;0,000000;0,000000;0,375000;0,191344;0,316048;0,000000;0,000000;0,403217;0,522341;0,757008;0,291667;0,291667;0,291667;0,000000;0,206413;0,206413;0,625000;0,377614;0,000000;0,000000;0,000000;0,291667;0,291667;0,000000;0,000000;0,375000;0,441117;0,441117;0,000000;0,000000;0,000000;0,000000;0,245170;0,000000;0,814467;0,838853;0,838853;0,291667;0,750000;0,000000;0,000000;0,000000;0,000000;0,689467;0,689467;0,000000;0,000000;0,000000;0,000000;0,000000;0,291667;0,250000;0,000000;0,000000;0,000000;
29;;;;;;;;;;;;;;;;;;;;;;;;;;;;;1,000000;0,430000;0,527600;0,609527;0,000000;0,563988;0,537249;0,000000;0,000000;0,000000;0,133761;0,123287;0,205585;0,205585;0,254512;0,260840;0,525511;0,609527;0,219173;0,238458;0,602759;0,000000;0,000000;0,361414;0,000000;0,000000;0,132115;0,000000;0,000000;0,344173;0,609527;0,626639;0,602759;0,260840;0,000000;0,000000;0,000000;0,250329;0,668872;0,219173;0,219173;0,219173;0,344173;0,609527;0,609527;0,219173;0,219173;0,000000;0,219173;0,167041;0,000000;0,602759;0,000000;0,000000;0,344173;0,000000;0,227370;0,000000;0,000000;0,000000;0,000000;0,462366;0,260840;0,260840;0,260840;0,000000;0,175586;0,175586;0,594173;0,346787;0,000000;0,000000;0,000000;0,602759;0,602759;0,000000;0,000000;0,344173;0,219173;0,219173;0,000000;0,000000;0,000000;0,000000;0,214343;0,000000;0,609527;0,476193;0,476193;0,260840;0,776193;0,000000;0,000000;0,000000;0,000000;0,526193;0,526193;0,000000;0,000000;0,000000;0,000000;0,000000;0,260840;0,291667;0,000000;0,000000;0,000000;
30;;;;;;;;;;;;;;;;;;;;;;;;;;;;;;1,000000;0,405213;0,487140;0,244545;0,242173;0,253341;0,000000;0,000000;0,000000;0,115095;0,214068;0,416667;0,416667;0,235846;0,242173;0,632102;0,487140;0,200507;0,219792;0,242173;0,244545;0,000000;0,655276;0,546490;0,202878;0,291667;0,202878;0,202878;0,325507;0,487140;0,495410;0,242173;0,495749;0,244545;0,244545;0,244545;0,231663;0,721539;0,200507;0,200507;0,200507;0,325507;0,487140;0,487140;0,200507;0,200507;0,327878;0,200507;0,163652;0,000000;0,242173;0,000000;0,000000;0,325507;0,202878;0,350110;0,761936;0,000000;0,280896;0,244545;0,489726;0,242173;0,242173;0,242173;0,000000;0,156920;0,156920;0,575507;0,328121;0,280896;0,244545;0,327878;0,242173;0,242173;0,000000;0,000000;0,325507;0,200507;0,200507;0,000000;0,000000;0,000000;0,000000;0,416667;0,000000;0,487140;0,353807;0,353807;0,242173;0,653807;0,000000;0,000000;0,000000;0,000000;0,403807;0,403807;0,000000;0,000000;0,000000;0,000000;0,000000;0,242173;0,416667;0,327878;0,000000;0,000000;
31;;;;;;;;;;;;;;;;;;;;;;;;;;;;;;;1,000000;0,584740;0,000000;0,333333;0,344500;0,000000;0,000000;0,000000;0,206255;0,195781;0,278079;0,278079;0,327006;0,333333;0,492571;0,833333;0,291667;0,310952;0,333333;0,250000;0,000000;0,572222;0,233725;0,000000;0,204609;0,000000;0,000000;0,416667;0,584740;0,418032;0,333333;0,587828;0,000000;0,000000;0,000000;0,322823;0,644085;0,291667;0,291667;0,291667;0,754495;0,584740;0,584740;0,291667;0,291667;0,000000;0,291667;0,174547;0,000000;0,333333;0,000000;0,000000;0,416667;0,000000;0,138440;0,000000;0,000000;0,000000;0,250000;0,437579;0,333333;0,333333;0,333333;0,000000;0,248080;0,248080;0,666667;0,419281;0,000000;0,000000;0,000000;0,333333;0,333333;0,000000;0,000000;0,416667;0,291667;0,291667;0,000000;0,000000;0,000000;0,000000;0,286836;0,000000;0,833333;0,633333;0,633333;0,333333;0,751407;0,000000;0,000000;0,000000;0,000000;0,708333;0,708333;0,000000;0,000000;0,000000;0,000000;0,000000;0,333333;0,202737;0,000000;0,000000;0,000000;
32;;;;;;;;;;;;;;;;;;;;;;;;;;;;;;;;1,000000;0,000000;0,466008;0,493484;0,000000;0,000000;0,000000;0,206255;0,195781;0,278079;0,278079;0,654046;0,333333;0,481659;0,666667;0,504336;0,622047;0,333333;0,000000;0,000000;0,418554;0,000000;0,000000;0,204609;0,000000;0,000000;0,754336;0,919190;0,499959;0,333333;0,333333;0,000000;0,000000;0,000000;0,578691;0,726012;0,291667;0,291667;0,291667;0,416667;0,666667;0,666667;0,291667;0,291667;0,000000;0,291667;0,000000;0,000000;0,587669;0,000000;0,000000;0,754908;0,000000;0,383558;0,000000;0,336437;0,000000;0,000000;0,519506;0,333333;0,333333;0,333333;0,000000;0,248080;0,248080;0,666667;0,419281;0,285388;0,249037;0,000000;0,333333;0,333333;0,000000;0,000000;0,416667;0,291667;0,291667;0,000000;0,000000;0,000000;0,000000;0,604683;0,000000;0,666667;0,533333;0,533333;0,587669;0,833333;0,000000;0,000000;0,000000;0,000000;0,583333;0,583333;0,000000;0,000000;0,000000;0,000000;0,000000;0,333333;0,504858;0,332370;0,000000;0,000000;
33;;;;;;;;;;;;;;;;;;;;;;;;;;;;;;;;;1,000000;0,000000;0,000000;0,000000;0,000000;0,000000;0,000000;0,425158;0,292828;0,292828;0,000000;0,333333;0,482834;0,000000;0,000000;0,000000;0,000000;0,666667;0,333333;0,491979;0,356579;0,291667;0,254930;0,291667;0,291667;0,000000;0,000000;0,256039;0,000000;0,000000;0,333333;0,333333;0,333333;0,000000;0,000000;0,000000;0,000000;0,000000;0,000000;0,000000;0,000000;0,291667;0,291667;0,833333;0,000000;0,582896;0,000000;0,000000;0,000000;0,000000;0,000000;0,291667;0,291667;0,333333;0,000000;0,630520;0,666667;0,458333;0,000000;0,000000;0,000000;0,000000;0,000000;0,000000;0,000000;0,000000;0,369684;0,333333;0,416667;0,000000;0,000000;0,000000;0,000000;0,000000;0,000000;0,000000;0,000000;0,000000;0,000000;0,000000;0,303188;0,000000;0,000000;0,266667;0,266667;0,000000;0,000000;0,000000;0,000000;0,000000;0,000000;0,000000;0,000000;0,000000;0,000000;0,000000;0,000000;0,000000;0,000000;0,291667;0,416667;0,000000;0,000000;
34;;;;;;;;;;;;;;;;;;;;;;;;;;;;;;;;;;1,000000;0,656419;0,000000;0,000000;0,000000;0,206255;0,195781;0,278079;0,278079;0,502039;0,333333;0,237282;0,333333;0,461672;0,463624;0,919194;0,000000;0,000000;0,223996;0,000000;0,000000;0,204609;0,000000;0,000000;0,711672;0,545005;0,414100;0,627896;0,333333;0,000000;0,000000;0,000000;0,536027;0,391575;0,291667;0,291667;0,291667;0,416667;0,333333;0,333333;0,291667;0,291667;0,000000;0,291667;0,000000;0,000000;0,833333;0,000000;0,000000;0,416667;0,000000;0,000000;0,000000;0,292618;0,000000;0,000000;0,220600;0,333333;0,333333;0,333333;0,000000;0,248080;0,248080;0,666667;0,419281;0,000000;0,000000;0,000000;0,627896;0,627896;0,000000;0,000000;0,795551;0,291667;0,291667;0,000000;0,000000;0,000000;0,000000;0,286836;0,000000;0,333333;0,266667;0,266667;0,840769;0,416667;0,000000;0,000000;0,000000;0,000000;0,291667;0,291667;0,000000;0,000000;0,000000;0,000000;0,000000;0,333333;0,000000;0,000000;0,000000;0,000000;
35;;;;;;;;;;;;;;;;;;;;;;;;;;;;;;;;;;;1,000000;0,000000;0,000000;0,000000;0,217422;0,206948;0,289246;0,289246;0,529515;0,344500;0,248449;0,344500;0,489148;0,491100;0,601157;0,000000;0,000000;0,235163;0,000000;0,000000;0,215776;0,000000;0,000000;0,739148;0,572481;0,387361;0,859335;0,344500;0,000000;0,000000;0,000000;0,563503;0,402742;0,302834;0,302834;0,302834;0,427834;0,344500;0,344500;0,302834;0,302834;0,000000;0,302834;0,000000;0,000000;0,823086;0,000000;0,000000;0,427834;0,000000;0,000000;0,000000;0,310075;0,000000;0,000000;0,231768;0,344500;0,344500;0,344500;0,000000;0,259247;0,259247;0,677834;0,430448;0,000000;0,000000;0,000000;0,601157;0,601157;0,000000;0,000000;0,427834;0,302834;0,302834;0,000000;0,000000;0,000000;0,000000;0,298004;0,000000;0,344500;0,277834;0,277834;0,572481;0,427834;0,000000;0,000000;0,000000;0,000000;0,302834;0,302834;0,000000;0,000000;0,000000;0,000000;0,000000;0,344500;0,000000;0,000000;0,000000;0,000000;
36;;;;;;;;;;;;;;;;;;;;;;;;;;;;;;;;;;;;1,000000;0,500000;0,500000;0,000000;0,000000;0,000000;0,000000;0,000000;0,000000;0,000000;0,000000;0,000000;0,000000;0,000000;0,000000;0,000000;0,000000;0,000000;0,000000;0,000000;0,000000;0,000000;0,000000;0,000000;0,000000;0,000000;0,000000;0,000000;0,000000;0,000000;0,000000;0,000000;0,000000;0,000000;0,000000;0,000000;0,000000;0,000000;0,000000;0,000000;0,000000;0,000000;0,000000;0,000000;0,000000;0,000000;0,000000;0,000000;0,000000;0,000000;0,000000;0,000000;0,000000;0,000000;0,000000;0,000000;0,000000;0,000000;0,000000;0,000000;0,000000;0,000000;0,000000;0,000000;0,000000;0,000000;0,000000;0,000000;0,000000;0,000000;0,000000;0,000000;0,000000;0,000000;0,000000;0,000000;0,000000;0,000000;0,000000;0,000000;0,000000;0,000000;0,000000;0,000000;0,000000;0,000000;0,000000;0,000000;0,000000;0,000000;0,000000;0,000000;0,000000;0,000000;0,000000;0,000000;0,000000;0,000000;0,000000;0,000000;
37;;;;;;;;;;;;;;;;;;;;;;;;;;;;;;;;;;;;;1,000000;0,500000;0,000000;0,000000;0,000000;0,000000;0,000000;0,000000;0,000000;0,000000;0,000000;0,000000;0,000000;0,000000;0,000000;0,000000;0,000000;0,000000;0,000000;0,000000;0,000000;0,000000;0,000000;0,000000;0,000000;0,000000;0,000000;0,000000;0,000000;0,000000;0,000000;0,000000;0,000000;0,000000;0,000000;0,000000;0,000000;0,000000;0,000000;0,000000;0,000000;0,000000;0,000000;0,000000;0,000000;0,000000;0,000000;0,000000;0,000000;0,000000;0,000000;0,000000;0,000000;0,000000;0,000000;0,000000;0,000000;0,000000;0,000000;0,000000;0,000000;0,000000;0,000000;0,000000;0,000000;0,000000;0,000000;0,000000;0,000000;0,000000;0,000000;0,000000;0,000000;0,000000;0,000000;0,000000;0,000000;0,000000;0,000000;0,000000;0,000000;0,000000;0,000000;0,000000;0,000000;0,000000;0,000000;0,000000;0,000000;0,000000;0,000000;0,000000;0,000000;0,000000;0,000000;0,000000;0,000000;0,000000;0,000000;
38;;;;;;;;;;;;;;;;;;;;;;;;;;;;;;;;;;;;;;1,000000;0,000000;0,000000;0,000000;0,000000;0,000000;0,000000;0,000000;0,000000;0,000000;0,000000;0,000000;0,000000;0,000000;0,000000;0,000000;0,000000;0,000000;0,000000;0,000000;0,000000;0,000000;0,000000;0,000000;0,000000;0,000000;0,000000;0,000000;0,000000;0,000000;0,000000;0,000000;0,000000;0,000000;0,000000;0,000000;0,000000;0,000000;0,000000;0,000000;0,000000;0,000000;0,000000;0,000000;0,000000;0,000000;0,000000;0,000000;0,000000;0,000000;0,000000;0,000000;0,000000;0,000000;0,000000;0,000000;0,000000;0,000000;0,000000;0,000000;0,000000;0,000000;0,000000;0,000000;0,000000;0,000000;0,000000;0,000000;0,000000;0,000000;0,000000;0,000000;0,000000;0,000000;0,000000;0,000000;0,000000;0,000000;0,000000;0,000000;0,000000;0,000000;0,000000;0,000000;0,000000;0,000000;0,000000;0,000000;0,000000;0,000000;0,000000;0,000000;0,000000;0,000000;0,000000;0,000000;0,000000;0,000000;
39;;;;;;;;;;;;;;;;;;;;;;;;;;;;;;;;;;;;;;;1,000000;0,576281;0,151000;0,151000;0,199927;0,206255;0,110203;0,206255;0,164588;0,183873;0,206255;0,000000;0,587233;0,096917;0,000000;0,000000;0,077530;0,000000;0,000000;0,289588;0,206255;0,141028;0,206255;0,206255;0,000000;0,000000;0,000000;0,520684;0,264496;0,598984;0,598984;0,539372;0,289588;0,206255;0,206255;0,164588;0,164588;0,000000;0,598984;0,187990;0,587233;0,206255;0,000000;0,000000;0,289588;0,276367;0,230463;0,000000;0,369233;0,000000;0,000000;0,238603;0,206255;0,206255;0,206255;0,285899;0,322702;0,322702;0,539588;0,292202;0,000000;0,000000;0,000000;0,206255;0,206255;0,000000;0,000000;0,289588;0,164588;0,164588;0,000000;0,000000;0,000000;0,000000;0,159758;0,000000;0,206255;0,139588;0,139588;0,206255;0,289588;0,244233;0,244233;0,244233;0,244233;0,164588;0,164588;0,219233;0,219233;0,219233;0,219233;0,219233;0,206255;0,000000;0,000000;0,000000;0,000000;
40;;;;;;;;;;;;;;;;;;;;;;;;;;;;;;;;;;;;;;;;1,000000;0,297401;0,297401;0,189453;0,383486;0,176980;0,195781;0,154114;0,173399;0,195781;0,184932;0,517542;0,236197;0,208177;0,143265;0,230852;0,143265;0,143265;0,279114;0,195781;0,283614;0,195781;0,195781;0,184932;0,184932;0,184932;0,505088;0,254022;0,459293;0,459293;0,523726;0,279114;0,195781;0,195781;0,300153;0,300153;0,268265;0,509446;0,216454;0,505212;0,195781;0,000000;0,000000;0,279114;0,439038;0,326469;0,184932;0,363238;0,337855;0,184932;0,346535;0,195781;0,195781;0,195781;0,279905;0,307106;0,307106;0,529114;0,281728;0,221283;0,184932;0,268265;0,195781;0,195781;0,000000;0,000000;0,279114;0,300153;0,300153;0,000000;0,000000;0,000000;0,000000;0,297401;0,000000;0,195781;0,129114;0,129114;0,195781;0,279114;0,238238;0,238238;0,238238;0,238238;0,154114;0,154114;0,213238;0,213238;0,213238;0,213238;0,213238;0,195781;0,292173;0,268265;0,000000;0,000000;
41;;;;;;;;;;;;;;;;;;;;;;;;;;;;;;;;;;;;;;;;;1,000000;0,500000;0,271752;0,278079;0,379579;0,278079;0,236413;0,255698;0,278079;0,292828;0,000000;0,438796;0,316073;0,251161;0,375000;0,251161;0,251161;0,361413;0,278079;0,444630;0,278079;0,278079;0,292828;0,292828;0,292828;0,267569;0,336321;0,236413;0,236413;0,236413;0,361413;0,278079;0,278079;0,236413;0,236413;0,376161;0,236413;0,211935;0,000000;0,278079;0,000000;0,000000;0,361413;0,251161;0,251161;0,292828;0,000000;0,329179;0,292828;0,375000;0,278079;0,278079;0,278079;0,000000;0,192826;0,192826;0,611413;0,364027;0,329179;0,292828;0,376161;0,278079;0,278079;0,000000;0,000000;0,361413;0,236413;0,236413;0,000000;0,000000;0,000000;0,000000;0,500000;0,000000;0,278079;0,211413;0,211413;0,278079;0,361413;0,000000;0,000000;0,000000;0,000000;0,236413;0,236413;0,000000;0,000000;0,000000;0,000000;0,000000;0,278079;0,251161;0,376161;0,000000;0,000000;
42;;;;;;;;;;;;;;;;;;;;;;;;;;;;;;;;;;;;;;;;;;1,000000;0,271752;0,278079;0,379579;0,278079;0,236413;0,255698;0,278079;0,292828;0,000000;0,438796;0,316073;0,251161;0,375000;0,251161;0,251161;0,361413;0,278079;0,444630;0,278079;0,278079;0,292828;0,292828;0,292828;0,267569;0,336321;0,236413;0,236413;0,236413;0,361413;0,278079;0,278079;0,236413;0,236413;0,376161;0,236413;0,211935;0,000000;0,278079;0,000000;0,000000;0,361413;0,251161;0,251161;0,292828;0,000000;0,329179;0,292828;0,375000;0,278079;0,278079;0,278079;0,000000;0,192826;0,192826;0,611413;0,364027;0,329179;0,292828;0,376161;0,278079;0,278079;0,000000;0,000000;0,361413;0,236413;0,236413;0,000000;0,000000;0,000000;0,000000;0,500000;0,000000;0,278079;0,211413;0,211413;0,278079;0,361413;0,000000;0,000000;0,000000;0,000000;0,236413;0,236413;0,000000;0,000000;0,000000;0,000000;0,000000;0,278079;0,251161;0,376161;0,000000;0,000000;
43;;;;;;;;;;;;;;;;;;;;;;;;;;;;;;;;;;;;;;;;;;;1,000000;0,327006;0,230954;0,327006;0,785045;0,733937;0,327006;0,000000;0,000000;0,217668;0,000000;0,000000;0,198281;0,000000;0,000000;0,790367;0,623700;0,403744;0,327006;0,327006;0,000000;0,000000;0,000000;0,614722;0,385247;0,285339;0,285339;0,285339;0,410339;0,327006;0,327006;0,285339;0,285339;0,000000;0,285339;0,000000;0,000000;0,623700;0,000000;0,000000;0,696416;0,000000;0,113915;0,000000;0,382100;0,000000;0,000000;0,214273;0,327006;0,327006;0,327006;0,000000;0,241752;0,241752;0,660339;0,412953;0,242296;0,205945;0,000000;0,327006;0,327006;0,000000;0,000000;0,410339;0,285339;0,285339;0,000000;0,000000;0,000000;0,000000;0,546191;0,000000;0,327006;0,260339;0,260339;0,623700;0,410339;0,000000;0,000000;0,000000;0,000000;0,285339;0,285339;0,000000;0,000000;0,000000;0,000000;0,000000;0,327006;0,164278;0,289278;0,000000;0,000000;
44;;;;;;;;;;;;;;;;;;;;;;;;;;;;;;;;;;;;;;;;;;;;1,000000;0,505440;0,333333;0,291667;0,310952;0,333333;0,333333;0,000000;0,425119;0,000000;0,000000;0,415478;0,000000;0,000000;0,416667;0,333333;0,268106;0,333333;0,333333;0,000000;0,000000;0,000000;0,322823;0,391575;0,291667;0,291667;0,291667;0,416667;0,333333;0,333333;0,875000;0,875000;0,416667;0,291667;0,333333;0,000000;0,333333;0,000000;0,000000;0,416667;0,291667;0,241732;0,000000;0,000000;0,546639;0,333333;0,676654;0,333333;0,333333;0,333333;0,000000;0,248080;0,248080;0,666667;0,419281;0,000000;0,000000;0,000000;0,333333;0,333333;0,000000;0,000000;0,416667;0,583333;0,583333;0,000000;0,000000;0,000000;0,000000;0,286836;0,000000;0,333333;0,533333;0,533333;0,333333;0,416667;0,000000;0,000000;0,000000;0,000000;0,291667;0,291667;0,000000;0,000000;0,000000;0,000000;0,000000;0,333333;0,000000;0,000000;0,000000;0,000000;
45;;;;;;;;;;;;;;;;;;;;;;;;;;;;;;;;;;;;;;;;;;;;;1,000000;0,481659;0,195615;0,214900;0,237282;0,482834;0,000000;0,552976;0,446454;0,178525;0,254579;0,178525;0,178525;0,320615;0,481659;0,460166;0,237282;0,415197;0,220192;0,220192;0,220192;0,226771;0,660460;0,195615;0,195615;0,195615;0,320615;0,481659;0,481659;0,422106;0,422106;0,649501;0,195615;0,524213;0,000000;0,237282;0,000000;0,000000;0,320615;0,178525;0,313103;0,399963;0,000000;0,446688;0,482834;0,692870;0,237282;0,237282;0,237282;0,000000;0,152028;0,152028;0,570615;0,323229;0,256543;0,220192;0,303525;0,237282;0,237282;0,000000;0,000000;0,320615;0,195615;0,195615;0,000000;0,000000;0,000000;0,000000;0,379579;0,000000;0,481659;0,656117;0,656117;0,237282;0,648326;0,000000;0,000000;0,000000;0,000000;0,533081;0,533081;0,000000;0,000000;0,000000;0,000000;0,000000;0,237282;0,379660;0,303525;0,000000;0,000000;
46;;;;;;;;;;;;;;;;;;;;;;;;;;;;;;;;;;;;;;;;;;;;;;1,000000;0,291667;0,310952;0,333333;0,333333;0,000000;0,620211;0,000000;0,000000;0,204609;0,000000;0,000000;0,416667;0,666667;0,499959;0,333333;0,666667;0,000000;0,000000;0,000000;0,322823;0,726012;0,291667;0,291667;0,291667;0,833333;0,666667;0,666667;0,291667;0,291667;0,000000;0,291667;0,257880;0,000000;0,333333;0,000000;0,000000;0,416667;0,000000;0,227370;0,000000;0,000000;0,000000;0,333333;0,519506;0,333333;0,333333;0,333333;0,000000;0,248080;0,248080;0,666667;0,419281;0,000000;0,000000;0,000000;0,333333;0,333333;0,000000;0,000000;0,416667;0,291667;0,291667;0,000000;0,000000;0,000000;0,000000;0,286836;0,000000;1,000000;0,800000;0,800000;0,333333;0,833333;0,000000;0,000000;0,000000;0,000000;0,875000;0,875000;0,000000;0,000000;0,000000;0,000000;0,000000;0,333333;0,291667;0,000000;0,000000;0,000000;
47;;;;;;;;;;;;;;;;;;;;;;;;;;;;;;;;;;;;;;;;;;;;;;;1,000000;0,770026;0,291667;0,000000;0,000000;0,182329;0,000000;0,000000;0,162942;0,000000;0,000000;0,750000;0,583333;0,516750;0,291667;0,291667;0,000000;0,000000;0,000000;0,574355;0,349908;0,250000;0,250000;0,250000;0,375000;0,291667;0,291667;0,250000;0,250000;0,000000;0,250000;0,000000;0,000000;0,583333;0,000000;0,000000;0,375000;0,000000;0,000000;0,000000;0,375000;0,000000;0,000000;0,178934;0,291667;0,291667;0,291667;0,000000;0,206413;0,206413;0,625000;0,377614;0,000000;0,000000;0,000000;0,291667;0,291667;0,000000;0,000000;0,375000;0,250000;0,250000;0,000000;0,000000;0,000000;0,000000;0,245170;0,000000;0,291667;0,225000;0,225000;0,583333;0,375000;0,000000;0,000000;0,000000;0,000000;0,250000;0,250000;0,000000;0,000000;0,000000;0,000000;0,000000;0,291667;0,000000;0,000000;0,000000;0,000000;
48;;;;;;;;;;;;;;;;;;;;;;;;;;;;;;;;;;;;;;;;;;;;;;;;1,000000;0,310952;0,000000;0,000000;0,201614;0,000000;0,000000;0,182227;0,000000;0,000000;0,751952;0,585286;0,408920;0,310952;0,310952;0,000000;0,000000;0,000000;0,576307;0,369193;0,269285;0,269285;0,269285;0,394285;0,310952;0,310952;0,269285;0,269285;0,000000;0,269285;0,000000;0,000000;0,585286;0,000000;0,000000;0,687091;0,000000;0,121438;0,000000;0,360111;0,000000;0,000000;0,198219;0,310952;0,310952;0,310952;0,000000;0,225699;0,225699;0,644285;0,396899;0,249818;0,213467;0,000000;0,310952;0,310952;0,000000;0,000000;0,394285;0,269285;0,269285;0,000000;0,000000;0,000000;0,000000;0,536867;0,000000;0,310952;0,244285;0,244285;0,585286;0,394285;0,000000;0,000000;0,000000;0,000000;0,269285;0,269285;0,000000;0,000000;0,000000;0,000000;0,000000;0,310952;0,171801;0,296801;0,000000;0,000000;
49;;;;;;;;;;;;;;;;;;;;;;;;;;;;;;;;;;;;;;;;;;;;;;;;;1,000000;0,000000;0,000000;0,223996;0,000000;0,000000;0,204609;0,000000;0,000000;0,416667;0,333333;0,452871;0,666667;0,333333;0,000000;0,000000;0,000000;0,322823;0,391575;0,291667;0,291667;0,291667;0,416667;0,333333;0,333333;0,291667;0,291667;0,000000;0,291667;0,000000;0,000000;0,666667;0,000000;0,000000;0,416667;0,000000;0,000000;0,000000;0,000000;0,000000;0,000000;0,220600;0,333333;0,333333;0,333333;0,000000;0,248080;0,248080;0,666667;0,419281;0,000000;0,000000;0,000000;0,666667;0,666667;0,000000;0,000000;0,833333;0,291667;0,291667;0,000000;0,000000;0,000000;0,000000;0,286836;0,000000;0,333333;0,266667;0,266667;0,666667;0,416667;0,000000;0,000000;0,000000;0,000000;0,291667;0,291667;0,000000;0,000000;0,000000;0,000000;0,000000;0,333333;0,000000;0,000000;0,000000;0,000000;
50;;;;;;;;;;;;;;;;;;;;;;;;;;;;;;;;;;;;;;;;;;;;;;;;;;1,000000;0,000000;0,691509;0,356579;0,291667;0,254930;0,291667;0,291667;0,000000;0,000000;0,256039;0,000000;0,333333;0,333333;0,333333;0,333333;0,000000;0,000000;0,000000;0,000000;0,000000;0,416667;0,000000;0,000000;0,291667;0,291667;0,833333;0,000000;0,835228;0,000000;0,000000;0,000000;0,000000;0,000000;0,291667;0,291667;0,333333;0,000000;0,630520;1,000000;0,458333;0,000000;0,000000;0,000000;0,000000;0,000000;0,000000;0,000000;0,000000;0,369684;0,333333;0,416667;0,000000;0,000000;0,000000;0,000000;0,000000;0,000000;0,000000;0,000000;0,000000;0,000000;0,000000;0,303188;0,000000;0,333333;0,533333;0,533333;0,000000;0,000000;0,000000;0,000000;0,000000;0,000000;0,291667;0,291667;0,000000;0,000000;0,000000;0,000000;0,000000;0,000000;0,291667;0,416667;0,000000;0,000000;
51;;;;;;;;;;;;;;;;;;;;;;;;;;;;;;;;;;;;;;;;;;;;;;;;;;;1,000000;0,000000;0,000000;0,000000;0,000000;0,000000;0,000000;0,000000;0,000000;0,000000;0,000000;0,000000;0,000000;0,000000;0,000000;0,359622;0,000000;0,291667;0,291667;0,291667;0,000000;0,000000;0,000000;0,000000;0,000000;0,000000;0,291667;0,000000;0,666667;0,000000;0,000000;0,000000;0,000000;0,291667;0,245763;0,000000;0,416667;0,000000;0,000000;0,000000;0,000000;0,000000;0,000000;0,333333;0,270319;0,270319;0,000000;0,000000;0,000000;0,000000;0,000000;0,000000;0,000000;0,000000;0,000000;0,000000;0,000000;0,000000;0,000000;0,000000;0,000000;0,000000;0,000000;0,000000;0,000000;0,000000;0,000000;0,000000;0,000000;0,291667;0,291667;0,291667;0,291667;0,000000;0,000000;0,266667;0,266667;0,266667;0,266667;0,266667;0,000000;0,000000;0,000000;0,000000;0,000000;
52;;;;;;;;;;;;;;;;;;;;;;;;;;;;;;;;;;;;;;;;;;;;;;;;;;;;1,000000;0,511465;0,252644;0,313796;0,252644;0,252644;0,307329;0,418554;0,469686;0,223996;0,426932;0,294310;0,294310;0,294310;0,213485;0,477899;0,182329;0,182329;0,182329;0,593599;0,418554;0,418554;0,341786;0,341786;0,658645;0,182329;0,526737;0,000000;0,223996;0,000000;0,000000;0,307329;0,252644;0,340310;0,570566;0,000000;0,455832;0,691509;0,557101;0,223996;0,223996;0,223996;0,000000;0,138743;0,138743;0,557329;0,309943;0,330661;0,294310;0,377644;0,223996;0,223996;0,000000;0,000000;0,307329;0,182329;0,182329;0,000000;0,000000;0,000000;0,000000;0,438796;0,000000;0,620211;0,556063;0,556063;0,223996;0,585220;0,000000;0,000000;0,000000;0,000000;0,495211;0,495211;0,000000;0,000000;0,000000;0,000000;0,000000;0,223996;0,406867;0,377644;0,000000;0,000000;
53;;;;;;;;;;;;;;;;;;;;;;;;;;;;;;;;;;;;;;;;;;;;;;;;;;;;;1,000000;0,314912;0,278176;0,314912;0,314912;0,000000;0,000000;0,279284;0,000000;0,000000;0,356579;0,356579;0,356579;0,000000;0,319710;0,000000;0,000000;0,000000;0,000000;0,000000;0,000000;0,000000;0,000000;0,439912;0,000000;0,275686;0,000000;0,000000;0,000000;0,000000;0,000000;0,314912;0,314912;0,713157;0,000000;0,392929;0,356579;0,252100;0,000000;0,000000;0,000000;0,000000;0,000000;0,000000;0,000000;0,000000;0,392929;0,356579;0,439912;0,000000;0,000000;0,000000;0,000000;0,000000;0,000000;0,000000;0,000000;0,000000;0,000000;0,000000;0,326433;0,000000;0,000000;0,000000;0,000000;0,000000;0,000000;0,000000;0,000000;0,000000;0,000000;0,000000;0,000000;0,000000;0,000000;0,000000;0,000000;0,000000;0,000000;0,314912;0,439912;0,000000;0,000000;
54;;;;;;;;;;;;;;;;;;;;;;;;;;;;;;;;;;;;;;;;;;;;;;;;;;;;;;1,000000;0,660049;0,750000;0,750000;0,000000;0,000000;0,214372;0,000000;0,000000;0,291667;0,291667;0,291667;0,000000;0,000000;0,000000;0,000000;0,000000;0,000000;0,000000;0,000000;0,000000;0,000000;0,375000;0,000000;0,210774;0,000000;0,000000;0,000000;0,000000;0,000000;0,250000;0,250000;0,291667;0,000000;0,328017;0,291667;0,187188;0,000000;0,000000;0,000000;0,000000;0,000000;0,000000;0,000000;0,000000;0,328017;0,291667;0,375000;0,000000;0,000000;0,000000;0,000000;0,000000;0,250000;0,250000;0,000000;0,000000;0,000000;0,000000;0,261522;0,000000;0,000000;0,000000;0,000000;0,000000;0,000000;0,000000;0,000000;0,000000;0,000000;0,000000;0,000000;0,000000;0,000000;0,000000;0,000000;0,000000;0,000000;0,250000;0,375000;0,000000;0,000000;
55;;;;;;;;;;;;;;;;;;;;;;;;;;;;;;;;;;;;;;;;;;;;;;;;;;;;;;;1,000000;0,660049;0,660049;0,287942;0,204609;0,319630;0,204609;0,204609;0,254930;0,254930;0,254930;0,194098;0,262850;0,162942;0,162942;0,162942;0,287942;0,204609;0,204609;0,332144;0,332144;0,338264;0,162942;0,174037;0,000000;0,204609;0,000000;0,000000;0,287942;0,375000;0,315083;0,254930;0,000000;0,423668;0,254930;0,344530;0,204609;0,204609;0,204609;0,000000;0,119355;0,119355;0,537942;0,290556;0,291281;0,254930;0,338264;0,204609;0,204609;0,000000;0,000000;0,287942;0,505668;0,505668;0,000000;0,000000;0,000000;0,000000;0,375000;0,000000;0,204609;0,137942;0,137942;0,204609;0,287942;0,000000;0,000000;0,000000;0,000000;0,162942;0,162942;0,000000;0,000000;0,000000;0,000000;0,000000;0,204609;0,213264;0,338264;0,000000;0,000000;
56;;;;;;;;;;;;;;;;;;;;;;;;;;;;;;;;;;;;;;;;;;;;;;;;;;;;;;;;1,000000;0,750000;0,000000;0,000000;0,214372;0,000000;0,000000;0,291667;0,291667;0,291667;0,000000;0,000000;0,000000;0,000000;0,000000;0,000000;0,000000;0,000000;0,000000;0,000000;0,375000;0,000000;0,210774;0,000000;0,000000;0,000000;0,000000;0,000000;0,250000;0,250000;0,291667;0,000000;0,328017;0,291667;0,187188;0,000000;0,000000;0,000000;0,000000;0,000000;0,000000;0,000000;0,000000;0,328017;0,291667;0,375000;0,000000;0,000000;0,000000;0,000000;0,000000;0,250000;0,250000;0,000000;0,000000;0,000000;0,000000;0,261522;0,000000;0,000000;0,000000;0,000000;0,000000;0,000000;0,000000;0,000000;0,000000;0,000000;0,000000;0,000000;0,000000;0,000000;0,000000;0,000000;0,000000;0,000000;0,250000;0,375000;0,000000;0,000000;
57;;;;;;;;;;;;;;;;;;;;;;;;;;;;;;;;;;;;;;;;;;;;;;;;;;;;;;;;;1,000000;0,000000;0,000000;0,214372;0,000000;0,000000;0,291667;0,291667;0,291667;0,000000;0,000000;0,000000;0,000000;0,000000;0,000000;0,000000;0,000000;0,000000;0,000000;0,375000;0,000000;0,210774;0,000000;0,000000;0,000000;0,000000;0,000000;0,250000;0,250000;0,291667;0,000000;0,328017;0,291667;0,187188;0,000000;0,000000;0,000000;0,000000;0,000000;0,000000;0,000000;0,000000;0,328017;0,291667;0,375000;0,000000;0,000000;0,000000;0,000000;0,000000;0,250000;0,250000;0,000000;0,000000;0,000000;0,000000;0,261522;0,000000;0,000000;0,000000;0,000000;0,000000;0,000000;0,000000;0,000000;0,000000;0,000000;0,000000;0,000000;0,000000;0,000000;0,000000;0,000000;0,000000;0,000000;0,250000;0,375000;0,000000;0,000000;
58;;;;;;;;;;;;;;;;;;;;;;;;;;;;;;;;;;;;;;;;;;;;;;;;;;;;;;;;;;1,000000;0,833333;0,351440;0,416667;0,416667;0,000000;0,000000;0,000000;0,824355;0,474908;0,375000;0,375000;0,375000;0,500000;0,416667;0,416667;0,375000;0,375000;0,000000;0,375000;0,000000;0,000000;0,833333;0,000000;0,000000;0,500000;0,000000;0,000000;0,000000;0,500000;0,000000;0,000000;0,303934;0,416667;0,416667;0,416667;0,000000;0,331413;0,331413;0,750000;0,502614;0,000000;0,000000;0,000000;0,416667;0,416667;0,000000;0,000000;0,500000;0,375000;0,375000;0,000000;0,000000;0,000000;0,000000;0,370170;0,000000;0,416667;0,350000;0,350000;0,833333;0,500000;0,000000;0,000000;0,000000;0,000000;0,375000;0,375000;0,000000;0,000000;0,000000;0,000000;0,000000;0,416667;0,000000;0,000000;0,000000;0,000000;
59;;;;;;;;;;;;;;;;;;;;;;;;;;;;;;;;;;;;;;;;;;;;;;;;;;;;;;;;;;;1,000000;0,499959;0,333333;0,333333;0,000000;0,000000;0,000000;0,657688;0,726012;0,291667;0,291667;0,291667;0,416667;0,666667;0,666667;0,291667;0,291667;0,000000;0,291667;0,000000;0,000000;0,666667;0,000000;0,000000;0,416667;0,000000;0,227370;0,000000;0,416667;0,000000;0,000000;0,519506;0,333333;0,333333;0,333333;0,000000;0,248080;0,248080;0,666667;0,419281;0,000000;0,000000;0,000000;0,333333;0,333333;0,000000;0,000000;0,416667;0,291667;0,291667;0,000000;0,000000;0,000000;0,000000;0,286836;0,000000;0,666667;0,533333;0,533333;0,666667;0,833333;0,000000;0,000000;0,000000;0,000000;0,583333;0,583333;0,000000;0,000000;0,000000;0,000000;0,000000;0,333333;0,291667;0,000000;0,000000;0,000000;
60;;;;;;;;;;;;;;;;;;;;;;;;;;;;;;;;;;;;;;;;;;;;;;;;;;;;;;;;;;;;1,000000;0,452871;0,268106;0,256039;0,256039;0,256039;0,257596;0,559304;0,226440;0,226440;0,226440;0,351440;0,499959;0,499959;0,226440;0,226440;0,339372;0,226440;0,175146;0,000000;0,452871;0,000000;0,000000;0,351440;0,356996;0,420343;0,256039;0,000000;0,292389;0,256039;0,505684;0,268106;0,268106;0,268106;0,000000;0,182853;0,182853;0,601440;0,354054;0,411157;0,467751;0,339372;0,452871;0,452871;0,000000;0,000000;0,351440;0,226440;0,226440;0,000000;0,000000;0,000000;0,000000;0,444630;0,000000;0,499959;0,366625;0,366625;0,268106;0,666625;0,000000;0,000000;0,000000;0,000000;0,416625;0,416625;0,000000;0,000000;0,000000;0,000000;0,000000;0,268106;0,547668;0,339372;0,000000;0,000000;
61;;;;;;;;;;;;;;;;;;;;;;;;;;;;;;;;;;;;;;;;;;;;;;;;;;;;;;;;;;;;;1,000000;0,333333;0,000000;0,000000;0,000000;0,322823;0,391575;0,291667;0,291667;0,291667;0,416667;0,333333;0,333333;0,291667;0,291667;0,000000;0,291667;0,000000;0,000000;0,666667;0,000000;0,000000;0,416667;0,000000;0,000000;0,000000;0,000000;0,000000;0,000000;0,220600;0,333333;0,333333;0,333333;0,000000;0,248080;0,248080;0,666667;0,419281;0,000000;0,000000;0,000000;0,666667;0,666667;0,000000;0,000000;0,416667;0,291667;0,291667;0,000000;0,000000;0,000000;0,000000;0,286836;0,000000;0,333333;0,266667;0,266667;0,333333;0,416667;0,000000;0,000000;0,000000;0,000000;0,291667;0,291667;0,000000;0,000000;0,000000;0,000000;0,000000;0,333333;0,000000;0,000000;0,000000;0,000000;
62;;;;;;;;;;;;;;;;;;;;;;;;;;;;;;;;;;;;;;;;;;;;;;;;;;;;;;;;;;;;;;1,000000;0,000000;0,000000;0,000000;0,322823;0,391575;0,291667;0,291667;0,291667;0,833333;0,333333;0,333333;0,291667;0,291667;0,000000;0,291667;0,257880;0,000000;0,333333;0,000000;0,000000;0,416667;0,000000;0,000000;0,000000;0,000000;0,000000;0,333333;0,220600;0,333333;0,333333;0,333333;0,000000;0,248080;0,248080;0,666667;0,419281;0,000000;0,000000;0,000000;0,333333;0,333333;0,000000;0,000000;0,416667;0,291667;0,291667;0,000000;0,000000;0,000000;0,000000;0,286836;0,000000;0,666667;0,533333;0,533333;0,333333;0,416667;0,000000;0,000000;0,000000;0,000000;0,583333;0,583333;0,000000;0,000000;0,000000;0,000000;0,000000;0,333333;0,000000;0,000000;0,000000;0,000000;
63;;;;;;;;;;;;;;;;;;;;;;;;;;;;;;;;;;;;;;;;;;;;;;;;;;;;;;;;;;;;;;;1,000000;0,666667;0,666667;0,000000;0,000000;0,000000;0,000000;0,000000;0,000000;0,000000;0,000000;0,000000;0,000000;0,416667;0,000000;0,252440;0,000000;0,000000;0,000000;0,000000;0,000000;0,291667;0,291667;0,333333;0,000000;0,369684;0,333333;0,228855;0,000000;0,000000;0,000000;0,000000;0,000000;0,000000;0,000000;0,000000;0,369684;0,333333;0,416667;0,000000;0,000000;0,000000;0,000000;0,000000;0,000000;0,000000;0,000000;0,000000;0,000000;0,000000;0,303188;0,000000;0,000000;0,000000;0,000000;0,000000;0,000000;0,000000;0,000000;0,000000;0,000000;0,000000;0,000000;0,000000;0,000000;0,000000;0,000000;0,000000;0,000000;0,291667;0,416667;0,000000;0,000000;
64;;;;;;;;;;;;;;;;;;;;;;;;;;;;;;;;;;;;;;;;;;;;;;;;;;;;;;;;;;;;;;;;1,000000;0,666667;0,000000;0,000000;0,000000;0,000000;0,000000;0,000000;0,000000;0,000000;0,000000;0,000000;0,416667;0,000000;0,252440;0,000000;0,000000;0,000000;0,000000;0,000000;0,291667;0,291667;0,333333;0,000000;0,369684;0,333333;0,228855;0,000000;0,000000;0,000000;0,000000;0,000000;0,000000;0,000000;0,000000;0,369684;0,333333;0,416667;0,000000;0,000000;0,000000;0,000000;0,000000;0,000000;0,000000;0,000000;0,000000;0,000000;0,000000;0,303188;0,000000;0,000000;0,000000;0,000000;0,000000;0,000000;0,000000;0,000000;0,000000;0,000000;0,000000;0,000000;0,000000;0,000000;0,000000;0,000000;0,000000;0,000000;0,291667;0,416667;0,000000;0,000000;
65;;;;;;;;;;;;;;;;;;;;;;;;;;;;;;;;;;;;;;;;;;;;;;;;;;;;;;;;;;;;;;;;;1,000000;0,000000;0,000000;0,000000;0,000000;0,000000;0,000000;0,000000;0,000000;0,000000;0,000000;0,416667;0,000000;0,252440;0,000000;0,000000;0,000000;0,000000;0,000000;0,291667;0,291667;0,333333;0,000000;0,369684;0,333333;0,228855;0,000000;0,000000;0,000000;0,000000;0,000000;0,000000;0,000000;0,000000;0,369684;0,333333;0,416667;0,000000;0,000000;0,000000;0,000000;0,000000;0,000000;0,000000;0,000000;0,000000;0,000000;0,000000;0,303188;0,000000;0,000000;0,000000;0,000000;0,000000;0,000000;0,000000;0,000000;0,000000;0,000000;0,000000;0,000000;0,000000;0,000000;0,000000;0,000000;0,000000;0,000000;0,291667;0,416667;0,000000;0,000000;
66;;;;;;;;;;;;;;;;;;;;;;;;;;;;;;;;;;;;;;;;;;;;;;;;;;;;;;;;;;;;;;;;;;1,000000;0,381064;0,281156;0,281156;0,281156;0,406156;0,322823;0,322823;0,281156;0,281156;0,000000;0,281156;0,000000;0,359622;0,657688;0,000000;0,000000;0,406156;0,000000;0,000000;0,000000;0,841738;0,000000;0,000000;0,210090;0,322823;0,322823;0,322823;0,359622;0,531315;0,531315;0,656156;0,408770;0,000000;0,000000;0,000000;0,322823;0,322823;0,000000;0,000000;0,406156;0,281156;0,281156;0,000000;0,000000;0,000000;0,000000;0,276326;0,000000;0,322823;0,256156;0,256156;0,657688;0,406156;0,317955;0,317955;0,317955;0,317955;0,281156;0,281156;0,292955;0,292955;0,292955;0,292955;0,292955;0,322823;0,000000;0,000000;0,000000;0,000000;
67;;;;;;;;;;;;;;;;;;;;;;;;;;;;;;;;;;;;;;;;;;;;;;;;;;;;;;;;;;;;;;;;;;;1,000000;0,349908;0,349908;0,349908;0,474908;0,726012;0,726012;0,349908;0,349908;0,000000;0,349908;0,000000;0,000000;0,391575;0,000000;0,000000;0,474908;0,000000;0,223307;0,296464;0,000000;0,000000;0,000000;0,578851;0,391575;0,391575;0,391575;0,000000;0,306321;0,306321;0,724908;0,477522;0,000000;0,000000;0,000000;0,391575;0,391575;0,000000;0,000000;0,474908;0,349908;0,349908;0,000000;0,000000;0,000000;0,000000;0,345078;0,000000;0,726012;0,592678;0,592678;0,391575;0,892678;0,000000;0,000000;0,000000;0,000000;0,642678;0,642678;0,000000;0,000000;0,000000;0,000000;0,000000;0,391575;0,287604;0,000000;0,000000;0,000000;
68;;;;;;;;;;;;;;;;;;;;;;;;;;;;;;;;;;;;;;;;;;;;;;;;;;;;;;;;;;;;;;;;;;;;1,000000;0,750000;0,690293;0,375000;0,291667;0,291667;0,250000;0,250000;0,000000;0,750000;0,000000;0,291667;0,291667;0,000000;0,000000;0,375000;0,250000;0,204096;0,000000;0,000000;0,000000;0,000000;0,178934;0,291667;0,291667;0,291667;0,000000;0,206413;0,206413;0,625000;0,377614;0,000000;0,000000;0,000000;0,291667;0,291667;0,000000;0,000000;0,375000;0,250000;0,250000;0,000000;0,000000;0,000000;0,000000;0,245170;0,000000;0,291667;0,225000;0,225000;0,291667;0,375000;0,000000;0,000000;0,000000;0,000000;0,250000;0,250000;0,000000;0,000000;0,000000;0,000000;0,000000;0,291667;0,000000;0,000000;0,000000;0,000000;
69;;;;;;;;;;;;;;;;;;;;;;;;;;;;;;;;;;;;;;;;;;;;;;;;;;;;;;;;;;;;;;;;;;;;;1,000000;0,690293;0,375000;0,291667;0,291667;0,250000;0,250000;0,000000;0,750000;0,000000;0,291667;0,291667;0,000000;0,000000;0,375000;0,250000;0,204096;0,000000;0,000000;0,000000;0,000000;0,178934;0,291667;0,291667;0,291667;0,000000;0,206413;0,206413;0,625000;0,377614;0,000000;0,000000;0,000000;0,291667;0,291667;0,000000;0,000000;0,375000;0,250000;0,250000;0,000000;0,000000;0,000000;0,000000;0,245170;0,000000;0,291667;0,225000;0,225000;0,291667;0,375000;0,000000;0,000000;0,000000;0,000000;0,250000;0,250000;0,000000;0,000000;0,000000;0,000000;0,000000;0,291667;0,000000;0,000000;0,000000;0,000000;
70;;;;;;;;;;;;;;;;;;;;;;;;;;;;;;;;;;;;;;;;;;;;;;;;;;;;;;;;;;;;;;;;;;;;;;1,000000;0,375000;0,291667;0,291667;0,250000;0,250000;0,000000;0,690152;0,000000;0,525363;0,291667;0,000000;0,000000;0,375000;0,250000;0,204096;0,000000;0,000000;0,000000;0,000000;0,178934;0,291667;0,291667;0,291667;0,000000;0,206413;0,206413;0,625000;0,377614;0,000000;0,000000;0,000000;0,291667;0,291667;0,000000;0,000000;0,375000;0,250000;0,250000;0,000000;0,000000;0,000000;0,000000;0,245170;0,000000;0,291667;0,225000;0,225000;0,291667;0,375000;0,000000;0,000000;0,000000;0,000000;0,250000;0,250000;0,000000;0,000000;0,000000;0,000000;0,000000;0,291667;0,000000;0,000000;0,000000;0,000000;
71;;;;;;;;;;;;;;;;;;;;;;;;;;;;;;;;;;;;;;;;;;;;;;;;;;;;;;;;;;;;;;;;;;;;;;;1,000000;0,416667;0,416667;0,375000;0,375000;0,000000;0,375000;0,341214;0,000000;0,416667;0,000000;0,000000;0,500000;0,000000;0,000000;0,000000;0,000000;0,000000;0,416667;0,303934;0,416667;0,416667;0,416667;0,000000;0,331413;0,331413;0,750000;0,502614;0,000000;0,000000;0,000000;0,416667;0,416667;0,000000;0,000000;0,500000;0,375000;0,375000;0,000000;0,000000;0,000000;0,000000;0,370170;0,000000;0,833333;0,700000;0,700000;0,416667;0,500000;0,000000;0,000000;0,000000;0,000000;0,750000;0,750000;0,000000;0,000000;0,000000;0,000000;0,000000;0,416667;0,000000;0,000000;0,000000;0,000000;
72;;;;;;;;;;;;;;;;;;;;;;;;;;;;;;;;;;;;;;;;;;;;;;;;;;;;;;;;;;;;;;;;;;;;;;;;1,000000;0,666667;0,291667;0,291667;0,000000;0,291667;0,000000;0,000000;0,333333;0,000000;0,000000;0,416667;0,000000;0,227370;0,000000;0,000000;0,000000;0,000000;0,519506;0,333333;0,333333;0,333333;0,000000;0,248080;0,248080;0,666667;0,419281;0,000000;0,000000;0,000000;0,333333;0,333333;0,000000;0,000000;0,416667;0,291667;0,291667;0,000000;0,000000;0,000000;0,000000;0,286836;0,000000;0,666667;0,533333;0,533333;0,333333;0,833333;0,000000;0,000000;0,000000;0,000000;0,583333;0,583333;0,000000;0,000000;0,000000;0,000000;0,000000;0,333333;0,291667;0,000000;0,000000;0,000000;
73;;;;;;;;;;;;;;;;;;;;;;;;;;;;;;;;;;;;;;;;;;;;;;;;;;;;;;;;;;;;;;;;;;;;;;;;;1,000000;0,291667;0,291667;0,000000;0,291667;0,000000;0,000000;0,333333;0,000000;0,000000;0,416667;0,000000;0,227370;0,000000;0,000000;0,000000;0,000000;0,519506;0,333333;0,333333;0,333333;0,000000;0,248080;0,248080;0,666667;0,419281;0,000000;0,000000;0,000000;0,333333;0,333333;0,000000;0,000000;0,416667;0,291667;0,291667;0,000000;0,000000;0,000000;0,000000;0,286836;0,000000;0,666667;0,533333;0,533333;0,333333;0,833333;0,000000;0,000000;0,000000;0,000000;0,583333;0,583333;0,000000;0,000000;0,000000;0,000000;0,000000;0,333333;0,291667;0,000000;0,000000;0,000000;
74;;;;;;;;;;;;;;;;;;;;;;;;;;;;;;;;;;;;;;;;;;;;;;;;;;;;;;;;;;;;;;;;;;;;;;;;;;1,000000;0,750000;0,375000;0,250000;0,291667;0,000000;0,291667;0,000000;0,000000;0,375000;0,250000;0,200065;0,000000;0,000000;0,463305;0,291667;0,551654;0,291667;0,291667;0,291667;0,000000;0,206413;0,206413;0,625000;0,377614;0,000000;0,000000;0,000000;0,291667;0,291667;0,000000;0,000000;0,375000;0,500000;0,500000;0,000000;0,000000;0,000000;0,000000;0,245170;0,000000;0,291667;0,450000;0,450000;0,291667;0,375000;0,000000;0,000000;0,000000;0,000000;0,250000;0,250000;0,000000;0,000000;0,000000;0,000000;0,000000;0,291667;0,000000;0,000000;0,000000;0,000000;
75;;;;;;;;;;;;;;;;;;;;;;;;;;;;;;;;;;;;;;;;;;;;;;;;;;;;;;;;;;;;;;;;;;;;;;;;;;;1,000000;0,375000;0,250000;0,291667;0,000000;0,291667;0,000000;0,000000;0,375000;0,250000;0,200065;0,000000;0,000000;0,463305;0,291667;0,551654;0,291667;0,291667;0,291667;0,000000;0,206413;0,206413;0,625000;0,377614;0,000000;0,000000;0,000000;0,291667;0,291667;0,000000;0,000000;0,375000;0,500000;0,500000;0,000000;0,000000;0,000000;0,000000;0,245170;0,000000;0,291667;0,450000;0,450000;0,291667;0,375000;0,000000;0,000000;0,000000;0,000000;0,250000;0,250000;0,000000;0,000000;0,000000;0,000000;0,000000;0,291667;0,000000;0,000000;0,000000;0,000000;
76;;;;;;;;;;;;;;;;;;;;;;;;;;;;;;;;;;;;;;;;;;;;;;;;;;;;;;;;;;;;;;;;;;;;;;;;;;;;1,000000;0,000000;0,749563;0,000000;0,000000;0,000000;0,000000;0,000000;0,375000;0,375000;0,416667;0,000000;0,797187;0,833333;0,625000;0,000000;0,000000;0,000000;0,000000;0,000000;0,000000;0,000000;0,000000;0,453017;0,416667;0,500000;0,000000;0,000000;0,000000;0,000000;0,000000;0,000000;0,000000;0,000000;0,000000;0,000000;0,000000;0,386522;0,000000;0,000000;0,350000;0,350000;0,000000;0,000000;0,000000;0,000000;0,000000;0,000000;0,000000;0,000000;0,000000;0,000000;0,000000;0,000000;0,000000;0,000000;0,375000;0,500000;0,000000;0,000000;
77;;;;;;;;;;;;;;;;;;;;;;;;;;;;;;;;;;;;;;;;;;;;;;;;;;;;;;;;;;;;;;;;;;;;;;;;;;;;;1,000000;0,000000;0,583333;0,291667;0,000000;0,000000;0,375000;0,250000;0,204096;0,000000;0,000000;0,000000;0,000000;0,178934;0,291667;0,291667;0,291667;0,000000;0,206413;0,206413;0,625000;0,377614;0,000000;0,000000;0,000000;0,291667;0,291667;0,000000;0,000000;0,375000;0,250000;0,250000;0,000000;0,000000;0,000000;0,000000;0,245170;0,000000;0,291667;0,225000;0,225000;0,291667;0,375000;0,000000;0,000000;0,000000;0,000000;0,250000;0,250000;0,000000;0,000000;0,000000;0,000000;0,000000;0,291667;0,000000;0,000000;0,000000;0,000000;
78;;;;;;;;;;;;;;;;;;;;;;;;;;;;;;;;;;;;;;;;;;;;;;;;;;;;;;;;;;;;;;;;;;;;;;;;;;;;;;1,000000;0,000000;0,000000;0,000000;0,000000;0,000000;0,210774;0,210774;0,252440;0,000000;0,546750;0,835228;0,524574;0,000000;0,000000;0,000000;0,000000;0,000000;0,000000;0,000000;0,000000;0,288791;0,252440;0,335774;0,000000;0,000000;0,000000;0,000000;0,000000;0,000000;0,000000;0,000000;0,000000;0,000000;0,000000;0,222295;0,000000;0,257880;0,452010;0,452010;0,000000;0,000000;0,000000;0,000000;0,000000;0,000000;0,216214;0,216214;0,000000;0,000000;0,000000;0,000000;0,000000;0,000000;0,210774;0,335774;0,000000;0,000000;
79;;;;;;;;;;;;;;;;;;;;;;;;;;;;;;;;;;;;;;;;;;;;;;;;;;;;;;;;;;;;;;;;;;;;;;;;;;;;;;;1,000000;0,000000;0,000000;0,000000;0,000000;0,291667;0,245763;0,000000;0,416667;0,000000;0,000000;0,000000;0,000000;0,000000;0,000000;0,333333;0,270319;0,270319;0,000000;0,000000;0,000000;0,000000;0,000000;0,000000;0,000000;0,000000;0,000000;0,000000;0,000000;0,000000;0,000000;0,000000;0,000000;0,000000;0,000000;0,000000;0,000000;0,000000;0,000000;0,000000;0,000000;0,291667;0,291667;0,291667;0,291667;0,000000;0,000000;0,266667;0,266667;0,266667;0,266667;0,266667;0,000000;0,000000;0,000000;0,000000;0,000000;
80;;;;;;;;;;;;;;;;;;;;;;;;;;;;;;;;;;;;;;;;;;;;;;;;;;;;;;;;;;;;;;;;;;;;;;;;;;;;;;;;1,000000;0,000000;0,000000;0,416667;0,000000;0,000000;0,000000;0,416667;0,000000;0,000000;0,220600;0,333333;0,333333;0,333333;0,000000;0,248080;0,248080;0,666667;0,419281;0,000000;0,000000;0,000000;0,666667;0,666667;0,000000;0,000000;0,416667;0,291667;0,291667;0,000000;0,000000;0,000000;0,000000;0,286836;0,000000;0,333333;0,266667;0,266667;0,666667;0,416667;0,000000;0,000000;0,000000;0,000000;0,291667;0,291667;0,000000;0,000000;0,000000;0,000000;0,000000;0,333333;0,000000;0,000000;0,000000;0,000000;
81;;;;;;;;;;;;;;;;;;;;;;;;;;;;;;;;;;;;;;;;;;;;;;;;;;;;;;;;;;;;;;;;;;;;;;;;;;;;;;;;;1,000000;0,000000;0,000000;0,000000;0,000000;0,000000;0,000000;0,000000;0,000000;0,000000;0,000000;0,000000;0,000000;0,000000;0,000000;0,000000;0,000000;0,000000;0,000000;0,000000;0,000000;0,000000;0,000000;0,484074;0,484074;0,000000;0,000000;0,000000;0,000000;0,000000;0,000000;0,000000;0,000000;0,000000;0,000000;0,000000;0,000000;0,000000;0,000000;0,000000;0,000000;0,000000;0,000000;0,000000;0,000000;0,000000;0,000000;0,000000;0,000000;0,000000;0,000000;0,000000;0,000000;0,000000;0,000000;
82;;;;;;;;;;;;;;;;;;;;;;;;;;;;;;;;;;;;;;;;;;;;;;;;;;;;;;;;;;;;;;;;;;;;;;;;;;;;;;;;;;1,000000;0,000000;0,000000;0,000000;0,000000;0,000000;0,000000;0,000000;0,000000;0,000000;0,000000;0,000000;0,000000;0,000000;0,000000;0,000000;0,000000;0,000000;0,000000;0,000000;0,000000;0,000000;0,750000;0,750000;0,000000;0,000000;0,000000;0,000000;0,000000;0,000000;0,000000;0,000000;0,000000;0,000000;0,000000;0,000000;0,000000;0,000000;0,000000;0,000000;0,000000;0,000000;0,000000;0,000000;0,000000;0,000000;0,000000;0,000000;0,000000;0,000000;0,000000;0,000000;0,000000;0,000000;
83;;;;;;;;;;;;;;;;;;;;;;;;;;;;;;;;;;;;;;;;;;;;;;;;;;;;;;;;;;;;;;;;;;;;;;;;;;;;;;;;;;;1,000000;0,000000;0,324637;0,000000;0,000000;0,000000;0,000000;0,303934;0,416667;0,416667;0,416667;0,000000;0,331413;0,331413;0,750000;0,502614;0,453017;0,416667;0,000000;0,416667;0,416667;0,000000;0,000000;0,500000;0,375000;0,375000;0,000000;0,000000;0,000000;0,000000;0,849775;0,000000;0,416667;0,350000;0,350000;0,416667;0,500000;0,000000;0,000000;0,000000;0,000000;0,375000;0,375000;0,000000;0,000000;0,000000;0,000000;0,000000;0,416667;0,375000;0,500000;0,000000;0,000000;
84;;;;;;;;;;;;;;;;;;;;;;;;;;;;;;;;;;;;;;;;;;;;;;;;;;;;;;;;;;;;;;;;;;;;;;;;;;;;;;;;;;;;1,000000;0,633951;0,291667;0,000000;0,548668;0,291667;0,375000;0,000000;0,000000;0,000000;0,000000;0,000000;0,000000;0,000000;0,000000;0,328017;0,291667;0,375000;0,000000;0,000000;0,000000;0,000000;0,000000;0,250000;0,250000;0,000000;0,000000;0,000000;0,000000;0,261522;0,000000;0,000000;0,000000;0,000000;0,000000;0,000000;0,000000;0,000000;0,000000;0,000000;0,000000;0,000000;0,000000;0,000000;0,000000;0,000000;0,000000;0,000000;0,500000;0,375000;0,000000;0,000000;
85;;;;;;;;;;;;;;;;;;;;;;;;;;;;;;;;;;;;;;;;;;;;;;;;;;;;;;;;;;;;;;;;;;;;;;;;;;;;;;;;;;;;;1,000000;0,291667;0,000000;0,488751;0,291667;0,500000;0,000000;0,000000;0,000000;0,000000;0,000000;0,000000;0,000000;0,000000;0,596347;0,523646;0,375000;0,000000;0,000000;0,000000;0,000000;0,000000;0,200065;0,200065;0,000000;0,000000;0,000000;0,000000;0,555616;0,000000;0,227370;0,160703;0,160703;0,000000;0,310703;0,000000;0,000000;0,000000;0,000000;0,185703;0,185703;0,000000;0,000000;0,000000;0,000000;0,000000;0,000000;0,621042;0,690313;0,000000;0,000000;
86;;;;;;;;;;;;;;;;;;;;;;;;;;;;;;;;;;;;;;;;;;;;;;;;;;;;;;;;;;;;;;;;;;;;;;;;;;;;;;;;;;;;;;1,000000;0,000000;0,369684;0,333333;0,228855;0,000000;0,000000;0,000000;0,000000;0,000000;0,000000;0,000000;0,000000;0,369684;0,333333;0,416667;0,000000;0,000000;0,000000;0,000000;0,000000;0,000000;0,000000;0,000000;0,000000;0,000000;0,000000;0,303188;0,000000;0,000000;0,000000;0,000000;0,000000;0,000000;0,000000;0,000000;0,000000;0,000000;0,000000;0,000000;0,000000;0,000000;0,000000;0,000000;0,000000;0,000000;0,291667;0,416667;0,000000;0,000000;
87;;;;;;;;;;;;;;;;;;;;;;;;;;;;;;;;;;;;;;;;;;;;;;;;;;;;;;;;;;;;;;;;;;;;;;;;;;;;;;;;;;;;;;;1,000000;0,000000;0,000000;0,000000;0,000000;0,000000;0,000000;0,416667;0,353653;0,353653;0,000000;0,000000;0,000000;0,000000;0,000000;0,000000;0,000000;0,000000;0,000000;0,000000;0,000000;0,000000;0,000000;0,000000;0,000000;0,000000;0,000000;0,000000;0,000000;0,000000;0,000000;0,416667;0,000000;0,375000;0,375000;0,375000;0,375000;0,000000;0,000000;0,350000;0,350000;0,350000;0,350000;0,350000;0,000000;0,000000;0,000000;0,000000;0,000000;
88;;;;;;;;;;;;;;;;;;;;;;;;;;;;;;;;;;;;;;;;;;;;;;;;;;;;;;;;;;;;;;;;;;;;;;;;;;;;;;;;;;;;;;;;1,000000;0,630520;0,585163;0,000000;0,000000;0,000000;0,000000;0,000000;0,000000;0,000000;0,000000;0,406035;0,369684;0,453017;0,000000;0,000000;0,000000;0,000000;0,000000;0,236183;0,236183;0,000000;0,000000;0,000000;0,000000;0,339539;0,000000;0,000000;0,203656;0,203656;0,000000;0,000000;0,000000;0,000000;0,000000;0,000000;0,000000;0,000000;0,000000;0,000000;0,000000;0,000000;0,000000;0,000000;0,328017;0,453017;0,000000;0,000000;
89;;;;;;;;;;;;;;;;;;;;;;;;;;;;;;;;;;;;;;;;;;;;;;;;;;;;;;;;;;;;;;;;;;;;;;;;;;;;;;;;;;;;;;;;;1,000000;0,458333;0,000000;0,000000;0,000000;0,000000;0,000000;0,000000;0,000000;0,000000;0,369684;0,333333;0,416667;0,000000;0,000000;0,000000;0,000000;0,000000;0,000000;0,000000;0,000000;0,000000;0,000000;0,000000;0,303188;0,000000;0,333333;0,533333;0,533333;0,000000;0,000000;0,000000;0,000000;0,000000;0,000000;0,291667;0,291667;0,000000;0,000000;0,000000;0,000000;0,000000;0,000000;0,291667;0,416667;0,000000;0,000000;
90;;;;;;;;;;;;;;;;;;;;;;;;;;;;;;;;;;;;;;;;;;;;;;;;;;;;;;;;;;;;;;;;;;;;;;;;;;;;;;;;;;;;;;;;;;1,000000;0,220600;0,220600;0,220600;0,000000;0,135347;0,135347;0,553934;0,306548;0,265206;0,228855;0,312188;0,220600;0,220600;0,000000;0,000000;0,303934;0,365023;0,365023;0,000000;0,000000;0,000000;0,000000;0,375000;0,000000;0,519506;0,550693;0,550693;0,220600;0,686173;0,000000;0,000000;0,000000;0,000000;0,436173;0,436173;0,000000;0,000000;0,000000;0,000000;0,000000;0,220600;0,439854;0,312188;0,000000;0,000000;
91;;;;;;;;;;;;;;;;;;;;;;;;;;;;;;;;;;;;;;;;;;;;;;;;;;;;;;;;;;;;;;;;;;;;;;;;;;;;;;;;;;;;;;;;;;;1,000000;0,666667;0,666667;0,000000;0,248080;0,248080;0,666667;0,419281;0,000000;0,000000;0,000000;0,333333;0,333333;0,000000;0,000000;0,416667;0,291667;0,291667;0,000000;0,000000;0,000000;0,000000;0,286836;0,000000;0,333333;0,266667;0,266667;0,333333;0,416667;0,000000;0,000000;0,000000;0,000000;0,291667;0,291667;0,000000;0,000000;0,000000;0,000000;0,000000;0,333333;0,000000;0,000000;0,000000;0,000000;
92;;;;;;;;;;;;;;;;;;;;;;;;;;;;;;;;;;;;;;;;;;;;;;;;;;;;;;;;;;;;;;;;;;;;;;;;;;;;;;;;;;;;;;;;;;;;1,000000;0,666667;0,000000;0,248080;0,248080;0,666667;0,419281;0,000000;0,000000;0,000000;0,333333;0,333333;0,000000;0,000000;0,416667;0,291667;0,291667;0,000000;0,000000;0,000000;0,000000;0,286836;0,000000;0,333333;0,266667;0,266667;0,333333;0,416667;0,000000;0,000000;0,000000;0,000000;0,291667;0,291667;0,000000;0,000000;0,000000;0,000000;0,000000;0,333333;0,000000;0,000000;0,000000;0,000000;
93;;;;;;;;;;;;;;;;;;;;;;;;;;;;;;;;;;;;;;;;;;;;;;;;;;;;;;;;;;;;;;;;;;;;;;;;;;;;;;;;;;;;;;;;;;;;;1,000000;0,000000;0,248080;0,248080;0,666667;0,419281;0,000000;0,000000;0,000000;0,333333;0,333333;0,000000;0,000000;0,416667;0,291667;0,291667;0,000000;0,000000;0,000000;0,000000;0,286836;0,000000;0,333333;0,266667;0,266667;0,333333;0,416667;0,000000;0,000000;0,000000;0,000000;0,291667;0,291667;0,000000;0,000000;0,000000;0,000000;0,000000;0,333333;0,000000;0,000000;0,000000;0,000000;
94;;;;;;;;;;;;;;;;;;;;;;;;;;;;;;;;;;;;;;;;;;;;;;;;;;;;;;;;;;;;;;;;;;;;;;;;;;;;;;;;;;;;;;;;;;;;;;1,000000;0,558475;0,558475;0,000000;0,000000;0,000000;0,000000;0,000000;0,000000;0,000000;0,000000;0,000000;0,000000;0,000000;0,000000;0,000000;0,000000;0,000000;0,000000;0,000000;0,000000;0,000000;0,000000;0,000000;0,000000;0,000000;0,291667;0,291667;0,291667;0,291667;0,000000;0,000000;0,266667;0,266667;0,266667;0,266667;0,266667;0,666667;0,000000;0,000000;0,000000;0,000000;
95;;;;;;;;;;;;;;;;;;;;;;;;;;;;;;;;;;;;;;;;;;;;;;;;;;;;;;;;;;;;;;;;;;;;;;;;;;;;;;;;;;;;;;;;;;;;;;;1,000000;0,666667;0,581413;0,334027;0,000000;0,000000;0,000000;0,248080;0,248080;0,000000;0,000000;0,331413;0,206413;0,206413;0,000000;0,000000;0,000000;0,000000;0,201583;0,000000;0,248080;0,181413;0,181413;0,248080;0,331413;0,228653;0,228653;0,228653;0,228653;0,206413;0,206413;0,203653;0,203653;0,203653;0,203653;0,203653;0,538828;0,000000;0,000000;0,000000;0,000000;
96;;;;;;;;;;;;;;;;;;;;;;;;;;;;;;;;;;;;;;;;;;;;;;;;;;;;;;;;;;;;;;;;;;;;;;;;;;;;;;;;;;;;;;;;;;;;;;;;1,000000;0,581413;0,334027;0,000000;0,000000;0,000000;0,248080;0,248080;0,000000;0,000000;0,331413;0,206413;0,206413;0,000000;0,000000;0,000000;0,000000;0,201583;0,000000;0,248080;0,181413;0,181413;0,248080;0,331413;0,228653;0,228653;0,228653;0,228653;0,206413;0,206413;0,203653;0,203653;0,203653;0,203653;0,203653;0,538828;0,000000;0,000000;0,000000;0,000000;
97;;;;;;;;;;;;;;;;;;;;;;;;;;;;;;;;;;;;;;;;;;;;;;;;;;;;;;;;;;;;;;;;;;;;;;;;;;;;;;;;;;;;;;;;;;;;;;;;;1,000000;0,752614;0,000000;0,000000;0,000000;0,666667;0,666667;0,000000;0,000000;0,750000;0,625000;0,625000;0,000000;0,000000;0,000000;0,000000;0,620170;0,000000;0,666667;0,600000;0,600000;0,666667;0,750000;0,000000;0,000000;0,000000;0,000000;0,625000;0,625000;0,000000;0,000000;0,000000;0,000000;0,000000;0,666667;0,000000;0,000000;0,000000;0,000000;
98;;;;;;;;;;;;;;;;;;;;;;;;;;;;;;;;;;;;;;;;;;;;;;;;;;;;;;;;;;;;;;;;;;;;;;;;;;;;;;;;;;;;;;;;;;;;;;;;;;1,000000;0,000000;0,000000;0,000000;0,419281;0,419281;0,000000;0,000000;0,502614;0,377614;0,377614;0,526398;0,526398;0,526398;0,000000;0,372784;0,859731;0,419281;0,352614;0,352614;0,419281;0,502614;0,000000;0,000000;0,000000;0,000000;0,377614;0,377614;0,000000;0,000000;0,000000;0,000000;0,000000;0,419281;0,000000;0,000000;0,000000;0,000000;
99;;;;;;;;;;;;;;;;;;;;;;;;;;;;;;;;;;;;;;;;;;;;;;;;;;;;;;;;;;;;;;;;;;;;;;;;;;;;;;;;;;;;;;;;;;;;;;;;;;;1,000000;0,739368;0,453017;0,000000;0,000000;0,000000;0,000000;0,000000;0,000000;0,000000;0,000000;0,000000;0,000000;0,000000;0,771338;0,000000;0,000000;0,000000;0,000000;0,000000;0,000000;0,000000;0,000000;0,000000;0,000000;0,000000;0,000000;0,000000;0,000000;0,000000;0,000000;0,000000;0,000000;0,656035;0,906035;0,000000;0,000000;
100;;;;;;;;;;;;;;;;;;;;;;;;;;;;;;;;;;;;;;;;;;;;;;;;;;;;;;;;;;;;;;;;;;;;;;;;;;;;;;;;;;;;;;;;;;;;;;;;;;;;1,000000;0,416667;0,000000;0,000000;0,000000;0,000000;0,000000;0,000000;0,000000;0,000000;0,000000;0,000000;0,000000;0,698637;0,000000;0,000000;0,000000;0,000000;0,000000;0,000000;0,000000;0,000000;0,000000;0,000000;0,000000;0,000000;0,000000;0,000000;0,000000;0,000000;0,000000;0,000000;0,583333;0,833333;0,000000;0,000000;
101;;;;;;;;;;;;;;;;;;;;;;;;;;;;;;;;;;;;;;;;;;;;;;;;;;;;;;;;;;;;;;;;;;;;;;;;;;;;;;;;;;;;;;;;;;;;;;;;;;;;;1,000000;0,000000;0,000000;0,000000;0,000000;0,000000;0,000000;0,000000;0,000000;0,000000;0,000000;0,000000;0,386522;0,000000;0,000000;0,000000;0,000000;0,000000;0,000000;0,000000;0,000000;0,000000;0,000000;0,000000;0,000000;0,000000;0,000000;0,000000;0,000000;0,000000;0,000000;0,375000;0,500000;0,000000;0,000000;
102;;;;;;;;;;;;;;;;;;;;;;;;;;;;;;;;;;;;;;;;;;;;;;;;;;;;;;;;;;;;;;;;;;;;;;;;;;;;;;;;;;;;;;;;;;;;;;;;;;;;;;1,000000;0,666667;0,000000;0,000000;0,416667;0,291667;0,291667;0,000000;0,000000;0,000000;0,000000;0,286836;0,000000;0,333333;0,266667;0,266667;0,333333;0,416667;0,000000;0,000000;0,000000;0,000000;0,291667;0,291667;0,000000;0,000000;0,000000;0,000000;0,000000;0,333333;0,000000;0,000000;0,000000;0,000000;
103;;;;;;;;;;;;;;;;;;;;;;;;;;;;;;;;;;;;;;;;;;;;;;;;;;;;;;;;;;;;;;;;;;;;;;;;;;;;;;;;;;;;;;;;;;;;;;;;;;;;;;;1,000000;0,000000;0,000000;0,416667;0,291667;0,291667;0,000000;0,000000;0,000000;0,000000;0,286836;0,000000;0,333333;0,266667;0,266667;0,333333;0,416667;0,000000;0,000000;0,000000;0,000000;0,291667;0,291667;0,000000;0,000000;0,000000;0,000000;0,000000;0,333333;0,000000;0,000000;0,000000;0,000000;
104;;;;;;;;;;;;;;;;;;;;;;;;;;;;;;;;;;;;;;;;;;;;;;;;;;;;;;;;;;;;;;;;;;;;;;;;;;;;;;;;;;;;;;;;;;;;;;;;;;;;;;;;1,000000;0,500000;0,000000;0,000000;0,000000;0,000000;0,000000;0,000000;0,000000;0,000000;0,000000;0,000000;0,000000;0,000000;0,000000;0,000000;0,000000;0,000000;0,000000;0,000000;0,000000;0,000000;0,000000;0,000000;0,000000;0,000000;0,000000;0,000000;0,000000;0,000000;0,000000;0,000000;
105;;;;;;;;;;;;;;;;;;;;;;;;;;;;;;;;;;;;;;;;;;;;;;;;;;;;;;;;;;;;;;;;;;;;;;;;;;;;;;;;;;;;;;;;;;;;;;;;;;;;;;;;;1,000000;0,000000;0,000000;0,000000;0,000000;0,000000;0,000000;0,000000;0,000000;0,000000;0,000000;0,000000;0,000000;0,000000;0,000000;0,000000;0,000000;0,000000;0,000000;0,000000;0,000000;0,000000;0,000000;0,000000;0,000000;0,000000;0,000000;0,000000;0,000000;0,000000;0,000000;
106;;;;;;;;;;;;;;;;;;;;;;;;;;;;;;;;;;;;;;;;;;;;;;;;;;;;;;;;;;;;;;;;;;;;;;;;;;;;;;;;;;;;;;;;;;;;;;;;;;;;;;;;;;1,000000;0,375000;0,375000;0,000000;0,000000;0,000000;0,000000;0,370170;0,000000;0,416667;0,350000;0,350000;0,833333;0,500000;0,000000;0,000000;0,000000;0,000000;0,375000;0,375000;0,000000;0,000000;0,000000;0,000000;0,000000;0,416667;0,000000;0,000000;0,000000;0,000000;
107;;;;;;;;;;;;;;;;;;;;;;;;;;;;;;;;;;;;;;;;;;;;;;;;;;;;;;;;;;;;;;;;;;;;;;;;;;;;;;;;;;;;;;;;;;;;;;;;;;;;;;;;;;;1,000000;0,750000;0,000000;0,000000;0,000000;0,000000;0,245170;0,000000;0,291667;0,225000;0,225000;0,291667;0,375000;0,000000;0,000000;0,000000;0,000000;0,250000;0,250000;0,000000;0,000000;0,000000;0,000000;0,000000;0,291667;0,000000;0,000000;0,000000;0,000000;
108;;;;;;;;;;;;;;;;;;;;;;;;;;;;;;;;;;;;;;;;;;;;;;;;;;;;;;;;;;;;;;;;;;;;;;;;;;;;;;;;;;;;;;;;;;;;;;;;;;;;;;;;;;;;1,000000;0,000000;0,000000;0,000000;0,000000;0,245170;0,000000;0,291667;0,225000;0,225000;0,291667;0,375000;0,000000;0,000000;0,000000;0,000000;0,250000;0,250000;0,000000;0,000000;0,000000;0,000000;0,000000;0,291667;0,000000;0,000000;0,000000;0,000000;
109;;;;;;;;;;;;;;;;;;;;;;;;;;;;;;;;;;;;;;;;;;;;;;;;;;;;;;;;;;;;;;;;;;;;;;;;;;;;;;;;;;;;;;;;;;;;;;;;;;;;;;;;;;;;;1,000000;0,666667;0,666667;0,636469;0,000000;0,666667;0,000000;0,000000;0,000000;0,000000;0,000000;0,000000;0,000000;0,000000;0,000000;0,000000;0,000000;0,000000;0,000000;0,000000;0,000000;0,000000;0,000000;0,000000;0,000000;0,000000;0,000000;
110;;;;;;;;;;;;;;;;;;;;;;;;;;;;;;;;;;;;;;;;;;;;;;;;;;;;;;;;;;;;;;;;;;;;;;;;;;;;;;;;;;;;;;;;;;;;;;;;;;;;;;;;;;;;;;1,000000;0,666667;0,636469;0,000000;0,666667;0,000000;0,000000;0,000000;0,000000;0,000000;0,000000;0,000000;0,000000;0,000000;0,000000;0,000000;0,000000;0,000000;0,000000;0,000000;0,000000;0,000000;0,000000;0,000000;0,000000;0,000000;
111;;;;;;;;;;;;;;;;;;;;;;;;;;;;;;;;;;;;;;;;;;;;;;;;;;;;;;;;;;;;;;;;;;;;;;;;;;;;;;;;;;;;;;;;;;;;;;;;;;;;;;;;;;;;;;;1,000000;0,636469;0,000000;0,666667;0,000000;0,000000;0,000000;0,000000;0,000000;0,000000;0,000000;0,000000;0,000000;0,000000;0,000000;0,000000;0,000000;0,000000;0,000000;0,000000;0,000000;0,000000;0,000000;0,000000;0,000000;
112;;;;;;;;;;;;;;;;;;;;;;;;;;;;;;;;;;;;;;;;;;;;;;;;;;;;;;;;;;;;;;;;;;;;;;;;;;;;;;;;;;;;;;;;;;;;;;;;;;;;;;;;;;;;;;;;1,000000;0,000000;0,000000;0,000000;0,000000;0,000000;0,000000;0,000000;0,000000;0,000000;0,000000;0,000000;0,000000;0,000000;0,000000;0,000000;0,000000;0,000000;0,000000;0,000000;0,000000;0,000000;0,000000;0,000000;
113;;;;;;;;;;;;;;;;;;;;;;;;;;;;;;;;;;;;;;;;;;;;;;;;;;;;;;;;;;;;;;;;;;;;;;;;;;;;;;;;;;;;;;;;;;;;;;;;;;;;;;;;;;;;;;;;;1,000000;0,000000;0,286836;0,220170;0,220170;0,286836;0,370170;0,000000;0,000000;0,000000;0,000000;0,245170;0,245170;0,000000;0,000000;0,000000;0,000000;0,000000;0,286836;0,615304;0,865304;0,000000;0,000000;
114;;;;;;;;;;;;;;;;;;;;;;;;;;;;;;;;;;;;;;;;;;;;;;;;;;;;;;;;;;;;;;;;;;;;;;;;;;;;;;;;;;;;;;;;;;;;;;;;;;;;;;;;;;;;;;;;;;1,000000;0,000000;0,000000;0,000000;0,000000;0,000000;0,000000;0,000000;0,000000;0,000000;0,000000;0,000000;0,000000;0,000000;0,000000;0,000000;0,000000;0,000000;0,000000;0,000000;0,000000;0,000000;
115;;;;;;;;;;;;;;;;;;;;;;;;;;;;;;;;;;;;;;;;;;;;;;;;;;;;;;;;;;;;;;;;;;;;;;;;;;;;;;;;;;;;;;;;;;;;;;;;;;;;;;;;;;;;;;;;;;;1,000000;0,800000;0,800000;0,333333;0,833333;0,000000;0,000000;0,000000;0,000000;0,875000;0,875000;0,000000;0,000000;0,000000;0,000000;0,000000;0,333333;0,291667;0,000000;0,000000;0,000000;
116;;;;;;;;;;;;;;;;;;;;;;;;;;;;;;;;;;;;;;;;;;;;;;;;;;;;;;;;;;;;;;;;;;;;;;;;;;;;;;;;;;;;;;;;;;;;;;;;;;;;;;;;;;;;;;;;;;;;1,000000;0,800000;0,266667;0,700000;0,000000;0,000000;0,000000;0,000000;0,675000;0,675000;0,000000;0,000000;0,000000;0,000000;0,000000;0,266667;0,225000;0,000000;0,000000;0,000000;
117;;;;;;;;;;;;;;;;;;;;;;;;;;;;;;;;;;;;;;;;;;;;;;;;;;;;;;;;;;;;;;;;;;;;;;;;;;;;;;;;;;;;;;;;;;;;;;;;;;;;;;;;;;;;;;;;;;;;;1,000000;0,266667;0,700000;0,000000;0,000000;0,000000;0,000000;0,675000;0,675000;0,000000;0,000000;0,000000;0,000000;0,000000;0,266667;0,225000;0,000000;0,000000;0,000000;
118;;;;;;;;;;;;;;;;;;;;;;;;;;;;;;;;;;;;;;;;;;;;;;;;;;;;;;;;;;;;;;;;;;;;;;;;;;;;;;;;;;;;;;;;;;;;;;;;;;;;;;;;;;;;;;;;;;;;;;1,000000;0,416667;0,000000;0,000000;0,000000;0,000000;0,291667;0,291667;0,000000;0,000000;0,000000;0,000000;0,000000;0,333333;0,000000;0,000000;0,000000;0,000000;
119;;;;;;;;;;;;;;;;;;;;;;;;;;;;;;;;;;;;;;;;;;;;;;;;;;;;;;;;;;;;;;;;;;;;;;;;;;;;;;;;;;;;;;;;;;;;;;;;;;;;;;;;;;;;;;;;;;;;;;;1,000000;0,000000;0,000000;0,000000;0,000000;0,750000;0,750000;0,000000;0,000000;0,000000;0,000000;0,000000;0,416667;0,375000;0,000000;0,000000;0,000000;
120;;;;;;;;;;;;;;;;;;;;;;;;;;;;;;;;;;;;;;;;;;;;;;;;;;;;;;;;;;;;;;;;;;;;;;;;;;;;;;;;;;;;;;;;;;;;;;;;;;;;;;;;;;;;;;;;;;;;;;;;1,000000;0,750000;0,750000;0,750000;0,000000;0,000000;0,225000;0,225000;0,225000;0,225000;0,225000;0,000000;0,000000;0,000000;0,000000;0,000000;
121;;;;;;;;;;;;;;;;;;;;;;;;;;;;;;;;;;;;;;;;;;;;;;;;;;;;;;;;;;;;;;;;;;;;;;;;;;;;;;;;;;;;;;;;;;;;;;;;;;;;;;;;;;;;;;;;;;;;;;;;;1,000000;0,750000;0,750000;0,000000;0,000000;0,225000;0,225000;0,225000;0,225000;0,225000;0,000000;0,000000;0,000000;0,000000;0,000000;
122;;;;;;;;;;;;;;;;;;;;;;;;;;;;;;;;;;;;;;;;;;;;;;;;;;;;;;;;;;;;;;;;;;;;;;;;;;;;;;;;;;;;;;;;;;;;;;;;;;;;;;;;;;;;;;;;;;;;;;;;;;1,000000;0,750000;0,000000;0,000000;0,225000;0,225000;0,225000;0,225000;0,225000;0,000000;0,000000;0,000000;0,000000;0,000000;
123;;;;;;;;;;;;;;;;;;;;;;;;;;;;;;;;;;;;;;;;;;;;;;;;;;;;;;;;;;;;;;;;;;;;;;;;;;;;;;;;;;;;;;;;;;;;;;;;;;;;;;;;;;;;;;;;;;;;;;;;;;;1,000000;0,000000;0,000000;0,225000;0,225000;0,225000;0,225000;0,225000;0,000000;0,000000;0,000000;0,000000;0,000000;
124;;;;;;;;;;;;;;;;;;;;;;;;;;;;;;;;;;;;;;;;;;;;;;;;;;;;;;;;;;;;;;;;;;;;;;;;;;;;;;;;;;;;;;;;;;;;;;;;;;;;;;;;;;;;;;;;;;;;;;;;;;;;1,000000;0,750000;0,000000;0,000000;0,000000;0,000000;0,000000;0,291667;0,250000;0,000000;0,000000;0,000000;
125;;;;;;;;;;;;;;;;;;;;;;;;;;;;;;;;;;;;;;;;;;;;;;;;;;;;;;;;;;;;;;;;;;;;;;;;;;;;;;;;;;;;;;;;;;;;;;;;;;;;;;;;;;;;;;;;;;;;;;;;;;;;;1,000000;0,000000;0,000000;0,000000;0,000000;0,000000;0,291667;0,250000;0,000000;0,000000;0,000000;
126;;;;;;;;;;;;;;;;;;;;;;;;;;;;;;;;;;;;;;;;;;;;;;;;;;;;;;;;;;;;;;;;;;;;;;;;;;;;;;;;;;;;;;;;;;;;;;;;;;;;;;;;;;;;;;;;;;;;;;;;;;;;;;1,000000;0,800000;0,800000;0,800000;0,800000;0,000000;0,000000;0,000000;0,000000;0,000000;
127;;;;;;;;;;;;;;;;;;;;;;;;;;;;;;;;;;;;;;;;;;;;;;;;;;;;;;;;;;;;;;;;;;;;;;;;;;;;;;;;;;;;;;;;;;;;;;;;;;;;;;;;;;;;;;;;;;;;;;;;;;;;;;;1,000000;0,800000;0,800000;0,800000;0,000000;0,000000;0,000000;0,000000;0,000000;
128;;;;;;;;;;;;;;;;;;;;;;;;;;;;;;;;;;;;;;;;;;;;;;;;;;;;;;;;;;;;;;;;;;;;;;;;;;;;;;;;;;;;;;;;;;;;;;;;;;;;;;;;;;;;;;;;;;;;;;;;;;;;;;;;1,000000;0,800000;0,800000;0,000000;0,000000;0,000000;0,000000;0,000000;
129;;;;;;;;;;;;;;;;;;;;;;;;;;;;;;;;;;;;;;;;;;;;;;;;;;;;;;;;;;;;;;;;;;;;;;;;;;;;;;;;;;;;;;;;;;;;;;;;;;;;;;;;;;;;;;;;;;;;;;;;;;;;;;;;;1,000000;0,800000;0,000000;0,000000;0,000000;0,000000;0,000000;
130;;;;;;;;;;;;;;;;;;;;;;;;;;;;;;;;;;;;;;;;;;;;;;;;;;;;;;;;;;;;;;;;;;;;;;;;;;;;;;;;;;;;;;;;;;;;;;;;;;;;;;;;;;;;;;;;;;;;;;;;;;;;;;;;;;1,000000;0,000000;0,000000;0,000000;0,000000;0,000000;
131;;;;;;;;;;;;;;;;;;;;;;;;;;;;;;;;;;;;;;;;;;;;;;;;;;;;;;;;;;;;;;;;;;;;;;;;;;;;;;;;;;;;;;;;;;;;;;;;;;;;;;;;;;;;;;;;;;;;;;;;;;;;;;;;;;;1,000000;0,000000;0,000000;0,000000;0,000000;
132;;;;;;;;;;;;;;;;;;;;;;;;;;;;;;;;;;;;;;;;;;;;;;;;;;;;;;;;;;;;;;;;;;;;;;;;;;;;;;;;;;;;;;;;;;;;;;;;;;;;;;;;;;;;;;;;;;;;;;;;;;;;;;;;;;;;1,000000;0,750000;0,000000;0,000000;
133;;;;;;;;;;;;;;;;;;;;;;;;;;;;;;;;;;;;;;;;;;;;;;;;;;;;;;;;;;;;;;;;;;;;;;;;;;;;;;;;;;;;;;;;;;;;;;;;;;;;;;;;;;;;;;;;;;;;;;;;;;;;;;;;;;;;;1,000000;0,000000;0,000000;
134;;;;;;;;;;;;;;;;;;;;;;;;;;;;;;;;;;;;;;;;;;;;;;;;;;;;;;;;;;;;;;;;;;;;;;;;;;;;;;;;;;;;;;;;;;;;;;;;;;;;;;;;;;;;;;;;;;;;;;;;;;;;;;;;;;;;;;1,000000;0,000000;
135;;;;;;;;;;;;;;;;;;;;;;;;;;;;;;;;;;;;;;;;;;;;;;;;;;;;;;;;;;;;;;;;;;;;;;;;;;;;;;;;;;;;;;;;;;;;;;;;;;;;;;;;;;;;;;;;;;;;;;;;;;;;;;;;;;;;;;;1,000000;
