;1; 2; 3; 4; 5; 6; 7; 8; 9; 10; 11; 12; 13; 14; 15; 16; 17; 18; 19; 20; 21; 22; 23; 24; 25; 26; 27; 28; 29; 30; 31; 32; 33; 34; 35; 36; 37; 38; 39; 40; 41; 42; 43; 44; 45; 46; 47; 48; 49; 50; 51; 52; 53; 54; 55; 56; 57; 58; 59; 60; 61; 62; 63; 64; 65; 66; 67; 68; 69; 70; 71; 72; 73; 74; 75; 76; 77; 78; 79; 80; 81; 82; 83; 84; 85; 86; 87; 88; 89; 90
1;1,000000;0,695389;0,621451;0,748733;0,748733;0,642692;0,522803;0,644901;0,535092;0,572323;0,572323;0,572323;0,400636;0,366009;0,317675;0,317675;0,703774;0,317675;0,328322;0,317675;0,344504;0,309771;0,360316;0,317675;0,317675;0,317675;0,612328;0,399187;0,339543;0,344201;0,344201;0,000000;0,000000;0,000000;0,316749;0,225258;0,328757;0,225258;0,225258;0,225258;0,458935;0,482401;0,356701;0,482401;0,630899;0,700895;0,000000;0,604074;0,250000;0,250000;0,250000;0,250000;0,000000;0,000000;0,000000;0,389057;0,792268;0,469201;0,482401;0,630899;0,339543;0,339543;0,339543;0,482401;0,344201;0,000000;0,000000;0,482401;0,321429;0,000000;0,482401;0,000000;0,268115;0,268115;0,000000;0,000000;0,000000;0,000000;0,000000;0,482401;0,000000;0,000000;0,000000;0,000000;0,913453;0,482401;0,482401;0,339543;0,339543;0,000000;
2;;1,000000;0,687763;0,737193;0,737193;0,596375;0,629910;0,560467;0,517788;0,365017;0,365017;0,365017;0,353672;0,340764;0,306667;0,306667;0,691235;0,306667;0,297251;0,306667;0,378741;0,282999;0,322219;0,306667;0,306667;0,306667;0,577019;0,328261;0,327213;0,323133;0,323133;0,000000;0,000000;0,000000;0,291259;0,220547;0,309405;0,220547;0,220547;0,220547;0,415457;0,460547;0,334244;0,460547;0,611791;0,682647;0,333333;0,585569;0,250000;0,250000;0,250000;0,250000;0,000000;0,000000;0,000000;0,366861;0,701171;0,434244;0,460547;0,617826;0,327213;0,327213;0,327213;0,460547;0,323133;0,000000;0,000000;0,460547;0,316667;0,000000;0,878458;0,000000;0,260547;0,260547;0,000000;0,000000;0,000000;0,000000;0,000000;0,460547;0,000000;0,000000;0,000000;0,000000;0,879811;0,460547;0,460547;0,327213;0,327213;0,000000;
3;;;1,000000;0,772439;0,772439;0,605455;0,419960;0,651071;0,504559;0,365484;0,365484;0,365484;0,358387;0,345620;0,300000;0,300000;0,873841;0,300000;0,476896;0,300000;0,362969;0,309082;0,442466;0,300000;0,300000;0,300000;0,666667;0,617543;0,375000;0,400000;0,355015;0,000000;0,000000;0,000000;0,310312;0,275000;0,387645;0,275000;0,275000;0,275000;0,500000;0,500000;0,410000;0,500000;0,892587;0,664075;0,333333;0,400805;0,270833;0,270833;0,270833;0,297619;0,000000;0,000000;0,000000;0,368136;0,693769;0,500000;0,500000;0,567916;0,375000;0,375000;0,375000;0,500000;0,400000;0,270833;0,270833;0,500000;0,666667;0,000000;0,859932;0,000000;0,312500;0,312500;0,000000;0,000000;0,000000;0,000000;0,000000;0,500000;0,000000;0,000000;0,000000;0,000000;0,847905;0,500000;0,500000;0,375000;0,375000;0,000000;
4;;;;1,000000;0,800000;0,781014;0,599315;0,758101;0,382962;0,200000;0,200000;0,200000;0,261111;0,233333;0,266667;0,266667;0,450000;0,266667;0,244444;0,266667;0,000000;0,233333;0,000000;0,266667;0,266667;0,266667;0,266667;0,219048;0,000000;0,000000;0,000000;0,000000;0,000000;0,000000;0,242857;0,000000;0,000000;0,000000;0,000000;0,000000;0,000000;0,000000;0,000000;0,000000;0,533333;0,450000;0,000000;0,244444;0,000000;0,000000;0,000000;0,000000;0,000000;0,000000;0,000000;0,300000;0,000000;0,000000;0,000000;0,266667;0,000000;0,000000;0,000000;0,000000;0,000000;0,000000;0,000000;0,000000;0,000000;0,000000;0,350000;0,000000;0,000000;0,000000;0,000000;0,000000;0,000000;0,000000;0,000000;0,000000;0,000000;0,000000;0,000000;0,000000;0,000000;0,000000;0,000000;0,000000;0,000000;0,000000;
5;;;;;1,000000;0,781014;0,599315;0,758101;0,382962;0,200000;0,200000;0,200000;0,261111;0,233333;0,266667;0,266667;0,450000;0,266667;0,244444;0,266667;0,000000;0,233333;0,000000;0,266667;0,266667;0,266667;0,266667;0,219048;0,000000;0,000000;0,000000;0,000000;0,000000;0,000000;0,242857;0,000000;0,000000;0,000000;0,000000;0,000000;0,000000;0,000000;0,000000;0,000000;0,533333;0,450000;0,000000;0,244444;0,000000;0,000000;0,000000;0,000000;0,000000;0,000000;0,000000;0,300000;0,000000;0,000000;0,000000;0,266667;0,000000;0,000000;0,000000;0,000000;0,000000;0,000000;0,000000;0,000000;0,000000;0,000000;0,350000;0,000000;0,000000;0,000000;0,000000;0,000000;0,000000;0,000000;0,000000;0,000000;0,000000;0,000000;0,000000;0,000000;0,000000;0,000000;0,000000;0,000000;0,000000;0,000000;
6;;;;;;1,000000;0,598515;0,621070;0,758330;0,792449;0,792449;0,792449;0,552580;0,666667;0,666667;0,666667;0,722655;0,666667;0,588768;0,666667;0,622927;0,485340;0,582049;0,666667;0,666667;0,666667;0,634130;0,532947;0,000000;0,000000;0,717949;0,000000;0,000000;0,000000;0,468787;0,000000;0,000000;0,000000;0,000000;0,000000;0,000000;0,000000;0,288462;0,000000;0,638750;0,728256;0,000000;0,312821;0,256646;0,256646;0,256646;0,364697;0,000000;0,000000;0,000000;0,458952;0,000000;0,000000;0,000000;0,322222;0,000000;0,000000;0,000000;0,520833;0,717949;0,541667;0,541667;0,486111;0,638714;0,000000;0,476977;0,486111;0,270833;0,270833;0,000000;0,000000;0,000000;0,000000;0,000000;0,000000;0,000000;0,000000;0,000000;0,000000;0,485812;0,000000;0,000000;0,000000;0,000000;0,000000;
7;;;;;;;1,000000;0,503723;0,354022;0,205357;0,205357;0,205357;0,559496;0,500000;0,339286;0,339286;0,742776;0,000000;0,334483;0,000000;0,552009;0,647769;0,646558;0,000000;0,000000;0,000000;0,657405;0,643535;0,660714;0,666667;0,653854;0,000000;0,000000;0,000000;0,609183;0,796950;0,740857;0,796950;0,796950;0,796950;0,500000;0,500000;0,578697;0,494643;0,660578;0,498626;0,654362;0,518659;0,253571;0,253571;0,253571;0,438177;0,000000;0,000000;0,000000;0,594989;0,483333;0,500000;0,500000;0,657882;0,666667;0,666667;0,666667;0,497245;0,582295;0,498219;0,498219;0,500000;0,333929;0,500000;0,495600;0,500000;0,738638;0,738638;0,000000;0,000000;0,000000;0,000000;0,000000;0,500000;0,000000;0,000000;0,000000;0,000000;0,494643;0,500000;0,500000;0,661403;0,661403;0,981675;
8;;;;;;;;1,000000;0,753750;0,789879;0,789879;0,789879;0,431507;0,404656;0,332935;0,332935;0,719372;0,629407;0,515315;0,629407;0,328783;0,320399;0,347893;0,332935;0,332935;0,332935;0,649286;0,666667;0,335185;0,336667;0,334587;0,000000;0,000000;0,000000;0,320891;0,216667;0,320193;0,216667;0,216667;0,216667;0,444497;0,483333;0,350000;0,483333;0,941594;0,722938;0,333333;0,458551;0,750000;0,750000;0,750000;0,750000;0,000000;0,000000;0,000000;0,400633;0,819891;0,470000;0,483333;0,648148;0,335185;0,335185;0,335185;0,483333;0,336667;0,259259;0,259259;0,483333;0,649793;0,450000;0,931379;0,472222;0,261111;0,261111;0,000000;0,000000;0,000000;0,000000;0,000000;0,483333;0,000000;0,000000;0,000000;0,000000;0,483333;0,483333;0,483333;0,335185;0,335185;0,000000;
9;;;;;;;;;1,000000;0,758099;0,758099;0,758099;0,328982;0,267569;0,296798;0,296798;0,448686;0,296798;0,390394;0,296798;0,000000;0,278982;0,000000;0,296798;0,296798;0,296798;0,296798;0,251129;0,000000;0,000000;0,000000;0,000000;0,000000;0,000000;0,292795;0,000000;0,000000;0,000000;0,000000;0,000000;0,000000;0,000000;0,000000;0,000000;0,305556;0,690022;0,000000;0,000000;0,241242;0,241242;0,241242;0,232485;0,000000;0,000000;0,000000;0,361863;0,000000;0,000000;0,000000;0,000000;0,000000;0,000000;0,000000;0,000000;0,000000;0,000000;0,000000;0,000000;0,296798;0,000000;0,416667;0,000000;0,000000;0,000000;0,000000;0,000000;0,000000;0,000000;0,000000;0,000000;0,000000;0,000000;0,000000;0,000000;0,407909;0,000000;0,000000;0,000000;0,000000;0,000000;
10;;;;;;;;;;1,000000;0,800000;0,800000;0,261111;0,233333;0,266667;0,266667;0,225000;0,266667;0,377778;0,266667;0,000000;0,233333;0,000000;0,266667;0,266667;0,266667;0,266667;0,219048;0,000000;0,000000;0,000000;0,000000;0,000000;0,000000;0,242857;0,000000;0,000000;0,000000;0,000000;0,000000;0,000000;0,000000;0,000000;0,000000;0,000000;0,675000;0,000000;0,000000;0,225000;0,225000;0,225000;0,210000;0,000000;0,000000;0,000000;0,300000;0,000000;0,000000;0,000000;0,000000;0,000000;0,000000;0,000000;0,000000;0,000000;0,000000;0,000000;0,000000;0,266667;0,000000;0,000000;0,000000;0,000000;0,000000;0,000000;0,000000;0,000000;0,000000;0,000000;0,000000;0,000000;0,000000;0,000000;0,000000;0,350000;0,000000;0,000000;0,000000;0,000000;0,000000;
11;;;;;;;;;;;1,000000;0,800000;0,261111;0,233333;0,266667;0,266667;0,225000;0,266667;0,377778;0,266667;0,000000;0,233333;0,000000;0,266667;0,266667;0,266667;0,266667;0,219048;0,000000;0,000000;0,000000;0,000000;0,000000;0,000000;0,242857;0,000000;0,000000;0,000000;0,000000;0,000000;0,000000;0,000000;0,000000;0,000000;0,000000;0,675000;0,000000;0,000000;0,225000;0,225000;0,225000;0,210000;0,000000;0,000000;0,000000;0,300000;0,000000;0,000000;0,000000;0,000000;0,000000;0,000000;0,000000;0,000000;0,000000;0,000000;0,000000;0,000000;0,266667;0,000000;0,000000;0,000000;0,000000;0,000000;0,000000;0,000000;0,000000;0,000000;0,000000;0,000000;0,000000;0,000000;0,000000;0,000000;0,350000;0,000000;0,000000;0,000000;0,000000;0,000000;
12;;;;;;;;;;;;1,000000;0,261111;0,233333;0,266667;0,266667;0,225000;0,266667;0,377778;0,266667;0,000000;0,233333;0,000000;0,266667;0,266667;0,266667;0,266667;0,219048;0,000000;0,000000;0,000000;0,000000;0,000000;0,000000;0,242857;0,000000;0,000000;0,000000;0,000000;0,000000;0,000000;0,000000;0,000000;0,000000;0,000000;0,675000;0,000000;0,000000;0,225000;0,225000;0,225000;0,210000;0,000000;0,000000;0,000000;0,300000;0,000000;0,000000;0,000000;0,000000;0,000000;0,000000;0,000000;0,000000;0,000000;0,000000;0,000000;0,000000;0,266667;0,000000;0,000000;0,000000;0,000000;0,000000;0,000000;0,000000;0,000000;0,000000;0,000000;0,000000;0,000000;0,000000;0,000000;0,000000;0,350000;0,000000;0,000000;0,000000;0,000000;0,000000;
13;;;;;;;;;;;;;1,000000;0,431382;0,379630;0,379630;0,269207;0,379630;0,416667;0,379630;0,866708;0,634059;0,636852;0,379630;0,379630;0,379630;0,000000;0,615509;0,343281;0,351239;0,546429;0,000000;0,000000;0,000000;0,644097;0,224762;0,334765;0,224762;0,224762;0,224762;0,478962;0,491429;0,500915;0,491429;0,343281;0,305556;0,000000;0,351239;0,000000;0,000000;0,000000;0,000000;0,000000;0,000000;0,000000;0,588653;0,555696;0,484572;0,491429;0,343281;0,343281;0,343281;0,343281;0,491429;0,634247;0,518519;0,518519;0,491429;0,000000;0,000000;0,491429;0,000000;0,500508;0,500508;0,000000;0,000000;0,000000;0,000000;0,000000;0,491429;0,000000;0,000000;0,000000;0,000000;0,491429;0,491429;0,491429;0,343281;0,343281;0,481481;
14;;;;;;;;;;;;;;1,000000;0,666667;0,666667;0,312500;0,333333;0,333333;0,333333;0,431595;0,373559;0,442466;0,333333;0,333333;0,333333;0,000000;0,000000;0,375000;0,400000;0,400000;0,000000;0,000000;0,000000;0,372895;0,275000;0,387645;0,275000;0,275000;0,275000;0,500000;0,500000;0,410000;0,500000;0,375000;0,270833;0,000000;0,400000;0,312500;0,312500;0,312500;0,500000;0,000000;0,000000;0,000000;0,408283;0,750000;0,500000;0,500000;0,375000;0,375000;0,375000;0,375000;0,500000;0,400000;0,000000;0,000000;0,500000;0,000000;0,500000;0,500000;0,500000;0,312500;0,312500;0,000000;0,000000;0,000000;0,000000;0,000000;0,500000;0,000000;0,000000;0,000000;0,000000;0,500000;0,500000;0,500000;0,375000;0,375000;0,000000;
15;;;;;;;;;;;;;;;1,000000;0,666667;0,000000;0,333333;0,333333;0,333333;0,000000;0,351852;0,000000;0,333333;0,333333;0,333333;0,000000;0,000000;0,000000;0,000000;0,000000;0,000000;0,000000;0,000000;0,357143;0,000000;0,000000;0,000000;0,000000;0,000000;0,000000;0,000000;0,000000;0,000000;0,000000;0,291667;0,000000;0,000000;0,000000;0,000000;0,000000;0,366667;0,000000;0,000000;0,000000;0,388889;0,000000;0,000000;0,000000;0,000000;0,000000;0,000000;0,000000;0,000000;0,000000;0,000000;0,000000;0,416667;0,000000;0,000000;0,000000;0,416667;0,000000;0,000000;0,000000;0,000000;0,000000;0,000000;0,000000;0,000000;0,000000;0,000000;0,000000;0,000000;0,000000;0,000000;0,000000;0,000000;0,000000;0,000000;
16;;;;;;;;;;;;;;;;1,000000;0,000000;0,333333;0,333333;0,333333;0,000000;0,351852;0,000000;0,333333;0,333333;0,333333;0,000000;0,000000;0,000000;0,000000;0,000000;0,000000;0,000000;0,000000;0,357143;0,000000;0,000000;0,000000;0,000000;0,000000;0,000000;0,000000;0,000000;0,000000;0,000000;0,291667;0,000000;0,000000;0,000000;0,000000;0,000000;0,366667;0,000000;0,000000;0,000000;0,388889;0,000000;0,000000;0,000000;0,000000;0,000000;0,000000;0,000000;0,000000;0,000000;0,000000;0,000000;0,416667;0,000000;0,000000;0,000000;0,416667;0,000000;0,000000;0,000000;0,000000;0,000000;0,000000;0,000000;0,000000;0,000000;0,000000;0,000000;0,000000;0,000000;0,000000;0,000000;0,000000;0,000000;0,000000;
17;;;;;;;;;;;;;;;;;1,000000;0,000000;0,277778;0,000000;0,261265;0,253378;0,266096;0,000000;0,000000;0,000000;0,291667;0,261905;0,291667;0,277778;0,277778;0,000000;0,000000;0,000000;0,253585;0,225000;0,270914;0,225000;0,225000;0,225000;0,312500;0,375000;0,283333;0,375000;0,875000;0,500000;0,000000;0,555556;0,250000;0,250000;0,250000;0,250000;0,000000;0,000000;0,000000;0,277778;0,437500;0,333333;0,375000;0,583333;0,291667;0,291667;0,291667;0,375000;0,277778;0,000000;0,000000;0,375000;0,291667;0,000000;0,750000;0,000000;0,250000;0,250000;0,000000;0,000000;0,000000;0,000000;0,000000;0,375000;0,000000;0,000000;0,000000;0,000000;0,750000;0,375000;0,375000;0,291667;0,291667;0,000000;
18;;;;;;;;;;;;;;;;;;1,000000;0,666667;0,666667;0,000000;0,351852;0,000000;0,333333;0,333333;0,333333;0,000000;0,333333;0,000000;0,000000;0,000000;0,000000;0,000000;0,000000;0,357143;0,000000;0,000000;0,000000;0,000000;0,000000;0,000000;0,000000;0,000000;0,000000;0,000000;0,291667;0,000000;0,000000;0,000000;0,000000;0,000000;0,000000;0,000000;0,000000;0,000000;0,388889;0,000000;0,000000;0,000000;0,000000;0,000000;0,000000;0,000000;0,000000;0,000000;0,000000;0,000000;0,000000;0,333333;0,000000;0,000000;0,000000;0,000000;0,000000;0,000000;0,000000;0,000000;0,000000;0,000000;0,000000;0,000000;0,000000;0,000000;0,000000;0,000000;0,000000;0,000000;0,000000;0,000000;0,000000;
19;;;;;;;;;;;;;;;;;;;1,000000;0,666667;0,333333;0,333833;0,000000;0,333333;0,333333;0,333333;0,666667;0,629824;0,000000;0,000000;0,333333;0,000000;0,000000;0,000000;0,333958;0,000000;0,000000;0,000000;0,000000;0,000000;0,000000;0,000000;0,000000;0,000000;0,000000;0,444444;0,333333;0,333333;0,277778;0,277778;0,277778;0,305556;0,000000;0,000000;0,000000;0,416667;0,600000;0,000000;0,000000;0,000000;0,000000;0,000000;0,000000;0,000000;0,000000;0,277778;0,277778;0,000000;0,666667;0,000000;0,000000;0,000000;0,000000;0,000000;0,000000;0,000000;0,000000;0,000000;0,000000;0,000000;0,000000;0,000000;0,000000;0,000000;0,444444;0,000000;0,000000;0,000000;0,000000;0,000000;
20;;;;;;;;;;;;;;;;;;;;1,000000;0,000000;0,351852;0,000000;0,333333;0,333333;0,333333;0,000000;0,333333;0,000000;0,000000;0,000000;0,000000;0,000000;0,000000;0,357143;0,000000;0,000000;0,000000;0,000000;0,000000;0,000000;0,000000;0,000000;0,000000;0,000000;0,291667;0,000000;0,000000;0,000000;0,000000;0,000000;0,000000;0,000000;0,000000;0,000000;0,388889;0,000000;0,000000;0,000000;0,000000;0,000000;0,000000;0,000000;0,000000;0,000000;0,000000;0,000000;0,000000;0,333333;0,000000;0,000000;0,000000;0,000000;0,000000;0,000000;0,000000;0,000000;0,000000;0,000000;0,000000;0,000000;0,000000;0,000000;0,000000;0,000000;0,000000;0,000000;0,000000;0,000000;0,000000;
21;;;;;;;;;;;;;;;;;;;;;1,000000;0,599146;0,675519;0,000000;0,000000;0,000000;0,333333;0,579721;0,330709;0,328835;0,697746;0,000000;0,000000;0,000000;0,651349;0,405313;0,314126;0,405313;0,405313;0,405313;0,431595;0,469598;0,511873;0,469598;0,330709;0,000000;0,666667;0,522137;0,000000;0,000000;0,000000;0,000000;0,000000;0,000000;0,000000;0,328835;0,745758;0,447882;0,469598;0,609570;0,330709;0,330709;0,330709;0,469598;0,328835;0,695429;0,695429;0,469598;0,333333;0,000000;0,469598;0,000000;0,506926;0,506926;0,000000;0,000000;0,000000;0,000000;0,000000;0,469598;0,000000;0,000000;0,000000;0,000000;0,469598;0,469598;0,469598;0,330709;0,330709;0,000000;
22;;;;;;;;;;;;;;;;;;;;;;1,000000;0,706924;0,351852;0,351852;0,351852;0,328360;0,579186;0,625773;0,470993;0,530994;0,000000;0,000000;0,000000;0,692994;0,208934;0,513106;0,208934;0,208934;0,208934;0,440110;0,475600;0,616008;0,926623;0,327452;0,277778;0,623722;0,512091;0,000000;0,000000;0,000000;0,000000;0,000000;0,000000;0,000000;0,736381;0,804610;0,456081;0,475600;0,327452;0,327452;0,327452;0,327452;0,927589;0,602993;0,717964;0,717964;0,475600;0,328360;0,000000;0,475600;0,000000;0,712236;0,712236;0,000000;0,000000;0,000000;0,000000;0,000000;0,475600;0,000000;0,000000;0,000000;0,000000;0,475600;0,475600;0,475600;0,327452;0,327452;0,000000;
23;;;;;;;;;;;;;;;;;;;;;;;1,000000;0,000000;0,000000;0,000000;0,000000;0,619426;0,335541;0,337117;0,570577;0,000000;0,000000;0,000000;0,741558;0,224429;0,529817;0,224429;0,224429;0,224429;0,442466;0,474429;0,510131;0,474429;0,335541;0,000000;0,323626;0,391159;0,000000;0,000000;0,000000;0,000000;0,000000;0,000000;0,000000;0,566602;0,754966;0,456165;0,474429;0,335541;0,335541;0,335541;0,335541;0,920659;0,625891;0,491922;0,491922;0,474429;0,000000;0,000000;0,474429;0,000000;0,505910;0,505910;0,000000;0,000000;0,000000;0,000000;0,000000;0,474429;0,000000;0,000000;0,000000;0,000000;0,474429;0,474429;0,474429;0,335541;0,335541;0,000000;
24;;;;;;;;;;;;;;;;;;;;;;;;1,000000;0,666667;0,666667;0,000000;0,000000;0,000000;0,000000;0,000000;0,000000;0,000000;0,000000;0,357143;0,000000;0,000000;0,000000;0,000000;0,000000;0,000000;0,000000;0,000000;0,000000;0,000000;0,291667;0,000000;0,000000;0,000000;0,000000;0,000000;0,000000;0,000000;0,000000;0,000000;0,388889;0,000000;0,000000;0,000000;0,000000;0,000000;0,000000;0,000000;0,000000;0,000000;0,000000;0,000000;0,000000;0,000000;0,000000;0,000000;0,000000;0,000000;0,000000;0,000000;0,000000;0,000000;0,000000;0,000000;0,000000;0,000000;0,000000;0,000000;0,000000;0,000000;0,000000;0,000000;0,000000;0,000000;0,000000;
25;;;;;;;;;;;;;;;;;;;;;;;;;1,000000;0,666667;0,000000;0,000000;0,000000;0,000000;0,000000;0,000000;0,000000;0,000000;0,357143;0,000000;0,000000;0,000000;0,000000;0,000000;0,000000;0,000000;0,000000;0,000000;0,000000;0,291667;0,000000;0,000000;0,000000;0,000000;0,000000;0,000000;0,000000;0,000000;0,000000;0,388889;0,000000;0,000000;0,000000;0,000000;0,000000;0,000000;0,000000;0,000000;0,000000;0,000000;0,000000;0,000000;0,000000;0,000000;0,000000;0,000000;0,000000;0,000000;0,000000;0,000000;0,000000;0,000000;0,000000;0,000000;0,000000;0,000000;0,000000;0,000000;0,000000;0,000000;0,000000;0,000000;0,000000;0,000000;
26;;;;;;;;;;;;;;;;;;;;;;;;;;1,000000;0,000000;0,000000;0,000000;0,000000;0,000000;0,000000;0,000000;0,000000;0,357143;0,000000;0,000000;0,000000;0,000000;0,000000;0,000000;0,000000;0,000000;0,000000;0,000000;0,291667;0,000000;0,000000;0,000000;0,000000;0,000000;0,000000;0,000000;0,000000;0,000000;0,388889;0,000000;0,000000;0,000000;0,000000;0,000000;0,000000;0,000000;0,000000;0,000000;0,000000;0,000000;0,000000;0,000000;0,000000;0,000000;0,000000;0,000000;0,000000;0,000000;0,000000;0,000000;0,000000;0,000000;0,000000;0,000000;0,000000;0,000000;0,000000;0,000000;0,000000;0,000000;0,000000;0,000000;0,000000;
27;;;;;;;;;;;;;;;;;;;;;;;;;;;1,000000;0,644583;0,000000;0,000000;0,333333;0,000000;0,000000;0,000000;0,326939;0,000000;0,000000;0,000000;0,000000;0,000000;0,000000;0,000000;0,000000;0,000000;0,000000;0,291667;0,333333;0,333333;0,291667;0,291667;0,291667;0,316667;0,000000;0,000000;0,000000;0,000000;0,500000;0,000000;0,000000;0,000000;0,000000;0,000000;0,000000;0,000000;0,000000;0,291667;0,291667;0,000000;0,666667;0,000000;0,000000;0,000000;0,000000;0,000000;0,000000;0,000000;0,000000;0,000000;0,000000;0,000000;0,000000;0,000000;0,000000;0,000000;0,416667;0,000000;0,000000;0,000000;0,000000;0,000000;
28;;;;;;;;;;;;;;;;;;;;;;;;;;;;1,000000;0,333333;0,333333;0,644285;0,000000;0,000000;0,000000;0,583541;0,000000;0,458333;0,000000;0,000000;0,000000;0,000000;0,000000;0,259643;0,000000;0,000000;0,261905;0,666667;0,666667;0,261905;0,261905;0,261905;0,283333;0,000000;0,000000;0,000000;0,000000;0,000000;0,000000;0,000000;0,333333;0,000000;0,000000;0,000000;0,000000;0,625000;0,744891;0,744891;0,000000;0,645062;0,000000;0,000000;0,000000;0,255510;0,255510;0,000000;0,000000;0,000000;0,000000;0,000000;0,000000;0,000000;0,000000;0,000000;0,000000;0,476190;0,000000;0,000000;0,000000;0,000000;0,571429;
29;;;;;;;;;;;;;;;;;;;;;;;;;;;;;1,000000;0,615806;0,666667;0,000000;0,000000;0,000000;0,614590;0,266667;0,326469;0,266667;0,266667;0,266667;0,375000;0,416667;0,338889;0,416667;0,333333;0,000000;0,000000;0,333333;0,000000;0,000000;0,000000;0,000000;0,000000;0,000000;0,000000;0,333333;0,500000;0,388889;0,416667;0,333333;0,333333;0,333333;0,333333;0,416667;0,333333;0,000000;0,000000;0,416667;0,000000;0,000000;0,416667;0,000000;0,291667;0,291667;0,000000;0,000000;0,000000;0,000000;0,000000;0,416667;0,000000;0,000000;0,000000;0,000000;0,416667;0,416667;0,416667;0,666667;0,666667;0,000000;
30;;;;;;;;;;;;;;;;;;;;;;;;;;;;;;1,000000;0,590809;0,000000;0,000000;0,000000;0,461096;0,244444;0,323037;0,244444;0,244444;0,244444;0,400000;0,444444;0,341667;0,444444;0,333333;0,000000;0,000000;0,333333;0,000000;0,000000;0,000000;0,000000;0,000000;0,000000;0,000000;0,333333;0,600000;0,416667;0,444444;0,333333;0,333333;0,333333;0,333333;0,444444;0,333333;0,000000;0,000000;0,444444;0,000000;0,000000;0,444444;0,000000;0,277778;0,277778;0,000000;0,000000;0,000000;0,000000;0,000000;0,444444;0,000000;0,000000;0,000000;0,000000;0,444444;0,444444;0,444444;0,616095;0,616095;0,000000;
31;;;;;;;;;;;;;;;;;;;;;;;;;;;;;;;1,000000;0,000000;0,000000;0,000000;0,538997;0,244444;0,323037;0,244444;0,244444;0,244444;0,400000;0,444444;0,416667;0,444444;0,333333;0,000000;0,333333;0,333333;0,000000;0,000000;0,000000;0,000000;0,000000;0,000000;0,000000;0,333333;0,600000;0,416667;0,444444;0,333333;0,333333;0,333333;0,333333;0,444444;0,333333;0,833333;0,833333;0,444444;0,333333;0,000000;0,444444;0,000000;0,444444;0,444444;0,000000;0,000000;0,000000;0,000000;0,000000;0,444444;0,000000;0,000000;0,000000;0,000000;0,444444;0,444444;0,444444;0,666667;0,666667;0,000000;
32;;;;;;;;;;;;;;;;;;;;;;;;;;;;;;;;1,000000;0,500000;0,500000;0,000000;0,000000;0,000000;0,000000;0,000000;0,000000;0,000000;0,000000;0,000000;0,000000;0,000000;0,000000;0,000000;0,000000;0,000000;0,000000;0,000000;0,000000;0,000000;0,000000;0,000000;0,000000;0,000000;0,000000;0,000000;0,000000;0,000000;0,000000;0,000000;0,000000;0,000000;0,000000;0,000000;0,000000;0,000000;0,000000;0,000000;0,000000;0,000000;0,000000;0,000000;0,000000;0,000000;0,000000;0,000000;0,000000;0,000000;0,000000;0,000000;0,000000;0,000000;0,000000;0,000000;0,000000;0,000000;0,000000;
33;;;;;;;;;;;;;;;;;;;;;;;;;;;;;;;;;1,000000;0,500000;0,000000;0,000000;0,000000;0,000000;0,000000;0,000000;0,000000;0,000000;0,000000;0,000000;0,000000;0,000000;0,000000;0,000000;0,000000;0,000000;0,000000;0,000000;0,000000;0,000000;0,000000;0,000000;0,000000;0,000000;0,000000;0,000000;0,000000;0,000000;0,000000;0,000000;0,000000;0,000000;0,000000;0,000000;0,000000;0,000000;0,000000;0,000000;0,000000;0,000000;0,000000;0,000000;0,000000;0,000000;0,000000;0,000000;0,000000;0,000000;0,000000;0,000000;0,000000;0,000000;0,000000;0,000000;0,000000;0,000000;
34;;;;;;;;;;;;;;;;;;;;;;;;;;;;;;;;;;1,000000;0,000000;0,000000;0,000000;0,000000;0,000000;0,000000;0,000000;0,000000;0,000000;0,000000;0,000000;0,000000;0,000000;0,000000;0,000000;0,000000;0,000000;0,000000;0,000000;0,000000;0,000000;0,000000;0,000000;0,000000;0,000000;0,000000;0,000000;0,000000;0,000000;0,000000;0,000000;0,000000;0,000000;0,000000;0,000000;0,000000;0,000000;0,000000;0,000000;0,000000;0,000000;0,000000;0,000000;0,000000;0,000000;0,000000;0,000000;0,000000;0,000000;0,000000;0,000000;0,000000;0,000000;0,000000;0,000000;0,000000;
35;;;;;;;;;;;;;;;;;;;;;;;;;;;;;;;;;;;1,000000;0,210727;0,509242;0,210727;0,210727;0,210727;0,425031;0,467870;0,485209;0,467870;0,325013;0,285714;0,609695;0,499628;0,000000;0,000000;0,000000;0,000000;0,000000;0,000000;0,000000;0,723613;0,760659;0,443773;0,467870;0,325013;0,325013;0,325013;0,325013;0,912254;0,596444;0,709428;0,709428;0,467870;0,326939;0,000000;0,467870;0,000000;0,491548;0,491548;0,000000;0,000000;0,000000;0,000000;0,000000;0,467870;0,000000;0,000000;0,000000;0,000000;0,467870;0,467870;0,467870;0,325013;0,325013;0,000000;
36;;;;;;;;;;;;;;;;;;;;;;;;;;;;;;;;;;;;1,000000;0,770986;0,800000;0,800000;0,800000;0,275000;0,350000;0,250000;0,350000;0,266667;0,000000;0,000000;0,244444;0,000000;0,000000;0,000000;0,000000;0,000000;0,000000;0,000000;0,244444;0,400000;0,300000;0,350000;0,266667;0,266667;0,266667;0,266667;0,350000;0,244444;0,000000;0,000000;0,350000;0,000000;0,000000;0,350000;0,000000;0,225000;0,225000;0,000000;0,000000;0,000000;0,000000;0,000000;0,350000;0,000000;0,000000;0,000000;0,000000;0,350000;0,350000;0,350000;0,266667;0,266667;0,000000;
37;;;;;;;;;;;;;;;;;;;;;;;;;;;;;;;;;;;;;1,000000;0,770986;0,770986;0,770986;0,387645;0,437580;0,331371;0,437580;0,326469;0,000000;0,388889;0,430394;0,000000;0,000000;0,000000;0,000000;0,000000;0,000000;0,000000;0,323037;0,587645;0,406371;0,437580;0,326469;0,326469;0,326469;0,326469;0,437580;0,323037;0,000000;0,000000;0,437580;0,000000;0,000000;0,437580;0,000000;0,270914;0,270914;0,000000;0,000000;0,000000;0,000000;0,000000;0,437580;0,000000;0,000000;0,000000;0,000000;0,437580;0,437580;0,437580;0,326469;0,326469;0,000000;
38;;;;;;;;;;;;;;;;;;;;;;;;;;;;;;;;;;;;;;1,000000;0,800000;0,800000;0,275000;0,350000;0,250000;0,350000;0,266667;0,000000;0,000000;0,244444;0,000000;0,000000;0,000000;0,000000;0,000000;0,000000;0,000000;0,244444;0,400000;0,300000;0,350000;0,266667;0,266667;0,266667;0,266667;0,350000;0,244444;0,000000;0,000000;0,350000;0,000000;0,000000;0,350000;0,000000;0,225000;0,225000;0,000000;0,000000;0,000000;0,000000;0,000000;0,350000;0,000000;0,000000;0,000000;0,000000;0,350000;0,350000;0,350000;0,266667;0,266667;0,000000;
39;;;;;;;;;;;;;;;;;;;;;;;;;;;;;;;;;;;;;;;1,000000;0,800000;0,275000;0,350000;0,250000;0,350000;0,266667;0,000000;0,000000;0,244444;0,000000;0,000000;0,000000;0,000000;0,000000;0,000000;0,000000;0,244444;0,400000;0,300000;0,350000;0,266667;0,266667;0,266667;0,266667;0,350000;0,244444;0,000000;0,000000;0,350000;0,000000;0,000000;0,350000;0,000000;0,225000;0,225000;0,000000;0,000000;0,000000;0,000000;0,000000;0,350000;0,000000;0,000000;0,000000;0,000000;0,350000;0,350000;0,350000;0,266667;0,266667;0,000000;
40;;;;;;;;;;;;;;;;;;;;;;;;;;;;;;;;;;;;;;;;1,000000;0,275000;0,350000;0,250000;0,350000;0,266667;0,000000;0,000000;0,244444;0,000000;0,000000;0,000000;0,000000;0,000000;0,000000;0,000000;0,244444;0,400000;0,300000;0,350000;0,266667;0,266667;0,266667;0,266667;0,350000;0,244444;0,000000;0,000000;0,350000;0,000000;0,000000;0,350000;0,000000;0,225000;0,225000;0,000000;0,000000;0,000000;0,000000;0,000000;0,350000;0,000000;0,000000;0,000000;0,000000;0,350000;0,350000;0,350000;0,266667;0,266667;0,000000;
41;;;;;;;;;;;;;;;;;;;;;;;;;;;;;;;;;;;;;;;;;1,000000;0,500000;0,410000;0,500000;0,375000;0,000000;0,000000;0,400000;0,312500;0,312500;0,312500;0,500000;0,000000;0,000000;0,000000;0,400000;0,750000;0,500000;0,500000;0,375000;0,375000;0,375000;0,375000;0,500000;0,400000;0,000000;0,000000;0,500000;0,000000;0,500000;0,500000;0,500000;0,312500;0,312500;0,000000;0,000000;0,000000;0,000000;0,000000;0,500000;0,000000;0,000000;0,000000;0,000000;0,500000;0,500000;0,500000;0,375000;0,375000;0,000000;
42;;;;;;;;;;;;;;;;;;;;;;;;;;;;;;;;;;;;;;;;;;1,000000;0,450000;0,500000;0,416667;0,000000;0,000000;0,444444;0,000000;0,000000;0,000000;0,500000;0,000000;0,000000;0,000000;0,444444;0,625000;0,500000;0,500000;0,416667;0,416667;0,416667;0,416667;0,500000;0,444444;0,000000;0,000000;0,500000;0,000000;0,500000;0,500000;0,000000;0,375000;0,375000;0,000000;0,000000;0,000000;0,000000;0,000000;0,500000;0,000000;0,000000;0,000000;0,000000;0,500000;0,500000;0,500000;0,416667;0,416667;0,000000;
43;;;;;;;;;;;;;;;;;;;;;;;;;;;;;;;;;;;;;;;;;;;1,000000;0,450000;0,338889;0,000000;0,000000;0,341667;0,000000;0,000000;0,000000;0,000000;0,000000;0,000000;0,000000;0,341667;0,610000;0,425000;0,450000;0,338889;0,338889;0,338889;0,338889;0,450000;0,341667;0,250000;0,250000;0,450000;0,000000;0,000000;0,450000;0,000000;0,721092;0,721092;0,000000;0,000000;0,000000;0,000000;0,000000;0,450000;0,000000;0,000000;0,000000;0,000000;0,450000;0,450000;0,450000;0,338889;0,338889;0,000000;
44;;;;;;;;;;;;;;;;;;;;;;;;;;;;;;;;;;;;;;;;;;;;1,000000;0,416667;0,000000;0,000000;0,444444;0,000000;0,000000;0,000000;0,000000;0,000000;0,000000;0,000000;0,444444;0,625000;0,500000;0,500000;0,416667;0,416667;0,416667;0,416667;0,500000;0,444444;0,000000;0,000000;0,500000;0,000000;0,000000;0,500000;0,000000;0,750000;0,750000;0,000000;0,000000;0,000000;0,000000;0,000000;0,500000;0,000000;0,000000;0,000000;0,000000;0,500000;0,500000;0,500000;0,416667;0,416667;0,000000;
45;;;;;;;;;;;;;;;;;;;;;;;;;;;;;;;;;;;;;;;;;;;;;1,000000;0,291667;0,000000;0,666667;0,000000;0,000000;0,000000;0,000000;0,000000;0,000000;0,000000;0,333333;0,500000;0,388889;0,416667;0,666667;0,333333;0,333333;0,333333;0,416667;0,333333;0,000000;0,000000;0,416667;0,000000;0,000000;0,833333;0,000000;0,291667;0,291667;0,000000;0,000000;0,000000;0,000000;0,000000;0,416667;0,000000;0,000000;0,000000;0,000000;0,416667;0,416667;0,416667;0,333333;0,333333;0,000000;
46;;;;;;;;;;;;;;;;;;;;;;;;;;;;;;;;;;;;;;;;;;;;;;1,000000;0,000000;0,000000;0,250000;0,250000;0,250000;0,250000;0,000000;0,000000;0,000000;0,333333;0,000000;0,000000;0,000000;0,000000;0,000000;0,000000;0,000000;0,000000;0,000000;0,000000;0,000000;0,000000;0,291667;0,000000;0,375000;0,000000;0,000000;0,000000;0,000000;0,000000;0,000000;0,000000;0,000000;0,000000;0,000000;0,000000;0,000000;0,000000;0,375000;0,000000;0,000000;0,000000;0,000000;0,000000;
47;;;;;;;;;;;;;;;;;;;;;;;;;;;;;;;;;;;;;;;;;;;;;;;1,000000;0,666667;0,000000;0,000000;0,000000;0,000000;0,000000;0,000000;0,000000;0,000000;0,500000;0,000000;0,000000;0,333333;0,000000;0,000000;0,000000;0,000000;0,000000;0,291667;0,291667;0,000000;0,333333;0,000000;0,000000;0,000000;0,000000;0,000000;0,000000;0,000000;0,000000;0,000000;0,000000;0,000000;0,000000;0,000000;0,000000;0,000000;0,000000;0,000000;0,000000;0,000000;0,000000;0,000000;
48;;;;;;;;;;;;;;;;;;;;;;;;;;;;;;;;;;;;;;;;;;;;;;;;1,000000;0,000000;0,000000;0,000000;0,000000;0,000000;0,000000;0,000000;0,333333;0,600000;0,416667;0,444444;0,666667;0,333333;0,333333;0,333333;0,444444;0,333333;0,277778;0,277778;0,444444;0,333333;0,000000;0,444444;0,000000;0,277778;0,277778;0,000000;0,000000;0,000000;0,000000;0,000000;0,444444;0,000000;0,000000;0,000000;0,000000;0,444444;0,444444;0,444444;0,333333;0,333333;0,000000;
49;;;;;;;;;;;;;;;;;;;;;;;;;;;;;;;;;;;;;;;;;;;;;;;;;1,000000;0,750000;0,750000;0,750000;0,000000;0,000000;0,000000;0,000000;0,000000;0,000000;0,000000;0,000000;0,000000;0,000000;0,000000;0,000000;0,000000;0,000000;0,000000;0,000000;0,291667;0,333333;0,000000;0,375000;0,000000;0,000000;0,000000;0,000000;0,000000;0,000000;0,000000;0,000000;0,000000;0,000000;0,000000;0,000000;0,375000;0,000000;0,000000;0,000000;0,000000;0,000000;
50;;;;;;;;;;;;;;;;;;;;;;;;;;;;;;;;;;;;;;;;;;;;;;;;;;1,000000;0,750000;0,750000;0,000000;0,000000;0,000000;0,000000;0,000000;0,000000;0,000000;0,000000;0,000000;0,000000;0,000000;0,000000;0,000000;0,000000;0,000000;0,000000;0,291667;0,333333;0,000000;0,375000;0,000000;0,000000;0,000000;0,000000;0,000000;0,000000;0,000000;0,000000;0,000000;0,000000;0,000000;0,000000;0,375000;0,000000;0,000000;0,000000;0,000000;0,000000;
51;;;;;;;;;;;;;;;;;;;;;;;;;;;;;;;;;;;;;;;;;;;;;;;;;;;1,000000;0,750000;0,000000;0,000000;0,000000;0,000000;0,000000;0,000000;0,000000;0,000000;0,000000;0,000000;0,000000;0,000000;0,000000;0,000000;0,000000;0,000000;0,291667;0,333333;0,000000;0,375000;0,000000;0,000000;0,000000;0,000000;0,000000;0,000000;0,000000;0,000000;0,000000;0,000000;0,000000;0,000000;0,375000;0,000000;0,000000;0,000000;0,000000;0,000000;
52;;;;;;;;;;;;;;;;;;;;;;;;;;;;;;;;;;;;;;;;;;;;;;;;;;;;1,000000;0,000000;0,000000;0,000000;0,000000;0,000000;0,000000;0,000000;0,000000;0,000000;0,000000;0,000000;0,000000;0,000000;0,000000;0,000000;0,500000;0,316667;0,500000;0,000000;0,500000;0,000000;0,000000;0,000000;0,000000;0,000000;0,000000;0,000000;0,000000;0,000000;0,000000;0,000000;0,000000;0,450000;0,000000;0,000000;0,000000;0,000000;0,000000;
53;;;;;;;;;;;;;;;;;;;;;;;;;;;;;;;;;;;;;;;;;;;;;;;;;;;;;1,000000;0,500000;0,500000;0,000000;0,000000;0,000000;0,000000;0,000000;0,000000;0,000000;0,000000;0,000000;0,000000;0,000000;0,000000;0,000000;0,000000;0,000000;0,000000;0,000000;0,000000;0,000000;0,000000;0,000000;0,000000;0,000000;0,000000;0,000000;0,000000;0,000000;0,000000;0,000000;0,000000;0,000000;0,000000;0,000000;0,000000;0,000000;
54;;;;;;;;;;;;;;;;;;;;;;;;;;;;;;;;;;;;;;;;;;;;;;;;;;;;;;1,000000;0,500000;0,000000;0,000000;0,000000;0,000000;0,000000;0,000000;0,000000;0,000000;0,000000;0,000000;0,000000;0,000000;0,000000;0,000000;0,000000;0,000000;0,000000;0,000000;0,000000;0,000000;0,000000;0,000000;0,000000;0,000000;0,000000;0,000000;0,000000;0,000000;0,000000;0,000000;0,000000;0,000000;0,000000;0,000000;0,000000;
55;;;;;;;;;;;;;;;;;;;;;;;;;;;;;;;;;;;;;;;;;;;;;;;;;;;;;;;1,000000;0,000000;0,000000;0,000000;0,000000;0,000000;0,000000;0,000000;0,000000;0,000000;0,000000;0,000000;0,000000;0,000000;0,000000;0,000000;0,000000;0,000000;0,000000;0,000000;0,000000;0,000000;0,000000;0,000000;0,000000;0,000000;0,000000;0,000000;0,000000;0,000000;0,000000;0,000000;0,000000;0,000000;0,000000;0,000000;
56;;;;;;;;;;;;;;;;;;;;;;;;;;;;;;;;;;;;;;;;;;;;;;;;;;;;;;;;1,000000;0,629608;0,416667;0,444444;0,333333;0,333333;0,333333;0,333333;0,861221;0,625164;0,000000;0,000000;0,444444;0,000000;0,000000;0,444444;0,000000;0,277778;0,277778;0,000000;0,000000;0,000000;0,000000;0,000000;0,444444;0,000000;0,000000;0,000000;0,000000;0,444444;0,444444;0,444444;0,333333;0,333333;0,444444;
57;;;;;;;;;;;;;;;;;;;;;;;;;;;;;;;;;;;;;;;;;;;;;;;;;;;;;;;;;1,000000;0,700000;0,625000;0,500000;0,500000;0,500000;0,500000;0,625000;0,497648;0,437500;0,437500;0,625000;0,500000;0,000000;0,625000;0,000000;0,437500;0,437500;0,000000;0,000000;0,000000;0,000000;0,000000;0,625000;0,000000;0,000000;0,000000;0,000000;0,625000;0,625000;0,625000;0,500000;0,500000;0,500000;
58;;;;;;;;;;;;;;;;;;;;;;;;;;;;;;;;;;;;;;;;;;;;;;;;;;;;;;;;;;1,000000;0,500000;0,388889;0,388889;0,388889;0,388889;0,500000;0,416667;0,000000;0,000000;0,500000;0,000000;0,000000;0,500000;0,000000;0,333333;0,333333;0,000000;0,000000;0,000000;0,000000;0,000000;0,500000;0,000000;0,000000;0,000000;0,000000;0,500000;0,500000;0,500000;0,388889;0,388889;0,000000;
59;;;;;;;;;;;;;;;;;;;;;;;;;;;;;;;;;;;;;;;;;;;;;;;;;;;;;;;;;;;1,000000;0,416667;0,416667;0,416667;0,416667;0,500000;0,444444;0,000000;0,000000;0,500000;0,000000;0,000000;0,500000;0,000000;0,375000;0,375000;0,000000;0,000000;0,000000;0,000000;0,000000;1,000000;0,000000;0,000000;0,000000;0,000000;0,500000;0,500000;0,500000;0,416667;0,416667;0,000000;
60;;;;;;;;;;;;;;;;;;;;;;;;;;;;;;;;;;;;;;;;;;;;;;;;;;;;;;;;;;;;1,000000;0,333333;0,333333;0,333333;0,416667;0,333333;0,000000;0,000000;0,416667;0,000000;0,000000;0,416667;0,000000;0,291667;0,291667;0,000000;0,000000;0,000000;0,000000;0,000000;0,416667;0,000000;0,000000;0,000000;0,000000;0,416667;0,416667;0,416667;0,333333;0,333333;0,000000;
61;;;;;;;;;;;;;;;;;;;;;;;;;;;;;;;;;;;;;;;;;;;;;;;;;;;;;;;;;;;;;1,000000;0,666667;0,666667;0,416667;0,333333;0,000000;0,000000;0,416667;0,000000;0,000000;0,416667;0,000000;0,291667;0,291667;0,000000;0,000000;0,000000;0,000000;0,000000;0,416667;0,000000;0,000000;0,000000;0,000000;0,416667;0,416667;0,416667;0,333333;0,333333;0,000000;
62;;;;;;;;;;;;;;;;;;;;;;;;;;;;;;;;;;;;;;;;;;;;;;;;;;;;;;;;;;;;;;1,000000;0,666667;0,416667;0,333333;0,000000;0,000000;0,416667;0,000000;0,000000;0,416667;0,000000;0,291667;0,291667;0,000000;0,000000;0,000000;0,000000;0,000000;0,416667;0,000000;0,000000;0,000000;0,000000;0,416667;0,416667;0,416667;0,333333;0,333333;0,000000;
63;;;;;;;;;;;;;;;;;;;;;;;;;;;;;;;;;;;;;;;;;;;;;;;;;;;;;;;;;;;;;;;1,000000;0,416667;0,333333;0,000000;0,000000;0,416667;0,000000;0,000000;0,416667;0,000000;0,291667;0,291667;0,000000;0,000000;0,000000;0,000000;0,000000;0,416667;0,000000;0,000000;0,000000;0,000000;0,416667;0,416667;0,416667;0,333333;0,333333;0,000000;
64;;;;;;;;;;;;;;;;;;;;;;;;;;;;;;;;;;;;;;;;;;;;;;;;;;;;;;;;;;;;;;;;1,000000;0,888889;0,000000;0,000000;0,500000;0,000000;0,000000;0,500000;0,000000;0,375000;0,375000;0,000000;0,000000;0,000000;0,000000;0,000000;0,500000;0,000000;0,000000;0,000000;0,000000;0,500000;0,500000;0,500000;0,416667;0,416667;0,000000;
65;;;;;;;;;;;;;;;;;;;;;;;;;;;;;;;;;;;;;;;;;;;;;;;;;;;;;;;;;;;;;;;;;1,000000;0,000000;0,000000;0,444444;0,000000;0,000000;0,444444;0,000000;0,277778;0,277778;0,000000;0,000000;0,000000;0,000000;0,000000;0,444444;0,000000;0,000000;0,000000;0,000000;0,444444;0,444444;0,444444;0,333333;0,333333;0,500000;
66;;;;;;;;;;;;;;;;;;;;;;;;;;;;;;;;;;;;;;;;;;;;;;;;;;;;;;;;;;;;;;;;;;1,000000;0,750000;0,000000;0,291667;0,000000;0,000000;0,000000;0,250000;0,250000;0,000000;0,000000;0,000000;0,000000;0,000000;0,000000;0,000000;0,000000;0,000000;0,000000;0,000000;0,000000;0,000000;0,000000;0,000000;0,000000;
67;;;;;;;;;;;;;;;;;;;;;;;;;;;;;;;;;;;;;;;;;;;;;;;;;;;;;;;;;;;;;;;;;;;1,000000;0,000000;0,291667;0,000000;0,000000;0,000000;0,250000;0,250000;0,000000;0,000000;0,000000;0,000000;0,000000;0,000000;0,000000;0,000000;0,000000;0,000000;0,000000;0,000000;0,000000;0,000000;0,000000;0,000000;
68;;;;;;;;;;;;;;;;;;;;;;;;;;;;;;;;;;;;;;;;;;;;;;;;;;;;;;;;;;;;;;;;;;;;1,000000;0,000000;0,000000;0,500000;0,500000;0,375000;0,375000;0,000000;0,000000;0,000000;0,000000;0,000000;0,500000;0,000000;0,000000;0,000000;0,000000;0,500000;0,500000;0,500000;0,416667;0,416667;0,000000;
69;;;;;;;;;;;;;;;;;;;;;;;;;;;;;;;;;;;;;;;;;;;;;;;;;;;;;;;;;;;;;;;;;;;;;1,000000;0,000000;0,000000;0,000000;0,000000;0,000000;0,000000;0,000000;0,000000;0,000000;0,000000;0,000000;0,000000;0,000000;0,000000;0,000000;0,416667;0,000000;0,000000;0,000000;0,000000;0,000000;
70;;;;;;;;;;;;;;;;;;;;;;;;;;;;;;;;;;;;;;;;;;;;;;;;;;;;;;;;;;;;;;;;;;;;;;1,000000;0,000000;0,500000;0,000000;0,000000;0,000000;0,000000;0,000000;0,000000;0,000000;0,000000;0,000000;0,000000;0,000000;0,000000;0,000000;0,000000;0,000000;0,000000;0,000000;0,000000;
71;;;;;;;;;;;;;;;;;;;;;;;;;;;;;;;;;;;;;;;;;;;;;;;;;;;;;;;;;;;;;;;;;;;;;;;1,000000;0,000000;0,375000;0,375000;0,000000;0,000000;0,000000;0,000000;0,000000;0,500000;0,000000;0,000000;0,000000;0,000000;0,500000;0,500000;0,500000;0,416667;0,416667;0,000000;
72;;;;;;;;;;;;;;;;;;;;;;;;;;;;;;;;;;;;;;;;;;;;;;;;;;;;;;;;;;;;;;;;;;;;;;;;1,000000;0,000000;0,000000;0,000000;0,000000;0,000000;0,000000;0,000000;0,000000;0,000000;0,000000;0,000000;0,000000;0,000000;0,000000;0,000000;0,000000;0,000000;0,000000;
73;;;;;;;;;;;;;;;;;;;;;;;;;;;;;;;;;;;;;;;;;;;;;;;;;;;;;;;;;;;;;;;;;;;;;;;;;1,000000;0,750000;0,000000;0,000000;0,000000;0,000000;0,000000;0,375000;0,000000;0,000000;0,000000;0,000000;0,375000;0,375000;0,375000;0,291667;0,291667;0,000000;
74;;;;;;;;;;;;;;;;;;;;;;;;;;;;;;;;;;;;;;;;;;;;;;;;;;;;;;;;;;;;;;;;;;;;;;;;;;1,000000;0,000000;0,000000;0,000000;0,000000;0,000000;0,375000;0,000000;0,000000;0,000000;0,000000;0,375000;0,375000;0,375000;0,291667;0,291667;0,000000;
75;;;;;;;;;;;;;;;;;;;;;;;;;;;;;;;;;;;;;;;;;;;;;;;;;;;;;;;;;;;;;;;;;;;;;;;;;;;1,000000;0,555556;0,500000;0,000000;0,000000;0,000000;0,000000;0,000000;0,000000;0,000000;0,000000;0,000000;0,000000;0,000000;0,000000;0,000000;
76;;;;;;;;;;;;;;;;;;;;;;;;;;;;;;;;;;;;;;;;;;;;;;;;;;;;;;;;;;;;;;;;;;;;;;;;;;;;1,000000;0,555556;0,000000;0,000000;0,000000;0,000000;0,000000;0,000000;0,000000;0,000000;0,000000;0,000000;0,000000;0,000000;0,000000;
77;;;;;;;;;;;;;;;;;;;;;;;;;;;;;;;;;;;;;;;;;;;;;;;;;;;;;;;;;;;;;;;;;;;;;;;;;;;;;1,000000;0,000000;0,000000;0,000000;0,000000;0,000000;0,000000;0,000000;0,000000;0,000000;0,000000;0,000000;0,000000;0,000000;
78;;;;;;;;;;;;;;;;;;;;;;;;;;;;;;;;;;;;;;;;;;;;;;;;;;;;;;;;;;;;;;;;;;;;;;;;;;;;;;1,000000;0,000000;0,000000;0,000000;0,000000;0,000000;0,000000;0,000000;0,000000;0,000000;0,000000;0,000000;0,000000;
79;;;;;;;;;;;;;;;;;;;;;;;;;;;;;;;;;;;;;;;;;;;;;;;;;;;;;;;;;;;;;;;;;;;;;;;;;;;;;;;1,000000;0,000000;0,000000;0,000000;0,000000;0,000000;0,000000;0,000000;0,000000;0,000000;0,000000;0,000000;
80;;;;;;;;;;;;;;;;;;;;;;;;;;;;;;;;;;;;;;;;;;;;;;;;;;;;;;;;;;;;;;;;;;;;;;;;;;;;;;;;1,000000;0,000000;0,000000;0,000000;0,000000;0,500000;0,500000;0,500000;0,416667;0,416667;0,000000;
81;;;;;;;;;;;;;;;;;;;;;;;;;;;;;;;;;;;;;;;;;;;;;;;;;;;;;;;;;;;;;;;;;;;;;;;;;;;;;;;;;1,000000;0,666667;0,666667;0,666667;0,000000;0,000000;0,000000;0,000000;0,000000;0,000000;
82;;;;;;;;;;;;;;;;;;;;;;;;;;;;;;;;;;;;;;;;;;;;;;;;;;;;;;;;;;;;;;;;;;;;;;;;;;;;;;;;;;1,000000;0,666667;0,666667;0,000000;0,000000;0,000000;0,000000;0,000000;0,000000;
83;;;;;;;;;;;;;;;;;;;;;;;;;;;;;;;;;;;;;;;;;;;;;;;;;;;;;;;;;;;;;;;;;;;;;;;;;;;;;;;;;;;1,000000;0,666667;0,000000;0,000000;0,000000;0,000000;0,000000;0,000000;
84;;;;;;;;;;;;;;;;;;;;;;;;;;;;;;;;;;;;;;;;;;;;;;;;;;;;;;;;;;;;;;;;;;;;;;;;;;;;;;;;;;;;1,000000;0,000000;0,000000;0,000000;0,000000;0,000000;0,000000;
85;;;;;;;;;;;;;;;;;;;;;;;;;;;;;;;;;;;;;;;;;;;;;;;;;;;;;;;;;;;;;;;;;;;;;;;;;;;;;;;;;;;;;1,000000;0,500000;0,500000;0,416667;0,416667;0,000000;
86;;;;;;;;;;;;;;;;;;;;;;;;;;;;;;;;;;;;;;;;;;;;;;;;;;;;;;;;;;;;;;;;;;;;;;;;;;;;;;;;;;;;;;1,000000;0,500000;0,416667;0,416667;0,000000;
87;;;;;;;;;;;;;;;;;;;;;;;;;;;;;;;;;;;;;;;;;;;;;;;;;;;;;;;;;;;;;;;;;;;;;;;;;;;;;;;;;;;;;;;1,000000;0,416667;0,416667;0,000000;
88;;;;;;;;;;;;;;;;;;;;;;;;;;;;;;;;;;;;;;;;;;;;;;;;;;;;;;;;;;;;;;;;;;;;;;;;;;;;;;;;;;;;;;;;1,000000;0,666667;0,000000;
89;;;;;;;;;;;;;;;;;;;;;;;;;;;;;;;;;;;;;;;;;;;;;;;;;;;;;;;;;;;;;;;;;;;;;;;;;;;;;;;;;;;;;;;;;1,000000;0,000000;
90;;;;;;;;;;;;;;;;;;;;;;;;;;;;;;;;;;;;;;;;;;;;;;;;;;;;;;;;;;;;;;;;;;;;;;;;;;;;;;;;;;;;;;;;;;1,000000;
