;1; 2; 3; 4; 5; 6; 7; 8; 9; 10; 11; 12; 13; 14; 15; 16; 17; 18; 19; 20; 21; 22; 23; 24; 25; 26; 27; 28; 29; 30; 31; 32; 33; 34; 35; 36; 37; 38; 39; 40; 41; 42; 43; 44; 45; 46; 47; 48; 49; 50; 51; 52; 53; 54; 55; 56; 57; 58; 59; 60; 61; 62; 63; 64; 65; 66; 67; 68; 69; 70; 71; 72; 73; 74; 75; 76; 77; 78; 79; 80; 81; 82; 83; 84; 85; 86; 87; 88; 89; 90; 91; 92; 93; 94; 95; 96; 97; 98; 99; 100; 101; 102; 103; 104; 105; 106; 107; 108; 109; 110; 111; 112; 113; 114; 115; 116; 117; 118; 119; 120; 121; 122; 123; 124; 125; 126; 127; 128; 129; 130; 131; 132
1;1,000000;0,422918;0,494705;0,560223;0,401125;0,410302;0,380004;0,300379;0,347832;0,400819;0,331956;0,448036;0,451596;0,417048;0,383175;0,417048;0,417048;0,417048;0,360994;0,171103;0,171103;0,171103;0,363980;0,265981;0,385632;0,393975;0,355822;0,351368;0,351368;0,259628;0,377366;0,427637;0,000000;0,000000;0,000000;0,000000;0,399868;0,000000;0,336580;0,484641;0,484641;0,000000;0,396248;0,414976;0,376885;0,440440;0,263911;0,375433;0,295538;0,265981;0,415153;0,441642;0,415153;0,311194;0,393943;0,393943;0,166543;0,309074;0,309074;0,376172;0,254680;0,263118;0,309074;0,342504;0,342504;0,342504;0,411996;0,382907;0,398556;0,292569;0,310886;0,344003;0,414397;0,438147;0,399750;0,393117;0,458108;0,347832;0,456550;0,451368;0,455705;0,459208;0,000000;0,347832;0,407723;0,313263;0,341777;0,309074;0,260015;0,460065;0,343997;0,310882;0,293591;0,341103;0,380976;0,341103;0,451489;0,000000;0,000000;0,000000;0,259628;0,396983;0,396983;0,425982;0,263663;0,341410;0,341410;0,351242;0,341410;0,341410;0,407763;0,407763;0,348692;0,258063;0,278750;0,392749;0,182648;0,182648;0,182648;0,347832;0,000000;0,000000;0,263911;0,255348;0,255348;0,342499;0,342499;0,342499;0,000000;0,000000;0,263975;0,265981;
2;;1,000000;0,473891;0,538449;0,540916;0,566631;0,514359;0,575374;0,563081;0,583015;0,539972;0,627814;0,635984;0,327267;0,411404;0,327267;0,327267;0,327267;0,522041;0,170308;0,170308;0,170308;0,750964;0,739489;0,485568;0,464959;0,393933;0,393933;0,393933;0,729748;0,478617;0,642635;0,727267;0,130557;0,130557;0,130557;0,244304;0,130557;0,687976;0,654634;0,654634;0,727267;0,352267;0,355596;0,371552;0,773714;0,765704;0,585873;0,617699;0,739489;0,605031;0,615237;0,605031;0,402267;0,352267;0,352267;0,602267;0,477267;0,489618;0,504133;0,477267;0,477267;0,477267;0,393933;0,393933;0,393933;0,572822;0,576181;0,568582;0,483460;0,430284;0,393933;0,511536;0,488537;0,542025;0,743964;0,478060;0,563081;0,485238;0,461579;0,439292;0,439292;0,727267;0,563081;0,599038;0,642275;0,752354;0,477267;0,477267;0,439292;0,393933;0,430284;0,483460;0,393933;0,452593;0,393933;0,439292;0,000000;0,000000;0,000000;0,729748;0,361973;0,361973;0,327267;0,477267;0,393933;0,393933;0,393933;0,393933;0,393933;0,489292;0,489292;0,569573;0,524563;0,739292;0,789616;0,174000;0,174000;0,174000;0,340722;0,505557;0,727267;0,765704;0,477267;0,477267;0,393933;0,393933;0,393933;0,255557;0,255557;0,477267;0,739489;
3;;;1,000000;0,548885;0,671751;0,690485;0,430469;0,291411;0,358084;0,642523;0,646209;0,469897;0,544387;0,291418;0,375555;0,291418;0,291418;0,291418;0,432879;0,000000;0,000000;0,000000;0,756390;0,441418;0,588149;0,714576;0,773490;0,600016;0,600016;0,441418;0,709728;0,501394;0,691418;0,000000;0,000000;0,000000;0,095357;0,000000;0,478916;0,379602;0,379602;0,691418;0,316418;0,319747;0,335703;0,423979;0,441418;0,614022;0,592179;0,441418;0,460729;0,544387;0,460729;0,366418;0,316418;0,316418;0,697811;0,794387;0,725492;0,791583;0,441418;0,441418;0,794387;0,358084;0,358084;0,358084;0,627720;0,708208;0,627720;0,447610;0,394435;0,358084;0,455102;0,463018;0,516506;0,316418;0,740158;0,358084;0,437929;0,436060;0,413772;0,413772;0,691418;0,358084;0,627720;0,394435;0,265354;0,794387;0,441418;0,413772;0,358084;0,394435;0,447610;0,358084;0,427074;0,358084;0,413772;0,000000;0,000000;0,000000;0,441418;0,326124;0,326124;0,291418;0,441418;0,358084;0,358084;0,358084;0,358084;0,358084;0,463772;0,463772;0,358084;0,000000;0,713772;0,547106;0,000000;0,000000;0,000000;0,000000;0,000000;0,691418;0,441418;0,441418;0,441418;0,358084;0,358084;0,358084;0,000000;0,000000;0,441418;0,441418;
4;;;;1,000000;0,446522;0,472237;0,329573;0,268641;0,335315;0,488621;0,536932;0,359651;0,435110;0,268648;0,451621;0,268648;0,268648;0,268648;0,323602;0,000000;0,000000;0,000000;0,538210;0,673726;0,611505;0,370566;0,335315;0,335315;0,335315;0,418648;0,384223;0,392117;0,668648;0,000000;0,000000;0,000000;0,081296;0,000000;0,591135;0,310191;0,310191;0,668648;0,293648;0,359990;0,312934;0,338006;0,418648;0,504746;0,431249;0,673726;0,351453;0,435110;0,351453;0,423744;0,423744;0,423744;0,543648;0,685110;0,616215;0,409739;0,418648;0,418648;0,685110;0,335315;0,335315;0,335315;0,690111;0,618974;0,690160;0,424841;0,371666;0,335315;0,711473;0,686695;0,612861;0,293648;0,383667;0,335315;0,713218;0,709867;0,707727;0,708177;0,668648;0,335315;0,518443;0,371666;0,242584;0,685110;0,697049;0,712192;0,335315;0,371666;0,424841;0,506282;0,466960;0,506282;0,685860;0,000000;0,000000;0,000000;0,418648;0,303355;0,303355;0,268648;0,673744;0,335315;0,335315;0,335315;0,335315;0,335315;0,553011;0,553011;0,335315;0,000000;0,418648;0,517000;0,171462;0,171462;0,171462;0,000000;0,000000;0,668648;0,418648;0,418648;0,418648;0,335315;0,335315;0,335315;0,000000;0,000000;0,698998;0,673726;
5;;;;;1,000000;0,705692;0,289062;0,263716;0,330390;0,667874;0,337757;0,297428;0,288723;0,263723;0,347860;0,263723;0,263723;0,263723;0,264225;0,000000;0,000000;0,000000;0,558534;0,413723;0,379621;0,649693;0,545457;0,507387;0,507387;0,413723;0,638667;0,315090;0,663723;0,000000;0,000000;0,000000;0,000000;0,000000;0,409890;0,204623;0,204623;0,663723;0,288723;0,292052;0,308008;0,222060;0,413723;0,344910;0,426324;0,413723;0,263564;0,288723;0,263564;0,338723;0,288723;0,288723;0,702380;0,413723;0,333358;0,683611;0,413723;0,413723;0,413723;0,330390;0,330390;0,330390;0,330390;0,391590;0,330390;0,419916;0,366741;0,330390;0,311785;0,288346;0,315090;0,288723;0,777347;0,330390;0,275801;0,274867;0,263723;0,263723;0,663723;0,330390;0,330390;0,366741;0,237659;0,413723;0,413723;0,263723;0,330390;0,366741;0,419916;0,330390;0,308008;0,330390;0,263723;0,000000;0,000000;0,000000;0,413723;0,298430;0,298430;0,263723;0,413723;0,330390;0,330390;0,330390;0,330390;0,330390;0,288723;0,288723;0,330390;0,000000;0,413723;0,596189;0,000000;0,000000;0,000000;0,000000;0,000000;0,663723;0,413723;0,413723;0,413723;0,330390;0,330390;0,330390;0,000000;0,000000;0,413723;0,413723;
6;;;;;;1,000000;0,269624;0,244278;0,310952;0,890287;0,318319;0,277990;0,269285;0,244285;0,328422;0,244285;0,244285;0,244285;0,244787;0,000000;0,000000;0,000000;0,584249;0,394285;0,360183;0,775968;0,621904;0,621904;0,621904;0,394285;0,764802;0,295652;0,644285;0,000000;0,000000;0,000000;0,000000;0,000000;0,390452;0,185185;0,185185;0,644285;0,269285;0,272614;0,288570;0,202622;0,394285;0,325472;0,406886;0,394285;0,244126;0,269285;0,244126;0,319285;0,269285;0,269285;0,519285;0,394285;0,313920;0,951989;0,394285;0,394285;0,394285;0,310952;0,310952;0,310952;0,310952;0,372152;0,310952;0,400478;0,347303;0,310952;0,292347;0,268908;0,295652;0,269285;0,900000;0,310952;0,256363;0,255429;0,244285;0,244285;0,644285;0,310952;0,310952;0,347303;0,218221;0,394285;0,394285;0,244285;0,310952;0,347303;0,400478;0,310952;0,288570;0,310952;0,244285;0,000000;0,000000;0,000000;0,394285;0,278992;0,278992;0,244285;0,394285;0,310952;0,310952;0,310952;0,310952;0,310952;0,269285;0,269285;0,310952;0,000000;0,394285;0,621904;0,000000;0,000000;0,000000;0,000000;0,000000;0,644285;0,394285;0,394285;0,394285;0,310952;0,310952;0,310952;0,000000;0,000000;0,394285;0,394285;
7;;;;;;;1,000000;0,602505;0,544771;0,277816;0,635591;0,547977;0,534564;0,225339;0,309475;0,225339;0,225339;0,225339;0,366956;0,000000;0,000000;0,000000;0,435051;0,375339;0,396391;0,282635;0,292005;0,292005;0,292005;0,375339;0,295272;0,461874;0,625339;0,166631;0,166631;0,166631;0,425996;0,166631;0,371505;0,658838;0,658838;0,625339;0,250339;0,253668;0,269624;0,600994;0,375339;0,455719;0,387939;0,375339;0,386686;0,386083;0,386686;0,300339;0,250339;0,250339;0,500339;0,636083;0,681301;0,307284;0,375339;0,375339;0,636083;0,292005;0,292005;0,292005;0,469416;0,480402;0,469416;0,381531;0,328356;0,292005;0,273400;0,249961;0,276705;0,398409;0,225339;0,544771;0,237417;0,236482;0,225339;0,225339;0,625339;0,544771;0,469416;0,554444;0,338751;0,636083;0,375339;0,225339;0,292005;0,328356;0,381531;0,292005;0,269624;0,292005;0,225339;0,000000;0,000000;0,000000;0,375339;0,260045;0,260045;0,225339;0,375339;0,292005;0,292005;0,292005;0,292005;0,292005;0,250339;0,250339;0,481742;0,291631;0,375339;0,292005;0,000000;0,000000;0,000000;0,473215;0,541631;0,625339;0,375339;0,375339;0,375339;0,292005;0,292005;0,292005;0,291631;0,291631;0,375339;0,375339;
8;;;;;;;;1,000000;0,590819;0,252470;0,382584;0,513686;0,224993;0,199993;0,284130;0,199993;0,199993;0,199993;0,200495;0,000000;0,000000;0,000000;0,356186;0,349993;0,315891;0,257289;0,266660;0,266660;0,266660;0,757486;0,269926;0,251360;0,599993;0,179162;0,179162;0,179162;0,331547;0,179162;0,346159;0,533333;0,533333;0,599993;0,224993;0,228322;0,244278;0,523535;0,349993;0,281180;0,362594;0,349993;0,314700;0,224993;0,314700;0,274993;0,224993;0,224993;0,474993;0,349993;0,416667;0,281939;0,349993;0,349993;0,349993;0,266660;0,266660;0,266660;0,266660;0,327860;0,266660;0,356186;0,303010;0,266660;0,248055;0,224616;0,251360;0,224993;0,199993;0,590819;0,212071;0,211137;0,199993;0,199993;0,599993;0,590819;0,266660;0,303010;0,333333;0,349993;0,349993;0,199993;0,266660;0,303010;0,356186;0,266660;0,244278;0,266660;0,199993;0,000000;0,000000;0,000000;0,757486;0,234700;0,234700;0,199993;0,349993;0,266660;0,266660;0,266660;0,266660;0,266660;0,224993;0,224993;0,266660;0,304162;0,349993;0,266660;0,000000;0,000000;0,000000;0,555556;0,554162;0,599993;0,349993;0,349993;0,349993;0,266660;0,266660;0,266660;0,304162;0,304162;0,349993;0,349993;
9;;;;;;;;;1,000000;0,319144;0,340700;0,493171;0,291667;0,266667;0,350804;0,266667;0,266667;0,266667;0,267169;0,000000;0,000000;0,000000;0,422859;0,416667;0,382565;0,323963;0,333333;0,333333;0,333333;0,833333;0,336600;0,318033;0,666667;0,000000;0,000000;0,000000;0,430138;0,000000;0,412833;0,470782;0,470782;0,666667;0,291667;0,294996;0,310952;0,452930;0,416667;0,347854;0,429267;0,416667;0,266508;0,291667;0,266508;0,341667;0,291667;0,291667;0,541667;0,416667;0,336301;0,348612;0,416667;0,416667;0,416667;0,333333;0,333333;0,333333;0,333333;0,394533;0,333333;0,422859;0,369684;0,333333;0,314728;0,291289;0,318033;0,291667;0,266667;1,000000;0,278745;0,277810;0,266667;0,266667;0,666667;1,000000;0,333333;0,369684;0,240603;0,416667;0,416667;0,266667;0,333333;0,369684;0,422859;0,333333;0,310952;0,333333;0,266667;0,000000;0,000000;0,000000;0,833333;0,301373;0,301373;0,266667;0,416667;0,333333;0,333333;0,333333;0,333333;0,333333;0,291667;0,291667;0,333333;0,000000;0,416667;0,333333;0,000000;0,000000;0,000000;0,666667;0,000000;0,666667;0,416667;0,416667;0,416667;0,333333;0,333333;0,333333;0,000000;0,000000;0,416667;0,416667;
10;;;;;;;;;;1,000000;0,326511;0,286182;0,277477;0,252477;0,336614;0,252477;0,252477;0,252477;0,252979;0,000000;0,000000;0,000000;0,600633;0,402477;0,368375;0,800544;0,638288;0,638288;0,638288;0,402477;0,789378;0,303844;0,652477;0,000000;0,000000;0,000000;0,000000;0,000000;0,398644;0,193377;0,193377;0,652477;0,277477;0,280806;0,296762;0,210814;0,402477;0,333664;0,415078;0,402477;0,252318;0,277477;0,252318;0,327477;0,277477;0,277477;0,527477;0,402477;0,322112;0,922280;0,402477;0,402477;0,402477;0,319144;0,319144;0,319144;0,319144;0,380344;0,319144;0,408670;0,355494;0,319144;0,300539;0,277100;0,303844;0,277477;0,870484;0,319144;0,264555;0,263621;0,252477;0,252477;0,652477;0,319144;0,319144;0,355494;0,226413;0,402477;0,402477;0,252477;0,319144;0,355494;0,408670;0,319144;0,296762;0,319144;0,252477;0,000000;0,000000;0,000000;0,402477;0,287184;0,287184;0,252477;0,402477;0,319144;0,319144;0,319144;0,319144;0,319144;0,277477;0,277477;0,319144;0,000000;0,402477;0,638288;0,000000;0,000000;0,000000;0,000000;0,000000;0,652477;0,402477;0,402477;0,402477;0,319144;0,319144;0,319144;0,000000;0,000000;0,402477;0,402477;
11;;;;;;;;;;;1,000000;0,603750;0,778083;0,274033;0,358170;0,274033;0,274033;0,274033;0,610475;0,000000;0,000000;0,000000;0,627783;0,424033;0,612131;0,331330;0,340700;0,340700;0,340700;0,424033;0,343967;0,705392;0,674033;0,149930;0,149930;0,149930;0,373960;0,149930;0,420200;0,664542;0,664542;0,674033;0,299033;0,302363;0,318319;0,453810;0,424033;0,671458;0,436634;0,424033;0,585172;0,601822;0,585172;0,349033;0,299033;0,299033;0,549033;0,851822;0,879786;0,355979;0,424033;0,424033;0,851822;0,340700;0,340700;0,340700;0,685155;0,696142;0,685155;0,430226;0,377051;0,340700;0,322095;0,298656;0,325400;0,476615;0,274033;0,340700;0,286112;0,285177;0,274033;0,274033;0,674033;0,340700;0,685155;0,632650;0,382584;0,851822;0,424033;0,274033;0,340700;0,377051;0,430226;0,340700;0,318319;0,340700;0,274033;0,000000;0,000000;0,000000;0,424033;0,308740;0,308740;0,274033;0,424033;0,340700;0,340700;0,340700;0,340700;0,340700;0,299033;0,299033;0,559949;0,274930;0,424033;0,340700;0,000000;0,000000;0,000000;0,191597;0,524930;0,674033;0,424033;0,424033;0,424033;0,340700;0,340700;0,340700;0,274930;0,274930;0,424033;0,424033;
12;;;;;;;;;;;;1,000000;0,583591;0,233705;0,317842;0,233705;0,233705;0,233705;0,501084;0,211746;0,211746;0,211746;0,465129;0,383705;0,435819;0,291001;0,300372;0,300372;0,300372;0,659838;0,303638;0,622153;0,633705;0,138683;0,138683;0,138683;0,348806;0,138683;0,379871;0,679014;0,679014;0,633705;0,258705;0,262034;0,277990;0,594689;0,383705;0,495147;0,396306;0,383705;0,393139;0,425511;0,393139;0,308705;0,258705;0,258705;0,508705;0,675511;0,687753;0,315651;0,383705;0,383705;0,675511;0,300372;0,300372;0,300372;0,508844;0,519831;0,508844;0,389898;0,336722;0,300372;0,281767;0,258328;0,285072;0,575271;0,233705;0,493171;0,245783;0,244849;0,233705;0,233705;0,633705;0,493171;0,508844;0,467343;0,314852;0,675511;0,383705;0,233705;0,300372;0,336722;0,389898;0,300372;0,277990;0,300372;0,233705;0,000000;0,000000;0,000000;0,659838;0,268412;0,268412;0,233705;0,383705;0,300372;0,300372;0,300372;0,300372;0,300372;0,258705;0,258705;0,540619;0,553540;0,383705;0,300372;0,000000;0,000000;0,000000;0,373823;0,513683;0,633705;0,383705;0,383705;0,383705;0,300372;0,300372;0,300372;0,263683;0,263683;0,383705;0,383705;
13;;;;;;;;;;;;;1,000000;0,225000;0,309137;0,225000;0,225000;0,225000;0,582392;0,000000;0,000000;0,000000;0,525961;0,375000;0,510309;0,282296;0,291667;0,291667;0,291667;0,375000;0,294933;0,677310;0,625000;0,000000;0,000000;0,000000;0,448699;0,000000;0,371166;0,548369;0,548369;0,625000;0,250000;0,253329;0,269285;0,368789;0,375000;0,569636;0,387601;0,375000;0,416343;0,500000;0,416343;0,300000;0,250000;0,250000;0,500000;0,750000;0,681105;0,306946;0,375000;0,375000;0,750000;0,291667;0,291667;0,291667;0,583333;0,594320;0,583333;0,381193;0,328017;0,291667;0,273062;0,249623;0,276367;0,500000;0,225000;0,291667;0,237078;0,236144;0,225000;0,225000;0,625000;0,291667;0,583333;0,656035;0,198936;0,750000;0,375000;0,225000;0,291667;0,328017;0,381193;0,291667;0,269285;0,291667;0,225000;0,000000;0,000000;0,000000;0,375000;0,259707;0,259707;0,225000;0,375000;0,291667;0,291667;0,291667;0,291667;0,291667;0,250000;0,250000;0,583333;0,375000;0,375000;0,291667;0,000000;0,000000;0,000000;0,000000;0,000000;0,625000;0,375000;0,375000;0,375000;0,291667;0,291667;0,291667;0,000000;0,000000;0,375000;0,375000;
14;;;;;;;;;;;;;;1,000000;0,621846;0,800000;0,800000;0,800000;0,200502;0,000000;0,000000;0,000000;0,356193;0,350000;0,315898;0,257296;0,266667;0,266667;0,266667;0,350000;0,269933;0,251367;0,600000;0,000000;0,000000;0,000000;0,000000;0,000000;0,346166;0,140900;0,140900;0,600000;0,450000;0,456658;0,488570;0,158337;0,350000;0,281187;0,552459;0,350000;0,199841;0,225000;0,199841;0,275000;0,225000;0,225000;0,475000;0,350000;0,269635;0,281946;0,350000;0,700000;0,350000;0,266667;0,266667;0,266667;0,266667;0,327867;0,266667;0,356193;0,303017;0,266667;0,248062;0,224623;0,251367;0,225000;0,200000;0,266667;0,212078;0,211144;0,200000;0,200000;0,600000;0,266667;0,266667;0,303017;0,173936;0,350000;0,350000;0,200000;0,266667;0,303017;0,356193;0,266667;0,244285;0,266667;0,200000;0,000000;0,000000;0,000000;0,350000;0,469413;0,469413;0,400000;0,350000;0,266667;0,266667;0,266667;0,266667;0,266667;0,225000;0,225000;0,266667;0,000000;0,350000;0,266667;0,000000;0,000000;0,000000;0,000000;0,000000;0,600000;0,350000;0,350000;0,350000;0,266667;0,266667;0,266667;0,000000;0,000000;0,350000;0,350000;
15;;;;;;;;;;;;;;;1,000000;0,621846;0,621846;0,621846;0,284639;0,000000;0,000000;0,000000;0,440330;0,434137;0,400035;0,341433;0,350804;0,350804;0,350804;0,434137;0,354070;0,335504;0,684137;0,000000;0,000000;0,000000;0,000000;0,000000;0,430303;0,225037;0,225037;0,684137;0,650771;0,757956;0,616143;0,242474;0,434137;0,365324;0,528258;0,434137;0,283978;0,309137;0,283978;0,359137;0,309137;0,309137;0,559137;0,434137;0,353772;0,366083;0,434137;0,434137;0,434137;0,350804;0,350804;0,350804;0,350804;0,412004;0,350804;0,440330;0,387154;0,350804;0,332199;0,308760;0,335504;0,309137;0,284137;0,350804;0,296215;0,295281;0,284137;0,284137;0,684137;0,350804;0,350804;0,387154;0,258073;0,434137;0,434137;0,284137;0,350804;0,387154;0,440330;0,350804;0,328422;0,350804;0,284137;0,000000;0,000000;0,000000;0,434137;0,682366;0,682366;0,726583;0,434137;0,350804;0,350804;0,350804;0,350804;0,350804;0,309137;0,309137;0,350804;0,000000;0,434137;0,350804;0,000000;0,000000;0,000000;0,000000;0,000000;0,684137;0,434137;0,434137;0,434137;0,350804;0,350804;0,350804;0,000000;0,000000;0,752623;0,434137;
16;;;;;;;;;;;;;;;;1,000000;0,800000;0,800000;0,200502;0,000000;0,000000;0,000000;0,356193;0,350000;0,315898;0,257296;0,266667;0,266667;0,266667;0,350000;0,269933;0,251367;0,600000;0,000000;0,000000;0,000000;0,000000;0,000000;0,346166;0,140900;0,140900;0,600000;0,450000;0,456658;0,488570;0,158337;0,350000;0,281187;0,552459;0,350000;0,199841;0,225000;0,199841;0,275000;0,225000;0,225000;0,475000;0,350000;0,269635;0,281946;0,350000;0,700000;0,350000;0,266667;0,266667;0,266667;0,266667;0,327867;0,266667;0,356193;0,303017;0,266667;0,248062;0,224623;0,251367;0,225000;0,200000;0,266667;0,212078;0,211144;0,200000;0,200000;0,600000;0,266667;0,266667;0,303017;0,173936;0,350000;0,350000;0,200000;0,266667;0,303017;0,356193;0,266667;0,244285;0,266667;0,200000;0,000000;0,000000;0,000000;0,350000;0,469413;0,469413;0,400000;0,350000;0,266667;0,266667;0,266667;0,266667;0,266667;0,225000;0,225000;0,266667;0,000000;0,350000;0,266667;0,000000;0,000000;0,000000;0,000000;0,000000;0,600000;0,350000;0,350000;0,350000;0,266667;0,266667;0,266667;0,000000;0,000000;0,350000;0,350000;
17;;;;;;;;;;;;;;;;;1,000000;0,800000;0,200502;0,000000;0,000000;0,000000;0,356193;0,350000;0,315898;0,257296;0,266667;0,266667;0,266667;0,350000;0,269933;0,251367;0,600000;0,000000;0,000000;0,000000;0,000000;0,000000;0,346166;0,140900;0,140900;0,600000;0,450000;0,456658;0,488570;0,158337;0,350000;0,281187;0,552459;0,350000;0,199841;0,225000;0,199841;0,275000;0,225000;0,225000;0,475000;0,350000;0,269635;0,281946;0,350000;0,700000;0,350000;0,266667;0,266667;0,266667;0,266667;0,327867;0,266667;0,356193;0,303017;0,266667;0,248062;0,224623;0,251367;0,225000;0,200000;0,266667;0,212078;0,211144;0,200000;0,200000;0,600000;0,266667;0,266667;0,303017;0,173936;0,350000;0,350000;0,200000;0,266667;0,303017;0,356193;0,266667;0,244285;0,266667;0,200000;0,000000;0,000000;0,000000;0,350000;0,469413;0,469413;0,400000;0,350000;0,266667;0,266667;0,266667;0,266667;0,266667;0,225000;0,225000;0,266667;0,000000;0,350000;0,266667;0,000000;0,000000;0,000000;0,000000;0,000000;0,600000;0,350000;0,350000;0,350000;0,266667;0,266667;0,266667;0,000000;0,000000;0,350000;0,350000;
18;;;;;;;;;;;;;;;;;;1,000000;0,200502;0,000000;0,000000;0,000000;0,356193;0,350000;0,315898;0,257296;0,266667;0,266667;0,266667;0,350000;0,269933;0,251367;0,600000;0,000000;0,000000;0,000000;0,000000;0,000000;0,346166;0,140900;0,140900;0,600000;0,450000;0,456658;0,488570;0,158337;0,350000;0,281187;0,552459;0,350000;0,199841;0,225000;0,199841;0,275000;0,225000;0,225000;0,475000;0,350000;0,269635;0,281946;0,350000;0,700000;0,350000;0,266667;0,266667;0,266667;0,266667;0,327867;0,266667;0,356193;0,303017;0,266667;0,248062;0,224623;0,251367;0,225000;0,200000;0,266667;0,212078;0,211144;0,200000;0,200000;0,600000;0,266667;0,266667;0,303017;0,173936;0,350000;0,350000;0,200000;0,266667;0,303017;0,356193;0,266667;0,244285;0,266667;0,200000;0,000000;0,000000;0,000000;0,350000;0,469413;0,469413;0,400000;0,350000;0,266667;0,266667;0,266667;0,266667;0,266667;0,225000;0,225000;0,266667;0,000000;0,350000;0,266667;0,000000;0,000000;0,000000;0,000000;0,000000;0,600000;0,350000;0,350000;0,350000;0,266667;0,266667;0,266667;0,000000;0,000000;0,350000;0,350000;
19;;;;;;;;;;;;;;;;;;;1,000000;0,540353;0,540353;0,540353;0,414453;0,350502;0,398801;0,257798;0,267169;0,267169;0,267169;0,350502;0,270435;0,591710;0,600502;0,000000;0,000000;0,000000;0,164130;0,000000;0,346668;0,380761;0,380761;0,600502;0,225502;0,228831;0,244787;0,291168;0,350502;0,458128;0,363103;0,350502;0,304835;0,388493;0,304835;0,275502;0,225502;0,225502;0,475502;0,638493;0,569598;0,282447;0,350502;0,350502;0,638493;0,267169;0,267169;0,267169;0,471826;0,482812;0,471826;0,356695;0,303519;0,267169;0,248564;0,225124;0,251868;0,657254;0,200502;0,267169;0,212580;0,211646;0,200502;0,200502;0,600502;0,267169;0,471826;0,578414;0,174438;0,638493;0,350502;0,200502;0,267169;0,303519;0,356695;0,267169;0,244787;0,267169;0,200502;0,000000;0,000000;0,000000;0,350502;0,235209;0,235209;0,200502;0,350502;0,267169;0,267169;0,267169;0,267169;0,267169;0,225502;0,225502;0,505713;0,000000;0,350502;0,267169;0,000000;0,000000;0,000000;0,000000;0,000000;0,600502;0,350502;0,350502;0,350502;0,267169;0,267169;0,267169;0,000000;0,000000;0,350502;0,350502;
20;;;;;;;;;;;;;;;;;;;;1,000000;0,666667;0,666667;0,000000;0,000000;0,000000;0,000000;0,000000;0,000000;0,000000;0,000000;0,000000;0,318033;0,000000;0,000000;0,000000;0,000000;0,000000;0,000000;0,000000;0,000000;0,000000;0,000000;0,000000;0,000000;0,000000;0,000000;0,000000;0,000000;0,000000;0,000000;0,000000;0,000000;0,000000;0,000000;0,000000;0,000000;0,000000;0,000000;0,000000;0,000000;0,000000;0,000000;0,000000;0,000000;0,000000;0,000000;0,000000;0,000000;0,000000;0,000000;0,000000;0,000000;0,000000;0,000000;0,000000;0,291667;0,000000;0,000000;0,000000;0,000000;0,000000;0,000000;0,000000;0,000000;0,000000;0,000000;0,000000;0,000000;0,000000;0,000000;0,000000;0,000000;0,000000;0,000000;0,000000;0,000000;0,000000;0,000000;0,000000;0,000000;0,000000;0,000000;0,000000;0,000000;0,000000;0,000000;0,000000;0,000000;0,000000;0,000000;0,000000;0,000000;0,000000;0,000000;0,000000;0,000000;0,000000;0,000000;0,000000;0,000000;0,000000;0,000000;0,000000;0,000000;0,000000;0,000000;0,000000;0,000000;0,000000;0,000000;0,000000;0,000000;
21;;;;;;;;;;;;;;;;;;;;;1,000000;0,666667;0,000000;0,000000;0,000000;0,000000;0,000000;0,000000;0,000000;0,000000;0,000000;0,318033;0,000000;0,000000;0,000000;0,000000;0,000000;0,000000;0,000000;0,000000;0,000000;0,000000;0,000000;0,000000;0,000000;0,000000;0,000000;0,000000;0,000000;0,000000;0,000000;0,000000;0,000000;0,000000;0,000000;0,000000;0,000000;0,000000;0,000000;0,000000;0,000000;0,000000;0,000000;0,000000;0,000000;0,000000;0,000000;0,000000;0,000000;0,000000;0,000000;0,000000;0,000000;0,000000;0,000000;0,291667;0,000000;0,000000;0,000000;0,000000;0,000000;0,000000;0,000000;0,000000;0,000000;0,000000;0,000000;0,000000;0,000000;0,000000;0,000000;0,000000;0,000000;0,000000;0,000000;0,000000;0,000000;0,000000;0,000000;0,000000;0,000000;0,000000;0,000000;0,000000;0,000000;0,000000;0,000000;0,000000;0,000000;0,000000;0,000000;0,000000;0,000000;0,000000;0,000000;0,000000;0,000000;0,000000;0,000000;0,000000;0,000000;0,000000;0,000000;0,000000;0,000000;0,000000;0,000000;0,000000;0,000000;0,000000;0,000000;0,000000;
22;;;;;;;;;;;;;;;;;;;;;;1,000000;0,000000;0,000000;0,000000;0,000000;0,000000;0,000000;0,000000;0,000000;0,000000;0,318033;0,000000;0,000000;0,000000;0,000000;0,000000;0,000000;0,000000;0,000000;0,000000;0,000000;0,000000;0,000000;0,000000;0,000000;0,000000;0,000000;0,000000;0,000000;0,000000;0,000000;0,000000;0,000000;0,000000;0,000000;0,000000;0,000000;0,000000;0,000000;0,000000;0,000000;0,000000;0,000000;0,000000;0,000000;0,000000;0,000000;0,000000;0,000000;0,000000;0,000000;0,000000;0,000000;0,000000;0,291667;0,000000;0,000000;0,000000;0,000000;0,000000;0,000000;0,000000;0,000000;0,000000;0,000000;0,000000;0,000000;0,000000;0,000000;0,000000;0,000000;0,000000;0,000000;0,000000;0,000000;0,000000;0,000000;0,000000;0,000000;0,000000;0,000000;0,000000;0,000000;0,000000;0,000000;0,000000;0,000000;0,000000;0,000000;0,000000;0,000000;0,000000;0,000000;0,000000;0,000000;0,000000;0,000000;0,000000;0,000000;0,000000;0,000000;0,000000;0,000000;0,000000;0,000000;0,000000;0,000000;0,000000;0,000000;0,000000;0,000000;
23;;;;;;;;;;;;;;;;;;;;;;;1,000000;0,506193;0,714633;0,482578;0,422859;0,422859;0,422859;0,506193;0,496235;0,482969;0,756193;0,000000;0,000000;0,000000;0,105218;0,000000;0,686786;0,415669;0,415669;0,756193;0,381193;0,384522;0,400478;0,545288;0,506193;0,595597;0,800050;0,506193;0,442304;0,525961;0,442304;0,431193;0,381193;0,381193;0,631193;0,775961;0,707066;0,521751;0,506193;0,506193;0,775961;0,422859;0,422859;0,422859;0,609294;0,834692;0,609294;0,512386;0,459210;0,422859;0,662972;0,670888;0,724376;0,381193;0,495679;0,422859;0,645799;0,643930;0,621643;0,621643;0,756193;0,422859;0,609294;0,459210;0,330129;0,775961;0,506193;0,621643;0,422859;0,459210;0,512386;0,422859;0,634944;0,422859;0,621643;0,000000;0,000000;0,000000;0,506193;0,390900;0,390900;0,356193;0,506193;0,422859;0,422859;0,422859;0,422859;0,422859;0,671643;0,671643;0,422859;0,000000;0,921643;0,961348;0,000000;0,000000;0,000000;0,000000;0,000000;0,756193;0,506193;0,506193;0,506193;0,422859;0,422859;0,422859;0,000000;0,000000;0,506193;0,506193;
24;;;;;;;;;;;;;;;;;;;;;;;;1,000000;0,465898;0,407296;0,416667;0,416667;0,416667;0,500000;0,419933;0,401367;0,750000;0,000000;0,000000;0,000000;0,000000;0,000000;0,917408;0,290900;0,290900;0,750000;0,375000;0,378329;0,394285;0,308337;0,500000;0,431187;0,512601;1,000000;0,349841;0,375000;0,349841;0,425000;0,375000;0,375000;0,625000;0,500000;0,419635;0,431946;0,500000;0,500000;0,500000;0,416667;0,416667;0,416667;0,833333;0,477867;0,416667;0,506193;0,453017;0,416667;0,669042;0,374623;0,401367;0,375000;0,350000;0,416667;0,362078;0,361144;0,350000;0,350000;0,750000;0,416667;0,416667;0,453017;0,323936;0,500000;0,500000;0,350000;0,416667;0,453017;0,506193;0,416667;0,394285;0,416667;0,350000;0,000000;0,000000;0,000000;0,500000;0,384707;0,384707;0,350000;0,500000;0,416667;0,416667;0,416667;0,416667;0,416667;0,375000;0,375000;0,416667;0,000000;0,500000;0,416667;0,416667;0,416667;0,416667;0,000000;0,000000;0,750000;0,500000;0,500000;0,500000;0,416667;0,416667;0,416667;0,000000;0,000000;0,500000;1,000000;
25;;;;;;;;;;;;;;;;;;;;;;;;;1,000000;0,373194;0,382565;0,382565;0,382565;0,465898;0,385831;0,467316;0,715898;0,000000;0,000000;0,000000;0,068636;0,000000;0,494425;0,345524;0,345524;0,715898;0,340898;0,344227;0,360183;0,352927;0,465898;0,579945;0,607689;0,465898;0,426651;0,510309;0,426651;0,588997;0,588997;0,588997;0,590898;0,760309;0,691414;0,397844;0,465898;0,465898;0,760309;0,382565;0,382565;0,382565;0,593642;0,666450;0,593642;0,472091;0,418915;0,382565;0,470612;0,549968;0,594944;0,340898;0,315898;0,382565;0,509037;0,498860;0,429282;0,545636;0,715898;0,382565;0,593642;0,418915;0,289834;0,760309;0,732463;0,497363;0,382565;0,418915;0,472091;0,382565;0,442584;0,382565;0,429282;0,000000;0,000000;0,000000;0,465898;0,350605;0,350605;0,315898;0,838997;0,382565;0,382565;0,382565;0,382565;0,382565;0,479282;0,479282;0,382565;0,000000;0,729282;0,562615;0,435253;0,435253;0,435253;0,000000;0,000000;0,715898;0,465898;0,465898;0,465898;0,382565;0,382565;0,382565;0,000000;0,000000;0,465898;0,465898;
26;;;;;;;;;;;;;;;;;;;;;;;;;;1,000000;0,647926;0,647926;0,647926;0,407296;0,675059;0,308663;0,657296;0,000000;0,000000;0,000000;0,000000;0,000000;0,403463;0,198196;0,198196;0,657296;0,282296;0,285625;0,301581;0,215633;0,407296;0,338483;0,419897;0,407296;0,257138;0,282296;0,257138;0,332296;0,282296;0,282296;0,784869;0,407296;0,326931;0,749620;0,407296;0,407296;0,407296;0,323963;0,323963;0,323963;0,323963;0,385163;0,323963;0,413489;0,360314;0,323963;0,305358;0,281919;0,308663;0,282296;0,643112;0,323963;0,269374;0,268440;0,257296;0,257296;0,657296;0,323963;0,323963;0,360314;0,231232;0,407296;0,407296;0,257296;0,323963;0,360314;0,413489;0,323963;0,301581;0,323963;0,257296;0,000000;0,000000;0,000000;0,407296;0,292003;0,292003;0,257296;0,407296;0,323963;0,323963;0,323963;0,323963;0,323963;0,282296;0,282296;0,323963;0,000000;0,407296;0,520232;0,000000;0,000000;0,000000;0,000000;0,000000;0,657296;0,407296;0,407296;0,407296;0,323963;0,323963;0,323963;0,000000;0,000000;0,407296;0,407296;
27;;;;;;;;;;;;;;;;;;;;;;;;;;;1,000000;0,666667;0,666667;0,416667;0,936238;0,318033;0,666667;0,000000;0,000000;0,000000;0,000000;0,000000;0,412833;0,207567;0,207567;0,666667;0,291667;0,294996;0,310952;0,225004;0,416667;0,347854;0,429267;0,416667;0,266508;0,291667;0,266508;0,341667;0,291667;0,291667;0,541667;0,416667;0,336301;0,697225;0,416667;0,416667;0,416667;0,333333;0,333333;0,333333;0,333333;0,394533;0,333333;0,422859;0,369684;0,333333;0,314728;0,291289;0,318033;0,291667;0,533333;0,333333;0,278745;0,277810;0,266667;0,266667;0,666667;0,333333;0,333333;0,369684;0,240603;0,416667;0,416667;0,266667;0,333333;0,369684;0,422859;0,333333;0,310952;0,333333;0,266667;0,000000;0,000000;0,000000;0,416667;0,301373;0,301373;0,266667;0,416667;0,333333;0,333333;0,333333;0,333333;0,333333;0,291667;0,291667;0,333333;0,000000;0,416667;0,333333;0,000000;0,000000;0,000000;0,000000;0,000000;0,666667;0,416667;0,416667;0,416667;0,333333;0,333333;0,333333;0,000000;0,000000;0,416667;0,416667;
28;;;;;;;;;;;;;;;;;;;;;;;;;;;;1,000000;0,666667;0,416667;0,634818;0,318033;0,666667;0,000000;0,000000;0,000000;0,000000;0,000000;0,412833;0,207567;0,207567;0,666667;0,291667;0,294996;0,310952;0,225004;0,416667;0,347854;0,429267;0,416667;0,266508;0,291667;0,266508;0,341667;0,291667;0,291667;0,541667;0,416667;0,336301;0,697225;0,416667;0,416667;0,416667;0,333333;0,333333;0,333333;0,333333;0,394533;0,333333;0,422859;0,369684;0,333333;0,314728;0,291289;0,318033;0,291667;0,533333;0,333333;0,278745;0,277810;0,266667;0,266667;0,666667;0,333333;0,333333;0,369684;0,240603;0,416667;0,416667;0,266667;0,333333;0,369684;0,422859;0,333333;0,310952;0,333333;0,266667;0,000000;0,000000;0,000000;0,416667;0,301373;0,301373;0,266667;0,416667;0,333333;0,333333;0,333333;0,333333;0,333333;0,291667;0,291667;0,333333;0,000000;0,416667;0,333333;0,000000;0,000000;0,000000;0,000000;0,000000;0,666667;0,416667;0,416667;0,416667;0,333333;0,333333;0,333333;0,000000;0,000000;0,416667;0,416667;
29;;;;;;;;;;;;;;;;;;;;;;;;;;;;;1,000000;0,416667;0,634818;0,318033;0,666667;0,000000;0,000000;0,000000;0,000000;0,000000;0,412833;0,207567;0,207567;0,666667;0,291667;0,294996;0,310952;0,225004;0,416667;0,347854;0,429267;0,416667;0,266508;0,291667;0,266508;0,341667;0,291667;0,291667;0,541667;0,416667;0,336301;0,697225;0,416667;0,416667;0,416667;0,333333;0,333333;0,333333;0,333333;0,394533;0,333333;0,422859;0,369684;0,333333;0,314728;0,291289;0,318033;0,291667;0,533333;0,333333;0,278745;0,277810;0,266667;0,266667;0,666667;0,333333;0,333333;0,369684;0,240603;0,416667;0,416667;0,266667;0,333333;0,369684;0,422859;0,333333;0,310952;0,333333;0,266667;0,000000;0,000000;0,000000;0,416667;0,301373;0,301373;0,266667;0,416667;0,333333;0,333333;0,333333;0,333333;0,333333;0,291667;0,291667;0,333333;0,000000;0,416667;0,333333;0,000000;0,000000;0,000000;0,000000;0,000000;0,666667;0,416667;0,416667;0,416667;0,333333;0,333333;0,333333;0,000000;0,000000;0,416667;0,416667;
30;;;;;;;;;;;;;;;;;;;;;;;;;;;;;;1,000000;0,419933;0,401367;0,750000;0,000000;0,000000;0,000000;0,303082;0,000000;0,496166;0,637449;0,637449;0,750000;0,375000;0,378329;0,394285;0,619596;0,500000;0,431187;0,512601;0,500000;0,349841;0,375000;0,349841;0,425000;0,375000;0,375000;0,625000;0,500000;0,419635;0,431946;0,500000;0,500000;0,500000;0,416667;0,416667;0,416667;0,416667;0,477867;0,416667;0,506193;0,453017;0,416667;0,398062;0,374623;0,401367;0,375000;0,350000;0,833333;0,362078;0,361144;0,350000;0,350000;0,750000;0,833333;0,416667;0,453017;0,323936;0,500000;0,500000;0,350000;0,416667;0,453017;0,506193;0,416667;0,394285;0,416667;0,350000;0,000000;0,000000;0,000000;1,000000;0,384707;0,384707;0,350000;0,500000;0,416667;0,416667;0,416667;0,416667;0,416667;0,375000;0,375000;0,416667;0,000000;0,500000;0,416667;0,000000;0,000000;0,000000;0,416667;0,000000;0,750000;0,500000;0,500000;0,500000;0,416667;0,416667;0,416667;0,000000;0,000000;0,500000;0,500000;
31;;;;;;;;;;;;;;;;;;;;;;;;;;;;;;;1,000000;0,321300;0,669933;0,000000;0,000000;0,000000;0,000000;0,000000;0,416100;0,210833;0,210833;0,669933;0,294933;0,298263;0,314219;0,228271;0,419933;0,351120;0,432534;0,419933;0,269775;0,294933;0,269775;0,344933;0,294933;0,294933;0,544933;0,419933;0,339568;0,738455;0,419933;0,419933;0,419933;0,336600;0,336600;0,336600;0,336600;0,397800;0,336600;0,426126;0,372951;0,336600;0,317995;0,294556;0,321300;0,294933;0,631947;0,336600;0,282012;0,281077;0,269933;0,269933;0,669933;0,336600;0,336600;0,372951;0,243869;0,419933;0,419933;0,269933;0,336600;0,372951;0,426126;0,336600;0,314219;0,336600;0,269933;0,000000;0,000000;0,000000;0,419933;0,304640;0,304640;0,269933;0,419933;0,336600;0,336600;0,336600;0,336600;0,336600;0,294933;0,294933;0,336600;0,000000;0,419933;0,533889;0,000000;0,000000;0,000000;0,000000;0,000000;0,669933;0,419933;0,419933;0,419933;0,336600;0,336600;0,336600;0,000000;0,000000;0,419933;0,419933;
32;;;;;;;;;;;;;;;;;;;;;;;;;;;;;;;;1,000000;0,651367;0,000000;0,000000;0,000000;0,197720;0,000000;0,397533;0,475679;0,475679;0,651367;0,276367;0,279696;0,295652;0,371739;0,401367;0,526644;0,413967;0,401367;0,373351;0,457008;0,373351;0,326367;0,276367;0,276367;0,526367;0,707008;0,638113;0,333312;0,401367;0,401367;0,707008;0,318033;0,318033;0,318033;0,540341;0,551327;0,540341;0,407559;0,354384;0,318033;0,299428;0,275989;0,302733;0,777850;0,251367;0,318033;0,263445;0,262510;0,251367;0,251367;0,651367;0,318033;0,540341;0,658985;0,225302;0,707008;0,401367;0,251367;0,318033;0,354384;0,407559;0,318033;0,295652;0,318033;0,251367;0,000000;0,000000;0,000000;0,401367;0,286073;0,286073;0,251367;0,401367;0,318033;0,318033;0,318033;0,318033;0,318033;0,276367;0,276367;0,586283;0,000000;0,401367;0,318033;0,000000;0,000000;0,000000;0,000000;0,000000;0,651367;0,401367;0,401367;0,401367;0,318033;0,318033;0,318033;0,000000;0,000000;0,401367;0,401367;
33;;;;;;;;;;;;;;;;;;;;;;;;;;;;;;;;;1,000000;0,000000;0,000000;0,000000;0,000000;0,000000;0,746166;0,540900;0,540900;1,000000;0,625000;0,628329;0,644285;0,558337;0,750000;0,681187;0,762601;0,750000;0,599841;0,625000;0,599841;0,675000;0,625000;0,625000;0,875000;0,750000;0,669635;0,681946;0,750000;0,750000;0,750000;0,666667;0,666667;0,666667;0,666667;0,727867;0,666667;0,756193;0,703017;0,666667;0,648062;0,624623;0,651367;0,625000;0,600000;0,666667;0,612078;0,611144;0,600000;0,600000;1,000000;0,666667;0,666667;0,703017;0,573936;0,750000;0,750000;0,600000;0,666667;0,703017;0,756193;0,666667;0,644285;0,666667;0,600000;0,000000;0,000000;0,000000;0,750000;0,634707;0,634707;0,600000;0,750000;0,666667;0,666667;0,666667;0,666667;0,666667;0,625000;0,625000;0,666667;0,000000;0,750000;0,666667;0,000000;0,000000;0,000000;0,000000;0,000000;1,000000;0,750000;0,750000;0,750000;0,666667;0,666667;0,666667;0,000000;0,000000;0,750000;0,750000;
34;;;;;;;;;;;;;;;;;;;;;;;;;;;;;;;;;;1,000000;0,750000;0,750000;0,577712;0,750000;0,000000;0,177666;0,177666;0,000000;0,000000;0,000000;0,000000;0,184352;0,000000;0,000000;0,000000;0,000000;0,172994;0,000000;0,172994;0,000000;0,000000;0,000000;0,000000;0,000000;0,195189;0,000000;0,000000;0,000000;0,000000;0,000000;0,000000;0,000000;0,000000;0,000000;0,000000;0,000000;0,000000;0,000000;0,000000;0,000000;0,000000;0,000000;0,000000;0,000000;0,000000;0,000000;0,000000;0,000000;0,000000;0,000000;0,000000;0,000000;0,223254;0,000000;0,000000;0,000000;0,000000;0,000000;0,000000;0,000000;0,000000;0,000000;0,000000;0,000000;0,000000;0,000000;0,000000;0,000000;0,000000;0,000000;0,000000;0,000000;0,000000;0,000000;0,000000;0,000000;0,000000;0,000000;0,000000;0,375000;0,000000;0,000000;0,000000;0,000000;0,000000;0,291667;0,625000;0,000000;0,000000;0,000000;0,000000;0,000000;0,000000;0,000000;0,375000;0,375000;0,000000;0,000000;
35;;;;;;;;;;;;;;;;;;;;;;;;;;;;;;;;;;;1,000000;0,750000;0,577712;0,750000;0,000000;0,177666;0,177666;0,000000;0,000000;0,000000;0,000000;0,184352;0,000000;0,000000;0,000000;0,000000;0,172994;0,000000;0,172994;0,000000;0,000000;0,000000;0,000000;0,000000;0,195189;0,000000;0,000000;0,000000;0,000000;0,000000;0,000000;0,000000;0,000000;0,000000;0,000000;0,000000;0,000000;0,000000;0,000000;0,000000;0,000000;0,000000;0,000000;0,000000;0,000000;0,000000;0,000000;0,000000;0,000000;0,000000;0,000000;0,000000;0,223254;0,000000;0,000000;0,000000;0,000000;0,000000;0,000000;0,000000;0,000000;0,000000;0,000000;0,000000;0,000000;0,000000;0,000000;0,000000;0,000000;0,000000;0,000000;0,000000;0,000000;0,000000;0,000000;0,000000;0,000000;0,000000;0,000000;0,375000;0,000000;0,000000;0,000000;0,000000;0,000000;0,291667;0,625000;0,000000;0,000000;0,000000;0,000000;0,000000;0,000000;0,000000;0,375000;0,375000;0,000000;0,000000;
36;;;;;;;;;;;;;;;;;;;;;;;;;;;;;;;;;;;;1,000000;0,577712;0,750000;0,000000;0,177666;0,177666;0,000000;0,000000;0,000000;0,000000;0,184352;0,000000;0,000000;0,000000;0,000000;0,172994;0,000000;0,172994;0,000000;0,000000;0,000000;0,000000;0,000000;0,195189;0,000000;0,000000;0,000000;0,000000;0,000000;0,000000;0,000000;0,000000;0,000000;0,000000;0,000000;0,000000;0,000000;0,000000;0,000000;0,000000;0,000000;0,000000;0,000000;0,000000;0,000000;0,000000;0,000000;0,000000;0,000000;0,000000;0,000000;0,223254;0,000000;0,000000;0,000000;0,000000;0,000000;0,000000;0,000000;0,000000;0,000000;0,000000;0,000000;0,000000;0,000000;0,000000;0,000000;0,000000;0,000000;0,000000;0,000000;0,000000;0,000000;0,000000;0,000000;0,000000;0,000000;0,000000;0,375000;0,000000;0,000000;0,000000;0,000000;0,000000;0,291667;0,625000;0,000000;0,000000;0,000000;0,000000;0,000000;0,000000;0,000000;0,375000;0,375000;0,000000;0,000000;
37;;;;;;;;;;;;;;;;;;;;;;;;;;;;;;;;;;;;;1,000000;0,577712;0,000000;0,538357;0,538357;0,000000;0,000000;0,000000;0,000000;0,365320;0,000000;0,167861;0,000000;0,000000;0,402078;0,464434;0,402078;0,000000;0,000000;0,000000;0,000000;0,283027;0,283027;0,000000;0,000000;0,000000;0,283027;0,000000;0,000000;0,000000;0,199693;0,140923;0,199693;0,000000;0,000000;0,000000;0,000000;0,000000;0,000000;0,141614;0,000000;0,430138;0,000000;0,000000;0,000000;0,000000;0,000000;0,430138;0,199693;0,219631;0,391935;0,283027;0,000000;0,000000;0,000000;0,000000;0,000000;0,000000;0,000000;0,000000;0,000000;0,000000;0,000000;0,000000;0,303082;0,000000;0,000000;0,000000;0,000000;0,000000;0,000000;0,000000;0,000000;0,000000;0,000000;0,000000;0,183281;0,278260;0,000000;0,000000;0,000000;0,000000;0,000000;0,430138;0,000000;0,000000;0,000000;0,000000;0,000000;0,000000;0,000000;0,000000;0,331228;0,331228;0,000000;0,000000;
38;;;;;;;;;;;;;;;;;;;;;;;;;;;;;;;;;;;;;;1,000000;0,000000;0,177666;0,177666;0,000000;0,000000;0,000000;0,000000;0,184352;0,000000;0,000000;0,000000;0,000000;0,172994;0,000000;0,172994;0,000000;0,000000;0,000000;0,000000;0,000000;0,195189;0,000000;0,000000;0,000000;0,000000;0,000000;0,000000;0,000000;0,000000;0,000000;0,000000;0,000000;0,000000;0,000000;0,000000;0,000000;0,000000;0,000000;0,000000;0,000000;0,000000;0,000000;0,000000;0,000000;0,000000;0,000000;0,000000;0,000000;0,223254;0,000000;0,000000;0,000000;0,000000;0,000000;0,000000;0,000000;0,000000;0,000000;0,000000;0,000000;0,000000;0,000000;0,000000;0,000000;0,000000;0,000000;0,000000;0,000000;0,000000;0,000000;0,000000;0,000000;0,000000;0,000000;0,000000;0,375000;0,000000;0,000000;0,000000;0,000000;0,000000;0,291667;0,625000;0,000000;0,000000;0,000000;0,000000;0,000000;0,000000;0,000000;0,375000;0,375000;0,000000;0,000000;
39;;;;;;;;;;;;;;;;;;;;;;;;;;;;;;;;;;;;;;;1,000000;0,287066;0,287066;0,746166;0,371166;0,374496;0,390452;0,388788;0,496166;0,427353;0,643550;0,917408;0,346008;0,371166;0,346008;0,611588;0,655642;0,655642;0,621166;0,496166;0,415801;0,428112;0,761870;0,496166;0,496166;0,412833;0,412833;0,412833;0,750742;0,547282;0,412833;0,502359;0,449184;0,412833;0,696741;0,514389;0,567877;0,371166;0,346166;0,412833;0,489300;0,487431;0,465143;0,465143;0,746166;0,412833;0,412833;0,449184;0,320102;0,496166;0,496166;0,465143;0,412833;0,449184;0,502359;0,412833;0,478445;0,412833;0,465143;0,000000;0,000000;0,000000;0,496166;0,380873;0,380873;0,346166;0,496166;0,412833;0,412833;0,412833;0,412833;0,412833;0,515143;0,515143;0,412833;0,000000;0,765143;0,598477;0,342624;0,342624;0,342624;0,000000;0,000000;0,746166;0,496166;0,496166;0,496166;0,412833;0,412833;0,412833;0,000000;0,000000;0,496166;0,917408;
40;;;;;;;;;;;;;;;;;;;;;;;;;;;;;;;;;;;;;;;;1,000000;0,800000;0,540900;0,165900;0,169229;0,185185;0,735916;0,290900;0,404851;0,303501;0,290900;0,341850;0,335215;0,341850;0,215900;0,165900;0,165900;0,415900;0,585215;0,636465;0,222846;0,290900;0,290900;0,585215;0,207567;0,207567;0,207567;0,418549;0,429535;0,418549;0,297093;0,243917;0,207567;0,188962;0,165523;0,192267;0,386119;0,140900;0,470782;0,152978;0,152044;0,140900;0,140900;0,540900;0,470782;0,418549;0,542154;0,266667;0,585215;0,290900;0,140900;0,207567;0,243917;0,297093;0,207567;0,185185;0,207567;0,140900;0,000000;0,000000;0,000000;0,637449;0,175607;0,175607;0,140900;0,290900;0,207567;0,207567;0,207567;0,207567;0,207567;0,165900;0,165900;0,469452;0,302666;0,290900;0,207567;0,000000;0,000000;0,000000;0,483333;0,552666;0,540900;0,290900;0,290900;0,290900;0,207567;0,207567;0,207567;0,302666;0,302666;0,290900;0,290900;
41;;;;;;;;;;;;;;;;;;;;;;;;;;;;;;;;;;;;;;;;;1,000000;0,540900;0,165900;0,169229;0,185185;0,735916;0,290900;0,404851;0,303501;0,290900;0,341850;0,335215;0,341850;0,215900;0,165900;0,165900;0,415900;0,585215;0,636465;0,222846;0,290900;0,290900;0,585215;0,207567;0,207567;0,207567;0,418549;0,429535;0,418549;0,297093;0,243917;0,207567;0,188962;0,165523;0,192267;0,386119;0,140900;0,470782;0,152978;0,152044;0,140900;0,140900;0,540900;0,470782;0,418549;0,542154;0,266667;0,585215;0,290900;0,140900;0,207567;0,243917;0,297093;0,207567;0,185185;0,207567;0,140900;0,000000;0,000000;0,000000;0,637449;0,175607;0,175607;0,140900;0,290900;0,207567;0,207567;0,207567;0,207567;0,207567;0,165900;0,165900;0,469452;0,302666;0,290900;0,207567;0,000000;0,000000;0,000000;0,483333;0,552666;0,540900;0,290900;0,290900;0,290900;0,207567;0,207567;0,207567;0,302666;0,302666;0,290900;0,290900;
42;;;;;;;;;;;;;;;;;;;;;;;;;;;;;;;;;;;;;;;;;;1,000000;0,625000;0,628329;0,644285;0,558337;0,750000;0,681187;0,762601;0,750000;0,599841;0,625000;0,599841;0,675000;0,625000;0,625000;0,875000;0,750000;0,669635;0,681946;0,750000;0,750000;0,750000;0,666667;0,666667;0,666667;0,666667;0,727867;0,666667;0,756193;0,703017;0,666667;0,648062;0,624623;0,651367;0,625000;0,600000;0,666667;0,612078;0,611144;0,600000;0,600000;1,000000;0,666667;0,666667;0,703017;0,573936;0,750000;0,750000;0,600000;0,666667;0,703017;0,756193;0,666667;0,644285;0,666667;0,600000;0,000000;0,000000;0,000000;0,750000;0,634707;0,634707;0,600000;0,750000;0,666667;0,666667;0,666667;0,666667;0,666667;0,625000;0,625000;0,666667;0,000000;0,750000;0,666667;0,000000;0,000000;0,000000;0,000000;0,000000;1,000000;0,750000;0,750000;0,750000;0,666667;0,666667;0,666667;0,000000;0,000000;0,750000;0,750000;
43;;;;;;;;;;;;;;;;;;;;;;;;;;;;;;;;;;;;;;;;;;;1,000000;0,689641;0,807855;0,183337;0,375000;0,306187;0,749062;0,375000;0,224841;0,250000;0,224841;0,300000;0,250000;0,250000;0,500000;0,375000;0,294635;0,306946;0,375000;0,750000;0,375000;0,291667;0,291667;0,291667;0,291667;0,352867;0,291667;0,381193;0,328017;0,291667;0,273062;0,249623;0,276367;0,250000;0,225000;0,291667;0,237078;0,236144;0,225000;0,225000;0,625000;0,291667;0,291667;0,328017;0,198936;0,375000;0,375000;0,225000;0,291667;0,328017;0,381193;0,291667;0,269285;0,291667;0,225000;0,000000;0,000000;0,000000;0,375000;0,718681;0,718681;0,675000;0,375000;0,291667;0,291667;0,291667;0,291667;0,291667;0,250000;0,250000;0,291667;0,000000;0,375000;0,291667;0,000000;0,000000;0,000000;0,000000;0,000000;0,625000;0,375000;0,375000;0,375000;0,291667;0,291667;0,291667;0,000000;0,000000;0,375000;0,375000;
44;;;;;;;;;;;;;;;;;;;;;;;;;;;;;;;;;;;;;;;;;;;;1,000000;0,640008;0,186666;0,378329;0,309516;0,609118;0,378329;0,228170;0,253329;0,228170;0,303329;0,253329;0,253329;0,503329;0,378329;0,297964;0,310275;0,378329;0,756658;0,378329;0,294996;0,294996;0,294996;0,294996;0,356196;0,294996;0,384522;0,331347;0,294996;0,276391;0,252952;0,279696;0,253329;0,228329;0,294996;0,240407;0,239473;0,228329;0,228329;0,628329;0,294996;0,294996;0,331347;0,202265;0,378329;0,378329;0,228329;0,294996;0,331347;0,384522;0,294996;0,272614;0,294996;0,228329;0,000000;0,000000;0,000000;0,378329;0,770443;0,770443;0,749586;0,378329;0,294996;0,294996;0,294996;0,294996;0,294996;0,253329;0,253329;0,294996;0,000000;0,378329;0,294996;0,000000;0,000000;0,000000;0,000000;0,000000;0,628329;0,378329;0,378329;0,378329;0,294996;0,294996;0,294996;0,000000;0,000000;0,660992;0,378329;
45;;;;;;;;;;;;;;;;;;;;;;;;;;;;;;;;;;;;;;;;;;;;;1,000000;0,202622;0,394285;0,325472;0,806918;0,394285;0,244126;0,269285;0,244126;0,319285;0,269285;0,269285;0,519285;0,394285;0,313920;0,326231;0,394285;0,788570;0,394285;0,310952;0,310952;0,310952;0,310952;0,372152;0,310952;0,400478;0,347303;0,310952;0,292347;0,268908;0,295652;0,269285;0,244285;0,310952;0,256363;0,255429;0,244285;0,244285;0,644285;0,310952;0,310952;0,347303;0,218221;0,394285;0,394285;0,244285;0,310952;0,347303;0,400478;0,310952;0,288570;0,310952;0,244285;0,000000;0,000000;0,000000;0,394285;0,776537;0,776537;0,732855;0,394285;0,310952;0,310952;0,310952;0,310952;0,310952;0,269285;0,269285;0,310952;0,000000;0,394285;0,310952;0,000000;0,000000;0,000000;0,000000;0,000000;0,644285;0,394285;0,394285;0,394285;0,310952;0,310952;0,310952;0,000000;0,000000;0,394285;0,394285;
46;;;;;;;;;;;;;;;;;;;;;;;;;;;;;;;;;;;;;;;;;;;;;;1,000000;0,308337;0,239524;0,502052;0,308337;0,267629;0,183337;0,267629;0,233337;0,183337;0,183337;0,433337;0,308337;0,369596;0,240283;0,308337;0,308337;0,308337;0,225004;0,225004;0,225004;0,225004;0,405783;0,225004;0,314530;0,261355;0,225004;0,364975;0,372890;0,426378;0,368789;0,158337;0,452930;0,347801;0,345933;0,323645;0,323645;0,558337;0,452930;0,225004;0,524824;0,286263;0,308337;0,308337;0,323645;0,225004;0,261355;0,314530;0,225004;0,336947;0,225004;0,323645;0,000000;0,000000;0,000000;0,619596;0,193044;0,193044;0,158337;0,308337;0,225004;0,225004;0,225004;0,225004;0,225004;0,373645;0,373645;0,452122;0,309352;0,623645;0,456978;0,000000;0,000000;0,000000;0,452037;0,559352;0,558337;0,308337;0,308337;0,308337;0,225004;0,225004;0,225004;0,309352;0,309352;0,308337;0,308337;
47;;;;;;;;;;;;;;;;;;;;;;;;;;;;;;;;;;;;;;;;;;;;;;;1,000000;0,431187;0,512601;0,500000;0,349841;0,375000;0,349841;0,425000;0,375000;0,375000;0,625000;0,500000;0,419635;0,431946;0,500000;0,500000;0,500000;0,416667;0,416667;0,416667;0,416667;0,477867;0,416667;0,506193;0,453017;0,416667;0,398062;0,374623;0,401367;0,375000;0,350000;0,416667;0,362078;0,361144;0,350000;0,350000;0,750000;0,416667;0,833333;0,453017;0,323936;0,500000;0,500000;0,350000;0,416667;0,453017;0,506193;0,416667;0,394285;0,416667;0,350000;0,000000;0,000000;0,000000;0,500000;0,384707;0,384707;0,350000;0,500000;0,416667;0,416667;0,416667;0,416667;0,416667;0,375000;0,375000;0,416667;0,000000;0,500000;0,416667;0,000000;0,000000;0,000000;0,000000;0,000000;0,750000;1,000000;0,500000;0,500000;0,416667;0,416667;0,416667;0,000000;0,000000;0,500000;0,500000;
48;;;;;;;;;;;;;;;;;;;;;;;;;;;;;;;;;;;;;;;;;;;;;;;;1,000000;0,443788;0,431187;0,485979;0,569636;0,485979;0,356187;0,306187;0,306187;0,556187;0,819636;0,750741;0,363133;0,431187;0,431187;0,819636;0,347854;0,347854;0,347854;0,652969;0,663956;0,652969;0,437380;0,384204;0,347854;0,329249;0,305810;0,332554;0,306187;0,281187;0,347854;0,293265;0,292331;0,281187;0,281187;0,681187;0,347854;0,652969;0,384204;0,255123;0,819636;0,431187;0,281187;0,347854;0,384204;0,437380;0,347854;0,325472;0,347854;0,281187;0,000000;0,000000;0,000000;0,431187;0,315894;0,315894;0,281187;0,431187;0,347854;0,347854;0,347854;0,347854;0,347854;0,306187;0,306187;0,347854;0,000000;0,431187;0,347854;0,000000;0,000000;0,000000;0,000000;0,000000;0,681187;0,431187;0,431187;0,431187;0,347854;0,347854;0,347854;0,000000;0,000000;0,431187;0,431187;
49;;;;;;;;;;;;;;;;;;;;;;;;;;;;;;;;;;;;;;;;;;;;;;;;;1,000000;0,512601;0,362442;0,387601;0,362442;0,437601;0,387601;0,387601;0,637601;0,512601;0,432235;0,444546;0,512601;0,852459;0,512601;0,429267;0,429267;0,429267;0,429267;0,660545;0,429267;0,518793;0,465618;0,429267;0,619736;0,627652;0,681140;0,387601;0,362601;0,429267;0,602563;0,600694;0,578407;0,578407;0,762601;0,429267;0,429267;0,465618;0,336537;0,512601;0,512601;0,578407;0,429267;0,465618;0,518793;0,429267;0,591709;0,429267;0,578407;0,000000;0,000000;0,000000;0,512601;0,717744;0,717744;0,674062;0,512601;0,429267;0,429267;0,429267;0,429267;0,429267;0,628407;0,628407;0,429267;0,000000;0,878407;0,711740;0,000000;0,000000;0,000000;0,000000;0,000000;0,762601;0,512601;0,512601;0,512601;0,429267;0,429267;0,429267;0,000000;0,000000;0,512601;0,512601;
50;;;;;;;;;;;;;;;;;;;;;;;;;;;;;;;;;;;;;;;;;;;;;;;;;;1,000000;0,349841;0,375000;0,349841;0,425000;0,375000;0,375000;0,625000;0,500000;0,419635;0,431946;0,500000;0,500000;0,500000;0,416667;0,416667;0,416667;0,833333;0,477867;0,416667;0,506193;0,453017;0,416667;0,669042;0,374623;0,401367;0,375000;0,350000;0,416667;0,362078;0,361144;0,350000;0,350000;0,750000;0,416667;0,416667;0,453017;0,323936;0,500000;0,500000;0,350000;0,416667;0,453017;0,506193;0,416667;0,394285;0,416667;0,350000;0,000000;0,000000;0,000000;0,500000;0,384707;0,384707;0,350000;0,500000;0,416667;0,416667;0,416667;0,416667;0,416667;0,375000;0,375000;0,416667;0,000000;0,500000;0,416667;0,416667;0,416667;0,416667;0,000000;0,000000;0,750000;0,500000;0,500000;0,500000;0,416667;0,416667;0,416667;0,000000;0,000000;0,500000;1,000000;
51;;;;;;;;;;;;;;;;;;;;;;;;;;;;;;;;;;;;;;;;;;;;;;;;;;;1,000000;0,653627;0,703536;0,274841;0,224841;0,224841;0,474841;0,666343;0,705385;0,281787;0,349841;0,349841;0,666343;0,266508;0,266508;0,266508;0,499676;0,510663;0,499676;0,356034;0,302859;0,266508;0,247903;0,224464;0,251208;0,224841;0,199841;0,266508;0,211920;0,210985;0,199841;0,199841;0,599841;0,266508;0,499676;0,302859;0,629620;0,666343;0,349841;0,199841;0,266508;0,302859;0,356034;0,266508;0,244126;0,266508;0,199841;0,000000;0,000000;0,000000;0,349841;0,234548;0,234548;0,199841;0,349841;0,266508;0,266508;0,266508;0,266508;0,266508;0,224841;0,224841;0,266508;0,297994;0,349841;0,266508;0,000000;0,000000;0,000000;0,214661;0,547994;0,599841;0,349841;0,349841;0,349841;0,266508;0,266508;0,266508;0,297994;0,297994;0,349841;0,349841;
52;;;;;;;;;;;;;;;;;;;;;;;;;;;;;;;;;;;;;;;;;;;;;;;;;;;;1,000000;0,653627;0,300000;0,250000;0,250000;0,500000;0,750000;0,681105;0,306946;0,375000;0,375000;0,750000;0,291667;0,291667;0,291667;0,583333;0,594320;0,583333;0,381193;0,328017;0,291667;0,273062;0,249623;0,276367;0,250000;0,225000;0,291667;0,237078;0,236144;0,225000;0,225000;0,625000;0,291667;0,583333;0,328017;0,758112;0,750000;0,375000;0,225000;0,291667;0,328017;0,381193;0,291667;0,269285;0,291667;0,225000;0,000000;0,000000;0,000000;0,375000;0,259707;0,259707;0,225000;0,375000;0,291667;0,291667;0,291667;0,291667;0,291667;0,250000;0,250000;0,291667;0,000000;0,375000;0,291667;0,000000;0,000000;0,000000;0,000000;0,000000;0,625000;0,375000;0,375000;0,375000;0,291667;0,291667;0,291667;0,000000;0,000000;0,375000;0,375000;
53;;;;;;;;;;;;;;;;;;;;;;;;;;;;;;;;;;;;;;;;;;;;;;;;;;;;;1,000000;0,274841;0,224841;0,224841;0,474841;0,666343;0,705385;0,281787;0,349841;0,349841;0,666343;0,266508;0,266508;0,266508;0,499676;0,510663;0,499676;0,356034;0,302859;0,266508;0,247903;0,224464;0,251208;0,224841;0,199841;0,266508;0,211920;0,210985;0,199841;0,199841;0,599841;0,266508;0,499676;0,302859;0,629620;0,666343;0,349841;0,199841;0,266508;0,302859;0,356034;0,266508;0,244126;0,266508;0,199841;0,000000;0,000000;0,000000;0,349841;0,234548;0,234548;0,199841;0,349841;0,266508;0,266508;0,266508;0,266508;0,266508;0,224841;0,224841;0,266508;0,297994;0,349841;0,266508;0,000000;0,000000;0,000000;0,214661;0,547994;0,599841;0,349841;0,349841;0,349841;0,266508;0,266508;0,266508;0,297994;0,297994;0,349841;0,349841;
54;;;;;;;;;;;;;;;;;;;;;;;;;;;;;;;;;;;;;;;;;;;;;;;;;;;;;;1,000000;0,705604;0,705604;0,550000;0,425000;0,344635;0,356946;0,425000;0,425000;0,425000;0,341667;0,341667;0,341667;0,341667;0,402867;0,341667;0,431193;0,378017;0,341667;0,323062;0,299623;0,326367;0,300000;0,275000;0,341667;0,287078;0,286144;0,275000;0,275000;0,675000;0,341667;0,341667;0,378017;0,248936;0,425000;0,425000;0,275000;0,341667;0,378017;0,431193;0,341667;0,319285;0,341667;0,275000;0,000000;0,000000;0,000000;0,425000;0,309707;0,309707;0,275000;0,750000;0,341667;0,341667;0,341667;0,341667;0,341667;0,300000;0,300000;0,341667;0,000000;0,425000;0,341667;0,000000;0,000000;0,000000;0,000000;0,000000;0,675000;0,425000;0,425000;0,425000;0,341667;0,341667;0,341667;0,000000;0,000000;0,425000;0,425000;
55;;;;;;;;;;;;;;;;;;;;;;;;;;;;;;;;;;;;;;;;;;;;;;;;;;;;;;;1,000000;0,750000;0,500000;0,375000;0,294635;0,306946;0,750000;0,375000;0,375000;0,291667;0,291667;0,291667;0,291667;0,352867;0,291667;0,381193;0,328017;0,291667;0,273062;0,249623;0,276367;0,250000;0,225000;0,291667;0,237078;0,236144;0,225000;0,225000;0,625000;0,291667;0,291667;0,328017;0,198936;0,375000;0,375000;0,225000;0,291667;0,328017;0,381193;0,291667;0,269285;0,291667;0,225000;0,000000;0,000000;0,000000;0,375000;0,259707;0,259707;0,225000;0,750000;0,291667;0,291667;0,291667;0,291667;0,291667;0,250000;0,250000;0,291667;0,000000;0,375000;0,291667;0,000000;0,000000;0,000000;0,000000;0,000000;0,625000;0,375000;0,375000;0,375000;0,291667;0,291667;0,291667;0,000000;0,000000;0,375000;0,375000;
56;;;;;;;;;;;;;;;;;;;;;;;;;;;;;;;;;;;;;;;;;;;;;;;;;;;;;;;;1,000000;0,500000;0,375000;0,294635;0,306946;0,750000;0,375000;0,375000;0,291667;0,291667;0,291667;0,291667;0,352867;0,291667;0,381193;0,328017;0,291667;0,273062;0,249623;0,276367;0,250000;0,225000;0,291667;0,237078;0,236144;0,225000;0,225000;0,625000;0,291667;0,291667;0,328017;0,198936;0,375000;0,375000;0,225000;0,291667;0,328017;0,381193;0,291667;0,269285;0,291667;0,225000;0,000000;0,000000;0,000000;0,375000;0,259707;0,259707;0,225000;0,750000;0,291667;0,291667;0,291667;0,291667;0,291667;0,250000;0,250000;0,291667;0,000000;0,375000;0,291667;0,000000;0,000000;0,000000;0,000000;0,000000;0,625000;0,375000;0,375000;0,375000;0,291667;0,291667;0,291667;0,000000;0,000000;0,375000;0,375000;
57;;;;;;;;;;;;;;;;;;;;;;;;;;;;;;;;;;;;;;;;;;;;;;;;;;;;;;;;;1,000000;0,625000;0,544635;0,556946;0,625000;0,625000;0,625000;0,541667;0,541667;0,541667;0,541667;0,602867;0,541667;0,631193;0,578017;0,541667;0,523062;0,499623;0,526367;0,500000;0,475000;0,541667;0,487078;0,486144;0,475000;0,475000;0,875000;0,541667;0,541667;0,578017;0,448936;0,625000;0,625000;0,475000;0,541667;0,578017;0,631193;0,541667;0,519285;0,541667;0,475000;0,000000;0,000000;0,000000;0,625000;0,509707;0,509707;0,475000;0,625000;0,541667;0,541667;0,541667;0,541667;0,541667;0,500000;0,500000;0,541667;0,000000;0,625000;0,541667;0,000000;0,000000;0,000000;0,000000;0,000000;0,875000;0,625000;0,625000;0,625000;0,541667;0,541667;0,541667;0,000000;0,000000;0,625000;0,625000;
58;;;;;;;;;;;;;;;;;;;;;;;;;;;;;;;;;;;;;;;;;;;;;;;;;;;;;;;;;;1,000000;0,931105;0,431946;0,500000;0,500000;1,000000;0,416667;0,416667;0,416667;0,833333;0,844320;0,833333;0,506193;0,453017;0,416667;0,398062;0,374623;0,401367;0,375000;0,350000;0,416667;0,362078;0,361144;0,350000;0,350000;0,750000;0,416667;0,833333;0,453017;0,323936;1,000000;0,500000;0,350000;0,416667;0,453017;0,506193;0,416667;0,394285;0,416667;0,350000;0,000000;0,000000;0,000000;0,500000;0,384707;0,384707;0,350000;0,500000;0,416667;0,416667;0,416667;0,416667;0,416667;0,375000;0,375000;0,416667;0,000000;0,500000;0,416667;0,000000;0,000000;0,000000;0,000000;0,000000;0,750000;0,500000;0,500000;0,500000;0,416667;0,416667;0,416667;0,000000;0,000000;0,500000;0,500000;
59;;;;;;;;;;;;;;;;;;;;;;;;;;;;;;;;;;;;;;;;;;;;;;;;;;;;;;;;;;;1,000000;0,351580;0,419635;0,419635;0,931105;0,336301;0,336301;0,336301;0,764438;0,775425;0,764438;0,425828;0,372652;0,336301;0,317697;0,294257;0,321001;0,294635;0,269635;0,336301;0,281713;0,280779;0,269635;0,269635;0,669635;0,336301;0,764438;0,372652;0,416667;0,931105;0,419635;0,269635;0,336301;0,372652;0,425828;0,336301;0,313920;0,336301;0,269635;0,000000;0,000000;0,000000;0,419635;0,304342;0,304342;0,269635;0,419635;0,336301;0,336301;0,336301;0,336301;0,336301;0,294635;0,294635;0,336301;0,320189;0,419635;0,336301;0,000000;0,000000;0,000000;0,236856;0,570189;0,669635;0,419635;0,419635;0,419635;0,336301;0,336301;0,336301;0,320189;0,320189;0,419635;0,419635;
60;;;;;;;;;;;;;;;;;;;;;;;;;;;;;;;;;;;;;;;;;;;;;;;;;;;;;;;;;;;;1,000000;0,431946;0,431946;0,431946;0,348612;0,348612;0,348612;0,348612;0,409812;0,348612;0,438138;0,384963;0,348612;0,330007;0,306568;0,333312;0,306946;0,851989;0,348612;0,294024;0,293089;0,281946;0,281946;0,681946;0,348612;0,348612;0,384963;0,255881;0,431946;0,431946;0,281946;0,348612;0,384963;0,438138;0,348612;0,326231;0,348612;0,281946;0,000000;0,000000;0,000000;0,431946;0,316652;0,316652;0,281946;0,431946;0,348612;0,348612;0,348612;0,348612;0,348612;0,306946;0,306946;0,348612;0,000000;0,431946;0,559405;0,000000;0,000000;0,000000;0,000000;0,000000;0,681946;0,431946;0,431946;0,431946;0,348612;0,348612;0,348612;0,000000;0,000000;0,431946;0,431946;
61;;;;;;;;;;;;;;;;;;;;;;;;;;;;;;;;;;;;;;;;;;;;;;;;;;;;;;;;;;;;;1,000000;0,500000;0,500000;0,416667;0,416667;0,416667;0,416667;0,477867;0,416667;0,506193;0,453017;0,416667;0,398062;0,374623;0,401367;0,375000;0,350000;0,416667;0,362078;0,361144;0,350000;0,350000;0,750000;0,416667;0,416667;0,453017;0,323936;0,500000;0,500000;0,350000;0,416667;0,453017;0,506193;0,416667;0,394285;0,416667;0,350000;0,000000;0,000000;0,000000;0,500000;0,384707;0,384707;0,350000;0,500000;0,416667;0,416667;0,416667;0,416667;0,416667;0,375000;0,375000;0,416667;0,000000;0,500000;0,416667;0,000000;0,000000;0,000000;0,000000;0,000000;0,750000;0,500000;0,500000;0,500000;0,416667;0,416667;0,416667;0,000000;0,000000;0,500000;0,500000;
62;;;;;;;;;;;;;;;;;;;;;;;;;;;;;;;;;;;;;;;;;;;;;;;;;;;;;;;;;;;;;;1,000000;0,500000;0,416667;0,416667;0,416667;0,416667;0,477867;0,416667;0,506193;0,453017;0,416667;0,398062;0,374623;0,401367;0,375000;0,350000;0,416667;0,362078;0,361144;0,350000;0,350000;0,750000;0,416667;0,416667;0,453017;0,323936;0,500000;0,500000;0,350000;0,416667;0,453017;0,506193;0,416667;0,394285;0,416667;0,350000;0,000000;0,000000;0,000000;0,500000;0,769413;0,769413;0,700000;0,500000;0,416667;0,416667;0,416667;0,416667;0,416667;0,375000;0,375000;0,416667;0,000000;0,500000;0,416667;0,000000;0,000000;0,000000;0,000000;0,000000;0,750000;0,500000;0,500000;0,500000;0,416667;0,416667;0,416667;0,000000;0,000000;0,500000;0,500000;
63;;;;;;;;;;;;;;;;;;;;;;;;;;;;;;;;;;;;;;;;;;;;;;;;;;;;;;;;;;;;;;;1,000000;0,416667;0,416667;0,416667;0,833333;0,844320;0,833333;0,506193;0,453017;0,416667;0,398062;0,374623;0,401367;0,375000;0,350000;0,416667;0,362078;0,361144;0,350000;0,350000;0,750000;0,416667;0,833333;0,453017;0,323936;1,000000;0,500000;0,350000;0,416667;0,453017;0,506193;0,416667;0,394285;0,416667;0,350000;0,000000;0,000000;0,000000;0,500000;0,384707;0,384707;0,350000;0,500000;0,416667;0,416667;0,416667;0,416667;0,416667;0,375000;0,375000;0,416667;0,000000;0,500000;0,416667;0,000000;0,000000;0,000000;0,000000;0,000000;0,750000;0,500000;0,500000;0,500000;0,416667;0,416667;0,416667;0,000000;0,000000;0,500000;0,500000;
64;;;;;;;;;;;;;;;;;;;;;;;;;;;;;;;;;;;;;;;;;;;;;;;;;;;;;;;;;;;;;;;;1,000000;0,666667;0,666667;0,333333;0,394533;0,333333;0,422859;0,369684;0,333333;0,314728;0,291289;0,318033;0,291667;0,266667;0,333333;0,278745;0,277810;0,266667;0,266667;0,666667;0,333333;0,333333;0,369684;0,240603;0,416667;0,416667;0,266667;0,333333;0,369684;0,422859;0,333333;0,310952;0,333333;0,266667;0,000000;0,000000;0,000000;0,416667;0,301373;0,301373;0,266667;0,416667;0,333333;0,333333;0,333333;0,333333;0,333333;0,291667;0,291667;0,333333;0,000000;0,416667;0,333333;0,000000;0,000000;0,000000;0,000000;0,000000;0,666667;0,416667;0,416667;0,416667;0,333333;0,333333;0,333333;0,000000;0,000000;0,416667;0,416667;
65;;;;;;;;;;;;;;;;;;;;;;;;;;;;;;;;;;;;;;;;;;;;;;;;;;;;;;;;;;;;;;;;;1,000000;0,666667;0,333333;0,394533;0,333333;0,422859;0,369684;0,333333;0,314728;0,291289;0,318033;0,291667;0,266667;0,333333;0,278745;0,277810;0,266667;0,266667;0,666667;0,333333;0,333333;0,369684;0,240603;0,416667;0,416667;0,266667;0,333333;0,369684;0,422859;0,333333;0,310952;0,333333;0,266667;0,000000;0,000000;0,000000;0,416667;0,301373;0,301373;0,266667;0,416667;0,333333;0,333333;0,333333;0,333333;0,333333;0,291667;0,291667;0,333333;0,000000;0,416667;0,333333;0,000000;0,000000;0,000000;0,000000;0,000000;0,666667;0,416667;0,416667;0,416667;0,333333;0,333333;0,333333;0,000000;0,000000;0,416667;0,416667;
66;;;;;;;;;;;;;;;;;;;;;;;;;;;;;;;;;;;;;;;;;;;;;;;;;;;;;;;;;;;;;;;;;;1,000000;0,333333;0,394533;0,333333;0,422859;0,369684;0,333333;0,314728;0,291289;0,318033;0,291667;0,266667;0,333333;0,278745;0,277810;0,266667;0,266667;0,666667;0,333333;0,333333;0,369684;0,240603;0,416667;0,416667;0,266667;0,333333;0,369684;0,422859;0,333333;0,310952;0,333333;0,266667;0,000000;0,000000;0,000000;0,416667;0,301373;0,301373;0,266667;0,416667;0,333333;0,333333;0,333333;0,333333;0,333333;0,291667;0,291667;0,333333;0,000000;0,416667;0,333333;0,000000;0,000000;0,000000;0,000000;0,000000;0,666667;0,416667;0,416667;0,416667;0,333333;0,333333;0,333333;0,000000;0,000000;0,416667;0,416667;
67;;;;;;;;;;;;;;;;;;;;;;;;;;;;;;;;;;;;;;;;;;;;;;;;;;;;;;;;;;;;;;;;;;;1,000000;0,677653;0,666667;0,422859;0,369684;0,333333;0,502375;0,291289;0,318033;0,291667;0,266667;0,333333;0,278745;0,277810;0,266667;0,266667;0,666667;0,333333;0,666667;0,369684;0,240603;0,833333;0,416667;0,266667;0,333333;0,369684;0,422859;0,333333;0,310952;0,333333;0,266667;0,000000;0,000000;0,000000;0,416667;0,301373;0,301373;0,266667;0,416667;0,333333;0,333333;0,333333;0,333333;0,333333;0,291667;0,291667;0,333333;0,000000;0,416667;0,333333;0,333333;0,333333;0,333333;0,000000;0,000000;0,666667;0,416667;0,416667;0,416667;0,333333;0,333333;0,333333;0,000000;0,000000;0,416667;0,833333;
68;;;;;;;;;;;;;;;;;;;;;;;;;;;;;;;;;;;;;;;;;;;;;;;;;;;;;;;;;;;;;;;;;;;;1,000000;0,677653;0,484060;0,430884;0,394533;0,632926;0,663305;0,584872;0,352867;0,327867;0,394533;0,506295;0,655823;0,641953;0,641953;0,727867;0,394533;0,677653;0,430884;0,301803;0,844320;0,477867;0,641953;0,394533;0,430884;0,484060;0,394533;0,495440;0,394533;0,641953;0,000000;0,000000;0,000000;0,477867;0,362573;0,362573;0,327867;0,477867;0,394533;0,394533;0,394533;0,394533;0,394533;0,532138;0,532138;0,394533;0,000000;0,782138;0,615472;0,000000;0,000000;0,000000;0,000000;0,000000;0,727867;0,477867;0,477867;0,477867;0,394533;0,394533;0,394533;0,000000;0,000000;0,477867;0,477867;
69;;;;;;;;;;;;;;;;;;;;;;;;;;;;;;;;;;;;;;;;;;;;;;;;;;;;;;;;;;;;;;;;;;;;;1,000000;0,422859;0,369684;0,333333;0,314728;0,291289;0,318033;0,291667;0,266667;0,333333;0,459776;0,277810;0,266667;0,266667;0,666667;0,333333;0,666667;0,369684;0,240603;0,833333;0,416667;0,266667;0,333333;0,369684;0,422859;0,333333;0,310952;0,333333;0,266667;0,000000;0,000000;0,000000;0,416667;0,301373;0,301373;0,266667;0,416667;0,333333;0,333333;0,333333;0,333333;0,333333;0,291667;0,291667;0,333333;0,000000;0,416667;0,333333;0,000000;0,000000;0,000000;0,000000;0,000000;0,666667;0,416667;0,416667;0,416667;0,333333;0,333333;0,333333;0,000000;0,000000;0,416667;0,416667;
70;;;;;;;;;;;;;;;;;;;;;;;;;;;;;;;;;;;;;;;;;;;;;;;;;;;;;;;;;;;;;;;;;;;;;;1,000000;0,632816;0,754572;0,404255;0,380815;0,407559;0,381193;0,356193;0,422859;0,368271;0,367337;0,356193;0,356193;0,756193;0,422859;0,422859;0,459210;0,330129;0,506193;0,506193;0,356193;0,422859;0,459210;0,512386;0,422859;0,400478;0,422859;0,356193;0,000000;0,000000;0,000000;0,506193;0,390900;0,390900;0,356193;0,506193;0,422859;0,422859;0,422859;0,422859;0,422859;0,381193;0,381193;0,422859;0,000000;0,506193;0,422859;0,000000;0,000000;0,000000;0,000000;0,000000;0,756193;0,506193;0,506193;0,506193;0,422859;0,422859;0,422859;0,000000;0,000000;0,506193;0,506193;
71;;;;;;;;;;;;;;;;;;;;;;;;;;;;;;;;;;;;;;;;;;;;;;;;;;;;;;;;;;;;;;;;;;;;;;;1,000000;0,739368;0,351079;0,327640;0,354384;0,328017;0,303017;0,369684;0,315096;0,314161;0,303017;0,303017;0,703017;0,369684;0,369684;0,406035;0,276953;0,453017;0,453017;0,303017;0,369684;0,406035;0,459210;0,369684;0,347303;0,369684;0,303017;0,000000;0,000000;0,000000;0,453017;0,337724;0,337724;0,303017;0,453017;0,369684;0,369684;0,369684;0,369684;0,369684;0,328017;0,328017;0,369684;0,000000;0,453017;0,369684;0,000000;0,000000;0,000000;0,000000;0,000000;0,703017;0,453017;0,453017;0,453017;0,369684;0,369684;0,369684;0,000000;0,000000;0,453017;0,453017;
72;;;;;;;;;;;;;;;;;;;;;;;;;;;;;;;;;;;;;;;;;;;;;;;;;;;;;;;;;;;;;;;;;;;;;;;;1,000000;0,314728;0,291289;0,318033;0,291667;0,266667;0,333333;0,278745;0,277810;0,266667;0,266667;0,666667;0,333333;0,333333;0,369684;0,240603;0,416667;0,416667;0,266667;0,333333;0,369684;0,422859;0,333333;0,310952;0,333333;0,266667;0,000000;0,000000;0,000000;0,416667;0,301373;0,301373;0,266667;0,416667;0,333333;0,333333;0,333333;0,333333;0,333333;0,291667;0,291667;0,333333;0,000000;0,416667;0,333333;0,000000;0,000000;0,000000;0,000000;0,000000;0,666667;0,416667;0,416667;0,416667;0,333333;0,333333;0,333333;0,000000;0,000000;0,416667;0,416667;
73;;;;;;;;;;;;;;;;;;;;;;;;;;;;;;;;;;;;;;;;;;;;;;;;;;;;;;;;;;;;;;;;;;;;;;;;;1,000000;0,776208;0,791776;0,273062;0,248062;0,314728;0,799376;0,812683;0,914455;0,787939;0,648062;0,314728;0,314728;0,351079;0,221998;0,398062;0,398062;0,787939;0,314728;0,351079;0,404255;0,314728;0,454631;0,314728;0,901323;0,000000;0,000000;0,000000;0,398062;0,282768;0,282768;0,248062;0,398062;0,314728;0,314728;0,314728;0,314728;0,314728;0,491330;0,491330;0,314728;0,000000;0,741330;0,574663;0,190138;0,190138;0,190138;0,000000;0,000000;0,648062;0,398062;0,398062;0,398062;0,314728;0,314728;0,314728;0,000000;0,000000;0,398062;0,669042;
74;;;;;;;;;;;;;;;;;;;;;;;;;;;;;;;;;;;;;;;;;;;;;;;;;;;;;;;;;;;;;;;;;;;;;;;;;;1,000000;0,653641;0,249623;0,224623;0,291289;0,791890;0,785838;0,774586;0,775429;0,624623;0,291289;0,291289;0,327640;0,198558;0,374623;0,681110;0,782385;0,291289;0,327640;0,380815;0,291289;0,462547;0,291289;0,736005;0,000000;0,000000;0,000000;0,374623;0,259329;0,259329;0,224623;0,374623;0,291289;0,291289;0,291289;0,291289;0,291289;0,499245;0,499245;0,291289;0,000000;0,749245;0,582579;0,000000;0,000000;0,000000;0,000000;0,000000;0,624623;0,374623;0,374623;0,374623;0,291289;0,291289;0,291289;0,000000;0,000000;0,374623;0,374623;
75;;;;;;;;;;;;;;;;;;;;;;;;;;;;;;;;;;;;;;;;;;;;;;;;;;;;;;;;;;;;;;;;;;;;;;;;;;;1,000000;0,276367;0,251367;0,318033;0,862939;0,863918;0,754100;0,900000;0,651367;0,318033;0,318033;0,354384;0,225302;0,401367;0,699513;0,851246;0,318033;0,354384;0,407559;0,318033;0,516035;0,318033;0,754100;0,000000;0,000000;0,000000;0,401367;0,286073;0,286073;0,251367;0,401367;0,318033;0,318033;0,318033;0,318033;0,318033;0,552733;0,552733;0,318033;0,000000;0,802733;0,636067;0,000000;0,000000;0,000000;0,000000;0,000000;0,651367;0,401367;0,401367;0,401367;0,318033;0,318033;0,318033;0,000000;0,000000;0,401367;0,401367;
76;;;;;;;;;;;;;;;;;;;;;;;;;;;;;;;;;;;;;;;;;;;;;;;;;;;;;;;;;;;;;;;;;;;;;;;;;;;;1,000000;0,225000;0,291667;0,237078;0,236144;0,225000;0,225000;0,625000;0,291667;0,291667;0,656035;0,198936;0,375000;0,375000;0,225000;0,291667;0,328017;0,381193;0,291667;0,269285;0,291667;0,225000;0,000000;0,000000;0,000000;0,375000;0,259707;0,259707;0,225000;0,375000;0,291667;0,291667;0,291667;0,291667;0,291667;0,250000;0,250000;0,583333;0,000000;0,375000;0,291667;0,000000;0,000000;0,000000;0,000000;0,000000;0,625000;0,375000;0,375000;0,375000;0,291667;0,291667;0,291667;0,000000;0,000000;0,375000;0,375000;
77;;;;;;;;;;;;;;;;;;;;;;;;;;;;;;;;;;;;;;;;;;;;;;;;;;;;;;;;;;;;;;;;;;;;;;;;;;;;;1,000000;0,266667;0,212078;0,211144;0,200000;0,200000;0,600000;0,266667;0,266667;0,303017;0,173936;0,350000;0,350000;0,200000;0,266667;0,303017;0,356193;0,266667;0,244285;0,266667;0,200000;0,000000;0,000000;0,000000;0,350000;0,234707;0,234707;0,200000;0,350000;0,266667;0,266667;0,266667;0,266667;0,266667;0,225000;0,225000;0,266667;0,000000;0,350000;0,533333;0,000000;0,000000;0,000000;0,000000;0,000000;0,600000;0,350000;0,350000;0,350000;0,266667;0,266667;0,266667;0,000000;0,000000;0,350000;0,350000;
78;;;;;;;;;;;;;;;;;;;;;;;;;;;;;;;;;;;;;;;;;;;;;;;;;;;;;;;;;;;;;;;;;;;;;;;;;;;;;;1,000000;0,278745;0,277810;0,266667;0,266667;0,666667;1,000000;0,333333;0,369684;0,240603;0,416667;0,416667;0,266667;0,333333;0,369684;0,422859;0,333333;0,310952;0,333333;0,266667;0,000000;0,000000;0,000000;0,833333;0,301373;0,301373;0,266667;0,416667;0,333333;0,333333;0,333333;0,333333;0,333333;0,291667;0,291667;0,333333;0,000000;0,416667;0,333333;0,000000;0,000000;0,000000;0,666667;0,000000;0,666667;0,416667;0,416667;0,416667;0,333333;0,333333;0,333333;0,000000;0,000000;0,416667;0,416667;
79;;;;;;;;;;;;;;;;;;;;;;;;;;;;;;;;;;;;;;;;;;;;;;;;;;;;;;;;;;;;;;;;;;;;;;;;;;;;;;;1,000000;0,799282;0,783624;0,762939;0,612078;0,278745;0,278745;0,315096;0,186014;0,362078;0,652521;0,772513;0,278745;0,315096;0,368271;0,278745;0,437458;0,278745;0,743631;0,000000;0,000000;0,000000;0,362078;0,246785;0,246785;0,212078;0,362078;0,278745;0,278745;0,278745;0,278745;0,278745;0,474156;0,474156;0,278745;0,000000;0,724156;0,557490;0,000000;0,000000;0,000000;0,000000;0,000000;0,612078;0,362078;0,362078;0,362078;0,278745;0,278745;0,278745;0,000000;0,000000;0,362078;0,362078;
80;;;;;;;;;;;;;;;;;;;;;;;;;;;;;;;;;;;;;;;;;;;;;;;;;;;;;;;;;;;;;;;;;;;;;;;;;;;;;;;;1,000000;0,824744;0,955378;0,611144;0,277810;0,277810;0,314161;0,185080;0,361144;0,643140;0,906349;0,277810;0,314161;0,367337;0,277810;0,435589;0,277810;0,824744;0,000000;0,000000;0,000000;0,361144;0,245850;0,245850;0,211144;0,361144;0,277810;0,277810;0,277810;0,277810;0,277810;0,472287;0,472287;0,277810;0,000000;0,722287;0,555621;0,000000;0,000000;0,000000;0,000000;0,000000;0,611144;0,361144;0,361144;0,361144;0,277810;0,277810;0,277810;0,000000;0,000000;0,361144;0,361144;
81;;;;;;;;;;;;;;;;;;;;;;;;;;;;;;;;;;;;;;;;;;;;;;;;;;;;;;;;;;;;;;;;;;;;;;;;;;;;;;;;;1,000000;0,800000;0,600000;0,266667;0,266667;0,303017;0,173936;0,350000;0,350000;0,800000;0,266667;0,303017;0,356193;0,266667;0,413302;0,266667;0,800000;0,000000;0,000000;0,000000;0,350000;0,234707;0,234707;0,200000;0,350000;0,266667;0,266667;0,266667;0,266667;0,266667;0,450000;0,450000;0,266667;0,000000;0,700000;0,533333;0,000000;0,000000;0,000000;0,000000;0,000000;0,600000;0,350000;0,350000;0,350000;0,266667;0,266667;0,266667;0,000000;0,000000;0,350000;0,350000;
82;;;;;;;;;;;;;;;;;;;;;;;;;;;;;;;;;;;;;;;;;;;;;;;;;;;;;;;;;;;;;;;;;;;;;;;;;;;;;;;;;;1,000000;0,600000;0,266667;0,266667;0,303017;0,173936;0,350000;0,700000;0,950971;0,266667;0,303017;0,356193;0,266667;0,413302;0,266667;0,800000;0,000000;0,000000;0,000000;0,350000;0,234707;0,234707;0,200000;0,350000;0,266667;0,266667;0,266667;0,266667;0,266667;0,450000;0,450000;0,266667;0,000000;0,700000;0,533333;0,000000;0,000000;0,000000;0,000000;0,000000;0,600000;0,350000;0,350000;0,350000;0,266667;0,266667;0,266667;0,000000;0,000000;0,350000;0,350000;
83;;;;;;;;;;;;;;;;;;;;;;;;;;;;;;;;;;;;;;;;;;;;;;;;;;;;;;;;;;;;;;;;;;;;;;;;;;;;;;;;;;;1,000000;0,666667;0,666667;0,703017;0,573936;0,750000;0,750000;0,600000;0,666667;0,703017;0,756193;0,666667;0,644285;0,666667;0,600000;0,000000;0,000000;0,000000;0,750000;0,634707;0,634707;0,600000;0,750000;0,666667;0,666667;0,666667;0,666667;0,666667;0,625000;0,625000;0,666667;0,000000;0,750000;0,666667;0,000000;0,000000;0,000000;0,000000;0,000000;1,000000;0,750000;0,750000;0,750000;0,666667;0,666667;0,666667;0,000000;0,000000;0,750000;0,750000;
84;;;;;;;;;;;;;;;;;;;;;;;;;;;;;;;;;;;;;;;;;;;;;;;;;;;;;;;;;;;;;;;;;;;;;;;;;;;;;;;;;;;;1,000000;0,333333;0,369684;0,240603;0,416667;0,416667;0,266667;0,333333;0,369684;0,422859;0,333333;0,310952;0,333333;0,266667;0,000000;0,000000;0,000000;0,833333;0,301373;0,301373;0,266667;0,416667;0,333333;0,333333;0,333333;0,333333;0,333333;0,291667;0,291667;0,333333;0,000000;0,416667;0,333333;0,000000;0,000000;0,000000;0,666667;0,000000;0,666667;0,416667;0,416667;0,416667;0,333333;0,333333;0,333333;0,000000;0,000000;0,416667;0,416667;
85;;;;;;;;;;;;;;;;;;;;;;;;;;;;;;;;;;;;;;;;;;;;;;;;;;;;;;;;;;;;;;;;;;;;;;;;;;;;;;;;;;;;;1,000000;0,369684;0,240603;0,833333;0,416667;0,266667;0,333333;0,369684;0,422859;0,333333;0,310952;0,333333;0,266667;0,000000;0,000000;0,000000;0,416667;0,301373;0,301373;0,266667;0,416667;0,333333;0,333333;0,333333;0,333333;0,333333;0,291667;0,291667;0,333333;0,000000;0,416667;0,333333;0,000000;0,000000;0,000000;0,000000;0,000000;0,666667;0,833333;0,416667;0,416667;0,333333;0,333333;0,333333;0,000000;0,000000;0,416667;0,416667;
86;;;;;;;;;;;;;;;;;;;;;;;;;;;;;;;;;;;;;;;;;;;;;;;;;;;;;;;;;;;;;;;;;;;;;;;;;;;;;;;;;;;;;;1,000000;0,276953;0,453017;0,453017;0,303017;0,369684;0,406035;0,459210;0,369684;0,347303;0,369684;0,303017;0,000000;0,000000;0,000000;0,453017;0,337724;0,337724;0,303017;0,453017;0,369684;0,369684;0,369684;0,369684;0,369684;0,328017;0,328017;0,739368;0,000000;0,453017;0,369684;0,000000;0,000000;0,000000;0,000000;0,000000;0,703017;0,453017;0,453017;0,453017;0,369684;0,369684;0,369684;0,000000;0,000000;0,453017;0,453017;
87;;;;;;;;;;;;;;;;;;;;;;;;;;;;;;;;;;;;;;;;;;;;;;;;;;;;;;;;;;;;;;;;;;;;;;;;;;;;;;;;;;;;;;;1,000000;0,323936;0,323936;0,173936;0,240603;0,276953;0,330129;0,240603;0,218221;0,240603;0,173936;0,000000;0,000000;0,000000;0,323936;0,208643;0,208643;0,173936;0,323936;0,240603;0,240603;0,240603;0,240603;0,240603;0,198936;0,198936;0,240603;0,348254;0,323936;0,240603;0,000000;0,000000;0,000000;0,264921;0,598254;0,573936;0,323936;0,323936;0,323936;0,240603;0,240603;0,240603;0,348254;0,348254;0,323936;0,323936;
88;;;;;;;;;;;;;;;;;;;;;;;;;;;;;;;;;;;;;;;;;;;;;;;;;;;;;;;;;;;;;;;;;;;;;;;;;;;;;;;;;;;;;;;;1,000000;0,500000;0,350000;0,416667;0,453017;0,506193;0,416667;0,394285;0,416667;0,350000;0,000000;0,000000;0,000000;0,500000;0,384707;0,384707;0,350000;0,500000;0,416667;0,416667;0,416667;0,416667;0,416667;0,375000;0,375000;0,416667;0,000000;0,500000;0,416667;0,000000;0,000000;0,000000;0,000000;0,000000;0,750000;0,500000;0,500000;0,500000;0,416667;0,416667;0,416667;0,000000;0,000000;0,500000;0,500000;
89;;;;;;;;;;;;;;;;;;;;;;;;;;;;;;;;;;;;;;;;;;;;;;;;;;;;;;;;;;;;;;;;;;;;;;;;;;;;;;;;;;;;;;;;;1,000000;0,652856;0,416667;0,453017;0,506193;0,416667;0,394285;0,416667;0,350000;0,000000;0,000000;0,000000;0,500000;0,384707;0,384707;0,350000;0,500000;0,416667;0,416667;0,416667;0,416667;0,416667;0,375000;0,375000;0,416667;0,000000;0,500000;0,416667;0,000000;0,000000;0,000000;0,000000;0,000000;0,750000;0,500000;0,500000;0,500000;0,416667;0,416667;0,416667;0,000000;0,000000;0,500000;0,500000;
90;;;;;;;;;;;;;;;;;;;;;;;;;;;;;;;;;;;;;;;;;;;;;;;;;;;;;;;;;;;;;;;;;;;;;;;;;;;;;;;;;;;;;;;;;;1,000000;0,266667;0,303017;0,356193;0,266667;0,413302;0,266667;0,800000;0,000000;0,000000;0,000000;0,350000;0,234707;0,234707;0,200000;0,350000;0,266667;0,266667;0,266667;0,266667;0,266667;0,450000;0,450000;0,266667;0,000000;0,700000;0,533333;0,000000;0,000000;0,000000;0,000000;0,000000;0,600000;0,350000;0,350000;0,350000;0,266667;0,266667;0,266667;0,000000;0,000000;0,350000;0,350000;
91;;;;;;;;;;;;;;;;;;;;;;;;;;;;;;;;;;;;;;;;;;;;;;;;;;;;;;;;;;;;;;;;;;;;;;;;;;;;;;;;;;;;;;;;;;;1,000000;0,739368;0,754572;0,333333;0,310952;0,333333;0,266667;0,000000;0,000000;0,000000;0,416667;0,301373;0,301373;0,266667;0,416667;0,333333;0,333333;0,333333;0,333333;0,333333;0,291667;0,291667;0,333333;0,000000;0,416667;0,333333;0,000000;0,000000;0,000000;0,000000;0,000000;0,666667;0,416667;0,416667;0,416667;0,333333;0,333333;0,333333;0,000000;0,000000;0,416667;0,416667;
92;;;;;;;;;;;;;;;;;;;;;;;;;;;;;;;;;;;;;;;;;;;;;;;;;;;;;;;;;;;;;;;;;;;;;;;;;;;;;;;;;;;;;;;;;;;;1,000000;0,632816;0,369684;0,347303;0,369684;0,303017;0,000000;0,000000;0,000000;0,453017;0,337724;0,337724;0,303017;0,453017;0,369684;0,369684;0,369684;0,369684;0,369684;0,328017;0,328017;0,369684;0,000000;0,453017;0,369684;0,000000;0,000000;0,000000;0,000000;0,000000;0,703017;0,453017;0,453017;0,453017;0,369684;0,369684;0,369684;0,000000;0,000000;0,453017;0,453017;
93;;;;;;;;;;;;;;;;;;;;;;;;;;;;;;;;;;;;;;;;;;;;;;;;;;;;;;;;;;;;;;;;;;;;;;;;;;;;;;;;;;;;;;;;;;;;;1,000000;0,422859;0,400478;0,422859;0,356193;0,000000;0,000000;0,000000;0,506193;0,390900;0,390900;0,356193;0,506193;0,422859;0,422859;0,422859;0,422859;0,422859;0,381193;0,381193;0,422859;0,000000;0,506193;0,422859;0,000000;0,000000;0,000000;0,000000;0,000000;0,756193;0,506193;0,506193;0,506193;0,422859;0,422859;0,422859;0,000000;0,000000;0,506193;0,506193;
94;;;;;;;;;;;;;;;;;;;;;;;;;;;;;;;;;;;;;;;;;;;;;;;;;;;;;;;;;;;;;;;;;;;;;;;;;;;;;;;;;;;;;;;;;;;;;;1,000000;0,561155;0,666667;0,266667;0,000000;0,000000;0,000000;0,416667;0,301373;0,301373;0,266667;0,416667;0,333333;0,333333;0,333333;0,333333;0,333333;0,583333;0,583333;0,333333;0,000000;0,416667;0,333333;0,000000;0,000000;0,000000;0,000000;0,000000;0,666667;0,416667;0,416667;0,416667;0,333333;0,333333;0,333333;0,000000;0,000000;0,416667;0,416667;
95;;;;;;;;;;;;;;;;;;;;;;;;;;;;;;;;;;;;;;;;;;;;;;;;;;;;;;;;;;;;;;;;;;;;;;;;;;;;;;;;;;;;;;;;;;;;;;;1,000000;0,561155;0,413302;0,000000;0,000000;0,000000;0,394285;0,278992;0,278992;0,244285;0,394285;0,310952;0,310952;0,310952;0,310952;0,310952;0,662178;0,662178;0,310952;0,000000;0,713302;0,546635;0,000000;0,000000;0,000000;0,000000;0,000000;0,644285;0,394285;0,394285;0,394285;0,310952;0,310952;0,310952;0,000000;0,000000;0,394285;0,394285;
96;;;;;;;;;;;;;;;;;;;;;;;;;;;;;;;;;;;;;;;;;;;;;;;;;;;;;;;;;;;;;;;;;;;;;;;;;;;;;;;;;;;;;;;;;;;;;;;;1,000000;0,266667;0,000000;0,000000;0,000000;0,416667;0,301373;0,301373;0,266667;0,416667;0,333333;0,333333;0,333333;0,333333;0,333333;0,583333;0,583333;0,333333;0,000000;0,416667;0,333333;0,000000;0,000000;0,000000;0,000000;0,000000;0,666667;0,416667;0,416667;0,416667;0,333333;0,333333;0,333333;0,000000;0,000000;0,416667;0,416667;
97;;;;;;;;;;;;;;;;;;;;;;;;;;;;;;;;;;;;;;;;;;;;;;;;;;;;;;;;;;;;;;;;;;;;;;;;;;;;;;;;;;;;;;;;;;;;;;;;;1,000000;0,000000;0,000000;0,000000;0,350000;0,234707;0,234707;0,200000;0,350000;0,266667;0,266667;0,266667;0,266667;0,266667;0,450000;0,450000;0,266667;0,000000;0,700000;0,533333;0,000000;0,000000;0,000000;0,000000;0,000000;0,600000;0,350000;0,350000;0,350000;0,266667;0,266667;0,266667;0,000000;0,000000;0,350000;0,350000;
98;;;;;;;;;;;;;;;;;;;;;;;;;;;;;;;;;;;;;;;;;;;;;;;;;;;;;;;;;;;;;;;;;;;;;;;;;;;;;;;;;;;;;;;;;;;;;;;;;;1,000000;0,500000;0,500000;0,000000;0,000000;0,000000;0,000000;0,000000;0,000000;0,000000;0,000000;0,000000;0,000000;0,000000;0,000000;0,000000;0,000000;0,000000;0,000000;0,000000;0,000000;0,000000;0,000000;0,000000;0,000000;0,000000;0,000000;0,000000;0,000000;0,000000;0,000000;0,000000;0,000000;0,000000;0,000000;
99;;;;;;;;;;;;;;;;;;;;;;;;;;;;;;;;;;;;;;;;;;;;;;;;;;;;;;;;;;;;;;;;;;;;;;;;;;;;;;;;;;;;;;;;;;;;;;;;;;;1,000000;0,500000;0,000000;0,000000;0,000000;0,000000;0,000000;0,000000;0,000000;0,000000;0,000000;0,000000;0,000000;0,000000;0,000000;0,000000;0,000000;0,000000;0,000000;0,000000;0,000000;0,000000;0,000000;0,000000;0,000000;0,000000;0,000000;0,000000;0,000000;0,000000;0,000000;0,000000;0,000000;0,000000;
100;;;;;;;;;;;;;;;;;;;;;;;;;;;;;;;;;;;;;;;;;;;;;;;;;;;;;;;;;;;;;;;;;;;;;;;;;;;;;;;;;;;;;;;;;;;;;;;;;;;;1,000000;0,000000;0,000000;0,000000;0,000000;0,000000;0,000000;0,000000;0,000000;0,000000;0,000000;0,000000;0,000000;0,000000;0,000000;0,000000;0,000000;0,000000;0,000000;0,000000;0,000000;0,000000;0,000000;0,000000;0,000000;0,000000;0,000000;0,000000;0,000000;0,000000;0,000000;0,000000;0,000000;
101;;;;;;;;;;;;;;;;;;;;;;;;;;;;;;;;;;;;;;;;;;;;;;;;;;;;;;;;;;;;;;;;;;;;;;;;;;;;;;;;;;;;;;;;;;;;;;;;;;;;;1,000000;0,384707;0,384707;0,350000;0,500000;0,416667;0,416667;0,416667;0,416667;0,416667;0,375000;0,375000;0,416667;0,000000;0,500000;0,416667;0,000000;0,000000;0,000000;0,416667;0,000000;0,750000;0,500000;0,500000;0,500000;0,416667;0,416667;0,416667;0,000000;0,000000;0,500000;0,500000;
102;;;;;;;;;;;;;;;;;;;;;;;;;;;;;;;;;;;;;;;;;;;;;;;;;;;;;;;;;;;;;;;;;;;;;;;;;;;;;;;;;;;;;;;;;;;;;;;;;;;;;;1,000000;0,841732;0,820883;0,384707;0,301373;0,301373;0,301373;0,301373;0,301373;0,259707;0,259707;0,301373;0,000000;0,384707;0,301373;0,000000;0,000000;0,000000;0,000000;0,000000;0,634707;0,384707;0,384707;0,384707;0,301373;0,301373;0,301373;0,000000;0,000000;0,384707;0,384707;
103;;;;;;;;;;;;;;;;;;;;;;;;;;;;;;;;;;;;;;;;;;;;;;;;;;;;;;;;;;;;;;;;;;;;;;;;;;;;;;;;;;;;;;;;;;;;;;;;;;;;;;;1,000000;0,820883;0,384707;0,301373;0,301373;0,301373;0,301373;0,301373;0,259707;0,259707;0,301373;0,000000;0,384707;0,301373;0,000000;0,000000;0,000000;0,000000;0,000000;0,634707;0,384707;0,384707;0,384707;0,301373;0,301373;0,301373;0,000000;0,000000;0,384707;0,384707;
104;;;;;;;;;;;;;;;;;;;;;;;;;;;;;;;;;;;;;;;;;;;;;;;;;;;;;;;;;;;;;;;;;;;;;;;;;;;;;;;;;;;;;;;;;;;;;;;;;;;;;;;;1,000000;0,350000;0,266667;0,266667;0,266667;0,266667;0,266667;0,225000;0,225000;0,266667;0,000000;0,350000;0,266667;0,000000;0,000000;0,000000;0,000000;0,000000;0,600000;0,350000;0,350000;0,350000;0,266667;0,266667;0,266667;0,000000;0,000000;0,350000;0,350000;
105;;;;;;;;;;;;;;;;;;;;;;;;;;;;;;;;;;;;;;;;;;;;;;;;;;;;;;;;;;;;;;;;;;;;;;;;;;;;;;;;;;;;;;;;;;;;;;;;;;;;;;;;;1,000000;0,416667;0,416667;0,416667;0,416667;0,416667;0,375000;0,375000;0,416667;0,000000;0,500000;0,416667;0,000000;0,000000;0,000000;0,000000;0,000000;0,750000;0,500000;0,500000;0,500000;0,416667;0,416667;0,416667;0,000000;0,000000;0,500000;0,500000;
106;;;;;;;;;;;;;;;;;;;;;;;;;;;;;;;;;;;;;;;;;;;;;;;;;;;;;;;;;;;;;;;;;;;;;;;;;;;;;;;;;;;;;;;;;;;;;;;;;;;;;;;;;;1,000000;0,666667;0,588455;0,666667;0,666667;0,291667;0,291667;0,333333;0,000000;0,416667;0,333333;0,000000;0,000000;0,000000;0,000000;0,000000;0,666667;0,416667;0,416667;0,416667;0,333333;0,333333;0,333333;0,000000;0,000000;0,416667;0,416667;
107;;;;;;;;;;;;;;;;;;;;;;;;;;;;;;;;;;;;;;;;;;;;;;;;;;;;;;;;;;;;;;;;;;;;;;;;;;;;;;;;;;;;;;;;;;;;;;;;;;;;;;;;;;;1,000000;0,588455;0,666667;0,666667;0,291667;0,291667;0,333333;0,000000;0,416667;0,333333;0,000000;0,000000;0,000000;0,000000;0,000000;0,666667;0,416667;0,416667;0,416667;0,333333;0,333333;0,333333;0,000000;0,000000;0,416667;0,416667;
108;;;;;;;;;;;;;;;;;;;;;;;;;;;;;;;;;;;;;;;;;;;;;;;;;;;;;;;;;;;;;;;;;;;;;;;;;;;;;;;;;;;;;;;;;;;;;;;;;;;;;;;;;;;;1,000000;0,588455;0,588455;0,291667;0,291667;0,333333;0,000000;0,416667;0,333333;0,000000;0,000000;0,000000;0,000000;0,000000;0,666667;0,416667;0,416667;0,416667;0,333333;0,333333;0,333333;0,000000;0,000000;0,416667;0,416667;
109;;;;;;;;;;;;;;;;;;;;;;;;;;;;;;;;;;;;;;;;;;;;;;;;;;;;;;;;;;;;;;;;;;;;;;;;;;;;;;;;;;;;;;;;;;;;;;;;;;;;;;;;;;;;;1,000000;0,666667;0,291667;0,291667;0,333333;0,000000;0,416667;0,333333;0,000000;0,000000;0,000000;0,000000;0,000000;0,666667;0,416667;0,416667;0,416667;0,333333;0,333333;0,333333;0,000000;0,000000;0,416667;0,416667;
110;;;;;;;;;;;;;;;;;;;;;;;;;;;;;;;;;;;;;;;;;;;;;;;;;;;;;;;;;;;;;;;;;;;;;;;;;;;;;;;;;;;;;;;;;;;;;;;;;;;;;;;;;;;;;;1,000000;0,291667;0,291667;0,333333;0,000000;0,416667;0,333333;0,000000;0,000000;0,000000;0,000000;0,000000;0,666667;0,416667;0,416667;0,416667;0,333333;0,333333;0,333333;0,000000;0,000000;0,416667;0,416667;
111;;;;;;;;;;;;;;;;;;;;;;;;;;;;;;;;;;;;;;;;;;;;;;;;;;;;;;;;;;;;;;;;;;;;;;;;;;;;;;;;;;;;;;;;;;;;;;;;;;;;;;;;;;;;;;;1,000000;0,750000;0,291667;0,000000;0,750000;0,583333;0,000000;0,000000;0,000000;0,000000;0,000000;0,625000;0,375000;0,375000;0,375000;0,291667;0,291667;0,291667;0,000000;0,000000;0,375000;0,375000;
112;;;;;;;;;;;;;;;;;;;;;;;;;;;;;;;;;;;;;;;;;;;;;;;;;;;;;;;;;;;;;;;;;;;;;;;;;;;;;;;;;;;;;;;;;;;;;;;;;;;;;;;;;;;;;;;;1,000000;0,291667;0,000000;0,750000;0,583333;0,000000;0,000000;0,000000;0,000000;0,000000;0,625000;0,375000;0,375000;0,375000;0,291667;0,291667;0,291667;0,000000;0,000000;0,375000;0,375000;
113;;;;;;;;;;;;;;;;;;;;;;;;;;;;;;;;;;;;;;;;;;;;;;;;;;;;;;;;;;;;;;;;;;;;;;;;;;;;;;;;;;;;;;;;;;;;;;;;;;;;;;;;;;;;;;;;;1,000000;0,000000;0,416667;0,333333;0,000000;0,000000;0,000000;0,000000;0,000000;0,666667;0,416667;0,416667;0,416667;0,333333;0,333333;0,333333;0,000000;0,000000;0,416667;0,416667;
114;;;;;;;;;;;;;;;;;;;;;;;;;;;;;;;;;;;;;;;;;;;;;;;;;;;;;;;;;;;;;;;;;;;;;;;;;;;;;;;;;;;;;;;;;;;;;;;;;;;;;;;;;;;;;;;;;;1,000000;0,000000;0,000000;0,000000;0,000000;0,000000;0,416667;0,750000;0,000000;0,000000;0,000000;0,000000;0,000000;0,000000;0,000000;0,500000;0,500000;0,000000;0,000000;
115;;;;;;;;;;;;;;;;;;;;;;;;;;;;;;;;;;;;;;;;;;;;;;;;;;;;;;;;;;;;;;;;;;;;;;;;;;;;;;;;;;;;;;;;;;;;;;;;;;;;;;;;;;;;;;;;;;;1,000000;0,833333;0,000000;0,000000;0,000000;0,000000;0,000000;0,750000;0,500000;0,500000;0,500000;0,416667;0,416667;0,416667;0,000000;0,000000;0,500000;0,500000;
116;;;;;;;;;;;;;;;;;;;;;;;;;;;;;;;;;;;;;;;;;;;;;;;;;;;;;;;;;;;;;;;;;;;;;;;;;;;;;;;;;;;;;;;;;;;;;;;;;;;;;;;;;;;;;;;;;;;;1,000000;0,000000;0,000000;0,000000;0,000000;0,000000;0,666667;0,416667;0,416667;0,416667;0,333333;0,333333;0,333333;0,000000;0,000000;0,416667;0,416667;
117;;;;;;;;;;;;;;;;;;;;;;;;;;;;;;;;;;;;;;;;;;;;;;;;;;;;;;;;;;;;;;;;;;;;;;;;;;;;;;;;;;;;;;;;;;;;;;;;;;;;;;;;;;;;;;;;;;;;;1,000000;0,666667;0,666667;0,000000;0,000000;0,000000;0,000000;0,000000;0,000000;0,000000;0,000000;0,000000;0,000000;0,000000;0,000000;0,416667;
118;;;;;;;;;;;;;;;;;;;;;;;;;;;;;;;;;;;;;;;;;;;;;;;;;;;;;;;;;;;;;;;;;;;;;;;;;;;;;;;;;;;;;;;;;;;;;;;;;;;;;;;;;;;;;;;;;;;;;;1,000000;0,666667;0,000000;0,000000;0,000000;0,000000;0,000000;0,000000;0,000000;0,000000;0,000000;0,000000;0,000000;0,000000;0,416667;
119;;;;;;;;;;;;;;;;;;;;;;;;;;;;;;;;;;;;;;;;;;;;;;;;;;;;;;;;;;;;;;;;;;;;;;;;;;;;;;;;;;;;;;;;;;;;;;;;;;;;;;;;;;;;;;;;;;;;;;;1,000000;0,000000;0,000000;0,000000;0,000000;0,000000;0,000000;0,000000;0,000000;0,000000;0,000000;0,000000;0,000000;0,416667;
120;;;;;;;;;;;;;;;;;;;;;;;;;;;;;;;;;;;;;;;;;;;;;;;;;;;;;;;;;;;;;;;;;;;;;;;;;;;;;;;;;;;;;;;;;;;;;;;;;;;;;;;;;;;;;;;;;;;;;;;;1,000000;0,666667;0,000000;0,000000;0,000000;0,000000;0,000000;0,000000;0,000000;0,416667;0,416667;0,000000;0,000000;
121;;;;;;;;;;;;;;;;;;;;;;;;;;;;;;;;;;;;;;;;;;;;;;;;;;;;;;;;;;;;;;;;;;;;;;;;;;;;;;;;;;;;;;;;;;;;;;;;;;;;;;;;;;;;;;;;;;;;;;;;;1,000000;0,000000;0,000000;0,000000;0,000000;0,000000;0,000000;0,000000;0,750000;0,750000;0,000000;0,000000;
122;;;;;;;;;;;;;;;;;;;;;;;;;;;;;;;;;;;;;;;;;;;;;;;;;;;;;;;;;;;;;;;;;;;;;;;;;;;;;;;;;;;;;;;;;;;;;;;;;;;;;;;;;;;;;;;;;;;;;;;;;;1,000000;0,750000;0,750000;0,750000;0,666667;0,666667;0,666667;0,000000;0,000000;0,750000;0,750000;
123;;;;;;;;;;;;;;;;;;;;;;;;;;;;;;;;;;;;;;;;;;;;;;;;;;;;;;;;;;;;;;;;;;;;;;;;;;;;;;;;;;;;;;;;;;;;;;;;;;;;;;;;;;;;;;;;;;;;;;;;;;;1,000000;0,500000;0,500000;0,416667;0,416667;0,416667;0,000000;0,000000;0,500000;0,500000;
124;;;;;;;;;;;;;;;;;;;;;;;;;;;;;;;;;;;;;;;;;;;;;;;;;;;;;;;;;;;;;;;;;;;;;;;;;;;;;;;;;;;;;;;;;;;;;;;;;;;;;;;;;;;;;;;;;;;;;;;;;;;;1,000000;0,500000;0,416667;0,416667;0,416667;0,000000;0,000000;0,500000;0,500000;
125;;;;;;;;;;;;;;;;;;;;;;;;;;;;;;;;;;;;;;;;;;;;;;;;;;;;;;;;;;;;;;;;;;;;;;;;;;;;;;;;;;;;;;;;;;;;;;;;;;;;;;;;;;;;;;;;;;;;;;;;;;;;;1,000000;0,416667;0,416667;0,416667;0,000000;0,000000;0,500000;0,500000;
126;;;;;;;;;;;;;;;;;;;;;;;;;;;;;;;;;;;;;;;;;;;;;;;;;;;;;;;;;;;;;;;;;;;;;;;;;;;;;;;;;;;;;;;;;;;;;;;;;;;;;;;;;;;;;;;;;;;;;;;;;;;;;;1,000000;0,666667;0,666667;0,000000;0,000000;0,416667;0,416667;
127;;;;;;;;;;;;;;;;;;;;;;;;;;;;;;;;;;;;;;;;;;;;;;;;;;;;;;;;;;;;;;;;;;;;;;;;;;;;;;;;;;;;;;;;;;;;;;;;;;;;;;;;;;;;;;;;;;;;;;;;;;;;;;;1,000000;0,666667;0,000000;0,000000;0,416667;0,416667;
128;;;;;;;;;;;;;;;;;;;;;;;;;;;;;;;;;;;;;;;;;;;;;;;;;;;;;;;;;;;;;;;;;;;;;;;;;;;;;;;;;;;;;;;;;;;;;;;;;;;;;;;;;;;;;;;;;;;;;;;;;;;;;;;;1,000000;0,000000;0,000000;0,416667;0,416667;
129;;;;;;;;;;;;;;;;;;;;;;;;;;;;;;;;;;;;;;;;;;;;;;;;;;;;;;;;;;;;;;;;;;;;;;;;;;;;;;;;;;;;;;;;;;;;;;;;;;;;;;;;;;;;;;;;;;;;;;;;;;;;;;;;;1,000000;0,500000;0,000000;0,000000;
130;;;;;;;;;;;;;;;;;;;;;;;;;;;;;;;;;;;;;;;;;;;;;;;;;;;;;;;;;;;;;;;;;;;;;;;;;;;;;;;;;;;;;;;;;;;;;;;;;;;;;;;;;;;;;;;;;;;;;;;;;;;;;;;;;;1,000000;0,000000;0,000000;
131;;;;;;;;;;;;;;;;;;;;;;;;;;;;;;;;;;;;;;;;;;;;;;;;;;;;;;;;;;;;;;;;;;;;;;;;;;;;;;;;;;;;;;;;;;;;;;;;;;;;;;;;;;;;;;;;;;;;;;;;;;;;;;;;;;;1,000000;0,500000;
132;;;;;;;;;;;;;;;;;;;;;;;;;;;;;;;;;;;;;;;;;;;;;;;;;;;;;;;;;;;;;;;;;;;;;;;;;;;;;;;;;;;;;;;;;;;;;;;;;;;;;;;;;;;;;;;;;;;;;;;;;;;;;;;;;;;;1,000000;
