;1; 2; 3; 4; 5; 6; 7; 8; 9; 10; 11; 12; 13; 14; 15; 16; 17; 18; 19; 20; 21; 22; 23; 24; 25; 26; 27; 28; 29; 30; 31; 32; 33; 34; 35; 36; 37; 38; 39; 40; 41; 42; 43; 44; 45; 46; 47; 48; 49; 50; 51; 52; 53; 54; 55; 56; 57; 58; 59; 60; 61; 62; 63; 64; 65; 66; 67; 68; 69; 70; 71; 72; 73; 74; 75; 76; 77; 78; 79; 80; 81; 82; 83; 84; 85; 86; 87; 88; 89; 90; 91; 92; 93; 94; 95; 96; 97; 98; 99; 100; 101; 102; 103; 104; 105; 106; 107; 108; 109; 110; 111; 112; 113; 114; 115; 116; 117; 118; 119; 120; 121; 122; 123; 124; 125; 126; 127; 128; 129; 130
1;1,000000;0,601121;0,708453;0,997156;0,000000;0,748784;0,748784;0,748784;0,566156;0,498894;0,597645;0,665901;0,665901;0,500000;0,500000;0,500000;0,000000;0,499934;0,798428;0,798428;0,798428;0,603051;0,664891;0,603383;0,500000;0,500000;0,598037;0,665157;0,675463;0,748243;0,665768;0,665768;0,000000;0,500000;0,665006;0,665780;0,498868;0,581358;0,530484;0,564013;0,497804;0,500550;0,499550;0,748984;0,748984;0,553241;0,499934;0,000000;0,000000;0,000000;0,987395;0,000000;0,600650;0,595995;0,583155;0,500031;0,612972;0,710236;0,711307;0,499551;0,665994;0,000000;0,500000;0,749814;0,749814;0,749814;0,709419;0,665864;0,665450;0,499810;0,499622;0,665832;0,000000;0,994344;0,000000;0,000000;0,000000;0,608512;0,666521;0,748757;0,595050;0,500679;0,598610;0,624187;0,667638;0,499429;0,992139;0,665006;0,499934;0,666428;0,665848;0,665848;0,499934;0,000000;0,000000;0,665580;0,665580;0,500045;0,665985;0,665985;0,499264;0,704143;0,705205;0,800217;0,800217;0,800217;0,000000;0,000000;0,000000;0,000000;0,997156;0,665780;0,000000;0,000000;0,500040;0,000000;0,000000;0,251724;0,000000;0,000000;0,502160;0,250867;0,250867;0,250867;0,000000;0,500000;0,500000;0,000000;0,500926;0,000000;
2;;1,000000;0,620136;0,000000;0,990860;0,499807;0,499807;0,499807;0,463735;0,499012;0,504333;0,663592;0,663592;0,499196;0,499788;0,838000;0,990860;0,499788;0,794843;0,794843;0,794843;0,699399;0,660588;0,611673;0,499788;0,499788;0,592721;0,661850;0,796384;0,743574;0,336098;0,336098;0,990860;0,499386;0,661380;0,663811;0,804567;0,599152;0,505627;0,507150;0,958118;0,499196;0,499584;0,746572;0,746572;0,532591;0,499788;0,000000;0,000000;0,000000;0,000000;0,982040;0,410281;0,781120;0,601691;0,499788;0,624400;0,702801;0,706106;0,991025;0,664409;0,982040;0,660403;0,254252;0,254252;0,254252;0,459875;0,664253;0,518202;0,500000;0,405796;0,991979;0,345238;0,000000;0,345238;0,345238;0,966176;0,547626;0,338765;0,745986;0,628224;0,594214;0,408916;0,385426;0,338765;0,991949;0,978090;0,661380;0,499788;0,336098;0,336098;0,336098;0,499788;0,345238;0,345238;0,336098;0,336098;0,991790;0,664409;0,664409;0,499788;0,546435;0,442827;0,205145;0,205145;0,205145;0,982495;0,000000;0,000000;0,990860;0,000000;0,663811;0,000000;0,000000;0,499788;0,000000;0,000000;0,000000;0,000000;0,000000;0,499788;0,000000;0,000000;0,000000;0,982040;0,499788;0,499788;0,973524;0,499788;0,990860;
3;;;1,000000;0,933333;0,956877;0,732519;0,732519;0,732519;0,470355;0,494537;0,693961;0,655020;0,655020;0,495338;0,498543;0,717785;0,956877;0,959459;0,782316;0,782316;0,782316;0,572954;0,633847;0,593045;0,498543;0,498543;0,732453;0,643103;0,502894;0,502078;0,345765;0,345765;0,956877;0,496254;0,643103;0,653903;0,723704;0,501287;0,499499;0,484995;0,494537;0,495338;0,497311;0,501126;0,501126;0,784157;0,959459;0,000000;0,000000;0,000000;0,750000;0,920387;0,422424;0,433029;0,496639;0,498543;0,516477;0,563505;0,567351;0,498543;0,653903;0,920387;0,638336;0,269377;0,269377;0,269377;0,463516;0,653903;0,513637;0,486111;0,474359;0,655009;0,000000;0,876923;0,000000;0,000000;0,862005;0,398175;0,356285;0,501126;0,591447;0,574825;0,417801;0,401830;0,356285;0,498543;0,000000;0,643103;0,959459;0,345765;0,345765;0,345765;0,959459;0,000000;0,000000;0,345765;0,345765;0,498543;0,345765;0,345765;0,498543;0,464877;0,354411;0,223543;0,223543;0,223543;0,920387;0,000000;0,000000;0,956877;0,933333;0,653903;0,000000;0,000000;0,498543;0,000000;0,000000;0,000000;0,000000;0,000000;0,498543;0,000000;0,000000;0,000000;0,920387;0,498543;0,498543;0,889111;0,498543;0,956877;
4;;;;1,000000;0,000000;0,000000;0,000000;0,000000;0,000000;0,000000;0,908303;0,000000;0,000000;0,000000;0,000000;0,000000;0,000000;0,750000;0,600000;0,600000;0,600000;0,942593;0,833333;0,961524;0,000000;0,000000;0,881207;0,777778;0,812500;0,750000;0,000000;0,000000;0,000000;0,000000;0,777778;0,666667;0,000000;0,000000;0,000000;0,958333;0,000000;0,000000;0,000000;0,625000;0,625000;0,937500;0,750000;0,000000;0,000000;0,000000;1,000000;0,000000;0,000000;0,000000;0,000000;0,000000;0,000000;0,822143;0,762857;0,000000;0,666667;0,000000;0,000000;0,000000;0,000000;0,000000;0,000000;0,666667;0,000000;0,000000;0,000000;0,000000;0,000000;1,000000;0,000000;0,000000;0,000000;0,000000;0,000000;0,625000;0,000000;0,000000;0,000000;0,000000;0,000000;0,000000;0,000000;0,777778;0,750000;0,000000;0,000000;0,000000;0,750000;0,000000;0,000000;0,000000;0,000000;0,000000;0,000000;0,000000;0,000000;0,000000;0,000000;0,000000;0,000000;0,000000;0,000000;0,000000;0,000000;0,000000;1,000000;0,666667;0,000000;0,000000;0,000000;0,000000;0,000000;0,000000;0,000000;0,000000;0,000000;0,000000;0,000000;0,000000;0,000000;0,000000;0,000000;0,000000;0,000000;0,000000;
5;;;;;1,000000;0,750000;0,750000;0,750000;0,950845;0,916667;0,903810;0,666667;0,666667;0,900000;0,750000;0,987654;1,000000;0,750000;0,600000;0,600000;0,600000;0,949774;0,833333;0,967206;0,750000;0,750000;0,881207;0,777778;0,828125;0,750000;0,666667;0,666667;1,000000;0,875000;0,777778;0,666667;0,972222;0,968345;0,917869;0,963700;0,916667;0,900000;0,833333;0,625000;0,625000;0,933221;0,750000;0,000000;0,000000;0,000000;0,000000;1,000000;0,851509;0,915148;0,938203;0,750000;0,949019;0,822143;0,762857;0,750000;0,666667;1,000000;0,888889;0,625000;0,625000;0,625000;0,864583;0,666667;0,839765;0,000000;0,000000;0,666667;0,000000;0,000000;0,000000;0,000000;1,000000;0,873501;0,777778;0,625000;0,940160;0,900000;0,802012;0,844956;0,777778;0,750000;0,000000;0,777778;0,750000;0,666667;0,666667;0,666667;0,750000;0,000000;0,000000;0,666667;0,666667;0,750000;0,666667;0,666667;0,750000;0,909476;0,829868;0,600000;0,600000;0,600000;1,000000;0,000000;0,000000;1,000000;0,000000;0,666667;0,000000;0,000000;0,750000;0,000000;0,000000;0,000000;0,000000;0,000000;0,750000;0,000000;0,000000;0,000000;1,000000;0,750000;0,750000;1,000000;0,750000;1,000000;
6;;;;;;1,000000;0,750000;0,750000;0,284883;0,321429;0,299388;0,611111;0,611111;0,333333;0,416667;0,377778;0,750000;0,416667;0,433333;0,433333;0,433333;0,272661;0,283333;0,282261;0,416667;0,416667;0,302012;0,291667;0,275000;0,250000;0,305556;0,305556;0,750000;0,350000;0,291667;0,305556;0,416667;0,284397;0,323491;0,269906;0,321429;0,333333;0,375000;0,250000;0,250000;0,508320;0,416667;0,000000;0,000000;0,000000;0,000000;0,625000;0,312414;0,289009;0,306805;0,416667;0,308235;0,265428;0,269285;0,416667;0,305556;0,625000;0,458333;0,250000;0,250000;0,250000;0,333333;0,305556;0,384648;0,000000;0,000000;0,611111;0,000000;0,000000;0,000000;0,000000;0,500000;0,289168;0,291667;0,250000;0,361703;0,390000;0,328017;0,301930;0,291667;0,416667;0,000000;0,291667;0,416667;0,305556;0,305556;0,305556;0,416667;0,000000;0,000000;0,305556;0,305556;0,416667;0,305556;0,305556;0,416667;0,309102;0,277789;0,216667;0,216667;0,216667;0,625000;0,000000;0,000000;0,750000;0,000000;0,305556;0,000000;0,000000;0,416667;0,000000;0,000000;0,000000;0,000000;0,000000;0,416667;0,000000;0,000000;0,000000;0,625000;0,416667;0,416667;0,550000;0,416667;0,750000;
7;;;;;;;1,000000;0,750000;0,284883;0,321429;0,299388;0,611111;0,611111;0,333333;0,416667;0,377778;0,750000;0,416667;0,433333;0,433333;0,433333;0,272661;0,283333;0,282261;0,416667;0,416667;0,302012;0,291667;0,275000;0,250000;0,305556;0,305556;0,750000;0,350000;0,291667;0,305556;0,416667;0,284397;0,323491;0,269906;0,321429;0,333333;0,375000;0,250000;0,250000;0,508320;0,416667;0,000000;0,000000;0,000000;0,000000;0,625000;0,312414;0,289009;0,306805;0,416667;0,308235;0,265428;0,269285;0,416667;0,305556;0,625000;0,458333;0,250000;0,250000;0,250000;0,333333;0,305556;0,384648;0,000000;0,000000;0,611111;0,000000;0,000000;0,000000;0,000000;0,500000;0,289168;0,291667;0,250000;0,361703;0,390000;0,328017;0,301930;0,291667;0,416667;0,000000;0,291667;0,416667;0,305556;0,305556;0,305556;0,416667;0,000000;0,000000;0,305556;0,305556;0,416667;0,305556;0,305556;0,416667;0,309102;0,277789;0,216667;0,216667;0,216667;0,625000;0,000000;0,000000;0,750000;0,000000;0,305556;0,000000;0,000000;0,416667;0,000000;0,000000;0,000000;0,000000;0,000000;0,416667;0,000000;0,000000;0,000000;0,625000;0,416667;0,416667;0,550000;0,416667;0,750000;
8;;;;;;;;1,000000;0,284883;0,321429;0,299388;0,611111;0,611111;0,333333;0,416667;0,377778;0,750000;0,416667;0,433333;0,433333;0,433333;0,272661;0,283333;0,282261;0,416667;0,416667;0,302012;0,291667;0,275000;0,250000;0,305556;0,305556;0,750000;0,350000;0,291667;0,305556;0,416667;0,284397;0,323491;0,269906;0,321429;0,333333;0,375000;0,250000;0,250000;0,508320;0,416667;0,000000;0,000000;0,000000;0,000000;0,625000;0,312414;0,289009;0,306805;0,416667;0,308235;0,265428;0,269285;0,416667;0,305556;0,625000;0,458333;0,250000;0,250000;0,250000;0,333333;0,305556;0,384648;0,000000;0,000000;0,611111;0,000000;0,000000;0,000000;0,000000;0,500000;0,289168;0,291667;0,250000;0,361703;0,390000;0,328017;0,301930;0,291667;0,416667;0,000000;0,291667;0,416667;0,305556;0,305556;0,305556;0,416667;0,000000;0,000000;0,305556;0,305556;0,416667;0,305556;0,305556;0,416667;0,309102;0,277789;0,216667;0,216667;0,216667;0,625000;0,000000;0,000000;0,750000;0,000000;0,305556;0,000000;0,000000;0,416667;0,000000;0,000000;0,000000;0,000000;0,000000;0,416667;0,000000;0,000000;0,000000;0,625000;0,416667;0,416667;0,550000;0,416667;0,750000;
9;;;;;;;;;1,000000;0,486433;0,435006;0,344785;0,344785;0,488371;0,496300;0,697960;0,950845;0,496300;0,223573;0,223573;0,223573;0,429772;0,362402;0,479628;0,496300;0,496300;0,421253;0,354327;0,346377;0,284883;0,651756;0,651756;0,950845;0,490607;0,354327;0,344785;0,708655;0,486747;0,491244;0,443259;0,486433;0,488371;0,493216;0,269027;0,269027;0,463103;0,496300;0,000000;0,000000;0,000000;0,000000;0,909883;0,576739;0,426009;0,486549;0,496300;0,504784;0,327969;0,317025;0,496300;0,344785;0,909883;0,632105;0,269027;0,269027;0,269027;0,458556;0,344785;0,718814;0,000000;0,000000;0,344785;0,000000;0,000000;0,000000;0,000000;0,845514;0,393731;0,354327;0,269027;0,580406;0,567530;0,414912;0,398164;0,354327;0,496300;0,000000;0,354327;0,496300;0,344785;0,344785;0,344785;0,496300;0,000000;0,000000;0,344785;0,344785;0,496300;0,344785;0,344785;0,496300;0,457671;0,351741;0,223573;0,223573;0,223573;0,909883;0,000000;0,000000;0,950845;0,000000;0,344785;0,000000;0,000000;0,496300;0,000000;0,000000;0,276006;0,000000;0,000000;0,496300;0,264185;0,264185;0,264185;0,909883;0,496300;0,496300;0,875223;0,496300;0,950845;
10;;;;;;;;;;1,000000;0,461430;0,361111;0,361111;0,500000;0,500000;0,649573;0,916667;0,500000;0,250000;0,250000;0,250000;0,467904;0,395833;0,502129;0,500000;0,500000;0,447797;0,380952;0,382812;0,321429;0,722222;0,722222;0,916667;0,500000;0,380952;0,361111;0,666667;0,506625;0,503608;0,479800;0,500000;0,500000;1,000000;0,291667;0,291667;0,485736;0,500000;0,000000;0,000000;0,000000;0,000000;0,857143;0,882543;0,457289;0,502344;0,500000;0,515836;0,367856;0,348979;0,500000;0,361111;0,857143;0,619048;0,291667;0,291667;0,291667;0,473958;0,361111;0,822955;0,000000;0,000000;0,361111;0,000000;0,000000;0,000000;0,000000;0,777778;0,426391;0,380952;0,291667;0,570480;0,562500;0,432882;0,424890;0,380952;0,500000;0,000000;0,380952;0,500000;0,361111;0,361111;0,361111;0,500000;0,000000;0,000000;0,361111;0,361111;0,500000;0,361111;0,361111;0,500000;0,478429;0,387171;0,250000;0,250000;0,250000;0,857143;0,000000;0,000000;0,916667;0,000000;0,361111;0,000000;0,000000;0,500000;0,000000;0,000000;0,000000;0,000000;0,000000;0,500000;0,000000;0,000000;0,000000;0,857143;0,500000;0,500000;0,812500;0,500000;0,916667;
11;;;;;;;;;;;1,000000;0,348254;0,348254;0,465715;0,487143;0,602102;0,903810;0,962664;0,462664;0,462664;0,462664;0,731116;0,707661;0,754483;0,487143;0,487143;0,796032;0,697901;0,603495;0,578853;0,348254;0,348254;0,903810;0,471072;0,697901;0,684886;0,628096;0,449785;0,465038;0,693518;0,461430;0,465715;0,477960;0,545998;0,545998;0,815597;0,962664;0,000000;0,000000;0,000000;0,724908;0,835103;0,412344;0,415212;0,457345;0,487143;0,468365;0,651707;0,633953;0,487143;0,684886;0,835103;0,597007;0,278810;0,278810;0,278810;0,445031;0,684886;0,491742;0,000000;0,000000;0,348254;0,000000;0,842805;0,000000;0,000000;0,743493;0,392107;0,358912;0,545998;0,531910;0,533572;0,410842;0,395962;0,358912;0,487143;0,000000;0,697901;0,962664;0,348254;0,348254;0,348254;0,962664;0,000000;0,000000;0,348254;0,348254;0,487143;0,348254;0,348254;0,487143;0,604926;0,588635;0,599584;0,599584;0,599584;0,835103;0,000000;0,000000;0,903810;0,908303;0,684886;0,000000;0,000000;0,487143;0,000000;0,000000;0,000000;0,000000;0,000000;0,487143;0,000000;0,000000;0,000000;0,835103;0,487143;0,487143;0,783572;0,487143;0,903810;
12;;;;;;;;;;;;1,000000;0,666667;0,366667;0,416667;0,395062;0,666667;0,416667;0,533333;0,533333;0,533333;0,338663;0,333333;0,344984;0,416667;0,416667;0,347874;0,333333;0,328125;0,305556;0,333333;0,333333;0,666667;0,375000;0,333333;0,333333;0,416667;0,346123;0,362314;0,338700;0,361111;0,366667;0,388889;0,291667;0,291667;0,650513;0,416667;0,000000;0,000000;0,000000;0,000000;0,555556;0,351509;0,343719;0,354870;0,416667;0,356427;0,322143;0,318412;0,416667;0,333333;0,555556;0,444444;0,291667;0,291667;0,291667;0,364583;0,333333;0,395321;0,000000;0,000000;0,666667;0,000000;0,000000;0,000000;0,000000;0,466667;0,340168;0,333333;0,291667;0,384604;0,400000;0,357567;0,344956;0,333333;0,416667;0,000000;0,333333;0,416667;0,333333;0,333333;0,333333;0,416667;0,000000;0,000000;0,333333;0,333333;0,416667;0,333333;0,333333;0,416667;0,353921;0,329868;0,266667;0,266667;0,266667;0,555556;0,000000;0,000000;0,666667;0,000000;0,333333;0,000000;0,000000;0,416667;0,000000;0,000000;0,000000;0,000000;0,000000;0,416667;0,000000;0,000000;0,000000;0,555556;0,416667;0,416667;0,500000;0,416667;0,666667;
13;;;;;;;;;;;;;1,000000;0,366667;0,416667;0,395062;0,666667;0,416667;0,533333;0,533333;0,533333;0,338663;0,333333;0,344984;0,416667;0,416667;0,347874;0,333333;0,328125;0,305556;0,333333;0,333333;0,666667;0,375000;0,333333;0,333333;0,416667;0,346123;0,362314;0,338700;0,361111;0,366667;0,388889;0,291667;0,291667;0,650513;0,416667;0,000000;0,000000;0,000000;0,000000;0,555556;0,351509;0,343719;0,354870;0,416667;0,356427;0,322143;0,318412;0,416667;0,333333;0,555556;0,444444;0,291667;0,291667;0,291667;0,364583;0,333333;0,395321;0,000000;0,000000;0,666667;0,000000;0,000000;0,000000;0,000000;0,466667;0,340168;0,333333;0,291667;0,384604;0,400000;0,357567;0,344956;0,333333;0,416667;0,000000;0,333333;0,416667;0,333333;0,333333;0,333333;0,416667;0,000000;0,000000;0,333333;0,333333;0,416667;0,333333;0,333333;0,416667;0,353921;0,329868;0,266667;0,266667;0,266667;0,555556;0,000000;0,000000;0,666667;0,000000;0,333333;0,000000;0,000000;0,416667;0,000000;0,000000;0,000000;0,000000;0,000000;0,416667;0,000000;0,000000;0,000000;0,555556;0,416667;0,416667;0,500000;0,416667;0,666667;
14;;;;;;;;;;;;;;1,000000;0,500000;0,629630;0,900000;0,500000;0,260000;0,260000;0,260000;0,472612;0,404762;0,501798;0,500000;0,500000;0,453017;0,388889;0,392857;0,333333;0,366667;0,366667;0,900000;0,500000;0,388889;0,366667;0,648148;0,505595;0,503207;0,482989;0,500000;0,500000;0,500000;0,300000;0,300000;0,487551;0,500000;0,000000;0,000000;0,000000;0,000000;0,833333;0,446306;0,462414;0,502045;0,500000;0,513724;0,379183;0,359047;0,500000;0,366667;0,833333;0,611111;0,300000;0,300000;0,300000;0,476190;0,366667;0,512864;0,000000;0,000000;0,366667;0,000000;0,000000;0,000000;0,000000;0,750000;0,433752;0,388889;0,300000;0,562649;0,557143;0,437357;0,431328;0,388889;0,500000;0,000000;0,388889;0,500000;0,366667;0,366667;0,366667;0,500000;0,000000;0,000000;0,366667;0,366667;0,500000;0,366667;0,366667;0,500000;0,480826;0,396842;0,260000;0,260000;0,260000;0,833333;0,000000;0,000000;0,900000;0,000000;0,366667;0,000000;0,000000;0,500000;0,000000;0,000000;0,000000;0,000000;0,000000;0,500000;0,000000;0,000000;0,000000;0,833333;0,500000;0,500000;0,785714;0,500000;0,900000;
15;;;;;;;;;;;;;;;1,000000;0,543210;0,750000;0,500000;0,350000;0,350000;0,350000;0,491441;0,458333;0,500539;0,500000;0,500000;0,481207;0,444444;0,453125;0,416667;0,416667;0,416667;0,750000;1,000000;0,444444;0,416667;0,555556;0,501678;0,501203;0,494950;0,500000;0,500000;0,500000;0,375000;0,375000;0,495721;0,500000;0,000000;0,000000;0,000000;0,000000;0,666667;0,476509;0,486576;0,500703;0,500000;0,504575;0,447143;0,429523;0,500000;0,416667;0,666667;0,555556;0,375000;0,375000;0,375000;0,489583;0,416667;0,506432;0,000000;0,000000;0,416667;0,000000;0,000000;0,000000;0,000000;0,600000;0,473501;0,444444;0,375000;0,523493;0,525000;0,468678;0,469956;0,444444;0,500000;0,000000;0,444444;0,500000;0,416667;0,416667;0,416667;0,500000;0,000000;0,000000;0,416667;0,416667;0,500000;0,416667;0,416667;0,500000;0,492810;0,454868;0,350000;0,350000;0,350000;0,666667;0,000000;0,000000;0,750000;0,000000;0,416667;0,000000;0,000000;0,500000;0,000000;0,000000;0,000000;0,000000;0,000000;0,500000;0,000000;0,000000;0,000000;0,666667;0,500000;0,500000;0,625000;0,500000;0,750000;
16;;;;;;;;;;;;;;;;1,000000;0,987654;0,543210;0,276543;0,276543;0,276543;0,681901;0,484848;0,750416;0,543210;0,543210;0,566986;0,444444;0,469697;0,377778;0,395062;0,395062;0,987654;0,606061;0,444444;0,395062;0,854701;0,756629;0,654014;0,725519;0,649573;0,629630;0,577778;0,320988;0,320988;0,663224;0,543210;0,000000;0,000000;0,000000;0,000000;0,977778;0,537722;0,612972;0,684481;0,543210;0,715031;0,452294;0,408634;0,543210;0,395062;0,977778;0,711111;0,320988;0,320988;0,320988;0,575758;0,395062;0,593214;0,000000;0,000000;0,395062;0,000000;0,000000;0,000000;0,000000;0,962963;0,541299;0,444444;0,320988;0,736317;0,678788;0,502606;0,518660;0,444444;0,543210;0,000000;0,444444;0,543210;0,395062;0,395062;0,395062;0,543210;0,000000;0,000000;0,395062;0,395062;0,543210;0,395062;0,395062;0,543210;0,623024;0,474768;0,276543;0,276543;0,276543;0,977778;0,000000;0,000000;0,987654;0,000000;0,395062;0,000000;0,000000;0,543210;0,000000;0,000000;0,000000;0,000000;0,000000;0,543210;0,000000;0,000000;0,000000;0,977778;0,543210;0,543210;0,969697;0,543210;0,987654;
17;;;;;;;;;;;;;;;;;1,000000;0,750000;0,600000;0,600000;0,600000;0,949774;0,833333;0,967206;0,750000;0,750000;0,881207;0,777778;0,828125;0,750000;0,666667;0,666667;1,000000;0,875000;0,777778;0,666667;0,972222;0,968345;0,917869;0,963700;0,916667;0,900000;0,833333;0,625000;0,625000;0,933221;0,750000;0,000000;0,000000;0,000000;0,000000;1,000000;0,851509;0,915148;0,938203;0,750000;0,949019;0,822143;0,762857;0,750000;0,666667;1,000000;0,888889;0,625000;0,625000;0,625000;0,864583;0,666667;0,839765;0,000000;0,000000;0,666667;0,000000;0,000000;0,000000;0,000000;1,000000;0,873501;0,777778;0,625000;0,940160;0,900000;0,802012;0,844956;0,777778;0,750000;0,000000;0,777778;0,750000;0,666667;0,666667;0,666667;0,750000;0,000000;0,000000;0,666667;0,666667;0,750000;0,666667;0,666667;0,750000;0,909476;0,829868;0,600000;0,600000;0,600000;1,000000;0,000000;0,000000;1,000000;0,000000;0,666667;0,000000;0,000000;0,750000;0,000000;0,000000;0,000000;0,000000;0,000000;0,750000;0,000000;0,000000;0,000000;1,000000;0,750000;0,750000;1,000000;0,750000;1,000000;
18;;;;;;;;;;;;;;;;;;1,000000;0,700000;0,700000;0,700000;0,969367;0,916667;0,979618;0,500000;0,500000;0,962414;0,888889;0,875000;0,833333;0,416667;0,416667;0,750000;0,500000;0,888889;0,833333;0,555556;0,501678;0,501203;0,965382;0,500000;0,500000;0,500000;0,750000;0,750000;0,983882;1,000000;0,000000;0,000000;0,000000;0,583333;0,666667;0,476509;0,486576;0,500703;0,500000;0,504575;0,894285;0,859047;0,500000;0,833333;0,666667;0,555556;0,375000;0,375000;0,375000;0,489583;0,833333;0,506432;0,000000;0,000000;0,416667;0,000000;0,666667;0,000000;0,000000;0,600000;0,473501;0,444444;0,750000;0,523493;0,525000;0,468678;0,469956;0,444444;0,500000;0,000000;0,888889;1,000000;0,416667;0,416667;0,416667;1,000000;0,000000;0,000000;0,416667;0,416667;0,500000;0,416667;0,416667;0,500000;0,492810;0,454868;0,350000;0,350000;0,350000;0,666667;0,000000;0,000000;0,750000;0,750000;0,833333;0,000000;0,000000;0,500000;0,000000;0,000000;0,000000;0,000000;0,000000;0,500000;0,000000;0,000000;0,000000;0,666667;0,500000;0,500000;0,625000;0,500000;0,750000;
19;;;;;;;;;;;;;;;;;;;1,000000;0,800000;0,800000;0,419367;0,466667;0,419618;0,350000;0,350000;0,482414;0,488889;0,425000;0,433333;0,266667;0,266667;0,600000;0,275000;0,488889;0,533333;0,305556;0,221678;0,251203;0,402882;0,250000;0,260000;0,300000;0,450000;0,450000;0,641174;0,700000;0,000000;0,000000;0,000000;0,333333;0,466667;0,251509;0,229434;0,238203;0,350000;0,237908;0,444285;0,459047;0,350000;0,533333;0,466667;0,355556;0,225000;0,225000;0,225000;0,264583;0,533333;0,306432;0,000000;0,000000;0,533333;0,000000;0,466667;0,000000;0,000000;0,360000;0,233501;0,244444;0,450000;0,273493;0,300000;0,268678;0,244956;0,244444;0,350000;0,000000;0,488889;0,700000;0,266667;0,266667;0,266667;0,700000;0,000000;0,000000;0,266667;0,266667;0,350000;0,266667;0,266667;0,350000;0,242810;0,229868;0,200000;0,200000;0,200000;0,466667;0,000000;0,000000;0,600000;0,600000;0,533333;0,000000;0,000000;0,350000;0,000000;0,000000;0,000000;0,000000;0,000000;0,350000;0,000000;0,000000;0,000000;0,466667;0,350000;0,350000;0,400000;0,350000;0,600000;
20;;;;;;;;;;;;;;;;;;;;1,000000;0,800000;0,419367;0,466667;0,419618;0,350000;0,350000;0,482414;0,488889;0,425000;0,433333;0,266667;0,266667;0,600000;0,275000;0,488889;0,533333;0,305556;0,221678;0,251203;0,402882;0,250000;0,260000;0,300000;0,450000;0,450000;0,641174;0,700000;0,000000;0,000000;0,000000;0,333333;0,466667;0,251509;0,229434;0,238203;0,350000;0,237908;0,444285;0,459047;0,350000;0,533333;0,466667;0,355556;0,225000;0,225000;0,225000;0,264583;0,533333;0,306432;0,000000;0,000000;0,533333;0,000000;0,466667;0,000000;0,000000;0,360000;0,233501;0,244444;0,450000;0,273493;0,300000;0,268678;0,244956;0,244444;0,350000;0,000000;0,488889;0,700000;0,266667;0,266667;0,266667;0,700000;0,000000;0,000000;0,266667;0,266667;0,350000;0,266667;0,266667;0,350000;0,242810;0,229868;0,200000;0,200000;0,200000;0,466667;0,000000;0,000000;0,600000;0,600000;0,533333;0,000000;0,000000;0,350000;0,000000;0,000000;0,000000;0,000000;0,000000;0,350000;0,000000;0,000000;0,000000;0,466667;0,350000;0,350000;0,400000;0,350000;0,600000;
21;;;;;;;;;;;;;;;;;;;;;1,000000;0,419367;0,466667;0,419618;0,350000;0,350000;0,482414;0,488889;0,425000;0,433333;0,266667;0,266667;0,600000;0,275000;0,488889;0,533333;0,305556;0,221678;0,251203;0,402882;0,250000;0,260000;0,300000;0,450000;0,450000;0,641174;0,700000;0,000000;0,000000;0,000000;0,333333;0,466667;0,251509;0,229434;0,238203;0,350000;0,237908;0,444285;0,459047;0,350000;0,533333;0,466667;0,355556;0,225000;0,225000;0,225000;0,264583;0,533333;0,306432;0,000000;0,000000;0,533333;0,000000;0,466667;0,000000;0,000000;0,360000;0,233501;0,244444;0,450000;0,273493;0,300000;0,268678;0,244956;0,244444;0,350000;0,000000;0,488889;0,700000;0,266667;0,266667;0,266667;0,700000;0,000000;0,000000;0,266667;0,266667;0,350000;0,266667;0,266667;0,350000;0,242810;0,229868;0,200000;0,200000;0,200000;0,466667;0,000000;0,000000;0,600000;0,600000;0,533333;0,000000;0,000000;0,350000;0,000000;0,000000;0,000000;0,000000;0,000000;0,350000;0,000000;0,000000;0,000000;0,466667;0,350000;0,350000;0,400000;0,350000;0,600000;
22;;;;;;;;;;;;;;;;;;;;;;1,000000;0,659324;0,659627;0,491441;0,491441;0,764158;0,661395;0,694473;0,747713;0,338663;0,338663;0,949774;0,477992;0,661395;0,663811;0,697071;0,453562;0,472866;0,553590;0,467904;0,472612;0,484199;0,742840;0,742840;0,778244;0,969367;0,000000;0,000000;0,000000;0,784724;0,907276;0,404162;0,402950;0,463496;0,491441;0,480593;0,588982;0,585642;0,491441;0,663811;0,907276;0,625225;0,262274;0,262274;0,262274;0,445253;0,663811;0,500526;0,000000;0,000000;0,338663;0,000000;0,894018;0,000000;0,000000;0,839278;0,375448;0,343173;0,511034;0,564814;0,556563;0,404690;0,383567;0,343173;0,491441;0,000000;0,661395;0,969367;0,338663;0,338663;0,338663;0,969367;0,000000;0,000000;0,338663;0,338663;0,491441;0,338663;0,338663;0,491441;0,438244;0,336149;0,216441;0,216441;0,216441;0,907276;0,000000;0,000000;0,949774;0,942593;0,663811;0,000000;0,000000;0,491441;0,000000;0,000000;0,000000;0,000000;0,000000;0,491441;0,000000;0,000000;0,000000;0,907276;0,491441;0,491441;0,870849;0,491441;0,949774;
23;;;;;;;;;;;;;;;;;;;;;;;1,000000;0,671539;0,458333;0,458333;0,728982;0,666667;0,905570;0,850000;0,333333;0,333333;0,833333;0,416667;0,666667;0,666667;0,520833;0,367188;0,398540;0,629908;0,395833;0,404762;0,433333;0,812500;0,812500;0,727982;0,916667;0,000000;0,000000;0,000000;0,583333;0,733333;0,369684;0,357567;0,385021;0,458333;0,390017;0,621904;0,612951;0,458333;0,666667;0,733333;0,533333;0,270833;0,270833;0,270833;0,395833;0,666667;0,444911;0,000000;0,000000;0,333333;0,000000;0,733333;0,000000;0,000000;0,619048;0,347978;0,333333;0,541667;0,448693;0,466667;0,376954;0,356579;0,333333;0,916667;0,000000;0,666667;0,916667;0,333333;0,333333;0,333333;0,916667;0,000000;0,000000;0,333333;0,333333;0,458333;0,333333;0,333333;0,458333;0,379655;0,326403;0,233333;0,233333;0,233333;0,733333;0,000000;0,000000;0,833333;0,833333;0,666667;0,000000;0,000000;0,458333;0,000000;0,000000;0,000000;0,000000;0,000000;0,458333;0,000000;0,000000;0,000000;0,733333;0,458333;0,458333;0,666667;0,458333;0,833333;
24;;;;;;;;;;;;;;;;;;;;;;;;1,000000;0,500539;0,500539;0,785893;0,670118;0,534284;0,524285;0,344984;0,344984;0,967206;0,501428;0,670118;0,668507;0,747743;0,653212;0,737108;0,657805;0,896346;0,895911;0,501011;0,512952;0,512952;0,812127;0,979618;0,000000;0,000000;0,000000;0,848121;0,938511;0,424044;0,803390;0,707709;0,968765;0,717103;0,597812;0,591782;0,973741;0,668507;0,938511;0,646844;0,267206;0,267206;0,267206;0,467114;0,668507;0,517895;0,000000;0,000000;0,344984;0,000000;0,927857;0,000000;0,000000;0,890686;0,563464;0,512036;0,512952;0,884239;0,917321;0,418792;0,402459;0,355178;0,500539;0,000000;0,670118;0,979618;0,344984;0,344984;0,344984;0,979618;0,000000;0,000000;0,344984;0,344984;0,500539;0,658406;0,658406;0,500539;0,470340;0,352758;0,220539;0,220539;0,220539;0,938511;0,000000;0,000000;0,967206;0,961524;0,668507;0,000000;0,000000;0,500539;0,000000;0,000000;0,000000;0,000000;0,000000;0,500539;0,000000;0,000000;0,000000;0,938511;0,500539;0,500539;0,913192;0,500539;0,967206;
25;;;;;;;;;;;;;;;;;;;;;;;;;1,000000;0,500000;0,481207;0,444444;0,453125;0,416667;0,416667;0,416667;0,750000;0,500000;0,444444;0,416667;0,555556;0,501678;0,501203;0,494950;0,500000;0,500000;0,500000;0,375000;0,375000;0,495721;0,500000;0,000000;0,000000;0,000000;0,000000;0,666667;0,476509;0,486576;0,500703;0,500000;0,504575;0,447143;0,429523;0,500000;0,416667;0,666667;0,555556;0,375000;0,375000;0,375000;0,489583;0,416667;0,506432;0,000000;0,000000;0,416667;0,000000;0,000000;0,000000;0,000000;0,600000;0,473501;0,444444;0,375000;0,523493;0,525000;0,468678;0,469956;0,444444;0,500000;0,000000;0,444444;0,500000;0,416667;0,416667;0,416667;0,500000;0,000000;0,000000;0,416667;0,416667;0,500000;0,416667;0,416667;0,500000;0,492810;0,454868;0,350000;0,350000;0,350000;0,666667;0,000000;0,000000;0,750000;0,000000;0,416667;0,000000;0,000000;0,500000;0,000000;0,000000;0,000000;0,000000;0,000000;0,500000;0,000000;0,000000;0,000000;0,666667;0,500000;0,500000;0,625000;0,500000;0,750000;
26;;;;;;;;;;;;;;;;;;;;;;;;;;1,000000;0,481207;0,444444;0,453125;0,416667;0,416667;0,416667;0,750000;0,500000;0,444444;0,416667;0,555556;0,501678;0,501203;0,494950;0,500000;0,500000;0,500000;0,375000;0,375000;0,495721;0,500000;0,000000;0,000000;0,000000;0,000000;0,666667;0,476509;0,486576;0,500703;0,500000;0,504575;0,447143;0,429523;0,500000;0,416667;0,666667;0,555556;0,375000;0,375000;0,375000;0,489583;0,416667;0,506432;0,000000;0,000000;0,416667;0,000000;0,000000;0,000000;0,000000;0,600000;0,473501;0,444444;0,375000;0,523493;0,525000;0,468678;0,469956;0,444444;0,500000;0,000000;0,444444;0,500000;0,416667;0,416667;0,416667;0,500000;0,000000;0,000000;0,416667;0,416667;0,500000;0,416667;0,416667;0,500000;0,492810;0,454868;0,350000;0,350000;0,350000;0,666667;0,000000;0,000000;0,750000;0,000000;0,416667;0,000000;0,000000;0,500000;0,000000;0,000000;0,000000;0,000000;0,000000;0,500000;0,000000;0,000000;0,000000;0,666667;0,500000;0,500000;0,625000;0,500000;0,750000;
27;;;;;;;;;;;;;;;;;;;;;;;;;;;1,000000;0,715134;0,633744;0,604023;0,347874;0,347874;0,881207;0,459729;0,715134;0,695747;0,595945;0,432510;0,451005;0,735027;0,447797;0,453017;0,468678;0,562414;0,562414;0,833518;0,962414;0,000000;0,000000;0,000000;0,670019;0,802012;0,406035;0,406035;0,442249;0,481207;0,451081;0,677824;0,655450;0,481207;0,695747;0,802012;0,579789;0,281207;0,281207;0,281207;0,435920;0,695747;0,481542;0,000000;0,000000;0,347874;0,000000;0,802012;0,000000;0,000000;0,703017;0,386770;0,357567;0,562414;0,510446;0,516872;0,406035;0,391057;0,357567;0,481207;0,000000;0,715134;0,962414;0,347874;0,347874;0,347874;0,962414;0,000000;0,000000;0,347874;0,347874;0,481207;0,347874;0,347874;0,481207;0,428623;0,356571;0,241207;0,241207;0,241207;0,802012;0,000000;0,000000;0,881207;0,881207;0,695747;0,000000;0,000000;0,481207;0,000000;0,000000;0,000000;0,000000;0,000000;0,481207;0,000000;0,000000;0,000000;0,802012;0,481207;0,481207;0,745443;0,481207;0,881207;
28;;;;;;;;;;;;;;;;;;;;;;;;;;;;1,000000;0,600000;0,583333;0,333333;0,333333;0,777778;0,400000;0,666667;0,666667;0,476190;0,357314;0,383014;0,640720;0,380952;0,388889;0,416667;0,555556;0,555556;0,712086;0,888889;0,000000;0,000000;0,000000;0,523810;0,666667;0,362414;0,351509;0,371620;0,444444;0,374901;0,630856;0,621904;0,444444;0,666667;0,666667;0,500000;0,277778;0,277778;0,277778;0,383333;0,666667;0,426314;0,000000;0,000000;0,333333;0,000000;0,666667;0,000000;0,000000;0,555556;0,344724;0,333333;0,555556;0,421227;0,440000;0,369684;0,351930;0,333333;0,444444;0,000000;0,666667;0,888889;0,333333;0,333333;0,333333;0,888889;0,000000;0,000000;0,333333;0,333333;0,444444;0,333333;0,333333;0,444444;0,368626;0,327789;0,244444;0,244444;0,244444;0,666667;0,000000;0,000000;0,777778;0,777778;0,666667;0,000000;0,000000;0,444444;0,000000;0,000000;0,000000;0,000000;0,000000;0,444444;0,000000;0,000000;0,000000;0,666667;0,444444;0,444444;0,600000;0,444444;0,777778;
29;;;;;;;;;;;;;;;;;;;;;;;;;;;;;1,000000;0,774456;0,328125;0,328125;0,828125;0,406250;0,600000;0,625000;0,507813;0,350031;0,385519;0,491020;0,382812;0,392857;0,425000;0,765285;0,765285;0,611316;0,875000;0,000000;0,000000;0,000000;0,531250;0,725000;0,359267;0,343678;0,370437;0,453125;0,374865;0,538570;0,546284;0,453125;0,625000;0,725000;0,525000;0,265625;0,265625;0,265625;0,385417;0,625000;0,436577;0,000000;0,000000;0,328125;0,000000;0,700000;0,000000;0,000000;0,607143;0,336073;0,325000;0,500000;0,435672;0,456250;0,368621;0,346162;0,325000;0,906250;0,000000;0,600000;0,875000;0,328125;0,328125;0,328125;0,875000;0,000000;0,000000;0,328125;0,328125;0,453125;0,328125;0,328125;0,453125;0,366634;0,315987;0,228125;0,228125;0,228125;0,725000;0,000000;0,000000;0,828125;0,812500;0,625000;0,000000;0,000000;0,453125;0,000000;0,000000;0,000000;0,000000;0,000000;0,453125;0,000000;0,000000;0,000000;0,725000;0,453125;0,453125;0,656250;0,453125;0,828125;
30;;;;;;;;;;;;;;;;;;;;;;;;;;;;;;1,000000;0,305556;0,305556;0,750000;0,350000;0,583333;0,611111;0,416667;0,284397;0,323491;0,493661;0,321429;0,333333;0,375000;0,750000;0,750000;0,582456;0,833333;0,000000;0,000000;0,000000;0,464286;0,625000;0,312414;0,289009;0,306805;0,416667;0,308235;0,530856;0,538570;0,416667;0,611111;0,625000;0,458333;0,250000;0,250000;0,250000;0,333333;0,611111;0,384648;0,000000;0,000000;0,305556;0,000000;0,625000;0,000000;0,000000;0,500000;0,289168;0,291667;0,500000;0,361703;0,390000;0,328017;0,301930;0,291667;0,833333;0,000000;0,583333;0,833333;0,305556;0,305556;0,305556;0,833333;0,000000;0,000000;0,305556;0,305556;0,416667;0,305556;0,305556;0,416667;0,309102;0,277789;0,216667;0,216667;0,216667;0,625000;0,000000;0,000000;0,750000;0,750000;0,611111;0,000000;0,000000;0,416667;0,000000;0,000000;0,000000;0,000000;0,000000;0,416667;0,000000;0,000000;0,000000;0,625000;0,416667;0,416667;0,550000;0,416667;0,750000;
31;;;;;;;;;;;;;;;;;;;;;;;;;;;;;;;1,000000;0,666667;0,666667;0,375000;0,333333;0,333333;0,416667;0,346123;0,362314;0,338700;0,361111;0,366667;0,777778;0,291667;0,291667;0,349887;0,416667;0,000000;0,000000;0,000000;0,000000;0,555556;0,703017;0,343719;0,354870;0,416667;0,356427;0,322143;0,318412;0,416667;0,333333;0,555556;0,444444;0,291667;0,291667;0,291667;0,364583;0,333333;0,695157;0,000000;0,000000;0,333333;0,000000;0,000000;0,000000;0,000000;0,466667;0,340168;0,333333;0,291667;0,384604;0,400000;0,357567;0,344956;0,333333;0,416667;0,000000;0,333333;0,416667;0,333333;0,333333;0,333333;0,416667;0,000000;0,000000;0,333333;0,333333;0,416667;0,333333;0,333333;0,416667;0,353921;0,329868;0,266667;0,266667;0,266667;0,555556;0,000000;0,000000;0,666667;0,000000;0,333333;0,000000;0,000000;0,416667;0,000000;0,000000;0,000000;0,000000;0,000000;0,416667;0,000000;0,000000;0,000000;0,555556;0,416667;0,416667;0,500000;0,416667;0,666667;
32;;;;;;;;;;;;;;;;;;;;;;;;;;;;;;;;1,000000;0,666667;0,375000;0,333333;0,333333;0,416667;0,346123;0,362314;0,338700;0,361111;0,366667;0,777778;0,291667;0,291667;0,349887;0,416667;0,000000;0,000000;0,000000;0,000000;0,555556;0,703017;0,343719;0,354870;0,416667;0,356427;0,322143;0,318412;0,416667;0,333333;0,555556;0,444444;0,291667;0,291667;0,291667;0,364583;0,333333;0,695157;0,000000;0,000000;0,333333;0,000000;0,000000;0,000000;0,000000;0,466667;0,340168;0,333333;0,291667;0,384604;0,400000;0,357567;0,344956;0,333333;0,416667;0,000000;0,333333;0,416667;0,333333;0,333333;0,333333;0,416667;0,000000;0,000000;0,333333;0,333333;0,416667;0,333333;0,333333;0,416667;0,353921;0,329868;0,266667;0,266667;0,266667;0,555556;0,000000;0,000000;0,666667;0,000000;0,333333;0,000000;0,000000;0,416667;0,000000;0,000000;0,000000;0,000000;0,000000;0,416667;0,000000;0,000000;0,000000;0,555556;0,416667;0,416667;0,500000;0,416667;0,666667;
33;;;;;;;;;;;;;;;;;;;;;;;;;;;;;;;;;1,000000;0,875000;0,777778;0,666667;0,972222;0,968345;0,917869;0,963700;0,916667;0,900000;0,833333;0,625000;0,625000;0,933221;0,750000;0,000000;0,000000;0,000000;0,000000;1,000000;0,851509;0,915148;0,938203;0,750000;0,949019;0,822143;0,762857;0,750000;0,666667;1,000000;0,888889;0,625000;0,625000;0,625000;0,864583;0,666667;0,839765;0,000000;0,000000;0,666667;0,000000;0,000000;0,000000;0,000000;1,000000;0,873501;0,777778;0,625000;0,940160;0,900000;0,802012;0,844956;0,777778;0,750000;0,000000;0,777778;0,750000;0,666667;0,666667;0,666667;0,750000;0,000000;0,000000;0,666667;0,666667;0,750000;0,666667;0,666667;0,750000;0,909476;0,829868;0,600000;0,600000;0,600000;1,000000;0,000000;0,000000;1,000000;0,000000;0,666667;0,000000;0,000000;0,750000;0,000000;0,000000;0,000000;0,000000;0,000000;0,750000;0,000000;0,000000;0,000000;1,000000;0,750000;0,750000;1,000000;0,750000;1,000000;
34;;;;;;;;;;;;;;;;;;;;;;;;;;;;;;;;;;1,000000;0,400000;0,375000;0,625000;0,504443;0,502706;0,486533;0,500000;0,500000;0,500000;0,312500;0,312500;0,489730;0,500000;0,000000;0,000000;0,000000;0,000000;0,800000;0,453017;0,468678;0,501687;0,500000;0,511229;0,394285;0,373142;0,500000;0,375000;0,800000;0,600000;0,312500;0,312500;0,312500;0,479167;0,375000;0,511577;0,000000;0,000000;0,375000;0,000000;0,000000;0,000000;0,000000;0,714286;0,443216;0,400000;0,312500;0,552860;0,550000;0,443621;0,439912;0,400000;0,500000;0,000000;0,400000;0,500000;0,375000;0,375000;0,375000;0,500000;0,000000;0,000000;0,375000;0,375000;0,500000;0,375000;0,375000;0,500000;0,483822;0,409737;0,275000;0,275000;0,275000;0,800000;0,000000;0,000000;0,875000;0,000000;0,375000;0,000000;0,000000;0,500000;0,000000;0,000000;0,000000;0,000000;0,000000;0,500000;0,000000;0,000000;0,000000;0,800000;0,500000;0,500000;0,750000;0,500000;0,875000;
35;;;;;;;;;;;;;;;;;;;;;;;;;;;;;;;;;;;1,000000;0,666667;0,476190;0,357314;0,383014;0,640720;0,380952;0,388889;0,416667;0,555556;0,555556;0,712086;0,888889;0,000000;0,000000;0,000000;0,523810;0,666667;0,362414;0,351509;0,371620;0,444444;0,374901;0,630856;0,621904;0,444444;0,666667;0,666667;0,500000;0,277778;0,277778;0,277778;0,383333;0,666667;0,426314;0,000000;0,000000;0,333333;0,000000;0,666667;0,000000;0,000000;0,555556;0,344724;0,333333;0,555556;0,421227;0,440000;0,369684;0,351930;0,333333;0,444444;0,000000;0,666667;0,888889;0,333333;0,333333;0,333333;0,888889;0,000000;0,000000;0,333333;0,333333;0,444444;0,333333;0,333333;0,444444;0,368626;0,327789;0,244444;0,244444;0,244444;0,666667;0,000000;0,000000;0,777778;0,777778;0,946542;0,000000;0,000000;0,444444;0,000000;0,000000;0,000000;0,000000;0,000000;0,444444;0,000000;0,000000;0,000000;0,666667;0,444444;0,444444;0,600000;0,444444;0,777778;
36;;;;;;;;;;;;;;;;;;;;;;;;;;;;;;;;;;;;1,000000;0,416667;0,346123;0,362314;0,652882;0,361111;0,366667;0,388889;0,583333;0,583333;0,692215;0,833333;0,000000;0,000000;0,000000;0,444444;0,555556;0,351509;0,343719;0,354870;0,416667;0,356427;0,644285;0,636825;0,416667;0,666667;0,555556;0,444444;0,291667;0,291667;0,291667;0,364583;0,666667;0,395321;0,000000;0,000000;0,333333;0,000000;0,555556;0,000000;0,000000;0,466667;0,340168;0,333333;0,583333;0,384604;0,400000;0,357567;0,344956;0,333333;0,416667;0,000000;0,946542;0,833333;0,333333;0,333333;0,333333;0,833333;0,000000;0,000000;0,333333;0,333333;0,416667;0,333333;0,333333;0,416667;0,353921;0,329868;0,266667;0,266667;0,266667;0,555556;0,000000;0,000000;0,666667;0,666667;0,666667;0,000000;0,000000;0,416667;0,000000;0,000000;0,000000;0,000000;0,000000;0,416667;0,000000;0,000000;0,000000;0,555556;0,416667;0,416667;0,500000;0,416667;0,666667;
37;;;;;;;;;;;;;;;;;;;;;;;;;;;;;;;;;;;;;1,000000;0,752239;0,670275;0,729800;0,666667;0,648148;0,595238;0,347222;0,347222;0,680180;0,555556;0,000000;0,000000;0,000000;0,000000;0,952381;0,566272;0,639107;0,696788;0,555556;0,720964;0,492856;0,444217;0,555556;0,416667;0,952381;0,714286;0,583333;0,583333;0,583333;0,598958;0,416667;0,609020;0,000000;0,000000;0,416667;0,000000;0,000000;0,000000;0,000000;0,925926;0,574539;0,476190;0,347222;0,737146;0,687500;0,528120;0,549890;0,476190;0,555556;0,000000;0,476190;0,555556;0,416667;0,416667;0,416667;0,555556;0,000000;0,000000;0,416667;0,416667;0,555556;0,416667;0,416667;0,555556;0,645096;0,512171;0,305556;0,305556;0,305556;0,952381;0,000000;0,000000;0,972222;0,000000;0,416667;0,000000;0,000000;0,555556;0,000000;0,000000;0,000000;0,000000;0,000000;0,555556;0,000000;0,000000;0,000000;0,952381;0,555556;0,555556;0,937500;0,555556;0,972222;
38;;;;;;;;;;;;;;;;;;;;;;;;;;;;;;;;;;;;;;1,000000;0,589201;0,674817;0,890328;0,505595;0,503147;0,268345;0,268345;0,485569;0,501678;0,000000;0,000000;0,000000;0,000000;0,940647;0,427060;0,743422;0,700804;0,969921;0,709572;0,330324;0,318146;0,972216;0,658819;0,940647;0,648980;0,268345;0,268345;0,268345;0,470129;0,346123;0,520030;0,000000;0,000000;0,346123;0,000000;0,000000;0,000000;0,000000;0,894483;0,720110;0,526852;0,268345;0,888922;0,920382;0,420927;0,405474;0,357314;0,501678;0,000000;0,357314;0,501678;0,346123;0,659582;0,659582;0,501678;0,000000;0,000000;0,346123;0,346123;0,969931;0,658819;0,658819;0,501678;0,474836;0,355774;0,221678;0,221678;0,221678;0,940647;0,000000;0,000000;0,968345;0,000000;0,346123;0,000000;0,000000;0,976322;0,000000;0,000000;0,000000;0,000000;0,000000;0,501678;0,000000;0,000000;0,000000;0,940647;0,501678;0,501678;0,916207;0,501678;0,968345;
39;;;;;;;;;;;;;;;;;;;;;;;;;;;;;;;;;;;;;;;1,000000;0,724274;0,503608;0,915779;0,502062;0,292869;0,292869;0,489946;0,501203;0,000000;0,000000;0,000000;0,000000;0,859205;0,443978;0,657071;0,702999;0,501203;0,723307;0,370563;0,351041;0,501203;0,362314;0,859205;0,621110;0,292869;0,292869;0,292869;0,476665;0,362314;0,515844;0,000000;0,000000;0,362314;0,000000;0,000000;0,000000;0,000000;0,780985;0,429599;0,595316;0,292869;0,574088;0,565206;0,434944;0,427596;0,383014;0,501203;0,000000;0,383014;0,501203;0,362314;0,655471;0,655471;0,501203;0,000000;0,000000;0,362314;0,362314;0,501203;0,362314;0,362314;0,501203;0,482037;0,389877;0,251203;0,251203;0,251203;0,859205;0,000000;0,000000;0,917869;0,000000;0,362314;0,000000;0,000000;0,501203;0,000000;0,000000;0,000000;0,000000;0,000000;0,501203;0,000000;0,000000;0,000000;0,859205;0,501203;0,501203;0,815206;0,501203;0,917869;
40;;;;;;;;;;;;;;;;;;;;;;;;;;;;;;;;;;;;;;;;1,000000;0,479800;0,887492;0,490494;0,496632;0,496632;0,735846;0,965382;0,000000;0,000000;0,000000;0,833333;0,931671;0,408229;0,575856;0,678976;0,964904;0,685923;0,555303;0,561726;0,494950;0,970447;0,931671;0,637553;0,260575;0,260575;0,260575;0,451811;0,652882;0,507519;0,000000;0,000000;0,338700;0,000000;0,921569;0,000000;0,000000;0,877726;0,561208;0,504105;0,496632;0,865384;0,906411;0,407584;0,386386;0,343435;0,494950;0,000000;0,640720;0,965382;0,338700;0,338700;0,338700;0,965382;0,000000;0,000000;0,654638;0,654638;0,968633;0,656133;0,656133;0,967138;0,447443;0,336094;0,213700;0,213700;0,213700;0,931671;0,000000;0,000000;0,963700;0,958333;0,652882;0,000000;0,000000;0,494950;0,000000;0,000000;0,000000;0,000000;0,000000;0,494950;0,000000;0,000000;0,000000;0,931671;0,494950;0,494950;0,903200;0,494950;0,963700;
41;;;;;;;;;;;;;;;;;;;;;;;;;;;;;;;;;;;;;;;;;1,000000;0,500000;0,500000;0,291667;0,291667;0,485736;0,500000;0,000000;0,000000;0,000000;0,000000;0,857143;0,441272;0,914577;0,813556;0,500000;0,839938;0,367856;0,348979;1,000000;0,361111;0,857143;0,619048;0,291667;0,291667;0,291667;0,473958;0,361111;0,513782;0,000000;0,000000;0,361111;0,000000;0,000000;0,000000;0,000000;0,777778;0,750710;0,380952;0,291667;0,570480;0,562500;0,432882;0,424890;0,380952;0,500000;0,000000;0,380952;0,500000;0,361111;0,361111;0,361111;0,500000;0,000000;0,000000;0,361111;0,361111;0,500000;0,361111;0,361111;0,500000;0,478429;0,387171;0,250000;0,250000;0,250000;0,857143;0,000000;0,000000;0,916667;0,000000;0,361111;0,000000;0,000000;0,500000;0,000000;0,000000;0,000000;0,000000;0,000000;0,500000;0,000000;0,000000;0,000000;0,857143;0,500000;0,500000;0,812500;0,500000;0,916667;
42;;;;;;;;;;;;;;;;;;;;;;;;;;;;;;;;;;;;;;;;;;1,000000;0,500000;0,300000;0,300000;0,487551;0,500000;0,000000;0,000000;0,000000;0,000000;0,833333;0,446306;0,789181;0,837270;0,500000;0,861264;0,379183;0,359047;0,500000;0,366667;0,833333;0,611111;0,300000;0,300000;0,300000;0,476190;0,366667;0,512864;0,000000;0,000000;0,366667;0,000000;0,000000;0,000000;0,000000;0,750000;0,433752;0,672827;0,300000;0,562649;0,557143;0,437357;0,431328;0,388889;0,500000;0,000000;0,388889;0,500000;0,366667;0,366667;0,366667;0,500000;0,000000;0,000000;0,366667;0,366667;0,500000;0,366667;0,366667;0,500000;0,480826;0,396842;0,260000;0,260000;0,260000;0,833333;0,000000;0,000000;0,900000;0,000000;0,366667;0,000000;0,000000;0,500000;0,000000;0,000000;0,000000;0,000000;0,000000;0,500000;0,000000;0,000000;0,000000;0,833333;0,500000;0,500000;0,785714;0,500000;0,900000;
43;;;;;;;;;;;;;;;;;;;;;;;;;;;;;;;;;;;;;;;;;;;1,000000;0,333333;0,333333;0,492393;0,500000;0,000000;0,000000;0,000000;0,000000;0,750000;0,924828;0,476509;0,501250;0,500000;0,508235;0,415428;0,394285;0,500000;0,388889;0,750000;0,583333;0,333333;0,333333;0,333333;0,483333;0,388889;0,876069;0,000000;0,000000;0,388889;0,000000;0,000000;0,000000;0,000000;0,666667;0,455835;0,416667;0,333333;0,540274;0,540000;0,453017;0,451930;0,416667;0,500000;0,000000;0,416667;0,500000;0,388889;0,388889;0,388889;0,500000;0,000000;0,000000;0,388889;0,388889;0,500000;0,388889;0,388889;0,500000;0,487674;0,427789;0,300000;0,300000;0,300000;0,750000;0,000000;0,000000;0,833333;0,000000;0,388889;0,000000;0,000000;0,500000;0,000000;0,000000;0,000000;0,000000;0,000000;0,500000;0,000000;0,000000;0,000000;0,750000;0,500000;0,500000;0,700000;0,500000;0,833333;
44;;;;;;;;;;;;;;;;;;;;;;;;;;;;;;;;;;;;;;;;;;;;1,000000;0,750000;0,546382;0,750000;0,000000;0,000000;0,000000;0,375000;0,500000;0,289009;0,272291;0,281953;0,375000;0,282353;0,519285;0,525714;0,375000;0,583333;0,500000;0,388889;0,250000;0,250000;0,250000;0,302083;0,583333;0,339765;0,000000;0,000000;0,291667;0,000000;0,500000;0,000000;0,000000;0,400000;0,273501;0,277778;0,500000;0,315160;0,337500;0,302012;0,282456;0,277778;0,750000;0,000000;0,555556;0,750000;0,291667;0,291667;0,291667;0,750000;0,000000;0,000000;0,291667;0,291667;0,375000;0,291667;0,291667;0,375000;0,284476;0,267368;0,225000;0,225000;0,225000;0,500000;0,000000;0,000000;0,625000;0,625000;0,583333;0,000000;0,000000;0,375000;0,000000;0,000000;0,000000;0,000000;0,000000;0,375000;0,000000;0,000000;0,000000;0,500000;0,375000;0,375000;0,437500;0,375000;0,625000;
45;;;;;;;;;;;;;;;;;;;;;;;;;;;;;;;;;;;;;;;;;;;;;1,000000;0,546382;0,750000;0,000000;0,000000;0,000000;0,375000;0,500000;0,289009;0,272291;0,281953;0,375000;0,282353;0,519285;0,525714;0,375000;0,583333;0,500000;0,388889;0,250000;0,250000;0,250000;0,302083;0,583333;0,339765;0,000000;0,000000;0,291667;0,000000;0,500000;0,000000;0,000000;0,400000;0,273501;0,277778;0,500000;0,315160;0,337500;0,302012;0,282456;0,277778;0,750000;0,000000;0,555556;0,750000;0,291667;0,291667;0,291667;0,750000;0,000000;0,000000;0,291667;0,291667;0,375000;0,291667;0,291667;0,375000;0,284476;0,267368;0,225000;0,225000;0,225000;0,500000;0,000000;0,000000;0,625000;0,625000;0,583333;0,000000;0,000000;0,375000;0,000000;0,000000;0,000000;0,000000;0,000000;0,375000;0,000000;0,000000;0,000000;0,500000;0,375000;0,375000;0,437500;0,375000;0,625000;
46;;;;;;;;;;;;;;;;;;;;;;;;;;;;;;;;;;;;;;;;;;;;;;1,000000;0,983882;0,000000;0,000000;0,000000;0,442603;0,881281;0,423954;0,433603;0,485695;0,495721;0,500956;0,665314;0,642454;0,495721;0,692215;0,881281;0,622022;0,276971;0,276971;0,276971;0,460563;0,692215;0,507400;0,500000;0,500000;0,650513;0,000000;0,888889;0,000000;0,000000;0,805733;0,403236;0,362763;0,546382;0,567962;0,559730;0,419308;0,405607;0,362763;0,495721;0,000000;0,712086;0,983882;0,349887;0,349887;0,349887;0,983882;0,354167;0,354167;0,349887;0,349887;0,495721;0,349887;0,349887;0,495721;0,460570;0,363361;0,233221;0,233221;0,233221;0,881281;0,000000;0,000000;0,933221;0,937500;0,692215;0,000000;0,000000;0,495721;0,000000;0,000000;0,000000;0,000000;0,000000;0,495721;0,000000;0,000000;0,000000;0,881281;0,495721;0,495721;0,839730;0,495721;0,933221;
47;;;;;;;;;;;;;;;;;;;;;;;;;;;;;;;;;;;;;;;;;;;;;;;1,000000;0,000000;0,000000;0,000000;0,583333;0,666667;0,476509;0,486576;0,500703;0,500000;0,504575;0,894285;0,859047;0,500000;0,833333;0,666667;0,555556;0,375000;0,375000;0,375000;0,489583;0,833333;0,506432;0,000000;0,000000;0,416667;0,000000;0,666667;0,000000;0,000000;0,600000;0,473501;0,444444;0,750000;0,523493;0,525000;0,468678;0,469956;0,444444;0,500000;0,000000;0,888889;1,000000;0,416667;0,416667;0,416667;1,000000;0,000000;0,000000;0,416667;0,416667;0,500000;0,416667;0,416667;0,500000;0,492810;0,454868;0,350000;0,350000;0,350000;0,666667;0,000000;0,000000;0,750000;0,750000;0,833333;0,000000;0,000000;0,500000;0,000000;0,000000;0,000000;0,000000;0,000000;0,500000;0,000000;0,000000;0,000000;0,666667;0,500000;0,500000;0,625000;0,500000;0,750000;
48;;;;;;;;;;;;;;;;;;;;;;;;;;;;;;;;;;;;;;;;;;;;;;;;1,000000;0,500000;0,500000;0,000000;0,000000;0,000000;0,000000;0,000000;0,000000;0,000000;0,000000;0,000000;0,000000;0,000000;0,000000;0,000000;0,000000;0,000000;0,000000;0,000000;0,000000;0,000000;0,000000;0,000000;0,000000;0,000000;0,000000;0,000000;0,000000;0,000000;0,000000;0,000000;0,000000;0,000000;0,000000;0,000000;0,000000;0,000000;0,000000;0,000000;0,000000;0,000000;0,000000;0,000000;0,000000;0,000000;0,000000;0,000000;0,000000;0,000000;0,000000;0,000000;0,000000;0,000000;0,000000;0,000000;0,000000;0,000000;0,000000;0,000000;0,000000;0,000000;0,000000;0,000000;0,000000;0,000000;0,000000;0,000000;0,000000;0,000000;0,000000;0,000000;0,000000;0,000000;0,000000;0,000000;0,000000;0,000000;0,000000;0,000000;0,000000;0,000000;0,000000;
49;;;;;;;;;;;;;;;;;;;;;;;;;;;;;;;;;;;;;;;;;;;;;;;;;1,000000;0,500000;0,000000;0,000000;0,000000;0,000000;0,000000;0,000000;0,000000;0,000000;0,000000;0,000000;0,000000;0,000000;0,000000;0,000000;0,000000;0,000000;0,000000;0,000000;0,000000;0,000000;0,000000;0,000000;0,000000;0,000000;0,000000;0,000000;0,000000;0,000000;0,000000;0,000000;0,000000;0,000000;0,000000;0,000000;0,000000;0,000000;0,000000;0,000000;0,000000;0,000000;0,000000;0,000000;0,000000;0,000000;0,000000;0,000000;0,000000;0,000000;0,000000;0,000000;0,000000;0,000000;0,000000;0,000000;0,000000;0,000000;0,000000;0,000000;0,000000;0,000000;0,000000;0,000000;0,000000;0,000000;0,000000;0,000000;0,000000;0,000000;0,000000;0,000000;0,000000;0,000000;0,000000;0,000000;0,000000;0,000000;0,000000;0,000000;0,000000;0,000000;
50;;;;;;;;;;;;;;;;;;;;;;;;;;;;;;;;;;;;;;;;;;;;;;;;;;1,000000;0,000000;0,000000;0,000000;0,000000;0,000000;0,000000;0,000000;0,000000;0,000000;0,000000;0,000000;0,000000;0,000000;0,000000;0,000000;0,000000;0,000000;0,000000;0,000000;0,000000;0,000000;0,000000;0,000000;0,000000;0,000000;0,000000;0,000000;0,000000;0,000000;0,000000;0,000000;0,000000;0,000000;0,000000;0,000000;0,000000;0,000000;0,000000;0,000000;0,000000;0,000000;0,000000;0,000000;0,000000;0,000000;0,000000;0,000000;0,000000;0,000000;0,000000;0,000000;0,000000;0,000000;0,000000;0,000000;0,000000;0,000000;0,000000;0,000000;0,000000;0,000000;0,000000;0,000000;0,000000;0,000000;0,000000;0,000000;0,000000;0,000000;0,000000;0,000000;0,000000;0,000000;0,000000;0,000000;0,000000;0,000000;0,000000;0,000000;0,000000;
51;;;;;;;;;;;;;;;;;;;;;;;;;;;;;;;;;;;;;;;;;;;;;;;;;;;1,000000;0,000000;0,000000;0,000000;0,000000;0,000000;0,000000;0,723327;0,491836;0,000000;0,444444;0,000000;0,000000;0,000000;0,000000;0,000000;0,000000;0,444444;0,000000;0,472222;0,666667;0,000000;0,000000;1,000000;0,000000;0,000000;0,000000;0,000000;0,000000;0,375000;0,000000;0,000000;0,000000;0,000000;0,000000;0,000000;0,000000;0,523810;0,583333;0,000000;0,000000;0,000000;0,583333;0,666667;0,666667;0,000000;0,000000;0,000000;0,000000;0,000000;0,000000;0,000000;0,000000;0,000000;0,000000;0,000000;0,000000;0,000000;0,000000;0,000000;1,000000;0,444444;0,000000;0,000000;0,000000;0,000000;0,000000;0,000000;0,000000;0,000000;0,000000;0,000000;0,000000;0,000000;0,000000;0,000000;0,000000;0,000000;0,000000;0,000000;
52;;;;;;;;;;;;;;;;;;;;;;;;;;;;;;;;;;;;;;;;;;;;;;;;;;;;1,000000;0,762414;0,851509;0,890139;0,666667;0,908235;0,715428;0,644285;0,666667;0,555556;1,000000;0,833333;0,500000;0,500000;0,500000;0,783333;0,555556;0,759648;0,000000;0,000000;0,555556;0,000000;0,000000;0,000000;0,000000;1,000000;0,789168;0,666667;0,500000;0,897417;0,840000;0,703017;0,751930;0,666667;0,666667;0,000000;0,666667;0,666667;0,555556;0,555556;0,555556;0,666667;0,000000;0,000000;0,555556;0,555556;0,666667;0,555556;0,555556;0,666667;0,844817;0,727789;0,466667;0,466667;0,466667;1,000000;0,000000;0,000000;1,000000;0,000000;0,555556;0,000000;0,000000;0,666667;0,000000;0,000000;0,000000;0,000000;0,000000;0,666667;0,000000;0,000000;0,000000;1,000000;0,666667;0,666667;1,000000;0,666667;1,000000;
53;;;;;;;;;;;;;;;;;;;;;;;;;;;;;;;;;;;;;;;;;;;;;;;;;;;;;1,000000;0,406035;0,435912;0,476509;0,442891;0,347303;0,335556;0,476509;0,351509;0,762414;0,562414;0,289009;0,289009;0,289009;0,432184;0,351509;0,776110;0,000000;0,000000;0,351509;0,000000;0,000000;0,000000;0,000000;0,660591;0,389522;0,362414;0,289009;0,494132;0,503017;0,406035;0,392929;0,362414;0,476509;0,000000;0,362414;0,476509;0,351509;0,351509;0,351509;0,476509;0,000000;0,000000;0,351509;0,351509;0,476509;0,351509;0,351509;0,476509;0,425093;0,362754;0,251509;0,251509;0,251509;0,762414;0,000000;0,000000;0,851509;0,000000;0,351509;0,000000;0,000000;0,476509;0,250000;0,250000;0,750000;0,250000;0,250000;0,476509;0,750000;0,750000;0,750000;0,762414;0,476509;0,476509;0,703017;0,476509;0,851509;
54;;;;;;;;;;;;;;;;;;;;;;;;;;;;;;;;;;;;;;;;;;;;;;;;;;;;;;1,000000;0,752546;0,486576;0,772930;0,327725;0,317936;0,973153;0,343719;0,851509;0,601509;0,272291;0,272291;0,272291;0,440900;0,343719;0,490980;0,000000;0,000000;0,343719;0,000000;0,000000;0,000000;0,000000;0,762414;0,655594;0,500169;0,272291;0,534176;0,535345;0,406035;0,388561;0,351509;0,486576;0,000000;0,351509;0,486576;0,343719;0,343719;0,343719;0,486576;0,000000;0,000000;0,648225;0,648225;0,486576;0,343719;0,343719;0,933939;0,433756;0,348327;0,229434;0,229434;0,229434;0,851509;0,000000;0,000000;0,915148;0,000000;0,343719;0,000000;0,000000;0,486576;0,000000;0,000000;0,000000;0,000000;0,000000;0,486576;0,000000;0,000000;0,000000;0,851509;0,486576;0,486576;0,802012;0,486576;0,915148;
55;;;;;;;;;;;;;;;;;;;;;;;;;;;;;;;;;;;;;;;;;;;;;;;;;;;;;;;1,000000;0,500703;0,777891;0,353687;0,336805;0,944067;0,652395;0,890139;0,630880;0,281953;0,281953;0,281953;0,472521;0,354870;0,516257;0,000000;0,000000;0,354870;0,000000;0,000000;0,000000;0,000000;0,820227;0,551734;0,518852;0,281953;0,695620;0,885429;0,428166;0,417564;0,371620;0,500703;0,000000;0,371620;0,500703;0,354870;0,354870;0,354870;0,500703;0,000000;0,000000;0,354870;0,354870;0,944062;0,652395;0,652395;0,500703;0,477177;0,375319;0,238203;0,238203;0,238203;0,890139;0,000000;0,000000;0,938203;0,000000;0,354870;0,000000;0,000000;0,500703;0,000000;0,000000;0,000000;0,000000;0,000000;0,500703;0,000000;0,000000;0,000000;0,890139;0,500703;0,500703;0,851687;0,500703;0,938203;
56;;;;;;;;;;;;;;;;;;;;;;;;;;;;;;;;;;;;;;;;;;;;;;;;;;;;;;;;1,000000;0,960458;0,447143;0,429523;0,500000;0,416667;0,666667;0,555556;0,375000;0,375000;0,375000;0,489583;0,416667;0,506432;0,000000;0,000000;0,416667;0,000000;0,000000;0,000000;0,000000;0,600000;0,473501;0,444444;0,375000;0,980194;0,525000;0,468678;0,469956;0,444444;0,500000;0,000000;0,444444;0,500000;0,416667;0,416667;0,416667;0,500000;0,000000;0,000000;0,416667;0,416667;0,500000;0,416667;0,416667;0,500000;0,492810;0,454868;0,350000;0,350000;0,350000;0,666667;0,000000;0,000000;0,750000;0,000000;0,416667;0,000000;0,000000;0,500000;0,000000;0,000000;0,000000;0,000000;0,000000;0,500000;0,000000;0,000000;0,000000;0,666667;0,500000;0,500000;0,625000;0,500000;0,750000;
57;;;;;;;;;;;;;;;;;;;;;;;;;;;;;;;;;;;;;;;;;;;;;;;;;;;;;;;;;1,000000;0,357462;0,339091;0,953760;0,657458;0,908235;0,641568;0,282353;0,282353;0,282353;0,480926;0,356427;0,523671;0,000000;0,000000;0,356427;0,000000;0,000000;0,000000;0,000000;0,847058;0,562132;0,524151;0,282353;0,789996;0,583956;0,433062;0,423828;0,374901;0,504575;0,000000;0,374901;0,504575;0,356427;0,356427;0,356427;0,504575;0,000000;0,000000;0,356427;0,356427;0,953755;0,657458;0,657458;0,504575;0,489287;0,379937;0,237908;0,237908;0,237908;0,908235;0,000000;0,000000;0,949019;0,000000;0,356427;0,000000;0,000000;0,504575;0,000000;0,000000;0,000000;0,000000;0,000000;0,504575;0,000000;0,000000;0,000000;0,908235;0,504575;0,504575;0,874865;0,504575;0,949019;
58;;;;;;;;;;;;;;;;;;;;;;;;;;;;;;;;;;;;;;;;;;;;;;;;;;;;;;;;;;1,000000;0,713007;0,447143;0,644285;0,715428;0,515428;0,259643;0,259643;0,259643;0,373452;0,644285;0,427005;0,000000;0,000000;0,322143;0,000000;0,715428;0,000000;0,000000;0,593469;0,322399;0,315428;0,778928;0,420716;0,444285;0,359049;0,334197;0,315428;0,447143;0,000000;0,630856;0,894285;0,322143;0,322143;0,322143;0,894285;0,000000;0,000000;0,322143;0,322143;0,447143;0,322143;0,322143;0,447143;0,351678;0,304022;0,222143;0,222143;0,222143;0,715428;0,000000;0,000000;0,822143;0,822143;0,644285;0,000000;0,000000;0,447143;0,000000;0,000000;0,000000;0,000000;0,000000;0,447143;0,000000;0,000000;0,000000;0,715428;0,447143;0,447143;0,644285;0,447143;0,822143;
59;;;;;;;;;;;;;;;;;;;;;;;;;;;;;;;;;;;;;;;;;;;;;;;;;;;;;;;;;;;1,000000;0,429523;0,636825;0,644285;0,477618;0,262857;0,262857;0,262857;0,356475;0,636825;0,403933;0,000000;0,000000;0,318412;0,000000;0,644285;0,000000;0,000000;0,525714;0,314882;0,310952;0,788570;0,389253;0,413142;0,347303;0,325072;0,310952;0,429523;0,644285;0,621904;0,859047;0,318412;0,318412;0,318412;0,859047;0,000000;0,000000;0,318412;0,318412;0,429523;0,318412;0,318412;0,429523;0,336652;0,300931;0,229523;0,229523;0,229523;0,644285;0,000000;0,000000;0,762857;0,762857;0,636825;0,000000;0,000000;0,429523;0,000000;0,000000;0,000000;0,000000;0,000000;0,429523;0,000000;0,000000;0,000000;0,644285;0,429523;0,429523;0,573142;0,429523;0,762857;
60;;;;;;;;;;;;;;;;;;;;;;;;;;;;;;;;;;;;;;;;;;;;;;;;;;;;;;;;;;;;1,000000;0,416667;0,666667;0,555556;0,375000;0,375000;0,375000;0,489583;0,416667;0,506432;0,000000;0,000000;0,416667;0,000000;0,000000;0,000000;0,000000;0,600000;0,910256;0,444444;0,375000;0,523493;0,525000;0,468678;0,469956;0,444444;0,500000;0,000000;0,444444;0,500000;0,416667;0,416667;0,416667;0,500000;0,000000;0,000000;0,416667;0,416667;0,500000;0,416667;0,416667;0,500000;0,492810;0,454868;0,350000;0,350000;0,350000;0,666667;0,000000;0,000000;0,750000;0,000000;0,416667;0,000000;0,000000;0,500000;0,000000;0,000000;0,000000;0,000000;0,000000;0,500000;0,000000;0,000000;0,000000;0,666667;0,500000;0,500000;0,625000;0,500000;0,750000;
61;;;;;;;;;;;;;;;;;;;;;;;;;;;;;;;;;;;;;;;;;;;;;;;;;;;;;;;;;;;;;1,000000;0,555556;0,444444;0,291667;0,291667;0,291667;0,364583;0,666667;0,395321;0,000000;0,000000;0,333333;0,000000;0,555556;0,000000;0,000000;0,466667;0,340168;0,333333;0,583333;0,384604;0,400000;0,357567;0,344956;0,333333;0,416667;0,000000;0,666667;0,833333;0,333333;0,333333;0,333333;0,833333;0,000000;0,000000;0,333333;0,333333;0,833333;0,666667;0,666667;0,416667;0,353921;0,329868;0,266667;0,266667;0,266667;0,555556;0,000000;0,000000;0,666667;0,666667;0,666667;0,000000;0,000000;0,416667;0,000000;0,000000;0,000000;0,000000;0,000000;0,416667;0,000000;0,000000;0,000000;0,555556;0,416667;0,416667;0,500000;0,416667;0,666667;
62;;;;;;;;;;;;;;;;;;;;;;;;;;;;;;;;;;;;;;;;;;;;;;;;;;;;;;;;;;;;;;1,000000;0,833333;0,500000;0,500000;0,500000;0,783333;0,555556;0,759648;0,000000;0,000000;0,555556;0,000000;0,000000;0,000000;0,000000;1,000000;0,789168;0,666667;0,500000;0,897417;0,840000;0,703017;0,751930;0,666667;0,666667;0,000000;0,666667;0,666667;0,555556;0,555556;0,555556;0,666667;0,000000;0,000000;0,555556;0,555556;0,666667;0,555556;0,555556;0,666667;0,844817;0,727789;0,466667;0,466667;0,466667;1,000000;0,000000;0,000000;1,000000;0,000000;0,555556;0,000000;0,000000;0,666667;0,000000;0,000000;0,000000;0,000000;0,000000;0,666667;0,000000;0,000000;0,000000;1,000000;0,666667;0,666667;1,000000;0,666667;1,000000;
63;;;;;;;;;;;;;;;;;;;;;;;;;;;;;;;;;;;;;;;;;;;;;;;;;;;;;;;;;;;;;;;1,000000;0,388889;0,388889;0,388889;0,583333;0,444444;0,592981;0,000000;0,000000;0,444444;0,000000;0,000000;0,000000;0,000000;0,777778;0,566946;0,500000;0,388889;0,659322;0,640000;0,536351;0,551930;0,500000;0,555556;0,000000;0,500000;0,555556;0,444444;0,444444;0,444444;0,555556;0,000000;0,000000;0,444444;0,444444;0,555556;0,444444;0,444444;0,555556;0,606721;0,527789;0,355556;0,355556;0,355556;0,833333;0,000000;0,000000;0,888889;0,000000;0,444444;0,000000;0,000000;0,555556;0,000000;0,000000;0,000000;0,000000;0,000000;0,555556;0,000000;0,000000;0,000000;0,833333;0,555556;0,555556;0,800000;0,555556;0,888889;
64;;;;;;;;;;;;;;;;;;;;;;;;;;;;;;;;;;;;;;;;;;;;;;;;;;;;;;;;;;;;;;;;1,000000;0,750000;0,750000;0,740645;0,291667;0,339765;0,000000;0,000000;0,291667;0,000000;0,000000;0,000000;0,000000;0,400000;0,273501;0,277778;0,250000;0,315160;0,337500;0,302012;0,282456;0,277778;0,375000;0,000000;0,277778;0,375000;0,291667;0,291667;0,291667;0,375000;0,000000;0,000000;0,291667;0,291667;0,375000;0,291667;0,291667;0,375000;0,284476;0,267368;0,225000;0,225000;0,225000;0,500000;0,000000;0,000000;0,625000;0,000000;0,291667;0,000000;0,000000;0,375000;0,000000;0,000000;0,000000;0,000000;0,000000;0,375000;0,000000;0,000000;0,000000;0,500000;0,375000;0,375000;0,437500;0,375000;0,625000;
65;;;;;;;;;;;;;;;;;;;;;;;;;;;;;;;;;;;;;;;;;;;;;;;;;;;;;;;;;;;;;;;;;1,000000;0,750000;0,740645;0,291667;0,339765;0,000000;0,000000;0,291667;0,000000;0,000000;0,000000;0,000000;0,400000;0,273501;0,277778;0,250000;0,315160;0,337500;0,302012;0,282456;0,277778;0,375000;0,000000;0,277778;0,375000;0,291667;0,291667;0,291667;0,375000;0,000000;0,000000;0,291667;0,291667;0,375000;0,291667;0,291667;0,375000;0,284476;0,267368;0,225000;0,225000;0,225000;0,500000;0,000000;0,000000;0,625000;0,000000;0,291667;0,000000;0,000000;0,375000;0,000000;0,000000;0,000000;0,000000;0,000000;0,375000;0,000000;0,000000;0,000000;0,500000;0,375000;0,375000;0,437500;0,375000;0,625000;
66;;;;;;;;;;;;;;;;;;;;;;;;;;;;;;;;;;;;;;;;;;;;;;;;;;;;;;;;;;;;;;;;;;1,000000;0,740645;0,291667;0,339765;0,000000;0,000000;0,291667;0,000000;0,000000;0,000000;0,000000;0,400000;0,273501;0,277778;0,250000;0,315160;0,337500;0,302012;0,282456;0,277778;0,375000;0,000000;0,277778;0,375000;0,291667;0,291667;0,291667;0,375000;0,000000;0,000000;0,291667;0,291667;0,375000;0,291667;0,291667;0,375000;0,284476;0,267368;0,225000;0,225000;0,225000;0,500000;0,000000;0,000000;0,625000;0,000000;0,291667;0,000000;0,000000;0,375000;0,000000;0,000000;0,000000;0,000000;0,000000;0,375000;0,000000;0,000000;0,000000;0,500000;0,375000;0,375000;0,437500;0,375000;0,625000;
67;;;;;;;;;;;;;;;;;;;;;;;;;;;;;;;;;;;;;;;;;;;;;;;;;;;;;;;;;;;;;;;;;;;1,000000;0,364583;0,494911;0,000000;0,000000;0,364583;0,000000;0,000000;0,000000;0,000000;0,690476;0,419407;0,383333;0,302083;0,526818;0,529167;0,426954;0,419079;0,383333;0,489583;0,000000;0,383333;0,489583;0,364583;0,364583;0,364583;0,489583;0,000000;0,000000;0,364583;0,364583;0,489583;0,364583;0,364583;0,489583;0,457780;0,388903;0,264583;0,264583;0,264583;0,783333;0,000000;0,000000;0,864583;0,000000;0,364583;0,000000;0,000000;0,489583;0,000000;0,000000;0,000000;0,000000;0,000000;0,489583;0,000000;0,000000;0,000000;0,783333;0,489583;0,489583;0,729167;0,489583;0,864583;
68;;;;;;;;;;;;;;;;;;;;;;;;;;;;;;;;;;;;;;;;;;;;;;;;;;;;;;;;;;;;;;;;;;;;1,000000;0,395321;0,000000;0,000000;0,333333;0,000000;0,555556;0,000000;0,000000;0,466667;0,340168;0,333333;0,583333;0,384604;0,400000;0,357567;0,344956;0,333333;0,416667;0,000000;0,666667;0,833333;0,333333;0,333333;0,333333;0,833333;0,000000;0,000000;0,333333;0,333333;0,416667;0,333333;0,333333;0,416667;0,646854;0,609498;0,266667;0,266667;0,266667;0,555556;0,000000;0,000000;0,666667;0,666667;0,666667;0,000000;0,000000;0,416667;0,000000;0,000000;0,000000;0,000000;0,000000;0,416667;0,000000;0,000000;0,000000;0,555556;0,416667;0,416667;0,500000;0,416667;0,666667;
69;;;;;;;;;;;;;;;;;;;;;;;;;;;;;;;;;;;;;;;;;;;;;;;;;;;;;;;;;;;;;;;;;;;;;1,000000;0,000000;0,000000;0,395321;0,000000;0,000000;0,000000;0,000000;0,679530;0,468698;0,426314;0,339765;0,554057;0,551577;0,462665;0,463507;0,426314;0,506432;0,000000;0,426314;0,506432;0,395321;0,395321;0,395321;0,506432;0,000000;0,000000;0,395321;0,395321;0,506432;0,395321;0,395321;0,506432;0,501456;0,439366;0,306432;0,306432;0,306432;0,759648;0,000000;0,000000;0,839765;0,000000;0,395321;0,000000;0,000000;0,506432;0,000000;0,000000;0,291667;0,000000;0,000000;0,506432;0,277778;0,277778;0,277778;0,759648;0,506432;0,506432;0,711577;0,506432;0,839765;
70;;;;;;;;;;;;;;;;;;;;;;;;;;;;;;;;;;;;;;;;;;;;;;;;;;;;;;;;;;;;;;;;;;;;;;1,000000;0,500000;0,416667;0,000000;0,000000;0,000000;0,000000;0,000000;0,000000;0,000000;0,000000;0,000000;0,000000;0,000000;0,000000;0,000000;0,000000;0,000000;0,000000;0,000000;0,000000;0,000000;0,000000;0,000000;0,416667;0,416667;0,000000;0,000000;0,000000;0,000000;0,000000;0,000000;0,000000;0,000000;0,000000;0,000000;0,000000;0,000000;0,000000;0,000000;0,000000;0,000000;0,000000;0,000000;0,000000;0,000000;0,000000;0,000000;0,000000;0,000000;0,000000;0,000000;0,000000;0,000000;0,000000;0,000000;0,000000;0,000000;0,000000;0,000000;0,000000;
71;;;;;;;;;;;;;;;;;;;;;;;;;;;;;;;;;;;;;;;;;;;;;;;;;;;;;;;;;;;;;;;;;;;;;;;1,000000;0,388889;0,000000;0,000000;0,000000;0,000000;0,555556;0,000000;0,000000;0,000000;0,000000;0,000000;0,000000;0,000000;0,000000;0,000000;0,666667;0,000000;0,000000;0,000000;0,000000;0,000000;0,000000;0,666667;0,666667;0,000000;0,000000;0,000000;0,000000;0,000000;0,000000;0,000000;0,000000;0,000000;0,000000;0,000000;0,666667;0,000000;0,000000;0,000000;0,000000;0,000000;0,000000;0,000000;0,000000;0,000000;0,000000;0,000000;0,000000;0,000000;0,000000;0,000000;0,000000;0,000000;0,000000;0,000000;0,000000;0,000000;0,000000;0,000000;
72;;;;;;;;;;;;;;;;;;;;;;;;;;;;;;;;;;;;;;;;;;;;;;;;;;;;;;;;;;;;;;;;;;;;;;;;1,000000;0,000000;0,000000;0,000000;0,000000;0,466667;0,340168;0,333333;0,291667;0,384604;0,400000;0,357567;0,344956;0,333333;0,416667;0,000000;0,333333;0,416667;0,333333;0,333333;0,333333;0,416667;0,000000;0,000000;0,333333;0,333333;0,416667;0,333333;0,333333;0,416667;0,353921;0,329868;0,266667;0,266667;0,266667;0,555556;0,000000;0,000000;0,666667;0,000000;0,333333;0,000000;0,000000;0,416667;0,000000;0,000000;0,000000;0,000000;0,000000;0,416667;0,000000;0,000000;0,000000;0,555556;0,416667;0,416667;0,500000;0,416667;0,666667;
73;;;;;;;;;;;;;;;;;;;;;;;;;;;;;;;;;;;;;;;;;;;;;;;;;;;;;;;;;;;;;;;;;;;;;;;;;1,000000;0,666667;0,666667;0,666667;0,000000;0,000000;0,000000;0,000000;0,000000;0,000000;0,000000;0,000000;0,000000;0,000000;0,000000;0,000000;0,000000;0,000000;0,000000;0,000000;0,000000;0,000000;0,000000;0,000000;0,000000;0,000000;0,000000;0,000000;0,000000;0,000000;0,000000;0,000000;0,000000;0,000000;0,000000;0,000000;0,000000;0,000000;0,000000;0,000000;0,000000;0,000000;0,000000;0,000000;0,000000;0,000000;0,000000;0,000000;0,000000;0,000000;0,000000;0,000000;0,000000;0,000000;0,000000;0,000000;0,000000;0,000000;
74;;;;;;;;;;;;;;;;;;;;;;;;;;;;;;;;;;;;;;;;;;;;;;;;;;;;;;;;;;;;;;;;;;;;;;;;;;1,000000;0,666667;0,666667;0,000000;0,000000;0,000000;0,500000;0,000000;0,000000;0,000000;0,000000;0,000000;0,000000;0,000000;0,666667;0,666667;0,000000;0,000000;0,000000;0,666667;0,000000;0,000000;0,000000;0,000000;0,000000;0,000000;0,000000;0,000000;0,000000;0,000000;0,000000;0,000000;0,000000;0,000000;0,000000;0,000000;0,000000;1,000000;0,555556;0,000000;0,000000;0,000000;0,000000;0,000000;0,000000;0,000000;0,000000;0,000000;0,000000;0,000000;0,000000;0,000000;0,000000;0,000000;0,000000;0,000000;0,000000;
75;;;;;;;;;;;;;;;;;;;;;;;;;;;;;;;;;;;;;;;;;;;;;;;;;;;;;;;;;;;;;;;;;;;;;;;;;;;1,000000;0,666667;0,000000;0,000000;0,000000;0,000000;0,000000;0,000000;0,000000;0,000000;0,000000;0,000000;0,000000;0,000000;0,000000;0,000000;0,000000;0,000000;0,000000;0,000000;0,000000;0,000000;0,000000;0,000000;0,000000;0,000000;0,000000;0,000000;0,000000;0,000000;0,000000;0,000000;0,000000;0,000000;0,000000;0,000000;0,000000;0,000000;0,000000;0,000000;0,000000;0,000000;0,000000;0,000000;0,000000;0,000000;0,000000;0,000000;0,000000;0,000000;0,000000;0,000000;0,000000;0,000000;0,000000;0,000000;
76;;;;;;;;;;;;;;;;;;;;;;;;;;;;;;;;;;;;;;;;;;;;;;;;;;;;;;;;;;;;;;;;;;;;;;;;;;;;1,000000;0,000000;0,000000;0,000000;0,000000;0,000000;0,000000;0,000000;0,000000;0,000000;0,000000;0,000000;0,000000;0,000000;0,000000;0,000000;0,000000;0,000000;0,000000;0,000000;0,000000;0,000000;0,000000;0,000000;0,000000;0,000000;0,000000;0,000000;0,000000;0,000000;0,000000;0,000000;0,000000;0,000000;0,000000;0,000000;0,000000;0,000000;0,000000;0,000000;0,000000;0,000000;0,000000;0,000000;0,000000;0,000000;0,000000;0,000000;0,000000;0,000000;0,000000;0,000000;0,000000;0,000000;0,000000;
77;;;;;;;;;;;;;;;;;;;;;;;;;;;;;;;;;;;;;;;;;;;;;;;;;;;;;;;;;;;;;;;;;;;;;;;;;;;;;1,000000;0,683752;0,555556;0,400000;0,840426;0,771429;0,604023;0,645614;0,555556;0,600000;1,000000;0,555556;0,600000;0,466667;0,466667;0,466667;0,600000;0,466667;0,466667;0,466667;0,466667;0,600000;0,466667;0,466667;0,600000;0,758603;0,611128;0,360000;0,360000;0,360000;1,000000;0,000000;0,000000;1,000000;0,000000;0,466667;0,000000;0,000000;0,600000;0,000000;0,000000;0,000000;0,000000;0,000000;0,600000;0,000000;0,000000;0,000000;1,000000;0,600000;0,600000;1,000000;0,600000;1,000000;
78;;;;;;;;;;;;;;;;;;;;;;;;;;;;;;;;;;;;;;;;;;;;;;;;;;;;;;;;;;;;;;;;;;;;;;;;;;;;;;1,000000;0,344724;0,273501;0,489040;0,500359;0,393191;0,374544;0,344724;0,473501;0,000000;0,344724;0,473501;0,340168;0,340168;0,340168;0,473501;0,000000;0,000000;0,625930;0,625930;0,473501;0,340168;0,340168;0,473501;0,407217;0,340058;0,233501;0,233501;0,233501;0,789168;0,000000;0,000000;0,873501;0,000000;0,340168;0,000000;0,000000;0,473501;0,000000;0,000000;0,000000;0,000000;0,000000;0,473501;0,000000;0,000000;0,000000;0,789168;0,473501;0,473501;0,728930;0,473501;0,873501;
79;;;;;;;;;;;;;;;;;;;;;;;;;;;;;;;;;;;;;;;;;;;;;;;;;;;;;;;;;;;;;;;;;;;;;;;;;;;;;;;1,000000;0,277778;0,421227;0,440000;0,369684;0,351930;0,333333;0,444444;0,000000;0,333333;0,444444;0,333333;0,614561;0,614561;0,444444;0,000000;0,000000;0,333333;0,333333;0,444444;0,333333;0,333333;0,444444;0,368626;0,327789;0,244444;0,244444;0,244444;0,666667;0,000000;0,000000;0,777778;0,000000;0,333333;0,000000;0,000000;0,836666;0,000000;0,000000;0,000000;0,000000;0,000000;0,444444;0,000000;0,000000;0,000000;0,666667;0,444444;0,444444;0,600000;0,444444;0,777778;
80;;;;;;;;;;;;;;;;;;;;;;;;;;;;;;;;;;;;;;;;;;;;;;;;;;;;;;;;;;;;;;;;;;;;;;;;;;;;;;;;1,000000;0,315160;0,337500;0,302012;0,282456;0,277778;0,375000;0,500000;0,555556;0,750000;0,291667;0,291667;0,291667;0,750000;0,000000;0,000000;0,291667;0,291667;0,375000;0,291667;0,291667;0,375000;0,284476;0,267368;0,225000;0,225000;0,225000;0,500000;0,000000;0,000000;0,625000;0,625000;0,583333;0,000000;0,000000;0,375000;0,000000;0,000000;0,000000;0,000000;0,000000;0,375000;0,000000;0,000000;0,000000;0,500000;0,375000;0,375000;0,437500;0,375000;0,625000;
81;;;;;;;;;;;;;;;;;;;;;;;;;;;;;;;;;;;;;;;;;;;;;;;;;;;;;;;;;;;;;;;;;;;;;;;;;;;;;;;;;1,000000;0,906622;0,473156;0,477750;0,421227;0,523493;0,000000;0,421227;0,523493;0,384604;0,384604;0,384604;0,523493;0,000000;0,000000;0,384604;0,384604;0,523493;0,384604;0,384604;0,523493;0,548909;0,440031;0,273493;0,273493;0,273493;0,897417;0,000000;0,000000;0,940160;0,000000;0,384604;0,000000;0,000000;0,523493;0,000000;0,000000;0,000000;0,000000;0,000000;0,523493;0,000000;0,000000;0,000000;0,897417;0,523493;0,523493;0,865360;0,523493;0,940160;
82;;;;;;;;;;;;;;;;;;;;;;;;;;;;;;;;;;;;;;;;;;;;;;;;;;;;;;;;;;;;;;;;;;;;;;;;;;;;;;;;;;1,000000;0,483621;0,489912;0,440000;0,525000;0,000000;0,440000;0,525000;0,400000;0,400000;0,400000;0,525000;0,000000;0,000000;0,400000;0,400000;0,525000;0,400000;0,400000;0,525000;0,546322;0,459737;0,300000;0,300000;0,300000;0,840000;0,000000;0,000000;0,900000;0,000000;0,400000;0,000000;0,000000;0,525000;0,000000;0,000000;0,000000;0,000000;0,000000;0,525000;0,000000;0,000000;0,000000;0,840000;0,525000;0,525000;0,800000;0,525000;0,900000;
83;;;;;;;;;;;;;;;;;;;;;;;;;;;;;;;;;;;;;;;;;;;;;;;;;;;;;;;;;;;;;;;;;;;;;;;;;;;;;;;;;;;1,000000;0,609061;0,739368;0,468678;0,000000;0,369684;0,468678;1,000000;0,357567;0,357567;0,468678;0,000000;0,000000;0,357567;0,357567;0,468678;0,357567;0,357567;0,468678;0,420556;0,371410;0,268678;0,268678;0,268678;0,703017;0,000000;0,000000;0,802012;0,000000;0,357567;0,000000;0,000000;0,468678;0,000000;0,000000;0,000000;0,000000;0,000000;0,468678;0,000000;0,000000;0,000000;0,703017;0,468678;0,468678;0,643621;0,468678;0,802012;
84;;;;;;;;;;;;;;;;;;;;;;;;;;;;;;;;;;;;;;;;;;;;;;;;;;;;;;;;;;;;;;;;;;;;;;;;;;;;;;;;;;;;1,000000;0,703845;0,469956;0,000000;0,351930;0,469956;0,656049;0,344956;0,344956;0,469956;0,000000;0,000000;0,344956;0,344956;0,469956;0,344956;0,344956;0,469956;0,408712;0,349649;0,244956;0,244956;0,244956;0,751930;0,000000;0,000000;0,844956;0,000000;0,344956;0,000000;0,000000;0,469956;0,000000;0,000000;0,000000;0,000000;0,000000;0,469956;0,000000;0,000000;0,000000;0,751930;0,469956;0,469956;0,689912;0,469956;0,844956;
85;;;;;;;;;;;;;;;;;;;;;;;;;;;;;;;;;;;;;;;;;;;;;;;;;;;;;;;;;;;;;;;;;;;;;;;;;;;;;;;;;;;;;1,000000;0,444444;0,000000;0,333333;0,444444;0,666667;0,333333;0,333333;0,444444;0,000000;0,000000;0,333333;0,333333;0,444444;0,333333;0,333333;0,444444;0,368626;0,327789;0,244444;0,244444;0,244444;0,666667;0,000000;0,000000;0,777778;0,000000;0,333333;0,000000;0,000000;0,444444;0,000000;0,000000;0,000000;0,000000;0,000000;0,444444;0,000000;0,000000;0,000000;0,666667;0,444444;0,444444;0,600000;0,444444;0,777778;
86;;;;;;;;;;;;;;;;;;;;;;;;;;;;;;;;;;;;;;;;;;;;;;;;;;;;;;;;;;;;;;;;;;;;;;;;;;;;;;;;;;;;;;1,000000;0,000000;0,444444;0,500000;0,416667;0,416667;0,416667;0,500000;0,000000;0,000000;0,416667;0,416667;0,500000;0,416667;0,416667;0,500000;0,492810;0,454868;0,350000;0,350000;0,350000;0,666667;0,000000;0,000000;0,750000;0,000000;0,416667;0,000000;0,000000;0,500000;0,000000;0,000000;0,000000;0,000000;0,000000;0,500000;0,000000;0,000000;0,000000;0,666667;0,500000;0,500000;0,625000;0,500000;0,750000;
87;;;;;;;;;;;;;;;;;;;;;;;;;;;;;;;;;;;;;;;;;;;;;;;;;;;;;;;;;;;;;;;;;;;;;;;;;;;;;;;;;;;;;;;1,000000;0,000000;0,000000;0,000000;0,000000;0,000000;0,000000;0,555556;0,555556;0,000000;0,000000;0,000000;0,000000;0,000000;0,000000;0,000000;0,000000;0,000000;0,000000;0,000000;1,000000;0,000000;0,000000;0,000000;0,000000;0,000000;0,000000;0,000000;0,000000;0,000000;0,000000;0,000000;0,000000;0,000000;0,000000;0,000000;0,000000;0,000000;0,000000;0,000000;0,000000;0,000000;0,000000;0,000000;
88;;;;;;;;;;;;;;;;;;;;;;;;;;;;;;;;;;;;;;;;;;;;;;;;;;;;;;;;;;;;;;;;;;;;;;;;;;;;;;;;;;;;;;;;1,000000;0,888889;0,333333;0,333333;0,333333;0,888889;0,000000;0,000000;0,333333;0,333333;0,444444;0,333333;0,333333;0,444444;0,368626;0,327789;0,244444;0,244444;0,244444;0,666667;0,000000;0,000000;0,777778;0,777778;0,666667;0,000000;0,000000;0,444444;0,000000;0,000000;0,000000;0,000000;0,000000;0,444444;0,000000;0,000000;0,000000;0,666667;0,444444;0,444444;0,600000;0,444444;0,777778;
89;;;;;;;;;;;;;;;;;;;;;;;;;;;;;;;;;;;;;;;;;;;;;;;;;;;;;;;;;;;;;;;;;;;;;;;;;;;;;;;;;;;;;;;;;1,000000;0,416667;0,416667;0,416667;1,000000;0,000000;0,000000;0,416667;0,416667;0,500000;0,416667;0,416667;0,500000;0,492810;0,454868;0,350000;0,350000;0,350000;0,666667;0,000000;0,000000;0,750000;0,750000;0,833333;0,000000;0,000000;0,500000;0,000000;0,000000;0,000000;0,000000;0,000000;0,500000;0,000000;0,000000;0,000000;0,666667;0,500000;0,500000;0,625000;0,500000;0,750000;
90;;;;;;;;;;;;;;;;;;;;;;;;;;;;;;;;;;;;;;;;;;;;;;;;;;;;;;;;;;;;;;;;;;;;;;;;;;;;;;;;;;;;;;;;;;1,000000;0,333333;0,333333;0,416667;0,000000;0,000000;0,333333;0,333333;0,416667;0,333333;0,333333;0,416667;0,353921;0,329868;0,266667;0,266667;0,266667;0,555556;0,000000;0,000000;0,666667;0,000000;0,333333;0,000000;0,000000;0,416667;0,000000;0,000000;0,000000;0,000000;0,000000;0,416667;0,000000;0,000000;0,000000;0,555556;0,416667;0,416667;0,500000;0,416667;0,666667;
91;;;;;;;;;;;;;;;;;;;;;;;;;;;;;;;;;;;;;;;;;;;;;;;;;;;;;;;;;;;;;;;;;;;;;;;;;;;;;;;;;;;;;;;;;;;1,000000;0,666667;0,416667;0,000000;0,000000;0,333333;0,333333;0,416667;0,333333;0,333333;0,416667;0,353921;0,329868;0,266667;0,266667;0,266667;0,555556;0,000000;0,000000;0,666667;0,000000;0,333333;0,000000;0,000000;0,416667;0,000000;0,000000;0,000000;0,000000;0,000000;0,416667;0,000000;0,000000;0,000000;0,555556;0,416667;0,416667;0,500000;0,416667;0,666667;
92;;;;;;;;;;;;;;;;;;;;;;;;;;;;;;;;;;;;;;;;;;;;;;;;;;;;;;;;;;;;;;;;;;;;;;;;;;;;;;;;;;;;;;;;;;;;1,000000;0,416667;0,000000;0,000000;0,333333;0,333333;0,416667;0,333333;0,333333;0,416667;0,353921;0,329868;0,266667;0,266667;0,266667;0,555556;0,000000;0,000000;0,666667;0,000000;0,333333;0,000000;0,000000;0,416667;0,000000;0,000000;0,000000;0,000000;0,000000;0,416667;0,000000;0,000000;0,000000;0,555556;0,416667;0,416667;0,500000;0,416667;0,666667;
93;;;;;;;;;;;;;;;;;;;;;;;;;;;;;;;;;;;;;;;;;;;;;;;;;;;;;;;;;;;;;;;;;;;;;;;;;;;;;;;;;;;;;;;;;;;;;1,000000;0,000000;0,000000;0,416667;0,416667;0,500000;0,416667;0,416667;0,500000;0,492810;0,454868;0,350000;0,350000;0,350000;0,666667;0,000000;0,000000;0,750000;0,750000;0,833333;0,000000;0,000000;0,500000;0,000000;0,000000;0,000000;0,000000;0,000000;0,500000;0,000000;0,000000;0,000000;0,666667;0,500000;0,500000;0,625000;0,500000;0,750000;
94;;;;;;;;;;;;;;;;;;;;;;;;;;;;;;;;;;;;;;;;;;;;;;;;;;;;;;;;;;;;;;;;;;;;;;;;;;;;;;;;;;;;;;;;;;;;;;1,000000;0,666667;0,000000;0,000000;0,000000;0,000000;0,000000;0,000000;0,000000;0,000000;0,000000;0,000000;0,000000;0,555556;0,000000;0,000000;0,000000;0,000000;0,000000;0,000000;0,000000;0,000000;0,000000;0,000000;0,000000;0,000000;0,000000;0,000000;0,000000;0,000000;0,000000;0,000000;0,000000;0,000000;0,000000;0,000000;0,000000;
95;;;;;;;;;;;;;;;;;;;;;;;;;;;;;;;;;;;;;;;;;;;;;;;;;;;;;;;;;;;;;;;;;;;;;;;;;;;;;;;;;;;;;;;;;;;;;;;1,000000;0,000000;0,000000;0,000000;0,000000;0,000000;0,000000;0,000000;0,000000;0,000000;0,000000;0,000000;0,555556;0,000000;0,000000;0,000000;0,000000;0,000000;0,000000;0,000000;0,000000;0,000000;0,000000;0,000000;0,000000;0,000000;0,000000;0,000000;0,000000;0,000000;0,000000;0,000000;0,000000;0,000000;0,000000;0,000000;
96;;;;;;;;;;;;;;;;;;;;;;;;;;;;;;;;;;;;;;;;;;;;;;;;;;;;;;;;;;;;;;;;;;;;;;;;;;;;;;;;;;;;;;;;;;;;;;;;1,000000;0,666667;0,416667;0,333333;0,333333;0,833333;0,353921;0,329868;0,266667;0,266667;0,266667;0,555556;0,000000;0,000000;0,666667;0,000000;0,333333;0,000000;0,000000;0,416667;0,000000;0,000000;0,000000;0,000000;0,000000;0,416667;0,000000;0,000000;0,000000;0,555556;0,416667;0,416667;0,500000;0,416667;0,666667;
97;;;;;;;;;;;;;;;;;;;;;;;;;;;;;;;;;;;;;;;;;;;;;;;;;;;;;;;;;;;;;;;;;;;;;;;;;;;;;;;;;;;;;;;;;;;;;;;;;1,000000;0,416667;0,333333;0,333333;0,833333;0,353921;0,329868;0,266667;0,266667;0,266667;0,555556;0,000000;0,000000;0,666667;0,000000;0,333333;0,000000;0,000000;0,416667;0,000000;0,000000;0,000000;0,000000;0,000000;0,416667;0,000000;0,000000;0,000000;0,555556;0,416667;0,416667;0,500000;0,416667;0,666667;
98;;;;;;;;;;;;;;;;;;;;;;;;;;;;;;;;;;;;;;;;;;;;;;;;;;;;;;;;;;;;;;;;;;;;;;;;;;;;;;;;;;;;;;;;;;;;;;;;;;1,000000;0,833333;0,833333;0,500000;0,492810;0,454868;0,350000;0,350000;0,350000;0,666667;0,000000;0,000000;0,750000;0,000000;0,416667;0,000000;0,000000;0,500000;0,000000;0,000000;0,000000;0,000000;0,000000;0,500000;0,000000;0,000000;0,000000;0,666667;0,500000;0,500000;0,625000;0,500000;0,750000;
99;;;;;;;;;;;;;;;;;;;;;;;;;;;;;;;;;;;;;;;;;;;;;;;;;;;;;;;;;;;;;;;;;;;;;;;;;;;;;;;;;;;;;;;;;;;;;;;;;;;1,000000;0,666667;0,416667;0,353921;0,329868;0,266667;0,266667;0,266667;0,555556;0,000000;0,000000;0,666667;0,000000;0,333333;0,000000;0,000000;0,416667;0,000000;0,000000;0,000000;0,000000;0,000000;0,416667;0,000000;0,000000;0,000000;0,555556;0,416667;0,416667;0,500000;0,416667;0,666667;
100;;;;;;;;;;;;;;;;;;;;;;;;;;;;;;;;;;;;;;;;;;;;;;;;;;;;;;;;;;;;;;;;;;;;;;;;;;;;;;;;;;;;;;;;;;;;;;;;;;;;1,000000;0,416667;0,353921;0,329868;0,266667;0,266667;0,266667;0,555556;0,000000;0,000000;0,666667;0,000000;0,333333;0,000000;0,000000;0,416667;0,000000;0,000000;0,000000;0,000000;0,000000;0,416667;0,000000;0,000000;0,000000;0,555556;0,416667;0,416667;0,500000;0,416667;0,666667;
101;;;;;;;;;;;;;;;;;;;;;;;;;;;;;;;;;;;;;;;;;;;;;;;;;;;;;;;;;;;;;;;;;;;;;;;;;;;;;;;;;;;;;;;;;;;;;;;;;;;;;1,000000;0,492810;0,454868;0,350000;0,350000;0,350000;0,666667;0,000000;0,000000;0,750000;0,000000;0,416667;0,000000;0,000000;0,500000;0,000000;0,000000;0,000000;0,000000;0,000000;0,500000;0,000000;0,000000;0,000000;0,666667;0,500000;0,500000;0,625000;0,500000;0,750000;
102;;;;;;;;;;;;;;;;;;;;;;;;;;;;;;;;;;;;;;;;;;;;;;;;;;;;;;;;;;;;;;;;;;;;;;;;;;;;;;;;;;;;;;;;;;;;;;;;;;;;;;1,000000;0,713537;0,806703;0,806703;0,806703;0,844817;0,000000;0,000000;0,909476;0,000000;0,353921;0,000000;0,000000;0,492810;0,000000;0,000000;0,000000;0,000000;0,000000;0,492810;0,000000;0,000000;0,000000;0,844817;0,492810;0,492810;0,796322;0,492810;0,909476;
103;;;;;;;;;;;;;;;;;;;;;;;;;;;;;;;;;;;;;;;;;;;;;;;;;;;;;;;;;;;;;;;;;;;;;;;;;;;;;;;;;;;;;;;;;;;;;;;;;;;;;;;1,000000;0,801646;0,801646;0,801646;0,727789;0,000000;0,000000;0,829868;0,000000;0,329868;0,000000;0,000000;0,454868;0,000000;0,000000;0,000000;0,000000;0,000000;0,454868;0,000000;0,000000;0,000000;0,727789;0,454868;0,454868;0,659737;0,454868;0,829868;
104;;;;;;;;;;;;;;;;;;;;;;;;;;;;;;;;;;;;;;;;;;;;;;;;;;;;;;;;;;;;;;;;;;;;;;;;;;;;;;;;;;;;;;;;;;;;;;;;;;;;;;;;1,000000;0,800000;0,800000;0,466667;0,000000;0,000000;0,600000;0,000000;0,266667;0,000000;0,000000;0,350000;0,000000;0,000000;0,000000;0,000000;0,000000;0,350000;0,000000;0,000000;0,000000;0,466667;0,350000;0,350000;0,400000;0,350000;0,600000;
105;;;;;;;;;;;;;;;;;;;;;;;;;;;;;;;;;;;;;;;;;;;;;;;;;;;;;;;;;;;;;;;;;;;;;;;;;;;;;;;;;;;;;;;;;;;;;;;;;;;;;;;;;1,000000;0,800000;0,466667;0,000000;0,000000;0,600000;0,000000;0,266667;0,000000;0,000000;0,350000;0,000000;0,000000;0,000000;0,000000;0,000000;0,350000;0,000000;0,000000;0,000000;0,466667;0,350000;0,350000;0,400000;0,350000;0,600000;
106;;;;;;;;;;;;;;;;;;;;;;;;;;;;;;;;;;;;;;;;;;;;;;;;;;;;;;;;;;;;;;;;;;;;;;;;;;;;;;;;;;;;;;;;;;;;;;;;;;;;;;;;;;1,000000;0,466667;0,000000;0,000000;0,600000;0,000000;0,266667;0,000000;0,000000;0,350000;0,000000;0,000000;0,000000;0,000000;0,000000;0,350000;0,000000;0,000000;0,000000;0,466667;0,350000;0,350000;0,400000;0,350000;0,600000;
107;;;;;;;;;;;;;;;;;;;;;;;;;;;;;;;;;;;;;;;;;;;;;;;;;;;;;;;;;;;;;;;;;;;;;;;;;;;;;;;;;;;;;;;;;;;;;;;;;;;;;;;;;;;1,000000;0,000000;0,000000;1,000000;0,000000;0,555556;0,000000;0,000000;0,666667;0,000000;0,000000;0,000000;0,000000;0,000000;0,666667;0,000000;0,000000;0,000000;1,000000;0,666667;0,666667;1,000000;0,666667;1,000000;
108;;;;;;;;;;;;;;;;;;;;;;;;;;;;;;;;;;;;;;;;;;;;;;;;;;;;;;;;;;;;;;;;;;;;;;;;;;;;;;;;;;;;;;;;;;;;;;;;;;;;;;;;;;;;1,000000;0,000000;0,000000;0,000000;0,000000;0,000000;0,000000;0,000000;0,000000;0,000000;0,000000;0,000000;0,000000;0,000000;0,000000;0,000000;0,000000;0,000000;0,000000;0,000000;0,000000;0,000000;0,000000;
109;;;;;;;;;;;;;;;;;;;;;;;;;;;;;;;;;;;;;;;;;;;;;;;;;;;;;;;;;;;;;;;;;;;;;;;;;;;;;;;;;;;;;;;;;;;;;;;;;;;;;;;;;;;;;1,000000;0,000000;0,000000;0,000000;0,000000;0,000000;0,000000;0,000000;0,000000;0,000000;0,000000;0,000000;0,000000;0,000000;0,000000;0,000000;0,000000;0,000000;0,000000;0,000000;0,000000;0,000000;
110;;;;;;;;;;;;;;;;;;;;;;;;;;;;;;;;;;;;;;;;;;;;;;;;;;;;;;;;;;;;;;;;;;;;;;;;;;;;;;;;;;;;;;;;;;;;;;;;;;;;;;;;;;;;;;1,000000;0,000000;0,666667;0,000000;0,000000;0,750000;0,000000;0,000000;0,000000;0,000000;0,000000;0,750000;0,000000;0,000000;0,000000;1,000000;0,750000;0,750000;1,000000;0,750000;1,000000;
111;;;;;;;;;;;;;;;;;;;;;;;;;;;;;;;;;;;;;;;;;;;;;;;;;;;;;;;;;;;;;;;;;;;;;;;;;;;;;;;;;;;;;;;;;;;;;;;;;;;;;;;;;;;;;;;1,000000;0,666667;0,000000;0,000000;0,000000;0,000000;0,000000;0,000000;0,000000;0,000000;0,000000;0,000000;0,000000;0,000000;0,000000;0,000000;0,000000;0,000000;0,000000;0,000000;
112;;;;;;;;;;;;;;;;;;;;;;;;;;;;;;;;;;;;;;;;;;;;;;;;;;;;;;;;;;;;;;;;;;;;;;;;;;;;;;;;;;;;;;;;;;;;;;;;;;;;;;;;;;;;;;;;1,000000;0,000000;0,000000;0,416667;0,000000;0,000000;0,000000;0,000000;0,000000;0,416667;0,000000;0,000000;0,000000;0,555556;0,416667;0,416667;0,500000;0,416667;0,666667;
113;;;;;;;;;;;;;;;;;;;;;;;;;;;;;;;;;;;;;;;;;;;;;;;;;;;;;;;;;;;;;;;;;;;;;;;;;;;;;;;;;;;;;;;;;;;;;;;;;;;;;;;;;;;;;;;;;1,000000;0,000000;0,000000;0,000000;0,000000;0,000000;0,000000;0,000000;0,000000;0,000000;0,000000;0,000000;0,000000;0,000000;0,000000;0,000000;0,000000;0,000000;
114;;;;;;;;;;;;;;;;;;;;;;;;;;;;;;;;;;;;;;;;;;;;;;;;;;;;;;;;;;;;;;;;;;;;;;;;;;;;;;;;;;;;;;;;;;;;;;;;;;;;;;;;;;;;;;;;;;1,000000;0,000000;0,000000;0,000000;0,000000;0,000000;0,000000;0,000000;0,000000;0,000000;0,000000;0,000000;0,000000;0,000000;0,000000;0,000000;0,000000;
115;;;;;;;;;;;;;;;;;;;;;;;;;;;;;;;;;;;;;;;;;;;;;;;;;;;;;;;;;;;;;;;;;;;;;;;;;;;;;;;;;;;;;;;;;;;;;;;;;;;;;;;;;;;;;;;;;;;1,000000;0,000000;0,000000;0,000000;0,000000;0,000000;0,500000;0,000000;0,000000;0,000000;0,666667;0,500000;0,500000;0,625000;0,500000;0,750000;
116;;;;;;;;;;;;;;;;;;;;;;;;;;;;;;;;;;;;;;;;;;;;;;;;;;;;;;;;;;;;;;;;;;;;;;;;;;;;;;;;;;;;;;;;;;;;;;;;;;;;;;;;;;;;;;;;;;;;1,000000;0,750000;0,750000;0,750000;0,750000;0,000000;0,250000;0,250000;0,250000;0,000000;0,000000;0,000000;0,000000;0,000000;0,000000;
117;;;;;;;;;;;;;;;;;;;;;;;;;;;;;;;;;;;;;;;;;;;;;;;;;;;;;;;;;;;;;;;;;;;;;;;;;;;;;;;;;;;;;;;;;;;;;;;;;;;;;;;;;;;;;;;;;;;;;1,000000;0,750000;0,750000;0,750000;0,000000;0,250000;0,250000;0,250000;0,000000;0,000000;0,000000;0,000000;0,000000;0,000000;
118;;;;;;;;;;;;;;;;;;;;;;;;;;;;;;;;;;;;;;;;;;;;;;;;;;;;;;;;;;;;;;;;;;;;;;;;;;;;;;;;;;;;;;;;;;;;;;;;;;;;;;;;;;;;;;;;;;;;;;1,000000;0,750000;0,750000;0,000000;0,750000;0,750000;0,750000;0,000000;0,000000;0,000000;0,000000;0,000000;0,000000;
119;;;;;;;;;;;;;;;;;;;;;;;;;;;;;;;;;;;;;;;;;;;;;;;;;;;;;;;;;;;;;;;;;;;;;;;;;;;;;;;;;;;;;;;;;;;;;;;;;;;;;;;;;;;;;;;;;;;;;;;1,000000;0,750000;0,000000;0,250000;0,250000;0,250000;0,000000;0,000000;0,000000;0,000000;0,000000;0,000000;
120;;;;;;;;;;;;;;;;;;;;;;;;;;;;;;;;;;;;;;;;;;;;;;;;;;;;;;;;;;;;;;;;;;;;;;;;;;;;;;;;;;;;;;;;;;;;;;;;;;;;;;;;;;;;;;;;;;;;;;;;1,000000;0,000000;0,250000;0,250000;0,250000;0,000000;0,000000;0,000000;0,000000;0,000000;0,000000;
121;;;;;;;;;;;;;;;;;;;;;;;;;;;;;;;;;;;;;;;;;;;;;;;;;;;;;;;;;;;;;;;;;;;;;;;;;;;;;;;;;;;;;;;;;;;;;;;;;;;;;;;;;;;;;;;;;;;;;;;;;1,000000;0,000000;0,000000;0,000000;0,666667;0,500000;0,500000;0,625000;0,500000;0,750000;
122;;;;;;;;;;;;;;;;;;;;;;;;;;;;;;;;;;;;;;;;;;;;;;;;;;;;;;;;;;;;;;;;;;;;;;;;;;;;;;;;;;;;;;;;;;;;;;;;;;;;;;;;;;;;;;;;;;;;;;;;;;1,000000;0,750000;0,750000;0,000000;0,000000;0,000000;0,000000;0,000000;0,000000;
123;;;;;;;;;;;;;;;;;;;;;;;;;;;;;;;;;;;;;;;;;;;;;;;;;;;;;;;;;;;;;;;;;;;;;;;;;;;;;;;;;;;;;;;;;;;;;;;;;;;;;;;;;;;;;;;;;;;;;;;;;;;1,000000;0,750000;0,000000;0,000000;0,000000;0,000000;0,000000;0,000000;
124;;;;;;;;;;;;;;;;;;;;;;;;;;;;;;;;;;;;;;;;;;;;;;;;;;;;;;;;;;;;;;;;;;;;;;;;;;;;;;;;;;;;;;;;;;;;;;;;;;;;;;;;;;;;;;;;;;;;;;;;;;;;1,000000;0,000000;0,000000;0,000000;0,000000;0,000000;0,000000;
125;;;;;;;;;;;;;;;;;;;;;;;;;;;;;;;;;;;;;;;;;;;;;;;;;;;;;;;;;;;;;;;;;;;;;;;;;;;;;;;;;;;;;;;;;;;;;;;;;;;;;;;;;;;;;;;;;;;;;;;;;;;;;1,000000;0,666667;0,666667;1,000000;0,666667;1,000000;
126;;;;;;;;;;;;;;;;;;;;;;;;;;;;;;;;;;;;;;;;;;;;;;;;;;;;;;;;;;;;;;;;;;;;;;;;;;;;;;;;;;;;;;;;;;;;;;;;;;;;;;;;;;;;;;;;;;;;;;;;;;;;;;1,000000;0,500000;0,625000;0,500000;0,750000;
127;;;;;;;;;;;;;;;;;;;;;;;;;;;;;;;;;;;;;;;;;;;;;;;;;;;;;;;;;;;;;;;;;;;;;;;;;;;;;;;;;;;;;;;;;;;;;;;;;;;;;;;;;;;;;;;;;;;;;;;;;;;;;;;1,000000;0,625000;0,500000;0,750000;
128;;;;;;;;;;;;;;;;;;;;;;;;;;;;;;;;;;;;;;;;;;;;;;;;;;;;;;;;;;;;;;;;;;;;;;;;;;;;;;;;;;;;;;;;;;;;;;;;;;;;;;;;;;;;;;;;;;;;;;;;;;;;;;;;1,000000;0,625000;1,000000;
129;;;;;;;;;;;;;;;;;;;;;;;;;;;;;;;;;;;;;;;;;;;;;;;;;;;;;;;;;;;;;;;;;;;;;;;;;;;;;;;;;;;;;;;;;;;;;;;;;;;;;;;;;;;;;;;;;;;;;;;;;;;;;;;;;1,000000;0,750000;
130;;;;;;;;;;;;;;;;;;;;;;;;;;;;;;;;;;;;;;;;;;;;;;;;;;;;;;;;;;;;;;;;;;;;;;;;;;;;;;;;;;;;;;;;;;;;;;;;;;;;;;;;;;;;;;;;;;;;;;;;;;;;;;;;;;1,000000;
