;1; 2; 3; 4; 5; 6; 7; 8; 9; 10; 11; 12; 13; 14; 15; 16; 17; 18; 19; 20; 21; 22; 23; 24; 25; 26; 27; 28; 29; 30; 31; 32; 33; 34; 35; 36; 37; 38; 39
1;1,000000;0,275479;0,401457;0,461193;0,416184;0,417377;0,431420;0,144334;0,163908;0,157443;0,166616;0,219448;0,388923;0,548966;0,171797;0,172237;0,172689;0,158664;0,191568;0,564264;0,200242;0,200534;0,189035;0,198242;0,198804;0,199228;0,564264;0,236611;0,201243;0,178252;0,564264;0,209897;0,210098;0,192373;0,170287;0,170446;0,170716;0,208558;0,208981;
2;;1,000000;0,423445;0,335931;0,347171;0,355091;0,404784;0,402646;0,479812;0,421767;0,435440;0,365570;0,492350;0,367668;0,403841;0,405775;0,407554;0,425855;0,383177;0,000000;0,382767;0,384243;0,461042;0,376669;0,401553;0,402626;0,000000;0,385981;0,413042;0,533922;0,000000;0,404604;0,405358;0,463626;0,463437;0,449080;0,449657;0,397826;0,398544;
3;;;1,000000;0,451307;0,577883;0,583829;0,533849;0,155975;0,175549;0,169084;0,178257;0,438975;0,308869;0,393773;0,183438;0,183878;0,184330;0,170305;0,417062;0,575905;0,211883;0,212175;0,200676;0,209883;0,210445;0,210869;0,575905;0,399337;0,431580;0,275864;0,575905;0,221538;0,221739;0,407598;0,356162;0,182087;0,182357;0,442438;0,442798;
4;;;;1,000000;0,416184;0,417377;0,431420;0,154333;0,173907;0,167442;0,176615;0,229448;0,388923;0,548966;0,181796;0,182236;0,182688;0,168663;0,201567;0,574264;0,210241;0,210533;0,199035;0,208242;0,208803;0,209227;0,574264;0,246610;0,211242;0,188252;0,574264;0,219896;0,220097;0,202372;0,180286;0,180446;0,180715;0,218558;0,218980;
5;;;;;1,000000;0,592109;0,745597;0,173768;0,193342;0,186877;0,196049;0,248882;0,343913;0,503956;0,201230;0,201670;0,202122;0,188097;0,221001;0,593698;0,229675;0,229967;0,218469;0,227676;0,228237;0,228661;0,593698;0,266045;0,230676;0,207686;0,593698;0,239331;0,239531;0,221806;0,199721;0,199880;0,200150;0,237992;0,238414;
6;;;;;;1,000000;0,751496;0,175499;0,195073;0,188608;0,197780;0,250613;0,345106;0,505149;0,202961;0,203401;0,203853;0,189828;0,222732;0,595429;0,231407;0,231698;0,220200;0,229407;0,229968;0,230392;0,595429;0,267776;0,232407;0,209417;0,595429;0,241062;0,241262;0,223538;0,201452;0,201611;0,201881;0,239723;0,240145;
7;;;;;;;1,000000;0,149571;0,169145;0,162680;0,171852;0,224685;0,359150;0,519192;0,177034;0,177473;0,177925;0,163901;0,196804;0,569501;0,205479;0,205771;0,194272;0,203479;0,204040;0,204464;0,569501;0,241848;0,206479;0,183489;0,569501;0,215134;0,215334;0,197610;0,175524;0,175683;0,175953;0,213795;0,214217;
8;;;;;;;;1,000000;0,613621;0,690361;0,617361;0,235254;0,210264;0,195956;0,187602;0,188042;0,188494;0,174469;0,207373;0,580070;0,216047;0,216339;0,838362;0,536704;0,531299;0,531299;0,580070;0,252416;0,217048;0,372305;0,580070;0,225702;0,225903;0,208178;0,186092;0,456567;0,456793;0,224364;0,224786;
9;;;;;;;;;1,000000;0,604975;0,643166;0,344744;0,286180;0,215530;0,207176;0,207616;0,208068;0,194043;0,226947;0,599644;0,475897;0,475897;0,543801;0,719562;0,511213;0,512089;0,599644;0,271990;0,366957;0,432190;0,599644;0,473494;0,473494;0,227752;0,205666;0,567459;0,567981;0,243938;0,244360;
10;;;;;;;;;;1,000000;0,737350;0,248362;0,223373;0,209065;0,200711;0,201151;0,201603;0,187578;0,220482;0,593179;0,500738;0,500738;0,620528;0,780497;0,564189;0,564189;0,593179;0,265525;0,230157;0,405194;0,593179;0,238811;0,239012;0,221287;0,199201;0,489456;0,489682;0,237473;0,237895;
11;;;;;;;;;;;1,000000;0,257535;0,232545;0,218238;0,209884;0,210323;0,210775;0,196751;0,229654;0,602351;0,530397;0,530397;0,664297;0,523865;0,505684;0,505684;0,602351;0,274698;0,239329;0,346689;0,602351;0,247984;0,248185;0,230460;0,208374;0,430951;0,431177;0,246645;0,247067;
12;;;;;;;;;;;;1,000000;0,589863;0,609076;0,262716;0,263156;0,263608;0,249583;0,632365;0,655184;0,291161;0,291453;0,279955;0,289162;0,289723;0,290147;0,655184;0,614639;0,796230;0,617192;0,655184;0,556499;0,556499;0,622901;0,571465;0,470207;0,470588;0,657741;0,658101;
13;;;;;;;;;;;;;1,000000;0,476696;0,237726;0,238166;0,238618;0,224593;0,534238;0,630194;0,266172;0,266463;0,254965;0,264172;0,264733;0,265157;0,630194;0,643874;0,565760;0,499020;0,630194;0,497934;0,497934;0,640896;0,627850;0,411642;0,412023;0,543250;0,543788;
14;;;;;;;;;;;;;;1,000000;0,223419;0,223859;0,224311;0,210286;0,587163;0,615886;0,251864;0,252156;0,240657;0,249864;0,250426;0,250850;0,615886;0,569438;0,601681;0,445965;0,615886;0,261519;0,261720;0,577700;0,526263;0,222068;0,222338;0,612539;0,612900;
15;;;;;;;;;;;;;;;1,000000;0,737321;0,739100;0,819785;0,234836;0,607532;0,243510;0,243802;0,232303;0,241510;0,242072;0,242496;0,607532;0,279879;0,244511;0,221520;0,607532;0,253165;0,253366;0,235641;0,213555;0,213714;0,213984;0,251826;0,252249;
16;;;;;;;;;;;;;;;;1,000000;0,740801;0,821016;0,235275;0,607972;0,243950;0,244242;0,232743;0,241950;0,242512;0,242936;0,607972;0,280319;0,244950;0,221960;0,607972;0,253605;0,253805;0,236081;0,213995;0,214154;0,214424;0,252266;0,252688;
17;;;;;;;;;;;;;;;;;1,000000;0,822196;0,235727;0,608424;0,244402;0,244694;0,233195;0,242402;0,242964;0,243388;0,608424;0,280771;0,245402;0,222412;0,608424;0,254057;0,254258;0,236533;0,214447;0,214606;0,214876;0,252718;0,253140;
18;;;;;;;;;;;;;;;;;;1,000000;0,221703;0,594399;0,230377;0,230669;0,219170;0,228377;0,228939;0,229363;0,594399;0,266746;0,231378;0,208387;0,594399;0,240032;0,240233;0,222508;0,200422;0,200581;0,200851;0,238693;0,239116;
19;;;;;;;;;;;;;;;;;;;1,000000;0,627303;0,263281;0,263573;0,252074;0,261281;0,261843;0,262267;0,627303;0,592726;0,917799;0,722587;0,627303;0,272936;0,273136;0,600988;0,549551;0,233485;0,233755;0,635828;0,636188;
20;;;;;;;;;;;;;;;;;;;;1,000000;0,635977;0,636269;0,624771;0,633978;0,634539;0,634963;1,000000;0,672347;0,636978;0,613988;1,000000;0,645633;0,645833;0,628108;0,606023;0,606182;0,606452;0,644294;0,644716;
21;;;;;;;;;;;;;;;;;;;;;1,000000;0,640132;0,544887;0,633599;0,270517;0,270941;0,635977;0,308324;0,272956;0,249965;0,635977;0,281610;0,281811;0,264086;0,242000;0,242159;0,242429;0,280271;0,280694;
22;;;;;;;;;;;;;;;;;;;;;;1,000000;0,545637;0,633599;0,270809;0,271233;0,636269;0,308616;0,273248;0,250257;0,636269;0,281902;0,282103;0,264378;0,242292;0,242451;0,242721;0,280563;0,280986;
23;;;;;;;;;;;;;;;;;;;;;;;1,000000;0,545696;0,510248;0,510248;0,624771;0,297118;0,261749;0,351253;0,624771;0,270404;0,270604;0,252879;0,230793;0,435515;0,435742;0,269065;0,269487;
24;;;;;;;;;;;;;;;;;;;;;;;;1,000000;0,268517;0,268941;0,633978;0,306325;0,270956;0,247966;0,633978;0,279611;0,279811;0,262086;0,240001;0,240160;0,240430;0,278272;0,278694;
25;;;;;;;;;;;;;;;;;;;;;;;;;1,000000;0,652270;0,634539;0,306886;0,271517;0,493276;0,634539;0,280172;0,280373;0,262648;0,240562;0,577538;0,577764;0,278833;0,279256;
26;;;;;;;;;;;;;;;;;;;;;;;;;;1,000000;0,634963;0,307310;0,271941;0,493276;0,634963;0,280596;0,280797;0,263072;0,240986;0,577538;0,577764;0,279257;0,279680;
27;;;;;;;;;;;;;;;;;;;;;;;;;;;1,000000;0,672347;0,636978;0,613988;1,000000;0,645633;0,645833;0,628108;0,606023;0,606182;0,606452;0,644294;0,644716;
28;;;;;;;;;;;;;;;;;;;;;;;;;;;;1,000000;0,607244;0,451528;0,672347;0,317979;0,318180;0,773492;0,784854;0,278529;0,278798;0,901848;0,901848;
29;;;;;;;;;;;;;;;;;;;;;;;;;;;;;1,000000;0,640386;0,636978;0,578712;0,578712;0,615506;0,564069;0,492420;0,492800;0,650346;0,650706;
30;;;;;;;;;;;;;;;;;;;;;;;;;;;;;;1,000000;0,613988;0,575776;0,576194;0,459790;0,408353;0,637401;0,637758;0,494630;0,494990;
31;;;;;;;;;;;;;;;;;;;;;;;;;;;;;;;1,000000;0,645633;0,645833;0,628108;0,606023;0,606182;0,606452;0,644294;0,644716;
32;;;;;;;;;;;;;;;;;;;;;;;;;;;;;;;;1,000000;0,685249;0,273741;0,251655;0,598957;0,599337;0,289927;0,290349;
33;;;;;;;;;;;;;;;;;;;;;;;;;;;;;;;;;1,000000;0,273942;0,251856;0,598957;0,599337;0,290127;0,290549;
34;;;;;;;;;;;;;;;;;;;;;;;;;;;;;;;;;;1,000000;0,754945;0,234290;0,234560;0,626364;0,626725;
35;;;;;;;;;;;;;;;;;;;;;;;;;;;;;;;;;;;1,000000;0,212205;0,212474;0,883005;0,883005;
36;;;;;;;;;;;;;;;;;;;;;;;;;;;;;;;;;;;;1,000000;0,774517;0,250476;0,250898;
37;;;;;;;;;;;;;;;;;;;;;;;;;;;;;;;;;;;;;1,000000;0,250746;0,251168;
38;;;;;;;;;;;;;;;;;;;;;;;;;;;;;;;;;;;;;;1,000000;1,000000;
39;;;;;;;;;;;;;;;;;;;;;;;;;;;;;;;;;;;;;;;1,000000;
