;1; 2; 3; 4; 5; 6; 7; 8; 9; 10; 11; 12; 13; 14; 15; 16; 17; 18; 19; 20
1;1,000000;0,473541;0,434261;0,501701;0,450071;0,458987;0,569178;0,501617;0,501617;0,501617;0,507818;0,507818;0,479253;0,479253;0,450071;0,645423;0,000000;0,000000;0,000000;0,000000;
2;;1,000000;0,721522;0,570799;0,369684;0,319822;0,322191;0,328017;0,328017;0,328017;0,632390;0,632390;0,739368;0,739368;0,292924;0,000000;0,000000;0,000000;0,000000;0,000000;
3;;;1,000000;0,645627;0,297694;0,247832;0,250201;0,256027;0,256027;0,256027;0,591100;0,591100;0,648821;0,648821;0,220934;0,000000;0,000000;0,000000;0,000000;0,000000;
4;;;;1,000000;0,325932;0,276069;0,278439;0,284265;0,284265;0,284265;0,504812;0,504812;0,537163;0,537163;0,249172;0,000000;0,000000;0,000000;0,000000;0,000000;
5;;;;;1,000000;0,605715;0,567744;0,583333;0,583333;0,583333;0,000000;0,000000;0,333333;0,333333;0,910931;0,666667;0,000000;0,000000;0,000000;0,000000;
6;;;;;;1,000000;0,626590;0,522381;0,522381;0,522381;0,000000;0,000000;0,283471;0,283471;0,666667;0,616483;0,000000;0,000000;0,000000;0,000000;
7;;;;;;;1,000000;0,588525;0,588525;0,588525;0,000000;0,000000;0,285840;0,285840;0,621528;0,559726;0,000000;0,000000;0,000000;0,000000;
8;;;;;;;;1,000000;0,750000;0,750000;0,000000;0,000000;0,291667;0,291667;0,494073;0,291667;0,000000;0,000000;0,000000;0,000000;
9;;;;;;;;;1,000000;0,750000;0,000000;0,000000;0,291667;0,291667;0,494073;0,291667;0,000000;0,000000;0,000000;0,000000;
10;;;;;;;;;;1,000000;0,000000;0,000000;0,291667;0,291667;0,494073;0,291667;0,000000;0,000000;0,000000;0,000000;
11;;;;;;;;;;;1,000000;0,666667;0,333333;0,333333;0,000000;0,000000;0,000000;0,000000;0,000000;0,000000;
12;;;;;;;;;;;;1,000000;0,333333;0,333333;0,000000;0,000000;0,000000;0,000000;0,000000;0,000000;
13;;;;;;;;;;;;;1,000000;0,666667;0,256573;0,000000;0,000000;0,000000;0,000000;0,000000;
14;;;;;;;;;;;;;;1,000000;0,256573;0,000000;0,000000;0,000000;0,000000;0,000000;
15;;;;;;;;;;;;;;;1,000000;0,666667;0,000000;0,000000;0,000000;0,000000;
16;;;;;;;;;;;;;;;;1,000000;0,000000;0,000000;0,000000;0,000000;
17;;;;;;;;;;;;;;;;;1,000000;0,666667;0,666667;0,666667;
18;;;;;;;;;;;;;;;;;;1,000000;0,666667;0,666667;
19;;;;;;;;;;;;;;;;;;;1,000000;0,666667;
20;;;;;;;;;;;;;;;;;;;;1,000000;
