;1; 2; 3; 4; 5; 6; 7; 8; 9; 10; 11; 12; 13; 14; 15; 16; 17; 18; 19; 20; 21; 22; 23; 24; 25; 26; 27; 28; 29; 30; 31; 32; 33; 34; 35; 36; 37; 38; 39; 40; 41; 42; 43; 44; 45; 46; 47; 48; 49; 50; 51; 52; 53; 54; 55; 56; 57; 58; 59; 60; 61; 62; 63; 64; 65; 66; 67; 68; 69; 70; 71; 72; 73; 74; 75; 76; 77; 78; 79
1;1,000000;0,533765;0,489796;0,481583;0,498311;0,462390;0,599673;0,532713;0,653107;0,337142;0,647288;0,599313;0,793745;0,339020;0,352669;0,391501;0,510857;0,472859;0,546662;0,536465;0,678399;0,427595;0,502514;0,457060;0,495883;0,337610;0,551989;0,655779;0,655779;0,659422;0,654626;0,339020;0,339020;0,637006;0,497048;0,340185;0,340185;0,000000;0,000000;0,497048;0,495883;0,259179;0,259179;0,659422;0,000000;0,645022;0,490425;0,502559;0,502559;0,502559;0,562267;0,634802;0,577536;0,000000;0,000000;0,502559;0,502559;0,430054;0,337610;0,337610;0,660711;0,000000;0,000000;0,000000;0,000000;0,337610;0,337610;0,259179;0,259179;0,259179;0,496151;0,659422;0,464703;0,502559;0,502559;0,000000;0,000000;0,000000;0,000000;
2;;1,000000;0,658257;0,558164;0,490384;0,663484;0,660005;0,512013;0,548749;0,985685;0,986976;0,630665;0,666708;0,663043;0,406933;0,738775;0,739984;0,547756;0,541377;0,526208;0,725709;0,829694;0,522205;0,483589;0,498479;0,988654;0,726189;0,648896;0,648896;0,661284;0,986560;0,660178;0,660178;0,653378;0,496161;0,661284;0,661284;0,496091;0,496091;0,987371;0,498479;0,744089;0,744089;0,661284;0,496091;0,975509;0,497216;0,741651;0,741651;0,741651;0,974574;0,743361;0,975222;0,331522;0,331522;0,741621;0,741621;0,677107;0,660263;0,660263;0,987152;0,251812;0,251812;0,251812;0,251812;0,660263;0,660263;0,498596;0,498596;0,498596;0,498909;0,661284;0,763003;0,743137;0,743137;0,250000;0,250000;0,250000;0,250000;
3;;;1,000000;0,694482;0,642677;0,512933;0,399922;0,851928;0,565134;0,332931;0,659922;0,538684;0,564493;0,656329;0,381868;0,491125;0,731491;0,764855;0,256935;0,347200;0,652643;0,548726;0,519792;0,461837;0,979958;0,657550;0,543431;0,637732;0,637732;0,658634;0,659922;0,332991;0,332991;0,684620;0,500000;0,656266;0,656266;0,252471;0,252471;0,493850;0,979958;0,496630;0,496630;0,658634;0,252471;0,660783;0,495264;0,736723;0,736723;0,736723;0,581771;0,740152;0,588459;0,657225;0,657225;0,737068;0,737068;0,661451;0,333753;0,333753;0,659984;0,000000;0,000000;0,000000;0,000000;0,333753;0,333753;0,252471;0,252471;0,252471;0,500000;0,658634;0,762024;0,739675;0,739675;0,000000;0,000000;0,000000;0,000000;
4;;;;1,000000;0,460801;0,589962;0,577136;0,691545;0,550889;0,650208;0,653205;0,564471;0,610038;0,976431;0,618100;0,727731;0,727974;0,581169;0,667300;0,427043;0,639950;0,322464;0,320695;0,701773;0,973484;0,655790;0,479210;0,632396;0,632396;0,657278;0,653205;0,655494;0,655494;0,559608;0,488095;0,333333;0,333333;0,491312;0,491312;0,492063;0,973484;0,736382;0,736382;0,657278;0,491312;0,494795;0,738210;0,255600;0,255600;0,255600;0,570977;0,734417;0,577491;0,329365;0,329365;0,255600;0,255600;0,858897;0,652007;0,652007;0,332504;0,000000;0,000000;0,000000;0,000000;0,652007;0,652007;0,734474;0,734474;0,734474;0,488095;0,657278;0,660497;0,498548;0,498548;0,000000;0,000000;0,000000;0,000000;
5;;;;;1,000000;0,450392;0,585537;0,777520;0,854195;0,333333;0,333333;0,662252;0,458776;0,333333;0,567378;0,494480;0,494480;0,707434;0,515702;0,472858;0,520104;0,369684;0,342452;0,480085;0,916667;0,333333;0,462967;0,558370;0,558370;0,333333;0,000000;0,333333;0,333333;0,320978;0,000000;0,000000;0,000000;0,289009;0,289009;0,000000;0,916667;0,270833;0,270833;0,333333;0,578017;0,333333;0,471777;0,270833;0,270833;0,270833;0,333333;0,627583;0,433333;0,000000;0,000000;0,270833;0,270833;0,297619;0,333333;0,333333;0,000000;0,000000;0,000000;0,000000;0,000000;0,333333;0,333333;0,270833;0,270833;0,270833;0,000000;0,333333;0,267569;0,270833;0,270833;0,000000;0,000000;0,000000;0,000000;
6;;;;;;1,000000;0,634167;0,420551;0,480471;0,666667;0,327738;0,437457;0,483616;0,652964;0,425726;0,740293;0,575389;0,381932;0,432912;0,395787;0,612898;0,384224;0,337155;0,297352;0,475342;0,621175;0,321854;0,436830;0,436830;0,621794;0,000000;0,628816;0,628816;0,407358;0,000000;0,333333;0,333333;0,479167;0,479167;0,479167;0,475342;0,475342;0,475342;0,621794;0,479167;0,333333;0,254821;0,256592;0,256592;0,256592;0,394196;0,585909;0,453016;0,000000;0,000000;0,256592;0,256592;0,574153;0,327738;0,327738;0,000000;0,260417;0,260417;0,260417;0,260417;0,327738;0,327738;0,475342;0,475342;0,475342;0,000000;0,621794;0,427108;0,475960;0,475960;0,250000;0,250000;0,250000;0,250000;
7;;;;;;;1,000000;0,558820;0,675186;0,328789;0,327738;0,558233;0,576859;0,649495;0,616712;0,730224;0,497240;0,383861;0,275000;0,274480;0,463675;0,450000;0,458962;0,329938;0,475864;0,327738;0,455701;0,612941;0,612941;0,633522;0,333333;0,649495;0,649495;0,428700;0,479167;0,333333;0,333333;0,260417;0,260417;0,479167;0,475864;0,254821;0,254821;0,633522;0,260417;0,333333;0,254821;0,487689;0,487689;0,487689;0,394196;0,383366;0,387294;0,000000;0,000000;0,487689;0,487689;0,560143;0,327738;0,327738;0,000000;0,260417;0,260417;0,260417;0,260417;0,327738;0,327738;0,254821;0,254821;0,254821;0,000000;0,633522;0,448144;0,487689;0,487689;0,250000;0,250000;0,250000;0,250000;
8;;;;;;;;1,000000;0,512110;0,666667;0,634860;0,602823;0,563067;0,645836;0,612902;0,487185;0,697483;0,728751;0,682312;0,553728;0,582939;0,571541;0,484244;0,523417;0,984254;0,638889;0,638046;0,357455;0,357455;0,646390;0,634860;0,645836;0,645836;0,540773;0,486111;0,333333;0,333333;0,486111;0,486111;0,486111;0,984254;0,486111;0,486111;0,646390;0,733042;0,631480;0,713222;0,266325;0,266325;0,266325;0,542802;0,742817;0,548865;0,660608;0,660608;0,494110;0,494110;0,549282;0,333333;0,333333;0,666667;0,000000;0,000000;0,000000;0,000000;0,333333;0,333333;0,256944;0,256944;0,256944;0,486111;0,646390;0,637825;0,493612;0,493612;0,000000;0,000000;0,000000;0,000000;
9;;;;;;;;;1,000000;0,666667;0,655348;0,649371;0,588946;0,650164;0,691183;0,607418;0,741536;0,496525;0,650414;0,609035;0,642908;0,415721;0,450578;0,413605;0,491338;0,655348;0,661086;0,648690;0,648690;0,657485;0,652634;0,650164;0,650164;0,684749;0,491508;0,652279;0,652279;0,744484;0,744484;0,491508;0,491338;0,736112;0,736112;0,657485;0,744212;0,639578;0,490800;0,498755;0,498755;0,498755;0,645059;0,615986;0,782895;0,000000;0,000000;0,498755;0,498755;0,591356;0,655348;0,655348;0,330679;0,250000;0,250000;0,250000;0,250000;0,655348;0,655348;0,734474;0,734474;0,734474;0,000000;0,657485;0,653976;0,737957;0,737957;0,000000;0,000000;0,000000;0,000000;
10;;;;;;;;;;1,000000;0,000000;0,326923;0,650076;0,333333;0,589598;0,305556;0,305556;0,000000;0,573062;0,601938;0,333333;0,351509;0,345450;0,333333;0,000000;0,333333;0,333333;0,000000;0,000000;0,333333;0,000000;0,333333;0,333333;0,288889;0,000000;0,333333;0,333333;0,291667;0,291667;0,416667;0,000000;0,291667;0,291667;0,333333;0,291667;0,333333;0,000000;0,000000;0,000000;0,000000;0,000000;0,527778;0,000000;0,000000;0,000000;0,000000;0,000000;0,316667;0,000000;0,000000;0,000000;0,000000;0,000000;0,000000;0,000000;0,000000;0,000000;0,291667;0,291667;0,291667;0,000000;0,333333;0,288889;0,291667;0,291667;0,000000;0,000000;0,000000;0,000000;
11;;;;;;;;;;;1,000000;0,646154;0,653407;0,000000;0,000000;0,305556;0,569702;0,333333;0,000000;0,638889;0,666667;0,000000;0,000000;0,638889;0,000000;0,666667;0,341435;0,333333;0,333333;0,000000;0,666667;0,000000;0,000000;0,288889;0,000000;0,000000;0,000000;0,000000;0,000000;0,000000;0,000000;0,583333;0,583333;0,000000;0,000000;0,613070;0,583333;0,000000;0,000000;0,000000;0,922345;0,788295;0,935773;0,000000;0,000000;0,000000;0,000000;0,633333;0,666667;0,666667;0,333333;0,000000;0,000000;0,000000;0,000000;0,666667;0,666667;0,291667;0,291667;0,291667;0,000000;0,000000;0,560327;0,000000;0,000000;0,000000;0,000000;0,000000;0,000000;
12;;;;;;;;;;;;1,000000;0,661171;0,332122;0,272164;0,488412;0,726828;0,550412;0,406097;0,530370;0,718384;0,519631;0,456154;0,505893;0,959611;0,646154;0,765037;0,609484;0,609484;0,643571;0,652541;0,332122;0,332122;0,676765;0,946868;0,333333;0,333333;0,250000;0,250000;0,487179;0,959611;0,492308;0,492308;0,643571;0,250000;0,635396;0,731207;0,489725;0,489725;0,489725;0,551437;0,716372;0,774106;0,326923;0,326923;0,489725;0,489725;0,492214;0,646154;0,646154;0,332294;0,000000;0,000000;0,000000;0,000000;0,646154;0,646154;0,257041;0,257041;0,257041;0,480769;0,643571;0,655591;0,489725;0,489725;0,257692;0,257692;0,257692;0,257692;
13;;;;;;;;;;;;;1,000000;0,329830;0,290565;0,488291;0,729465;0,621115;0,291387;0,349516;0,637447;0,419346;0,436054;0,446653;0,489250;0,655323;0,596893;0,634216;0,634216;0,976961;0,656638;0,329830;0,329830;0,842186;0,493282;0,654432;0,654432;0,251200;0,251200;0,973272;0,489250;0,736192;0,736192;0,976961;0,251200;0,654215;0,493987;0,495163;0,495163;0,495163;0,793426;0,727047;0,580066;0,000000;0,000000;0,495163;0,495163;0,640808;0,653289;0,653289;0,657827;0,000000;0,000000;0,000000;0,000000;0,653289;0,653289;0,495902;0,495902;0,495902;0,492754;0,976961;0,758926;0,737830;0,737830;0,250000;0,250000;0,250000;0,250000;
14;;;;;;;;;;;;;;1,000000;1,000000;0,916667;0,305556;0,349974;0,000000;0,000000;0,646327;0,000000;0,319444;0,000000;0,416667;0,000000;0,333333;0,333333;0,333333;0,333333;0,000000;0,666667;0,666667;0,326469;0,000000;0,000000;0,000000;0,000000;0,000000;0,000000;0,416667;0,000000;0,000000;0,333333;0,000000;0,000000;0,000000;0,291667;0,291667;0,291667;0,000000;0,305556;0,000000;0,000000;0,000000;0,291667;0,291667;0,905065;0,000000;0,000000;0,000000;0,000000;0,000000;0,000000;0,000000;0,000000;0,000000;0,000000;0,000000;0,000000;0,000000;0,333333;0,296798;0,291667;0,291667;0,000000;0,000000;0,000000;0,000000;
15;;;;;;;;;;;;;;;1,000000;0,833333;0,423917;0,379926;0,571039;0,667783;0,615817;0,000000;0,296296;0,250000;0,466667;0,316667;0,333333;0,333333;0,333333;0,587683;0,000000;0,666667;0,666667;0,381141;0,000000;0,316667;0,316667;0,726508;0,726508;0,450000;0,466667;0,250000;0,250000;0,587683;0,726188;0,000000;0,250000;0,266667;0,266667;0,266667;0,000000;0,343710;0,000000;0,000000;0,000000;0,266667;0,266667;0,762661;0,000000;0,000000;0,000000;0,750000;0,750000;0,750000;0,750000;0,000000;0,000000;0,250000;0,250000;0,250000;0,000000;0,587683;0,311664;0,454350;0,454350;0,000000;0,000000;0,000000;0,000000;
16;;;;;;;;;;;;;;;;1,000000;0,379690;0,299954;0,000000;0,250000;0,521656;0,000000;0,250000;0,250000;0,416667;0,305556;0,270833;0,407843;0,407843;0,305556;0,000000;0,611111;0,611111;0,281371;0,000000;0,000000;0,000000;0,000000;0,000000;0,000000;0,416667;0,250000;0,250000;0,305556;0,000000;0,000000;0,250000;0,250000;0,250000;0,250000;0,339876;0,379690;0,375000;0,000000;0,000000;0,250000;0,250000;0,675108;0,305556;0,305556;0,000000;0,000000;0,000000;0,000000;0,000000;0,305556;0,305556;0,250000;0,250000;0,250000;0,000000;0,305556;0,368649;0,250000;0,250000;0,250000;0,250000;0,250000;0,250000;
17;;;;;;;;;;;;;;;;;1,000000;0,479776;0,250000;0,339286;0,613293;0,350000;0,412841;0,277089;0,416667;0,875089;0,629193;0,566667;0,566667;0,875237;0,568752;0,305556;0,305556;0,784836;0,416667;0,568440;0,568440;0,250000;0,250000;0,790662;0,416667;0,708423;0,708423;0,875237;0,250000;0,435078;0,250000;0,459326;0,459326;0,459326;0,521220;0,762129;0,657909;0,000000;0,000000;0,459326;0,459326;0,459746;0,569702;0,569702;0,305556;0,000000;0,000000;0,000000;0,000000;0,569702;0,569702;0,458333;0,458333;0,458333;0,000000;0,875237;0,767770;0,708571;0,708571;0,000000;0,000000;0,000000;0,000000;
18;;;;;;;;;;;;;;;;;;1,000000;0,000000;0,363636;0,521080;0,388889;0,383009;0,500000;0,969853;0,333333;0,657229;0,372161;0,372161;0,349974;0,333333;0,349974;0,349974;0,431779;0,500000;0,000000;0,000000;0,000000;0,000000;0,000000;0,969853;0,261905;0,261905;0,349974;0,000000;0,501870;0,285714;0,278545;0,278545;0,278545;0,333333;0,543734;0,387859;0,357143;0,357143;0,278545;0,278545;0,395185;0,333333;0,333333;0,639389;0,000000;0,000000;0,000000;0,000000;0,333333;0,333333;0,000000;0,000000;0,000000;0,500000;0,349974;0,545858;0,278545;0,278545;0,000000;0,000000;0,000000;0,000000;
19;;;;;;;;;;;;;;;;;;;1,000000;0,624215;0,333333;0,369684;0,360596;0,384168;0,000000;0,312500;0,333333;0,000000;0,000000;0,312500;0,000000;0,000000;0,000000;0,220000;0,000000;0,312500;0,312500;0,693002;0,693002;0,437500;0,000000;0,250000;0,250000;0,312500;0,693002;0,333333;0,273580;0,000000;0,000000;0,000000;0,000000;0,266899;0,000000;0,000000;0,000000;0,000000;0,000000;0,000000;0,000000;0,000000;0,000000;0,250000;0,250000;0,250000;0,250000;0,000000;0,000000;0,250000;0,250000;0,250000;0,000000;0,312500;0,220000;0,250000;0,250000;0,000000;0,000000;0,000000;0,000000;
20;;;;;;;;;;;;;;;;;;;;1,000000;0,313695;0,479958;0,385420;0,557149;0,000000;0,597222;0,333333;0,302083;0,302083;0,319444;0,319444;0,000000;0,000000;0,214286;0,458333;0,319444;0,319444;0,730435;0,730435;0,458333;0,000000;0,458333;0,458333;0,319444;0,709032;0,320708;0,750000;0,000000;0,000000;0,000000;0,564568;0,453130;0,428567;0,319444;0,319444;0,000000;0,000000;0,305556;0,319444;0,319444;0,000000;0,250000;0,250000;0,250000;0,250000;0,319444;0,319444;0,458333;0,458333;0,458333;0,458333;0,319444;0,232563;0,250000;0,250000;0,000000;0,000000;0,000000;0,000000;
21;;;;;;;;;;;;;;;;;;;;;1,000000;0,388350;0,521701;0,380137;0,890248;0,333333;0,754095;0,533403;0,533403;0,633173;0,913465;0,333333;0,333333;0,572270;0,466667;0,333333;0,333333;0,000000;0,000000;0,466667;0,890248;0,266667;0,266667;0,633173;0,000000;0,718028;0,266667;0,499840;0,499840;0,499840;0,615341;0,711054;0,711736;0,000000;0,000000;0,499840;0,499840;0,590829;0,333333;0,333333;0,333333;0,000000;0,000000;0,000000;0,000000;0,333333;0,333333;0,000000;0,000000;0,000000;0,000000;0,633173;0,676205;0,499840;0,499840;0,000000;0,000000;0,000000;0,000000;
22;;;;;;;;;;;;;;;;;;;;;;1,000000;0,526046;0,720569;0,000000;0,000000;0,419850;0,416667;0,416667;0,375000;0,375000;0,000000;0,000000;0,320000;0,846116;0,375000;0,375000;0,000000;0,000000;0,500000;0,000000;0,000000;0,000000;0,375000;0,000000;0,371845;0,270833;0,312500;0,312500;0,312500;0,000000;0,312414;0,400000;0,641356;0,641356;0,509645;0,509645;0,000000;0,000000;0,000000;0,000000;0,000000;0,000000;0,000000;0,000000;0,000000;0,000000;0,000000;0,000000;0,000000;0,458333;0,375000;0,320000;0,312500;0,312500;0,000000;0,000000;0,000000;0,000000;
23;;;;;;;;;;;;;;;;;;;;;;;1,000000;0,668738;0,458333;0,000000;0,451263;0,536910;0,536910;0,638889;0,336111;0,319444;0,319444;0,454621;0,889878;0,336111;0,336111;0,000000;0,000000;0,475000;0,458333;0,000000;0,000000;0,638889;0,000000;0,346809;0,263889;0,500000;0,500000;0,500000;0,000000;0,375012;0,338095;0,642355;0,642355;0,733652;0,733652;0,250000;0,000000;0,000000;0,000000;0,000000;0,000000;0,000000;0,000000;0,000000;0,000000;0,000000;0,000000;0,000000;0,472222;0,638889;0,378999;0,500000;0,500000;0,000000;0,000000;0,000000;0,000000;
24;;;;;;;;;;;;;;;;;;;;;;;;1,000000;0,000000;0,319444;0,405219;0,337638;0,337638;0,361111;0,611590;0,000000;0,000000;0,391517;0,500000;0,361111;0,361111;0,250000;0,250000;0,500000;0,000000;0,250000;0,250000;0,361111;0,250000;0,442404;0,750000;0,291667;0,291667;0,291667;0,564568;0,394555;0,567118;0,642355;0,642355;0,477255;0,477255;0,305556;0,319444;0,319444;0,361111;0,000000;0,000000;0,000000;0,000000;0,319444;0,319444;0,250000;0,250000;0,250000;0,500000;0,361111;0,257972;0,291667;0,291667;0,000000;0,000000;0,000000;0,000000;
25;;;;;;;;;;;;;;;;;;;;;;;;;1,000000;0,000000;0,929647;0,458333;0,458333;0,416667;0,000000;0,416667;0,416667;0,437580;0,000000;0,000000;0,000000;0,000000;0,000000;0,000000;1,000000;0,000000;0,000000;0,416667;0,000000;0,000000;0,000000;0,375000;0,375000;0,375000;0,000000;0,793549;0,000000;0,000000;0,000000;0,375000;0,375000;0,450000;0,000000;0,000000;0,000000;0,000000;0,000000;0,000000;0,000000;0,000000;0,000000;0,000000;0,000000;0,000000;0,000000;0,416667;0,407909;0,375000;0,375000;0,000000;0,000000;0,000000;0,000000;
26;;;;;;;;;;;;;;;;;;;;;;;;;;1,000000;0,341435;0,333333;0,333333;0,333333;0,333333;0,000000;0,000000;0,577778;0,000000;0,333333;0,333333;0,291667;0,291667;0,416667;0,000000;0,875000;0,875000;0,333333;0,291667;0,333333;0,291667;0,000000;0,000000;0,000000;0,666667;0,916667;0,653167;0,000000;0,000000;0,000000;0,000000;0,316667;0,666667;0,666667;0,333333;0,000000;0,000000;0,000000;0,000000;0,666667;0,666667;0,583333;0,583333;0,583333;0,000000;0,333333;0,554205;0,291667;0,291667;0,000000;0,000000;0,000000;0,000000;
27;;;;;;;;;;;;;;;;;;;;;;;;;;;1,000000;0,540088;0,540088;0,643165;0,661300;0,333333;0,333333;0,754527;0,490653;0,347796;0,347796;0,000000;0,000000;0,490653;0,929647;0,270007;0,270007;0,643165;0,000000;0,675774;0,000000;0,500307;0,500307;0,500307;0,347512;0,612168;0,601725;0,000000;0,000000;0,500307;0,500307;0,403074;0,341435;0,341435;0,633698;0,000000;0,000000;0,000000;0,000000;0,341435;0,341435;0,000000;0,000000;0,000000;0,476190;0,643165;0,574472;0,500307;0,500307;0,000000;0,000000;0,000000;0,000000;
28;;;;;;;;;;;;;;;;;;;;;;;;;;;;1,000000;0,666667;0,639764;0,333333;0,333333;0,333333;0,485504;0,458333;0,333333;0,333333;0,000000;0,000000;0,458333;0,458333;0,270833;0,270833;0,639764;0,000000;0,333333;0,270833;0,514764;0,514764;0,514764;0,333333;0,407843;0,379112;0,000000;0,000000;0,514764;0,514764;0,297619;0,333333;0,333333;0,000000;0,000000;0,000000;0,000000;0,000000;0,333333;0,333333;0,270833;0,270833;0,270833;0,000000;0,639764;0,421982;0,514764;0,514764;0,000000;0,000000;0,000000;0,000000;
29;;;;;;;;;;;;;;;;;;;;;;;;;;;;;1,000000;0,639764;0,333333;0,333333;0,333333;0,485504;0,458333;0,333333;0,333333;0,000000;0,000000;0,458333;0,458333;0,270833;0,270833;0,639764;0,000000;0,333333;0,270833;0,514764;0,514764;0,514764;0,333333;0,407843;0,379112;0,000000;0,000000;0,514764;0,514764;0,297619;0,333333;0,333333;0,000000;0,000000;0,000000;0,000000;0,000000;0,333333;0,333333;0,270833;0,270833;0,270833;0,000000;0,639764;0,421982;0,514764;0,514764;0,000000;0,000000;0,000000;0,000000;
30;;;;;;;;;;;;;;;;;;;;;;;;;;;;;;1,000000;0,333333;0,333333;0,333333;0,854808;0,416667;0,666667;0,666667;0,291667;0,291667;0,833333;0,416667;0,291667;0,291667;1,000000;0,291667;0,333333;0,000000;0,583333;0,583333;0,583333;0,000000;0,571008;0,333333;0,000000;0,000000;0,583333;0,583333;0,316667;0,000000;0,000000;0,000000;0,000000;0,000000;0,000000;0,000000;0,000000;0,000000;0,291667;0,291667;0,291667;0,000000;1,000000;0,813812;0,875000;0,875000;0,000000;0,000000;0,000000;0,000000;
31;;;;;;;;;;;;;;;;;;;;;;;;;;;;;;;1,000000;0,000000;0,000000;0,577778;0,416667;0,333333;0,333333;0,000000;0,000000;0,416667;0,000000;0,291667;0,291667;0,333333;0,000000;0,889814;0,291667;0,291667;0,291667;0,291667;0,641004;0,527778;0,927981;0,000000;0,000000;0,291667;0,291667;0,633333;0,333333;0,333333;0,333333;0,000000;0,000000;0,000000;0,000000;0,333333;0,333333;0,000000;0,000000;0,000000;0,000000;0,333333;0,816682;0,291667;0,291667;0,000000;0,000000;0,000000;0,000000;
32;;;;;;;;;;;;;;;;;;;;;;;;;;;;;;;;1,000000;0,666667;0,326469;0,000000;0,000000;0,000000;0,000000;0,000000;0,000000;0,416667;0,000000;0,000000;0,333333;0,000000;0,000000;0,000000;0,291667;0,291667;0,291667;0,000000;0,305556;0,000000;0,000000;0,000000;0,291667;0,291667;0,609956;0,000000;0,000000;0,000000;0,000000;0,000000;0,000000;0,000000;0,000000;0,000000;0,000000;0,000000;0,000000;0,000000;0,333333;0,296798;0,291667;0,291667;0,000000;0,000000;0,000000;0,000000;
33;;;;;;;;;;;;;;;;;;;;;;;;;;;;;;;;;1,000000;0,326469;0,000000;0,000000;0,000000;0,000000;0,000000;0,000000;0,416667;0,000000;0,000000;0,333333;0,000000;0,000000;0,000000;0,291667;0,291667;0,291667;0,000000;0,305556;0,000000;0,000000;0,000000;0,291667;0,291667;0,609956;0,000000;0,000000;0,000000;0,000000;0,000000;0,000000;0,000000;0,000000;0,000000;0,000000;0,000000;0,000000;0,000000;0,333333;0,296798;0,291667;0,291667;0,000000;0,000000;0,000000;0,000000;
34;;;;;;;;;;;;;;;;;;;;;;;;;;;;;;;;;;1,000000;0,400000;0,577778;0,577778;0,233333;0,233333;0,800000;0,437580;0,466667;0,466667;0,854808;0,233333;0,448616;0,000000;0,478823;0,478823;0,478823;0,266667;0,538814;0,496300;0,000000;0,000000;0,478823;0,478823;0,550800;0,288889;0,288889;0,558942;0,000000;0,000000;0,000000;0,000000;0,288889;0,288889;0,233333;0,233333;0,233333;0,500000;0,854808;0,677472;0,688142;0,688142;0,000000;0,000000;0,000000;0,000000;
35;;;;;;;;;;;;;;;;;;;;;;;;;;;;;;;;;;;1,000000;0,416667;0,416667;0,000000;0,000000;0,500000;0,000000;0,000000;0,000000;0,416667;0,000000;0,444444;0,375000;0,375000;0,375000;0,375000;0,000000;0,000000;0,444444;0,416667;0,416667;0,375000;0,375000;0,000000;0,000000;0,000000;0,000000;0,000000;0,000000;0,000000;0,000000;0,000000;0,000000;0,000000;0,000000;0,000000;0,500000;0,416667;0,400000;0,375000;0,375000;0,000000;0,000000;0,000000;0,000000;
36;;;;;;;;;;;;;;;;;;;;;;;;;;;;;;;;;;;;1,000000;0,666667;0,291667;0,291667;0,833333;0,000000;0,291667;0,291667;0,666667;0,291667;0,333333;0,000000;0,291667;0,291667;0,291667;0,000000;0,305556;0,333333;0,000000;0,000000;0,291667;0,291667;0,000000;0,000000;0,000000;0,000000;0,000000;0,000000;0,000000;0,000000;0,000000;0,000000;0,291667;0,291667;0,291667;0,000000;0,666667;0,577778;0,583333;0,583333;0,000000;0,000000;0,000000;0,000000;
37;;;;;;;;;;;;;;;;;;;;;;;;;;;;;;;;;;;;;1,000000;0,291667;0,291667;0,833333;0,000000;0,291667;0,291667;0,666667;0,291667;0,333333;0,000000;0,291667;0,291667;0,291667;0,000000;0,305556;0,333333;0,000000;0,000000;0,291667;0,291667;0,000000;0,000000;0,000000;0,000000;0,000000;0,000000;0,000000;0,000000;0,000000;0,000000;0,291667;0,291667;0,291667;0,000000;0,666667;0,577778;0,583333;0,583333;0,000000;0,000000;0,000000;0,000000;
38;;;;;;;;;;;;;;;;;;;;;;;;;;;;;;;;;;;;;;1,000000;0,750000;0,375000;0,000000;0,250000;0,250000;0,291667;0,750000;0,000000;0,250000;0,000000;0,000000;0,000000;0,000000;0,250000;0,000000;0,000000;0,000000;0,000000;0,000000;0,000000;0,000000;0,000000;0,000000;0,250000;0,250000;0,250000;0,250000;0,000000;0,000000;0,250000;0,250000;0,250000;0,000000;0,291667;0,233333;0,250000;0,250000;0,000000;0,000000;0,000000;0,000000;
39;;;;;;;;;;;;;;;;;;;;;;;;;;;;;;;;;;;;;;;1,000000;0,375000;0,000000;0,250000;0,250000;0,291667;0,750000;0,000000;0,250000;0,000000;0,000000;0,000000;0,000000;0,250000;0,000000;0,000000;0,000000;0,000000;0,000000;0,000000;0,000000;0,000000;0,000000;0,250000;0,250000;0,250000;0,250000;0,000000;0,000000;0,250000;0,250000;0,250000;0,000000;0,291667;0,233333;0,250000;0,250000;0,000000;0,000000;0,000000;0,000000;
40;;;;;;;;;;;;;;;;;;;;;;;;;;;;;;;;;;;;;;;;1,000000;0,000000;0,375000;0,375000;0,833333;0,375000;0,444444;0,000000;0,375000;0,375000;0,375000;0,000000;0,416667;0,444444;0,000000;0,000000;0,375000;0,375000;0,000000;0,000000;0,000000;0,000000;0,000000;0,000000;0,000000;0,000000;0,000000;0,000000;0,375000;0,375000;0,375000;0,000000;0,833333;0,800000;0,750000;0,750000;0,000000;0,000000;0,000000;0,000000;
41;;;;;;;;;;;;;;;;;;;;;;;;;;;;;;;;;;;;;;;;;1,000000;0,000000;0,000000;0,416667;0,000000;0,000000;0,000000;0,375000;0,375000;0,375000;0,000000;0,793549;0,000000;0,000000;0,000000;0,375000;0,375000;0,450000;0,000000;0,000000;0,000000;0,000000;0,000000;0,000000;0,000000;0,000000;0,000000;0,000000;0,000000;0,000000;0,000000;0,416667;0,407909;0,375000;0,375000;0,000000;0,000000;0,000000;0,000000;
42;;;;;;;;;;;;;;;;;;;;;;;;;;;;;;;;;;;;;;;;;;1,000000;0,750000;0,291667;0,250000;0,277778;0,250000;0,000000;0,000000;0,000000;0,555556;0,750000;0,542056;0,000000;0,000000;0,000000;0,000000;0,250000;0,583333;0,583333;0,291667;0,000000;0,000000;0,000000;0,000000;0,583333;0,583333;0,500000;0,500000;0,500000;0,000000;0,291667;0,443094;0,250000;0,250000;0,000000;0,000000;0,000000;0,000000;
43;;;;;;;;;;;;;;;;;;;;;;;;;;;;;;;;;;;;;;;;;;;1,000000;0,291667;0,250000;0,277778;0,250000;0,000000;0,000000;0,000000;0,555556;0,750000;0,542056;0,000000;0,000000;0,000000;0,000000;0,250000;0,583333;0,583333;0,291667;0,000000;0,000000;0,000000;0,000000;0,583333;0,583333;0,500000;0,500000;0,500000;0,000000;0,291667;0,443094;0,250000;0,250000;0,000000;0,000000;0,000000;0,000000;
44;;;;;;;;;;;;;;;;;;;;;;;;;;;;;;;;;;;;;;;;;;;;1,000000;0,291667;0,333333;0,000000;0,583333;0,583333;0,583333;0,000000;0,571008;0,333333;0,000000;0,000000;0,583333;0,583333;0,316667;0,000000;0,000000;0,000000;0,000000;0,000000;0,000000;0,000000;0,000000;0,000000;0,291667;0,291667;0,291667;0,000000;1,000000;0,813812;0,875000;0,875000;0,000000;0,000000;0,000000;0,000000;
45;;;;;;;;;;;;;;;;;;;;;;;;;;;;;;;;;;;;;;;;;;;;;1,000000;0,000000;0,250000;0,000000;0,000000;0,000000;0,000000;0,250000;0,000000;0,000000;0,000000;0,000000;0,000000;0,000000;0,000000;0,000000;0,000000;0,250000;0,250000;0,250000;0,250000;0,000000;0,000000;0,250000;0,250000;0,250000;0,000000;0,291667;0,233333;0,250000;0,250000;0,000000;0,000000;0,000000;0,000000;
46;;;;;;;;;;;;;;;;;;;;;;;;;;;;;;;;;;;;;;;;;;;;;;1,000000;0,277778;0,277778;0,277778;0,277778;0,547778;0,526692;0,726693;0,000000;0,000000;0,277778;0,277778;0,503919;0,333333;0,333333;0,614640;0,000000;0,000000;0,000000;0,000000;0,333333;0,333333;0,000000;0,000000;0,000000;0,000000;0,333333;0,559745;0,277778;0,277778;0,000000;0,000000;0,000000;0,000000;
47;;;;;;;;;;;;;;;;;;;;;;;;;;;;;;;;;;;;;;;;;;;;;;;1,000000;0,000000;0,000000;0,000000;0,530132;0,416667;0,466665;0,291667;0,291667;0,000000;0,000000;0,270000;0,291667;0,291667;0,000000;0,000000;0,000000;0,000000;0,000000;0,291667;0,291667;0,250000;0,250000;0,250000;0,375000;0,000000;0,250000;0,000000;0,000000;0,000000;0,000000;0,000000;0,000000;
48;;;;;;;;;;;;;;;;;;;;;;;;;;;;;;;;;;;;;;;;;;;;;;;;1,000000;0,750000;0,750000;0,000000;0,250000;0,277778;0,000000;0,000000;0,500000;0,500000;0,250000;0,000000;0,000000;0,000000;0,000000;0,000000;0,000000;0,000000;0,000000;0,000000;0,000000;0,000000;0,000000;0,000000;0,583333;0,443533;0,500000;0,500000;0,000000;0,000000;0,000000;0,000000;
49;;;;;;;;;;;;;;;;;;;;;;;;;;;;;;;;;;;;;;;;;;;;;;;;;1,000000;0,750000;0,000000;0,250000;0,277778;0,000000;0,000000;0,500000;0,500000;0,250000;0,000000;0,000000;0,000000;0,000000;0,000000;0,000000;0,000000;0,000000;0,000000;0,000000;0,000000;0,000000;0,000000;0,583333;0,443533;0,500000;0,500000;0,000000;0,000000;0,000000;0,000000;
50;;;;;;;;;;;;;;;;;;;;;;;;;;;;;;;;;;;;;;;;;;;;;;;;;;1,000000;0,000000;0,250000;0,277778;0,000000;0,000000;0,500000;0,500000;0,250000;0,000000;0,000000;0,000000;0,000000;0,000000;0,000000;0,000000;0,000000;0,000000;0,000000;0,000000;0,000000;0,000000;0,583333;0,443533;0,500000;0,500000;0,000000;0,000000;0,000000;0,000000;
51;;;;;;;;;;;;;;;;;;;;;;;;;;;;;;;;;;;;;;;;;;;;;;;;;;;1,000000;0,565960;0,787176;0,000000;0,000000;0,000000;0,000000;0,559785;0,666667;0,666667;0,333333;0,000000;0,000000;0,000000;0,000000;0,666667;0,666667;0,277778;0,277778;0,277778;0,000000;0,000000;0,657329;0,000000;0,000000;0,333333;0,333333;0,333333;0,333333;
52;;;;;;;;;;;;;;;;;;;;;;;;;;;;;;;;;;;;;;;;;;;;;;;;;;;;1,000000;0,586101;0,000000;0,000000;0,250000;0,250000;0,503658;0,611111;0,611111;0,305556;0,000000;0,000000;0,000000;0,000000;0,611111;0,611111;0,500000;0,500000;0,500000;0,000000;0,571008;0,648406;0,459897;0,459897;0,000000;0,000000;0,000000;0,000000;
53;;;;;;;;;;;;;;;;;;;;;;;;;;;;;;;;;;;;;;;;;;;;;;;;;;;;;1,000000;0,000000;0,000000;0,277778;0,277778;0,564562;0,653167;0,653167;0,357567;0,000000;0,000000;0,000000;0,000000;0,653167;0,653167;0,333333;0,333333;0,333333;0,000000;0,333333;0,616994;0,277778;0,277778;0,000000;0,000000;0,000000;0,000000;
54;;;;;;;;;;;;;;;;;;;;;;;;;;;;;;;;;;;;;;;;;;;;;;;;;;;;;;1,000000;0,666667;0,291667;0,291667;0,000000;0,000000;0,000000;0,000000;0,000000;0,000000;0,000000;0,000000;0,000000;0,000000;0,000000;0,000000;0,000000;0,416667;0,000000;0,000000;0,000000;0,000000;0,000000;0,000000;0,000000;0,000000;
55;;;;;;;;;;;;;;;;;;;;;;;;;;;;;;;;;;;;;;;;;;;;;;;;;;;;;;;1,000000;0,291667;0,291667;0,000000;0,000000;0,000000;0,000000;0,000000;0,000000;0,000000;0,000000;0,000000;0,000000;0,000000;0,000000;0,000000;0,416667;0,000000;0,000000;0,000000;0,000000;0,000000;0,000000;0,000000;0,000000;
56;;;;;;;;;;;;;;;;;;;;;;;;;;;;;;;;;;;;;;;;;;;;;;;;;;;;;;;;1,000000;0,750000;0,250000;0,000000;0,000000;0,000000;0,000000;0,000000;0,000000;0,000000;0,000000;0,000000;0,000000;0,000000;0,000000;0,000000;0,583333;0,443533;0,500000;0,500000;0,000000;0,000000;0,000000;0,000000;
57;;;;;;;;;;;;;;;;;;;;;;;;;;;;;;;;;;;;;;;;;;;;;;;;;;;;;;;;;1,000000;0,250000;0,000000;0,000000;0,000000;0,000000;0,000000;0,000000;0,000000;0,000000;0,000000;0,000000;0,000000;0,000000;0,000000;0,583333;0,443533;0,500000;0,500000;0,000000;0,000000;0,000000;0,000000;
58;;;;;;;;;;;;;;;;;;;;;;;;;;;;;;;;;;;;;;;;;;;;;;;;;;;;;;;;;;1,000000;0,316667;0,316667;0,316667;0,000000;0,000000;0,000000;0,000000;0,316667;0,316667;0,000000;0,000000;0,000000;0,000000;0,316667;0,551152;0,250000;0,250000;0,750000;0,750000;0,750000;0,750000;
59;;;;;;;;;;;;;;;;;;;;;;;;;;;;;;;;;;;;;;;;;;;;;;;;;;;;;;;;;;;1,000000;0,666667;0,333333;0,000000;0,000000;0,000000;0,000000;0,666667;0,666667;0,291667;0,291667;0,291667;0,000000;0,000000;0,296798;0,000000;0,000000;0,000000;0,000000;0,000000;0,000000;
60;;;;;;;;;;;;;;;;;;;;;;;;;;;;;;;;;;;;;;;;;;;;;;;;;;;;;;;;;;;;1,000000;0,333333;0,000000;0,000000;0,000000;0,000000;0,666667;0,666667;0,291667;0,291667;0,291667;0,000000;0,000000;0,296798;0,000000;0,000000;0,000000;0,000000;0,000000;0,000000;
61;;;;;;;;;;;;;;;;;;;;;;;;;;;;;;;;;;;;;;;;;;;;;;;;;;;;;;;;;;;;;1,000000;0,000000;0,000000;0,000000;0,000000;0,333333;0,333333;0,000000;0,000000;0,000000;0,416667;0,000000;0,296798;0,000000;0,000000;0,000000;0,000000;0,000000;0,000000;
62;;;;;;;;;;;;;;;;;;;;;;;;;;;;;;;;;;;;;;;;;;;;;;;;;;;;;;;;;;;;;;1,000000;0,750000;0,750000;0,750000;0,000000;0,000000;0,000000;0,000000;0,000000;0,000000;0,000000;0,000000;0,000000;0,000000;0,000000;0,000000;0,000000;0,000000;
63;;;;;;;;;;;;;;;;;;;;;;;;;;;;;;;;;;;;;;;;;;;;;;;;;;;;;;;;;;;;;;;1,000000;0,750000;0,750000;0,000000;0,000000;0,000000;0,000000;0,000000;0,000000;0,000000;0,000000;0,000000;0,000000;0,000000;0,000000;0,000000;0,000000;
64;;;;;;;;;;;;;;;;;;;;;;;;;;;;;;;;;;;;;;;;;;;;;;;;;;;;;;;;;;;;;;;;1,000000;0,750000;0,000000;0,000000;0,000000;0,000000;0,000000;0,000000;0,000000;0,000000;0,000000;0,000000;0,000000;0,000000;0,000000;0,000000;
65;;;;;;;;;;;;;;;;;;;;;;;;;;;;;;;;;;;;;;;;;;;;;;;;;;;;;;;;;;;;;;;;;1,000000;0,000000;0,000000;0,000000;0,000000;0,000000;0,000000;0,000000;0,000000;0,000000;0,000000;0,000000;0,000000;0,000000;0,000000;
66;;;;;;;;;;;;;;;;;;;;;;;;;;;;;;;;;;;;;;;;;;;;;;;;;;;;;;;;;;;;;;;;;;1,000000;0,666667;0,291667;0,291667;0,291667;0,000000;0,000000;0,296798;0,000000;0,000000;0,000000;0,000000;0,000000;0,000000;
67;;;;;;;;;;;;;;;;;;;;;;;;;;;;;;;;;;;;;;;;;;;;;;;;;;;;;;;;;;;;;;;;;;;1,000000;0,291667;0,291667;0,291667;0,000000;0,000000;0,296798;0,000000;0,000000;0,000000;0,000000;0,000000;0,000000;
68;;;;;;;;;;;;;;;;;;;;;;;;;;;;;;;;;;;;;;;;;;;;;;;;;;;;;;;;;;;;;;;;;;;;1,000000;0,750000;0,750000;0,000000;0,291667;0,233333;0,250000;0,250000;0,000000;0,000000;0,000000;0,000000;
69;;;;;;;;;;;;;;;;;;;;;;;;;;;;;;;;;;;;;;;;;;;;;;;;;;;;;;;;;;;;;;;;;;;;;1,000000;0,750000;0,000000;0,291667;0,233333;0,250000;0,250000;0,000000;0,000000;0,000000;0,000000;
70;;;;;;;;;;;;;;;;;;;;;;;;;;;;;;;;;;;;;;;;;;;;;;;;;;;;;;;;;;;;;;;;;;;;;;1,000000;0,000000;0,291667;0,233333;0,250000;0,250000;0,000000;0,000000;0,000000;0,000000;
71;;;;;;;;;;;;;;;;;;;;;;;;;;;;;;;;;;;;;;;;;;;;;;;;;;;;;;;;;;;;;;;;;;;;;;;1,000000;0,000000;0,000000;0,000000;0,000000;0,000000;0,000000;0,000000;0,000000;
72;;;;;;;;;;;;;;;;;;;;;;;;;;;;;;;;;;;;;;;;;;;;;;;;;;;;;;;;;;;;;;;;;;;;;;;;1,000000;0,813812;0,875000;0,875000;0,000000;0,000000;0,000000;0,000000;
73;;;;;;;;;;;;;;;;;;;;;;;;;;;;;;;;;;;;;;;;;;;;;;;;;;;;;;;;;;;;;;;;;;;;;;;;;1,000000;0,647145;0,647145;0,250000;0,250000;0,250000;0,250000;
74;;;;;;;;;;;;;;;;;;;;;;;;;;;;;;;;;;;;;;;;;;;;;;;;;;;;;;;;;;;;;;;;;;;;;;;;;;1,000000;0,750000;0,000000;0,000000;0,000000;0,000000;
75;;;;;;;;;;;;;;;;;;;;;;;;;;;;;;;;;;;;;;;;;;;;;;;;;;;;;;;;;;;;;;;;;;;;;;;;;;;1,000000;0,000000;0,000000;0,000000;0,000000;
76;;;;;;;;;;;;;;;;;;;;;;;;;;;;;;;;;;;;;;;;;;;;;;;;;;;;;;;;;;;;;;;;;;;;;;;;;;;;1,000000;0,750000;0,750000;0,750000;
77;;;;;;;;;;;;;;;;;;;;;;;;;;;;;;;;;;;;;;;;;;;;;;;;;;;;;;;;;;;;;;;;;;;;;;;;;;;;;1,000000;0,750000;0,750000;
78;;;;;;;;;;;;;;;;;;;;;;;;;;;;;;;;;;;;;;;;;;;;;;;;;;;;;;;;;;;;;;;;;;;;;;;;;;;;;;1,000000;0,750000;
79;;;;;;;;;;;;;;;;;;;;;;;;;;;;;;;;;;;;;;;;;;;;;;;;;;;;;;;;;;;;;;;;;;;;;;;;;;;;;;;1,000000;
