;1; 2; 3; 4; 5; 6; 7; 8; 9; 10; 11; 12; 13; 14; 15; 16; 17; 18; 19; 20; 21; 22; 23; 24; 25; 26; 27; 28; 29; 30; 31; 32; 33; 34; 35; 36; 37; 38; 39; 40; 41; 42; 43; 44; 45; 46; 47; 48; 49; 50; 51; 52; 53; 54; 55; 56; 57; 58; 59; 60; 61; 62; 63; 64; 65; 66; 67; 68; 69; 70; 71; 72; 73; 74; 75; 76; 77; 78; 79; 80; 81; 82; 83; 84; 85; 86
1;1,000000;0,587058;0,450651;0,606475;0,723524;0,541624;0,453322;0,503176;0,400588;0,225421;0,230346;0,675498;0,199055;0,490452;0,331242;0,292010;0,465199;0,423524;0,278289;0,434113;0,214592;0,256258;0,256258;0,157011;0,239526;0,463671;0,439265;0,439265;0,607618;0,581453;0,450519;0,392704;0,273253;0,429047;0,429047;0,429047;0,429047;0,397278;0,236735;0,236735;0,676505;0,697645;0,000000;0,000000;0,391048;0,261735;0,611557;0,256258;0,256258;0,256258;0,644877;0,434811;0,214592;0,214592;0,214592;0,214592;0,303402;0,197060;0,197060;0,197060;0,620191;0,280394;0,197060;0,197060;0,000000;0,000000;0,000000;0,000000;0,000000;0,000000;0,269551;0,267347;0,339592;0,339592;0,589592;0,306871;0,306871;0,512381;0,512381;0,280394;0,197060;0,197060;0,000000;0,000000;0,000000;0,589592;
2;;1,000000;0,594694;0,481671;0,349051;0,641047;0,628342;0,651403;0,523991;0,436643;0,435080;0,556152;0,476617;0,439260;0,506962;0,393581;0,576603;0,617556;0,406751;0,388740;0,305975;0,451446;0,588186;0,401524;0,563126;0,518076;0,532137;0,532137;0,527388;0,572908;0,477291;0,455741;0,417495;0,434936;0,434936;0,434936;0,450622;0,377957;0,307066;0,307066;0,542286;0,552760;0,000000;0,000000;0,353364;0,357066;0,463517;0,220026;0,220026;0,220026;0,393750;0,564534;0,178359;0,178359;0,178359;0,178359;0,265718;0,373549;0,296094;0,203369;0,495582;0,543167;0,373549;0,373549;0,000000;0,000000;0,199219;0,000000;0,000000;0,000000;0,523726;0,467521;0,303359;0,303359;0,553359;0,442425;0,442425;0,390213;0,390213;0,544580;0,203369;0,203369;0,000000;0,000000;0,507795;0,553359;
3;;;1,000000;0,458920;0,314303;0,474212;0,501666;0,424624;0,673905;0,397125;0,406973;0,521899;0,344391;0,477062;0,376753;0,451671;0,542131;0,547985;0,445346;0,508731;0,413987;0,369803;0,384322;0,559495;0,000000;0,487545;0,502963;0,502963;0,477539;0,451499;0,300031;0,529592;0,424801;0,447122;0,447122;0,447122;0,482719;0,336050;0,451659;0,451659;0,503752;0,515263;0,000000;0,000000;0,000000;0,422819;0,481586;0,365350;0,365350;0,365350;0,410282;0,815170;0,416241;0,416241;0,416241;0,416241;0,264976;0,176217;0,184120;0,175086;0,354031;0,254958;0,176217;0,176217;0,000000;0,000000;0,204913;0,000000;0,000000;0,000000;0,331409;0,237425;0,268910;0,268910;0,000000;0,276949;0,276949;0,401830;0,401830;0,268943;0,176641;0,176641;0,000000;0,000000;0,518943;0,000000;
4;;;;1,000000;0,788938;0,461983;0,479334;0,745302;0,444559;0,295652;0,300576;0,401891;0,269285;0,555866;0,339221;0,299989;0,480383;0,488938;0,286268;0,414410;0,222953;0,264619;0,264619;0,227241;0,247887;0,529085;0,504679;0,504679;0,521323;0,702538;0,458498;0,458118;0,281232;0,500087;0,500087;0,500087;0,500087;0,462692;0,244714;0,244714;0,756440;0,733379;0,000000;0,000000;0,399027;0,269714;0,768695;0,264619;0,264619;0,264619;0,517584;0,386351;0,222953;0,222953;0,222953;0,222953;0,311381;0,191493;0,191493;0,191493;0,567987;0,274826;0,191493;0,191493;0,000000;0,000000;0,000000;0,000000;0,000000;0,000000;0,255989;0,222526;0,347953;0,347953;0,597953;0,244285;0,244285;0,583420;0,583420;0,274826;0,191493;0,191493;0,000000;0,000000;0,000000;0,597953;
5;;;;;1,000000;0,673045;0,690396;0,644911;0,338651;0,401367;0,406291;0,527086;0,375000;0,766929;0,444507;0,405275;0,691445;0,700000;0,391554;0,539605;0,236744;0,278411;0,278411;0,332956;0,261678;0,740147;0,715741;0,715741;0,732385;0,730109;0,563784;0,669180;0,386518;0,625282;0,625282;0,625282;0,625282;0,673755;0,350000;0,350000;0,715365;0,700000;0,000000;0,000000;0,504313;0,375000;0,625282;0,278411;0,278411;0,278411;0,710811;0,328244;0,236744;0,236744;0,236744;0,236744;0,416667;0,244586;0,244586;0,244586;0,779050;0,327920;0,244586;0,244586;0,000000;0,000000;0,000000;0,000000;0,000000;0,000000;0,361704;0,328241;0,361744;0,361744;0,611744;0,350000;0,350000;0,708615;0,708615;0,327920;0,244586;0,244586;0,000000;0,000000;0,000000;0,611744;
6;;;;;;1,000000;0,648580;0,504686;0,572385;0,508491;0,514010;0,494219;0,560694;0,439973;0,251636;0,212404;0,653659;0,707506;0,370824;0,375024;0,158023;0,383544;0,444177;0,471866;0,558819;0,413192;0,388786;0,388786;0,452710;0,444071;0,370913;0,500315;0,373646;0,393109;0,393109;0,393109;0,393109;0,408014;0,276280;0,276280;0,388409;0,373045;0,000000;0,000000;0,311442;0,326280;0,393109;0,199690;0,199690;0,199690;0,453870;0,438042;0,158023;0,158023;0,158023;0,158023;0,223796;0,187245;0,187245;0,187245;0,452095;0,270578;0,187245;0,187245;0,000000;0,000000;0,000000;0,000000;0,000000;0,000000;0,328999;0,419119;0,283023;0,283023;0,533023;0,299424;0,299424;0,476442;0,476442;0,539444;0,187245;0,187245;0,000000;0,000000;0,519028;0,533023;
7;;;;;;;1,000000;0,647307;0,475119;0,518740;0,582830;0,613508;0,466007;0,457325;0,309040;0,269808;0,741392;0,821681;0,470426;0,300825;0,185547;0,735853;0,544873;0,453070;0,580421;0,430543;0,406138;0,406138;0,422781;0,420505;0,428316;0,592839;0,473247;0,386501;0,386501;0,386501;0,386501;0,443108;0,354118;0,354118;0,405761;0,390396;0,000000;0,000000;0,368846;0,404118;0,386501;0,227213;0,227213;0,227213;0,443851;0,502812;0,185547;0,185547;0,185547;0,185547;0,281199;0,206771;0,206771;0,206771;0,469446;0,290105;0,206771;0,206771;0,000000;0,000000;0,000000;0,000000;0,000000;0,000000;0,394414;0,140427;0,310547;0,310547;0,560547;0,162186;0,162186;0,469835;0,469835;0,577033;0,206771;0,206771;0,000000;0,000000;0,536340;0,560547;
8;;;;;;;;1,000000;0,612581;0,377321;0,387170;0,582107;0,324588;0,411839;0,271842;0,232610;0,605573;0,493357;0,218889;0,380687;0,174443;0,442834;0,442834;0,311651;0,199377;0,385058;0,360652;0,360652;0,463943;0,633853;0,391119;0,404270;0,213853;0,358580;0,358580;0,358580;0,358580;0,318665;0,177335;0,177335;0,634984;0,611923;0,000000;0,000000;0,331648;0,202335;0,648050;0,216110;0,216110;0,216110;0,396003;0,375299;0,174443;0,174443;0,174443;0,174443;0,244002;0,188635;0,188635;0,188635;0,423960;0,271968;0,188635;0,188635;0,000000;0,000000;0,000000;0,000000;0,000000;0,000000;0,252996;0,113981;0,299443;0,299443;0,549443;0,135740;0,135740;0,441913;0,441913;0,271968;0,188635;0,188635;0,000000;0,000000;0,000000;0,549443;
9;;;;;;;;;1,000000;0,483094;0,492943;0,598192;0,430361;0,162313;0,000000;0,000000;0,495303;0,623696;0,061328;0,253318;0,000000;0,259030;0,405627;0,510079;0,000000;0,208876;0,196428;0,196428;0,309295;0,394009;0,000000;0,325687;0,064264;0,213651;0,213651;0,213651;0,213651;0,119761;0,000000;0,000000;0,371542;0,355988;0,000000;0,000000;0,000000;0,000000;0,405988;0,000000;0,000000;0,000000;0,255317;0,618385;0,000000;0,000000;0,000000;0,000000;0,000000;0,000000;0,000000;0,000000;0,172953;0,000000;0,000000;0,000000;0,000000;0,000000;0,000000;0,000000;0,000000;0,000000;0,358769;0,166891;0,000000;0,000000;0,000000;0,188651;0,188651;0,255317;0,255317;0,000000;0,000000;0,000000;0,000000;0,000000;0,000000;0,000000;
10;;;;;;;;;;1,000000;0,693975;0,501330;0,829100;0,225029;0,000000;0,000000;0,489672;0,502733;0,000000;0,196840;0,000000;0,318033;0,318033;0,787683;0,000000;0,271592;0,259144;0,259144;0,267458;0,272114;0,000000;0,371073;0,000000;0,276367;0,276367;0,276367;0,276367;0,182477;0,000000;0,000000;0,259144;0,251367;0,000000;0,000000;0,000000;0,000000;0,276367;0,000000;0,000000;0,000000;0,318033;0,409004;0,000000;0,000000;0,000000;0,000000;0,000000;0,000000;0,000000;0,000000;0,235668;0,000000;0,000000;0,000000;0,000000;0,000000;0,000000;0,000000;0,000000;0,000000;0,705050;0,229607;0,000000;0,000000;0,000000;0,251367;0,251367;0,318033;0,318033;0,000000;0,000000;0,000000;0,000000;0,000000;0,000000;0,000000;
11;;;;;;;;;;;1,000000;0,511178;0,792287;0,229954;0,000000;0,000000;0,499521;0,512582;0,000000;0,201764;0,000000;0,322958;0,322958;0,549645;0,413571;0,276516;0,264068;0,264068;0,272382;0,310987;0,000000;0,380922;0,000000;0,281291;0,281291;0,281291;0,281291;0,187402;0,000000;0,000000;0,264068;0,256291;0,000000;0,000000;0,000000;0,000000;0,281291;0,000000;0,000000;0,000000;0,322958;0,418853;0,000000;0,000000;0,000000;0,000000;0,000000;0,000000;0,000000;0,000000;0,240593;0,000000;0,000000;0,000000;0,000000;0,000000;0,000000;0,000000;0,000000;0,000000;0,490990;0,496558;0,000000;0,000000;0,000000;0,376864;0,376864;0,322958;0,322958;0,000000;0,000000;0,000000;0,000000;0,000000;0,000000;0,000000;
12;;;;;;;;;;;;1,000000;0,448596;0,354021;0,177370;0,203930;0,562247;0,507464;0,130234;0,510328;0,305422;0,450208;0,450208;0,435659;0,174654;0,334590;0,294117;0,294117;0,575740;0,462183;0,281475;0,363226;0,090501;0,401804;0,401804;0,401804;0,401804;0,253437;0,073181;0,073181;0,477943;0,439322;0,000000;0,000000;0,171228;0,085411;0,401804;0,191387;0,191387;0,191387;0,487184;0,490494;0,149720;0,149720;0,149720;0,149720;0,109786;0,000000;0,000000;0,000000;0,541797;0,000000;0,000000;0,000000;0,000000;0,000000;0,000000;0,000000;0,000000;0,000000;0,455898;0,314327;0,274720;0,274720;0,524720;0,353851;0,353851;0,485138;0,485138;0,000000;0,000000;0,000000;0,000000;0,000000;0,000000;0,524720;
13;;;;;;;;;;;;;1,000000;0,198663;0,000000;0,000000;0,436939;0,450000;0,000000;0,170473;0,000000;0,291667;0,291667;0,708584;0,000000;0,245225;0,232777;0,232777;0,241091;0,245747;0,000000;0,318340;0,000000;0,250000;0,250000;0,250000;0,250000;0,156111;0,000000;0,000000;0,232777;0,225000;0,000000;0,000000;0,000000;0,000000;0,250000;0,000000;0,000000;0,000000;0,291667;0,356271;0,000000;0,000000;0,000000;0,000000;0,000000;0,000000;0,000000;0,000000;0,209302;0,000000;0,000000;0,000000;0,000000;0,000000;0,000000;0,000000;0,000000;0,000000;0,625950;0,203241;0,000000;0,000000;0,000000;0,225000;0,225000;0,291667;0,291667;0,000000;0,000000;0,000000;0,000000;0,000000;0,000000;0,000000;
14;;;;;;;;;;;;;;1,000000;0,538971;0,566924;0,458374;0,466929;0,372874;0,455389;0,399614;0,281659;0,281659;0,156619;0,264927;0,729327;0,762616;0,762616;0,499313;0,497037;0,705056;0,462285;0,352774;0,452217;0,452217;0,452217;0,591266;0,488881;0,281988;0,281988;0,482293;0,466929;0,000000;0,000000;0,436301;0,306988;0,452217;0,281659;0,281659;0,281659;0,464233;0,461847;0,239993;0,239993;0,239993;0,239993;0,575983;0,399181;0,321725;0,216833;0,545978;0,300167;0,399181;0,399181;0,000000;0,000000;0,213423;0,000000;0,000000;0,000000;0,185366;0,151903;0,364993;0,364993;0,614993;0,173663;0,173663;0,535550;0,535550;0,300167;0,216833;0,216833;0,000000;0,000000;0,000000;0,614993;
15;;;;;;;;;;;;;;;1,000000;0,707477;0,284162;0,294507;0,431061;0,397875;0,471278;0,319317;0,319317;0,000000;0,302584;0,599322;0,566829;0,566829;0,310834;0,304520;0,867073;0,335370;0,331025;0,277650;0,277650;0,277650;0,592455;0,565101;0,294507;0,294507;0,302064;0,294507;0,000000;0,000000;0,448820;0,319507;0,277650;0,319317;0,319317;0,319317;0,196159;0,353846;0,277650;0,277650;0,277650;0,277650;0,653165;0,196159;0,196159;0,196159;0,390801;0,279492;0,196159;0,196159;0,000000;0,000000;0,000000;0,000000;0,000000;0,000000;0,000000;0,000000;0,402650;0,402650;0,652650;0,000000;0,000000;0,319317;0,319317;0,279492;0,196159;0,196159;0,000000;0,000000;0,000000;0,652650;
16;;;;;;;;;;;;;;;;1,000000;0,306718;0,255275;0,411397;0,435573;0,564529;0,277126;0,277126;0,000000;0,260394;0,452071;0,419578;0,419578;0,345808;0,315350;0,820562;0,411455;0,447598;0,235459;0,235459;0,235459;0,445862;0,417850;0,391507;0,391507;0,262832;0,255275;0,000000;0,000000;0,409588;0,441507;0,235459;0,277126;0,277126;0,277126;0,201540;0,366437;0,235459;0,235459;0,235459;0,235459;0,451341;0,201540;0,356159;0,432668;0,351569;0,284874;0,201540;0,201540;0,000000;0,000000;0,000000;0,000000;0,000000;0,000000;0,000000;0,000000;0,360459;0,360459;0,610459;0,000000;0,000000;0,277126;0,277126;0,284874;0,201540;0,201540;0,000000;0,000000;0,000000;0,610459;
17;;;;;;;;;;;;;;;;;1,000000;0,779984;0,365580;0,379573;0,306517;0,461939;0,671279;0,580058;0,179414;0,431592;0,407186;0,407186;0,423830;0,421554;0,403439;0,887256;0,371301;0,377986;0,377986;0,377986;0,377986;0,430977;0,442989;0,442989;0,406810;0,391445;0,000000;0,000000;0,343969;0,517989;0,377986;0,196146;0,196146;0,196146;0,489890;0,576858;0,154480;0,154480;0,154480;0,154480;0,256322;0,215946;0,215946;0,215946;0,470495;0,299279;0,215946;0,215946;0,000000;0,000000;0,000000;0,000000;0,000000;0,000000;0,365346;0,170874;0,279480;0,279480;0,529480;0,192634;0,192634;0,461319;0,461319;0,299279;0,215946;0,215946;0,000000;0,000000;0,000000;0,529480;
18;;;;;;;;;;;;;;;;;;1,000000;0,470569;0,339408;0,194956;0,506757;0,719624;0,597417;0,219891;0,440147;0,415741;0,415741;0,432385;0,430109;0,413784;0,655191;0,473391;0,425084;0,425084;0,425084;0,425084;0,437849;0,326379;0,326379;0,415365;0,400000;0,000000;0,000000;0,354313;0,376379;0,425084;0,236623;0,236623;0,236623;0,459084;0,591906;0,194956;0,194956;0,194956;0,194956;0,266667;0,185677;0,185677;0,185677;0,479050;0,269010;0,185677;0,185677;0,000000;0,000000;0,000000;0,000000;0,000000;0,000000;0,378408;0,178241;0,319956;0,319956;0,569956;0,200000;0,200000;0,508418;0,508418;0,543618;0,185677;0,185677;0,000000;0,000000;0,523443;0,569956;
19;;;;;;;;;;;;;;;;;;;1,000000;0,342154;0,469425;0,223950;0,223950;0,000000;0,207218;0,261429;0,249545;0,249545;0,311145;0,280686;0,516528;0,619093;0,720743;0,182283;0,182283;0,182283;0,182283;0,586376;0,788663;0,788663;0,249111;0,241554;0,000000;0,000000;0,395867;0,736623;0,182283;0,223950;0,223950;0,223950;0,244347;0,438201;0,182283;0,182283;0,182283;0,182283;0,409960;0,244347;0,244347;0,244347;0,337848;0,327680;0,244347;0,244347;0,000000;0,000000;0,000000;0,000000;0,000000;0,000000;0,000000;0,000000;0,307283;0,307283;0,557283;0,000000;0,000000;0,223950;0,223950;0,685257;0,244347;0,244347;0,000000;0,000000;0,611900;0,557283;
20;;;;;;;;;;;;;;;;;;;;1,000000;0,619808;0,278530;0,278530;0,128430;0,261798;0,347108;0,306636;0,306636;0,621976;0,508431;0,481437;0,388852;0,353745;0,414323;0,414323;0,414323;0,414323;0,265956;0,317511;0,317511;0,507366;0,468745;0,000000;0,000000;0,258372;0,352959;0,414323;0,278530;0,278530;0,278530;0,430331;0,414062;0,236863;0,236863;0,236863;0,236863;0,358731;0,000000;0,000000;0,000000;0,588233;0,000000;0,000000;0,000000;0,000000;0,000000;0,000000;0,000000;0,000000;0,000000;0,259678;0,257473;0,361863;0,361863;0,611863;0,296997;0,296997;0,497656;0,497656;0,000000;0,000000;0,000000;0,000000;0,000000;0,000000;0,611863;
21;;;;;;;;;;;;;;;;;;;;;1,000000;0,291667;0,291667;0,000000;0,274934;0,182856;0,156329;0,156329;0,364028;0,314165;0,554839;0,387381;0,428028;0,250000;0,250000;0,250000;0,250000;0,194478;0,391794;0,391794;0,195219;0,171978;0,000000;0,000000;0,271509;0,427243;0,250000;0,291667;0,291667;0,291667;0,000000;0,293519;0,250000;0,250000;0,250000;0,250000;0,432133;0,000000;0,000000;0,000000;0,166287;0,000000;0,000000;0,000000;0,000000;0,000000;0,000000;0,000000;0,000000;0,000000;0,000000;0,000000;0,375000;0,375000;0,625000;0,000000;0,000000;0,291667;0,291667;0,000000;0,000000;0,000000;0,000000;0,000000;0,000000;0,625000;
22;;;;;;;;;;;;;;;;;;;;;;1,000000;0,666667;0,314665;0,316601;0,224522;0,197996;0,197996;0,240839;0,216474;0,423422;0,435352;0,232448;0,291667;0,291667;0,291667;0,291667;0,236144;0,215128;0,215128;0,236885;0,213644;0,000000;0,000000;0,313175;0,227358;0,291667;0,333333;0,333333;0,333333;0,000000;0,193668;0,291667;0,291667;0,291667;0,291667;0,251732;0,000000;0,000000;0,000000;0,207954;0,000000;0,000000;0,000000;0,000000;0,000000;0,000000;0,000000;0,000000;0,000000;0,236412;0,000000;0,416667;0,416667;0,666667;0,000000;0,000000;0,333333;0,333333;0,000000;0,000000;0,000000;0,000000;0,000000;0,000000;0,666667;
23;;;;;;;;;;;;;;;;;;;;;;;1,000000;0,487168;0,316601;0,224522;0,197996;0,197996;0,240839;0,216474;0,423422;0,594742;0,232448;0,291667;0,291667;0,291667;0,291667;0,236144;0,215128;0,215128;0,236885;0,213644;0,000000;0,000000;0,313175;0,227358;0,291667;0,333333;0,333333;0,333333;0,000000;0,337380;0,291667;0,291667;0,291667;0,291667;0,251732;0,000000;0,000000;0,000000;0,207954;0,000000;0,000000;0,000000;0,000000;0,000000;0,000000;0,000000;0,000000;0,000000;0,236412;0,000000;0,416667;0,416667;0,666667;0,000000;0,000000;0,333333;0,333333;0,000000;0,000000;0,000000;0,000000;0,000000;0,000000;0,666667;
24;;;;;;;;;;;;;;;;;;;;;;;;1,000000;0,000000;0,203181;0,190733;0,190733;0,199047;0,203703;0,000000;0,410443;0,000000;0,207956;0,207956;0,207956;0,207956;0,114067;0,000000;0,000000;0,190733;0,182956;0,000000;0,000000;0,000000;0,000000;0,207956;0,000000;0,000000;0,000000;0,249623;0,434033;0,000000;0,000000;0,000000;0,000000;0,000000;0,000000;0,000000;0,000000;0,167258;0,000000;0,000000;0,000000;0,000000;0,000000;0,000000;0,000000;0,000000;0,000000;0,584533;0,161197;0,000000;0,000000;0,000000;0,182956;0,182956;0,249623;0,249623;0,000000;0,000000;0,000000;0,000000;0,000000;0,000000;0,000000;
25;;;;;;;;;;;;;;;;;;;;;;;;;1,000000;0,207790;0,181263;0,181263;0,224107;0,199742;0,406689;0,208179;0,215716;0,274934;0,274934;0,274934;0,274934;0,219412;0,198396;0,198396;0,220153;0,196912;0,000000;0,000000;0,296443;0,210626;0,274934;0,316601;0,316601;0,316601;0,000000;0,000000;0,274934;0,274934;0,274934;0,274934;0,235000;0,000000;0,000000;0,000000;0,191221;0,000000;0,000000;0,000000;0,000000;0,000000;0,000000;0,000000;0,000000;0,000000;0,000000;0,000000;0,399934;0,399934;0,649934;0,000000;0,000000;0,316601;0,316601;0,000000;0,000000;0,000000;0,000000;0,000000;0,000000;0,649934;
26;;;;;;;;;;;;;;;;;;;;;;;;;;1,000000;0,806158;0,806158;0,472532;0,470256;0,569651;0,409327;0,256394;0,432785;0,432785;0,432785;0,648827;0,537555;0,219876;0,219876;0,455511;0,440147;0,000000;0,000000;0,374189;0,244876;0,432785;0,224522;0,224522;0,224522;0,512324;0,509572;0,182856;0,182856;0,182856;0,182856;0,286542;0,218026;0,218026;0,218026;0,519197;0,301360;0,218026;0,218026;0,000000;0,000000;0,000000;0,000000;0,000000;0,000000;0,231929;0,198466;0,307856;0,307856;0,557856;0,220225;0,220225;0,516119;0,516119;0,301360;0,218026;0,218026;0,000000;0,000000;0,000000;0,557856;
27;;;;;;;;;;;;;;;;;;;;;;;;;;;1,000000;0,784690;0,448126;0,445850;0,537158;0,384922;0,244509;0,392313;0,392313;0,392313;0,587774;0,492181;0,207991;0,207991;0,431106;0,415741;0,000000;0,000000;0,362304;0,232991;0,392313;0,197996;0,197996;0,197996;0,515542;0,520528;0,156329;0,156329;0,156329;0,156329;0,274658;0,235386;0,235386;0,235386;0,494791;0,318720;0,235386;0,235386;0,000000;0,000000;0,000000;0,000000;0,000000;0,000000;0,219481;0,186018;0,281329;0,281329;0,531329;0,207777;0,207777;0,475646;0,475646;0,318720;0,235386;0,235386;0,000000;0,000000;0,000000;0,531329;
28;;;;;;;;;;;;;;;;;;;;;;;;;;;;1,000000;0,448126;0,445850;0,537158;0,384922;0,244509;0,392313;0,392313;0,392313;0,587774;0,492181;0,207991;0,207991;0,431106;0,415741;0,000000;0,000000;0,362304;0,232991;0,392313;0,197996;0,197996;0,197996;0,515542;0,520528;0,156329;0,156329;0,156329;0,156329;0,274658;0,235386;0,235386;0,235386;0,494791;0,318720;0,235386;0,235386;0,000000;0,000000;0,000000;0,000000;0,000000;0,000000;0,219481;0,186018;0,281329;0,281329;0,531329;0,207777;0,207777;0,475646;0,475646;0,318720;0,235386;0,235386;0,000000;0,000000;0,000000;0,531329;
29;;;;;;;;;;;;;;;;;;;;;;;;;;;;;1,000000;0,669529;0,430110;0,401565;0,252845;0,442051;0,442051;0,442051;0,442051;0,406139;0,216327;0,216327;0,671624;0,648570;0,000000;0,000000;0,370640;0,241327;0,442051;0,240839;0,240839;0,240839;0,772047;0,444247;0,199173;0,199173;0,199173;0,199173;0,282993;0,203328;0,203328;0,203328;0,709712;0,620061;0,203328;0,203328;0,000000;0,000000;0,000000;0,000000;0,000000;0,000000;0,394862;0,392658;0,324173;0,324173;0,574173;0,432182;0,432182;0,525385;0,525385;0,286661;0,203328;0,203328;0,000000;0,000000;0,000000;0,574173;
30;;;;;;;;;;;;;;;;;;;;;;;;;;;;;;1,000000;0,423797;0,399289;0,246532;0,422365;0,422365;0,422365;0,422365;0,403863;0,210013;0,210013;0,688944;0,711400;0,000000;0,000000;0,364327;0,235013;0,587067;0,216474;0,216474;0,216474;0,512801;0,479027;0,174807;0,174807;0,174807;0,174807;0,276680;0,220516;0,220516;0,220516;0,633076;0,586901;0,220516;0,220516;0,000000;0,000000;0,000000;0,000000;0,000000;0,000000;0,542385;0,603658;0,299807;0,299807;0,549807;0,567813;0,567813;0,505699;0,505699;0,303850;0,220516;0,220516;0,000000;0,000000;0,000000;0,549807;
31;;;;;;;;;;;;;;;;;;;;;;;;;;;;;;;1,000000;0,454646;0,450302;0,381755;0,381755;0,381755;0,554519;0,535430;0,413784;0,413784;0,421341;0,413784;0,000000;0,000000;0,568097;0,438784;0,381755;0,423422;0,423422;0,423422;0,214629;0,286361;0,381755;0,381755;0,381755;0,381755;0,611859;0,214629;0,372968;0,449476;0,510078;0,297963;0,214629;0,214629;0,000000;0,000000;0,000000;0,000000;0,000000;0,000000;0,000000;0,000000;0,506755;0,506755;0,756755;0,000000;0,000000;0,423422;0,423422;0,297963;0,214629;0,214629;0,000000;0,000000;0,000000;0,756755;
32;;;;;;;;;;;;;;;;;;;;;;;;;;;;;;;;1,000000;0,660258;0,337386;0,337386;0,337386;0,475979;0,455947;0,718517;0,718517;0,384545;0,369180;0,000000;0,000000;0,395176;0,673062;0,337386;0,224911;0,224911;0,224911;0,438844;0,567671;0,183244;0,183244;0,183244;0,183244;0,307530;0,421603;0,344147;0,239795;0,448230;0,323129;0,421603;0,421603;0,000000;0,000000;0,213821;0,000000;0,000000;0,000000;0,246747;0,105011;0,308244;0,308244;0,558244;0,126771;0,126771;0,420719;0,420719;0,323129;0,239795;0,239795;0,000000;0,000000;0,000000;0,558244;
33;;;;;;;;;;;;;;;;;;;;;;;;;;;;;;;;;1,000000;0,190781;0,190781;0,190781;0,337833;0,436320;0,801671;0,801671;0,244075;0,236518;0,000000;0,000000;0,390831;0,747486;0,190781;0,232448;0,232448;0,232448;0,232805;0,490095;0,190781;0,190781;0,190781;0,190781;0,303185;0,424893;0,347437;0,232805;0,332812;0,316138;0,424893;0,424893;0,000000;0,000000;0,225983;0,000000;0,000000;0,000000;0,000000;0,000000;0,315781;0,315781;0,565781;0,000000;0,000000;0,232448;0,232448;0,682596;0,232805;0,232805;0,000000;0,000000;0,620314;0,565781;
34;;;;;;;;;;;;;;;;;;;;;;;;;;;;;;;;;;1,000000;0,750000;0,750000;0,500000;0,351633;0,173461;0,173461;0,431234;0,400113;0,000000;0,000000;0,271509;0,185691;0,500000;0,291667;0,291667;0,291667;0,291667;0,203244;0,250000;0,250000;0,250000;0,250000;0,210066;0,000000;0,000000;0,000000;0,376641;0,000000;0,000000;0,000000;0,000000;0,000000;0,000000;0,000000;0,000000;0,000000;0,236704;0,203241;0,375000;0,375000;0,625000;0,225000;0,225000;0,583333;0,583333;0,000000;0,000000;0,000000;0,000000;0,000000;0,000000;0,625000;
35;;;;;;;;;;;;;;;;;;;;;;;;;;;;;;;;;;;1,000000;0,750000;0,500000;0,351633;0,173461;0,173461;0,431234;0,400113;0,000000;0,000000;0,271509;0,185691;0,500000;0,291667;0,291667;0,291667;0,291667;0,203244;0,250000;0,250000;0,250000;0,250000;0,210066;0,000000;0,000000;0,000000;0,376641;0,000000;0,000000;0,000000;0,000000;0,000000;0,000000;0,000000;0,000000;0,000000;0,236704;0,203241;0,375000;0,375000;0,625000;0,225000;0,225000;0,583333;0,583333;0,000000;0,000000;0,000000;0,000000;0,000000;0,000000;0,625000;
36;;;;;;;;;;;;;;;;;;;;;;;;;;;;;;;;;;;;1,000000;0,500000;0,351633;0,173461;0,173461;0,431234;0,400113;0,000000;0,000000;0,271509;0,185691;0,500000;0,291667;0,291667;0,291667;0,291667;0,203244;0,250000;0,250000;0,250000;0,250000;0,210066;0,000000;0,000000;0,000000;0,376641;0,000000;0,000000;0,000000;0,000000;0,000000;0,000000;0,000000;0,000000;0,000000;0,236704;0,203241;0,375000;0,375000;0,625000;0,225000;0,225000;0,583333;0,583333;0,000000;0,000000;0,000000;0,000000;0,000000;0,000000;0,625000;
37;;;;;;;;;;;;;;;;;;;;;;;;;;;;;;;;;;;;;1,000000;0,512965;0,173461;0,173461;0,431234;0,400113;0,000000;0,000000;0,271509;0,185691;0,500000;0,291667;0,291667;0,291667;0,291667;0,493908;0,250000;0,250000;0,250000;0,250000;0,210066;0,291667;0,237145;0,000000;0,376641;0,000000;0,291667;0,291667;0,000000;0,000000;0,320362;0,000000;0,000000;0,000000;0,236704;0,203241;0,375000;0,375000;0,625000;0,225000;0,225000;0,583333;0,583333;0,000000;0,000000;0,000000;0,000000;0,000000;0,000000;0,625000;
38;;;;;;;;;;;;;;;;;;;;;;;;;;;;;;;;;;;;;;1,000000;0,524753;0,524753;0,389119;0,373755;0,000000;0,000000;0,397335;0,599753;0,351633;0,236144;0,236144;0,236144;0,437700;0,535727;0,194478;0,194478;0,194478;0,194478;0,447581;0,446989;0,371250;0,446989;0,452804;0,320263;0,447420;0,447420;0,209022;0,209022;0,000000;0,209022;0,209022;0,209022;0,142814;0,109351;0,319478;0,319478;0,569478;0,131111;0,131111;0,434966;0,434966;0,609759;0,236929;0,236929;0,000000;0,000000;0,544180;0,569478;
39;;;;;;;;;;;;;;;;;;;;;;;;;;;;;;;;;;;;;;;1,000000;0,800000;0,207557;0,200000;0,000000;0,000000;0,354313;0,900000;0,173461;0,215128;0,215128;0,215128;0,215592;0,509375;0,173461;0,173461;0,173461;0,173461;0,266667;0,215592;0,215592;0,215592;0,296294;0,298926;0,215592;0,215592;0,000000;0,000000;0,000000;0,000000;0,000000;0,000000;0,000000;0,000000;0,298461;0,298461;0,548461;0,000000;0,000000;0,215128;0,215128;0,646394;0,215592;0,215592;0,000000;0,000000;0,600000;0,548461;
40;;;;;;;;;;;;;;;;;;;;;;;;;;;;;;;;;;;;;;;;1,000000;0,207557;0,200000;0,000000;0,000000;0,354313;0,900000;0,173461;0,215128;0,215128;0,215128;0,215592;0,509375;0,173461;0,173461;0,173461;0,173461;0,266667;0,215592;0,215592;0,215592;0,296294;0,298926;0,215592;0,215592;0,000000;0,000000;0,000000;0,000000;0,000000;0,000000;0,000000;0,000000;0,298461;0,298461;0,548461;0,000000;0,000000;0,215128;0,215128;0,646394;0,215592;0,215592;0,000000;0,000000;0,600000;0,548461;
41;;;;;;;;;;;;;;;;;;;;;;;;;;;;;;;;;;;;;;;;;1,000000;0,830761;0,000000;0,000000;0,361870;0,232557;0,662610;0,236885;0,236885;0,236885;0,749811;0,518773;0,195219;0,195219;0,195219;0,195219;0,274224;0,197510;0,197510;0,197510;0,684196;0,280843;0,197510;0,197510;0,000000;0,000000;0,000000;0,000000;0,000000;0,000000;0,378234;0,376030;0,320219;0,320219;0,570219;0,415554;0,415554;0,514567;0,514567;0,280843;0,197510;0,197510;0,000000;0,000000;0,000000;0,570219;
42;;;;;;;;;;;;;;;;;;;;;;;;;;;;;;;;;;;;;;;;;;1,000000;0,000000;0,000000;0,354313;0,225000;0,623965;0,213644;0,213644;0,213644;0,749725;0,526125;0,171978;0,171978;0,171978;0,171978;0,266667;0,213432;0,213432;0,213432;0,661142;0,296765;0,213432;0,213432;0,000000;0,000000;0,000000;0,000000;0,000000;0,000000;0,362680;0,360476;0,296978;0,296978;0,546978;0,400000;0,400000;0,483446;0,483446;0,296765;0,213432;0,213432;0,000000;0,000000;0,000000;0,546978;
43;;;;;;;;;;;;;;;;;;;;;;;;;;;;;;;;;;;;;;;;;;;1,000000;0,000000;0,000000;0,000000;0,000000;0,000000;0,000000;0,000000;0,000000;0,000000;0,000000;0,000000;0,000000;0,000000;0,000000;0,000000;0,000000;0,000000;0,000000;0,000000;0,000000;0,000000;0,000000;0,000000;0,000000;0,000000;0,000000;0,000000;0,000000;0,000000;0,000000;0,000000;0,000000;0,000000;0,000000;0,000000;0,000000;0,000000;0,000000;0,000000;0,000000;0,000000;0,000000;0,000000;
44;;;;;;;;;;;;;;;;;;;;;;;;;;;;;;;;;;;;;;;;;;;;1,000000;0,000000;0,000000;0,000000;0,000000;0,000000;0,000000;0,000000;0,000000;0,000000;0,000000;0,000000;0,000000;0,000000;0,000000;0,000000;0,000000;0,000000;0,000000;0,000000;0,000000;0,000000;0,000000;0,000000;0,000000;0,000000;0,000000;0,000000;0,000000;0,000000;0,000000;0,000000;0,000000;0,000000;0,000000;0,000000;0,000000;0,000000;0,000000;0,000000;0,000000;0,000000;0,000000;
45;;;;;;;;;;;;;;;;;;;;;;;;;;;;;;;;;;;;;;;;;;;;;1,000000;0,379313;0,271509;0,313175;0,313175;0,313175;0,284147;0,367350;0,271509;0,271509;0,271509;0,271509;0,420980;0,284147;0,284147;0,284147;0,450607;0,367480;0,284147;0,284147;0,000000;0,000000;0,000000;0,000000;0,000000;0,000000;0,000000;0,000000;0,396509;0,396509;0,646509;0,000000;0,000000;0,313175;0,313175;0,367480;0,579810;0,579810;0,000000;0,000000;0,000000;0,646509;
46;;;;;;;;;;;;;;;;;;;;;;;;;;;;;;;;;;;;;;;;;;;;;;1,000000;0,185691;0,227358;0,227358;0,227358;0,227516;0,477878;0,185691;0,185691;0,185691;0,185691;0,291667;0,227516;0,227516;0,227516;0,321294;0,310849;0,227516;0,227516;0,000000;0,000000;0,000000;0,000000;0,000000;0,000000;0,000000;0,000000;0,310691;0,310691;0,560691;0,000000;0,000000;0,227358;0,227358;0,682993;0,227516;0,227516;0,000000;0,000000;0,625000;0,560691;
47;;;;;;;;;;;;;;;;;;;;;;;;;;;;;;;;;;;;;;;;;;;;;;;1,000000;0,291667;0,291667;0,291667;0,291667;0,479968;0,250000;0,250000;0,250000;0,250000;0,210066;0,000000;0,000000;0,000000;0,376641;0,000000;0,000000;0,000000;0,000000;0,000000;0,000000;0,000000;0,000000;0,000000;0,236704;0,203241;0,375000;0,375000;0,625000;0,225000;0,225000;0,583333;0,583333;0,000000;0,000000;0,000000;0,000000;0,000000;0,000000;0,625000;
48;;;;;;;;;;;;;;;;;;;;;;;;;;;;;;;;;;;;;;;;;;;;;;;;1,000000;0,666667;0,666667;0,000000;0,000000;0,291667;0,291667;0,291667;0,291667;0,251732;0,000000;0,000000;0,000000;0,207954;0,000000;0,000000;0,000000;0,000000;0,000000;0,000000;0,000000;0,000000;0,000000;0,000000;0,000000;0,416667;0,416667;0,666667;0,000000;0,000000;0,333333;0,333333;0,000000;0,000000;0,000000;0,000000;0,000000;0,000000;0,666667;
49;;;;;;;;;;;;;;;;;;;;;;;;;;;;;;;;;;;;;;;;;;;;;;;;;1,000000;0,666667;0,000000;0,000000;0,291667;0,291667;0,291667;0,291667;0,251732;0,000000;0,000000;0,000000;0,207954;0,000000;0,000000;0,000000;0,000000;0,000000;0,000000;0,000000;0,000000;0,000000;0,000000;0,000000;0,416667;0,416667;0,666667;0,000000;0,000000;0,333333;0,333333;0,000000;0,000000;0,000000;0,000000;0,000000;0,000000;0,666667;
50;;;;;;;;;;;;;;;;;;;;;;;;;;;;;;;;;;;;;;;;;;;;;;;;;;1,000000;0,000000;0,000000;0,291667;0,291667;0,291667;0,291667;0,251732;0,000000;0,000000;0,000000;0,207954;0,000000;0,000000;0,000000;0,000000;0,000000;0,000000;0,000000;0,000000;0,000000;0,000000;0,000000;0,416667;0,416667;0,666667;0,000000;0,000000;0,333333;0,333333;0,000000;0,000000;0,000000;0,000000;0,000000;0,000000;0,666667;
51;;;;;;;;;;;;;;;;;;;;;;;;;;;;;;;;;;;;;;;;;;;;;;;;;;;1,000000;0,434275;0,000000;0,000000;0,000000;0,000000;0,247858;0,333333;0,333333;0,333333;0,819094;0,416667;0,333333;0,333333;0,000000;0,000000;0,000000;0,000000;0,000000;0,000000;0,496014;0,493809;0,000000;0,000000;0,000000;0,533333;0,533333;0,333333;0,333333;0,416667;0,333333;0,333333;0,000000;0,000000;0,000000;0,000000;
52;;;;;;;;;;;;;;;;;;;;;;;;;;;;;;;;;;;;;;;;;;;;;;;;;;;;1,000000;0,000000;0,000000;0,000000;0,000000;0,398635;0,376450;0,398112;0,376135;0,411300;0,281940;0,365741;0,365741;0,000000;0,000000;0,213803;0,000000;0,000000;0,000000;0,352775;0,261417;0,000000;0,000000;0,000000;0,300942;0,300942;0,244911;0,244911;0,293660;0,370721;0,370721;0,000000;0,000000;0,543660;0,000000;
53;;;;;;;;;;;;;;;;;;;;;;;;;;;;;;;;;;;;;;;;;;;;;;;;;;;;;1,000000;0,750000;0,750000;0,750000;0,210066;0,000000;0,000000;0,000000;0,166287;0,000000;0,000000;0,000000;0,000000;0,000000;0,000000;0,000000;0,000000;0,000000;0,000000;0,000000;0,375000;0,375000;0,625000;0,000000;0,000000;0,291667;0,291667;0,000000;0,000000;0,000000;0,000000;0,000000;0,000000;0,625000;
54;;;;;;;;;;;;;;;;;;;;;;;;;;;;;;;;;;;;;;;;;;;;;;;;;;;;;;1,000000;0,750000;0,750000;0,210066;0,000000;0,000000;0,000000;0,166287;0,000000;0,000000;0,000000;0,000000;0,000000;0,000000;0,000000;0,000000;0,000000;0,000000;0,000000;0,375000;0,375000;0,625000;0,000000;0,000000;0,291667;0,291667;0,000000;0,000000;0,000000;0,000000;0,000000;0,000000;0,625000;
55;;;;;;;;;;;;;;;;;;;;;;;;;;;;;;;;;;;;;;;;;;;;;;;;;;;;;;;1,000000;0,750000;0,210066;0,000000;0,000000;0,000000;0,166287;0,000000;0,000000;0,000000;0,000000;0,000000;0,000000;0,000000;0,000000;0,000000;0,000000;0,000000;0,375000;0,375000;0,625000;0,000000;0,000000;0,291667;0,291667;0,000000;0,000000;0,000000;0,000000;0,000000;0,000000;0,625000;
56;;;;;;;;;;;;;;;;;;;;;;;;;;;;;;;;;;;;;;;;;;;;;;;;;;;;;;;;1,000000;0,210066;0,000000;0,000000;0,000000;0,166287;0,000000;0,000000;0,000000;0,000000;0,000000;0,000000;0,000000;0,000000;0,000000;0,000000;0,000000;0,375000;0,375000;0,625000;0,000000;0,000000;0,291667;0,291667;0,000000;0,000000;0,000000;0,000000;0,000000;0,000000;0,625000;
57;;;;;;;;;;;;;;;;;;;;;;;;;;;;;;;;;;;;;;;;;;;;;;;;;;;;;;;;;1,000000;0,509386;0,433896;0,509386;0,362961;0,331191;0,247858;0,247858;0,000000;0,000000;0,000000;0,000000;0,000000;0,000000;0,000000;0,000000;0,335066;0,335066;0,585066;0,000000;0,000000;0,251732;0,251732;0,331191;0,247858;0,247858;0,000000;0,000000;0,000000;0,585066;
58;;;;;;;;;;;;;;;;;;;;;;;;;;;;;;;;;;;;;;;;;;;;;;;;;;;;;;;;;;1,000000;0,589211;0,666667;0,315914;0,416667;0,666667;0,666667;0,000000;0,000000;0,362029;0,000000;0,000000;0,000000;0,000000;0,000000;0,000000;0,000000;0,000000;0,000000;0,000000;0,000000;0,000000;0,416667;0,333333;0,333333;0,000000;0,000000;0,000000;0,000000;
59;;;;;;;;;;;;;;;;;;;;;;;;;;;;;;;;;;;;;;;;;;;;;;;;;;;;;;;;;;;1,000000;0,590158;0,315914;0,416667;0,589211;0,589211;0,000000;0,000000;0,307508;0,000000;0,000000;0,000000;0,000000;0,000000;0,000000;0,000000;0,000000;0,000000;0,000000;0,000000;0,000000;0,416667;0,333333;0,333333;0,000000;0,000000;0,000000;0,000000;
60;;;;;;;;;;;;;;;;;;;;;;;;;;;;;;;;;;;;;;;;;;;;;;;;;;;;;;;;;;;;1,000000;0,315914;0,416667;0,333333;0,333333;0,000000;0,000000;0,000000;0,000000;0,000000;0,000000;0,000000;0,000000;0,000000;0,000000;0,000000;0,000000;0,000000;0,000000;0,000000;0,416667;0,333333;0,333333;0,000000;0,000000;0,000000;0,000000;
61;;;;;;;;;;;;;;;;;;;;;;;;;;;;;;;;;;;;;;;;;;;;;;;;;;;;;;;;;;;;;1,000000;0,399247;0,315914;0,315914;0,000000;0,000000;0,000000;0,000000;0,000000;0,000000;0,337807;0,335603;0,291287;0,291287;0,541287;0,375127;0,375127;0,459974;0,459974;0,399247;0,315914;0,315914;0,000000;0,000000;0,000000;0,541287;
62;;;;;;;;;;;;;;;;;;;;;;;;;;;;;;;;;;;;;;;;;;;;;;;;;;;;;;;;;;;;;;1,000000;0,416667;0,416667;0,000000;0,000000;0,000000;0,000000;0,000000;0,000000;0,000000;0,000000;0,000000;0,000000;0,000000;0,000000;0,000000;0,000000;0,000000;0,500000;0,416667;0,416667;0,000000;0,000000;0,000000;0,000000;
63;;;;;;;;;;;;;;;;;;;;;;;;;;;;;;;;;;;;;;;;;;;;;;;;;;;;;;;;;;;;;;;1,000000;0,666667;0,000000;0,000000;0,362029;0,000000;0,000000;0,000000;0,000000;0,000000;0,000000;0,000000;0,000000;0,000000;0,000000;0,000000;0,000000;0,416667;0,333333;0,333333;0,000000;0,000000;0,000000;0,000000;
64;;;;;;;;;;;;;;;;;;;;;;;;;;;;;;;;;;;;;;;;;;;;;;;;;;;;;;;;;;;;;;;;1,000000;0,000000;0,000000;0,362029;0,000000;0,000000;0,000000;0,000000;0,000000;0,000000;0,000000;0,000000;0,000000;0,000000;0,000000;0,000000;0,416667;0,333333;0,333333;0,000000;0,000000;0,000000;0,000000;
65;;;;;;;;;;;;;;;;;;;;;;;;;;;;;;;;;;;;;;;;;;;;;;;;;;;;;;;;;;;;;;;;;1,000000;0,800000;0,782836;0,800000;0,800000;0,800000;0,000000;0,000000;0,000000;0,000000;0,000000;0,000000;0,000000;0,000000;0,000000;0,000000;0,000000;0,000000;0,000000;0,000000;0,000000;0,000000;
66;;;;;;;;;;;;;;;;;;;;;;;;;;;;;;;;;;;;;;;;;;;;;;;;;;;;;;;;;;;;;;;;;;1,000000;0,782836;0,800000;0,800000;0,800000;0,000000;0,000000;0,000000;0,000000;0,000000;0,000000;0,000000;0,000000;0,000000;0,000000;0,000000;0,000000;0,000000;0,000000;0,000000;0,000000;
67;;;;;;;;;;;;;;;;;;;;;;;;;;;;;;;;;;;;;;;;;;;;;;;;;;;;;;;;;;;;;;;;;;;1,000000;0,782836;0,782836;0,782836;0,000000;0,000000;0,000000;0,000000;0,000000;0,000000;0,000000;0,000000;0,000000;0,000000;0,000000;0,000000;0,000000;0,000000;0,000000;0,000000;
68;;;;;;;;;;;;;;;;;;;;;;;;;;;;;;;;;;;;;;;;;;;;;;;;;;;;;;;;;;;;;;;;;;;;1,000000;0,800000;0,800000;0,000000;0,000000;0,000000;0,000000;0,000000;0,000000;0,000000;0,000000;0,000000;0,000000;0,000000;0,000000;0,000000;0,000000;0,000000;0,000000;
69;;;;;;;;;;;;;;;;;;;;;;;;;;;;;;;;;;;;;;;;;;;;;;;;;;;;;;;;;;;;;;;;;;;;;1,000000;0,800000;0,000000;0,000000;0,000000;0,000000;0,000000;0,000000;0,000000;0,000000;0,000000;0,000000;0,000000;0,000000;0,000000;0,000000;0,000000;0,000000;
70;;;;;;;;;;;;;;;;;;;;;;;;;;;;;;;;;;;;;;;;;;;;;;;;;;;;;;;;;;;;;;;;;;;;;;1,000000;0,000000;0,000000;0,000000;0,000000;0,000000;0,000000;0,000000;0,000000;0,000000;0,000000;0,000000;0,000000;0,000000;0,000000;0,000000;0,000000;
71;;;;;;;;;;;;;;;;;;;;;;;;;;;;;;;;;;;;;;;;;;;;;;;;;;;;;;;;;;;;;;;;;;;;;;;1,000000;0,609804;0,000000;0,000000;0,000000;0,773676;0,773676;0,278370;0,278370;0,000000;0,000000;0,000000;0,000000;0,000000;0,000000;0,000000;
72;;;;;;;;;;;;;;;;;;;;;;;;;;;;;;;;;;;;;;;;;;;;;;;;;;;;;;;;;;;;;;;;;;;;;;;;1,000000;0,000000;0,000000;0,000000;0,836586;0,836586;0,244907;0,244907;0,000000;0,000000;0,000000;0,000000;0,000000;0,000000;0,000000;
73;;;;;;;;;;;;;;;;;;;;;;;;;;;;;;;;;;;;;;;;;;;;;;;;;;;;;;;;;;;;;;;;;;;;;;;;;1,000000;0,500000;0,750000;0,000000;0,000000;0,416667;0,416667;0,000000;0,000000;0,000000;0,000000;0,000000;0,000000;0,750000;
74;;;;;;;;;;;;;;;;;;;;;;;;;;;;;;;;;;;;;;;;;;;;;;;;;;;;;;;;;;;;;;;;;;;;;;;;;;1,000000;0,750000;0,000000;0,000000;0,416667;0,416667;0,000000;0,000000;0,000000;0,000000;0,000000;0,000000;0,750000;
75;;;;;;;;;;;;;;;;;;;;;;;;;;;;;;;;;;;;;;;;;;;;;;;;;;;;;;;;;;;;;;;;;;;;;;;;;;;1,000000;0,000000;0,000000;0,666667;0,666667;0,000000;0,000000;0,000000;0,000000;0,000000;0,000000;1,000000;
76;;;;;;;;;;;;;;;;;;;;;;;;;;;;;;;;;;;;;;;;;;;;;;;;;;;;;;;;;;;;;;;;;;;;;;;;;;;;1,000000;0,800000;0,266667;0,266667;0,000000;0,000000;0,000000;0,000000;0,000000;0,000000;0,000000;
77;;;;;;;;;;;;;;;;;;;;;;;;;;;;;;;;;;;;;;;;;;;;;;;;;;;;;;;;;;;;;;;;;;;;;;;;;;;;;1,000000;0,266667;0,266667;0,000000;0,000000;0,000000;0,000000;0,000000;0,000000;0,000000;
78;;;;;;;;;;;;;;;;;;;;;;;;;;;;;;;;;;;;;;;;;;;;;;;;;;;;;;;;;;;;;;;;;;;;;;;;;;;;;;1,000000;0,666667;0,000000;0,000000;0,000000;0,000000;0,000000;0,000000;0,666667;
79;;;;;;;;;;;;;;;;;;;;;;;;;;;;;;;;;;;;;;;;;;;;;;;;;;;;;;;;;;;;;;;;;;;;;;;;;;;;;;;1,000000;0,000000;0,000000;0,000000;0,000000;0,000000;0,000000;0,666667;
80;;;;;;;;;;;;;;;;;;;;;;;;;;;;;;;;;;;;;;;;;;;;;;;;;;;;;;;;;;;;;;;;;;;;;;;;;;;;;;;;1,000000;0,416667;0,416667;0,000000;0,000000;0,750000;0,000000;
81;;;;;;;;;;;;;;;;;;;;;;;;;;;;;;;;;;;;;;;;;;;;;;;;;;;;;;;;;;;;;;;;;;;;;;;;;;;;;;;;;1,000000;0,666667;0,000000;0,000000;0,000000;0,000000;
82;;;;;;;;;;;;;;;;;;;;;;;;;;;;;;;;;;;;;;;;;;;;;;;;;;;;;;;;;;;;;;;;;;;;;;;;;;;;;;;;;;1,000000;0,000000;0,000000;0,000000;0,000000;
83;;;;;;;;;;;;;;;;;;;;;;;;;;;;;;;;;;;;;;;;;;;;;;;;;;;;;;;;;;;;;;;;;;;;;;;;;;;;;;;;;;;1,000000;0,000000;0,000000;0,000000;
84;;;;;;;;;;;;;;;;;;;;;;;;;;;;;;;;;;;;;;;;;;;;;;;;;;;;;;;;;;;;;;;;;;;;;;;;;;;;;;;;;;;;1,000000;0,000000;0,000000;
85;;;;;;;;;;;;;;;;;;;;;;;;;;;;;;;;;;;;;;;;;;;;;;;;;;;;;;;;;;;;;;;;;;;;;;;;;;;;;;;;;;;;;1,000000;0,000000;
86;;;;;;;;;;;;;;;;;;;;;;;;;;;;;;;;;;;;;;;;;;;;;;;;;;;;;;;;;;;;;;;;;;;;;;;;;;;;;;;;;;;;;;1,000000;
