;1; 2; 3; 4; 5; 6; 7; 8; 9; 10; 11; 12; 13; 14; 15; 16; 17; 18; 19; 20; 21; 22; 23; 24; 25; 26; 27; 28; 29; 30; 31; 32; 33; 34; 35; 36; 37; 38; 39; 40; 41; 42; 43; 44; 45; 46; 47; 48; 49; 50; 51; 52; 53; 54; 55; 56; 57; 58; 59; 60; 61; 62; 63; 64; 65; 66; 67; 68; 69; 70; 71; 72; 73; 74; 75; 76; 77; 78; 79; 80; 81; 82
1;1,000000;0,452561;0,319192;0,405630;0,492232;0,383085;0,390324;0,402107;0,440432;0,565343;0,442607;0,445630;0,462296;0,450694;0,485492;0,485492;0,442044;0,417513;0,360439;0,442696;0,428362;0,355771;0,435218;0,412797;0,443270;0,414864;0,492189;0,490756;0,499571;0,445760;0,446403;0,447017;0,466771;0,467344;0,467894;0,430802;0,431298;0,431776;0,432236;0,468154;0,465387;0,465802;0,469337;0,393773;0,438374;0,448789;0,439214;0,439616;0,459253;0,459565;0,459868;0,460163;0,416870;0,417299;0,401335;0,401735;0,451524;0,451752;0,451975;0,452192;0,452405;0,452608;0,452811;0,453009;0,453204;0,453394;0,440758;0,440967;0,441172;0,441373;0,388193;0,449598;0,465220;0,465415;0,465608;0,000000;0,000000;0,000000;0,476096;0,439738;0,439955;0,456566;
2;;1,000000;0,375199;0,498948;0,392807;0,313692;0,315149;0,223913;0,239159;0,415388;0,514206;0,517064;0,541303;0,521915;0,430574;0,432374;0,506774;0,464722;0,397145;0,470150;0,513970;0,605253;0,507240;0,304774;0,280097;0,305404;0,550516;0,472945;0,444607;0,261781;0,262101;0,262421;0,514608;0,515171;0,515713;0,167472;0,167636;0,167802;0,167967;0,239938;0,255183;0,255463;0,240776;0,629214;0,295557;0,273846;0,295902;0,296076;0,280181;0,280348;0,280515;0,280683;0,451334;0,451762;0,412201;0,412201;0,153312;0,153407;0,153502;0,153597;0,153692;0,154539;0,154627;0,154714;0,154801;0,154887;0,178476;0,178562;0,178647;0,178733;0,424608;0,480435;0,421716;0,421795;0,421875;0,000000;0,000000;0,000000;0,539798;0,496115;0,496115;0,282818;
3;;;1,000000;0,529781;0,455916;0,109177;0,109942;0,102435;0,108429;0,629271;0,282648;0,283368;0,289135;0,284871;0,514419;0,515194;0,284996;0,376527;0,424150;0,311887;0,559037;0,171833;0,353883;0,350117;0,325440;0,350747;0,776967;0,275928;0,286599;0,307125;0,307444;0,307764;0,305326;0,305673;0,306016;0,148709;0,148874;0,149039;0,149205;0,112409;0,118908;0,119097;0,112941;0,607794;0,340900;0,319189;0,341245;0,341419;0,130061;0,130209;0,130355;0,130500;0,454890;0,454890;0,457544;0,457544;0,134549;0,134644;0,134739;0,134834;0,134929;0,135777;0,135864;0,135951;0,136038;0,136125;0,159714;0,159799;0,159885;0,159970;0,451071;0,366951;0,134355;0,134468;0,134580;0,000000;0,000000;0,000000;0,316924;0,156752;0,156880;0,133103;
4;;;;1,000000;0,513615;0,210377;0,211576;0,190741;0,205988;0,480158;0,266706;0,267426;0,273193;0,268929;0,570164;0,571897;0,269054;0,579933;0,408208;0,514352;0,414990;0,375002;0,552285;0,360660;0,335983;0,361290;0,676270;0,390961;0,416534;0,317667;0,317987;0,318306;0,289384;0,289731;0,290074;0,145712;0,145876;0,146041;0,146207;0,206767;0,222012;0,222292;0,207605;0,585361;0,351443;0,329732;0,351788;0,351962;0,247010;0,247177;0,247344;0,247511;0,438948;0,438948;0,468087;0,468087;0,131551;0,131647;0,131742;0,131836;0,131931;0,132779;0,132866;0,132953;0,133040;0,133127;0,156716;0,156801;0,156887;0,156972;0,643363;0,520137;0,253455;0,253595;0,253733;0,000000;0,000000;0,000000;0,300982;0,303458;0,303584;0,249647;
5;;;;;1,000000;0,223012;0,224211;0,203376;0,218622;0,355193;0,241691;0,242411;0,248178;0,243914;0,479218;0,480679;0,244038;0,448996;0,383193;0,384860;0,499725;0,187105;0,405314;0,494766;0,554419;0,496537;0,488295;0,355876;0,381449;0,539171;0,539744;0,540294;0,264369;0,264715;0,265059;0,163981;0,164145;0,164311;0,164476;0,219401;0,234646;0,234926;0,220239;0,505390;0,536652;0,555432;0,537472;0,537866;0,259644;0,259811;0,259978;0,260146;0,413933;0,413933;0,459496;0,459880;0,149821;0,149916;0,150011;0,150106;0,150201;0,151048;0,151136;0,151223;0,151310;0,151396;0,174985;0,175071;0,175156;0,175242;0,410114;0,497320;0,266090;0,266229;0,266367;0,000000;0,000000;0,000000;0,275967;0,316092;0,316218;0,262281;
6;;;;;;1,000000;0,697209;0,727505;0,610871;0,535025;0,119677;0,120378;0,122861;0,121690;0,134227;0,135058;0,122655;0,155813;0,172281;0,163652;0,177694;0,183649;0,428455;0,149086;0,139976;0,149847;0,156618;0,515948;0,460164;0,133698;0,133961;0,134220;0,133642;0,133918;0,134189;0,160525;0,160690;0,160855;0,161020;0,460824;0,485874;0,486050;0,461505;0,170128;0,149203;0,140381;0,149575;0,149758;0,335587;0,335754;0,335921;0,336089;0,197140;0,197379;0,198649;0,198865;0,146365;0,146460;0,146555;0,146650;0,146745;0,147592;0,147680;0,147767;0,147854;0,147940;0,171529;0,171615;0,171700;0,171786;0,199165;0,163592;0,342032;0,342172;0,342310;0,000000;0,000000;0,000000;0,142228;0,392035;0,392161;0,521452;
7;;;;;;;1,000000;0,731844;0,612975;0,537258;0,120442;0,121143;0,123627;0,122455;0,135997;0,136828;0,123420;0,156578;0,173046;0,164418;0,178459;0,184414;0,429912;0,149851;0,140742;0,150612;0,157383;0,518537;0,461621;0,134463;0,134726;0,134985;0,134407;0,134683;0,134954;0,161290;0,161455;0,161620;0,161786;0,461842;0,486892;0,487068;0,462523;0,170894;0,149969;0,141146;0,150340;0,150523;0,336786;0,336953;0,337120;0,337287;0,197905;0,198145;0,199415;0,199630;0,147130;0,147225;0,147320;0,147415;0,147510;0,148358;0,148445;0,148532;0,148619;0,148706;0,172295;0,172380;0,172466;0,172551;0,199931;0,164357;0,343231;0,343371;0,343509;0,000000;0,000000;0,000000;0,142993;0,393234;0,393360;0,522470;
8;;;;;;;;1,000000;0,610642;0,529909;0,112935;0,113636;0,116120;0,114948;0,129209;0,130041;0,115913;0,149071;0,165539;0,156911;0,170952;0,176907;0,296590;0,142344;0,133235;0,143105;0,149876;0,645524;0,327760;0,126956;0,127219;0,127478;0,126900;0,127176;0,127447;0,153783;0,153948;0,154113;0,154279;0,485998;0,511048;0,511224;0,486680;0,163387;0,142462;0,133639;0,142833;0,143016;0,315951;0,316118;0,316285;0,316452;0,190398;0,190638;0,191908;0,192123;0,139623;0,139718;0,139813;0,139908;0,140003;0,140851;0,140938;0,141025;0,141112;0,141199;0,164788;0,164873;0,164959;0,165044;0,192424;0,156850;0,322396;0,322536;0,322674;0,000000;0,000000;0,000000;0,135486;0,372399;0,372525;0,546626;
9;;;;;;;;;1,000000;0,603614;0,118929;0,119630;0,122113;0,120942;0,135881;0,136712;0,121907;0,155065;0,171533;0,162904;0,176946;0,182901;0,311837;0,148338;0,139228;0,149099;0,155870;0,502789;0,343007;0,132950;0,133213;0,133472;0,132894;0,133170;0,133441;0,159777;0,159942;0,160107;0,160272;0,747326;0,747544;0,748067;0,748580;0,169380;0,148455;0,139633;0,148827;0,149010;0,331197;0,331364;0,331532;0,331699;0,196392;0,196631;0,197901;0,198117;0,145617;0,145712;0,145807;0,145902;0,145997;0,146844;0,146932;0,147019;0,147106;0,147192;0,170781;0,170867;0,170952;0,171038;0,198417;0,162844;0,337643;0,337782;0,337921;0,000000;0,000000;0,000000;0,141480;0,387646;0,387772;0,699064;
10;;;;;;;;;;1,000000;0,255287;0,256007;0,261774;0,257510;0,449454;0,450486;0,257635;0,349166;0,396789;0,284526;0,508564;0,192195;0,516486;0,296802;0,272125;0,297432;0,406238;0,618104;0,621285;0,253810;0,254129;0,254449;0,277965;0,278312;0,278655;0,169071;0,169236;0,169401;0,169567;0,578559;0,578185;0,578528;0,579505;0,434854;0,287585;0,265874;0,287930;0,288104;0,536770;0,537027;0,537279;0,537525;0,427529;0,427529;0,404229;0,404229;0,154911;0,155006;0,155101;0,155196;0,155291;0,156139;0,156226;0,156313;0,156400;0,156487;0,180076;0,180161;0,180247;0,180332;0,423710;0,339590;0,564125;0,564301;0,564473;0,000000;0,000000;0,000000;0,289563;0,529396;0,529593;0,556092;
11;;;;;;;;;;;1,000000;0,770253;0,662625;0,774864;0,134028;0,134720;0,768787;0,385714;0,433336;0,321074;0,386690;0,182333;0,363069;0,147770;0,138660;0,148531;0,305748;0,285115;0,295786;0,132382;0,132645;0,132904;0,487667;0,487874;0,488086;0,159209;0,159374;0,159539;0,159704;0,122909;0,129408;0,129597;0,123441;0,168813;0,147887;0,139065;0,148259;0,148442;0,140561;0,140709;0,140855;0,141000;0,464077;0,464077;0,197334;0,197549;0,145049;0,145144;0,145239;0,145334;0,145429;0,146277;0,146364;0,146451;0,146538;0,146625;0,170214;0,170299;0,170385;0,170470;0,460258;0,376137;0,144855;0,144968;0,145080;0,000000;0,000000;0,000000;0,793840;0,167252;0,167380;0,143603;
12;;;;;;;;;;;;1,000000;0,663876;0,776970;0,134864;0,135556;0,770532;0,386433;0,434056;0,321793;0,387409;0,183034;0,363789;0,148471;0,139361;0,149232;0,306467;0,285834;0,296505;0,133083;0,133346;0,133605;0,488395;0,488602;0,488813;0,159910;0,160075;0,160240;0,160406;0,123610;0,130109;0,130298;0,124142;0,169514;0,148588;0,139766;0,148960;0,149143;0,141262;0,141410;0,141556;0,141701;0,464796;0,464796;0,198035;0,198250;0,145750;0,145845;0,145940;0,146035;0,146130;0,146978;0,147065;0,147152;0,147239;0,147326;0,170915;0,171000;0,171086;0,171171;0,460977;0,376856;0,145556;0,145669;0,145781;0,000000;0,000000;0,000000;0,794826;0,167953;0,168081;0,144304;
13;;;;;;;;;;;;;1,000000;0,666180;0,137637;0,138329;0,838342;0,392200;0,439823;0,327560;0,393176;0,185518;0,369556;0,150954;0,141845;0,151716;0,312234;0,291601;0,302272;0,135567;0,135830;0,136088;0,701252;0,701803;0,702337;0,162394;0,162558;0,162724;0,162889;0,126093;0,132593;0,132782;0,126625;0,171997;0,151072;0,142250;0,151444;0,151626;0,143746;0,143893;0,144039;0,144184;0,470563;0,470563;0,200518;0,200734;0,148234;0,148329;0,148424;0,148519;0,148613;0,149461;0,149548;0,149636;0,149722;0,149809;0,173398;0,173484;0,173569;0,173655;0,466744;0,382623;0,148040;0,148153;0,148264;0,000000;0,000000;0,000000;0,838342;0,170436;0,170565;0,146788;
14;;;;;;;;;;;;;;1,000000;0,136407;0,137099;0,773768;0,387937;0,435559;0,323297;0,388913;0,184346;0,365292;0,149783;0,140673;0,150544;0,307970;0,287338;0,298008;0,134395;0,134658;0,134917;0,489959;0,490166;0,490378;0,161222;0,161387;0,161552;0,161717;0,124922;0,131421;0,131610;0,125454;0,170826;0,149900;0,141078;0,150272;0,150455;0,142574;0,142722;0,142868;0,143013;0,466299;0,466299;0,199347;0,199562;0,147062;0,147157;0,147252;0,147347;0,147442;0,148290;0,148377;0,148464;0,148551;0,148638;0,172227;0,172312;0,172398;0,172483;0,462481;0,378360;0,146868;0,146981;0,147093;0,000000;0,000000;0,000000;0,796669;0,169265;0,169393;0,145616;
15;;;;;;;;;;;;;;;1,000000;0,757583;0,137571;0,173579;0,191210;0,121186;0,280666;0,000000;0,303100;0,182622;0,172211;0,183647;0,416825;0,297860;0,309140;0,165115;0,165458;0,165793;0,149848;0,150158;0,150461;0,000000;0,000000;0,000000;0,000000;0,143959;0,151301;0,151540;0,144628;0,382189;0,183601;0,173322;0,184068;0,184296;0,163977;0,164165;0,164351;0,164534;0,218319;0,218580;0,239571;0,239833;0,000000;0,000000;0,000000;0,000000;0,000000;0,000000;0,000000;0,000000;0,000000;0,000000;0,000000;0,000000;0,000000;0,000000;0,220551;0,182563;0,169155;0,169292;0,169427;0,000000;0,000000;0,000000;0,159369;0,194027;0,194181;0,167836;
16;;;;;;;;;;;;;;;;1,000000;0,138263;0,174271;0,191902;0,121878;0,281754;0,000000;0,304323;0,183442;0,173031;0,184467;0,417600;0,299083;0,310363;0,165935;0,166277;0,166612;0,150540;0,150850;0,151153;0,000000;0,000000;0,000000;0,000000;0,144791;0,152133;0,152372;0,145460;0,383463;0,184421;0,174142;0,184887;0,185115;0,164809;0,164997;0,165182;0,165366;0,219011;0,219272;0,240391;0,240652;0,000000;0,000000;0,000000;0,000000;0,000000;0,000000;0,000000;0,000000;0,000000;0,000000;0,000000;0,000000;0,000000;0,000000;0,221243;0,183255;0,169987;0,170124;0,170259;0,000000;0,000000;0,000000;0,160061;0,194859;0,195013;0,168668;
17;;;;;;;;;;;;;;;;;1,000000;0,388061;0,435683;0,323421;0,389037;0,185311;0,365417;0,150748;0,141638;0,151509;0,308095;0,287462;0,298133;0,135360;0,135623;0,135882;0,316860;0,317206;0,317550;0,162187;0,162352;0,162517;0,162682;0,125887;0,132386;0,132575;0,126419;0,171791;0,150865;0,142043;0,151237;0,151420;0,143539;0,143687;0,143833;0,143977;0,466424;0,466424;0,200311;0,200527;0,148027;0,148122;0,148217;0,148312;0,148407;0,149254;0,149342;0,149429;0,149516;0,149602;0,173192;0,173277;0,173362;0,173448;0,462605;0,378484;0,147833;0,147946;0,148058;0,000000;0,000000;0,000000;1,000000;0,170230;0,170358;0,146581;
18;;;;;;;;;;;;;;;;;;1,000000;0,527215;0,759955;0,597932;0,480394;0,628289;0,183906;0,174797;0,184667;0,524861;0,378994;0,389664;0,168518;0,168781;0,169040;0,408392;0,408738;0,409081;0,195346;0,195510;0,195675;0,195841;0,159045;0,165544;0,165733;0,159577;0,446799;0,184024;0,175202;0,184395;0,184578;0,176698;0,176845;0,176991;0,177136;0,557955;0,557955;0,233470;0,233685;0,181185;0,181281;0,181376;0,181470;0,181565;0,182413;0,182500;0,182587;0,182674;0,182761;0,206350;0,206435;0,206521;0,206607;0,826600;0,703079;0,180992;0,181104;0,181216;0,000000;0,000000;0,000000;0,419989;0,203388;0,203517;0,179740;
19;;;;;;;;;;;;;;;;;;;1,000000;0,462575;0,775524;0,234937;0,504571;0,200374;0,191264;0,201135;0,707973;0,426616;0,437287;0,184986;0,185249;0,185508;0,456014;0,456360;0,456704;0,211813;0,211978;0,212143;0,212308;0,175513;0,182012;0,182201;0,176044;0,221416;0,200491;0,191669;0,200863;0,201046;0,193165;0,193313;0,193459;0,193603;0,605578;0,605578;0,249937;0,250153;0,197653;0,197748;0,197843;0,197938;0,198033;0,198880;0,198968;0,199055;0,199142;0,199228;0,222817;0,222903;0,222988;0,223074;0,601759;0,517638;0,197459;0,197572;0,197683;0,000000;0,000000;0,000000;0,467612;0,219855;0,219984;0,196207;
20;;;;;;;;;;;;;;;;;;;;1,000000;0,681386;0,493937;0,562532;0,191746;0,182636;0,192507;0,604558;0,314354;0,325025;0,176358;0,176621;0,176880;0,343752;0,344098;0,344441;0,203185;0,203349;0,203515;0,203680;0,166885;0,173384;0,173573;0,167416;0,460427;0,191863;0,183041;0,192235;0,192417;0,184537;0,184684;0,184830;0,184975;0,493315;0,493315;0,241309;0,241525;0,189025;0,189120;0,189215;0,189310;0,189405;0,190252;0,190339;0,190427;0,190514;0,190600;0,214189;0,214275;0,214360;0,214446;0,760844;0,638943;0,188831;0,188944;0,189055;0,000000;0,000000;0,000000;0,355349;0,211227;0,211356;0,187579;
21;;;;;;;;;;;;;;;;;;;;;1,000000;0,488131;0,457924;0,205787;0,196678;0,206548;0,630774;0,545233;0,530246;0,190399;0,190662;0,190921;0,409368;0,409714;0,410057;0,217226;0,217391;0,217556;0,217722;0,180926;0,187425;0,187614;0,181458;0,522355;0,205905;0,197083;0,206276;0,206459;0,198579;0,198726;0,198872;0,199017;0,558931;0,558931;0,255351;0,255566;0,203066;0,203161;0,203256;0,203351;0,203446;0,204294;0,204381;0,204468;0,204555;0,204642;0,228231;0,228316;0,228402;0,228487;0,555113;0,804145;0,202872;0,202985;0,203097;0,000000;0,000000;0,000000;0,420965;0,225269;0,225397;0,201621;
22;;;;;;;;;;;;;;;;;;;;;;1,000000;0,486659;0,211742;0,202633;0,212503;0,678905;0,197778;0,207218;0,196354;0,196617;0,196876;0,196298;0,196575;0,196846;0,223182;0,223346;0,223511;0,223677;0,186881;0,193380;0,193569;0,187413;0,232785;0,211860;0,203038;0,212231;0,212414;0,204534;0,204681;0,204827;0,204972;0,259796;0,260036;0,261306;0,261521;0,209021;0,209117;0,209212;0,209306;0,209401;0,210249;0,210336;0,210423;0,210510;0,210597;0,234186;0,234271;0,234357;0,234443;0,638768;0,613446;0,208828;0,208940;0,209052;0,000000;0,000000;0,000000;0,204884;0,231224;0,231353;0,207576;
23;;;;;;;;;;;;;;;;;;;;;;;1,000000;0,187920;0,178810;0,188681;0,499948;0,685982;0,690619;0,172532;0,172795;0,173054;0,385747;0,386094;0,386437;0,199359;0,199523;0,199689;0,199854;0,312615;0,327861;0,328141;0,313454;0,208962;0,188037;0,179215;0,188409;0,188591;0,352858;0,353025;0,353192;0,353360;0,535311;0,535311;0,237483;0,237699;0,185199;0,185294;0,185389;0,185484;0,185579;0,186426;0,186514;0,186601;0,186688;0,186774;0,210363;0,210449;0,210534;0,210620;0,801688;0,447372;0,527657;0,527736;0,527816;0,000000;0,000000;0,000000;0,397345;0,602056;0,602056;0,355495;
24;;;;;;;;;;;;;;;;;;;;;;;;1,000000;0,667963;0,745103;0,383811;0,163215;0,172655;0,675616;0,675846;0,676082;0,161735;0,162011;0,162282;0,188618;0,188783;0,188948;0,189113;0,152318;0,158817;0,159006;0,152850;0,481797;0,429870;0,408159;0,430216;0,430390;0,169970;0,170118;0,170264;0,170408;0,225233;0,225472;0,546515;0,546515;0,174458;0,174553;0,174648;0,174743;0,174838;0,175685;0,175773;0,175860;0,175947;0,176034;0,199623;0,199708;0,199793;0,199879;0,227259;0,191685;0,174264;0,174377;0,174489;0,000000;0,000000;0,000000;0,170321;0,196661;0,196789;0,173012;
25;;;;;;;;;;;;;;;;;;;;;;;;;1,000000;0,669176;0,359134;0,154105;0,163546;0,761454;0,761920;0,762373;0,152625;0,152902;0,153173;0,179509;0,179673;0,179838;0,180004;0,143208;0,149708;0,149896;0,143740;0,457119;0,405193;0,383482;0,405538;0,405712;0,160861;0,161008;0,161154;0,161299;0,216123;0,216363;0,521837;0,521837;0,165349;0,165444;0,165539;0,165634;0,165728;0,166576;0,166663;0,166750;0,166837;0,166924;0,190513;0,190599;0,190684;0,190770;0,218149;0,182575;0,165155;0,165267;0,165379;0,000000;0,000000;0,000000;0,161211;0,187551;0,187680;0,163903;
26;;;;;;;;;;;;;;;;;;;;;;;;;;1,000000;0,384441;0,163976;0,173416;0,675616;0,675846;0,676082;0,162496;0,162773;0,163043;0,189379;0,189544;0,189709;0,189875;0,153079;0,159578;0,159767;0,153611;0,482427;0,430500;0,408789;0,430845;0,431020;0,170731;0,170879;0,171025;0,171170;0,225994;0,226234;0,547144;0,547144;0,175219;0,175314;0,175409;0,175504;0,175599;0,176447;0,176534;0,176621;0,176708;0,176795;0,200384;0,200469;0,200555;0,200640;0,228020;0,192446;0,175025;0,175138;0,175250;0,000000;0,000000;0,000000;0,171082;0,197422;0,197550;0,173774;
27;;;;;;;;;;;;;;;;;;;;;;;;;;;1,000000;0,299027;0,309698;0,340818;0,341138;0,341458;0,328425;0,328772;0,329115;0,196151;0,196315;0,196480;0,196646;0,159850;0,166349;0,166538;0,160382;0,552063;0,374594;0,352883;0,374939;0,375113;0,177503;0,177650;0,177796;0,177941;0,477989;0,477989;0,491238;0,491238;0,181990;0,182086;0,182181;0,182275;0,182370;0,183218;0,183305;0,183392;0,183479;0,183566;0,207155;0,207240;0,207326;0,207411;0,698260;0,595735;0,181797;0,181909;0,182021;0,000000;0,000000;0,000000;0,340023;0,204193;0,204322;0,180545;
28;;;;;;;;;;;;;;;;;;;;;;;;;;;;1,000000;0,662864;0,147827;0,148090;0,148349;0,307793;0,308139;0,308482;0,174654;0,174819;0,174984;0,175149;0,320643;0,335888;0,336168;0,321481;0,184258;0,163332;0,154510;0,163704;0,163887;0,360886;0,361052;0,361220;0,361387;0,457356;0,457356;0,212779;0,212994;0,160494;0,160589;0,160684;0,160779;0,160874;0,161722;0,161809;0,161896;0,161983;0,162070;0,185659;0,185744;0,185830;0,185915;0,453538;0,369417;0,561391;0,561470;0,561550;0,000000;0,000000;0,000000;0,319390;0,635790;0,635790;0,363523;
29;;;;;;;;;;;;;;;;;;;;;;;;;;;;;1,000000;0,157267;0,157530;0,157789;0,318463;0,318810;0,319153;0,184094;0,184259;0,184424;0,184590;0,343785;0,359031;0,359311;0,344624;0,193698;0,172773;0,163950;0,173144;0,173327;0,384028;0,384195;0,384362;0,384530;0,468027;0,468027;0,222219;0,222434;0,169934;0,170029;0,170124;0,170219;0,170314;0,171162;0,171249;0,171336;0,171423;0,171510;0,195099;0,195184;0,195270;0,195355;0,464209;0,380088;0,689830;0,689984;0,690137;0,000000;0,000000;0,000000;0,330061;0,635667;0,635840;0,386665;
30;;;;;;;;;;;;;;;;;;;;;;;;;;;;;;1,000000;0,829266;0,829824;0,146347;0,146624;0,146894;0,173230;0,173395;0,173560;0,173726;0,136930;0,143429;0,143618;0,137462;0,438804;0,386878;0,365167;0,387223;0,387397;0,154582;0,154730;0,154876;0,155021;0,209845;0,210085;0,503522;0,503522;0,159070;0,159165;0,159260;0,159355;0,159450;0,160298;0,160385;0,160472;0,160559;0,160646;0,184235;0,184320;0,184406;0,184491;0,211871;0,176297;0,158876;0,158989;0,159101;0,000000;0,000000;0,000000;0,154933;0,181273;0,181401;0,157625;
31;;;;;;;;;;;;;;;;;;;;;;;;;;;;;;;1,000000;0,830370;0,146610;0,146887;0,147158;0,173493;0,173658;0,173823;0,173989;0,137193;0,143692;0,143881;0,137725;0,439123;0,387197;0,365486;0,387542;0,387717;0,154846;0,154993;0,155139;0,155284;0,210108;0,210348;0,503841;0,503841;0,159333;0,159428;0,159523;0,159618;0,159713;0,160561;0,160648;0,160735;0,160822;0,160909;0,184498;0,184583;0,184669;0,184754;0,212134;0,176560;0,159139;0,159252;0,159364;0,000000;0,000000;0,000000;0,155196;0,181536;0,181664;0,157888;
32;;;;;;;;;;;;;;;;;;;;;;;;;;;;;;;;1,000000;0,146869;0,147145;0,147416;0,173752;0,173917;0,174082;0,174247;0,137452;0,143951;0,144140;0,137984;0,439443;0,387517;0,365806;0,387862;0,388036;0,155104;0,155252;0,155398;0,155542;0,210367;0,210606;0,504161;0,504161;0,159592;0,159687;0,159782;0,159877;0,159972;0,160819;0,160907;0,160994;0,161081;0,161168;0,184757;0,184842;0,184927;0,185013;0,212393;0,176819;0,159398;0,159511;0,159623;0,000000;0,000000;0,000000;0,155455;0,181795;0,181923;0,158146;
33;;;;;;;;;;;;;;;;;;;;;;;;;;;;;;;;;1,000000;0,827705;0,828206;0,173174;0,173339;0,173504;0,173669;0,136874;0,143373;0,143562;0,137406;0,182778;0,161852;0,153030;0,162224;0,162407;0,154526;0,154674;0,154820;0,154965;0,486754;0,486754;0,211298;0,211514;0,159014;0,159109;0,159204;0,159299;0,159394;0,160242;0,160329;0,160416;0,160503;0,160590;0,184179;0,184264;0,184350;0,184435;0,482936;0,398815;0,158820;0,158933;0,159045;0,000000;0,000000;0,000000;0,348788;0,181217;0,181345;0,157568;
34;;;;;;;;;;;;;;;;;;;;;;;;;;;;;;;;;;1,000000;0,828697;0,173451;0,173615;0,173780;0,173946;0,137150;0,143649;0,143838;0,137682;0,183054;0,162129;0,153307;0,162501;0,162683;0,154803;0,154950;0,155096;0,155241;0,487101;0,487101;0,211575;0,211790;0,159290;0,159386;0,159481;0,159576;0,159670;0,160518;0,160605;0,160692;0,160779;0,160866;0,184455;0,184540;0,184626;0,184712;0,483282;0,399161;0,159097;0,159209;0,159321;0,000000;0,000000;0,000000;0,349135;0,181493;0,181622;0,157845;
35;;;;;;;;;;;;;;;;;;;;;;;;;;;;;;;;;;;1,000000;0,173722;0,173886;0,174051;0,174217;0,137421;0,143920;0,144109;0,137953;0,183325;0,162400;0,153578;0,162772;0,162954;0,155074;0,155221;0,155367;0,155512;0,487444;0,487444;0,211846;0,212061;0,159561;0,159657;0,159752;0,159847;0,159941;0,160789;0,160876;0,160963;0,161050;0,161137;0,184726;0,184811;0,184897;0,184983;0,483625;0,399505;0,159368;0,159480;0,159592;0,000000;0,000000;0,000000;0,349478;0,181764;0,181893;0,158116;
36;;;;;;;;;;;;;;;;;;;;;;;;;;;;;;;;;;;;1,000000;0,829772;0,830218;0,830657;0,163757;0,170256;0,170445;0,164289;0,209661;0,188736;0,179914;0,189107;0,189290;0,181410;0,181557;0,181703;0,181848;0,236672;0,236912;0,238182;0,238397;0,185897;0,185993;0,186088;0,186182;0,186277;0,187125;0,187212;0,187299;0,187386;0,187473;0,211062;0,211147;0,211233;0,211318;0,238698;0,203124;0,185704;0,185816;0,185928;0,000000;0,000000;0,000000;0,181760;0,208100;0,208229;0,184452;
37;;;;;;;;;;;;;;;;;;;;;;;;;;;;;;;;;;;;;1,000000;0,830657;0,831087;0,163922;0,170421;0,170610;0,164453;0,209825;0,188900;0,180078;0,189272;0,189455;0,181574;0,181722;0,181868;0,182012;0,236837;0,237076;0,238346;0,238562;0,186062;0,186157;0,186252;0,186347;0,186442;0,187289;0,187377;0,187464;0,187551;0,187637;0,211226;0,211312;0,211397;0,211483;0,238862;0,203289;0,185868;0,185981;0,186092;0,000000;0,000000;0,000000;0,181925;0,208264;0,208393;0,184616;
38;;;;;;;;;;;;;;;;;;;;;;;;;;;;;;;;;;;;;;1,000000;0,831510;0,164087;0,170586;0,170775;0,164619;0,209991;0,189065;0,180243;0,189437;0,189620;0,181739;0,181887;0,182033;0,182178;0,237002;0,237241;0,238512;0,238727;0,186227;0,186322;0,186417;0,186512;0,186607;0,187455;0,187542;0,187629;0,187716;0,187803;0,211392;0,211477;0,211563;0,211648;0,239028;0,203454;0,186033;0,186146;0,186258;0,000000;0,000000;0,000000;0,182090;0,208430;0,208558;0,184781;
39;;;;;;;;;;;;;;;;;;;;;;;;;;;;;;;;;;;;;;;1,000000;0,164252;0,170752;0,170940;0,164784;0,210156;0,189231;0,180409;0,189603;0,189785;0,181905;0,182052;0,182198;0,182343;0,237167;0,237407;0,238677;0,238892;0,186393;0,186488;0,186583;0,186678;0,186772;0,187620;0,187707;0,187794;0,187881;0,187968;0,211557;0,211643;0,211728;0,211814;0,239193;0,203619;0,186199;0,186311;0,186423;0,000000;0,000000;0,000000;0,182255;0,208595;0,208724;0,184947;
40;;;;;;;;;;;;;;;;;;;;;;;;;;;;;;;;;;;;;;;;1,000000;0,853323;0,853637;0,853821;0,173361;0,152435;0,143613;0,152807;0,152990;0,331976;0,332143;0,332310;0,332478;0,200372;0,200611;0,201881;0,202097;0,149597;0,149692;0,149787;0,149882;0,149977;0,150824;0,150912;0,150999;0,151086;0,151172;0,174762;0,174847;0,174932;0,175018;0,202398;0,166824;0,338422;0,338561;0,338700;0,000000;0,000000;0,000000;0,145460;0,388424;0,388550;0,926910;
41;;;;;;;;;;;;;;;;;;;;;;;;;;;;;;;;;;;;;;;;;1,000000;0,851182;0,854096;0,179860;0,158935;0,150112;0,159306;0,159489;0,347222;0,347388;0,347556;0,347723;0,206871;0,207111;0,208381;0,208596;0,156096;0,156191;0,156286;0,156381;0,156476;0,157324;0,157411;0,157498;0,157585;0,157672;0,181261;0,181346;0,181432;0,181517;0,208897;0,173323;0,353667;0,353806;0,353945;0,000000;0,000000;0,000000;0,151959;0,403670;0,403796;0,789485;
42;;;;;;;;;;;;;;;;;;;;;;;;;;;;;;;;;;;;;;;;;;1,000000;0,854398;0,180049;0,159123;0,150301;0,159495;0,159678;0,347501;0,347668;0,347836;0,348003;0,207060;0,207299;0,208569;0,208785;0,156285;0,156380;0,156475;0,156570;0,156665;0,157513;0,157600;0,157687;0,157774;0,157861;0,181450;0,181535;0,181621;0,181706;0,209086;0,173512;0,353947;0,354086;0,354225;0,000000;0,000000;0,000000;0,152148;0,403950;0,404076;0,789829;
43;;;;;;;;;;;;;;;;;;;;;;;;;;;;;;;;;;;;;;;;;;;1,000000;0,173892;0,152967;0,144145;0,153339;0,153521;0,332815;0,332982;0,333149;0,333316;0,200903;0,201143;0,202413;0,202629;0,150129;0,150224;0,150319;0,150414;0,150509;0,151356;0,151443;0,151531;0,151618;0,151704;0,175293;0,175379;0,175464;0,175550;0,202929;0,167355;0,339260;0,339399;0,339538;0,000000;0,000000;0,000000;0,145991;0,389263;0,389389;0,926910;
44;;;;;;;;;;;;;;;;;;;;;;;;;;;;;;;;;;;;;;;;;;;;1,000000;0,472579;0,450868;0,472924;0,473099;0,191013;0,191160;0,191307;0,191451;0,246275;0,246515;0,589223;0,589223;0,195501;0,195596;0,195691;0,195786;0,195881;0,196728;0,196816;0,196903;0,196990;0,197076;0,220665;0,220751;0,220836;0,220922;0,248301;0,528084;0,195307;0,195420;0,195531;0,000000;0,000000;0,000000;0,191363;0,217703;0,217832;0,194055;
45;;;;;;;;;;;;;;;;;;;;;;;;;;;;;;;;;;;;;;;;;;;;;1,000000;0,869671;0,813456;0,813818;0,170088;0,170235;0,170381;0,170526;0,225350;0,225590;0,537297;0,537297;0,174576;0,174671;0,174766;0,174861;0,174955;0,175803;0,175890;0,175977;0,176064;0,176151;0,199740;0,199826;0,199911;0,199997;0,227376;0,191802;0,174382;0,174494;0,174606;0,000000;0,000000;0,000000;0,170438;0,196778;0,196907;0,173130;
46;;;;;;;;;;;;;;;;;;;;;;;;;;;;;;;;;;;;;;;;;;;;;;1,000000;0,870208;0,870471;0,161266;0,161413;0,161559;0,161704;0,216528;0,216768;0,515586;0,515586;0,165753;0,165849;0,165944;0,166039;0,166133;0,166981;0,167068;0,167155;0,167242;0,167329;0,190918;0,191003;0,191089;0,191175;0,218554;0,182980;0,165560;0,165672;0,165784;0,000000;0,000000;0,000000;0,161616;0,187956;0,188085;0,164308;
47;;;;;;;;;;;;;;;;;;;;;;;;;;;;;;;;;;;;;;;;;;;;;;;1,000000;0,814527;0,170460;0,170607;0,170753;0,170898;0,225722;0,225962;0,537642;0,537642;0,174947;0,175042;0,175137;0,175232;0,175327;0,176175;0,176262;0,176349;0,176436;0,176523;0,200112;0,200197;0,200283;0,200368;0,227748;0,192174;0,174753;0,174866;0,174978;0,000000;0,000000;0,000000;0,170810;0,197150;0,197278;0,173502;
48;;;;;;;;;;;;;;;;;;;;;;;;;;;;;;;;;;;;;;;;;;;;;;;;1,000000;0,170642;0,170790;0,170936;0,171080;0,225905;0,226144;0,537816;0,537816;0,175130;0,175225;0,175320;0,175415;0,175510;0,176357;0,176445;0,176532;0,176619;0,176705;0,200294;0,200380;0,200465;0,200551;0,227930;0,192357;0,174936;0,175049;0,175160;0,000000;0,000000;0,000000;0,170993;0,197332;0,197461;0,173684;
49;;;;;;;;;;;;;;;;;;;;;;;;;;;;;;;;;;;;;;;;;;;;;;;;;1,000000;0,852205;0,852480;0,852752;0,218024;0,218264;0,219534;0,219749;0,167249;0,167345;0,167440;0,167534;0,167629;0,168477;0,168564;0,168651;0,168738;0,168825;0,192414;0,192499;0,192585;0,192671;0,220050;0,184476;0,378665;0,378804;0,378943;0,000000;0,000000;0,000000;0,163112;0,428667;0,428793;0,374856;
50;;;;;;;;;;;;;;;;;;;;;;;;;;;;;;;;;;;;;;;;;;;;;;;;;;1,000000;0,852752;0,853019;0,218172;0,218411;0,219681;0,219897;0,167397;0,167492;0,167587;0,167682;0,167777;0,168624;0,168712;0,168799;0,168886;0,168972;0,192561;0,192647;0,192732;0,192818;0,220197;0,184624;0,378832;0,378971;0,379109;0,000000;0,000000;0,000000;0,163259;0,428834;0,428960;0,375023;
51;;;;;;;;;;;;;;;;;;;;;;;;;;;;;;;;;;;;;;;;;;;;;;;;;;;1,000000;0,853283;0,218318;0,218557;0,219827;0,220043;0,167543;0,167638;0,167733;0,167828;0,167923;0,168770;0,168858;0,168945;0,169032;0,169118;0,192708;0,192793;0,192878;0,192964;0,220343;0,184770;0,378999;0,379138;0,379277;0,000000;0,000000;0,000000;0,163406;0,429001;0,429128;0,375190;
52;;;;;;;;;;;;;;;;;;;;;;;;;;;;;;;;;;;;;;;;;;;;;;;;;;;;1,000000;0,218462;0,218702;0,219972;0,220188;0,167688;0,167783;0,167878;0,167973;0,168067;0,168915;0,169002;0,169089;0,169176;0,169263;0,192852;0,192938;0,193023;0,193109;0,220488;0,184914;0,379166;0,379306;0,379444;0,000000;0,000000;0,000000;0,163550;0,429169;0,429295;0,375358;
53;;;;;;;;;;;;;;;;;;;;;;;;;;;;;;;;;;;;;;;;;;;;;;;;;;;;;1,000000;0,636318;0,274796;0,275012;0,222512;0,222607;0,222702;0,222797;0,222892;0,223739;0,223827;0,223914;0,224001;0,224087;0,247676;0,247762;0,247847;0,247933;0,632499;0,548379;0,222318;0,222431;0,222542;0,000000;0,000000;0,000000;0,498352;0,244714;0,244843;0,221066;
54;;;;;;;;;;;;;;;;;;;;;;;;;;;;;;;;;;;;;;;;;;;;;;;;;;;;;;1,000000;0,275036;0,275251;0,222752;0,222847;0,222942;0,223037;0,223131;0,223979;0,224066;0,224153;0,224240;0,224327;0,247916;0,248002;0,248087;0,248173;0,632499;0,548379;0,222558;0,222670;0,222782;0,000000;0,000000;0,000000;0,498352;0,244954;0,245083;0,221306;
55;;;;;;;;;;;;;;;;;;;;;;;;;;;;;;;;;;;;;;;;;;;;;;;;;;;;;;;1,000000;0,653941;0,224022;0,224117;0,224212;0,224307;0,224401;0,225249;0,225336;0,225423;0,225510;0,225597;0,249186;0,249272;0,249357;0,249443;0,276822;0,241248;0,223828;0,223941;0,224052;0,000000;0,000000;0,000000;0,219884;0,246224;0,246353;0,222576;
56;;;;;;;;;;;;;;;;;;;;;;;;;;;;;;;;;;;;;;;;;;;;;;;;;;;;;;;;1,000000;0,224237;0,224332;0,224427;0,224522;0,224617;0,225465;0,225552;0,225639;0,225726;0,225813;0,249402;0,249487;0,249573;0,249658;0,277038;0,241464;0,224043;0,224156;0,224268;0,000000;0,000000;0,000000;0,220100;0,246440;0,246568;0,222791;
57;;;;;;;;;;;;;;;;;;;;;;;;;;;;;;;;;;;;;;;;;;;;;;;;;;;;;;;;;1,000000;0,875144;0,875343;0,875540;0,875734;0,172965;0,173052;0,173139;0,173226;0,173313;0,196902;0,196987;0,197073;0,197158;0,224538;0,188964;0,171543;0,171656;0,171768;0,000000;0,000000;0,000000;0,167600;0,193940;0,194068;0,170292;
58;;;;;;;;;;;;;;;;;;;;;;;;;;;;;;;;;;;;;;;;;;;;;;;;;;;;;;;;;;1,000000;0,875540;0,875734;0,875926;0,173060;0,173147;0,173234;0,173321;0,173408;0,196997;0,197082;0,197168;0,197253;0,224633;0,189059;0,171639;0,171751;0,171863;0,000000;0,000000;0,000000;0,167695;0,194035;0,194164;0,170387;
59;;;;;;;;;;;;;;;;;;;;;;;;;;;;;;;;;;;;;;;;;;;;;;;;;;;;;;;;;;;1,000000;0,875926;0,876116;0,173155;0,173242;0,173329;0,173416;0,173503;0,197092;0,197177;0,197263;0,197349;0,224728;0,189154;0,171734;0,171846;0,171958;0,000000;0,000000;0,000000;0,167790;0,194130;0,194259;0,170482;
60;;;;;;;;;;;;;;;;;;;;;;;;;;;;;;;;;;;;;;;;;;;;;;;;;;;;;;;;;;;;1,000000;0,876304;0,173250;0,173337;0,173424;0,173511;0,173598;0,197187;0,197272;0,197358;0,197443;0,224823;0,189249;0,171828;0,171941;0,172053;0,000000;0,000000;0,000000;0,167885;0,194225;0,194353;0,170577;
61;;;;;;;;;;;;;;;;;;;;;;;;;;;;;;;;;;;;;;;;;;;;;;;;;;;;;;;;;;;;;1,000000;0,173344;0,173432;0,173519;0,173606;0,173692;0,197282;0,197367;0,197452;0,197538;0,224918;0,189344;0,171923;0,172036;0,172148;0,000000;0,000000;0,000000;0,167980;0,194320;0,194448;0,170671;
62;;;;;;;;;;;;;;;;;;;;;;;;;;;;;;;;;;;;;;;;;;;;;;;;;;;;;;;;;;;;;;1,000000;0,877035;0,877213;0,877389;0,877563;0,198129;0,198215;0,198300;0,198386;0,225765;0,190191;0,172771;0,172884;0,172995;0,000000;0,000000;0,000000;0,168827;0,195167;0,195296;0,171519;
63;;;;;;;;;;;;;;;;;;;;;;;;;;;;;;;;;;;;;;;;;;;;;;;;;;;;;;;;;;;;;;;1,000000;0,877389;0,877563;0,877735;0,198217;0,198302;0,198387;0,198473;0,225852;0,190279;0,172858;0,172971;0,173083;0,000000;0,000000;0,000000;0,168915;0,195254;0,195383;0,171606;
64;;;;;;;;;;;;;;;;;;;;;;;;;;;;;;;;;;;;;;;;;;;;;;;;;;;;;;;;;;;;;;;;1,000000;0,877735;0,877905;0,198304;0,198389;0,198474;0,198560;0,225940;0,190366;0,172945;0,173058;0,173170;0,000000;0,000000;0,000000;0,169002;0,195342;0,195470;0,171693;
65;;;;;;;;;;;;;;;;;;;;;;;;;;;;;;;;;;;;;;;;;;;;;;;;;;;;;;;;;;;;;;;;;1,000000;0,878073;0,198391;0,198476;0,198561;0,198647;0,226027;0,190453;0,173032;0,173145;0,173257;0,000000;0,000000;0,000000;0,169089;0,195429;0,195557;0,171780;
66;;;;;;;;;;;;;;;;;;;;;;;;;;;;;;;;;;;;;;;;;;;;;;;;;;;;;;;;;;;;;;;;;;1,000000;0,198477;0,198563;0,198648;0,198734;0,226113;0,190539;0,173119;0,173232;0,173343;0,000000;0,000000;0,000000;0,169175;0,195515;0,195644;0,171867;
67;;;;;;;;;;;;;;;;;;;;;;;;;;;;;;;;;;;;;;;;;;;;;;;;;;;;;;;;;;;;;;;;;;;1,000000;0,847862;0,848055;0,848247;0,249702;0,214128;0,196708;0,196821;0,196932;0,000000;0,000000;0,000000;0,192764;0,219104;0,219233;0,195456;
68;;;;;;;;;;;;;;;;;;;;;;;;;;;;;;;;;;;;;;;;;;;;;;;;;;;;;;;;;;;;;;;;;;;;1,000000;0,848247;0,848437;0,249788;0,214214;0,196793;0,196906;0,197018;0,000000;0,000000;0,000000;0,192850;0,219190;0,219318;0,195542;
69;;;;;;;;;;;;;;;;;;;;;;;;;;;;;;;;;;;;;;;;;;;;;;;;;;;;;;;;;;;;;;;;;;;;;1,000000;0,848626;0,249873;0,214299;0,196879;0,196992;0,197103;0,000000;0,000000;0,000000;0,192935;0,219275;0,219404;0,195627;
70;;;;;;;;;;;;;;;;;;;;;;;;;;;;;;;;;;;;;;;;;;;;;;;;;;;;;;;;;;;;;;;;;;;;;;1,000000;0,249959;0,214385;0,196964;0,197077;0,197189;0,000000;0,000000;0,000000;0,193021;0,219361;0,219489;0,195713;
71;;;;;;;;;;;;;;;;;;;;;;;;;;;;;;;;;;;;;;;;;;;;;;;;;;;;;;;;;;;;;;;;;;;;;;;1,000000;0,544560;0,224344;0,224457;0,224568;0,000000;0,000000;0,000000;0,494533;0,246740;0,246869;0,223092;
72;;;;;;;;;;;;;;;;;;;;;;;;;;;;;;;;;;;;;;;;;;;;;;;;;;;;;;;;;;;;;;;;;;;;;;;;1,000000;0,188770;0,188883;0,188994;0,000000;0,000000;0,000000;0,410413;0,211166;0,211295;0,187518;
73;;;;;;;;;;;;;;;;;;;;;;;;;;;;;;;;;;;;;;;;;;;;;;;;;;;;;;;;;;;;;;;;;;;;;;;;;1,000000;0,844082;0,844261;0,000000;0,000000;0,000000;0,167406;0,693340;0,693340;0,381302;
74;;;;;;;;;;;;;;;;;;;;;;;;;;;;;;;;;;;;;;;;;;;;;;;;;;;;;;;;;;;;;;;;;;;;;;;;;;1,000000;0,844438;0,000000;0,000000;0,000000;0,167519;0,693419;0,693419;0,381441;
75;;;;;;;;;;;;;;;;;;;;;;;;;;;;;;;;;;;;;;;;;;;;;;;;;;;;;;;;;;;;;;;;;;;;;;;;;;;1,000000;0,000000;0,000000;0,000000;0,167630;0,693499;0,693499;0,381580;
76;;;;;;;;;;;;;;;;;;;;;;;;;;;;;;;;;;;;;;;;;;;;;;;;;;;;;;;;;;;;;;;;;;;;;;;;;;;;1,000000;0,783956;0,784175;0,000000;0,000000;0,000000;0,000000;
77;;;;;;;;;;;;;;;;;;;;;;;;;;;;;;;;;;;;;;;;;;;;;;;;;;;;;;;;;;;;;;;;;;;;;;;;;;;;;1,000000;0,784393;0,000000;0,000000;0,000000;0,000000;
78;;;;;;;;;;;;;;;;;;;;;;;;;;;;;;;;;;;;;;;;;;;;;;;;;;;;;;;;;;;;;;;;;;;;;;;;;;;;;;1,000000;0,000000;0,000000;0,000000;0,000000;
79;;;;;;;;;;;;;;;;;;;;;;;;;;;;;;;;;;;;;;;;;;;;;;;;;;;;;;;;;;;;;;;;;;;;;;;;;;;;;;;1,000000;0,189802;0,189931;0,166154;
80;;;;;;;;;;;;;;;;;;;;;;;;;;;;;;;;;;;;;;;;;;;;;;;;;;;;;;;;;;;;;;;;;;;;;;;;;;;;;;;;1,000000;0,767739;0,431304;
81;;;;;;;;;;;;;;;;;;;;;;;;;;;;;;;;;;;;;;;;;;;;;;;;;;;;;;;;;;;;;;;;;;;;;;;;;;;;;;;;;1,000000;0,431431;
82;;;;;;;;;;;;;;;;;;;;;;;;;;;;;;;;;;;;;;;;;;;;;;;;;;;;;;;;;;;;;;;;;;;;;;;;;;;;;;;;;;1,000000;
