;1; 2; 3; 4; 5; 6; 7; 8; 9; 10; 11; 12; 13; 14; 15; 16; 17; 18; 19; 20; 21; 22; 23; 24; 25; 26; 27; 28; 29; 30; 31; 32; 33; 34; 35; 36; 37; 38; 39; 40; 41; 42; 43; 44; 45; 46; 47; 48; 49; 50; 51; 52; 53; 54; 55; 56; 57; 58; 59; 60
1;1,000000;0,302950;0,313781;0,393541;0,389365;0,326380;0,311384;0,447313;0,431852;0,465385;0,438621;0,441355;0,323325;0,393656;0,511979;0,376001;0,420640;0,437135;0,440604;0,456158;0,277274;0,505946;0,409859;0,456195;0,457049;0,457855;0,000000;0,000000;0,000000;0,398044;0,387546;0,286323;0,392895;0,457765;0,452901;0,453369;0,460793;0,454252;0,454669;0,172669;0,000000;0,376639;0,000000;0,467724;0,468107;0,468479;0,000000;0,000000;0,000000;0,316290;0,441154;0,449325;0,449676;0,351835;0,000000;0,000000;0,000000;0,432989;0,000000;0,423784;
2;;1,000000;0,522619;0,588041;0,599657;0,475884;0,630934;0,181757;0,135157;0,156039;0,136543;0,137221;0,589357;0,162286;0,174321;0,140251;0,144080;0,173914;0,153915;0,146016;0,168552;0,000000;0,183054;0,149622;0,149942;0,150257;0,000000;0,000000;0,000000;0,173507;0,162704;0,000000;0,740317;0,682186;0,158211;0,158378;0,179613;0,158711;0,158876;0,000000;0,573604;0,210804;0,000000;0,158235;0,158425;0,158612;0,573604;0,000000;0,000000;0,307337;0,223744;0,184360;0,184525;0,248634;0,000000;0,000000;0,000000;0,180793;0,000000;0,561639;
3;;;1,000000;0,601008;0,594365;0,466813;0,398528;0,223291;0,176691;0,197573;0,178077;0,178755;0,449220;0,203819;0,215855;0,181785;0,185614;0,215448;0,195449;0,187550;0,210086;0,000000;0,224588;0,191156;0,191476;0,191790;0,000000;0,000000;0,000000;0,215041;0,204238;0,000000;0,571942;0,588821;0,199745;0,199912;0,221147;0,200244;0,200410;0,000000;0,615138;0,252338;0,000000;0,199769;0,199958;0,200146;0,615138;0,000000;0,000000;0,348871;0,265278;0,225893;0,226059;0,290168;0,000000;0,000000;0,000000;0,222327;0,000000;0,519576;
4;;;;1,000000;0,590598;0,779247;0,600699;0,180304;0,133704;0,154586;0,135090;0,135768;0,779247;0,160832;0,172868;0,138798;0,142627;0,172461;0,152462;0,144563;0,167099;0,000000;0,181601;0,148169;0,148489;0,148803;0,000000;0,000000;0,000000;0,172054;0,161251;0,000000;0,634618;0,677727;0,156758;0,156925;0,178160;0,157257;0,157423;0,000000;0,572151;0,209351;0,000000;0,156782;0,156971;0,157159;0,572151;0,000000;0,000000;0,305884;0,222291;0,182906;0,183072;0,247181;0,000000;0,000000;0,000000;0,179340;0,000000;0,531403;
5;;;;;1,000000;0,811351;0,548223;0,166138;0,119538;0,140420;0,120924;0,121602;0,811351;0,146667;0,158702;0,124632;0,128461;0,158295;0,138296;0,130397;0,152934;0,000000;0,167435;0,134003;0,134323;0,134638;0,000000;0,000000;0,000000;0,157888;0,147085;0,000000;0,737253;0,679123;0,142593;0,142759;0,163995;0,143092;0,143257;0,000000;0,557985;0,195185;0,000000;0,142616;0,142806;0,142993;0,557985;0,000000;0,000000;0,291718;0,208125;0,168741;0,168907;0,233015;0,000000;0,000000;0,000000;0,165175;0,000000;0,478927;
6;;;;;;1,000000;0,630843;0,192597;0,145996;0,166879;0,147383;0,148061;1,000000;0,173125;0,185161;0,151090;0,154920;0,184754;0,164755;0,156856;0,179392;0,000000;0,193894;0,160462;0,160782;0,161096;0,000000;0,000000;0,000000;0,184347;0,173544;0,000000;0,524484;0,467813;0,169051;0,169218;0,190453;0,169550;0,169716;0,000000;0,584444;0,221644;0,000000;0,169075;0,169264;0,169452;0,584444;0,000000;0,000000;0,318177;0,234584;0,195199;0,195365;0,259474;0,000000;0,000000;0,000000;0,191633;0,000000;0,561547;
7;;;;;;;1,000000;0,236080;0,189479;0,210362;0,190865;0,191544;0,744315;0,216608;0,228644;0,194573;0,198403;0,228236;0,208238;0,200338;0,222875;0,000000;0,237377;0,203945;0,204264;0,204579;0,000000;0,000000;0,000000;0,227830;0,217027;0,000000;0,679534;0,622863;0,212534;0,212701;0,233936;0,213033;0,213199;0,000000;0,627926;0,265127;0,000000;0,212558;0,212747;0,212935;0,627926;0,000000;0,000000;0,361660;0,278067;0,238682;0,238848;0,302957;0,000000;0,000000;0,000000;0,235116;0,000000;0,716597;
8;;;;;;;;1,000000;0,606062;0,475966;0,609746;0,611369;0,237454;0,346218;0,346888;0,290593;0,299624;0,406196;0,476016;0,442166;0,369557;0,000000;0,585091;0,657075;0,657795;0,658483;0,000000;0,000000;0,000000;0,329592;0,287412;0,063120;0,256718;0,205209;0,359934;0,360192;0,380530;0,360708;0,360967;0,000000;0,608153;0,447970;0,000000;0,326664;0,326923;0,327181;0,608153;0,000000;0,000000;0,341887;0,378645;0,384287;0,384417;0,442054;0,000000;0,000000;0,000000;0,374973;0,000000;0,250225;
9;;;;;;;;;1,000000;0,575163;0,777006;0,779793;0,190854;0,150235;0,418826;0,128200;0,132029;0,329227;0,353587;0,333236;0,389417;0,000000;0,429367;0,344603;0,345013;0,345424;0,000000;0,000000;0,000000;0,349452;0,307272;0,121318;0,210117;0,158608;0,146160;0,146327;0,338341;0,146660;0,146825;0,000000;0,561553;0,483114;0,000000;0,146184;0,146374;0,146561;0,561553;0,000000;0,000000;0,295286;0,211693;0,172309;0,172474;0,560764;0,000000;0,000000;0,000000;0,168742;0,000000;0,203624;
10;;;;;;;;;;1,000000;0,578179;0,579527;0,211736;0,340751;0,472833;0,363200;0,356917;0,723411;0,594069;0,630238;0,372653;0,533904;0,379061;0,294297;0,294707;0,295118;0,000000;0,000000;0,000000;0,643594;0,656287;0,170378;0,230999;0,179490;0,167043;0,167210;0,288035;0,167542;0,167707;0,174060;0,582435;0,653814;0,000000;0,321197;0,321457;0,321714;0,582435;0,227035;0,227189;0,316169;0,373179;0,378820;0,378950;0,510458;0,231988;0,232102;0,232219;0,369506;0,522107;0,224507;
11;;;;;;;;;;;1,000000;0,784807;0,192240;0,151621;0,420633;0,129586;0,133415;0,331677;0,356037;0,335686;0,391867;0,000000;0,431628;0,346864;0,347274;0,347686;0,000000;0,000000;0,000000;0,351902;0,309722;0,123883;0,211503;0,159994;0,147547;0,147713;0,340603;0,148046;0,148211;0,000000;0,562939;0,485375;0,000000;0,147570;0,147760;0,147947;0,562939;0,000000;0,000000;0,296672;0,213079;0,173695;0,173861;0,563025;0,000000;0,000000;0,000000;0,170129;0,000000;0,205011;
12;;;;;;;;;;;;1,000000;0,192918;0,152299;0,421658;0,130264;0,134094;0,332901;0,357262;0,336910;0,393092;0,000000;0,432777;0,348013;0,348423;0,348835;0,000000;0,000000;0,000000;0,353127;0,310947;0,125048;0,212181;0,160672;0,148225;0,148392;0,341752;0,148724;0,148889;0,000000;0,563617;0,486524;0,000000;0,148249;0,148438;0,148625;0,563617;0,000000;0,000000;0,297351;0,213757;0,174373;0,174539;0,564174;0,000000;0,000000;0,000000;0,170807;0,000000;0,205689;
13;;;;;;;;;;;;;1,000000;0,217982;0,230018;0,195948;0,199777;0,229611;0,209612;0,201713;0,224249;0,000000;0,238751;0,205319;0,205639;0,205953;0,000000;0,000000;0,000000;0,229204;0,218401;0,000000;0,637957;0,581286;0,213908;0,214075;0,235310;0,214407;0,214573;0,000000;0,629301;0,266501;0,000000;0,213932;0,214121;0,214309;0,629301;0,000000;0,000000;0,363034;0,279441;0,240056;0,240222;0,304331;0,000000;0,000000;0,000000;0,236490;0,000000;0,675019;
14;;;;;;;;;;;;;;1,000000;0,564054;0,668809;0,643485;0,381455;0,402774;0,383226;0,183630;0,000000;0,198132;0,164700;0,165020;0,165335;0,000000;0,000000;0,000000;0,188585;0,177782;0,335685;0,237246;0,185737;0,173289;0,173456;0,194691;0,173789;0,173954;0,393187;0,588682;0,527817;0,000000;0,664946;0,665090;0,665237;0,588682;0,000000;0,000000;0,322415;0,458493;0,464134;0,464264;0,263712;0,000000;0,000000;0,000000;1,000000;0,000000;0,230753;
15;;;;;;;;;;;;;;;1,000000;0,544515;0,624801;0,506383;0,588387;0,617292;0,371741;0,000000;0,391151;0,306387;0,306797;0,307209;0,000000;0,000000;0,000000;0,466709;0,456699;0,253463;0,249282;0,197773;0,185325;0,185492;0,300126;0,185824;0,185990;0,237986;0,600717;0,444898;0,000000;0,628158;0,628452;0,628739;0,600717;0,000000;0,000000;0,624652;0,527763;0,560354;0,560631;0,522548;0,000000;0,000000;0,000000;0,586576;0,000000;0,242789;
16;;;;;;;;;;;;;;;;1,000000;0,696766;0,325831;0,347149;0,327602;0,161595;0,000000;0,176097;0,142665;0,142985;0,143300;0,219625;0,000000;0,000000;0,268644;0,274596;0,335814;0,215211;0,163702;0,151254;0,151421;0,172657;0,151754;0,151919;0,400104;0,566647;0,472192;0,357339;0,622855;0,623000;0,623146;0,566647;0,476600;0,476600;0,300380;0,402868;0,408510;0,408640;0,241677;0,257422;0,257536;0,257652;0,691757;0,547541;0,208718;
17;;;;;;;;;;;;;;;;;1,000000;0,334861;0,356179;0,336632;0,165425;0,000000;0,179927;0,146495;0,146814;0,147129;0,203798;0,000000;0,000000;0,257304;0,263256;0,294014;0,219041;0,167532;0,155084;0,155251;0,176486;0,155583;0,155749;0,360257;0,570476;0,481223;0,341511;0,673874;0,674191;0,674502;0,570476;0,448009;0,448009;0,304210;0,411898;0,417540;0,417670;0,245507;0,243494;0,243609;0,243725;0,665237;0,533613;0,212548;
18;;;;;;;;;;;;;;;;;;1,000000;0,675925;0,723499;0,622652;0,000000;0,209760;0,176328;0,176648;0,176963;0,000000;0,000000;0,000000;0,594025;0,589800;0,343515;0,248874;0,197365;0,184918;0,185084;0,206320;0,185417;0,185582;0,000000;0,600310;0,483207;0,000000;0,361901;0,362161;0,362418;0,600310;0,000000;0,000000;0,334043;0,413883;0,419524;0,419654;0,275340;0,000000;0,000000;0,000000;0,410211;0,000000;0,242382;
19;;;;;;;;;;;;;;;;;;;1,000000;0,832192;0,432238;0,000000;0,189761;0,156329;0,156649;0,156964;0,000000;0,000000;0,000000;0,610777;0,600767;0,146443;0,228875;0,177366;0,164919;0,165085;0,186321;0,165418;0,165583;0,000000;0,580311;0,504525;0,000000;0,383220;0,383479;0,383736;0,580311;0,000000;0,000000;0,314044;0,435201;0,440842;0,440972;0,255342;0,000000;0,000000;0,000000;0,431529;0,000000;0,222383;
20;;;;;;;;;;;;;;;;;;;;1,000000;0,411887;0,000000;0,181862;0,148430;0,148750;0,149065;0,000000;0,000000;0,000000;0,577823;0,567814;0,137277;0,220976;0,169467;0,157020;0,157186;0,178422;0,157519;0,157684;0,000000;0,572412;0,484978;0,000000;0,363672;0,363931;0,364189;0,572412;0,000000;0,000000;0,306145;0,415654;0,421295;0,421425;0,247442;0,000000;0,000000;0,000000;0,411981;0,000000;0,214484;
21;;;;;;;;;;;;;;;;;;;;;1,000000;0,000000;0,204399;0,170967;0,171287;0,171601;0,000000;0,000000;0,000000;0,428103;0,711079;0,340764;0,243513;0,192004;0,179556;0,179723;0,200958;0,180055;0,180221;0,000000;0,594949;0,232149;0,000000;0,179580;0,179769;0,179957;0,594949;0,000000;0,000000;0,328682;0,245089;0,205704;0,205870;0,269979;0,000000;0,000000;0,000000;0,202138;0,000000;0,237020;
22;;;;;;;;;;;;;;;;;;;;;;1,000000;0,000000;0,000000;0,000000;0,000000;0,000000;0,000000;0,000000;0,571025;0,000000;0,000000;0,000000;0,000000;0,000000;0,000000;0,000000;0,000000;0,000000;0,000000;0,000000;0,000000;0,000000;0,000000;0,000000;0,000000;0,000000;0,000000;0,000000;0,000000;0,000000;0,000000;0,000000;0,000000;0,000000;0,000000;0,000000;0,000000;0,000000;0,000000;
23;;;;;;;;;;;;;;;;;;;;;;;1,000000;0,854983;0,855656;0,856309;0,000000;0,000000;0,000000;0,209354;0,198550;0,000000;0,258014;0,206505;0,194058;0,194225;0,452443;0,194557;0,194722;0,000000;0,609450;0,597215;0,000000;0,194081;0,194271;0,194458;0,609450;0,000000;0,000000;0,343184;0,259590;0,220206;0,220372;0,674866;0,000000;0,000000;0,000000;0,216640;0,000000;0,251522;
24;;;;;;;;;;;;;;;;;;;;;;;;1,000000;0,832219;0,832941;0,000000;0,000000;0,000000;0,175922;0,165119;0,000000;0,224582;0,173073;0,160626;0,160793;0,367679;0,161125;0,161290;0,000000;0,576018;0,512451;0,000000;0,160650;0,160839;0,161026;0,576018;0,000000;0,000000;0,309752;0,226158;0,186774;0,186940;0,590102;0,000000;0,000000;0,000000;0,183208;0,000000;0,218090;
25;;;;;;;;;;;;;;;;;;;;;;;;;1,000000;0,833642;0,000000;0,000000;0,000000;0,176241;0,165438;0,000000;0,224902;0,173393;0,160946;0,161112;0,368089;0,161445;0,161610;0,000000;0,576338;0,512861;0,000000;0,160969;0,161159;0,161346;0,576338;0,000000;0,000000;0,310071;0,226478;0,187094;0,187260;0,590512;0,000000;0,000000;0,000000;0,183528;0,000000;0,218410;
26;;;;;;;;;;;;;;;;;;;;;;;;;;1,000000;0,000000;0,000000;0,000000;0,176556;0,165753;0,000000;0,225217;0,173708;0,161260;0,161427;0,368500;0,161760;0,161925;0,000000;0,576653;0,513273;0,000000;0,161284;0,161474;0,161661;0,576653;0,000000;0,000000;0,310386;0,226793;0,187409;0,187574;0,590923;0,000000;0,000000;0,000000;0,183842;0,000000;0,218724;
27;;;;;;;;;;;;;;;;;;;;;;;;;;;1,000000;0,621245;0,621866;0,000000;0,000000;0,272976;0,000000;0,000000;0,000000;0,000000;0,000000;0,000000;0,000000;0,399786;0,000000;0,000000;0,467392;0,000000;0,000000;0,000000;0,000000;0,388174;0,388353;0,000000;0,000000;0,000000;0,000000;0,000000;0,000000;0,000000;0,000000;0,000000;0,000000;0,000000;
28;;;;;;;;;;;;;;;;;;;;;;;;;;;;1,000000;0,660360;0,000000;0,000000;0,000000;0,000000;0,000000;0,000000;0,000000;0,000000;0,000000;0,000000;0,443774;0,000000;0,000000;0,670181;0,000000;0,000000;0,000000;0,000000;0,000000;0,000000;0,000000;0,000000;0,000000;0,000000;0,000000;0,000000;0,000000;0,000000;0,000000;0,000000;0,000000;
29;;;;;;;;;;;;;;;;;;;;;;;;;;;;;1,000000;0,000000;0,000000;0,000000;0,000000;0,000000;0,000000;0,000000;0,000000;0,000000;0,000000;0,443774;0,000000;0,000000;0,670181;0,000000;0,000000;0,000000;0,000000;0,000000;0,000000;0,000000;0,000000;0,000000;0,000000;0,000000;0,000000;0,000000;0,000000;0,000000;0,000000;0,000000;
30;;;;;;;;;;;;;;;;;;;;;;;;;;;;;;1,000000;0,674592;0,323598;0,248468;0,196959;0,184511;0,184678;0,205913;0,185010;0,185176;0,199562;0,599904;0,237104;0,000000;0,184535;0,184724;0,184912;0,599904;0,252536;0,252690;0,333637;0,250044;0,210659;0,210825;0,274934;0,257489;0,257604;0,257720;0,207093;0,547608;0,241975;
31;;;;;;;;;;;;;;;;;;;;;;;;;;;;;;;1,000000;0,330423;0,237664;0,186155;0,173708;0,173875;0,195110;0,174207;0,174372;0,215978;0,589100;0,226300;0,000000;0,173732;0,173921;0,174108;0,589100;0,268952;0,269106;0,322834;0,239240;0,199856;0,200022;0,264131;0,273905;0,274020;0,274136;0,196290;0,564024;0,231172;
32;;;;;;;;;;;;;;;;;;;;;;;;;;;;;;;;1,000000;0,000000;0,000000;0,000000;0,000000;0,000000;0,000000;0,000000;0,549958;0,000000;0,000000;0,410690;0,162547;0,162834;0,163116;0,000000;0,575029;0,575285;0,000000;0,000000;0,000000;0,000000;0,000000;0,565218;0,565419;0,565616;0,376945;0,000000;0,000000;
33;;;;;;;;;;;;;;;;;;;;;;;;;;;;;;;;;1,000000;0,819783;0,233172;0,233338;0,254574;0,233671;0,233836;0,000000;0,648564;0,285764;0,000000;0,233195;0,233385;0,233572;0,648564;0,000000;0,000000;0,382298;0,298704;0,259320;0,259486;0,323595;0,000000;0,000000;0,000000;0,255754;0,000000;0,610239;
34;;;;;;;;;;;;;;;;;;;;;;;;;;;;;;;;;;1,000000;0,181663;0,181829;0,203065;0,182162;0,182327;0,000000;0,597055;0,234255;0,000000;0,181686;0,181876;0,182063;0,597055;0,000000;0,000000;0,330789;0,247195;0,207811;0,207977;0,272086;0,000000;0,000000;0,000000;0,204245;0,000000;0,553567;
35;;;;;;;;;;;;;;;;;;;;;;;;;;;;;;;;;;;1,000000;0,858171;0,782766;0,858960;0,859343;0,000000;0,584608;0,221808;0,000000;0,169239;0,169428;0,169616;0,584608;0,000000;0,000000;0,318341;0,234748;0,195363;0,195529;0,522510;0,000000;0,000000;0,000000;0,191797;0,000000;0,226679;
36;;;;;;;;;;;;;;;;;;;;;;;;;;;;;;;;;;;;1,000000;0,783064;0,859343;0,859719;0,000000;0,584774;0,221975;0,000000;0,169406;0,169595;0,169782;0,584774;0,000000;0,000000;0,318508;0,234915;0,195530;0,195696;0,522767;0,000000;0,000000;0,000000;0,191964;0,000000;0,226846;
37;;;;;;;;;;;;;;;;;;;;;;;;;;;;;;;;;;;;;1,000000;0,783643;0,783924;0,000000;0,606010;0,506190;0,000000;0,190641;0,190830;0,191018;0,606010;0,000000;0,000000;0,339743;0,256150;0,216765;0,216931;0,583840;0,000000;0,000000;0,000000;0,213199;0,000000;0,248081;
38;;;;;;;;;;;;;;;;;;;;;;;;;;;;;;;;;;;;;;1,000000;0,860450;0,000000;0,585107;0,222307;0,000000;0,169738;0,169928;0,170115;0,585107;0,000000;0,000000;0,318840;0,235247;0,195862;0,196028;0,523284;0,000000;0,000000;0,000000;0,192296;0,000000;0,227178;
39;;;;;;;;;;;;;;;;;;;;;;;;;;;;;;;;;;;;;;;1,000000;0,000000;0,585272;0,222472;0,000000;0,169904;0,170093;0,170280;0,585272;0,000000;0,000000;0,319006;0,235412;0,196028;0,196194;0,523543;0,000000;0,000000;0,000000;0,192462;0,000000;0,227344;
40;;;;;;;;;;;;;;;;;;;;;;;;;;;;;;;;;;;;;;;;1,000000;0,000000;0,000000;0,453594;0,191547;0,191834;0,192116;0,000000;0,646198;0,646463;0,000000;0,000000;0,000000;0,000000;0,000000;0,361834;0,361948;0,362065;0,434447;0,651953;0,000000;
41;;;;;;;;;;;;;;;;;;;;;;;;;;;;;;;;;;;;;;;;;1,000000;0,637200;0,000000;0,584631;0,584821;0,585008;1,000000;0,000000;0,000000;0,733733;0,650140;0,610756;0,610922;0,675030;0,000000;0,000000;0,000000;0,607190;0,000000;0,642072;
42;;;;;;;;;;;;;;;;;;;;;;;;;;;;;;;;;;;;;;;;;;1,000000;0,000000;0,508263;0,508522;0,508780;0,637200;0,000000;0,000000;0,370934;0,560244;0,565886;0,566016;0,728612;0,000000;0,000000;0,000000;0,556572;0,000000;0,279272;
43;;;;;;;;;;;;;;;;;;;;;;;;;;;;;;;;;;;;;;;;;;;1,000000;0,000000;0,000000;0,000000;0,000000;0,525888;0,526066;0,000000;0,000000;0,000000;0,000000;0,000000;0,000000;0,000000;0,000000;0,000000;0,000000;0,000000;
44;;;;;;;;;;;;;;;;;;;;;;;;;;;;;;;;;;;;;;;;;;;;1,000000;0,838569;0,838905;0,584631;0,000000;0,000000;0,318365;0,438939;0,444580;0,444710;0,259662;0,000000;0,000000;0,000000;0,687894;0,000000;0,226703;
45;;;;;;;;;;;;;;;;;;;;;;;;;;;;;;;;;;;;;;;;;;;;;1,000000;0,839236;0,584821;0,000000;0,000000;0,318554;0,439198;0,444839;0,444970;0,259851;0,000000;0,000000;0,000000;0,688038;0,000000;0,226892;
46;;;;;;;;;;;;;;;;;;;;;;;;;;;;;;;;;;;;;;;;;;;;;;1,000000;0,585008;0,000000;0,000000;0,318742;0,439456;0,445097;0,445227;0,260039;0,000000;0,000000;0,000000;0,688185;0,000000;0,227080;
47;;;;;;;;;;;;;;;;;;;;;;;;;;;;;;;;;;;;;;;;;;;;;;;1,000000;0,000000;0,000000;0,733733;0,650140;0,610756;0,610922;0,675030;0,000000;0,000000;0,000000;0,607190;0,000000;0,642072;
48;;;;;;;;;;;;;;;;;;;;;;;;;;;;;;;;;;;;;;;;;;;;;;;;1,000000;0,753335;0,000000;0,000000;0,000000;0,000000;0,000000;0,414809;0,414923;0,415039;0,000000;0,704928;0,000000;
49;;;;;;;;;;;;;;;;;;;;;;;;;;;;;;;;;;;;;;;;;;;;;;;;;1,000000;0,000000;0,000000;0,000000;0,000000;0,000000;0,414963;0,415077;0,415193;0,000000;0,705082;0,000000;
50;;;;;;;;;;;;;;;;;;;;;;;;;;;;;;;;;;;;;;;;;;;;;;;;;;1,000000;0,383874;0,783466;0,783693;0,408764;0,000000;0,000000;0,000000;0,340923;0,000000;0,375805;
51;;;;;;;;;;;;;;;;;;;;;;;;;;;;;;;;;;;;;;;;;;;;;;;;;;;1,000000;0,764036;0,764302;0,325171;0,000000;0,000000;0,000000;0,487248;0,000000;0,292212;
52;;;;;;;;;;;;;;;;;;;;;;;;;;;;;;;;;;;;;;;;;;;;;;;;;;;;1,000000;0,795701;0,285786;0,000000;0,000000;0,000000;0,492889;0,000000;0,252827;
53;;;;;;;;;;;;;;;;;;;;;;;;;;;;;;;;;;;;;;;;;;;;;;;;;;;;;1,000000;0,285952;0,000000;0,000000;0,000000;0,493020;0,000000;0,252993;
54;;;;;;;;;;;;;;;;;;;;;;;;;;;;;;;;;;;;;;;;;;;;;;;;;;;;;;1,000000;0,000000;0,000000;0,000000;0,282220;0,000000;0,317102;
55;;;;;;;;;;;;;;;;;;;;;;;;;;;;;;;;;;;;;;;;;;;;;;;;;;;;;;;1,000000;0,802914;0,803215;0,000000;0,709881;0,000000;
56;;;;;;;;;;;;;;;;;;;;;;;;;;;;;;;;;;;;;;;;;;;;;;;;;;;;;;;;1,000000;0,803512;0,000000;0,709995;0,000000;
57;;;;;;;;;;;;;;;;;;;;;;;;;;;;;;;;;;;;;;;;;;;;;;;;;;;;;;;;;1,000000;0,000000;0,710111;0,000000;
58;;;;;;;;;;;;;;;;;;;;;;;;;;;;;;;;;;;;;;;;;;;;;;;;;;;;;;;;;;1,000000;0,000000;0,249261;
59;;;;;;;;;;;;;;;;;;;;;;;;;;;;;;;;;;;;;;;;;;;;;;;;;;;;;;;;;;;1,000000;0,000000;
60;;;;;;;;;;;;;;;;;;;;;;;;;;;;;;;;;;;;;;;;;;;;;;;;;;;;;;;;;;;;1,000000;
