# n = 134
# m = 0
# d_medio = 6.7
1 0.4
2 0.16
3 0.04
4 0.12
5 0.04
6 0.03
7 0.01
8 0.04
9 0.01
10 0.01
11 0.01
12 0.01
13 0.01
14 0
15 0.01
16 0.01
17 0.01
18 0
19 0
20 0
21 0.01
22 0
23 0.01
24 0.01
25 0
26 0
27 0
28 0.01
29 0
30 0.01
31 0
32 0.01
33 0
34 0
35 0
36 0
37 0
38 0
39 0
40 0
41 0
42 0.01
43 0
44 0
45 0
46 0
47 0
48 0
49 0
50 0
51 0
52 0
53 0
54 0.01
55 0
56 0
57 0
58 0
59 0
60 0
61 0
62 0
63 0
64 0
65 0
66 0
67 0
68 0
69 0
70 0
71 0
72 0
73 0
74 0
75 0
76 0
77 0
78 0
79 0
80 0
81 0
82 0
83 0
84 0
85 0
86 0
87 0
88 0
89 0
90 0
91 0
92 0
93 0
94 0.01
95 0
96 0
97 0
98 0
99 0
100 0
101 0
102 0
103 0
104 0
105 0
106 0
107 0
108 0
109 0
110 0
111 0
112 0
113 0
114 0
115 0
116 0
117 0
118 0
119 0
120 0
121 0
122 0
123 0
124 0
125 0
126 0
127 0
128 0
129 0.01