# n = 40
# m = 0
# d_medio = 3.4
1 0.57
2 0.05
3 0.1
4 0.05
5 0.03
6 0.05
7 0.07
8 0
9 0.03
10 0
11 0.03
12 0
13 0
14 0
15 0
16 0
17 0
18 0
19 0
20 0
21 0
22 0
23 0
24 0
25 0
26 0
27 0
28 0
29 0
30 0
31 0.03