______________________________
5flPOXoAAAAJ.matriz - 33
2.982926218815778
Teve: 1 Exemplo: 3 ma arbelo
............................................................
2.1668910487218564
Teve: 1 Exemplo: 4 r degenhardt
______________________________
______________________________
c5VbqrcAAAAJ.matriz - 49
5.746803122479717
Teve: 1 Exemplo: 6 rd gomes
............................................................
3.8377676219673127
Teve: 1 Exemplo: 3 ps sausen
______________________________
______________________________
dzqYqagAAAAJ.matriz - 54
7.0
Teve: 1 Exemplo: 5 fb abdalla
............................................................
4.61350054977293
Teve: 1 Exemplo: 2 l sodre jr
______________________________
______________________________
E6BJDHMAAAAJ.matriz - 61
12.072466979840295
Teve: 1 Exemplo: 3 t rivinius
............................................................
8.41038433438064
Teve: 1 Exemplo: 2 je bjorkman
______________________________
______________________________
FBxMfWoAAAAJ.matriz - 67
1.39307124753237
Teve: 2 Exemplo: 3 rc de oliveira
............................................................
1.149657577762438
Teve: 1 Exemplo: 2 lfr da costa carmo
______________________________
______________________________
FTK7ytcAAAAJ.matriz - 78
0.7686217868402407
Teve: 2 Exemplo: 3 as vivacqua
............................................................
0.6688881977971441
Teve: 18 Exemplo: 2 n van dyke
______________________________
______________________________
hn4LDmkAAAAJ.matriz - 193
2.57438736588953
Teve: 1 Exemplo: 102 arc rocha
............................................................
2.067314492203915
Teve: 1 Exemplo: 4 gh travassos
______________________________
______________________________
NAyozE0AAAAJ.matriz - 58
8.751479639889808
Teve: 1 Exemplo: 29 n ziviani
............................................................
5.8655143993939305
Teve: 1 Exemplo: 16 ahf laender
______________________________
______________________________
qN-wg74AAAAJ.matriz - 183
10.164341860741782
Teve: 1 Exemplo: 64 n sanchez-pi
............................................................
7.722198016684404
Teve: 1 Exemplo: 45 in ferraz
______________________________
______________________________
R2gGcVYAAAAJ.matriz - 82
20.0705257976266
Teve: 1 Exemplo: 10 s miyano
............................................................
13.256740275616924
Teve: 1 Exemplo: 2 jr sato
______________________________
______________________________
w-tKJOwAAAAJ.matriz - 164
4.069810629950871
Teve: 1 Exemplo: 18 t ludermir
............................................................
2.9465019769282783
Teve: 1 Exemplo: 3 tb ludermir
______________________________
