# n = 60
# m = 0
# d_medio = 3.1
1 0.57
2 0.17
3 0.02
4 0.07
5 0.05
6 0.05
7 0.02
8 0
9 0
10 0
11 0.02
12 0.02
13 0
14 0.02
15 0
16 0
17 0
18 0
19 0
20 0
21 0
22 0
23 0
24 0
25 0
26 0
27 0
28 0
29 0
30 0
31 0
32 0
33 0
34 0.02