# n = 53
# m = 0
# d_medio = 2.3
1 0.66
2 0.17
3 0.06
4 0.02
5 0.06
6 0
7 0
8 0
9 0.02
10 0
11 0
12 0
13 0
14 0
15 0
16 0
17 0
18 0
19 0
20 0
21 0
22 0
23 0
24 0
25 0
26 0
27 0
28 0
29 0
30 0
31 0
32 0.02