# n = 85
# m = 0
# d_medio = 2.4
1 0.61
2 0.14
3 0.15
4 0.04
5 0
6 0.01
7 0
8 0.01
9 0.01
10 0
11 0.01
12 0
13 0
14 0
15 0
16 0
17 0
18 0
19 0
20 0
21 0
22 0
23 0
24 0
25 0
26 0
27 0
28 0
29 0
30 0
31 0
32 0
33 0
34 0
35 0
36 0
37 0
38 0
39 0
40 0
41 0
42 0
43 0
44 0
45 0.01