# n = 113
# m = 0
# d_medio = 2.8
1 0.58
2 0.16
3 0.07
4 0.02
5 0.04
6 0.05
7 0.02
8 0
9 0.01
10 0.01
11 0
12 0.02
13 0
14 0
15 0
16 0
17 0
18 0.01
19 0
20 0
21 0
22 0
23 0
24 0
25 0
26 0
27 0
28 0
29 0
30 0
31 0
32 0
33 0
34 0
35 0
36 0
37 0
38 0
39 0
40 0
41 0.01