;1; 2; 3; 4; 5; 6; 7; 8; 9; 10; 11; 12; 13; 14; 15; 16; 17; 18; 19; 20; 21; 22; 23; 24; 25; 26; 27; 28; 29; 30; 31; 32; 33; 34; 35; 36; 37; 38; 39; 40; 41; 42; 43; 44; 45; 46; 47; 48; 49; 50; 51; 52; 53; 54; 55; 56; 57; 58; 59; 60; 61; 62; 63; 64; 65; 66; 67; 68; 69; 70; 71; 72; 73; 74; 75; 76; 77; 78; 79; 80; 81; 82; 83; 84; 85; 86; 87; 88; 89; 90; 91; 92; 93; 94; 95; 96; 97; 98; 99
1;1,000000;0,500000;0,500000;0,304769;0,304769;0,259592;0,261177;0,388102;0,304769;0,304769;0,304769;0,554769;0,304769;0,304769;0,304769;0,304769;0,554769;0,304769;0,272056;0,221435;0,221435;0,175225;0,157085;0,179769;0,304769;0,554769;0,221435;0,221435;0,221435;0,554769;0,554769;0,221435;0,183943;0,179769;0,179769;0,145076;0,221435;0,000000;0,000000;0,304769;0,221435;0,244681;0,554769;0,388102;0,221435;0,221435;0,179769;0,179769;0,179769;0,179769;0,154769;0,154769;0,154769;0,000000;0,000000;0,179212;0,554769;0,304769;0,554769;0,000000;0,000000;0,000000;0,000000;0,000000;0,304769;0,304769;0,221435;0,221435;0,221435;0,000000;0,000000;0,000000;0,000000;0,221435;0,179769;0,179769;0,179769;0,179769;0,304769;0,304769;0,554769;0,304769;0,304769;0,304769;0,554769;0,554769;0,000000;0,000000;0,000000;0,221435;0,221435;0,221435;0,221435;0,138102;0,138102;0,138102;0,304769;0,304769;0,304769;
2;;1,000000;0,500000;0,304769;0,304769;0,259592;0,261177;0,388102;0,304769;0,304769;0,304769;0,554769;0,304769;0,304769;0,304769;0,304769;0,554769;0,304769;0,272056;0,221435;0,221435;0,175225;0,157085;0,179769;0,304769;0,554769;0,221435;0,221435;0,221435;0,554769;0,554769;0,221435;0,183943;0,179769;0,179769;0,145076;0,221435;0,000000;0,000000;0,304769;0,221435;0,244681;0,554769;0,388102;0,221435;0,221435;0,179769;0,179769;0,179769;0,179769;0,154769;0,154769;0,154769;0,000000;0,000000;0,179212;0,554769;0,304769;0,554769;0,000000;0,000000;0,000000;0,000000;0,000000;0,304769;0,304769;0,221435;0,221435;0,221435;0,000000;0,000000;0,000000;0,000000;0,221435;0,179769;0,179769;0,179769;0,179769;0,304769;0,304769;0,554769;0,304769;0,304769;0,304769;0,554769;0,554769;0,000000;0,000000;0,000000;0,221435;0,221435;0,221435;0,221435;0,138102;0,138102;0,138102;0,304769;0,304769;0,304769;
3;;;1,000000;0,000000;0,000000;0,519185;0,000000;0,000000;0,000000;0,000000;0,000000;0,000000;0,000000;0,000000;0,000000;0,000000;0,000000;0,000000;0,000000;0,000000;0,000000;0,000000;0,000000;0,000000;0,000000;0,000000;0,000000;0,000000;0,000000;0,000000;0,000000;0,000000;0,000000;0,000000;0,000000;0,000000;0,000000;0,000000;0,000000;0,000000;0,000000;0,000000;0,000000;0,000000;0,000000;0,000000;0,000000;0,000000;0,000000;0,000000;0,000000;0,000000;0,000000;0,000000;0,000000;0,000000;0,000000;0,000000;0,000000;0,000000;0,000000;0,000000;0,000000;0,000000;0,000000;0,000000;0,000000;0,000000;0,000000;0,000000;0,000000;0,000000;0,000000;0,000000;0,000000;0,000000;0,000000;0,000000;0,000000;0,000000;0,000000;0,000000;0,000000;0,000000;0,000000;0,000000;0,000000;0,000000;0,000000;0,000000;0,000000;0,000000;0,000000;0,000000;0,000000;0,000000;0,000000;0,000000;0,000000;
4;;;;1,000000;0,500000;0,268775;0,456408;0,583333;0,500000;0,500000;0,500000;0,750000;0,500000;0,500000;0,500000;0,500000;0,750000;0,500000;0,467287;0,416667;0,416667;0,370456;0,352316;0,375000;0,500000;0,750000;0,416667;0,416667;0,416667;0,750000;0,750000;0,416667;0,379175;0,375000;0,375000;0,340307;0,416667;0,000000;0,000000;0,500000;0,416667;0,439912;0,750000;0,583333;0,416667;0,416667;0,375000;0,375000;0,375000;0,375000;0,350000;0,350000;0,350000;0,000000;0,000000;0,374444;0,750000;0,500000;0,750000;0,000000;0,000000;0,000000;0,000000;0,000000;0,500000;0,500000;0,416667;0,416667;0,416667;0,000000;0,000000;0,000000;0,000000;0,416667;0,375000;0,375000;0,375000;0,375000;0,500000;0,500000;0,750000;0,500000;0,500000;0,500000;0,750000;0,750000;0,000000;0,000000;0,000000;0,416667;0,416667;0,416667;0,416667;0,333333;0,333333;0,333333;0,500000;0,500000;0,500000;
5;;;;;1,000000;0,268775;0,456408;0,583333;0,500000;0,500000;0,500000;0,750000;0,500000;0,500000;0,500000;0,500000;0,750000;0,500000;0,467287;0,416667;0,416667;0,370456;0,352316;0,375000;0,500000;0,750000;0,416667;0,416667;0,416667;0,750000;0,750000;0,416667;0,379175;0,375000;0,375000;0,340307;0,416667;0,000000;0,000000;0,500000;0,416667;0,439912;0,750000;0,583333;0,416667;0,416667;0,375000;0,375000;0,375000;0,375000;0,350000;0,350000;0,350000;0,000000;0,000000;0,374444;0,750000;0,500000;0,750000;0,000000;0,000000;0,000000;0,000000;0,000000;0,500000;0,500000;0,416667;0,416667;0,416667;0,000000;0,000000;0,000000;0,000000;0,416667;0,375000;0,375000;0,375000;0,375000;0,500000;0,500000;0,750000;0,500000;0,500000;0,500000;0,750000;0,750000;0,000000;0,000000;0,000000;0,416667;0,416667;0,416667;0,416667;0,333333;0,333333;0,333333;0,500000;0,500000;0,500000;
6;;;;;;1,000000;0,532752;0,242375;0,353005;0,268603;0,268603;0,000000;0,353005;0,353005;0,268246;0,268246;0,000000;0,353005;0,444763;0,363332;0,363332;0,509264;0,525165;0,493812;0,353005;0,000000;0,369798;0,369798;0,369798;0,000000;0,000000;0,446601;0,494624;0,498302;0,498512;0,423539;0,445545;0,000000;0,000000;0,353005;0,449679;0,400820;0,000000;0,247818;0,456751;0,456751;0,498302;0,485151;0,485151;0,485151;0,516683;0,516683;0,516683;0,353005;0,353005;0,237746;0,000000;0,353005;0,000000;0,113771;0,113771;0,113771;0,113771;0,113771;0,284205;0,268358;0,364067;0,364067;0,364067;0,000000;0,000000;0,259443;0,259443;0,443872;0,414606;0,414606;0,414606;0,414606;0,268351;0,268351;0,000000;0,268153;0,268153;0,268622;0,000000;0,000000;0,000000;0,000000;0,000000;0,364584;0,364042;0,364042;0,364042;0,542411;0,542411;0,542411;0,269238;0,353005;0,268358;
7;;;;;;;1,000000;0,539741;0,456408;0,456408;0,456408;0,706408;0,456408;0,456408;0,456408;0,456408;0,706408;0,456408;0,423695;0,556267;0,556267;0,628604;0,644888;0,608907;0,456408;0,706408;0,373075;0,373075;0,373075;0,706408;0,706408;0,557706;0,610289;0,617534;0,617625;0,530321;0,555731;0,000000;0,000000;0,456408;0,553190;0,532319;0,706408;0,539741;0,546519;0,546519;0,617534;0,593850;0,593850;0,593850;0,630129;0,630129;0,630129;0,281807;0,281807;0,330851;0,706408;0,456408;0,706408;0,124297;0,124297;0,124297;0,124297;0,124297;0,456408;0,456408;0,373075;0,373075;0,373075;0,000000;0,000000;0,267034;0,267034;0,553221;0,331408;0,331408;0,331408;0,331408;0,456408;0,456408;0,706408;0,456408;0,456408;0,456408;0,706408;0,706408;0,000000;0,000000;0,000000;0,721324;0,373075;0,373075;0,373075;0,662442;0,662442;0,662442;0,719857;0,456408;0,456408;
8;;;;;;;;1,000000;1,000000;0,583333;0,583333;0,833333;1,000000;1,000000;0,583333;0,583333;0,833333;1,000000;0,874208;0,500000;0,500000;0,740912;0,704632;0,750000;1,000000;0,833333;0,500000;0,500000;0,500000;0,833333;0,833333;0,833333;0,758349;0,750000;0,750000;0,683782;0,833333;0,000000;0,000000;1,000000;0,833333;0,811147;0,833333;0,666667;0,752671;0,752671;0,750000;0,750000;0,750000;0,750000;0,700000;0,700000;0,700000;0,389371;0,389371;0,756900;0,833333;1,000000;0,833333;0,000000;0,000000;0,000000;0,000000;0,000000;0,583333;0,583333;0,500000;0,500000;0,500000;0,000000;0,000000;0,000000;0,000000;0,833333;0,458333;0,458333;0,458333;0,458333;0,583333;0,583333;0,833333;0,583333;0,583333;0,583333;0,833333;0,833333;0,000000;0,000000;0,000000;0,500000;0,500000;0,500000;0,500000;0,666667;0,666667;0,666667;0,583333;1,000000;0,583333;
9;;;;;;;;;1,000000;0,500000;0,500000;0,750000;1,000000;1,000000;0,500000;0,500000;0,750000;1,000000;0,874208;0,416667;0,416667;0,740912;0,704632;0,750000;1,000000;0,750000;0,416667;0,416667;0,416667;0,750000;0,750000;0,833333;0,758349;0,750000;0,750000;0,683782;0,833333;0,000000;0,000000;1,000000;0,833333;0,811147;0,750000;0,583333;0,752671;0,752671;0,750000;0,750000;0,750000;0,750000;0,700000;0,700000;0,700000;0,500000;0,500000;0,756900;0,750000;1,000000;0,750000;0,000000;0,000000;0,000000;0,000000;0,000000;0,500000;0,500000;0,416667;0,416667;0,416667;0,000000;0,000000;0,000000;0,000000;0,833333;0,375000;0,375000;0,375000;0,375000;0,500000;0,500000;0,750000;0,500000;0,500000;0,500000;0,750000;0,750000;0,000000;0,000000;0,000000;0,416667;0,416667;0,416667;0,416667;0,666667;0,666667;0,666667;0,500000;1,000000;0,500000;
10;;;;;;;;;;1,000000;0,500000;0,750000;0,500000;0,500000;0,500000;0,500000;0,750000;0,500000;0,467287;0,416667;0,416667;0,370456;0,352316;0,375000;0,500000;0,750000;0,416667;0,416667;0,416667;0,750000;0,750000;0,416667;0,379175;0,375000;0,375000;0,340307;0,416667;0,000000;0,000000;0,500000;0,416667;0,439912;0,750000;0,583333;0,416667;0,416667;0,375000;0,375000;0,375000;0,375000;0,350000;0,350000;0,350000;0,000000;0,000000;0,374444;0,750000;0,500000;0,750000;0,000000;0,000000;0,000000;0,000000;0,000000;0,500000;0,500000;0,416667;0,416667;0,416667;0,000000;0,000000;0,000000;0,000000;0,416667;0,375000;0,375000;0,375000;0,375000;0,500000;0,500000;0,750000;0,500000;0,500000;0,500000;0,750000;0,750000;0,000000;0,000000;0,000000;0,416667;0,416667;0,416667;0,416667;0,333333;0,333333;0,333333;0,500000;0,500000;0,500000;
11;;;;;;;;;;;1,000000;0,750000;0,500000;0,500000;0,500000;0,500000;0,750000;0,500000;0,467287;0,416667;0,416667;0,370456;0,352316;0,375000;0,500000;0,750000;0,416667;0,416667;0,416667;0,750000;0,750000;0,416667;0,379175;0,375000;0,375000;0,340307;0,416667;0,000000;0,000000;0,500000;0,416667;0,439912;0,750000;0,583333;0,416667;0,416667;0,375000;0,375000;0,375000;0,375000;0,350000;0,350000;0,350000;0,000000;0,000000;0,374444;0,750000;0,500000;0,750000;0,000000;0,000000;0,000000;0,000000;0,000000;0,500000;0,500000;0,416667;0,416667;0,416667;0,000000;0,000000;0,000000;0,000000;0,416667;0,375000;0,375000;0,375000;0,375000;0,500000;0,500000;0,750000;0,500000;0,500000;0,500000;0,750000;0,750000;0,000000;0,000000;0,000000;0,416667;0,416667;0,416667;0,416667;0,333333;0,333333;0,333333;0,500000;0,500000;0,500000;
12;;;;;;;;;;;;1,000000;0,750000;0,750000;0,750000;0,750000;1,000000;0,750000;0,717287;0,666667;0,666667;0,620456;0,602316;0,625000;0,750000;1,000000;0,666667;0,666667;0,666667;1,000000;1,000000;0,666667;0,629175;0,625000;0,625000;0,590307;0,666667;0,000000;0,000000;0,750000;0,666667;0,689912;1,000000;0,833333;0,666667;0,666667;0,625000;0,625000;0,625000;0,625000;0,600000;0,600000;0,600000;0,000000;0,000000;0,624444;1,000000;0,750000;1,000000;0,000000;0,000000;0,000000;0,000000;0,000000;0,750000;0,750000;0,666667;0,666667;0,666667;0,000000;0,000000;0,000000;0,000000;0,666667;0,625000;0,625000;0,625000;0,625000;0,750000;0,750000;1,000000;0,750000;0,750000;0,750000;1,000000;1,000000;0,000000;0,000000;0,000000;0,666667;0,666667;0,666667;0,666667;0,583333;0,583333;0,583333;0,750000;0,750000;0,750000;
13;;;;;;;;;;;;;1,000000;1,000000;0,500000;0,500000;0,750000;1,000000;0,874208;0,416667;0,416667;0,740912;0,704632;0,750000;1,000000;0,750000;0,416667;0,416667;0,416667;0,750000;0,750000;0,833333;0,758349;0,750000;0,750000;0,683782;0,833333;0,000000;0,000000;1,000000;0,833333;0,811147;0,750000;0,583333;0,752671;0,752671;0,750000;0,750000;0,750000;0,750000;0,700000;0,700000;0,700000;0,500000;0,500000;0,756900;0,750000;1,000000;0,750000;0,000000;0,000000;0,000000;0,000000;0,000000;0,500000;0,500000;0,416667;0,416667;0,416667;0,000000;0,000000;0,000000;0,000000;0,833333;0,375000;0,375000;0,375000;0,375000;0,500000;0,500000;0,750000;0,500000;0,500000;0,500000;0,750000;0,750000;0,000000;0,000000;0,000000;0,416667;0,416667;0,416667;0,416667;0,666667;0,666667;0,666667;0,500000;1,000000;0,500000;
14;;;;;;;;;;;;;;1,000000;0,500000;0,500000;0,750000;1,000000;0,874208;0,416667;0,416667;0,740912;0,704632;0,750000;1,000000;0,750000;0,416667;0,416667;0,416667;0,750000;0,750000;0,833333;0,758349;0,750000;0,750000;0,683782;0,833333;0,000000;0,000000;1,000000;0,833333;0,811147;0,750000;0,583333;0,752671;0,752671;0,750000;0,750000;0,750000;0,750000;0,700000;0,700000;0,700000;0,500000;0,500000;0,756900;0,750000;1,000000;0,750000;0,000000;0,000000;0,000000;0,000000;0,000000;0,500000;0,500000;0,416667;0,416667;0,416667;0,000000;0,000000;0,000000;0,000000;0,833333;0,375000;0,375000;0,375000;0,375000;0,500000;0,500000;0,750000;0,500000;0,500000;0,500000;0,750000;0,750000;0,000000;0,000000;0,000000;0,416667;0,416667;0,416667;0,416667;0,666667;0,666667;0,666667;0,500000;1,000000;0,500000;
15;;;;;;;;;;;;;;;1,000000;0,500000;0,750000;0,500000;0,467287;0,416667;0,416667;0,370456;0,352316;0,375000;0,500000;0,750000;0,416667;0,416667;0,416667;0,750000;0,750000;0,416667;0,379175;0,375000;0,375000;0,340307;0,416667;0,000000;0,000000;0,500000;0,416667;0,439912;0,750000;0,583333;0,416667;0,416667;0,375000;0,375000;0,375000;0,375000;0,350000;0,350000;0,350000;0,000000;0,000000;0,374444;0,750000;0,500000;0,750000;0,000000;0,000000;0,000000;0,000000;0,000000;0,500000;0,500000;0,416667;0,416667;0,416667;0,000000;0,000000;0,000000;0,000000;0,416667;0,375000;0,375000;0,375000;0,375000;0,500000;0,500000;0,750000;0,500000;0,500000;0,500000;0,750000;0,750000;0,000000;0,000000;0,000000;0,416667;0,416667;0,416667;0,416667;0,333333;0,333333;0,333333;0,500000;0,500000;0,500000;
16;;;;;;;;;;;;;;;;1,000000;0,750000;0,500000;0,467287;0,416667;0,416667;0,370456;0,352316;0,375000;0,500000;0,750000;0,416667;0,416667;0,416667;0,750000;0,750000;0,416667;0,379175;0,375000;0,375000;0,340307;0,416667;0,000000;0,000000;0,500000;0,416667;0,439912;0,750000;0,583333;0,416667;0,416667;0,375000;0,375000;0,375000;0,375000;0,350000;0,350000;0,350000;0,000000;0,000000;0,374444;0,750000;0,500000;0,750000;0,000000;0,000000;0,000000;0,000000;0,000000;0,500000;0,500000;0,416667;0,416667;0,416667;0,000000;0,000000;0,000000;0,000000;0,416667;0,375000;0,375000;0,375000;0,375000;0,500000;0,500000;0,750000;0,500000;0,500000;0,500000;0,750000;0,750000;0,000000;0,000000;0,000000;0,416667;0,416667;0,416667;0,416667;0,333333;0,333333;0,333333;0,500000;0,500000;0,500000;
17;;;;;;;;;;;;;;;;;1,000000;0,750000;0,717287;0,666667;0,666667;0,620456;0,602316;0,625000;0,750000;1,000000;0,666667;0,666667;0,666667;1,000000;1,000000;0,666667;0,629175;0,625000;0,625000;0,590307;0,666667;0,000000;0,000000;0,750000;0,666667;0,689912;1,000000;0,833333;0,666667;0,666667;0,625000;0,625000;0,625000;0,625000;0,600000;0,600000;0,600000;0,000000;0,000000;0,624444;1,000000;0,750000;1,000000;0,000000;0,000000;0,000000;0,000000;0,000000;0,750000;0,750000;0,666667;0,666667;0,666667;0,000000;0,000000;0,000000;0,000000;0,666667;0,625000;0,625000;0,625000;0,625000;0,750000;0,750000;1,000000;0,750000;0,750000;0,750000;1,000000;1,000000;0,000000;0,000000;0,000000;0,666667;0,666667;0,666667;0,666667;0,583333;0,583333;0,583333;0,750000;0,750000;0,750000;
18;;;;;;;;;;;;;;;;;;1,000000;0,874208;0,416667;0,416667;0,740912;0,704632;0,750000;1,000000;0,750000;0,416667;0,416667;0,416667;0,750000;0,750000;0,833333;0,758349;0,750000;0,750000;0,683782;0,833333;0,000000;0,000000;1,000000;0,833333;0,811147;0,750000;0,583333;0,752671;0,752671;0,750000;0,750000;0,750000;0,750000;0,700000;0,700000;0,700000;0,500000;0,500000;0,756900;0,750000;1,000000;0,750000;0,000000;0,000000;0,000000;0,000000;0,000000;0,500000;0,500000;0,416667;0,416667;0,416667;0,000000;0,000000;0,000000;0,000000;0,833333;0,375000;0,375000;0,375000;0,375000;0,500000;0,500000;0,750000;0,500000;0,500000;0,500000;0,750000;0,750000;0,000000;0,000000;0,000000;0,416667;0,416667;0,416667;0,416667;0,666667;0,666667;0,666667;0,500000;1,000000;0,500000;
19;;;;;;;;;;;;;;;;;;;1,000000;0,619025;0,619025;0,615121;0,578840;0,624208;0,874208;0,717287;0,383954;0,383954;0,383954;0,717287;0,717287;0,707542;0,632557;0,624208;0,624208;0,557990;0,707542;0,000000;0,000000;0,874208;0,707542;0,685356;0,717287;0,550620;0,626879;0,626879;0,624208;0,624208;0,624208;0,624208;0,574208;0,574208;0,574208;0,390897;0,390897;0,631109;0,717287;0,874208;0,717287;0,000000;0,000000;0,000000;0,000000;0,000000;0,467287;0,467287;0,383954;0,383954;0,383954;0,000000;0,000000;0,000000;0,000000;0,707542;0,342287;0,342287;0,342287;0,342287;0,467287;0,467287;0,717287;0,467287;0,467287;0,467287;0,717287;0,717287;0,000000;0,000000;0,000000;0,383954;0,383954;0,383954;0,383954;0,540875;0,540875;0,540875;0,467287;0,874208;0,467287;
20;;;;;;;;;;;;;;;;;;;;1,000000;0,666667;0,287123;0,268983;0,291667;0,416667;0,666667;0,333333;0,333333;0,333333;0,666667;0,666667;0,333333;0,295841;0,291667;0,291667;0,256973;0,333333;0,000000;0,000000;0,416667;0,333333;0,356579;0,666667;0,500000;0,333333;0,333333;0,291667;0,291667;0,291667;0,291667;0,266667;0,266667;0,266667;0,000000;0,000000;0,291110;0,666667;0,416667;0,666667;0,000000;0,000000;0,000000;0,000000;0,000000;0,416667;0,416667;0,333333;0,333333;0,333333;0,000000;0,000000;0,000000;0,000000;0,333333;0,291667;0,291667;0,291667;0,291667;0,416667;0,416667;0,666667;0,416667;0,416667;0,416667;0,666667;0,666667;0,000000;0,000000;0,000000;0,333333;0,333333;0,333333;0,333333;0,250000;0,250000;0,250000;0,416667;0,416667;0,416667;
21;;;;;;;;;;;;;;;;;;;;;1,000000;0,287123;0,268983;0,291667;0,416667;0,666667;0,333333;0,333333;0,333333;0,666667;0,666667;0,333333;0,295841;0,291667;0,291667;0,256973;0,333333;0,000000;0,000000;0,416667;0,333333;0,356579;0,666667;0,500000;0,333333;0,333333;0,291667;0,291667;0,291667;0,291667;0,266667;0,266667;0,266667;0,000000;0,000000;0,291110;0,666667;0,416667;0,666667;0,000000;0,000000;0,000000;0,000000;0,000000;0,416667;0,416667;0,333333;0,333333;0,333333;0,000000;0,000000;0,000000;0,000000;0,333333;0,291667;0,291667;0,291667;0,291667;0,416667;0,416667;0,666667;0,416667;0,416667;0,416667;0,666667;0,666667;0,000000;0,000000;0,000000;0,333333;0,333333;0,333333;0,333333;0,250000;0,250000;0,250000;0,416667;0,416667;0,416667;
22;;;;;;;;;;;;;;;;;;;;;;1,000000;0,781431;0,688930;0,740912;0,620456;0,287123;0,287123;0,287123;0,620456;0,620456;0,574246;0,499261;0,490912;0,490912;0,424694;0,574246;0,000000;0,000000;0,740912;0,574246;0,552060;0,620456;0,453789;0,493583;0,493583;0,490912;0,490912;0,490912;0,490912;0,440912;0,440912;0,440912;0,370456;0,370456;0,497813;0,620456;0,740912;0,620456;0,000000;0,000000;0,000000;0,000000;0,000000;0,370456;0,370456;0,287123;0,287123;0,287123;0,000000;0,000000;0,000000;0,000000;0,574246;0,245456;0,245456;0,245456;0,245456;0,370456;0,370456;0,620456;0,370456;0,370456;0,370456;0,620456;0,620456;0,000000;0,000000;0,000000;0,287123;0,287123;0,287123;0,287123;0,799116;0,799116;0,799116;0,370456;0,740912;0,370456;
23;;;;;;;;;;;;;;;;;;;;;;;1,000000;0,681948;0,704632;0,602316;0,268983;0,268983;0,268983;0,602316;0,602316;0,537965;0,462981;0,454632;0,454632;0,388413;0,806948;0,000000;0,000000;0,704632;0,537965;0,515779;0,602316;0,435649;0,457303;0,457303;0,454632;0,454632;0,454632;0,454632;0,404632;0,404632;0,404632;0,352316;0,352316;0,461532;0,602316;0,704632;0,602316;0,000000;0,000000;0,000000;0,000000;0,000000;0,352316;0,352316;0,268983;0,268983;0,268983;0,000000;0,000000;0,000000;0,000000;0,537965;0,227316;0,227316;0,227316;0,227316;0,352316;0,352316;0,602316;0,352316;0,352316;0,352316;0,602316;0,602316;0,000000;0,000000;0,000000;0,268983;0,268983;0,268983;0,268983;0,815612;0,815612;0,815612;0,352316;0,704632;0,352316;
24;;;;;;;;;;;;;;;;;;;;;;;;1,000000;0,750000;0,625000;0,291667;0,291667;0,291667;0,625000;0,625000;0,583333;0,508349;0,500000;0,500000;0,433782;0,875000;0,000000;0,000000;0,750000;0,583333;0,561147;0,625000;0,458333;0,502671;0,502671;0,500000;0,500000;0,500000;0,500000;0,450000;0,450000;0,450000;0,375000;0,375000;0,506900;0,625000;0,750000;0,625000;0,000000;0,000000;0,000000;0,000000;0,000000;0,375000;0,375000;0,291667;0,291667;0,291667;0,000000;0,000000;0,000000;0,000000;0,583333;0,250000;0,250000;0,250000;0,250000;0,375000;0,375000;0,625000;0,375000;0,375000;0,375000;0,625000;0,625000;0,000000;0,000000;0,000000;0,291667;0,291667;0,291667;0,291667;0,833333;0,833333;0,833333;0,375000;0,750000;0,375000;
25;;;;;;;;;;;;;;;;;;;;;;;;;1,000000;0,750000;0,416667;0,416667;0,416667;0,750000;0,750000;0,833333;0,758349;0,750000;0,750000;0,683782;0,833333;0,000000;0,000000;1,000000;0,833333;0,811147;0,750000;0,583333;0,752671;0,752671;0,750000;0,750000;0,750000;0,750000;0,700000;0,700000;0,700000;0,500000;0,500000;0,756900;0,750000;1,000000;0,750000;0,000000;0,000000;0,000000;0,000000;0,000000;0,500000;0,500000;0,416667;0,416667;0,416667;0,000000;0,000000;0,000000;0,000000;0,833333;0,375000;0,375000;0,375000;0,375000;0,500000;0,500000;0,750000;0,500000;0,500000;0,500000;0,750000;0,750000;0,000000;0,000000;0,000000;0,416667;0,416667;0,416667;0,416667;0,666667;0,666667;0,666667;0,500000;1,000000;0,500000;
26;;;;;;;;;;;;;;;;;;;;;;;;;;1,000000;0,666667;0,666667;0,666667;1,000000;1,000000;0,666667;0,629175;0,625000;0,625000;0,590307;0,666667;0,000000;0,000000;0,750000;0,666667;0,689912;1,000000;0,833333;0,666667;0,666667;0,625000;0,625000;0,625000;0,625000;0,600000;0,600000;0,600000;0,000000;0,000000;0,624444;1,000000;0,750000;1,000000;0,000000;0,000000;0,000000;0,000000;0,000000;0,750000;0,750000;0,666667;0,666667;0,666667;0,000000;0,000000;0,000000;0,000000;0,666667;0,625000;0,625000;0,625000;0,625000;0,750000;0,750000;1,000000;0,750000;0,750000;0,750000;1,000000;1,000000;0,000000;0,000000;0,000000;0,666667;0,666667;0,666667;0,666667;0,583333;0,583333;0,583333;0,750000;0,750000;0,750000;
27;;;;;;;;;;;;;;;;;;;;;;;;;;;1,000000;0,666667;0,666667;0,666667;0,666667;0,333333;0,295841;0,291667;0,291667;0,256973;0,333333;0,000000;0,000000;0,416667;0,333333;0,356579;0,666667;0,500000;0,333333;0,333333;0,291667;0,291667;0,291667;0,291667;0,266667;0,266667;0,266667;0,000000;0,000000;0,291110;0,666667;0,416667;0,666667;0,000000;0,000000;0,000000;0,000000;0,000000;0,416667;0,416667;0,333333;0,333333;0,333333;0,000000;0,000000;0,000000;0,000000;0,333333;0,291667;0,291667;0,291667;0,291667;0,416667;0,416667;0,666667;0,416667;0,416667;0,416667;0,666667;0,666667;0,000000;0,000000;0,000000;0,333333;0,333333;0,333333;0,333333;0,250000;0,250000;0,250000;0,416667;0,416667;0,416667;
28;;;;;;;;;;;;;;;;;;;;;;;;;;;;1,000000;0,666667;0,666667;0,666667;0,333333;0,295841;0,291667;0,291667;0,256973;0,333333;0,000000;0,000000;0,416667;0,333333;0,356579;0,666667;0,500000;0,333333;0,333333;0,291667;0,291667;0,291667;0,291667;0,266667;0,266667;0,266667;0,000000;0,000000;0,291110;0,666667;0,416667;0,666667;0,000000;0,000000;0,000000;0,000000;0,000000;0,416667;0,416667;0,333333;0,333333;0,333333;0,000000;0,000000;0,000000;0,000000;0,333333;0,291667;0,291667;0,291667;0,291667;0,416667;0,416667;0,666667;0,416667;0,416667;0,416667;0,666667;0,666667;0,000000;0,000000;0,000000;0,333333;0,333333;0,333333;0,333333;0,250000;0,250000;0,250000;0,416667;0,416667;0,416667;
29;;;;;;;;;;;;;;;;;;;;;;;;;;;;;1,000000;0,666667;0,666667;0,333333;0,295841;0,291667;0,291667;0,256973;0,333333;0,000000;0,000000;0,416667;0,333333;0,356579;0,666667;0,500000;0,333333;0,333333;0,291667;0,291667;0,291667;0,291667;0,266667;0,266667;0,266667;0,000000;0,000000;0,291110;0,666667;0,416667;0,666667;0,000000;0,000000;0,000000;0,000000;0,000000;0,416667;0,416667;0,333333;0,333333;0,333333;0,000000;0,000000;0,000000;0,000000;0,333333;0,291667;0,291667;0,291667;0,291667;0,416667;0,416667;0,666667;0,416667;0,416667;0,416667;0,666667;0,666667;0,000000;0,000000;0,000000;0,333333;0,333333;0,333333;0,333333;0,250000;0,250000;0,250000;0,416667;0,416667;0,416667;
30;;;;;;;;;;;;;;;;;;;;;;;;;;;;;;1,000000;1,000000;0,666667;0,629175;0,625000;0,625000;0,590307;0,666667;0,000000;0,000000;0,750000;0,666667;0,689912;1,000000;0,833333;0,666667;0,666667;0,625000;0,625000;0,625000;0,625000;0,600000;0,600000;0,600000;0,000000;0,000000;0,624444;1,000000;0,750000;1,000000;0,000000;0,000000;0,000000;0,000000;0,000000;0,750000;0,750000;0,666667;0,666667;0,666667;0,000000;0,000000;0,000000;0,000000;0,666667;0,625000;0,625000;0,625000;0,625000;0,750000;0,750000;1,000000;0,750000;0,750000;0,750000;1,000000;1,000000;0,000000;0,000000;0,000000;0,666667;0,666667;0,666667;0,666667;0,583333;0,583333;0,583333;0,750000;0,750000;0,750000;
31;;;;;;;;;;;;;;;;;;;;;;;;;;;;;;;1,000000;0,666667;0,629175;0,625000;0,625000;0,590307;0,666667;0,000000;0,000000;0,750000;0,666667;0,689912;1,000000;0,833333;0,666667;0,666667;0,625000;0,625000;0,625000;0,625000;0,600000;0,600000;0,600000;0,000000;0,000000;0,624444;1,000000;0,750000;1,000000;0,000000;0,000000;0,000000;0,000000;0,000000;0,750000;0,750000;0,666667;0,666667;0,666667;0,000000;0,000000;0,000000;0,000000;0,666667;0,625000;0,625000;0,625000;0,625000;0,750000;0,750000;1,000000;0,750000;0,750000;0,750000;1,000000;1,000000;0,000000;0,000000;0,000000;0,666667;0,666667;0,666667;0,666667;0,583333;0,583333;0,583333;0,750000;0,750000;0,750000;
32;;;;;;;;;;;;;;;;;;;;;;;;;;;;;;;;1,000000;0,591682;0,583333;0,583333;0,517115;0,666667;0,000000;0,000000;0,833333;0,666667;0,644481;0,666667;0,500000;0,586004;0,586004;0,583333;0,583333;0,583333;0,583333;0,720290;0,720290;0,720290;0,416667;0,416667;0,590234;0,666667;0,833333;0,666667;0,000000;0,000000;0,000000;0,000000;0,000000;0,416667;0,416667;0,333333;0,333333;0,333333;0,000000;0,000000;0,000000;0,000000;0,666667;0,291667;0,291667;0,291667;0,291667;0,416667;0,416667;0,666667;0,416667;0,416667;0,416667;0,666667;0,666667;0,000000;0,000000;0,000000;0,333333;0,333333;0,333333;0,333333;0,500000;0,500000;0,500000;0,416667;0,833333;0,416667;
33;;;;;;;;;;;;;;;;;;;;;;;;;;;;;;;;;1,000000;0,508349;0,508349;0,442131;0,591682;0,000000;0,000000;0,758349;0,591682;0,569497;0,629175;0,462508;0,511020;0,511020;0,508349;0,508349;0,508349;0,508349;0,773373;0,773373;0,773373;0,379175;0,379175;0,515249;0,629175;0,758349;0,629175;0,000000;0,000000;0,000000;0,000000;0,000000;0,379175;0,379175;0,295841;0,295841;0,295841;0,000000;0,000000;0,000000;0,000000;0,837741;0,254175;0,254175;0,254175;0,254175;0,379175;0,379175;0,629175;0,379175;0,379175;0,379175;0,629175;0,629175;0,000000;0,000000;0,000000;0,295841;0,295841;0,295841;0,295841;0,425016;0,425016;0,425016;0,379175;0,758349;0,379175;
34;;;;;;;;;;;;;;;;;;;;;;;;;;;;;;;;;;1,000000;0,750000;0,656739;0,583333;0,000000;0,000000;0,750000;0,583333;0,561147;0,625000;0,458333;0,502671;0,502671;1,000000;0,500000;0,500000;0,500000;0,450000;0,450000;0,450000;0,375000;0,375000;0,506900;0,625000;0,750000;0,625000;0,225000;0,225000;0,225000;0,225000;0,225000;0,375000;0,375000;0,291667;0,291667;0,291667;0,000000;0,000000;0,000000;0,000000;0,583333;0,250000;0,250000;0,250000;0,250000;0,375000;0,375000;0,625000;0,375000;0,375000;0,375000;0,625000;0,625000;0,000000;0,000000;0,000000;0,291667;0,291667;0,291667;0,291667;0,416667;0,416667;0,416667;0,375000;0,750000;0,375000;
35;;;;;;;;;;;;;;;;;;;;;;;;;;;;;;;;;;;1,000000;0,656947;0,583333;0,000000;0,000000;0,750000;0,583333;0,561147;0,625000;0,458333;0,502671;0,502671;0,750000;0,500000;0,500000;0,500000;0,450000;0,450000;0,450000;0,375000;0,375000;0,506900;0,625000;0,750000;0,625000;0,225000;0,225000;0,225000;0,225000;0,225000;0,375000;0,375000;0,291667;0,291667;0,291667;0,000000;0,000000;0,000000;0,000000;0,583333;0,250000;0,250000;0,250000;0,250000;0,375000;0,375000;0,625000;0,375000;0,375000;0,375000;0,625000;0,625000;0,000000;0,000000;0,000000;0,291667;0,291667;0,291667;0,291667;0,416667;0,416667;0,416667;0,375000;0,750000;0,375000;
36;;;;;;;;;;;;;;;;;;;;;;;;;;;;;;;;;;;;1,000000;0,517115;0,000000;0,000000;0,683782;0,517115;0,494929;0,590307;0,423640;0,436452;0,436452;0,656739;0,433782;0,433782;0,433782;0,383782;0,383782;0,383782;0,344289;0,344289;0,440682;0,590307;0,683782;0,590307;0,669736;0,669736;0,669736;0,669736;0,669736;0,340307;0,340307;0,256973;0,256973;0,256973;0,000000;0,000000;0,000000;0,000000;0,517115;0,215307;0,215307;0,215307;0,215307;0,340307;0,340307;0,590307;0,340307;0,340307;0,340307;0,590307;0,590307;0,000000;0,000000;0,000000;0,256973;0,256973;0,256973;0,256973;0,350448;0,350448;0,350448;0,340307;0,683782;0,340307;
37;;;;;;;;;;;;;;;;;;;;;;;;;;;;;;;;;;;;;1,000000;0,000000;0,000000;0,833333;0,666667;0,644481;0,666667;0,500000;0,586004;0,586004;0,583333;0,583333;0,583333;0,583333;0,533333;0,533333;0,533333;0,416667;0,416667;0,590234;0,666667;0,833333;0,666667;0,000000;0,000000;0,000000;0,000000;0,000000;0,416667;0,416667;0,333333;0,333333;0,333333;0,000000;0,000000;0,000000;0,000000;0,666667;0,291667;0,291667;0,291667;0,291667;0,416667;0,416667;0,666667;0,416667;0,416667;0,416667;0,666667;0,666667;0,000000;0,000000;0,000000;0,333333;0,333333;0,333333;0,333333;0,750000;0,750000;0,750000;0,416667;0,833333;0,416667;
38;;;;;;;;;;;;;;;;;;;;;;;;;;;;;;;;;;;;;;1,000000;0,000000;0,000000;0,000000;0,000000;0,000000;0,000000;0,000000;0,000000;0,000000;0,000000;0,000000;0,000000;0,000000;0,000000;0,000000;0,000000;0,000000;0,000000;0,000000;0,000000;0,000000;0,000000;0,000000;0,000000;0,000000;0,000000;0,000000;0,000000;0,000000;0,000000;0,000000;0,000000;0,000000;0,000000;0,000000;0,000000;0,000000;0,000000;0,000000;0,000000;0,000000;0,000000;0,000000;0,000000;0,000000;0,000000;0,000000;0,000000;0,000000;0,000000;0,000000;0,000000;0,000000;0,000000;0,000000;0,000000;0,000000;0,000000;0,000000;0,000000;0,000000;
39;;;;;;;;;;;;;;;;;;;;;;;;;;;;;;;;;;;;;;;1,000000;0,000000;0,000000;0,000000;0,000000;0,000000;0,000000;0,000000;0,000000;0,000000;0,000000;0,000000;0,000000;0,000000;0,000000;0,000000;0,000000;0,000000;0,000000;0,000000;0,000000;0,000000;0,000000;0,000000;0,000000;0,000000;0,000000;0,000000;0,000000;0,000000;0,000000;0,000000;0,000000;0,000000;0,000000;0,000000;0,000000;0,000000;0,000000;0,000000;0,000000;0,000000;0,000000;0,000000;0,000000;0,000000;0,000000;0,000000;0,000000;0,000000;0,000000;0,000000;0,000000;0,000000;0,000000;0,000000;0,000000;0,000000;0,000000;0,000000;0,000000;
40;;;;;;;;;;;;;;;;;;;;;;;;;;;;;;;;;;;;;;;;1,000000;0,833333;0,811147;0,750000;0,583333;0,752671;0,752671;0,750000;0,750000;0,750000;0,750000;0,700000;0,700000;0,700000;0,500000;0,500000;0,756900;0,750000;1,000000;0,750000;0,000000;0,000000;0,000000;0,000000;0,000000;0,500000;0,500000;0,416667;0,416667;0,416667;0,000000;0,000000;0,000000;0,000000;0,833333;0,375000;0,375000;0,375000;0,375000;0,500000;0,500000;0,750000;0,500000;0,500000;0,500000;0,750000;0,750000;0,000000;0,000000;0,000000;0,416667;0,416667;0,416667;0,416667;0,666667;0,666667;0,666667;0,500000;1,000000;0,500000;
41;;;;;;;;;;;;;;;;;;;;;;;;;;;;;;;;;;;;;;;;;1,000000;0,644481;0,666667;0,500000;0,586004;0,586004;0,583333;0,583333;0,583333;0,583333;0,533333;0,533333;0,533333;0,416667;0,416667;0,590234;0,666667;0,833333;0,666667;0,000000;0,000000;0,000000;0,000000;0,000000;0,416667;0,416667;0,333333;0,333333;0,333333;0,000000;0,000000;0,000000;0,000000;0,666667;0,291667;0,291667;0,291667;0,291667;0,416667;0,416667;0,666667;0,416667;0,416667;0,416667;0,666667;0,666667;0,000000;0,000000;0,000000;0,333333;0,333333;0,333333;0,333333;0,500000;0,500000;0,500000;0,833333;0,833333;0,416667;
42;;;;;;;;;;;;;;;;;;;;;;;;;;;;;;;;;;;;;;;;;;1,000000;0,689912;0,523245;0,563818;0,563818;0,561147;0,561147;0,561147;0,561147;0,511147;0,511147;0,511147;0,373041;0,373041;0,568048;0,689912;0,811147;0,689912;0,000000;0,000000;0,000000;0,000000;0,000000;0,439912;0,439912;0,356579;0,356579;0,356579;0,000000;0,000000;0,000000;0,000000;0,644481;0,314912;0,314912;0,314912;0,314912;0,439912;0,439912;0,689912;0,439912;0,439912;0,439912;0,689912;0,689912;0,000000;0,000000;0,000000;0,356579;0,356579;0,356579;0,356579;0,477814;0,477814;0,477814;0,439912;0,811147;0,439912;
43;;;;;;;;;;;;;;;;;;;;;;;;;;;;;;;;;;;;;;;;;;;1,000000;0,833333;0,666667;0,666667;0,625000;0,625000;0,625000;0,625000;0,600000;0,600000;0,600000;0,000000;0,000000;0,624444;1,000000;0,750000;1,000000;0,000000;0,000000;0,000000;0,000000;0,000000;0,750000;0,750000;0,666667;0,666667;0,666667;0,000000;0,000000;0,000000;0,000000;0,666667;0,625000;0,625000;0,625000;0,625000;0,750000;0,750000;1,000000;0,750000;0,750000;0,750000;1,000000;1,000000;0,000000;0,000000;0,000000;0,666667;0,666667;0,666667;0,666667;0,583333;0,583333;0,583333;0,750000;0,750000;0,750000;
44;;;;;;;;;;;;;;;;;;;;;;;;;;;;;;;;;;;;;;;;;;;;1,000000;0,500000;0,500000;0,458333;0,458333;0,458333;0,458333;0,433333;0,433333;0,433333;0,000000;0,000000;0,457777;0,833333;0,583333;0,833333;0,000000;0,000000;0,000000;0,000000;0,000000;0,583333;0,583333;0,500000;0,500000;0,500000;0,000000;0,000000;0,000000;0,000000;0,500000;0,458333;0,458333;0,458333;0,458333;0,583333;0,583333;0,833333;0,583333;0,583333;0,583333;0,833333;0,833333;0,000000;0,000000;0,000000;0,500000;0,500000;0,500000;0,500000;0,416667;0,416667;0,416667;0,583333;0,583333;0,583333;
45;;;;;;;;;;;;;;;;;;;;;;;;;;;;;;;;;;;;;;;;;;;;;1,000000;0,666667;0,502671;0,502671;0,502671;0,502671;0,452671;0,452671;0,452671;0,336659;0,336659;0,509571;0,666667;0,752671;0,666667;0,000000;0,000000;0,000000;0,000000;0,000000;0,416667;0,416667;0,333333;0,333333;0,333333;0,000000;0,000000;0,000000;0,000000;0,586004;0,291667;0,291667;0,291667;0,291667;0,416667;0,416667;0,666667;0,416667;0,416667;0,416667;0,666667;0,666667;0,000000;0,000000;0,000000;0,666667;0,333333;0,333333;0,333333;0,419337;0,419337;0,419337;0,416667;0,752671;0,416667;
46;;;;;;;;;;;;;;;;;;;;;;;;;;;;;;;;;;;;;;;;;;;;;;1,000000;0,502671;0,502671;0,502671;0,502671;0,452671;0,452671;0,452671;0,336659;0,336659;0,509571;0,666667;0,752671;0,666667;0,000000;0,000000;0,000000;0,000000;0,000000;0,416667;0,416667;0,333333;0,333333;0,333333;0,000000;0,000000;0,000000;0,000000;0,586004;0,291667;0,291667;0,291667;0,291667;0,416667;0,416667;0,666667;0,416667;0,416667;0,416667;0,666667;0,666667;0,000000;0,000000;0,000000;0,666667;0,333333;0,333333;0,333333;0,419337;0,419337;0,419337;0,416667;0,752671;0,416667;
47;;;;;;;;;;;;;;;;;;;;;;;;;;;;;;;;;;;;;;;;;;;;;;;1,000000;0,500000;0,500000;0,500000;0,450000;0,450000;0,450000;0,375000;0,375000;0,506900;0,625000;0,750000;0,625000;0,225000;0,225000;0,225000;0,225000;0,225000;0,375000;0,375000;0,291667;0,291667;0,291667;0,000000;0,000000;0,000000;0,000000;0,583333;0,250000;0,250000;0,250000;0,250000;0,375000;0,375000;0,625000;0,375000;0,375000;0,375000;0,625000;0,625000;0,000000;0,000000;0,000000;0,291667;0,291667;0,291667;0,291667;0,416667;0,416667;0,416667;0,375000;0,750000;0,375000;
48;;;;;;;;;;;;;;;;;;;;;;;;;;;;;;;;;;;;;;;;;;;;;;;;1,000000;0,750000;0,750000;0,450000;0,450000;0,450000;0,375000;0,375000;0,506900;0,625000;0,750000;0,625000;0,000000;0,000000;0,000000;0,000000;0,000000;0,375000;0,375000;0,291667;0,291667;0,291667;0,000000;0,000000;0,000000;0,000000;0,583333;0,250000;0,250000;0,250000;0,250000;0,375000;0,375000;0,625000;0,375000;0,375000;0,375000;0,625000;0,625000;0,000000;0,000000;0,000000;0,291667;0,291667;0,291667;0,291667;0,416667;0,416667;0,416667;0,375000;0,750000;0,375000;
49;;;;;;;;;;;;;;;;;;;;;;;;;;;;;;;;;;;;;;;;;;;;;;;;;1,000000;0,750000;0,450000;0,450000;0,450000;0,375000;0,375000;0,506900;0,625000;0,750000;0,625000;0,000000;0,000000;0,000000;0,000000;0,000000;0,375000;0,375000;0,291667;0,291667;0,291667;0,000000;0,000000;0,000000;0,000000;0,583333;0,250000;0,250000;0,250000;0,250000;0,375000;0,375000;0,625000;0,375000;0,375000;0,375000;0,625000;0,625000;0,000000;0,000000;0,000000;0,291667;0,291667;0,291667;0,291667;0,416667;0,416667;0,416667;0,375000;0,750000;0,375000;
50;;;;;;;;;;;;;;;;;;;;;;;;;;;;;;;;;;;;;;;;;;;;;;;;;;1,000000;0,450000;0,450000;0,450000;0,375000;0,375000;0,506900;0,625000;0,750000;0,625000;0,000000;0,000000;0,000000;0,000000;0,000000;0,375000;0,375000;0,291667;0,291667;0,291667;0,000000;0,000000;0,000000;0,000000;0,583333;0,250000;0,250000;0,250000;0,250000;0,375000;0,375000;0,625000;0,375000;0,375000;0,375000;0,625000;0,625000;0,000000;0,000000;0,000000;0,291667;0,291667;0,291667;0,291667;0,416667;0,416667;0,416667;0,375000;0,750000;0,375000;
51;;;;;;;;;;;;;;;;;;;;;;;;;;;;;;;;;;;;;;;;;;;;;;;;;;;1,000000;0,800000;0,800000;0,350000;0,350000;0,456900;0,600000;0,700000;0,600000;0,000000;0,000000;0,000000;0,000000;0,000000;0,350000;0,350000;0,266667;0,266667;0,266667;0,000000;0,000000;0,000000;0,000000;0,533333;0,225000;0,225000;0,225000;0,225000;0,350000;0,350000;0,600000;0,350000;0,350000;0,350000;0,600000;0,600000;0,000000;0,000000;0,000000;0,266667;0,266667;0,266667;0,266667;0,366667;0,366667;0,366667;0,350000;0,700000;0,350000;
52;;;;;;;;;;;;;;;;;;;;;;;;;;;;;;;;;;;;;;;;;;;;;;;;;;;;1,000000;0,800000;0,350000;0,350000;0,456900;0,600000;0,700000;0,600000;0,000000;0,000000;0,000000;0,000000;0,000000;0,350000;0,350000;0,266667;0,266667;0,266667;0,000000;0,000000;0,000000;0,000000;0,533333;0,225000;0,225000;0,225000;0,225000;0,350000;0,350000;0,600000;0,350000;0,350000;0,350000;0,600000;0,600000;0,000000;0,000000;0,000000;0,266667;0,266667;0,266667;0,266667;0,366667;0,366667;0,366667;0,350000;0,700000;0,350000;
53;;;;;;;;;;;;;;;;;;;;;;;;;;;;;;;;;;;;;;;;;;;;;;;;;;;;;1,000000;0,350000;0,350000;0,456900;0,600000;0,700000;0,600000;0,000000;0,000000;0,000000;0,000000;0,000000;0,350000;0,350000;0,266667;0,266667;0,266667;0,000000;0,000000;0,000000;0,000000;0,533333;0,225000;0,225000;0,225000;0,225000;0,350000;0,350000;0,600000;0,350000;0,350000;0,350000;0,600000;0,600000;0,000000;0,000000;0,000000;0,266667;0,266667;0,266667;0,266667;0,366667;0,366667;0,366667;0,350000;0,700000;0,350000;
54;;;;;;;;;;;;;;;;;;;;;;;;;;;;;;;;;;;;;;;;;;;;;;;;;;;;;;1,000000;0,500000;0,384741;0,000000;0,500000;0,000000;0,000000;0,000000;0,000000;0,000000;0,000000;0,000000;0,000000;0,000000;0,000000;0,000000;0,000000;0,000000;0,000000;0,000000;0,416667;0,000000;0,000000;0,000000;0,000000;0,000000;0,000000;0,000000;0,000000;0,000000;0,000000;0,000000;0,000000;0,000000;0,000000;0,000000;0,000000;0,000000;0,000000;0,000000;0,333333;0,333333;0,333333;0,000000;0,500000;0,000000;
55;;;;;;;;;;;;;;;;;;;;;;;;;;;;;;;;;;;;;;;;;;;;;;;;;;;;;;;1,000000;0,384741;0,000000;0,500000;0,000000;0,000000;0,000000;0,000000;0,000000;0,000000;0,000000;0,000000;0,000000;0,000000;0,000000;0,000000;0,000000;0,000000;0,000000;0,416667;0,000000;0,000000;0,000000;0,000000;0,000000;0,000000;0,000000;0,000000;0,000000;0,000000;0,000000;0,000000;0,000000;0,000000;0,000000;0,000000;0,000000;0,000000;0,000000;0,333333;0,333333;0,333333;0,000000;0,500000;0,000000;
56;;;;;;;;;;;;;;;;;;;;;;;;;;;;;;;;;;;;;;;;;;;;;;;;;;;;;;;;1,000000;0,624444;0,756900;0,624444;0,000000;0,000000;0,000000;0,000000;0,000000;0,374444;0,374444;0,291110;0,291110;0,291110;0,000000;0,000000;0,461677;0,461677;0,590234;0,249444;0,249444;0,249444;0,249444;0,374444;0,374444;0,624444;0,374444;0,374444;0,374444;0,624444;0,624444;0,000000;0,000000;0,000000;0,291110;0,291110;0,291110;0,291110;0,423567;0,423567;0,423567;0,374444;0,756900;0,374444;
57;;;;;;;;;;;;;;;;;;;;;;;;;;;;;;;;;;;;;;;;;;;;;;;;;;;;;;;;;1,000000;0,750000;1,000000;0,000000;0,000000;0,000000;0,000000;0,000000;0,750000;0,750000;0,666667;0,666667;0,666667;0,000000;0,000000;0,000000;0,000000;0,666667;0,625000;0,625000;0,625000;0,625000;0,750000;0,750000;1,000000;0,750000;0,750000;0,750000;1,000000;1,000000;0,000000;0,000000;0,000000;0,666667;0,666667;0,666667;0,666667;0,583333;0,583333;0,583333;0,750000;0,750000;0,750000;
58;;;;;;;;;;;;;;;;;;;;;;;;;;;;;;;;;;;;;;;;;;;;;;;;;;;;;;;;;;1,000000;0,750000;0,000000;0,000000;0,000000;0,000000;0,000000;0,500000;0,500000;0,416667;0,416667;0,416667;0,000000;0,000000;0,000000;0,000000;0,833333;0,375000;0,375000;0,375000;0,375000;0,500000;0,500000;0,750000;0,500000;0,500000;0,500000;0,750000;0,750000;0,000000;0,000000;0,000000;0,416667;0,416667;0,416667;0,416667;0,666667;0,666667;0,666667;0,500000;1,000000;0,500000;
59;;;;;;;;;;;;;;;;;;;;;;;;;;;;;;;;;;;;;;;;;;;;;;;;;;;;;;;;;;;1,000000;0,000000;0,000000;0,000000;0,000000;0,000000;0,750000;0,750000;0,666667;0,666667;0,666667;0,000000;0,000000;0,000000;0,000000;0,666667;0,625000;0,625000;0,625000;0,625000;0,750000;0,750000;1,000000;0,750000;0,750000;0,750000;1,000000;1,000000;0,000000;0,000000;0,000000;0,666667;0,666667;0,666667;0,666667;0,583333;0,583333;0,583333;0,750000;0,750000;0,750000;
60;;;;;;;;;;;;;;;;;;;;;;;;;;;;;;;;;;;;;;;;;;;;;;;;;;;;;;;;;;;;1,000000;0,800000;0,800000;0,800000;0,800000;0,000000;0,000000;0,000000;0,000000;0,000000;0,000000;0,000000;0,000000;0,000000;0,000000;0,000000;0,000000;0,000000;0,000000;0,000000;0,000000;0,000000;0,000000;0,000000;0,000000;0,000000;0,000000;0,000000;0,000000;0,000000;0,000000;0,000000;0,000000;0,000000;0,000000;0,000000;0,000000;0,000000;0,000000;0,000000;
61;;;;;;;;;;;;;;;;;;;;;;;;;;;;;;;;;;;;;;;;;;;;;;;;;;;;;;;;;;;;;1,000000;0,800000;0,800000;0,800000;0,000000;0,000000;0,000000;0,000000;0,000000;0,000000;0,000000;0,000000;0,000000;0,000000;0,000000;0,000000;0,000000;0,000000;0,000000;0,000000;0,000000;0,000000;0,000000;0,000000;0,000000;0,000000;0,000000;0,000000;0,000000;0,000000;0,000000;0,000000;0,000000;0,000000;0,000000;0,000000;0,000000;0,000000;0,000000;
62;;;;;;;;;;;;;;;;;;;;;;;;;;;;;;;;;;;;;;;;;;;;;;;;;;;;;;;;;;;;;;1,000000;0,800000;0,800000;0,000000;0,000000;0,000000;0,000000;0,000000;0,000000;0,000000;0,000000;0,000000;0,000000;0,000000;0,000000;0,000000;0,000000;0,000000;0,000000;0,000000;0,000000;0,000000;0,000000;0,000000;0,000000;0,000000;0,000000;0,000000;0,000000;0,000000;0,000000;0,000000;0,000000;0,000000;0,000000;0,000000;0,000000;0,000000;
63;;;;;;;;;;;;;;;;;;;;;;;;;;;;;;;;;;;;;;;;;;;;;;;;;;;;;;;;;;;;;;;1,000000;0,800000;0,000000;0,000000;0,000000;0,000000;0,000000;0,000000;0,000000;0,000000;0,000000;0,000000;0,000000;0,000000;0,000000;0,000000;0,000000;0,000000;0,000000;0,000000;0,000000;0,000000;0,000000;0,000000;0,000000;0,000000;0,000000;0,000000;0,000000;0,000000;0,000000;0,000000;0,000000;0,000000;0,000000;0,000000;0,000000;
64;;;;;;;;;;;;;;;;;;;;;;;;;;;;;;;;;;;;;;;;;;;;;;;;;;;;;;;;;;;;;;;;1,000000;0,000000;0,000000;0,000000;0,000000;0,000000;0,000000;0,000000;0,000000;0,000000;0,000000;0,000000;0,000000;0,000000;0,000000;0,000000;0,000000;0,000000;0,000000;0,000000;0,000000;0,000000;0,000000;0,000000;0,000000;0,000000;0,000000;0,000000;0,000000;0,000000;0,000000;0,000000;0,000000;0,000000;0,000000;0,000000;
65;;;;;;;;;;;;;;;;;;;;;;;;;;;;;;;;;;;;;;;;;;;;;;;;;;;;;;;;;;;;;;;;;1,000000;0,500000;0,416667;0,416667;0,416667;0,000000;0,000000;0,000000;0,000000;0,416667;0,375000;0,375000;0,375000;0,375000;0,500000;0,500000;0,750000;0,500000;0,500000;0,500000;0,750000;0,750000;0,000000;0,000000;0,000000;0,416667;0,416667;0,416667;0,416667;0,333333;0,333333;0,333333;0,500000;0,500000;0,500000;
66;;;;;;;;;;;;;;;;;;;;;;;;;;;;;;;;;;;;;;;;;;;;;;;;;;;;;;;;;;;;;;;;;;1,000000;0,416667;0,416667;0,416667;0,000000;0,000000;0,000000;0,000000;0,416667;0,375000;0,375000;0,375000;0,375000;0,500000;0,500000;0,750000;0,500000;0,500000;0,500000;0,750000;0,750000;0,000000;0,000000;0,000000;0,416667;0,416667;0,416667;0,416667;0,333333;0,333333;0,333333;0,500000;0,500000;1,000000;
67;;;;;;;;;;;;;;;;;;;;;;;;;;;;;;;;;;;;;;;;;;;;;;;;;;;;;;;;;;;;;;;;;;;1,000000;0,666667;0,666667;0,000000;0,000000;0,000000;0,000000;0,333333;0,291667;0,291667;0,291667;0,291667;0,416667;0,416667;0,666667;0,416667;0,416667;0,416667;0,666667;0,666667;0,000000;0,000000;0,000000;0,333333;0,333333;0,333333;0,333333;0,250000;0,250000;0,250000;0,416667;0,416667;0,416667;
68;;;;;;;;;;;;;;;;;;;;;;;;;;;;;;;;;;;;;;;;;;;;;;;;;;;;;;;;;;;;;;;;;;;;1,000000;0,666667;0,000000;0,000000;0,000000;0,000000;0,333333;0,291667;0,291667;0,291667;0,291667;0,416667;0,416667;0,666667;0,416667;0,416667;0,416667;0,666667;0,666667;0,000000;0,000000;0,000000;0,333333;0,333333;0,333333;0,333333;0,250000;0,250000;0,250000;0,416667;0,416667;0,416667;
69;;;;;;;;;;;;;;;;;;;;;;;;;;;;;;;;;;;;;;;;;;;;;;;;;;;;;;;;;;;;;;;;;;;;;1,000000;0,000000;0,000000;0,000000;0,000000;0,333333;0,291667;0,291667;0,291667;0,291667;0,416667;0,416667;0,666667;0,416667;0,416667;0,416667;0,666667;0,666667;0,000000;0,000000;0,000000;0,333333;0,333333;0,333333;0,333333;0,250000;0,250000;0,250000;0,416667;0,416667;0,416667;
70;;;;;;;;;;;;;;;;;;;;;;;;;;;;;;;;;;;;;;;;;;;;;;;;;;;;;;;;;;;;;;;;;;;;;;1,000000;0,000000;0,000000;0,000000;0,000000;0,000000;0,000000;0,000000;0,000000;0,000000;0,000000;0,000000;0,000000;0,000000;0,000000;0,000000;0,000000;0,000000;0,000000;0,000000;0,000000;0,000000;0,000000;0,000000;0,000000;0,000000;0,000000;0,000000;0,000000;0,000000;
71;;;;;;;;;;;;;;;;;;;;;;;;;;;;;;;;;;;;;;;;;;;;;;;;;;;;;;;;;;;;;;;;;;;;;;;1,000000;0,000000;0,000000;0,000000;0,000000;0,000000;0,000000;0,000000;0,000000;0,000000;0,000000;0,000000;0,000000;0,000000;0,000000;0,000000;0,000000;0,000000;0,000000;0,000000;0,000000;0,000000;0,000000;0,000000;0,000000;0,000000;0,000000;0,000000;0,000000;
72;;;;;;;;;;;;;;;;;;;;;;;;;;;;;;;;;;;;;;;;;;;;;;;;;;;;;;;;;;;;;;;;;;;;;;;;1,000000;0,500000;0,000000;0,000000;0,000000;0,000000;0,000000;0,000000;0,000000;0,000000;0,000000;0,000000;0,000000;0,000000;0,000000;0,000000;0,000000;0,000000;0,000000;0,000000;0,000000;0,000000;0,000000;0,000000;0,000000;0,000000;0,000000;0,000000;
73;;;;;;;;;;;;;;;;;;;;;;;;;;;;;;;;;;;;;;;;;;;;;;;;;;;;;;;;;;;;;;;;;;;;;;;;;1,000000;0,000000;0,000000;0,000000;0,000000;0,000000;0,000000;0,000000;0,000000;0,000000;0,000000;0,000000;0,000000;0,000000;0,000000;0,000000;0,000000;0,000000;0,000000;0,000000;0,000000;0,000000;0,000000;0,000000;0,000000;0,000000;0,000000;
74;;;;;;;;;;;;;;;;;;;;;;;;;;;;;;;;;;;;;;;;;;;;;;;;;;;;;;;;;;;;;;;;;;;;;;;;;;1,000000;0,291667;0,291667;0,291667;0,291667;0,416667;0,416667;0,666667;0,416667;0,416667;0,416667;0,666667;0,666667;0,000000;0,000000;0,000000;0,333333;0,333333;0,333333;0,333333;0,500000;0,500000;0,500000;0,416667;0,833333;0,416667;
75;;;;;;;;;;;;;;;;;;;;;;;;;;;;;;;;;;;;;;;;;;;;;;;;;;;;;;;;;;;;;;;;;;;;;;;;;;;1,000000;0,750000;0,750000;0,750000;0,375000;0,375000;0,625000;0,375000;0,375000;0,375000;0,625000;0,625000;0,000000;0,000000;0,000000;0,291667;0,291667;0,291667;0,291667;0,208333;0,208333;0,208333;0,375000;0,375000;0,375000;
76;;;;;;;;;;;;;;;;;;;;;;;;;;;;;;;;;;;;;;;;;;;;;;;;;;;;;;;;;;;;;;;;;;;;;;;;;;;;1,000000;0,750000;0,750000;0,375000;0,375000;0,625000;0,375000;0,375000;0,375000;0,625000;0,625000;0,000000;0,000000;0,000000;0,291667;0,291667;0,291667;0,291667;0,208333;0,208333;0,208333;0,375000;0,375000;0,375000;
77;;;;;;;;;;;;;;;;;;;;;;;;;;;;;;;;;;;;;;;;;;;;;;;;;;;;;;;;;;;;;;;;;;;;;;;;;;;;;1,000000;0,750000;0,375000;0,375000;0,625000;0,375000;0,375000;0,375000;0,625000;0,625000;0,000000;0,000000;0,000000;0,291667;0,291667;0,291667;0,291667;0,208333;0,208333;0,208333;0,375000;0,375000;0,375000;
78;;;;;;;;;;;;;;;;;;;;;;;;;;;;;;;;;;;;;;;;;;;;;;;;;;;;;;;;;;;;;;;;;;;;;;;;;;;;;;1,000000;0,375000;0,375000;0,625000;0,375000;0,375000;0,375000;0,625000;0,625000;0,000000;0,000000;0,000000;0,291667;0,291667;0,291667;0,291667;0,208333;0,208333;0,208333;0,375000;0,375000;0,375000;
79;;;;;;;;;;;;;;;;;;;;;;;;;;;;;;;;;;;;;;;;;;;;;;;;;;;;;;;;;;;;;;;;;;;;;;;;;;;;;;;1,000000;0,500000;0,750000;0,500000;0,500000;0,500000;0,750000;0,750000;0,000000;0,000000;0,000000;0,416667;0,416667;0,416667;0,416667;0,333333;0,333333;0,333333;0,500000;0,500000;0,500000;
80;;;;;;;;;;;;;;;;;;;;;;;;;;;;;;;;;;;;;;;;;;;;;;;;;;;;;;;;;;;;;;;;;;;;;;;;;;;;;;;;1,000000;0,750000;0,500000;0,500000;0,500000;0,750000;0,750000;0,000000;0,000000;0,000000;0,416667;0,416667;0,416667;0,416667;0,333333;0,333333;0,333333;0,500000;0,500000;0,500000;
81;;;;;;;;;;;;;;;;;;;;;;;;;;;;;;;;;;;;;;;;;;;;;;;;;;;;;;;;;;;;;;;;;;;;;;;;;;;;;;;;;1,000000;0,750000;0,750000;0,750000;1,000000;1,000000;0,000000;0,000000;0,000000;0,666667;0,666667;0,666667;0,666667;0,583333;0,583333;0,583333;0,750000;0,750000;0,750000;
82;;;;;;;;;;;;;;;;;;;;;;;;;;;;;;;;;;;;;;;;;;;;;;;;;;;;;;;;;;;;;;;;;;;;;;;;;;;;;;;;;;1,000000;0,500000;0,500000;0,750000;0,750000;0,000000;0,000000;0,000000;0,416667;0,416667;0,416667;0,416667;0,333333;0,333333;0,333333;0,500000;0,500000;0,500000;
83;;;;;;;;;;;;;;;;;;;;;;;;;;;;;;;;;;;;;;;;;;;;;;;;;;;;;;;;;;;;;;;;;;;;;;;;;;;;;;;;;;;1,000000;0,500000;0,750000;0,750000;0,000000;0,000000;0,000000;0,416667;0,416667;0,416667;0,416667;0,333333;0,333333;0,333333;0,500000;0,500000;0,500000;
84;;;;;;;;;;;;;;;;;;;;;;;;;;;;;;;;;;;;;;;;;;;;;;;;;;;;;;;;;;;;;;;;;;;;;;;;;;;;;;;;;;;;1,000000;0,750000;0,750000;0,000000;0,000000;0,000000;0,416667;0,416667;0,416667;0,416667;0,333333;0,333333;0,333333;0,500000;0,500000;0,500000;
85;;;;;;;;;;;;;;;;;;;;;;;;;;;;;;;;;;;;;;;;;;;;;;;;;;;;;;;;;;;;;;;;;;;;;;;;;;;;;;;;;;;;;1,000000;1,000000;0,000000;0,000000;0,000000;0,666667;0,666667;0,666667;0,666667;0,583333;0,583333;0,583333;0,750000;0,750000;0,750000;
86;;;;;;;;;;;;;;;;;;;;;;;;;;;;;;;;;;;;;;;;;;;;;;;;;;;;;;;;;;;;;;;;;;;;;;;;;;;;;;;;;;;;;;1,000000;0,000000;0,000000;0,000000;0,666667;0,666667;0,666667;0,666667;0,583333;0,583333;0,583333;0,750000;0,750000;0,750000;
87;;;;;;;;;;;;;;;;;;;;;;;;;;;;;;;;;;;;;;;;;;;;;;;;;;;;;;;;;;;;;;;;;;;;;;;;;;;;;;;;;;;;;;;1,000000;0,500000;0,500000;0,000000;0,000000;0,000000;0,000000;0,000000;0,000000;0,000000;0,000000;0,000000;0,000000;
88;;;;;;;;;;;;;;;;;;;;;;;;;;;;;;;;;;;;;;;;;;;;;;;;;;;;;;;;;;;;;;;;;;;;;;;;;;;;;;;;;;;;;;;;1,000000;0,500000;0,000000;0,000000;0,000000;0,000000;0,000000;0,000000;0,000000;0,000000;0,000000;0,000000;
89;;;;;;;;;;;;;;;;;;;;;;;;;;;;;;;;;;;;;;;;;;;;;;;;;;;;;;;;;;;;;;;;;;;;;;;;;;;;;;;;;;;;;;;;;1,000000;0,000000;0,000000;0,000000;0,000000;0,000000;0,000000;0,000000;0,000000;0,000000;0,000000;
90;;;;;;;;;;;;;;;;;;;;;;;;;;;;;;;;;;;;;;;;;;;;;;;;;;;;;;;;;;;;;;;;;;;;;;;;;;;;;;;;;;;;;;;;;;1,000000;0,333333;0,333333;0,333333;0,250000;0,250000;0,250000;0,416667;0,416667;0,416667;
91;;;;;;;;;;;;;;;;;;;;;;;;;;;;;;;;;;;;;;;;;;;;;;;;;;;;;;;;;;;;;;;;;;;;;;;;;;;;;;;;;;;;;;;;;;;1,000000;0,666667;0,666667;0,250000;0,250000;0,250000;0,416667;0,416667;0,416667;
92;;;;;;;;;;;;;;;;;;;;;;;;;;;;;;;;;;;;;;;;;;;;;;;;;;;;;;;;;;;;;;;;;;;;;;;;;;;;;;;;;;;;;;;;;;;;1,000000;0,666667;0,250000;0,250000;0,250000;0,416667;0,416667;0,416667;
93;;;;;;;;;;;;;;;;;;;;;;;;;;;;;;;;;;;;;;;;;;;;;;;;;;;;;;;;;;;;;;;;;;;;;;;;;;;;;;;;;;;;;;;;;;;;;1,000000;0,250000;0,250000;0,250000;0,416667;0,416667;0,416667;
94;;;;;;;;;;;;;;;;;;;;;;;;;;;;;;;;;;;;;;;;;;;;;;;;;;;;;;;;;;;;;;;;;;;;;;;;;;;;;;;;;;;;;;;;;;;;;;1,000000;0,833333;0,833333;0,333333;0,666667;0,333333;
95;;;;;;;;;;;;;;;;;;;;;;;;;;;;;;;;;;;;;;;;;;;;;;;;;;;;;;;;;;;;;;;;;;;;;;;;;;;;;;;;;;;;;;;;;;;;;;;1,000000;0,833333;0,333333;0,666667;0,333333;
96;;;;;;;;;;;;;;;;;;;;;;;;;;;;;;;;;;;;;;;;;;;;;;;;;;;;;;;;;;;;;;;;;;;;;;;;;;;;;;;;;;;;;;;;;;;;;;;;1,000000;0,333333;0,666667;0,333333;
97;;;;;;;;;;;;;;;;;;;;;;;;;;;;;;;;;;;;;;;;;;;;;;;;;;;;;;;;;;;;;;;;;;;;;;;;;;;;;;;;;;;;;;;;;;;;;;;;;1,000000;0,500000;0,500000;
98;;;;;;;;;;;;;;;;;;;;;;;;;;;;;;;;;;;;;;;;;;;;;;;;;;;;;;;;;;;;;;;;;;;;;;;;;;;;;;;;;;;;;;;;;;;;;;;;;;1,000000;0,500000;
99;;;;;;;;;;;;;;;;;;;;;;;;;;;;;;;;;;;;;;;;;;;;;;;;;;;;;;;;;;;;;;;;;;;;;;;;;;;;;;;;;;;;;;;;;;;;;;;;;;;1,000000;
