;1; 2; 3; 4; 5; 6; 7; 8; 9; 10; 11; 12; 13; 14; 15; 16; 17; 18; 19; 20; 21; 22; 23; 24; 25; 26; 27; 28; 29; 30; 31; 32; 33; 34; 35; 36; 37; 38; 39; 40; 41; 42; 43; 44; 45; 46; 47; 48; 49; 50; 51; 52; 53; 54; 55; 56; 57; 58; 59; 60; 61; 62; 63; 64; 65; 66; 67; 68; 69; 70; 71; 72; 73; 74; 75; 76; 77; 78; 79; 80; 81; 82; 83; 84; 85; 86; 87; 88; 89; 90; 91; 92; 93; 94; 95; 96; 97; 98; 99; 100; 101; 102; 103; 104; 105; 106
1;1,000000;0,423391;0,708820;0,666687;0,692495;0,717841;0,824705;0,689456;0,707426;0,426899;0,484199;0,400267;0,447250;0,447250;0,447250;0,621515;0,664377;0,467340;0,785931;0,522214;0,522214;0,542848;0,542848;0,550815;0,555491;0,549183;0,655845;0,648019;0,447250;0,447250;0,428446;0,491237;0,381035;0,579579;0,667251;0,542910;0,542910;0,697250;0,427277;0,542848;0,728832;0,363916;0,387161;0,502328;0,753058;0,297250;0,297250;0,297250;0,297250;0,297250;0,542848;0,829955;0,751840;0,530583;0,697250;0,784225;0,774185;0,363916;0,363916;0,400267;0,400267;0,363916;0,280583;0,280583;0,280583;0,280583;0,280583;0,322250;0,322250;0,322250;0,363916;0,341535;0,363916;0,697250;0,542901;0,542901;0,727789;0,363916;0,363916;0,363916;0,447250;0,709515;0,574457;0,529694;0,741123;0,363916;0,491123;0,491123;0,447250;0,409577;0,409577;0,409577;0,363916;0,400267;0,322250;0,322250;0,704055;0,709568;0,697250;0,697250;0,000000;0,000000;0,000000;0,000000;0,000000;0,363916;
2;;1,000000;0,555315;0,437882;0,493078;0,516408;0,509553;0,553503;0,507878;0,291187;0,290058;0,302369;0,255344;0,283526;0,265871;0,373571;0,505628;0,427738;0,550140;0,372505;0,372505;0,357610;0,357495;0,360210;0,371846;0,271028;0,445798;0,437154;0,255723;0,255723;0,430511;0,638937;0,373127;0,288660;0,498721;0,349344;0,349344;0,000000;0,460790;0,357495;0,429284;0,366616;0,328892;0,392508;0,382987;0,415009;0,415009;0,415009;0,415009;0,415009;0,359029;0,398743;0,274722;0,210523;0,000000;0,388297;0,516906;0,348011;0,348011;0,315347;0,311262;0,366616;0,433017;0,433017;0,433017;0,433017;0,433017;0,420756;0,420729;0,420729;0,356734;0,392337;0,366162;0,000000;0,351105;0,351105;0,496921;0,343131;0,343131;0,343131;0,265871;0,270350;0,367417;0,392152;0,281941;0,372919;0,410259;0,410259;0,283526;0,426193;0,426193;0,426193;0,377044;0,309355;0,408270;0,408270;0,465233;0,266287;0,000000;0,000000;0,265328;0,265328;0,000000;0,000000;0,000000;0,344799;
3;;;1,000000;0,672138;0,666136;0,776941;0,798585;0,686375;0,698097;0,390599;0,447900;0,363968;0,410950;0,740090;0,410950;0,518079;0,663406;0,460098;0,775173;0,498476;0,498476;0,499675;0,499675;0,791108;0,750755;0,504455;0,603593;0,595767;0,410950;0,410950;0,418806;0,532261;0,416915;0,555841;0,669666;0,498183;0,498183;0,660950;0,403539;0,499675;0,786894;0,327617;0,350862;0,478590;0,728774;0,260950;0,260950;0,260950;0,260950;0,260950;0,499675;0,550719;0,714085;0,494284;0,660950;0,535229;0,736513;0,327617;0,327617;0,426926;0,363968;0,327617;0,351412;0,351412;0,351412;0,351412;0,351412;0,285950;0,285950;0,285950;0,327617;0,305235;0,327617;0,660950;0,506178;0,506178;0,768502;0,327617;0,327617;0,327617;0,410950;0,666342;0,550719;0,505956;0,717386;0,327617;0,467386;0,467386;0,740090;0,477905;0,477905;0,477905;0,327617;0,473470;0,285950;0,285950;0,640395;0,672844;0,660950;0,660950;0,000000;0,000000;0,000000;0,000000;0,000000;0,327617;
4;;;;1,000000;0,550560;0,634509;0,732051;0,706694;0,624542;0,400413;0,457713;0,373781;0,420764;0,841527;0,420764;0,585284;0,546049;0,435010;0,797919;0,489884;0,489884;0,337430;0,337430;0,747562;0,674861;0,420764;0,290989;0,299093;0,420764;0,420764;0,396116;0,661754;0,354549;0,547249;0,521508;0,337430;0,337430;0,670764;0,394947;0,337430;0,483816;0,337430;0,360676;0,469998;0,542127;0,270764;0,270764;0,270764;0,270764;0,270764;0,337430;0,791610;0,420764;0,504097;0,670764;0,597952;0,708266;0,337430;0,337430;0,373781;0,373781;0,337430;0,254097;0,254097;0,254097;0,254097;0,254097;0,295764;0,295764;0,295764;0,337430;0,315049;0,337430;0,670764;0,337430;0,337430;0,735274;0,337430;0,337430;0,337430;0,420764;0,420764;0,542127;0,497364;0,708793;0,337430;0,458793;0,458793;0,841527;0,270764;0,270764;0,270764;0,337430;0,373781;0,295764;0,295764;0,451951;0,420764;0,670764;0,670764;0,000000;0,000000;0,000000;0,000000;0,000000;0,337430;
5;;;;;1,000000;0,567173;0,700591;0,716610;0,509184;0,413485;0,573376;0,522670;0,433836;0,433836;0,433836;0,735215;0,697338;0,658240;0,746044;0,523071;0,523071;0,543910;0,543910;0,501300;0,350503;0,433836;0,553854;0,555198;0,433836;0,433836;0,697263;0,447555;0,677899;0,580436;0,691795;0,350503;0,350503;0,683836;0,741217;0,543910;0,651234;0,557101;0,535403;0,672087;0,575314;0,283836;0,283836;0,283836;0,283836;0,283836;0,543910;0,758950;0,702326;0,517169;0,683836;0,545604;0,547140;0,350503;0,350503;0,470430;0,386853;0,557101;0,384281;0,384281;0,384281;0,384281;0,384281;0,619141;0,619141;0,619141;0,350503;0,437143;0,557101;0,683836;0,350503;0,350503;0,464008;0,350503;0,350503;0,350503;0,433836;0,710577;0,575314;0,530551;0,741981;0,557101;0,491981;0,491981;0,433836;0,417616;0,417616;0,417616;0,744141;0,516974;0,473767;0,473767;0,399603;0,433836;0,683836;0,683836;0,265493;0,265493;0,000000;0,000000;0,000000;0,350503;
6;;;;;;1,000000;0,694933;0,634964;0,718534;0,405906;0,463206;0,379274;0,426257;0,703812;0,426257;0,519600;0,582271;0,391016;0,775842;0,342923;0,342923;0,570049;0,570049;0,733738;0,537145;0,426257;0,738706;0,720777;0,426257;0,426257;0,343293;0,430402;0,360042;0,616793;0,527406;0,523852;0,523852;0,676257;0,305431;0,570049;0,645031;0,342923;0,366169;0,392471;0,548829;0,276257;0,276257;0,276257;0,276257;0,276257;0,758345;0,519600;0,707406;0,509590;0,676257;0,690506;0,862545;0,342923;0,342923;0,439117;0,379274;0,342923;0,259590;0,259590;0,259590;0,259590;0,259590;0,301257;0,301257;0,301257;0,342923;0,320542;0,342923;0,676257;0,548829;0,548829;0,685578;0,342923;0,342923;0,342923;0,426257;0,736716;0,342923;0,320542;0,426257;0,342923;0,301257;0,301257;0,703812;0,611339;0,611339;0,611339;0,342923;0,485661;0,301257;0,301257;0,610398;0,715495;0,676257;0,676257;0,000000;0,000000;0,000000;0,000000;0,000000;0,342923;
7;;;;;;;1,000000;0,632114;0,669683;0,421128;0,478429;0,394496;0,441479;0,717560;0,441479;0,553552;0,553786;0,446390;0,832228;0,501264;0,501264;0,599105;0,599105;0,740856;0,550893;0,568169;0,709807;0,701981;0,441479;0,441479;0,407496;0,590308;0,375264;0,558629;0,582014;0,561896;0,561896;0,691479;0,406327;0,599105;0,684763;0,358146;0,381391;0,481378;0,553506;0,291479;0,291479;0,291479;0,291479;0,291479;0,599105;0,748212;0,715519;0,524812;0,691479;0,777360;0,712084;0,358146;0,358146;0,394496;0,394496;0,358146;0,274812;0,274812;0,274812;0,274812;0,274812;0,316479;0,316479;0,316479;0,358146;0,335764;0,358146;0,691479;0,538273;0,538273;0,844825;0,358146;0,358146;0,358146;0,441479;0,765772;0,553506;0,508743;0,720173;0,358146;0,470173;0,470173;0,717560;0,428563;0,428563;0,428563;0,358146;0,394496;0,316479;0,316479;0,697189;0,441479;0,691479;0,691479;0,000000;0,000000;0,000000;0,000000;0,000000;0,358146;
8;;;;;;;;1,000000;0,689648;0,417251;0,537202;0,496028;0,437602;0,727345;0,437602;0,755591;0,696589;0,592462;0,692773;0,532283;0,532283;0,354269;0,354269;0,766975;0,732662;0,617810;0,435917;0,429485;0,437602;0,437602;0,602439;0,485005;0,722748;0,437602;0,691345;0,354269;0,354269;0,687602;0,662200;0,354269;0,623429;0,530459;0,508761;0,561606;0,533342;0,287602;0,287602;0,287602;0,287602;0,287602;0,354269;0,580104;0,729922;0,520936;0,687602;0,592772;0,693652;0,531748;0,531748;0,448381;0,390620;0,530459;0,362233;0,362233;0,362233;0,362233;0,362233;0,582967;0,582967;0,582967;0,354269;0,410501;0,530459;0,687602;0,533342;0,533342;0,697281;0,354269;0,354269;0,354269;0,437602;0,437602;0,531332;0,560137;0,437602;0,708504;0,578583;0,578583;0,727345;0,395567;0,395567;0,395567;0,707967;0,494924;0,447126;0,447126;0,446771;0,700009;0,687602;0,687602;0,257909;0,257909;0,000000;0,000000;0,000000;0,712068;
9;;;;;;;;;1,000000;0,405412;0,462713;0,378781;0,425763;0,693654;0,425763;0,518085;0,535940;0,414039;0,749608;0,342430;0,342430;0,536461;0,536431;0,749511;0,526987;0,555168;0,692440;0,684609;0,425763;0,425763;0,364031;0,443556;0,438900;0,425763;0,568445;0,548896;0,548896;0,675763;0,304938;0,536431;0,660333;0,342430;0,365675;0,391977;0,560863;0,275763;0,275763;0,275763;0,275763;0,275763;0,547153;0,518085;0,732794;0,509097;0,675763;0,712828;0,719146;0,342430;0,342430;0,378781;0,378781;0,342430;0,259097;0,259097;0,259097;0,259097;0,259097;0,300763;0,300763;0,300763;0,342430;0,320049;0,342430;0,675763;0,560863;0,560863;0,806028;0,342430;0,342430;0,342430;0,425763;0,425763;0,342430;0,320049;0,425763;0,342430;0,300763;0,300763;0,693654;0,415562;0,415562;0,415562;0,342430;0,378781;0,300763;0,300763;0,632658;0,727530;0,675763;0,675763;0,000000;0,000000;0,000000;0,000000;0,000000;0,342430;
10;;;;;;;;;;1,000000;0,579111;0,432666;0,479649;0,479649;0,959298;0,396316;0,374968;0,680879;0,397401;0,396316;0,396316;0,396316;0,396316;0,432666;0,396316;0,479649;0,349874;0,357978;0,479649;0,479649;0,638412;0,000000;0,413434;0,479649;0,375713;0,396316;0,396316;0,729649;0,358824;0,396316;0,413401;0,396316;0,419561;0,445863;0,396316;0,329649;0,329649;0,329649;0,329649;0,329649;0,396316;0,396316;0,479649;0,562982;0,729649;0,402650;0,384878;0,396316;0,396316;0,432666;0,432666;0,396316;0,312982;0,312982;0,312982;0,312982;0,312982;0,354649;0,354649;0,354649;0,792632;0,373934;0,396316;0,729649;0,396316;0,396316;0,358824;0,396316;0,396316;0,396316;0,959298;0,479649;0,396316;0,373934;0,479649;0,396316;0,354649;0,354649;0,479649;0,329649;0,329649;0,329649;0,396316;0,432666;0,354649;0,354649;0,329649;0,479649;0,729649;0,729649;0,000000;0,000000;0,000000;0,000000;0,000000;0,396316;
11;;;;;;;;;;;1,000000;0,605593;0,536950;0,536950;0,536950;0,453616;0,432269;0,621041;0,454701;0,453616;0,453616;0,453616;0,453616;0,489967;0,453616;0,536950;0,407175;0,415279;0,536950;0,536950;0,642545;0,000000;0,762992;0,536950;0,433014;0,453616;0,453616;0,786950;0,716758;0,453616;0,470702;0,640023;0,618326;0,658030;0,453616;0,386950;0,386950;0,386950;0,386950;0,386950;0,453616;0,453616;0,536950;0,620283;0,786950;0,459951;0,442179;0,453616;0,453616;0,489967;0,489967;0,640023;0,370283;0,370283;0,370283;0,370283;0,370283;0,704234;0,704234;0,704234;0,733524;0,520066;0,640023;0,786950;0,453616;0,453616;0,416124;0,453616;0,453616;0,453616;0,536950;0,536950;0,453616;0,431235;0,536950;0,640023;0,411950;0,411950;0,536950;0,386950;0,386950;0,386950;0,829234;0,489967;0,556690;0,556690;0,386950;0,536950;0,786950;0,786950;0,266655;0,266655;0,000000;0,000000;0,000000;0,453616;
12;;;;;;;;;;;;1,000000;0,453017;0,453017;0,453017;0,369684;0,348337;0,521141;0,370769;0,369684;0,369684;0,369684;0,369684;0,406035;0,369684;0,453017;0,323243;0,331347;0,453017;0,453017;0,634758;0,000000;0,666474;0,453017;0,349081;0,369684;0,369684;0,703017;0,557252;0,369684;0,386770;0,632236;0,610539;0,609844;0,369684;0,303017;0,303017;0,303017;0,303017;0,303017;0,369684;0,369684;0,453017;0,536351;0,703017;0,376018;0,358247;0,369684;0,369684;0,406035;0,406035;0,632236;0,286351;0,286351;0,286351;0,286351;0,286351;0,548903;0,548903;0,548903;0,369684;0,512279;0,632236;0,703017;0,369684;0,369684;0,332192;0,369684;0,369684;0,369684;0,453017;0,453017;0,369684;0,347303;0,453017;0,632236;0,328017;0,328017;0,453017;0,303017;0,303017;0,303017;0,632236;0,406035;0,548903;0,548903;0,303017;0,453017;0,703017;0,703017;0,000000;0,000000;0,000000;0,000000;0,000000;0,369684;
13;;;;;;;;;;;;;1,000000;0,500000;0,500000;0,416667;0,395319;0,721633;0,417752;0,416667;0,416667;0,416667;0,416667;0,453017;0,416667;0,500000;0,370225;0,378329;0,500000;0,500000;0,417037;0,000000;0,433785;0,500000;0,396064;0,416667;0,416667;0,750000;0,379175;0,416667;0,433752;0,416667;0,439912;0,466214;0,416667;0,350000;0,350000;0,350000;0,350000;0,350000;0,416667;0,416667;0,500000;0,583333;0,750000;0,423001;0,405229;0,416667;0,416667;0,453017;0,453017;0,416667;0,333333;0,333333;0,333333;0,333333;0,333333;0,375000;0,375000;0,375000;0,416667;0,394285;0,833333;0,750000;0,416667;0,416667;0,379175;0,416667;0,416667;0,416667;0,500000;0,500000;0,416667;0,394285;0,500000;0,416667;0,375000;0,375000;0,500000;0,350000;0,350000;0,350000;0,416667;0,453017;0,375000;0,375000;0,350000;0,500000;0,750000;0,750000;0,000000;0,000000;0,000000;0,000000;0,000000;0,416667;
14;;;;;;;;;;;;;;1,000000;0,500000;0,416667;0,395319;0,464759;0,727376;0,416667;0,416667;0,416667;0,416667;0,906035;0,833333;0,500000;0,370225;0,378329;0,500000;0,500000;0,417037;0,375000;0,433785;0,500000;0,396064;0,416667;0,416667;0,750000;0,379175;0,416667;0,433752;0,416667;0,439912;0,466214;0,416667;0,350000;0,350000;0,350000;0,350000;0,350000;0,416667;0,416667;0,500000;0,583333;0,750000;0,423001;0,669391;0,416667;0,416667;0,453017;0,453017;0,416667;0,333333;0,333333;0,333333;0,333333;0,333333;0,375000;0,375000;0,375000;0,416667;0,394285;0,416667;0,750000;0,416667;0,416667;0,758349;0,416667;0,416667;0,416667;0,500000;0,500000;0,416667;0,394285;0,500000;0,416667;0,375000;0,375000;1,000000;0,350000;0,350000;0,350000;0,416667;0,453017;0,375000;0,375000;0,350000;0,500000;0,750000;0,750000;0,000000;0,000000;0,000000;0,000000;0,000000;0,416667;
15;;;;;;;;;;;;;;;1,000000;0,416667;0,395319;0,721581;0,417752;0,416667;0,416667;0,416667;0,416667;0,453017;0,416667;0,500000;0,370225;0,378329;0,500000;0,500000;0,679114;0,000000;0,433785;0,500000;0,396064;0,416667;0,416667;0,750000;0,379175;0,416667;0,433752;0,416667;0,439912;0,466214;0,416667;0,350000;0,350000;0,350000;0,350000;0,350000;0,416667;0,416667;0,500000;0,583333;0,750000;0,423001;0,405229;0,416667;0,416667;0,453017;0,453017;0,416667;0,333333;0,333333;0,333333;0,333333;0,333333;0,375000;0,375000;0,375000;0,833333;0,394285;0,416667;0,750000;0,416667;0,416667;0,379175;0,416667;0,416667;0,416667;1,000000;0,500000;0,416667;0,394285;0,500000;0,416667;0,375000;0,375000;0,500000;0,350000;0,350000;0,350000;0,416667;0,453017;0,375000;0,375000;0,350000;0,500000;0,750000;0,750000;0,000000;0,000000;0,000000;0,000000;0,000000;0,416667;
16;;;;;;;;;;;;;;;;1,000000;0,559529;0,381426;0,745177;0,333333;0,333333;0,333333;0,333333;0,369684;0,333333;0,416667;0,286892;0,294996;0,416667;0,416667;0,333703;0,291667;0,350452;0,416667;0,813369;0,333333;0,333333;0,666667;0,295841;0,333333;0,350419;0,333333;0,356579;0,382881;0,333333;0,266667;0,266667;0,266667;0,266667;0,266667;0,333333;0,666667;0,416667;0,500000;0,666667;0,679335;0,606430;0,333333;0,333333;0,369684;0,369684;0,333333;0,500000;0,500000;0,500000;0,500000;0,500000;0,291667;0,291667;0,291667;0,333333;0,310952;0,333333;0,666667;0,333333;0,333333;0,519501;0,333333;0,333333;0,333333;0,416667;0,416667;0,333333;0,310952;0,416667;0,333333;0,291667;0,291667;0,416667;0,266667;0,266667;0,266667;0,333333;0,369684;0,291667;0,291667;0,533333;0,416667;0,666667;0,666667;0,000000;0,000000;0,000000;0,000000;0,000000;0,333333;
17;;;;;;;;;;;;;;;;;1,000000;0,441563;0,683328;0,453696;0,453696;0,311986;0,311986;0,473870;0,311986;0,395319;0,380891;0,374459;0,395319;0,395319;0,400272;0,506126;0,427195;0,511060;0,611394;0,311986;0,311986;0,645319;0,358758;0,311986;0,655188;0,311986;0,335231;0,433810;0,505938;0,245319;0,245319;0,245319;0,245319;0,245319;0,311986;0,754439;0,674896;0,478653;0,645319;0,572197;0,541706;0,311986;0,311986;0,501496;0,348337;0,311986;0,621052;0,621052;0,621052;0,621052;0,621052;0,270319;0,270319;0,270319;0,311986;0,289604;0,311986;0,645319;0,311986;0,311986;0,500935;0,311986;0,311986;0,311986;0,395319;0,395319;0,505938;0,461175;0,672605;0,311986;0,422605;0,422605;0,395319;0,448681;0,448681;0,448681;0,311986;0,548039;0,270319;0,270319;0,426195;0,395319;0,645319;0,645319;0,000000;0,000000;0,000000;0,000000;0,000000;0,311986;
18;;;;;;;;;;;;;;;;;;1,000000;0,462391;0,507307;0,507307;0,381426;0,381426;0,417777;0,381426;0,464759;0,334984;0,343088;0,464759;0,464759;0,656382;0,134806;0,645812;0,564672;0,449302;0,381426;0,381426;0,714759;0,724747;0,381426;0,610688;0,561764;0,540560;0,667179;0,559550;0,314759;0,314759;0,314759;0,314759;0,314759;0,381426;0,559550;0,464759;0,728431;0,714759;0,387760;0,369988;0,575976;0,575976;0,473397;0,519912;0,561764;0,298092;0,298092;0,298092;0,298092;0,298092;0,701213;0,701208;0,701208;0,554914;0,516262;0,554967;0,714759;0,381426;0,381426;0,343934;0,381426;0,381426;0,381426;0,721581;0,464759;0,559550;0,514787;0,726217;0,575976;0,476217;0,476217;0,464759;0,314759;0,314759;0,314759;0,647634;0,417777;0,602224;0,602224;0,314759;0,464759;0,714759;0,714759;0,349342;0,349342;0,000000;0,000000;0,000000;0,381426;
19;;;;;;;;;;;;;;;;;;;1,000000;0,499577;0,499577;0,544132;0,544132;0,633411;0,560710;0,522671;0,660184;0,647163;0,417752;0,417752;0,421100;0,514023;0,425548;0,556942;0,700799;0,516398;0,516398;0,667752;0,404640;0,544132;0,733337;0,334418;0,357663;0,479691;0,730471;0,267752;0,267752;0,267752;0,267752;0,267752;0,727827;0,781808;0,417752;0,501085;0,667752;0,733994;0,752368;0,334418;0,334418;0,431135;0,370769;0,334418;0,344983;0,344983;0,344983;0,344983;0,344983;0,292752;0,292752;0,292752;0,334418;0,312037;0,334418;0,667752;0,513553;0,513553;0,753677;0,334418;0,334418;0,334418;0,417752;0,710798;0,551820;0,507057;0,718486;0,334418;0,468486;0,468486;0,727376;0,493303;0,493303;0,493303;0,334418;0,477679;0,292752;0,292752;0,653824;0,680219;0,667752;0,667752;0,000000;0,000000;0,000000;0,000000;0,000000;0,334418;
20;;;;;;;;;;;;;;;;;;;;1,000000;0,666667;0,333333;0,333333;0,369684;0,333333;0,416667;0,286892;0,294996;0,416667;0,416667;0,468413;0,236405;0,350452;0,619546;0,457833;0,333333;0,333333;0,666667;0,467244;0,333333;0,556113;0,333333;0,356579;0,542296;0,614424;0,266667;0,266667;0,266667;0,266667;0,266667;0,333333;0,614424;0,416667;0,500000;0,666667;0,339667;0,321896;0,333333;0,333333;0,369684;0,369684;0,333333;0,250000;0,250000;0,250000;0,250000;0,250000;0,291667;0,291667;0,291667;0,333333;0,310952;0,333333;0,666667;0,333333;0,333333;0,295841;0,333333;0,333333;0,333333;0,416667;0,416667;0,614424;0,569661;0,781091;0,333333;0,531091;0,531091;0,416667;0,266667;0,266667;0,266667;0,333333;0,369684;0,291667;0,291667;0,266667;0,416667;0,666667;0,666667;0,000000;0,000000;0,000000;0,000000;0,000000;0,666667;
21;;;;;;;;;;;;;;;;;;;;;1,000000;0,333333;0,333333;0,369684;0,333333;0,416667;0,286892;0,294996;0,416667;0,416667;0,468413;0,236405;0,350452;0,619546;0,457833;0,333333;0,333333;0,666667;0,467244;0,333333;0,556113;0,333333;0,356579;0,542296;0,614424;0,266667;0,266667;0,266667;0,266667;0,266667;0,333333;0,614424;0,416667;0,500000;0,666667;0,339667;0,321896;0,333333;0,333333;0,369684;0,369684;0,333333;0,250000;0,250000;0,250000;0,250000;0,250000;0,291667;0,291667;0,291667;0,333333;0,310952;0,333333;0,666667;0,333333;0,333333;0,295841;0,333333;0,333333;0,333333;0,416667;0,416667;0,614424;0,569661;0,781091;0,333333;0,531091;0,531091;0,416667;0,266667;0,266667;0,266667;0,333333;0,369684;0,291667;0,291667;0,266667;0,416667;0,666667;0,666667;0,000000;0,000000;0,000000;0,000000;0,000000;0,666667;
22;;;;;;;;;;;;;;;;;;;;;;1,000000;0,666667;0,369684;0,333333;0,416667;0,573784;0,589992;0,416667;0,416667;0,333703;0,000000;0,350452;0,416667;0,312731;0,333333;0,333333;0,666667;0,295841;0,666667;0,564234;0,333333;0,356579;0,382881;0,333333;0,266667;0,266667;0,266667;0,266667;0,266667;0,666667;0,333333;0,416667;0,500000;0,666667;0,339667;0,508263;0,333333;0,333333;0,369684;0,369684;0,333333;0,250000;0,250000;0,250000;0,250000;0,250000;0,291667;0,291667;0,291667;0,333333;0,310952;0,333333;0,666667;0,333333;0,333333;0,295841;0,333333;0,333333;0,333333;0,416667;0,833333;0,333333;0,310952;0,416667;0,333333;0,291667;0,291667;0,416667;0,266667;0,266667;0,266667;0,333333;0,369684;0,291667;0,291667;0,266667;0,416667;0,666667;0,666667;0,000000;0,000000;0,000000;0,000000;0,000000;0,333333;
23;;;;;;;;;;;;;;;;;;;;;;;1,000000;0,369684;0,333333;0,416667;0,573784;0,589992;0,416667;0,416667;0,333703;0,000000;0,350452;0,416667;0,312731;0,333333;0,333333;0,666667;0,295841;1,000000;0,564234;0,333333;0,356579;0,382881;0,333333;0,266667;0,266667;0,266667;0,266667;0,266667;0,666667;0,333333;0,416667;0,500000;0,666667;0,339667;0,508263;0,333333;0,333333;0,369684;0,369684;0,333333;0,250000;0,250000;0,250000;0,250000;0,250000;0,291667;0,291667;0,291667;0,333333;0,310952;0,333333;0,666667;0,333333;0,333333;0,295841;0,333333;0,333333;0,333333;0,416667;0,833333;0,333333;0,310952;0,416667;0,333333;0,291667;0,291667;0,416667;0,266667;0,266667;0,266667;0,333333;0,369684;0,291667;0,291667;0,266667;0,416667;0,666667;0,666667;0,000000;0,000000;0,000000;0,000000;0,000000;0,333333;
24;;;;;;;;;;;;;;;;;;;;;;;;1,000000;0,739368;0,453017;0,504970;0,498537;0,453017;0,453017;0,370054;0,547436;0,386803;0,453017;0,478291;0,369684;0,369684;0,703017;0,332192;0,369684;0,539454;0,369684;0,392929;0,419231;0,369684;0,303017;0,303017;0,303017;0,303017;0,303017;0,369684;0,369684;0,798974;0,536351;0,703017;0,376018;0,685230;0,369684;0,369684;0,406035;0,406035;0,369684;0,286351;0,286351;0,286351;0,286351;0,286351;0,328017;0,328017;0,328017;0,369684;0,347303;0,369684;0,703017;0,369684;0,369684;0,814145;0,369684;0,369684;0,369684;0,453017;0,453017;0,369684;0,347303;0,453017;0,369684;0,328017;0,328017;0,906035;0,303017;0,303017;0,303017;0,369684;0,406035;0,328017;0,328017;0,303017;0,453017;0,703017;0,703017;0,000000;0,000000;0,000000;0,000000;0,000000;0,369684;
25;;;;;;;;;;;;;;;;;;;;;;;;;1,000000;0,416667;0,286892;0,294996;0,416667;0,416667;0,333703;0,291667;0,350452;0,416667;0,312731;0,333333;0,333333;0,666667;0,295841;0,333333;0,350419;0,333333;0,356579;0,382881;0,333333;0,266667;0,266667;0,266667;0,266667;0,266667;0,333333;0,333333;0,416667;0,500000;0,666667;0,339667;0,502724;0,333333;0,333333;0,369684;0,369684;0,333333;0,250000;0,250000;0,250000;0,250000;0,250000;0,291667;0,291667;0,291667;0,333333;0,310952;0,333333;0,666667;0,333333;0,333333;0,591682;0,333333;0,333333;0,333333;0,416667;0,416667;0,333333;0,310952;0,416667;0,333333;0,291667;0,291667;0,833333;0,266667;0,266667;0,266667;0,333333;0,369684;0,291667;0,291667;0,266667;0,416667;0,666667;0,666667;0,000000;0,000000;0,000000;0,000000;0,000000;0,333333;
26;;;;;;;;;;;;;;;;;;;;;;;;;;1,000000;0,515685;0,514125;0,500000;0,500000;0,417037;0,000000;0,433785;0,500000;0,501351;0,672939;0,672939;0,750000;0,379175;0,416667;0,433752;0,416667;0,439912;0,466214;0,416667;0,350000;0,350000;0,350000;0,350000;0,350000;0,416667;0,416667;0,500000;0,583333;0,750000;0,531592;0,509081;0,416667;0,416667;0,453017;0,453017;0,416667;0,333333;0,333333;0,333333;0,333333;0,333333;0,375000;0,375000;0,375000;0,416667;0,394285;0,416667;0,750000;0,416667;0,416667;0,548125;0,416667;0,416667;0,416667;0,500000;0,500000;0,416667;0,394285;0,500000;0,416667;0,375000;0,375000;0,500000;0,539606;0,539606;0,539606;0,416667;0,453017;0,375000;0,375000;0,539606;0,500000;0,750000;0,750000;0,000000;0,000000;0,000000;0,000000;0,000000;0,416667;
27;;;;;;;;;;;;;;;;;;;;;;;;;;;1,000000;0,753758;0,370225;0,370225;0,287262;0,207362;0,304011;0,370225;0,456818;0,509413;0,509413;0,620225;0,249400;0,573784;0,610466;0,286892;0,310137;0,336439;0,286892;0,220225;0,220225;0,220225;0,220225;0,220225;0,860676;0,286892;0,705995;0,453559;0,620225;0,368066;0,582847;0,286892;0,286892;0,323243;0,323243;0,286892;0,203559;0,203559;0,203559;0,203559;0,203559;0,245225;0,245225;0,245225;0,286892;0,264510;0,286892;0,620225;0,286892;0,286892;0,521598;0,286892;0,286892;0,286892;0,370225;0,740450;0,286892;0,264510;0,370225;0,286892;0,245225;0,245225;0,370225;0,376079;0,376079;0,376079;0,286892;0,323243;0,245225;0,245225;0,376079;0,370225;0,620225;0,620225;0,000000;0,000000;0,000000;0,000000;0,000000;0,286892;
28;;;;;;;;;;;;;;;;;;;;;;;;;;;;1,000000;0,378329;0,378329;0,295366;0,192698;0,312115;0,378329;0,441574;0,507852;0,507852;0,628329;0,257504;0,589992;0,611810;0,294996;0,318241;0,344543;0,294996;0,228329;0,228329;0,228329;0,228329;0,228329;0,589992;0,294996;0,699563;0,461662;0,628329;0,366505;0,575021;0,294996;0,294996;0,331347;0,331347;0,294996;0,211662;0,211662;0,211662;0,211662;0,211662;0,253329;0,253329;0,253329;0,294996;0,272614;0,294996;0,628329;0,294996;0,294996;0,506354;0,294996;0,294996;0,294996;0,378329;0,756658;0,294996;0,272614;0,378329;0,294996;0,253329;0,253329;0,378329;0,374519;0,374519;0,374519;0,294996;0,331347;0,253329;0,253329;0,374519;0,378329;0,628329;0,628329;0,000000;0,000000;0,000000;0,000000;0,000000;0,294996;
29;;;;;;;;;;;;;;;;;;;;;;;;;;;;;1,000000;0,500000;0,417037;0,000000;0,433785;0,500000;0,396064;0,416667;0,416667;0,750000;0,379175;0,416667;0,433752;0,416667;0,439912;0,466214;0,416667;0,350000;0,350000;0,350000;0,350000;0,350000;0,416667;0,416667;0,500000;0,583333;0,750000;0,423001;0,405229;0,416667;0,416667;0,453017;0,453017;0,416667;0,333333;0,333333;0,333333;0,333333;0,333333;0,375000;0,375000;0,375000;0,416667;0,394285;0,416667;0,750000;0,416667;0,416667;0,379175;0,416667;0,416667;0,416667;0,500000;0,500000;0,416667;0,394285;0,500000;0,416667;0,375000;0,375000;0,500000;0,350000;0,350000;0,350000;0,416667;0,453017;0,375000;0,375000;0,350000;0,500000;0,750000;0,750000;0,000000;0,000000;0,000000;0,000000;0,000000;0,416667;
30;;;;;;;;;;;;;;;;;;;;;;;;;;;;;;1,000000;0,417037;0,000000;0,433785;0,500000;0,396064;0,416667;0,416667;0,750000;0,379175;0,416667;0,433752;0,416667;0,439912;0,466214;0,416667;0,350000;0,350000;0,350000;0,350000;0,350000;0,416667;0,416667;0,500000;0,583333;0,750000;0,423001;0,405229;0,416667;0,416667;0,453017;0,453017;0,416667;0,333333;0,333333;0,333333;0,333333;0,333333;0,375000;0,375000;0,375000;0,416667;0,394285;0,416667;0,750000;0,416667;0,416667;0,379175;0,416667;0,416667;0,416667;0,500000;0,500000;0,416667;0,394285;0,500000;0,416667;0,375000;0,375000;0,500000;0,350000;0,350000;0,350000;0,416667;0,453017;0,375000;0,375000;0,350000;0,500000;0,750000;0,750000;0,000000;0,000000;0,000000;0,000000;0,000000;0,416667;
31;;;;;;;;;;;;;;;;;;;;;;;;;;;;;;;1,000000;0,142602;0,779299;0,525778;0,408011;0,333703;0,333703;0,667037;0,736843;0,333703;0,569397;0,669189;0,647491;0,749873;0,520656;0,267037;0,267037;0,267037;0,267037;0,267037;0,333703;0,520656;0,417037;0,500370;0,667037;0,340037;0,322266;0,509014;0,509014;0,370054;0,370054;0,669189;0,250370;0,250370;0,250370;0,250370;0,250370;0,730150;0,730147;0,730147;0,512447;0,549231;0,669189;0,667037;0,333703;0,333703;0,296211;0,333703;0,333703;0,333703;0,679114;0,417037;0,520656;0,475893;0,687323;0,844022;0,437323;0,437323;0,417037;0,267037;0,267037;0,267037;0,669189;0,370054;0,585855;0,585855;0,267037;0,417037;0,667037;0,667037;0,306053;0,306053;0,000000;0,000000;0,000000;0,333703;
32;;;;;;;;;;;;;;;;;;;;;;;;;;;;;;;;1,000000;0,000000;0,200798;0,485687;0,000000;0,000000;0,000000;0,178355;0,000000;0,381885;0,000000;0,000000;0,167247;0,291667;0,000000;0,000000;0,000000;0,000000;0,000000;0,000000;0,583333;0,375000;0,000000;0,000000;0,298001;0,515704;0,000000;0,000000;0,000000;0,000000;0,000000;0,000000;0,000000;0,000000;0,000000;0,000000;0,000000;0,000000;0,000000;0,000000;0,000000;0,000000;0,000000;0,000000;0,000000;0,617125;0,000000;0,000000;0,000000;0,000000;0,000000;0,291667;0,269285;0,375000;0,000000;0,250000;0,250000;0,375000;0,000000;0,000000;0,000000;0,000000;0,000000;0,000000;0,000000;0,225000;0,000000;0,000000;0,000000;0,000000;0,000000;0,000000;0,000000;0,000000;0,000000;
33;;;;;;;;;;;;;;;;;;;;;;;;;;;;;;;;;1,000000;0,433785;0,431620;0,350452;0,350452;0,683785;0,821282;0,350452;0,527885;0,700904;0,679206;0,762553;0,350452;0,283785;0,283785;0,283785;0,283785;0,283785;0,350452;0,350452;0,433785;0,517119;0,683785;0,356786;0,339015;0,350452;0,350452;0,386803;0,386803;0,700904;0,267119;0,267119;0,267119;0,267119;0,267119;0,808758;0,808758;0,808758;0,350452;0,580947;0,700904;0,683785;0,350452;0,350452;0,312960;0,350452;0,350452;0,350452;0,433785;0,433785;0,350452;0,328071;0,433785;0,700904;0,308785;0,308785;0,433785;0,283785;0,283785;0,283785;0,933758;0,386803;0,617571;0,617571;0,283785;0,433785;0,683785;0,683785;0,316409;0,316409;0,000000;0,000000;0,000000;0,350452;
34;;;;;;;;;;;;;;;;;;;;;;;;;;;;;;;;;;1,000000;0,515198;0,416667;0,416667;0,750000;0,524609;0,416667;0,613478;0,416667;0,439912;0,599660;0,671789;0,350000;0,350000;0,350000;0,350000;0,350000;0,416667;0,671789;0,500000;0,583333;0,750000;0,423001;0,405229;0,416667;0,416667;0,453017;0,453017;0,416667;0,333333;0,333333;0,333333;0,333333;0,333333;0,375000;0,375000;0,375000;0,416667;0,394285;0,416667;0,750000;0,416667;0,416667;0,379175;0,416667;0,416667;0,416667;0,500000;0,500000;0,671789;0,627026;0,838455;0,416667;0,588455;0,588455;0,500000;0,350000;0,350000;0,350000;0,416667;0,453017;0,375000;0,375000;0,350000;0,500000;0,750000;0,750000;0,000000;0,000000;0,000000;0,000000;0,000000;0,416667;
35;;;;;;;;;;;;;;;;;;;;;;;;;;;;;;;;;;;1,000000;0,495078;0,495078;0,646064;0,362896;0,312731;0,666559;0,312731;0,335976;0,437947;0,510076;0,246064;0,246064;0,246064;0,246064;0,246064;0,312731;0,729898;0,679316;0,479397;0,646064;0,575388;0,544597;0,312731;0,312731;0,478818;0,574044;0,312731;0,428189;0,428189;0,428189;0,428189;0,428189;0,271064;0,271064;0,271064;0,312731;0,395722;0,312731;0,646064;0,312731;0,312731;0,557836;0,312731;0,312731;0,312731;0,396064;0,396064;0,510076;0,465313;0,676742;0,312731;0,426742;0,426742;0,396064;0,599613;0,599613;0,599613;0,312731;0,574044;0,271064;0,271064;0,511397;0,396064;0,646064;0,646064;0,000000;0,000000;0,000000;0,000000;0,000000;0,312731;
36;;;;;;;;;;;;;;;;;;;;;;;;;;;;;;;;;;;;1,000000;0,666667;0,666667;0,295841;0,333333;0,350419;0,333333;0,356579;0,382881;0,333333;0,266667;0,266667;0,266667;0,266667;0,266667;0,333333;0,333333;0,416667;0,500000;0,666667;0,525320;0,502808;0,333333;0,333333;0,369684;0,369684;0,333333;0,250000;0,250000;0,250000;0,250000;0,250000;0,291667;0,291667;0,291667;0,333333;0,310952;0,333333;0,666667;0,333333;0,333333;0,541853;0,333333;0,333333;0,333333;0,416667;0,416667;0,333333;0,310952;0,416667;0,333333;0,291667;0,291667;0,416667;0,533333;0,533333;0,533333;0,333333;0,369684;0,291667;0,291667;0,533333;0,416667;0,666667;0,666667;0,000000;0,000000;0,000000;0,000000;0,000000;0,333333;
37;;;;;;;;;;;;;;;;;;;;;;;;;;;;;;;;;;;;;1,000000;0,666667;0,295841;0,333333;0,350419;0,333333;0,356579;0,382881;0,333333;0,266667;0,266667;0,266667;0,266667;0,266667;0,333333;0,333333;0,416667;0,500000;0,666667;0,525320;0,502808;0,333333;0,333333;0,369684;0,369684;0,333333;0,250000;0,250000;0,250000;0,250000;0,250000;0,291667;0,291667;0,291667;0,333333;0,310952;0,333333;0,666667;0,333333;0,333333;0,541853;0,333333;0,333333;0,333333;0,416667;0,416667;0,333333;0,310952;0,416667;0,333333;0,291667;0,291667;0,416667;0,533333;0,533333;0,533333;0,333333;0,369684;0,291667;0,291667;0,533333;0,416667;0,666667;0,666667;0,000000;0,000000;0,000000;0,000000;0,000000;0,333333;
38;;;;;;;;;;;;;;;;;;;;;;;;;;;;;;;;;;;;;;1,000000;0,629175;0,666667;0,683752;0,666667;0,689912;0,716214;0,666667;0,600000;0,600000;0,600000;0,600000;0,600000;0,666667;0,666667;0,750000;0,833333;1,000000;0,673001;0,655229;0,666667;0,666667;0,703017;0,703017;0,666667;0,583333;0,583333;0,583333;0,583333;0,583333;0,625000;0,625000;0,625000;0,666667;0,644285;0,666667;1,000000;0,666667;0,666667;0,629175;0,666667;0,666667;0,666667;0,750000;0,750000;0,666667;0,644285;0,750000;0,666667;0,625000;0,625000;0,750000;0,600000;0,600000;0,600000;0,666667;0,703017;0,625000;0,625000;0,600000;0,750000;1,000000;1,000000;0,000000;0,000000;0,000000;0,000000;0,000000;0,666667;
39;;;;;;;;;;;;;;;;;;;;;;;;;;;;;;;;;;;;;;;1,000000;0,295841;0,461176;0,591682;0,569985;0,816989;0,519487;0,229175;0,229175;0,229175;0,229175;0,229175;0,295841;0,519487;0,379175;0,462508;0,629175;0,302175;0,284404;0,519689;0,519689;0,332192;0,332192;0,591682;0,212508;0,212508;0,212508;0,212508;0,212508;0,762524;0,762524;0,762524;0,295841;0,471725;0,591682;0,629175;0,295841;0,295841;0,258349;0,295841;0,295841;0,295841;0,379175;0,379175;0,519487;0,474724;0,686153;0,814013;0,436153;0,436153;0,379175;0,229175;0,229175;0,229175;0,887524;0,332192;0,508349;0,508349;0,229175;0,379175;0,629175;0,629175;0,379175;0,379175;0,000000;0,000000;0,000000;0,295841;
40;;;;;;;;;;;;;;;;;;;;;;;;;;;;;;;;;;;;;;;;1,000000;0,564234;0,333333;0,356579;0,382881;0,333333;0,266667;0,266667;0,266667;0,266667;0,266667;0,666667;0,333333;0,416667;0,500000;0,666667;0,339667;0,508263;0,333333;0,333333;0,369684;0,369684;0,333333;0,250000;0,250000;0,250000;0,250000;0,250000;0,291667;0,291667;0,291667;0,333333;0,310952;0,333333;0,666667;0,333333;0,333333;0,295841;0,333333;0,333333;0,333333;0,416667;0,833333;0,333333;0,310952;0,416667;0,333333;0,291667;0,291667;0,416667;0,266667;0,266667;0,266667;0,333333;0,369684;0,291667;0,291667;0,266667;0,416667;0,666667;0,666667;0,000000;0,000000;0,000000;0,000000;0,000000;0,333333;
41;;;;;;;;;;;;;;;;;;;;;;;;;;;;;;;;;;;;;;;;;1,000000;0,350419;0,373664;0,536227;0,817531;0,283752;0,283752;0,283752;0,283752;0,283752;0,564234;0,608356;0,740479;0,517085;0,683752;0,356753;0,585705;0,350419;0,350419;0,386770;0,386770;0,350419;0,267085;0,267085;0,267085;0,267085;0,267085;0,308752;0,308752;0,308752;0,350419;0,328037;0,350419;0,683752;0,564401;0,564401;0,426690;0,350419;0,350419;0,350419;0,433752;0,730900;0,608356;0,563593;0,775022;0,350419;0,525022;0,525022;0,433752;0,283752;0,283752;0,283752;0,350419;0,386770;0,308752;0,308752;0,283752;0,731067;0,683752;0,683752;0,000000;0,000000;0,000000;0,000000;0,000000;0,350419;
42;;;;;;;;;;;;;;;;;;;;;;;;;;;;;;;;;;;;;;;;;;1,000000;0,644969;0,644275;0,333333;0,266667;0,266667;0,266667;0,266667;0,266667;0,333333;0,333333;0,416667;0,833333;0,666667;0,339667;0,321896;0,333333;0,333333;0,369684;0,369684;1,000000;0,250000;0,250000;0,250000;0,250000;0,250000;0,583333;0,583333;0,583333;0,333333;0,546709;0,666667;0,666667;0,333333;0,333333;0,295841;0,333333;0,333333;0,333333;0,416667;0,416667;0,333333;0,310952;0,416667;0,666667;0,291667;0,291667;0,416667;0,266667;0,266667;0,266667;0,666667;0,369684;0,583333;0,583333;0,266667;0,416667;0,666667;0,666667;0,000000;0,000000;0,000000;0,000000;0,000000;0,333333;
43;;;;;;;;;;;;;;;;;;;;;;;;;;;;;;;;;;;;;;;;;;;1,000000;0,622577;0,356579;0,289912;0,289912;0,289912;0,289912;0,289912;0,356579;0,356579;0,439912;0,523245;0,689912;0,362913;0,345141;0,356579;0,356579;0,392929;0,392929;0,644969;0,273245;0,273245;0,273245;0,273245;0,273245;0,561636;0,561636;0,561636;0,356579;0,525012;0,644969;0,689912;0,356579;0,356579;0,319086;0,356579;0,356579;0,356579;0,439912;0,439912;0,356579;0,334197;0,439912;0,644969;0,314912;0,314912;0,439912;0,289912;0,289912;0,289912;0,644969;0,392929;0,561636;0,561636;0,289912;0,439912;0,689912;0,689912;0,000000;0,000000;0,000000;0,000000;0,000000;0,356579;
44;;;;;;;;;;;;;;;;;;;;;;;;;;;;;;;;;;;;;;;;;;;;1,000000;0,594538;0,316214;0,316214;0,316214;0,316214;0,316214;0,382881;0,594538;0,466214;0,549547;0,716214;0,389215;0,371443;0,597181;0,597181;0,419231;0,419231;0,644275;0,299547;0,299547;0,299547;0,299547;0,299547;0,703795;0,703795;0,703795;0,382881;0,524317;0,644275;0,716214;0,382881;0,382881;0,345389;0,382881;0,382881;0,382881;0,466214;0,466214;0,594538;0,549775;0,761205;0,644275;0,511205;0,511205;0,466214;0,316214;0,316214;0,316214;0,828795;0,419231;0,560941;0,560941;0,316214;0,466214;0,716214;0,716214;0,269649;0,269649;0,000000;0,000000;0,000000;0,382881;
45;;;;;;;;;;;;;;;;;;;;;;;;;;;;;;;;;;;;;;;;;;;;;1,000000;0,266667;0,266667;0,266667;0,266667;0,266667;0,333333;0,666667;0,416667;0,500000;0,666667;0,339667;0,550548;0,333333;0,333333;0,369684;0,369684;0,333333;0,250000;0,250000;0,250000;0,250000;0,250000;0,291667;0,291667;0,291667;0,333333;0,310952;0,333333;0,666667;0,666667;0,666667;0,295841;0,333333;0,333333;0,333333;0,416667;0,416667;0,666667;0,621904;0,833333;0,333333;0,583333;0,583333;0,416667;0,266667;0,266667;0,266667;0,333333;0,369684;0,291667;0,291667;0,266667;0,833333;0,666667;0,666667;0,000000;0,000000;0,000000;0,000000;0,000000;0,333333;
46;;;;;;;;;;;;;;;;;;;;;;;;;;;;;;;;;;;;;;;;;;;;;;1,000000;0,800000;0,800000;0,800000;0,800000;0,266667;0,266667;0,350000;0,433333;0,600000;0,273001;0,255229;0,266667;0,266667;0,303017;0,303017;0,266667;0,183333;0,183333;0,183333;0,183333;0,183333;0,225000;0,225000;0,225000;0,266667;0,244285;0,266667;0,600000;0,266667;0,266667;0,229175;0,266667;0,266667;0,266667;0,350000;0,350000;0,266667;0,244285;0,350000;0,266667;0,225000;0,225000;0,350000;0,200000;0,200000;0,200000;0,266667;0,303017;0,225000;0,225000;0,200000;0,350000;0,600000;0,600000;0,000000;0,000000;0,000000;0,000000;0,000000;0,266667;
47;;;;;;;;;;;;;;;;;;;;;;;;;;;;;;;;;;;;;;;;;;;;;;;1,000000;0,800000;0,800000;0,800000;0,266667;0,266667;0,350000;0,433333;0,600000;0,273001;0,255229;0,266667;0,266667;0,303017;0,303017;0,266667;0,183333;0,183333;0,183333;0,183333;0,183333;0,225000;0,225000;0,225000;0,266667;0,244285;0,266667;0,600000;0,266667;0,266667;0,229175;0,266667;0,266667;0,266667;0,350000;0,350000;0,266667;0,244285;0,350000;0,266667;0,225000;0,225000;0,350000;0,200000;0,200000;0,200000;0,266667;0,303017;0,225000;0,225000;0,200000;0,350000;0,600000;0,600000;0,000000;0,000000;0,000000;0,000000;0,000000;0,266667;
48;;;;;;;;;;;;;;;;;;;;;;;;;;;;;;;;;;;;;;;;;;;;;;;;1,000000;0,800000;0,800000;0,266667;0,266667;0,350000;0,433333;0,600000;0,273001;0,255229;0,266667;0,266667;0,303017;0,303017;0,266667;0,183333;0,183333;0,183333;0,183333;0,183333;0,225000;0,225000;0,225000;0,266667;0,244285;0,266667;0,600000;0,266667;0,266667;0,229175;0,266667;0,266667;0,266667;0,350000;0,350000;0,266667;0,244285;0,350000;0,266667;0,225000;0,225000;0,350000;0,200000;0,200000;0,200000;0,266667;0,303017;0,225000;0,225000;0,200000;0,350000;0,600000;0,600000;0,000000;0,000000;0,000000;0,000000;0,000000;0,266667;
49;;;;;;;;;;;;;;;;;;;;;;;;;;;;;;;;;;;;;;;;;;;;;;;;;1,000000;0,800000;0,266667;0,266667;0,350000;0,433333;0,600000;0,273001;0,255229;0,266667;0,266667;0,303017;0,303017;0,266667;0,183333;0,183333;0,183333;0,183333;0,183333;0,225000;0,225000;0,225000;0,266667;0,244285;0,266667;0,600000;0,266667;0,266667;0,229175;0,266667;0,266667;0,266667;0,350000;0,350000;0,266667;0,244285;0,350000;0,266667;0,225000;0,225000;0,350000;0,200000;0,200000;0,200000;0,266667;0,303017;0,225000;0,225000;0,200000;0,350000;0,600000;0,600000;0,000000;0,000000;0,000000;0,000000;0,000000;0,266667;
50;;;;;;;;;;;;;;;;;;;;;;;;;;;;;;;;;;;;;;;;;;;;;;;;;;1,000000;0,266667;0,266667;0,350000;0,433333;0,600000;0,273001;0,255229;0,266667;0,266667;0,303017;0,303017;0,266667;0,183333;0,183333;0,183333;0,183333;0,183333;0,225000;0,225000;0,225000;0,266667;0,244285;0,266667;0,600000;0,266667;0,266667;0,229175;0,266667;0,266667;0,266667;0,350000;0,350000;0,266667;0,244285;0,350000;0,266667;0,225000;0,225000;0,350000;0,200000;0,200000;0,200000;0,266667;0,303017;0,225000;0,225000;0,200000;0,350000;0,600000;0,600000;0,000000;0,000000;0,000000;0,000000;0,000000;0,266667;
51;;;;;;;;;;;;;;;;;;;;;;;;;;;;;;;;;;;;;;;;;;;;;;;;;;;1,000000;0,333333;0,416667;0,500000;0,666667;0,339667;0,508263;0,333333;0,333333;0,369684;0,369684;0,333333;0,250000;0,250000;0,250000;0,250000;0,250000;0,291667;0,291667;0,291667;0,333333;0,310952;0,333333;0,666667;0,333333;0,333333;0,295841;0,333333;0,333333;0,333333;0,416667;0,833333;0,333333;0,310952;0,416667;0,333333;0,291667;0,291667;0,416667;0,266667;0,266667;0,266667;0,333333;0,369684;0,291667;0,291667;0,266667;0,416667;0,666667;0,666667;0,000000;0,000000;0,000000;0,000000;0,000000;0,333333;
52;;;;;;;;;;;;;;;;;;;;;;;;;;;;;;;;;;;;;;;;;;;;;;;;;;;;1,000000;0,416667;0,500000;0,666667;0,679335;0,606430;0,333333;0,333333;0,369684;0,369684;0,333333;0,250000;0,250000;0,250000;0,250000;0,250000;0,291667;0,291667;0,291667;0,333333;0,310952;0,333333;0,666667;0,333333;0,333333;0,519501;0,333333;0,333333;0,333333;0,416667;0,416667;0,666667;0,621904;0,833333;0,333333;0,583333;0,583333;0,416667;0,266667;0,266667;0,266667;0,333333;0,369684;0,291667;0,291667;0,533333;0,416667;0,666667;0,666667;0,000000;0,000000;0,000000;0,000000;0,000000;0,333333;
53;;;;;;;;;;;;;;;;;;;;;;;;;;;;;;;;;;;;;;;;;;;;;;;;;;;;;1,000000;0,583333;0,750000;0,423001;0,669415;0,416667;0,416667;0,453017;0,453017;0,416667;0,333333;0,333333;0,333333;0,333333;0,333333;0,375000;0,375000;0,375000;0,416667;0,394285;0,416667;0,750000;0,416667;0,416667;0,686210;0,416667;0,416667;0,416667;0,500000;0,500000;0,416667;0,394285;0,500000;0,416667;0,375000;0,375000;0,500000;0,350000;0,350000;0,350000;0,416667;0,453017;0,375000;0,375000;0,350000;0,500000;0,750000;0,750000;0,000000;0,000000;0,000000;0,000000;0,000000;0,416667;
54;;;;;;;;;;;;;;;;;;;;;;;;;;;;;;;;;;;;;;;;;;;;;;;;;;;;;;1,000000;0,833333;0,506334;0,488563;0,500000;0,500000;0,536351;0,536351;0,833333;0,416667;0,416667;0,416667;0,416667;0,416667;0,458333;0,458333;0,458333;0,500000;0,477618;0,500000;0,833333;0,500000;0,500000;0,462508;0,500000;0,500000;0,500000;0,583333;0,583333;0,500000;0,477618;0,583333;0,500000;0,458333;0,458333;0,583333;0,433333;0,433333;0,433333;0,500000;0,536351;0,458333;0,458333;0,433333;0,583333;0,833333;0,833333;0,000000;0,000000;0,000000;0,000000;0,000000;0,500000;
55;;;;;;;;;;;;;;;;;;;;;;;;;;;;;;;;;;;;;;;;;;;;;;;;;;;;;;;1,000000;0,673001;0,655229;0,666667;0,666667;0,703017;0,703017;0,666667;0,583333;0,583333;0,583333;0,583333;0,583333;0,625000;0,625000;0,625000;0,666667;0,644285;0,666667;1,000000;0,666667;0,666667;0,629175;0,666667;0,666667;0,666667;0,750000;0,750000;0,666667;0,644285;0,750000;0,666667;0,625000;0,625000;0,750000;0,600000;0,600000;0,600000;0,666667;0,703017;0,625000;0,625000;0,600000;0,750000;1,000000;1,000000;0,000000;0,000000;0,000000;0,000000;0,000000;0,666667;
56;;;;;;;;;;;;;;;;;;;;;;;;;;;;;;;;;;;;;;;;;;;;;;;;;;;;;;;;1,000000;0,686880;0,339667;0,339667;0,376018;0,376018;0,339667;0,256334;0,256334;0,256334;0,256334;0,256334;0,298001;0,298001;0,298001;0,339667;0,317286;0,339667;0,673001;0,339667;0,339667;0,794333;0,339667;0,339667;0,339667;0,423001;0,423001;0,339667;0,317286;0,423001;0,339667;0,298001;0,298001;0,423001;0,391986;0,391986;0,391986;0,339667;0,376018;0,298001;0,298001;0,880170;0,423001;0,673001;0,673001;0,000000;0,000000;0,000000;0,000000;0,000000;0,339667;
57;;;;;;;;;;;;;;;;;;;;;;;;;;;;;;;;;;;;;;;;;;;;;;;;;;;;;;;;;1,000000;0,321896;0,321896;0,358247;0,358247;0,321896;0,238563;0,238563;0,238563;0,238563;0,238563;0,280229;0,280229;0,280229;0,321896;0,299514;0,321896;0,655229;0,550548;0,550548;0,759239;0,321896;0,321896;0,321896;0,405229;0,674929;0,321896;0,299514;0,405229;0,321896;0,280229;0,280229;0,669391;0,369475;0,369475;0,369475;0,321896;0,358247;0,280229;0,280229;0,777996;0,717215;0,655229;0,655229;0,000000;0,000000;0,000000;0,000000;0,000000;0,321896;
58;;;;;;;;;;;;;;;;;;;;;;;;;;;;;;;;;;;;;;;;;;;;;;;;;;;;;;;;;;1,000000;0,666667;0,369684;0,369684;0,333333;0,250000;0,250000;0,250000;0,250000;0,250000;0,291667;0,291667;0,291667;0,333333;0,310952;0,333333;0,666667;0,333333;0,333333;0,295841;0,333333;0,333333;0,333333;0,416667;0,416667;0,333333;0,310952;0,416667;0,666667;0,291667;0,291667;0,416667;0,266667;0,266667;0,266667;0,333333;0,369684;0,291667;0,291667;0,266667;0,416667;0,666667;0,666667;0,000000;0,000000;0,000000;0,000000;0,000000;0,333333;
59;;;;;;;;;;;;;;;;;;;;;;;;;;;;;;;;;;;;;;;;;;;;;;;;;;;;;;;;;;;1,000000;0,369684;0,369684;0,333333;0,250000;0,250000;0,250000;0,250000;0,250000;0,291667;0,291667;0,291667;0,333333;0,310952;0,333333;0,666667;0,333333;0,333333;0,295841;0,333333;0,333333;0,333333;0,416667;0,416667;0,333333;0,310952;0,416667;0,666667;0,291667;0,291667;0,416667;0,266667;0,266667;0,266667;0,333333;0,369684;0,291667;0,291667;0,266667;0,416667;0,666667;0,666667;0,000000;0,000000;0,000000;0,000000;0,000000;0,333333;
60;;;;;;;;;;;;;;;;;;;;;;;;;;;;;;;;;;;;;;;;;;;;;;;;;;;;;;;;;;;;1,000000;0,552448;0,369684;0,286351;0,286351;0,286351;0,286351;0,286351;0,328017;0,328017;0,328017;0,369684;0,538584;0,369684;0,703017;0,369684;0,369684;0,332192;0,369684;0,369684;0,369684;0,453017;0,453017;0,369684;0,347303;0,453017;0,369684;0,328017;0,328017;0,453017;0,452814;0,452814;0,452814;0,369684;0,552172;0,502967;0,502967;0,303017;0,453017;0,703017;0,703017;0,000000;0,000000;0,000000;0,000000;0,000000;0,369684;
61;;;;;;;;;;;;;;;;;;;;;;;;;;;;;;;;;;;;;;;;;;;;;;;;;;;;;;;;;;;;;1,000000;0,369684;0,286351;0,286351;0,286351;0,286351;0,286351;0,328017;0,328017;0,328017;0,369684;0,633747;0,369684;0,703017;0,369684;0,369684;0,332192;0,369684;0,369684;0,369684;0,453017;0,453017;0,369684;0,347303;0,453017;0,369684;0,328017;0,328017;0,453017;0,303017;0,303017;0,303017;0,369684;0,812070;0,549482;0,549482;0,303017;0,453017;0,703017;0,703017;0,000000;0,000000;0,000000;0,000000;0,000000;0,369684;
62;;;;;;;;;;;;;;;;;;;;;;;;;;;;;;;;;;;;;;;;;;;;;;;;;;;;;;;;;;;;;;1,000000;0,250000;0,250000;0,250000;0,250000;0,250000;0,583333;0,583333;0,583333;0,333333;0,546709;0,666667;0,666667;0,333333;0,333333;0,295841;0,333333;0,333333;0,333333;0,416667;0,416667;0,333333;0,310952;0,416667;0,666667;0,291667;0,291667;0,416667;0,266667;0,266667;0,266667;0,666667;0,369684;0,583333;0,583333;0,266667;0,416667;0,666667;0,666667;0,000000;0,000000;0,000000;0,000000;0,000000;0,333333;
63;;;;;;;;;;;;;;;;;;;;;;;;;;;;;;;;;;;;;;;;;;;;;;;;;;;;;;;;;;;;;;;1,000000;0,833333;0,833333;0,833333;0,833333;0,208333;0,208333;0,208333;0,250000;0,227618;0,250000;0,583333;0,250000;0,250000;0,212508;0,250000;0,250000;0,250000;0,333333;0,333333;0,250000;0,227618;0,333333;0,250000;0,208333;0,208333;0,333333;0,183333;0,183333;0,183333;0,250000;0,286351;0,208333;0,208333;0,183333;0,333333;0,583333;0,583333;0,000000;0,000000;0,000000;0,000000;0,000000;0,250000;
64;;;;;;;;;;;;;;;;;;;;;;;;;;;;;;;;;;;;;;;;;;;;;;;;;;;;;;;;;;;;;;;;1,000000;0,833333;0,833333;0,833333;0,208333;0,208333;0,208333;0,250000;0,227618;0,250000;0,583333;0,250000;0,250000;0,212508;0,250000;0,250000;0,250000;0,333333;0,333333;0,250000;0,227618;0,333333;0,250000;0,208333;0,208333;0,333333;0,183333;0,183333;0,183333;0,250000;0,286351;0,208333;0,208333;0,183333;0,333333;0,583333;0,583333;0,000000;0,000000;0,000000;0,000000;0,000000;0,250000;
65;;;;;;;;;;;;;;;;;;;;;;;;;;;;;;;;;;;;;;;;;;;;;;;;;;;;;;;;;;;;;;;;;1,000000;0,833333;0,833333;0,208333;0,208333;0,208333;0,250000;0,227618;0,250000;0,583333;0,250000;0,250000;0,212508;0,250000;0,250000;0,250000;0,333333;0,333333;0,250000;0,227618;0,333333;0,250000;0,208333;0,208333;0,333333;0,183333;0,183333;0,183333;0,250000;0,286351;0,208333;0,208333;0,183333;0,333333;0,583333;0,583333;0,000000;0,000000;0,000000;0,000000;0,000000;0,250000;
66;;;;;;;;;;;;;;;;;;;;;;;;;;;;;;;;;;;;;;;;;;;;;;;;;;;;;;;;;;;;;;;;;;1,000000;0,833333;0,208333;0,208333;0,208333;0,250000;0,227618;0,250000;0,583333;0,250000;0,250000;0,212508;0,250000;0,250000;0,250000;0,333333;0,333333;0,250000;0,227618;0,333333;0,250000;0,208333;0,208333;0,333333;0,183333;0,183333;0,183333;0,250000;0,286351;0,208333;0,208333;0,183333;0,333333;0,583333;0,583333;0,000000;0,000000;0,000000;0,000000;0,000000;0,250000;
67;;;;;;;;;;;;;;;;;;;;;;;;;;;;;;;;;;;;;;;;;;;;;;;;;;;;;;;;;;;;;;;;;;;1,000000;0,208333;0,208333;0,208333;0,250000;0,227618;0,250000;0,583333;0,250000;0,250000;0,212508;0,250000;0,250000;0,250000;0,333333;0,333333;0,250000;0,227618;0,333333;0,250000;0,208333;0,208333;0,333333;0,183333;0,183333;0,183333;0,250000;0,286351;0,208333;0,208333;0,183333;0,333333;0,583333;0,583333;0,000000;0,000000;0,000000;0,000000;0,000000;0,250000;
68;;;;;;;;;;;;;;;;;;;;;;;;;;;;;;;;;;;;;;;;;;;;;;;;;;;;;;;;;;;;;;;;;;;;1,000000;0,750000;0,750000;0,291667;0,463376;0,583333;0,625000;0,291667;0,291667;0,254175;0,291667;0,291667;0,291667;0,375000;0,375000;0,291667;0,269285;0,375000;0,583333;0,250000;0,250000;0,375000;0,225000;0,225000;0,225000;0,875000;0,328017;0,500000;0,500000;0,225000;0,375000;0,625000;0,625000;0,375000;0,375000;0,000000;0,000000;0,000000;0,291667;
69;;;;;;;;;;;;;;;;;;;;;;;;;;;;;;;;;;;;;;;;;;;;;;;;;;;;;;;;;;;;;;;;;;;;;1,000000;1,000000;0,291667;0,463376;0,583333;0,625000;0,291667;0,291667;0,254175;0,291667;0,291667;0,291667;0,375000;0,375000;0,291667;0,269285;0,375000;0,583333;0,250000;0,250000;0,375000;0,225000;0,225000;0,225000;0,875000;0,328017;0,500000;0,500000;0,225000;0,375000;0,625000;0,625000;0,375000;0,375000;0,000000;0,000000;0,000000;0,291667;
70;;;;;;;;;;;;;;;;;;;;;;;;;;;;;;;;;;;;;;;;;;;;;;;;;;;;;;;;;;;;;;;;;;;;;;1,000000;0,291667;0,463376;0,583333;0,625000;0,291667;0,291667;0,254175;0,291667;0,291667;0,291667;0,375000;0,375000;0,291667;0,269285;0,375000;0,583333;0,250000;0,250000;0,375000;0,225000;0,225000;0,225000;0,875000;0,328017;0,500000;0,500000;0,225000;0,375000;0,625000;0,625000;0,375000;0,375000;0,000000;0,000000;0,000000;0,291667;
71;;;;;;;;;;;;;;;;;;;;;;;;;;;;;;;;;;;;;;;;;;;;;;;;;;;;;;;;;;;;;;;;;;;;;;;1,000000;0,310952;0,333333;0,666667;0,333333;0,333333;0,295841;0,333333;0,333333;0,333333;0,833333;0,416667;0,333333;0,310952;0,416667;0,333333;0,291667;0,291667;0,416667;0,266667;0,266667;0,266667;0,333333;0,369684;0,291667;0,291667;0,266667;0,416667;0,666667;0,666667;0,000000;0,000000;0,000000;0,000000;0,000000;0,333333;
72;;;;;;;;;;;;;;;;;;;;;;;;;;;;;;;;;;;;;;;;;;;;;;;;;;;;;;;;;;;;;;;;;;;;;;;;1,000000;0,546709;0,644285;0,310952;0,310952;0,273460;0,310952;0,310952;0,310952;0,394285;0,394285;0,310952;0,288570;0,394285;0,546709;0,269285;0,269285;0,394285;0,244285;0,244285;0,244285;0,546709;0,633747;0,662406;0,662406;0,244285;0,394285;0,644285;0,644285;0,000000;0,000000;0,000000;0,000000;0,000000;0,310952;
73;;;;;;;;;;;;;;;;;;;;;;;;;;;;;;;;;;;;;;;;;;;;;;;;;;;;;;;;;;;;;;;;;;;;;;;;;1,000000;0,666667;0,333333;0,333333;0,295841;0,333333;0,333333;0,333333;0,416667;0,416667;0,333333;0,310952;0,416667;0,666667;0,291667;0,291667;0,416667;0,266667;0,266667;0,266667;0,666667;0,369684;0,583333;0,583333;0,266667;0,416667;0,666667;0,666667;0,000000;0,000000;0,000000;0,000000;0,000000;0,333333;
74;;;;;;;;;;;;;;;;;;;;;;;;;;;;;;;;;;;;;;;;;;;;;;;;;;;;;;;;;;;;;;;;;;;;;;;;;;1,000000;0,666667;0,666667;0,629175;0,666667;0,666667;0,666667;0,750000;0,750000;0,666667;0,644285;0,750000;0,666667;0,625000;0,625000;0,750000;0,600000;0,600000;0,600000;0,666667;0,703017;0,625000;0,625000;0,600000;0,750000;1,000000;1,000000;0,000000;0,000000;0,000000;0,000000;0,000000;0,666667;
75;;;;;;;;;;;;;;;;;;;;;;;;;;;;;;;;;;;;;;;;;;;;;;;;;;;;;;;;;;;;;;;;;;;;;;;;;;;1,000000;0,666667;0,295841;0,333333;0,333333;0,333333;0,416667;0,416667;0,333333;0,310952;0,416667;0,333333;0,291667;0,291667;0,416667;0,266667;0,266667;0,266667;0,333333;0,369684;0,291667;0,291667;0,266667;0,833333;0,666667;0,666667;0,000000;0,000000;0,000000;0,000000;0,000000;0,333333;
76;;;;;;;;;;;;;;;;;;;;;;;;;;;;;;;;;;;;;;;;;;;;;;;;;;;;;;;;;;;;;;;;;;;;;;;;;;;;1,000000;0,295841;0,333333;0,333333;0,333333;0,416667;0,416667;0,333333;0,310952;0,416667;0,333333;0,291667;0,291667;0,416667;0,266667;0,266667;0,266667;0,333333;0,369684;0,291667;0,291667;0,266667;0,833333;0,666667;0,666667;0,000000;0,000000;0,000000;0,000000;0,000000;0,333333;
77;;;;;;;;;;;;;;;;;;;;;;;;;;;;;;;;;;;;;;;;;;;;;;;;;;;;;;;;;;;;;;;;;;;;;;;;;;;;;1,000000;0,295841;0,295841;0,295841;0,379175;0,379175;0,295841;0,273460;0,379175;0,295841;0,254175;0,254175;0,758349;0,408519;0,408519;0,408519;0,295841;0,332192;0,254175;0,254175;0,714163;0,379175;0,629175;0,629175;0,000000;0,000000;0,000000;0,000000;0,000000;0,295841;
78;;;;;;;;;;;;;;;;;;;;;;;;;;;;;;;;;;;;;;;;;;;;;;;;;;;;;;;;;;;;;;;;;;;;;;;;;;;;;;1,000000;0,666667;0,666667;0,416667;0,416667;0,333333;0,310952;0,416667;0,333333;0,291667;0,291667;0,416667;0,266667;0,266667;0,266667;0,333333;0,369684;0,291667;0,291667;0,266667;0,416667;0,666667;0,666667;0,000000;0,000000;0,000000;0,000000;0,000000;0,333333;
79;;;;;;;;;;;;;;;;;;;;;;;;;;;;;;;;;;;;;;;;;;;;;;;;;;;;;;;;;;;;;;;;;;;;;;;;;;;;;;;1,000000;0,666667;0,416667;0,416667;0,333333;0,310952;0,416667;0,333333;0,291667;0,291667;0,416667;0,266667;0,266667;0,266667;0,333333;0,369684;0,291667;0,291667;0,266667;0,416667;0,666667;0,666667;0,000000;0,000000;0,000000;0,000000;0,000000;0,333333;
80;;;;;;;;;;;;;;;;;;;;;;;;;;;;;;;;;;;;;;;;;;;;;;;;;;;;;;;;;;;;;;;;;;;;;;;;;;;;;;;;1,000000;0,416667;0,416667;0,333333;0,310952;0,416667;0,333333;0,291667;0,291667;0,416667;0,266667;0,266667;0,266667;0,333333;0,369684;0,291667;0,291667;0,266667;0,416667;0,666667;0,666667;0,000000;0,000000;0,000000;0,000000;0,000000;0,333333;
81;;;;;;;;;;;;;;;;;;;;;;;;;;;;;;;;;;;;;;;;;;;;;;;;;;;;;;;;;;;;;;;;;;;;;;;;;;;;;;;;;1,000000;0,500000;0,416667;0,394285;0,500000;0,416667;0,375000;0,375000;0,500000;0,350000;0,350000;0,350000;0,416667;0,453017;0,375000;0,375000;0,350000;0,500000;0,750000;0,750000;0,000000;0,000000;0,000000;0,000000;0,000000;0,416667;
82;;;;;;;;;;;;;;;;;;;;;;;;;;;;;;;;;;;;;;;;;;;;;;;;;;;;;;;;;;;;;;;;;;;;;;;;;;;;;;;;;;1,000000;0,416667;0,394285;0,500000;0,416667;0,375000;0,375000;0,500000;0,350000;0,350000;0,350000;0,416667;0,453017;0,375000;0,375000;0,350000;0,500000;0,750000;0,750000;0,000000;0,000000;0,000000;0,000000;0,000000;0,416667;
83;;;;;;;;;;;;;;;;;;;;;;;;;;;;;;;;;;;;;;;;;;;;;;;;;;;;;;;;;;;;;;;;;;;;;;;;;;;;;;;;;;;1,000000;0,621904;0,833333;0,333333;0,875000;0,875000;0,416667;0,266667;0,266667;0,266667;0,333333;0,369684;0,291667;0,291667;0,266667;0,416667;0,666667;0,666667;0,000000;0,000000;0,000000;0,000000;0,000000;0,333333;
84;;;;;;;;;;;;;;;;;;;;;;;;;;;;;;;;;;;;;;;;;;;;;;;;;;;;;;;;;;;;;;;;;;;;;;;;;;;;;;;;;;;;1,000000;0,788570;0,310952;0,731514;0,731514;0,394285;0,244285;0,244285;0,244285;0,310952;0,347303;0,269285;0,269285;0,244285;0,394285;0,644285;0,644285;0,000000;0,000000;0,000000;0,000000;0,000000;0,310952;
85;;;;;;;;;;;;;;;;;;;;;;;;;;;;;;;;;;;;;;;;;;;;;;;;;;;;;;;;;;;;;;;;;;;;;;;;;;;;;;;;;;;;;1,000000;0,416667;0,750000;0,750000;0,500000;0,350000;0,350000;0,350000;0,416667;0,453017;0,375000;0,375000;0,350000;0,500000;0,750000;0,750000;0,000000;0,000000;0,000000;0,000000;0,000000;0,416667;
86;;;;;;;;;;;;;;;;;;;;;;;;;;;;;;;;;;;;;;;;;;;;;;;;;;;;;;;;;;;;;;;;;;;;;;;;;;;;;;;;;;;;;;1,000000;0,291667;0,291667;0,416667;0,266667;0,266667;0,266667;0,666667;0,369684;0,583333;0,583333;0,266667;0,416667;0,666667;0,666667;0,000000;0,000000;0,000000;0,000000;0,000000;0,333333;
87;;;;;;;;;;;;;;;;;;;;;;;;;;;;;;;;;;;;;;;;;;;;;;;;;;;;;;;;;;;;;;;;;;;;;;;;;;;;;;;;;;;;;;;1,000000;0,750000;0,375000;0,225000;0,225000;0,225000;0,291667;0,328017;0,250000;0,250000;0,225000;0,375000;0,625000;0,625000;0,000000;0,000000;0,000000;0,000000;0,000000;0,291667;
88;;;;;;;;;;;;;;;;;;;;;;;;;;;;;;;;;;;;;;;;;;;;;;;;;;;;;;;;;;;;;;;;;;;;;;;;;;;;;;;;;;;;;;;;1,000000;0,375000;0,225000;0,225000;0,225000;0,291667;0,328017;0,250000;0,250000;0,225000;0,375000;0,625000;0,625000;0,000000;0,000000;0,000000;0,000000;0,000000;0,291667;
89;;;;;;;;;;;;;;;;;;;;;;;;;;;;;;;;;;;;;;;;;;;;;;;;;;;;;;;;;;;;;;;;;;;;;;;;;;;;;;;;;;;;;;;;;1,000000;0,350000;0,350000;0,350000;0,416667;0,453017;0,375000;0,375000;0,350000;0,500000;0,750000;0,750000;0,000000;0,000000;0,000000;0,000000;0,000000;0,416667;
90;;;;;;;;;;;;;;;;;;;;;;;;;;;;;;;;;;;;;;;;;;;;;;;;;;;;;;;;;;;;;;;;;;;;;;;;;;;;;;;;;;;;;;;;;;1,000000;0,800000;0,800000;0,266667;0,499358;0,225000;0,225000;0,400000;0,350000;0,600000;0,600000;0,000000;0,000000;0,000000;0,000000;0,000000;0,266667;
91;;;;;;;;;;;;;;;;;;;;;;;;;;;;;;;;;;;;;;;;;;;;;;;;;;;;;;;;;;;;;;;;;;;;;;;;;;;;;;;;;;;;;;;;;;;1,000000;0,800000;0,266667;0,499358;0,225000;0,225000;0,400000;0,350000;0,600000;0,600000;0,000000;0,000000;0,000000;0,000000;0,000000;0,266667;
92;;;;;;;;;;;;;;;;;;;;;;;;;;;;;;;;;;;;;;;;;;;;;;;;;;;;;;;;;;;;;;;;;;;;;;;;;;;;;;;;;;;;;;;;;;;;1,000000;0,266667;0,499358;0,225000;0,225000;0,400000;0,350000;0,600000;0,600000;0,000000;0,000000;0,000000;0,000000;0,000000;0,266667;
93;;;;;;;;;;;;;;;;;;;;;;;;;;;;;;;;;;;;;;;;;;;;;;;;;;;;;;;;;;;;;;;;;;;;;;;;;;;;;;;;;;;;;;;;;;;;;1,000000;0,369684;0,583333;0,583333;0,266667;0,416667;0,666667;0,666667;0,416667;0,416667;0,000000;0,000000;0,000000;0,333333;
94;;;;;;;;;;;;;;;;;;;;;;;;;;;;;;;;;;;;;;;;;;;;;;;;;;;;;;;;;;;;;;;;;;;;;;;;;;;;;;;;;;;;;;;;;;;;;;1,000000;0,328017;0,328017;0,303017;0,453017;0,703017;0,703017;0,000000;0,000000;0,000000;0,000000;0,000000;0,369684;
95;;;;;;;;;;;;;;;;;;;;;;;;;;;;;;;;;;;;;;;;;;;;;;;;;;;;;;;;;;;;;;;;;;;;;;;;;;;;;;;;;;;;;;;;;;;;;;;1,000000;0,750000;0,225000;0,375000;0,625000;0,625000;0,000000;0,000000;0,000000;0,000000;0,000000;0,291667;
96;;;;;;;;;;;;;;;;;;;;;;;;;;;;;;;;;;;;;;;;;;;;;;;;;;;;;;;;;;;;;;;;;;;;;;;;;;;;;;;;;;;;;;;;;;;;;;;;1,000000;0,225000;0,375000;0,625000;0,625000;0,000000;0,000000;0,000000;0,000000;0,000000;0,291667;
97;;;;;;;;;;;;;;;;;;;;;;;;;;;;;;;;;;;;;;;;;;;;;;;;;;;;;;;;;;;;;;;;;;;;;;;;;;;;;;;;;;;;;;;;;;;;;;;;;1,000000;0,350000;0,600000;0,600000;0,000000;0,000000;0,000000;0,000000;0,000000;0,266667;
98;;;;;;;;;;;;;;;;;;;;;;;;;;;;;;;;;;;;;;;;;;;;;;;;;;;;;;;;;;;;;;;;;;;;;;;;;;;;;;;;;;;;;;;;;;;;;;;;;;1,000000;0,750000;0,750000;0,000000;0,000000;0,000000;0,000000;0,000000;0,416667;
99;;;;;;;;;;;;;;;;;;;;;;;;;;;;;;;;;;;;;;;;;;;;;;;;;;;;;;;;;;;;;;;;;;;;;;;;;;;;;;;;;;;;;;;;;;;;;;;;;;;1,000000;1,000000;0,000000;0,000000;0,000000;0,000000;0,000000;0,666667;
100;;;;;;;;;;;;;;;;;;;;;;;;;;;;;;;;;;;;;;;;;;;;;;;;;;;;;;;;;;;;;;;;;;;;;;;;;;;;;;;;;;;;;;;;;;;;;;;;;;;;1,000000;0,000000;0,000000;0,000000;0,000000;0,000000;0,666667;
101;;;;;;;;;;;;;;;;;;;;;;;;;;;;;;;;;;;;;;;;;;;;;;;;;;;;;;;;;;;;;;;;;;;;;;;;;;;;;;;;;;;;;;;;;;;;;;;;;;;;;1,000000;0,500000;0,000000;0,000000;0,000000;0,000000;
102;;;;;;;;;;;;;;;;;;;;;;;;;;;;;;;;;;;;;;;;;;;;;;;;;;;;;;;;;;;;;;;;;;;;;;;;;;;;;;;;;;;;;;;;;;;;;;;;;;;;;;1,000000;0,000000;0,000000;0,000000;0,000000;
103;;;;;;;;;;;;;;;;;;;;;;;;;;;;;;;;;;;;;;;;;;;;;;;;;;;;;;;;;;;;;;;;;;;;;;;;;;;;;;;;;;;;;;;;;;;;;;;;;;;;;;;1,000000;0,500000;0,500000;0,000000;
104;;;;;;;;;;;;;;;;;;;;;;;;;;;;;;;;;;;;;;;;;;;;;;;;;;;;;;;;;;;;;;;;;;;;;;;;;;;;;;;;;;;;;;;;;;;;;;;;;;;;;;;;1,000000;0,500000;0,000000;
105;;;;;;;;;;;;;;;;;;;;;;;;;;;;;;;;;;;;;;;;;;;;;;;;;;;;;;;;;;;;;;;;;;;;;;;;;;;;;;;;;;;;;;;;;;;;;;;;;;;;;;;;;1,000000;0,000000;
106;;;;;;;;;;;;;;;;;;;;;;;;;;;;;;;;;;;;;;;;;;;;;;;;;;;;;;;;;;;;;;;;;;;;;;;;;;;;;;;;;;;;;;;;;;;;;;;;;;;;;;;;;;1,000000;
