;1; 2; 3; 4; 5; 6; 7; 8; 9; 10; 11; 12; 13; 14; 15; 16; 17; 18; 19; 20; 21; 22; 23; 24; 25; 26; 27; 28; 29; 30; 31; 32; 33; 34; 35; 36; 37; 38; 39; 40; 41; 42; 43; 44; 45; 46; 47; 48; 49; 50; 51; 52; 53; 54; 55; 56; 57; 58; 59; 60; 61; 62; 63; 64; 65; 66; 67; 68; 69; 70; 71; 72; 73; 74; 75; 76; 77; 78; 79; 80; 81; 82; 83; 84; 85; 86; 87; 88; 89; 90; 91; 92; 93; 94; 95; 96; 97; 98; 99; 100; 101; 102; 103; 104; 105; 106; 107; 108; 109
1;1,000000;0,000000;0,000000;1,000000;0,000000;0,000000;0,968254;0,000000;0,933333;0,952381;0,901006;0,000000;0,000000;0,904762;0,000000;0,933333;0,000000;0,957574;0,900000;0,000000;0,000000;0,000000;0,939394;0,000000;0,000000;0,000000;0,000000;0,000000;0,000000;0,000000;0,000000;0,000000;0,904762;0,000000;0,000000;0,000000;0,000000;0,000000;0,000000;0,000000;0,000000;0,000000;0,851509;0,000000;0,000000;0,000000;0,000000;0,666667;0,666667;0,000000;0,000000;0,000000;0,000000;0,000000;0,000000;0,000000;0,000000;0,000000;0,000000;0,000000;0,000000;0,000000;0,000000;0,000000;0,000000;0,000000;0,000000;0,000000;0,000000;0,000000;0,000000;0,000000;0,000000;0,000000;0,000000;0,000000;0,000000;0,000000;0,000000;0,000000;0,000000;0,000000;0,000000;0,000000;0,000000;0,000000;0,000000;0,000000;0,000000;0,000000;0,000000;0,000000;0,000000;0,000000;0,000000;0,000000;0,000000;0,000000;0,000000;0,000000;0,000000;0,000000;0,000000;0,000000;0,000000;0,000000;0,000000;0,000000;0,000000;
2;;1,000000;0,884973;0,432108;0,676024;0,411211;0,597196;0,333333;0,614489;0,582075;0,505538;0,654272;0,633822;0,587100;0,000000;0,592411;0,461538;0,411229;0,334448;0,333333;0,333333;0,257576;0,547436;0,257576;0,269231;0,392857;0,399912;0,406035;0,339943;0,461538;0,491458;0,644347;0,562590;0,484848;0,000000;0,000000;0,000000;0,000000;0,565057;0,393939;0,000000;0,461538;0,597328;0,642857;0,441203;0,441203;0,441203;0,666667;0,651800;0,000000;0,000000;0,000000;0,000000;0,000000;0,333333;0,333333;0,333333;0,000000;0,000000;0,000000;0,484848;0,339943;0,583333;0,000000;0,000000;0,000000;0,487179;0,444444;0,000000;0,000000;0,000000;0,583333;0,472267;0,489075;0,000000;0,000000;0,000000;0,743819;0,000000;0,000000;0,000000;0,629282;0,000000;0,000000;0,000000;0,000000;0,000000;0,000000;0,000000;0,000000;0,000000;0,000000;0,000000;0,333333;0,333333;0,000000;0,743819;0,444444;0,444444;0,257576;0,257576;0,000000;0,000000;0,000000;0,393939;0,393939;0,000000;0,333333;0,000000;
3;;;1,000000;0,566818;0,826385;0,433356;0,577117;0,664072;0,535875;0,555855;0,631512;0,670100;0,716487;0,661418;0,000000;0,624052;0,498286;0,612304;0,697381;0,664108;0,664108;0,745568;0,666855;0,745568;0,683313;0,600841;0,486725;0,509199;0,666206;0,980495;0,497967;0,480131;0,636713;0,498613;0,563089;0,408541;0,664263;0,664263;0,436179;0,665269;0,000000;0,499265;0,570985;0,499277;0,794268;0,794268;0,794268;0,663833;0,663528;0,251016;0,663145;0,251016;0,251016;0,251016;0,664651;0,517207;0,527102;0,498791;0,665020;0,000000;0,498786;0,666206;0,499506;0,000000;0,500000;0,500000;0,455579;0,455830;0,665690;0,665450;0,620833;0,499506;0,555193;0,747326;0,000000;0,000000;0,500871;0,747898;0,664818;0,337349;0,337349;0,662346;0,667620;0,667620;0,666667;0,000000;0,000000;0,000000;0,502178;0,000000;0,000000;0,000000;0,000000;0,334152;0,334152;0,000000;0,747898;0,663555;0,663555;0,748803;0,748803;0,665690;0,500000;0,000000;0,664746;0,664746;0,502178;0,664162;0,498693;
4;;;;1,000000;0,556176;0,557269;0,483347;0,336795;0,733365;0,513174;0,575592;0,345312;0,504013;0,582798;0,975215;0,517074;0,757220;0,550048;0,409672;0,340294;0,340294;0,260929;0,524763;0,260929;0,313475;0,407299;0,366667;0,442063;0,000000;0,487744;0,495525;0,381063;0,559508;0,000000;0,578658;0,565677;0,340294;0,340294;0,584637;0,660777;0,975215;0,497327;0,438845;0,556109;0,225410;0,225410;0,225410;0,365079;0,664139;0,000000;0,346622;0,000000;0,000000;0,000000;0,340294;0,621723;0,551689;0,498137;0,666667;0,975215;0,495525;0,340294;0,491458;0,500000;0,499024;0,499024;0,435861;0,436505;0,340294;0,421153;0,534471;0,649652;0,629189;0,500383;0,000000;0,000000;0,978587;0,501990;0,340294;0,348485;0,348485;0,486900;0,340294;0,340294;0,515678;0,000000;0,000000;0,971716;0,499024;0,000000;0,000000;0,975215;0,971716;0,336795;0,336795;0,975215;0,501990;0,654849;0,654849;0,260929;0,260929;0,340294;0,499024;0,975215;0,659134;0,659134;0,499024;0,660721;0,499024;
5;;;;;1,000000;0,569332;0,547280;0,660284;0,529218;0,509039;0,000000;0,000000;0,437624;0,000000;0,000000;0,467914;0,500000;0,606700;0,705258;0,342105;0,342105;0,505009;0,458160;0,505009;0,261905;0,431818;0,417741;0,408838;0,337971;0,935057;0,000000;0,333333;0,505702;0,500000;0,000000;0,000000;0,368421;0,368421;0,000000;0,000000;0,000000;0,523810;0,000000;0,000000;0,794739;0,794739;0,794739;0,333333;0,658457;0,000000;0,000000;0,000000;0,000000;0,000000;0,333333;0,333333;0,359770;0,000000;0,666667;0,000000;0,498881;0,337971;0,500000;0,500000;0,000000;0,000000;0,537093;0,535038;0,000000;0,000000;0,476190;0,000000;0,491476;0,496859;0,000000;0,000000;0,000000;0,502281;0,000000;0,000000;0,000000;0,654334;0,000000;0,000000;0,000000;0,000000;0,000000;0,000000;0,000000;0,500000;0,500000;0,000000;0,000000;0,660325;0,660325;0,000000;0,502281;0,000000;0,000000;0,526316;0,526316;0,000000;0,500000;0,000000;0,000000;0,000000;0,000000;0,340986;0,000000;
6;;;;;;1,000000;0,549837;0,641496;0,423234;0,660012;0,437500;0,400000;0,000000;0,541380;0,875000;0,395405;0,446062;0,654106;0,335401;0,375000;0,375000;0,312500;0,650834;0,312500;0,412444;0,405689;0,000000;0,471960;0,000000;0,467287;0,000000;0,500000;0,536675;0,000000;0,000000;0,500000;0,375000;0,375000;0,500000;0,000000;0,875000;0,446062;0,500000;0,530612;0,276849;0,276849;0,276849;0,000000;0,358644;0,000000;0,400000;0,000000;0,000000;0,000000;0,375000;0,548711;0,557051;0,500000;0,444911;0,875000;0,891496;0,375000;0,433333;0,458333;0,500000;0,500000;0,382918;0,356849;0,375000;0,461206;0,439912;0,600000;0,446429;0,312500;0,500000;0,500000;0,500000;0,514897;0,375000;0,000000;0,000000;0,679498;0,375000;0,375000;0,511577;0,500000;0,500000;0,000000;0,500000;0,458333;0,458333;0,875000;0,000000;0,641496;0,641496;0,875000;0,514897;0,400000;0,400000;0,312500;0,312500;0,375000;0,500000;0,875000;0,375000;0,375000;0,500000;0,639897;0,500000;
7;;;;;;;1,000000;0,660114;0,677540;0,502653;0,386639;0,339437;0,507368;0,458735;0,971451;0,480602;0,929447;0,484329;0,541593;0,336531;0,336531;0,499483;0,578952;0,499483;0,536193;0,425977;0,347874;0,633305;0,336795;0,491466;0,000000;0,756786;0,614242;0,000000;0,000000;0,907135;0,336531;0,336531;0,674389;0,336795;0,971451;0,491780;0,525333;0,802626;0,405477;0,405477;0,405477;0,977469;0,658598;0,000000;0,339437;0,000000;0,000000;0,000000;0,658213;0,675894;0,536643;0,949346;0,515608;0,971451;0,498987;0,654055;0,496450;0,498987;0,495261;0,495261;0,484103;0,479582;0,336531;0,407981;0,382518;0,953688;0,715379;0,734928;0,500000;0,500000;0,495261;0,743876;0,336531;0,000000;0,000000;0,653852;0,336531;0,336531;0,508494;0,500000;0,500000;0,000000;0,495261;0,498987;0,498987;0,971451;0,000000;0,660934;0,660934;0,971451;0,743876;0,650658;0,650658;0,257166;0,257166;0,336531;0,495261;0,971451;0,658281;0,658281;0,495261;0,656007;0,495261;
8;;;;;;;;1,000000;0,366667;0,648135;0,000000;0,000000;0,000000;0,000000;0,000000;0,350000;0,375000;0,655330;0,306667;0,000000;0,000000;0,000000;0,638439;0,000000;0,500000;0,366667;0,000000;0,000000;0,000000;0,750000;0,000000;0,000000;0,326939;0,000000;0,000000;0,000000;0,000000;0,000000;0,000000;0,000000;0,000000;0,375000;0,000000;0,000000;0,288889;0,288889;0,288889;0,000000;0,333333;0,000000;0,000000;0,000000;0,000000;0,000000;0,000000;0,000000;0,333333;0,000000;0,395321;0,000000;0,833333;0,000000;0,388889;0,416667;0,000000;0,000000;0,333333;0,333333;0,000000;0,000000;0,000000;0,000000;0,000000;0,000000;0,000000;0,000000;0,000000;0,291667;0,000000;0,000000;0,000000;0,611500;0,000000;0,000000;0,000000;0,000000;0,000000;0,000000;0,000000;0,416667;0,416667;0,000000;0,000000;0,666667;0,666667;0,000000;0,291667;0,000000;0,000000;0,000000;0,000000;0,000000;0,000000;0,000000;0,000000;0,000000;0,000000;0,333333;0,000000;
9;;;;;;;;;1,000000;0,560303;0,403487;0,357412;0,000000;0,461744;0,946577;0,642811;0,931423;0,644949;0,462850;0,648448;0,648448;0,271577;0,397669;0,271577;0,453714;0,745643;0,440476;0,444172;0,000000;0,000000;0,000000;0,489467;0,355331;0,483333;0,000000;0,489467;0,346577;0,346577;0,491442;0,000000;0,946577;0,504141;0,426808;0,538917;0,257557;0,257557;0,257557;0,333333;0,333333;0,000000;0,357412;0,000000;0,000000;0,000000;0,346577;0,578448;0,454724;0,493776;0,546090;0,946577;0,516667;0,346577;0,530303;0,516667;0,496577;0,496577;0,409426;0,366648;0,346577;0,426800;0,401309;0,630139;0,670457;0,523974;0,000000;0,000000;0,496577;0,271577;0,346577;0,000000;0,000000;0,366648;0,346577;0,346577;0,509563;0,000000;0,000000;0,000000;0,496577;0,516667;0,516667;0,946577;0,000000;0,366667;0,366667;0,946577;0,271577;0,357412;0,357412;0,498448;0,498448;0,346577;0,953865;0,946577;0,346577;0,346577;0,496577;0,346577;0,496577;
10;;;;;;;;;;1,000000;0,400471;0,349158;0,374425;0,466491;0,960859;0,566517;0,491986;0,559124;0,611923;0,652338;0,652338;0,264430;0,492106;0,264430;0,437357;0,757221;0,381541;0,633725;0,327381;0,468750;0,000000;0,880286;0,504329;0,488095;0,000000;0,488711;0,341811;0,341811;0,662447;0,333333;0,960859;0,816642;0,523829;0,777080;0,411505;0,411505;0,411505;0,333333;0,950175;0,000000;0,349158;0,000000;0,000000;0,000000;0,341811;0,592290;0,538972;0,493603;0,516723;0,960859;0,957659;0,653664;0,487630;0,500000;0,496573;0,496573;0,485492;0,480780;0,341811;0,419491;0,393361;0,932162;0,601708;0,737181;0,000000;0,000000;0,496573;0,499372;0,341811;0,000000;0,000000;0,643400;0,341811;0,341811;0,510325;0,000000;0,000000;0,000000;0,496573;0,500000;0,500000;0,960859;0,000000;0,648135;0,648135;0,960859;0,499372;0,643273;0,643273;0,497576;0,497576;0,341811;0,496573;0,960859;0,654134;0,654134;0,496573;0,654134;0,966635;
11;;;;;;;;;;;1,000000;0,626013;0,555102;0,719317;0,888889;0,382854;0,437500;0,395682;0,386681;0,333333;0,333333;0,263889;0,366547;0,263889;0,305356;0,366402;0,000000;0,389578;0,000000;0,000000;0,484339;0,374770;0,356896;0,000000;0,406035;0,408650;0,333333;0,333333;0,403464;0,345450;0,888889;0,437500;0,557870;0,465608;0,238095;0,238095;0,238095;0,345450;0,345450;0,000000;0,333333;0,000000;0,000000;0,000000;0,333333;0,466131;0,398046;0,452381;0,000000;0,888889;0,000000;0,333333;0,473153;0,000000;0,472222;0,472222;0,378772;0,333333;0,333333;0,375638;0,362390;0,571429;0,370536;0,263889;0,000000;0,000000;0,472222;0,263889;0,333333;0,000000;0,000000;0,333333;0,333333;0,333333;0,466163;0,000000;0,000000;0,901006;0,472222;0,000000;0,000000;0,888889;0,901006;0,000000;0,000000;0,888889;0,263889;0,333333;0,333333;0,263889;0,263889;0,333333;0,472222;0,888889;0,333333;0,333333;0,472222;0,333333;0,472222;
12;;;;;;;;;;;;1,000000;0,665913;0,656923;0,777778;0,342957;0,400000;0,345024;0,326469;0,333333;0,333333;0,277778;0,327422;0,277778;0,315428;0,353175;0,000000;0,367080;0,000000;0,000000;0,828838;0,343640;0,323699;0,000000;0,362414;0,363968;0,333333;0,333333;0,365117;0,333333;0,777778;0,400000;0,704337;0,412698;0,266667;0,266667;0,266667;0,000000;0,000000;0,000000;0,333333;0,000000;0,000000;0,000000;0,333333;0,402388;0,372161;0,416667;0,000000;0,777778;0,000000;0,333333;0,416667;0,000000;0,444444;0,444444;0,362414;0,333333;0,333333;0,358716;0,351930;0,500000;0,357143;0,277778;0,000000;0,000000;0,444444;0,277778;0,333333;0,000000;0,000000;0,333333;0,333333;0,333333;0,426314;0,000000;0,000000;0,777778;0,444444;0,000000;0,000000;0,777778;0,777778;0,000000;0,000000;0,777778;0,277778;0,333333;0,333333;0,277778;0,277778;0,333333;0,444444;0,777778;0,333333;0,333333;0,444444;0,333333;0,444444;
13;;;;;;;;;;;;;1,000000;0,580075;0,000000;0,000000;0,000000;0,000000;0,000000;0,000000;0,000000;0,257576;0,425415;0,257576;0,269231;0,000000;0,679292;0,000000;0,000000;0,000000;0,491458;0,644815;0,406326;0,000000;0,550328;0,545513;0,000000;0,000000;0,579774;0,660656;0,000000;0,000000;0,572499;0,473153;0,000000;0,000000;0,000000;0,666667;0,000000;0,000000;0,000000;0,000000;0,000000;0,000000;0,333333;0,333333;0,473153;0,000000;0,000000;0,000000;0,000000;0,000000;0,484339;0,500000;0,000000;0,000000;0,350111;0,345450;0,000000;0,000000;0,000000;0,484339;0,000000;0,000000;0,000000;0,000000;0,000000;0,515152;0,000000;0,333333;0,333333;0,333333;0,000000;0,000000;0,000000;0,000000;0,000000;0,000000;0,000000;0,000000;0,000000;0,000000;0,000000;0,000000;0,000000;0,000000;0,515152;0,345450;0,345450;0,000000;0,000000;0,000000;0,000000;0,000000;0,339943;0,339943;0,000000;0,000000;0,000000;
14;;;;;;;;;;;;;;1,000000;0,946306;0,438634;0,541380;0,461047;0,424174;0,374877;0,374877;0,303448;0,426234;0,303448;0,400427;0,485370;0,000000;0,510400;0,000000;0,000000;0,926622;0,444286;0,403681;0,000000;0,443788;0,480876;0,374877;0,374877;0,463307;0,359899;0,946306;0,541380;0,697828;0,592513;0,306035;0,306035;0,306035;0,333333;0,333333;0,000000;0,406035;0,000000;0,000000;0,000000;0,374877;0,647483;0,519545;0,531035;0,000000;0,946306;0,000000;0,374877;0,504824;0,000000;0,517734;0,517734;0,478736;0,406035;0,374877;0,495344;0,461262;0,656035;0,469951;0,303448;0,000000;0,000000;0,517734;0,303448;0,374877;0,000000;0,000000;0,406035;0,374877;0,374877;0,545506;0,000000;0,000000;0,931328;0,517734;0,000000;0,000000;0,946306;0,931328;0,000000;0,000000;0,946306;0,303448;0,406035;0,406035;0,303448;0,303448;0,374877;0,517734;0,946306;0,374877;0,374877;0,517734;0,374877;0,517734;
15;;;;;;;;;;;;;;;1,000000;0,938626;0,875000;0,958644;0,862548;0,666667;0,666667;0,625000;0,935325;0,625000;0,822143;0,878571;0,000000;0,886915;0,000000;0,000000;0,000000;0,900000;0,896442;0,000000;0,000000;0,900000;0,666667;0,666667;0,875000;0,000000;1,000000;0,875000;0,875000;0,914286;0,733333;0,733333;0,733333;0,000000;0,000000;0,000000;0,777778;0,000000;0,000000;0,000000;0,666667;0,964290;0,889963;0,833333;0,000000;1,000000;0,000000;0,666667;0,000000;0,000000;0,750000;0,750000;0,851509;0,777778;0,666667;0,881896;0,844956;0,888889;0,848214;0,625000;0,000000;0,000000;0,750000;0,625000;0,666667;0,000000;0,000000;0,777778;0,666667;0,666667;0,839765;0,000000;0,000000;0,000000;0,750000;0,000000;0,000000;1,000000;0,000000;0,000000;0,000000;1,000000;0,625000;0,777778;0,777778;0,625000;0,625000;0,666667;0,750000;1,000000;0,666667;0,666667;0,750000;0,666667;0,750000;
16;;;;;;;;;;;;;;;;1,000000;0,858949;0,532005;0,342042;0,645309;0,645309;0,263626;0,351254;0,263626;0,425885;0,563387;0,500000;0,395473;0,350000;0,000000;0,000000;0,387864;0,332221;0,500000;0,500000;0,473323;0,338626;0,338626;0,471566;0,000000;0,938626;0,756361;0,412364;0,514454;0,413279;0,413279;0,413279;0,333333;0,333333;0,000000;0,342957;0,000000;0,000000;0,000000;0,338626;0,541034;0,430261;0,479320;0,515787;0,938626;0,500000;0,338626;0,500000;0,500000;0,488626;0,488626;0,381597;0,346409;0,338626;0,402337;0,381433;0,615684;0,592008;0,492595;0,000000;0,000000;0,488626;0,263626;0,338626;0,423119;0,423119;0,346409;0,338626;0,338626;0,495107;0,000000;0,000000;0,000000;0,488626;0,500000;0,500000;0,938626;0,000000;0,350000;0,350000;0,938626;0,263626;0,342957;0,342957;0,736615;0,736615;0,338626;0,488626;0,938626;0,338626;0,338626;0,488626;0,338626;0,488626;
17;;;;;;;;;;;;;;;;;1,000000;0,897491;0,397045;0,375000;0,375000;0,312500;0,453065;0,312500;0,466382;0,467333;0,000000;0,471960;0,000000;0,000000;0,000000;0,500000;0,425031;0,000000;0,000000;0,500000;0,375000;0,375000;0,500000;0,000000;0,875000;0,500000;0,500000;0,530612;0,320000;0,320000;0,320000;0,000000;0,000000;0,000000;0,400000;0,000000;0,000000;0,000000;0,375000;0,548711;0,478493;0,500000;0,511577;0,875000;0,500000;0,375000;0,500000;0,500000;0,500000;0,500000;0,436857;0,400000;0,375000;0,461206;0,439912;0,600000;0,720980;0,573649;0,000000;0,000000;0,500000;0,312500;0,375000;0,000000;0,000000;0,400000;0,375000;0,375000;0,511577;0,000000;0,000000;0,000000;0,500000;0,500000;0,500000;0,875000;0,000000;0,375000;0,375000;0,875000;0,312500;0,400000;0,400000;0,312500;0,312500;0,375000;0,500000;0,875000;0,375000;0,375000;0,500000;0,375000;0,500000;
18;;;;;;;;;;;;;;;;;;1,000000;0,676621;0,339596;0,339596;0,262215;0,507645;0,262215;0,430592;0,423165;0,623892;0,601982;0,654579;0,482382;0,000000;0,381304;0,508218;0,488095;0,468750;0,475700;0,339596;0,339596;0,485191;0,000000;0,958644;0,485221;0,423482;0,536037;0,776118;0,776118;0,776118;0,338526;0,659355;0,000000;0,345024;0,000000;0,000000;0,000000;0,339596;0,580478;0,521405;0,489469;0,506249;0,958644;0,964854;0,657927;0,489527;0,494389;0,494358;0,494358;0,382613;0,345046;0,339596;0,412195;0,387547;0,633913;0,715195;0,734381;0,000000;0,000000;0,494358;0,494040;0,339596;0,396341;0,396341;0,639200;0,339596;0,339596;0,506191;0,000000;0,000000;0,000000;0,494358;0,494389;0,494389;0,958644;0,000000;0,655330;0,655330;0,958644;0,494040;0,345024;0,345024;0,262215;0,262215;0,339596;0,494358;0,958644;0,339596;0,339596;0,494358;0,648801;0,962297;
19;;;;;;;;;;;;;;;;;;;1,000000;0,638135;0,638135;0,262548;0,316834;0,262548;0,358625;0,610744;0,358830;0,521085;0,320549;0,000000;0,000000;0,406371;0,353232;0,500000;0,000000;0,406371;0,329215;0,329215;0,419746;0,000000;0,862548;0,397045;0,408290;0,442085;0,766669;0,766669;0,766669;0,366667;0,611456;0,000000;0,326469;0,000000;0,000000;0,000000;0,329215;0,434697;0,381279;0,437580;0,412864;0,862548;0,440000;0,605847;0,400000;0,440000;0,462548;0,462548;0,324881;0,308813;0,329215;0,361111;0,351074;0,548691;0,441101;0,472514;0,000000;0,000000;0,462548;0,262548;0,329215;0,000000;0,000000;0,308813;0,329215;0,329215;0,450444;0,000000;0,000000;0,000000;0,462548;0,440000;0,440000;0,862548;0,000000;0,306667;0,306667;0,862548;0,262548;0,326469;0,326469;0,504802;0,504802;0,329215;0,462548;0,862548;0,329215;0,329215;0,462548;0,329215;0,462548;
20;;;;;;;;;;;;;;;;;;;;1,000000;0,666667;0,291667;0,329264;0,291667;0,322143;0,672884;0,361111;0,353581;0,000000;0,000000;0,000000;0,366667;0,325013;0,416667;0,000000;0,366667;0,333333;0,333333;0,375000;0,000000;0,666667;0,375000;0,375000;0,380952;0,288889;0,288889;0,288889;0,000000;0,000000;0,000000;0,333333;0,000000;0,000000;0,000000;0,333333;0,371697;0,356630;0,388889;0,000000;0,666667;0,000000;0,333333;0,000000;0,000000;0,416667;0,416667;0,351509;0,333333;0,333333;0,348563;0,344956;0,444444;0,348214;0,291667;0,000000;0,000000;0,416667;0,291667;0,333333;0,000000;0,000000;0,333333;0,333333;0,333333;0,395321;0,000000;0,000000;0,000000;0,416667;0,000000;0,000000;0,666667;0,000000;0,000000;0,000000;0,666667;0,291667;0,333333;0,333333;0,583333;0,583333;0,333333;0,416667;0,666667;0,333333;0,333333;0,416667;0,333333;0,416667;
21;;;;;;;;;;;;;;;;;;;;;1,000000;0,291667;0,329264;0,291667;0,322143;0,672884;0,361111;0,353581;0,000000;0,000000;0,000000;0,366667;0,325013;0,416667;0,000000;0,366667;0,333333;0,333333;0,375000;0,000000;0,666667;0,375000;0,375000;0,380952;0,288889;0,288889;0,288889;0,000000;0,000000;0,000000;0,333333;0,000000;0,000000;0,000000;0,333333;0,371697;0,356630;0,388889;0,000000;0,666667;0,000000;0,333333;0,000000;0,000000;0,416667;0,416667;0,351509;0,333333;0,333333;0,348563;0,344956;0,444444;0,348214;0,291667;0,000000;0,000000;0,416667;0,291667;0,333333;0,000000;0,000000;0,333333;0,333333;0,333333;0,395321;0,000000;0,000000;0,000000;0,416667;0,000000;0,000000;0,666667;0,000000;0,000000;0,000000;0,666667;0,291667;0,333333;0,333333;0,583333;0,583333;0,333333;0,416667;0,666667;0,333333;0,333333;0,416667;0,333333;0,416667;
22;;;;;;;;;;;;;;;;;;;;;;1,000000;0,717696;0,750000;0,707211;0,278571;0,000000;0,286915;0,000000;0,000000;0,000000;0,477100;0,489316;0,000000;0,000000;0,300000;0,583333;0,583333;0,312500;0,000000;0,625000;0,312500;0,312500;0,314286;0,233333;0,233333;0,233333;0,291667;0,000000;0,000000;0,277778;0,000000;0,000000;0,000000;0,583333;0,527843;0,289963;0,333333;0,000000;0,625000;0,000000;0,291667;0,000000;0,000000;0,375000;0,375000;0,289009;0,277778;0,291667;0,281896;0,282456;0,388889;0,285714;0,250000;0,000000;0,000000;0,375000;0,500000;0,291667;0,000000;0,000000;0,488787;0,291667;0,291667;0,339765;0,000000;0,000000;0,000000;0,375000;0,000000;0,000000;0,625000;0,000000;0,000000;0,000000;0,625000;0,500000;0,277778;0,277778;0,250000;0,250000;0,291667;0,375000;0,625000;0,291667;0,291667;0,375000;0,291667;0,375000;
23;;;;;;;;;;;;;;;;;;;;;;;1,000000;0,717696;0,594490;0,387444;0,333333;0,392859;0,000000;0,454477;0,484848;0,485796;0,654324;0,000000;0,614702;0,521510;0,636755;0,636755;0,386271;0,333333;0,935325;0,453065;0,397251;0,490612;0,216102;0,216102;0,216102;0,642372;0,638365;0,000000;0,325873;0,000000;0,000000;0,000000;0,637569;0,571217;0,522131;0,464762;0,488302;0,935325;0,941469;0,329264;0,472222;0,484848;0,480779;0,480779;0,355921;0,327213;0,329264;0,374935;0,358765;0,603651;0,368791;0,253506;0,000000;0,000000;0,480779;0,729586;0,329264;0,333333;0,333333;0,637410;0,329264;0,329264;0,480841;0,000000;0,000000;0,939394;0,940599;0,484848;0,484848;0,935325;0,939394;0,638439;0,638439;0,935325;0,729586;0,325873;0,325873;0,253506;0,253506;0,329264;0,480779;0,935325;0,329264;0,329264;0,940599;0,646360;0,480779;
24;;;;;;;;;;;;;;;;;;;;;;;;1,000000;0,707211;0,278571;0,000000;0,286915;0,000000;0,000000;0,000000;0,477100;0,489316;0,000000;0,000000;0,300000;0,583333;0,583333;0,312500;0,000000;0,625000;0,312500;0,312500;0,314286;0,233333;0,233333;0,233333;0,291667;0,000000;0,000000;0,277778;0,000000;0,000000;0,000000;0,583333;0,527843;0,289963;0,333333;0,000000;0,625000;0,000000;0,291667;0,000000;0,000000;0,375000;0,375000;0,289009;0,277778;0,291667;0,281896;0,282456;0,388889;0,285714;0,250000;0,000000;0,000000;0,375000;0,500000;0,291667;0,000000;0,000000;0,488787;0,291667;0,291667;0,339765;0,000000;0,000000;0,000000;0,375000;0,000000;0,000000;0,625000;0,000000;0,000000;0,000000;0,625000;0,500000;0,277778;0,277778;0,250000;0,250000;0,291667;0,375000;0,625000;0,291667;0,291667;0,375000;0,291667;0,375000;
25;;;;;;;;;;;;;;;;;;;;;;;;;1,000000;0,428912;0,000000;0,351143;0,000000;0,000000;0,000000;0,409680;0,426949;0,000000;0,000000;0,379183;0,614447;0,614447;0,394285;0,000000;0,822143;0,466382;0,394285;0,409795;0,293106;0,293106;0,293106;0,312500;0,000000;0,000000;0,315428;0,000000;0,000000;0,000000;0,606954;0,515846;0,357676;0,415428;0,711577;0,822143;0,625000;0,322143;0,700000;0,625000;0,447143;0,447143;0,403239;0,373106;0,322143;0,340389;0,334197;0,515428;0,340714;0,259643;0,000000;0,000000;0,447143;0,481954;0,322143;0,000000;0,000000;0,615107;0,322143;0,322143;0,427005;0,000000;0,000000;0,000000;0,447143;0,625000;0,625000;0,822143;0,000000;0,500000;0,500000;0,822143;0,481954;0,315428;0,315428;0,259643;0,259643;0,322143;0,447143;0,822143;0,322143;0,322143;0,447143;0,322143;0,447143;
26;;;;;;;;;;;;;;;;;;;;;;;;;;1,000000;0,453704;0,413716;0,000000;0,000000;0,000000;0,446429;0,345751;0,483333;0,000000;0,446429;0,345238;0,345238;0,454082;0,000000;0,878571;0,467333;0,454082;0,482143;0,274592;0,274592;0,274592;0,000000;0,000000;0,000000;0,353175;0,000000;0,000000;0,000000;0,345238;0,488108;0,421337;0,464286;0,512864;0,878571;0,500000;0,345238;0,500000;0,500000;0,478571;0,478571;0,395169;0,363481;0,345238;0,401169;0,385410;0,575397;0,392857;0,278571;0,000000;0,000000;0,478571;0,278571;0,345238;0,000000;0,000000;0,363481;0,345238;0,345238;0,477149;0,000000;0,000000;0,000000;0,478571;0,500000;0,500000;0,878571;0,000000;0,366667;0,366667;0,878571;0,278571;0,353175;0,353175;0,754261;0,754261;0,345238;0,478571;0,878571;0,345238;0,345238;0,478571;0,345238;0,478571;
27;;;;;;;;;;;;;;;;;;;;;;;;;;;1,000000;0,579817;0,666667;0,000000;0,000000;0,751093;0,333333;0,500000;0,505654;0,495514;0,000000;0,000000;0,000000;0,000000;0,000000;0,000000;0,000000;0,000000;0,238095;0,238095;0,238095;0,000000;0,333333;0,000000;0,000000;0,000000;0,000000;0,000000;0,000000;0,000000;0,500000;0,000000;0,000000;0,000000;0,000000;0,666667;0,000000;0,000000;0,000000;0,000000;0,000000;0,000000;0,000000;0,000000;0,000000;0,000000;0,281250;0,263889;0,000000;0,000000;0,000000;0,000000;0,000000;0,583333;0,583333;0,000000;0,000000;0,000000;0,000000;0,000000;0,000000;0,000000;0,000000;0,000000;0,000000;0,000000;0,000000;0,000000;0,000000;0,000000;0,000000;0,000000;0,000000;0,291667;0,291667;0,000000;0,000000;0,000000;0,000000;0,000000;0,000000;0,000000;0,000000;
28;;;;;;;;;;;;;;;;;;;;;;;;;;;;1,000000;0,634487;0,000000;0,000000;0,382054;0,370781;0,466667;0,428571;0,443775;0,353581;0,353581;0,471960;0,000000;0,886915;0,471960;0,471960;0,503001;0,415551;0,415551;0,415551;0,000000;0,347874;0,000000;0,367080;0,000000;0,000000;0,000000;0,353581;0,515919;0,442195;0,478191;0,000000;0,886915;0,000000;0,669253;0,000000;0,000000;0,486915;0,486915;0,418266;0,367080;0,353581;0,422028;0,403288;0,589302;0,576972;0,535920;0,000000;0,000000;0,486915;0,286915;0,353581;0,381801;0,381801;0,367080;0,353581;0,353581;0,491055;0,000000;0,000000;0,000000;0,486915;0,000000;0,000000;0,886915;0,000000;0,000000;0,000000;0,886915;0,286915;0,367080;0,367080;0,286915;0,286915;0,353581;0,486915;0,886915;0,353581;0,353581;0,486915;0,353581;0,486915;
29;;;;;;;;;;;;;;;;;;;;;;;;;;;;;1,000000;0,000000;0,000000;0,333333;0,000000;0,416667;0,375000;0,366667;0,000000;0,000000;0,000000;0,000000;0,000000;0,000000;0,000000;0,000000;0,288889;0,288889;0,288889;0,000000;0,333333;0,000000;0,000000;0,000000;0,000000;0,000000;0,000000;0,000000;0,000000;0,000000;0,000000;0,000000;0,000000;0,666667;0,000000;0,000000;0,000000;0,000000;0,000000;0,000000;0,000000;0,000000;0,000000;0,000000;0,312500;0,291667;0,000000;0,000000;0,000000;0,000000;0,000000;0,357567;0,357567;0,000000;0,000000;0,000000;0,000000;0,000000;0,000000;0,000000;0,000000;0,000000;0,000000;0,000000;0,000000;0,000000;0,000000;0,000000;0,000000;0,000000;0,000000;0,000000;0,000000;0,000000;0,000000;0,000000;0,000000;0,000000;0,000000;0,000000;0,000000;
30;;;;;;;;;;;;;;;;;;;;;;;;;;;;;;1,000000;0,000000;0,000000;0,429523;0,000000;0,000000;0,000000;0,000000;0,000000;0,000000;0,000000;0,000000;0,000000;0,000000;0,000000;0,000000;0,000000;0,000000;0,000000;0,375000;0,000000;0,000000;0,000000;0,000000;0,000000;0,000000;0,000000;0,428571;0,000000;0,000000;0,000000;0,500000;0,000000;0,000000;0,000000;0,000000;0,000000;0,000000;0,000000;0,000000;0,000000;0,000000;0,000000;0,000000;0,000000;0,500000;0,500000;0,000000;0,312500;0,000000;0,000000;0,000000;0,400000;0,000000;0,000000;0,000000;0,500000;0,500000;0,000000;0,000000;0,000000;0,000000;0,000000;0,000000;0,375000;0,375000;0,000000;0,312500;0,000000;0,000000;0,000000;0,000000;0,000000;0,000000;0,000000;0,000000;0,000000;0,000000;0,375000;0,000000;
31;;;;;;;;;;;;;;;;;;;;;;;;;;;;;;;1,000000;0,466667;0,476190;0,000000;0,476509;0,481207;0,000000;0,000000;0,458333;0,416667;0,000000;0,000000;0,476509;0,000000;0,000000;0,000000;0,000000;0,000000;0,000000;0,000000;0,000000;0,000000;0,000000;0,000000;0,000000;0,000000;0,000000;0,000000;0,000000;0,000000;0,000000;0,000000;0,500000;0,000000;0,000000;0,000000;0,000000;0,000000;0,000000;0,000000;0,000000;0,000000;0,000000;0,000000;0,000000;0,000000;0,000000;0,000000;0,000000;0,000000;0,000000;0,000000;0,000000;0,000000;0,000000;0,000000;0,000000;0,750000;0,000000;0,000000;0,000000;0,000000;0,750000;0,000000;0,000000;0,000000;0,000000;0,000000;0,000000;0,000000;0,000000;0,000000;0,000000;0,000000;0,000000;0,000000;0,000000;0,000000;0,000000;
32;;;;;;;;;;;;;;;;;;;;;;;;;;;;;;;;1,000000;0,495698;0,466667;0,691010;0,641215;0,366667;0,366667;0,682640;0,607969;0,900000;0,500000;1,000000;0,932519;0,300000;0,300000;0,300000;0,666667;0,000000;0,000000;0,388889;0,000000;0,000000;0,000000;0,610433;0,507196;0,476931;0,500000;0,000000;0,900000;0,000000;0,366667;0,791059;0,000000;0,500000;0,500000;0,770247;0,777778;0,366667;0,454741;0,431328;1,000000;0,438776;0,300000;0,000000;0,000000;0,500000;0,723447;0,366667;0,763602;0,763602;0,439406;0,366667;0,366667;0,512864;0,000000;0,000000;0,866667;0,500000;0,000000;0,000000;0,900000;0,866667;0,000000;0,000000;0,900000;0,723447;0,777778;0,777778;0,300000;0,300000;0,366667;0,500000;0,900000;0,733333;0,733333;0,500000;0,366667;0,500000;
33;;;;;;;;;;;;;;;;;;;;;;;;;;;;;;;;;1,000000;0,000000;0,621631;0,515573;0,325013;0,325013;0,373461;0,333333;0,896442;0,425031;0,385005;0,452894;0,218773;0,218773;0,218773;0,629743;0,623308;0,000000;0,318773;0,000000;0,000000;0,000000;0,632173;0,564661;0,528539;0,443773;0,000000;0,896442;0,469796;0,325013;0,458333;0,000000;0,467870;0,467870;0,362387;0,318773;0,325013;0,355726;0,344913;0,568773;0,353602;0,253585;0,000000;0,000000;0,467870;0,729841;0,325013;0,333333;0,333333;0,762574;0,325013;0,325013;0,458244;0,000000;0,000000;0,904762;0,467870;0,000000;0,000000;0,896442;0,904762;0,326939;0,326939;0,896442;0,729841;0,318773;0,318773;0,253585;0,253585;0,325013;0,467870;0,896442;0,325013;0,325013;0,467870;0,641550;0,467870;
34;;;;;;;;;;;;;;;;;;;;;;;;;;;;;;;;;;1,000000;0,500000;0,500000;0,000000;0,000000;0,000000;0,000000;0,000000;0,000000;0,000000;0,000000;0,000000;0,000000;0,000000;0,000000;0,000000;0,000000;0,000000;0,000000;0,000000;0,000000;0,000000;0,000000;0,000000;0,000000;0,000000;0,000000;0,000000;0,000000;0,000000;0,000000;0,000000;0,000000;0,000000;0,000000;0,000000;0,000000;0,000000;0,000000;0,000000;0,000000;0,000000;0,000000;0,000000;0,000000;0,000000;0,468678;0,468678;0,000000;0,000000;0,000000;0,000000;0,000000;0,000000;0,000000;0,000000;0,000000;0,000000;0,000000;0,000000;0,000000;0,000000;0,000000;0,000000;0,000000;0,000000;0,375000;0,375000;0,000000;0,000000;0,000000;0,000000;0,000000;0,000000;0,000000;0,000000;
35;;;;;;;;;;;;;;;;;;;;;;;;;;;;;;;;;;;1,000000;0,564892;0,000000;0,000000;0,369684;0,351509;0,000000;0,000000;0,000000;0,000000;0,000000;0,000000;0,000000;0,000000;0,000000;0,000000;0,000000;0,000000;0,000000;0,000000;0,000000;0,000000;0,462614;0,000000;0,000000;0,000000;0,000000;0,000000;0,462414;0,000000;0,000000;0,000000;0,000000;0,000000;0,000000;0,000000;0,000000;0,000000;0,000000;0,000000;0,000000;0,000000;0,000000;0,000000;0,000000;0,518282;0,518282;0,000000;0,000000;0,000000;0,000000;0,000000;0,000000;0,851509;0,000000;0,000000;0,000000;0,000000;0,851509;0,000000;0,000000;0,000000;0,000000;0,000000;0,000000;0,000000;0,000000;0,000000;0,000000;0,000000;0,000000;0,000000;0,000000;0,000000;0,000000;
36;;;;;;;;;;;;;;;;;;;;;;;;;;;;;;;;;;;;1,000000;0,366667;0,366667;0,418126;0,347874;0,900000;0,500000;0,500000;0,535714;0,300000;0,300000;0,300000;0,000000;0,000000;0,000000;0,388889;0,000000;0,000000;0,000000;0,366667;0,559536;0,474908;1,000000;0,000000;0,900000;0,000000;0,366667;0,468678;0,000000;0,500000;0,500000;0,446306;0,388889;0,366667;0,454741;0,431328;0,611111;0,438776;0,300000;0,000000;0,000000;0,500000;0,300000;0,366667;0,531215;0,531215;0,388889;0,366667;0,366667;0,512864;0,000000;0,000000;0,881207;0,500000;0,000000;0,000000;0,900000;0,881207;0,000000;0,000000;0,900000;0,300000;0,388889;0,388889;0,300000;0,300000;0,366667;0,500000;0,900000;0,366667;0,366667;0,500000;0,733333;0,500000;
37;;;;;;;;;;;;;;;;;;;;;;;;;;;;;;;;;;;;;1,000000;0,666667;0,375000;0,000000;0,666667;0,375000;0,375000;0,380952;0,288889;0,288889;0,288889;0,000000;0,000000;0,000000;0,333333;0,000000;0,000000;0,000000;0,333333;0,371697;0,356630;0,388889;0,000000;0,666667;0,000000;0,333333;0,000000;0,000000;0,416667;0,416667;0,351509;0,333333;0,333333;0,348563;0,344956;0,444444;0,348214;0,291667;0,000000;0,000000;0,416667;0,291667;0,333333;0,000000;0,000000;0,333333;0,333333;0,333333;0,395321;0,000000;0,000000;0,000000;0,416667;0,000000;0,000000;0,666667;0,000000;0,000000;0,000000;0,666667;0,291667;0,333333;0,333333;0,291667;0,291667;0,333333;0,416667;0,666667;0,333333;0,333333;0,416667;0,333333;0,416667;
38;;;;;;;;;;;;;;;;;;;;;;;;;;;;;;;;;;;;;;1,000000;0,375000;0,000000;0,666667;0,375000;0,375000;0,380952;0,288889;0,288889;0,288889;0,000000;0,000000;0,000000;0,333333;0,000000;0,000000;0,000000;0,333333;0,371697;0,356630;0,388889;0,000000;0,666667;0,000000;0,333333;0,000000;0,000000;0,416667;0,416667;0,351509;0,333333;0,333333;0,348563;0,344956;0,444444;0,348214;0,291667;0,000000;0,000000;0,416667;0,291667;0,333333;0,000000;0,000000;0,333333;0,333333;0,333333;0,395321;0,000000;0,000000;0,000000;0,416667;0,000000;0,000000;0,666667;0,000000;0,000000;0,000000;0,666667;0,291667;0,333333;0,333333;0,291667;0,291667;0,333333;0,416667;0,666667;0,333333;0,333333;0,416667;0,333333;0,416667;
39;;;;;;;;;;;;;;;;;;;;;;;;;;;;;;;;;;;;;;;1,000000;0,642170;0,875000;0,500000;0,850981;0,771852;0,320000;0,320000;0,320000;0,000000;0,000000;0,000000;0,400000;0,000000;0,000000;0,000000;0,375000;0,548711;0,478493;0,500000;0,000000;0,875000;0,000000;0,375000;0,827472;0,000000;0,500000;0,500000;0,649947;0,680785;0,375000;0,461206;0,439912;0,880785;0,446429;0,312500;0,000000;0,000000;0,500000;0,312500;0,375000;0,000000;0,000000;0,400000;0,375000;0,375000;0,511577;0,000000;0,000000;0,833333;0,500000;0,000000;0,000000;0,875000;0,833333;0,000000;0,000000;0,875000;0,312500;0,680785;0,680785;0,312500;0,312500;0,375000;0,500000;0,875000;0,675490;0,675490;0,500000;0,375000;0,500000;
40;;;;;;;;;;;;;;;;;;;;;;;;;;;;;;;;;;;;;;;;1,000000;0,000000;0,000000;0,375000;0,366667;0,000000;0,000000;0,000000;0,000000;0,000000;0,000000;0,000000;0,000000;0,000000;0,000000;0,000000;0,000000;0,000000;0,000000;0,000000;0,000000;0,000000;0,000000;0,777778;0,000000;0,000000;0,000000;0,333333;0,333333;0,000000;0,000000;0,000000;0,388889;0,000000;0,000000;0,000000;0,000000;0,000000;0,000000;0,000000;0,000000;0,000000;0,000000;0,000000;0,000000;0,000000;0,000000;0,000000;0,666667;0,000000;0,000000;0,000000;0,000000;0,666667;0,000000;0,000000;0,000000;0,000000;0,333333;0,333333;0,000000;0,000000;0,000000;0,000000;0,000000;0,333333;0,333333;0,000000;0,000000;0,000000;
41;;;;;;;;;;;;;;;;;;;;;;;;;;;;;;;;;;;;;;;;;1,000000;0,875000;0,875000;0,914286;0,733333;0,733333;0,733333;0,000000;0,000000;0,000000;0,777778;0,000000;0,000000;0,000000;0,666667;0,964290;0,889963;0,833333;0,000000;1,000000;0,000000;0,666667;0,000000;0,000000;0,750000;0,750000;0,851509;0,777778;0,666667;0,881896;0,844956;0,888889;0,848214;0,625000;0,000000;0,000000;0,750000;0,625000;0,666667;0,000000;0,000000;0,777778;0,666667;0,666667;0,839765;0,000000;0,000000;0,000000;0,750000;0,000000;0,000000;1,000000;0,000000;0,000000;0,000000;1,000000;0,625000;0,777778;0,777778;0,625000;0,625000;0,666667;0,750000;1,000000;0,666667;0,666667;0,750000;0,666667;0,750000;
42;;;;;;;;;;;;;;;;;;;;;;;;;;;;;;;;;;;;;;;;;;1,000000;0,500000;0,530612;0,320000;0,320000;0,320000;0,000000;0,000000;0,000000;0,400000;0,000000;0,000000;0,000000;0,375000;0,548711;0,478493;0,500000;0,511577;0,875000;0,500000;0,375000;0,500000;0,500000;0,500000;0,500000;0,436857;0,400000;0,375000;0,461206;0,439912;0,600000;0,446429;0,312500;0,000000;0,000000;0,500000;0,312500;0,375000;0,000000;0,000000;0,400000;0,375000;0,375000;0,511577;0,000000;0,000000;0,000000;0,500000;0,500000;0,500000;0,875000;0,000000;0,375000;0,375000;0,875000;0,312500;0,400000;0,400000;0,312500;0,312500;0,375000;0,500000;0,875000;0,375000;0,375000;0,500000;0,375000;0,500000;
43;;;;;;;;;;;;;;;;;;;;;;;;;;;;;;;;;;;;;;;;;;;1,000000;0,942159;0,320000;0,320000;0,320000;0,351509;0,351509;0,000000;0,400000;0,000000;0,000000;0,000000;0,375000;0,548711;0,478493;0,500000;0,000000;0,875000;0,000000;0,375000;0,500000;0,000000;0,500000;0,500000;0,798966;0,800000;0,375000;0,461206;0,439912;1,000000;0,446429;0,312500;0,000000;0,000000;0,500000;0,312500;0,375000;0,000000;0,000000;0,400000;0,375000;0,375000;0,511577;0,000000;0,000000;0,000000;0,500000;0,000000;0,000000;0,875000;0,000000;0,000000;0,000000;0,875000;0,312500;0,800000;0,800000;0,312500;0,312500;0,375000;0,500000;0,875000;0,750000;0,750000;0,500000;0,375000;0,500000;
44;;;;;;;;;;;;;;;;;;;;;;;;;;;;;;;;;;;;;;;;;;;;1,000000;0,323810;0,323810;0,323810;0,000000;0,000000;0,000000;0,412698;0,000000;0,000000;0,000000;0,380952;0,607155;0,510622;0,523810;0,000000;0,914286;0,000000;0,380952;0,500000;0,000000;0,514286;0,514286;0,712406;0,732791;0,380952;0,490455;0,461940;0,955013;0,469388;0,314286;0,000000;0,000000;0,514286;0,314286;0,380952;0,000000;0,000000;0,412698;0,380952;0,380952;0,536673;0,000000;0,000000;0,000000;0,514286;0,000000;0,000000;0,914286;0,000000;0,000000;0,000000;0,914286;0,314286;0,732791;0,732791;0,314286;0,314286;0,380952;0,514286;0,914286;0,706341;0,706341;0,514286;0,380952;0,514286;
45;;;;;;;;;;;;;;;;;;;;;;;;;;;;;;;;;;;;;;;;;;;;;1,000000;0,800000;0,800000;0,000000;0,288889;0,000000;0,266667;0,000000;0,000000;0,000000;0,288889;0,295722;0,283272;0,350000;0,359648;0,733333;0,400000;0,538953;0,350000;0,400000;0,400000;0,400000;0,269485;0,266667;0,288889;0,269827;0,271930;0,433333;0,370116;0,427842;0,000000;0,000000;0,400000;0,233333;0,288889;0,000000;0,000000;0,266667;0,288889;0,288889;0,359648;0,000000;0,000000;0,000000;0,400000;0,400000;0,400000;0,733333;0,000000;0,288889;0,288889;0,733333;0,233333;0,266667;0,266667;0,233333;0,233333;0,288889;0,400000;0,733333;0,288889;0,288889;0,400000;0,288889;0,400000;
46;;;;;;;;;;;;;;;;;;;;;;;;;;;;;;;;;;;;;;;;;;;;;;1,000000;0,800000;0,000000;0,288889;0,000000;0,266667;0,000000;0,000000;0,000000;0,288889;0,295722;0,283272;0,350000;0,359648;0,733333;0,400000;0,538953;0,350000;0,400000;0,400000;0,400000;0,269485;0,266667;0,288889;0,269827;0,271930;0,433333;0,370116;0,427842;0,000000;0,000000;0,400000;0,233333;0,288889;0,000000;0,000000;0,266667;0,288889;0,288889;0,359648;0,000000;0,000000;0,000000;0,400000;0,400000;0,400000;0,733333;0,000000;0,288889;0,288889;0,733333;0,233333;0,266667;0,266667;0,233333;0,233333;0,288889;0,400000;0,733333;0,288889;0,288889;0,400000;0,288889;0,400000;
47;;;;;;;;;;;;;;;;;;;;;;;;;;;;;;;;;;;;;;;;;;;;;;;1,000000;0,000000;0,288889;0,000000;0,266667;0,000000;0,000000;0,000000;0,288889;0,295722;0,283272;0,350000;0,359648;0,733333;0,400000;0,538953;0,350000;0,400000;0,400000;0,400000;0,269485;0,266667;0,288889;0,269827;0,271930;0,433333;0,370116;0,427842;0,000000;0,000000;0,400000;0,233333;0,288889;0,000000;0,000000;0,266667;0,288889;0,288889;0,359648;0,000000;0,000000;0,000000;0,400000;0,400000;0,400000;0,733333;0,000000;0,288889;0,288889;0,733333;0,233333;0,266667;0,266667;0,233333;0,233333;0,288889;0,400000;0,733333;0,288889;0,288889;0,400000;0,288889;0,400000;
48;;;;;;;;;;;;;;;;;;;;;;;;;;;;;;;;;;;;;;;;;;;;;;;;1,000000;0,333333;0,000000;0,000000;0,000000;0,000000;0,000000;0,333333;0,333333;0,000000;0,000000;0,000000;0,000000;0,000000;0,000000;0,000000;0,000000;0,000000;0,000000;0,000000;0,000000;0,000000;0,000000;0,000000;0,000000;0,000000;0,000000;0,000000;0,000000;0,000000;0,583333;0,000000;0,000000;0,000000;0,333333;0,000000;0,000000;0,000000;0,000000;0,000000;0,000000;0,000000;0,000000;0,000000;0,000000;0,000000;0,000000;0,000000;0,000000;0,583333;0,000000;0,000000;0,000000;0,000000;0,000000;0,000000;0,000000;0,000000;0,000000;0,000000;0,000000;0,000000;
49;;;;;;;;;;;;;;;;;;;;;;;;;;;;;;;;;;;;;;;;;;;;;;;;;1,000000;0,000000;0,000000;0,000000;0,000000;0,000000;0,000000;0,000000;0,333333;0,000000;0,000000;0,000000;0,416667;0,333333;0,000000;0,000000;0,000000;0,000000;0,000000;0,000000;0,000000;0,000000;0,000000;0,000000;0,312500;0,291667;0,000000;0,000000;0,000000;0,291667;0,000000;0,000000;0,000000;0,333333;0,000000;0,000000;0,000000;0,000000;0,000000;0,000000;0,000000;0,000000;0,000000;0,000000;0,000000;0,333333;0,333333;0,000000;0,291667;0,000000;0,000000;0,000000;0,000000;0,000000;0,000000;0,000000;0,000000;0,000000;0,000000;0,333333;0,000000;
50;;;;;;;;;;;;;;;;;;;;;;;;;;;;;;;;;;;;;;;;;;;;;;;;;;1,000000;0,750000;0,750000;0,750000;0,750000;0,000000;0,000000;0,000000;0,000000;0,000000;0,000000;0,000000;0,000000;0,000000;0,000000;0,000000;0,000000;0,000000;0,000000;0,000000;0,266667;0,000000;0,000000;0,000000;0,000000;0,000000;0,000000;0,000000;0,000000;0,291667;0,000000;0,000000;0,000000;0,000000;0,000000;0,000000;0,000000;0,000000;0,000000;0,000000;0,000000;0,000000;0,000000;0,000000;0,000000;0,000000;0,000000;0,000000;0,000000;0,000000;0,000000;0,000000;0,000000;0,000000;0,000000;0,000000;0,000000;0,000000;0,000000;0,000000;
51;;;;;;;;;;;;;;;;;;;;;;;;;;;;;;;;;;;;;;;;;;;;;;;;;;;1,000000;0,750000;0,750000;0,750000;0,333333;0,402388;0,372161;0,416667;0,000000;0,777778;0,000000;0,333333;0,000000;0,000000;0,444444;0,444444;0,362414;0,333333;0,666667;0,616054;0,649833;0,500000;0,357143;0,277778;0,000000;0,000000;0,444444;0,277778;0,666667;0,000000;0,000000;0,333333;0,333333;0,333333;0,426314;0,000000;0,000000;0,000000;0,444444;0,000000;0,000000;0,777778;0,000000;0,000000;0,000000;0,777778;0,277778;0,333333;0,333333;0,277778;0,277778;0,666667;0,444444;0,777778;0,333333;0,333333;0,444444;0,333333;0,444444;
52;;;;;;;;;;;;;;;;;;;;;;;;;;;;;;;;;;;;;;;;;;;;;;;;;;;;1,000000;0,750000;0,750000;0,000000;0,000000;0,000000;0,000000;0,000000;0,000000;0,000000;0,000000;0,000000;0,000000;0,000000;0,000000;0,000000;0,000000;0,000000;0,266667;0,000000;0,000000;0,000000;0,000000;0,000000;0,000000;0,000000;0,000000;0,291667;0,000000;0,000000;0,000000;0,000000;0,000000;0,000000;0,000000;0,000000;0,000000;0,000000;0,000000;0,000000;0,000000;0,000000;0,000000;0,000000;0,000000;0,000000;0,000000;0,000000;0,000000;0,000000;0,000000;0,000000;0,000000;0,000000;0,000000;0,000000;0,000000;0,000000;
53;;;;;;;;;;;;;;;;;;;;;;;;;;;;;;;;;;;;;;;;;;;;;;;;;;;;;1,000000;0,750000;0,000000;0,000000;0,000000;0,000000;0,000000;0,000000;0,000000;0,000000;0,000000;0,000000;0,000000;0,000000;0,000000;0,000000;0,000000;0,266667;0,000000;0,000000;0,000000;0,000000;0,000000;0,000000;0,000000;0,000000;0,291667;0,000000;0,000000;0,000000;0,000000;0,000000;0,000000;0,000000;0,000000;0,000000;0,000000;0,000000;0,000000;0,000000;0,000000;0,000000;0,000000;0,000000;0,000000;0,000000;0,000000;0,000000;0,000000;0,000000;0,000000;0,000000;0,000000;0,000000;0,000000;0,000000;0,000000;
54;;;;;;;;;;;;;;;;;;;;;;;;;;;;;;;;;;;;;;;;;;;;;;;;;;;;;;1,000000;0,000000;0,000000;0,000000;0,000000;0,000000;0,000000;0,000000;0,000000;0,000000;0,000000;0,000000;0,000000;0,000000;0,000000;0,000000;0,266667;0,000000;0,000000;0,000000;0,000000;0,000000;0,000000;0,000000;0,000000;0,291667;0,000000;0,000000;0,000000;0,000000;0,000000;0,000000;0,000000;0,000000;0,000000;0,000000;0,000000;0,000000;0,000000;0,000000;0,000000;0,000000;0,000000;0,000000;0,000000;0,000000;0,000000;0,000000;0,000000;0,000000;0,000000;0,000000;0,000000;0,000000;0,000000;0,000000;
55;;;;;;;;;;;;;;;;;;;;;;;;;;;;;;;;;;;;;;;;;;;;;;;;;;;;;;;1,000000;0,675992;0,356630;0,388889;0,000000;0,666667;0,000000;0,333333;0,000000;0,000000;0,416667;0,416667;0,351509;0,333333;0,333333;0,348563;0,344956;0,444444;0,348214;0,291667;0,000000;0,000000;0,416667;0,583333;0,333333;0,000000;0,000000;0,599898;0,333333;0,333333;0,395321;0,000000;0,000000;0,000000;0,833333;0,000000;0,000000;0,666667;0,000000;0,000000;0,000000;0,666667;0,583333;0,333333;0,333333;0,291667;0,291667;0,333333;0,416667;0,666667;0,333333;0,333333;0,833333;0,333333;0,416667;
56;;;;;;;;;;;;;;;;;;;;;;;;;;;;;;;;;;;;;;;;;;;;;;;;;;;;;;;;1,000000;0,526080;0,535722;0,000000;0,964290;0,000000;0,371697;0,000000;0,000000;0,519845;0,519845;0,480373;0,402388;0,371697;0,499190;0,461311;0,669055;0,470789;0,297623;0,000000;0,000000;0,519845;0,527843;0,371697;0,000000;0,000000;0,523206;0,371697;0,371697;0,551158;0,000000;0,000000;0,000000;0,519845;0,000000;0,000000;0,964290;0,000000;0,000000;0,000000;0,964290;0,527843;0,402388;0,402388;0,297623;0,297623;0,371697;0,519845;0,964290;0,371697;0,371697;0,519845;0,371697;0,519845;
57;;;;;;;;;;;;;;;;;;;;;;;;;;;;;;;;;;;;;;;;;;;;;;;;;;;;;;;;;1,000000;0,483272;0,000000;0,889963;0,466667;0,356630;0,000000;0,000000;0,489963;0,489963;0,424798;0,372161;0,356630;0,429649;0,409821;0,594383;0,417268;0,289963;0,000000;0,000000;0,489963;0,510733;0,356630;0,000000;0,000000;0,505496;0,356630;0,356630;0,496136;0,000000;0,000000;0,000000;0,489963;0,000000;0,000000;0,889963;0,000000;0,333333;0,333333;0,889963;0,510733;0,372161;0,372161;0,289963;0,289963;0,356630;0,489963;0,889963;0,356630;0,356630;0,489963;0,644067;0,489963;
58;;;;;;;;;;;;;;;;;;;;;;;;;;;;;;;;;;;;;;;;;;;;;;;;;;;;;;;;;;1,000000;0,000000;0,833333;0,000000;0,388889;0,000000;0,000000;0,500000;0,500000;0,462414;0,416667;0,388889;0,469827;0,451930;0,583333;0,457143;0,333333;0,000000;0,000000;0,500000;0,333333;0,388889;0,000000;0,000000;0,416667;0,388889;0,388889;0,509648;0,000000;0,000000;0,000000;0,500000;0,000000;0,000000;0,833333;0,000000;0,000000;0,000000;0,833333;0,333333;0,416667;0,416667;0,333333;0,333333;0,388889;0,500000;0,833333;0,388889;0,388889;0,500000;0,777778;0,500000;
59;;;;;;;;;;;;;;;;;;;;;;;;;;;;;;;;;;;;;;;;;;;;;;;;;;;;;;;;;;;1,000000;0,000000;0,506432;0,000000;0,509648;0,506432;0,000000;0,000000;0,624389;0,602975;0,000000;0,000000;0,400000;0,000000;0,000000;0,000000;0,000000;0,000000;0,000000;0,000000;0,000000;0,000000;0,000000;0,426314;0,000000;0,000000;0,000000;0,000000;0,000000;0,000000;0,000000;0,506432;0,506432;0,000000;0,000000;0,395321;0,395321;0,000000;0,000000;0,000000;0,000000;0,000000;0,000000;0,000000;0,000000;0,000000;0,000000;0,000000;0,000000;0,000000;0,000000;
60;;;;;;;;;;;;;;;;;;;;;;;;;;;;;;;;;;;;;;;;;;;;;;;;;;;;;;;;;;;;1,000000;0,000000;0,666667;0,000000;0,000000;0,750000;0,750000;0,851509;0,777778;0,666667;0,881896;0,844956;0,888889;0,848214;0,625000;0,000000;0,000000;0,750000;0,625000;0,666667;0,000000;0,000000;0,777778;0,666667;0,666667;0,839765;0,000000;0,000000;0,000000;0,750000;0,000000;0,000000;1,000000;0,000000;0,000000;0,000000;1,000000;0,625000;0,777778;0,777778;0,625000;0,625000;0,666667;0,750000;1,000000;0,666667;0,666667;0,750000;0,666667;0,750000;
61;;;;;;;;;;;;;;;;;;;;;;;;;;;;;;;;;;;;;;;;;;;;;;;;;;;;;;;;;;;;;1,000000;0,000000;0,500000;0,500000;0,000000;0,000000;0,458333;0,444444;0,000000;0,000000;0,000000;0,000000;0,000000;0,000000;0,000000;0,000000;0,000000;0,375000;0,000000;0,000000;0,000000;0,833722;0,000000;0,000000;0,000000;0,000000;0,000000;0,000000;0,000000;0,500000;0,500000;0,000000;0,000000;0,833333;0,833333;0,000000;0,375000;0,000000;0,000000;0,000000;0,000000;0,000000;0,000000;0,000000;0,000000;0,000000;0,000000;0,416667;0,000000;
62;;;;;;;;;;;;;;;;;;;;;;;;;;;;;;;;;;;;;;;;;;;;;;;;;;;;;;;;;;;;;;1,000000;0,000000;0,000000;0,416667;0,416667;0,351509;0,333333;0,333333;0,348563;0,344956;0,444444;0,625000;0,583333;0,000000;0,000000;0,416667;0,291667;0,333333;0,000000;0,000000;0,333333;0,333333;0,333333;0,395321;0,000000;0,000000;0,000000;0,416667;0,000000;0,000000;0,666667;0,000000;0,000000;0,000000;0,666667;0,291667;0,333333;0,333333;0,291667;0,291667;0,333333;0,416667;0,666667;0,333333;0,333333;0,416667;0,333333;0,416667;
63;;;;;;;;;;;;;;;;;;;;;;;;;;;;;;;;;;;;;;;;;;;;;;;;;;;;;;;;;;;;;;;1,000000;0,500000;0,000000;0,000000;0,433333;0,416667;0,000000;0,000000;0,000000;0,500000;0,000000;0,000000;0,000000;0,000000;0,000000;0,000000;0,000000;0,000000;0,000000;0,416667;0,000000;0,000000;0,000000;0,000000;0,000000;0,833333;0,000000;0,500000;0,500000;0,000000;0,833333;0,388889;0,388889;0,000000;0,000000;0,416667;0,416667;0,000000;0,000000;0,000000;0,000000;0,000000;0,388889;0,388889;0,000000;0,000000;0,000000;
64;;;;;;;;;;;;;;;;;;;;;;;;;;;;;;;;;;;;;;;;;;;;;;;;;;;;;;;;;;;;;;;;1,000000;0,000000;0,000000;0,458333;0,444444;0,000000;0,000000;0,000000;0,000000;0,000000;0,000000;0,000000;0,000000;0,000000;0,000000;0,000000;0,000000;0,000000;0,444444;0,000000;0,000000;0,000000;0,000000;0,000000;0,000000;0,000000;0,500000;0,500000;0,000000;0,000000;0,416667;0,416667;0,000000;0,000000;0,000000;0,000000;0,000000;0,000000;0,000000;0,000000;0,000000;0,000000;0,000000;0,000000;0,000000;0,000000;
65;;;;;;;;;;;;;;;;;;;;;;;;;;;;;;;;;;;;;;;;;;;;;;;;;;;;;;;;;;;;;;;;;1,000000;0,500000;0,476509;0,444444;0,416667;0,481896;0,469956;0,555556;0,473214;0,375000;0,000000;0,000000;0,500000;0,375000;0,416667;0,000000;0,000000;0,444444;0,416667;0,416667;0,506432;0,000000;0,000000;0,000000;0,500000;0,000000;0,000000;0,750000;0,000000;0,000000;0,000000;0,750000;0,375000;0,444444;0,444444;0,375000;0,375000;0,416667;0,500000;0,750000;0,416667;0,416667;0,500000;0,416667;0,500000;
66;;;;;;;;;;;;;;;;;;;;;;;;;;;;;;;;;;;;;;;;;;;;;;;;;;;;;;;;;;;;;;;;;;1,000000;0,476509;0,444444;0,416667;0,481896;0,469956;0,555556;0,473214;0,375000;0,000000;0,000000;0,500000;0,375000;0,416667;0,000000;0,000000;0,444444;0,416667;0,416667;0,506432;0,000000;0,000000;0,000000;0,500000;0,000000;0,000000;0,750000;0,000000;0,000000;0,000000;0,750000;0,375000;0,444444;0,444444;0,375000;0,375000;0,416667;0,500000;0,750000;0,416667;0,416667;0,500000;0,416667;0,500000;
67;;;;;;;;;;;;;;;;;;;;;;;;;;;;;;;;;;;;;;;;;;;;;;;;;;;;;;;;;;;;;;;;;;;1,000000;0,652236;0,661741;0,631628;0,392929;0,839173;0,399446;0,289009;0,000000;0,000000;0,476509;0,289009;0,351509;0,000000;0,000000;0,349485;0,351509;0,351509;0,473991;0,000000;0,000000;0,000000;0,476509;0,458333;0,458333;0,851509;0,000000;0,333333;0,333333;0,851509;0,289009;0,639173;0,639173;0,289009;0,289009;0,661741;0,476509;0,851509;0,649483;0,649483;0,476509;0,351509;0,476509;
68;;;;;;;;;;;;;;;;;;;;;;;;;;;;;;;;;;;;;;;;;;;;;;;;;;;;;;;;;;;;;;;;;;;;1,000000;0,333333;0,358716;0,472942;0,833333;0,357143;0,277778;0,000000;0,000000;0,444444;0,277778;0,333333;0,000000;0,000000;0,333333;0,333333;0,333333;0,426314;0,000000;0,000000;0,000000;0,444444;0,444444;0,444444;0,777778;0,000000;0,333333;0,333333;0,777778;0,277778;0,666667;0,666667;0,277778;0,277778;0,333333;0,444444;0,777778;0,666667;0,666667;0,444444;0,333333;0,444444;
69;;;;;;;;;;;;;;;;;;;;;;;;;;;;;;;;;;;;;;;;;;;;;;;;;;;;;;;;;;;;;;;;;;;;;1,000000;0,655569;0,656145;0,444444;0,348214;0,291667;0,000000;0,000000;0,416667;0,291667;0,666667;0,000000;0,000000;0,333333;0,333333;0,333333;0,395321;0,000000;0,000000;0,000000;0,416667;0,000000;0,000000;0,666667;0,000000;0,000000;0,000000;0,666667;0,291667;0,333333;0,333333;0,291667;0,291667;1,000000;0,416667;0,666667;0,333333;0,333333;0,416667;0,333333;0,416667;
70;;;;;;;;;;;;;;;;;;;;;;;;;;;;;;;;;;;;;;;;;;;;;;;;;;;;;;;;;;;;;;;;;;;;;;1,000000;0,619064;0,580938;0,399982;0,281896;0,000000;0,000000;0,481896;0,281896;0,636272;0,000000;0,000000;0,358716;0,348563;0,348563;0,482691;0,000000;0,000000;0,000000;0,481896;0,000000;0,000000;0,881896;0,000000;0,000000;0,000000;0,881896;0,281896;0,358716;0,358716;0,281896;0,281896;0,655569;0,481896;0,881896;0,348563;0,348563;0,481896;0,348563;0,481896;
71;;;;;;;;;;;;;;;;;;;;;;;;;;;;;;;;;;;;;;;;;;;;;;;;;;;;;;;;;;;;;;;;;;;;;;;1,000000;0,551930;0,386340;0,282456;0,000000;0,000000;0,469956;0,282456;0,656145;0,000000;0,000000;0,351930;0,344956;0,344956;0,463507;0,000000;0,000000;0,000000;0,469956;0,000000;0,000000;0,844956;0,000000;0,000000;0,000000;0,844956;0,282456;0,351930;0,351930;0,282456;0,282456;0,656145;0,469956;0,844956;0,344956;0,344956;0,469956;0,344956;0,469956;
72;;;;;;;;;;;;;;;;;;;;;;;;;;;;;;;;;;;;;;;;;;;;;;;;;;;;;;;;;;;;;;;;;;;;;;;;1,000000;0,557143;0,388889;0,000000;0,000000;0,555556;0,388889;0,444444;0,000000;0,000000;0,500000;0,444444;0,444444;0,592981;0,000000;0,000000;0,000000;0,555556;0,000000;0,000000;0,888889;0,000000;0,000000;0,000000;0,888889;0,388889;0,833333;0,833333;0,388889;0,388889;0,444444;0,555556;0,888889;0,777778;0,777778;0,555556;0,444444;0,555556;
73;;;;;;;;;;;;;;;;;;;;;;;;;;;;;;;;;;;;;;;;;;;;;;;;;;;;;;;;;;;;;;;;;;;;;;;;;1,000000;0,751916;0,000000;0,000000;0,473214;0,285714;0,348214;0,000000;0,000000;0,357143;0,348214;0,348214;0,468720;0,000000;0,000000;0,000000;0,473214;0,000000;0,000000;0,848214;0,000000;0,000000;0,000000;0,848214;0,285714;0,357143;0,357143;0,285714;0,285714;0,348214;0,473214;0,848214;0,348214;0,348214;0,473214;0,348214;0,473214;
74;;;;;;;;;;;;;;;;;;;;;;;;;;;;;;;;;;;;;;;;;;;;;;;;;;;;;;;;;;;;;;;;;;;;;;;;;;1,000000;0,000000;0,000000;0,375000;0,250000;0,291667;0,000000;0,000000;0,277778;0,291667;0,291667;0,339765;0,000000;0,000000;0,000000;0,375000;0,000000;0,000000;0,625000;0,000000;0,000000;0,000000;0,625000;0,250000;0,277778;0,277778;0,250000;0,250000;0,291667;0,375000;0,625000;0,291667;0,291667;0,375000;0,291667;0,750000;
75;;;;;;;;;;;;;;;;;;;;;;;;;;;;;;;;;;;;;;;;;;;;;;;;;;;;;;;;;;;;;;;;;;;;;;;;;;;1,000000;0,500000;0,000000;0,000000;0,000000;0,000000;0,000000;0,000000;0,000000;0,000000;0,000000;0,500000;0,500000;0,000000;0,000000;0,000000;0,000000;0,000000;0,000000;0,000000;0,000000;0,000000;0,000000;0,000000;0,000000;0,000000;0,000000;0,000000;0,000000;0,000000;0,000000;0,000000;0,000000;0,000000;0,000000;
76;;;;;;;;;;;;;;;;;;;;;;;;;;;;;;;;;;;;;;;;;;;;;;;;;;;;;;;;;;;;;;;;;;;;;;;;;;;;1,000000;0,000000;0,000000;0,000000;0,000000;0,000000;0,000000;0,000000;0,000000;0,000000;0,500000;0,500000;0,000000;0,000000;0,000000;0,000000;0,000000;0,000000;0,000000;0,000000;0,000000;0,000000;0,000000;0,000000;0,000000;0,000000;0,000000;0,000000;0,000000;0,000000;0,000000;0,000000;0,000000;0,000000;
77;;;;;;;;;;;;;;;;;;;;;;;;;;;;;;;;;;;;;;;;;;;;;;;;;;;;;;;;;;;;;;;;;;;;;;;;;;;;;1,000000;0,375000;0,416667;0,000000;0,000000;0,444444;0,416667;0,416667;0,506432;0,000000;0,000000;0,000000;0,500000;0,000000;0,000000;0,750000;0,000000;0,000000;0,000000;0,750000;0,375000;0,444444;0,444444;0,375000;0,375000;0,416667;0,500000;0,750000;0,416667;0,416667;0,500000;0,416667;0,500000;
78;;;;;;;;;;;;;;;;;;;;;;;;;;;;;;;;;;;;;;;;;;;;;;;;;;;;;;;;;;;;;;;;;;;;;;;;;;;;;;1,000000;0,291667;0,000000;0,000000;0,771268;0,291667;0,291667;0,339765;0,000000;0,000000;0,000000;0,375000;0,000000;0,000000;0,625000;0,000000;0,291667;0,291667;0,625000;1,000000;0,277778;0,277778;0,250000;0,250000;0,291667;0,375000;0,625000;0,291667;0,291667;0,375000;0,583333;0,375000;
79;;;;;;;;;;;;;;;;;;;;;;;;;;;;;;;;;;;;;;;;;;;;;;;;;;;;;;;;;;;;;;;;;;;;;;;;;;;;;;;1,000000;0,000000;0,000000;0,333333;0,333333;0,333333;0,395321;0,000000;0,000000;0,000000;0,416667;0,000000;0,000000;0,666667;0,000000;0,000000;0,000000;0,666667;0,291667;0,333333;0,333333;0,291667;0,291667;0,666667;0,416667;0,666667;0,333333;0,333333;0,416667;0,333333;0,416667;
80;;;;;;;;;;;;;;;;;;;;;;;;;;;;;;;;;;;;;;;;;;;;;;;;;;;;;;;;;;;;;;;;;;;;;;;;;;;;;;;;1,000000;0,595879;0,000000;0,000000;0,000000;0,000000;0,000000;0,000000;0,000000;0,000000;0,000000;0,000000;0,000000;0,000000;0,000000;0,000000;0,000000;0,000000;0,000000;0,000000;0,000000;0,000000;0,000000;0,000000;0,000000;0,000000;0,000000;0,000000;0,000000;0,000000;
81;;;;;;;;;;;;;;;;;;;;;;;;;;;;;;;;;;;;;;;;;;;;;;;;;;;;;;;;;;;;;;;;;;;;;;;;;;;;;;;;;1,000000;0,000000;0,000000;0,000000;0,000000;0,000000;0,000000;0,000000;0,000000;0,000000;0,000000;0,000000;0,000000;0,000000;0,000000;0,000000;0,000000;0,000000;0,000000;0,000000;0,000000;0,000000;0,000000;0,000000;0,000000;0,000000;0,000000;0,000000;0,000000;
82;;;;;;;;;;;;;;;;;;;;;;;;;;;;;;;;;;;;;;;;;;;;;;;;;;;;;;;;;;;;;;;;;;;;;;;;;;;;;;;;;;1,000000;0,333333;0,333333;0,426314;0,000000;0,000000;0,000000;0,444444;0,444444;0,444444;0,777778;0,000000;0,611500;0,611500;0,777778;0,771268;0,333333;0,333333;0,277778;0,277778;0,333333;0,444444;0,777778;0,333333;0,333333;0,444444;0,604914;0,444444;
83;;;;;;;;;;;;;;;;;;;;;;;;;;;;;;;;;;;;;;;;;;;;;;;;;;;;;;;;;;;;;;;;;;;;;;;;;;;;;;;;;;;1,000000;0,666667;0,694553;0,000000;0,000000;0,000000;0,416667;0,000000;0,000000;0,666667;0,000000;0,000000;0,000000;0,666667;0,291667;0,333333;0,333333;0,291667;0,291667;0,333333;0,416667;0,666667;0,333333;0,333333;0,416667;0,333333;0,416667;
84;;;;;;;;;;;;;;;;;;;;;;;;;;;;;;;;;;;;;;;;;;;;;;;;;;;;;;;;;;;;;;;;;;;;;;;;;;;;;;;;;;;;1,000000;0,694553;0,000000;0,000000;0,000000;0,416667;0,000000;0,000000;0,666667;0,000000;0,000000;0,000000;0,666667;0,291667;0,333333;0,333333;0,291667;0,291667;0,333333;0,416667;0,666667;0,333333;0,333333;0,416667;0,333333;0,416667;
85;;;;;;;;;;;;;;;;;;;;;;;;;;;;;;;;;;;;;;;;;;;;;;;;;;;;;;;;;;;;;;;;;;;;;;;;;;;;;;;;;;;;;1,000000;0,000000;0,000000;0,000000;0,506432;0,000000;0,000000;0,839765;0,000000;0,000000;0,000000;0,839765;0,339765;0,426314;0,426314;0,339765;0,339765;0,395321;0,506432;0,839765;0,395321;0,395321;0,506432;0,395321;0,506432;
86;;;;;;;;;;;;;;;;;;;;;;;;;;;;;;;;;;;;;;;;;;;;;;;;;;;;;;;;;;;;;;;;;;;;;;;;;;;;;;;;;;;;;;1,000000;0,500000;0,000000;0,000000;0,000000;0,000000;0,000000;0,000000;0,000000;0,000000;0,000000;0,000000;0,000000;0,000000;0,000000;0,000000;0,000000;0,000000;0,000000;0,000000;0,000000;0,000000;0,000000;0,000000;
87;;;;;;;;;;;;;;;;;;;;;;;;;;;;;;;;;;;;;;;;;;;;;;;;;;;;;;;;;;;;;;;;;;;;;;;;;;;;;;;;;;;;;;;1,000000;0,000000;0,000000;0,000000;0,000000;0,000000;0,000000;0,000000;0,000000;0,000000;0,000000;0,000000;0,000000;0,000000;0,000000;0,000000;0,000000;0,000000;0,000000;0,000000;0,000000;0,000000;0,000000;
88;;;;;;;;;;;;;;;;;;;;;;;;;;;;;;;;;;;;;;;;;;;;;;;;;;;;;;;;;;;;;;;;;;;;;;;;;;;;;;;;;;;;;;;;1,000000;0,000000;0,000000;0,000000;0,000000;1,000000;0,000000;0,000000;0,000000;0,000000;0,000000;0,000000;0,000000;0,000000;0,000000;0,000000;0,000000;0,000000;0,000000;0,000000;0,000000;0,000000;
89;;;;;;;;;;;;;;;;;;;;;;;;;;;;;;;;;;;;;;;;;;;;;;;;;;;;;;;;;;;;;;;;;;;;;;;;;;;;;;;;;;;;;;;;;1,000000;0,000000;0,000000;0,750000;0,000000;0,000000;0,000000;0,750000;0,375000;0,444444;0,444444;0,375000;0,375000;0,416667;0,500000;0,750000;0,416667;0,416667;1,000000;0,416667;0,500000;
90;;;;;;;;;;;;;;;;;;;;;;;;;;;;;;;;;;;;;;;;;;;;;;;;;;;;;;;;;;;;;;;;;;;;;;;;;;;;;;;;;;;;;;;;;;1,000000;0,500000;0,000000;0,000000;0,416667;0,416667;0,000000;0,000000;0,000000;0,000000;0,000000;0,000000;0,000000;0,000000;0,000000;0,000000;0,000000;0,000000;0,000000;0,000000;
91;;;;;;;;;;;;;;;;;;;;;;;;;;;;;;;;;;;;;;;;;;;;;;;;;;;;;;;;;;;;;;;;;;;;;;;;;;;;;;;;;;;;;;;;;;;1,000000;0,000000;0,000000;0,416667;0,416667;0,000000;0,000000;0,000000;0,000000;0,000000;0,000000;0,000000;0,000000;0,000000;0,000000;0,000000;0,000000;0,000000;0,000000;
92;;;;;;;;;;;;;;;;;;;;;;;;;;;;;;;;;;;;;;;;;;;;;;;;;;;;;;;;;;;;;;;;;;;;;;;;;;;;;;;;;;;;;;;;;;;;1,000000;0,000000;0,000000;0,000000;1,000000;0,625000;0,777778;0,777778;0,625000;0,625000;0,666667;0,750000;1,000000;0,666667;0,666667;0,750000;0,666667;0,750000;
93;;;;;;;;;;;;;;;;;;;;;;;;;;;;;;;;;;;;;;;;;;;;;;;;;;;;;;;;;;;;;;;;;;;;;;;;;;;;;;;;;;;;;;;;;;;;;1,000000;0,000000;0,000000;0,000000;0,000000;0,000000;0,000000;0,000000;0,000000;0,000000;0,000000;0,000000;0,000000;0,000000;0,000000;0,000000;0,000000;
94;;;;;;;;;;;;;;;;;;;;;;;;;;;;;;;;;;;;;;;;;;;;;;;;;;;;;;;;;;;;;;;;;;;;;;;;;;;;;;;;;;;;;;;;;;;;;;1,000000;0,666667;0,000000;0,291667;0,000000;0,000000;0,000000;0,000000;0,000000;0,000000;0,000000;0,000000;0,000000;0,000000;0,333333;0,000000;
95;;;;;;;;;;;;;;;;;;;;;;;;;;;;;;;;;;;;;;;;;;;;;;;;;;;;;;;;;;;;;;;;;;;;;;;;;;;;;;;;;;;;;;;;;;;;;;;1,000000;0,000000;0,291667;0,000000;0,000000;0,000000;0,000000;0,000000;0,000000;0,000000;0,000000;0,000000;0,000000;0,333333;0,000000;
96;;;;;;;;;;;;;;;;;;;;;;;;;;;;;;;;;;;;;;;;;;;;;;;;;;;;;;;;;;;;;;;;;;;;;;;;;;;;;;;;;;;;;;;;;;;;;;;;1,000000;0,625000;0,777778;0,777778;0,625000;0,625000;0,666667;0,750000;1,000000;0,666667;0,666667;0,750000;0,666667;0,750000;
97;;;;;;;;;;;;;;;;;;;;;;;;;;;;;;;;;;;;;;;;;;;;;;;;;;;;;;;;;;;;;;;;;;;;;;;;;;;;;;;;;;;;;;;;;;;;;;;;;1,000000;0,277778;0,277778;0,250000;0,250000;0,291667;0,375000;0,625000;0,291667;0,291667;0,375000;0,583333;0,375000;
98;;;;;;;;;;;;;;;;;;;;;;;;;;;;;;;;;;;;;;;;;;;;;;;;;;;;;;;;;;;;;;;;;;;;;;;;;;;;;;;;;;;;;;;;;;;;;;;;;;1,000000;0,666667;0,277778;0,277778;0,333333;0,444444;0,777778;0,666667;0,666667;0,444444;0,333333;0,444444;
99;;;;;;;;;;;;;;;;;;;;;;;;;;;;;;;;;;;;;;;;;;;;;;;;;;;;;;;;;;;;;;;;;;;;;;;;;;;;;;;;;;;;;;;;;;;;;;;;;;;1,000000;0,277778;0,277778;0,333333;0,444444;0,777778;0,666667;0,666667;0,444444;0,333333;0,444444;
100;;;;;;;;;;;;;;;;;;;;;;;;;;;;;;;;;;;;;;;;;;;;;;;;;;;;;;;;;;;;;;;;;;;;;;;;;;;;;;;;;;;;;;;;;;;;;;;;;;;;1,000000;0,750000;0,291667;0,375000;0,625000;0,291667;0,291667;0,375000;0,291667;0,375000;
101;;;;;;;;;;;;;;;;;;;;;;;;;;;;;;;;;;;;;;;;;;;;;;;;;;;;;;;;;;;;;;;;;;;;;;;;;;;;;;;;;;;;;;;;;;;;;;;;;;;;;1,000000;0,291667;0,375000;0,625000;0,291667;0,291667;0,375000;0,291667;0,375000;
102;;;;;;;;;;;;;;;;;;;;;;;;;;;;;;;;;;;;;;;;;;;;;;;;;;;;;;;;;;;;;;;;;;;;;;;;;;;;;;;;;;;;;;;;;;;;;;;;;;;;;;1,000000;0,416667;0,666667;0,333333;0,333333;0,416667;0,333333;0,416667;
103;;;;;;;;;;;;;;;;;;;;;;;;;;;;;;;;;;;;;;;;;;;;;;;;;;;;;;;;;;;;;;;;;;;;;;;;;;;;;;;;;;;;;;;;;;;;;;;;;;;;;;;1,000000;0,750000;0,416667;0,416667;0,500000;0,416667;0,500000;
104;;;;;;;;;;;;;;;;;;;;;;;;;;;;;;;;;;;;;;;;;;;;;;;;;;;;;;;;;;;;;;;;;;;;;;;;;;;;;;;;;;;;;;;;;;;;;;;;;;;;;;;;1,000000;0,666667;0,666667;0,750000;0,666667;0,750000;
105;;;;;;;;;;;;;;;;;;;;;;;;;;;;;;;;;;;;;;;;;;;;;;;;;;;;;;;;;;;;;;;;;;;;;;;;;;;;;;;;;;;;;;;;;;;;;;;;;;;;;;;;;1,000000;0,666667;0,416667;0,333333;0,416667;
106;;;;;;;;;;;;;;;;;;;;;;;;;;;;;;;;;;;;;;;;;;;;;;;;;;;;;;;;;;;;;;;;;;;;;;;;;;;;;;;;;;;;;;;;;;;;;;;;;;;;;;;;;;1,000000;0,416667;0,333333;0,416667;
107;;;;;;;;;;;;;;;;;;;;;;;;;;;;;;;;;;;;;;;;;;;;;;;;;;;;;;;;;;;;;;;;;;;;;;;;;;;;;;;;;;;;;;;;;;;;;;;;;;;;;;;;;;;1,000000;0,416667;0,500000;
108;;;;;;;;;;;;;;;;;;;;;;;;;;;;;;;;;;;;;;;;;;;;;;;;;;;;;;;;;;;;;;;;;;;;;;;;;;;;;;;;;;;;;;;;;;;;;;;;;;;;;;;;;;;;1,000000;0,416667;
109;;;;;;;;;;;;;;;;;;;;;;;;;;;;;;;;;;;;;;;;;;;;;;;;;;;;;;;;;;;;;;;;;;;;;;;;;;;;;;;;;;;;;;;;;;;;;;;;;;;;;;;;;;;;;1,000000;
