;1; 2; 3; 4; 5; 6; 7; 8; 9; 10; 11; 12; 13; 14; 15; 16; 17; 18; 19; 20; 21; 22; 23; 24; 25; 26; 27; 28; 29; 30; 31; 32; 33; 34; 35; 36; 37; 38; 39; 40; 41; 42; 43; 44; 45; 46; 47; 48; 49; 50; 51; 52; 53; 54; 55; 56; 57; 58; 59; 60; 61; 62; 63; 64; 65; 66; 67; 68; 69; 70; 71; 72; 73; 74; 75; 76; 77; 78; 79; 80; 81; 82; 83; 84; 85; 86; 87; 88; 89; 90; 91; 92; 93; 94; 95; 96; 97; 98; 99; 100; 101; 102; 103; 104; 105; 106; 107; 108; 109; 110; 111; 112; 113; 114; 115; 116; 117; 118; 119; 120; 121; 122; 123; 124; 125; 126; 127
1;1,000000;0,713709;0,675645;0,651594;0,597059;0,361789;0,000000;0,000000;0,755064;0,694841;0,328082;0,254630;0,302054;0,330693;0,331480;0,332355;0,884935;0,331480;0,332355;0,331480;0,400869;0,638166;0,481127;0,490039;0,331480;0,422536;0,332355;0,332355;0,426669;0,763673;0,763673;0,000000;0,000000;0,000000;0,572466;0,333333;0,333333;0,416747;0,504414;0,504414;0,663320;0,877339;0,000000;0,000000;0,480603;0,416747;0,370210;0,332355;0,977605;0,976636;0,489763;0,489763;0,489763;0,000000;0,000000;0,825693;0,961985;0,490741;0,458444;0,927972;0,991175;0,822961;0,976636;0,657486;0,740320;0,740320;0,928122;0,480603;0,480603;0,480603;0,480603;0,333333;0,333333;0,333333;0,233411;0,253652;0,253652;0,648460;0,648460;0,489763;0,411152;0,333333;0,383464;0,000000;0,472359;0,490741;0,490741;0,661821;0,489763;0,668943;0,660633;0,000000;0,000000;0,000000;0,961985;0,962963;0,490741;0,490741;0,490741;0,490741;0,000000;0,000000;0,000000;0,000000;0,930283;0,332355;0,332355;0,000000;0,000000;0,000000;0,490741;0,337543;0,206429;0,206429;0,206429;0,490741;0,661821;0,661821;0,253652;0,253652;0,253652;0,333333;0,333333;0,000000;0,000000;0,000000;0,000000;
2;;1,000000;0,653614;0,646291;0,630062;0,492048;0,000000;0,000000;0,750484;0,569293;0,330535;0,255768;0,302616;0,332433;0,332715;0,333015;0,696507;0,681932;0,333015;0,332715;0,475825;0,457852;0,294887;0,494720;0,332715;0,430950;0,333015;0,333015;0,440386;0,740436;0,740436;0,000000;0,000000;0,000000;0,593422;0,336497;0,336497;0,424741;0,503493;0,503493;0,674908;0,928484;0,000000;0,000000;0,489281;0,424741;0,374822;0,333015;0,989662;0,987868;0,494473;0,494473;0,494473;0,000000;0,000000;0,846439;0,978848;0,497955;0,477216;0,958978;0,664951;0,894485;0,987868;0,663340;0,741657;0,741657;0,959755;0,489281;0,489281;0,489281;0,489281;0,336497;0,336497;0,336497;0,352071;0,495236;0,495236;0,660576;0,660576;0,494473;0,419642;0,336497;0,387913;0,000000;0,484394;0,497955;0,497955;0,664951;0,494473;0,687641;0,656694;0,000000;0,000000;0,000000;0,978848;0,982330;0,497955;0,497955;0,497955;0,497955;0,000000;0,000000;0,000000;0,000000;0,496035;0,333015;0,333015;0,257812;0,257812;0,257812;0,497955;0,339700;0,203848;0,203848;0,203848;0,497955;0,664951;0,664951;0,494893;0,494893;0,494893;0,336497;0,336497;0,000000;0,000000;0,000000;0,000000;
3;;;1,000000;0,611844;0,601872;0,498542;0,000000;0,000000;0,748968;0,639591;0,558700;0,749644;0,581878;0,664927;0,663289;0,663959;0,681417;0,662561;0,664251;0,664985;0,531646;0,736638;0,497273;0,498621;0,665369;0,663370;0,665065;0,665065;0,544060;0,744392;0,744392;0,993451;0,000000;0,000000;0,712357;0,334773;0,334773;0,549957;0,746365;0,746365;0,654960;0,490941;0,000000;0,000000;0,498593;0,551593;0,638310;0,666040;0,664001;0,498621;0,500000;0,500000;0,499289;0,000000;0,000000;0,565713;0,000000;0,500000;0,500000;0,000000;0,665443;0,666176;0,498621;0,661085;0,746967;0,746967;0,000000;0,500000;0,500000;0,500000;0,500000;0,000000;0,000000;0,000000;0,777150;0,745959;0,745959;0,663119;0,663119;0,500000;0,409034;0,670290;0,408056;0,000000;0,500000;0,000000;0,000000;0,663793;0,500000;0,500000;0,663118;0,000000;0,000000;0,000000;0,000000;0,000000;0,000000;0,000000;0,000000;0,000000;0,000000;0,000000;0,000000;0,000000;0,496196;0,665028;0,665028;0,000000;0,000000;0,000000;0,500000;0,795579;0,797506;0,797506;0,797506;0,496739;0,663570;0,663570;0,748285;0,748285;0,748285;0,333333;0,333333;0,000000;0,000000;0,000000;0,000000;
4;;;;1,000000;0,626555;0,499278;0,000000;0,000000;0,748570;0,626361;0,332508;0,253001;0,303588;0,335547;0,334837;0,334100;0,682894;0,690806;0,334100;0,334837;0,490269;0,455349;0,500000;0,500000;0,334837;0,437595;0,334100;0,334100;0,451609;0,740702;0,740702;0,000000;0,000000;0,000000;0,587339;0,334731;0,334731;0,431163;0,743561;0,743561;0,646224;0,484694;0,000000;0,000000;0,495214;0,431163;0,379454;0,334100;0,661947;0,497561;0,497561;0,497561;0,497561;0,000000;0,000000;0,560561;0,987946;0,498193;0,488837;0,976346;0,664659;0,713613;0,497561;0,656862;0,748570;0,748570;0,976414;0,495214;0,495214;0,495214;0,495214;0,334731;0,334731;0,334731;0,353412;0,497695;0,497695;0,663022;0,663022;0,497561;0,424808;0,334731;0,390650;0,000000;0,492954;0,498193;0,498193;0,661576;0,497561;0,697675;0,991713;0,000000;0,000000;0,000000;0,987946;0,988578;0,498193;0,498193;0,498193;0,498193;0,000000;0,000000;0,000000;0,000000;0,392990;0,334100;0,334100;0,254808;0,254808;0,254808;0,498193;0,341263;0,203330;0,203330;0,203330;0,498193;0,661185;0,661185;0,497723;0,497723;0,497723;0,334731;0,334731;0,000000;0,000000;0,000000;0,000000;
5;;;;;1,000000;0,447202;0,000000;0,000000;0,707925;0,488812;0,436914;0,300000;0,366502;0,351964;0,347824;0,342028;0,683931;0,523210;0,628210;0,499123;0,409154;0,589399;0,416667;0,450000;0,347824;0,413707;0,342028;0,342028;0,683460;0,659840;0,659840;0,000000;0,000000;0,000000;0,607049;0,366667;0,366667;0,538306;0,491149;0,491149;0,569400;0,653656;0,000000;0,000000;0,458935;0,409816;0,378530;0,342028;0,624482;0,891149;0,475361;0,475361;0,475361;0,000000;0,000000;0,691976;0,875361;0,000000;0,431558;0,792268;0,907925;0,660301;0,891149;0,596360;0,491239;0,491239;0,792268;0,458935;0,458935;0,458935;0,458935;0,000000;0,000000;0,000000;0,417383;0,509484;0,509484;0,342028;0,342028;0,475361;0,447202;0,000000;0,458935;0,000000;0,447202;0,000000;0,000000;0,624482;0,475361;0,458935;0,926213;0,000000;0,000000;0,000000;0,875361;0,000000;0,000000;0,000000;0,000000;0,000000;0,000000;0,000000;0,000000;0,000000;0,416667;0,342028;0,342028;0,000000;0,000000;0,000000;0,000000;0,258935;0,235361;0,235361;0,235361;0,000000;0,624482;0,624482;0,275361;0,275361;0,275361;0,000000;0,000000;0,000000;0,000000;0,000000;0,000000;
6;;;;;;1,000000;0,000000;0,000000;0,312500;0,646598;0,664394;0,718264;0,681326;0,416667;0,657312;0,375000;0,439212;0,613325;0,375000;0,400000;0,505899;0,373142;0,000000;0,000000;0,400000;0,470692;0,375000;0,375000;0,484737;0,375000;0,375000;0,000000;0,000000;0,000000;0,627719;0,312500;0,312500;0,467287;0,312500;0,312500;0,432083;0,500000;0,000000;0,000000;0,500000;0,467287;0,439912;0,375000;0,375000;0,500000;0,500000;0,500000;0,500000;0,000000;0,000000;0,467287;0,875000;0,437500;0,418541;0,800000;0,375000;0,399159;0,500000;0,400000;0,312500;0,312500;0,747866;0,500000;0,500000;0,500000;0,500000;0,312500;0,312500;0,312500;0,334236;0,312500;0,312500;0,375000;0,375000;0,500000;0,398703;0,312500;0,382625;0,000000;0,500000;0,437500;0,437500;0,375000;0,500000;0,574064;0,375000;0,000000;0,000000;0,000000;0,875000;0,812500;0,437500;0,437500;0,437500;0,437500;0,000000;0,000000;0,000000;0,000000;0,400000;0,375000;0,375000;0,000000;0,000000;0,000000;0,437500;0,351831;0,275000;0,275000;0,275000;0,437500;0,375000;0,375000;0,312500;0,312500;0,312500;0,625000;0,625000;0,000000;0,000000;0,000000;0,000000;
7;;;;;;;1,000000;0,000000;0,000000;0,000000;0,000000;0,000000;0,000000;0,000000;0,000000;0,000000;0,000000;0,000000;0,000000;0,000000;0,000000;0,000000;0,000000;0,000000;0,000000;0,000000;0,000000;0,000000;0,000000;0,000000;0,000000;0,000000;0,000000;0,000000;0,000000;0,000000;0,000000;0,000000;0,000000;0,000000;0,000000;0,000000;0,000000;0,000000;0,000000;0,000000;0,000000;0,000000;0,000000;0,000000;0,000000;0,000000;0,000000;0,000000;0,000000;0,000000;0,000000;0,000000;0,000000;0,000000;0,000000;0,000000;0,000000;0,000000;0,000000;0,000000;0,000000;0,000000;0,000000;0,000000;0,000000;0,000000;0,000000;0,000000;0,000000;0,000000;0,000000;0,000000;0,000000;0,000000;0,000000;0,000000;0,000000;0,000000;0,000000;0,000000;0,000000;0,000000;0,000000;0,000000;0,000000;0,000000;0,000000;0,000000;0,000000;0,000000;0,000000;0,000000;0,000000;0,000000;0,000000;0,000000;0,000000;0,000000;0,000000;0,000000;0,000000;0,000000;0,000000;0,000000;0,000000;0,000000;0,000000;0,000000;0,000000;0,000000;0,000000;0,000000;0,000000;0,000000;0,000000;0,000000;0,000000;0,000000;0,000000;0,000000;0,000000;
8;;;;;;;;1,000000;0,000000;0,000000;0,000000;0,000000;0,000000;0,000000;0,000000;0,000000;0,000000;0,000000;0,000000;0,000000;0,000000;0,000000;0,000000;0,000000;0,000000;0,000000;0,000000;0,000000;0,000000;0,000000;0,000000;0,000000;0,000000;0,000000;0,000000;0,000000;0,000000;0,000000;0,000000;0,000000;0,000000;0,000000;0,000000;0,000000;0,000000;0,000000;0,000000;0,000000;0,000000;0,000000;0,000000;0,000000;0,000000;0,000000;0,000000;0,000000;0,000000;0,000000;0,000000;0,000000;0,000000;0,000000;0,000000;0,000000;0,000000;0,000000;0,000000;0,000000;0,000000;0,000000;0,000000;0,000000;0,000000;0,000000;0,000000;0,000000;0,000000;0,000000;0,000000;0,000000;0,000000;0,000000;0,000000;0,000000;0,000000;0,000000;0,000000;0,000000;0,000000;0,000000;0,000000;0,000000;0,000000;0,000000;0,000000;0,000000;0,000000;0,000000;0,000000;0,000000;0,000000;0,000000;0,000000;0,000000;0,000000;0,000000;0,000000;0,000000;0,000000;0,000000;0,000000;0,000000;0,000000;0,000000;0,000000;0,000000;0,000000;0,000000;0,000000;0,000000;0,000000;0,000000;0,000000;0,000000;0,000000;0,000000;0,000000;
9;;;;;;;;;1,000000;0,754959;0,289009;0,000000;0,270833;0,270833;0,277778;0,291667;0,992604;0,277778;0,291667;0,277778;0,276971;0,704762;0,333333;0,375000;0,277778;0,297846;0,291667;0,291667;0,284883;0,750000;0,750000;0,000000;0,000000;0,000000;0,701849;0,000000;0,000000;0,296144;0,500000;0,500000;0,536611;0,562500;0,000000;0,000000;0,333333;0,296144;0,282456;0,291667;0,583333;0,750000;0,375000;0,375000;0,375000;0,000000;0,000000;0,592287;0,625000;0,000000;0,291667;0,500000;0,875000;1,000000;0,750000;0,555556;0,750000;0,750000;0,500000;0,333333;0,333333;0,333333;0,333333;0,000000;0,000000;0,000000;0,241242;0,250000;0,250000;0,583333;0,583333;0,375000;0,312500;0,000000;0,333333;0,000000;0,312500;0,000000;0,000000;0,583333;0,375000;0,333333;0,583333;0,000000;0,000000;0,000000;0,625000;0,000000;0,000000;0,000000;0,000000;0,000000;0,000000;0,000000;0,000000;0,000000;0,333333;0,291667;0,291667;0,000000;0,000000;0,000000;0,000000;0,233333;0,225000;0,225000;0,225000;0,000000;0,583333;0,583333;0,250000;0,250000;0,250000;0,000000;0,000000;0,000000;0,000000;0,000000;0,000000;
10;;;;;;;;;;1,000000;0,557255;0,739850;0,632392;0,000000;0,642286;0,000000;0,684830;0,000000;0,000000;0,000000;0,666667;0,671291;0,308646;0,495054;0,000000;0,000000;0,000000;0,000000;0,431915;0,530415;0,530415;0,500000;0,000000;0,000000;0,473368;0,666667;0,666667;0,333333;0,258212;0,258212;0,353256;0,473690;0,000000;0,000000;0,000000;0,000000;0,000000;0,000000;0,337160;0,495054;0,000000;0,000000;0,000000;0,000000;0,000000;0,430497;0,000000;0,500000;0,500000;0,000000;0,669100;0,698950;0,495054;0,340603;0,503578;0,503578;0,000000;0,000000;0,000000;0,000000;0,000000;0,666667;0,666667;0,666667;0,230000;0,000000;0,000000;0,333333;0,333333;0,500000;0,561006;0,663070;0,604257;0,000000;0,500000;0,500000;0,500000;0,337160;0,526316;0,000000;0,338662;0,000000;0,000000;0,000000;0,000000;0,000000;0,500000;0,500000;0,500000;0,500000;0,000000;0,000000;0,000000;0,000000;0,493457;0,000000;0,000000;0,263158;0,263158;0,263158;0,495054;0,500000;0,215789;0,215789;0,215789;0,500000;0,337160;0,337160;0,000000;0,000000;0,000000;0,656291;0,656291;0,000000;0,000000;0,000000;0,000000;
11;;;;;;;;;;;1,000000;0,689564;0,692439;0,527235;0,457493;0,649892;0,376568;0,362414;0,351509;0,362414;0,361609;0,335556;0,000000;0,000000;0,362414;0,423710;0,351509;0,351509;0,426009;0,328017;0,328017;0,000000;0,000000;0,000000;0,355693;0,312500;0,312500;0,420304;0,289009;0,289009;0,378389;0,434224;0,000000;0,000000;0,462414;0,420304;0,392929;0,351509;0,351509;0,476509;0,476509;0,476509;0,476509;0,000000;0,000000;0,420304;0,851509;0,437500;0,393756;0,762414;0,351509;0,376499;0,476509;0,362414;0,289009;0,289009;0,732004;0,462414;0,462414;0,462414;0,462414;0,312500;0,312500;0,312500;0,296650;0,289009;0,289009;0,351509;0,351509;0,476509;0,378875;0,312500;0,366763;0,000000;0,453017;0,437500;0,437500;0,351509;0,476509;0,558202;0,351509;0,000000;0,000000;0,000000;0,851509;0,812500;0,437500;0,437500;0,437500;0,437500;0,000000;0,000000;0,000000;0,000000;0,400000;0,351509;0,351509;0,000000;0,000000;0,000000;0,437500;0,335969;0,251509;0,251509;0,251509;0,437500;0,351509;0,351509;0,289009;0,289009;0,289009;0,600243;0,600243;0,000000;0,000000;0,000000;0,000000;
12;;;;;;;;;;;;1,000000;0,680556;0,000000;0,555556;0,000000;0,000000;0,000000;0,000000;0,000000;0,260417;0,000000;0,000000;0,000000;0,000000;0,000000;0,000000;0,000000;0,000000;0,000000;0,000000;0,000000;0,000000;0,000000;0,000000;0,291667;0,291667;0,000000;0,000000;0,000000;0,000000;0,000000;0,000000;0,000000;0,000000;0,000000;0,000000;0,000000;0,000000;0,000000;0,000000;0,000000;0,000000;0,000000;0,000000;0,000000;0,000000;0,375000;0,291667;0,000000;0,000000;0,400000;0,000000;0,000000;0,000000;0,000000;0,500000;0,000000;0,000000;0,000000;0,000000;0,291667;0,291667;0,291667;0,000000;0,000000;0,000000;0,000000;0,000000;0,000000;0,289009;0,291667;0,277778;0,000000;0,000000;0,375000;0,375000;0,000000;0,000000;0,500000;0,000000;0,000000;0,000000;0,000000;0,000000;0,625000;0,375000;0,375000;0,375000;0,375000;0,000000;0,000000;0,000000;0,000000;0,333333;0,000000;0,000000;0,000000;0,000000;0,000000;0,375000;0,333333;0,000000;0,000000;0,000000;0,375000;0,000000;0,000000;0,000000;0,000000;0,000000;0,583333;0,583333;0,000000;0,000000;0,000000;0,000000;
13;;;;;;;;;;;;;1,000000;0,560784;0,449050;0,666667;0,328100;0,333333;0,333333;0,333333;0,340174;0,306475;0,000000;0,000000;0,333333;0,387359;0,333333;0,333333;0,380570;0,291667;0,291667;0,000000;0,000000;0,000000;0,314149;0,322143;0,322143;0,383954;0,270833;0,270833;0,336845;0,383333;0,000000;0,000000;0,433333;0,383954;0,356579;0,333333;0,333333;0,458333;0,458333;0,458333;0,458333;0,000000;0,000000;0,383954;0,833333;0,447143;0,374618;0,733333;0,333333;0,359001;0,458333;0,333333;0,270833;0,270833;0,719756;0,433333;0,433333;0,433333;0,433333;0,322143;0,322143;0,322143;0,267569;0,270833;0,270833;0,333333;0,333333;0,458333;0,363564;0,322143;0,354515;0,000000;0,416667;0,447143;0,447143;0,333333;0,458333;0,545954;0,333333;0,000000;0,000000;0,000000;0,833333;0,822143;0,447143;0,447143;0,447143;0,447143;0,000000;0,000000;0,000000;0,000000;0,415428;0,333333;0,333333;0,000000;0,000000;0,000000;0,447143;0,323720;0,233333;0,233333;0,233333;0,447143;0,333333;0,333333;0,270833;0,270833;0,270833;0,615821;0,615821;0,000000;0,000000;0,000000;0,000000;
14;;;;;;;;;;;;;;1,000000;0,489049;0,613725;0,328100;0,333333;0,333333;0,333333;0,373063;0,306475;0,000000;0,000000;0,626150;0,640134;0,333333;0,333333;0,380570;0,291667;0,291667;0,000000;0,000000;0,000000;0,314149;0,000000;0,000000;0,383954;0,270833;0,270833;0,336845;0,383333;0,000000;0,000000;0,433333;0,383954;0,356579;0,333333;0,333333;0,458333;0,458333;0,458333;0,458333;0,000000;0,000000;0,383954;0,833333;0,000000;0,395833;0,733333;0,333333;0,333333;0,458333;0,333333;0,270833;0,270833;0,733333;0,433333;0,433333;0,433333;0,433333;0,000000;0,000000;0,000000;0,267569;0,270833;0,270833;0,333333;0,333333;0,458333;0,416667;0,000000;0,433333;0,000000;0,416667;0,000000;0,000000;0,333333;0,458333;0,433333;0,333333;0,000000;0,000000;0,000000;0,833333;0,000000;0,000000;0,000000;0,000000;0,000000;0,000000;0,000000;0,000000;0,000000;0,000000;0,333333;0,333333;0,000000;0,000000;0,000000;0,000000;0,253333;0,233333;0,233333;0,233333;0,000000;0,333333;0,333333;0,270833;0,270833;0,270833;0,000000;0,000000;0,000000;0,000000;0,000000;0,000000;
15;;;;;;;;;;;;;;;1,000000;0,614877;0,329409;0,333333;0,333333;0,333333;0,362763;0,310952;0,000000;0,000000;0,588982;0,592708;0,333333;0,333333;0,369323;0,300000;0,300000;0,000000;0,000000;0,000000;0,318412;0,000000;0,000000;0,373830;0,277778;0,277778;0,336065;0,370370;0,000000;0,000000;0,416667;0,373830;0,351930;0,333333;0,333333;0,444444;0,444444;0,444444;0,444444;0,000000;0,000000;0,373830;0,777778;0,000000;0,380952;0,666667;0,333333;0,333333;0,444444;0,333333;0,277778;0,277778;0,666667;0,416667;0,416667;0,416667;0,416667;0,000000;0,000000;0,000000;0,278530;0,277778;0,277778;0,333333;0,333333;0,444444;0,400000;0,000000;0,416667;0,000000;0,400000;0,000000;0,000000;0,333333;0,444444;0,416667;0,333333;0,000000;0,000000;0,000000;0,777778;0,000000;0,000000;0,000000;0,000000;0,000000;0,000000;0,000000;0,000000;0,000000;0,000000;0,333333;0,333333;0,000000;0,000000;0,000000;0,000000;0,266667;0,244444;0,244444;0,244444;0,000000;0,333333;0,333333;0,277778;0,277778;0,277778;0,333333;0,333333;0,000000;0,000000;0,000000;0,000000;
16;;;;;;;;;;;;;;;;1,000000;0,331091;0,333333;0,333333;0,333333;0,349887;0,318412;0,000000;0,000000;0,666667;0,678706;0,333333;0,333333;0,354327;0,312500;0,312500;0,000000;0,000000;0,000000;0,324381;0,000000;0,000000;0,358644;0,291667;0,291667;0,334972;0,354167;0,000000;0,000000;0,388889;0,358644;0,344956;0,333333;0,333333;0,416667;0,416667;0,416667;0,416667;0,000000;0,000000;0,358644;0,666667;0,000000;0,361111;0,555556;0,333333;0,333333;0,416667;0,333333;0,291667;0,291667;0,555556;0,388889;0,388889;0,388889;0,388889;0,000000;0,000000;0,000000;0,296798;0,291667;0,291667;0,333333;0,333333;0,416667;0,375000;0,000000;0,388889;0,000000;0,375000;0,000000;0,000000;0,333333;0,416667;0,388889;0,333333;0,000000;0,000000;0,000000;0,666667;0,000000;0,000000;0,000000;0,000000;0,000000;0,000000;0,000000;0,000000;0,000000;0,000000;0,333333;0,333333;0,000000;0,000000;0,000000;0,000000;0,288889;0,266667;0,266667;0,266667;0,000000;0,333333;0,333333;0,291667;0,291667;0,291667;0,000000;0,000000;0,000000;0,000000;0,000000;0,000000;
17;;;;;;;;;;;;;;;;;1,000000;0,329409;0,331091;0,329409;0,386003;0,685811;0,454409;0,473948;0,329409;0,400134;0,331091;0,331091;0,394906;0,800129;0,800129;0,000000;0,000000;0,000000;0,665703;0,000000;0,000000;0,395594;0,519324;0,519324;0,663941;0,803606;0,000000;0,000000;0,454409;0,395594;0,359094;0,331091;0,662181;0,947896;0,473948;0,473948;0,473948;0,000000;0,000000;0,791189;0,902519;0,000000;0,417107;0,829409;0,985770;0,979290;0,947896;0,658817;0,733334;0,733334;0,829409;0,454409;0,454409;0,454409;0,454409;0,000000;0,000000;0,000000;0,247204;0,259662;0,259662;0,623930;0,623930;0,473948;0,439212;0,000000;0,454409;0,000000;0,439212;0,000000;0,000000;0,662181;0,473948;0,454409;0,654899;0,000000;0,000000;0,000000;0,902519;0,000000;0,000000;0,000000;0,000000;0,000000;0,000000;0,000000;0,000000;0,000000;0,453648;0,331091;0,331091;0,000000;0,000000;0,000000;0,000000;0,229409;0,216805;0,216805;0,216805;0,000000;0,662181;0,662181;0,259662;0,259662;0,259662;0,000000;0,000000;0,000000;0,000000;0,000000;0,000000;
18;;;;;;;;;;;;;;;;;;1,000000;0,614942;0,511691;0,520929;0,310952;0,000000;0,000000;0,333333;0,376554;0,614942;0,614942;0,369323;0,300000;0,300000;0,000000;0,000000;0,000000;0,488226;0,000000;0,000000;0,373830;0,277778;0,277778;0,336065;0,370370;0,000000;0,000000;0,416667;0,373830;0,351930;0,333333;0,333333;0,444444;0,444444;0,444444;0,444444;0,000000;0,000000;0,373830;0,777778;0,000000;0,380952;0,666667;0,333333;0,333333;0,444444;0,333333;0,277778;0,277778;0,666667;0,416667;0,416667;0,416667;0,416667;0,000000;0,000000;0,000000;0,431734;0,503701;0,503701;0,333333;0,333333;0,444444;0,400000;0,000000;0,416667;0,000000;0,400000;0,000000;0,000000;0,333333;0,444444;0,416667;0,614813;0,000000;0,000000;0,000000;0,777778;0,000000;0,000000;0,000000;0,000000;0,000000;0,000000;0,000000;0,000000;0,000000;0,000000;0,333333;0,333333;0,000000;0,000000;0,000000;0,000000;0,266667;0,244444;0,244444;0,244444;0,000000;0,333333;0,333333;0,277778;0,277778;0,277778;0,000000;0,000000;0,000000;0,000000;0,000000;0,000000;
19;;;;;;;;;;;;;;;;;;;1,000000;0,614942;0,349887;0,318412;0,000000;0,000000;0,333333;0,360346;0,666667;0,666667;0,354327;0,312500;0,312500;0,000000;0,000000;0,000000;0,608470;0,000000;0,000000;0,358644;0,291667;0,291667;0,334972;0,354167;0,000000;0,000000;0,388889;0,358644;0,344956;0,333333;0,333333;0,416667;0,416667;0,416667;0,416667;0,000000;0,000000;0,358644;0,666667;0,000000;0,361111;0,555556;0,333333;0,333333;0,416667;0,333333;0,291667;0,291667;0,555556;0,388889;0,388889;0,388889;0,388889;0,000000;0,000000;0,000000;0,296798;0,291667;0,291667;0,333333;0,333333;0,416667;0,375000;0,000000;0,388889;0,000000;0,375000;0,000000;0,000000;0,333333;0,416667;0,388889;0,333333;0,000000;0,000000;0,000000;0,666667;0,000000;0,000000;0,000000;0,000000;0,000000;0,000000;0,000000;0,000000;0,000000;0,000000;0,333333;0,333333;0,000000;0,000000;0,000000;0,000000;0,288889;0,266667;0,266667;0,266667;0,000000;0,333333;0,333333;0,291667;0,291667;0,291667;0,000000;0,000000;0,000000;0,000000;0,000000;0,000000;
20;;;;;;;;;;;;;;;;;;;;1,000000;0,362763;0,310952;0,000000;0,000000;0,333333;0,376554;0,615008;0,615008;0,369323;0,300000;0,300000;0,000000;0,000000;0,000000;0,466224;0,000000;0,000000;0,373830;0,277778;0,277778;0,336065;0,370370;0,000000;0,000000;0,416667;0,373830;0,351930;0,333333;0,333333;0,444444;0,444444;0,444444;0,444444;0,000000;0,000000;0,373830;0,777778;0,000000;0,380952;0,666667;0,333333;0,333333;0,444444;0,333333;0,277778;0,277778;0,666667;0,416667;0,416667;0,416667;0,416667;0,000000;0,000000;0,000000;0,278530;0,277778;0,277778;0,333333;0,333333;0,444444;0,400000;0,000000;0,416667;0,000000;0,400000;0,000000;0,000000;0,333333;0,444444;0,416667;0,333333;0,000000;0,000000;0,000000;0,777778;0,000000;0,000000;0,000000;0,000000;0,000000;0,000000;0,000000;0,000000;0,000000;0,000000;0,333333;0,333333;0,000000;0,000000;0,000000;0,000000;0,266667;0,244444;0,244444;0,244444;0,000000;0,333333;0,333333;0,277778;0,277778;0,277778;0,000000;0,000000;0,000000;0,000000;0,000000;0,000000;
21;;;;;;;;;;;;;;;;;;;;;1,000000;0,327947;0,000000;0,000000;0,362763;0,448699;0,349887;0,349887;0,542127;0,314730;0,314730;0,000000;0,000000;0,000000;0,483504;0,666667;0,666667;0,657220;0,276971;0,276971;0,386705;0,482883;0,000000;0,000000;0,897350;0,443932;0,405607;0,349887;0,349887;0,495721;0,495721;0,495721;0,495721;0,000000;0,000000;0,443932;0,933221;0,479167;0,473058;0,881281;0,349887;0,437341;0,495721;0,362763;0,276971;0,276971;0,874520;0,492393;0,492393;0,492393;0,492393;0,333333;0,333333;0,333333;0,277514;0,276971;0,276971;0,349887;0,349887;0,495721;0,430020;0,333333;0,401059;0,000000;0,489730;0,479167;0,479167;0,349887;0,495721;0,649221;0,349887;0,000000;0,000000;0,000000;0,933221;0,916667;0,479167;0,479167;0,479167;0,479167;0,000000;0,000000;0,000000;0,000000;0,462963;0,349887;0,349887;0,000000;0,000000;0,000000;0,479167;0,361141;0,233221;0,233221;0,233221;0,479167;0,349887;0,349887;0,276971;0,276971;0,276971;0,333333;0,333333;0,000000;0,000000;0,000000;0,000000;
22;;;;;;;;;;;;;;;;;;;;;;1,000000;0,416667;0,444444;0,310952;0,349696;0,318412;0,318412;0,337350;0,668571;0,668571;0,000000;0,000000;0,000000;0,579272;0,000000;0,000000;0,346972;0,482641;0,482641;0,526299;0,570606;0,000000;0,000000;0,394285;0,346972;0,325072;0,318412;0,593752;0,815974;0,429523;0,429523;0,429523;0,000000;0,000000;0,616412;0,762857;0,000000;0,348979;0,644285;0,871429;0,669849;0,815974;0,557294;0,483719;0,483719;0,644285;0,394285;0,394285;0,394285;0,394285;0,000000;0,000000;0,000000;0,256149;0,262857;0,262857;0,318412;0,318412;0,429523;0,373142;0,000000;0,394285;0,000000;0,373142;0,000000;0,000000;0,593752;0,429523;0,394285;0,594830;0,000000;0,000000;0,000000;0,762857;0,000000;0,000000;0,000000;0,000000;0,000000;0,000000;0,000000;0,000000;0,000000;0,416667;0,318412;0,318412;0,000000;0,000000;0,000000;0,000000;0,244285;0,229523;0,229523;0,229523;0,000000;0,593752;0,593752;0,693619;0,693619;0,693619;0,000000;0,000000;0,000000;0,000000;0,000000;0,000000;
23;;;;;;;;;;;;;;;;;;;;;;;1,000000;0,500000;0,000000;0,000000;0,000000;0,000000;0,000000;0,400000;0,400000;0,000000;0,000000;0,000000;0,416667;0,000000;0,000000;0,000000;0,333333;0,333333;0,447176;0,500000;0,000000;0,000000;0,000000;0,000000;0,000000;0,000000;0,388889;0,500000;0,000000;0,000000;0,000000;0,000000;0,000000;0,473830;0,000000;0,000000;0,000000;0,000000;0,388889;0,444444;0,500000;0,416667;0,000000;0,000000;0,000000;0,000000;0,000000;0,000000;0,000000;0,000000;0,000000;0,000000;0,000000;0,000000;0,000000;0,000000;0,000000;0,000000;0,000000;0,000000;0,000000;0,000000;0,000000;0,000000;0,000000;0,388889;0,000000;0,000000;0,000000;0,000000;0,000000;0,000000;0,000000;0,000000;0,000000;0,000000;0,000000;0,000000;0,000000;0,000000;0,000000;0,000000;0,750000;0,000000;0,000000;0,750000;0,750000;0,750000;0,000000;0,000000;0,000000;0,000000;0,000000;0,000000;0,388889;0,388889;0,000000;0,000000;0,000000;0,000000;0,000000;0,000000;0,000000;0,000000;0,000000;
24;;;;;;;;;;;;;;;;;;;;;;;;1,000000;0,000000;0,000000;0,000000;0,000000;0,000000;0,437500;0,437500;0,000000;0,000000;0,000000;0,450000;0,000000;0,000000;0,000000;0,375000;0,375000;0,468305;0,500000;0,000000;0,000000;0,000000;0,000000;0,000000;0,000000;0,416667;0,500000;0,000000;0,000000;0,000000;0,000000;0,000000;0,483644;0,000000;0,000000;0,000000;0,000000;0,416667;0,466667;0,500000;0,444444;0,000000;0,000000;0,000000;0,000000;0,000000;0,000000;0,000000;0,000000;0,000000;0,000000;0,000000;0,000000;0,000000;0,000000;0,000000;0,000000;0,000000;0,000000;0,000000;0,000000;0,000000;0,000000;0,000000;0,416667;0,000000;0,000000;0,000000;0,000000;0,000000;0,000000;0,000000;0,000000;0,000000;0,000000;0,000000;0,000000;0,000000;0,000000;0,000000;0,000000;0,416667;0,000000;0,000000;0,375000;0,375000;0,375000;0,000000;0,000000;0,000000;0,000000;0,000000;0,000000;0,416667;0,416667;0,000000;0,000000;0,000000;0,000000;0,000000;0,000000;0,000000;0,000000;0,000000;
25;;;;;;;;;;;;;;;;;;;;;;;;;1,000000;0,685930;0,333333;0,333333;0,369323;0,300000;0,300000;0,000000;0,000000;0,000000;0,318412;0,000000;0,000000;0,373830;0,277778;0,277778;0,336065;0,370370;0,000000;0,000000;0,416667;0,373830;0,351930;0,333333;0,333333;0,444444;0,444444;0,444444;0,444444;0,000000;0,000000;0,373830;0,777778;0,000000;0,380952;0,666667;0,333333;0,333333;0,444444;0,333333;0,277778;0,277778;0,666667;0,416667;0,416667;0,416667;0,416667;0,000000;0,000000;0,000000;0,278530;0,277778;0,277778;0,333333;0,333333;0,444444;0,400000;0,000000;0,416667;0,000000;0,400000;0,000000;0,000000;0,333333;0,444444;0,416667;0,333333;0,000000;0,000000;0,000000;0,777778;0,000000;0,000000;0,000000;0,000000;0,000000;0,000000;0,000000;0,000000;0,000000;0,000000;0,333333;0,333333;0,000000;0,000000;0,000000;0,000000;0,266667;0,244444;0,244444;0,244444;0,000000;0,333333;0,333333;0,277778;0,277778;0,277778;0,000000;0,000000;0,000000;0,000000;0,000000;0,000000;
26;;;;;;;;;;;;;;;;;;;;;;;;;;1,000000;0,360346;0,360346;0,448102;0,345692;0,345692;0,000000;0,000000;0,000000;0,375893;0,000000;0,000000;0,437979;0,297846;0,297846;0,398589;0,458969;0,000000;0,000000;0,476554;0,437979;0,410604;0,360346;0,360346;0,485346;0,485346;0,485346;0,485346;0,000000;0,000000;0,437979;0,860346;0,000000;0,463365;0,776554;0,360346;0,395077;0,485346;0,376554;0,297846;0,297846;0,776554;0,476554;0,476554;0,476554;0,476554;0,000000;0,000000;0,000000;0,310790;0,297846;0,297846;0,360346;0,360346;0,485346;0,470692;0,000000;0,476554;0,000000;0,470692;0,000000;0,000000;0,360346;0,485346;0,476554;0,360346;0,000000;0,000000;0,000000;0,860346;0,000000;0,000000;0,000000;0,000000;0,000000;0,000000;0,000000;0,000000;0,000000;0,000000;0,360346;0,360346;0,000000;0,000000;0,000000;0,000000;0,296554;0,260346;0,260346;0,260346;0,000000;0,360346;0,360346;0,297846;0,297846;0,297846;0,000000;0,000000;0,000000;0,000000;0,000000;0,000000;
27;;;;;;;;;;;;;;;;;;;;;;;;;;;1,000000;0,666667;0,354327;0,312500;0,312500;0,000000;0,000000;0,000000;0,324381;0,000000;0,000000;0,358644;0,291667;0,291667;0,334972;0,354167;0,000000;0,000000;0,388889;0,358644;0,344956;0,333333;0,333333;0,416667;0,416667;0,416667;0,416667;0,000000;0,000000;0,358644;0,666667;0,000000;0,361111;0,555556;0,333333;0,333333;0,416667;0,333333;0,291667;0,291667;0,555556;0,388889;0,388889;0,388889;0,388889;0,000000;0,000000;0,000000;0,296798;0,291667;0,291667;0,333333;0,333333;0,416667;0,375000;0,000000;0,388889;0,000000;0,375000;0,000000;0,000000;0,333333;0,416667;0,388889;0,333333;0,000000;0,000000;0,000000;0,666667;0,000000;0,000000;0,000000;0,000000;0,000000;0,000000;0,000000;0,000000;0,000000;0,000000;0,333333;0,333333;0,000000;0,000000;0,000000;0,000000;0,288889;0,266667;0,266667;0,266667;0,000000;0,333333;0,333333;0,291667;0,291667;0,291667;0,000000;0,000000;0,000000;0,000000;0,000000;0,000000;
28;;;;;;;;;;;;;;;;;;;;;;;;;;;;1,000000;0,354327;0,312500;0,312500;0,000000;0,000000;0,000000;0,324381;0,000000;0,000000;0,358644;0,291667;0,291667;0,334972;0,354167;0,000000;0,000000;0,388889;0,358644;0,344956;0,333333;0,333333;0,416667;0,416667;0,416667;0,416667;0,000000;0,000000;0,358644;0,666667;0,000000;0,361111;0,555556;0,333333;0,333333;0,416667;0,333333;0,291667;0,291667;0,555556;0,388889;0,388889;0,388889;0,388889;0,000000;0,000000;0,000000;0,296798;0,291667;0,291667;0,333333;0,333333;0,416667;0,375000;0,000000;0,388889;0,000000;0,375000;0,000000;0,000000;0,333333;0,416667;0,388889;0,333333;0,000000;0,000000;0,000000;0,666667;0,000000;0,000000;0,000000;0,000000;0,000000;0,000000;0,000000;0,000000;0,000000;0,000000;0,333333;0,333333;0,000000;0,000000;0,000000;0,000000;0,288889;0,266667;0,266667;0,266667;0,000000;0,333333;0,333333;0,291667;0,291667;0,291667;0,000000;0,000000;0,000000;0,000000;0,000000;0,000000;
29;;;;;;;;;;;;;;;;;;;;;;;;;;;;;1,000000;0,328487;0,328487;0,000000;0,000000;0,000000;0,364449;0,354327;0,354327;0,701050;0,284883;0,284883;0,393870;0,476257;0,000000;0,000000;0,870006;0,443846;0,409627;0,354327;0,354327;0,493216;0,493216;0,493216;0,493216;0,000000;0,000000;0,443846;0,909883;0,000000;0,479649;0,845514;0,354327;0,389318;0,493216;0,369323;0,284883;0,284883;0,845514;0,488371;0,488371;0,488371;0,488371;0,000000;0,000000;0,000000;0,291033;0,284883;0,284883;0,354327;0,354327;0,493216;0,484737;0,000000;0,488371;0,000000;0,484737;0,000000;0,000000;0,354327;0,493216;0,488371;0,354327;0,000000;0,000000;0,000000;0,909883;0,000000;0,000000;0,000000;0,000000;0,000000;0,000000;0,000000;0,000000;0,000000;0,000000;0,354327;0,354327;0,000000;0,000000;0,000000;0,000000;0,274085;0,243216;0,243216;0,243216;0,000000;0,354327;0,354327;0,284883;0,284883;0,284883;0,000000;0,000000;0,000000;0,000000;0,000000;0,000000;
30;;;;;;;;;;;;;;;;;;;;;;;;;;;;;;1,000000;0,750000;0,000000;0,000000;0,000000;0,646820;0,000000;0,000000;0,342287;0,500000;0,500000;0,578452;0,650000;0,000000;0,000000;0,400000;0,342287;0,314912;0,312500;0,625000;0,875000;0,437500;0,437500;0,437500;0,000000;0,000000;0,684574;0,812500;0,000000;0,343750;0,700000;0,937500;0,763276;0,875000;0,600000;0,500000;0,500000;0,700000;0,400000;0,400000;0,400000;0,400000;0,000000;0,000000;0,000000;0,234236;0,250000;0,250000;0,312500;0,312500;0,437500;0,375000;0,000000;0,400000;0,000000;0,375000;0,000000;0,000000;0,625000;0,437500;0,400000;0,625000;0,000000;0,000000;0,000000;0,812500;0,000000;0,000000;0,000000;0,000000;0,000000;0,000000;0,000000;0,000000;0,000000;0,400000;0,312500;0,312500;0,000000;0,000000;0,000000;0,000000;0,220000;0,212500;0,212500;0,212500;0,000000;0,625000;0,625000;0,250000;0,250000;0,250000;0,000000;0,000000;0,000000;0,000000;0,000000;0,000000;
31;;;;;;;;;;;;;;;;;;;;;;;;;;;;;;;1,000000;0,000000;0,000000;0,000000;0,646820;0,000000;0,000000;0,342287;0,500000;0,500000;0,578452;0,650000;0,000000;0,000000;0,400000;0,342287;0,314912;0,312500;0,625000;0,875000;0,437500;0,437500;0,437500;0,000000;0,000000;0,684574;0,812500;0,000000;0,343750;0,700000;0,937500;0,763276;0,875000;0,600000;0,500000;0,500000;0,700000;0,400000;0,400000;0,400000;0,400000;0,000000;0,000000;0,000000;0,234236;0,250000;0,250000;0,312500;0,312500;0,437500;0,375000;0,000000;0,400000;0,000000;0,375000;0,000000;0,000000;0,625000;0,437500;0,400000;0,625000;0,000000;0,000000;0,000000;0,812500;0,000000;0,000000;0,000000;0,000000;0,000000;0,000000;0,000000;0,000000;0,000000;0,400000;0,312500;0,312500;0,000000;0,000000;0,000000;0,000000;0,220000;0,212500;0,212500;0,212500;0,000000;0,625000;0,625000;0,250000;0,250000;0,250000;0,000000;0,000000;0,000000;0,000000;0,000000;0,000000;
32;;;;;;;;;;;;;;;;;;;;;;;;;;;;;;;;1,000000;0,500000;0,500000;0,000000;0,000000;0,000000;0,000000;0,000000;0,000000;0,000000;0,000000;0,000000;0,000000;0,000000;0,000000;0,000000;0,000000;0,000000;0,000000;0,000000;0,000000;0,000000;0,000000;0,000000;0,000000;0,000000;0,500000;0,500000;0,000000;0,000000;0,000000;0,000000;0,000000;0,000000;0,000000;0,000000;0,000000;0,000000;0,000000;0,000000;0,000000;0,000000;0,000000;0,000000;0,000000;0,000000;0,000000;0,000000;0,500000;0,000000;0,000000;0,000000;0,000000;0,500000;0,000000;0,000000;0,000000;0,000000;0,000000;0,000000;0,000000;0,000000;0,000000;0,000000;0,000000;0,000000;0,000000;0,000000;0,000000;0,000000;0,000000;0,000000;0,000000;0,000000;0,000000;0,000000;0,000000;0,000000;0,000000;0,000000;0,000000;0,000000;0,000000;0,000000;0,000000;0,000000;0,000000;0,000000;0,000000;0,000000;0,000000;0,000000;0,750000;0,750000;0,750000;0,750000;
33;;;;;;;;;;;;;;;;;;;;;;;;;;;;;;;;;1,000000;0,500000;0,000000;0,000000;0,000000;0,000000;0,000000;0,000000;0,000000;0,000000;0,000000;0,000000;0,000000;0,000000;0,000000;0,000000;0,000000;0,000000;0,000000;0,000000;0,000000;0,000000;0,000000;0,000000;0,000000;0,000000;0,500000;0,000000;0,000000;0,000000;0,000000;0,000000;0,000000;0,000000;0,000000;0,000000;0,000000;0,000000;0,000000;0,000000;0,000000;0,000000;0,000000;0,000000;0,000000;0,000000;0,000000;0,000000;0,000000;0,000000;0,000000;0,750000;0,500000;0,000000;0,000000;0,000000;0,000000;0,000000;0,000000;0,000000;0,000000;0,000000;0,000000;0,000000;0,000000;0,000000;0,000000;0,000000;0,000000;0,000000;0,000000;0,000000;0,000000;0,000000;0,000000;0,000000;0,000000;0,000000;0,000000;0,000000;0,000000;0,000000;0,000000;0,000000;0,000000;0,000000;0,000000;0,000000;0,000000;0,000000;0,000000;0,375000;0,375000;0,375000;0,375000;
34;;;;;;;;;;;;;;;;;;;;;;;;;;;;;;;;;;1,000000;0,000000;0,000000;0,000000;0,000000;0,000000;0,000000;0,000000;0,000000;0,000000;0,000000;0,000000;0,000000;0,000000;0,000000;0,000000;0,000000;0,000000;0,000000;0,000000;0,000000;0,000000;0,000000;0,000000;0,000000;0,500000;0,000000;0,000000;0,000000;0,000000;0,000000;0,000000;0,000000;0,000000;0,000000;0,000000;0,000000;0,000000;0,000000;0,000000;0,000000;0,000000;0,000000;0,000000;0,000000;0,000000;0,000000;0,000000;0,000000;0,000000;0,750000;0,500000;0,000000;0,000000;0,000000;0,000000;0,000000;0,000000;0,000000;0,000000;0,000000;0,000000;0,000000;0,000000;0,000000;0,000000;0,000000;0,000000;0,000000;0,000000;0,000000;0,000000;0,000000;0,000000;0,000000;0,000000;0,000000;0,000000;0,000000;0,000000;0,000000;0,000000;0,000000;0,000000;0,000000;0,000000;0,000000;0,000000;0,000000;0,000000;0,375000;0,375000;0,375000;0,375000;
35;;;;;;;;;;;;;;;;;;;;;;;;;;;;;;;;;;;1,000000;0,000000;0,000000;0,372001;0,471526;0,471526;0,520342;0,591219;0,000000;0,000000;0,429523;0,372001;0,340715;0,324381;0,604859;0,871526;0,457714;0,457714;0,457714;0,000000;0,000000;0,649926;0,857714;0,000000;0,382539;0,762857;0,901849;0,645111;0,871526;0,563654;0,487724;0,487724;0,762857;0,429523;0,429523;0,429523;0,429523;0,000000;0,000000;0,000000;0,476653;0,688807;0,688807;0,324381;0,324381;0,457714;0,409387;0,000000;0,429523;0,000000;0,409387;0,000000;0,000000;0,604859;0,457714;0,429523;0,621058;0,000000;0,000000;0,000000;0,857714;0,000000;0,000000;0,000000;0,000000;0,000000;0,000000;0,000000;0,000000;0,000000;0,429523;0,324381;0,324381;0,000000;0,000000;0,000000;0,000000;0,387078;0,392247;0,392247;0,392247;0,000000;0,604859;0,604859;0,257714;0,257714;0,257714;0,000000;0,000000;0,000000;0,000000;0,000000;0,000000;
36;;;;;;;;;;;;;;;;;;;;;;;;;;;;;;;;;;;;1,000000;0,666667;0,333333;0,000000;0,000000;0,000000;0,000000;0,000000;0,000000;0,000000;0,000000;0,000000;0,000000;0,000000;0,000000;0,000000;0,000000;0,000000;0,000000;0,000000;0,000000;0,000000;0,416667;0,361111;0,000000;0,000000;0,466667;0,000000;0,000000;0,000000;0,000000;0,555556;0,000000;0,000000;0,000000;0,000000;0,333333;0,333333;0,333333;0,000000;0,000000;0,000000;0,000000;0,000000;0,000000;0,351509;0,333333;0,333333;0,000000;0,000000;0,416667;0,416667;0,000000;0,000000;0,555556;0,000000;0,000000;0,000000;0,000000;0,000000;0,666667;0,416667;0,416667;0,416667;0,416667;0,000000;0,000000;0,000000;0,000000;0,388889;0,000000;0,000000;0,000000;0,000000;0,000000;0,416667;0,388889;0,000000;0,000000;0,000000;0,416667;0,000000;0,000000;0,000000;0,000000;0,000000;0,333333;0,333333;0,000000;0,000000;0,000000;0,000000;
37;;;;;;;;;;;;;;;;;;;;;;;;;;;;;;;;;;;;;1,000000;0,333333;0,000000;0,000000;0,000000;0,000000;0,000000;0,000000;0,000000;0,000000;0,000000;0,000000;0,000000;0,000000;0,000000;0,000000;0,000000;0,000000;0,000000;0,000000;0,000000;0,416667;0,361111;0,000000;0,000000;0,466667;0,000000;0,000000;0,000000;0,000000;0,555556;0,000000;0,000000;0,000000;0,000000;0,333333;0,333333;0,333333;0,000000;0,000000;0,000000;0,000000;0,000000;0,000000;0,351509;0,333333;0,333333;0,000000;0,000000;0,416667;0,416667;0,000000;0,000000;0,555556;0,000000;0,000000;0,000000;0,000000;0,000000;0,666667;0,416667;0,416667;0,416667;0,416667;0,000000;0,000000;0,000000;0,000000;0,388889;0,000000;0,000000;0,000000;0,000000;0,000000;0,416667;0,388889;0,000000;0,000000;0,000000;0,416667;0,000000;0,000000;0,000000;0,000000;0,000000;0,333333;0,333333;0,000000;0,000000;0,000000;0,000000;
38;;;;;;;;;;;;;;;;;;;;;;;;;;;;;;;;;;;;;;1,000000;0,296144;0,296144;0,394697;0,454202;0,000000;0,000000;0,473830;0,434574;0,407199;0,358644;0,358644;0,483644;0,483644;0,483644;0,483644;0,000000;0,000000;0,434574;0,858644;0,000000;0,459109;0,773830;0,358644;0,391185;0,483644;0,373830;0,296144;0,296144;0,773830;0,473830;0,473830;0,473830;0,473830;0,000000;0,000000;0,000000;0,308066;0,296144;0,296144;0,358644;0,358644;0,483644;0,467287;0,000000;0,473830;0,000000;0,467287;0,000000;0,000000;0,358644;0,483644;0,473830;0,358644;0,000000;0,000000;0,000000;0,858644;0,000000;0,000000;0,000000;0,000000;0,000000;0,000000;0,000000;0,000000;0,000000;0,000000;0,358644;0,358644;0,000000;0,000000;0,000000;0,000000;0,293830;0,258644;0,258644;0,258644;0,000000;0,358644;0,358644;0,296144;0,296144;0,296144;0,000000;0,000000;0,000000;0,000000;0,000000;0,000000;
39;;;;;;;;;;;;;;;;;;;;;;;;;;;;;;;;;;;;;;;1,000000;0,750000;0,751326;0,562500;0,000000;0,000000;0,333333;0,296144;0,282456;0,291667;0,583333;0,750000;0,375000;0,375000;0,375000;0,000000;0,000000;0,592287;0,625000;0,000000;0,291667;0,500000;0,583333;0,533333;0,750000;0,833333;0,250000;0,250000;0,500000;0,333333;0,333333;0,333333;0,333333;0,000000;0,000000;0,000000;0,241242;0,250000;0,250000;0,291667;0,291667;0,375000;0,312500;0,000000;0,333333;0,000000;0,312500;0,000000;0,000000;0,583333;0,375000;0,333333;0,291667;0,000000;0,000000;0,000000;0,625000;0,000000;0,000000;0,000000;0,000000;0,000000;0,000000;0,000000;0,000000;0,000000;0,000000;0,291667;0,291667;0,000000;0,000000;0,000000;0,000000;0,233333;0,225000;0,225000;0,225000;0,000000;0,583333;0,583333;0,250000;0,250000;0,250000;0,000000;0,000000;0,000000;0,000000;0,000000;0,000000;
40;;;;;;;;;;;;;;;;;;;;;;;;;;;;;;;;;;;;;;;;1,000000;0,751326;0,562500;0,000000;0,000000;0,333333;0,296144;0,282456;0,291667;0,583333;0,750000;0,375000;0,375000;0,375000;0,000000;0,000000;0,592287;0,625000;0,000000;0,291667;0,500000;0,583333;0,533333;0,750000;0,833333;0,250000;0,250000;0,500000;0,333333;0,333333;0,333333;0,333333;0,000000;0,000000;0,000000;0,241242;0,250000;0,250000;0,291667;0,291667;0,375000;0,312500;0,000000;0,333333;0,000000;0,312500;0,000000;0,000000;0,583333;0,375000;0,333333;0,291667;0,000000;0,000000;0,000000;0,625000;0,000000;0,000000;0,000000;0,000000;0,000000;0,000000;0,000000;0,000000;0,000000;0,000000;0,291667;0,291667;0,000000;0,000000;0,000000;0,000000;0,233333;0,225000;0,225000;0,225000;0,000000;0,583333;0,583333;0,250000;0,250000;0,250000;0,000000;0,000000;0,000000;0,000000;0,000000;0,000000;
41;;;;;;;;;;;;;;;;;;;;;;;;;;;;;;;;;;;;;;;;;1,000000;0,798308;0,000000;0,000000;0,447176;0,394697;0,363411;0,334972;0,669944;0,936611;0,468305;0,468305;0,468305;0,000000;0,000000;0,789394;0,868305;0,000000;0,411960;0,780509;0,669944;0,674861;0,936611;0,672129;0,268305;0,268305;0,780509;0,447176;0,447176;0,447176;0,447176;0,000000;0,000000;0,000000;0,262994;0,268305;0,268305;0,334972;0,334972;0,468305;0,432083;0,000000;0,447176;0,000000;0,432083;0,000000;0,000000;0,669944;0,468305;0,447176;0,334972;0,000000;0,000000;0,000000;0,868305;0,000000;0,000000;0,000000;0,000000;0,000000;0,000000;0,000000;0,000000;0,000000;0,000000;0,334972;0,334972;0,000000;0,000000;0,000000;0,000000;0,247176;0,228305;0,228305;0,228305;0,000000;0,669944;0,669944;0,268305;0,268305;0,268305;0,000000;0,000000;0,000000;0,000000;0,000000;0,000000;
42;;;;;;;;;;;;;;;;;;;;;;;;;;;;;;;;;;;;;;;;;;1,000000;0,000000;0,000000;0,500000;0,454202;0,415877;0,354167;0,708333;1,000000;0,500000;0,500000;0,500000;0,000000;0,000000;0,908404;0,937500;0,000000;0,500000;0,888889;0,708333;0,787879;1,000000;0,740741;0,281250;0,281250;0,888889;0,500000;0,500000;0,500000;0,500000;0,000000;0,000000;0,000000;0,285121;0,281250;0,281250;0,354167;0,354167;0,500000;0,500000;0,000000;0,500000;0,000000;0,500000;0,000000;0,000000;0,708333;0,500000;0,500000;0,354167;0,000000;0,000000;0,000000;0,937500;0,000000;0,000000;0,000000;0,000000;0,000000;0,000000;0,000000;0,000000;0,000000;0,000000;0,354167;0,354167;0,000000;0,000000;0,000000;0,000000;0,266667;0,237500;0,237500;0,237500;0,000000;0,708333;0,708333;0,281250;0,281250;0,281250;0,000000;0,000000;0,000000;0,000000;0,000000;0,000000;
43;;;;;;;;;;;;;;;;;;;;;;;;;;;;;;;;;;;;;;;;;;;1,000000;0,000000;0,000000;0,000000;0,000000;0,000000;0,000000;0,000000;0,000000;0,000000;0,000000;0,000000;0,000000;0,000000;0,000000;0,000000;0,000000;0,000000;0,000000;0,000000;0,000000;0,000000;0,000000;0,000000;0,000000;0,000000;0,000000;0,000000;0,000000;0,000000;0,000000;0,000000;0,000000;0,000000;0,000000;0,000000;0,000000;0,000000;0,000000;0,000000;0,000000;0,000000;0,000000;0,000000;0,000000;0,000000;0,000000;0,000000;0,000000;0,000000;0,000000;0,000000;0,000000;0,000000;0,000000;0,000000;0,000000;0,000000;0,000000;0,000000;0,000000;0,000000;0,000000;0,000000;0,000000;0,000000;0,000000;0,000000;0,000000;0,000000;0,000000;0,000000;0,000000;0,000000;0,000000;0,000000;0,000000;0,000000;0,000000;0,000000;0,000000;0,000000;0,000000;0,000000;0,000000;
44;;;;;;;;;;;;;;;;;;;;;;;;;;;;;;;;;;;;;;;;;;;;1,000000;0,000000;0,000000;0,000000;0,000000;0,000000;0,000000;0,000000;0,000000;0,000000;0,000000;0,000000;0,000000;0,000000;0,000000;0,000000;0,000000;0,000000;0,000000;0,000000;0,000000;0,000000;0,000000;0,000000;0,000000;0,000000;0,000000;0,000000;0,000000;0,000000;0,000000;0,000000;0,000000;0,000000;0,000000;0,000000;0,000000;0,000000;0,000000;0,000000;0,000000;0,000000;0,000000;0,000000;0,000000;0,000000;0,000000;0,000000;0,000000;0,000000;0,000000;0,000000;0,000000;0,000000;0,000000;0,000000;0,000000;0,000000;0,000000;0,000000;0,000000;0,000000;0,000000;0,000000;0,000000;0,000000;0,000000;0,000000;0,000000;0,000000;0,000000;0,000000;0,000000;0,000000;0,000000;0,000000;0,000000;0,000000;0,000000;0,000000;0,000000;0,000000;0,000000;0,000000;
45;;;;;;;;;;;;;;;;;;;;;;;;;;;;;;;;;;;;;;;;;;;;;1,000000;0,473830;0,451930;0,388889;0,388889;0,500000;0,500000;0,500000;0,500000;0,000000;0,000000;0,473830;0,833333;0,000000;0,500000;0,750000;0,388889;0,444444;0,500000;0,416667;0,333333;0,333333;0,750000;0,500000;0,500000;0,500000;0,500000;0,000000;0,000000;0,000000;0,361863;0,333333;0,333333;0,388889;0,388889;0,500000;0,500000;0,000000;0,500000;0,000000;0,500000;0,000000;0,000000;0,388889;0,500000;0,500000;0,388889;0,000000;0,000000;0,000000;0,833333;0,000000;0,000000;0,000000;0,000000;0,000000;0,000000;0,000000;0,000000;0,000000;0,000000;0,388889;0,388889;0,000000;0,000000;0,000000;0,000000;0,350000;0,300000;0,300000;0,300000;0,000000;0,388889;0,388889;0,333333;0,333333;0,333333;0,000000;0,000000;0,000000;0,000000;0,000000;0,000000;
46;;;;;;;;;;;;;;;;;;;;;;;;;;;;;;;;;;;;;;;;;;;;;;1,000000;0,539842;0,681500;0,358644;0,483644;0,483644;0,483644;0,483644;0,000000;0,000000;0,434574;0,858644;0,000000;0,459109;0,773830;0,358644;0,391185;0,483644;0,373830;0,296144;0,296144;0,773830;0,473830;0,473830;0,473830;0,473830;0,000000;0,000000;0,000000;0,308066;0,296144;0,296144;0,358644;0,358644;0,483644;0,467287;0,000000;0,473830;0,000000;0,467287;0,000000;0,000000;0,358644;0,483644;0,473830;0,358644;0,000000;0,000000;0,000000;0,858644;0,000000;0,000000;0,000000;0,000000;0,000000;0,000000;0,000000;0,000000;0,000000;0,000000;0,681500;0,681500;0,000000;0,000000;0,000000;0,000000;0,293830;0,258644;0,258644;0,258644;0,000000;0,358644;0,358644;0,296144;0,296144;0,296144;0,000000;0,000000;0,000000;0,000000;0,000000;0,000000;
47;;;;;;;;;;;;;;;;;;;;;;;;;;;;;;;;;;;;;;;;;;;;;;;1,000000;0,663539;0,344956;0,469956;0,469956;0,469956;0,913539;0,000000;0,000000;0,407199;0,844956;0,000000;0,424890;0,751930;0,344956;0,359899;0,469956;0,351930;0,282456;0,282456;0,751930;0,451930;0,451930;0,451930;0,451930;0,000000;0,000000;0,000000;0,286166;0,282456;0,282456;0,344956;0,344956;0,469956;0,439912;0,000000;0,451930;0,000000;0,439912;0,000000;0,000000;0,344956;0,469956;0,451930;0,344956;0,000000;0,000000;0,000000;0,844956;0,000000;0,000000;0,000000;0,000000;0,000000;0,000000;0,000000;0,000000;0,000000;0,000000;0,627150;0,627150;0,000000;0,000000;0,000000;0,000000;0,271930;0,244956;0,244956;0,244956;0,000000;0,344956;0,344956;0,282456;0,282456;0,282456;0,000000;0,000000;0,000000;0,000000;0,000000;0,000000;
48;;;;;;;;;;;;;;;;;;;;;;;;;;;;;;;;;;;;;;;;;;;;;;;;1,000000;0,333333;0,416667;0,416667;0,416667;0,833333;0,000000;0,000000;0,358644;0,666667;0,000000;0,361111;0,555556;0,333333;0,333333;0,416667;0,333333;0,291667;0,291667;0,555556;0,388889;0,388889;0,388889;0,388889;0,000000;0,000000;0,000000;0,296798;0,291667;0,291667;0,333333;0,333333;0,416667;0,375000;0,000000;0,388889;0,000000;0,375000;0,000000;0,000000;0,333333;0,416667;0,388889;0,333333;0,000000;0,000000;0,000000;0,666667;0,000000;0,000000;0,000000;0,000000;0,000000;0,000000;0,000000;0,000000;0,000000;0,000000;0,666667;0,666667;0,000000;0,000000;0,000000;0,000000;0,288889;0,266667;0,266667;0,266667;0,000000;0,333333;0,333333;0,291667;0,291667;0,291667;0,000000;0,000000;0,000000;0,000000;0,000000;0,000000;
49;;;;;;;;;;;;;;;;;;;;;;;;;;;;;;;;;;;;;;;;;;;;;;;;;1,000000;0,833333;0,416667;0,416667;0,416667;0,000000;0,000000;0,717287;0,666667;0,000000;0,361111;0,555556;0,666667;0,666667;0,833333;0,666667;0,291667;0,291667;0,555556;0,388889;0,388889;0,388889;0,388889;0,000000;0,000000;0,000000;0,296798;0,291667;0,291667;0,333333;0,333333;0,416667;0,375000;0,000000;0,388889;0,000000;0,375000;0,000000;0,000000;0,666667;0,416667;0,388889;0,333333;0,000000;0,000000;0,000000;0,666667;0,000000;0,000000;0,000000;0,000000;0,000000;0,000000;0,000000;0,000000;0,000000;0,000000;0,333333;0,333333;0,000000;0,000000;0,000000;0,000000;0,288889;0,266667;0,266667;0,266667;0,000000;0,666667;0,666667;0,291667;0,291667;0,291667;0,000000;0,000000;0,000000;0,000000;0,000000;0,000000;
50;;;;;;;;;;;;;;;;;;;;;;;;;;;;;;;;;;;;;;;;;;;;;;;;;;1,000000;0,500000;0,500000;0,500000;0,000000;0,000000;0,967287;0,750000;0,000000;0,500000;0,666667;0,833333;0,933333;1,000000;0,888889;0,375000;0,375000;0,666667;0,500000;0,500000;0,500000;0,500000;0,000000;0,000000;0,000000;0,407909;0,375000;0,375000;0,416667;0,416667;0,500000;0,500000;0,000000;0,500000;0,000000;0,500000;0,000000;0,000000;0,833333;0,500000;0,500000;0,416667;0,000000;0,000000;0,000000;0,750000;0,000000;0,000000;0,000000;0,000000;0,000000;0,000000;0,000000;0,000000;0,000000;0,000000;0,416667;0,416667;0,000000;0,000000;0,000000;0,000000;0,400000;0,350000;0,350000;0,350000;0,000000;0,833333;0,833333;0,375000;0,375000;0,375000;0,000000;0,000000;0,000000;0,000000;0,000000;0,000000;
51;;;;;;;;;;;;;;;;;;;;;;;;;;;;;;;;;;;;;;;;;;;;;;;;;;;1,000000;0,500000;0,500000;0,000000;0,000000;0,483644;0,750000;0,000000;0,500000;0,666667;0,416667;0,466667;0,500000;0,444444;0,375000;0,375000;0,666667;0,500000;0,500000;0,500000;0,500000;0,000000;0,000000;0,000000;0,407909;0,375000;0,375000;0,416667;0,416667;0,500000;0,500000;0,000000;0,500000;0,000000;0,500000;0,000000;0,000000;0,416667;0,500000;0,500000;0,416667;0,000000;0,000000;0,000000;0,750000;0,000000;0,000000;0,000000;0,000000;0,000000;0,000000;0,000000;0,000000;0,000000;0,000000;0,416667;0,416667;0,000000;0,000000;0,000000;0,000000;0,400000;0,350000;0,350000;0,350000;0,000000;0,416667;0,416667;0,375000;0,375000;0,375000;0,000000;0,000000;0,000000;0,000000;0,000000;0,000000;
52;;;;;;;;;;;;;;;;;;;;;;;;;;;;;;;;;;;;;;;;;;;;;;;;;;;;1,000000;0,500000;0,000000;0,000000;0,483644;0,750000;0,000000;0,500000;0,666667;0,416667;0,466667;0,500000;0,444444;0,375000;0,375000;0,666667;0,500000;0,500000;0,500000;0,500000;0,000000;0,000000;0,000000;0,407909;0,375000;0,375000;0,416667;0,416667;0,500000;0,500000;0,000000;0,500000;0,000000;0,500000;0,000000;0,000000;0,416667;0,500000;0,500000;0,416667;0,000000;0,000000;0,000000;0,750000;0,000000;0,000000;0,000000;0,000000;0,000000;0,000000;0,000000;0,000000;0,000000;0,000000;0,416667;0,416667;0,000000;0,000000;0,000000;0,000000;0,400000;0,350000;0,350000;0,350000;0,000000;0,416667;0,416667;0,375000;0,375000;0,375000;0,000000;0,000000;0,000000;0,000000;0,000000;0,000000;
53;;;;;;;;;;;;;;;;;;;;;;;;;;;;;;;;;;;;;;;;;;;;;;;;;;;;;1,000000;0,000000;0,000000;0,483644;0,750000;0,000000;0,500000;0,666667;0,416667;0,466667;0,500000;0,444444;0,375000;0,375000;0,666667;0,500000;0,500000;0,500000;0,500000;0,000000;0,000000;0,000000;0,407909;0,375000;0,375000;0,416667;0,416667;0,500000;0,500000;0,000000;0,500000;0,000000;0,500000;0,000000;0,000000;0,416667;0,500000;0,500000;0,416667;0,000000;0,000000;0,000000;0,750000;0,000000;0,000000;0,000000;0,000000;0,000000;0,000000;0,000000;0,000000;0,000000;0,000000;0,416667;0,416667;0,000000;0,000000;0,000000;0,000000;0,400000;0,350000;0,350000;0,350000;0,000000;0,416667;0,416667;0,375000;0,375000;0,375000;0,000000;0,000000;0,000000;0,000000;0,000000;0,000000;
54;;;;;;;;;;;;;;;;;;;;;;;;;;;;;;;;;;;;;;;;;;;;;;;;;;;;;;1,000000;0,000000;0,000000;0,000000;0,000000;0,000000;0,000000;0,000000;0,000000;0,000000;0,000000;0,000000;0,000000;0,000000;0,000000;0,000000;0,000000;0,000000;0,000000;0,000000;0,000000;0,000000;0,000000;0,000000;0,000000;0,000000;0,000000;0,000000;0,000000;0,000000;0,000000;0,000000;0,000000;0,000000;0,000000;0,000000;0,000000;0,000000;0,000000;0,000000;0,000000;0,000000;0,000000;0,000000;0,000000;0,000000;0,000000;0,000000;0,000000;0,000000;0,000000;0,000000;0,000000;0,000000;0,000000;0,000000;0,000000;0,000000;0,000000;0,000000;0,000000;0,000000;0,000000;0,000000;0,000000;0,000000;0,000000;0,000000;0,000000;0,000000;0,000000;0,000000;0,000000;0,000000;
55;;;;;;;;;;;;;;;;;;;;;;;;;;;;;;;;;;;;;;;;;;;;;;;;;;;;;;;1,000000;0,000000;0,000000;0,000000;0,000000;0,000000;0,000000;0,000000;0,000000;0,000000;0,000000;0,000000;0,000000;0,000000;0,000000;0,000000;0,000000;0,000000;0,000000;0,000000;0,000000;0,000000;0,000000;0,000000;0,000000;0,000000;0,000000;0,000000;0,000000;0,000000;0,000000;0,000000;0,000000;0,000000;0,000000;0,000000;0,000000;0,000000;0,000000;0,000000;0,000000;0,000000;0,000000;0,000000;0,000000;0,000000;0,000000;0,000000;0,000000;0,000000;0,000000;0,000000;0,000000;0,000000;0,000000;0,000000;0,000000;0,000000;0,000000;0,000000;0,000000;0,000000;0,000000;0,000000;0,000000;0,000000;0,000000;0,000000;0,000000;0,000000;0,000000;0,000000;0,000000;
56;;;;;;;;;;;;;;;;;;;;;;;;;;;;;;;;;;;;;;;;;;;;;;;;;;;;;;;;1,000000;0,858644;0,000000;0,459109;0,773830;0,717287;0,782370;0,967287;0,747659;0,296144;0,296144;0,773830;0,473830;0,473830;0,473830;0,473830;0,000000;0,000000;0,000000;0,308066;0,296144;0,296144;0,358644;0,358644;0,483644;0,467287;0,000000;0,473830;0,000000;0,467287;0,000000;0,000000;0,717287;0,483644;0,473830;0,358644;0,000000;0,000000;0,000000;0,858644;0,000000;0,000000;0,000000;0,000000;0,000000;0,000000;0,000000;0,000000;0,000000;0,000000;0,358644;0,358644;0,000000;0,000000;0,000000;0,000000;0,293830;0,258644;0,258644;0,258644;0,000000;0,717287;0,717287;0,296144;0,296144;0,296144;0,000000;0,000000;0,000000;0,000000;0,000000;0,000000;
57;;;;;;;;;;;;;;;;;;;;;;;;;;;;;;;;;;;;;;;;;;;;;;;;;;;;;;;;;1,000000;0,000000;0,916667;1,000000;0,666667;0,866667;0,750000;0,777778;0,625000;0,625000;1,000000;0,833333;0,833333;0,833333;0,833333;0,000000;0,000000;0,000000;0,741242;0,625000;0,625000;0,666667;0,666667;0,750000;0,875000;0,000000;0,833333;0,000000;0,875000;0,000000;0,000000;0,666667;0,750000;0,833333;0,666667;0,000000;0,000000;0,000000;1,000000;0,000000;0,000000;0,000000;0,000000;0,000000;0,000000;0,000000;0,000000;0,000000;0,000000;0,666667;0,666667;0,000000;0,000000;0,000000;0,000000;0,733333;0,600000;0,600000;0,600000;0,000000;0,666667;0,666667;0,625000;0,625000;0,625000;0,000000;0,000000;0,000000;0,000000;0,000000;0,000000;
58;;;;;;;;;;;;;;;;;;;;;;;;;;;;;;;;;;;;;;;;;;;;;;;;;;;;;;;;;;1,000000;0,500000;0,000000;0,000000;0,600000;0,000000;0,000000;0,000000;0,000000;0,666667;0,000000;0,000000;0,000000;0,000000;0,416667;0,416667;0,416667;0,000000;0,000000;0,000000;0,000000;0,000000;0,500000;0,476509;0,416667;0,444444;0,000000;0,500000;0,500000;0,500000;0,000000;0,000000;0,666667;0,000000;0,000000;0,000000;0,000000;0,000000;0,750000;0,500000;0,500000;0,500000;0,500000;0,000000;0,000000;0,000000;0,000000;0,500000;0,000000;0,000000;0,000000;0,000000;0,000000;0,500000;0,500000;0,000000;0,000000;0,000000;0,500000;0,000000;0,000000;0,000000;0,000000;0,000000;0,416667;0,416667;0,000000;0,000000;0,000000;0,000000;
59;;;;;;;;;;;;;;;;;;;;;;;;;;;;;;;;;;;;;;;;;;;;;;;;;;;;;;;;;;;1,000000;0,857143;0,361111;0,465825;0,500000;0,380952;0,291667;0,291667;0,857143;0,500000;0,500000;0,500000;0,500000;0,361111;0,361111;0,361111;0,302662;0,291667;0,291667;0,361111;0,361111;0,500000;0,454837;0,361111;0,422332;0,916667;0,500000;0,500000;0,500000;0,361111;0,500000;0,650236;0,361111;0,000000;0,000000;0,000000;0,916667;0,916667;0,500000;0,500000;0,500000;0,500000;0,000000;0,000000;0,000000;0,000000;0,500000;0,361111;0,361111;0,000000;0,000000;0,000000;0,500000;0,385673;0,250000;0,250000;0,250000;0,500000;0,361111;0,361111;0,291667;0,291667;0,291667;0,361111;0,361111;0,291667;0,291667;0,291667;0,291667;
60;;;;;;;;;;;;;;;;;;;;;;;;;;;;;;;;;;;;;;;;;;;;;;;;;;;;;;;;;;;;1,000000;0,555556;0,777778;0,666667;0,666667;0,500000;0,500000;1,000000;0,750000;0,750000;0,750000;0,750000;0,000000;0,000000;0,000000;0,611863;0,500000;0,500000;0,555556;0,555556;0,666667;0,800000;0,000000;0,750000;0,000000;0,800000;0,000000;0,000000;0,555556;0,666667;0,750000;0,555556;0,000000;0,000000;0,000000;1,000000;0,000000;0,000000;0,000000;0,000000;0,000000;0,000000;0,000000;0,000000;0,000000;0,000000;0,555556;0,555556;0,000000;0,000000;0,000000;0,000000;0,600000;0,466667;0,466667;0,466667;0,000000;0,555556;0,555556;0,500000;0,500000;0,500000;0,000000;0,000000;0,000000;0,000000;0,000000;0,000000;
61;;;;;;;;;;;;;;;;;;;;;;;;;;;;;;;;;;;;;;;;;;;;;;;;;;;;;;;;;;;;;1,000000;0,956195;0,833333;0,666667;0,583333;0,583333;0,555556;0,388889;0,388889;0,388889;0,388889;0,000000;0,000000;0,000000;0,296798;0,291667;0,291667;0,333333;0,333333;0,416667;0,375000;0,000000;0,388889;0,000000;0,375000;0,000000;0,000000;0,666667;0,416667;0,388889;0,666667;0,000000;0,000000;0,000000;0,666667;0,000000;0,000000;0,000000;0,000000;0,000000;0,000000;0,000000;0,000000;0,000000;0,388889;0,333333;0,333333;0,000000;0,000000;0,000000;0,000000;0,288889;0,266667;0,266667;0,266667;0,000000;0,666667;0,666667;0,291667;0,291667;0,291667;0,000000;0,000000;0,000000;0,000000;0,000000;0,000000;
62;;;;;;;;;;;;;;;;;;;;;;;;;;;;;;;;;;;;;;;;;;;;;;;;;;;;;;;;;;;;;;1,000000;0,933333;0,666667;0,733333;0,733333;0,812828;0,444444;0,444444;0,444444;0,444444;0,466667;0,466667;0,466667;0,260262;0,266667;0,266667;0,645982;0,645982;0,466667;0,432345;0,466667;0,407005;0,000000;0,428571;0,600000;0,600000;0,666667;0,466667;0,619715;0,623422;0,000000;0,000000;0,000000;0,866667;1,000000;0,600000;0,600000;0,600000;0,600000;0,000000;0,000000;0,000000;0,000000;0,846270;0,333333;0,333333;0,000000;0,000000;0,000000;0,600000;0,372789;0,226667;0,226667;0,226667;0,600000;0,666667;0,666667;0,266667;0,266667;0,266667;0,466667;0,466667;0,000000;0,000000;0,000000;0,000000;
63;;;;;;;;;;;;;;;;;;;;;;;;;;;;;;;;;;;;;;;;;;;;;;;;;;;;;;;;;;;;;;;1,000000;0,888889;0,375000;0,375000;0,666667;0,500000;0,500000;0,500000;0,500000;0,000000;0,000000;0,000000;0,407909;0,375000;0,375000;0,416667;0,416667;0,500000;0,500000;0,000000;0,500000;0,000000;0,500000;0,000000;0,000000;0,833333;0,500000;0,500000;0,416667;0,000000;0,000000;0,000000;0,750000;0,000000;0,000000;0,000000;0,000000;0,000000;0,000000;0,000000;0,000000;0,000000;0,000000;0,416667;0,416667;0,000000;0,000000;0,000000;0,000000;0,400000;0,350000;0,350000;0,350000;0,000000;0,833333;0,833333;0,375000;0,375000;0,375000;0,000000;0,000000;0,000000;0,000000;0,000000;0,000000;
64;;;;;;;;;;;;;;;;;;;;;;;;;;;;;;;;;;;;;;;;;;;;;;;;;;;;;;;;;;;;;;;;1,000000;0,277778;0,277778;0,666667;0,416667;0,416667;0,416667;0,416667;0,000000;0,000000;0,000000;0,278530;0,277778;0,277778;0,333333;0,333333;0,444444;0,400000;0,000000;0,416667;0,000000;0,400000;0,000000;0,000000;0,666667;0,444444;0,416667;0,333333;0,000000;0,000000;0,000000;0,777778;0,000000;0,000000;0,000000;0,000000;0,000000;0,000000;0,000000;0,000000;0,000000;0,000000;0,333333;0,333333;0,000000;0,000000;0,000000;0,000000;0,266667;0,244444;0,244444;0,244444;0,000000;0,666667;0,666667;0,277778;0,277778;0,277778;0,000000;0,000000;0,000000;0,000000;0,000000;0,000000;
65;;;;;;;;;;;;;;;;;;;;;;;;;;;;;;;;;;;;;;;;;;;;;;;;;;;;;;;;;;;;;;;;;1,000000;0,750000;0,500000;0,333333;0,333333;0,333333;0,333333;0,000000;0,000000;0,000000;0,241242;0,250000;0,250000;0,583333;0,583333;0,375000;0,312500;0,000000;0,333333;0,000000;0,312500;0,000000;0,000000;0,291667;0,375000;0,333333;0,583333;0,000000;0,000000;0,000000;0,625000;0,000000;0,000000;0,000000;0,000000;0,000000;0,000000;0,000000;0,000000;0,000000;0,333333;0,291667;0,291667;0,000000;0,000000;0,000000;0,000000;0,233333;0,225000;0,225000;0,225000;0,000000;0,291667;0,291667;0,250000;0,250000;0,250000;0,000000;0,000000;0,000000;0,000000;0,000000;0,000000;
66;;;;;;;;;;;;;;;;;;;;;;;;;;;;;;;;;;;;;;;;;;;;;;;;;;;;;;;;;;;;;;;;;;1,000000;0,500000;0,333333;0,333333;0,333333;0,333333;0,000000;0,000000;0,000000;0,241242;0,250000;0,250000;0,583333;0,583333;0,375000;0,312500;0,000000;0,333333;0,000000;0,312500;0,000000;0,000000;0,291667;0,375000;0,333333;0,583333;0,000000;0,000000;0,000000;0,625000;0,000000;0,000000;0,000000;0,000000;0,000000;0,000000;0,000000;0,000000;0,000000;0,333333;0,291667;0,291667;0,000000;0,000000;0,000000;0,000000;0,233333;0,225000;0,225000;0,225000;0,000000;0,291667;0,291667;0,250000;0,250000;0,250000;0,000000;0,000000;0,000000;0,000000;0,000000;0,000000;
67;;;;;;;;;;;;;;;;;;;;;;;;;;;;;;;;;;;;;;;;;;;;;;;;;;;;;;;;;;;;;;;;;;;1,000000;0,750000;0,750000;0,750000;0,750000;0,555556;0,555556;0,555556;0,611863;0,500000;0,500000;0,555556;0,555556;0,666667;0,771096;0,555556;0,695633;0,000000;0,800000;0,666667;0,666667;0,555556;0,666667;0,855165;0,555556;0,000000;0,000000;0,000000;1,000000;1,000000;0,666667;0,666667;0,666667;0,666667;0,000000;0,000000;0,000000;0,000000;0,750000;0,555556;0,555556;0,000000;0,000000;0,000000;0,666667;0,669971;0,466667;0,466667;0,466667;0,666667;0,555556;0,555556;0,500000;0,500000;0,500000;0,555556;0,555556;0,000000;0,000000;0,000000;0,000000;
68;;;;;;;;;;;;;;;;;;;;;;;;;;;;;;;;;;;;;;;;;;;;;;;;;;;;;;;;;;;;;;;;;;;;1,000000;0,500000;0,500000;0,500000;0,000000;0,000000;0,000000;0,361863;0,333333;0,333333;0,388889;0,388889;0,500000;0,500000;0,000000;0,500000;0,000000;0,500000;0,000000;0,000000;0,388889;0,500000;0,500000;0,388889;0,000000;0,000000;0,000000;0,833333;0,000000;0,000000;0,000000;0,000000;0,000000;0,000000;0,000000;0,000000;0,000000;0,000000;0,388889;0,388889;0,000000;0,000000;0,000000;0,000000;0,350000;0,300000;0,300000;0,300000;0,000000;0,388889;0,388889;0,333333;0,333333;0,333333;0,000000;0,000000;0,000000;0,000000;0,000000;0,000000;
69;;;;;;;;;;;;;;;;;;;;;;;;;;;;;;;;;;;;;;;;;;;;;;;;;;;;;;;;;;;;;;;;;;;;;1,000000;0,500000;0,500000;0,000000;0,000000;0,000000;0,361863;0,333333;0,333333;0,388889;0,388889;0,500000;0,500000;0,000000;0,500000;0,000000;0,500000;0,000000;0,000000;0,388889;0,500000;0,500000;0,388889;0,000000;0,000000;0,000000;0,833333;0,000000;0,000000;0,000000;0,000000;0,000000;0,000000;0,000000;0,000000;0,000000;0,000000;0,388889;0,388889;0,000000;0,000000;0,000000;0,000000;0,350000;0,300000;0,300000;0,300000;0,000000;0,388889;0,388889;0,333333;0,333333;0,333333;0,000000;0,000000;0,000000;0,000000;0,000000;0,000000;
70;;;;;;;;;;;;;;;;;;;;;;;;;;;;;;;;;;;;;;;;;;;;;;;;;;;;;;;;;;;;;;;;;;;;;;1,000000;0,500000;0,000000;0,000000;0,000000;0,361863;0,333333;0,333333;0,388889;0,388889;0,500000;0,500000;0,000000;0,500000;0,000000;0,500000;0,000000;0,000000;0,388889;0,500000;0,500000;0,388889;0,000000;0,000000;0,000000;0,833333;0,000000;0,000000;0,000000;0,000000;0,000000;0,000000;0,000000;0,000000;0,000000;0,000000;0,388889;0,388889;0,000000;0,000000;0,000000;0,000000;0,350000;0,300000;0,300000;0,300000;0,000000;0,388889;0,388889;0,333333;0,333333;0,333333;0,000000;0,000000;0,000000;0,000000;0,000000;0,000000;
71;;;;;;;;;;;;;;;;;;;;;;;;;;;;;;;;;;;;;;;;;;;;;;;;;;;;;;;;;;;;;;;;;;;;;;;1,000000;0,000000;0,000000;0,000000;0,361863;0,333333;0,333333;0,388889;0,388889;0,500000;0,500000;0,000000;0,500000;0,000000;0,500000;0,000000;0,000000;0,388889;0,500000;0,500000;0,388889;0,000000;0,000000;0,000000;0,833333;0,000000;0,000000;0,000000;0,000000;0,000000;0,000000;0,000000;0,000000;0,000000;0,000000;0,388889;0,388889;0,000000;0,000000;0,000000;0,000000;0,350000;0,300000;0,300000;0,300000;0,000000;0,388889;0,388889;0,333333;0,333333;0,333333;0,000000;0,000000;0,000000;0,000000;0,000000;0,000000;
72;;;;;;;;;;;;;;;;;;;;;;;;;;;;;;;;;;;;;;;;;;;;;;;;;;;;;;;;;;;;;;;;;;;;;;;;1,000000;0,666667;0,666667;0,000000;0,000000;0,000000;0,000000;0,000000;0,000000;0,351509;0,333333;0,333333;0,000000;0,000000;0,416667;0,416667;0,000000;0,000000;0,555556;0,000000;0,000000;0,000000;0,000000;0,000000;0,666667;0,416667;0,416667;0,416667;0,416667;0,000000;0,000000;0,000000;0,000000;0,388889;0,000000;0,000000;0,000000;0,000000;0,000000;0,416667;0,388889;0,000000;0,000000;0,000000;0,416667;0,000000;0,000000;0,000000;0,000000;0,000000;0,333333;0,333333;0,000000;0,000000;0,000000;0,000000;
73;;;;;;;;;;;;;;;;;;;;;;;;;;;;;;;;;;;;;;;;;;;;;;;;;;;;;;;;;;;;;;;;;;;;;;;;;1,000000;0,666667;0,000000;0,000000;0,000000;0,000000;0,000000;0,000000;0,351509;0,333333;0,333333;0,000000;0,000000;0,416667;0,416667;0,000000;0,000000;0,555556;0,000000;0,000000;0,000000;0,000000;0,000000;0,666667;0,416667;0,416667;0,416667;0,416667;0,000000;0,000000;0,000000;0,000000;0,388889;0,000000;0,000000;0,000000;0,000000;0,000000;0,416667;0,388889;0,000000;0,000000;0,000000;0,416667;0,000000;0,000000;0,000000;0,000000;0,000000;0,333333;0,333333;0,000000;0,000000;0,000000;0,000000;
74;;;;;;;;;;;;;;;;;;;;;;;;;;;;;;;;;;;;;;;;;;;;;;;;;;;;;;;;;;;;;;;;;;;;;;;;;;1,000000;0,000000;0,000000;0,000000;0,000000;0,000000;0,000000;0,351509;0,333333;0,333333;0,000000;0,000000;0,416667;0,416667;0,000000;0,000000;0,555556;0,000000;0,000000;0,000000;0,000000;0,000000;0,666667;0,416667;0,416667;0,416667;0,416667;0,000000;0,000000;0,000000;0,000000;0,388889;0,000000;0,000000;0,000000;0,000000;0,000000;0,416667;0,388889;0,000000;0,000000;0,000000;0,416667;0,000000;0,000000;0,000000;0,000000;0,000000;0,333333;0,333333;0,000000;0,000000;0,000000;0,000000;
75;;;;;;;;;;;;;;;;;;;;;;;;;;;;;;;;;;;;;;;;;;;;;;;;;;;;;;;;;;;;;;;;;;;;;;;;;;;1,000000;0,663929;0,663929;0,296798;0,296798;0,407909;0,334236;0,000000;0,361863;0,000000;0,334236;0,000000;0,000000;0,296798;0,407909;0,361863;0,561899;0,000000;0,000000;0,000000;0,741242;0,000000;0,000000;0,000000;0,000000;0,000000;0,000000;0,000000;0,000000;0,000000;0,000000;0,296798;0,296798;0,000000;0,000000;0,000000;0,000000;0,689854;0,726448;0,726448;0,726448;0,400000;0,296798;0,296798;0,241242;0,241242;0,241242;0,000000;0,000000;0,000000;0,000000;0,000000;0,000000;
76;;;;;;;;;;;;;;;;;;;;;;;;;;;;;;;;;;;;;;;;;;;;;;;;;;;;;;;;;;;;;;;;;;;;;;;;;;;;1,000000;0,750000;0,291667;0,291667;0,375000;0,312500;0,000000;0,333333;0,000000;0,312500;0,000000;0,000000;0,291667;0,375000;0,333333;0,583333;0,000000;0,000000;0,000000;0,625000;0,000000;0,000000;0,000000;0,000000;0,000000;0,000000;0,000000;0,000000;0,000000;0,000000;0,291667;0,291667;0,000000;0,000000;0,000000;0,000000;0,466667;0,450000;0,450000;0,450000;0,000000;0,291667;0,291667;0,250000;0,250000;0,250000;0,000000;0,000000;0,000000;0,000000;0,000000;0,000000;
77;;;;;;;;;;;;;;;;;;;;;;;;;;;;;;;;;;;;;;;;;;;;;;;;;;;;;;;;;;;;;;;;;;;;;;;;;;;;;1,000000;0,291667;0,291667;0,375000;0,312500;0,000000;0,333333;0,000000;0,312500;0,000000;0,000000;0,291667;0,375000;0,333333;0,583333;0,000000;0,000000;0,000000;0,625000;0,000000;0,000000;0,000000;0,000000;0,000000;0,000000;0,000000;0,000000;0,000000;0,000000;0,291667;0,291667;0,000000;0,000000;0,000000;0,000000;0,466667;0,450000;0,450000;0,450000;0,000000;0,291667;0,291667;0,250000;0,250000;0,250000;0,000000;0,000000;0,000000;0,000000;0,000000;0,000000;
78;;;;;;;;;;;;;;;;;;;;;;;;;;;;;;;;;;;;;;;;;;;;;;;;;;;;;;;;;;;;;;;;;;;;;;;;;;;;;;1,000000;0,666667;0,416667;0,375000;0,000000;0,388889;0,000000;0,375000;0,000000;0,000000;0,333333;0,416667;0,388889;0,333333;0,000000;0,000000;0,000000;0,666667;0,000000;0,000000;0,000000;0,000000;0,000000;0,000000;0,000000;0,000000;0,000000;0,000000;0,333333;0,333333;0,000000;0,000000;0,000000;0,000000;0,288889;0,266667;0,266667;0,266667;0,000000;0,333333;0,333333;0,291667;0,291667;0,291667;0,000000;0,000000;0,000000;0,000000;0,000000;0,000000;
79;;;;;;;;;;;;;;;;;;;;;;;;;;;;;;;;;;;;;;;;;;;;;;;;;;;;;;;;;;;;;;;;;;;;;;;;;;;;;;;1,000000;0,416667;0,375000;0,000000;0,388889;0,000000;0,375000;0,000000;0,000000;0,333333;0,416667;0,388889;0,333333;0,000000;0,000000;0,000000;0,666667;0,000000;0,000000;0,000000;0,000000;0,000000;0,000000;0,000000;0,000000;0,000000;0,000000;0,333333;0,333333;0,000000;0,000000;0,000000;0,000000;0,288889;0,266667;0,266667;0,266667;0,000000;0,333333;0,333333;0,291667;0,291667;0,291667;0,000000;0,000000;0,000000;0,000000;0,000000;0,000000;
80;;;;;;;;;;;;;;;;;;;;;;;;;;;;;;;;;;;;;;;;;;;;;;;;;;;;;;;;;;;;;;;;;;;;;;;;;;;;;;;;1,000000;0,500000;0,000000;0,500000;0,000000;0,937778;0,000000;0,000000;0,416667;0,500000;0,500000;0,416667;0,000000;0,000000;0,000000;0,750000;0,000000;0,000000;0,000000;0,000000;0,000000;0,000000;0,000000;0,000000;0,000000;0,000000;0,416667;0,416667;0,000000;0,000000;0,000000;0,000000;0,400000;0,350000;0,350000;0,350000;0,000000;0,416667;0,416667;0,375000;0,375000;0,375000;0,000000;0,000000;0,000000;0,000000;0,000000;0,000000;
81;;;;;;;;;;;;;;;;;;;;;;;;;;;;;;;;;;;;;;;;;;;;;;;;;;;;;;;;;;;;;;;;;;;;;;;;;;;;;;;;;1,000000;0,637555;0,601704;0,000000;0,500000;0,476509;0,476509;0,375000;0,500000;0,597294;0,375000;0,000000;0,000000;0,000000;0,875000;0,851509;0,476509;0,476509;0,476509;0,476509;0,000000;0,000000;0,000000;0,000000;0,462414;0,375000;0,375000;0,000000;0,000000;0,000000;0,476509;0,375061;0,275000;0,275000;0,275000;0,476509;0,375000;0,375000;0,312500;0,312500;0,312500;0,351509;0,351509;0,000000;0,000000;0,000000;0,000000;
82;;;;;;;;;;;;;;;;;;;;;;;;;;;;;;;;;;;;;;;;;;;;;;;;;;;;;;;;;;;;;;;;;;;;;;;;;;;;;;;;;;1,000000;0,635113;0,000000;0,000000;0,416667;0,416667;0,000000;0,000000;0,555556;0,000000;0,000000;0,000000;0,000000;0,000000;0,666667;0,416667;0,416667;0,416667;0,416667;0,000000;0,000000;0,000000;0,000000;0,388889;0,000000;0,000000;0,000000;0,000000;0,000000;0,833333;0,388889;0,000000;0,000000;0,000000;0,416667;0,000000;0,000000;0,000000;0,000000;0,000000;0,333333;0,333333;0,000000;0,000000;0,000000;0,000000;
83;;;;;;;;;;;;;;;;;;;;;;;;;;;;;;;;;;;;;;;;;;;;;;;;;;;;;;;;;;;;;;;;;;;;;;;;;;;;;;;;;;;1,000000;0,000000;0,500000;0,444444;0,444444;0,388889;0,500000;0,550798;0,388889;0,000000;0,000000;0,000000;0,833333;0,777778;0,444444;0,444444;0,444444;0,444444;0,000000;0,000000;0,000000;0,000000;0,416667;0,388889;0,388889;0,000000;0,000000;0,000000;0,857335;0,365603;0,300000;0,300000;0,300000;0,444444;0,388889;0,388889;0,333333;0,333333;0,333333;0,333333;0,333333;0,000000;0,000000;0,000000;0,000000;
84;;;;;;;;;;;;;;;;;;;;;;;;;;;;;;;;;;;;;;;;;;;;;;;;;;;;;;;;;;;;;;;;;;;;;;;;;;;;;;;;;;;;1,000000;0,875000;0,000000;0,000000;0,000000;0,000000;0,000000;0,000000;0,000000;0,000000;0,000000;0,000000;0,000000;0,000000;0,000000;0,000000;0,000000;0,000000;0,000000;0,000000;0,000000;0,000000;0,000000;0,000000;0,000000;0,000000;0,000000;0,000000;0,000000;0,000000;0,000000;0,000000;0,000000;0,000000;0,000000;0,000000;0,000000;0,000000;0,000000;0,000000;0,625000;0,625000;0,625000;0,625000;
85;;;;;;;;;;;;;;;;;;;;;;;;;;;;;;;;;;;;;;;;;;;;;;;;;;;;;;;;;;;;;;;;;;;;;;;;;;;;;;;;;;;;;1,000000;0,000000;0,000000;0,375000;0,500000;0,500000;0,375000;0,000000;0,000000;0,000000;0,875000;0,000000;0,000000;0,000000;0,000000;0,000000;0,000000;0,000000;0,000000;0,000000;0,000000;0,375000;0,375000;0,000000;0,000000;0,000000;0,000000;0,320000;0,275000;0,275000;0,275000;0,000000;0,375000;0,375000;0,312500;0,312500;0,312500;0,000000;0,000000;0,312500;0,312500;0,312500;0,312500;
86;;;;;;;;;;;;;;;;;;;;;;;;;;;;;;;;;;;;;;;;;;;;;;;;;;;;;;;;;;;;;;;;;;;;;;;;;;;;;;;;;;;;;;1,000000;0,500000;0,000000;0,000000;0,666667;0,000000;0,000000;0,000000;0,000000;0,000000;0,750000;0,500000;0,500000;0,500000;0,500000;0,000000;0,000000;0,000000;0,000000;0,500000;0,000000;0,000000;0,000000;0,000000;0,000000;0,500000;0,500000;0,000000;0,000000;0,000000;0,500000;0,000000;0,000000;0,000000;0,000000;0,000000;0,416667;0,416667;0,000000;0,000000;0,000000;0,000000;
87;;;;;;;;;;;;;;;;;;;;;;;;;;;;;;;;;;;;;;;;;;;;;;;;;;;;;;;;;;;;;;;;;;;;;;;;;;;;;;;;;;;;;;;1,000000;0,000000;0,000000;0,666667;0,000000;0,000000;0,000000;0,000000;0,000000;0,750000;0,500000;0,500000;0,500000;0,500000;0,000000;0,000000;0,000000;0,000000;0,500000;0,000000;0,000000;0,000000;0,000000;0,000000;0,500000;0,500000;0,000000;0,000000;0,000000;0,500000;0,000000;0,000000;0,000000;0,000000;0,000000;0,416667;0,416667;0,000000;0,000000;0,000000;0,000000;
88;;;;;;;;;;;;;;;;;;;;;;;;;;;;;;;;;;;;;;;;;;;;;;;;;;;;;;;;;;;;;;;;;;;;;;;;;;;;;;;;;;;;;;;;1,000000;0,416667;0,388889;0,333333;0,000000;0,000000;0,000000;0,666667;0,000000;0,000000;0,000000;0,000000;0,000000;0,000000;0,000000;0,000000;0,000000;0,000000;0,333333;0,333333;0,000000;0,000000;0,000000;0,000000;0,288889;0,266667;0,266667;0,266667;0,000000;0,666667;0,666667;0,291667;0,291667;0,291667;0,000000;0,000000;0,000000;0,000000;0,000000;0,000000;
89;;;;;;;;;;;;;;;;;;;;;;;;;;;;;;;;;;;;;;;;;;;;;;;;;;;;;;;;;;;;;;;;;;;;;;;;;;;;;;;;;;;;;;;;;1,000000;0,500000;0,416667;0,000000;0,000000;0,000000;0,750000;0,000000;0,000000;0,000000;0,000000;0,000000;0,000000;0,000000;0,000000;0,000000;0,000000;0,416667;0,416667;0,000000;0,000000;0,000000;0,000000;0,400000;0,350000;0,350000;0,350000;0,000000;0,416667;0,416667;0,375000;0,375000;0,375000;0,000000;0,000000;0,000000;0,000000;0,000000;0,000000;
90;;;;;;;;;;;;;;;;;;;;;;;;;;;;;;;;;;;;;;;;;;;;;;;;;;;;;;;;;;;;;;;;;;;;;;;;;;;;;;;;;;;;;;;;;;1,000000;0,388889;0,000000;0,000000;0,000000;0,833333;1,000000;0,666667;0,666667;0,666667;0,666667;0,000000;0,000000;0,000000;0,000000;0,750000;0,388889;0,388889;0,000000;0,000000;0,000000;0,666667;0,525136;0,300000;0,300000;0,300000;0,666667;0,388889;0,388889;0,333333;0,333333;0,333333;0,555556;0,555556;0,000000;0,000000;0,000000;0,000000;
91;;;;;;;;;;;;;;;;;;;;;;;;;;;;;;;;;;;;;;;;;;;;;;;;;;;;;;;;;;;;;;;;;;;;;;;;;;;;;;;;;;;;;;;;;;;1,000000;0,000000;0,000000;0,000000;0,666667;0,000000;0,000000;0,000000;0,000000;0,000000;0,000000;0,000000;0,000000;0,000000;0,388889;0,333333;0,333333;0,000000;0,000000;0,000000;0,000000;0,288889;0,266667;0,266667;0,266667;0,000000;0,333333;0,333333;0,291667;0,291667;0,291667;0,000000;0,000000;0,000000;0,000000;0,000000;0,000000;
92;;;;;;;;;;;;;;;;;;;;;;;;;;;;;;;;;;;;;;;;;;;;;;;;;;;;;;;;;;;;;;;;;;;;;;;;;;;;;;;;;;;;;;;;;;;;1,000000;0,500000;0,500000;0,000000;0,000000;0,000000;0,000000;0,000000;0,000000;0,000000;0,000000;0,000000;0,000000;0,000000;0,000000;0,000000;0,000000;0,000000;0,000000;0,000000;0,000000;0,000000;0,000000;0,000000;0,000000;0,000000;0,000000;0,000000;0,000000;0,000000;0,000000;0,000000;0,000000;0,000000;0,000000;0,000000;
93;;;;;;;;;;;;;;;;;;;;;;;;;;;;;;;;;;;;;;;;;;;;;;;;;;;;;;;;;;;;;;;;;;;;;;;;;;;;;;;;;;;;;;;;;;;;;1,000000;0,500000;0,000000;0,000000;0,000000;0,000000;0,000000;0,000000;0,000000;0,000000;0,000000;0,000000;0,000000;0,000000;0,000000;0,000000;0,000000;0,000000;0,000000;0,000000;0,000000;0,000000;0,000000;0,000000;0,000000;0,000000;0,000000;0,000000;0,000000;0,000000;0,000000;0,000000;0,000000;0,000000;0,000000;
94;;;;;;;;;;;;;;;;;;;;;;;;;;;;;;;;;;;;;;;;;;;;;;;;;;;;;;;;;;;;;;;;;;;;;;;;;;;;;;;;;;;;;;;;;;;;;;1,000000;0,000000;0,000000;0,000000;0,000000;0,000000;0,000000;0,000000;0,000000;0,000000;0,000000;0,000000;0,000000;0,000000;0,000000;0,000000;0,000000;0,000000;0,000000;0,000000;0,000000;0,000000;0,000000;0,000000;0,000000;0,000000;0,000000;0,000000;0,000000;0,000000;0,000000;0,000000;0,000000;0,000000;
95;;;;;;;;;;;;;;;;;;;;;;;;;;;;;;;;;;;;;;;;;;;;;;;;;;;;;;;;;;;;;;;;;;;;;;;;;;;;;;;;;;;;;;;;;;;;;;;1,000000;0,000000;0,000000;0,000000;0,000000;0,000000;0,000000;0,000000;0,000000;0,000000;0,000000;0,666667;0,666667;0,000000;0,000000;0,000000;0,000000;0,733333;0,600000;0,600000;0,600000;0,000000;0,666667;0,666667;0,625000;0,625000;0,625000;0,000000;0,000000;0,000000;0,000000;0,000000;0,000000;
96;;;;;;;;;;;;;;;;;;;;;;;;;;;;;;;;;;;;;;;;;;;;;;;;;;;;;;;;;;;;;;;;;;;;;;;;;;;;;;;;;;;;;;;;;;;;;;;;1,000000;0,750000;0,750000;0,750000;0,750000;0,000000;0,000000;0,000000;0,000000;0,833333;0,000000;0,000000;0,000000;0,000000;0,000000;0,750000;0,833333;0,000000;0,000000;0,000000;0,750000;0,000000;0,000000;0,000000;0,000000;0,000000;0,666667;0,666667;0,000000;0,000000;0,000000;0,000000;
97;;;;;;;;;;;;;;;;;;;;;;;;;;;;;;;;;;;;;;;;;;;;;;;;;;;;;;;;;;;;;;;;;;;;;;;;;;;;;;;;;;;;;;;;;;;;;;;;;1,000000;0,500000;0,500000;0,500000;0,000000;0,000000;0,000000;0,000000;0,500000;0,000000;0,000000;0,000000;0,000000;0,000000;0,500000;0,500000;0,000000;0,000000;0,000000;0,500000;0,000000;0,000000;0,000000;0,000000;0,000000;0,416667;0,416667;0,000000;0,000000;0,000000;0,000000;
98;;;;;;;;;;;;;;;;;;;;;;;;;;;;;;;;;;;;;;;;;;;;;;;;;;;;;;;;;;;;;;;;;;;;;;;;;;;;;;;;;;;;;;;;;;;;;;;;;;1,000000;0,500000;0,500000;0,000000;0,000000;0,000000;0,000000;0,500000;0,000000;0,000000;0,000000;0,000000;0,000000;0,500000;0,500000;0,000000;0,000000;0,000000;0,500000;0,000000;0,000000;0,000000;0,000000;0,000000;0,416667;0,416667;0,000000;0,000000;0,000000;0,000000;
99;;;;;;;;;;;;;;;;;;;;;;;;;;;;;;;;;;;;;;;;;;;;;;;;;;;;;;;;;;;;;;;;;;;;;;;;;;;;;;;;;;;;;;;;;;;;;;;;;;;1,000000;0,500000;0,000000;0,000000;0,000000;0,000000;0,500000;0,000000;0,000000;0,000000;0,000000;0,000000;0,500000;0,500000;0,000000;0,000000;0,000000;0,500000;0,000000;0,000000;0,000000;0,000000;0,000000;0,416667;0,416667;0,000000;0,000000;0,000000;0,000000;
100;;;;;;;;;;;;;;;;;;;;;;;;;;;;;;;;;;;;;;;;;;;;;;;;;;;;;;;;;;;;;;;;;;;;;;;;;;;;;;;;;;;;;;;;;;;;;;;;;;;;1,000000;0,000000;0,000000;0,000000;0,000000;0,500000;0,000000;0,000000;0,000000;0,000000;0,000000;0,500000;0,500000;0,000000;0,000000;0,000000;0,500000;0,000000;0,000000;0,000000;0,000000;0,000000;0,416667;0,416667;0,000000;0,000000;0,000000;0,000000;
101;;;;;;;;;;;;;;;;;;;;;;;;;;;;;;;;;;;;;;;;;;;;;;;;;;;;;;;;;;;;;;;;;;;;;;;;;;;;;;;;;;;;;;;;;;;;;;;;;;;;;1,000000;0,666667;0,666667;0,666667;0,000000;0,000000;0,000000;0,000000;0,000000;0,000000;0,000000;0,000000;0,000000;0,000000;0,000000;0,000000;0,000000;0,000000;0,000000;0,000000;0,000000;0,000000;0,000000;0,000000;0,000000;0,000000;0,000000;
102;;;;;;;;;;;;;;;;;;;;;;;;;;;;;;;;;;;;;;;;;;;;;;;;;;;;;;;;;;;;;;;;;;;;;;;;;;;;;;;;;;;;;;;;;;;;;;;;;;;;;;1,000000;0,666667;0,666667;0,000000;0,000000;0,000000;0,000000;0,000000;0,000000;0,000000;0,000000;0,000000;0,000000;0,000000;0,000000;0,000000;0,000000;0,000000;0,000000;0,000000;0,000000;0,000000;0,000000;0,000000;0,000000;0,000000;
103;;;;;;;;;;;;;;;;;;;;;;;;;;;;;;;;;;;;;;;;;;;;;;;;;;;;;;;;;;;;;;;;;;;;;;;;;;;;;;;;;;;;;;;;;;;;;;;;;;;;;;;1,000000;0,666667;0,000000;0,000000;0,000000;0,000000;0,000000;0,000000;0,000000;0,000000;0,000000;0,000000;0,000000;0,000000;0,000000;0,000000;0,000000;0,000000;0,000000;0,000000;0,000000;0,000000;0,000000;0,000000;0,000000;
104;;;;;;;;;;;;;;;;;;;;;;;;;;;;;;;;;;;;;;;;;;;;;;;;;;;;;;;;;;;;;;;;;;;;;;;;;;;;;;;;;;;;;;;;;;;;;;;;;;;;;;;;1,000000;0,000000;0,000000;0,000000;0,000000;0,000000;0,000000;0,000000;0,000000;0,000000;0,000000;0,000000;0,000000;0,000000;0,000000;0,000000;0,000000;0,000000;0,000000;0,000000;0,000000;0,000000;0,000000;0,000000;
105;;;;;;;;;;;;;;;;;;;;;;;;;;;;;;;;;;;;;;;;;;;;;;;;;;;;;;;;;;;;;;;;;;;;;;;;;;;;;;;;;;;;;;;;;;;;;;;;;;;;;;;;;1,000000;0,000000;0,000000;0,750000;0,750000;0,750000;0,500000;0,500000;0,000000;0,000000;0,000000;0,500000;0,000000;0,000000;0,000000;0,000000;0,000000;0,388889;0,388889;0,000000;0,000000;0,000000;0,000000;
106;;;;;;;;;;;;;;;;;;;;;;;;;;;;;;;;;;;;;;;;;;;;;;;;;;;;;;;;;;;;;;;;;;;;;;;;;;;;;;;;;;;;;;;;;;;;;;;;;;;;;;;;;;1,000000;0,666667;0,000000;0,000000;0,000000;0,000000;0,288889;0,266667;0,266667;0,266667;0,000000;0,333333;0,333333;0,291667;0,291667;0,291667;0,000000;0,000000;0,000000;0,000000;0,000000;0,000000;
107;;;;;;;;;;;;;;;;;;;;;;;;;;;;;;;;;;;;;;;;;;;;;;;;;;;;;;;;;;;;;;;;;;;;;;;;;;;;;;;;;;;;;;;;;;;;;;;;;;;;;;;;;;;1,000000;0,000000;0,000000;0,000000;0,000000;0,288889;0,266667;0,266667;0,266667;0,000000;0,333333;0,333333;0,291667;0,291667;0,291667;0,000000;0,000000;0,000000;0,000000;0,000000;0,000000;
108;;;;;;;;;;;;;;;;;;;;;;;;;;;;;;;;;;;;;;;;;;;;;;;;;;;;;;;;;;;;;;;;;;;;;;;;;;;;;;;;;;;;;;;;;;;;;;;;;;;;;;;;;;;;1,000000;0,750000;0,750000;0,000000;0,000000;0,000000;0,000000;0,000000;0,000000;0,000000;0,000000;0,000000;0,000000;0,000000;0,000000;0,000000;0,000000;0,000000;0,000000;0,000000;
109;;;;;;;;;;;;;;;;;;;;;;;;;;;;;;;;;;;;;;;;;;;;;;;;;;;;;;;;;;;;;;;;;;;;;;;;;;;;;;;;;;;;;;;;;;;;;;;;;;;;;;;;;;;;;1,000000;0,750000;0,000000;0,000000;0,000000;0,000000;0,000000;0,000000;0,000000;0,000000;0,000000;0,000000;0,000000;0,000000;0,000000;0,000000;0,000000;0,000000;0,000000;
110;;;;;;;;;;;;;;;;;;;;;;;;;;;;;;;;;;;;;;;;;;;;;;;;;;;;;;;;;;;;;;;;;;;;;;;;;;;;;;;;;;;;;;;;;;;;;;;;;;;;;;;;;;;;;;1,000000;0,000000;0,000000;0,000000;0,000000;0,000000;0,000000;0,000000;0,000000;0,000000;0,000000;0,000000;0,000000;0,000000;0,000000;0,000000;0,000000;0,000000;
111;;;;;;;;;;;;;;;;;;;;;;;;;;;;;;;;;;;;;;;;;;;;;;;;;;;;;;;;;;;;;;;;;;;;;;;;;;;;;;;;;;;;;;;;;;;;;;;;;;;;;;;;;;;;;;;1,000000;0,500000;0,000000;0,000000;0,000000;0,500000;0,000000;0,000000;0,000000;0,000000;0,000000;0,416667;0,416667;0,000000;0,000000;0,000000;0,000000;
112;;;;;;;;;;;;;;;;;;;;;;;;;;;;;;;;;;;;;;;;;;;;;;;;;;;;;;;;;;;;;;;;;;;;;;;;;;;;;;;;;;;;;;;;;;;;;;;;;;;;;;;;;;;;;;;;1,000000;0,800000;0,800000;0,800000;0,500000;0,288889;0,288889;0,233333;0,233333;0,233333;0,388889;0,388889;0,000000;0,000000;0,000000;0,000000;
113;;;;;;;;;;;;;;;;;;;;;;;;;;;;;;;;;;;;;;;;;;;;;;;;;;;;;;;;;;;;;;;;;;;;;;;;;;;;;;;;;;;;;;;;;;;;;;;;;;;;;;;;;;;;;;;;;1,000000;0,800000;0,800000;0,350000;0,266667;0,266667;0,225000;0,225000;0,225000;0,000000;0,000000;0,000000;0,000000;0,000000;0,000000;
114;;;;;;;;;;;;;;;;;;;;;;;;;;;;;;;;;;;;;;;;;;;;;;;;;;;;;;;;;;;;;;;;;;;;;;;;;;;;;;;;;;;;;;;;;;;;;;;;;;;;;;;;;;;;;;;;;;1,000000;0,800000;0,350000;0,266667;0,266667;0,225000;0,225000;0,225000;0,000000;0,000000;0,000000;0,000000;0,000000;0,000000;
115;;;;;;;;;;;;;;;;;;;;;;;;;;;;;;;;;;;;;;;;;;;;;;;;;;;;;;;;;;;;;;;;;;;;;;;;;;;;;;;;;;;;;;;;;;;;;;;;;;;;;;;;;;;;;;;;;;;1,000000;0,350000;0,266667;0,266667;0,225000;0,225000;0,225000;0,000000;0,000000;0,000000;0,000000;0,000000;0,000000;
116;;;;;;;;;;;;;;;;;;;;;;;;;;;;;;;;;;;;;;;;;;;;;;;;;;;;;;;;;;;;;;;;;;;;;;;;;;;;;;;;;;;;;;;;;;;;;;;;;;;;;;;;;;;;;;;;;;;;1,000000;0,000000;0,000000;0,000000;0,000000;0,000000;0,416667;0,416667;0,000000;0,000000;0,000000;0,000000;
117;;;;;;;;;;;;;;;;;;;;;;;;;;;;;;;;;;;;;;;;;;;;;;;;;;;;;;;;;;;;;;;;;;;;;;;;;;;;;;;;;;;;;;;;;;;;;;;;;;;;;;;;;;;;;;;;;;;;;1,000000;0,666667;0,291667;0,291667;0,291667;0,000000;0,000000;0,000000;0,000000;0,000000;0,000000;
118;;;;;;;;;;;;;;;;;;;;;;;;;;;;;;;;;;;;;;;;;;;;;;;;;;;;;;;;;;;;;;;;;;;;;;;;;;;;;;;;;;;;;;;;;;;;;;;;;;;;;;;;;;;;;;;;;;;;;;1,000000;0,291667;0,291667;0,291667;0,000000;0,000000;0,000000;0,000000;0,000000;0,000000;
119;;;;;;;;;;;;;;;;;;;;;;;;;;;;;;;;;;;;;;;;;;;;;;;;;;;;;;;;;;;;;;;;;;;;;;;;;;;;;;;;;;;;;;;;;;;;;;;;;;;;;;;;;;;;;;;;;;;;;;;1,000000;0,750000;0,750000;0,000000;0,000000;0,000000;0,000000;0,000000;0,000000;
120;;;;;;;;;;;;;;;;;;;;;;;;;;;;;;;;;;;;;;;;;;;;;;;;;;;;;;;;;;;;;;;;;;;;;;;;;;;;;;;;;;;;;;;;;;;;;;;;;;;;;;;;;;;;;;;;;;;;;;;;1,000000;0,750000;0,000000;0,000000;0,000000;0,000000;0,000000;0,000000;
121;;;;;;;;;;;;;;;;;;;;;;;;;;;;;;;;;;;;;;;;;;;;;;;;;;;;;;;;;;;;;;;;;;;;;;;;;;;;;;;;;;;;;;;;;;;;;;;;;;;;;;;;;;;;;;;;;;;;;;;;;1,000000;0,000000;0,000000;0,000000;0,000000;0,000000;0,000000;
122;;;;;;;;;;;;;;;;;;;;;;;;;;;;;;;;;;;;;;;;;;;;;;;;;;;;;;;;;;;;;;;;;;;;;;;;;;;;;;;;;;;;;;;;;;;;;;;;;;;;;;;;;;;;;;;;;;;;;;;;;;1,000000;0,666667;0,000000;0,000000;0,000000;0,000000;
123;;;;;;;;;;;;;;;;;;;;;;;;;;;;;;;;;;;;;;;;;;;;;;;;;;;;;;;;;;;;;;;;;;;;;;;;;;;;;;;;;;;;;;;;;;;;;;;;;;;;;;;;;;;;;;;;;;;;;;;;;;;1,000000;0,000000;0,000000;0,000000;0,000000;
124;;;;;;;;;;;;;;;;;;;;;;;;;;;;;;;;;;;;;;;;;;;;;;;;;;;;;;;;;;;;;;;;;;;;;;;;;;;;;;;;;;;;;;;;;;;;;;;;;;;;;;;;;;;;;;;;;;;;;;;;;;;;1,000000;0,750000;0,750000;0,750000;
125;;;;;;;;;;;;;;;;;;;;;;;;;;;;;;;;;;;;;;;;;;;;;;;;;;;;;;;;;;;;;;;;;;;;;;;;;;;;;;;;;;;;;;;;;;;;;;;;;;;;;;;;;;;;;;;;;;;;;;;;;;;;;1,000000;0,750000;0,750000;
126;;;;;;;;;;;;;;;;;;;;;;;;;;;;;;;;;;;;;;;;;;;;;;;;;;;;;;;;;;;;;;;;;;;;;;;;;;;;;;;;;;;;;;;;;;;;;;;;;;;;;;;;;;;;;;;;;;;;;;;;;;;;;;1,000000;0,750000;
127;;;;;;;;;;;;;;;;;;;;;;;;;;;;;;;;;;;;;;;;;;;;;;;;;;;;;;;;;;;;;;;;;;;;;;;;;;;;;;;;;;;;;;;;;;;;;;;;;;;;;;;;;;;;;;;;;;;;;;;;;;;;;;;1,000000;
