;1; 2; 3; 4; 5; 6; 7; 8; 9; 10; 11; 12; 13; 14; 15; 16; 17; 18; 19; 20; 21; 22; 23; 24; 25; 26; 27; 28; 29; 30; 31; 32; 33; 34; 35; 36; 37; 38; 39; 40; 41; 42; 43; 44; 45; 46; 47; 48; 49; 50; 51; 52; 53; 54; 55; 56; 57; 58; 59; 60; 61; 62; 63; 64; 65; 66; 67; 68; 69; 70; 71; 72; 73; 74; 75; 76; 77; 78; 79; 80; 81; 82; 83; 84; 85; 86; 87; 88; 89; 90; 91; 92
1;1,000000;0,463345;0,558215;0,681273;0,777345;0,777345;0,520357;0,738185;0,368899;0,377497;0,362273;0,277778;0,465074;0,360148;0,309264;0,334469;0,000000;0,482396;0,300000;0,000000;0,318182;0,318182;0,401274;0,373815;0,388865;0,346727;0,421227;0,351852;0,500000;0,500000;0,684869;0,509931;0,000000;0,000000;0,000000;0,397436;0,000000;0,000000;0,000000;0,000000;0,000000;0,946424;0,000000;0,000000;0,000000;0,278982;0,278982;0,500000;0,000000;0,000000;0,000000;0,000000;0,000000;0,000000;0,000000;0,000000;0,000000;0,000000;0,000000;0,000000;0,000000;0,000000;0,000000;0,000000;0,500000;0,000000;0,519661;0,000000;0,000000;0,000000;0,233333;0,366667;0,351852;0,351852;0,000000;0,300000;0,000000;0,000000;0,300000;0,424828;0,277778;0,500000;0,500000;0,000000;0,000000;0,500000;0,500000;0,000000;0,000000;0,000000;0,000000;0,703704;
2;;1,000000;0,572125;0,615623;0,602677;0,602677;0,598648;0,674226;0,287512;0,272394;0,340655;0,479266;0,575077;0,397146;0,405132;0,591007;0,932322;0,720381;0,338748;0,480226;0,257498;0,257498;0,283287;0,292152;0,207499;0,626137;0,357362;0,328711;0,373349;0,463748;0,708418;0,370736;0,241772;0,240024;0,207499;0,255718;0,243792;0,207499;0,213748;0,213748;0,207499;0,487968;0,328711;0,328711;0,472810;0,741995;0,741995;0,480226;0,252954;0,252954;0,252954;0,255415;0,281478;0,324860;0,281478;0,252954;0,252954;0,252954;0,480226;0,480226;0,252954;0,252954;0,252954;0,934772;0,500000;0,207499;0,731861;0,252954;0,252954;0,207499;0,783650;0,324860;0,328711;0,328711;0,207499;0,233521;0,207499;0,934772;0,255415;0,418771;0,252954;0,480226;0,463748;0,000000;0,000000;0,500000;0,500000;0,000000;0,000000;0,000000;0,000000;0,328711;
3;;;1,000000;0,775257;0,767310;0,767310;0,497525;0,574901;0,387205;0,373301;0,400216;0,480087;0,599986;0,448905;0,451219;0,510558;0,000000;0,491404;0,343750;0,482955;0,264423;0,264423;0,297502;0,302155;0,388184;0,629841;0,364288;0,331439;0,381612;0,468750;0,704866;0,504547;0,254129;0,250027;0,210227;0,265721;0,250717;0,210227;0,218750;0,218750;0,210227;0,500000;0,331439;0,331439;0,475392;0,455569;0,455569;0,482955;0,255682;0,255682;0,255682;0,260417;0,288404;0,329861;0,288404;0,255682;0,255682;0,255682;0,482955;0,482955;0,255682;0,255682;0,255682;0,937500;0,491998;0,210227;0,731861;0,255682;0,255682;0,210227;0,408740;0,329861;0,331439;0,331439;0,210227;0,238522;0,210227;0,937500;0,260417;0,421678;0,255682;0,482955;0,468750;0,000000;0,000000;0,491998;0,491998;0,000000;0,000000;0,000000;0,000000;0,331439;
4;;;;1,000000;0,713612;0,713612;0,601798;0,625213;0,292613;0,289901;0,330687;0,250000;0,613752;0,337173;0,366610;0,429066;0,000000;0,574562;0,310000;0,437500;0,250000;0,250000;0,258501;0,267618;0,356911;0,549875;0,314912;0,312500;0,264010;0,400000;0,582170;0,386520;0,238981;0,238296;0,212500;0,247124;0,241091;0,212500;0,220000;0,220000;0,212500;0,433046;0,312500;0,312500;0,323155;0,468472;0,468472;0,437500;0,250000;0,250000;0,250000;0,250000;0,265587;0,300000;0,265587;0,250000;0,250000;0,250000;0,437500;0,437500;0,250000;0,250000;0,250000;0,812500;0,425000;0,212500;0,703890;0,250000;0,250000;0,212500;0,425000;0,300000;0,312500;0,312500;0,212500;0,234236;0,212500;0,812500;0,250000;0,347739;0,250000;0,437500;0,400000;0,000000;0,000000;0,425000;0,425000;0,000000;0,000000;0,000000;0,000000;0,312500;
5;;;;;1,000000;0,800000;0,800000;0,595871;0,207143;0,204548;0,396136;0,000000;0,212500;0,211160;0,222143;0,212842;0,000000;0,518158;0,000000;0,000000;0,000000;0,000000;0,000000;0,000000;0,200000;0,244444;0,000000;0,000000;0,230000;0,000000;0,406264;0,226667;0,000000;0,000000;0,000000;0,000000;0,000000;0,000000;0,000000;0,000000;0,000000;0,350000;0,000000;0,000000;0,000000;0,000000;0,000000;0,000000;0,000000;0,000000;0,000000;0,000000;0,000000;0,000000;0,000000;0,000000;0,000000;0,000000;0,000000;0,000000;0,000000;0,000000;0,000000;0,000000;0,350000;0,000000;0,225000;0,000000;0,000000;0,000000;0,000000;0,000000;0,000000;0,000000;0,000000;0,000000;0,000000;0,000000;0,000000;0,300000;0,000000;0,000000;0,000000;0,000000;0,000000;0,350000;0,350000;0,000000;0,000000;0,000000;0,000000;0,000000;
6;;;;;;1,000000;0,800000;0,595871;0,207143;0,204548;0,396136;0,000000;0,212500;0,211160;0,222143;0,212842;0,000000;0,518158;0,000000;0,000000;0,000000;0,000000;0,000000;0,000000;0,200000;0,244444;0,000000;0,000000;0,230000;0,000000;0,406264;0,226667;0,000000;0,000000;0,000000;0,000000;0,000000;0,000000;0,000000;0,000000;0,000000;0,350000;0,000000;0,000000;0,000000;0,000000;0,000000;0,000000;0,000000;0,000000;0,000000;0,000000;0,000000;0,000000;0,000000;0,000000;0,000000;0,000000;0,000000;0,000000;0,000000;0,000000;0,000000;0,000000;0,350000;0,000000;0,225000;0,000000;0,000000;0,000000;0,000000;0,000000;0,000000;0,000000;0,000000;0,000000;0,000000;0,000000;0,000000;0,300000;0,000000;0,000000;0,000000;0,000000;0,000000;0,350000;0,350000;0,000000;0,000000;0,000000;0,000000;0,000000;
7;;;;;;;1,000000;0,660688;0,677875;0,750698;0,602676;0,737476;0,475732;0,723148;0,586764;0,522105;0,953516;0,710166;0,807312;0,485372;0,495396;0,429990;0,456912;0,392799;0,795056;0,627758;0,596301;0,653816;0,455238;0,934239;0,506606;0,569548;0,235706;0,235051;0,205372;0,348321;0,240723;0,205372;0,210073;0,210073;0,205372;0,480000;0,329817;0,329817;0,389559;0,435947;0,435947;0,964927;0,252039;0,252039;0,252039;0,253823;0,281070;0,326739;0,281070;0,252039;0,252039;0,252039;0,485372;0,485372;0,252039;0,252039;0,252039;0,952039;0,480000;0,205372;0,246667;0,252039;0,252039;0,205372;0,397026;0,642572;0,653816;0,653816;0,205372;0,363478;0,205372;0,952039;0,253823;0,782351;0,498261;0,964927;0,934239;0,000000;0,000000;0,480000;0,480000;0,000000;0,000000;0,000000;0,000000;0,653816;
8;;;;;;;;1,000000;0,730425;0,718628;0,617492;0,744865;0,659739;0,703784;0,686449;0,706530;0,989062;0,494403;0,557388;0,497727;0,733539;0,734581;0,691253;0,687230;0,796315;0,657983;0,601714;0,662047;0,610177;0,494767;0,737630;0,572507;0,779819;0,769488;0,796572;0,744625;0,757560;0,793906;0,791053;0,791053;0,793906;0,497159;0,664639;0,664639;0,681805;0,768463;0,768463;0,497344;0,746861;0,746861;0,746861;0,750000;0,701617;0,663553;0,701617;0,746861;0,746861;0,746861;0,500000;0,500000;0,748006;0,748006;0,748006;0,000000;0,497858;0,794843;0,991964;0,744982;0,744982;0,795343;0,795620;0,657321;0,661919;0,661919;0,794036;0,770315;0,794036;0,000000;0,745294;0,593362;0,743992;0,497344;0,494767;0,000000;0,000000;0,000000;0,000000;0,000000;0,000000;0,000000;0,000000;0,661704;
9;;;;;;;;;1,000000;0,726965;0,716250;0,720677;0,621355;0,829589;0,477902;0,427093;0,000000;0,000000;0,671639;0,899571;0,500000;0,447053;0,452571;0,425726;0,811799;0,487378;0,581685;0,642857;0,293457;0,875000;0,265622;0,746744;0,233047;0,232976;0,207143;0,392801;0,238121;0,207143;0,212500;0,212500;0,207143;0,000000;0,321429;0,321429;0,450646;0,230295;0,230295;0,928571;0,250000;0,250000;0,250000;0,250000;0,270783;0,312500;0,270783;0,250000;0,250000;0,250000;0,464286;0,464286;0,250000;0,250000;0,250000;0,892857;0,000000;0,207143;0,250000;0,250000;0,250000;0,207143;0,207143;0,625000;0,642857;0,642857;0,207143;0,385777;0,207143;0,892857;0,250000;0,566802;0,500000;0,928571;0,875000;0,000000;0,000000;0,000000;0,000000;0,000000;0,000000;0,000000;0,000000;0,642857;
10;;;;;;;;;;1,000000;0,699371;0,743606;0,668015;0,737944;0,664389;0,531994;0,000000;0,000000;0,665570;0,922280;0,507809;0,450049;0,459361;0,427217;0,797929;0,498374;0,596921;0,651330;0,308706;0,905727;0,253905;0,771327;0,237091;0,236301;0,207146;0,390070;0,240946;0,207146;0,212863;0,212863;0,207146;0,000000;0,325665;0,325665;0,368569;0,231845;0,231845;0,947626;0,251591;0,251591;0,251591;0,252863;0,276577;0,319530;0,276577;0,251591;0,251591;0,251591;0,473813;0,473813;0,251591;0,251591;0,251591;0,918257;0,000000;0,207146;0,000000;0,251591;0,251591;0,207146;0,207146;0,639060;0,651330;0,651330;0,207146;0,383889;0,207146;0,918257;0,252863;0,576982;0,503182;0,947626;0,905727;0,000000;0,000000;0,000000;0,000000;0,000000;0,000000;0,000000;0,000000;0,651330;
11;;;;;;;;;;;1,000000;0,738123;0,638439;0,656634;0,775775;0,526295;0,000000;0,500000;0,650554;0,977118;0,717349;0,645153;0,551462;0,558692;0,791833;0,503616;0,598477;0,655838;0,734246;0,488313;0,258360;0,577114;0,369501;0,393553;0,397885;0,314981;0,452199;0,204300;0,308915;0,308915;0,204300;0,000000;0,333036;0,333036;0,526068;0,230458;0,230458;0,493955;0,252576;0,252576;0,252576;0,254980;0,285387;0,332758;0,285387;0,252576;0,252576;0,252576;0,493955;0,493955;0,252576;0,252576;0,252576;0,976714;0,500000;0,397885;0,250000;0,737517;0,737517;0,204300;0,204300;0,645744;0,655841;0,655841;0,397808;0,485914;0,397808;0,976714;0,725129;0,561476;0,737004;0,493955;0,488313;0,000000;0,000000;0,500000;0,500000;0,000000;0,000000;0,000000;0,000000;0,655861;
12;;;;;;;;;;;;1,000000;0,727212;0,487871;0,263183;0,253515;0,000000;0,000000;0,719616;0,375000;0,500000;0,480145;0,488143;0,477305;0,450000;0,277778;0,530632;0,583333;0,260864;0,666667;0,437500;0,519375;0,245409;0,244798;0,225000;0,467245;0,245546;0,225000;0,233333;0,233333;0,225000;0,000000;0,291667;0,291667;0,510633;0,241242;0,241242;0,750000;0,250000;0,250000;0,250000;0,250000;0,257794;0,277778;0,257794;0,250000;0,250000;0,250000;0,375000;0,375000;0,250000;0,250000;0,250000;0,625000;0,000000;0,225000;0,250000;0,250000;0,250000;0,225000;0,225000;0,555556;0,583333;0,583333;0,225000;0,449234;0,225000;0,625000;0,250000;0,529690;0,500000;0,750000;0,666667;0,000000;0,000000;0,000000;0,000000;0,000000;0,000000;0,000000;0,000000;0,583333;
13;;;;;;;;;;;;;1,000000;0,471699;0,326367;0,335728;0,000000;0,400000;0,658849;0,462500;0,500000;0,460290;0,470357;0,448937;0,425000;0,426243;0,561264;0,625000;0,352161;0,800000;0,655063;0,541517;0,308981;0,300796;0,237500;0,426300;0,291091;0,237500;0,260000;0,260000;0,237500;0,437500;0,643852;0,643852;0,380298;0,388727;0,388727;0,875000;0,275000;0,275000;0,275000;0,290000;0,315587;0,340000;0,315587;0,275000;0,275000;0,275000;0,462500;0,462500;0,518852;0,518852;0,518852;0,837500;0,000000;0,237500;0,750000;0,275000;0,275000;0,237500;0,375159;0,600000;0,625000;0,625000;0,237500;0,408621;0,237500;0,837500;0,290000;0,553442;0,500000;0,875000;0,800000;0,000000;0,000000;0,000000;0,000000;0,000000;0,000000;0,000000;0,000000;0,625000;
14;;;;;;;;;;;;;;1,000000;0,621887;0,576792;0,898367;0,000000;0,620331;0,468302;0,471699;0,418752;0,472912;0,387135;0,796655;0,792430;0,553385;0,630728;0,392356;0,853775;0,259372;0,754938;0,248187;0,245757;0,211160;0,354209;0,247494;0,211160;0,219529;0,219529;0,211160;0,000000;0,325445;0,325445;0,363664;0,430926;0,430926;0,916443;0,254017;0,254017;0,254017;0,257029;0,280155;0,319529;0,280155;0,254017;0,254017;0,254017;0,468302;0,468302;0,254017;0,254017;0,254017;0,896874;0,000000;0,211160;0,000000;0,254017;0,254017;0,211160;0,397334;0,603775;0,630728;0,630728;0,211160;0,364551;0,211160;0,896874;0,257029;0,545577;0,487871;0,916443;0,853775;0,000000;0,000000;0,000000;0,000000;0,000000;0,000000;0,000000;0,000000;0,630728;
15;;;;;;;;;;;;;;;1,000000;0,665015;0,812500;0,000000;0,331093;0,450683;0,420918;0,459240;0,427630;0,651612;0,629508;0,744660;0,477356;0,325683;0,455813;0,421093;0,276367;0,694708;0,275894;0,271255;0,225683;0,280083;0,267458;0,225683;0,241093;0,241093;0,225683;0,000000;0,325683;0,325683;0,353288;0,428323;0,428323;0,450683;0,263183;0,263183;0,263183;0,271093;0,291954;0,321093;0,291954;0,263183;0,263183;0,263183;0,450683;0,450683;0,263183;0,263183;0,263183;0,825683;0,458333;0,225683;0,000000;0,479620;0,479620;0,225683;0,399906;0,321093;0,325683;0,325683;0,225683;0,255329;0,225683;0,825683;0,667740;0,321093;0,263183;0,450683;0,421093;0,000000;0,000000;0,000000;0,000000;0,000000;0,000000;0,000000;0,000000;0,325683;
16;;;;;;;;;;;;;;;;1,000000;0,000000;0,000000;0,334026;0,472265;0,258435;0,258435;0,325256;0,289122;0,592664;0,642063;0,349312;0,326431;0,362043;0,450693;0,401991;0,538004;0,245693;0,243510;0,209765;0,257242;0,245963;0,209765;0,217359;0,217359;0,209765;0,000000;0,326431;0,326431;0,368849;0,728597;0,728597;0,472265;0,253515;0,253515;0,253515;0,256248;0,280257;0,321063;0,280257;0,253515;0,253515;0,253515;0,472265;0,472265;0,253515;0,253515;0,253515;0,909765;0,000000;0,209765;0,250692;0,253515;0,253515;0,209765;0,776504;0,321063;0,326431;0,326431;0,209765;0,235814;0,209765;0,909765;0,256248;0,321063;0,253515;0,472265;0,450693;0,000000;0,000000;0,000000;0,000000;0,000000;0,000000;0,000000;0,000000;0,326431;
17;;;;;;;;;;;;;;;;;1,000000;0,000000;0,000000;0,000000;0,000000;0,000000;0,000000;0,000000;0,000000;0,777778;0,000000;0,000000;0,000000;0,000000;0,000000;0,000000;0,000000;0,000000;0,000000;0,000000;0,000000;0,000000;0,000000;0,000000;0,000000;0,000000;0,000000;0,000000;0,000000;0,741242;0,741242;0,000000;0,000000;0,000000;0,000000;0,000000;0,000000;0,000000;0,000000;0,000000;0,000000;0,000000;0,000000;0,000000;0,000000;0,000000;0,000000;0,000000;0,000000;0,000000;0,000000;0,000000;0,000000;0,000000;0,600000;0,000000;0,000000;0,000000;0,000000;0,000000;0,000000;0,000000;0,000000;0,000000;0,000000;0,000000;0,000000;0,000000;0,000000;0,000000;0,000000;0,000000;0,000000;0,000000;0,000000;0,000000;
18;;;;;;;;;;;;;;;;;;1,000000;0,000000;0,000000;0,000000;0,000000;0,000000;0,000000;0,000000;0,000000;0,000000;0,000000;0,500000;0,000000;0,400000;0,000000;0,000000;0,000000;0,000000;0,000000;0,000000;0,000000;0,000000;0,000000;0,000000;0,500000;0,000000;0,000000;0,000000;0,000000;0,000000;0,000000;0,000000;0,000000;0,000000;0,000000;0,000000;0,000000;0,000000;0,000000;0,000000;0,000000;0,000000;0,000000;0,000000;0,000000;0,000000;0,000000;0,500000;0,000000;0,333333;0,000000;0,000000;0,000000;0,000000;0,000000;0,000000;0,000000;0,000000;0,000000;0,000000;0,000000;0,000000;0,500000;0,000000;0,000000;0,000000;0,000000;0,000000;0,500000;0,500000;0,000000;0,000000;0,000000;0,000000;0,000000;
19;;;;;;;;;;;;;;;;;;;1,000000;0,450000;0,500000;0,468232;0,478441;0,461095;0,619524;0,341667;0,549011;0,611111;0,351572;0,750000;0,310000;0,532291;0,319615;0,312511;0,250000;0,443848;0,302873;0,250000;0,275000;0,275000;0,250000;0,000000;0,338889;0,338889;0,373565;0,286863;0,286863;0,833333;0,283333;0,283333;0,283333;0,300000;0,322470;0,341667;0,322470;0,283333;0,283333;0,283333;0,450000;0,450000;0,283333;0,283333;0,283333;0,783333;0,000000;0,250000;0,000000;0,283333;0,283333;0,250000;0,250000;0,583333;0,611111;0,611111;0,250000;0,423851;0,250000;0,783333;0,300000;0,544535;0,500000;0,833333;0,750000;0,000000;0,000000;0,000000;0,000000;0,000000;0,000000;0,000000;0,000000;0,611111;
20;;;;;;;;;;;;;;;;;;;;1,000000;0,437500;0,437500;0,478400;0,466164;0,350000;0,444444;0,469956;0,416667;0,485864;0,500000;0,437500;0,481207;0,464159;0,453132;0,350000;0,457055;0,433046;0,350000;0,400000;0,400000;0,350000;0,000000;0,416667;0,416667;0,484139;0,407909;0,407909;0,500000;0,375000;0,375000;0,375000;0,416667;0,445294;0,444444;0,445294;0,375000;0,375000;0,375000;0,500000;0,500000;0,375000;0,375000;0,375000;0,750000;0,000000;0,350000;0,000000;0,375000;0,375000;0,350000;0,350000;0,444444;0,416667;0,416667;0,350000;0,407909;0,350000;0,750000;0,416667;0,444444;0,375000;0,500000;0,500000;0,000000;0,000000;0,000000;0,000000;0,000000;0,000000;0,000000;0,000000;0,416667;
21;;;;;;;;;;;;;;;;;;;;;1,000000;0,669180;0,623218;0,665833;0,425000;0,300000;0,561264;0,625000;0,459469;0,800000;0,250000;0,541517;0,313023;0,312848;0,212500;0,426300;0,241091;0,212500;0,220000;0,220000;0,212500;0,000000;0,312500;0,312500;0,323155;0,234236;0,234236;0,875000;0,250000;0,250000;0,250000;0,250000;0,265587;0,300000;0,265587;0,250000;0,250000;0,250000;0,437500;0,437500;0,250000;0,250000;0,250000;0,812500;0,000000;0,212500;0,000000;0,713996;0,713996;0,212500;0,212500;0,600000;0,625000;0,625000;0,385414;0,525376;0,385414;0,812500;0,469342;0,553442;0,709581;0,875000;0,800000;0,000000;0,000000;0,000000;0,000000;0,000000;0,000000;0,000000;0,000000;0,625000;
22;;;;;;;;;;;;;;;;;;;;;;1,000000;0,691028;0,664065;0,405145;0,300000;0,521554;0,605145;0,516953;0,768232;0,250000;0,496134;0,238981;0,238296;0,212500;0,376662;0,241091;0,212500;0,220000;0,220000;0,212500;0,000000;0,312500;0,312500;0,323155;0,234236;0,234236;0,855145;0,250000;0,250000;0,250000;0,250000;0,265587;0,300000;0,265587;0,250000;0,250000;0,250000;0,437500;0,437500;0,250000;0,250000;0,250000;0,812500;0,000000;0,212500;0,000000;0,709680;0,709680;0,212500;0,212500;0,568232;0,605145;0,605145;0,212500;0,529704;0,212500;0,812500;0,500000;0,521673;0,712584;0,855145;0,768232;0,000000;0,000000;0,000000;0,000000;0,000000;0,000000;0,000000;0,000000;0,605145;
23;;;;;;;;;;;;;;;;;;;;;;;1,000000;0,670076;0,398143;0,324364;0,707937;0,638143;0,603465;0,887532;0,258501;0,732003;0,244215;0,242081;0,208400;0,331311;0,245138;0,208400;0,215273;0,215273;0,208400;0,000000;0,328400;0,328400;0,378636;0,234686;0,234686;0,938143;0,253400;0,253400;0,253400;0,256183;0,281882;0,324364;0,281882;0,253400;0,253400;0,253400;0,478400;0,478400;0,253400;0,253400;0,253400;0,928400;0,479698;0,208400;0,000000;0,716617;0,716617;0,208400;0,208400;0,614805;0,638143;0,638143;0,208400;0,476710;0,208400;0,928400;0,728365;0,551316;0,720013;0,938143;0,887532;0,000000;0,000000;0,000000;0,000000;0,000000;0,000000;0,000000;0,000000;0,638143;
24;;;;;;;;;;;;;;;;;;;;;;;;1,000000;0,393972;0,322947;0,699448;0,616194;0,685145;0,818238;0,267618;0,717189;0,262102;0,257886;0,216164;0,333650;0,256482;0,216164;0,227709;0,227709;0,216164;0,000000;0,327275;0,327275;0,365712;0,244657;0,244657;0,893972;0,257830;0,257830;0,257830;0,263424;0,287103;0,322947;0,287103;0,257830;0,257830;0,257830;0,466164;0,466164;0,257830;0,257830;0,257830;0,882830;0,464762;0,216164;0,000000;0,515661;0,515661;0,216164;0,216164;0,580142;0,616194;0,616194;0,216164;0,352311;0,216164;0,882830;0,772966;0,524716;0,477305;0,893972;0,818238;0,000000;0,000000;0,000000;0,000000;0,000000;0,000000;0,000000;0,000000;0,616194;
25;;;;;;;;;;;;;;;;;;;;;;;;;1,000000;0,436329;0,455632;0,533333;0,215864;0,600000;0,212500;0,639584;0,201659;0,203132;0,200000;0,383911;0,208046;0,200000;0,200000;0,200000;0,200000;0,000000;0,266667;0,266667;0,244139;0,207909;0,207909;0,700000;0,225000;0,225000;0,225000;0,216667;0,220294;0,244444;0,220294;0,225000;0,225000;0,225000;0,350000;0,350000;0,225000;0,225000;0,225000;0,600000;0,000000;0,200000;0,000000;0,225000;0,225000;0,200000;0,200000;0,488889;0,533333;0,533333;0,200000;0,382567;0,200000;0,600000;0,216667;0,463023;0,450000;0,700000;0,600000;0,000000;0,000000;0,000000;0,000000;0,000000;0,000000;0,000000;0,000000;0,533333;
26;;;;;;;;;;;;;;;;;;;;;;;;;;1,000000;0,351930;0,333333;0,337935;0,416667;0,464108;0,538777;0,306652;0,300607;0,244444;0,307333;0,292873;0,244444;0,266667;0,266667;0,244444;0,000000;0,333333;0,333333;0,362454;0,755030;0,755030;0,444444;0,277778;0,277778;0,277778;0,291667;0,312470;0,333333;0,312470;0,277778;0,277778;0,277778;0,444444;0,444444;0,277778;0,277778;0,277778;0,777778;0,000000;0,244444;0,277778;0,277778;0,277778;0,244444;0,679626;0,333333;0,333333;0,333333;0,244444;0,278530;0,244444;0,777778;0,291667;0,333333;0,277778;0,444444;0,416667;0,000000;0,000000;0,000000;0,000000;0,000000;0,000000;0,000000;0,000000;0,333333;
27;;;;;;;;;;;;;;;;;;;;;;;;;;;1,000000;0,655632;0,374529;0,849011;0,314912;0,785942;0,459803;0,453816;0,427080;0,502880;0,486341;0,244956;0,387402;0,387402;0,244956;0,000000;0,344956;0,344956;0,397340;0,286166;0,286166;0,905632;0,282456;0,282456;0,282456;0,301930;0,330499;0,351930;0,330499;0,282456;0,282456;0,282456;0,469956;0,469956;0,282456;0,282456;0,282456;0,844956;0,500000;0,427080;0,000000;0,282456;0,282456;0,244956;0,244956;0,649011;0,655632;0,655632;0,244956;0,457632;0,244956;0,844956;0,514492;0,602453;0,530632;0,905632;0,849011;0,000000;0,000000;0,000000;0,000000;0,000000;0,000000;0,000000;0,000000;0,655632;
28;;;;;;;;;;;;;;;;;;;;;;;;;;;;1,000000;0,641831;0,777778;0,312500;0,652708;0,318325;0,314243;0,266667;0,895602;0,308046;0,266667;0,288889;0,288889;0,266667;0,000000;0,333333;0,333333;0,350806;0,296798;0,296798;0,833333;0,291667;0,291667;0,291667;0,305556;0,320294;0,333333;0,320294;0,291667;0,291667;0,291667;0,416667;0,416667;0,291667;0,291667;0,291667;0,666667;0,000000;0,266667;0,000000;0,291667;0,291667;0,266667;0,266667;0,666667;0,666667;0,666667;0,266667;0,560345;0,266667;0,666667;0,305556;0,640801;0,583333;0,833333;0,777778;0,000000;0,000000;0,000000;0,000000;0,000000;0,000000;0,000000;0,000000;0,666667;
29;;;;;;;;;;;;;;;;;;;;;;;;;;;;;1,000000;0,474299;0,277161;0,391453;0,276870;0,268738;0,215864;0,347560;0,263798;0,215864;0,228844;0,228844;0,215864;0,000000;0,335864;0,335864;0,401603;0,248257;0,248257;0,485864;0,260864;0,260864;0,260864;0,269753;0,300542;0,337935;0,300542;0,260864;0,260864;0,260864;0,485864;0,485864;0,260864;0,260864;0,260864;0,935864;0,500000;0,215864;0,000000;0,506781;0,506781;0,215864;0,215864;0,337935;0,335864;0,335864;0,215864;0,248257;0,215864;0,935864;0,748743;0,420355;0,260864;0,485864;0,474299;0,000000;0,000000;0,500000;0,500000;0,000000;0,000000;0,000000;0,000000;0,335864;
30;;;;;;;;;;;;;;;;;;;;;;;;;;;;;;1,000000;0,400000;0,865624;0,436282;0,419654;0,300000;0,800991;0,392873;0,300000;0,350000;0,350000;0,300000;0,000000;0,388889;0,388889;0,473565;0,361863;0,361863;1,000000;0,333333;0,333333;0,333333;0,375000;0,412470;0,416667;0,412470;0,333333;0,333333;0,333333;0,500000;0,500000;0,333333;0,333333;0,333333;0,833333;0,000000;0,300000;0,000000;0,333333;0,333333;0,300000;0,300000;0,833333;0,777778;0,777778;0,300000;0,673851;0,300000;0,833333;0,375000;0,794535;0,666667;1,000000;1,000000;0,000000;0,000000;0,000000;0,000000;0,000000;0,000000;0,000000;0,000000;0,777778;
31;;;;;;;;;;;;;;;;;;;;;;;;;;;;;;;1,000000;0,316872;0,238981;0,238296;0,212500;0,247124;0,241091;0,212500;0,220000;0,220000;0,212500;0,437500;0,312500;0,312500;0,379928;0,426591;0,426591;0,437500;0,250000;0,250000;0,250000;0,250000;0,265587;0,300000;0,265587;0,250000;0,250000;0,250000;0,437500;0,437500;0,250000;0,250000;0,250000;0,812500;0,000000;0,212500;0,709643;0,250000;0,250000;0,212500;0,398824;0,300000;0,312500;0,312500;0,212500;0,234236;0,212500;0,812500;0,250000;0,300000;0,250000;0,437500;0,400000;0,000000;0,000000;0,000000;0,000000;0,000000;0,000000;0,000000;0,000000;0,312500;
32;;;;;;;;;;;;;;;;;;;;;;;;;;;;;;;;1,000000;0,335938;0,322815;0,241207;0,466471;0,306690;0,241207;0,268678;0,268678;0,241207;0,000000;0,347874;0,347874;0,413365;0,284496;0,284496;0,919375;0,281207;0,281207;0,281207;0,302012;0,334686;0,357567;0,334686;0,281207;0,281207;0,281207;0,481207;0,481207;0,281207;0,281207;0,281207;0,881207;0,500000;0,241207;0,000000;0,281207;0,281207;0,241207;0,241207;0,643402;0,652708;0,652708;0,241207;0,430759;0,241207;0,881207;0,548148;0,591670;0,519375;0,919375;0,865624;0,000000;0,000000;0,000000;0,000000;0,000000;0,000000;0,000000;0,000000;0,652708;
33;;;;;;;;;;;;;;;;;;;;;;;;;;;;;;;;;1,000000;0,732103;0,777116;0,689125;0,700012;0,748841;0,736236;0,736236;0,748841;0,000000;0,318325;0,318325;0,345267;0,221403;0,221403;0,464159;0,245409;0,245409;0,245409;0,241837;0,640163;0,840932;0,640163;0,245409;0,245409;0,245409;0,464159;0,464159;0,245409;0,245409;0,245409;0,901659;0,000000;0,759580;0,000000;0,245409;0,245409;0,755556;0,201659;0,306652;0,318325;0,318325;0,755642;0,550362;0,755642;0,901659;0,241837;0,306652;0,468277;0,464159;0,436282;0,000000;0,000000;0,000000;0,000000;0,000000;0,000000;0,000000;0,000000;0,318325;
34;;;;;;;;;;;;;;;;;;;;;;;;;;;;;;;;;;1,000000;0,787906;0,628161;0,714745;0,406263;0,525524;0,525524;0,406263;0,000000;0,314243;0,314243;0,330960;0,222316;0,222316;0,453132;0,244798;0,244798;0,244798;0,241083;0,651248;0,804976;0,651248;0,244798;0,244798;0,244798;0,453132;0,453132;0,244798;0,244798;0,244798;0,869798;0,000000;0,596506;0,000000;0,244798;0,244798;0,755033;0,203132;0,300607;0,314243;0,314243;0,755147;0,565572;0,755147;0,869798;0,241083;0,300607;0,460806;0,453132;0,419654;0,000000;0,000000;0,000000;0,000000;0,000000;0,000000;0,000000;0,000000;0,314243;
35;;;;;;;;;;;;;;;;;;;;;;;;;;;;;;;;;;;1,000000;0,789864;0,832182;0,400000;0,568039;0,568039;0,400000;0,000000;0,266667;0,266667;0,244139;0,207909;0,207909;0,350000;0,225000;0,225000;0,225000;0,216667;0,562842;0,244444;0,562842;0,225000;0,225000;0,225000;0,350000;0,350000;0,225000;0,225000;0,225000;0,600000;0,000000;0,600000;0,000000;0,225000;0,225000;0,600000;0,200000;0,244444;0,266667;0,266667;0,600000;0,550744;0,600000;0,600000;0,216667;0,244444;0,225000;0,350000;0,300000;0,000000;0,000000;0,000000;0,000000;0,000000;0,000000;0,000000;0,000000;0,266667;
36;;;;;;;;;;;;;;;;;;;;;;;;;;;;;;;;;;;;1,000000;0,716736;0,754957;0,654030;0,654030;0,754957;0,000000;0,318166;0,318166;0,341423;0,229043;0,229043;0,883911;0,248722;0,248722;0,248722;0,247809;0,500121;0,307333;0,500121;0,248722;0,248722;0,248722;0,457055;0,457055;0,248722;0,248722;0,248722;0,873722;0,000000;0,754957;0,000000;0,248722;0,248722;0,596896;0,207055;0,562896;0,606134;0,606134;0,596896;0,577148;0,596896;0,873722;0,247809;0,507469;0,467245;0,883911;0,800991;0,000000;0,000000;0,000000;0,000000;0,000000;0,000000;0,000000;0,000000;0,606134;
37;;;;;;;;;;;;;;;;;;;;;;;;;;;;;;;;;;;;;1,000000;0,416091;0,581090;0,581090;0,416091;0,000000;0,308046;0,308046;0,312974;0,227109;0,227109;0,433046;0,245546;0,245546;0,245546;0,242873;0,573958;0,292873;0,573958;0,245546;0,245546;0,245546;0,433046;0,433046;0,245546;0,245546;0,245546;0,808046;0,000000;0,624137;0,000000;0,245546;0,245546;0,624137;0,208046;0,292873;0,308046;0,308046;0,624137;0,549957;0,624137;0,808046;0,242873;0,292873;0,245546;0,433046;0,392873;0,000000;0,000000;0,000000;0,000000;0,000000;0,000000;0,000000;0,000000;0,308046;
38;;;;;;;;;;;;;;;;;;;;;;;;;;;;;;;;;;;;;;1,000000;0,767882;0,767882;0,800000;0,000000;0,266667;0,266667;0,244139;0,207909;0,207909;0,350000;0,225000;0,225000;0,225000;0,216667;0,390373;0,244444;0,390373;0,225000;0,225000;0,225000;0,350000;0,350000;0,225000;0,225000;0,225000;0,600000;0,000000;0,800000;0,000000;0,225000;0,225000;0,400000;0,200000;0,244444;0,266667;0,266667;0,400000;0,377879;0,400000;0,600000;0,216667;0,244444;0,225000;0,350000;0,300000;0,000000;0,000000;0,000000;0,000000;0,000000;0,000000;0,000000;0,000000;0,266667;
39;;;;;;;;;;;;;;;;;;;;;;;;;;;;;;;;;;;;;;;1,000000;0,800000;0,767882;0,000000;0,288889;0,288889;0,273565;0,211863;0,211863;0,400000;0,233333;0,233333;0,233333;0,225000;0,384598;0,266667;0,384598;0,233333;0,233333;0,233333;0,400000;0,400000;0,233333;0,233333;0,233333;0,733333;0,000000;0,767645;0,000000;0,233333;0,233333;0,400000;0,200000;0,266667;0,288889;0,288889;0,400000;0,366819;0,400000;0,733333;0,225000;0,266667;0,233333;0,400000;0,350000;0,000000;0,000000;0,000000;0,000000;0,000000;0,000000;0,000000;0,000000;0,288889;
40;;;;;;;;;;;;;;;;;;;;;;;;;;;;;;;;;;;;;;;;1,000000;0,767882;0,000000;0,288889;0,288889;0,273565;0,211863;0,211863;0,400000;0,233333;0,233333;0,233333;0,225000;0,384598;0,266667;0,384598;0,233333;0,233333;0,233333;0,400000;0,400000;0,233333;0,233333;0,233333;0,733333;0,000000;0,767645;0,000000;0,233333;0,233333;0,400000;0,200000;0,266667;0,288889;0,288889;0,400000;0,366819;0,400000;0,733333;0,225000;0,266667;0,233333;0,400000;0,350000;0,000000;0,000000;0,000000;0,000000;0,000000;0,000000;0,000000;0,000000;0,288889;
41;;;;;;;;;;;;;;;;;;;;;;;;;;;;;;;;;;;;;;;;;1,000000;0,000000;0,266667;0,266667;0,244139;0,207909;0,207909;0,350000;0,225000;0,225000;0,225000;0,216667;0,390373;0,244444;0,390373;0,225000;0,225000;0,225000;0,350000;0,350000;0,225000;0,225000;0,225000;0,600000;0,000000;0,800000;0,000000;0,225000;0,225000;0,400000;0,200000;0,244444;0,266667;0,266667;0,400000;0,377879;0,400000;0,600000;0,216667;0,244444;0,225000;0,350000;0,300000;0,000000;0,000000;0,000000;0,000000;0,000000;0,000000;0,000000;0,000000;0,266667;
42;;;;;;;;;;;;;;;;;;;;;;;;;;;;;;;;;;;;;;;;;;1,000000;0,000000;0,000000;0,000000;0,000000;0,000000;0,000000;0,000000;0,000000;0,000000;0,000000;0,000000;0,000000;0,000000;0,000000;0,000000;0,000000;0,000000;0,000000;0,000000;0,000000;0,000000;0,000000;0,000000;0,000000;0,375000;0,000000;0,000000;0,000000;0,000000;0,000000;0,000000;0,000000;0,000000;0,000000;0,000000;0,000000;0,000000;0,000000;0,000000;0,000000;0,000000;0,000000;0,000000;0,000000;0,000000;0,000000;0,000000;0,000000;0,000000;0,000000;
43;;;;;;;;;;;;;;;;;;;;;;;;;;;;;;;;;;;;;;;;;;;1,000000;0,666667;0,638899;0,296798;0,296798;0,416667;0,291667;0,291667;0,291667;0,305556;0,320294;0,333333;0,320294;0,291667;0,291667;0,291667;0,416667;0,416667;0,583333;0,583333;0,583333;0,666667;0,000000;0,266667;0,000000;0,291667;0,291667;0,266667;0,266667;0,333333;0,333333;0,333333;0,266667;0,296798;0,266667;0,666667;0,305556;0,333333;0,291667;0,416667;0,388889;0,000000;0,000000;0,000000;0,000000;0,000000;0,000000;0,000000;0,000000;0,333333;
44;;;;;;;;;;;;;;;;;;;;;;;;;;;;;;;;;;;;;;;;;;;;1,000000;0,638899;0,296798;0,296798;0,416667;0,291667;0,291667;0,291667;0,305556;0,320294;0,333333;0,320294;0,291667;0,291667;0,291667;0,416667;0,416667;0,583333;0,583333;0,583333;0,666667;0,000000;0,266667;0,000000;0,291667;0,291667;0,266667;0,266667;0,333333;0,333333;0,333333;0,266667;0,296798;0,266667;0,666667;0,305556;0,333333;0,291667;0,416667;0,388889;0,000000;0,000000;0,000000;0,000000;0,000000;0,000000;0,000000;0,000000;0,333333;
45;;;;;;;;;;;;;;;;;;;;;;;;;;;;;;;;;;;;;;;;;;;;;1,000000;0,289383;0,289383;0,484139;0,284139;0,284139;0,284139;0,306898;0,340969;0,362454;0,340969;0,284139;0,284139;0,284139;0,484139;0,484139;0,721850;0,721850;0,721850;0,884139;0,000000;0,244139;0,300000;0,284139;0,284139;0,244139;0,244139;0,362454;0,350806;0,350806;0,244139;0,289383;0,244139;0,884139;0,306898;0,362454;0,284139;0,484139;0,473565;0,000000;0,000000;0,000000;0,000000;0,000000;0,000000;0,000000;0,000000;0,350806;
46;;;;;;;;;;;;;;;;;;;;;;;;;;;;;;;;;;;;;;;;;;;;;;1,000000;0,777161;0,407909;0,241242;0,241242;0,241242;0,236863;0,246706;0,278530;0,246706;0,241242;0,241242;0,241242;0,407909;0,407909;0,241242;0,241242;0,241242;0,741242;0,000000;0,207909;0,241242;0,241242;0,241242;0,207909;0,831636;0,278530;0,296798;0,296798;0,207909;0,223727;0,207909;0,741242;0,236863;0,278530;0,241242;0,407909;0,361863;0,000000;0,000000;0,000000;0,000000;0,000000;0,000000;0,000000;0,000000;0,296798;
47;;;;;;;;;;;;;;;;;;;;;;;;;;;;;;;;;;;;;;;;;;;;;;;1,000000;0,407909;0,241242;0,241242;0,241242;0,236863;0,246706;0,278530;0,246706;0,241242;0,241242;0,241242;0,407909;0,407909;0,241242;0,241242;0,241242;0,741242;0,000000;0,207909;0,241242;0,241242;0,241242;0,207909;0,831636;0,278530;0,296798;0,296798;0,207909;0,223727;0,207909;0,741242;0,236863;0,278530;0,241242;0,407909;0,361863;0,000000;0,000000;0,000000;0,000000;0,000000;0,000000;0,000000;0,000000;0,296798;
48;;;;;;;;;;;;;;;;;;;;;;;;;;;;;;;;;;;;;;;;;;;;;;;;1,000000;0,375000;0,375000;0,375000;0,416667;0,445294;0,444444;0,445294;0,375000;0,375000;0,375000;0,500000;0,500000;0,375000;0,375000;0,375000;0,750000;0,000000;0,350000;0,000000;0,375000;0,375000;0,350000;0,350000;0,888889;0,833333;0,833333;0,350000;0,782567;0,350000;0,750000;0,416667;0,863023;0,750000;1,000000;1,000000;0,000000;0,000000;0,000000;0,000000;0,000000;0,000000;0,000000;0,000000;0,833333;
49;;;;;;;;;;;;;;;;;;;;;;;;;;;;;;;;;;;;;;;;;;;;;;;;;1,000000;0,750000;0,750000;0,676939;0,257794;0,277778;0,257794;0,500000;0,500000;0,500000;0,375000;0,375000;0,250000;0,250000;0,250000;0,625000;0,000000;0,225000;0,000000;0,250000;0,250000;0,225000;0,225000;0,277778;0,291667;0,291667;0,225000;0,241242;0,225000;0,625000;0,250000;0,277778;0,250000;0,375000;0,333333;0,000000;0,000000;0,000000;0,000000;0,000000;0,000000;0,000000;0,000000;0,291667;
50;;;;;;;;;;;;;;;;;;;;;;;;;;;;;;;;;;;;;;;;;;;;;;;;;;1,000000;0,750000;0,676939;0,257794;0,277778;0,257794;0,500000;0,500000;0,500000;0,375000;0,375000;0,250000;0,250000;0,250000;0,625000;0,000000;0,225000;0,000000;0,250000;0,250000;0,225000;0,225000;0,277778;0,291667;0,291667;0,225000;0,241242;0,225000;0,625000;0,250000;0,277778;0,250000;0,375000;0,333333;0,000000;0,000000;0,000000;0,000000;0,000000;0,000000;0,000000;0,000000;0,291667;
51;;;;;;;;;;;;;;;;;;;;;;;;;;;;;;;;;;;;;;;;;;;;;;;;;;;1,000000;0,676939;0,257794;0,277778;0,257794;0,500000;0,500000;0,500000;0,375000;0,375000;0,250000;0,250000;0,250000;0,625000;0,000000;0,225000;0,000000;0,250000;0,250000;0,225000;0,225000;0,277778;0,291667;0,291667;0,225000;0,241242;0,225000;0,625000;0,250000;0,277778;0,250000;0,375000;0,333333;0,000000;0,000000;0,000000;0,000000;0,000000;0,000000;0,000000;0,000000;0,291667;
52;;;;;;;;;;;;;;;;;;;;;;;;;;;;;;;;;;;;;;;;;;;;;;;;;;;;1,000000;0,262470;0,291667;0,262470;0,676939;0,676939;0,676939;0,416667;0,416667;0,250000;0,250000;0,250000;0,750000;0,000000;0,216667;0,000000;0,250000;0,250000;0,216667;0,216667;0,291667;0,305556;0,305556;0,216667;0,236863;0,216667;0,750000;0,250000;0,291667;0,250000;0,416667;0,375000;0,000000;0,000000;0,000000;0,000000;0,000000;0,000000;0,000000;0,000000;0,305556;
53;;;;;;;;;;;;;;;;;;;;;;;;;;;;;;;;;;;;;;;;;;;;;;;;;;;;;1,000000;0,624940;0,723259;0,257794;0,257794;0,257794;0,445294;0,445294;0,257794;0,257794;0,257794;0,820294;0,000000;0,390373;0,000000;0,257794;0,257794;0,780787;0,220294;0,312470;0,320294;0,320294;0,562842;0,451886;0,562842;0,820294;0,262470;0,312470;0,257794;0,445294;0,412470;0,000000;0,000000;0,000000;0,000000;0,000000;0,000000;0,000000;0,000000;0,320294;
54;;;;;;;;;;;;;;;;;;;;;;;;;;;;;;;;;;;;;;;;;;;;;;;;;;;;;;1,000000;0,624940;0,277778;0,277778;0,277778;0,444444;0,444444;0,277778;0,277778;0,277778;0,777778;0,000000;0,244444;0,000000;0,277778;0,277778;0,733333;0,244444;0,333333;0,333333;0,333333;0,244444;0,278530;0,244444;0,777778;0,291667;0,333333;0,277778;0,444444;0,416667;0,000000;0,000000;0,000000;0,000000;0,000000;0,000000;0,000000;0,000000;0,333333;
55;;;;;;;;;;;;;;;;;;;;;;;;;;;;;;;;;;;;;;;;;;;;;;;;;;;;;;;1,000000;0,257794;0,257794;0,257794;0,445294;0,445294;0,257794;0,257794;0,257794;0,820294;0,000000;0,390373;0,000000;0,257794;0,257794;0,780787;0,220294;0,312470;0,320294;0,320294;0,562842;0,451886;0,562842;0,820294;0,262470;0,312470;0,257794;0,445294;0,412470;0,000000;0,000000;0,000000;0,000000;0,000000;0,000000;0,000000;0,000000;0,320294;
56;;;;;;;;;;;;;;;;;;;;;;;;;;;;;;;;;;;;;;;;;;;;;;;;;;;;;;;;1,000000;0,750000;0,750000;0,375000;0,375000;0,250000;0,250000;0,250000;0,625000;0,000000;0,225000;0,000000;0,250000;0,250000;0,225000;0,225000;0,277778;0,291667;0,291667;0,225000;0,241242;0,225000;0,625000;0,250000;0,277778;0,250000;0,375000;0,333333;0,000000;0,000000;0,000000;0,000000;0,000000;0,000000;0,000000;0,000000;0,291667;
57;;;;;;;;;;;;;;;;;;;;;;;;;;;;;;;;;;;;;;;;;;;;;;;;;;;;;;;;;1,000000;0,750000;0,375000;0,375000;0,250000;0,250000;0,250000;0,625000;0,000000;0,225000;0,000000;0,250000;0,250000;0,225000;0,225000;0,277778;0,291667;0,291667;0,225000;0,241242;0,225000;0,625000;0,250000;0,277778;0,250000;0,375000;0,333333;0,000000;0,000000;0,000000;0,000000;0,000000;0,000000;0,000000;0,000000;0,291667;
58;;;;;;;;;;;;;;;;;;;;;;;;;;;;;;;;;;;;;;;;;;;;;;;;;;;;;;;;;;1,000000;0,375000;0,375000;0,250000;0,250000;0,250000;0,625000;0,000000;0,225000;0,000000;0,250000;0,250000;0,225000;0,225000;0,277778;0,291667;0,291667;0,225000;0,241242;0,225000;0,625000;0,250000;0,277778;0,250000;0,375000;0,333333;0,000000;0,000000;0,000000;0,000000;0,000000;0,000000;0,000000;0,000000;0,291667;
59;;;;;;;;;;;;;;;;;;;;;;;;;;;;;;;;;;;;;;;;;;;;;;;;;;;;;;;;;;;1,000000;0,500000;0,375000;0,375000;0,375000;0,750000;0,000000;0,350000;0,000000;0,375000;0,375000;0,350000;0,350000;0,444444;0,416667;0,416667;0,350000;0,407909;0,350000;0,750000;0,416667;0,444444;0,375000;0,500000;0,500000;0,000000;0,000000;0,000000;0,000000;0,000000;0,000000;0,000000;0,000000;0,416667;
60;;;;;;;;;;;;;;;;;;;;;;;;;;;;;;;;;;;;;;;;;;;;;;;;;;;;;;;;;;;;1,000000;0,375000;0,375000;0,375000;0,750000;0,000000;0,350000;0,000000;0,375000;0,375000;0,350000;0,350000;0,444444;0,416667;0,416667;0,350000;0,407909;0,350000;0,750000;0,416667;0,444444;0,375000;0,500000;0,500000;0,000000;0,000000;0,000000;0,000000;0,000000;0,000000;0,000000;0,000000;0,416667;
61;;;;;;;;;;;;;;;;;;;;;;;;;;;;;;;;;;;;;;;;;;;;;;;;;;;;;;;;;;;;;1,000000;0,750000;0,750000;0,625000;0,000000;0,225000;0,000000;0,250000;0,250000;0,225000;0,225000;0,277778;0,291667;0,291667;0,225000;0,241242;0,225000;0,625000;0,250000;0,277778;0,250000;0,375000;0,333333;0,000000;0,000000;0,000000;0,000000;0,000000;0,000000;0,000000;0,000000;0,291667;
62;;;;;;;;;;;;;;;;;;;;;;;;;;;;;;;;;;;;;;;;;;;;;;;;;;;;;;;;;;;;;;1,000000;0,750000;0,625000;0,000000;0,225000;0,000000;0,250000;0,250000;0,225000;0,225000;0,277778;0,291667;0,291667;0,225000;0,241242;0,225000;0,625000;0,250000;0,277778;0,250000;0,375000;0,333333;0,000000;0,000000;0,000000;0,000000;0,000000;0,000000;0,000000;0,000000;0,291667;
63;;;;;;;;;;;;;;;;;;;;;;;;;;;;;;;;;;;;;;;;;;;;;;;;;;;;;;;;;;;;;;;1,000000;0,625000;0,000000;0,225000;0,000000;0,250000;0,250000;0,225000;0,225000;0,277778;0,291667;0,291667;0,225000;0,241242;0,225000;0,625000;0,250000;0,277778;0,250000;0,375000;0,333333;0,000000;0,000000;0,000000;0,000000;0,000000;0,000000;0,000000;0,000000;0,291667;
64;;;;;;;;;;;;;;;;;;;;;;;;;;;;;;;;;;;;;;;;;;;;;;;;;;;;;;;;;;;;;;;;1,000000;0,000000;0,600000;0,000000;0,625000;0,625000;0,600000;0,600000;0,777778;0,666667;0,666667;0,600000;0,741242;0,600000;1,000000;0,750000;0,777778;0,625000;0,750000;0,833333;0,000000;0,000000;0,000000;0,000000;0,000000;0,000000;0,000000;0,000000;0,666667;
65;;;;;;;;;;;;;;;;;;;;;;;;;;;;;;;;;;;;;;;;;;;;;;;;;;;;;;;;;;;;;;;;;1,000000;0,000000;0,000000;0,000000;0,000000;0,000000;0,000000;0,000000;0,000000;0,000000;0,000000;0,000000;0,000000;0,000000;0,416667;0,500000;0,000000;0,000000;0,000000;0,000000;0,000000;0,500000;0,500000;0,000000;0,000000;0,000000;0,000000;0,000000;
66;;;;;;;;;;;;;;;;;;;;;;;;;;;;;;;;;;;;;;;;;;;;;;;;;;;;;;;;;;;;;;;;;;1,000000;0,000000;0,225000;0,225000;0,400000;0,200000;0,244444;0,266667;0,266667;0,400000;0,377879;0,400000;0,600000;0,216667;0,244444;0,225000;0,350000;0,300000;0,000000;0,000000;0,000000;0,000000;0,000000;0,000000;0,000000;0,000000;0,266667;
67;;;;;;;;;;;;;;;;;;;;;;;;;;;;;;;;;;;;;;;;;;;;;;;;;;;;;;;;;;;;;;;;;;;1,000000;0,000000;0,000000;0,000000;0,225000;0,000000;0,000000;0,000000;0,000000;0,000000;0,000000;0,000000;0,000000;0,000000;0,000000;0,000000;0,000000;0,000000;0,000000;0,000000;0,000000;0,000000;0,000000;0,000000;0,000000;0,000000;
68;;;;;;;;;;;;;;;;;;;;;;;;;;;;;;;;;;;;;;;;;;;;;;;;;;;;;;;;;;;;;;;;;;;;1,000000;0,750000;0,225000;0,225000;0,277778;0,291667;0,291667;0,225000;0,241242;0,225000;0,625000;0,500000;0,277778;0,250000;0,375000;0,333333;0,000000;0,000000;0,000000;0,000000;0,000000;0,000000;0,000000;0,000000;0,291667;
69;;;;;;;;;;;;;;;;;;;;;;;;;;;;;;;;;;;;;;;;;;;;;;;;;;;;;;;;;;;;;;;;;;;;;1,000000;0,225000;0,225000;0,277778;0,291667;0,291667;0,225000;0,241242;0,225000;0,625000;0,500000;0,277778;0,250000;0,375000;0,333333;0,000000;0,000000;0,000000;0,000000;0,000000;0,000000;0,000000;0,000000;0,291667;
70;;;;;;;;;;;;;;;;;;;;;;;;;;;;;;;;;;;;;;;;;;;;;;;;;;;;;;;;;;;;;;;;;;;;;;1,000000;0,200000;0,244444;0,266667;0,266667;0,600000;0,550744;0,600000;0,600000;0,216667;0,244444;0,225000;0,350000;0,300000;0,000000;0,000000;0,000000;0,000000;0,000000;0,000000;0,000000;0,000000;0,266667;
71;;;;;;;;;;;;;;;;;;;;;;;;;;;;;;;;;;;;;;;;;;;;;;;;;;;;;;;;;;;;;;;;;;;;;;;1,000000;0,244444;0,266667;0,266667;0,200000;0,207909;0,200000;0,600000;0,216667;0,244444;0,225000;0,350000;0,300000;0,000000;0,000000;0,000000;0,000000;0,000000;0,000000;0,000000;0,000000;0,266667;
72;;;;;;;;;;;;;;;;;;;;;;;;;;;;;;;;;;;;;;;;;;;;;;;;;;;;;;;;;;;;;;;;;;;;;;;;1,000000;0,666667;0,666667;0,244444;0,507184;0,244444;0,777778;0,291667;0,627868;0,555556;0,888889;0,833333;0,000000;0,000000;0,000000;0,000000;0,000000;0,000000;0,000000;0,000000;0,666667;
73;;;;;;;;;;;;;;;;;;;;;;;;;;;;;;;;;;;;;;;;;;;;;;;;;;;;;;;;;;;;;;;;;;;;;;;;;1,000000;1,000000;0,266667;0,560345;0,266667;0,666667;0,305556;0,640801;0,583333;0,833333;0,777778;0,000000;0,000000;0,000000;0,000000;0,000000;0,000000;0,000000;0,000000;0,666667;
74;;;;;;;;;;;;;;;;;;;;;;;;;;;;;;;;;;;;;;;;;;;;;;;;;;;;;;;;;;;;;;;;;;;;;;;;;;1,000000;0,266667;0,560345;0,266667;0,666667;0,305556;0,640801;0,583333;0,833333;0,777778;0,000000;0,000000;0,000000;0,000000;0,000000;0,000000;0,000000;0,000000;0,666667;
75;;;;;;;;;;;;;;;;;;;;;;;;;;;;;;;;;;;;;;;;;;;;;;;;;;;;;;;;;;;;;;;;;;;;;;;;;;;1,000000;0,725812;0,800000;0,600000;0,216667;0,244444;0,450000;0,350000;0,300000;0,000000;0,000000;0,000000;0,000000;0,000000;0,000000;0,000000;0,000000;0,266667;
76;;;;;;;;;;;;;;;;;;;;;;;;;;;;;;;;;;;;;;;;;;;;;;;;;;;;;;;;;;;;;;;;;;;;;;;;;;;;1,000000;0,725812;0,741242;0,236863;0,468386;0,660872;0,782567;0,673851;0,000000;0,000000;0,000000;0,000000;0,000000;0,000000;0,000000;0,000000;0,560345;
77;;;;;;;;;;;;;;;;;;;;;;;;;;;;;;;;;;;;;;;;;;;;;;;;;;;;;;;;;;;;;;;;;;;;;;;;;;;;;1,000000;0,600000;0,216667;0,244444;0,450000;0,350000;0,300000;0,000000;0,000000;0,000000;0,000000;0,000000;0,000000;0,000000;0,000000;0,266667;
78;;;;;;;;;;;;;;;;;;;;;;;;;;;;;;;;;;;;;;;;;;;;;;;;;;;;;;;;;;;;;;;;;;;;;;;;;;;;;;1,000000;0,750000;0,777778;0,625000;0,750000;0,833333;0,000000;0,000000;0,000000;0,000000;0,000000;0,000000;0,000000;0,000000;0,666667;
79;;;;;;;;;;;;;;;;;;;;;;;;;;;;;;;;;;;;;;;;;;;;;;;;;;;;;;;;;;;;;;;;;;;;;;;;;;;;;;;1,000000;0,291667;0,250000;0,416667;0,375000;0,000000;0,000000;0,000000;0,000000;0,000000;0,000000;0,000000;0,000000;0,305556;
80;;;;;;;;;;;;;;;;;;;;;;;;;;;;;;;;;;;;;;;;;;;;;;;;;;;;;;;;;;;;;;;;;;;;;;;;;;;;;;;;1,000000;0,529690;0,863023;0,794535;0,000000;0,000000;0,500000;0,500000;0,000000;0,000000;0,000000;0,000000;0,640801;
81;;;;;;;;;;;;;;;;;;;;;;;;;;;;;;;;;;;;;;;;;;;;;;;;;;;;;;;;;;;;;;;;;;;;;;;;;;;;;;;;;1,000000;0,750000;0,666667;0,000000;0,000000;0,000000;0,000000;0,000000;0,000000;0,000000;0,000000;0,583333;
82;;;;;;;;;;;;;;;;;;;;;;;;;;;;;;;;;;;;;;;;;;;;;;;;;;;;;;;;;;;;;;;;;;;;;;;;;;;;;;;;;;1,000000;1,000000;0,000000;0,000000;0,000000;0,000000;0,000000;0,000000;0,000000;0,000000;0,833333;
83;;;;;;;;;;;;;;;;;;;;;;;;;;;;;;;;;;;;;;;;;;;;;;;;;;;;;;;;;;;;;;;;;;;;;;;;;;;;;;;;;;;1,000000;0,000000;0,000000;0,000000;0,000000;0,000000;0,000000;0,000000;0,000000;0,777778;
84;;;;;;;;;;;;;;;;;;;;;;;;;;;;;;;;;;;;;;;;;;;;;;;;;;;;;;;;;;;;;;;;;;;;;;;;;;;;;;;;;;;;1,000000;0,000000;0,000000;0,000000;0,000000;0,000000;0,000000;0,000000;0,000000;
85;;;;;;;;;;;;;;;;;;;;;;;;;;;;;;;;;;;;;;;;;;;;;;;;;;;;;;;;;;;;;;;;;;;;;;;;;;;;;;;;;;;;;1,000000;0,000000;0,000000;0,000000;0,000000;0,000000;0,000000;0,000000;
86;;;;;;;;;;;;;;;;;;;;;;;;;;;;;;;;;;;;;;;;;;;;;;;;;;;;;;;;;;;;;;;;;;;;;;;;;;;;;;;;;;;;;;1,000000;0,500000;0,000000;0,000000;0,000000;0,000000;0,000000;
87;;;;;;;;;;;;;;;;;;;;;;;;;;;;;;;;;;;;;;;;;;;;;;;;;;;;;;;;;;;;;;;;;;;;;;;;;;;;;;;;;;;;;;;1,000000;0,000000;0,000000;0,000000;0,000000;0,000000;
88;;;;;;;;;;;;;;;;;;;;;;;;;;;;;;;;;;;;;;;;;;;;;;;;;;;;;;;;;;;;;;;;;;;;;;;;;;;;;;;;;;;;;;;;1,000000;0,666667;0,666667;0,666667;0,000000;
89;;;;;;;;;;;;;;;;;;;;;;;;;;;;;;;;;;;;;;;;;;;;;;;;;;;;;;;;;;;;;;;;;;;;;;;;;;;;;;;;;;;;;;;;;1,000000;0,666667;0,666667;0,000000;
90;;;;;;;;;;;;;;;;;;;;;;;;;;;;;;;;;;;;;;;;;;;;;;;;;;;;;;;;;;;;;;;;;;;;;;;;;;;;;;;;;;;;;;;;;;1,000000;0,666667;0,000000;
91;;;;;;;;;;;;;;;;;;;;;;;;;;;;;;;;;;;;;;;;;;;;;;;;;;;;;;;;;;;;;;;;;;;;;;;;;;;;;;;;;;;;;;;;;;;1,000000;0,000000;
92;;;;;;;;;;;;;;;;;;;;;;;;;;;;;;;;;;;;;;;;;;;;;;;;;;;;;;;;;;;;;;;;;;;;;;;;;;;;;;;;;;;;;;;;;;;;1,000000;
