;1; 2; 3; 4; 5; 6; 7; 8; 9; 10; 11; 12; 13; 14; 15; 16; 17; 18; 19; 20; 21; 22; 23; 24; 25; 26; 27; 28; 29; 30; 31; 32; 33; 34; 35; 36; 37; 38; 39; 40; 41; 42; 43; 44; 45; 46; 47; 48; 49; 50; 51; 52; 53; 54; 55; 56; 57; 58
1;1,000000;0,703306;0,728789;0,680702;0,750294;0,753318;0,723598;0,692603;0,538876;0,000000;0,000000;0,000000;0,660888;0,000000;0,000000;0,000000;0,000000;0,000000;0,000000;0,737131;0,000000;0,331173;0,331173;0,000000;0,000000;0,000000;0,000000;0,491667;0,463710;0,493534;0,652651;0,000000;0,380712;0,380712;0,476724;0,750294;0,000000;0,254884;0,000000;0,000000;0,000000;0,000000;0,000000;0,000000;0,000000;0,000000;0,666667;0,666667;0,666667;0,743219;0,000000;0,000000;0,000000;0,500000;0,500000;0,000000;0,000000;0,000000;
2;;1,000000;0,728990;0,688542;0,752605;0,757105;0,576413;0,723449;0,679400;0,340257;0,340257;0,340257;0,661077;0,495302;0,495302;0,495302;0,495302;0,495302;0,491051;0,982606;0,491051;0,647236;0,647236;0,430228;0,383398;0,340257;0,919005;0,968784;0,739969;0,633076;0,983027;0,970302;0,604449;0,604449;0,901553;0,752605;0,943432;0,478332;0,495302;0,495302;0,495302;0,495302;0,495302;0,495302;0,495302;0,970302;0,331298;0,331298;0,331298;0,743109;0,641845;0,970302;0,970302;0,489632;0,489632;0,336968;0,336968;0,495302;
3;;;1,000000;0,718939;0,750415;0,754473;0,562234;0,708008;0,667519;0,333333;0,333333;0,333333;0,988510;0,492063;0,492063;0,492063;0,492063;0,492063;0,484848;0,734073;0,484848;0,647196;0,647196;0,413745;0,373760;0,333333;0,913043;0,969759;0,740777;0,629888;0,764113;0,968254;0,601501;0,601501;0,903189;0,750415;0,939394;0,473511;0,492063;0,492063;0,492063;0,492063;0,492063;0,492063;0,492063;0,968254;0,330692;0,330692;0,330692;0,741583;0,636364;0,968254;0,968254;0,489423;0,489423;0,333333;0,333333;0,492063;
4;;;;1,000000;0,750319;0,753404;0,596894;0,690078;0,736717;0,332167;0,332167;0,332167;0,660866;0,492984;0,492984;0,492984;0,492984;0,492984;0,486488;0,737090;0,486488;0,651515;0,651515;0,414588;0,373156;0,332167;0,926884;0,975587;0,763390;0,646572;0,652392;0,973753;0,731064;0,731064;0,922076;0,750319;0,949451;0,623057;0,492984;0,492984;0,976669;0,492984;0,976669;0,492984;0,492984;0,973753;0,331944;0,331944;0,331944;0,993057;0,640809;0,973753;0,973753;0,492201;0,492201;0,332728;0,332728;0,492984;
5;;;;;1,000000;0,958517;0,746090;0,990495;0,936379;0,000000;0,000000;0,000000;0,875000;0,000000;0,000000;0,000000;0,000000;0,000000;0,000000;0,750000;0,000000;0,000000;0,000000;0,000000;0,000000;0,000000;0,000000;0,375000;0,000000;0,000000;0,787656;0,000000;0,250000;0,250000;0,000000;1,000000;0,000000;0,250000;0,000000;0,000000;0,000000;0,000000;0,000000;0,000000;0,000000;0,000000;0,291667;0,291667;0,291667;0,750000;0,000000;0,000000;0,000000;0,375000;0,375000;0,000000;0,000000;0,000000;
6;;;;;;1,000000;0,583967;0,842542;0,768850;0,000000;0,000000;0,000000;0,896152;0,000000;0,000000;0,000000;0,000000;0,000000;0,000000;0,750000;0,000000;0,000000;0,000000;0,000000;0,000000;0,000000;0,000000;0,437500;0,000000;0,000000;0,825311;0,000000;0,250000;0,250000;0,000000;0,958517;0,000000;0,250000;0,000000;0,000000;0,000000;0,000000;0,000000;0,000000;0,000000;0,000000;0,312500;0,312500;0,312500;0,708552;0,000000;0,000000;0,000000;0,437500;0,437500;0,000000;0,000000;0,000000;
7;;;;;;;1,000000;0,612540;0,655963;0,666667;0,666667;0,666667;0,662746;0,500000;0,500000;0,500000;0,500000;0,500000;0,500000;0,495490;0,503247;0,663899;0,663899;0,605721;0,622836;0,666309;0,000000;0,499053;0,497841;0,502327;0,643454;0,000000;0,741409;0,741409;0,497287;0,746090;0,000000;0,537786;0,500000;0,500000;0,497508;0,500000;0,497508;0,500000;0,500000;0,000000;0,000000;0,000000;0,000000;0,744095;0,500000;0,000000;0,000000;0,000000;0,000000;0,663116;0,663116;0,498555;
8;;;;;;;;1,000000;0,738407;0,351328;0,351328;0,351328;0,973131;0,496869;0,496869;0,496869;0,496869;0,496869;0,494185;0,741105;0,494185;0,657381;0,657381;0,445012;0,395719;0,351328;0,891860;0,482692;0,639289;0,659325;0,858046;0,958408;0,475763;0,475763;0,491860;0,990495;0,922757;0,466069;0,496869;0,496869;0,496869;0,496869;0,496869;0,496869;0,496869;0,958408;0,328846;0,328846;0,328846;0,745293;0,637043;0,958408;0,958408;0,482692;0,482692;0,343023;0,343023;0,496869;
9;;;;;;;;;1,000000;0,338889;0,338889;0,338889;0,914438;0,470000;0,470000;0,470000;0,470000;0,470000;0,450000;0,690635;0,450000;0,336667;0,336667;0,385147;0,367042;0,338889;0,721429;0,487500;0,704736;0,435714;0,759744;0,870000;0,667362;0,667362;0,435714;0,936379;0,783333;0,685319;0,470000;0,470000;0,470000;0,915539;0,470000;0,470000;0,470000;0,870000;0,354167;0,354167;0,354167;0,762062;0,561111;0,870000;0,870000;0,487500;0,487500;0,336667;0,336667;0,470000;
10;;;;;;;;;;1,000000;0,666667;0,666667;0,000000;0,444444;0,444444;0,444444;0,444444;0,444444;0,416667;0,000000;0,416667;0,333333;0,333333;0,359467;0,351930;0,333333;0,600000;0,000000;0,442177;0,400000;0,000000;0,777778;0,291667;0,291667;0,400000;0,000000;0,666667;0,357143;0,444444;0,444444;0,444444;0,444444;0,444444;0,444444;0,444444;0,777778;0,000000;0,000000;0,000000;0,000000;0,500000;0,777778;0,777778;0,000000;0,000000;0,333333;0,333333;0,444444;
11;;;;;;;;;;;1,000000;0,666667;0,000000;0,444444;0,444444;0,444444;0,444444;0,444444;0,416667;0,000000;0,416667;0,333333;0,333333;0,359467;0,351930;0,333333;0,600000;0,000000;0,442177;0,400000;0,000000;0,777778;0,291667;0,291667;0,400000;0,000000;0,666667;0,357143;0,444444;0,444444;0,444444;0,444444;0,444444;0,444444;0,444444;0,777778;0,000000;0,000000;0,000000;0,000000;0,500000;0,777778;0,777778;0,000000;0,000000;0,333333;0,333333;0,444444;
12;;;;;;;;;;;;1,000000;0,000000;0,444444;0,444444;0,444444;0,444444;0,444444;0,416667;0,000000;0,416667;0,333333;0,333333;0,359467;0,351930;0,333333;0,600000;0,000000;0,442177;0,400000;0,000000;0,777778;0,291667;0,291667;0,400000;0,000000;0,666667;0,357143;0,444444;0,444444;0,444444;0,444444;0,444444;0,444444;0,444444;0,777778;0,000000;0,000000;0,000000;0,000000;0,500000;0,777778;0,777778;0,000000;0,000000;0,333333;0,333333;0,444444;
13;;;;;;;;;;;;;1,000000;0,000000;0,000000;0,000000;0,000000;0,000000;0,000000;0,611111;0,000000;0,000000;0,000000;0,000000;0,000000;0,000000;0,000000;0,416667;0,000000;0,000000;0,672160;0,000000;0,305556;0,305556;0,000000;0,875000;0,000000;0,312500;0,000000;0,000000;0,000000;0,000000;0,000000;0,000000;0,000000;0,000000;0,333333;0,333333;0,333333;0,583333;0,000000;0,000000;0,000000;0,416667;0,416667;0,000000;0,000000;0,000000;
14;;;;;;;;;;;;;;1,000000;0,500000;0,500000;0,500000;0,500000;0,500000;0,000000;0,500000;0,416667;0,416667;0,491124;0,469956;0,444444;0,625000;0,000000;0,535714;0,500000;0,000000;0,750000;0,416667;0,416667;0,500000;0,000000;0,666667;0,473214;0,500000;0,500000;0,500000;0,500000;0,500000;0,500000;0,500000;0,750000;0,000000;0,000000;0,000000;0,000000;0,555556;0,750000;0,750000;0,000000;0,000000;0,416667;0,416667;0,500000;
15;;;;;;;;;;;;;;;1,000000;0,500000;0,500000;0,500000;0,500000;0,000000;0,500000;0,416667;0,416667;0,491124;0,469956;0,444444;0,625000;0,000000;0,535714;0,500000;0,000000;0,750000;0,416667;0,416667;0,500000;0,000000;0,666667;0,473214;0,500000;0,500000;0,500000;0,500000;0,500000;0,500000;0,500000;0,750000;0,000000;0,000000;0,000000;0,000000;0,555556;0,750000;0,750000;0,000000;0,000000;0,416667;0,416667;0,500000;
16;;;;;;;;;;;;;;;;1,000000;0,500000;0,500000;0,500000;0,000000;0,500000;0,416667;0,416667;0,491124;0,469956;0,444444;0,625000;0,000000;0,535714;0,500000;0,000000;0,750000;0,416667;0,416667;0,500000;0,000000;0,666667;0,473214;0,500000;0,500000;0,500000;0,500000;0,500000;0,500000;0,500000;0,750000;0,000000;0,000000;0,000000;0,000000;0,555556;0,750000;0,750000;0,000000;0,000000;0,416667;0,416667;0,500000;
17;;;;;;;;;;;;;;;;;1,000000;0,500000;0,500000;0,000000;0,500000;0,416667;0,416667;0,491124;0,469956;0,444444;0,625000;0,000000;0,535714;0,500000;0,000000;0,750000;0,416667;0,416667;0,500000;0,000000;0,666667;0,473214;0,500000;0,500000;0,500000;0,500000;0,500000;0,500000;0,500000;0,750000;0,000000;0,000000;0,000000;0,000000;0,555556;0,750000;0,750000;0,000000;0,000000;0,416667;0,416667;0,500000;
18;;;;;;;;;;;;;;;;;;1,000000;0,500000;0,000000;0,923226;0,416667;0,416667;0,491124;0,469956;0,444444;0,625000;0,000000;0,535714;0,500000;0,000000;0,750000;0,416667;0,416667;0,500000;0,000000;0,666667;0,473214;0,500000;0,500000;0,500000;0,500000;0,500000;0,500000;0,500000;0,750000;0,000000;0,000000;0,000000;0,000000;0,555556;0,750000;0,750000;0,000000;0,000000;0,416667;0,416667;0,500000;
19;;;;;;;;;;;;;;;;;;;1,000000;0,000000;0,500000;0,388889;0,388889;0,484467;0,451930;0,416667;0,700000;0,000000;0,561224;0,500000;0,000000;0,833333;0,375000;0,375000;0,500000;0,000000;0,750000;0,457143;0,500000;0,500000;0,500000;0,500000;0,500000;0,500000;0,500000;0,833333;0,000000;0,000000;0,000000;0,000000;0,884839;0,833333;0,833333;0,000000;0,000000;0,388889;0,388889;0,500000;
20;;;;;;;;;;;;;;;;;;;;1,000000;0,000000;0,000000;0,000000;0,000000;0,000000;0,000000;0,000000;0,416667;0,000000;0,000000;0,810249;0,000000;0,250000;0,250000;0,000000;0,750000;0,000000;0,250000;0,000000;0,000000;0,000000;0,000000;0,000000;0,000000;0,000000;0,000000;0,305556;0,305556;0,305556;0,500000;0,000000;0,000000;0,000000;0,416667;0,416667;0,000000;0,000000;0,000000;
21;;;;;;;;;;;;;;;;;;;;;1,000000;0,388889;0,388889;0,484467;0,451930;0,416667;0,700000;0,000000;0,561224;0,500000;0,000000;0,833333;0,375000;0,375000;0,500000;0,000000;0,750000;0,457143;0,500000;0,500000;0,500000;0,500000;0,500000;0,500000;0,500000;0,833333;0,000000;0,000000;0,000000;0,000000;0,583333;0,833333;0,833333;0,000000;0,000000;0,388889;0,388889;0,500000;
22;;;;;;;;;;;;;;;;;;;;;;1,000000;0,666667;0,348267;0,344956;0,333333;0,500000;0,416667;0,699143;0,375000;0,312500;0,666667;0,305556;0,305556;0,750000;0,000000;0,555556;0,348214;0,416667;0,416667;0,416667;0,416667;0,416667;0,416667;0,416667;0,666667;0,000000;0,000000;0,000000;0,291667;0,444444;0,666667;0,666667;0,000000;0,000000;0,333333;0,333333;0,416667;
23;;;;;;;;;;;;;;;;;;;;;;;1,000000;0,348267;0,344956;0,333333;0,500000;0,416667;0,699143;0,375000;0,312500;0,666667;0,305556;0,305556;0,750000;0,000000;0,555556;0,348214;0,416667;0,416667;0,416667;0,416667;0,416667;0,416667;0,416667;0,666667;0,000000;0,000000;0,000000;0,291667;0,444444;0,666667;0,666667;0,000000;0,000000;0,333333;0,333333;0,416667;
24;;;;;;;;;;;;;;;;;;;;;;;;1,000000;0,609866;0,665129;0,812623;0,000000;0,588641;0,479289;0,000000;0,919695;0,296967;0,296967;0,479289;0,000000;0,859467;0,407861;0,491124;0,491124;0,491124;0,491124;0,491124;0,491124;0,491124;0,919695;0,000000;0,000000;0,000000;0,000000;0,609467;0,919695;0,919695;0,000000;0,000000;0,644434;0,644434;0,491124;
25;;;;;;;;;;;;;;;;;;;;;;;;;1,000000;0,703859;0,689912;0,000000;0,505247;0,439912;0,000000;0,844956;0,301930;0,301930;0,439912;0,000000;0,751930;0,386340;0,469956;0,469956;0,469956;0,469956;0,469956;0,469956;0,469956;0,844956;0,000000;0,000000;0,000000;0,000000;0,551930;0,844956;0,844956;0,000000;0,000000;0,689912;0,689912;0,939912;
26;;;;;;;;;;;;;;;;;;;;;;;;;;1,000000;0,600000;0,000000;0,442177;0,400000;0,000000;0,777778;0,291667;0,291667;0,400000;0,000000;0,666667;0,357143;0,444444;0,444444;0,444444;0,444444;0,444444;0,444444;0,444444;0,777778;0,000000;0,000000;0,000000;0,000000;0,500000;0,777778;0,777778;0,000000;0,000000;0,666667;0,666667;0,888889;
27;;;;;;;;;;;;;;;;;;;;;;;;;;;1,000000;0,000000;0,892857;0,750000;0,000000;1,000000;0,550000;0,550000;0,750000;0,000000;1,000000;0,696429;0,625000;0,625000;0,625000;0,625000;0,625000;0,625000;0,625000;1,000000;0,000000;0,000000;0,000000;0,000000;0,800000;1,000000;1,000000;0,000000;0,000000;0,500000;0,500000;0,625000;
28;;;;;;;;;;;;;;;;;;;;;;;;;;;;1,000000;0,500000;0,000000;0,861268;0,000000;0,000000;0,000000;0,500000;0,375000;0,000000;0,000000;0,000000;0,000000;0,000000;0,000000;0,000000;0,000000;0,000000;0,000000;0,416667;0,416667;0,416667;0,750000;0,000000;0,000000;0,000000;0,500000;0,500000;0,000000;0,000000;0,000000;
29;;;;;;;;;;;;;;;;;;;;;;;;;;;;;1,000000;0,580357;0,343750;0,952381;0,382653;0,382653;0,948072;0,000000;0,918367;0,513393;0,535714;0,535714;0,535714;0,977256;0,535714;0,535714;0,535714;0,952381;0,000000;0,000000;0,000000;0,291667;0,680272;0,952381;0,952381;0,000000;0,000000;0,396825;0,396825;0,535714;
30;;;;;;;;;;;;;;;;;;;;;;;;;;;;;;1,000000;0,000000;0,875000;0,503777;0,503777;0,500000;0,000000;0,800000;0,446429;0,500000;0,500000;0,500000;0,500000;0,500000;0,500000;0,500000;0,875000;0,000000;0,000000;0,000000;0,000000;0,600000;0,875000;0,875000;0,000000;0,000000;0,375000;0,375000;0,500000;
31;;;;;;;;;;;;;;;;;;;;;;;;;;;;;;;1,000000;0,000000;0,287728;0,287728;0,375000;0,787656;0,000000;0,297160;0,000000;0,000000;0,000000;0,000000;0,000000;0,000000;0,000000;0,000000;0,336080;0,336080;0,336080;0,727174;0,000000;0,000000;0,000000;0,461080;0,461080;0,000000;0,000000;0,000000;
32;;;;;;;;;;;;;;;;;;;;;;;;;;;;;;;;1,000000;0,750000;0,750000;0,875000;0,000000;1,000000;0,848214;0,750000;0,750000;0,750000;0,750000;0,750000;0,750000;0,750000;1,000000;0,000000;0,000000;0,000000;0,000000;0,888889;1,000000;1,000000;0,000000;0,000000;0,666667;0,666667;0,750000;
33;;;;;;;;;;;;;;;;;;;;;;;;;;;;;;;;;1,000000;0,750000;0,350000;0,250000;0,625000;0,696466;0,416667;0,416667;0,794824;0,416667;0,794824;0,416667;0,416667;0,750000;0,000000;0,000000;0,000000;0,000000;0,458333;0,750000;0,750000;0,000000;0,000000;0,305556;0,305556;0,416667;
34;;;;;;;;;;;;;;;;;;;;;;;;;;;;;;;;;;1,000000;0,350000;0,250000;0,625000;0,696466;0,416667;0,416667;0,794824;0,416667;0,794824;0,416667;0,416667;0,750000;0,000000;0,000000;0,000000;0,000000;0,458333;0,750000;0,750000;0,000000;0,000000;0,305556;0,305556;0,416667;
35;;;;;;;;;;;;;;;;;;;;;;;;;;;;;;;;;;;1,000000;0,000000;0,800000;0,446429;0,500000;0,500000;0,500000;0,500000;0,500000;0,500000;0,500000;0,875000;0,000000;0,000000;0,000000;0,312500;0,600000;0,875000;0,875000;0,000000;0,000000;0,375000;0,375000;0,500000;
36;;;;;;;;;;;;;;;;;;;;;;;;;;;;;;;;;;;;1,000000;0,000000;0,250000;0,000000;0,000000;0,000000;0,000000;0,000000;0,000000;0,000000;0,000000;0,291667;0,291667;0,291667;0,750000;0,000000;0,000000;0,000000;0,375000;0,375000;0,000000;0,000000;0,000000;
37;;;;;;;;;;;;;;;;;;;;;;;;;;;;;;;;;;;;;1,000000;0,757143;0,666667;0,666667;0,666667;0,666667;0,666667;0,666667;0,666667;1,000000;0,000000;0,000000;0,000000;0,000000;0,833333;1,000000;1,000000;0,000000;0,000000;0,555556;0,555556;0,666667;
38;;;;;;;;;;;;;;;;;;;;;;;;;;;;;;;;;;;;;;1,000000;0,473214;0,473214;0,473214;0,473214;0,473214;0,473214;0,473214;0,848214;0,000000;0,000000;0,000000;0,000000;0,557143;0,848214;0,848214;0,000000;0,000000;0,348214;0,348214;0,473214;
39;;;;;;;;;;;;;;;;;;;;;;;;;;;;;;;;;;;;;;;1,000000;0,500000;0,500000;0,500000;0,500000;0,500000;0,500000;0,750000;0,000000;0,000000;0,000000;0,000000;0,555556;0,750000;0,750000;0,000000;0,000000;0,416667;0,416667;0,500000;
40;;;;;;;;;;;;;;;;;;;;;;;;;;;;;;;;;;;;;;;;1,000000;0,500000;0,500000;0,500000;0,500000;0,500000;0,750000;0,000000;0,000000;0,000000;0,000000;0,555556;0,750000;0,750000;0,000000;0,000000;0,416667;0,416667;0,500000;
41;;;;;;;;;;;;;;;;;;;;;;;;;;;;;;;;;;;;;;;;;1,000000;0,500000;1,000000;0,500000;0,500000;0,750000;0,000000;0,000000;0,000000;0,000000;0,555556;0,750000;0,750000;0,000000;0,000000;0,416667;0,416667;0,500000;
42;;;;;;;;;;;;;;;;;;;;;;;;;;;;;;;;;;;;;;;;;;1,000000;0,500000;0,500000;0,500000;0,750000;0,000000;0,000000;0,000000;0,000000;0,555556;0,750000;0,750000;0,000000;0,000000;0,416667;0,416667;0,500000;
43;;;;;;;;;;;;;;;;;;;;;;;;;;;;;;;;;;;;;;;;;;;1,000000;0,500000;0,500000;0,750000;0,000000;0,000000;0,000000;0,000000;0,555556;0,750000;0,750000;0,000000;0,000000;0,416667;0,416667;0,500000;
44;;;;;;;;;;;;;;;;;;;;;;;;;;;;;;;;;;;;;;;;;;;;1,000000;0,500000;0,750000;0,000000;0,000000;0,000000;0,000000;0,555556;0,750000;0,750000;0,000000;0,000000;0,416667;0,416667;0,500000;
45;;;;;;;;;;;;;;;;;;;;;;;;;;;;;;;;;;;;;;;;;;;;;1,000000;0,750000;0,000000;0,000000;0,000000;0,000000;0,555556;0,750000;0,750000;0,000000;0,000000;0,416667;0,416667;0,500000;
46;;;;;;;;;;;;;;;;;;;;;;;;;;;;;;;;;;;;;;;;;;;;;;1,000000;0,000000;0,000000;0,000000;0,000000;0,888889;1,000000;1,000000;0,000000;0,000000;0,666667;0,666667;0,750000;
47;;;;;;;;;;;;;;;;;;;;;;;;;;;;;;;;;;;;;;;;;;;;;;;1,000000;0,666667;0,666667;0,291667;0,000000;0,000000;0,000000;0,416667;0,416667;0,000000;0,000000;0,000000;
48;;;;;;;;;;;;;;;;;;;;;;;;;;;;;;;;;;;;;;;;;;;;;;;;1,000000;0,666667;0,291667;0,000000;0,000000;0,000000;0,416667;0,416667;0,000000;0,000000;0,000000;
49;;;;;;;;;;;;;;;;;;;;;;;;;;;;;;;;;;;;;;;;;;;;;;;;;1,000000;0,291667;0,000000;0,000000;0,000000;0,416667;0,416667;0,000000;0,000000;0,000000;
50;;;;;;;;;;;;;;;;;;;;;;;;;;;;;;;;;;;;;;;;;;;;;;;;;;1,000000;0,000000;0,000000;0,000000;0,375000;0,375000;0,000000;0,000000;0,000000;
51;;;;;;;;;;;;;;;;;;;;;;;;;;;;;;;;;;;;;;;;;;;;;;;;;;;1,000000;0,888889;0,888889;0,000000;0,000000;0,444444;0,444444;0,555556;
52;;;;;;;;;;;;;;;;;;;;;;;;;;;;;;;;;;;;;;;;;;;;;;;;;;;;1,000000;1,000000;0,000000;0,000000;0,666667;0,666667;0,750000;
53;;;;;;;;;;;;;;;;;;;;;;;;;;;;;;;;;;;;;;;;;;;;;;;;;;;;;1,000000;0,000000;0,000000;0,666667;0,666667;0,750000;
54;;;;;;;;;;;;;;;;;;;;;;;;;;;;;;;;;;;;;;;;;;;;;;;;;;;;;;1,000000;0,500000;0,000000;0,000000;0,000000;
55;;;;;;;;;;;;;;;;;;;;;;;;;;;;;;;;;;;;;;;;;;;;;;;;;;;;;;;1,000000;0,000000;0,000000;0,000000;
56;;;;;;;;;;;;;;;;;;;;;;;;;;;;;;;;;;;;;;;;;;;;;;;;;;;;;;;;1,000000;0,666667;0,833333;
57;;;;;;;;;;;;;;;;;;;;;;;;;;;;;;;;;;;;;;;;;;;;;;;;;;;;;;;;;1,000000;0,833333;
58;;;;;;;;;;;;;;;;;;;;;;;;;;;;;;;;;;;;;;;;;;;;;;;;;;;;;;;;;;1,000000;
