;1; 2; 3; 4; 5; 6; 7; 8; 9; 10; 11; 12; 13; 14; 15; 16; 17; 18; 19; 20; 21; 22; 23; 24; 25; 26; 27; 28; 29; 30; 31; 32; 33; 34; 35; 36; 37; 38; 39; 40; 41; 42; 43; 44; 45; 46; 47; 48; 49; 50; 51; 52; 53; 54; 55; 56; 57; 58; 59; 60; 61; 62; 63; 64; 65; 66; 67; 68; 69; 70; 71; 72; 73; 74; 75; 76; 77; 78
1;1,000000;0,656191;0,729152;0,720530;0,577518;0,590081;0,510169;0,677492;0,642060;0,653164;0,466528;0,328176;0,388106;0,661509;0,681110;0,619018;0,581780;0,580957;0,419145;0,416086;0,411509;0,674243;0,421585;0,421585;0,421585;0,549291;0,612757;0,450760;0,305794;0,305794;0,286509;0,305794;0,529330;0,529330;0,529330;0,661509;0,476520;0,476520;0,640093;0,416086;0,416086;0,715910;0,499362;0,328176;0,328176;0,416086;0,559045;0,411509;0,411509;0,745852;0,667312;0,661509;0,532969;0,532969;0,677492;0,411509;0,411509;0,547894;0,723991;0,503957;0,644938;0,670624;0,286509;0,286509;0,286509;0,286509;0,550124;0,505678;0,432363;0,432363;0,432363;0,475739;0,411509;0,411509;0,723991;0,504027;0,504027;0,411509;
2;;1,000000;0,682818;0,682650;0,582915;0,562869;0,609996;0,384297;0,746550;0,834035;0,394895;0,300964;0,390966;0,634297;0,661378;0,679969;0,635778;0,472690;0,566371;0,582656;0,384297;0,739168;0,584592;0,584592;0,584592;0,573982;0,627402;0,453620;0,278582;0,278582;0,259297;0,278582;0,457296;0,457296;0,457296;0,634297;0,337315;0,337315;0,490844;0,582656;0,582656;0,819835;0,706800;0,300964;0,300964;0,582656;0,537312;0,384297;0,384297;0,819835;0,684997;0,634297;0,368889;0,368889;0,384297;0,384297;0,384297;0,542925;0,669123;0,300964;0,300964;0,384297;0,259297;0,259297;0,259297;0,259297;0,419300;0,419300;0,259297;0,259297;0,259297;0,368889;0,384297;0,384297;0,669123;0,300964;0,300964;0,384297;
3;;;1,000000;0,750586;0,544321;0,597646;0,676100;0,419074;0,644354;0,684041;0,496874;0,335741;0,423692;0,669074;0,593156;0,619568;0,607273;0,572934;0,426801;0,423741;0,419074;0,765113;0,429354;0,429354;0,429354;0,440427;0,614485;0,486345;0,313359;0,313359;0,294074;0,313359;0,554413;0,554413;0,554413;0,669074;0,372092;0,372092;0,468470;0,423741;0,423741;0,718204;0,534948;0,508046;0,508046;0,423741;0,748859;0,419074;0,419074;0,743162;0,666283;0,669074;0,506085;0,506085;0,419074;0,419074;0,419074;0,595174;0,722581;0,507075;0,523602;0,673741;0,294074;0,294074;0,294074;0,294074;0,553368;0,508922;0,440358;0,440358;0,440358;0,506085;0,419074;0,419074;0,722581;0,511766;0,511766;0,419074;
4;;;;1,000000;0,467231;0,584846;0,574202;0,406275;0,797546;0,770512;0,322941;0,322941;0,346187;0,656275;0,691416;0,796443;0,651784;0,371253;0,307641;0,281275;0,406275;0,732896;0,416485;0,416485;0,416485;0,365409;0,613323;0,373562;0,300560;0,300560;0,281275;0,300560;0,517305;0,517305;0,517305;0,656275;0,359292;0,359292;0,608330;0,281275;0,281275;0,774562;0,322941;0,322941;0,322941;0,281275;0,460087;0,406275;0,406275;0,805597;0,717204;0,656275;0,256275;0,256275;0,406275;0,406275;0,406275;0,426330;0,406275;0,322941;0,322941;0,406275;0,281275;0,281275;0,281275;0,281275;0,281275;0,331275;0,416473;0,416473;0,416473;0,256275;0,406275;0,406275;0,406275;0,499830;0,499830;0,406275;
5;;;;;1,000000;0,153044;0,409333;0,281848;0,501326;0,526779;0,403800;0,363650;0,361338;0,000000;0,565678;0,470696;0,589394;0,502714;0,403530;0,415205;0,263576;0,459896;0,390306;0,390306;0,390306;0,372197;0,533816;0,318818;0,374120;0,374120;0,394070;0,374120;0,426135;0,426135;0,426135;0,000000;0,317472;0,317472;0,454178;0,412758;0,412655;0,496580;0,383437;0,345013;0,345013;0,412655;0,482898;0,257904;0,257904;0,420210;0,492318;0,000000;0,453290;0,453290;0,281848;0,257903;0,257903;0,434118;0,272098;0,353403;0,395687;0,264723;0,392540;0,392540;0,392540;0,392540;0,409135;0,322824;0,391181;0,391181;0,391181;0,449977;0,257901;0,257901;0,272098;0,344672;0,344672;0,256911;
6;;;;;;1,000000;0,682300;0,678571;0,577063;0,577521;0,595238;0,595238;0,618483;0,928571;0,637979;0,603532;0,566085;0,575163;0,579938;0,553571;0,678571;0,595238;0,553571;0,553571;0,553571;0,637705;0,571965;0,645858;0,572857;0,572857;0,553571;0,572857;0,553571;0,553571;0,553571;0,928571;0,631589;0,631589;0,579938;0,553571;0,553571;0,553571;0,595238;0,595238;0,595238;0,553571;0,556340;0,678571;0,678571;0,631589;0,566117;0,928571;0,528571;0,528571;0,678571;0,678571;0,678571;0,553571;0,678571;0,595238;0,595238;0,678571;0,553571;0,553571;0,553571;0,553571;0,553571;0,603571;0,553571;0,553571;0,553571;0,528571;0,678571;0,678571;0,678571;0,595238;0,595238;0,678571;
7;;;;;;;1,000000;0,503729;0,558603;0,623663;0,488854;0,420396;0,484925;0,753729;0,633668;0,646843;0,613453;0,537241;0,548044;0,545182;0,503729;0,539794;0,378729;0,378729;0,378729;0,672656;0,576818;0,547578;0,398014;0,398014;0,378729;0,398014;0,378729;0,378729;0,378729;0,753729;0,670968;0,670968;0,494626;0,545182;0,545182;0,536289;0,805475;0,420396;0,420396;0,545182;0,593673;0,503729;0,503729;0,584987;0,512648;0,753729;0,462847;0,462847;0,503729;0,503729;0,503729;0,545182;0,503729;0,598266;0,552353;0,503729;0,378729;0,378729;0,378729;0,378729;0,378729;0,428729;0,378729;0,378729;0,378729;0,462847;0,503729;0,503729;0,503729;0,420396;0,420396;0,503729;
8;;;;;;;;1,000000;0,398491;0,398950;0,416667;0,416667;0,439912;0,750000;0,717579;0,764468;0,387514;0,690052;0,401367;0,375000;0,500000;0,416667;0,375000;0,375000;0,375000;0,837428;0,393394;0,467287;0,394285;0,394285;0,375000;0,394285;0,375000;0,375000;0,375000;0,750000;0,799029;0,799029;0,401367;0,375000;0,375000;0,375000;0,416667;0,416667;0,416667;0,375000;0,377768;0,500000;0,500000;0,453017;0,387546;0,750000;0,350000;0,350000;1,000000;0,500000;0,500000;0,375000;0,500000;0,416667;0,754186;0,500000;0,375000;0,375000;0,375000;0,375000;0,375000;0,425000;0,375000;0,375000;0,375000;0,350000;0,500000;0,500000;0,500000;0,416667;0,416667;0,500000;
9;;;;;;;;;1,000000;0,822166;0,315158;0,315158;0,338403;0,648491;0,672427;0,794864;0,564664;0,295082;0,299858;0,273491;0,398491;0,846049;0,273491;0,273491;0,273491;0,357625;0,584876;0,365778;0,292776;0,292776;0,273491;0,292776;0,522314;0,522314;0,522314;0,648491;0,351509;0,351509;0,479908;0,273491;0,273491;0,926716;0,315158;0,315158;0,315158;0,273491;0,444487;0,398491;0,398491;0,926716;0,791879;0,648491;0,248491;0,248491;0,398491;0,398491;0,398491;0,273491;0,677606;0,315158;0,315158;0,398491;0,273491;0,273491;0,273491;0,273491;0,273491;0,323491;0,586790;0,586790;0,586790;0,248491;0,398491;0,398491;0,677606;0,315158;0,315158;0,398491;
10;;;;;;;;;;1,000000;0,315616;0,315616;0,338861;0,648950;0,747512;0,767831;0,735055;0,503454;0,582089;0,598374;0,398950;0,903999;0,273950;0,273950;0,273950;0,522383;0,601509;0,366237;0,293235;0,293235;0,273950;0,293235;0,501339;0,501339;0,501339;0,648950;0,351967;0,351967;0,621384;0,598374;0,598374;0,895450;0,518529;0,494795;0,494795;0,598374;0,439034;0,398950;0,398950;0,895450;0,760613;0,648950;0,248950;0,248950;0,398950;0,398950;0,398950;0,611528;0,673367;0,315616;0,315616;0,398950;0,273950;0,273950;0,273950;0,273950;0,435346;0,435346;0,273950;0,273950;0,273950;0,248950;0,398950;0,398950;0,673367;0,315616;0,315616;0,398950;
11;;;;;;;;;;;1,000000;0,615692;0,645404;0,666667;0,576732;0,341627;0,513073;0,463204;0,491908;0,447591;0,416667;0,333333;0,291667;0,291667;0,291667;0,464820;0,455281;0,808125;0,310952;0,310952;0,291667;0,310952;0,291667;0,291667;0,291667;0,666667;0,369684;0,369684;0,318033;0,291667;0,291667;0,291667;0,559340;0,333333;0,333333;0,291667;0,674095;0,416667;0,416667;0,369684;0,410830;0,666667;0,590789;0,590789;0,416667;0,416667;0,416667;0,291667;0,416667;0,560035;0,481641;0,726702;0,291667;0,291667;0,291667;0,291667;0,476702;0,476702;0,291667;0,291667;0,291667;0,590789;0,416667;0,416667;0,416667;0,333333;0,333333;0,416667;
12;;;;;;;;;;;;1,000000;0,616962;0,666667;0,699588;0,341627;0,381489;0,380790;0,542666;0,462534;0,416667;0,333333;0,291667;0,291667;0,291667;0,375801;0,511346;0,730030;0,310952;0,310952;0,291667;0,310952;0,291667;0,291667;0,291667;0,666667;0,369684;0,369684;0,318033;0,291667;0,291667;0,291667;0,333333;0,333333;0,333333;0,291667;0,294435;0,416667;0,416667;0,369684;0,304213;0,666667;0,266667;0,266667;0,416667;0,416667;0,416667;0,291667;0,416667;0,333333;0,333333;0,416667;0,291667;0,291667;0,291667;0,291667;0,291667;0,341667;0,291667;0,291667;0,291667;0,266667;0,416667;0,416667;0,416667;0,333333;0,333333;0,416667;
13;;;;;;;;;;;;;1,000000;0,689912;0,618869;0,364873;0,373801;0,410350;0,657685;0,314912;0,439912;0,356579;0,314912;0,314912;0,314912;0,460890;0,576829;0,506809;0,334197;0,334197;0,314912;0,334197;0,314912;0,314912;0,314912;0,689912;0,392929;0,392929;0,341279;0,314912;0,314912;0,314912;0,555411;0,356579;0,356579;0,314912;0,477615;0,439912;0,439912;0,392929;0,327458;0,689912;0,422078;0,422078;0,439912;0,439912;0,439912;0,314912;0,439912;0,356579;0,356579;0,439912;0,314912;0,314912;0,314912;0,314912;0,314912;0,364912;0,314912;0,314912;0,314912;0,422078;0,439912;0,439912;0,439912;0,356579;0,356579;0,439912;
14;;;;;;;;;;;;;;1,000000;0,709408;0,674961;0,637514;0,646591;0,651367;0,625000;0,750000;0,666667;0,625000;0,625000;0,625000;0,709134;0,643394;0,717287;0,644285;0,644285;0,625000;0,644285;0,625000;0,625000;0,625000;1,000000;0,703017;0,703017;0,651367;0,625000;0,625000;0,625000;0,666667;0,666667;0,666667;0,625000;0,627768;0,750000;0,750000;0,703017;0,637546;1,000000;0,600000;0,600000;0,750000;0,750000;0,750000;0,625000;0,750000;0,666667;0,666667;0,750000;0,625000;0,625000;0,625000;0,625000;0,625000;0,675000;0,625000;0,625000;0,625000;0,600000;0,750000;0,750000;0,750000;0,666667;0,666667;0,750000;
15;;;;;;;;;;;;;;;1,000000;0,761052;0,662314;0,600784;0,675173;0,629059;0,459408;0,607777;0,467643;0,467643;0,467643;0,723790;0,692392;0,653952;0,353693;0,353693;0,334408;0,353693;0,516771;0,516771;0,516771;0,709408;0,516608;0,516608;0,552175;0,629059;0,629059;0,649444;0,578136;0,376075;0,376075;0,629059;0,674499;0,459408;0,459408;0,680478;0,687230;0,709408;0,711420;0,711420;0,717579;0,459408;0,459408;0,589328;0,459408;0,592602;0,600094;0,759269;0,334408;0,334408;0,334408;0,334408;0,641740;0,597294;0,334408;0,334408;0,334408;0,692171;0,459408;0,459408;0,459408;0,376075;0,376075;0,459408;
16;;;;;;;;;;;;;;;;1,000000;0,563562;0,454520;0,326327;0,299961;0,424961;0,730214;0,299961;0,299961;0,299961;0,601896;0,618698;0,392248;0,319246;0,319246;0,299961;0,319246;0,492364;0,492364;0,492364;0,674961;0,563497;0,563497;0,449958;0,299961;0,299961;0,771881;0,341627;0,341627;0,341627;0,299961;0,502353;0,424961;0,424961;0,802916;0,714523;0,674961;0,274961;0,274961;0,764468;0,424961;0,424961;0,299961;0,424961;0,532174;0,518655;0,424961;0,299961;0,299961;0,299961;0,299961;0,299961;0,349961;0,299961;0,299961;0,299961;0,274961;0,424961;0,424961;0,424961;0,341627;0,341627;0,424961;
17;;;;;;;;;;;;;;;;;1,000000;0,648158;0,568794;0,657948;0,387514;0,500014;0,402043;0,402043;0,402043;0,632815;0,506888;0,436455;0,281799;0,281799;0,262514;0,281799;0,401540;0,401540;0,401540;0,637514;0,340531;0,340531;0,690198;0,655207;0,655172;0,541681;0,765634;0,304180;0,304180;0,655172;0,605118;0,387514;0,387514;0,572716;0,545961;0,637514;0,465800;0,465800;0,387514;0,387514;0,387514;0,666186;0,387514;0,485263;0,406869;0,651930;0,262514;0,262514;0,262514;0,262514;0,543610;0,499634;0,262514;0,262514;0,262514;0,465800;0,387514;0,387514;0,387514;0,304180;0,304180;0,652082;
18;;;;;;;;;;;;;;;;;;1,000000;0,540509;0,624646;0,396591;0,411983;0,406551;0,406551;0,406551;0,598229;0,507493;0,473003;0,290876;0,290876;0,271591;0,290876;0,271591;0,271591;0,271591;0,646591;0,489080;0,489080;0,461605;0,622738;0,622702;0,271591;0,521605;0,489898;0,489898;0,622702;0,443809;0,396591;0,396591;0,349608;0,284137;0,646591;0,388272;0,388272;0,690052;0,396591;0,396591;0,640691;0,396591;0,313258;0,444238;0,396591;0,271591;0,271591;0,271591;0,271591;0,476971;0,476971;0,271591;0,271591;0,271591;0,388272;0,396591;0,396591;0,396591;0,313258;0,313258;0,396591;
19;;;;;;;;;;;;;;;;;;;1,000000;0,733715;0,401367;0,318033;0,276367;0,276367;0,276367;0,590050;0,494654;0,368654;0,295652;0,295652;0,276367;0,295652;0,276367;0,276367;0,276367;0,651367;0,354384;0,354384;0,452307;0,733715;0,733715;0,276367;0,586196;0,318033;0,318033;0,733715;0,279135;0,401367;0,401367;0,354384;0,288913;0,651367;0,251367;0,251367;0,401367;0,401367;0,401367;0,693984;0,401367;0,318033;0,318033;0,401367;0,276367;0,276367;0,276367;0,276367;0,503059;0,503059;0,276367;0,276367;0,276367;0,251367;0,401367;0,401367;0,401367;0,318033;0,318033;0,401367;
20;;;;;;;;;;;;;;;;;;;;1,000000;0,375000;0,291667;0,250000;0,250000;0,250000;0,587187;0,408037;0,342287;0,269285;0,269285;0,250000;0,269285;0,250000;0,250000;0,250000;0,625000;0,328017;0,328017;0,449444;0,750000;0,750000;0,250000;0,583333;0,291667;0,291667;0,750000;0,252768;0,375000;0,375000;0,328017;0,262546;0,625000;0,225000;0,225000;0,375000;0,375000;0,375000;0,710269;0,375000;0,291667;0,291667;0,375000;0,250000;0,250000;0,250000;0,250000;0,500000;0,500000;0,250000;0,250000;0,250000;0,225000;0,375000;0,375000;0,375000;0,291667;0,291667;0,375000;
21;;;;;;;;;;;;;;;;;;;;;1,000000;0,416667;0,375000;0,375000;0,375000;0,459134;0,393394;0,467287;0,394285;0,394285;0,375000;0,394285;0,375000;0,375000;0,375000;0,750000;0,453017;0,453017;0,401367;0,375000;0,375000;0,375000;0,416667;0,416667;0,416667;0,375000;0,377768;0,500000;0,500000;0,453017;0,387546;0,750000;0,350000;0,350000;0,500000;0,500000;0,500000;0,375000;0,500000;0,416667;0,416667;0,500000;0,375000;0,375000;0,375000;0,375000;0,375000;0,425000;0,375000;0,375000;0,375000;0,350000;0,500000;0,500000;0,500000;0,416667;0,416667;0,500000;
22;;;;;;;;;;;;;;;;;;;;;;1,000000;0,291667;0,291667;0,291667;0,375801;0,520226;0,383954;0,310952;0,310952;0,291667;0,310952;0,503506;0,503506;0,503506;0,666667;0,369684;0,369684;0,461100;0,291667;0,291667;0,919333;0,333333;0,588752;0,588752;0,291667;0,425679;0,416667;0,416667;0,919333;0,784496;0,666667;0,266667;0,266667;0,416667;0,416667;0,416667;0,425778;0,754616;0,333333;0,333333;0,416667;0,291667;0,291667;0,291667;0,291667;0,291667;0,341667;0,291667;0,291667;0,291667;0,266667;0,416667;0,416667;0,754616;0,333333;0,333333;0,416667;
23;;;;;;;;;;;;;;;;;;;;;;;1,000000;0,750000;0,750000;0,334134;0,268394;0,342287;0,269285;0,269285;0,250000;0,269285;0,250000;0,250000;0,250000;0,625000;0,328017;0,328017;0,276367;0,250000;0,250000;0,250000;0,291667;0,291667;0,291667;0,250000;0,252768;0,375000;0,375000;0,328017;0,262546;0,625000;0,225000;0,225000;0,375000;0,375000;0,375000;0,250000;0,375000;0,291667;0,291667;0,375000;0,250000;0,250000;0,250000;0,250000;0,250000;0,300000;0,250000;0,250000;0,250000;0,225000;0,375000;0,375000;0,375000;0,291667;0,291667;0,375000;
24;;;;;;;;;;;;;;;;;;;;;;;;1,000000;0,750000;0,334134;0,268394;0,342287;0,269285;0,269285;0,250000;0,269285;0,250000;0,250000;0,250000;0,625000;0,328017;0,328017;0,276367;0,250000;0,250000;0,250000;0,291667;0,291667;0,291667;0,250000;0,252768;0,375000;0,375000;0,328017;0,262546;0,625000;0,225000;0,225000;0,375000;0,375000;0,375000;0,250000;0,375000;0,291667;0,291667;0,375000;0,250000;0,250000;0,250000;0,250000;0,250000;0,300000;0,250000;0,250000;0,250000;0,225000;0,375000;0,375000;0,375000;0,291667;0,291667;0,375000;
25;;;;;;;;;;;;;;;;;;;;;;;;;1,000000;0,334134;0,268394;0,342287;0,269285;0,269285;0,250000;0,269285;0,250000;0,250000;0,250000;0,625000;0,328017;0,328017;0,276367;0,250000;0,250000;0,250000;0,291667;0,291667;0,291667;0,250000;0,252768;0,375000;0,375000;0,328017;0,262546;0,625000;0,225000;0,225000;0,375000;0,375000;0,375000;0,250000;0,375000;0,291667;0,291667;0,375000;0,250000;0,250000;0,250000;0,250000;0,250000;0,300000;0,250000;0,250000;0,250000;0,225000;0,375000;0,375000;0,375000;0,291667;0,291667;0,375000;
26;;;;;;;;;;;;;;;;;;;;;;;;;;1,000000;0,468087;0,523544;0,353419;0,353419;0,334134;0,353419;0,334134;0,334134;0,334134;0,709134;0,636457;0,636457;0,536631;0,587187;0,587187;0,334134;0,867181;0,375801;0,375801;0,587187;0,494350;0,459134;0,459134;0,412151;0,346680;0,709134;0,438813;0,438813;0,837428;0,459134;0,459134;0,587187;0,459134;0,375801;0,591614;0,459134;0,334134;0,334134;0,334134;0,334134;0,334134;0,384134;0,334134;0,334134;0,334134;0,438813;0,459134;0,459134;0,459134;0,375801;0,375801;0,459134;
27;;;;;;;;;;;;;;;;;;;;;;;;;;;1,000000;0,514005;0,287679;0,287679;0,268394;0,287679;0,407664;0,407664;0,407664;0,643394;0,346411;0,346411;0,365258;0,408037;0,408037;0,561892;0,562607;0,310061;0,310061;0,408037;0,682073;0,393394;0,393394;0,592927;0,504534;0,643394;0,713792;0,713792;0,393394;0,393394;0,393394;0,369600;0,393394;0,494368;0,416628;0,393394;0,268394;0,268394;0,268394;0,268394;0,550004;0,506028;0,268394;0,268394;0,268394;0,683015;0,393394;0,393394;0,393394;0,491497;0,491497;0,658183;
28;;;;;;;;;;;;;;;;;;;;;;;;;;;;1,000000;0,361572;0,361572;0,342287;0,361572;0,342287;0,342287;0,342287;0,717287;0,420304;0,420304;0,368654;0,342287;0,342287;0,342287;0,618065;0,383954;0,383954;0,342287;0,540268;0,467287;0,467287;0,420304;0,354833;0,717287;0,484731;0,484731;0,467287;0,467287;0,467287;0,342287;0,467287;0,383954;0,383954;0,467287;0,342287;0,342287;0,342287;0,342287;0,342287;0,392287;0,342287;0,342287;0,342287;0,484731;0,467287;0,467287;0,467287;0,383954;0,383954;0,467287;
29;;;;;;;;;;;;;;;;;;;;;;;;;;;;;1,000000;0,713214;0,807855;0,713214;0,269285;0,269285;0,269285;0,644285;0,347303;0,347303;0,295652;0,269285;0,269285;0,269285;0,310952;0,310952;0,310952;0,269285;0,272054;0,394285;0,394285;0,347303;0,281831;0,644285;0,244285;0,244285;0,394285;0,394285;0,394285;0,269285;0,394285;0,310952;0,310952;0,394285;0,269285;0,269285;0,269285;0,269285;0,269285;0,319285;0,269285;0,269285;0,269285;0,244285;0,394285;0,394285;0,394285;0,310952;0,310952;0,394285;
30;;;;;;;;;;;;;;;;;;;;;;;;;;;;;;1,000000;0,807855;0,713214;0,269285;0,269285;0,269285;0,644285;0,347303;0,347303;0,295652;0,269285;0,269285;0,269285;0,310952;0,310952;0,310952;0,269285;0,272054;0,394285;0,394285;0,347303;0,281831;0,644285;0,244285;0,244285;0,394285;0,394285;0,394285;0,269285;0,394285;0,310952;0,310952;0,394285;0,269285;0,269285;0,269285;0,269285;0,269285;0,319285;0,269285;0,269285;0,269285;0,244285;0,394285;0,394285;0,394285;0,310952;0,310952;0,394285;
31;;;;;;;;;;;;;;;;;;;;;;;;;;;;;;;1,000000;0,807855;0,250000;0,250000;0,250000;0,625000;0,328017;0,328017;0,276367;0,250000;0,250000;0,250000;0,291667;0,291667;0,291667;0,250000;0,252768;0,375000;0,375000;0,328017;0,262546;0,625000;0,225000;0,225000;0,375000;0,375000;0,375000;0,250000;0,375000;0,291667;0,291667;0,375000;0,250000;0,250000;0,250000;0,250000;0,250000;0,300000;0,250000;0,250000;0,250000;0,225000;0,375000;0,375000;0,375000;0,291667;0,291667;0,375000;
32;;;;;;;;;;;;;;;;;;;;;;;;;;;;;;;;1,000000;0,269285;0,269285;0,269285;0,644285;0,347303;0,347303;0,295652;0,269285;0,269285;0,269285;0,310952;0,310952;0,310952;0,269285;0,272054;0,394285;0,394285;0,347303;0,281831;0,644285;0,244285;0,244285;0,394285;0,394285;0,394285;0,269285;0,394285;0,310952;0,310952;0,394285;0,269285;0,269285;0,269285;0,269285;0,269285;0,319285;0,269285;0,269285;0,269285;0,244285;0,394285;0,394285;0,394285;0,310952;0,310952;0,394285;
33;;;;;;;;;;;;;;;;;;;;;;;;;;;;;;;;;1,000000;0,750000;0,750000;0,625000;0,328017;0,328017;0,457594;0,250000;0,250000;0,500000;0,291667;0,291667;0,291667;0,250000;0,252768;0,375000;0,375000;0,569004;0,476359;0,625000;0,225000;0,225000;0,375000;0,375000;0,375000;0,250000;0,375000;0,291667;0,291667;0,375000;0,250000;0,250000;0,250000;0,250000;0,250000;0,300000;0,250000;0,250000;0,250000;0,225000;0,375000;0,375000;0,375000;0,291667;0,291667;0,375000;
34;;;;;;;;;;;;;;;;;;;;;;;;;;;;;;;;;;1,000000;0,750000;0,625000;0,328017;0,328017;0,457594;0,250000;0,250000;0,500000;0,291667;0,291667;0,291667;0,250000;0,252768;0,375000;0,375000;0,569004;0,476359;0,625000;0,225000;0,225000;0,375000;0,375000;0,375000;0,250000;0,375000;0,291667;0,291667;0,375000;0,250000;0,250000;0,250000;0,250000;0,250000;0,300000;0,250000;0,250000;0,250000;0,225000;0,375000;0,375000;0,375000;0,291667;0,291667;0,375000;
35;;;;;;;;;;;;;;;;;;;;;;;;;;;;;;;;;;;1,000000;0,625000;0,328017;0,328017;0,457594;0,250000;0,250000;0,500000;0,291667;0,291667;0,291667;0,250000;0,252768;0,375000;0,375000;0,569004;0,476359;0,625000;0,225000;0,225000;0,375000;0,375000;0,375000;0,250000;0,375000;0,291667;0,291667;0,375000;0,250000;0,250000;0,250000;0,250000;0,250000;0,300000;0,250000;0,250000;0,250000;0,225000;0,375000;0,375000;0,375000;0,291667;0,291667;0,375000;
36;;;;;;;;;;;;;;;;;;;;;;;;;;;;;;;;;;;;1,000000;0,703017;0,703017;0,651367;0,625000;0,625000;0,625000;0,666667;0,666667;0,666667;0,625000;0,627768;0,750000;0,750000;0,703017;0,637546;1,000000;0,600000;0,600000;0,750000;0,750000;0,750000;0,625000;0,750000;0,666667;0,666667;0,750000;0,625000;0,625000;0,625000;0,625000;0,625000;0,675000;0,625000;0,625000;0,625000;0,600000;0,750000;0,750000;0,750000;0,666667;0,666667;0,750000;
37;;;;;;;;;;;;;;;;;;;;;;;;;;;;;;;;;;;;;1,000000;0,598057;0,354384;0,328017;0,328017;0,328017;0,369684;0,369684;0,369684;0,328017;0,330786;0,453017;0,453017;0,406035;0,340563;0,703017;0,303017;0,303017;0,799029;0,453017;0,453017;0,328017;0,453017;0,369684;0,553215;0,453017;0,328017;0,328017;0,328017;0,328017;0,328017;0,378017;0,328017;0,328017;0,328017;0,303017;0,453017;0,453017;0,453017;0,369684;0,369684;0,453017;
38;;;;;;;;;;;;;;;;;;;;;;;;;;;;;;;;;;;;;;1,000000;0,354384;0,328017;0,328017;0,328017;0,369684;0,369684;0,369684;0,328017;0,330786;0,453017;0,453017;0,406035;0,340563;0,703017;0,303017;0,303017;0,799029;0,453017;0,453017;0,328017;0,453017;0,369684;0,553215;0,453017;0,328017;0,328017;0,328017;0,328017;0,328017;0,378017;0,328017;0,328017;0,328017;0,303017;0,453017;0,453017;0,453017;0,369684;0,369684;0,453017;
39;;;;;;;;;;;;;;;;;;;;;;;;;;;;;;;;;;;;;;;1,000000;0,449444;0,449444;0,457594;0,532777;0,543029;0,543029;0,449444;0,279135;0,401367;0,401367;0,526598;0,433953;0,651367;0,251367;0,251367;0,401367;0,401367;0,401367;0,626989;0,401367;0,318033;0,318033;0,401367;0,276367;0,276367;0,276367;0,276367;0,276367;0,326367;0,276367;0,276367;0,276367;0,251367;0,401367;0,401367;0,401367;0,318033;0,318033;0,401367;
40;;;;;;;;;;;;;;;;;;;;;;;;;;;;;;;;;;;;;;;;1,000000;0,750000;0,250000;0,583333;0,291667;0,291667;0,750000;0,252768;0,375000;0,375000;0,328017;0,262546;0,625000;0,225000;0,225000;0,375000;0,375000;0,375000;0,710269;0,375000;0,291667;0,291667;0,375000;0,250000;0,250000;0,250000;0,250000;0,500000;0,500000;0,250000;0,250000;0,250000;0,225000;0,375000;0,375000;0,375000;0,291667;0,291667;0,375000;
41;;;;;;;;;;;;;;;;;;;;;;;;;;;;;;;;;;;;;;;;;1,000000;0,250000;0,583333;0,291667;0,291667;1,000000;0,252768;0,375000;0,375000;0,328017;0,262546;0,625000;0,225000;0,225000;0,375000;0,375000;0,375000;0,710269;0,375000;0,291667;0,291667;0,375000;0,250000;0,250000;0,250000;0,250000;0,500000;0,500000;0,250000;0,250000;0,250000;0,225000;0,375000;0,375000;0,375000;0,291667;0,291667;0,375000;
42;;;;;;;;;;;;;;;;;;;;;;;;;;;;;;;;;;;;;;;;;;1,000000;0,291667;0,291667;0,291667;0,250000;0,422173;0,375000;0,375000;1,000000;0,865163;0,625000;0,225000;0,225000;0,375000;0,375000;0,375000;0,250000;0,750000;0,291667;0,291667;0,375000;0,250000;0,250000;0,250000;0,250000;0,250000;0,300000;0,250000;0,250000;0,250000;0,225000;0,375000;0,375000;0,750000;0,291667;0,291667;0,375000;
43;;;;;;;;;;;;;;;;;;;;;;;;;;;;;;;;;;;;;;;;;;;1,000000;0,333333;0,333333;0,583333;0,588870;0,416667;0,416667;0,369684;0,304213;0,666667;0,533333;0,533333;0,416667;0,416667;0,416667;0,583333;0,416667;0,333333;0,333333;0,416667;0,291667;0,291667;0,291667;0,291667;0,291667;0,341667;0,291667;0,291667;0,291667;0,533333;0,416667;0,416667;0,416667;0,333333;0,333333;0,416667;
44;;;;;;;;;;;;;;;;;;;;;;;;;;;;;;;;;;;;;;;;;;;;1,000000;0,666667;0,291667;0,294435;0,416667;0,416667;0,369684;0,304213;0,666667;0,266667;0,266667;0,416667;0,416667;0,416667;0,503693;0,416667;0,333333;0,333333;0,416667;0,291667;0,291667;0,291667;0,291667;0,291667;0,341667;0,291667;0,291667;0,291667;0,266667;0,416667;0,416667;0,416667;0,333333;0,333333;0,416667;
45;;;;;;;;;;;;;;;;;;;;;;;;;;;;;;;;;;;;;;;;;;;;;1,000000;0,291667;0,294435;0,416667;0,416667;0,369684;0,304213;0,666667;0,266667;0,266667;0,416667;0,416667;0,416667;0,503693;0,416667;0,333333;0,333333;0,416667;0,291667;0,291667;0,291667;0,291667;0,291667;0,341667;0,291667;0,291667;0,291667;0,266667;0,416667;0,416667;0,416667;0,333333;0,333333;0,416667;
46;;;;;;;;;;;;;;;;;;;;;;;;;;;;;;;;;;;;;;;;;;;;;;1,000000;0,252768;0,375000;0,375000;0,328017;0,262546;0,625000;0,225000;0,225000;0,375000;0,375000;0,375000;0,710269;0,375000;0,291667;0,291667;0,375000;0,250000;0,250000;0,250000;0,250000;0,500000;0,500000;0,250000;0,250000;0,250000;0,225000;0,375000;0,375000;0,375000;0,291667;0,291667;0,375000;
47;;;;;;;;;;;;;;;;;;;;;;;;;;;;;;;;;;;;;;;;;;;;;;;1,000000;0,377768;0,377768;0,470871;0,572355;0,627768;0,820126;0,820126;0,377768;0,377768;0,377768;0,252768;0,377768;0,588870;0,510477;0,755537;0,252768;0,252768;0,252768;0,252768;0,505537;0,505537;0,252768;0,252768;0,252768;0,959664;0,377768;0,377768;0,377768;0,294435;0,294435;0,377768;
48;;;;;;;;;;;;;;;;;;;;;;;;;;;;;;;;;;;;;;;;;;;;;;;;1,000000;0,500000;0,453017;0,387546;0,750000;0,350000;0,350000;0,500000;0,500000;0,500000;0,375000;0,500000;0,416667;0,416667;0,500000;0,375000;0,375000;0,375000;0,375000;0,375000;0,425000;0,375000;0,375000;0,375000;0,350000;0,500000;0,500000;0,500000;0,416667;0,416667;0,500000;
49;;;;;;;;;;;;;;;;;;;;;;;;;;;;;;;;;;;;;;;;;;;;;;;;;1,000000;0,453017;0,387546;0,750000;0,350000;0,350000;0,500000;0,500000;0,500000;0,375000;0,500000;0,416667;0,416667;0,500000;0,375000;0,375000;0,375000;0,375000;0,375000;0,425000;0,375000;0,375000;0,375000;0,350000;0,500000;0,500000;0,500000;0,416667;0,416667;0,500000;
50;;;;;;;;;;;;;;;;;;;;;;;;;;;;;;;;;;;;;;;;;;;;;;;;;;1,000000;0,865163;0,703017;0,303017;0,303017;0,453017;0,453017;0,453017;0,328017;0,799237;0,369684;0,369684;0,453017;0,328017;0,328017;0,328017;0,328017;0,328017;0,378017;0,328017;0,328017;0,328017;0,303017;0,453017;0,453017;0,799237;0,369684;0,369684;0,453017;
51;;;;;;;;;;;;;;;;;;;;;;;;;;;;;;;;;;;;;;;;;;;;;;;;;;;1,000000;0,637546;0,384128;0,384128;0,387546;0,387546;0,387546;0,262546;0,683935;0,517461;0,439068;0,684128;0,262546;0,262546;0,262546;0,262546;0,434128;0,434128;0,262546;0,262546;0,262546;0,384128;0,387546;0,387546;0,683935;0,527075;0,527075;0,387546;
52;;;;;;;;;;;;;;;;;;;;;;;;;;;;;;;;;;;;;;;;;;;;;;;;;;;;1,000000;0,600000;0,600000;0,750000;0,750000;0,750000;0,625000;0,750000;0,666667;0,666667;0,750000;0,625000;0,625000;0,625000;0,625000;0,625000;0,675000;0,625000;0,625000;0,625000;0,600000;0,750000;0,750000;0,750000;0,666667;0,666667;0,750000;
53;;;;;;;;;;;;;;;;;;;;;;;;;;;;;;;;;;;;;;;;;;;;;;;;;;;;;1,000000;0,800000;0,350000;0,350000;0,350000;0,225000;0,350000;0,533333;0,454940;0,700000;0,225000;0,225000;0,225000;0,225000;0,450000;0,450000;0,225000;0,225000;0,225000;0,800000;0,350000;0,350000;0,350000;0,266667;0,266667;0,350000;
54;;;;;;;;;;;;;;;;;;;;;;;;;;;;;;;;;;;;;;;;;;;;;;;;;;;;;;1,000000;0,350000;0,350000;0,350000;0,225000;0,350000;0,533333;0,454940;0,700000;0,225000;0,225000;0,225000;0,225000;0,450000;0,450000;0,225000;0,225000;0,225000;0,800000;0,350000;0,350000;0,350000;0,266667;0,266667;0,350000;
55;;;;;;;;;;;;;;;;;;;;;;;;;;;;;;;;;;;;;;;;;;;;;;;;;;;;;;;1,000000;0,500000;0,500000;0,375000;0,500000;0,416667;0,754186;0,500000;0,375000;0,375000;0,375000;0,375000;0,375000;0,425000;0,375000;0,375000;0,375000;0,350000;0,500000;0,500000;0,500000;0,416667;0,416667;0,500000;
56;;;;;;;;;;;;;;;;;;;;;;;;;;;;;;;;;;;;;;;;;;;;;;;;;;;;;;;;1,000000;0,500000;0,375000;0,500000;0,416667;0,416667;0,500000;0,375000;0,375000;0,375000;0,375000;0,375000;0,425000;0,375000;0,375000;0,375000;0,350000;0,500000;0,500000;0,500000;0,416667;0,416667;0,500000;
57;;;;;;;;;;;;;;;;;;;;;;;;;;;;;;;;;;;;;;;;;;;;;;;;;;;;;;;;;1,000000;0,375000;0,500000;0,416667;0,416667;0,500000;0,375000;0,375000;0,375000;0,375000;0,375000;0,425000;0,375000;0,375000;0,375000;0,350000;0,500000;0,500000;0,500000;0,416667;0,416667;0,500000;
58;;;;;;;;;;;;;;;;;;;;;;;;;;;;;;;;;;;;;;;;;;;;;;;;;;;;;;;;;;1,000000;0,375000;0,291667;0,291667;0,375000;0,250000;0,250000;0,250000;0,250000;0,461563;0,461563;0,250000;0,250000;0,250000;0,225000;0,375000;0,375000;0,375000;0,291667;0,291667;0,375000;
59;;;;;;;;;;;;;;;;;;;;;;;;;;;;;;;;;;;;;;;;;;;;;;;;;;;;;;;;;;;1,000000;0,416667;0,416667;0,500000;0,375000;0,375000;0,375000;0,375000;0,375000;0,425000;0,375000;0,375000;0,375000;0,350000;0,500000;0,500000;1,000000;0,416667;0,416667;0,500000;
60;;;;;;;;;;;;;;;;;;;;;;;;;;;;;;;;;;;;;;;;;;;;;;;;;;;;;;;;;;;;1,000000;0,588273;0,833333;0,291667;0,291667;0,291667;0,291667;0,583333;0,583333;0,291667;0,291667;0,291667;0,533333;0,416667;0,416667;0,416667;0,333333;0,333333;0,416667;
61;;;;;;;;;;;;;;;;;;;;;;;;;;;;;;;;;;;;;;;;;;;;;;;;;;;;;;;;;;;;;1,000000;0,754940;0,291667;0,291667;0,291667;0,291667;0,504940;0,504940;0,291667;0,291667;0,291667;0,454940;0,416667;0,416667;0,416667;0,333333;0,333333;0,416667;
62;;;;;;;;;;;;;;;;;;;;;;;;;;;;;;;;;;;;;;;;;;;;;;;;;;;;;;;;;;;;;;1,000000;0,375000;0,375000;0,375000;0,375000;0,750000;0,750000;0,375000;0,375000;0,375000;0,700000;0,500000;0,500000;0,500000;0,416667;0,416667;0,500000;
63;;;;;;;;;;;;;;;;;;;;;;;;;;;;;;;;;;;;;;;;;;;;;;;;;;;;;;;;;;;;;;;1,000000;0,750000;0,750000;0,750000;0,250000;0,300000;0,250000;0,250000;0,250000;0,225000;0,375000;0,375000;0,375000;0,291667;0,291667;0,375000;
64;;;;;;;;;;;;;;;;;;;;;;;;;;;;;;;;;;;;;;;;;;;;;;;;;;;;;;;;;;;;;;;;1,000000;0,750000;0,750000;0,250000;0,300000;0,250000;0,250000;0,250000;0,225000;0,375000;0,375000;0,375000;0,291667;0,291667;0,375000;
65;;;;;;;;;;;;;;;;;;;;;;;;;;;;;;;;;;;;;;;;;;;;;;;;;;;;;;;;;;;;;;;;;1,000000;0,750000;0,250000;0,300000;0,250000;0,250000;0,250000;0,225000;0,375000;0,375000;0,375000;0,291667;0,291667;0,375000;
66;;;;;;;;;;;;;;;;;;;;;;;;;;;;;;;;;;;;;;;;;;;;;;;;;;;;;;;;;;;;;;;;;;1,000000;0,250000;0,300000;0,250000;0,250000;0,250000;0,225000;0,375000;0,375000;0,375000;0,291667;0,291667;0,375000;
67;;;;;;;;;;;;;;;;;;;;;;;;;;;;;;;;;;;;;;;;;;;;;;;;;;;;;;;;;;;;;;;;;;;1,000000;0,705554;0,250000;0,250000;0,250000;0,450000;0,375000;0,375000;0,375000;0,291667;0,291667;0,750000;
68;;;;;;;;;;;;;;;;;;;;;;;;;;;;;;;;;;;;;;;;;;;;;;;;;;;;;;;;;;;;;;;;;;;;1,000000;0,300000;0,300000;0,300000;0,450000;0,425000;0,425000;0,425000;0,341667;0,341667;0,425000;
69;;;;;;;;;;;;;;;;;;;;;;;;;;;;;;;;;;;;;;;;;;;;;;;;;;;;;;;;;;;;;;;;;;;;;1,000000;0,750000;0,750000;0,225000;0,375000;0,375000;0,375000;0,291667;0,291667;0,375000;
70;;;;;;;;;;;;;;;;;;;;;;;;;;;;;;;;;;;;;;;;;;;;;;;;;;;;;;;;;;;;;;;;;;;;;;1,000000;0,750000;0,225000;0,375000;0,375000;0,375000;0,291667;0,291667;0,375000;
71;;;;;;;;;;;;;;;;;;;;;;;;;;;;;;;;;;;;;;;;;;;;;;;;;;;;;;;;;;;;;;;;;;;;;;;1,000000;0,225000;0,375000;0,375000;0,375000;0,291667;0,291667;0,375000;
72;;;;;;;;;;;;;;;;;;;;;;;;;;;;;;;;;;;;;;;;;;;;;;;;;;;;;;;;;;;;;;;;;;;;;;;;1,000000;0,350000;0,350000;0,350000;0,266667;0,266667;0,350000;
73;;;;;;;;;;;;;;;;;;;;;;;;;;;;;;;;;;;;;;;;;;;;;;;;;;;;;;;;;;;;;;;;;;;;;;;;;1,000000;0,500000;0,500000;0,416667;0,416667;0,500000;
74;;;;;;;;;;;;;;;;;;;;;;;;;;;;;;;;;;;;;;;;;;;;;;;;;;;;;;;;;;;;;;;;;;;;;;;;;;1,000000;0,500000;0,416667;0,416667;0,500000;
75;;;;;;;;;;;;;;;;;;;;;;;;;;;;;;;;;;;;;;;;;;;;;;;;;;;;;;;;;;;;;;;;;;;;;;;;;;;1,000000;0,416667;0,416667;0,500000;
76;;;;;;;;;;;;;;;;;;;;;;;;;;;;;;;;;;;;;;;;;;;;;;;;;;;;;;;;;;;;;;;;;;;;;;;;;;;;1,000000;0,666667;0,416667;
77;;;;;;;;;;;;;;;;;;;;;;;;;;;;;;;;;;;;;;;;;;;;;;;;;;;;;;;;;;;;;;;;;;;;;;;;;;;;;1,000000;0,416667;
78;;;;;;;;;;;;;;;;;;;;;;;;;;;;;;;;;;;;;;;;;;;;;;;;;;;;;;;;;;;;;;;;;;;;;;;;;;;;;;1,000000;
