;1; 2; 3; 4; 5; 6; 7; 8; 9; 10; 11; 12; 13; 14; 15; 16; 17; 18; 19; 20; 21; 22; 23; 24; 25; 26; 27; 28; 29; 30; 31; 32; 33; 34; 35; 36; 37; 38; 39; 40; 41; 42; 43; 44; 45; 46; 47; 48; 49; 50; 51; 52; 53; 54; 55; 56; 57; 58; 59; 60; 61; 62; 63; 64; 65; 66; 67; 68; 69; 70; 71; 72; 73; 74; 75; 76; 77; 78; 79; 80; 81; 82; 83; 84; 85; 86; 87; 88; 89; 90; 91; 92; 93; 94; 95; 96; 97; 98; 99; 100; 101; 102; 103; 104; 105; 106; 107; 108; 109; 110; 111; 112; 113; 114; 115; 116
1;1,000000;0,171401;0,506944;0,437500;0,437500;0,437500;0,712330;0,412500;0,412500;0,457562;0,412500;0,412500;0,562500;0,491875;0,456785;0,451700;0,451700;0,522065;0,812500;0,437500;0,437500;0,437500;0,562500;0,562500;0,562500;0,425624;0,437500;0,531022;0,812500;0,522244;0,496355;0,492476;0,580872;0,421895;0,412500;0,515846;0,412500;0,412500;0,457562;0,412500;0,412500;0,424363;0,562500;0,523737;0,487500;0,812500;0,459173;0,562500;0,562500;0,642622;0,479167;0,562500;0,463867;0,467544;0,812500;0,562500;0,562500;0,479167;0,479167;0,479167;0,479167;0,612500;0,562500;0,468871;0,398193;0,000000;0,000000;0,479167;0,562500;0,562500;0,479167;0,562500;0,562500;0,437500;0,562500;0,437500;0,437500;0,437500;0,000000;0,000000;0,000000;0,515517;0,479167;0,437500;0,479167;0,812500;0,562500;0,437500;0,812500;0,000000;0,812500;0,812500;0,812500;0,812500;0,479167;0,812500;0,479167;0,479167;0,479167;0,487461;0,562500;0,562500;0,812500;0,479167;0,479167;0,479167;0,412500;0,412500;0,412500;0,000000;0,000000;0,000000;0,000000;0,479167;0,479167;0,812500;
2;;1,000000;0,380057;0,391640;0,391640;0,391640;0,190659;0,418820;0,418820;0,395635;0,418820;0,418820;0,257566;0,214717;0,390518;0,401099;0,401099;0,406907;0,000000;0,391640;0,391640;0,391640;0,277086;0,258074;0,258074;0,370648;0,417170;0,000000;0,000000;0,481009;0,401137;0,445221;0,388898;0,572550;0,447198;0,337791;0,447198;0,419947;0,411432;0,419947;0,419947;0,422826;0,262491;0,399427;0,325188;0,000000;0,310993;0,259416;0,317712;0,250211;0,423142;0,281375;0,385502;0,412205;0,000000;0,282106;0,282106;0,376376;0,371808;0,346247;0,346247;0,255699;0,259441;0,427798;0,455556;0,382699;0,349895;0,368883;0,259441;0,279599;0,394717;0,260566;0,285825;0,444555;0,283929;0,447373;0,447346;0,448435;0,135114;0,135114;0,135114;0,338028;0,372662;0,447346;0,403016;0,000000;0,260114;0,414517;0,000000;0,260114;0,000000;0,000000;0,000000;0,000000;0,389636;0,000000;0,364195;0,354967;0,354967;0,341048;0,264039;0,257057;0,000000;0,347109;0,347109;0,347109;0,453831;0,453831;0,453831;0,000000;0,000000;0,000000;0,000000;0,359944;0,359944;0,000000;
3;;;1,000000;0,659649;0,659649;0,659649;0,594275;0,294444;0,294444;0,449867;0,294444;0,294444;0,444444;0,373820;0,338730;0,333644;0,333644;0,404009;0,694444;0,659649;0,659649;0,659649;0,444444;0,444444;0,444444;0,307569;0,319444;0,412967;0,694444;0,404188;0,378299;0,374420;0,462817;0,303840;0,294444;0,397790;0,294444;0,457051;0,339506;0,457051;0,457051;0,480778;0,444444;0,405681;0,507051;0,694444;0,341118;0,444444;0,444444;0,524567;0,361111;0,444444;0,345811;0,349488;0,694444;0,444444;0,444444;0,361111;0,361111;0,361111;0,361111;0,494444;0,444444;0,350815;0,280137;0,000000;0,000000;0,361111;0,444444;0,444444;0,361111;0,444444;0,444444;0,319444;0,444444;0,319444;0,319444;0,319444;0,000000;0,000000;0,000000;0,397462;0,361111;0,319444;0,361111;0,694444;0,444444;0,319444;0,694444;0,000000;0,694444;0,694444;0,694444;0,694444;0,361111;0,694444;0,361111;0,361111;0,361111;0,369405;0,444444;0,444444;0,694444;0,361111;0,361111;0,361111;0,294444;0,294444;0,294444;0,000000;0,000000;0,000000;0,000000;0,361111;0,361111;0,694444;
4;;;;1,000000;0,750000;0,750000;0,524830;0,225000;0,225000;0,270062;0,225000;0,225000;0,375000;0,304375;0,269285;0,264200;0,264200;0,334565;0,625000;0,500000;0,500000;0,500000;0,375000;0,375000;0,375000;0,238124;0,250000;0,343522;0,625000;0,334744;0,308855;0,304976;0,393372;0,234395;0,225000;0,328346;0,225000;0,225000;0,464036;0,225000;0,225000;0,236863;0,375000;0,336237;0,300000;0,625000;0,271673;0,375000;0,375000;0,455122;0,291667;0,375000;0,276367;0,280044;0,625000;0,375000;0,375000;0,291667;0,291667;0,291667;0,291667;0,425000;0,375000;0,281371;0,210693;0,000000;0,000000;0,291667;0,375000;0,375000;0,291667;0,375000;0,375000;0,250000;0,375000;0,250000;0,250000;0,250000;0,000000;0,000000;0,000000;0,328017;0,291667;0,250000;0,291667;0,625000;0,375000;0,250000;0,625000;0,000000;0,625000;0,625000;0,625000;0,625000;0,291667;0,625000;0,291667;0,291667;0,291667;0,299961;0,375000;0,375000;0,625000;0,291667;0,291667;0,291667;0,225000;0,225000;0,225000;0,000000;0,000000;0,000000;0,000000;0,291667;0,291667;0,625000;
5;;;;;1,000000;0,750000;0,524830;0,225000;0,225000;0,270062;0,225000;0,225000;0,375000;0,304375;0,269285;0,264200;0,264200;0,334565;0,625000;0,500000;0,500000;0,500000;0,375000;0,375000;0,375000;0,238124;0,250000;0,343522;0,625000;0,334744;0,308855;0,304976;0,393372;0,234395;0,225000;0,328346;0,225000;0,225000;0,464036;0,225000;0,225000;0,236863;0,375000;0,336237;0,300000;0,625000;0,271673;0,375000;0,375000;0,455122;0,291667;0,375000;0,276367;0,280044;0,625000;0,375000;0,375000;0,291667;0,291667;0,291667;0,291667;0,425000;0,375000;0,281371;0,210693;0,000000;0,000000;0,291667;0,375000;0,375000;0,291667;0,375000;0,375000;0,250000;0,375000;0,250000;0,250000;0,250000;0,000000;0,000000;0,000000;0,328017;0,291667;0,250000;0,291667;0,625000;0,375000;0,250000;0,625000;0,000000;0,625000;0,625000;0,625000;0,625000;0,291667;0,625000;0,291667;0,291667;0,291667;0,299961;0,375000;0,375000;0,625000;0,291667;0,291667;0,291667;0,225000;0,225000;0,225000;0,000000;0,000000;0,000000;0,000000;0,291667;0,291667;0,625000;
6;;;;;;1,000000;0,524830;0,225000;0,225000;0,270062;0,225000;0,225000;0,375000;0,304375;0,269285;0,264200;0,264200;0,334565;0,625000;0,500000;0,500000;0,500000;0,375000;0,375000;0,375000;0,238124;0,250000;0,343522;0,625000;0,334744;0,308855;0,304976;0,393372;0,234395;0,225000;0,328346;0,225000;0,225000;0,464036;0,225000;0,225000;0,236863;0,375000;0,336237;0,300000;0,625000;0,271673;0,375000;0,375000;0,455122;0,291667;0,375000;0,276367;0,280044;0,625000;0,375000;0,375000;0,291667;0,291667;0,291667;0,291667;0,425000;0,375000;0,281371;0,210693;0,000000;0,000000;0,291667;0,375000;0,375000;0,291667;0,375000;0,375000;0,250000;0,375000;0,250000;0,250000;0,250000;0,000000;0,000000;0,000000;0,328017;0,291667;0,250000;0,291667;0,625000;0,375000;0,250000;0,625000;0,000000;0,625000;0,625000;0,625000;0,625000;0,291667;0,625000;0,291667;0,291667;0,291667;0,299961;0,375000;0,375000;0,625000;0,291667;0,291667;0,291667;0,225000;0,225000;0,225000;0,000000;0,000000;0,000000;0,000000;0,291667;0,291667;0,625000;
7;;;;;;;1,000000;0,499830;0,499830;0,544892;0,499830;0,499830;0,649830;0,664370;0,544115;0,539030;0,539030;0,683541;0,899830;0,524830;0,524830;0,524830;0,649830;0,649830;0,649830;0,512954;0,524830;0,618352;0,899830;0,694196;0,646319;0,680361;0,730728;0,641980;0,499830;0,603176;0,499830;0,499830;0,544892;0,499830;0,499830;0,511694;0,649830;0,775887;0,574830;0,899830;0,638053;0,649830;0,766682;0,729952;0,781717;0,927581;0,551197;0,626164;0,899830;0,927573;0,927573;0,760906;0,760915;0,566497;0,566497;0,699830;0,649830;0,556201;0,485523;0,000000;0,000000;0,760906;0,649830;0,649830;0,760906;0,649830;0,649830;0,829692;0,649830;0,524830;0,524830;0,524830;0,000000;0,000000;0,000000;0,602847;0,566497;0,524830;0,566497;0,899830;0,649830;0,524830;0,899830;0,000000;0,899830;0,899830;0,899830;0,899830;0,566497;0,899830;0,754730;0,566497;0,566497;0,574791;0,649830;0,649830;0,899830;0,566497;0,566497;0,566497;0,499830;0,499830;0,499830;0,000000;0,000000;0,000000;0,000000;0,566497;0,566497;0,899830;
8;;;;;;;;1,000000;0,800000;0,679505;0,800000;0,800000;0,700000;0,279375;0,244285;0,239200;0,239200;0,309565;0,600000;0,225000;0,225000;0,225000;0,350000;0,350000;0,350000;0,213124;0,225000;0,318522;0,600000;0,309744;0,283855;0,279976;0,368372;0,209395;0,200000;0,303346;0,200000;0,200000;0,392816;0,200000;0,200000;0,375781;0,350000;0,311237;0,450000;0,600000;0,246673;0,350000;0,350000;0,430122;0,266667;0,350000;0,251367;0,255044;0,600000;0,350000;0,350000;0,266667;0,266667;0,266667;0,266667;0,400000;0,350000;0,256371;0,185693;0,000000;0,000000;0,266667;0,350000;0,350000;0,266667;0,350000;0,350000;0,225000;0,350000;0,225000;0,225000;0,225000;0,000000;0,000000;0,000000;0,303017;0,266667;0,225000;0,266667;0,600000;0,350000;0,225000;0,600000;0,000000;0,600000;0,600000;0,600000;0,600000;0,266667;0,600000;0,266667;0,266667;0,266667;0,274961;0,350000;0,350000;0,600000;0,266667;0,266667;0,266667;0,200000;0,200000;0,200000;0,000000;0,000000;0,000000;0,000000;0,266667;0,266667;0,600000;
9;;;;;;;;;1,000000;0,679505;0,800000;0,800000;0,700000;0,279375;0,244285;0,239200;0,239200;0,309565;0,600000;0,225000;0,225000;0,225000;0,350000;0,350000;0,350000;0,213124;0,225000;0,318522;0,600000;0,309744;0,283855;0,279976;0,368372;0,209395;0,200000;0,303346;0,200000;0,200000;0,392816;0,200000;0,200000;0,375781;0,350000;0,311237;0,450000;0,600000;0,246673;0,350000;0,350000;0,430122;0,266667;0,350000;0,251367;0,255044;0,600000;0,350000;0,350000;0,266667;0,266667;0,266667;0,266667;0,400000;0,350000;0,256371;0,185693;0,000000;0,000000;0,266667;0,350000;0,350000;0,266667;0,350000;0,350000;0,225000;0,350000;0,225000;0,225000;0,225000;0,000000;0,000000;0,000000;0,303017;0,266667;0,225000;0,266667;0,600000;0,350000;0,225000;0,600000;0,000000;0,600000;0,600000;0,600000;0,600000;0,266667;0,600000;0,266667;0,266667;0,266667;0,274961;0,350000;0,350000;0,600000;0,266667;0,266667;0,266667;0,200000;0,200000;0,200000;0,000000;0,000000;0,000000;0,000000;0,266667;0,266667;0,600000;
10;;;;;;;;;;1,000000;0,679505;0,679505;0,395062;0,324437;0,289347;0,284262;0,284262;0,354626;0,645062;0,270062;0,270062;0,270062;0,395062;0,395062;0,395062;0,258186;0,270062;0,363584;0,645062;0,354805;0,328916;0,325037;0,413434;0,254457;0,245062;0,348408;0,245062;0,545624;0,524457;0,545624;0,545624;0,532130;0,395062;0,356299;0,576543;0,645062;0,291735;0,395062;0,395062;0,475184;0,311728;0,395062;0,296428;0,300106;0,645062;0,395062;0,395062;0,311728;0,311728;0,311728;0,311728;0,445062;0,395062;0,301432;0,230755;0,000000;0,000000;0,311728;0,395062;0,395062;0,311728;0,395062;0,395062;0,270062;0,395062;0,270062;0,270062;0,270062;0,000000;0,000000;0,000000;0,348079;0,311728;0,270062;0,311728;0,645062;0,395062;0,270062;0,645062;0,000000;0,645062;0,645062;0,645062;0,645062;0,311728;0,645062;0,311728;0,311728;0,311728;0,320022;0,395062;0,692840;0,645062;0,311728;0,311728;0,311728;0,245062;0,245062;0,245062;0,000000;0,000000;0,000000;0,000000;0,311728;0,311728;0,645062;
11;;;;;;;;;;;1,000000;0,800000;0,700000;0,279375;0,244285;0,239200;0,239200;0,309565;0,600000;0,225000;0,225000;0,225000;0,350000;0,350000;0,350000;0,213124;0,225000;0,318522;0,600000;0,309744;0,283855;0,279976;0,368372;0,209395;0,200000;0,303346;0,200000;0,200000;0,392816;0,200000;0,200000;0,375781;0,350000;0,311237;0,450000;0,600000;0,246673;0,350000;0,350000;0,430122;0,266667;0,350000;0,251367;0,255044;0,600000;0,350000;0,350000;0,266667;0,266667;0,266667;0,266667;0,400000;0,350000;0,256371;0,185693;0,000000;0,000000;0,266667;0,350000;0,350000;0,266667;0,350000;0,350000;0,225000;0,350000;0,225000;0,225000;0,225000;0,000000;0,000000;0,000000;0,303017;0,266667;0,225000;0,266667;0,600000;0,350000;0,225000;0,600000;0,000000;0,600000;0,600000;0,600000;0,600000;0,266667;0,600000;0,266667;0,266667;0,266667;0,274961;0,350000;0,350000;0,600000;0,266667;0,266667;0,266667;0,200000;0,200000;0,200000;0,000000;0,000000;0,000000;0,000000;0,266667;0,266667;0,600000;
12;;;;;;;;;;;;1,000000;0,700000;0,279375;0,244285;0,239200;0,239200;0,309565;0,600000;0,225000;0,225000;0,225000;0,350000;0,350000;0,350000;0,213124;0,225000;0,318522;0,600000;0,309744;0,283855;0,279976;0,368372;0,209395;0,200000;0,303346;0,200000;0,200000;0,392816;0,200000;0,200000;0,375781;0,350000;0,311237;0,450000;0,600000;0,246673;0,350000;0,350000;0,430122;0,266667;0,350000;0,251367;0,255044;0,600000;0,350000;0,350000;0,266667;0,266667;0,266667;0,266667;0,400000;0,350000;0,256371;0,185693;0,000000;0,000000;0,266667;0,350000;0,350000;0,266667;0,350000;0,350000;0,225000;0,350000;0,225000;0,225000;0,225000;0,000000;0,000000;0,000000;0,303017;0,266667;0,225000;0,266667;0,600000;0,350000;0,225000;0,600000;0,000000;0,600000;0,600000;0,600000;0,600000;0,266667;0,600000;0,266667;0,266667;0,266667;0,274961;0,350000;0,350000;0,600000;0,266667;0,266667;0,266667;0,200000;0,200000;0,200000;0,000000;0,000000;0,000000;0,000000;0,266667;0,266667;0,600000;
13;;;;;;;;;;;;;1,000000;0,429375;0,394285;0,389200;0,389200;0,459565;0,750000;0,375000;0,375000;0,375000;0,500000;0,500000;0,500000;0,363124;0,375000;0,468522;0,750000;0,459744;0,433855;0,429976;0,518372;0,359395;0,350000;0,453346;0,350000;0,350000;0,692816;0,350000;0,350000;0,675781;0,500000;0,461237;0,750000;0,750000;0,396673;0,500000;0,500000;0,580122;0,416667;0,500000;0,401367;0,405044;0,750000;0,500000;0,500000;0,416667;0,416667;0,416667;0,416667;0,550000;0,500000;0,406371;0,335693;0,000000;0,000000;0,416667;0,500000;0,500000;0,416667;0,500000;0,500000;0,375000;0,500000;0,375000;0,375000;0,375000;0,000000;0,000000;0,000000;0,453017;0,416667;0,375000;0,416667;0,750000;0,500000;0,375000;0,750000;0,000000;0,750000;0,750000;0,750000;0,750000;0,416667;0,750000;0,416667;0,416667;0,416667;0,424961;0,500000;0,500000;0,750000;0,416667;0,416667;0,416667;0,350000;0,350000;0,350000;0,000000;0,000000;0,000000;0,000000;0,416667;0,416667;0,750000;
14;;;;;;;;;;;;;;1,000000;0,323661;0,440409;0,440409;0,388940;0,679375;0,304375;0,304375;0,304375;0,429375;0,429375;0,429375;0,534068;0,432670;0,729131;0,679375;0,473733;0,495817;0,494972;0,517555;0,396836;0,279375;0,382721;0,279375;0,279375;0,324437;0,279375;0,279375;0,291239;0,429375;0,390612;0,354375;0,679375;0,430647;0,429375;0,429375;0,509498;0,346042;0,736789;0,330742;0,334419;0,679375;0,429375;0,429375;0,346042;0,570122;0,346042;0,346042;0,479375;0,429375;0,335746;0,365202;0,284110;0,477237;0,346042;0,429375;0,429375;0,346042;0,429375;0,429375;0,486789;0,429375;0,304375;0,304375;0,304375;0,196952;0,196952;0,196952;0,382393;0,346042;0,304375;0,346042;0,679375;0,429375;0,304375;0,679375;0,321952;0,679375;0,679375;0,679375;0,679375;0,346042;0,679375;0,346042;0,562464;0,562464;0,354336;0,429375;0,429375;0,679375;0,346042;0,346042;0,346042;0,279375;0,279375;0,279375;0,196952;0,196952;0,196952;0,196952;0,346042;0,346042;0,679375;
15;;;;;;;;;;;;;;;1,000000;0,702130;0,702130;0,353850;0,644285;0,269285;0,269285;0,269285;0,394285;0,394285;0,394285;0,871300;0,807855;0,362807;0,644285;0,354029;0,328140;0,324261;0,412658;0,253680;0,244285;0,347631;0,244285;0,244285;0,289347;0,244285;0,244285;0,256149;0,394285;0,355522;0,319285;0,644285;0,290958;0,394285;0,394285;0,474407;0,310952;0,394285;0,295652;0,299329;0,644285;0,394285;0,394285;0,310952;0,310952;0,310952;0,310952;0,444285;0,394285;0,300656;0,229978;0,000000;0,000000;0,310952;0,394285;0,394285;0,310952;0,394285;0,394285;0,269285;0,394285;0,269285;0,269285;0,269285;0,000000;0,000000;0,000000;0,347303;0,310952;0,269285;0,310952;0,644285;0,394285;0,269285;0,644285;0,000000;0,644285;0,644285;0,644285;0,644285;0,310952;0,644285;0,310952;0,621904;0,621904;0,319246;0,394285;0,394285;0,644285;0,310952;0,310952;0,310952;0,244285;0,244285;0,244285;0,000000;0,000000;0,000000;0,000000;0,310952;0,310952;0,644285;
16;;;;;;;;;;;;;;;;1,000000;0,722988;0,348765;0,639200;0,264200;0,264200;0,264200;0,389200;0,389200;0,389200;0,661256;0,774225;0,357722;0,639200;0,348944;0,323055;0,319176;0,407572;0,248595;0,239200;0,342546;0,239200;0,239200;0,284262;0,239200;0,239200;0,251064;0,389200;0,350437;0,314200;0,639200;0,285873;0,389200;0,389200;0,469322;0,305867;0,389200;0,290567;0,294244;0,639200;0,389200;0,389200;0,305867;0,305867;0,305867;0,305867;0,439200;0,389200;0,295571;0,224893;0,129034;0,244747;0,305867;0,389200;0,389200;0,305867;0,389200;0,389200;0,264200;0,389200;0,264200;0,264200;0,264200;0,000000;0,000000;0,000000;0,342217;0,305867;0,264200;0,305867;0,639200;0,389200;0,264200;0,639200;0,000000;0,639200;0,639200;0,639200;0,639200;0,305867;0,639200;0,305867;0,829239;0,544611;0,314161;0,389200;0,389200;0,639200;0,305867;0,305867;0,305867;0,239200;0,239200;0,239200;0,000000;0,000000;0,000000;0,000000;0,305867;0,305867;0,639200;
17;;;;;;;;;;;;;;;;;1,000000;0,348765;0,639200;0,264200;0,264200;0,264200;0,389200;0,389200;0,389200;0,661256;0,774225;0,357722;0,639200;0,348944;0,323055;0,319176;0,407572;0,248595;0,239200;0,342546;0,239200;0,239200;0,284262;0,239200;0,239200;0,251064;0,389200;0,350437;0,314200;0,639200;0,285873;0,389200;0,389200;0,469322;0,305867;0,389200;0,290567;0,294244;0,639200;0,389200;0,389200;0,305867;0,305867;0,305867;0,305867;0,439200;0,389200;0,295571;0,224893;0,129034;0,244747;0,305867;0,389200;0,389200;0,305867;0,389200;0,389200;0,264200;0,389200;0,264200;0,264200;0,264200;0,000000;0,000000;0,000000;0,342217;0,305867;0,264200;0,305867;0,639200;0,389200;0,264200;0,639200;0,000000;0,639200;0,639200;0,639200;0,639200;0,305867;0,639200;0,305867;0,544611;0,829239;0,314161;0,389200;0,389200;0,639200;0,305867;0,305867;0,305867;0,239200;0,239200;0,239200;0,000000;0,000000;0,000000;0,000000;0,305867;0,305867;0,639200;
18;;;;;;;;;;;;;;;;;;1,000000;0,709565;0,334565;0,334565;0,334565;0,459565;0,459565;0,459565;0,322689;0,334565;0,428087;0,709565;0,665144;0,420428;0,467301;0,593174;0,580404;0,664371;0,656538;0,664371;0,309565;0,354626;0,309565;0,309565;0,321428;0,459565;0,592481;0,384565;0,709565;0,466448;0,459565;0,763066;0,659650;0,687535;0,459565;0,612167;0,641717;0,709565;0,755968;0,755968;0,589301;0,376231;0,376231;0,376231;0,509565;0,459565;0,442586;0,340055;0,000000;0,000000;0,589301;0,459565;0,794751;0,840765;0,725188;0,459565;0,645292;0,459565;0,334565;0,334565;0,334565;0,000000;0,000000;0,000000;0,412582;0,376231;0,334565;0,376231;0,709565;0,459565;0,662798;0,709565;0,000000;0,709565;0,709565;0,709565;0,709565;0,628084;0,709565;0,376231;0,376231;0,376231;0,384525;0,459565;0,459565;0,709565;0,376231;0,376231;0,376231;0,494751;0,494751;0,494751;0,000000;0,000000;0,000000;0,000000;0,376231;0,376231;0,709565;
19;;;;;;;;;;;;;;;;;;;1,000000;0,625000;0,625000;0,625000;0,750000;0,750000;0,750000;0,613124;0,625000;0,718522;1,000000;0,709744;0,683855;0,679976;0,768372;0,609395;0,600000;0,703346;0,600000;0,600000;0,645062;0,600000;0,600000;0,611863;0,750000;0,711237;0,675000;1,000000;0,646673;0,750000;0,750000;0,830122;0,666667;0,750000;0,651367;0,655044;1,000000;0,750000;0,750000;0,666667;0,666667;0,666667;0,666667;0,800000;0,750000;0,656371;0,585693;0,000000;0,000000;0,666667;0,750000;0,750000;0,666667;0,750000;0,750000;0,625000;0,750000;0,625000;0,625000;0,625000;0,000000;0,000000;0,000000;0,703017;0,666667;0,625000;0,666667;1,000000;0,750000;0,625000;1,000000;0,000000;1,000000;1,000000;1,000000;1,000000;0,666667;1,000000;0,666667;0,666667;0,666667;0,674961;0,750000;0,750000;1,000000;0,666667;0,666667;0,666667;0,600000;0,600000;0,600000;0,000000;0,000000;0,000000;0,000000;0,666667;0,666667;1,000000;
20;;;;;;;;;;;;;;;;;;;;1,000000;0,750000;0,750000;0,375000;0,375000;0,375000;0,238124;0,250000;0,343522;0,625000;0,334744;0,308855;0,304976;0,393372;0,234395;0,225000;0,328346;0,225000;0,225000;0,464036;0,225000;0,225000;0,236863;0,375000;0,336237;0,300000;0,625000;0,271673;0,375000;0,375000;0,455122;0,291667;0,375000;0,276367;0,280044;0,625000;0,375000;0,375000;0,291667;0,291667;0,291667;0,291667;0,425000;0,375000;0,281371;0,210693;0,000000;0,000000;0,291667;0,375000;0,375000;0,291667;0,375000;0,375000;0,250000;0,375000;0,250000;0,250000;0,250000;0,000000;0,000000;0,000000;0,328017;0,291667;0,250000;0,291667;0,625000;0,375000;0,250000;0,625000;0,000000;0,625000;0,625000;0,625000;0,625000;0,291667;0,625000;0,291667;0,291667;0,291667;0,299961;0,375000;0,375000;0,625000;0,291667;0,291667;0,291667;0,225000;0,225000;0,225000;0,000000;0,000000;0,000000;0,000000;0,291667;0,291667;0,625000;
21;;;;;;;;;;;;;;;;;;;;;1,000000;0,750000;0,375000;0,375000;0,375000;0,238124;0,250000;0,343522;0,625000;0,334744;0,308855;0,304976;0,393372;0,234395;0,225000;0,328346;0,225000;0,225000;0,464036;0,225000;0,225000;0,236863;0,375000;0,336237;0,300000;0,625000;0,271673;0,375000;0,375000;0,455122;0,291667;0,375000;0,276367;0,280044;0,625000;0,375000;0,375000;0,291667;0,291667;0,291667;0,291667;0,425000;0,375000;0,281371;0,210693;0,000000;0,000000;0,291667;0,375000;0,375000;0,291667;0,375000;0,375000;0,250000;0,375000;0,250000;0,250000;0,250000;0,000000;0,000000;0,000000;0,328017;0,291667;0,250000;0,291667;0,625000;0,375000;0,250000;0,625000;0,000000;0,625000;0,625000;0,625000;0,625000;0,291667;0,625000;0,291667;0,291667;0,291667;0,299961;0,375000;0,375000;0,625000;0,291667;0,291667;0,291667;0,225000;0,225000;0,225000;0,000000;0,000000;0,000000;0,000000;0,291667;0,291667;0,625000;
22;;;;;;;;;;;;;;;;;;;;;;1,000000;0,375000;0,375000;0,375000;0,238124;0,250000;0,343522;0,625000;0,334744;0,308855;0,304976;0,393372;0,234395;0,225000;0,328346;0,225000;0,225000;0,464036;0,225000;0,225000;0,236863;0,375000;0,336237;0,300000;0,625000;0,271673;0,375000;0,375000;0,455122;0,291667;0,375000;0,276367;0,280044;0,625000;0,375000;0,375000;0,291667;0,291667;0,291667;0,291667;0,425000;0,375000;0,281371;0,210693;0,000000;0,000000;0,291667;0,375000;0,375000;0,291667;0,375000;0,375000;0,250000;0,375000;0,250000;0,250000;0,250000;0,000000;0,000000;0,000000;0,328017;0,291667;0,250000;0,291667;0,625000;0,375000;0,250000;0,625000;0,000000;0,625000;0,625000;0,625000;0,625000;0,291667;0,625000;0,291667;0,291667;0,291667;0,299961;0,375000;0,375000;0,625000;0,291667;0,291667;0,291667;0,225000;0,225000;0,225000;0,000000;0,000000;0,000000;0,000000;0,291667;0,291667;0,625000;
23;;;;;;;;;;;;;;;;;;;;;;;1,000000;0,500000;0,500000;0,363124;0,375000;0,468522;0,750000;0,747272;0,433855;0,429976;0,518372;0,653190;0,700000;0,761468;0,700000;0,350000;0,395062;0,350000;0,350000;0,361863;0,500000;0,787561;0,425000;0,750000;0,396673;0,500000;0,500000;0,580122;0,416667;0,500000;0,802733;0,810088;0,750000;0,500000;0,500000;0,416667;0,416667;0,416667;0,416667;0,550000;0,500000;0,406371;0,335693;0,000000;0,000000;0,416667;0,500000;0,500000;0,416667;0,500000;0,500000;0,375000;0,500000;0,375000;0,375000;0,375000;0,000000;0,000000;0,000000;0,453017;0,416667;0,375000;0,416667;0,750000;0,500000;0,750000;0,750000;0,000000;0,750000;0,750000;0,750000;0,750000;0,833333;0,750000;0,416667;0,416667;0,416667;0,424961;0,500000;0,500000;0,750000;0,416667;0,416667;0,416667;0,350000;0,350000;0,350000;0,000000;0,000000;0,000000;0,000000;0,416667;0,416667;0,750000;
24;;;;;;;;;;;;;;;;;;;;;;;;1,000000;0,500000;0,363124;0,375000;0,468522;0,750000;0,459744;0,433855;0,429976;0,518372;0,359395;0,350000;0,453346;0,350000;0,350000;0,395062;0,350000;0,350000;0,361863;0,500000;0,461237;0,425000;0,750000;0,396673;0,500000;0,500000;0,580122;0,416667;0,500000;0,401367;0,405044;0,750000;0,500000;0,500000;0,416667;0,416667;0,416667;0,416667;0,550000;0,500000;0,406371;0,335693;0,000000;0,000000;0,416667;0,500000;0,500000;0,416667;0,500000;0,500000;0,375000;0,500000;0,375000;0,375000;0,375000;0,000000;0,000000;0,000000;0,453017;0,416667;0,375000;0,416667;0,750000;0,500000;0,375000;0,750000;0,000000;0,750000;0,750000;0,750000;0,750000;0,416667;0,750000;0,416667;0,416667;0,416667;0,424961;0,500000;0,500000;0,750000;0,416667;0,416667;0,416667;0,350000;0,350000;0,350000;0,000000;0,000000;0,000000;0,000000;0,416667;0,416667;0,750000;
25;;;;;;;;;;;;;;;;;;;;;;;;;1,000000;0,363124;0,375000;0,468522;0,750000;0,459744;0,433855;0,429976;0,518372;0,359395;0,350000;0,453346;0,350000;0,350000;0,395062;0,350000;0,350000;0,361863;0,500000;0,461237;0,425000;0,750000;0,396673;0,500000;0,500000;0,580122;0,416667;0,500000;0,401367;0,405044;0,750000;0,500000;0,500000;0,416667;0,416667;0,416667;0,416667;0,550000;0,500000;0,406371;0,335693;0,000000;0,000000;0,416667;0,500000;0,500000;0,416667;0,500000;0,500000;0,375000;0,500000;0,375000;0,375000;0,375000;0,000000;0,000000;0,000000;0,453017;0,416667;0,375000;0,416667;0,750000;0,500000;0,375000;0,750000;0,000000;0,750000;0,750000;0,750000;0,750000;0,416667;0,750000;0,416667;0,416667;0,416667;0,424961;0,500000;0,500000;0,750000;0,416667;0,416667;0,416667;0,350000;0,350000;0,350000;0,000000;0,000000;0,000000;0,000000;0,416667;0,416667;0,750000;
26;;;;;;;;;;;;;;;;;;;;;;;;;;1,000000;0,674610;0,648155;0,613124;0,322868;0,339531;0,335165;0,429203;0,222519;0,213124;0,316470;0,213124;0,213124;0,258186;0,213124;0,213124;0,224988;0,363124;0,324361;0,288124;0,613124;0,349672;0,363124;0,363124;0,443247;0,279791;0,363124;0,264491;0,268168;0,613124;0,363124;0,363124;0,279791;0,482513;0,279791;0,279791;0,413124;0,363124;0,269495;0,284227;0,235082;0,410319;0,279791;0,363124;0,363124;0,279791;0,363124;0,363124;0,238124;0,363124;0,238124;0,238124;0,238124;0,161283;0,161283;0,161283;0,316142;0,279791;0,238124;0,279791;0,613124;0,363124;0,238124;0,613124;0,286283;0,613124;0,613124;0,613124;0,613124;0,279791;0,613124;0,279791;0,540128;0,540128;0,288085;0,363124;0,363124;0,613124;0,279791;0,279791;0,279791;0,213124;0,213124;0,213124;0,161283;0,161283;0,161283;0,161283;0,279791;0,279791;0,613124;
27;;;;;;;;;;;;;;;;;;;;;;;;;;;1,000000;0,343522;0,625000;0,334744;0,308855;0,304976;0,393372;0,234395;0,225000;0,328346;0,225000;0,225000;0,270062;0,225000;0,225000;0,236863;0,375000;0,336237;0,300000;0,625000;0,271673;0,375000;0,375000;0,455122;0,291667;0,375000;0,276367;0,280044;0,625000;0,375000;0,375000;0,291667;0,291667;0,291667;0,291667;0,425000;0,375000;0,281371;0,210693;0,135223;0,250937;0,291667;0,375000;0,375000;0,291667;0,375000;0,375000;0,250000;0,375000;0,250000;0,250000;0,250000;0,000000;0,000000;0,000000;0,328017;0,291667;0,250000;0,291667;0,625000;0,375000;0,250000;0,625000;0,000000;0,625000;0,625000;0,625000;0,625000;0,291667;0,625000;0,291667;0,827214;0,827214;0,299961;0,375000;0,375000;0,625000;0,291667;0,291667;0,291667;0,225000;0,225000;0,225000;0,000000;0,000000;0,000000;0,000000;0,291667;0,291667;0,625000;
28;;;;;;;;;;;;;;;;;;;;;;;;;;;;1,000000;0,718522;0,428266;0,691376;0,687010;0,486895;0,327917;0,318522;0,421868;0,318522;0,318522;0,363584;0,318522;0,318522;0,330386;0,468522;0,429759;0,393522;0,718522;0,701517;0,468522;0,468522;0,548645;0,385189;0,468522;0,369889;0,373566;0,718522;0,468522;0,468522;0,385189;0,385189;0,385189;0,385189;0,518522;0,468522;0,374893;0,636072;0,000000;0,455584;0,385189;0,468522;0,468522;0,385189;0,468522;0,468522;0,343522;0,468522;0,343522;0,343522;0,343522;0,413918;0,413918;0,413918;0,421540;0,385189;0,343522;0,385189;0,718522;0,468522;0,343522;0,718522;0,538918;0,718522;0,718522;0,718522;0,718522;0,385189;0,718522;0,385189;0,385189;0,385189;0,393483;0,468522;0,468522;0,718522;0,385189;0,385189;0,385189;0,318522;0,318522;0,318522;0,413918;0,413918;0,413918;0,413918;0,385189;0,385189;0,718522;
29;;;;;;;;;;;;;;;;;;;;;;;;;;;;;1,000000;0,709744;0,683855;0,679976;0,768372;0,609395;0,600000;0,703346;0,600000;0,600000;0,645062;0,600000;0,600000;0,611863;0,750000;0,711237;0,675000;1,000000;0,646673;0,750000;0,750000;0,830122;0,666667;0,750000;0,651367;0,655044;1,000000;0,750000;0,750000;0,666667;0,666667;0,666667;0,666667;0,800000;0,750000;0,656371;0,585693;0,000000;0,000000;0,666667;0,750000;0,750000;0,666667;0,750000;0,750000;0,625000;0,750000;0,625000;0,625000;0,625000;0,000000;0,000000;0,000000;0,703017;0,666667;0,625000;0,666667;1,000000;0,750000;0,625000;1,000000;0,000000;1,000000;1,000000;1,000000;1,000000;0,666667;1,000000;0,666667;0,666667;0,666667;0,674961;0,750000;0,750000;1,000000;0,666667;0,666667;0,666667;0,600000;0,600000;0,600000;0,000000;0,000000;0,000000;0,000000;0,666667;0,666667;1,000000;
30;;;;;;;;;;;;;;;;;;;;;;;;;;;;;;1,000000;0,653664;0,474694;0,621358;0,559650;0,554402;0,579479;0,554402;0,309744;0,354805;0,309744;0,309744;0,321607;0,459744;0,609630;0,384744;0,709744;0,404698;0,720919;0,644690;0,670369;0,648899;0,736944;0,711573;0,557360;0,709744;0,459744;0,459744;0,572153;0,570277;0,563216;0,563216;0,509744;0,459744;0,509359;0,468247;0,146288;0,000000;0,561286;0,459744;0,805470;0,638803;0,459744;0,718734;0,620568;0,459744;0,468734;0,468734;0,468734;0,151013;0,151013;0,151013;0,624769;0,552067;0,468734;0,552067;0,709744;0,729882;0,632473;0,709744;0,276013;0,709744;0,709744;0,709744;0,709744;0,842228;0,709744;0,729817;0,376410;0,376410;0,384704;0,459744;0,459744;0,709744;0,376410;0,376410;0,376410;0,505470;0,505470;0,505470;0,000000;0,000000;0,000000;0,000000;0,376410;0,376410;0,709744;
31;;;;;;;;;;;;;;;;;;;;;;;;;;;;;;;1,000000;0,639653;0,716144;0,677610;0,395240;0,456135;0,395240;0,283855;0,328916;0,283855;0,283855;0,295718;0,433855;0,395091;0,358855;0,683855;0,392893;0,433855;0,433855;0,513977;0,350521;0,718738;0,335221;0,338899;0,683855;0,433855;0,433855;0,350521;0,552072;0,350521;0,350521;0,483855;0,433855;0,740792;0,767116;0,273802;0,177380;0,350521;0,433855;0,433855;0,350521;0,433855;0,853076;0,605513;0,433855;0,739918;0,739917;0,753167;0,135713;0,135713;0,135713;0,759111;0,686409;0,739917;0,686409;0,683855;0,433855;0,308855;0,683855;0,260713;0,683855;0,683855;0,683855;0,683855;0,350521;0,683855;0,350521;0,350521;0,350521;0,358815;0,433855;0,433855;0,683855;0,350521;0,350521;0,350521;0,283855;0,283855;0,283855;0,135713;0,135713;0,135713;0,135713;0,350521;0,350521;0,683855;
32;;;;;;;;;;;;;;;;;;;;;;;;;;;;;;;;1,000000;0,726834;0,684944;0,390418;0,451312;0,390418;0,279976;0,325037;0,279976;0,279976;0,291839;0,429976;0,503532;0,354976;0,679976;0,440937;0,429976;0,525793;0,510098;0,440942;0,718393;0,331342;0,385275;0,679976;0,686684;0,686684;0,520017;0,551726;0,346642;0,346642;0,479976;0,429976;0,804315;0,739959;0,259874;0,176531;0,520017;0,429976;0,429976;0,520017;0,429976;0,429976;0,736309;0,835740;0,721748;0,721746;0,734267;0,134865;0,134865;0,134865;0,486340;0,528362;0,721746;0,669074;0,679976;0,429976;0,304976;0,679976;0,259865;0,679976;0,679976;0,679976;0,679976;0,346642;0,679976;0,346642;0,346642;0,346642;0,354936;0,429976;0,429976;0,679976;0,346642;0,346642;0,346642;0,279976;0,279976;0,279976;0,134865;0,134865;0,134865;0,134865;0,346642;0,346642;0,679976;
33;;;;;;;;;;;;;;;;;;;;;;;;;;;;;;;;;1,000000;0,689140;0,487107;0,548001;0,487107;0,368372;0,413434;0,368372;0,368372;0,380236;0,518372;0,620003;0,443372;0,768372;0,513635;0,518372;0,642264;0,598495;0,650286;0,518372;0,419739;0,501745;0,768372;0,803155;0,803155;0,636488;0,613356;0,435039;0,435039;0,568372;0,518372;0,846432;0,782633;0,242065;0,185944;0,636488;0,518372;0,518372;0,636488;0,518372;0,833387;0,697882;0,822574;0,767604;0,767604;0,767604;0,000000;0,000000;0,000000;0,739422;0,666720;0,767604;0,892604;0,768372;0,518372;0,393372;0,768372;0,000000;0,768372;0,768372;0,768372;0,768372;0,435039;0,768372;0,616004;0,435039;0,435039;0,443333;0,518372;0,518372;0,768372;0,435039;0,435039;0,435039;0,368372;0,368372;0,368372;0,000000;0,000000;0,000000;0,000000;0,435039;0,435039;0,768372;
34;;;;;;;;;;;;;;;;;;;;;;;;;;;;;;;;;;1,000000;0,651022;0,643236;0,651022;0,209395;0,254457;0,209395;0,209395;0,221259;0,359395;0,566052;0,284395;0,609395;0,345686;0,359395;0,474315;0,439517;0,389464;0,660047;0,455923;0,529282;0,609395;0,635206;0,635206;0,468539;0,493381;0,276062;0,276062;0,409395;0,359395;0,666319;0,602634;0,227412;0,000000;0,468539;0,359395;0,359395;0,468539;0,653489;0,656394;0,562287;0,656447;0,581320;0,581320;0,731227;0,000000;0,000000;0,000000;0,562429;0,489727;0,581320;0,706320;0,609395;0,359395;0,403190;0,609395;0,000000;0,609395;0,609395;0,609395;0,609395;0,486524;0,609395;0,276062;0,276062;0,276062;0,284356;0,359395;0,359395;0,609395;0,276062;0,276062;0,276062;0,209395;0,209395;0,209395;0,000000;0,000000;0,000000;0,000000;0,276062;0,276062;0,609395;
35;;;;;;;;;;;;;;;;;;;;;;;;;;;;;;;;;;;1,000000;0,791963;0,800000;0,200000;0,245062;0,200000;0,200000;0,211863;0,350000;0,487561;0,275000;0,600000;0,246673;0,350000;0,350000;0,430122;0,266667;0,350000;0,502733;0,510088;0,600000;0,350000;0,350000;0,266667;0,266667;0,266667;0,266667;0,400000;0,350000;0,417398;0,314867;0,000000;0,000000;0,266667;0,350000;0,350000;0,266667;0,700000;0,350000;0,450000;0,350000;0,225000;0,225000;0,225000;0,000000;0,000000;0,000000;0,303017;0,266667;0,225000;0,266667;0,600000;0,350000;0,450000;0,600000;0,000000;0,600000;0,600000;0,600000;0,600000;0,533333;0,600000;0,266667;0,266667;0,266667;0,274961;0,350000;0,350000;0,600000;0,266667;0,266667;0,266667;0,200000;0,200000;0,200000;0,000000;0,000000;0,000000;0,000000;0,266667;0,266667;0,600000;
36;;;;;;;;;;;;;;;;;;;;;;;;;;;;;;;;;;;;1,000000;0,791963;0,303346;0,348408;0,303346;0,303346;0,315209;0,453346;0,549028;0,378346;0,703346;0,350019;0,453346;0,453346;0,533468;0,370013;0,453346;0,564201;0,571556;0,703346;0,453346;0,453346;0,370013;0,370013;0,370013;0,370013;0,503346;0,453346;0,478293;0,375762;0,000000;0,000000;0,370013;0,453346;0,453346;0,370013;0,453346;0,453346;0,510894;0,453346;0,328346;0,328346;0,328346;0,000000;0,000000;0,000000;0,406363;0,370013;0,328346;0,370013;0,703346;0,453346;0,511468;0,703346;0,000000;0,703346;0,703346;0,703346;0,703346;0,594801;0,703346;0,370013;0,370013;0,370013;0,378307;0,453346;0,453346;0,703346;0,370013;0,370013;0,370013;0,303346;0,303346;0,303346;0,000000;0,000000;0,000000;0,000000;0,370013;0,370013;0,703346;
37;;;;;;;;;;;;;;;;;;;;;;;;;;;;;;;;;;;;;1,000000;0,200000;0,245062;0,200000;0,200000;0,211863;0,350000;0,487561;0,275000;0,600000;0,246673;0,350000;0,350000;0,430122;0,266667;0,350000;0,502733;0,510088;0,600000;0,350000;0,350000;0,266667;0,266667;0,266667;0,266667;0,400000;0,350000;0,417398;0,314867;0,000000;0,000000;0,266667;0,350000;0,350000;0,266667;0,700000;0,350000;0,450000;0,350000;0,225000;0,225000;0,225000;0,000000;0,000000;0,000000;0,303017;0,266667;0,225000;0,266667;0,600000;0,350000;0,450000;0,600000;0,000000;0,600000;0,600000;0,600000;0,600000;0,533333;0,600000;0,266667;0,266667;0,266667;0,274961;0,350000;0,350000;0,600000;0,266667;0,266667;0,266667;0,200000;0,200000;0,200000;0,000000;0,000000;0,000000;0,000000;0,266667;0,266667;0,600000;
38;;;;;;;;;;;;;;;;;;;;;;;;;;;;;;;;;;;;;;1,000000;0,716792;0,800000;0,800000;0,734075;0,350000;0,311237;0,630920;0,600000;0,246673;0,350000;0,350000;0,430122;0,266667;0,350000;0,251367;0,255044;0,600000;0,350000;0,350000;0,266667;0,266667;0,266667;0,266667;0,400000;0,350000;0,256371;0,185693;0,000000;0,000000;0,266667;0,350000;0,350000;0,266667;0,350000;0,350000;0,225000;0,350000;0,225000;0,225000;0,225000;0,000000;0,000000;0,000000;0,303017;0,266667;0,225000;0,266667;0,600000;0,350000;0,225000;0,600000;0,000000;0,600000;0,600000;0,600000;0,600000;0,266667;0,600000;0,266667;0,266667;0,266667;0,274961;0,350000;0,350000;0,600000;0,266667;0,266667;0,266667;0,200000;0,200000;0,200000;0,000000;0,000000;0,000000;0,000000;0,266667;0,266667;0,600000;
39;;;;;;;;;;;;;;;;;;;;;;;;;;;;;;;;;;;;;;;1,000000;0,716792;0,716792;0,749391;0,395062;0,356299;0,609647;0,645062;0,291735;0,395062;0,395062;0,475184;0,311728;0,395062;0,296428;0,300106;0,645062;0,395062;0,395062;0,311728;0,311728;0,311728;0,311728;0,445062;0,395062;0,301432;0,230755;0,000000;0,000000;0,311728;0,395062;0,395062;0,311728;0,395062;0,395062;0,270062;0,395062;0,270062;0,270062;0,270062;0,000000;0,000000;0,000000;0,348079;0,311728;0,270062;0,311728;0,645062;0,395062;0,270062;0,645062;0,000000;0,645062;0,645062;0,645062;0,645062;0,311728;0,645062;0,311728;0,311728;0,311728;0,320022;0,395062;0,692840;0,645062;0,311728;0,311728;0,311728;0,245062;0,245062;0,245062;0,000000;0,000000;0,000000;0,000000;0,311728;0,311728;0,645062;
40;;;;;;;;;;;;;;;;;;;;;;;;;;;;;;;;;;;;;;;;1,000000;0,800000;0,734075;0,350000;0,311237;0,630920;0,600000;0,246673;0,350000;0,350000;0,430122;0,266667;0,350000;0,251367;0,255044;0,600000;0,350000;0,350000;0,266667;0,266667;0,266667;0,266667;0,400000;0,350000;0,256371;0,185693;0,000000;0,000000;0,266667;0,350000;0,350000;0,266667;0,350000;0,350000;0,225000;0,350000;0,225000;0,225000;0,225000;0,000000;0,000000;0,000000;0,303017;0,266667;0,225000;0,266667;0,600000;0,350000;0,225000;0,600000;0,000000;0,600000;0,600000;0,600000;0,600000;0,266667;0,600000;0,266667;0,266667;0,266667;0,274961;0,350000;0,350000;0,600000;0,266667;0,266667;0,266667;0,200000;0,200000;0,200000;0,000000;0,000000;0,000000;0,000000;0,266667;0,266667;0,600000;
41;;;;;;;;;;;;;;;;;;;;;;;;;;;;;;;;;;;;;;;;;1,000000;0,734075;0,350000;0,311237;0,630920;0,600000;0,246673;0,350000;0,350000;0,430122;0,266667;0,350000;0,251367;0,255044;0,600000;0,350000;0,350000;0,266667;0,266667;0,266667;0,266667;0,400000;0,350000;0,256371;0,185693;0,000000;0,000000;0,266667;0,350000;0,350000;0,266667;0,350000;0,350000;0,225000;0,350000;0,225000;0,225000;0,225000;0,000000;0,000000;0,000000;0,303017;0,266667;0,225000;0,266667;0,600000;0,350000;0,225000;0,600000;0,000000;0,600000;0,600000;0,600000;0,600000;0,266667;0,600000;0,266667;0,266667;0,266667;0,274961;0,350000;0,350000;0,600000;0,266667;0,266667;0,266667;0,200000;0,200000;0,200000;0,000000;0,000000;0,000000;0,000000;0,266667;0,266667;0,600000;
42;;;;;;;;;;;;;;;;;;;;;;;;;;;;;;;;;;;;;;;;;;1,000000;0,361863;0,323100;0,617342;0,611863;0,258537;0,361863;0,361863;0,441986;0,278530;0,361863;0,263230;0,266908;0,611863;0,361863;0,361863;0,278530;0,278530;0,278530;0,278530;0,411863;0,361863;0,268234;0,197556;0,000000;0,000000;0,278530;0,361863;0,361863;0,278530;0,361863;0,361863;0,236863;0,361863;0,236863;0,236863;0,236863;0,000000;0,000000;0,000000;0,314881;0,278530;0,236863;0,278530;0,611863;0,361863;0,236863;0,611863;0,000000;0,611863;0,611863;0,611863;0,611863;0,278530;0,611863;0,278530;0,278530;0,278530;0,286824;0,361863;0,675822;0,611863;0,278530;0,278530;0,278530;0,211863;0,211863;0,211863;0,000000;0,000000;0,000000;0,000000;0,278530;0,278530;0,611863;
43;;;;;;;;;;;;;;;;;;;;;;;;;;;;;;;;;;;;;;;;;;;1,000000;0,461237;0,425000;0,750000;0,396673;0,500000;0,500000;0,580122;0,416667;0,500000;0,401367;0,405044;0,750000;0,500000;0,500000;0,416667;0,416667;0,416667;0,416667;0,550000;0,500000;0,406371;0,335693;0,000000;0,000000;0,416667;0,500000;0,500000;0,416667;0,500000;0,500000;0,375000;0,500000;0,375000;0,375000;0,375000;0,000000;0,000000;0,000000;0,453017;0,416667;0,375000;0,416667;0,750000;0,500000;0,375000;0,750000;0,000000;0,750000;0,750000;0,750000;0,750000;0,416667;0,750000;0,416667;0,416667;0,416667;0,424961;0,500000;0,500000;0,750000;0,416667;0,416667;0,416667;0,350000;0,350000;0,350000;0,000000;0,000000;0,000000;0,000000;0,416667;0,416667;0,750000;
44;;;;;;;;;;;;;;;;;;;;;;;;;;;;;;;;;;;;;;;;;;;;1,000000;0,386237;0,711237;0,527328;0,723634;0,655957;0,711478;0,571106;0,461237;0,590294;0,741250;0,711237;0,816848;0,816848;0,650181;0,377904;0,377904;0,377904;0,511237;0,461237;0,367607;0,296930;0,000000;0,000000;0,650181;0,461237;0,461237;0,650181;0,461237;0,461237;0,566848;0,461237;0,336237;0,336237;0,336237;0,000000;0,000000;0,000000;0,414254;0,377904;0,336237;0,377904;0,711237;0,461237;0,537561;0,711237;0,000000;0,711237;0,711237;0,711237;0,711237;0,620894;0,711237;0,554731;0,377904;0,377904;0,386198;0,461237;0,461237;0,711237;0,377904;0,377904;0,377904;0,660190;0,660190;0,660190;0,000000;0,000000;0,000000;0,000000;0,377904;0,377904;0,711237;
45;;;;;;;;;;;;;;;;;;;;;;;;;;;;;;;;;;;;;;;;;;;;;1,000000;0,675000;0,321673;0,425000;0,425000;0,505122;0,341667;0,425000;0,326367;0,330044;0,675000;0,425000;0,425000;0,341667;0,341667;0,341667;0,341667;0,475000;0,425000;0,331371;0,260693;0,000000;0,000000;0,341667;0,425000;0,425000;0,341667;0,425000;0,425000;0,300000;0,425000;0,300000;0,300000;0,300000;0,000000;0,000000;0,000000;0,378017;0,341667;0,300000;0,341667;0,675000;0,425000;0,300000;0,675000;0,000000;0,675000;0,675000;0,675000;0,675000;0,341667;0,675000;0,341667;0,341667;0,341667;0,349961;0,425000;0,425000;0,675000;0,341667;0,341667;0,341667;0,275000;0,275000;0,275000;0,000000;0,000000;0,000000;0,000000;0,341667;0,341667;0,675000;
46;;;;;;;;;;;;;;;;;;;;;;;;;;;;;;;;;;;;;;;;;;;;;;1,000000;0,646673;0,750000;0,750000;0,830122;0,666667;0,750000;0,651367;0,655044;1,000000;0,750000;0,750000;0,666667;0,666667;0,666667;0,666667;0,800000;0,750000;0,656371;0,585693;0,000000;0,000000;0,666667;0,750000;0,750000;0,666667;0,750000;0,750000;0,625000;0,750000;0,625000;0,625000;0,625000;0,000000;0,000000;0,000000;0,703017;0,666667;0,625000;0,666667;1,000000;0,750000;0,625000;1,000000;0,000000;1,000000;1,000000;1,000000;1,000000;0,666667;1,000000;0,666667;0,666667;0,666667;0,674961;0,750000;0,750000;1,000000;0,666667;0,666667;0,666667;0,600000;0,600000;0,600000;0,000000;0,000000;0,000000;0,000000;0,666667;0,666667;1,000000;
47;;;;;;;;;;;;;;;;;;;;;;;;;;;;;;;;;;;;;;;;;;;;;;;1,000000;0,396673;0,549590;0,476795;0,464739;0,396673;0,298040;0,409071;0,646673;0,710480;0,710480;0,543814;0,313340;0,510109;0,510109;0,446673;0,396673;0,303044;0,337588;0,500342;0,246500;0,742826;0,396673;0,396673;0,543814;0,396673;0,396673;0,460480;0,396673;0,271673;0,271673;0,271673;0,549806;0,549806;0,549806;0,349691;0,313340;0,271673;0,313340;0,646673;0,396673;0,271673;0,646673;0,329833;0,646673;0,646673;0,646673;0,646673;0,313340;0,646673;0,313340;0,313340;0,313340;0,321634;0,396673;0,396673;0,646673;0,313340;0,313340;0,313340;0,246673;0,246673;0,246673;0,204833;0,204833;0,204833;0,204833;0,313340;0,313340;0,646673;
48;;;;;;;;;;;;;;;;;;;;;;;;;;;;;;;;;;;;;;;;;;;;;;;;1,000000;0,500000;0,580122;0,416667;0,500000;0,401367;0,405044;0,750000;0,500000;0,500000;0,416667;0,416667;0,416667;0,416667;0,550000;0,500000;0,406371;0,335693;0,000000;0,000000;0,416667;0,500000;0,500000;0,416667;0,500000;0,500000;0,375000;0,500000;0,375000;0,375000;0,375000;0,000000;0,000000;0,000000;0,453017;0,416667;0,375000;0,416667;0,750000;0,500000;0,375000;0,750000;0,000000;0,750000;0,750000;0,750000;0,750000;0,416667;0,750000;0,416667;0,416667;0,416667;0,424961;0,500000;0,500000;0,750000;0,416667;0,416667;0,416667;0,350000;0,350000;0,350000;0,000000;0,000000;0,000000;0,000000;0,416667;0,416667;0,750000;
49;;;;;;;;;;;;;;;;;;;;;;;;;;;;;;;;;;;;;;;;;;;;;;;;;1,000000;0,704119;0,769070;0,500000;0,401367;0,537700;0,750000;0,839109;0,839109;0,672443;0,416667;0,416667;0,416667;0,550000;0,500000;0,406371;0,335693;0,000000;0,000000;0,672443;0,500000;0,839220;0,922301;0,500000;0,500000;0,589109;0,500000;0,375000;0,375000;0,375000;0,000000;0,000000;0,000000;0,453017;0,416667;0,375000;0,416667;0,750000;0,500000;0,375000;0,750000;0,000000;0,750000;0,750000;0,750000;0,750000;0,672554;0,750000;0,416667;0,416667;0,416667;0,424961;0,500000;0,500000;0,750000;0,416667;0,416667;0,416667;0,539220;0,539220;0,539220;0,000000;0,000000;0,000000;0,000000;0,416667;0,416667;0,750000;
50;;;;;;;;;;;;;;;;;;;;;;;;;;;;;;;;;;;;;;;;;;;;;;;;;;1,000000;0,619238;0,580122;0,481489;0,485166;0,830122;0,580122;0,580122;0,496789;0,496789;0,496789;0,496789;0,630122;0,580122;0,486493;0,415815;0,000000;0,000000;0,496789;0,580122;0,864899;0,698233;0,580122;0,580122;0,455122;0,580122;0,455122;0,455122;0,455122;0,000000;0,000000;0,000000;0,533140;0,496789;0,455122;0,496789;0,830122;0,580122;0,455122;0,830122;0,000000;0,830122;0,830122;0,830122;0,830122;0,698233;0,830122;0,496789;0,496789;0,496789;0,505083;0,580122;0,580122;0,830122;0,496789;0,496789;0,496789;0,851570;0,851570;0,851570;0,000000;0,000000;0,000000;0,000000;0,496789;0,496789;0,830122;
51;;;;;;;;;;;;;;;;;;;;;;;;;;;;;;;;;;;;;;;;;;;;;;;;;;;1,000000;0,416667;0,318033;0,452849;0,666667;0,754258;0,754258;0,587592;0,333333;0,333333;0,333333;0,466667;0,416667;0,323037;0,252360;0,000000;0,000000;0,587592;0,416667;0,754339;0,846769;0,416667;0,416667;0,504258;0,416667;0,291667;0,291667;0,291667;0,000000;0,000000;0,000000;0,369684;0,333333;0,291667;0,333333;0,666667;0,416667;0,291667;0,666667;0,000000;0,666667;0,666667;0,666667;0,666667;0,587672;0,666667;0,587919;0,333333;0,333333;0,341627;0,416667;0,416667;0,666667;0,333333;0,333333;0,333333;0,454339;0,454339;0,454339;0,000000;0,000000;0,000000;0,000000;0,333333;0,333333;0,666667;
52;;;;;;;;;;;;;;;;;;;;;;;;;;;;;;;;;;;;;;;;;;;;;;;;;;;;1,000000;0,401367;0,405044;0,750000;0,500000;0,500000;0,416667;0,833333;0,416667;0,416667;0,550000;0,500000;0,406371;0,335693;0,000000;0,000000;0,416667;0,500000;0,500000;0,416667;0,500000;0,500000;0,750000;0,500000;0,375000;0,375000;0,375000;0,000000;0,000000;0,000000;0,453017;0,416667;0,375000;0,416667;0,750000;0,500000;0,375000;0,750000;0,000000;0,750000;0,750000;0,750000;0,750000;0,416667;0,750000;0,416667;0,416667;0,416667;0,424961;0,500000;0,500000;0,750000;0,416667;0,416667;0,416667;0,350000;0,350000;0,350000;0,000000;0,000000;0,000000;0,000000;0,416667;0,416667;0,750000;
53;;;;;;;;;;;;;;;;;;;;;;;;;;;;;;;;;;;;;;;;;;;;;;;;;;;;;1,000000;0,695037;0,651367;0,401367;0,401367;0,318033;0,318033;0,318033;0,318033;0,451367;0,401367;0,307737;0,237059;0,000000;0,000000;0,318033;0,401367;0,401367;0,318033;0,401367;0,401367;0,276367;0,401367;0,276367;0,276367;0,276367;0,000000;0,000000;0,000000;0,354384;0,318033;0,276367;0,318033;0,651367;0,401367;0,829100;0,651367;0,000000;0,651367;0,651367;0,651367;0,651367;0,636067;0,651367;0,318033;0,318033;0,318033;0,326327;0,401367;0,401367;0,651367;0,318033;0,318033;0,318033;0,251367;0,251367;0,251367;0,000000;0,000000;0,000000;0,000000;0,318033;0,318033;0,651367;
54;;;;;;;;;;;;;;;;;;;;;;;;;;;;;;;;;;;;;;;;;;;;;;;;;;;;;;1,000000;0,655044;0,698591;0,698591;0,531924;0,321711;0,321711;0,321711;0,455044;0,405044;0,311415;0,240737;0,000000;0,000000;0,531924;0,405044;0,405044;0,531924;0,405044;0,405044;0,448591;0,405044;0,280044;0,280044;0,280044;0,000000;0,000000;0,000000;0,358061;0,321711;0,280044;0,321711;0,655044;0,405044;0,801737;0,655044;0,000000;0,655044;0,655044;0,655044;0,655044;0,643421;0,655044;0,321711;0,321711;0,321711;0,330005;0,405044;0,405044;0,655044;0,321711;0,321711;0,321711;0,255044;0,255044;0,255044;0,000000;0,000000;0,000000;0,000000;0,321711;0,321711;0,655044;
55;;;;;;;;;;;;;;;;;;;;;;;;;;;;;;;;;;;;;;;;;;;;;;;;;;;;;;;1,000000;0,750000;0,750000;0,666667;0,666667;0,666667;0,666667;0,800000;0,750000;0,656371;0,585693;0,000000;0,000000;0,666667;0,750000;0,750000;0,666667;0,750000;0,750000;0,625000;0,750000;0,625000;0,625000;0,625000;0,000000;0,000000;0,000000;0,703017;0,666667;0,625000;0,666667;1,000000;0,750000;0,625000;1,000000;0,000000;1,000000;1,000000;1,000000;1,000000;0,666667;1,000000;0,666667;0,666667;0,666667;0,674961;0,750000;0,750000;1,000000;0,666667;0,666667;0,666667;0,600000;0,600000;0,600000;0,000000;0,000000;0,000000;0,000000;0,666667;0,666667;1,000000;
56;;;;;;;;;;;;;;;;;;;;;;;;;;;;;;;;;;;;;;;;;;;;;;;;;;;;;;;;1,000000;1,000000;0,833333;0,416667;0,416667;0,416667;0,550000;0,500000;0,406371;0,335693;0,000000;0,000000;0,833333;0,500000;0,500000;0,833333;0,500000;0,500000;0,750000;0,500000;0,375000;0,375000;0,375000;0,000000;0,000000;0,000000;0,453017;0,416667;0,375000;0,416667;0,750000;0,500000;0,375000;0,750000;0,000000;0,750000;0,750000;0,750000;0,750000;0,416667;0,750000;0,416667;0,416667;0,416667;0,424961;0,500000;0,500000;0,750000;0,416667;0,416667;0,416667;0,350000;0,350000;0,350000;0,000000;0,000000;0,000000;0,000000;0,416667;0,416667;0,750000;
57;;;;;;;;;;;;;;;;;;;;;;;;;;;;;;;;;;;;;;;;;;;;;;;;;;;;;;;;;1,000000;0,833333;0,416667;0,416667;0,416667;0,550000;0,500000;0,406371;0,335693;0,000000;0,000000;0,833333;0,500000;0,500000;0,833333;0,500000;0,500000;0,750000;0,500000;0,375000;0,375000;0,375000;0,000000;0,000000;0,000000;0,453017;0,416667;0,375000;0,416667;0,750000;0,500000;0,375000;0,750000;0,000000;0,750000;0,750000;0,750000;0,750000;0,416667;0,750000;0,416667;0,416667;0,416667;0,424961;0,500000;0,500000;0,750000;0,416667;0,416667;0,416667;0,350000;0,350000;0,350000;0,000000;0,000000;0,000000;0,000000;0,416667;0,416667;0,750000;
58;;;;;;;;;;;;;;;;;;;;;;;;;;;;;;;;;;;;;;;;;;;;;;;;;;;;;;;;;;1,000000;0,333333;0,588263;0,588263;0,466667;0,416667;0,323037;0,252360;0,190634;0,000000;0,666667;0,416667;0,416667;0,666667;0,416667;0,416667;0,583333;0,416667;0,291667;0,291667;0,291667;0,228908;0,228908;0,228908;0,369684;0,333333;0,291667;0,333333;0,666667;0,754930;0,291667;0,666667;0,353908;0,666667;0,666667;0,666667;0,666667;0,333333;0,666667;0,333333;0,333333;0,333333;0,341627;0,416667;0,416667;0,666667;0,333333;0,333333;0,333333;0,266667;0,266667;0,266667;0,000000;0,000000;0,000000;0,000000;0,333333;0,333333;0,666667;
59;;;;;;;;;;;;;;;;;;;;;;;;;;;;;;;;;;;;;;;;;;;;;;;;;;;;;;;;;;;1,000000;0,333333;0,333333;0,466667;0,416667;0,323037;0,252360;0,224130;0,333333;0,333333;0,416667;0,416667;0,333333;0,416667;0,416667;0,583333;0,416667;0,291667;0,291667;0,291667;0,000000;0,000000;0,000000;0,369684;0,333333;0,291667;0,333333;0,666667;0,416667;0,291667;0,666667;0,000000;0,666667;0,666667;0,666667;0,666667;0,333333;0,666667;0,333333;0,333333;0,333333;0,341627;0,416667;0,416667;0,666667;0,333333;0,333333;0,333333;0,266667;0,266667;0,266667;0,000000;0,000000;0,000000;0,000000;0,333333;0,333333;0,666667;
60;;;;;;;;;;;;;;;;;;;;;;;;;;;;;;;;;;;;;;;;;;;;;;;;;;;;;;;;;;;;1,000000;0,666667;0,466667;0,416667;0,323037;0,252360;0,253393;0,000000;0,333333;0,416667;0,416667;0,333333;0,416667;0,416667;0,291667;0,416667;0,291667;0,291667;0,291667;0,291667;0,291667;0,291667;0,369684;0,333333;0,291667;0,333333;0,666667;0,833333;0,291667;0,666667;0,416667;0,666667;0,666667;0,666667;0,666667;0,333333;0,666667;0,333333;0,333333;0,333333;0,341627;0,416667;0,416667;0,666667;0,333333;0,333333;0,333333;0,266667;0,266667;0,266667;0,000000;0,000000;0,000000;0,000000;0,333333;0,333333;0,666667;
61;;;;;;;;;;;;;;;;;;;;;;;;;;;;;;;;;;;;;;;;;;;;;;;;;;;;;;;;;;;;;1,000000;0,466667;0,416667;0,323037;0,252360;0,253393;0,000000;0,333333;0,416667;0,416667;0,333333;0,416667;0,416667;0,291667;0,416667;0,291667;0,291667;0,291667;0,291667;0,291667;0,291667;0,369684;0,333333;0,291667;0,333333;0,666667;0,833333;0,291667;0,666667;0,416667;0,666667;0,666667;0,666667;0,666667;0,333333;0,666667;0,333333;0,333333;0,333333;0,341627;0,416667;0,416667;0,666667;0,333333;0,333333;0,333333;0,266667;0,266667;0,266667;0,000000;0,000000;0,000000;0,000000;0,333333;0,333333;0,666667;
62;;;;;;;;;;;;;;;;;;;;;;;;;;;;;;;;;;;;;;;;;;;;;;;;;;;;;;;;;;;;;;1,000000;0,550000;0,456371;0,385693;0,000000;0,000000;0,466667;0,550000;0,550000;0,466667;0,550000;0,550000;0,425000;0,550000;0,425000;0,425000;0,425000;0,000000;0,000000;0,000000;0,503017;0,466667;0,425000;0,466667;0,800000;0,550000;0,425000;0,800000;0,000000;0,800000;0,800000;0,800000;0,800000;0,466667;0,800000;0,466667;0,466667;0,466667;0,474961;0,550000;0,550000;0,800000;0,466667;0,466667;0,466667;0,400000;0,400000;0,400000;0,000000;0,000000;0,000000;0,000000;0,466667;0,466667;0,800000;
63;;;;;;;;;;;;;;;;;;;;;;;;;;;;;;;;;;;;;;;;;;;;;;;;;;;;;;;;;;;;;;;1,000000;0,406371;0,335693;0,000000;0,000000;0,416667;1,000000;0,500000;0,416667;0,500000;0,500000;0,375000;0,500000;0,375000;0,375000;0,375000;0,000000;0,000000;0,000000;0,453017;0,416667;0,375000;0,416667;0,750000;0,500000;0,375000;0,750000;0,000000;0,750000;0,750000;0,750000;0,750000;0,416667;0,750000;0,416667;0,416667;0,416667;0,424961;0,500000;0,500000;0,750000;0,416667;0,416667;0,416667;0,350000;0,350000;0,350000;0,000000;0,000000;0,000000;0,000000;0,416667;0,416667;0,750000;
64;;;;;;;;;;;;;;;;;;;;;;;;;;;;;;;;;;;;;;;;;;;;;;;;;;;;;;;;;;;;;;;;1,000000;0,806425;0,395961;0,000000;0,323037;0,406371;0,406371;0,323037;0,406371;0,717671;0,467398;0,812741;0,747719;0,747719;0,935091;0,000000;0,000000;0,000000;0,623706;0,551005;0,747719;0,872719;0,656371;0,406371;0,281371;0,656371;0,000000;0,656371;0,656371;0,656371;0,656371;0,323037;0,656371;0,323037;0,323037;0,323037;0,331331;0,406371;0,406371;0,656371;0,323037;0,323037;0,323037;0,256371;0,256371;0,256371;0,000000;0,000000;0,000000;0,000000;0,323037;0,323037;0,656371;
65;;;;;;;;;;;;;;;;;;;;;;;;;;;;;;;;;;;;;;;;;;;;;;;;;;;;;;;;;;;;;;;;;1,000000;0,325043;0,221457;0,252360;0,335693;0,335693;0,252360;0,335693;0,714739;0,364867;0,714535;0,719427;0,719427;0,719427;0,179790;0,179790;0,179790;0,620774;0,548072;0,719427;0,844427;0,585693;0,335693;0,210693;0,585693;0,304790;0,585693;0,585693;0,585693;0,585693;0,252360;0,585693;0,252360;0,252360;0,252360;0,260654;0,335693;0,335693;0,585693;0,252360;0,252360;0,252360;0,185693;0,185693;0,185693;0,179790;0,179790;0,179790;0,179790;0,252360;0,252360;0,585693;
66;;;;;;;;;;;;;;;;;;;;;;;;;;;;;;;;;;;;;;;;;;;;;;;;;;;;;;;;;;;;;;;;;;1,000000;0,440710;0,000000;0,000000;0,000000;0,000000;0,000000;0,285209;0,000000;0,285704;0,320901;0,320901;0,488843;0,562437;0,562437;0,562437;0,238226;0,201875;0,320901;0,404234;0,000000;0,336726;0,000000;0,000000;0,336726;0,000000;0,000000;0,000000;0,000000;0,000000;0,000000;0,000000;0,217620;0,217620;0,000000;0,000000;0,000000;0,000000;0,000000;0,000000;0,000000;0,000000;0,000000;0,000000;0,617013;0,617013;0,617013;0,617013;0,000000;0,000000;0,000000;
67;;;;;;;;;;;;;;;;;;;;;;;;;;;;;;;;;;;;;;;;;;;;;;;;;;;;;;;;;;;;;;;;;;;1,000000;0,000000;0,000000;0,000000;0,000000;0,000000;0,000000;0,000000;0,000000;0,000000;0,000000;0,000000;0,291667;0,291667;0,291667;0,000000;0,000000;0,000000;0,000000;0,000000;0,000000;0,000000;0,000000;0,416667;0,000000;0,000000;0,000000;0,000000;0,000000;0,000000;0,000000;0,333333;0,333333;0,000000;0,000000;0,000000;0,000000;0,000000;0,000000;0,000000;0,000000;0,000000;0,000000;0,291667;0,291667;0,291667;0,291667;0,000000;0,000000;0,000000;
68;;;;;;;;;;;;;;;;;;;;;;;;;;;;;;;;;;;;;;;;;;;;;;;;;;;;;;;;;;;;;;;;;;;;1,000000;0,416667;0,416667;0,666667;0,416667;0,416667;0,583333;0,416667;0,291667;0,291667;0,291667;0,000000;0,000000;0,000000;0,369684;0,333333;0,291667;0,333333;0,666667;0,416667;0,291667;0,666667;0,000000;0,666667;0,666667;0,666667;0,666667;0,333333;0,666667;0,333333;0,333333;0,333333;0,341627;0,416667;0,416667;0,666667;0,333333;0,333333;0,333333;0,266667;0,266667;0,266667;0,000000;0,000000;0,000000;0,000000;0,333333;0,333333;0,666667;
69;;;;;;;;;;;;;;;;;;;;;;;;;;;;;;;;;;;;;;;;;;;;;;;;;;;;;;;;;;;;;;;;;;;;;1,000000;0,500000;0,416667;0,500000;0,500000;0,375000;0,500000;0,375000;0,375000;0,375000;0,000000;0,000000;0,000000;0,453017;0,416667;0,375000;0,416667;0,750000;0,500000;0,375000;0,750000;0,000000;0,750000;0,750000;0,750000;0,750000;0,416667;0,750000;0,416667;0,416667;0,416667;0,424961;0,500000;0,500000;0,750000;0,416667;0,416667;0,416667;0,350000;0,350000;0,350000;0,000000;0,000000;0,000000;0,000000;0,416667;0,416667;0,750000;
70;;;;;;;;;;;;;;;;;;;;;;;;;;;;;;;;;;;;;;;;;;;;;;;;;;;;;;;;;;;;;;;;;;;;;;1,000000;0,833333;0,500000;0,500000;0,375000;0,500000;0,375000;0,375000;0,375000;0,000000;0,000000;0,000000;0,453017;0,416667;0,375000;0,416667;0,750000;0,500000;0,375000;0,750000;0,000000;0,750000;0,750000;0,750000;0,750000;0,833333;0,750000;0,416667;0,416667;0,416667;0,424961;0,500000;0,500000;0,750000;0,416667;0,416667;0,416667;0,700000;0,700000;0,700000;0,000000;0,000000;0,000000;0,000000;0,416667;0,416667;0,750000;
71;;;;;;;;;;;;;;;;;;;;;;;;;;;;;;;;;;;;;;;;;;;;;;;;;;;;;;;;;;;;;;;;;;;;;;;1,000000;0,416667;0,416667;0,583333;0,416667;0,291667;0,291667;0,291667;0,000000;0,000000;0,000000;0,369684;0,333333;0,291667;0,333333;0,666667;0,416667;0,291667;0,666667;0,000000;0,666667;0,666667;0,666667;0,666667;0,666667;0,666667;0,333333;0,333333;0,333333;0,341627;0,416667;0,416667;0,666667;0,333333;0,333333;0,333333;0,533333;0,533333;0,533333;0,000000;0,000000;0,000000;0,000000;0,333333;0,333333;0,666667;
72;;;;;;;;;;;;;;;;;;;;;;;;;;;;;;;;;;;;;;;;;;;;;;;;;;;;;;;;;;;;;;;;;;;;;;;;1,000000;0,500000;0,375000;0,500000;0,375000;0,375000;0,375000;0,000000;0,000000;0,000000;0,453017;0,416667;0,375000;0,416667;0,750000;0,500000;0,375000;0,750000;0,000000;0,750000;0,750000;0,750000;0,750000;0,416667;0,750000;0,416667;0,416667;0,416667;0,424961;0,500000;0,500000;0,750000;0,416667;0,416667;0,416667;0,350000;0,350000;0,350000;0,000000;0,000000;0,000000;0,000000;0,416667;0,416667;0,750000;
73;;;;;;;;;;;;;;;;;;;;;;;;;;;;;;;;;;;;;;;;;;;;;;;;;;;;;;;;;;;;;;;;;;;;;;;;;1,000000;0,375000;0,500000;0,750000;0,750000;0,750000;0,000000;0,000000;0,000000;0,906035;0,833333;0,750000;0,833333;0,750000;0,500000;0,375000;0,750000;0,000000;0,750000;0,750000;0,750000;0,750000;0,416667;0,750000;0,416667;0,416667;0,416667;0,424961;0,500000;0,500000;0,750000;0,416667;0,416667;0,416667;0,350000;0,350000;0,350000;0,000000;0,000000;0,000000;0,000000;0,416667;0,416667;0,750000;
74;;;;;;;;;;;;;;;;;;;;;;;;;;;;;;;;;;;;;;;;;;;;;;;;;;;;;;;;;;;;;;;;;;;;;;;;;;1,000000;0,375000;0,250000;0,250000;0,250000;0,000000;0,000000;0,000000;0,328017;0,291667;0,250000;0,291667;0,625000;0,375000;0,250000;0,625000;0,000000;0,625000;0,625000;0,625000;0,625000;0,291667;0,625000;0,291667;0,291667;0,291667;0,299961;0,375000;0,375000;0,625000;0,291667;0,291667;0,291667;0,225000;0,225000;0,225000;0,000000;0,000000;0,000000;0,000000;0,291667;0,291667;0,625000;
75;;;;;;;;;;;;;;;;;;;;;;;;;;;;;;;;;;;;;;;;;;;;;;;;;;;;;;;;;;;;;;;;;;;;;;;;;;;1,000000;0,750000;0,750000;0,750000;0,000000;0,000000;0,000000;0,453017;0,416667;0,750000;0,833333;0,750000;0,500000;0,375000;0,750000;0,000000;0,750000;0,750000;0,750000;0,750000;0,416667;0,750000;0,416667;0,416667;0,416667;0,424961;0,500000;0,500000;0,750000;0,416667;0,416667;0,416667;0,350000;0,350000;0,350000;0,000000;0,000000;0,000000;0,000000;0,416667;0,416667;0,750000;
76;;;;;;;;;;;;;;;;;;;;;;;;;;;;;;;;;;;;;;;;;;;;;;;;;;;;;;;;;;;;;;;;;;;;;;;;;;;;1,000000;0,750000;0,750000;0,000000;0,000000;0,000000;0,656035;0,583333;0,750000;0,875000;0,625000;0,375000;0,250000;0,625000;0,000000;0,625000;0,625000;0,625000;0,625000;0,291667;0,625000;0,291667;0,291667;0,291667;0,299961;0,375000;0,375000;0,625000;0,291667;0,291667;0,291667;0,225000;0,225000;0,225000;0,000000;0,000000;0,000000;0,000000;0,291667;0,291667;0,625000;
77;;;;;;;;;;;;;;;;;;;;;;;;;;;;;;;;;;;;;;;;;;;;;;;;;;;;;;;;;;;;;;;;;;;;;;;;;;;;;1,000000;0,750000;0,000000;0,000000;0,000000;0,656035;0,583333;1,000000;0,875000;0,625000;0,375000;0,250000;0,625000;0,000000;0,625000;0,625000;0,625000;0,625000;0,291667;0,625000;0,291667;0,291667;0,291667;0,299961;0,375000;0,375000;0,625000;0,291667;0,291667;0,291667;0,225000;0,225000;0,225000;0,000000;0,000000;0,000000;0,000000;0,291667;0,291667;0,625000;
78;;;;;;;;;;;;;;;;;;;;;;;;;;;;;;;;;;;;;;;;;;;;;;;;;;;;;;;;;;;;;;;;;;;;;;;;;;;;;;1,000000;0,000000;0,000000;0,000000;0,656035;0,583333;0,750000;0,875000;0,625000;0,375000;0,250000;0,625000;0,000000;0,625000;0,625000;0,625000;0,625000;0,291667;0,625000;0,291667;0,291667;0,291667;0,299961;0,375000;0,375000;0,625000;0,291667;0,291667;0,291667;0,225000;0,225000;0,225000;0,000000;0,000000;0,000000;0,000000;0,291667;0,291667;0,625000;
79;;;;;;;;;;;;;;;;;;;;;;;;;;;;;;;;;;;;;;;;;;;;;;;;;;;;;;;;;;;;;;;;;;;;;;;;;;;;;;;1,000000;0,750000;0,750000;0,000000;0,000000;0,000000;0,000000;0,000000;0,375000;0,000000;0,000000;0,750000;0,000000;0,000000;0,000000;0,000000;0,000000;0,000000;0,000000;0,000000;0,000000;0,000000;0,000000;0,000000;0,000000;0,000000;0,000000;0,000000;0,000000;0,000000;0,000000;0,250000;0,250000;0,250000;0,250000;0,000000;0,000000;0,000000;
80;;;;;;;;;;;;;;;;;;;;;;;;;;;;;;;;;;;;;;;;;;;;;;;;;;;;;;;;;;;;;;;;;;;;;;;;;;;;;;;;1,000000;0,750000;0,000000;0,000000;0,000000;0,000000;0,000000;0,375000;0,000000;0,000000;0,750000;0,000000;0,000000;0,000000;0,000000;0,000000;0,000000;0,000000;0,000000;0,000000;0,000000;0,000000;0,000000;0,000000;0,000000;0,000000;0,000000;0,000000;0,000000;0,000000;0,250000;0,250000;0,250000;0,250000;0,000000;0,000000;0,000000;
81;;;;;;;;;;;;;;;;;;;;;;;;;;;;;;;;;;;;;;;;;;;;;;;;;;;;;;;;;;;;;;;;;;;;;;;;;;;;;;;;;1,000000;0,000000;0,000000;0,000000;0,000000;0,000000;0,375000;0,000000;0,000000;0,750000;0,000000;0,000000;0,000000;0,000000;0,000000;0,000000;0,000000;0,000000;0,000000;0,000000;0,000000;0,000000;0,000000;0,000000;0,000000;0,000000;0,000000;0,000000;0,000000;0,250000;0,250000;0,250000;0,250000;0,000000;0,000000;0,000000;
82;;;;;;;;;;;;;;;;;;;;;;;;;;;;;;;;;;;;;;;;;;;;;;;;;;;;;;;;;;;;;;;;;;;;;;;;;;;;;;;;;;1,000000;0,739368;0,656035;0,739368;0,703017;0,453017;0,328017;0,703017;0,000000;0,703017;0,703017;0,703017;0,703017;0,369684;0,703017;0,369684;0,369684;0,369684;0,377978;0,453017;0,453017;0,703017;0,369684;0,369684;0,369684;0,303017;0,303017;0,303017;0,000000;0,000000;0,000000;0,000000;0,369684;0,369684;0,703017;
83;;;;;;;;;;;;;;;;;;;;;;;;;;;;;;;;;;;;;;;;;;;;;;;;;;;;;;;;;;;;;;;;;;;;;;;;;;;;;;;;;;;1,000000;0,583333;0,666667;0,666667;0,416667;0,291667;0,666667;0,000000;0,666667;0,666667;0,666667;0,666667;0,333333;0,666667;0,333333;0,333333;0,333333;0,341627;0,416667;0,416667;0,666667;0,333333;0,333333;0,333333;0,266667;0,266667;0,266667;0,000000;0,000000;0,000000;0,000000;0,333333;0,333333;0,666667;
84;;;;;;;;;;;;;;;;;;;;;;;;;;;;;;;;;;;;;;;;;;;;;;;;;;;;;;;;;;;;;;;;;;;;;;;;;;;;;;;;;;;;1,000000;0,875000;0,625000;0,375000;0,250000;0,625000;0,000000;0,625000;0,625000;0,625000;0,625000;0,291667;0,625000;0,291667;0,291667;0,291667;0,299961;0,375000;0,375000;0,625000;0,291667;0,291667;0,291667;0,225000;0,225000;0,225000;0,000000;0,000000;0,000000;0,000000;0,291667;0,291667;0,625000;
85;;;;;;;;;;;;;;;;;;;;;;;;;;;;;;;;;;;;;;;;;;;;;;;;;;;;;;;;;;;;;;;;;;;;;;;;;;;;;;;;;;;;;1,000000;0,666667;0,416667;0,291667;0,666667;0,000000;0,666667;0,666667;0,666667;0,666667;0,333333;0,666667;0,333333;0,333333;0,333333;0,341627;0,416667;0,416667;0,666667;0,333333;0,333333;0,333333;0,266667;0,266667;0,266667;0,000000;0,000000;0,000000;0,000000;0,333333;0,333333;0,666667;
86;;;;;;;;;;;;;;;;;;;;;;;;;;;;;;;;;;;;;;;;;;;;;;;;;;;;;;;;;;;;;;;;;;;;;;;;;;;;;;;;;;;;;;1,000000;0,750000;0,625000;1,000000;0,000000;1,000000;1,000000;1,000000;1,000000;0,666667;1,000000;0,666667;0,666667;0,666667;0,674961;0,750000;0,750000;1,000000;0,666667;0,666667;0,666667;0,600000;0,600000;0,600000;0,000000;0,000000;0,000000;0,000000;0,666667;0,666667;1,000000;
87;;;;;;;;;;;;;;;;;;;;;;;;;;;;;;;;;;;;;;;;;;;;;;;;;;;;;;;;;;;;;;;;;;;;;;;;;;;;;;;;;;;;;;;1,000000;0,375000;0,750000;0,500000;0,750000;0,750000;0,750000;0,750000;0,416667;0,750000;0,416667;0,416667;0,416667;0,424961;0,500000;0,500000;0,750000;0,416667;0,416667;0,416667;0,350000;0,350000;0,350000;0,000000;0,000000;0,000000;0,000000;0,416667;0,416667;0,750000;
88;;;;;;;;;;;;;;;;;;;;;;;;;;;;;;;;;;;;;;;;;;;;;;;;;;;;;;;;;;;;;;;;;;;;;;;;;;;;;;;;;;;;;;;;1,000000;0,625000;0,000000;0,625000;0,625000;0,625000;0,625000;0,583333;0,625000;0,291667;0,291667;0,291667;0,299961;0,375000;0,375000;0,625000;0,291667;0,291667;0,291667;0,225000;0,225000;0,225000;0,000000;0,000000;0,000000;0,000000;0,291667;0,291667;0,625000;
89;;;;;;;;;;;;;;;;;;;;;;;;;;;;;;;;;;;;;;;;;;;;;;;;;;;;;;;;;;;;;;;;;;;;;;;;;;;;;;;;;;;;;;;;;1,000000;0,000000;1,000000;1,000000;1,000000;1,000000;0,666667;1,000000;0,666667;0,666667;0,666667;0,674961;0,750000;0,750000;1,000000;0,666667;0,666667;0,666667;0,600000;0,600000;0,600000;0,000000;0,000000;0,000000;0,000000;0,666667;0,666667;1,000000;
90;;;;;;;;;;;;;;;;;;;;;;;;;;;;;;;;;;;;;;;;;;;;;;;;;;;;;;;;;;;;;;;;;;;;;;;;;;;;;;;;;;;;;;;;;;1,000000;0,000000;0,000000;0,000000;0,000000;0,000000;0,000000;0,000000;0,000000;0,000000;0,000000;0,000000;0,000000;0,000000;0,000000;0,000000;0,000000;0,000000;0,000000;0,000000;0,375000;0,375000;0,375000;0,375000;0,000000;0,000000;0,000000;
91;;;;;;;;;;;;;;;;;;;;;;;;;;;;;;;;;;;;;;;;;;;;;;;;;;;;;;;;;;;;;;;;;;;;;;;;;;;;;;;;;;;;;;;;;;;1,000000;1,000000;1,000000;1,000000;0,666667;1,000000;0,666667;0,666667;0,666667;0,674961;0,750000;0,750000;1,000000;0,666667;0,666667;0,666667;0,600000;0,600000;0,600000;0,000000;0,000000;0,000000;0,000000;0,666667;0,666667;1,000000;
92;;;;;;;;;;;;;;;;;;;;;;;;;;;;;;;;;;;;;;;;;;;;;;;;;;;;;;;;;;;;;;;;;;;;;;;;;;;;;;;;;;;;;;;;;;;;1,000000;1,000000;1,000000;0,666667;1,000000;0,666667;0,666667;0,666667;0,674961;0,750000;0,750000;1,000000;0,666667;0,666667;0,666667;0,600000;0,600000;0,600000;0,000000;0,000000;0,000000;0,000000;0,666667;0,666667;1,000000;
93;;;;;;;;;;;;;;;;;;;;;;;;;;;;;;;;;;;;;;;;;;;;;;;;;;;;;;;;;;;;;;;;;;;;;;;;;;;;;;;;;;;;;;;;;;;;;1,000000;1,000000;0,666667;1,000000;0,666667;0,666667;0,666667;0,674961;0,750000;0,750000;1,000000;0,666667;0,666667;0,666667;0,600000;0,600000;0,600000;0,000000;0,000000;0,000000;0,000000;0,666667;0,666667;1,000000;
94;;;;;;;;;;;;;;;;;;;;;;;;;;;;;;;;;;;;;;;;;;;;;;;;;;;;;;;;;;;;;;;;;;;;;;;;;;;;;;;;;;;;;;;;;;;;;;1,000000;0,666667;1,000000;0,666667;0,666667;0,666667;0,674961;0,750000;0,750000;1,000000;0,666667;0,666667;0,666667;0,600000;0,600000;0,600000;0,000000;0,000000;0,000000;0,000000;0,666667;0,666667;1,000000;
95;;;;;;;;;;;;;;;;;;;;;;;;;;;;;;;;;;;;;;;;;;;;;;;;;;;;;;;;;;;;;;;;;;;;;;;;;;;;;;;;;;;;;;;;;;;;;;;1,000000;0,666667;0,333333;0,333333;0,333333;0,341627;0,416667;0,416667;0,666667;0,333333;0,333333;0,333333;0,533333;0,533333;0,533333;0,000000;0,000000;0,000000;0,000000;0,333333;0,333333;0,666667;
96;;;;;;;;;;;;;;;;;;;;;;;;;;;;;;;;;;;;;;;;;;;;;;;;;;;;;;;;;;;;;;;;;;;;;;;;;;;;;;;;;;;;;;;;;;;;;;;;1,000000;0,666667;0,666667;0,666667;0,674961;0,750000;0,750000;1,000000;0,666667;0,666667;0,666667;0,600000;0,600000;0,600000;0,000000;0,000000;0,000000;0,000000;0,666667;0,666667;1,000000;
97;;;;;;;;;;;;;;;;;;;;;;;;;;;;;;;;;;;;;;;;;;;;;;;;;;;;;;;;;;;;;;;;;;;;;;;;;;;;;;;;;;;;;;;;;;;;;;;;;1,000000;0,333333;0,333333;0,341627;0,416667;0,416667;0,666667;0,333333;0,333333;0,333333;0,266667;0,266667;0,266667;0,000000;0,000000;0,000000;0,000000;0,333333;0,333333;0,666667;
98;;;;;;;;;;;;;;;;;;;;;;;;;;;;;;;;;;;;;;;;;;;;;;;;;;;;;;;;;;;;;;;;;;;;;;;;;;;;;;;;;;;;;;;;;;;;;;;;;;1,000000;0,666667;0,341627;0,416667;0,416667;0,666667;0,333333;0,333333;0,333333;0,266667;0,266667;0,266667;0,000000;0,000000;0,000000;0,000000;0,333333;0,333333;0,666667;
99;;;;;;;;;;;;;;;;;;;;;;;;;;;;;;;;;;;;;;;;;;;;;;;;;;;;;;;;;;;;;;;;;;;;;;;;;;;;;;;;;;;;;;;;;;;;;;;;;;;1,000000;0,341627;0,416667;0,416667;0,666667;0,333333;0,333333;0,333333;0,266667;0,266667;0,266667;0,000000;0,000000;0,000000;0,000000;0,333333;0,333333;0,666667;
100;;;;;;;;;;;;;;;;;;;;;;;;;;;;;;;;;;;;;;;;;;;;;;;;;;;;;;;;;;;;;;;;;;;;;;;;;;;;;;;;;;;;;;;;;;;;;;;;;;;;1,000000;0,424961;0,424961;0,674961;0,341627;0,341627;0,341627;0,274961;0,274961;0,274961;0,000000;0,000000;0,000000;0,000000;0,659216;0,659216;0,674961;
101;;;;;;;;;;;;;;;;;;;;;;;;;;;;;;;;;;;;;;;;;;;;;;;;;;;;;;;;;;;;;;;;;;;;;;;;;;;;;;;;;;;;;;;;;;;;;;;;;;;;;1,000000;0,500000;0,750000;0,416667;0,416667;0,416667;0,350000;0,350000;0,350000;0,000000;0,000000;0,000000;0,000000;0,833333;0,833333;0,750000;
102;;;;;;;;;;;;;;;;;;;;;;;;;;;;;;;;;;;;;;;;;;;;;;;;;;;;;;;;;;;;;;;;;;;;;;;;;;;;;;;;;;;;;;;;;;;;;;;;;;;;;;1,000000;0,750000;0,416667;0,416667;0,416667;0,350000;0,350000;0,350000;0,000000;0,000000;0,000000;0,000000;0,416667;0,416667;0,750000;
103;;;;;;;;;;;;;;;;;;;;;;;;;;;;;;;;;;;;;;;;;;;;;;;;;;;;;;;;;;;;;;;;;;;;;;;;;;;;;;;;;;;;;;;;;;;;;;;;;;;;;;;1,000000;0,666667;0,666667;0,666667;0,600000;0,600000;0,600000;0,000000;0,000000;0,000000;0,000000;0,666667;0,666667;1,000000;
104;;;;;;;;;;;;;;;;;;;;;;;;;;;;;;;;;;;;;;;;;;;;;;;;;;;;;;;;;;;;;;;;;;;;;;;;;;;;;;;;;;;;;;;;;;;;;;;;;;;;;;;;1,000000;0,666667;0,666667;0,266667;0,266667;0,266667;0,000000;0,000000;0,000000;0,000000;0,333333;0,333333;0,666667;
105;;;;;;;;;;;;;;;;;;;;;;;;;;;;;;;;;;;;;;;;;;;;;;;;;;;;;;;;;;;;;;;;;;;;;;;;;;;;;;;;;;;;;;;;;;;;;;;;;;;;;;;;;1,000000;0,666667;0,266667;0,266667;0,266667;0,000000;0,000000;0,000000;0,000000;0,333333;0,333333;0,666667;
106;;;;;;;;;;;;;;;;;;;;;;;;;;;;;;;;;;;;;;;;;;;;;;;;;;;;;;;;;;;;;;;;;;;;;;;;;;;;;;;;;;;;;;;;;;;;;;;;;;;;;;;;;;1,000000;0,266667;0,266667;0,266667;0,000000;0,000000;0,000000;0,000000;0,333333;0,333333;0,666667;
107;;;;;;;;;;;;;;;;;;;;;;;;;;;;;;;;;;;;;;;;;;;;;;;;;;;;;;;;;;;;;;;;;;;;;;;;;;;;;;;;;;;;;;;;;;;;;;;;;;;;;;;;;;;1,000000;0,800000;0,800000;0,000000;0,000000;0,000000;0,000000;0,266667;0,266667;0,600000;
108;;;;;;;;;;;;;;;;;;;;;;;;;;;;;;;;;;;;;;;;;;;;;;;;;;;;;;;;;;;;;;;;;;;;;;;;;;;;;;;;;;;;;;;;;;;;;;;;;;;;;;;;;;;;1,000000;0,800000;0,000000;0,000000;0,000000;0,000000;0,266667;0,266667;0,600000;
109;;;;;;;;;;;;;;;;;;;;;;;;;;;;;;;;;;;;;;;;;;;;;;;;;;;;;;;;;;;;;;;;;;;;;;;;;;;;;;;;;;;;;;;;;;;;;;;;;;;;;;;;;;;;;1,000000;0,000000;0,000000;0,000000;0,000000;0,266667;0,266667;0,600000;
110;;;;;;;;;;;;;;;;;;;;;;;;;;;;;;;;;;;;;;;;;;;;;;;;;;;;;;;;;;;;;;;;;;;;;;;;;;;;;;;;;;;;;;;;;;;;;;;;;;;;;;;;;;;;;;1,000000;0,750000;0,750000;0,750000;0,000000;0,000000;0,000000;
111;;;;;;;;;;;;;;;;;;;;;;;;;;;;;;;;;;;;;;;;;;;;;;;;;;;;;;;;;;;;;;;;;;;;;;;;;;;;;;;;;;;;;;;;;;;;;;;;;;;;;;;;;;;;;;;1,000000;0,750000;0,750000;0,000000;0,000000;0,000000;
112;;;;;;;;;;;;;;;;;;;;;;;;;;;;;;;;;;;;;;;;;;;;;;;;;;;;;;;;;;;;;;;;;;;;;;;;;;;;;;;;;;;;;;;;;;;;;;;;;;;;;;;;;;;;;;;;1,000000;0,750000;0,000000;0,000000;0,000000;
113;;;;;;;;;;;;;;;;;;;;;;;;;;;;;;;;;;;;;;;;;;;;;;;;;;;;;;;;;;;;;;;;;;;;;;;;;;;;;;;;;;;;;;;;;;;;;;;;;;;;;;;;;;;;;;;;;1,000000;0,000000;0,000000;0,000000;
114;;;;;;;;;;;;;;;;;;;;;;;;;;;;;;;;;;;;;;;;;;;;;;;;;;;;;;;;;;;;;;;;;;;;;;;;;;;;;;;;;;;;;;;;;;;;;;;;;;;;;;;;;;;;;;;;;;1,000000;0,666667;0,666667;
115;;;;;;;;;;;;;;;;;;;;;;;;;;;;;;;;;;;;;;;;;;;;;;;;;;;;;;;;;;;;;;;;;;;;;;;;;;;;;;;;;;;;;;;;;;;;;;;;;;;;;;;;;;;;;;;;;;;1,000000;0,666667;
116;;;;;;;;;;;;;;;;;;;;;;;;;;;;;;;;;;;;;;;;;;;;;;;;;;;;;;;;;;;;;;;;;;;;;;;;;;;;;;;;;;;;;;;;;;;;;;;;;;;;;;;;;;;;;;;;;;;;1,000000;
