;1; 2; 3; 4; 5; 6; 7; 8; 9; 10; 11; 12; 13; 14; 15; 16; 17; 18; 19; 20; 21; 22; 23; 24; 25; 26; 27; 28; 29; 30; 31; 32; 33; 34; 35; 36; 37; 38; 39; 40; 41; 42; 43; 44; 45; 46; 47; 48; 49; 50; 51; 52; 53; 54; 55; 56; 57; 58; 59; 60; 61; 62; 63; 64; 65; 66; 67; 68; 69; 70; 71; 72; 73; 74; 75; 76; 77; 78; 79; 80; 81; 82; 83; 84; 85; 86; 87; 88; 89; 90; 91; 92; 93; 94; 95
1;1,000000;0,487828;0,455190;0,389288;0,471112;0,595324;0,444114;0,215613;0,604630;0,487166;0,298947;0,282117;0,473688;0,360607;0,348845;0,337665;0,285495;0,300451;0,322091;0,087942;0,448596;0,448596;0,282011;0,205179;0,201062;0,531929;0,531929;0,531929;0,449322;0,000000;0,394674;0,000000;0,672568;0,533080;0,208819;0,000000;0,000000;0,698596;0,000000;0,000000;0,000000;0,000000;0,000000;0,000000;0,401367;0,000000;0,000000;0,000000;0,000000;0,266232;0,698596;0,000000;0,318033;0,318033;0,274837;0,000000;0,000000;0,274837;0,229149;0,698596;0,543798;0,543798;0,776753;0,226156;0,226156;0,000000;0,000000;0,000000;0,000000;0,000000;0,215613;0,215613;0,368978;0,368978;0,276367;0,306411;0,000000;0,234529;0,276367;0,000000;0,000000;0,698596;0,215613;0,215613;0,000000;0,000000;0,318033;0,401367;0,401367;0,401367;0,241320;0,241320;0,395576;0,543798;0,401367;
2;;1,000000;0,376055;0,501163;0,399154;0,352962;0,419641;0,591283;0,371057;0,437661;0,312276;0,563070;0,490629;0,423221;0,470840;0,278089;0,236148;0,263565;0,336958;0,248519;0,450244;0,450244;0,310559;0,374838;0,358681;0,407550;0,400198;0,400198;0,373729;0,350554;0,298278;0,350554;0,377312;0,366080;0,346742;0,404983;0,172347;0,225648;0,428212;0,352173;0,163076;0,113565;0,113565;0,113565;0,278970;0,142303;0,263565;0,305251;0,305251;0,263565;0,312276;0,000000;0,385784;0,385784;0,300413;0,409731;0,409731;0,300413;0,315770;0,312276;0,377217;0,377217;0,365032;0,363863;0,363863;0,428212;0,000000;0,000000;0,000000;0,000000;0,228942;0,228942;0,287742;0,287742;0,455668;0,450384;0,174863;0,256914;0,404983;0,000000;0,000000;0,312276;0,228942;0,228942;0,214682;0,214682;0,368898;0,268427;0,268427;0,278970;0,174850;0,174850;0,288246;0,358896;0,298015;
3;;;1,000000;0,478274;0,681161;0,486147;0,334937;0,181869;0,495453;0,377989;0,557568;0,446063;0,364510;0,349838;0,375239;0,370302;0,528088;0,646395;0,355395;0,268281;0,339418;0,339418;0,343650;0,279877;0,257284;0,422752;0,422752;0,422752;0,432806;0,385741;0,546670;0,385741;0,523893;0,709721;0,250350;0,162010;0,192054;0,589418;0,162010;0,575198;0,241264;0,254964;0,254964;0,254964;0,321921;0,162010;0,554964;0,162010;0,162010;0,646395;0,589418;0,537010;0,238588;0,238588;0,195391;0,000000;0,000000;0,195391;0,149704;0,589418;0,347318;0,347318;0,238588;0,380053;0,380053;0,162010;0,000000;0,000000;0,000000;0,000000;0,390901;0,390901;0,601308;0,601308;0,196921;0,226965;0,203676;0,395556;0,196921;0,287010;0,287010;0,589418;0,390901;0,390901;0,203676;0,203676;0,238588;0,321921;0,321921;0,321921;0,203676;0,203676;0,395556;0,424532;0,321921;
4;;;;1,000000;0,496951;0,473972;0,528369;0,415435;0,437009;0,511464;0,290995;0,333142;0,520334;0,561379;0,463225;0,436656;0,412795;0,441704;0,664569;0,210928;0,520090;0,520090;0,410004;0,434229;0,323639;0,476852;0,463575;0,463575;0,394529;0,000000;0,401652;0,000000;0,555978;0,462063;0,316704;0,165995;0,358851;0,455365;0,165995;0,207662;0,170169;0,140995;0,140995;0,140995;0,372032;0,298762;0,290995;0,441270;0,441270;0,441704;0,372032;0,540995;0,468203;0,468203;0,245502;0,000000;0,000000;0,245502;0,199814;0,372032;0,384987;0,384987;0,288699;0,173561;0,173561;0,165995;0,000000;0,000000;0,000000;0,000000;0,381263;0,381263;0,431640;0,431640;0,384869;0,407001;0,207662;0,454125;0,247032;0,290995;0,290995;0,372032;0,381263;0,381263;0,385970;0,385970;0,288699;0,372032;0,372032;0,372032;0,207662;0,207662;0,450363;0,462201;0,634869;
5;;;;;1,000000;0,505391;0,354181;0,181594;0,514697;0,397233;0,556524;0,396991;0,383754;0,369597;0,394761;0,390085;0,526334;0,395133;0,375179;0,267238;0,358662;0,358662;0,363433;0,299661;0,277068;0,441996;0,441996;0,441996;0,448594;0,384989;0,515620;0,384989;0,555860;0,468947;0,270133;0,161422;0,191466;0,608662;0,161422;0,392129;0,165597;0,136422;0,136422;0,136422;0,341181;0,161422;0,286422;0,161422;0,161422;0,395133;0,608662;0,536422;0,257848;0,257848;0,214651;0,000000;0,000000;0,214651;0,168963;0,608662;0,366363;0,366363;0,257848;0,296748;0,296748;0,161422;0,000000;0,000000;0,000000;0,000000;0,389858;0,389858;0,597645;0,597645;0,216181;0,246225;0,203089;0,415104;0,216181;0,286422;0,286422;0,608662;0,389858;0,389858;0,203089;0,203089;0,257848;0,341181;0,341181;0,341181;0,203089;0,203089;0,415104;0,443576;0,341181;
6;;;;;;1,000000;0,761623;0,619507;0,802763;0,685298;0,467287;0,261436;0,671820;0,558740;0,546978;0,344578;0,219774;0,307364;0,329005;0,256282;0,646728;0,646728;0,288924;0,212092;0,207975;0,730062;0,730062;0,730062;0,252890;0,000000;0,199882;0,000000;0,324947;0,324947;0,215733;0,000000;0,000000;0,896728;0,000000;0,000000;0,000000;0,000000;0,000000;0,000000;0,408280;0,000000;0,000000;0,000000;0,000000;0,273146;0,896728;0,000000;0,324947;0,324947;0,281750;0,000000;0,000000;0,281750;0,236062;0,896728;0,324947;0,324947;0,324947;0,000000;0,000000;0,000000;0,000000;0,000000;0,000000;0,000000;0,383954;0,383954;0,000000;0,000000;0,283280;0,313324;0,000000;0,241443;0,283280;0,000000;0,000000;0,896728;0,383954;0,383954;0,000000;0,000000;0,324947;0,408280;0,408280;0,408280;0,000000;0,000000;0,244264;0,324947;0,408280;
7;;;;;;;1,000000;0,666667;0,651553;0,534089;0,416667;0,210816;0,520610;0,407530;0,395768;0,244852;0,120048;0,207638;0,229279;0,205662;0,495518;0,495518;0,189198;0,112366;0,108250;0,578852;0,578852;0,578852;0,153164;0,000000;0,100156;0,000000;0,225221;0,225221;0,116007;0,000000;0,000000;0,745518;0,000000;0,000000;0,000000;0,000000;0,000000;0,000000;0,308554;0,000000;0,000000;0,000000;0,000000;0,173420;0,745518;0,000000;0,225221;0,225221;0,182024;0,000000;0,000000;0,182024;0,136336;0,745518;0,225221;0,225221;0,225221;0,000000;0,000000;0,000000;0,000000;0,000000;0,000000;0,000000;0,333333;0,333333;0,000000;0,000000;0,183554;0,213598;0,000000;0,141717;0,183554;0,000000;0,000000;0,745518;0,333333;0,333333;0,000000;0,000000;0,225221;0,308554;0,308554;0,308554;0,000000;0,000000;0,144538;0,225221;0,308554;
8;;;;;;;;1,000000;0,369684;0,310952;0,416667;0,210816;0,304213;0,250691;0,182586;0,000000;0,000000;0,000000;0,000000;0,205662;0,291667;0,291667;0,000000;0,000000;0,000000;0,333333;0,333333;0,333333;0,000000;0,000000;0,000000;0,000000;0,000000;0,000000;0,000000;0,000000;0,000000;0,330039;0,000000;0,000000;0,000000;0,000000;0,000000;0,000000;0,000000;0,000000;0,000000;0,000000;0,000000;0,000000;0,416667;0,000000;0,000000;0,000000;0,000000;0,000000;0,000000;0,000000;0,000000;0,416667;0,000000;0,000000;0,000000;0,000000;0,000000;0,000000;0,000000;0,000000;0,000000;0,000000;0,333333;0,333333;0,000000;0,000000;0,000000;0,000000;0,000000;0,000000;0,000000;0,000000;0,000000;0,416667;0,333333;0,333333;0,000000;0,000000;0,000000;0,000000;0,000000;0,000000;0,000000;0,000000;0,000000;0,000000;0,000000;
9;;;;;;;;;1,000000;0,694605;0,453017;0,247167;0,681127;0,568046;0,556284;0,389316;0,264511;0,352102;0,373742;0,242012;0,875000;0,875000;0,333661;0,256830;0,252713;0,739368;0,739368;0,739368;0,297627;0,000000;0,244620;0,000000;0,369684;0,369684;0,260470;0,000000;0,000000;0,906035;0,000000;0,000000;0,000000;0,000000;0,000000;0,000000;0,453017;0,000000;0,000000;0,000000;0,000000;0,317883;0,906035;0,000000;0,369684;0,369684;0,326488;0,000000;0,000000;0,326488;0,280800;0,906035;0,369684;0,369684;0,369684;0,000000;0,000000;0,000000;0,000000;0,000000;0,000000;0,000000;0,369684;0,369684;0,000000;0,000000;0,328017;0,358061;0,000000;0,286180;0,328017;0,000000;0,000000;0,906035;0,369684;0,369684;0,000000;0,000000;0,369684;0,453017;0,453017;0,453017;0,000000;0,000000;0,289001;0,369684;0,453017;
10;;;;;;;;;;1,000000;0,394285;0,188434;0,563662;0,450582;0,438820;0,330583;0,205779;0,293369;0,315010;0,183280;0,731689;0,731689;0,274929;0,198097;0,193981;0,621904;0,621904;0,621904;0,238895;0,000000;0,185888;0,000000;0,310952;0,310952;0,201738;0,000000;0,000000;0,788570;0,000000;0,000000;0,000000;0,000000;0,000000;0,000000;0,394285;0,000000;0,000000;0,000000;0,000000;0,259151;0,788570;0,000000;0,310952;0,310952;0,267755;0,000000;0,000000;0,267755;0,222068;0,788570;0,310952;0,310952;0,310952;0,000000;0,000000;0,000000;0,000000;0,000000;0,000000;0,000000;0,310952;0,310952;0,000000;0,000000;0,269285;0,299329;0,000000;0,227448;0,269285;0,000000;0,000000;0,788570;0,310952;0,310952;0,000000;0,000000;0,310952;0,394285;0,394285;0,394285;0,000000;0,000000;0,230269;0,310952;0,394285;
11;;;;;;;;;;;1,000000;0,294149;0,387546;0,625000;0,560728;0,294462;0,370621;0,318819;0,289445;0,710713;0,375000;0,375000;0,317193;0,342664;0,324791;0,416667;0,416667;0,416667;0,000000;0,000000;0,297673;0,000000;0,000000;0,000000;0,312278;0,375000;0,405044;0,413372;0,375000;0,416667;0,379175;0,350000;0,350000;0,350000;0,000000;0,375000;0,500000;0,375000;0,375000;0,368929;0,500000;0,750000;0,000000;0,000000;0,000000;0,000000;0,000000;0,000000;0,000000;0,500000;0,000000;0,000000;0,000000;0,000000;0,000000;0,375000;0,000000;0,000000;0,000000;0,000000;0,833333;0,833333;0,375000;0,375000;0,000000;0,000000;0,416667;0,332411;0,000000;0,500000;0,500000;0,500000;0,833333;0,833333;0,416667;0,416667;0,000000;0,000000;0,000000;0,000000;0,416667;0,416667;0,336509;0,000000;0,000000;
12;;;;;;;;;;;;1,000000;0,398739;0,391708;0,424501;0,262803;0,421520;0,294006;0,259940;0,463550;0,169149;0,169149;0,352480;0,484632;0,442670;0,210816;0,210816;0,210816;0,362459;0,178240;0,313344;0,178240;0,288462;0,185898;0,391965;0,450095;0,439899;0,207522;0,454844;0,386140;0,460439;0,478943;0,478943;0,478943;0,263109;0,492079;0,294006;0,419906;0,419906;0,294006;0,294149;0,000000;0,196957;0,196957;0,000000;0,000000;0,000000;0,000000;0,000000;0,294149;0,000000;0,000000;0,000000;0,393528;0,393528;0,454844;0,000000;0,000000;0,000000;0,000000;0,385060;0,385060;0,437122;0,437122;0,326005;0,359906;0,370927;0,363822;0,450095;0,282118;0,282118;0,294149;0,385060;0,385060;0,379214;0,379214;0,214602;0,000000;0,000000;0,263109;0,369265;0,369265;0,342872;0,181230;0,280291;
13;;;;;;;;;;;;;1,000000;0,646760;0,537353;0,323844;0,199040;0,286630;0,633254;0,176541;0,525092;0,525092;0,268190;0,291050;0,187241;0,608425;0,608425;0,608425;0,376618;0,000000;0,179148;0,000000;0,304213;0,304213;0,194999;0,000000;0,000000;0,775092;0,000000;0,000000;0,000000;0,000000;0,000000;0,000000;0,387546;0,000000;0,000000;0,425105;0,425105;0,252412;0,775092;0,000000;0,559733;0,559733;0,261016;0,000000;0,000000;0,261016;0,215328;0,775092;0,304213;0,304213;0,304213;0,000000;0,000000;0,000000;0,000000;0,000000;0,000000;0,000000;0,304213;0,304213;0,000000;0,000000;0,476400;0,498531;0,000000;0,399936;0,262546;0,000000;0,000000;0,775092;0,304213;0,304213;0,249815;0,249815;0,304213;0,387546;0,387546;0,387546;0,000000;0,000000;0,223530;0,304213;0,726400;
14;;;;;;;;;;;;;;1,000000;0,619156;0,369952;0,322462;0,375000;0,709883;0,335713;0,412012;0,412012;0,343300;0,415223;0,256935;0,750457;0,495345;0,495345;0,353941;0,000000;0,221839;0,000000;0,245714;0,245714;0,250000;0,157418;0,187462;0,662012;0,157418;0,199084;0,161592;0,132418;0,132418;0,132418;0,329047;0,157418;0,282418;0,584167;0,584167;0,375000;0,662012;0,532418;0,537056;0,537056;0,202517;0,000000;0,000000;0,202517;0,156829;0,662012;0,245714;0,245714;0,245714;0,000000;0,000000;0,157418;0,000000;0,000000;0,000000;0,000000;0,458333;0,458333;0,157418;0,157418;0,453723;0,475855;0,199084;0,499439;0,204047;0,282418;0,282418;0,662012;0,458333;0,458333;0,497605;0,497605;0,245714;0,329047;0,329047;0,329047;0,199084;0,199084;0,291667;0,245714;0,703723;
15;;;;;;;;;;;;;;;1,000000;0,493011;0,385969;0,438507;0,489428;0,407531;0,400250;0,400250;0,633187;0,419201;0,460914;0,669530;0,483583;0,483583;0,298428;0,184670;0,387735;0,184670;0,300248;0,300248;0,446907;0,301155;0,361243;0,650250;0,301155;0,209475;0,273301;0,142809;0,142809;0,142809;0,383581;0,301155;0,292809;0,461785;0,461785;0,438507;0,650250;0,542809;0,477718;0,477718;0,257052;0,000000;0,000000;0,257052;0,211364;0,650250;0,300248;0,300248;0,300248;0,000000;0,000000;0,301155;0,000000;0,000000;0,000000;0,000000;0,394062;0,394062;0,167809;0,167809;0,547896;0,614450;0,395067;0,450855;0,392241;0,292809;0,292809;0,650250;0,394062;0,394062;0,397363;0,397363;0,672896;0,383581;0,383581;0,383581;0,209475;0,209475;0,355174;0,300248;0,383581;
16;;;;;;;;;;;;;;;;1,000000;0,442414;0,494952;0,474998;0,395610;0,311298;0,311298;0,852799;0,593546;0,672718;0,352965;0,352965;0,352965;0,280908;0,000000;0,341791;0,000000;0,352965;0,352965;0,727799;0,523681;0,404326;0,519632;0,523681;0,211128;0,173636;0,144462;0,144462;0,144462;0,436298;0,344238;0,294462;0,169462;0,169462;0,494952;0,436298;0,544462;0,352965;0,352965;0,309768;0,000000;0,000000;0,309768;0,264081;0,436298;0,352965;0,352965;0,352965;0,000000;0,000000;0,523681;0,000000;0,000000;0,000000;0,000000;0,211128;0,211128;0,169462;0,169462;0,481607;0,464828;0,211128;0,411619;0,665149;0,294462;0,294462;0,436298;0,211128;0,211128;0,211128;0,211128;0,564940;0,436298;0,436298;0,436298;0,211128;0,211128;0,411619;0,352965;0,436298;
17;;;;;;;;;;;;;;;;;1,000000;0,447462;0,427508;0,290554;0,186494;0,186494;0,415762;0,351990;0,329396;0,228161;0,228161;0,228161;0,339291;0,203681;0,439592;0,203681;0,340996;0,228161;0,322462;0,245621;0,275665;0,394827;0,245621;0,476381;0,496830;0,578064;0,578064;0,578064;0,311494;0,245621;0,370621;0,245621;0,245621;0,447462;0,311494;0,620621;0,228161;0,228161;0,184964;0,000000;0,000000;0,184964;0,139276;0,311494;0,228161;0,228161;0,228161;0,395669;0,395669;0,245621;0,000000;0,000000;0,000000;0,000000;0,287287;0,287287;0,390626;0,390626;0,186494;0,216538;0,470084;0,473927;0,186494;0,370621;0,370621;0,311494;0,287287;0,287287;0,287287;0,287287;0,228161;0,311494;0,311494;0,311494;0,287287;0,287287;0,364129;0,228161;0,311494;
18;;;;;;;;;;;;;;;;;;1,000000;0,480046;0,238753;0,274084;0,274084;0,468300;0,404528;0,381935;0,315751;0,315751;0,315751;0,243694;0,000000;0,657585;0,000000;0,315751;0,315751;0,375000;0,193819;0,223863;0,482418;0,193819;0,654227;0,507193;0,520894;0,520894;0,520894;0,399084;0,193819;0,820894;0,193819;0,193819;1,000000;0,399084;0,568819;0,315751;0,315751;0,272555;0,000000;0,000000;0,272555;0,226867;0,399084;0,315751;0,315751;0,315751;0,416667;0,416667;0,193819;0,000000;0,000000;0,000000;0,000000;0,235486;0,235486;0,193819;0,193819;0,274084;0,304128;0,235486;0,416667;0,274084;0,318819;0,318819;0,399084;0,235486;0,235486;0,235486;0,235486;0,315751;0,399084;0,399084;0,399084;0,235486;0,235486;0,416667;0,315751;0,399084;
19;;;;;;;;;;;;;;;;;;;1,000000;0,209378;0,295725;0,295725;0,448346;0,690576;0,361980;0,337391;0,337391;0,337391;0,557072;0,000000;0,326885;0,000000;0,337391;0,337391;0,355046;0,164445;0,194489;0,504058;0,164445;0,206112;0,168620;0,139445;0,139445;0,139445;0,420725;0,164445;0,289445;0,523296;0,523296;0,480046;0,420725;0,539445;0,740188;0,740188;0,294195;0,000000;0,000000;0,294195;0,248507;0,420725;0,337391;0,337391;0,337391;0,000000;0,000000;0,164445;0,000000;0,000000;0,000000;0,000000;0,206112;0,206112;0,164445;0,164445;0,822362;0,678986;0,206112;0,709322;0,295725;0,289445;0,289445;0,420725;0,206112;0,206112;0,606630;0,606630;0,546371;0,420725;0,420725;0,420725;0,206112;0,206112;0,396712;0,337391;0,906854;
20;;;;;;;;;;;;;;;;;;;;1,000000;0,163995;0,163995;0,584458;0,494481;0,506646;0,205662;0,205662;0,205662;0,000000;0,000000;0,217607;0,000000;0,000000;0,000000;0,483666;0,551371;0,678168;0,202367;0,551371;0,336600;0,299108;0,269933;0,269933;0,269933;0,000000;0,811195;0,419933;0,294933;0,294933;0,288863;0,288995;0,669933;0,000000;0,000000;0,000000;0,000000;0,000000;0,000000;0,000000;0,288995;0,000000;0,000000;0,000000;0,000000;0,000000;0,551371;0,000000;0,000000;0,000000;0,000000;0,544047;0,544047;0,294933;0,294933;0,255218;0,212703;0,336600;0,252344;0,255218;0,419933;0,419933;0,288995;0,544047;0,544047;0,336600;0,336600;0,296885;0,000000;0,000000;0,000000;0,336600;0,336600;0,256443;0,000000;0,000000;
21;;;;;;;;;;;;;;;;;;;;;1,000000;0,750000;0,255644;0,178812;0,174696;0,583333;0,583333;0,583333;0,219610;0,000000;0,166602;0,000000;0,291667;0,291667;0,182453;0,000000;0,000000;0,750000;0,000000;0,000000;0,000000;0,000000;0,000000;0,000000;0,375000;0,000000;0,000000;0,000000;0,000000;0,239866;0,750000;0,000000;0,291667;0,291667;0,248470;0,000000;0,000000;0,248470;0,202782;0,750000;0,291667;0,291667;0,291667;0,000000;0,000000;0,000000;0,000000;0,000000;0,000000;0,000000;0,291667;0,291667;0,000000;0,000000;0,250000;0,280044;0,000000;0,208163;0,250000;0,000000;0,000000;0,750000;0,291667;0,291667;0,000000;0,000000;0,291667;0,375000;0,375000;0,375000;0,000000;0,000000;0,210984;0,291667;0,375000;
22;;;;;;;;;;;;;;;;;;;;;;1,000000;0,255644;0,178812;0,174696;0,583333;0,583333;0,583333;0,219610;0,000000;0,166602;0,000000;0,291667;0,291667;0,182453;0,000000;0,000000;0,750000;0,000000;0,000000;0,000000;0,000000;0,000000;0,000000;0,375000;0,000000;0,000000;0,000000;0,000000;0,239866;0,750000;0,000000;0,291667;0,291667;0,248470;0,000000;0,000000;0,248470;0,202782;0,750000;0,291667;0,291667;0,291667;0,000000;0,000000;0,000000;0,000000;0,000000;0,000000;0,000000;0,291667;0,291667;0,000000;0,000000;0,250000;0,280044;0,000000;0,208163;0,250000;0,000000;0,000000;0,750000;0,291667;0,291667;0,000000;0,000000;0,291667;0,375000;0,375000;0,375000;0,000000;0,000000;0,210984;0,291667;0,375000;
23;;;;;;;;;;;;;;;;;;;;;;;1,000000;0,497252;0,700288;0,297311;0,297311;0,297311;0,225254;0,000000;0,315139;0,000000;0,297311;0,297311;0,875000;0,725803;0,593175;0,463977;0,725803;0,233860;0,196368;0,167193;0,167193;0,167193;0,380644;0,533087;0,317193;0,192193;0,192193;0,468300;0,380644;0,567193;0,297311;0,297311;0,254114;0,000000;0,000000;0,254114;0,208426;0,380644;0,297311;0,297311;0,297311;0,000000;0,000000;0,725803;0,000000;0,000000;0,000000;0,000000;0,233860;0,233860;0,192193;0,192193;0,599963;0,583184;0,233860;0,384967;0,787873;0,317193;0,317193;0,380644;0,233860;0,233860;0,233860;0,233860;0,683296;0,380644;0,380644;0,380644;0,233860;0,233860;0,384967;0,297311;0,380644;
24;;;;;;;;;;;;;;;;;;;;;;;;1,000000;0,662176;0,220479;0,220479;0,220479;0,214868;0,000000;0,251367;0,000000;0,220479;0,220479;0,613532;0,557390;0,506903;0,387146;0,549917;0,259331;0,221839;0,192664;0,192664;0,192664;0,579876;0,581662;0,342664;0,353267;0,353267;0,404528;0,303812;0,592664;0,397983;0,397983;0,177283;0,000000;0,000000;0,177283;0,131595;0,303812;0,220479;0,220479;0,220479;0,000000;0,000000;0,549917;0,000000;0,000000;0,000000;0,000000;0,259331;0,259331;0,217664;0,217664;0,465450;0,436526;0,259331;0,414662;0,518176;0,342664;0,342664;0,303812;0,259331;0,259331;0,436601;0,436601;0,412259;0,303812;0,303812;0,579876;0,259331;0,259331;0,321194;0,220479;0,564650;
25;;;;;;;;;;;;;;;;;;;;;;;;;1,000000;0,216362;0,216362;0,216362;0,144305;0,000000;0,228774;0,000000;0,216362;0,216362;0,692436;0,634594;0,515363;0,383029;0,631494;0,241457;0,203965;0,174791;0,174791;0,174791;0,607650;0,455275;0,324791;0,199791;0,199791;0,381935;0,299696;0,574791;0,216362;0,216362;0,173166;0,000000;0,000000;0,173166;0,127478;0,299696;0,216362;0,216362;0,216362;0,000000;0,000000;0,631494;0,000000;0,000000;0,000000;0,000000;0,241457;0,241457;0,199791;0,199791;0,428242;0,411463;0,241457;0,298601;0,606516;0,324791;0,324791;0,299696;0,241457;0,241457;0,241457;0,241457;0,511575;0,299696;0,299696;0,607650;0,241457;0,241457;0,298601;0,216362;0,299696;
26;;;;;;;;;;;;;;;;;;;;;;;;;;1,000000;0,666667;0,666667;0,261276;0,000000;0,208269;0,000000;0,333333;0,333333;0,224119;0,000000;0,000000;0,833333;0,000000;0,000000;0,000000;0,000000;0,000000;0,000000;0,416667;0,000000;0,000000;0,000000;0,000000;0,281532;0,833333;0,000000;0,333333;0,333333;0,290137;0,000000;0,000000;0,290137;0,244449;0,833333;0,333333;0,333333;0,333333;0,000000;0,000000;0,000000;0,000000;0,000000;0,000000;0,000000;0,333333;0,333333;0,000000;0,000000;0,291667;0,321711;0,000000;0,249829;0,291667;0,000000;0,000000;0,833333;0,333333;0,333333;0,000000;0,000000;0,333333;0,416667;0,416667;0,416667;0,000000;0,000000;0,252650;0,333333;0,416667;
27;;;;;;;;;;;;;;;;;;;;;;;;;;;1,000000;0,666667;0,261276;0,000000;0,208269;0,000000;0,333333;0,333333;0,224119;0,000000;0,000000;0,833333;0,000000;0,000000;0,000000;0,000000;0,000000;0,000000;0,416667;0,000000;0,000000;0,000000;0,000000;0,281532;0,833333;0,000000;0,333333;0,333333;0,290137;0,000000;0,000000;0,290137;0,244449;0,833333;0,333333;0,333333;0,333333;0,000000;0,000000;0,000000;0,000000;0,000000;0,000000;0,000000;0,333333;0,333333;0,000000;0,000000;0,291667;0,321711;0,000000;0,249829;0,291667;0,000000;0,000000;0,833333;0,333333;0,333333;0,000000;0,000000;0,333333;0,416667;0,416667;0,416667;0,000000;0,000000;0,252650;0,333333;0,416667;
28;;;;;;;;;;;;;;;;;;;;;;;;;;;;1,000000;0,261276;0,000000;0,208269;0,000000;0,333333;0,333333;0,224119;0,000000;0,000000;0,833333;0,000000;0,000000;0,000000;0,000000;0,000000;0,000000;0,416667;0,000000;0,000000;0,000000;0,000000;0,281532;0,833333;0,000000;0,333333;0,333333;0,290137;0,000000;0,000000;0,290137;0,244449;0,833333;0,333333;0,333333;0,333333;0,000000;0,000000;0,000000;0,000000;0,000000;0,000000;0,000000;0,333333;0,333333;0,000000;0,000000;0,291667;0,321711;0,000000;0,249829;0,291667;0,000000;0,000000;0,833333;0,333333;0,333333;0,000000;0,000000;0,333333;0,416667;0,416667;0,416667;0,000000;0,000000;0,252650;0,333333;0,416667;
29;;;;;;;;;;;;;;;;;;;;;;;;;;;;;1,000000;0,532800;0,618616;0,532800;0,616011;0,477005;0,152062;0,000000;0,000000;0,427943;0,000000;0,286810;0,208555;0,000000;0,000000;0,000000;0,344610;0,000000;0,000000;0,177880;0,177880;0,209475;0,344610;0,000000;0,483551;0,483551;0,218080;0,000000;0,000000;0,218080;0,172392;0,344610;0,261276;0,261276;0,261276;0,224537;0,224537;0,000000;0,000000;0,000000;0,000000;0,000000;0,000000;0,000000;0,365741;0,365741;0,400218;0,422350;0,258239;0,323754;0,219610;0,000000;0,000000;0,344610;0,000000;0,000000;0,219547;0,219547;0,261276;0,344610;0,344610;0,344610;0,000000;0,000000;0,180593;0,261276;0,650218;
30;;;;;;;;;;;;;;;;;;;;;;;;;;;;;;1,000000;0,531164;0,666667;0,000000;0,000000;0,000000;0,000000;0,000000;0,000000;0,000000;0,333333;0,000000;0,000000;0,000000;0,000000;0,000000;0,000000;0,000000;0,000000;0,000000;0,000000;0,000000;0,000000;0,000000;0,000000;0,000000;0,000000;0,000000;0,000000;0,000000;0,000000;0,000000;0,000000;0,000000;0,000000;0,000000;0,000000;0,000000;0,000000;0,000000;0,000000;0,000000;0,000000;0,000000;0,000000;0,000000;0,000000;0,000000;0,286935;0,000000;0,000000;0,000000;0,000000;0,000000;0,000000;0,000000;0,000000;0,000000;0,000000;0,000000;0,000000;0,000000;0,000000;0,000000;0,000000;0,000000;
31;;;;;;;;;;;;;;;;;;;;;;;;;;;;;;;1,000000;0,531164;0,561364;0,423680;0,221839;0,172673;0,202717;0,374936;0,172673;0,436261;0,289227;0,302928;0,302928;0,302928;0,291602;0,172673;0,602928;0,172673;0,172673;0,657585;0,291602;0,547673;0,208269;0,208269;0,165073;0,000000;0,000000;0,165073;0,119385;0,291602;0,208269;0,208269;0,208269;0,441763;0,441763;0,172673;0,000000;0,000000;0,000000;0,000000;0,214340;0,214340;0,535369;0,535369;0,166602;0,196646;0,214340;0,440805;0,166602;0,297673;0,297673;0,291602;0,214340;0,214340;0,214340;0,214340;0,208269;0,291602;0,291602;0,291602;0,214340;0,214340;0,263506;0,208269;0,291602;
32;;;;;;;;;;;;;;;;;;;;;;;;;;;;;;;;1,000000;0,000000;0,000000;0,000000;0,000000;0,000000;0,000000;0,000000;0,333333;0,000000;0,000000;0,000000;0,000000;0,000000;0,000000;0,000000;0,000000;0,000000;0,000000;0,000000;0,000000;0,000000;0,000000;0,000000;0,000000;0,000000;0,000000;0,000000;0,000000;0,000000;0,000000;0,000000;0,000000;0,000000;0,000000;0,000000;0,000000;0,000000;0,000000;0,000000;0,000000;0,000000;0,000000;0,000000;0,000000;0,000000;0,286935;0,000000;0,000000;0,000000;0,000000;0,000000;0,000000;0,000000;0,000000;0,000000;0,000000;0,000000;0,000000;0,000000;0,000000;0,000000;0,000000;0,000000;
33;;;;;;;;;;;;;;;;;;;;;;;;;;;;;;;;;1,000000;0,666667;0,224119;0,000000;0,000000;0,500000;0,000000;0,000000;0,000000;0,000000;0,000000;0,000000;0,416667;0,000000;0,000000;0,000000;0,000000;0,281532;0,416667;0,000000;0,333333;0,333333;0,290137;0,000000;0,000000;0,290137;0,244449;0,416667;0,333333;0,333333;0,333333;0,260944;0,260944;0,000000;0,000000;0,000000;0,000000;0,000000;0,000000;0,000000;0,500000;0,500000;0,291667;0,321711;0,000000;0,249829;0,291667;0,000000;0,000000;0,416667;0,000000;0,000000;0,000000;0,000000;0,333333;0,416667;0,416667;0,416667;0,000000;0,000000;0,252650;0,333333;0,416667;
34;;;;;;;;;;;;;;;;;;;;;;;;;;;;;;;;;;1,000000;0,224119;0,000000;0,000000;0,500000;0,000000;0,000000;0,000000;0,000000;0,000000;0,000000;0,416667;0,000000;0,000000;0,000000;0,000000;0,281532;0,416667;0,000000;0,333333;0,333333;0,290137;0,000000;0,000000;0,290137;0,244449;0,416667;0,333333;0,333333;0,333333;0,000000;0,000000;0,000000;0,000000;0,000000;0,000000;0,000000;0,000000;0,000000;0,291667;0,291667;0,291667;0,321711;0,000000;0,249829;0,291667;0,000000;0,000000;0,416667;0,000000;0,000000;0,000000;0,000000;0,333333;0,416667;0,416667;0,416667;0,000000;0,000000;0,252650;0,333333;0,416667;
35;;;;;;;;;;;;;;;;;;;;;;;;;;;;;;;;;;;1,000000;0,681135;0,492382;0,390786;0,681135;0,228945;0,191453;0,162278;0,162278;0,162278;0,307453;0,432294;0,312278;0,187278;0,187278;0,375000;0,307453;0,562278;0,224119;0,224119;0,180923;0,000000;0,000000;0,180923;0,135235;0,307453;0,224119;0,224119;0,224119;0,000000;0,000000;0,681135;0,000000;0,000000;0,000000;0,000000;0,228945;0,228945;0,187278;0,187278;0,429683;0,412904;0,228945;0,291667;0,678545;0,312278;0,312278;0,307453;0,228945;0,228945;0,228945;0,228945;0,513016;0,307453;0,307453;0,307453;0,228945;0,228945;0,291667;0,224119;0,307453;
36;;;;;;;;;;;;;;;;;;;;;;;;;;;;;;;;;;;;1,000000;0,560088;0,000000;0,750000;0,291667;0,254175;0,225000;0,225000;0,225000;0,000000;0,500000;0,375000;0,250000;0,250000;0,243929;0,000000;0,625000;0,000000;0,000000;0,000000;0,000000;0,000000;0,000000;0,000000;0,000000;0,000000;0,000000;0,000000;0,000000;0,000000;0,750000;0,000000;0,000000;0,000000;0,000000;0,291667;0,291667;0,250000;0,250000;0,250000;0,207484;0,291667;0,207411;0,750000;0,375000;0,375000;0,000000;0,291667;0,291667;0,291667;0,291667;0,291667;0,000000;0,000000;0,000000;0,291667;0,291667;0,211509;0,000000;0,000000;
37;;;;;;;;;;;;;;;;;;;;;;;;;;;;;;;;;;;;;1,000000;0,000000;0,560088;0,321711;0,284219;0,255044;0,255044;0,255044;0,000000;0,840132;0,405044;0,280044;0,280044;0,273973;0,000000;0,655044;0,000000;0,000000;0,000000;0,000000;0,000000;0,000000;0,000000;0,000000;0,000000;0,000000;0,000000;0,000000;0,000000;0,560088;0,000000;0,000000;0,000000;0,000000;0,321711;0,321711;0,280044;0,280044;0,280044;0,237528;0,321711;0,237455;0,280044;0,405044;0,405044;0,000000;0,321711;0,321711;0,321711;0,321711;0,321711;0,000000;0,000000;0,000000;0,321711;0,321711;0,241553;0,000000;0,000000;
38;;;;;;;;;;;;;;;;;;;;;;;;;;;;;;;;;;;;;;1,000000;0,000000;0,000000;0,000000;0,000000;0,000000;0,000000;0,583333;0,000000;0,000000;0,000000;0,000000;0,448199;1,000000;0,000000;0,500000;0,500000;0,456804;0,000000;0,000000;0,456804;0,411116;1,000000;0,500000;0,500000;0,500000;0,000000;0,000000;0,000000;0,000000;0,000000;0,000000;0,000000;0,330039;0,330039;0,000000;0,000000;0,458333;0,488377;0,000000;0,416496;0,458333;0,000000;0,000000;1,000000;0,330039;0,330039;0,000000;0,000000;0,500000;0,583333;0,583333;0,583333;0,000000;0,000000;0,419317;0,500000;0,583333;
39;;;;;;;;;;;;;;;;;;;;;;;;;;;;;;;;;;;;;;;1,000000;0,291667;0,254175;0,225000;0,225000;0,225000;0,375000;0,500000;0,375000;0,250000;0,250000;0,243929;0,000000;0,625000;0,000000;0,000000;0,000000;0,000000;0,000000;0,000000;0,000000;0,000000;0,000000;0,000000;0,000000;0,000000;0,000000;1,000000;0,000000;0,000000;0,000000;0,000000;0,291667;0,291667;0,250000;0,250000;0,250000;0,207484;0,291667;0,207411;0,500000;0,375000;0,375000;0,000000;0,291667;0,291667;0,291667;0,291667;0,291667;0,000000;0,000000;0,375000;0,291667;0,291667;0,211509;0,000000;0,000000;
40;;;;;;;;;;;;;;;;;;;;;;;;;;;;;;;;;;;;;;;;1,000000;0,519632;0,533333;0,533333;0,533333;0,000000;0,291667;0,833333;0,291667;0,291667;0,693797;0,000000;0,666667;0,000000;0,000000;0,000000;0,000000;0,000000;0,000000;0,000000;0,000000;0,000000;0,000000;0,000000;0,333333;0,333333;0,291667;0,000000;0,000000;0,000000;0,000000;0,333333;0,333333;0,291667;0,291667;0,000000;0,000000;0,333333;0,249078;0,000000;0,416667;0,416667;0,000000;0,333333;0,333333;0,333333;0,333333;0,000000;0,000000;0,000000;0,000000;0,333333;0,333333;0,253176;0,000000;0,000000;
41;;;;;;;;;;;;;;;;;;;;;;;;;;;;;;;;;;;;;;;;;1,000000;0,714511;0,714511;0,714511;0,000000;0,254175;0,686299;0,254175;0,254175;0,546762;0,000000;0,629175;0,000000;0,000000;0,000000;0,000000;0,000000;0,000000;0,000000;0,000000;0,000000;0,000000;0,000000;0,233248;0,233248;0,254175;0,000000;0,000000;0,000000;0,000000;0,295841;0,295841;0,254175;0,254175;0,000000;0,000000;0,544901;0,391099;0,000000;0,379175;0,379175;0,000000;0,295841;0,295841;0,295841;0,295841;0,000000;0,000000;0,000000;0,000000;0,295841;0,295841;0,215684;0,000000;0,000000;
42;;;;;;;;;;;;;;;;;;;;;;;;;;;;;;;;;;;;;;;;;;1,000000;0,800000;0,800000;0,000000;0,225000;0,700000;0,225000;0,225000;0,560463;0,000000;0,600000;0,000000;0,000000;0,000000;0,000000;0,000000;0,000000;0,000000;0,000000;0,000000;0,000000;0,000000;0,266667;0,266667;0,225000;0,000000;0,000000;0,000000;0,000000;0,266667;0,266667;0,225000;0,225000;0,000000;0,000000;0,533333;0,378417;0,000000;0,350000;0,350000;0,000000;0,266667;0,266667;0,266667;0,266667;0,000000;0,000000;0,000000;0,000000;0,266667;0,266667;0,186509;0,000000;0,000000;
43;;;;;;;;;;;;;;;;;;;;;;;;;;;;;;;;;;;;;;;;;;;1,000000;0,800000;0,000000;0,225000;0,700000;0,225000;0,225000;0,560463;0,000000;0,600000;0,000000;0,000000;0,000000;0,000000;0,000000;0,000000;0,000000;0,000000;0,000000;0,000000;0,000000;0,266667;0,266667;0,225000;0,000000;0,000000;0,000000;0,000000;0,266667;0,266667;0,225000;0,225000;0,000000;0,000000;0,533333;0,378417;0,000000;0,350000;0,350000;0,000000;0,266667;0,266667;0,266667;0,266667;0,000000;0,000000;0,000000;0,000000;0,266667;0,266667;0,186509;0,000000;0,000000;
44;;;;;;;;;;;;;;;;;;;;;;;;;;;;;;;;;;;;;;;;;;;;1,000000;0,000000;0,225000;0,700000;0,225000;0,225000;0,560463;0,000000;0,600000;0,000000;0,000000;0,000000;0,000000;0,000000;0,000000;0,000000;0,000000;0,000000;0,000000;0,000000;0,266667;0,266667;0,225000;0,000000;0,000000;0,000000;0,000000;0,266667;0,266667;0,225000;0,225000;0,000000;0,000000;0,533333;0,378417;0,000000;0,350000;0,350000;0,000000;0,266667;0,266667;0,266667;0,266667;0,000000;0,000000;0,000000;0,000000;0,266667;0,266667;0,186509;0,000000;0,000000;
45;;;;;;;;;;;;;;;;;;;;;;;;;;;;;;;;;;;;;;;;;;;;;1,000000;0,000000;0,000000;0,000000;0,000000;0,364866;0,500000;0,000000;0,416667;0,416667;0,373470;0,000000;0,000000;0,373470;0,327782;0,500000;0,416667;0,416667;0,416667;0,000000;0,000000;0,375000;0,000000;0,000000;0,000000;0,000000;0,000000;0,000000;0,000000;0,000000;0,375000;0,405044;0,000000;0,333163;0,375000;0,000000;0,000000;0,500000;0,000000;0,000000;0,000000;0,000000;0,416667;0,500000;0,500000;1,000000;0,000000;0,000000;0,335984;0,416667;0,500000;
46;;;;;;;;;;;;;;;;;;;;;;;;;;;;;;;;;;;;;;;;;;;;;;1,000000;0,375000;0,250000;0,250000;0,243929;0,000000;0,625000;0,000000;0,000000;0,000000;0,000000;0,000000;0,000000;0,000000;0,000000;0,000000;0,000000;0,000000;0,000000;0,000000;0,500000;0,000000;0,000000;0,000000;0,000000;0,291667;0,291667;0,250000;0,250000;0,250000;0,207484;0,291667;0,207411;0,250000;0,375000;0,375000;0,000000;0,291667;0,291667;0,291667;0,291667;0,291667;0,000000;0,000000;0,000000;0,291667;0,291667;0,211509;0,000000;0,000000;
47;;;;;;;;;;;;;;;;;;;;;;;;;;;;;;;;;;;;;;;;;;;;;;;1,000000;0,375000;0,375000;0,860463;0,000000;0,750000;0,000000;0,000000;0,000000;0,000000;0,000000;0,000000;0,000000;0,000000;0,000000;0,000000;0,000000;0,416667;0,416667;0,375000;0,000000;0,000000;0,000000;0,000000;0,416667;0,416667;0,375000;0,375000;0,000000;0,000000;0,416667;0,332411;0,000000;0,500000;0,500000;0,000000;0,416667;0,416667;0,416667;0,416667;0,000000;0,000000;0,000000;0,000000;0,416667;0,416667;0,336509;0,000000;0,000000;
48;;;;;;;;;;;;;;;;;;;;;;;;;;;;;;;;;;;;;;;;;;;;;;;;1,000000;0,750000;0,243929;0,000000;0,625000;0,291667;0,291667;0,000000;0,000000;0,000000;0,000000;0,000000;0,000000;0,000000;0,000000;0,000000;0,000000;0,000000;0,250000;0,000000;0,000000;0,000000;0,000000;0,291667;0,291667;0,250000;0,250000;0,250000;0,245801;0,291667;0,416667;0,000000;0,375000;0,375000;0,000000;0,291667;0,291667;0,583333;0,583333;0,000000;0,000000;0,000000;0,000000;0,291667;0,291667;0,211509;0,000000;0,375000;
49;;;;;;;;;;;;;;;;;;;;;;;;;;;;;;;;;;;;;;;;;;;;;;;;;1,000000;0,243929;0,000000;0,625000;0,291667;0,291667;0,000000;0,000000;0,000000;0,000000;0,000000;0,000000;0,000000;0,000000;0,000000;0,000000;0,000000;0,250000;0,000000;0,000000;0,000000;0,000000;0,291667;0,291667;0,250000;0,250000;0,250000;0,245801;0,291667;0,416667;0,000000;0,375000;0,375000;0,000000;0,291667;0,291667;0,583333;0,583333;0,000000;0,000000;0,000000;0,000000;0,291667;0,291667;0,211509;0,000000;0,375000;
50;;;;;;;;;;;;;;;;;;;;;;;;;;;;;;;;;;;;;;;;;;;;;;;;;;1,000000;0,364866;0,618929;0,281532;0,281532;0,238336;0,000000;0,000000;0,238336;0,192648;0,364866;0,281532;0,281532;0,281532;0,416667;0,416667;0,243929;0,000000;0,000000;0,000000;0,000000;0,285596;0,285596;0,243929;0,243929;0,239866;0,269910;0,285596;0,416667;0,239866;0,368929;0,368929;0,364866;0,285596;0,285596;0,285596;0,285596;0,281532;0,364866;0,364866;0,364866;0,285596;0,285596;0,416667;0,281532;0,364866;
51;;;;;;;;;;;;;;;;;;;;;;;;;;;;;;;;;;;;;;;;;;;;;;;;;;;1,000000;0,000000;0,416667;0,416667;0,373470;0,000000;0,000000;0,373470;0,327782;1,000000;0,416667;0,416667;0,416667;0,000000;0,000000;0,000000;0,000000;0,000000;0,000000;0,000000;0,416667;0,416667;0,000000;0,000000;0,375000;0,405044;0,000000;0,333163;0,375000;0,000000;0,000000;1,000000;0,416667;0,416667;0,000000;0,000000;0,416667;0,500000;0,500000;0,500000;0,000000;0,000000;0,335984;0,416667;0,500000;
52;;;;;;;;;;;;;;;;;;;;;;;;;;;;;;;;;;;;;;;;;;;;;;;;;;;;1,000000;0,000000;0,000000;0,000000;0,000000;0,000000;0,000000;0,000000;0,000000;0,000000;0,000000;0,000000;0,000000;0,000000;0,625000;0,000000;0,000000;0,000000;0,000000;0,666667;0,666667;0,625000;0,625000;0,000000;0,000000;0,666667;0,582411;0,000000;0,750000;0,750000;0,000000;0,666667;0,666667;0,666667;0,666667;0,000000;0,000000;0,000000;0,000000;0,666667;0,666667;0,586509;0,000000;0,000000;
53;;;;;;;;;;;;;;;;;;;;;;;;;;;;;;;;;;;;;;;;;;;;;;;;;;;;;1,000000;0,666667;0,290137;0,000000;0,000000;0,290137;0,244449;0,416667;0,333333;0,333333;0,333333;0,000000;0,000000;0,000000;0,000000;0,000000;0,000000;0,000000;0,000000;0,000000;0,000000;0,000000;0,583333;0,605465;0,000000;0,506870;0,291667;0,000000;0,000000;0,416667;0,000000;0,000000;0,333333;0,333333;0,333333;0,416667;0,416667;0,416667;0,000000;0,000000;0,252650;0,333333;0,833333;
54;;;;;;;;;;;;;;;;;;;;;;;;;;;;;;;;;;;;;;;;;;;;;;;;;;;;;;1,000000;0,290137;0,000000;0,000000;0,290137;0,244449;0,416667;0,333333;0,333333;0,333333;0,000000;0,000000;0,000000;0,000000;0,000000;0,000000;0,000000;0,000000;0,000000;0,000000;0,000000;0,583333;0,605465;0,000000;0,506870;0,291667;0,000000;0,000000;0,416667;0,000000;0,000000;0,333333;0,333333;0,333333;0,416667;0,416667;0,416667;0,000000;0,000000;0,252650;0,333333;0,833333;
55;;;;;;;;;;;;;;;;;;;;;;;;;;;;;;;;;;;;;;;;;;;;;;;;;;;;;;;1,000000;0,707750;0,707750;0,711048;0,751198;0,373470;0,290137;0,290137;0,290137;0,000000;0,000000;0,000000;0,000000;0,000000;0,000000;0,000000;0,000000;0,000000;0,000000;0,000000;0,248470;0,278514;0,000000;0,206633;0,248470;0,000000;0,000000;0,373470;0,000000;0,000000;0,000000;0,000000;0,290137;0,373470;0,373470;0,373470;0,000000;0,000000;0,209454;0,290137;0,373470;
56;;;;;;;;;;;;;;;;;;;;;;;;;;;;;;;;;;;;;;;;;;;;;;;;;;;;;;;;1,000000;0,750000;0,707750;0,732269;0,000000;0,000000;0,000000;0,000000;0,000000;0,000000;0,000000;0,000000;0,000000;0,000000;0,000000;0,000000;0,000000;0,000000;0,000000;0,000000;0,000000;0,000000;0,000000;0,000000;0,000000;0,000000;0,000000;0,000000;0,000000;0,000000;0,000000;0,000000;0,000000;0,000000;0,000000;0,000000;0,000000;0,000000;0,000000;0,000000;
57;;;;;;;;;;;;;;;;;;;;;;;;;;;;;;;;;;;;;;;;;;;;;;;;;;;;;;;;;1,000000;0,707750;0,732269;0,000000;0,000000;0,000000;0,000000;0,000000;0,000000;0,000000;0,000000;0,000000;0,000000;0,000000;0,000000;0,000000;0,000000;0,000000;0,000000;0,000000;0,000000;0,000000;0,000000;0,000000;0,000000;0,000000;0,000000;0,000000;0,000000;0,000000;0,000000;0,000000;0,000000;0,000000;0,000000;0,000000;0,000000;0,000000;0,000000;
58;;;;;;;;;;;;;;;;;;;;;;;;;;;;;;;;;;;;;;;;;;;;;;;;;;;;;;;;;;1,000000;0,751198;0,373470;0,290137;0,290137;0,290137;0,000000;0,000000;0,000000;0,000000;0,000000;0,000000;0,000000;0,000000;0,000000;0,000000;0,000000;0,248470;0,278514;0,000000;0,206633;0,248470;0,000000;0,000000;0,373470;0,000000;0,000000;0,000000;0,000000;0,290137;0,373470;0,373470;0,373470;0,000000;0,000000;0,209454;0,290137;0,373470;
59;;;;;;;;;;;;;;;;;;;;;;;;;;;;;;;;;;;;;;;;;;;;;;;;;;;;;;;;;;;1,000000;0,327782;0,244449;0,244449;0,244449;0,000000;0,000000;0,000000;0,000000;0,000000;0,000000;0,000000;0,000000;0,000000;0,000000;0,000000;0,202782;0,232826;0,000000;0,160945;0,202782;0,000000;0,000000;0,327782;0,000000;0,000000;0,000000;0,000000;0,244449;0,327782;0,327782;0,327782;0,000000;0,000000;0,163766;0,244449;0,327782;
60;;;;;;;;;;;;;;;;;;;;;;;;;;;;;;;;;;;;;;;;;;;;;;;;;;;;;;;;;;;;1,000000;0,416667;0,416667;0,416667;0,000000;0,000000;0,000000;0,000000;0,000000;0,000000;0,000000;0,416667;0,416667;0,000000;0,000000;0,375000;0,405044;0,000000;0,333163;0,375000;0,000000;0,000000;1,000000;0,416667;0,416667;0,000000;0,000000;0,416667;0,500000;0,500000;0,500000;0,000000;0,000000;0,335984;0,416667;0,500000;
61;;;;;;;;;;;;;;;;;;;;;;;;;;;;;;;;;;;;;;;;;;;;;;;;;;;;;;;;;;;;;1,000000;0,666667;0,666667;0,000000;0,000000;0,000000;0,000000;0,000000;0,000000;0,000000;0,000000;0,000000;0,000000;0,000000;0,291667;0,321711;0,000000;0,249829;0,291667;0,000000;0,000000;0,416667;0,000000;0,000000;0,000000;0,000000;0,333333;0,416667;0,416667;0,416667;0,000000;0,000000;0,440286;0,589453;0,416667;
62;;;;;;;;;;;;;;;;;;;;;;;;;;;;;;;;;;;;;;;;;;;;;;;;;;;;;;;;;;;;;;1,000000;0,666667;0,000000;0,000000;0,000000;0,000000;0,000000;0,000000;0,000000;0,000000;0,000000;0,000000;0,000000;0,291667;0,321711;0,000000;0,249829;0,291667;0,000000;0,000000;0,416667;0,000000;0,000000;0,000000;0,000000;0,333333;0,416667;0,416667;0,416667;0,000000;0,000000;0,440286;0,589453;0,416667;
63;;;;;;;;;;;;;;;;;;;;;;;;;;;;;;;;;;;;;;;;;;;;;;;;;;;;;;;;;;;;;;;1,000000;0,000000;0,000000;0,000000;0,000000;0,000000;0,000000;0,000000;0,000000;0,000000;0,000000;0,000000;0,291667;0,321711;0,000000;0,249829;0,291667;0,000000;0,000000;0,416667;0,000000;0,000000;0,000000;0,000000;0,333333;0,416667;0,416667;0,416667;0,000000;0,000000;0,252650;0,333333;0,416667;
64;;;;;;;;;;;;;;;;;;;;;;;;;;;;;;;;;;;;;;;;;;;;;;;;;;;;;;;;;;;;;;;;1,000000;0,666667;0,000000;0,000000;0,000000;0,000000;0,000000;0,000000;0,000000;0,291667;0,291667;0,000000;0,000000;0,000000;0,000000;0,000000;0,000000;0,000000;0,000000;0,000000;0,000000;0,000000;0,000000;0,000000;0,000000;0,000000;0,000000;0,000000;0,000000;0,000000;0,000000;0,000000;
65;;;;;;;;;;;;;;;;;;;;;;;;;;;;;;;;;;;;;;;;;;;;;;;;;;;;;;;;;;;;;;;;;1,000000;0,000000;0,000000;0,000000;0,000000;0,000000;0,000000;0,000000;0,291667;0,291667;0,000000;0,000000;0,000000;0,000000;0,000000;0,000000;0,000000;0,000000;0,000000;0,000000;0,000000;0,000000;0,000000;0,000000;0,000000;0,000000;0,000000;0,000000;0,000000;0,000000;0,000000;
66;;;;;;;;;;;;;;;;;;;;;;;;;;;;;;;;;;;;;;;;;;;;;;;;;;;;;;;;;;;;;;;;;;1,000000;0,000000;0,000000;0,000000;0,000000;0,291667;0,291667;0,250000;0,250000;0,250000;0,207484;0,291667;0,207411;0,500000;0,375000;0,375000;0,000000;0,291667;0,291667;0,291667;0,291667;0,291667;0,000000;0,000000;0,375000;0,291667;0,291667;0,211509;0,000000;0,000000;
67;;;;;;;;;;;;;;;;;;;;;;;;;;;;;;;;;;;;;;;;;;;;;;;;;;;;;;;;;;;;;;;;;;;1,000000;0,666667;0,666667;0,666667;0,000000;0,000000;0,000000;0,000000;0,000000;0,000000;0,000000;0,000000;0,000000;0,000000;0,000000;0,000000;0,000000;0,000000;0,000000;0,000000;0,000000;0,000000;0,000000;0,000000;0,000000;0,000000;0,000000;0,000000;0,000000;
68;;;;;;;;;;;;;;;;;;;;;;;;;;;;;;;;;;;;;;;;;;;;;;;;;;;;;;;;;;;;;;;;;;;;1,000000;0,666667;0,666667;0,000000;0,000000;0,000000;0,000000;0,000000;0,000000;0,000000;0,000000;0,000000;0,000000;0,000000;0,000000;0,000000;0,000000;0,000000;0,000000;0,000000;0,000000;0,000000;0,000000;0,000000;0,000000;0,000000;0,000000;0,000000;
69;;;;;;;;;;;;;;;;;;;;;;;;;;;;;;;;;;;;;;;;;;;;;;;;;;;;;;;;;;;;;;;;;;;;;1,000000;0,666667;0,000000;0,000000;0,000000;0,000000;0,000000;0,000000;0,000000;0,000000;0,000000;0,000000;0,000000;0,000000;0,000000;0,000000;0,000000;0,000000;0,000000;0,000000;0,000000;0,000000;0,000000;0,000000;0,000000;0,000000;0,000000;
70;;;;;;;;;;;;;;;;;;;;;;;;;;;;;;;;;;;;;;;;;;;;;;;;;;;;;;;;;;;;;;;;;;;;;;1,000000;0,000000;0,000000;0,000000;0,000000;0,000000;0,000000;0,000000;0,000000;0,000000;0,000000;0,000000;0,000000;0,000000;0,000000;0,000000;0,000000;0,000000;0,000000;0,000000;0,000000;0,000000;0,000000;0,000000;0,000000;0,000000;
71;;;;;;;;;;;;;;;;;;;;;;;;;;;;;;;;;;;;;;;;;;;;;;;;;;;;;;;;;;;;;;;;;;;;;;;1,000000;0,666667;0,291667;0,291667;0,000000;0,000000;0,333333;0,249078;0,000000;0,416667;0,416667;0,416667;0,666667;0,666667;0,333333;0,333333;0,000000;0,000000;0,000000;0,000000;0,333333;0,333333;0,253176;0,000000;0,000000;
72;;;;;;;;;;;;;;;;;;;;;;;;;;;;;;;;;;;;;;;;;;;;;;;;;;;;;;;;;;;;;;;;;;;;;;;;1,000000;0,291667;0,291667;0,000000;0,000000;0,333333;0,249078;0,000000;0,416667;0,416667;0,416667;0,666667;0,666667;0,333333;0,333333;0,000000;0,000000;0,000000;0,000000;0,333333;0,333333;0,253176;0,000000;0,000000;
73;;;;;;;;;;;;;;;;;;;;;;;;;;;;;;;;;;;;;;;;;;;;;;;;;;;;;;;;;;;;;;;;;;;;;;;;;1,000000;0,750000;0,000000;0,000000;0,291667;0,207411;0,000000;0,375000;0,375000;0,000000;0,291667;0,291667;0,291667;0,291667;0,000000;0,000000;0,000000;0,000000;0,291667;0,291667;0,211509;0,000000;0,000000;
74;;;;;;;;;;;;;;;;;;;;;;;;;;;;;;;;;;;;;;;;;;;;;;;;;;;;;;;;;;;;;;;;;;;;;;;;;;1,000000;0,000000;0,000000;0,291667;0,207411;0,000000;0,375000;0,375000;0,000000;0,291667;0,291667;0,291667;0,291667;0,000000;0,000000;0,000000;0,000000;0,291667;0,291667;0,211509;0,000000;0,000000;
75;;;;;;;;;;;;;;;;;;;;;;;;;;;;;;;;;;;;;;;;;;;;;;;;;;;;;;;;;;;;;;;;;;;;;;;;;;;1,000000;0,720386;0,000000;0,423537;0,500000;0,000000;0,000000;0,375000;0,000000;0,000000;0,291667;0,291667;0,875000;0,375000;0,375000;0,375000;0,000000;0,000000;0,210984;0,291667;0,750000;
76;;;;;;;;;;;;;;;;;;;;;;;;;;;;;;;;;;;;;;;;;;;;;;;;;;;;;;;;;;;;;;;;;;;;;;;;;;;;1,000000;0,000000;0,445668;0,483221;0,000000;0,000000;0,405044;0,000000;0,000000;0,287467;0,287467;0,566554;0,405044;0,405044;0,405044;0,000000;0,000000;0,241028;0,321711;0,772132;
77;;;;;;;;;;;;;;;;;;;;;;;;;;;;;;;;;;;;;;;;;;;;;;;;;;;;;;;;;;;;;;;;;;;;;;;;;;;;;1,000000;0,511750;0,000000;0,416667;0,416667;0,000000;0,333333;0,333333;0,333333;0,333333;0,000000;0,000000;0,000000;0,000000;0,333333;0,333333;0,253176;0,000000;0,000000;
78;;;;;;;;;;;;;;;;;;;;;;;;;;;;;;;;;;;;;;;;;;;;;;;;;;;;;;;;;;;;;;;;;;;;;;;;;;;;;;1,000000;0,208163;0,332411;0,332411;0,333163;0,249078;0,249078;0,500000;0,500000;0,249829;0,333163;0,333163;0,333163;0,249078;0,249078;0,333333;0,249829;0,673537;
79;;;;;;;;;;;;;;;;;;;;;;;;;;;;;;;;;;;;;;;;;;;;;;;;;;;;;;;;;;;;;;;;;;;;;;;;;;;;;;;1,000000;0,000000;0,000000;0,375000;0,000000;0,000000;0,000000;0,000000;0,583333;0,375000;0,375000;0,375000;0,000000;0,000000;0,210984;0,291667;0,375000;
80;;;;;;;;;;;;;;;;;;;;;;;;;;;;;;;;;;;;;;;;;;;;;;;;;;;;;;;;;;;;;;;;;;;;;;;;;;;;;;;;1,000000;0,500000;0,000000;0,416667;0,416667;0,416667;0,416667;0,000000;0,000000;0,000000;0,000000;0,416667;0,416667;0,336509;0,000000;0,000000;
81;;;;;;;;;;;;;;;;;;;;;;;;;;;;;;;;;;;;;;;;;;;;;;;;;;;;;;;;;;;;;;;;;;;;;;;;;;;;;;;;;1,000000;0,000000;0,416667;0,416667;0,416667;0,416667;0,000000;0,000000;0,000000;0,000000;0,416667;0,416667;0,336509;0,000000;0,000000;
82;;;;;;;;;;;;;;;;;;;;;;;;;;;;;;;;;;;;;;;;;;;;;;;;;;;;;;;;;;;;;;;;;;;;;;;;;;;;;;;;;;1,000000;0,416667;0,416667;0,000000;0,000000;0,416667;0,500000;0,500000;0,500000;0,000000;0,000000;0,335984;0,416667;0,500000;
83;;;;;;;;;;;;;;;;;;;;;;;;;;;;;;;;;;;;;;;;;;;;;;;;;;;;;;;;;;;;;;;;;;;;;;;;;;;;;;;;;;;1,000000;0,666667;0,333333;0,333333;0,000000;0,000000;0,000000;0,000000;0,333333;0,333333;0,253176;0,000000;0,000000;
84;;;;;;;;;;;;;;;;;;;;;;;;;;;;;;;;;;;;;;;;;;;;;;;;;;;;;;;;;;;;;;;;;;;;;;;;;;;;;;;;;;;;1,000000;0,333333;0,333333;0,000000;0,000000;0,000000;0,000000;0,333333;0,333333;0,253176;0,000000;0,000000;
85;;;;;;;;;;;;;;;;;;;;;;;;;;;;;;;;;;;;;;;;;;;;;;;;;;;;;;;;;;;;;;;;;;;;;;;;;;;;;;;;;;;;;1,000000;0,666667;0,000000;0,000000;0,000000;0,000000;0,333333;0,333333;0,253176;0,000000;0,416667;
86;;;;;;;;;;;;;;;;;;;;;;;;;;;;;;;;;;;;;;;;;;;;;;;;;;;;;;;;;;;;;;;;;;;;;;;;;;;;;;;;;;;;;;1,000000;0,000000;0,000000;0,000000;0,000000;0,333333;0,333333;0,253176;0,000000;0,416667;
87;;;;;;;;;;;;;;;;;;;;;;;;;;;;;;;;;;;;;;;;;;;;;;;;;;;;;;;;;;;;;;;;;;;;;;;;;;;;;;;;;;;;;;;1,000000;0,416667;0,416667;0,416667;0,000000;0,000000;0,252650;0,333333;0,416667;
88;;;;;;;;;;;;;;;;;;;;;;;;;;;;;;;;;;;;;;;;;;;;;;;;;;;;;;;;;;;;;;;;;;;;;;;;;;;;;;;;;;;;;;;;1,000000;0,500000;0,500000;0,000000;0,000000;0,335984;0,416667;0,500000;
89;;;;;;;;;;;;;;;;;;;;;;;;;;;;;;;;;;;;;;;;;;;;;;;;;;;;;;;;;;;;;;;;;;;;;;;;;;;;;;;;;;;;;;;;;1,000000;0,500000;0,000000;0,000000;0,335984;0,416667;0,500000;
90;;;;;;;;;;;;;;;;;;;;;;;;;;;;;;;;;;;;;;;;;;;;;;;;;;;;;;;;;;;;;;;;;;;;;;;;;;;;;;;;;;;;;;;;;;1,000000;0,000000;0,000000;0,335984;0,416667;0,500000;
91;;;;;;;;;;;;;;;;;;;;;;;;;;;;;;;;;;;;;;;;;;;;;;;;;;;;;;;;;;;;;;;;;;;;;;;;;;;;;;;;;;;;;;;;;;;1,000000;0,666667;0,520522;0,333333;0,000000;
92;;;;;;;;;;;;;;;;;;;;;;;;;;;;;;;;;;;;;;;;;;;;;;;;;;;;;;;;;;;;;;;;;;;;;;;;;;;;;;;;;;;;;;;;;;;;1,000000;0,520522;0,333333;0,000000;
93;;;;;;;;;;;;;;;;;;;;;;;;;;;;;;;;;;;;;;;;;;;;;;;;;;;;;;;;;;;;;;;;;;;;;;;;;;;;;;;;;;;;;;;;;;;;;1,000000;0,517499;0,335984;
94;;;;;;;;;;;;;;;;;;;;;;;;;;;;;;;;;;;;;;;;;;;;;;;;;;;;;;;;;;;;;;;;;;;;;;;;;;;;;;;;;;;;;;;;;;;;;;1,000000;0,416667;
95;;;;;;;;;;;;;;;;;;;;;;;;;;;;;;;;;;;;;;;;;;;;;;;;;;;;;;;;;;;;;;;;;;;;;;;;;;;;;;;;;;;;;;;;;;;;;;;1,000000;
