;1; 2; 3; 4; 5; 6; 7; 8; 9; 10; 11; 12; 13; 14; 15; 16; 17; 18; 19; 20; 21; 22; 23; 24; 25; 26; 27; 28; 29; 30; 31; 32; 33; 34; 35; 36; 37; 38; 39; 40; 41; 42; 43; 44; 45; 46; 47; 48; 49; 50; 51; 52
1;1,000000;0,435007;0,280497;0,345600;0,225406;0,370576;0,359629;0,366140;0,439654;0,439654;0,266678;0,000000;0,000000;0,131548;0,221671;0,246240;0,392625;0,361164;0,450197;0,000000;0,241058;0,241461;0,272540;0,603367;0,434839;0,379098;0,523931;0,274924;0,274924;0,268140;0,567408;0,459976;0,460630;0,461257;0,000000;0,000000;0,261423;0,261423;0,537025;0,384845;0,384845;0,537025;0,183326;0,183464;0,183603;0,267493;0,267493;0,522985;0,522985;0,138166;0,405673;0,280256;
2;;1,000000;0,320481;0,470594;0,355092;0,347509;0,361443;0,361443;0,410949;0,410949;0,617360;0,000000;0,000000;0,159929;0,228316;0,252885;0,377530;0,346070;0,478578;0,000000;0,239747;0,240151;0,271229;0,342815;0,674362;0,552973;0,452213;0,272131;0,272131;0,265346;0,595789;0,316164;0,316387;0,316616;0,000000;0,000000;0,287588;0,287588;0,534231;0,440208;0,440817;0,534231;0,209492;0,209629;0,209769;0,293659;0,293659;0,549150;0,549150;0,164331;0,420581;0,277463;
3;;;1,000000;0,281419;0,677101;0,622643;0,392117;0,396822;0,146754;0,147935;0,241851;0,000000;0,427413;0,322896;0,307931;0,359623;0,217261;0,182190;0,131299;0,431376;0,232301;0,232967;0,244141;0,286084;0,306959;0,223498;0,318634;0,375236;0,376180;0,273028;0,000000;0,167784;0,168115;0,168442;0,000000;0,000000;0,000000;0,000000;0,000000;0,197339;0,197683;0,000000;0,000000;0,000000;0,000000;0,000000;0,000000;0,000000;0,000000;0,182931;0,401711;0,290066;
4;;;;1,000000;0,456187;0,382248;0,393122;0,393122;0,407097;0,410554;0,663571;0,000000;0,000000;0,134368;0,210203;0,234771;0,486535;0,474298;0,453016;0,000000;0,495224;0,495886;0,482573;0,581157;0,487179;0,381917;0,523891;0,262008;0,262008;0,255223;0,570228;0,374190;0,374414;0,374642;0,000000;0,000000;0,279325;0,279325;0,524108;0,407820;0,407820;0,524108;0,201229;0,201366;0,201506;0,285396;0,285396;0,540887;0,540887;0,570009;0,391027;0,267340;
5;;;;;1,000000;0,596774;0,139631;0,141501;0,366236;0,369141;0,219344;0,000000;0,394276;0,290804;0,283866;0,212697;0,472787;0,464328;0,149504;0,398238;0,505002;0,505931;0,492365;0,315532;0,296381;0,250510;0,194982;0,000000;0,000000;0,249945;0,000000;0,145278;0,145609;0,145935;0,000000;0,000000;0,381957;0,382576;0,000000;0,430566;0,431103;0,000000;0,432513;0,432919;0,433314;0,386885;0,387360;0,000000;0,000000;0,448091;0,421026;0,266983;
6;;;;;;1,000000;0,207752;0,209622;0,397123;0,400093;0,287465;0,000000;0,273706;0,309842;0,157612;0,137672;0,160798;0,116769;0,000000;0,280569;0,105081;0,105338;0,143809;0,200403;0,403738;0,121260;0,185936;0,000000;0,000000;0,259108;0,000000;0,564229;0,564813;0,565375;0,000000;0,000000;0,000000;0,000000;0,000000;0,198579;0,198923;0,000000;0,000000;0,000000;0,000000;0,000000;0,000000;0,000000;0,000000;0,000000;0,200895;0,276146;
7;;;;;;;1,000000;0,549375;0,000000;0,000000;0,655368;0,000000;0,000000;0,136300;0,152869;0,185785;0,153146;0,162634;0,182883;0,000000;0,000000;0,000000;0,000000;0,153492;0,211238;0,173893;0,173525;0,342350;0,342350;0,335566;0,327366;0,224924;0,225255;0,225581;0,000000;0,000000;0,000000;0,000000;0,604451;0,000000;0,000000;0,604451;0,000000;0,000000;0,000000;0,000000;0,000000;0,000000;0,000000;0,000000;0,263467;0,347682;
8;;;;;;;;1,000000;0,000000;0,000000;0,655368;0,000000;0,000000;0,138867;0,155436;0,188352;0,155713;0,165201;0,185450;0,000000;0,000000;0,000000;0,000000;0,156060;0,213108;0,176461;0,176092;0,344917;0,344917;0,338133;0,329933;0,226794;0,227125;0,227451;0,000000;0,000000;0,000000;0,000000;0,607018;0,000000;0,000000;0,607018;0,000000;0,000000;0,000000;0,000000;0,000000;0,000000;0,000000;0,000000;0,266034;0,350249;
9;;;;;;;;;1,000000;0,578575;0,123452;0,000000;0,000000;0,081719;0,174488;0,164733;0,352450;0,313811;0,311442;0,000000;0,339758;0,340162;0,371240;0,282493;0,533539;0,270380;0,188889;0,000000;0,000000;0,000000;0,265159;0,193189;0,193601;0,194005;0,000000;0,000000;0,290203;0,290203;0,000000;0,201246;0,201601;0,000000;0,212107;0,212244;0,212384;0,296274;0,296274;0,551765;0,551765;0,166946;0,000000;0,000000;
10;;;;;;;;;;1,000000;0,124419;0,000000;0,000000;0,082505;0,175900;0,166144;0,353428;0,314789;0,312227;0,000000;0,340737;0,341140;0,372218;0,283905;0,534518;0,271165;0,189675;0,000000;0,000000;0,000000;0,265945;0,194155;0,194568;0,194972;0,000000;0,000000;0,290989;0,290989;0,000000;0,202031;0,202386;0,000000;0,212893;0,213030;0,213169;0,297059;0,297059;0,552551;0,552551;0,167732;0,000000;0,000000;
11;;;;;;;;;;;1,000000;0,000000;0,000000;0,143582;0,264527;0,292876;0,160429;0,169917;0,190166;0,000000;0,000000;0,000000;0,000000;0,294973;0,290951;0,181176;0,180808;0,349633;0,349633;0,342848;0,334648;0,531287;0,531510;0,531739;0,000000;0,000000;0,000000;0,000000;0,611733;0,000000;0,000000;0,611733;0,000000;0,000000;0,000000;0,000000;0,000000;0,000000;0,000000;0,000000;0,270750;0,354965;
12;;;;;;;;;;;;1,000000;0,000000;0,595734;0,572124;0,559046;0,000000;0,000000;0,000000;0,649710;0,000000;0,000000;0,000000;0,000000;0,000000;0,000000;0,000000;0,000000;0,000000;0,000000;0,000000;0,000000;0,000000;0,000000;0,000000;0,000000;0,000000;0,000000;0,000000;0,000000;0,000000;0,000000;0,000000;0,000000;0,000000;0,000000;0,000000;0,000000;0,000000;0,000000;0,000000;0,000000;
13;;;;;;;;;;;;;1,000000;0,644427;0,628790;0,555584;0,000000;0,000000;0,000000;0,749546;0,000000;0,000000;0,000000;0,000000;0,000000;0,000000;0,000000;0,000000;0,000000;0,358865;0,000000;0,000000;0,000000;0,000000;0,000000;0,000000;0,000000;0,000000;0,000000;0,000000;0,000000;0,000000;0,000000;0,000000;0,000000;0,000000;0,000000;0,000000;0,000000;0,000000;0,000000;0,375903;
14;;;;;;;;;;;;;;1,000000;0,676634;0,708175;0,163476;0,183726;0,446929;0,749047;0,121300;0,121693;0,110382;0,216885;0,235707;0,375830;0,284095;0,269748;0,269748;0,650152;0,564140;0,000000;0,000000;0,000000;0,000000;0,000000;0,268392;0,268392;0,531849;0,179434;0,179789;0,531849;0,190295;0,190432;0,190572;0,274462;0,274462;0,529954;0,529954;0,145135;0,190865;0,650152;
15;;;;;;;;;;;;;;;1,000000;0,656690;0,172457;0,192707;0,455910;0,720942;0,113540;0,113932;0,102621;0,322824;0,227946;0,384811;0,293076;0,286318;0,286318;0,698898;0,573121;0,157413;0,157826;0,158230;0,000000;0,000000;0,260631;0,260631;0,548418;0,171673;0,172028;0,548418;0,182535;0,182672;0,182811;0,266701;0,266701;0,522193;0,522193;0,137374;0,207435;0,698898;
16;;;;;;;;;;;;;;;;1,000000;0,201974;0,222224;0,485428;0,640143;0,109351;0,109744;0,098433;0,347393;0,223757;0,414329;0,322593;0,319234;0,319234;0,312449;0,602639;0,152230;0,152643;0,153047;0,000000;0,000000;0,256442;0,256442;0,581334;0,167485;0,167840;0,581334;0,178346;0,178483;0,178623;0,262513;0,262513;0,518004;0,518004;0,133185;0,240351;0,324566;
17;;;;;;;;;;;;;;;;;1,000000;0,732204;0,482124;0,000000;0,779268;0,779981;0,705730;0,252079;0,497901;0,411025;0,319290;0,286595;0,286595;0,279810;0,599335;0,000000;0,000000;0,000000;0,000000;0,000000;0,284297;0,284297;0,548695;0,195339;0,195694;0,548695;0,206200;0,206337;0,206477;0,290367;0,290367;0,545858;0,545858;0,751986;0,207712;0,291927;
18;;;;;;;;;;;;;;;;;;1,000000;0,502374;0,000000;0,766219;0,767033;0,862497;0,272329;0,459262;0,431275;0,339540;0,296083;0,296083;0,289298;0,619585;0,000000;0,000000;0,000000;0,000000;0,000000;0,293268;0,293268;0,558183;0,204310;0,204665;0,558183;0,215171;0,215308;0,215448;0,299338;0,299338;0,554830;0,554830;0,613851;0,217200;0,301415;
19;;;;;;;;;;;;;;;;;;;1,000000;0,000000;0,351023;0,351416;0,340105;0,731715;0,465429;0,694479;0,602743;0,316332;0,316332;0,309547;0,882789;0,000000;0,000000;0,000000;0,000000;0,000000;0,498115;0,498115;0,578432;0,409157;0,409512;0,578432;0,420018;0,420155;0,420295;0,504185;0,504185;0,759676;0,759676;0,374858;0,237449;0,321664;
20;;;;;;;;;;;;;;;;;;;;1,000000;0,000000;0,000000;0,000000;0,000000;0,000000;0,000000;0,000000;0,000000;0,000000;0,364119;0,000000;0,000000;0,000000;0,000000;0,000000;0,000000;0,000000;0,000000;0,000000;0,000000;0,000000;0,000000;0,000000;0,000000;0,000000;0,000000;0,000000;0,000000;0,000000;0,000000;0,000000;0,381156;
21;;;;;;;;;;;;;;;;;;;;;1,000000;0,812485;0,750217;0,187489;0,485210;0,309961;0,228471;0,000000;0,000000;0,000000;0,304741;0,000000;0,000000;0,000000;0,000000;0,000000;0,329785;0,329785;0,000000;0,240827;0,241182;0,000000;0,251689;0,251826;0,251965;0,335855;0,335855;0,591347;0,591347;0,689443;0,000000;0,000000;
22;;;;;;;;;;;;;;;;;;;;;;1,000000;0,751252;0,187882;0,485613;0,310354;0,228863;0,000000;0,000000;0,000000;0,305133;0,000000;0,000000;0,000000;0,000000;0,000000;0,330177;0,330177;0,000000;0,241220;0,241575;0,000000;0,252081;0,252218;0,252358;0,336248;0,336248;0,591739;0,591739;0,690609;0,000000;0,000000;
23;;;;;;;;;;;;;;;;;;;;;;;1,000000;0,176571;0,516691;0,299043;0,217553;0,000000;0,000000;0,000000;0,293823;0,000000;0,000000;0,000000;0,000000;0,000000;0,318867;0,318867;0,000000;0,229909;0,230264;0,000000;0,240770;0,240907;0,241047;0,324937;0,324937;0,580429;0,580429;0,701659;0,000000;0,000000;
24;;;;;;;;;;;;;;;;;;;;;;;;1,000000;0,301895;0,464434;0,774887;0,286941;0,286941;0,280156;0,652744;0,186788;0,187201;0,187605;0,000000;0,000000;0,334581;0,334581;0,549042;0,623324;0,623324;0,549042;0,256484;0,256621;0,256761;0,340651;0,340651;0,596143;0,596143;0,211324;0,566062;0,292273;
25;;;;;;;;;;;;;;;;;;;;;;;;;1,000000;0,424367;0,342877;0,000000;0,000000;0,000000;0,419147;0,216885;0,217216;0,217542;0,000000;0,000000;0,444191;0,444191;0,000000;0,355233;0,355588;0,000000;0,366095;0,366232;0,366371;0,450261;0,450261;0,705753;0,705753;0,320934;0,000000;0,000000;
26;;;;;;;;;;;;;;;;;;;;;;;;;;1,000000;0,531644;0,307342;0,307342;0,300557;0,811690;0,000000;0,000000;0,000000;0,000000;0,000000;0,457053;0,457053;0,569443;0,368095;0,368450;0,569443;0,378956;0,379093;0,379233;0,463123;0,463123;0,718615;0,718615;0,333796;0,228459;0,312674;
27;;;;;;;;;;;;;;;;;;;;;;;;;;;1,000000;0,306974;0,306974;0,300189;0,719954;0,000000;0,000000;0,000000;0,000000;0,000000;0,375562;0,375562;0,569074;0,652962;0,652962;0,569074;0,297466;0,297603;0,297742;0,381632;0,381632;0,637124;0,637124;0,252305;0,572673;0,312306;
28;;;;;;;;;;;;;;;;;;;;;;;;;;;;1,000000;0,475799;0,469014;0,460814;0,000000;0,000000;0,000000;0,000000;0,000000;0,000000;0,000000;0,737899;0,000000;0,000000;0,737899;0,000000;0,000000;0,000000;0,000000;0,000000;0,000000;0,000000;0,000000;0,396916;0,481131;
29;;;;;;;;;;;;;;;;;;;;;;;;;;;;;1,000000;0,469014;0,460814;0,000000;0,000000;0,000000;0,000000;0,000000;0,000000;0,000000;0,737899;0,000000;0,000000;0,737899;0,000000;0,000000;0,000000;0,000000;0,000000;0,000000;0,000000;0,000000;0,396916;0,481131;
30;;;;;;;;;;;;;;;;;;;;;;;;;;;;;;1,000000;0,454030;0,000000;0,000000;0,000000;0,000000;0,000000;0,000000;0,000000;0,731115;0,000000;0,000000;0,731115;0,000000;0,000000;0,000000;0,000000;0,000000;0,000000;0,000000;0,000000;0,390131;1,000000;
31;;;;;;;;;;;;;;;;;;;;;;;;;;;;;;;1,000000;0,000000;0,000000;0,000000;0,000000;0,000000;0,451832;0,451832;0,722915;0,362874;0,363229;0,722915;0,373736;0,373873;0,374012;0,457902;0,457902;0,713394;0,713394;0,328575;0,381931;0,466146;
32;;;;;;;;;;;;;;;;;;;;;;;;;;;;;;;;1,000000;0,802622;0,803200;0,000000;0,000000;0,000000;0,000000;0,000000;0,000000;0,000000;0,000000;0,000000;0,000000;0,000000;0,000000;0,000000;0,000000;0,000000;0,000000;0,000000;0,000000;
33;;;;;;;;;;;;;;;;;;;;;;;;;;;;;;;;;1,000000;0,803766;0,000000;0,000000;0,000000;0,000000;0,000000;0,000000;0,000000;0,000000;0,000000;0,000000;0,000000;0,000000;0,000000;0,000000;0,000000;0,000000;0,000000;0,000000;
34;;;;;;;;;;;;;;;;;;;;;;;;;;;;;;;;;;1,000000;0,000000;0,000000;0,000000;0,000000;0,000000;0,000000;0,000000;0,000000;0,000000;0,000000;0,000000;0,000000;0,000000;0,000000;0,000000;0,000000;0,000000;0,000000;
35;;;;;;;;;;;;;;;;;;;;;;;;;;;;;;;;;;;1,000000;0,000000;0,000000;0,000000;0,000000;0,000000;0,000000;0,000000;0,000000;0,000000;0,000000;0,000000;0,000000;0,000000;0,000000;0,000000;0,000000;0,000000;
36;;;;;;;;;;;;;;;;;;;;;;;;;;;;;;;;;;;;1,000000;0,000000;0,000000;0,000000;0,000000;0,000000;0,000000;0,000000;0,000000;0,000000;0,000000;0,000000;0,000000;0,000000;0,000000;0,000000;0,000000;
37;;;;;;;;;;;;;;;;;;;;;;;;;;;;;;;;;;;;;1,000000;0,476876;0,000000;0,387918;0,388274;0,000000;0,398780;0,398917;0,399056;0,482947;0,482947;0,738438;0,738438;0,353619;0,000000;0,000000;
38;;;;;;;;;;;;;;;;;;;;;;;;;;;;;;;;;;;;;;1,000000;0,000000;0,387918;0,388274;0,000000;0,398780;0,398917;0,399056;0,482947;0,482947;0,738438;0,738438;0,353619;0,000000;0,000000;
39;;;;;;;;;;;;;;;;;;;;;;;;;;;;;;;;;;;;;;;1,000000;0,000000;0,000000;1,000000;0,000000;0,000000;0,000000;0,000000;0,000000;0,000000;0,000000;0,000000;0,659016;0,743231;
40;;;;;;;;;;;;;;;;;;;;;;;;;;;;;;;;;;;;;;;;1,000000;0,668823;0,000000;0,309822;0,309959;0,310099;0,393989;0,393989;0,649480;0,649480;0,264661;0,338625;0,000000;
41;;;;;;;;;;;;;;;;;;;;;;;;;;;;;;;;;;;;;;;;;1,000000;0,000000;0,310177;0,310314;0,310454;0,394344;0,394344;0,649835;0,649835;0,265017;0,338969;0,000000;
42;;;;;;;;;;;;;;;;;;;;;;;;;;;;;;;;;;;;;;;;;;1,000000;0,000000;0,000000;0,000000;0,000000;0,000000;0,000000;0,000000;0,000000;0,659016;0,743231;
43;;;;;;;;;;;;;;;;;;;;;;;;;;;;;;;;;;;;;;;;;;;1,000000;0,774541;0,774987;0,404850;0,404850;0,660342;0,660342;0,275523;0,000000;0,000000;
44;;;;;;;;;;;;;;;;;;;;;;;;;;;;;;;;;;;;;;;;;;;;1,000000;0,775427;0,404987;0,404987;0,660479;0,660479;0,275660;0,000000;0,000000;
45;;;;;;;;;;;;;;;;;;;;;;;;;;;;;;;;;;;;;;;;;;;;;1,000000;0,405127;0,405127;0,660618;0,660618;0,275800;0,000000;0,000000;
46;;;;;;;;;;;;;;;;;;;;;;;;;;;;;;;;;;;;;;;;;;;;;;1,000000;0,489017;0,744508;0,744508;0,359690;0,000000;0,000000;
47;;;;;;;;;;;;;;;;;;;;;;;;;;;;;;;;;;;;;;;;;;;;;;;1,000000;0,744508;0,744508;0,359690;0,000000;0,000000;
48;;;;;;;;;;;;;;;;;;;;;;;;;;;;;;;;;;;;;;;;;;;;;;;;1,000000;1,000000;0,615181;0,000000;0,000000;
49;;;;;;;;;;;;;;;;;;;;;;;;;;;;;;;;;;;;;;;;;;;;;;;;;1,000000;0,615181;0,000000;0,000000;
50;;;;;;;;;;;;;;;;;;;;;;;;;;;;;;;;;;;;;;;;;;;;;;;;;;1,000000;0,000000;0,000000;
51;;;;;;;;;;;;;;;;;;;;;;;;;;;;;;;;;;;;;;;;;;;;;;;;;;;1,000000;0,402248;
52;;;;;;;;;;;;;;;;;;;;;;;;;;;;;;;;;;;;;;;;;;;;;;;;;;;;1,000000;
