;1; 2; 3; 4; 5; 6; 7; 8; 9; 10; 11; 12; 13; 14; 15; 16; 17; 18; 19; 20; 21; 22
1;1,000000;0,391609;0,431170;0,193510;0,323230;0,573502;0,353175;0,226181;0,532533;0,507930;0,466214;0,397472;0,327682;0,461829;0,842228;0,532094;0,177101;0,177593;0,000000;0,000000;0,000000;0,000000;
2;;1,000000;0,453118;0,224473;0,348644;0,594739;0,664496;0,250962;0,523592;0,556245;0,612772;0,475546;0,272723;0,094704;0,411063;0,000000;0,000000;0,000000;0,000000;0,000000;0,000000;0,000000;
3;;;1,000000;0,687161;0,823458;0,598012;0,462340;0,687161;0,594167;0,571678;0,612039;0,569703;0,511626;0,340193;0,490579;0,537507;0,379485;0,379485;0,000000;0,000000;0,000000;0,000000;
4;;;;1,000000;0,712586;0,631055;0,216893;1,000000;0,683964;0,688818;0,688607;0,749658;0,176884;0,000000;0,228609;0,000000;0,000000;0,000000;0,000000;0,000000;0,000000;0,000000;
5;;;;;1,000000;0,630411;0,338404;0,712586;0,559931;0,401403;0,681317;0,622767;0,443720;0,221353;0,474972;0,285882;0,209610;0,210102;0,000000;0,000000;0,000000;0,000000;
6;;;;;;1,000000;0,482106;0,631055;0,676116;0,545930;0,492164;0,779831;0,485484;0,310161;0,490217;0,259277;0,183005;0,183497;0,000000;0,000000;0,000000;0,000000;
7;;;;;;;1,000000;0,243382;0,371964;0,497004;0,570027;0,431548;0,537570;0,502717;0,355624;0,320222;0,441839;0,443071;0,000000;0,000000;0,000000;0,000000;
8;;;;;;;;1,000000;0,683964;0,688818;0,688607;0,749658;0,203372;0,000000;0,261279;0,000000;0,000000;0,000000;0,000000;0,000000;0,000000;0,000000;
9;;;;;;;;;1,000000;0,683179;0,629412;0,725068;0,561659;0,344589;0,425578;0,248964;0,172692;0,173184;0,000000;0,000000;0,000000;0,000000;
10;;;;;;;;;;1,000000;0,610128;0,705784;0,269346;0,129788;0,336805;0,000000;0,000000;0,000000;0,000000;0,000000;0,000000;0,000000;
11;;;;;;;;;;;1,000000;0,652018;0,269960;0,101138;0,560803;0,000000;0,000000;0,000000;0,000000;0,000000;0,000000;0,000000;
12;;;;;;;;;;;;1,000000;0,229694;0,115485;0,397110;0,000000;0,000000;0,000000;0,000000;0,000000;0,000000;0,000000;
13;;;;;;;;;;;;;1,000000;0,467564;0,338922;0,414060;0,652722;0,652722;0,000000;0,000000;0,000000;0,000000;
14;;;;;;;;;;;;;;1,000000;0,320389;0,802685;0,621611;0,622773;0,000000;0,000000;0,000000;0,000000;
15;;;;;;;;;;;;;;;1,000000;0,274172;0,197901;0,198392;0,000000;0,000000;0,000000;0,000000;
16;;;;;;;;;;;;;;;;1,000000;0,377069;0,377561;0,000000;0,000000;0,000000;0,000000;
17;;;;;;;;;;;;;;;;;1,000000;0,683337;0,000000;0,000000;0,000000;0,000000;
18;;;;;;;;;;;;;;;;;;1,000000;0,000000;0,000000;0,000000;0,000000;
19;;;;;;;;;;;;;;;;;;;1,000000;0,638697;0,726848;0,640260;
20;;;;;;;;;;;;;;;;;;;;1,000000;0,641773;1,000000;
21;;;;;;;;;;;;;;;;;;;;;1,000000;0,643237;
22;;;;;;;;;;;;;;;;;;;;;;1,000000;
