;1; 2; 3; 4; 5; 6; 7; 8; 9; 10; 11; 12; 13; 14; 15; 16; 17; 18; 19; 20; 21; 22; 23; 24; 25; 26; 27; 28; 29; 30; 31; 32; 33; 34; 35; 36; 37; 38; 39; 40; 41; 42; 43; 44; 45; 46; 47; 48; 49; 50; 51; 52; 53; 54; 55; 56; 57; 58; 59; 60; 61; 62; 63; 64; 65; 66; 67; 68; 69; 70; 71; 72; 73; 74; 75; 76; 77; 78; 79; 80; 81; 82; 83; 84; 85; 86; 87; 88; 89; 90; 91; 92; 93; 94; 95; 96; 97; 98; 99; 100; 101; 102; 103; 104; 105; 106; 107; 108; 109; 110; 111; 112; 113
1;1,000000;0,750000;0,408258;0,750000;0,479674;0,199527;0,166327;0,197803;0,164562;0,291667;0,187973;0,438225;0,000000;0,000000;0,000000;0,000000;0,184318;0,000000;0,000000;0,212583;0,269285;0,274610;0,250000;0,236863;0,247967;0,219584;0,208942;0,388797;0,375000;0,300000;0,174066;0,500000;0,000000;0,000000;0,291667;0,291667;0,225000;0,225000;0,182459;0,291667;0,255006;0,000000;0,000000;0,000000;0,000000;0,185645;0,185645;0,000000;0,258163;0,181321;0,195169;0,000000;0,256345;0,000000;0,250000;0,000000;0,000000;0,190088;0,000000;0,000000;0,000000;0,000000;0,000000;0,000000;0,291667;0,291667;0,291667;0,179706;0,000000;0,271007;0,189844;0,250000;0,268689;0,300000;0,375000;0,375000;0,225000;0,000000;0,000000;0,000000;0,000000;0,000000;0,000000;0,000000;0,000000;0,000000;0,256211;0,375000;0,223013;0,291667;0,000000;0,000000;0,291667;0,000000;0,000000;0,000000;0,000000;0,000000;0,000000;0,000000;0,000000;0,375000;0,375000;0,291667;0,291667;0,291667;0,291667;0,300000;0,250000;0,000000;0,385784;0,291667;0,375000;
2;;1,000000;0,408258;0,750000;0,479674;0,199527;0,166327;0,197803;0,164562;0,291667;0,187973;0,438225;0,000000;0,000000;0,000000;0,000000;0,184318;0,000000;0,000000;0,212583;0,269285;0,274610;0,250000;0,236863;0,247967;0,219584;0,208942;0,388797;0,375000;0,300000;0,174066;0,500000;0,000000;0,000000;0,291667;0,291667;0,225000;0,225000;0,182459;0,291667;0,255006;0,000000;0,000000;0,000000;0,000000;0,185645;0,185645;0,000000;0,258163;0,181321;0,195169;0,000000;0,256345;0,000000;0,250000;0,000000;0,000000;0,190088;0,000000;0,000000;0,000000;0,000000;0,000000;0,000000;0,291667;0,291667;0,291667;0,179706;0,000000;0,271007;0,189844;0,250000;0,268689;0,300000;0,375000;0,375000;0,225000;0,000000;0,000000;0,000000;0,000000;0,000000;0,000000;0,000000;0,000000;0,000000;0,256211;0,375000;0,223013;0,291667;0,000000;0,000000;0,291667;0,000000;0,000000;0,000000;0,000000;0,000000;0,000000;0,000000;0,000000;0,375000;0,375000;0,291667;0,291667;0,291667;0,291667;0,300000;0,250000;0,000000;0,385784;0,291667;0,375000;
3;;;1,000000;0,408258;0,375178;0,413937;0,385549;0,408863;0,331800;0,353201;0,404785;0,295458;0,150782;0,169105;0,185376;0,185376;0,396062;0,371044;0,629541;0,409560;0,457503;0,563925;0,451718;0,524739;0,496208;0,463350;0,493484;0,547533;0,272133;0,372854;0,284508;0,421133;0,000000;0,000000;0,179094;0,179094;0,451581;0,451581;0,484506;0,420428;0,390857;0,142413;0,180154;0,142413;0,142413;0,467520;0,467520;0,570799;0,409807;0,307313;0,402541;0,358409;0,484817;0,369039;0,441959;0,000000;0,000000;0,328924;0,134797;0,134797;0,134797;0,134797;0,192448;0,192448;0,375740;0,375740;0,375740;0,356844;0,417373;0,384893;0,380590;0,450343;0,268468;0,369388;0,275223;0,275223;0,482196;0,000000;0,000000;0,000000;0,000000;0,000000;0,120307;0,120307;0,120307;0,120307;0,281981;0,277679;0,340221;0,373827;0,365290;0,365290;0,411586;0,182259;0,182259;0,000000;0,000000;0,000000;0,000000;0,000000;0,369039;0,275470;0,270307;0,392936;0,392936;0,370032;0,370032;0,379069;0,428561;0,000000;0,000000;0,369772;0,272060;
4;;;;1,000000;0,479674;0,199527;0,166327;0,197803;0,164562;0,291667;0,187973;0,438225;0,000000;0,000000;0,000000;0,000000;0,184318;0,000000;0,000000;0,212583;0,269285;0,274610;0,250000;0,236863;0,247967;0,219584;0,208942;0,388797;0,375000;0,300000;0,174066;0,500000;0,000000;0,000000;0,291667;0,291667;0,225000;0,225000;0,182459;0,291667;0,255006;0,000000;0,000000;0,000000;0,000000;0,185645;0,185645;0,000000;0,258163;0,181321;0,195169;0,000000;0,256345;0,000000;0,250000;0,000000;0,000000;0,190088;0,000000;0,000000;0,000000;0,000000;0,000000;0,000000;0,291667;0,291667;0,291667;0,179706;0,000000;0,271007;0,189844;0,250000;0,268689;0,300000;0,375000;0,375000;0,225000;0,000000;0,000000;0,000000;0,000000;0,000000;0,000000;0,000000;0,000000;0,000000;0,256211;0,375000;0,223013;0,291667;0,000000;0,000000;0,291667;0,000000;0,000000;0,000000;0,000000;0,000000;0,000000;0,000000;0,000000;0,375000;0,375000;0,291667;0,291667;0,291667;0,291667;0,300000;0,250000;0,000000;0,385784;0,291667;0,375000;
5;;;;;1,000000;0,292326;0,232712;0,117561;0,306118;0,494954;0,430496;0,623558;0,000000;0,000000;0,000000;0,000000;0,104076;0,000000;0,000000;0,132341;0,189043;0,234630;0,169758;0,238672;0,212115;0,139342;0,203408;0,343234;0,294758;0,219758;0,093825;0,548653;0,000000;0,000000;0,450651;0,450651;0,144758;0,144758;0,102217;0,211425;0,285539;0,000000;0,000000;0,000000;0,000000;0,105403;0,105403;0,195019;0,315629;0,101079;0,114927;0,000000;0,176103;0,248330;0,169758;0,000000;0,227878;0,109846;0,000000;0,000000;0,000000;0,000000;0,000000;0,000000;0,211425;0,211425;0,211425;0,254511;0,206663;0,320958;0,276744;0,169758;0,321461;0,219758;0,294758;0,294758;0,271750;0,181663;0,181663;0,181663;0,181663;0,181663;0,181663;0,181663;0,181663;0,181663;0,175969;0,294758;0,142771;0,211425;0,000000;0,000000;0,211425;0,000000;0,000000;0,000000;0,000000;0,000000;0,000000;0,000000;0,248330;0,294758;0,294758;0,211425;0,211425;0,405084;0,405084;0,219758;0,169758;0,331663;0,651744;0,211425;0,294758;
6;;;;;;1,000000;0,534590;0,606365;0,709266;0,209857;0,405759;0,294956;0,262546;0,248871;0,262546;0,262546;0,133845;0,000000;0,000000;0,162110;0,448043;0,401961;0,199527;0,186391;0,197495;0,169112;0,158470;0,188404;0,324527;0,249527;0,421535;0,199527;0,000000;0,000000;0,209857;0,209857;0,610221;0,610221;0,693990;0,241194;0,204534;0,217328;0,367034;0,217328;0,217328;0,135172;0,135172;0,000000;0,207690;0,130848;0,144696;0,000000;0,205872;0,825276;0,199527;0,000000;0,189405;0,139616;0,000000;0,000000;0,000000;0,000000;0,304213;0,304213;0,241194;0,241194;0,241194;0,243349;0,168190;0,309796;0,265582;0,199527;0,310299;0,249527;0,324527;0,324527;0,174527;0,143190;0,143190;0,143190;0,143190;0,143190;0,143190;0,143190;0,143190;0,143190;0,205738;0,324527;0,172540;0,555920;0,304213;0,304213;0,555920;0,000000;0,000000;0,000000;0,000000;0,000000;0,000000;0,000000;0,825276;0,324527;0,324527;0,241194;0,241194;0,241194;0,241194;0,249527;0,199527;0,293190;0,640582;0,241194;0,324527;
7;;;;;;;1,000000;0,437133;0,524133;0,203592;0,305185;0,235342;0,521966;0,514419;0,538512;0,538512;0,100644;0,000000;0,038725;0,128910;0,358394;0,286109;0,443484;0,312836;0,265609;0,210262;0,189366;0,197044;0,291327;0,309035;0,584993;0,166327;0,000000;0,000000;0,203592;0,203592;0,515319;0,515319;0,427276;0,392368;0,171333;0,309344;0,382724;0,309344;0,309344;0,239608;0,239608;0,000000;0,174490;0,097647;0,111496;0,000000;0,225813;0,432305;0,166327;0,000000;0,183141;0,195699;0,000000;0,000000;0,000000;0,000000;0,381903;0,381903;0,207993;0,207993;0,207993;0,183735;0,161926;0,250182;0,205968;0,309035;0,250685;0,216327;0,291327;0,291327;0,141327;0,136926;0,136926;0,136926;0,136926;0,136926;0,136926;0,136926;0,136926;0,136926;0,172538;0,291327;0,139340;0,384338;0,395624;0,395624;0,392368;0,000000;0,000000;0,214217;0,214217;0,214217;0,000000;0,000000;0,432305;0,291327;0,291327;0,392368;0,392368;0,207993;0,207993;0,216327;0,166327;0,286926;0,580968;0,207993;0,291327;
8;;;;;;;;1,000000;0,516043;0,000000;0,387623;0,107728;0,239409;0,225734;0,239409;0,239409;0,132121;0,000000;0,000000;0,160386;0,414606;0,368523;0,197803;0,184667;0,195771;0,167388;0,156746;0,186680;0,322803;0,247803;0,388097;0,197803;0,000000;0,000000;0,000000;0,000000;0,686018;0,686018;0,587418;0,239470;0,202809;0,543181;0,620970;0,543181;0,543181;0,133448;0,133448;0,000000;0,205966;0,129124;0,142972;0,000000;0,204148;0,506243;0,197803;0,000000;0,000000;0,137892;0,000000;0,000000;0,000000;0,000000;0,467085;0,467085;0,239470;0,239470;0,239470;0,127509;0,000000;0,218810;0,137647;0,197803;0,216492;0,247803;0,322803;0,322803;0,172803;0,000000;0,000000;0,000000;0,000000;0,000000;0,000000;0,000000;0,000000;0,000000;0,204014;0,322803;0,170816;0,522482;0,281076;0,281076;0,522482;0,000000;0,000000;0,000000;0,000000;0,000000;0,000000;0,000000;0,506243;0,322803;0,322803;0,239470;0,239470;0,239470;0,239470;0,247803;0,197803;0,000000;0,333587;0,239470;0,322803;
9;;;;;;;;;1,000000;0,263864;0,438470;0,308748;0,276367;0,262691;0,276367;0,276367;0,098879;0,000000;0,000000;0,127145;0,420268;0,374186;0,164562;0,151425;0,162529;0,134146;0,123504;0,153439;0,289562;0,214562;0,393760;0,164562;0,000000;0,000000;0,263864;0,263864;0,540938;0,540938;0,624707;0,206229;0,169568;0,183729;0,339744;0,183729;0,183729;0,100206;0,100206;0,000000;0,172725;0,095882;0,109731;0,000000;0,170907;0,592676;0,164562;0,000000;0,243412;0,104650;0,000000;0,000000;0,000000;0,000000;0,318033;0,318033;0,206229;0,206229;0,206229;0,257141;0,222197;0,323588;0,279374;0,164562;0,324091;0,214562;0,289562;0,289562;0,139562;0,197197;0,197197;0,197197;0,197197;0,197197;0,197197;0,197197;0,197197;0,197197;0,170773;0,289562;0,137575;0,528145;0,318033;0,318033;0,528145;0,000000;0,000000;0,000000;0,000000;0,000000;0,000000;0,000000;0,592676;0,289562;0,289562;0,206229;0,206229;0,206229;0,206229;0,214562;0,164562;0,347197;0,654374;0,206229;0,289562;
10;;;;;;;;;;1,000000;0,444300;0,579881;0,000000;0,000000;0,000000;0,000000;0,000000;0,000000;0,000000;0,000000;0,000000;0,000000;0,000000;0,000000;0,000000;0,000000;0,000000;0,408942;0,000000;0,000000;0,000000;0,583333;0,000000;0,000000;0,666667;0,666667;0,000000;0,000000;0,000000;0,000000;0,000000;0,000000;0,000000;0,000000;0,000000;0,000000;0,000000;0,000000;0,000000;0,000000;0,000000;0,000000;0,000000;0,333333;0,000000;0,000000;0,312882;0,000000;0,000000;0,000000;0,000000;0,000000;0,000000;0,000000;0,000000;0,000000;0,000000;0,223037;0,291667;0,207109;0,242927;0,000000;0,220585;0,000000;0,000000;0,000000;0,000000;0,266667;0,266667;0,266667;0,266667;0,266667;0,266667;0,266667;0,266667;0,266667;0,000000;0,000000;0,000000;0,000000;0,000000;0,000000;0,000000;0,000000;0,000000;0,000000;0,000000;0,000000;0,000000;0,000000;0,333333;0,000000;0,000000;0,000000;0,000000;0,000000;0,000000;0,000000;0,000000;0,416667;0,465886;0,000000;0,000000;
11;;;;;;;;;;;1,000000;0,379819;0,185631;0,171955;0,185631;0,185631;0,000000;0,000000;0,136910;0,000000;0,138149;0,090743;0,000000;0,000000;0,062079;0,000000;0,000000;0,186575;0,000000;0,000000;0,211997;0,360966;0,000000;0,000000;0,425942;0,425942;0,160631;0,160631;0,217001;0,000000;0,000000;0,000000;0,145235;0,000000;0,000000;0,000000;0,000000;0,000000;0,000000;0,161938;0,108034;0,000000;0,000000;0,464001;0,000000;0,290028;0,285492;0,000000;0,000000;0,000000;0,000000;0,000000;0,227297;0,227297;0,000000;0,000000;0,000000;0,301949;0,441358;0,275130;0,335132;0,000000;0,495485;0,000000;0,000000;0,000000;0,000000;0,558378;0,558378;0,558378;0,558378;0,558378;0,516986;0,516986;0,516986;0,516986;0,000000;0,268810;0,140821;0,227297;0,227297;0,227297;0,227297;0,000000;0,000000;0,000000;0,000000;0,000000;0,000000;0,000000;0,464001;0,000000;0,270220;0,000000;0,000000;0,000000;0,000000;0,293322;0,293322;0,290028;0,000000;0,185477;0,000000;
12;;;;;;;;;;;;1,000000;0,000000;0,000000;0,000000;0,000000;0,094242;0,000000;0,000000;0,122508;0,179210;0,239722;0,159925;0,243765;0,217207;0,129509;0,208501;0,392867;0,284925;0,209925;0,083991;0,598686;0,000000;0,000000;0,579881;0,579881;0,134925;0,134925;0,092384;0,201591;0,290631;0,000000;0,000000;0,000000;0,000000;0,095569;0,095569;0,217597;0,320721;0,091245;0,105094;0,000000;0,166269;0,275449;0,159925;0,000000;0,254997;0,100013;0,000000;0,000000;0,000000;0,000000;0,000000;0,000000;0,201591;0,201591;0,201591;0,257141;0,233782;0,323588;0,279374;0,159925;0,324091;0,209925;0,284925;0,284925;0,276843;0,208782;0,208782;0,208782;0,208782;0,208782;0,208782;0,208782;0,208782;0,208782;0,166135;0,284925;0,132937;0,201591;0,000000;0,000000;0,201591;0,000000;0,000000;0,000000;0,000000;0,000000;0,000000;0,000000;0,275449;0,284925;0,284925;0,201591;0,201591;0,410176;0,410176;0,209925;0,159925;0,358782;0,654374;0,201591;0,284925;
13;;;;;;;;;;;;;1,000000;0,715807;0,750000;0,750000;0,000000;0,000000;0,000000;0,000000;0,202518;0,155112;0,000000;0,000000;0,000000;0,000000;0,000000;0,000000;0,000000;0,000000;0,807761;0,000000;0,000000;0,000000;0,000000;0,000000;0,225000;0,225000;0,281371;0,000000;0,000000;0,000000;0,209604;0,000000;0,000000;0,000000;0,000000;0,000000;0,000000;0,000000;0,000000;0,000000;0,000000;0,291667;0,000000;0,000000;0,000000;0,000000;0,000000;0,000000;0,000000;0,000000;0,291667;0,291667;0,000000;0,000000;0,000000;0,000000;0,000000;0,000000;0,000000;0,000000;0,000000;0,000000;0,000000;0,000000;0,000000;0,000000;0,000000;0,000000;0,000000;0,000000;0,000000;0,000000;0,000000;0,000000;0,000000;0,000000;0,000000;0,291667;0,291667;0,291667;0,291667;0,000000;0,000000;0,291667;0,291667;0,291667;0,000000;0,000000;0,291667;0,000000;0,000000;0,000000;0,000000;0,000000;0,000000;0,000000;0,000000;0,000000;0,000000;0,000000;0,000000;
14;;;;;;;;;;;;;;1,000000;0,716275;0,716275;0,000000;0,000000;0,000000;0,000000;0,188843;0,186853;0,000000;0,000000;0,000000;0,000000;0,000000;0,000000;0,000000;0,000000;0,594010;0,000000;0,000000;0,000000;0,000000;0,000000;0,211325;0,211325;0,267695;0,000000;0,000000;0,000000;0,195929;0,000000;0,000000;0,000000;0,000000;0,000000;0,000000;0,000000;0,000000;0,000000;0,000000;0,277991;0,000000;0,000000;0,000000;0,000000;0,000000;0,000000;0,000000;0,000000;0,277991;0,277991;0,000000;0,000000;0,000000;0,000000;0,000000;0,000000;0,000000;0,000000;0,000000;0,000000;0,000000;0,000000;0,000000;0,000000;0,000000;0,000000;0,000000;0,000000;0,000000;0,000000;0,000000;0,000000;0,000000;0,000000;0,000000;0,277991;0,470481;0,470481;0,277991;0,000000;0,000000;0,483667;0,483667;0,483667;0,000000;0,000000;0,277991;0,000000;0,000000;0,000000;0,000000;0,000000;0,000000;0,000000;0,000000;0,000000;0,000000;0,000000;0,000000;
15;;;;;;;;;;;;;;;1,000000;0,750000;0,000000;0,000000;0,000000;0,000000;0,202518;0,203124;0,000000;0,000000;0,000000;0,000000;0,000000;0,000000;0,000000;0,000000;0,627601;0,000000;0,000000;0,000000;0,000000;0,000000;0,225000;0,225000;0,281371;0,000000;0,000000;0,000000;0,209604;0,000000;0,000000;0,000000;0,000000;0,000000;0,000000;0,000000;0,000000;0,000000;0,000000;0,291667;0,000000;0,000000;0,000000;0,000000;0,000000;0,000000;0,000000;0,000000;0,291667;0,291667;0,000000;0,000000;0,000000;0,000000;0,000000;0,000000;0,000000;0,000000;0,000000;0,000000;0,000000;0,000000;0,000000;0,000000;0,000000;0,000000;0,000000;0,000000;0,000000;0,000000;0,000000;0,000000;0,000000;0,000000;0,000000;0,291667;0,486753;0,486753;0,291667;0,000000;0,000000;0,291667;0,291667;0,291667;0,000000;0,000000;0,291667;0,000000;0,000000;0,000000;0,000000;0,000000;0,000000;0,000000;0,000000;0,000000;0,000000;0,000000;0,000000;
16;;;;;;;;;;;;;;;;1,000000;0,000000;0,000000;0,000000;0,000000;0,202518;0,203124;0,000000;0,000000;0,000000;0,000000;0,000000;0,000000;0,000000;0,000000;0,627601;0,000000;0,000000;0,000000;0,000000;0,000000;0,225000;0,225000;0,281371;0,000000;0,000000;0,000000;0,209604;0,000000;0,000000;0,000000;0,000000;0,000000;0,000000;0,000000;0,000000;0,000000;0,000000;0,291667;0,000000;0,000000;0,000000;0,000000;0,000000;0,000000;0,000000;0,000000;0,291667;0,291667;0,000000;0,000000;0,000000;0,000000;0,000000;0,000000;0,000000;0,000000;0,000000;0,000000;0,000000;0,000000;0,000000;0,000000;0,000000;0,000000;0,000000;0,000000;0,000000;0,000000;0,000000;0,000000;0,000000;0,000000;0,000000;0,291667;0,486753;0,486753;0,291667;0,000000;0,000000;0,291667;0,291667;0,291667;0,000000;0,000000;0,291667;0,000000;0,000000;0,000000;0,000000;0,000000;0,000000;0,000000;0,000000;0,000000;0,000000;0,000000;0,000000;
17;;;;;;;;;;;;;;;;;1,000000;0,533897;0,572791;0,656624;0,203603;0,390018;0,184318;0,171181;0,391278;0,285740;0,273552;0,173194;0,309318;0,234318;0,108384;0,184318;0,000000;0,000000;0,000000;0,000000;0,159318;0,159318;0,116777;0,225984;0,311421;0,000000;0,000000;0,000000;0,000000;0,257389;0,257389;0,000000;0,192481;0,527332;0,625710;0,471270;0,695572;0,000000;0,659047;0,329090;0,232727;0,124406;0,000000;0,000000;0,000000;0,000000;0,000000;0,000000;0,225984;0,225984;0,225984;0,433151;0,000000;0,205325;0,124162;0,184318;0,203006;0,234318;0,309318;0,309318;0,159318;0,000000;0,000000;0,000000;0,000000;0,000000;0,000000;0,000000;0,000000;0,000000;0,626914;0,309318;0,343414;0,225984;0,000000;0,000000;0,225984;0,448950;0,448950;0,000000;0,000000;0,000000;0,000000;0,000000;0,000000;0,309318;0,309318;0,225984;0,225984;0,225984;0,225984;0,234318;0,184318;0,000000;0,320101;0,225984;0,309318;
18;;;;;;;;;;;;;;;;;;1,000000;0,448242;0,523595;0,000000;0,181940;0,000000;0,000000;0,208041;0,229183;0,226779;0,000000;0,000000;0,000000;0,000000;0,000000;0,000000;0,000000;0,000000;0,000000;0,000000;0,000000;0,000000;0,000000;0,218916;0,000000;0,000000;0,000000;0,000000;0,238493;0,238493;0,000000;0,000000;0,291392;0,722863;0,333333;0,728793;0,000000;0,583333;0,416667;0,320304;0,000000;0,000000;0,000000;0,000000;0,000000;0,000000;0,000000;0,000000;0,000000;0,000000;0,235982;0,000000;0,000000;0,000000;0,000000;0,000000;0,000000;0,000000;0,000000;0,000000;0,000000;0,000000;0,000000;0,000000;0,000000;0,000000;0,000000;0,000000;0,000000;0,583333;0,000000;0,306567;0,000000;0,000000;0,000000;0,000000;0,666667;0,666667;0,000000;0,000000;0,000000;0,000000;0,000000;0,000000;0,000000;0,000000;0,000000;0,000000;0,000000;0,000000;0,000000;0,000000;0,000000;0,000000;0,000000;0,000000;
19;;;;;;;;;;;;;;;;;;;1,000000;0,524326;0,095150;0,365220;0,145186;0,163515;0,432620;0,395569;0,371539;0,273859;0,000000;0,099840;0,081269;0,000000;0,000000;0,000000;0,000000;0,000000;0,000000;0,000000;0,000000;0,397990;0,000000;0,000000;0,000000;0,000000;0,000000;0,465087;0,465087;0,201465;0,165692;0,465389;0,578258;0,461207;0,526923;0,000000;0,511764;0,304482;0,307784;0,095314;0,000000;0,000000;0,000000;0,000000;0,000000;0,000000;0,000000;0,000000;0,000000;0,390669;0,162005;0,184113;0,128894;0,145186;0,142288;0,392767;0,000000;0,000000;0,134799;0,000000;0,000000;0,000000;0,000000;0,000000;0,000000;0,000000;0,000000;0,000000;0,340802;0,000000;0,237449;0,000000;0,000000;0,000000;0,186852;0,436166;0,436166;0,000000;0,000000;0,000000;0,000000;0,000000;0,000000;0,284799;0,000000;0,186852;0,186852;0,000000;0,000000;0,000000;0,000000;0,304482;0,000000;0,220856;0,000000;
20;;;;;;;;;;;;;;;;;;;;1,000000;0,231868;0,401156;0,212583;0,199447;0,402415;0,290873;0,278684;0,201460;0,337583;0,262583;0,136650;0,212583;0,000000;0,000000;0,000000;0,000000;0,187583;0,187583;0,145042;0,254250;0,316553;0,000000;0,000000;0,000000;0,000000;0,262522;0,262522;0,000000;0,220746;0,537302;0,646426;0,456019;0,716207;0,000000;0,684534;0,305782;0,209419;0,152671;0,000000;0,000000;0,000000;0,000000;0,000000;0,000000;0,254250;0,254250;0,254250;0,443121;0,000000;0,233590;0,152427;0,212583;0,231272;0,262583;0,337583;0,337583;0,187583;0,000000;0,000000;0,000000;0,000000;0,000000;0,000000;0,000000;0,000000;0,000000;0,387522;0,337583;0,527049;0,254250;0,000000;0,000000;0,254250;0,523595;0,523595;0,000000;0,000000;0,000000;0,000000;0,000000;0,000000;0,337583;0,337583;0,254250;0,254250;0,254250;0,254250;0,262583;0,212583;0,000000;0,348367;0,254250;0,337583;
21;;;;;;;;;;;;;;;;;;;;;1,000000;0,565643;0,663908;0,533868;0,420154;0,364807;0,343911;0,447370;0,394285;0,463580;0,539267;0,269285;0,000000;0,000000;0,000000;0,000000;0,425457;0,425457;0,445784;0,546914;0,371023;0,000000;0,162122;0,000000;0,000000;0,394153;0,394153;0,000000;0,384676;0,200606;0,214454;0,000000;0,380358;0,244185;0,269285;0,000000;0,000000;0,350244;0,000000;0,000000;0,000000;0,000000;0,244185;0,244185;0,310952;0,310952;0,310952;0,198991;0,000000;0,290292;0,209129;0,463580;0,287974;0,319285;0,394285;0,394285;0,414685;0,000000;0,000000;0,000000;0,000000;0,000000;0,000000;0,000000;0,000000;0,000000;0,275496;0,394285;0,242298;0,558790;0,244185;0,244185;0,788019;0,000000;0,000000;0,000000;0,000000;0,000000;0,000000;0,000000;0,244185;0,394285;0,394285;0,546914;0,546914;0,310952;0,310952;0,319285;0,269285;0,000000;0,405069;0,310952;0,394285;
22;;;;;;;;;;;;;;;;;;;;;;1,000000;0,554299;0,480709;0,681210;0,656864;0,680930;0,424277;0,663103;0,512176;0,378323;0,412879;0,000000;0,000000;0,000000;0,000000;0,379374;0,379374;0,399702;0,546983;0,461741;0,000000;0,114717;0,000000;0,000000;0,637431;0,637431;0,184802;0,451443;0,327647;0,390403;0,181940;0,417436;0,196779;0,418762;0,265274;0,168911;0,399303;0,153827;0,153827;0,153827;0,153827;0,196779;0,196779;0,316277;0,316277;0,316277;0,277067;0,000000;0,295617;0,214454;0,554299;0,439158;0,660045;0,399610;0,399610;0,475977;0,000000;0,000000;0,000000;0,000000;0,000000;0,000000;0,000000;0,000000;0,000000;0,410981;0,399610;0,372006;0,692213;0,383038;0,383038;0,512708;0,181940;0,181940;0,000000;0,000000;0,000000;0,000000;0,000000;0,196779;0,399610;0,399610;0,499283;0,499283;0,496213;0,496213;0,324610;0,274610;0,000000;0,410394;0,316277;0,399610;
23;;;;;;;;;;;;;;;;;;;;;;;1,000000;0,619352;0,456573;0,401227;0,380331;0,533462;0,375000;0,500000;0,355506;0,250000;0,000000;0,000000;0,000000;0,000000;0,225000;0,225000;0,182459;0,583333;0,406338;0,000000;0,000000;0,000000;0,000000;0,430573;0,430573;0,000000;0,419991;0,181321;0,195169;0,000000;0,416778;0,000000;0,250000;0,000000;0,000000;0,386664;0,000000;0,000000;0,000000;0,000000;0,000000;0,000000;0,291667;0,291667;0,291667;0,179706;0,000000;0,271007;0,189844;0,500000;0,268689;0,300000;0,375000;0,375000;0,450000;0,000000;0,000000;0,000000;0,000000;0,000000;0,000000;0,000000;0,000000;0,000000;0,256211;0,375000;0,223013;0,583333;0,000000;0,000000;0,583333;0,000000;0,000000;0,000000;0,000000;0,000000;0,000000;0,000000;0,000000;0,375000;0,375000;0,583333;0,583333;0,291667;0,291667;0,300000;0,250000;0,000000;0,385784;0,291667;0,375000;
24;;;;;;;;;;;;;;;;;;;;;;;;1,000000;0,447172;0,326315;0,404266;0,646536;0,361863;0,425088;0,280594;0,416922;0,000000;0,000000;0,000000;0,000000;0,211863;0,211863;0,169323;0,508422;0,631448;0,000000;0,000000;0,000000;0,000000;0,355662;0,355662;0,688545;0,697754;0,168184;0,182033;0,000000;0,341866;0,000000;0,236863;0,000000;0,000000;0,311752;0,000000;0,000000;0,000000;0,000000;0,000000;0,000000;0,278530;0,278530;0,278530;0,166569;0,000000;0,257871;0,176707;0,425088;0,255552;0,286863;0,361863;0,361863;0,688058;0,000000;0,000000;0,000000;0,000000;0,000000;0,000000;0,000000;0,000000;0,000000;0,243074;0,361863;0,209876;0,510450;0,000000;0,000000;0,508422;0,000000;0,000000;0,000000;0,000000;0,000000;0,000000;0,000000;0,000000;0,666922;0,361863;0,508422;0,508422;0,500256;0,500256;0,286863;0,236863;0,000000;0,372647;0,278530;0,361863;
25;;;;;;;;;;;;;;;;;;;;;;;;;1,000000;0,658744;0,688323;0,412061;0,372967;0,456573;0,312079;0,390365;0,000000;0,000000;0,000000;0,000000;0,222967;0,222967;0,180427;0,539907;0,426096;0,000000;0,000000;0,000000;0,000000;0,654712;0,654712;0,190136;0,384243;0,324785;0,391662;0,208041;0,428611;0,000000;0,397747;0,291375;0,195012;0,343237;0,000000;0,000000;0,000000;0,000000;0,000000;0,000000;0,289634;0,289634;0,289634;0,274205;0,000000;0,268974;0,187811;0,456573;0,266656;0,577902;0,372967;0,372967;0,340365;0,000000;0,000000;0,000000;0,000000;0,000000;0,141859;0,141859;0,141859;0,141859;0,408119;0,372967;0,369144;0,289634;0,000000;0,000000;0,539907;0,208041;0,208041;0,000000;0,000000;0,000000;0,000000;0,000000;0,000000;0,372967;0,648317;0,539907;0,539907;0,473698;0,473698;0,297967;0,247967;0,000000;0,383751;0,289634;0,640723;
26;;;;;;;;;;;;;;;;;;;;;;;;;;1,000000;0,756315;0,585952;0,344584;0,401227;0,256732;0,219584;0,000000;0,000000;0,000000;0,000000;0,194584;0,194584;0,152044;0,792073;0,332382;0,000000;0,000000;0,000000;0,000000;0,730500;0,730500;0,000000;0,227748;0,320018;0,298959;0,229183;0,574278;0,000000;0,219584;0,312517;0,216154;0,287891;0,000000;0,000000;0,000000;0,000000;0,000000;0,000000;0,261251;0,261251;0,261251;0,269437;0,000000;0,240592;0,159428;0,401227;0,467126;0,678330;0,344584;0,344584;0,194584;0,000000;0,000000;0,000000;0,000000;0,000000;0,000000;0,000000;0,000000;0,000000;0,403351;0,344584;0,364376;0,261251;0,000000;0,000000;0,484560;0,229183;0,229183;0,000000;0,000000;0,000000;0,000000;0,000000;0,000000;0,344584;0,344584;0,484560;0,484560;0,261251;0,261251;0,269584;0,219584;0,000000;0,355368;0,261251;0,644949;
27;;;;;;;;;;;;;;;;;;;;;;;;;;;1,000000;0,425253;0,333942;0,380331;0,235836;0,381658;0,000000;0,000000;0,000000;0,000000;0,183942;0,183942;0,141402;0,760632;0,434917;0,000000;0,000000;0,000000;0,000000;0,695963;0,695963;0,224706;0,375537;0,307830;0,286771;0,226779;0,539740;0,000000;0,208942;0,310112;0,213750;0,266994;0,000000;0,000000;0,000000;0,000000;0,000000;0,000000;0,250609;0,250609;0,250609;0,257249;0,000000;0,229950;0,148786;0,380331;0,444814;0,653650;0,333942;0,333942;0,331658;0,000000;0,000000;0,000000;0,000000;0,000000;0,000000;0,000000;0,000000;0,000000;0,391163;0,333942;0,352188;0,250609;0,000000;0,000000;0,463664;0,226779;0,226779;0,000000;0,000000;0,000000;0,000000;0,000000;0,000000;0,333942;0,333942;0,463664;0,463664;0,464991;0,464991;0,258942;0,208942;0,000000;0,344726;0,250609;0,632675;
28;;;;;;;;;;;;;;;;;;;;;;;;;;;;1,000000;0,363877;0,388009;0,243515;0,542444;0,000000;0,000000;0,201838;0,201838;0,213877;0,213877;0,171336;0,664620;0,588118;0,000000;0,000000;0,000000;0,000000;0,470865;0,470865;0,509259;0,636609;0,170198;0,184046;0,000000;0,366486;0,000000;0,238877;0,000000;0,000000;0,274673;0,000000;0,000000;0,000000;0,000000;0,000000;0,000000;0,280544;0,280544;0,280544;0,168583;0,000000;0,259884;0,178721;0,388009;0,363836;0,497675;0,363877;0,363877;0,693547;0,000000;0,000000;0,000000;0,000000;0,000000;0,000000;0,000000;0,000000;0,000000;0,245088;0,363877;0,211890;0,280544;0,000000;0,000000;0,471342;0,000000;0,000000;0,000000;0,000000;0,000000;0,000000;0,000000;0,000000;0,685224;0,363877;0,471342;0,471342;0,477575;0,477575;0,288877;0,238877;0,000000;0,374661;0,280544;0,363877;
29;;;;;;;;;;;;;;;;;;;;;;;;;;;;;1,000000;0,425000;0,299066;0,375000;0,000000;0,000000;0,000000;0,000000;0,350000;0,350000;0,307459;0,416667;0,380006;0,000000;0,000000;0,000000;0,000000;0,310645;0,310645;0,000000;0,383163;0,306321;0,320169;0,000000;0,381345;0,000000;0,375000;0,000000;0,000000;0,640007;0,000000;0,000000;0,000000;0,000000;0,000000;0,000000;0,416667;0,416667;0,416667;0,304706;0,000000;0,396007;0,314844;0,750000;0,393689;0,425000;0,500000;0,500000;0,350000;0,000000;0,000000;0,000000;0,000000;0,000000;0,000000;0,000000;0,000000;0,000000;0,381211;0,500000;0,348013;0,416667;0,000000;0,000000;0,416667;0,000000;0,000000;0,000000;0,000000;0,000000;0,000000;0,000000;0,000000;0,500000;0,500000;0,416667;0,416667;0,416667;0,416667;0,425000;0,375000;0,000000;0,510784;0,416667;0,500000;
30;;;;;;;;;;;;;;;;;;;;;;;;;;;;;;1,000000;0,355506;0,300000;0,000000;0,000000;0,000000;0,000000;0,275000;0,275000;0,232459;0,583333;0,305006;0,000000;0,000000;0,000000;0,000000;0,430573;0,430573;0,000000;0,308163;0,231321;0,245169;0,000000;0,416778;0,000000;0,300000;0,000000;0,000000;0,545524;0,225134;0,225134;0,225134;0,225134;0,000000;0,000000;0,341667;0,341667;0,341667;0,229706;0,000000;0,321007;0,239844;0,705911;0,318689;0,350000;0,425000;0,425000;0,275000;0,000000;0,000000;0,000000;0,000000;0,000000;0,000000;0,000000;0,000000;0,000000;0,306211;0,425000;0,273013;0,341667;0,000000;0,000000;0,583333;0,000000;0,000000;0,000000;0,000000;0,000000;0,000000;0,000000;0,000000;0,425000;0,425000;0,583333;0,583333;0,341667;0,341667;0,350000;0,300000;0,000000;0,435784;0,341667;0,425000;
31;;;;;;;;;;;;;;;;;;;;;;;;;;;;;;;1,000000;0,174066;0,000000;0,000000;0,000000;0,000000;0,398948;0,398948;0,419276;0,438839;0,179073;0,000000;0,235971;0,000000;0,000000;0,286079;0,286079;0,000000;0,182230;0,105387;0,119236;0,000000;0,272283;0,318033;0,174066;0,000000;0,000000;0,242170;0,000000;0,000000;0,000000;0,000000;0,318033;0,318033;0,215733;0,215733;0,215733;0,103772;0,000000;0,195074;0,113910;0,355506;0,192755;0,224066;0,299066;0,299066;0,149066;0,000000;0,000000;0,000000;0,000000;0,000000;0,000000;0,000000;0,000000;0,000000;0,180277;0,299066;0,147079;0,532282;0,545738;0,545738;0,751249;0,000000;0,000000;0,226887;0,226887;0,226887;0,000000;0,000000;0,318033;0,299066;0,299066;0,438839;0,438839;0,215733;0,215733;0,224066;0,174066;0,000000;0,309850;0,215733;0,299066;
32;;;;;;;;;;;;;;;;;;;;;;;;;;;;;;;;1,000000;0,000000;0,000000;0,291667;0,291667;0,225000;0,225000;0,182459;0,291667;0,463788;0,000000;0,000000;0,000000;0,000000;0,185645;0,185645;0,291667;0,493879;0,181321;0,195169;0,000000;0,256345;0,000000;0,250000;0,000000;0,000000;0,190088;0,000000;0,000000;0,000000;0,000000;0,000000;0,000000;0,291667;0,291667;0,291667;0,179706;0,000000;0,271007;0,189844;0,250000;0,268689;0,300000;0,375000;0,375000;0,450000;0,000000;0,000000;0,000000;0,000000;0,000000;0,000000;0,000000;0,000000;0,000000;0,256211;0,375000;0,223013;0,291667;0,000000;0,000000;0,291667;0,000000;0,000000;0,000000;0,000000;0,000000;0,000000;0,000000;0,000000;0,375000;0,375000;0,291667;0,291667;0,583333;0,583333;0,300000;0,250000;0,000000;0,385784;0,291667;0,375000;
33;;;;;;;;;;;;;;;;;;;;;;;;;;;;;;;;;1,000000;0,000000;0,000000;0,000000;0,000000;0,000000;0,000000;0,000000;0,000000;0,000000;0,000000;0,000000;0,000000;0,000000;0,000000;0,000000;0,000000;0,000000;0,000000;0,000000;0,000000;0,000000;0,000000;0,000000;0,000000;0,000000;0,000000;0,000000;0,000000;0,000000;0,000000;0,000000;0,000000;0,000000;0,000000;0,000000;0,000000;0,000000;0,000000;0,000000;0,000000;0,000000;0,000000;0,000000;0,000000;0,000000;0,000000;0,000000;0,000000;0,000000;0,000000;0,000000;0,000000;0,000000;0,000000;0,000000;0,000000;0,000000;0,000000;0,000000;0,000000;0,000000;0,000000;0,000000;0,000000;0,000000;0,000000;0,000000;0,000000;0,000000;0,000000;0,000000;0,000000;0,000000;0,000000;0,000000;0,000000;0,000000;0,000000;0,000000;0,000000;
34;;;;;;;;;;;;;;;;;;;;;;;;;;;;;;;;;;1,000000;0,000000;0,000000;0,000000;0,000000;0,000000;0,000000;0,000000;0,000000;0,000000;0,000000;0,000000;0,000000;0,000000;0,000000;0,000000;0,000000;0,000000;0,000000;0,000000;0,000000;0,000000;0,000000;0,000000;0,000000;0,000000;0,000000;0,000000;0,000000;0,000000;0,000000;0,000000;0,000000;0,000000;0,000000;0,000000;0,000000;0,000000;0,000000;0,000000;0,000000;0,000000;0,000000;0,000000;0,000000;0,000000;0,000000;0,000000;0,000000;0,000000;0,000000;0,000000;0,000000;0,000000;0,000000;0,000000;0,000000;0,000000;0,000000;0,000000;0,000000;0,000000;0,000000;0,000000;0,000000;0,000000;0,000000;0,000000;0,000000;0,000000;0,000000;0,000000;0,000000;0,000000;0,000000;0,000000;0,000000;0,000000;0,000000;0,000000;
35;;;;;;;;;;;;;;;;;;;;;;;;;;;;;;;;;;;1,000000;0,666667;0,000000;0,000000;0,000000;0,000000;0,000000;0,000000;0,000000;0,000000;0,000000;0,000000;0,000000;0,000000;0,000000;0,000000;0,000000;0,000000;0,000000;0,333333;0,000000;0,000000;0,312882;0,000000;0,000000;0,000000;0,000000;0,000000;0,000000;0,000000;0,000000;0,000000;0,000000;0,223037;0,291667;0,207109;0,242927;0,000000;0,220585;0,000000;0,000000;0,000000;0,000000;0,266667;0,266667;0,266667;0,266667;0,266667;0,266667;0,266667;0,266667;0,266667;0,000000;0,000000;0,000000;0,000000;0,000000;0,000000;0,000000;0,000000;0,000000;0,000000;0,000000;0,000000;0,000000;0,000000;0,333333;0,000000;0,000000;0,000000;0,000000;0,000000;0,000000;0,000000;0,000000;0,416667;0,465886;0,000000;0,000000;
36;;;;;;;;;;;;;;;;;;;;;;;;;;;;;;;;;;;;1,000000;0,000000;0,000000;0,000000;0,000000;0,000000;0,000000;0,000000;0,000000;0,000000;0,000000;0,000000;0,000000;0,000000;0,000000;0,000000;0,000000;0,000000;0,333333;0,000000;0,000000;0,312882;0,000000;0,000000;0,000000;0,000000;0,000000;0,000000;0,000000;0,000000;0,000000;0,000000;0,223037;0,291667;0,207109;0,242927;0,000000;0,220585;0,000000;0,000000;0,000000;0,000000;0,266667;0,266667;0,266667;0,266667;0,266667;0,266667;0,266667;0,266667;0,266667;0,000000;0,000000;0,000000;0,000000;0,000000;0,000000;0,000000;0,000000;0,000000;0,000000;0,000000;0,000000;0,000000;0,000000;0,333333;0,000000;0,000000;0,000000;0,000000;0,000000;0,000000;0,000000;0,000000;0,416667;0,465886;0,000000;0,000000;
37;;;;;;;;;;;;;;;;;;;;;;;;;;;;;;;;;;;;;1,000000;0,800000;0,840064;0,266667;0,230006;0,225000;0,339848;0,225000;0,225000;0,160645;0,160645;0,000000;0,233163;0,156321;0,170169;0,000000;0,231345;0,266667;0,225000;0,000000;0,000000;0,165088;0,000000;0,000000;0,000000;0,000000;0,266667;0,266667;0,266667;0,266667;0,266667;0,154706;0,000000;0,246007;0,164844;0,225000;0,243689;0,275000;0,350000;0,350000;0,200000;0,000000;0,000000;0,000000;0,000000;0,000000;0,000000;0,000000;0,000000;0,000000;0,231211;0,350000;0,198013;0,533333;0,266667;0,266667;0,533333;0,000000;0,000000;0,000000;0,000000;0,000000;0,000000;0,000000;0,266667;0,350000;0,350000;0,266667;0,266667;0,266667;0,266667;0,275000;0,225000;0,000000;0,360784;0,266667;0,350000;
38;;;;;;;;;;;;;;;;;;;;;;;;;;;;;;;;;;;;;;1,000000;0,840064;0,266667;0,230006;0,225000;0,339848;0,225000;0,225000;0,160645;0,160645;0,000000;0,233163;0,156321;0,170169;0,000000;0,231345;0,266667;0,225000;0,000000;0,000000;0,165088;0,000000;0,000000;0,000000;0,000000;0,266667;0,266667;0,266667;0,266667;0,266667;0,154706;0,000000;0,246007;0,164844;0,225000;0,243689;0,275000;0,350000;0,350000;0,200000;0,000000;0,000000;0,000000;0,000000;0,000000;0,000000;0,000000;0,000000;0,000000;0,231211;0,350000;0,198013;0,533333;0,266667;0,266667;0,533333;0,000000;0,000000;0,000000;0,000000;0,000000;0,000000;0,000000;0,266667;0,350000;0,350000;0,266667;0,266667;0,266667;0,266667;0,275000;0,225000;0,000000;0,360784;0,266667;0,350000;
39;;;;;;;;;;;;;;;;;;;;;;;;;;;;;;;;;;;;;;;1,000000;0,224126;0,187465;0,281371;0,452589;0,281371;0,281371;0,118104;0,118104;0,000000;0,190622;0,113780;0,127628;0,000000;0,188804;0,323037;0,182459;0,000000;0,000000;0,122548;0,000000;0,000000;0,000000;0,000000;0,323037;0,323037;0,224126;0,224126;0,224126;0,112165;0,000000;0,203466;0,122303;0,182459;0,201148;0,232459;0,307459;0,307459;0,157459;0,000000;0,000000;0,000000;0,000000;0,000000;0,000000;0,000000;0,000000;0,000000;0,188670;0,307459;0,155472;0,553661;0,323037;0,323037;0,553661;0,000000;0,000000;0,000000;0,000000;0,000000;0,000000;0,000000;0,323037;0,307459;0,307459;0,224126;0,224126;0,224126;0,224126;0,232459;0,182459;0,000000;0,318243;0,224126;0,307459;
40;;;;;;;;;;;;;;;;;;;;;;;;;;;;;;;;;;;;;;;;1,000000;0,296673;0,000000;0,000000;0,000000;0,000000;0,806245;0,806245;0,000000;0,299830;0,222987;0,236836;0,000000;0,701866;0,000000;0,291667;0,000000;0,000000;0,469997;0,000000;0,000000;0,000000;0,000000;0,000000;0,000000;0,333333;0,333333;0,333333;0,221373;0,000000;0,312674;0,231511;0,583333;0,558841;0,583333;0,416667;0,416667;0,266667;0,000000;0,000000;0,000000;0,000000;0,000000;0,000000;0,000000;0,000000;0,000000;0,297878;0,416667;0,264679;0,333333;0,000000;0,000000;0,666667;0,000000;0,000000;0,000000;0,000000;0,000000;0,000000;0,000000;0,000000;0,416667;0,416667;0,666667;0,666667;0,333333;0,333333;0,341667;0,291667;0,000000;0,427450;0,333333;0,416667;
41;;;;;;;;;;;;;;;;;;;;;;;;;;;;;;;;;;;;;;;;;1,000000;0,000000;0,000000;0,000000;0,000000;0,304031;0,304031;0,549101;0,678291;0,345698;0,324639;0,218916;0,332746;0,000000;0,255006;0,302249;0,205887;0,195094;0,000000;0,000000;0,000000;0,000000;0,000000;0,000000;0,296673;0,296673;0,296673;0,295117;0,000000;0,276013;0,194850;0,255006;0,273695;0,305006;0,380006;0,380006;0,741464;0,000000;0,000000;0,000000;0,000000;0,000000;0,000000;0,000000;0,000000;0,000000;0,429031;0,380006;0,390056;0,296673;0,000000;0,000000;0,296673;0,218916;0,218916;0,000000;0,000000;0,000000;0,000000;0,000000;0,000000;0,380006;0,380006;0,296673;0,296673;0,547122;0,547122;0,305006;0,255006;0,000000;0,390790;0,296673;0,380006;
42;;;;;;;;;;;;;;;;;;;;;;;;;;;;;;;;;;;;;;;;;;1,000000;0,664334;0,750000;0,750000;0,000000;0,000000;0,000000;0,000000;0,000000;0,000000;0,000000;0,000000;0,000000;0,000000;0,000000;0,000000;0,000000;0,000000;0,000000;0,000000;0,000000;0,291667;0,291667;0,000000;0,000000;0,000000;0,000000;0,000000;0,000000;0,000000;0,000000;0,000000;0,000000;0,000000;0,000000;0,000000;0,000000;0,000000;0,000000;0,000000;0,000000;0,000000;0,000000;0,000000;0,000000;0,000000;0,000000;0,000000;0,000000;0,000000;0,000000;0,000000;0,000000;0,000000;0,000000;0,000000;0,000000;0,000000;0,000000;0,000000;0,000000;0,000000;0,000000;0,000000;0,000000;0,000000;0,000000;0,000000;0,000000;0,000000;0,000000;0,000000;
43;;;;;;;;;;;;;;;;;;;;;;;;;;;;;;;;;;;;;;;;;;;1,000000;0,664334;0,664334;0,000000;0,000000;0,000000;0,000000;0,000000;0,000000;0,000000;0,000000;0,251271;0,000000;0,000000;0,000000;0,000000;0,000000;0,000000;0,000000;0,000000;0,518830;0,518830;0,000000;0,000000;0,000000;0,000000;0,000000;0,000000;0,000000;0,000000;0,000000;0,000000;0,000000;0,000000;0,000000;0,000000;0,000000;0,000000;0,000000;0,000000;0,000000;0,000000;0,000000;0,000000;0,000000;0,000000;0,000000;0,251271;0,251271;0,251271;0,251271;0,000000;0,000000;0,000000;0,000000;0,000000;0,000000;0,000000;0,251271;0,000000;0,000000;0,000000;0,000000;0,000000;0,000000;0,000000;0,000000;0,000000;0,000000;0,000000;0,000000;
44;;;;;;;;;;;;;;;;;;;;;;;;;;;;;;;;;;;;;;;;;;;;1,000000;0,750000;0,000000;0,000000;0,000000;0,000000;0,000000;0,000000;0,000000;0,000000;0,000000;0,000000;0,000000;0,000000;0,000000;0,000000;0,000000;0,000000;0,000000;0,291667;0,291667;0,000000;0,000000;0,000000;0,000000;0,000000;0,000000;0,000000;0,000000;0,000000;0,000000;0,000000;0,000000;0,000000;0,000000;0,000000;0,000000;0,000000;0,000000;0,000000;0,000000;0,000000;0,000000;0,000000;0,000000;0,000000;0,000000;0,000000;0,000000;0,000000;0,000000;0,000000;0,000000;0,000000;0,000000;0,000000;0,000000;0,000000;0,000000;0,000000;0,000000;0,000000;0,000000;0,000000;0,000000;0,000000;0,000000;0,000000;0,000000;0,000000;
45;;;;;;;;;;;;;;;;;;;;;;;;;;;;;;;;;;;;;;;;;;;;;1,000000;0,000000;0,000000;0,000000;0,000000;0,000000;0,000000;0,000000;0,000000;0,000000;0,000000;0,000000;0,000000;0,000000;0,000000;0,000000;0,000000;0,000000;0,291667;0,291667;0,000000;0,000000;0,000000;0,000000;0,000000;0,000000;0,000000;0,000000;0,000000;0,000000;0,000000;0,000000;0,000000;0,000000;0,000000;0,000000;0,000000;0,000000;0,000000;0,000000;0,000000;0,000000;0,000000;0,000000;0,000000;0,000000;0,000000;0,000000;0,000000;0,000000;0,000000;0,000000;0,000000;0,000000;0,000000;0,000000;0,000000;0,000000;0,000000;0,000000;0,000000;0,000000;0,000000;0,000000;0,000000;0,000000;0,000000;0,000000;0,000000;
46;;;;;;;;;;;;;;;;;;;;;;;;;;;;;;;;;;;;;;;;;;;;;;1,000000;0,750000;0,000000;0,193808;0,291667;0,270608;0,238493;0,593778;0,000000;0,185645;0,321826;0,225464;0,317237;0,000000;0,000000;0,000000;0,000000;0,000000;0,000000;0,227311;0,227311;0,227311;0,241086;0,000000;0,206652;0,125489;0,430573;0,403621;0,428113;0,310645;0,310645;0,160645;0,000000;0,000000;0,000000;0,000000;0,000000;0,000000;0,000000;0,000000;0,000000;0,375000;0,310645;0,336025;0,227311;0,000000;0,000000;0,513907;0,238493;0,238493;0,000000;0,000000;0,000000;0,000000;0,000000;0,000000;0,310645;0,310645;0,513907;0,513907;0,227311;0,227311;0,235645;0,185645;0,000000;0,321428;0,227311;0,310645;
47;;;;;;;;;;;;;;;;;;;;;;;;;;;;;;;;;;;;;;;;;;;;;;;1,000000;0,000000;0,193808;0,291667;0,270608;0,238493;0,593778;0,000000;0,185645;0,321826;0,225464;0,317237;0,000000;0,000000;0,000000;0,000000;0,000000;0,000000;0,227311;0,227311;0,227311;0,241086;0,000000;0,206652;0,125489;0,430573;0,403621;0,428113;0,310645;0,310645;0,160645;0,000000;0,000000;0,000000;0,000000;0,000000;0,000000;0,000000;0,000000;0,000000;0,375000;0,310645;0,336025;0,227311;0,000000;0,000000;0,513907;0,238493;0,238493;0,000000;0,000000;0,000000;0,000000;0,000000;0,000000;0,310645;0,310645;0,513907;0,513907;0,227311;0,227311;0,235645;0,185645;0,000000;0,321428;0,227311;0,310645;
48;;;;;;;;;;;;;;;;;;;;;;;;;;;;;;;;;;;;;;;;;;;;;;;;1,000000;0,595120;0,000000;0,000000;0,000000;0,000000;0,000000;0,000000;0,000000;0,000000;0,000000;0,000000;0,000000;0,000000;0,000000;0,000000;0,000000;0,000000;0,000000;0,000000;0,000000;0,000000;0,000000;0,000000;0,000000;0,000000;0,000000;0,000000;0,000000;0,800000;0,000000;0,000000;0,000000;0,000000;0,000000;0,000000;0,000000;0,000000;0,000000;0,000000;0,000000;0,000000;0,000000;0,000000;0,000000;0,000000;0,000000;0,000000;0,000000;0,000000;0,000000;0,000000;0,000000;0,000000;0,416667;0,000000;0,000000;0,000000;0,333333;0,333333;0,000000;0,000000;0,000000;0,000000;0,000000;0,000000;
49;;;;;;;;;;;;;;;;;;;;;;;;;;;;;;;;;;;;;;;;;;;;;;;;;1,000000;0,189484;0,203332;0,000000;0,264508;0,000000;0,258163;0,000000;0,000000;0,198251;0,000000;0,000000;0,000000;0,000000;0,000000;0,000000;0,299830;0,299830;0,299830;0,187869;0,000000;0,279170;0,198007;0,258163;0,276852;0,308163;0,383163;0,383163;0,808634;0,000000;0,000000;0,000000;0,000000;0,000000;0,000000;0,000000;0,000000;0,000000;0,264374;0,383163;0,231176;0,299830;0,000000;0,000000;0,299830;0,000000;0,000000;0,000000;0,000000;0,000000;0,000000;0,000000;0,000000;0,743879;0,383163;0,299830;0,299830;0,577212;0,577212;0,308163;0,258163;0,000000;0,393947;0,299830;0,383163;
50;;;;;;;;;;;;;;;;;;;;;;;;;;;;;;;;;;;;;;;;;;;;;;;;;;1,000000;0,570740;0,606983;0,563210;0,000000;0,181321;0,374725;0,278363;0,121409;0,000000;0,000000;0,000000;0,000000;0,000000;0,000000;0,222987;0,222987;0,222987;0,572486;0,263759;0,333821;0,297996;0,181321;0,200009;0,231321;0,306321;0,306321;0,156321;0,000000;0,000000;0,000000;0,000000;0,000000;0,000000;0,000000;0,000000;0,000000;0,416667;0,306321;0,377692;0,222987;0,000000;0,000000;0,222987;0,291392;0,291392;0,000000;0,000000;0,000000;0,000000;0,000000;0,000000;0,306321;0,306321;0,222987;0,222987;0,222987;0,222987;0,231321;0,181321;0,000000;0,317104;0,222987;0,306321;
51;;;;;;;;;;;;;;;;;;;;;;;;;;;;;;;;;;;;;;;;;;;;;;;;;;;1,000000;0,507998;0,629519;0,000000;0,803221;0,336222;0,239860;0,135257;0,000000;0,000000;0,000000;0,000000;0,000000;0,000000;0,236836;0,236836;0,236836;0,478763;0,209856;0,294118;0,258293;0,195169;0,213858;0,245169;0,320169;0,320169;0,170169;0,000000;0,000000;0,000000;0,000000;0,000000;0,000000;0,000000;0,000000;0,000000;0,569907;0,320169;0,356633;0,236836;0,000000;0,000000;0,236836;0,481695;0,481695;0,000000;0,000000;0,000000;0,000000;0,000000;0,000000;0,320169;0,320169;0,236836;0,236836;0,236836;0,236836;0,245169;0,195169;0,000000;0,330953;0,236836;0,320169;
52;;;;;;;;;;;;;;;;;;;;;;;;;;;;;;;;;;;;;;;;;;;;;;;;;;;;1,000000;0,442571;0,000000;0,000000;0,416667;0,320304;0,000000;0,000000;0,000000;0,000000;0,000000;0,000000;0,000000;0,000000;0,000000;0,000000;0,818884;0,000000;0,000000;0,000000;0,000000;0,000000;0,000000;0,000000;0,000000;0,000000;0,000000;0,000000;0,000000;0,000000;0,000000;0,000000;0,000000;0,000000;0,000000;0,313943;0,000000;0,306567;0,000000;0,000000;0,000000;0,000000;0,333333;0,333333;0,000000;0,000000;0,000000;0,000000;0,000000;0,000000;0,000000;0,000000;0,000000;0,000000;0,000000;0,000000;0,000000;0,000000;0,000000;0,000000;0,000000;0,000000;
53;;;;;;;;;;;;;;;;;;;;;;;;;;;;;;;;;;;;;;;;;;;;;;;;;;;;;1,000000;0,000000;0,693749;0,279633;0,183271;0,303442;0,000000;0,000000;0,000000;0,000000;0,000000;0,000000;0,298012;0,298012;0,298012;0,469030;0,000000;0,277352;0,196189;0,416778;0,392956;0,417448;0,381345;0,381345;0,231345;0,000000;0,000000;0,000000;0,000000;0,000000;0,000000;0,000000;0,000000;0,000000;0,609064;0,381345;0,364739;0,298012;0,000000;0,000000;0,500111;0,459505;0,459505;0,000000;0,000000;0,000000;0,000000;0,000000;0,000000;0,381345;0,381345;0,500111;0,500111;0,298012;0,298012;0,306345;0,256345;0,000000;0,392129;0,298012;0,381345;
54;;;;;;;;;;;;;;;;;;;;;;;;;;;;;;;;;;;;;;;;;;;;;;;;;;;;;;1,000000;0,000000;0,000000;0,312882;0,000000;0,000000;0,000000;0,000000;0,000000;0,333333;0,333333;0,000000;0,000000;0,000000;0,223037;0,291667;0,207109;0,242927;0,000000;0,220585;0,000000;0,000000;0,000000;0,000000;0,266667;0,266667;0,266667;0,266667;0,266667;0,266667;0,266667;0,266667;0,266667;0,000000;0,000000;0,000000;0,333333;0,333333;0,333333;0,333333;0,000000;0,000000;0,000000;0,000000;0,000000;0,000000;0,000000;1,000000;0,000000;0,000000;0,000000;0,000000;0,000000;0,000000;0,000000;0,000000;0,416667;0,465886;0,000000;0,000000;
55;;;;;;;;;;;;;;;;;;;;;;;;;;;;;;;;;;;;;;;;;;;;;;;;;;;;;;;1,000000;0,000000;0,000000;0,190088;0,000000;0,000000;0,000000;0,000000;0,000000;0,000000;0,291667;0,291667;0,291667;0,179706;0,000000;0,271007;0,189844;0,250000;0,268689;0,300000;0,375000;0,375000;0,225000;0,000000;0,000000;0,000000;0,000000;0,000000;0,000000;0,000000;0,000000;0,000000;0,528503;0,375000;0,223013;0,291667;0,000000;0,000000;0,291667;0,291667;0,291667;0,000000;0,000000;0,000000;0,000000;0,000000;0,000000;0,375000;0,375000;0,291667;0,291667;0,291667;0,291667;0,300000;0,250000;0,000000;0,385784;0,291667;0,375000;
56;;;;;;;;;;;;;;;;;;;;;;;;;;;;;;;;;;;;;;;;;;;;;;;;;;;;;;;;1,000000;0,403638;0,000000;0,000000;0,000000;0,000000;0,000000;0,000000;0,000000;0,000000;0,000000;0,000000;0,319316;0,000000;0,000000;0,000000;0,000000;0,000000;0,000000;0,000000;0,000000;0,000000;0,000000;0,000000;0,000000;0,000000;0,000000;0,000000;0,000000;0,000000;0,000000;0,397276;0,000000;0,389901;0,000000;0,000000;0,000000;0,000000;0,416667;0,416667;0,000000;0,000000;0,000000;0,000000;0,000000;0,000000;0,000000;0,000000;0,000000;0,000000;0,000000;0,000000;0,000000;0,000000;0,500000;0,000000;0,000000;0,000000;
57;;;;;;;;;;;;;;;;;;;;;;;;;;;;;;;;;;;;;;;;;;;;;;;;;;;;;;;;;1,000000;0,000000;0,000000;0,000000;0,000000;0,000000;0,000000;0,000000;0,000000;0,000000;0,000000;0,359674;0,271215;0,186657;0,222476;0,000000;0,200134;0,000000;0,000000;0,000000;0,000000;0,246215;0,246215;0,246215;0,246215;0,246215;0,246215;0,246215;0,246215;0,246215;0,300914;0,000000;0,293538;0,000000;0,000000;0,000000;0,000000;0,320304;0,320304;0,000000;0,000000;0,000000;0,000000;0,000000;0,312882;0,000000;0,000000;0,000000;0,000000;0,000000;0,000000;0,000000;0,000000;0,396215;0,445435;0,000000;0,000000;
58;;;;;;;;;;;;;;;;;;;;;;;;;;;;;;;;;;;;;;;;;;;;;;;;;;;;;;;;;;1,000000;0,697985;0,697985;0,697985;0,697985;0,000000;0,000000;0,231755;0,231755;0,231755;0,119794;0,000000;0,211096;0,129932;0,588998;0,208777;0,240088;0,315088;0,315088;0,165088;0,000000;0,000000;0,000000;0,000000;0,000000;0,000000;0,000000;0,000000;0,000000;0,196299;0,315088;0,163101;0,231755;0,000000;0,000000;0,469997;0,000000;0,000000;0,000000;0,000000;0,000000;0,000000;0,000000;0,000000;0,315088;0,315088;0,469997;0,469997;0,231755;0,231755;0,240088;0,190088;0,000000;0,325872;0,231755;0,315088;
59;;;;;;;;;;;;;;;;;;;;;;;;;;;;;;;;;;;;;;;;;;;;;;;;;;;;;;;;;;;1,000000;0,750000;0,750000;0,750000;0,000000;0,000000;0,000000;0,000000;0,000000;0,000000;0,000000;0,000000;0,000000;0,250000;0,000000;0,000000;0,000000;0,000000;0,000000;0,000000;0,000000;0,000000;0,000000;0,000000;0,000000;0,000000;0,000000;0,000000;0,000000;0,000000;0,000000;0,000000;0,000000;0,000000;0,000000;0,000000;0,000000;0,000000;0,000000;0,000000;0,000000;0,000000;0,000000;0,000000;0,000000;0,000000;0,000000;0,000000;0,000000;0,000000;0,000000;0,000000;0,000000;0,000000;0,000000;
60;;;;;;;;;;;;;;;;;;;;;;;;;;;;;;;;;;;;;;;;;;;;;;;;;;;;;;;;;;;;1,000000;0,750000;0,750000;0,000000;0,000000;0,000000;0,000000;0,000000;0,000000;0,000000;0,000000;0,000000;0,250000;0,000000;0,000000;0,000000;0,000000;0,000000;0,000000;0,000000;0,000000;0,000000;0,000000;0,000000;0,000000;0,000000;0,000000;0,000000;0,000000;0,000000;0,000000;0,000000;0,000000;0,000000;0,000000;0,000000;0,000000;0,000000;0,000000;0,000000;0,000000;0,000000;0,000000;0,000000;0,000000;0,000000;0,000000;0,000000;0,000000;0,000000;0,000000;0,000000;0,000000;0,000000;
61;;;;;;;;;;;;;;;;;;;;;;;;;;;;;;;;;;;;;;;;;;;;;;;;;;;;;;;;;;;;;1,000000;0,750000;0,000000;0,000000;0,000000;0,000000;0,000000;0,000000;0,000000;0,000000;0,000000;0,250000;0,000000;0,000000;0,000000;0,000000;0,000000;0,000000;0,000000;0,000000;0,000000;0,000000;0,000000;0,000000;0,000000;0,000000;0,000000;0,000000;0,000000;0,000000;0,000000;0,000000;0,000000;0,000000;0,000000;0,000000;0,000000;0,000000;0,000000;0,000000;0,000000;0,000000;0,000000;0,000000;0,000000;0,000000;0,000000;0,000000;0,000000;0,000000;0,000000;0,000000;0,000000;
62;;;;;;;;;;;;;;;;;;;;;;;;;;;;;;;;;;;;;;;;;;;;;;;;;;;;;;;;;;;;;;1,000000;0,000000;0,000000;0,000000;0,000000;0,000000;0,000000;0,000000;0,000000;0,000000;0,250000;0,000000;0,000000;0,000000;0,000000;0,000000;0,000000;0,000000;0,000000;0,000000;0,000000;0,000000;0,000000;0,000000;0,000000;0,000000;0,000000;0,000000;0,000000;0,000000;0,000000;0,000000;0,000000;0,000000;0,000000;0,000000;0,000000;0,000000;0,000000;0,000000;0,000000;0,000000;0,000000;0,000000;0,000000;0,000000;0,000000;0,000000;0,000000;0,000000;0,000000;0,000000;
63;;;;;;;;;;;;;;;;;;;;;;;;;;;;;;;;;;;;;;;;;;;;;;;;;;;;;;;;;;;;;;;1,000000;0,666667;0,000000;0,000000;0,000000;0,000000;0,000000;0,000000;0,000000;0,000000;0,000000;0,000000;0,000000;0,000000;0,000000;0,000000;0,000000;0,000000;0,000000;0,000000;0,000000;0,000000;0,000000;0,000000;0,000000;0,000000;0,000000;0,333333;0,333333;0,333333;0,333333;0,000000;0,000000;0,000000;0,000000;0,000000;0,000000;0,000000;0,333333;0,000000;0,000000;0,000000;0,000000;0,000000;0,000000;0,000000;0,000000;0,000000;0,000000;0,000000;0,000000;
64;;;;;;;;;;;;;;;;;;;;;;;;;;;;;;;;;;;;;;;;;;;;;;;;;;;;;;;;;;;;;;;;1,000000;0,000000;0,000000;0,000000;0,000000;0,000000;0,000000;0,000000;0,000000;0,000000;0,000000;0,000000;0,000000;0,000000;0,000000;0,000000;0,000000;0,000000;0,000000;0,000000;0,000000;0,000000;0,000000;0,000000;0,000000;0,000000;0,333333;0,333333;0,333333;0,333333;0,000000;0,000000;0,000000;0,000000;0,000000;0,000000;0,000000;0,333333;0,000000;0,000000;0,000000;0,000000;0,000000;0,000000;0,000000;0,000000;0,000000;0,000000;0,000000;0,000000;
65;;;;;;;;;;;;;;;;;;;;;;;;;;;;;;;;;;;;;;;;;;;;;;;;;;;;;;;;;;;;;;;;;1,000000;0,666667;0,666667;0,221373;0,000000;0,312674;0,231511;0,291667;0,310355;0,341667;0,416667;0,416667;0,266667;0,000000;0,000000;0,000000;0,000000;0,000000;0,000000;0,000000;0,000000;0,000000;0,297878;0,416667;0,264679;0,333333;0,000000;0,000000;0,333333;0,000000;0,000000;0,000000;0,000000;0,000000;0,000000;0,000000;0,000000;0,416667;0,416667;0,333333;0,333333;0,333333;0,333333;0,341667;0,291667;0,000000;0,427450;0,333333;0,416667;
66;;;;;;;;;;;;;;;;;;;;;;;;;;;;;;;;;;;;;;;;;;;;;;;;;;;;;;;;;;;;;;;;;;1,000000;0,666667;0,221373;0,000000;0,312674;0,231511;0,291667;0,310355;0,341667;0,416667;0,416667;0,266667;0,000000;0,000000;0,000000;0,000000;0,000000;0,000000;0,000000;0,000000;0,000000;0,297878;0,416667;0,264679;0,333333;0,000000;0,000000;0,333333;0,000000;0,000000;0,000000;0,000000;0,000000;0,000000;0,000000;0,000000;0,416667;0,416667;0,333333;0,333333;0,333333;0,333333;0,341667;0,291667;0,000000;0,427450;0,333333;0,416667;
67;;;;;;;;;;;;;;;;;;;;;;;;;;;;;;;;;;;;;;;;;;;;;;;;;;;;;;;;;;;;;;;;;;;1,000000;0,221373;0,000000;0,312674;0,231511;0,291667;0,310355;0,341667;0,416667;0,416667;0,266667;0,000000;0,000000;0,000000;0,000000;0,000000;0,000000;0,000000;0,000000;0,000000;0,297878;0,416667;0,264679;0,333333;0,000000;0,000000;0,333333;0,000000;0,000000;0,000000;0,000000;0,000000;0,000000;0,000000;0,000000;0,416667;0,416667;0,333333;0,333333;0,333333;0,333333;0,341667;0,291667;0,000000;0,427450;0,333333;0,416667;
68;;;;;;;;;;;;;;;;;;;;;;;;;;;;;;;;;;;;;;;;;;;;;;;;;;;;;;;;;;;;;;;;;;;;1,000000;0,565098;0,520210;0,558783;0,179706;0,272484;0,229706;0,304706;0,304706;0,154706;0,156370;0,156370;0,156370;0,156370;0,156370;0,156370;0,156370;0,156370;0,156370;0,366086;0,606013;0,438844;0,221373;0,000000;0,000000;0,221373;0,235982;0,235982;0,000000;0,000000;0,000000;0,000000;0,000000;0,223037;0,304706;0,304706;0,221373;0,221373;0,221373;0,221373;0,601186;0,554141;0,306370;0,602767;0,439346;0,304706;
69;;;;;;;;;;;;;;;;;;;;;;;;;;;;;;;;;;;;;;;;;;;;;;;;;;;;;;;;;;;;;;;;;;;;;1,000000;0,528852;0,617650;0,000000;0,178919;0,000000;0,000000;0,000000;0,000000;0,225000;0,225000;0,225000;0,225000;0,225000;0,225000;0,225000;0,225000;0,225000;0,000000;0,375000;0,247011;0,000000;0,000000;0,000000;0,000000;0,000000;0,000000;0,000000;0,000000;0,000000;0,000000;0,000000;0,291667;0,000000;0,000000;0,000000;0,000000;0,000000;0,000000;0,500000;0,500000;0,375000;0,424220;0,291667;0,000000;
70;;;;;;;;;;;;;;;;;;;;;;;;;;;;;;;;;;;;;;;;;;;;;;;;;;;;;;;;;;;;;;;;;;;;;;1,000000;0,719826;0,271007;0,338931;0,321007;0,396007;0,396007;0,246007;0,140442;0,140442;0,140442;0,140442;0,140442;0,140442;0,140442;0,140442;0,140442;0,436121;0,396007;0,395443;0,312674;0,000000;0,000000;0,312674;0,000000;0,000000;0,000000;0,000000;0,000000;0,000000;0,000000;0,207109;0,396007;0,396007;0,312674;0,312674;0,312674;0,312674;0,536879;0,608501;0,290442;0,669214;0,519455;0,396007;
71;;;;;;;;;;;;;;;;;;;;;;;;;;;;;;;;;;;;;;;;;;;;;;;;;;;;;;;;;;;;;;;;;;;;;;;1,000000;0,189844;0,294717;0,239844;0,314844;0,314844;0,164844;0,176261;0,176261;0,176261;0,176261;0,176261;0,176261;0,176261;0,176261;0,176261;0,196055;0,671944;0,379167;0,231511;0,000000;0,000000;0,231511;0,000000;0,000000;0,000000;0,000000;0,000000;0,000000;0,000000;0,242927;0,314844;0,314844;0,231511;0,231511;0,231511;0,231511;0,647026;0,599794;0,326261;0,625000;0,505277;0,314844;
72;;;;;;;;;;;;;;;;;;;;;;;;;;;;;;;;;;;;;;;;;;;;;;;;;;;;;;;;;;;;;;;;;;;;;;;;1,000000;0,268689;0,300000;0,375000;0,375000;0,225000;0,000000;0,000000;0,000000;0,000000;0,000000;0,000000;0,000000;0,000000;0,000000;0,256211;0,375000;0,223013;0,291667;0,000000;0,000000;0,583333;0,000000;0,000000;0,000000;0,000000;0,000000;0,000000;0,000000;0,000000;0,375000;0,375000;0,583333;0,583333;0,291667;0,291667;0,300000;0,250000;0,000000;0,385784;0,291667;0,375000;
73;;;;;;;;;;;;;;;;;;;;;;;;;;;;;;;;;;;;;;;;;;;;;;;;;;;;;;;;;;;;;;;;;;;;;;;;;1,000000;0,475508;0,393689;0,393689;0,243689;0,153919;0,153919;0,153919;0,153919;0,153919;0,659428;0,659428;0,659428;0,659428;0,274900;0,393689;0,241701;0,310355;0,000000;0,000000;0,310355;0,000000;0,000000;0,000000;0,000000;0,000000;0,000000;0,000000;0,220585;0,393689;0,393689;0,310355;0,310355;0,310355;0,310355;0,318689;0,268689;0,303919;0,669717;0,310355;0,393689;
74;;;;;;;;;;;;;;;;;;;;;;;;;;;;;;;;;;;;;;;;;;;;;;;;;;;;;;;;;;;;;;;;;;;;;;;;;;1,000000;0,425000;0,425000;0,275000;0,000000;0,000000;0,000000;0,000000;0,000000;0,000000;0,000000;0,000000;0,000000;0,306211;0,425000;0,273013;0,341667;0,000000;0,000000;0,341667;0,000000;0,000000;0,000000;0,000000;0,000000;0,000000;0,000000;0,000000;0,425000;0,425000;0,341667;0,341667;0,341667;0,341667;0,350000;0,300000;0,000000;0,435784;0,341667;0,425000;
75;;;;;;;;;;;;;;;;;;;;;;;;;;;;;;;;;;;;;;;;;;;;;;;;;;;;;;;;;;;;;;;;;;;;;;;;;;;1,000000;0,500000;0,350000;0,000000;0,000000;0,000000;0,000000;0,000000;0,000000;0,000000;0,000000;0,000000;0,381211;0,500000;0,348013;0,416667;0,000000;0,000000;0,416667;0,000000;0,000000;0,000000;0,000000;0,000000;0,000000;0,000000;0,000000;0,500000;0,500000;0,416667;0,416667;0,416667;0,416667;0,425000;0,375000;0,000000;0,510784;0,416667;0,500000;
76;;;;;;;;;;;;;;;;;;;;;;;;;;;;;;;;;;;;;;;;;;;;;;;;;;;;;;;;;;;;;;;;;;;;;;;;;;;;1,000000;0,350000;0,000000;0,000000;0,000000;0,000000;0,000000;0,000000;0,000000;0,000000;0,000000;0,381211;0,500000;0,348013;0,416667;0,000000;0,000000;0,416667;0,000000;0,000000;0,000000;0,000000;0,000000;0,000000;0,000000;0,000000;0,500000;0,500000;0,416667;0,416667;0,416667;0,416667;0,425000;0,375000;0,000000;0,510784;0,416667;0,500000;
77;;;;;;;;;;;;;;;;;;;;;;;;;;;;;;;;;;;;;;;;;;;;;;;;;;;;;;;;;;;;;;;;;;;;;;;;;;;;;1,000000;0,000000;0,000000;0,000000;0,000000;0,000000;0,000000;0,000000;0,000000;0,000000;0,231211;0,350000;0,198013;0,266667;0,000000;0,000000;0,266667;0,000000;0,000000;0,000000;0,000000;0,000000;0,000000;0,000000;0,000000;0,700000;0,350000;0,266667;0,266667;0,533333;0,533333;0,275000;0,225000;0,000000;0,360784;0,266667;0,350000;
78;;;;;;;;;;;;;;;;;;;;;;;;;;;;;;;;;;;;;;;;;;;;;;;;;;;;;;;;;;;;;;;;;;;;;;;;;;;;;;1,000000;0,800000;0,800000;0,800000;0,800000;0,200000;0,200000;0,200000;0,200000;0,000000;0,000000;0,000000;0,000000;0,000000;0,000000;0,000000;0,000000;0,000000;0,000000;0,000000;0,000000;0,000000;0,000000;0,266667;0,000000;0,000000;0,000000;0,000000;0,000000;0,000000;0,000000;0,000000;0,350000;0,399220;0,000000;0,000000;
79;;;;;;;;;;;;;;;;;;;;;;;;;;;;;;;;;;;;;;;;;;;;;;;;;;;;;;;;;;;;;;;;;;;;;;;;;;;;;;;1,000000;0,800000;0,800000;0,800000;0,200000;0,200000;0,200000;0,200000;0,000000;0,000000;0,000000;0,000000;0,000000;0,000000;0,000000;0,000000;0,000000;0,000000;0,000000;0,000000;0,000000;0,000000;0,266667;0,000000;0,000000;0,000000;0,000000;0,000000;0,000000;0,000000;0,000000;0,350000;0,399220;0,000000;0,000000;
80;;;;;;;;;;;;;;;;;;;;;;;;;;;;;;;;;;;;;;;;;;;;;;;;;;;;;;;;;;;;;;;;;;;;;;;;;;;;;;;;1,000000;0,800000;0,800000;0,200000;0,200000;0,200000;0,200000;0,000000;0,000000;0,000000;0,000000;0,000000;0,000000;0,000000;0,000000;0,000000;0,000000;0,000000;0,000000;0,000000;0,000000;0,266667;0,000000;0,000000;0,000000;0,000000;0,000000;0,000000;0,000000;0,000000;0,350000;0,399220;0,000000;0,000000;
81;;;;;;;;;;;;;;;;;;;;;;;;;;;;;;;;;;;;;;;;;;;;;;;;;;;;;;;;;;;;;;;;;;;;;;;;;;;;;;;;;1,000000;0,800000;0,200000;0,200000;0,200000;0,200000;0,000000;0,000000;0,000000;0,000000;0,000000;0,000000;0,000000;0,000000;0,000000;0,000000;0,000000;0,000000;0,000000;0,000000;0,266667;0,000000;0,000000;0,000000;0,000000;0,000000;0,000000;0,000000;0,000000;0,350000;0,399220;0,000000;0,000000;
82;;;;;;;;;;;;;;;;;;;;;;;;;;;;;;;;;;;;;;;;;;;;;;;;;;;;;;;;;;;;;;;;;;;;;;;;;;;;;;;;;;1,000000;0,200000;0,200000;0,200000;0,200000;0,000000;0,000000;0,000000;0,000000;0,000000;0,000000;0,000000;0,000000;0,000000;0,000000;0,000000;0,000000;0,000000;0,000000;0,266667;0,000000;0,000000;0,000000;0,000000;0,000000;0,000000;0,000000;0,000000;0,350000;0,399220;0,000000;0,000000;
83;;;;;;;;;;;;;;;;;;;;;;;;;;;;;;;;;;;;;;;;;;;;;;;;;;;;;;;;;;;;;;;;;;;;;;;;;;;;;;;;;;;1,000000;0,800000;0,800000;0,800000;0,000000;0,000000;0,000000;0,000000;0,000000;0,000000;0,000000;0,000000;0,000000;0,000000;0,000000;0,000000;0,000000;0,000000;0,266667;0,000000;0,350000;0,000000;0,000000;0,000000;0,000000;0,000000;0,000000;0,350000;0,399220;0,000000;0,000000;
84;;;;;;;;;;;;;;;;;;;;;;;;;;;;;;;;;;;;;;;;;;;;;;;;;;;;;;;;;;;;;;;;;;;;;;;;;;;;;;;;;;;;1,000000;0,800000;0,800000;0,000000;0,000000;0,000000;0,000000;0,000000;0,000000;0,000000;0,000000;0,000000;0,000000;0,000000;0,000000;0,000000;0,000000;0,266667;0,000000;0,350000;0,000000;0,000000;0,000000;0,000000;0,000000;0,000000;0,350000;0,399220;0,000000;0,000000;
85;;;;;;;;;;;;;;;;;;;;;;;;;;;;;;;;;;;;;;;;;;;;;;;;;;;;;;;;;;;;;;;;;;;;;;;;;;;;;;;;;;;;;1,000000;0,800000;0,000000;0,000000;0,000000;0,000000;0,000000;0,000000;0,000000;0,000000;0,000000;0,000000;0,000000;0,000000;0,000000;0,000000;0,266667;0,000000;0,350000;0,000000;0,000000;0,000000;0,000000;0,000000;0,000000;0,350000;0,399220;0,000000;0,000000;
86;;;;;;;;;;;;;;;;;;;;;;;;;;;;;;;;;;;;;;;;;;;;;;;;;;;;;;;;;;;;;;;;;;;;;;;;;;;;;;;;;;;;;;1,000000;0,000000;0,000000;0,000000;0,000000;0,000000;0,000000;0,000000;0,000000;0,000000;0,000000;0,000000;0,000000;0,000000;0,000000;0,266667;0,000000;0,350000;0,000000;0,000000;0,000000;0,000000;0,000000;0,000000;0,350000;0,399220;0,000000;0,000000;
87;;;;;;;;;;;;;;;;;;;;;;;;;;;;;;;;;;;;;;;;;;;;;;;;;;;;;;;;;;;;;;;;;;;;;;;;;;;;;;;;;;;;;;;1,000000;0,381211;0,461025;0,297878;0,000000;0,000000;0,297878;0,313943;0,313943;0,000000;0,000000;0,000000;0,000000;0,000000;0,000000;0,381211;0,381211;0,297878;0,297878;0,297878;0,297878;0,306211;0,256211;0,000000;0,391995;0,583333;0,381211;
88;;;;;;;;;;;;;;;;;;;;;;;;;;;;;;;;;;;;;;;;;;;;;;;;;;;;;;;;;;;;;;;;;;;;;;;;;;;;;;;;;;;;;;;;1,000000;0,707223;0,416667;0,000000;0,000000;0,416667;0,000000;0,000000;0,000000;0,000000;0,000000;0,000000;0,000000;0,000000;0,500000;0,500000;0,416667;0,416667;0,416667;0,416667;0,850000;0,750000;0,000000;0,510784;0,833333;0,500000;
89;;;;;;;;;;;;;;;;;;;;;;;;;;;;;;;;;;;;;;;;;;;;;;;;;;;;;;;;;;;;;;;;;;;;;;;;;;;;;;;;;;;;;;;;;1,000000;0,264679;0,000000;0,000000;0,264679;0,306567;0,306567;0,000000;0,000000;0,000000;0,000000;0,000000;0,000000;0,348013;0,348013;0,264679;0,264679;0,264679;0,264679;0,557223;0,457223;0,000000;0,358796;0,540557;0,348013;
90;;;;;;;;;;;;;;;;;;;;;;;;;;;;;;;;;;;;;;;;;;;;;;;;;;;;;;;;;;;;;;;;;;;;;;;;;;;;;;;;;;;;;;;;;;1,000000;0,333333;0,333333;0,666667;0,000000;0,000000;0,000000;0,000000;0,000000;0,000000;0,000000;0,333333;0,416667;0,416667;0,333333;0,333333;0,333333;0,333333;0,341667;0,291667;0,000000;0,427450;0,333333;0,416667;
91;;;;;;;;;;;;;;;;;;;;;;;;;;;;;;;;;;;;;;;;;;;;;;;;;;;;;;;;;;;;;;;;;;;;;;;;;;;;;;;;;;;;;;;;;;;1,000000;0,666667;0,333333;0,000000;0,000000;0,000000;0,000000;0,000000;0,000000;0,000000;0,333333;0,000000;0,000000;0,000000;0,000000;0,000000;0,000000;0,000000;0,000000;0,000000;0,000000;0,000000;0,000000;
92;;;;;;;;;;;;;;;;;;;;;;;;;;;;;;;;;;;;;;;;;;;;;;;;;;;;;;;;;;;;;;;;;;;;;;;;;;;;;;;;;;;;;;;;;;;;1,000000;0,333333;0,000000;0,000000;0,000000;0,000000;0,000000;0,000000;0,000000;0,333333;0,000000;0,000000;0,000000;0,000000;0,000000;0,000000;0,000000;0,000000;0,000000;0,000000;0,000000;0,000000;
93;;;;;;;;;;;;;;;;;;;;;;;;;;;;;;;;;;;;;;;;;;;;;;;;;;;;;;;;;;;;;;;;;;;;;;;;;;;;;;;;;;;;;;;;;;;;;1,000000;0,000000;0,000000;0,000000;0,000000;0,000000;0,000000;0,000000;0,333333;0,416667;0,416667;0,666667;0,666667;0,333333;0,333333;0,341667;0,291667;0,000000;0,427450;0,333333;0,416667;
94;;;;;;;;;;;;;;;;;;;;;;;;;;;;;;;;;;;;;;;;;;;;;;;;;;;;;;;;;;;;;;;;;;;;;;;;;;;;;;;;;;;;;;;;;;;;;;1,000000;0,666667;0,000000;0,000000;0,000000;0,000000;0,000000;0,000000;0,000000;0,000000;0,000000;0,000000;0,000000;0,000000;0,000000;0,000000;0,000000;0,000000;0,000000;0,000000;
95;;;;;;;;;;;;;;;;;;;;;;;;;;;;;;;;;;;;;;;;;;;;;;;;;;;;;;;;;;;;;;;;;;;;;;;;;;;;;;;;;;;;;;;;;;;;;;;1,000000;0,000000;0,000000;0,000000;0,000000;0,000000;0,000000;0,000000;0,000000;0,000000;0,000000;0,000000;0,000000;0,000000;0,000000;0,000000;0,000000;0,000000;0,000000;
96;;;;;;;;;;;;;;;;;;;;;;;;;;;;;;;;;;;;;;;;;;;;;;;;;;;;;;;;;;;;;;;;;;;;;;;;;;;;;;;;;;;;;;;;;;;;;;;;1,000000;0,666667;0,666667;0,000000;0,000000;0,000000;0,000000;0,000000;0,000000;0,000000;0,000000;0,000000;0,000000;0,000000;0,000000;0,000000;0,000000;0,000000;
97;;;;;;;;;;;;;;;;;;;;;;;;;;;;;;;;;;;;;;;;;;;;;;;;;;;;;;;;;;;;;;;;;;;;;;;;;;;;;;;;;;;;;;;;;;;;;;;;;1,000000;0,666667;0,000000;0,000000;0,000000;0,000000;0,000000;0,000000;0,000000;0,000000;0,000000;0,000000;0,000000;0,000000;0,000000;0,000000;0,000000;
98;;;;;;;;;;;;;;;;;;;;;;;;;;;;;;;;;;;;;;;;;;;;;;;;;;;;;;;;;;;;;;;;;;;;;;;;;;;;;;;;;;;;;;;;;;;;;;;;;;1,000000;0,000000;0,000000;0,000000;0,000000;0,000000;0,000000;0,000000;0,000000;0,000000;0,000000;0,000000;0,000000;0,000000;0,000000;0,000000;
99;;;;;;;;;;;;;;;;;;;;;;;;;;;;;;;;;;;;;;;;;;;;;;;;;;;;;;;;;;;;;;;;;;;;;;;;;;;;;;;;;;;;;;;;;;;;;;;;;;;1,000000;0,000000;0,000000;0,000000;0,000000;0,000000;0,000000;0,000000;0,000000;0,000000;0,000000;0,000000;0,000000;0,000000;0,000000;
100;;;;;;;;;;;;;;;;;;;;;;;;;;;;;;;;;;;;;;;;;;;;;;;;;;;;;;;;;;;;;;;;;;;;;;;;;;;;;;;;;;;;;;;;;;;;;;;;;;;;1,000000;0,000000;0,000000;0,000000;0,000000;0,000000;0,000000;0,000000;0,000000;0,000000;0,000000;0,000000;0,000000;0,000000;
101;;;;;;;;;;;;;;;;;;;;;;;;;;;;;;;;;;;;;;;;;;;;;;;;;;;;;;;;;;;;;;;;;;;;;;;;;;;;;;;;;;;;;;;;;;;;;;;;;;;;;1,000000;0,000000;0,000000;0,000000;0,000000;0,000000;0,000000;0,000000;0,000000;0,416667;0,465886;0,000000;0,000000;
102;;;;;;;;;;;;;;;;;;;;;;;;;;;;;;;;;;;;;;;;;;;;;;;;;;;;;;;;;;;;;;;;;;;;;;;;;;;;;;;;;;;;;;;;;;;;;;;;;;;;;;1,000000;0,500000;0,416667;0,416667;0,416667;0,416667;0,425000;0,375000;0,000000;0,510784;0,416667;0,500000;
103;;;;;;;;;;;;;;;;;;;;;;;;;;;;;;;;;;;;;;;;;;;;;;;;;;;;;;;;;;;;;;;;;;;;;;;;;;;;;;;;;;;;;;;;;;;;;;;;;;;;;;;1,000000;0,416667;0,416667;0,416667;0,416667;0,425000;0,375000;0,000000;0,510784;0,416667;0,500000;
104;;;;;;;;;;;;;;;;;;;;;;;;;;;;;;;;;;;;;;;;;;;;;;;;;;;;;;;;;;;;;;;;;;;;;;;;;;;;;;;;;;;;;;;;;;;;;;;;;;;;;;;;1,000000;0,666667;0,333333;0,333333;0,341667;0,291667;0,000000;0,427450;0,333333;0,416667;
105;;;;;;;;;;;;;;;;;;;;;;;;;;;;;;;;;;;;;;;;;;;;;;;;;;;;;;;;;;;;;;;;;;;;;;;;;;;;;;;;;;;;;;;;;;;;;;;;;;;;;;;;;1,000000;0,333333;0,333333;0,341667;0,291667;0,000000;0,427450;0,333333;0,416667;
106;;;;;;;;;;;;;;;;;;;;;;;;;;;;;;;;;;;;;;;;;;;;;;;;;;;;;;;;;;;;;;;;;;;;;;;;;;;;;;;;;;;;;;;;;;;;;;;;;;;;;;;;;;1,000000;0,666667;0,341667;0,291667;0,000000;0,427450;0,333333;0,416667;
107;;;;;;;;;;;;;;;;;;;;;;;;;;;;;;;;;;;;;;;;;;;;;;;;;;;;;;;;;;;;;;;;;;;;;;;;;;;;;;;;;;;;;;;;;;;;;;;;;;;;;;;;;;;1,000000;0,341667;0,291667;0,000000;0,427450;0,333333;0,416667;
108;;;;;;;;;;;;;;;;;;;;;;;;;;;;;;;;;;;;;;;;;;;;;;;;;;;;;;;;;;;;;;;;;;;;;;;;;;;;;;;;;;;;;;;;;;;;;;;;;;;;;;;;;;;;1,000000;0,797044;0,000000;0,435784;0,683333;0,425000;
109;;;;;;;;;;;;;;;;;;;;;;;;;;;;;;;;;;;;;;;;;;;;;;;;;;;;;;;;;;;;;;;;;;;;;;;;;;;;;;;;;;;;;;;;;;;;;;;;;;;;;;;;;;;;;1,000000;0,000000;0,385784;0,583333;0,375000;
110;;;;;;;;;;;;;;;;;;;;;;;;;;;;;;;;;;;;;;;;;;;;;;;;;;;;;;;;;;;;;;;;;;;;;;;;;;;;;;;;;;;;;;;;;;;;;;;;;;;;;;;;;;;;;;1,000000;0,549220;0,000000;0,000000;
111;;;;;;;;;;;;;;;;;;;;;;;;;;;;;;;;;;;;;;;;;;;;;;;;;;;;;;;;;;;;;;;;;;;;;;;;;;;;;;;;;;;;;;;;;;;;;;;;;;;;;;;;;;;;;;;1,000000;0,427450;0,510784;
112;;;;;;;;;;;;;;;;;;;;;;;;;;;;;;;;;;;;;;;;;;;;;;;;;;;;;;;;;;;;;;;;;;;;;;;;;;;;;;;;;;;;;;;;;;;;;;;;;;;;;;;;;;;;;;;;1,000000;0,416667;
113;;;;;;;;;;;;;;;;;;;;;;;;;;;;;;;;;;;;;;;;;;;;;;;;;;;;;;;;;;;;;;;;;;;;;;;;;;;;;;;;;;;;;;;;;;;;;;;;;;;;;;;;;;;;;;;;;1,000000;
