;1; 2; 3; 4; 5; 6; 7; 8; 9; 10; 11; 12; 13; 14; 15; 16; 17; 18; 19; 20; 21; 22; 23; 24; 25; 26; 27; 28; 29; 30; 31; 32; 33; 34; 35; 36; 37; 38; 39; 40; 41; 42; 43; 44; 45; 46; 47; 48; 49; 50; 51
1;1,000000;0,287363;0,198008;0,326142;0,387961;0,349429;0,422015;0,000000;0,000000;0,283895;0,456029;0,000000;0,000000;0,289322;0,343003;0,152667;0,000000;0,172133;0,412311;0,306800;0,218040;0,000000;0,390007;0,000000;0,179136;0,415374;0,000000;0,151529;0,592654;0,317904;0,366802;0,000000;0,000000;0,000000;0,000000;0,397343;0,397990;0,496514;0,399116;0,399688;0,000000;0,000000;0,303422;0,000000;0,448743;0,331152;0,000000;0,332363;0,308804;0,000000;0,517416;
2;;1,000000;0,241993;0,396860;0,462833;0,391948;0,495382;0,250403;0,250403;0,000000;0,530009;0,629881;0,629881;0,318300;0,329553;0,467347;0,502899;0,438602;0,463230;0,329924;0,463254;0,629881;0,548496;0,629881;0,449744;0,295896;0,629881;0,565938;0,000000;0,342236;0,345914;0,298337;0,298337;0,629881;0,629881;0,494938;0,494938;0,416355;0,495075;0,495075;0,629881;0,629881;0,332903;0,629881;0,481914;0,342236;0,502899;0,349721;0,348996;0,629881;0,564733;
3;;;1,000000;0,747634;0,725896;0,846694;0,696373;0,000000;0,000000;0,143681;0,693131;0,612112;0,612112;0,300532;0,311785;1,000000;0,000000;1,000000;0,772512;0,312156;0,445486;0,612112;0,785911;0,612112;1,000000;0,828191;0,612112;0,351821;0,605354;0,324468;0,328145;0,000000;0,000000;0,612112;0,612112;0,249210;0,249406;0,722874;0,252709;0,252859;0,612112;0,612112;1,000000;0,612112;0,810928;0,324468;0,000000;0,331952;0,331228;0,612112;0,718444;
4;;;;1,000000;0,473530;0,594328;0,889413;0,000000;0,000000;0,119024;0,862675;0,580391;0,580391;0,268810;0,280063;0,747634;0,000000;0,747634;0,520146;0,280434;0,413764;0,580391;0,533545;0,580391;0,747634;0,575825;0,580391;0,320099;0,580696;0,292746;0,296424;0,000000;0,000000;0,580391;0,580391;0,217488;0,217684;0,470508;0,220987;0,221137;0,580391;0,580391;0,747634;0,580391;0,558562;0,292746;0,000000;0,300230;0,299506;0,580391;0,466078;
5;;;;;1,000000;0,572590;0,568038;0,000000;0,000000;0,118414;0,612648;0,578418;0,578418;0,266837;0,278091;0,725896;0,000000;0,725896;0,498408;0,278461;0,411791;0,578418;0,511807;0,578418;0,725896;0,554087;0,578418;0,318126;0,580086;0,290774;0,294451;0,000000;0,000000;0,578418;0,578418;0,215515;0,215711;0,448770;0,219014;0,219164;0,578418;0,578418;0,725896;0,578418;0,536824;0,290774;0,000000;0,298258;0,297533;0,578418;0,444340;
6;;;;;;1,000000;0,543067;0,000000;0,000000;0,148868;0,539825;0,608834;0,608834;0,297253;0,308507;0,846694;0,000000;0,846694;0,619206;0,308877;0,442207;0,608834;0,750326;0,608834;0,846694;0,674885;0,608834;0,348542;0,610540;0,321189;0,324867;0,000000;0,000000;0,608834;0,608834;0,245931;0,246127;0,569568;0,249430;0,249580;0,608834;0,608834;0,846694;0,608834;0,657622;0,321189;0,000000;0,328674;0,327949;0,608834;0,799534;
7;;;;;;;1,000000;0,000000;0,000000;0,115424;0,752088;0,574202;0,574202;0,262621;0,273874;0,696373;0,000000;0,696373;0,468885;0,274245;0,407575;0,574202;0,482283;0,574202;0,696373;0,524564;0,574202;0,313910;0,577096;0,286557;0,290235;0,000000;0,000000;0,574202;0,574202;0,211299;0,211495;0,419247;0,214798;0,214948;0,574202;0,574202;0,696373;0,574202;0,507301;0,286557;0,000000;0,294042;0,293317;0,574202;0,414817;
8;;;;;;;;1,000000;0,495007;0,454130;0,000000;0,000000;0,000000;0,000000;0,000000;0,000000;0,747503;0,000000;0,000000;0,000000;0,000000;0,000000;0,000000;0,000000;0,000000;0,000000;0,000000;0,411468;0,000000;0,000000;0,000000;0,542941;0,542941;0,000000;0,000000;0,000000;0,000000;0,000000;0,000000;0,000000;0,000000;0,000000;0,000000;0,000000;0,000000;0,000000;0,747503;0,000000;0,000000;0,000000;0,000000;
9;;;;;;;;;1,000000;0,456392;0,000000;0,000000;0,000000;0,000000;0,000000;0,000000;0,747503;0,000000;0,000000;0,000000;0,000000;0,000000;0,000000;0,000000;0,000000;0,000000;0,000000;0,411468;0,000000;0,000000;0,000000;0,542941;0,542941;0,000000;0,000000;0,000000;0,000000;0,000000;0,000000;0,000000;0,000000;0,000000;0,000000;0,000000;0,000000;0,000000;0,747503;0,000000;0,000000;0,000000;0,000000;
10;;;;;;;;;;1,000000;0,119489;0,000000;0,000000;0,000000;0,000000;0,098340;0,000000;0,117807;0,153356;0,000000;0,000000;0,000000;0,116289;0,000000;0,124809;0,146570;0,000000;0,000000;0,538327;0,000000;0,000000;0,478233;0,478912;0,000000;0,000000;0,000000;0,000000;0,105917;0,000000;0,000000;0,000000;0,000000;0,249095;0,000000;0,179909;0,000000;0,000000;0,000000;0,427902;0,000000;0,142381;
11;;;;;;;;;;;1,000000;0,577356;0,577356;0,265775;0,277029;0,693131;0,000000;0,693131;0,465643;0,277399;0,410729;0,577356;0,479041;0,577356;0,693131;0,521322;0,577356;0,317064;0,581162;0,289712;0,293389;0,000000;0,000000;0,577356;0,577356;0,214453;0,214649;0,416005;0,217952;0,218102;0,577356;0,577356;0,693131;0,577356;0,504059;0,289712;0,000000;0,297196;0,296471;0,577356;0,411575;
12;;;;;;;;;;;;1,000000;1,000000;0,688419;0,699673;0,837466;0,000000;0,808721;0,609676;0,700043;0,833374;1,000000;0,665826;1,000000;0,819863;0,666015;1,000000;0,739709;0,000000;0,712356;0,716033;0,000000;0,000000;1,000000;1,000000;0,637097;0,637293;0,636432;0,640596;0,640746;1,000000;1,000000;0,703022;1,000000;0,634902;0,712356;0,000000;0,719840;0,719115;1,000000;0,598551;
13;;;;;;;;;;;;;1,000000;0,688419;0,699673;0,837466;0,000000;0,808721;0,609676;0,700043;0,833374;1,000000;0,665826;1,000000;0,819863;0,666015;1,000000;0,739709;0,000000;0,712356;0,716033;0,000000;0,000000;1,000000;1,000000;0,637097;0,637293;0,636432;0,640596;0,640746;1,000000;1,000000;0,703022;1,000000;0,634902;0,712356;0,000000;0,719840;0,719115;1,000000;0,598551;
14;;;;;;;;;;;;;;1,000000;0,388092;0,525886;0,000000;0,497140;0,298096;0,388463;0,521793;0,688419;0,354245;0,688419;0,508282;0,354434;0,688419;0,428128;0,000000;0,400775;0,404452;0,000000;0,000000;0,688419;0,688419;0,325517;0,325713;0,324852;0,329015;0,329166;0,688419;0,688419;0,391441;0,688419;0,323321;1,000000;0,000000;0,408259;0,407535;0,688419;0,286971;
15;;;;;;;;;;;;;;;1,000000;0,537139;0,000000;0,508394;0,309349;0,399716;0,533046;0,699673;0,365498;0,699673;0,519536;0,365688;0,699673;0,439381;0,000000;0,412028;0,415706;0,000000;0,000000;0,699673;0,699673;0,336770;0,336966;0,336105;0,340269;0,340419;0,699673;0,699673;0,402695;0,699673;0,334574;0,412028;0,000000;0,419513;0,418788;0,699673;0,298224;
16;;;;;;;;;;;;;;;;1,000000;0,000000;1,000000;0,772512;0,537510;0,670840;0,837466;0,785911;0,837466;1,000000;0,828191;0,837466;0,577175;0,560013;0,549822;0,553499;0,000000;0,000000;0,837466;0,837466;0,474564;0,474760;0,722874;0,478063;0,478213;0,837466;0,837466;1,000000;0,837466;0,810928;0,549822;0,000000;0,557306;0,556582;0,837466;0,718444;
17;;;;;;;;;;;;;;;;;1,000000;0,000000;0,000000;0,000000;0,000000;0,000000;0,000000;0,000000;0,000000;0,000000;0,000000;0,663965;0,000000;0,000000;0,000000;0,795437;0,795437;0,000000;0,000000;0,000000;0,000000;0,000000;0,000000;0,000000;0,000000;0,000000;0,000000;0,000000;0,000000;0,000000;1,000000;0,000000;0,000000;0,000000;0,000000;
18;;;;;;;;;;;;;;;;;;1,000000;0,772512;0,508764;0,642094;0,808721;0,785911;0,808721;1,000000;0,828191;0,808721;0,548429;0,579479;0,521076;0,524754;0,000000;0,000000;0,808721;0,808721;0,445818;0,446014;0,722874;0,449317;0,449467;0,808721;0,808721;1,000000;0,808721;0,810928;0,521076;0,000000;0,528561;0,527836;0,808721;0,718444;
19;;;;;;;;;;;;;;;;;;;1,000000;0,309720;0,443050;0,609676;0,938662;0,609676;0,772512;0,600703;0,609676;0,349385;0,615029;0,322032;0,325709;0,000000;0,000000;0,609676;0,609676;0,246773;0,246970;0,495386;0,250272;0,250423;0,609676;0,609676;0,772512;0,609676;0,583440;0,322032;0,000000;0,329516;0,328791;0,609676;0,868520;
20;;;;;;;;;;;;;;;;;;;;1,000000;0,533417;0,700043;0,365869;0,700043;0,519906;0,366058;0,700043;0,439752;0,000000;0,412399;0,416076;0,000000;0,000000;0,700043;0,700043;0,337141;0,337337;0,336476;0,340639;0,340790;0,700043;0,700043;0,403065;0,700043;0,334945;0,412399;0,000000;0,419883;0,419159;0,700043;0,298595;
21;;;;;;;;;;;;;;;;;;;;;1,000000;0,833374;0,499199;0,833374;0,653236;0,499388;0,833374;0,573082;0,000000;0,545729;0,549407;0,000000;0,000000;0,833374;0,833374;0,470471;0,470667;0,469806;0,473970;0,474120;0,833374;0,833374;0,536395;0,833374;0,468275;0,545729;0,000000;0,553213;0,552489;0,833374;0,431925;
22;;;;;;;;;;;;;;;;;;;;;;1,000000;0,665826;1,000000;0,819863;0,666015;1,000000;0,739709;0,000000;0,712356;0,716033;0,000000;0,000000;1,000000;1,000000;0,637097;0,637293;0,636432;0,640596;0,640746;1,000000;1,000000;0,703022;1,000000;0,634902;0,712356;0,000000;0,719840;0,719115;1,000000;0,598551;
23;;;;;;;;;;;;;;;;;;;;;;;1,000000;0,665826;0,785911;0,614102;0,665826;0,405534;0,577961;0,378181;0,381859;0,000000;0,000000;0,665826;0,665826;0,302923;0,303119;0,508784;0,306422;0,306572;0,665826;0,665826;0,785911;0,665826;0,596838;0,378181;0,000000;0,385666;0,384941;0,665826;0,807182;
24;;;;;;;;;;;;;;;;;;;;;;;;1,000000;0,819863;0,666015;1,000000;0,739709;0,000000;0,712356;0,716033;0,000000;0,000000;1,000000;1,000000;0,637097;0,637293;0,636432;0,640596;0,640746;1,000000;1,000000;0,703022;1,000000;0,634902;0,712356;0,000000;0,719840;0,719115;1,000000;0,598551;
25;;;;;;;;;;;;;;;;;;;;;;;;;1,000000;0,828191;0,819863;0,559572;0,586481;0,532219;0,535896;0,000000;0,000000;0,819863;0,819863;0,456960;0,457156;0,722874;0,460459;0,460609;0,819863;0,819863;1,000000;0,819863;0,810928;0,532219;0,000000;0,539703;0,538978;0,819863;0,718444;
26;;;;;;;;;;;;;;;;;;;;;;;;;;1,000000;0,666015;0,405723;0,608243;0,378371;0,382048;0,000000;0,000000;0,666015;0,666015;0,659168;0,659664;0,551065;0,306611;0,306761;0,666015;0,666015;0,828191;0,666015;0,639119;0,378371;0,000000;0,385855;0,385130;0,666015;0,546635;
27;;;;;;;;;;;;;;;;;;;;;;;;;;;1,000000;0,739709;0,000000;0,712356;0,716033;0,000000;0,000000;1,000000;1,000000;0,637097;0,637293;0,636432;0,640596;0,640746;1,000000;1,000000;0,703022;1,000000;0,634902;0,712356;0,000000;0,719840;0,719115;1,000000;0,598551;
28;;;;;;;;;;;;;;;;;;;;;;;;;;;;1,000000;0,000000;0,452064;0,455742;0,459402;0,459402;0,739709;0,739709;0,376806;0,377002;0,376141;0,380305;0,380455;0,739709;0,739709;0,442730;0,739709;0,374610;0,452064;0,663965;0,459549;0,458824;0,739709;0,338260;
29;;;;;;;;;;;;;;;;;;;;;;;;;;;;;1,000000;0,000000;0,000000;0,000000;0,000000;0,000000;0,000000;0,000000;0,000000;0,567590;0,000000;0,000000;0,000000;0,000000;0,710768;0,000000;0,641582;0,000000;0,000000;0,000000;0,000000;0,000000;0,604054;
30;;;;;;;;;;;;;;;;;;;;;;;;;;;;;;1,000000;0,428389;0,000000;0,000000;0,712356;0,712356;0,349453;0,349649;0,348788;0,352952;0,353102;0,712356;0,712356;0,415378;0,712356;0,347257;0,424711;0,000000;1,000000;0,431471;0,712356;0,310907;
31;;;;;;;;;;;;;;;;;;;;;;;;;;;;;;;1,000000;0,000000;0,000000;0,716033;0,716033;0,353130;0,353326;0,352465;0,356629;0,356779;0,716033;0,716033;0,419055;0,716033;0,350935;0,428389;0,000000;0,435873;0,435148;0,716033;0,314584;
32;;;;;;;;;;;;;;;;;;;;;;;;;;;;;;;;1,000000;0,590875;0,000000;0,000000;0,000000;0,000000;0,000000;0,000000;0,000000;0,000000;0,000000;0,000000;0,000000;0,000000;0,000000;0,795437;0,000000;0,000000;0,000000;0,000000;
33;;;;;;;;;;;;;;;;;;;;;;;;;;;;;;;;;1,000000;0,000000;0,000000;0,000000;0,000000;0,000000;0,000000;0,000000;0,000000;0,000000;0,000000;0,000000;0,000000;0,000000;0,795437;0,000000;0,000000;0,000000;0,000000;
34;;;;;;;;;;;;;;;;;;;;;;;;;;;;;;;;;;1,000000;1,000000;0,637097;0,637293;0,636432;0,640596;0,640746;1,000000;1,000000;0,703022;1,000000;0,634902;0,712356;0,000000;0,719840;0,719115;1,000000;0,598551;
35;;;;;;;;;;;;;;;;;;;;;;;;;;;;;;;;;;;1,000000;0,637097;0,637293;0,636432;0,640596;0,640746;1,000000;1,000000;0,703022;1,000000;0,634902;0,712356;0,000000;0,719840;0,719115;1,000000;0,598551;
36;;;;;;;;;;;;;;;;;;;;;;;;;;;;;;;;;;;;1,000000;0,705559;0,273529;0,277693;0,277844;0,637097;0,637097;0,340119;0,637097;0,271999;0,349453;0,000000;0,356937;0,356212;0,637097;0,235648;
37;;;;;;;;;;;;;;;;;;;;;;;;;;;;;;;;;;;;;1,000000;0,273726;0,277889;0,278040;0,637293;0,637293;0,340315;0,637293;0,272195;0,349649;0,000000;0,357133;0,356409;0,637293;0,235845;
38;;;;;;;;;;;;;;;;;;;;;;;;;;;;;;;;;;;;;;1,000000;0,659906;0,660291;0,636432;0,636432;0,722874;0,636432;0,533802;0,348788;0,000000;0,356272;0,355547;0,636432;0,441318;
39;;;;;;;;;;;;;;;;;;;;;;;;;;;;;;;;;;;;;;;1,000000;0,717760;0,640596;0,640596;0,343618;0,640596;0,704600;0,352952;0,000000;0,360436;0,359711;0,640596;0,239147;
40;;;;;;;;;;;;;;;;;;;;;;;;;;;;;;;;;;;;;;;;1,000000;0,640746;0,640746;0,343768;0,640746;0,704600;0,353102;0,000000;0,360586;0,359862;0,640746;0,239298;
41;;;;;;;;;;;;;;;;;;;;;;;;;;;;;;;;;;;;;;;;;1,000000;1,000000;0,703022;1,000000;0,634902;0,712356;0,000000;0,719840;0,719115;1,000000;0,598551;
42;;;;;;;;;;;;;;;;;;;;;;;;;;;;;;;;;;;;;;;;;;1,000000;0,703022;1,000000;0,634902;0,712356;0,000000;0,719840;0,719115;1,000000;0,598551;
43;;;;;;;;;;;;;;;;;;;;;;;;;;;;;;;;;;;;;;;;;;;1,000000;0,703022;0,810928;0,415378;0,000000;0,422862;0,422137;0,703022;0,718444;
44;;;;;;;;;;;;;;;;;;;;;;;;;;;;;;;;;;;;;;;;;;;;1,000000;0,634902;0,712356;0,000000;0,719840;0,719115;1,000000;0,598551;
45;;;;;;;;;;;;;;;;;;;;;;;;;;;;;;;;;;;;;;;;;;;;;1,000000;0,347257;0,000000;0,354742;0,354017;0,634902;0,529372;
46;;;;;;;;;;;;;;;;;;;;;;;;;;;;;;;;;;;;;;;;;;;;;;1,000000;0,000000;0,432196;0,431471;0,712356;0,310907;
47;;;;;;;;;;;;;;;;;;;;;;;;;;;;;;;;;;;;;;;;;;;;;;;1,000000;0,000000;0,000000;0,000000;0,000000;
48;;;;;;;;;;;;;;;;;;;;;;;;;;;;;;;;;;;;;;;;;;;;;;;;1,000000;0,438955;0,719840;0,318391;
49;;;;;;;;;;;;;;;;;;;;;;;;;;;;;;;;;;;;;;;;;;;;;;;;;1,000000;0,719115;0,317666;
50;;;;;;;;;;;;;;;;;;;;;;;;;;;;;;;;;;;;;;;;;;;;;;;;;;1,000000;0,598551;
51;;;;;;;;;;;;;;;;;;;;;;;;;;;;;;;;;;;;;;;;;;;;;;;;;;;1,000000;
