;1; 2; 3; 4; 5; 6; 7; 8; 9; 10; 11; 12; 13; 14
1;1,000000;0,391001;0,244009;0,271465;0,000000;0,000000;0,363051;0,358288;0,307668;0,307668;0,307668;0,521264;0,521264;0,521264;
2;;1,000000;0,291846;0,380464;0,000000;0,000000;0,472050;0,467287;0,416667;0,416667;0,416667;0,416667;0,416667;0,416667;
3;;;1,000000;0,488840;0,686928;0,614227;0,343757;0,565219;0,409327;0,409327;0,614227;0,208512;0,208512;0,208512;
4;;;;1,000000;0,578591;0,640122;0,555618;0,775323;0,297130;0,297130;0,740114;0,000000;0,000000;0,000000;
5;;;;;1,000000;0,739368;0,464671;0,336846;0,000000;0,000000;0,739368;0,000000;0,000000;0,000000;
6;;;;;;1,000000;0,514733;0,300495;0,000000;0,000000;0,666667;0,000000;0,000000;0,000000;
7;;;;;;;1,000000;0,439337;0,590406;0,590406;0,737930;0,000000;0,000000;0,000000;
8;;;;;;;;1,000000;0,620021;0,620021;0,701876;0,000000;0,000000;0,000000;
9;;;;;;;;;1,000000;0,666667;0,333333;0,000000;0,000000;0,000000;
10;;;;;;;;;;1,000000;0,333333;0,000000;0,000000;0,000000;
11;;;;;;;;;;;1,000000;0,000000;0,000000;0,000000;
12;;;;;;;;;;;;1,000000;0,666667;0,666667;
13;;;;;;;;;;;;;1,000000;0,666667;
14;;;;;;;;;;;;;;1,000000;
