;1; 2; 3; 4; 5; 6; 7; 8; 9; 10; 11; 12; 13; 14; 15; 16; 17; 18; 19; 20; 21; 22; 23; 24; 25; 26; 27; 28
1;1,000000;0,228224;0,375469;0,188458;0,326608;0,406394;0,226578;0,254431;0,369000;0,336885;0,416125;0,352471;0,418172;0,441448;0,443832;0,445999;0,378985;0,000000;0,365824;0,271492;0,569563;0,355169;0,356599;0,404198;0,405227;0,406199;0,266899;0,270855;
2;;1,000000;0,292310;0,672922;0,551588;0,402216;0,316699;0,344932;0,498178;0,275383;0,542074;0,284548;0,283602;0,600405;0,602984;0,605341;0,285593;0,663706;0,518105;0,355111;0,281093;0,380234;0,380234;0,304375;0,304629;0,304893;0,374674;0,761157;
3;;;1,000000;0,376722;0,423717;0,639350;0,725406;0,653338;0,459745;0,760046;0,434359;0,469910;0,500085;0,440709;0,441293;0,441912;0,468789;0,628604;0,469910;0,725406;0,262469;0,345131;0,345131;0,269272;0,269527;0,269790;0,665322;0,332580;
4;;;;1,000000;0,603187;0,335990;0,401111;0,429344;0,549776;0,359795;0,735979;0,632694;0,559785;0,335186;0,335988;0,336760;0,629348;0,748119;0,643750;0,439523;0,300440;0,464646;0,464646;0,388787;0,389042;0,389305;0,459086;0,812756;
5;;;;;1,000000;0,339758;0,267095;0,661461;0,527451;0,468772;0,611757;0,489685;0,393584;0,201170;0,201972;0,202744;0,235990;0,614103;0,489685;0,305507;0,000000;0,330630;0,330630;0,254772;0,255026;0,255289;0,685097;0,790431;
6;;;;;;1,000000;0,658033;0,269097;0,218540;0,438337;0,384566;0,459250;0,550146;0,373336;0,373920;0,374539;0,483795;0,587871;0,459250;0,658033;0,270042;0,304398;0,304398;0,228540;0,228794;0,229057;0,654662;0,291848;
7;;;;;;;1,000000;0,334218;0,283661;0,264669;0,300296;0,273834;0,272888;0,715303;0,715887;0,716506;0,274879;0,652992;0,277572;1,000000;0,393354;0,369519;0,369519;0,293661;0,293915;0,294178;0,363960;0,356969;
8;;;;;;;;1,000000;0,311894;0,292902;0,328529;0,302067;0,301121;0,268292;0,269095;0,269867;0,303112;0,681225;0,305805;0,372630;0,000000;0,397753;0,397753;0,321894;0,322148;0,322412;0,392193;0,385202;
9;;;;;;;;;1,000000;0,545512;0,653095;0,251510;0,250564;0,217735;0,218538;0,219310;0,252556;0,630669;0,255248;0,322073;0,000000;0,347196;0,347196;0,271337;0,271592;0,271855;0,341636;0,737020;
10;;;;;;;;;;1,000000;0,520126;0,588263;0,492162;0,198744;0,199546;0,200318;0,233564;0,611677;0,588263;0,303081;0,000000;0,328204;0,328204;0,252345;0,252600;0,252863;0,783675;0,315654;
11;;;;;;;;;;;1,000000;0,513130;0,445714;0,234370;0,235173;0,235945;0,509784;0,647304;0,517751;0,338708;0,302021;0,363831;0,363831;0,287972;0,288227;0,288490;0,358271;0,712221;
12;;;;;;;;;;;;1,000000;0,513075;0,207908;0,208711;0,209482;0,650751;0,620841;0,609176;0,312245;0,000000;0,337368;0,337368;0,261510;0,261764;0,262027;0,804588;0,324818;
13;;;;;;;;;;;;;1,000000;0,206962;0,207765;0,208536;0,537270;0,619895;0,513075;0,311299;0,000000;0,336422;0,336422;0,260564;0,260818;0,261081;0,708487;0,323872;
14;;;;;;;;;;;;;;1,000000;0,731144;0,733109;0,208954;0,587067;0,211647;0,715303;0,326075;0,303594;0,303594;0,227735;0,227990;0,228253;0,298035;0,291044;
15;;;;;;;;;;;;;;;1,000000;0,734982;0,209757;0,587869;0,212449;0,715887;0,327049;0,304397;0,304397;0,228538;0,228792;0,229056;0,298837;0,291846;
16;;;;;;;;;;;;;;;;1,000000;0,210528;0,588641;0,213221;0,716506;0,327978;0,305168;0,305168;0,229310;0,229564;0,229827;0,299609;0,292618;
17;;;;;;;;;;;;;;;;;1,000000;0,621887;0,246467;0,313291;0,000000;0,338414;0,338414;0,262556;0,262810;0,263073;0,332855;0,325864;
18;;;;;;;;;;;;;;;;;;1,000000;0,624580;0,691404;0,000000;0,716527;0,716527;0,640669;0,640923;0,641186;0,710968;0,703977;
19;;;;;;;;;;;;;;;;;;;1,000000;0,315984;0,459685;0,341107;0,341107;0,265248;0,265503;0,265766;0,804588;0,328556;
20;;;;;;;;;;;;;;;;;;;;1,000000;0,438268;0,407931;0,407931;0,332073;0,332327;0,332590;0,402372;0,395381;
21;;;;;;;;;;;;;;;;;;;;;1,000000;0,000000;0,000000;0,000000;0,000000;0,000000;0,000000;0,000000;
22;;;;;;;;;;;;;;;;;;;;;;1,000000;0,433054;0,357196;0,357450;0,357713;0,427495;0,420504;
23;;;;;;;;;;;;;;;;;;;;;;;1,000000;0,357196;0,357450;0,357713;0,427495;0,420504;
24;;;;;;;;;;;;;;;;;;;;;;;;1,000000;0,747027;0,748004;0,351636;0,344645;
25;;;;;;;;;;;;;;;;;;;;;;;;;1,000000;0,748955;0,351891;0,344900;
26;;;;;;;;;;;;;;;;;;;;;;;;;;1,000000;0,352154;0,345163;
27;;;;;;;;;;;;;;;;;;;;;;;;;;;1,000000;0,414944;
28;;;;;;;;;;;;;;;;;;;;;;;;;;;;1,000000;
