<?xml version="1.0" encoding="UTF-8" standalone="no"?>
<!-- Created by igraph (http://igraph.org/) for use in Inkscape (http://www.inkscape.org/) -->

<svg xmlns:dc="http://purl.org/dc/elements/1.1/" xmlns:cc="http://creativecommons.org/ns#" xmlns:rdf="http://www.w3.org/1999/02/22-rdf-syntax-ns#" xmlns:svg="http://www.w3.org/2000/svg" xmlns="http://www.w3.org/2000/svg" xmlns:sodipodi="http://sodipodi.sourceforge.net/DTD/sodipodi-0.dtd" xmlns:inkscape="http://www.inkscape.org/namespaces/inkscape"
width="400px" height="400px"> <defs id="defs3">
<marker
   inkscape:stockid="Arrow2Lend0"
   orient="auto"
   refY="0.0"
   refX="0.0"
   id="Arrow2Lend0"
   style="overflow:visible;">
  <path
     id="pathArrow0"
     style="font-size:12.0;fill-rule:evenodd;stroke-width:0.62500000;stroke-linejoin:round;fill:black"
     d="M 8.7185878,4.0337352 L -2.2072895,0.016013256 L 8.7185884,-4.0017078 C 6.9730900,-1.6296469 6.9831476,1.6157441 8.7185878,4.0337352 z "
     transform="scale(1.1) rotate(180) translate(1,0)" />
</marker>
</defs>
<g inkscape:groupmode="layer" id="layer2" inkscape:label="Lines" sodipodi:insensitive="true">
<path
    style="fill:none;stroke:black;stroke-width:2;stroke-linecap:butt;stroke-linejoin:miter;stroke-miterlimit:4;stroke-opacity:1;stroke-dasharray:none"
    d="M 199.21906269368284,237.83666233091387 263.33178568972255,164.55365804459115"
    id="path0"
    inkscape:connector-type="polyline"
    inkscape:connector-curvature="0"
    inkscape:connection-start="#g0"
    inkscape:connection-start-point="d4"
    inkscape:connection-end="#g1"
    inkscape:connection-end-point="d4" />
<path
    style="fill:none;stroke:black;stroke-width:2;stroke-linecap:butt;stroke-linejoin:miter;stroke-miterlimit:4;stroke-opacity:1;stroke-dasharray:none"
    d="M 199.21906269368284,237.83666233091387 263.33178568972255,164.55365804459115"
    id="path1"
    inkscape:connector-type="polyline"
    inkscape:connector-curvature="0"
    inkscape:connection-start="#g0"
    inkscape:connection-start-point="d4"
    inkscape:connection-end="#g1"
    inkscape:connection-end-point="d4" />
<path
    style="fill:none;stroke:black;stroke-width:2;stroke-linecap:butt;stroke-linejoin:miter;stroke-miterlimit:4;stroke-opacity:1;stroke-dasharray:none"
    d="M 199.21906269368284,237.83666233091387 263.33178568972255,164.55365804459115"
    id="path2"
    inkscape:connector-type="polyline"
    inkscape:connector-curvature="0"
    inkscape:connection-start="#g0"
    inkscape:connection-start-point="d4"
    inkscape:connection-end="#g1"
    inkscape:connection-end-point="d4" />
<path
    style="fill:none;stroke:black;stroke-width:2;stroke-linecap:butt;stroke-linejoin:miter;stroke-miterlimit:4;stroke-opacity:1;stroke-dasharray:none"
    d="M 199.21906269368284,237.83666233091387 263.33178568972255,164.55365804459115"
    id="path3"
    inkscape:connector-type="polyline"
    inkscape:connector-curvature="0"
    inkscape:connection-start="#g0"
    inkscape:connection-start-point="d4"
    inkscape:connection-end="#g1"
    inkscape:connection-end-point="d4" />
<path
    style="fill:none;stroke:black;stroke-width:2;stroke-linecap:butt;stroke-linejoin:miter;stroke-miterlimit:4;stroke-opacity:1;stroke-dasharray:none"
    d="M 199.21906269368284,237.83666233091387 195.78588641520787,288.43600804031496"
    id="path4"
    inkscape:connector-type="polyline"
    inkscape:connector-curvature="0"
    inkscape:connection-start="#g0"
    inkscape:connection-start-point="d4"
    inkscape:connection-end="#g2"
    inkscape:connection-end-point="d4" />
<path
    style="fill:none;stroke:black;stroke-width:2;stroke-linecap:butt;stroke-linejoin:miter;stroke-miterlimit:4;stroke-opacity:1;stroke-dasharray:none"
    d="M 269.91625555915283,157.02738695336907 199.78567272283152,289.5740544279377"
    id="path5"
    inkscape:connector-type="polyline"
    inkscape:connector-curvature="0"
    inkscape:connection-start="#g1"
    inkscape:connection-start-point="d4"
    inkscape:connection-end="#g2"
    inkscape:connection-end-point="d4" />
<path
    style="fill:none;stroke:black;stroke-width:2;stroke-linecap:butt;stroke-linejoin:miter;stroke-miterlimit:4;stroke-opacity:1;stroke-dasharray:none"
    d="M 199.21906269368284,237.83666233091387 258.552488545742,274.27543875622126"
    id="path6"
    inkscape:connector-type="polyline"
    inkscape:connector-curvature="0"
    inkscape:connection-start="#g0"
    inkscape:connection-start-point="d4"
    inkscape:connection-end="#g3"
    inkscape:connection-end-point="d4" />
<path
    style="fill:none;stroke:black;stroke-width:2;stroke-linecap:butt;stroke-linejoin:miter;stroke-miterlimit:4;stroke-opacity:1;stroke-dasharray:none"
    d="M 199.21906269368284,237.83666233091387 263.33178568972255,164.55365804459115"
    id="path7"
    inkscape:connector-type="polyline"
    inkscape:connector-curvature="0"
    inkscape:connection-start="#g0"
    inkscape:connection-start-point="d4"
    inkscape:connection-end="#g1"
    inkscape:connection-end-point="d4" />
<path
    style="fill:none;stroke:black;stroke-width:2;stroke-linecap:butt;stroke-linejoin:miter;stroke-miterlimit:4;stroke-opacity:1;stroke-dasharray:none"
    d="M 199.21906269368284,237.83666233091387 263.33178568972255,164.55365804459115"
    id="path8"
    inkscape:connector-type="polyline"
    inkscape:connector-curvature="0"
    inkscape:connection-start="#g0"
    inkscape:connection-start-point="d4"
    inkscape:connection-end="#g1"
    inkscape:connection-end-point="d4" />
<path
    style="fill:none;stroke:black;stroke-width:2;stroke-linecap:butt;stroke-linejoin:miter;stroke-miterlimit:4;stroke-opacity:1;stroke-dasharray:none"
    d="M 199.21906269368284,237.83666233091387 195.78588641520787,288.43600804031496"
    id="path9"
    inkscape:connector-type="polyline"
    inkscape:connector-curvature="0"
    inkscape:connection-start="#g0"
    inkscape:connection-start-point="d4"
    inkscape:connection-end="#g2"
    inkscape:connection-end-point="d4" />
<path
    style="fill:none;stroke:black;stroke-width:2;stroke-linecap:butt;stroke-linejoin:miter;stroke-miterlimit:4;stroke-opacity:1;stroke-dasharray:none"
    d="M 269.91625555915283,157.02738695336907 199.78567272283152,289.5740544279377"
    id="path10"
    inkscape:connector-type="polyline"
    inkscape:connector-curvature="0"
    inkscape:connection-start="#g1"
    inkscape:connection-start-point="d4"
    inkscape:connection-end="#g2"
    inkscape:connection-end-point="d4" />
<path
    style="fill:none;stroke:black;stroke-width:2;stroke-linecap:butt;stroke-linejoin:miter;stroke-miterlimit:4;stroke-opacity:1;stroke-dasharray:none"
    d="M 199.21906269368284,237.83666233091387 195.78588641520787,288.43600804031496"
    id="path11"
    inkscape:connector-type="polyline"
    inkscape:connector-curvature="0"
    inkscape:connection-start="#g0"
    inkscape:connection-start-point="d4"
    inkscape:connection-end="#g2"
    inkscape:connection-end-point="d4" />
<path
    style="fill:none;stroke:black;stroke-width:2;stroke-linecap:butt;stroke-linejoin:miter;stroke-miterlimit:4;stroke-opacity:1;stroke-dasharray:none"
    d="M 199.21906269368284,237.83666233091387 131.88873426115407,367.2747693335547"
    id="path12"
    inkscape:connector-type="polyline"
    inkscape:connector-curvature="0"
    inkscape:connection-start="#g0"
    inkscape:connection-start-point="d4"
    inkscape:connection-end="#g4"
    inkscape:connection-end-point="d4" />
<path
    style="fill:none;stroke:black;stroke-width:2;stroke-linecap:butt;stroke-linejoin:miter;stroke-miterlimit:4;stroke-opacity:1;stroke-dasharray:none"
    d="M 195.10894072770938,298.4130689570468 133.84906151541628,368.6118205903685"
    id="path13"
    inkscape:connector-type="polyline"
    inkscape:connector-curvature="0"
    inkscape:connection-start="#g2"
    inkscape:connection-start-point="d4"
    inkscape:connection-end="#g4"
    inkscape:connection-end-point="d4" />
<path
    style="fill:none;stroke:black;stroke-width:2;stroke-linecap:butt;stroke-linejoin:miter;stroke-miterlimit:4;stroke-opacity:1;stroke-dasharray:none"
    d="M 199.21906269368284,237.83666233091387 258.552488545742,274.27543875622126"
    id="path14"
    inkscape:connector-type="polyline"
    inkscape:connector-curvature="0"
    inkscape:connection-start="#g0"
    inkscape:connection-start-point="d4"
    inkscape:connection-end="#g3"
    inkscape:connection-end-point="d4" />
<path
    style="fill:none;stroke:black;stroke-width:2;stroke-linecap:butt;stroke-linejoin:miter;stroke-miterlimit:4;stroke-opacity:1;stroke-dasharray:none"
    d="M 199.21906269368284,237.83666233091387 258.552488545742,274.27543875622126"
    id="path15"
    inkscape:connector-type="polyline"
    inkscape:connector-curvature="0"
    inkscape:connection-start="#g0"
    inkscape:connection-start-point="d4"
    inkscape:connection-end="#g3"
    inkscape:connection-end-point="d4" />
<path
    style="fill:none;stroke:black;stroke-width:2;stroke-linecap:butt;stroke-linejoin:miter;stroke-miterlimit:4;stroke-opacity:1;stroke-dasharray:none"
    d="M 199.21906269368284,237.83666233091387 199.7514594763236,154.572900931022"
    id="path16"
    inkscape:connector-type="polyline"
    inkscape:connector-curvature="0"
    inkscape:connection-start="#g0"
    inkscape:connection-start-point="d4"
    inkscape:connection-end="#g5"
    inkscape:connection-end-point="d4" />
<path
    style="fill:none;stroke:black;stroke-width:2;stroke-linecap:butt;stroke-linejoin:miter;stroke-miterlimit:4;stroke-opacity:1;stroke-dasharray:none"
    d="M 267.0738183892479,279.50869182655674 204.27642201563464,153.52292518501946"
    id="path17"
    inkscape:connector-type="polyline"
    inkscape:connector-curvature="0"
    inkscape:connection-start="#g3"
    inkscape:connection-start-point="d4"
    inkscape:connection-end="#g5"
    inkscape:connection-end-point="d4" />
<path
    style="fill:none;stroke:black;stroke-width:2;stroke-linecap:butt;stroke-linejoin:miter;stroke-miterlimit:4;stroke-opacity:1;stroke-dasharray:none"
    d="M 199.21906269368284,237.83666233091387 263.33178568972255,164.55365804459115"
    id="path18"
    inkscape:connector-type="polyline"
    inkscape:connector-curvature="0"
    inkscape:connection-start="#g0"
    inkscape:connection-start-point="d4"
    inkscape:connection-end="#g1"
    inkscape:connection-end-point="d4" />
<path
    style="fill:none;stroke:black;stroke-width:2;stroke-linecap:butt;stroke-linejoin:miter;stroke-miterlimit:4;stroke-opacity:1;stroke-dasharray:none"
    d="M 199.21906269368284,237.83666233091387 263.33178568972255,164.55365804459115"
    id="path19"
    inkscape:connector-type="polyline"
    inkscape:connector-curvature="0"
    inkscape:connection-start="#g0"
    inkscape:connection-start-point="d4"
    inkscape:connection-end="#g1"
    inkscape:connection-end-point="d4" />
<path
    style="fill:none;stroke:black;stroke-width:2;stroke-linecap:butt;stroke-linejoin:miter;stroke-miterlimit:4;stroke-opacity:1;stroke-dasharray:none"
    d="M 269.91625555915283,157.02738695336907 200.62430112522165,96.11139447294855"
    id="path20"
    inkscape:connector-type="polyline"
    inkscape:connector-curvature="0"
    inkscape:connection-start="#g1"
    inkscape:connection-start-point="d4"
    inkscape:connection-end="#g6"
    inkscape:connection-end-point="d4" />
<path
    style="fill:none;stroke:black;stroke-width:2;stroke-linecap:butt;stroke-linejoin:miter;stroke-miterlimit:4;stroke-opacity:1;stroke-dasharray:none"
    d="M 199.21906269368284,237.83666233091387 193.52514340765478,99.50037806815558"
    id="path21"
    inkscape:connector-type="polyline"
    inkscape:connector-curvature="0"
    inkscape:connection-start="#g0"
    inkscape:connection-start-point="d4"
    inkscape:connection-end="#g6"
    inkscape:connection-end-point="d4" />
<path
    style="fill:none;stroke:black;stroke-width:2;stroke-linecap:butt;stroke-linejoin:miter;stroke-miterlimit:4;stroke-opacity:1;stroke-dasharray:none"
    d="M 199.21906269368284,237.83666233091387 263.33178568972255,164.55365804459115"
    id="path22"
    inkscape:connector-type="polyline"
    inkscape:connector-curvature="0"
    inkscape:connection-start="#g0"
    inkscape:connection-start-point="d4"
    inkscape:connection-end="#g1"
    inkscape:connection-end-point="d4" />
<path
    style="fill:none;stroke:black;stroke-width:2;stroke-linecap:butt;stroke-linejoin:miter;stroke-miterlimit:4;stroke-opacity:1;stroke-dasharray:none"
    d="M 199.21906269368284,237.83666233091387 19.995239955340885,232.30480035658877"
    id="path23"
    inkscape:connector-type="polyline"
    inkscape:connector-curvature="0"
    inkscape:connection-start="#g0"
    inkscape:connection-start-point="d4"
    inkscape:connection-end="#g7"
    inkscape:connection-end-point="d4" />
<path
    style="fill:none;stroke:black;stroke-width:2;stroke-linecap:butt;stroke-linejoin:miter;stroke-miterlimit:4;stroke-opacity:1;stroke-dasharray:none"
    d="M 199.21906269368284,237.83666233091387 78.76304986189852,302.6873770523348"
    id="path24"
    inkscape:connector-type="polyline"
    inkscape:connector-curvature="0"
    inkscape:connection-start="#g0"
    inkscape:connection-start-point="d4"
    inkscape:connection-end="#g8"
    inkscape:connection-end-point="d4" />
<path
    style="fill:none;stroke:black;stroke-width:2;stroke-linecap:butt;stroke-linejoin:miter;stroke-miterlimit:4;stroke-opacity:1;stroke-dasharray:none"
    d="M 10.0,231.9962906563246 63.73560813308515,299.5995462021983"
    id="path25"
    inkscape:connector-type="polyline"
    inkscape:connector-curvature="0"
    inkscape:connection-start="#g7"
    inkscape:connection-start-point="d4"
    inkscape:connection-end="#g8"
    inkscape:connection-end-point="d4" />
<path
    style="fill:none;stroke:black;stroke-width:2;stroke-linecap:butt;stroke-linejoin:miter;stroke-miterlimit:4;stroke-opacity:1;stroke-dasharray:none"
    d="M 199.21906269368284,237.83666233091387 258.552488545742,274.27543875622126"
    id="path26"
    inkscape:connector-type="polyline"
    inkscape:connector-curvature="0"
    inkscape:connection-start="#g0"
    inkscape:connection-start-point="d4"
    inkscape:connection-end="#g3"
    inkscape:connection-end-point="d4" />
<path
    style="fill:none;stroke:black;stroke-width:2;stroke-linecap:butt;stroke-linejoin:miter;stroke-miterlimit:4;stroke-opacity:1;stroke-dasharray:none"
    d="M 199.21906269368284,237.83666233091387 263.33178568972255,164.55365804459115"
    id="path27"
    inkscape:connector-type="polyline"
    inkscape:connector-curvature="0"
    inkscape:connection-start="#g0"
    inkscape:connection-start-point="d4"
    inkscape:connection-end="#g1"
    inkscape:connection-end-point="d4" />
<path
    style="fill:none;stroke:black;stroke-width:2;stroke-linecap:butt;stroke-linejoin:miter;stroke-miterlimit:4;stroke-opacity:1;stroke-dasharray:none"
    d="M 199.21906269368284,237.83666233091387 195.78588641520787,288.43600804031496"
    id="path28"
    inkscape:connector-type="polyline"
    inkscape:connector-curvature="0"
    inkscape:connection-start="#g0"
    inkscape:connection-start-point="d4"
    inkscape:connection-end="#g2"
    inkscape:connection-end-point="d4" />
<path
    style="fill:none;stroke:black;stroke-width:2;stroke-linecap:butt;stroke-linejoin:miter;stroke-miterlimit:4;stroke-opacity:1;stroke-dasharray:none"
    d="M 269.91625555915283,157.02738695336907 199.78567272283152,289.5740544279377"
    id="path29"
    inkscape:connector-type="polyline"
    inkscape:connector-curvature="0"
    inkscape:connection-start="#g1"
    inkscape:connection-start-point="d4"
    inkscape:connection-end="#g2"
    inkscape:connection-end-point="d4" />
<path
    style="fill:none;stroke:black;stroke-width:2;stroke-linecap:butt;stroke-linejoin:miter;stroke-miterlimit:4;stroke-opacity:1;stroke-dasharray:none"
    d="M 199.21906269368284,237.83666233091387 258.552488545742,274.27543875622126"
    id="path30"
    inkscape:connector-type="polyline"
    inkscape:connector-curvature="0"
    inkscape:connection-start="#g0"
    inkscape:connection-start-point="d4"
    inkscape:connection-end="#g3"
    inkscape:connection-end-point="d4" />
<path
    style="fill:none;stroke:black;stroke-width:2;stroke-linecap:butt;stroke-linejoin:miter;stroke-miterlimit:4;stroke-opacity:1;stroke-dasharray:none"
    d="M 199.21906269368284,237.83666233091387 195.78588641520787,288.43600804031496"
    id="path31"
    inkscape:connector-type="polyline"
    inkscape:connector-curvature="0"
    inkscape:connection-start="#g0"
    inkscape:connection-start-point="d4"
    inkscape:connection-end="#g2"
    inkscape:connection-end-point="d4" />
<path
    style="fill:none;stroke:black;stroke-width:2;stroke-linecap:butt;stroke-linejoin:miter;stroke-miterlimit:4;stroke-opacity:1;stroke-dasharray:none"
    d="M 195.10894072770938,298.4130689570468 257.40195764645875,282.0493826326357"
    id="path32"
    inkscape:connector-type="polyline"
    inkscape:connector-curvature="0"
    inkscape:connection-start="#g2"
    inkscape:connection-start-point="d4"
    inkscape:connection-end="#g3"
    inkscape:connection-end-point="d4" />
<path
    style="fill:none;stroke:black;stroke-width:2;stroke-linecap:butt;stroke-linejoin:miter;stroke-miterlimit:4;stroke-opacity:1;stroke-dasharray:none"
    d="M 199.21906269368284,237.83666233091387 195.78588641520787,288.43600804031496"
    id="path33"
    inkscape:connector-type="polyline"
    inkscape:connector-curvature="0"
    inkscape:connection-start="#g0"
    inkscape:connection-start-point="d4"
    inkscape:connection-end="#g2"
    inkscape:connection-end-point="d4" />
<path
    style="fill:none;stroke:black;stroke-width:2;stroke-linecap:butt;stroke-linejoin:miter;stroke-miterlimit:4;stroke-opacity:1;stroke-dasharray:none"
    d="M 199.21906269368284,237.83666233091387 131.88873426115407,367.2747693335547"
    id="path34"
    inkscape:connector-type="polyline"
    inkscape:connector-curvature="0"
    inkscape:connection-start="#g0"
    inkscape:connection-start-point="d4"
    inkscape:connection-end="#g4"
    inkscape:connection-end-point="d4" />
<path
    style="fill:none;stroke:black;stroke-width:2;stroke-linecap:butt;stroke-linejoin:miter;stroke-miterlimit:4;stroke-opacity:1;stroke-dasharray:none"
    d="M 195.10894072770938,298.4130689570468 133.84906151541628,368.6118205903685"
    id="path35"
    inkscape:connector-type="polyline"
    inkscape:connector-curvature="0"
    inkscape:connection-start="#g2"
    inkscape:connection-start-point="d4"
    inkscape:connection-end="#g4"
    inkscape:connection-end-point="d4" />
<path
    style="fill:none;stroke:black;stroke-width:2;stroke-linecap:butt;stroke-linejoin:miter;stroke-miterlimit:4;stroke-opacity:1;stroke-dasharray:none"
    d="M 199.21906269368284,237.83666233091387 263.33178568972255,164.55365804459115"
    id="path36"
    inkscape:connector-type="polyline"
    inkscape:connector-curvature="0"
    inkscape:connection-start="#g0"
    inkscape:connection-start-point="d4"
    inkscape:connection-end="#g1"
    inkscape:connection-end-point="d4" />
<path
    style="fill:none;stroke:black;stroke-width:2;stroke-linecap:butt;stroke-linejoin:miter;stroke-miterlimit:4;stroke-opacity:1;stroke-dasharray:none"
    d="M 199.21906269368284,237.83666233091387 195.78588641520787,288.43600804031496"
    id="path37"
    inkscape:connector-type="polyline"
    inkscape:connector-curvature="0"
    inkscape:connection-start="#g0"
    inkscape:connection-start-point="d4"
    inkscape:connection-end="#g2"
    inkscape:connection-end-point="d4" />
<path
    style="fill:none;stroke:black;stroke-width:2;stroke-linecap:butt;stroke-linejoin:miter;stroke-miterlimit:4;stroke-opacity:1;stroke-dasharray:none"
    d="M 199.21906269368284,237.83666233091387 263.33178568972255,164.55365804459115"
    id="path38"
    inkscape:connector-type="polyline"
    inkscape:connector-curvature="0"
    inkscape:connection-start="#g0"
    inkscape:connection-start-point="d4"
    inkscape:connection-end="#g1"
    inkscape:connection-end-point="d4" />
<path
    style="fill:none;stroke:black;stroke-width:2;stroke-linecap:butt;stroke-linejoin:miter;stroke-miterlimit:4;stroke-opacity:1;stroke-dasharray:none"
    d="M 269.91625555915283,157.02738695336907 199.78567272283152,289.5740544279377"
    id="path39"
    inkscape:connector-type="polyline"
    inkscape:connector-curvature="0"
    inkscape:connection-start="#g1"
    inkscape:connection-start-point="d4"
    inkscape:connection-end="#g2"
    inkscape:connection-end-point="d4" />
<path
    style="fill:none;stroke:black;stroke-width:2;stroke-linecap:butt;stroke-linejoin:miter;stroke-miterlimit:4;stroke-opacity:1;stroke-dasharray:none"
    d="M 52.209535587126865,348.61205612911124 100.08120852129748,252.65527375249795"
    id="path40"
    inkscape:connector-type="polyline"
    inkscape:connector-curvature="0"
    inkscape:connection-start="#g9"
    inkscape:connection-start-point="d4"
    inkscape:connection-end="#g10"
    inkscape:connection-end-point="d4" />
<path
    style="fill:none;stroke:black;stroke-width:2;stroke-linecap:butt;stroke-linejoin:miter;stroke-miterlimit:4;stroke-opacity:1;stroke-dasharray:none"
    d="M 127.27399235960013,376.14630568201443 61.59786955294069,352.0557729215241"
    id="path41"
    inkscape:connector-type="polyline"
    inkscape:connector-curvature="0"
    inkscape:connection-start="#g4"
    inkscape:connection-start-point="d4"
    inkscape:connection-end="#g9"
    inkscape:connection-end-point="d4" />
<path
    style="fill:none;stroke:black;stroke-width:2;stroke-linecap:butt;stroke-linejoin:miter;stroke-miterlimit:4;stroke-opacity:1;stroke-dasharray:none"
    d="M 199.21906269368284,237.83666233091387 60.196001154849114,342.5940524953813"
    id="path42"
    inkscape:connector-type="polyline"
    inkscape:connector-curvature="0"
    inkscape:connection-start="#g0"
    inkscape:connection-start-point="d4"
    inkscape:connection-end="#g9"
    inkscape:connection-end-point="d4" />
<path
    style="fill:none;stroke:black;stroke-width:2;stroke-linecap:butt;stroke-linejoin:miter;stroke-miterlimit:4;stroke-opacity:1;stroke-dasharray:none"
    d="M 127.27399235960013,376.14630568201443 106.23680753779713,253.56294051839436"
    id="path43"
    inkscape:connector-type="polyline"
    inkscape:connector-curvature="0"
    inkscape:connection-start="#g4"
    inkscape:connection-start-point="d4"
    inkscape:connection-end="#g10"
    inkscape:connection-end-point="d4" />
<path
    style="fill:none;stroke:black;stroke-width:2;stroke-linecap:butt;stroke-linejoin:miter;stroke-miterlimit:4;stroke-opacity:1;stroke-dasharray:none"
    d="M 199.21906269368284,237.83666233091387 114.52621264043984,243.08815049481282"
    id="path44"
    inkscape:connector-type="polyline"
    inkscape:connector-curvature="0"
    inkscape:connection-start="#g0"
    inkscape:connection-start-point="d4"
    inkscape:connection-end="#g10"
    inkscape:connection-end-point="d4" />
<path
    style="fill:none;stroke:black;stroke-width:2;stroke-linecap:butt;stroke-linejoin:miter;stroke-miterlimit:4;stroke-opacity:1;stroke-dasharray:none"
    d="M 199.21906269368284,237.83666233091387 131.88873426115407,367.2747693335547"
    id="path45"
    inkscape:connector-type="polyline"
    inkscape:connector-curvature="0"
    inkscape:connection-start="#g0"
    inkscape:connection-start-point="d4"
    inkscape:connection-end="#g4"
    inkscape:connection-end-point="d4" />
<path
    style="fill:none;stroke:black;stroke-width:2;stroke-linecap:butt;stroke-linejoin:miter;stroke-miterlimit:4;stroke-opacity:1;stroke-dasharray:none"
    d="M 104.54538127454816,243.70702467074267 29.911567131937502,282.1874058881672"
    id="path46"
    inkscape:connector-type="polyline"
    inkscape:connector-curvature="0"
    inkscape:connection-start="#g10"
    inkscape:connection-start-point="d4"
    inkscape:connection-end="#g11"
    inkscape:connection-end-point="d4" />
<path
    style="fill:none;stroke:black;stroke-width:2;stroke-linecap:butt;stroke-linejoin:miter;stroke-miterlimit:4;stroke-opacity:1;stroke-dasharray:none"
    d="M 21.02340549637838,286.7700451648477 128.21102723855853,329.56443803974287"
    id="path47"
    inkscape:connector-type="polyline"
    inkscape:connector-curvature="0"
    inkscape:connection-start="#g11"
    inkscape:connection-start-point="d4"
    inkscape:connection-end="#g12"
    inkscape:connection-end-point="d4" />
<path
    style="fill:none;stroke:black;stroke-width:2;stroke-linecap:butt;stroke-linejoin:miter;stroke-miterlimit:4;stroke-opacity:1;stroke-dasharray:none"
    d="M 199.21906269368284,237.83666233091387 30.666433094284955,284.1220234983933"
    id="path48"
    inkscape:connector-type="polyline"
    inkscape:connector-curvature="0"
    inkscape:connection-start="#g0"
    inkscape:connection-start-point="d4"
    inkscape:connection-end="#g11"
    inkscape:connection-end-point="d4" />
<path
    style="fill:none;stroke:black;stroke-width:2;stroke-linecap:butt;stroke-linejoin:miter;stroke-miterlimit:4;stroke-opacity:1;stroke-dasharray:none"
    d="M 104.54538127454816,243.70702467074267 134.04529301750185,323.8873624808988"
    id="path49"
    inkscape:connector-type="polyline"
    inkscape:connector-curvature="0"
    inkscape:connection-start="#g10"
    inkscape:connection-start-point="d4"
    inkscape:connection-end="#g12"
    inkscape:connection-end-point="d4" />
<path
    style="fill:none;stroke:black;stroke-width:2;stroke-linecap:butt;stroke-linejoin:miter;stroke-miterlimit:4;stroke-opacity:1;stroke-dasharray:none"
    d="M 199.21906269368284,237.83666233091387 114.52621264043984,243.08815049481282"
    id="path50"
    inkscape:connector-type="polyline"
    inkscape:connector-curvature="0"
    inkscape:connection-start="#g0"
    inkscape:connection-start-point="d4"
    inkscape:connection-end="#g10"
    inkscape:connection-end-point="d4" />
<path
    style="fill:none;stroke:black;stroke-width:2;stroke-linecap:butt;stroke-linejoin:miter;stroke-miterlimit:4;stroke-opacity:1;stroke-dasharray:none"
    d="M 199.21906269368284,237.83666233091387 142.92875334680517,324.875349190859"
    id="path51"
    inkscape:connector-type="polyline"
    inkscape:connector-curvature="0"
    inkscape:connection-start="#g0"
    inkscape:connection-start-point="d4"
    inkscape:connection-end="#g12"
    inkscape:connection-end-point="d4" />
<path
    style="fill:none;stroke:black;stroke-width:2;stroke-linecap:butt;stroke-linejoin:miter;stroke-miterlimit:4;stroke-opacity:1;stroke-dasharray:none"
    d="M 269.91625555915283,157.02738695336907 342.37698585324296,139.6523480786416"
    id="path52"
    inkscape:connector-type="polyline"
    inkscape:connector-curvature="0"
    inkscape:connection-start="#g1"
    inkscape:connection-start-point="d4"
    inkscape:connection-end="#g13"
    inkscape:connection-end-point="d4" />
<path
    style="fill:none;stroke:black;stroke-width:2;stroke-linecap:butt;stroke-linejoin:miter;stroke-miterlimit:4;stroke-opacity:1;stroke-dasharray:none"
    d="M 352.10133182203055,137.32059005532005 288.1252498757603,107.86123916147217"
    id="path53"
    inkscape:connector-type="polyline"
    inkscape:connector-curvature="0"
    inkscape:connection-start="#g13"
    inkscape:connection-start-point="d4"
    inkscape:connection-end="#g14"
    inkscape:connection-end-point="d4" />
<path
    style="fill:none;stroke:black;stroke-width:2;stroke-linecap:butt;stroke-linejoin:miter;stroke-miterlimit:4;stroke-opacity:1;stroke-dasharray:none"
    d="M 352.10133182203055,137.32059005532005 334.0522013612925,189.46287089773054"
    id="path54"
    inkscape:connector-type="polyline"
    inkscape:connector-curvature="0"
    inkscape:connection-start="#g13"
    inkscape:connection-start-point="d4"
    inkscape:connection-end="#g15"
    inkscape:connection-end-point="d4" />
<path
    style="fill:none;stroke:black;stroke-width:2;stroke-linecap:butt;stroke-linejoin:miter;stroke-miterlimit:4;stroke-opacity:1;stroke-dasharray:none"
    d="M 199.21906269368284,237.83666233091387 343.7455460242754,142.81429952179474"
    id="path55"
    inkscape:connector-type="polyline"
    inkscape:connector-curvature="0"
    inkscape:connection-start="#g0"
    inkscape:connection-start-point="d4"
    inkscape:connection-end="#g13"
    inkscape:connection-end-point="d4" />
<path
    style="fill:none;stroke:black;stroke-width:2;stroke-linecap:butt;stroke-linejoin:miter;stroke-miterlimit:4;stroke-opacity:1;stroke-dasharray:none"
    d="M 269.91625555915283,157.02738695336907 277.35589355798675,113.53545689120261"
    id="path56"
    inkscape:connector-type="polyline"
    inkscape:connector-curvature="0"
    inkscape:connection-start="#g1"
    inkscape:connection-start-point="d4"
    inkscape:connection-end="#g14"
    inkscape:connection-end-point="d4" />
<path
    style="fill:none;stroke:black;stroke-width:2;stroke-linecap:butt;stroke-linejoin:miter;stroke-miterlimit:4;stroke-opacity:1;stroke-dasharray:none"
    d="M 269.91625555915283,157.02738695336907 322.5432723210239,193.24370460509454"
    id="path57"
    inkscape:connector-type="polyline"
    inkscape:connector-curvature="0"
    inkscape:connection-start="#g1"
    inkscape:connection-start-point="d4"
    inkscape:connection-end="#g15"
    inkscape:connection-end-point="d4" />
<path
    style="fill:none;stroke:black;stroke-width:2;stroke-linecap:butt;stroke-linejoin:miter;stroke-miterlimit:4;stroke-opacity:1;stroke-dasharray:none"
    d="M 199.21906269368284,237.83666233091387 263.33178568972255,164.55365804459115"
    id="path58"
    inkscape:connector-type="polyline"
    inkscape:connector-curvature="0"
    inkscape:connection-start="#g0"
    inkscape:connection-start-point="d4"
    inkscape:connection-end="#g1"
    inkscape:connection-end-point="d4" />
<path
    style="fill:none;stroke:black;stroke-width:2;stroke-linecap:butt;stroke-linejoin:miter;stroke-miterlimit:4;stroke-opacity:1;stroke-dasharray:none"
    d="M 279.04198221178683,103.67862651569516 326.00730241206844,190.12577582553416"
    id="path59"
    inkscape:connector-type="polyline"
    inkscape:connector-curvature="0"
    inkscape:connection-start="#g14"
    inkscape:connection-start-point="d4"
    inkscape:connection-end="#g15"
    inkscape:connection-end-point="d4" />
<path
    style="fill:none;stroke:black;stroke-width:2;stroke-linecap:butt;stroke-linejoin:miter;stroke-miterlimit:4;stroke-opacity:1;stroke-dasharray:none"
    d="M 199.21906269368284,237.83666233091387 273.9287071357731,112.27248583482628"
    id="path60"
    inkscape:connector-type="polyline"
    inkscape:connector-curvature="0"
    inkscape:connection-start="#g0"
    inkscape:connection-start-point="d4"
    inkscape:connection-end="#g14"
    inkscape:connection-end-point="d4" />
<path
    style="fill:none;stroke:black;stroke-width:2;stroke-linecap:butt;stroke-linejoin:miter;stroke-miterlimit:4;stroke-opacity:1;stroke-dasharray:none"
    d="M 199.21906269368284,237.83666233091387 321.1919948209526,201.74977373900904"
    id="path61"
    inkscape:connector-type="polyline"
    inkscape:connector-curvature="0"
    inkscape:connection-start="#g0"
    inkscape:connection-start-point="d4"
    inkscape:connection-end="#g15"
    inkscape:connection-end-point="d4" />
<path
    style="fill:none;stroke:black;stroke-width:2;stroke-linecap:butt;stroke-linejoin:miter;stroke-miterlimit:4;stroke-opacity:1;stroke-dasharray:none"
    d="M 269.91625555915283,157.02738695336907 342.37698585324296,139.6523480786416"
    id="path62"
    inkscape:connector-type="polyline"
    inkscape:connector-curvature="0"
    inkscape:connection-start="#g1"
    inkscape:connection-start-point="d4"
    inkscape:connection-end="#g13"
    inkscape:connection-end-point="d4" />
<path
    style="fill:none;stroke:black;stroke-width:2;stroke-linecap:butt;stroke-linejoin:miter;stroke-miterlimit:4;stroke-opacity:1;stroke-dasharray:none"
    d="M 352.10133182203055,137.32059005532005 288.1252498757603,107.86123916147217"
    id="path63"
    inkscape:connector-type="polyline"
    inkscape:connector-curvature="0"
    inkscape:connection-start="#g13"
    inkscape:connection-start-point="d4"
    inkscape:connection-end="#g14"
    inkscape:connection-end-point="d4" />
<path
    style="fill:none;stroke:black;stroke-width:2;stroke-linecap:butt;stroke-linejoin:miter;stroke-miterlimit:4;stroke-opacity:1;stroke-dasharray:none"
    d="M 352.10133182203055,137.32059005532005 334.0522013612925,189.46287089773054"
    id="path64"
    inkscape:connector-type="polyline"
    inkscape:connector-curvature="0"
    inkscape:connection-start="#g13"
    inkscape:connection-start-point="d4"
    inkscape:connection-end="#g15"
    inkscape:connection-end-point="d4" />
<path
    style="fill:none;stroke:black;stroke-width:2;stroke-linecap:butt;stroke-linejoin:miter;stroke-miterlimit:4;stroke-opacity:1;stroke-dasharray:none"
    d="M 199.21906269368284,237.83666233091387 343.7455460242754,142.81429952179474"
    id="path65"
    inkscape:connector-type="polyline"
    inkscape:connector-curvature="0"
    inkscape:connection-start="#g0"
    inkscape:connection-start-point="d4"
    inkscape:connection-end="#g13"
    inkscape:connection-end-point="d4" />
<path
    style="fill:none;stroke:black;stroke-width:2;stroke-linecap:butt;stroke-linejoin:miter;stroke-miterlimit:4;stroke-opacity:1;stroke-dasharray:none"
    d="M 269.91625555915283,157.02738695336907 277.35589355798675,113.53545689120261"
    id="path66"
    inkscape:connector-type="polyline"
    inkscape:connector-curvature="0"
    inkscape:connection-start="#g1"
    inkscape:connection-start-point="d4"
    inkscape:connection-end="#g14"
    inkscape:connection-end-point="d4" />
<path
    style="fill:none;stroke:black;stroke-width:2;stroke-linecap:butt;stroke-linejoin:miter;stroke-miterlimit:4;stroke-opacity:1;stroke-dasharray:none"
    d="M 269.91625555915283,157.02738695336907 322.5432723210239,193.24370460509454"
    id="path67"
    inkscape:connector-type="polyline"
    inkscape:connector-curvature="0"
    inkscape:connection-start="#g1"
    inkscape:connection-start-point="d4"
    inkscape:connection-end="#g15"
    inkscape:connection-end-point="d4" />
<path
    style="fill:none;stroke:black;stroke-width:2;stroke-linecap:butt;stroke-linejoin:miter;stroke-miterlimit:4;stroke-opacity:1;stroke-dasharray:none"
    d="M 199.21906269368284,237.83666233091387 263.33178568972255,164.55365804459115"
    id="path68"
    inkscape:connector-type="polyline"
    inkscape:connector-curvature="0"
    inkscape:connection-start="#g0"
    inkscape:connection-start-point="d4"
    inkscape:connection-end="#g1"
    inkscape:connection-end-point="d4" />
<path
    style="fill:none;stroke:black;stroke-width:2;stroke-linecap:butt;stroke-linejoin:miter;stroke-miterlimit:4;stroke-opacity:1;stroke-dasharray:none"
    d="M 279.04198221178683,103.67862651569516 326.00730241206844,190.12577582553416"
    id="path69"
    inkscape:connector-type="polyline"
    inkscape:connector-curvature="0"
    inkscape:connection-start="#g14"
    inkscape:connection-start-point="d4"
    inkscape:connection-end="#g15"
    inkscape:connection-end-point="d4" />
<path
    style="fill:none;stroke:black;stroke-width:2;stroke-linecap:butt;stroke-linejoin:miter;stroke-miterlimit:4;stroke-opacity:1;stroke-dasharray:none"
    d="M 199.21906269368284,237.83666233091387 273.9287071357731,112.27248583482628"
    id="path70"
    inkscape:connector-type="polyline"
    inkscape:connector-curvature="0"
    inkscape:connection-start="#g0"
    inkscape:connection-start-point="d4"
    inkscape:connection-end="#g14"
    inkscape:connection-end-point="d4" />
<path
    style="fill:none;stroke:black;stroke-width:2;stroke-linecap:butt;stroke-linejoin:miter;stroke-miterlimit:4;stroke-opacity:1;stroke-dasharray:none"
    d="M 199.21906269368284,237.83666233091387 321.1919948209526,201.74977373900904"
    id="path71"
    inkscape:connector-type="polyline"
    inkscape:connector-curvature="0"
    inkscape:connection-start="#g0"
    inkscape:connection-start-point="d4"
    inkscape:connection-end="#g15"
    inkscape:connection-end-point="d4" />
<path
    style="fill:none;stroke:black;stroke-width:2;stroke-linecap:butt;stroke-linejoin:miter;stroke-miterlimit:4;stroke-opacity:1;stroke-dasharray:none"
    d="M 199.21906269368284,237.83666233091387 202.9859699190385,378.5336734143385"
    id="path72"
    inkscape:connector-type="polyline"
    inkscape:connector-curvature="0"
    inkscape:connection-start="#g0"
    inkscape:connection-start-point="d4"
    inkscape:connection-end="#g16"
    inkscape:connection-end-point="d4" />
<path
    style="fill:none;stroke:black;stroke-width:2;stroke-linecap:butt;stroke-linejoin:miter;stroke-miterlimit:4;stroke-opacity:1;stroke-dasharray:none"
    d="M 199.21906269368284,237.83666233091387 258.552488545742,274.27543875622126"
    id="path73"
    inkscape:connector-type="polyline"
    inkscape:connector-curvature="0"
    inkscape:connection-start="#g0"
    inkscape:connection-start-point="d4"
    inkscape:connection-end="#g3"
    inkscape:connection-end-point="d4" />
<path
    style="fill:none;stroke:black;stroke-width:2;stroke-linecap:butt;stroke-linejoin:miter;stroke-miterlimit:4;stroke-opacity:1;stroke-dasharray:none"
    d="M 199.21906269368284,237.83666233091387 142.92875334680517,324.875349190859"
    id="path74"
    inkscape:connector-type="polyline"
    inkscape:connector-curvature="0"
    inkscape:connection-start="#g0"
    inkscape:connection-start-point="d4"
    inkscape:connection-end="#g12"
    inkscape:connection-end-point="d4" />
<path
    style="fill:none;stroke:black;stroke-width:2;stroke-linecap:butt;stroke-linejoin:miter;stroke-miterlimit:4;stroke-opacity:1;stroke-dasharray:none"
    d="M 267.0738183892479,279.50869182655674 208.305563436364,379.900043536911"
    id="path75"
    inkscape:connector-type="polyline"
    inkscape:connector-curvature="0"
    inkscape:connection-start="#g3"
    inkscape:connection-start-point="d4"
    inkscape:connection-end="#g16"
    inkscape:connection-end-point="d4" />
<path
    style="fill:none;stroke:black;stroke-width:2;stroke-linecap:butt;stroke-linejoin:miter;stroke-miterlimit:4;stroke-opacity:1;stroke-dasharray:none"
    d="M 137.49820196909428,333.2723195810678 195.5978895354597,382.0965847085933"
    id="path76"
    inkscape:connector-type="polyline"
    inkscape:connector-curvature="0"
    inkscape:connection-start="#g12"
    inkscape:connection-start-point="d4"
    inkscape:connection-end="#g16"
    inkscape:connection-end-point="d4" />
<path
    style="fill:none;stroke:black;stroke-width:2;stroke-linecap:butt;stroke-linejoin:miter;stroke-miterlimit:4;stroke-opacity:1;stroke-dasharray:none"
    d="M 267.0738183892479,279.50869182655674 146.7346858279812,329.4399096441585"
    id="path77"
    inkscape:connector-type="polyline"
    inkscape:connector-curvature="0"
    inkscape:connection-start="#g3"
    inkscape:connection-start-point="d4"
    inkscape:connection-end="#g12"
    inkscape:connection-end-point="d4" />
<path
    style="fill:none;stroke:black;stroke-width:2;stroke-linecap:butt;stroke-linejoin:miter;stroke-miterlimit:4;stroke-opacity:1;stroke-dasharray:none"
    d="M 199.21906269368284,237.83666233091387 380.06226647443236,258.11255001727847"
    id="path78"
    inkscape:connector-type="polyline"
    inkscape:connector-curvature="0"
    inkscape:connection-start="#g0"
    inkscape:connection-start-point="d4"
    inkscape:connection-end="#g17"
    inkscape:connection-end-point="d4" />
<path
    style="fill:none;stroke:black;stroke-width:2;stroke-linecap:butt;stroke-linejoin:miter;stroke-miterlimit:4;stroke-opacity:1;stroke-dasharray:none"
    d="M 199.21906269368284,237.83666233091387 114.74878239437344,154.62602408481274"
    id="path79"
    inkscape:connector-type="polyline"
    inkscape:connector-curvature="0"
    inkscape:connection-start="#g0"
    inkscape:connection-start-point="d4"
    inkscape:connection-end="#g18"
    inkscape:connection-end-point="d4" />
<path
    style="fill:none;stroke:black;stroke-width:2;stroke-linecap:butt;stroke-linejoin:miter;stroke-miterlimit:4;stroke-opacity:1;stroke-dasharray:none"
    d="M 199.21906269368284,237.83666233091387 114.52621264043984,243.08815049481282"
    id="path80"
    inkscape:connector-type="polyline"
    inkscape:connector-curvature="0"
    inkscape:connection-start="#g0"
    inkscape:connection-start-point="d4"
    inkscape:connection-end="#g10"
    inkscape:connection-end-point="d4" />
<path
    style="fill:none;stroke:black;stroke-width:2;stroke-linecap:butt;stroke-linejoin:miter;stroke-miterlimit:4;stroke-opacity:1;stroke-dasharray:none"
    d="M 199.21906269368284,237.83666233091387 199.7514594763236,154.572900931022"
    id="path81"
    inkscape:connector-type="polyline"
    inkscape:connector-curvature="0"
    inkscape:connection-start="#g0"
    inkscape:connection-start-point="d4"
    inkscape:connection-end="#g5"
    inkscape:connection-end-point="d4" />
<path
    style="fill:none;stroke:black;stroke-width:2;stroke-linecap:butt;stroke-linejoin:miter;stroke-miterlimit:4;stroke-opacity:1;stroke-dasharray:none"
    d="M 104.54538127454816,243.70702467074267 107.3045183352674,157.60314288532558"
    id="path82"
    inkscape:connector-type="polyline"
    inkscape:connector-curvature="0"
    inkscape:connection-start="#g10"
    inkscape:connection-start-point="d4"
    inkscape:connection-end="#g18"
    inkscape:connection-end-point="d4" />
<path
    style="fill:none;stroke:black;stroke-width:2;stroke-linecap:butt;stroke-linejoin:miter;stroke-miterlimit:4;stroke-opacity:1;stroke-dasharray:none"
    d="M 199.81539916516695,144.57310534730175 117.61938162553875,147.279223937911"
    id="path83"
    inkscape:connector-type="polyline"
    inkscape:connector-curvature="0"
    inkscape:connection-start="#g5"
    inkscape:connection-start-point="d4"
    inkscape:connection-end="#g18"
    inkscape:connection-end-point="d4" />
<path
    style="fill:none;stroke:black;stroke-width:2;stroke-linecap:butt;stroke-linejoin:miter;stroke-miterlimit:4;stroke-opacity:1;stroke-dasharray:none"
    d="M 199.81539916516695,144.57310534730175 111.4745386183616,236.49683892385124"
    id="path84"
    inkscape:connector-type="polyline"
    inkscape:connector-curvature="0"
    inkscape:connection-start="#g5"
    inkscape:connection-start-point="d4"
    inkscape:connection-end="#g10"
    inkscape:connection-end-point="d4" />
<path
    style="fill:none;stroke:black;stroke-width:2;stroke-linecap:butt;stroke-linejoin:miter;stroke-miterlimit:4;stroke-opacity:1;stroke-dasharray:none"
    d="M 269.91625555915283,157.02738695336907 368.5219255699616,190.30255738471195"
    id="path85"
    inkscape:connector-type="polyline"
    inkscape:connector-curvature="0"
    inkscape:connection-start="#g1"
    inkscape:connection-start-point="d4"
    inkscape:connection-end="#g19"
    inkscape:connection-end-point="d4" />
<path
    style="fill:none;stroke:black;stroke-width:2;stroke-linecap:butt;stroke-linejoin:miter;stroke-miterlimit:4;stroke-opacity:1;stroke-dasharray:none"
    d="M 199.21906269368284,237.83666233091387 368.2909935688713,195.9070475478398"
    id="path86"
    inkscape:connector-type="polyline"
    inkscape:connector-curvature="0"
    inkscape:connection-start="#g0"
    inkscape:connection-start-point="d4"
    inkscape:connection-end="#g19"
    inkscape:connection-end-point="d4" />
<path
    style="fill:none;stroke:black;stroke-width:2;stroke-linecap:butt;stroke-linejoin:miter;stroke-miterlimit:4;stroke-opacity:1;stroke-dasharray:none"
    d="M 199.21906269368284,237.83666233091387 263.33178568972255,164.55365804459115"
    id="path87"
    inkscape:connector-type="polyline"
    inkscape:connector-curvature="0"
    inkscape:connection-start="#g0"
    inkscape:connection-start-point="d4"
    inkscape:connection-end="#g1"
    inkscape:connection-end-point="d4" />
<path
    style="fill:none;stroke:black;stroke-width:2;stroke-linecap:butt;stroke-linejoin:miter;stroke-miterlimit:4;stroke-opacity:1;stroke-dasharray:none"
    d="M 199.81539916516695,144.57310534730175 286.31472153795755,18.250989901668994"
    id="path88"
    inkscape:connector-type="polyline"
    inkscape:connector-curvature="0"
    inkscape:connection-start="#g5"
    inkscape:connection-start-point="d4"
    inkscape:connection-end="#g20"
    inkscape:connection-end-point="d4" />
<path
    style="fill:none;stroke:black;stroke-width:2;stroke-linecap:butt;stroke-linejoin:miter;stroke-miterlimit:4;stroke-opacity:1;stroke-dasharray:none"
    d="M 269.91625555915283,157.02738695336907 290.48157783990547,19.889420358842536"
    id="path89"
    inkscape:connector-type="polyline"
    inkscape:connector-curvature="0"
    inkscape:connection-start="#g1"
    inkscape:connection-start-point="d4"
    inkscape:connection-end="#g20"
    inkscape:connection-end-point="d4" />
<path
    style="fill:none;stroke:black;stroke-width:2;stroke-linecap:butt;stroke-linejoin:miter;stroke-miterlimit:4;stroke-opacity:1;stroke-dasharray:none"
    d="M 269.91625555915283,157.02738695336907 209.66122006354328,146.3223368463024"
    id="path90"
    inkscape:connector-type="polyline"
    inkscape:connector-curvature="0"
    inkscape:connection-start="#g1"
    inkscape:connection-start-point="d4"
    inkscape:connection-end="#g5"
    inkscape:connection-end-point="d4" />
<path
    style="fill:none;stroke:black;stroke-width:2;stroke-linecap:butt;stroke-linejoin:miter;stroke-miterlimit:4;stroke-opacity:1;stroke-dasharray:none"
    d="M 199.21906269368284,237.83666233091387 58.39409786185755,140.38839774587515"
    id="path91"
    inkscape:connector-type="polyline"
    inkscape:connector-curvature="0"
    inkscape:connection-start="#g0"
    inkscape:connection-start-point="d4"
    inkscape:connection-end="#g21"
    inkscape:connection-end-point="d4" />
<path
    style="fill:none;stroke:black;stroke-width:2;stroke-linecap:butt;stroke-linejoin:miter;stroke-miterlimit:4;stroke-opacity:1;stroke-dasharray:none"
    d="M 199.21906269368284,237.83666233091387 126.55635377862403,101.66168223873615"
    id="path92"
    inkscape:connector-type="polyline"
    inkscape:connector-curvature="0"
    inkscape:connection-start="#g0"
    inkscape:connection-start-point="d4"
    inkscape:connection-end="#g22"
    inkscape:connection-end-point="d4" />
<path
    style="fill:none;stroke:black;stroke-width:2;stroke-linecap:butt;stroke-linejoin:miter;stroke-miterlimit:4;stroke-opacity:1;stroke-dasharray:none"
    d="M 50.170920652672876,134.6981115855537 113.21332828543055,97.88205530482544"
    id="path93"
    inkscape:connector-type="polyline"
    inkscape:connector-curvature="0"
    inkscape:connection-start="#g21"
    inkscape:connection-start-point="d4"
    inkscape:connection-end="#g22"
    inkscape:connection-end-point="d4" />
<path
    style="fill:none;stroke:black;stroke-width:2;stroke-linecap:butt;stroke-linejoin:miter;stroke-miterlimit:4;stroke-opacity:1;stroke-dasharray:none"
    d="M 199.21906269368284,237.83666233091387 258.552488545742,274.27543875622126"
    id="path94"
    inkscape:connector-type="polyline"
    inkscape:connector-curvature="0"
    inkscape:connection-start="#g0"
    inkscape:connection-start-point="d4"
    inkscape:connection-end="#g3"
    inkscape:connection-end-point="d4" />
<path
    style="fill:none;stroke:black;stroke-width:2;stroke-linecap:butt;stroke-linejoin:miter;stroke-miterlimit:4;stroke-opacity:1;stroke-dasharray:none"
    d="M 199.21906269368284,237.83666233091387 114.52621264043984,243.08815049481282"
    id="path95"
    inkscape:connector-type="polyline"
    inkscape:connector-curvature="0"
    inkscape:connection-start="#g0"
    inkscape:connection-start-point="d4"
    inkscape:connection-end="#g10"
    inkscape:connection-end-point="d4" />
<path
    style="fill:none;stroke:black;stroke-width:2;stroke-linecap:butt;stroke-linejoin:miter;stroke-miterlimit:4;stroke-opacity:1;stroke-dasharray:none"
    d="M 199.21906269368284,237.83666233091387 195.78588641520787,288.43600804031496"
    id="path96"
    inkscape:connector-type="polyline"
    inkscape:connector-curvature="0"
    inkscape:connection-start="#g0"
    inkscape:connection-start-point="d4"
    inkscape:connection-end="#g2"
    inkscape:connection-end-point="d4" />
<path
    style="fill:none;stroke:black;stroke-width:2;stroke-linecap:butt;stroke-linejoin:miter;stroke-miterlimit:4;stroke-opacity:1;stroke-dasharray:none"
    d="M 195.10894072770938,298.4130689570468 113.1049315510527,248.87752745712535"
    id="path97"
    inkscape:connector-type="polyline"
    inkscape:connector-curvature="0"
    inkscape:connection-start="#g2"
    inkscape:connection-start-point="d4"
    inkscape:connection-end="#g10"
    inkscape:connection-end-point="d4" />
<path
    style="fill:none;stroke:black;stroke-width:2;stroke-linecap:butt;stroke-linejoin:miter;stroke-miterlimit:4;stroke-opacity:1;stroke-dasharray:none"
    d="M 199.21906269368284,237.83666233091387 195.78588641520787,288.43600804031496"
    id="path98"
    inkscape:connector-type="polyline"
    inkscape:connector-curvature="0"
    inkscape:connection-start="#g0"
    inkscape:connection-start-point="d4"
    inkscape:connection-end="#g2"
    inkscape:connection-end-point="d4" />
<path
    style="fill:none;stroke:black;stroke-width:2;stroke-linecap:butt;stroke-linejoin:miter;stroke-miterlimit:4;stroke-opacity:1;stroke-dasharray:none"
    d="M 199.21906269368284,237.83666233091387 78.76304986189852,302.6873770523348"
    id="path99"
    inkscape:connector-type="polyline"
    inkscape:connector-curvature="0"
    inkscape:connection-start="#g0"
    inkscape:connection-start-point="d4"
    inkscape:connection-end="#g8"
    inkscape:connection-end-point="d4" />
<path
    style="fill:none;stroke:black;stroke-width:2;stroke-linecap:butt;stroke-linejoin:miter;stroke-miterlimit:4;stroke-opacity:1;stroke-dasharray:none"
    d="M 199.21906269368284,237.83666233091387 131.88873426115407,367.2747693335547"
    id="path100"
    inkscape:connector-type="polyline"
    inkscape:connector-curvature="0"
    inkscape:connection-start="#g0"
    inkscape:connection-start-point="d4"
    inkscape:connection-end="#g4"
    inkscape:connection-end-point="d4" />
<path
    style="fill:none;stroke:black;stroke-width:2;stroke-linecap:butt;stroke-linejoin:miter;stroke-miterlimit:4;stroke-opacity:1;stroke-dasharray:none"
    d="M 195.10894072770938,298.4130689570468 79.9321854760715,306.7093492405752"
    id="path101"
    inkscape:connector-type="polyline"
    inkscape:connector-curvature="0"
    inkscape:connection-start="#g2"
    inkscape:connection-start-point="d4"
    inkscape:connection-end="#g8"
    inkscape:connection-end-point="d4" />
<path
    style="fill:none;stroke:black;stroke-width:2;stroke-linecap:butt;stroke-linejoin:miter;stroke-miterlimit:4;stroke-opacity:1;stroke-dasharray:none"
    d="M 195.10894072770938,298.4130689570468 133.84906151541628,368.6118205903685"
    id="path102"
    inkscape:connector-type="polyline"
    inkscape:connector-curvature="0"
    inkscape:connection-start="#g2"
    inkscape:connection-start-point="d4"
    inkscape:connection-end="#g4"
    inkscape:connection-end-point="d4" />
<path
    style="fill:none;stroke:black;stroke-width:2;stroke-linecap:butt;stroke-linejoin:miter;stroke-miterlimit:4;stroke-opacity:1;stroke-dasharray:none"
    d="M 127.27399235960013,376.14630568201443 76.363203842784,315.1072307518271"
    id="path103"
    inkscape:connector-type="polyline"
    inkscape:connector-curvature="0"
    inkscape:connection-start="#g4"
    inkscape:connection-start-point="d4"
    inkscape:connection-end="#g8"
    inkscape:connection-end-point="d4" />
<path
    style="fill:none;stroke:black;stroke-width:2;stroke-linecap:butt;stroke-linejoin:miter;stroke-miterlimit:4;stroke-opacity:1;stroke-dasharray:none"
    d="M 354.92052992062486,293.86233906146293 302.68185988795335,361.75341906248303"
    id="path104"
    inkscape:connector-type="polyline"
    inkscape:connector-curvature="0"
    inkscape:connection-start="#g23"
    inkscape:connection-start-point="d4"
    inkscape:connection-end="#g24"
    inkscape:connection-end-point="d4" />
<path
    style="fill:none;stroke:black;stroke-width:2;stroke-linecap:butt;stroke-linejoin:miter;stroke-miterlimit:4;stroke-opacity:1;stroke-dasharray:none"
    d="M 354.92052992062486,293.86233906146293 356.0953204372271,336.9548736518679"
    id="path105"
    inkscape:connector-type="polyline"
    inkscape:connector-curvature="0"
    inkscape:connection-start="#g23"
    inkscape:connection-start-point="d4"
    inkscape:connection-end="#g25"
    inkscape:connection-end-point="d4" />
<path
    style="fill:none;stroke:black;stroke-width:2;stroke-linecap:butt;stroke-linejoin:miter;stroke-miterlimit:4;stroke-opacity:1;stroke-dasharray:none"
    d="M 199.21906269368284,237.83666233091387 345.51113876375405,290.4765809400076"
    id="path106"
    inkscape:connector-type="polyline"
    inkscape:connector-curvature="0"
    inkscape:connection-start="#g0"
    inkscape:connection-start-point="d4"
    inkscape:connection-end="#g23"
    inkscape:connection-end-point="d4" />
<path
    style="fill:none;stroke:black;stroke-width:2;stroke-linecap:butt;stroke-linejoin:miter;stroke-miterlimit:4;stroke-opacity:1;stroke-dasharray:none"
    d="M 296.5836696604302,369.6788260519657 347.0205065492555,350.50465995981347"
    id="path107"
    inkscape:connector-type="polyline"
    inkscape:connector-curvature="0"
    inkscape:connection-start="#g24"
    inkscape:connection-start-point="d4"
    inkscape:connection-end="#g25"
    inkscape:connection-end-point="d4" />
<path
    style="fill:none;stroke:black;stroke-width:2;stroke-linecap:butt;stroke-linejoin:miter;stroke-miterlimit:4;stroke-opacity:1;stroke-dasharray:none"
    d="M 199.21906269368284,237.83666233091387 290.6430719786243,361.63461700551983"
    id="path108"
    inkscape:connector-type="polyline"
    inkscape:connector-curvature="0"
    inkscape:connection-start="#g0"
    inkscape:connection-start-point="d4"
    inkscape:connection-end="#g24"
    inkscape:connection-end-point="d4" />
<path
    style="fill:none;stroke:black;stroke-width:2;stroke-linecap:butt;stroke-linejoin:miter;stroke-miterlimit:4;stroke-opacity:1;stroke-dasharray:none"
    d="M 199.21906269368284,237.83666233091387 348.1537335191113,341.2477868447451"
    id="path109"
    inkscape:connector-type="polyline"
    inkscape:connector-curvature="0"
    inkscape:connection-start="#g0"
    inkscape:connection-start-point="d4"
    inkscape:connection-end="#g25"
    inkscape:connection-end-point="d4" />
<path
    style="fill:none;stroke:black;stroke-width:2;stroke-linecap:butt;stroke-linejoin:miter;stroke-miterlimit:4;stroke-opacity:1;stroke-dasharray:none"
    d="M 199.21906269368284,237.83666233091387 114.52621264043984,243.08815049481282"
    id="path110"
    inkscape:connector-type="polyline"
    inkscape:connector-curvature="0"
    inkscape:connection-start="#g0"
    inkscape:connection-start-point="d4"
    inkscape:connection-end="#g10"
    inkscape:connection-end-point="d4" />
<path
    style="fill:none;stroke:black;stroke-width:2;stroke-linecap:butt;stroke-linejoin:miter;stroke-miterlimit:4;stroke-opacity:1;stroke-dasharray:none"
    d="M 199.21906269368284,237.83666233091387 114.52621264043984,243.08815049481282"
    id="path111"
    inkscape:connector-type="polyline"
    inkscape:connector-curvature="0"
    inkscape:connection-start="#g0"
    inkscape:connection-start-point="d4"
    inkscape:connection-end="#g10"
    inkscape:connection-end-point="d4" />
<path
    style="fill:none;stroke:black;stroke-width:2;stroke-linecap:butt;stroke-linejoin:miter;stroke-miterlimit:4;stroke-opacity:1;stroke-dasharray:none"
    d="M 199.21906269368284,237.83666233091387 131.88873426115407,367.2747693335547"
    id="path112"
    inkscape:connector-type="polyline"
    inkscape:connector-curvature="0"
    inkscape:connection-start="#g0"
    inkscape:connection-start-point="d4"
    inkscape:connection-end="#g4"
    inkscape:connection-end-point="d4" />
<path
    style="fill:none;stroke:black;stroke-width:2;stroke-linecap:butt;stroke-linejoin:miter;stroke-miterlimit:4;stroke-opacity:1;stroke-dasharray:none"
    d="M 199.21906269368284,237.83666233091387 195.78588641520787,288.43600804031496"
    id="path113"
    inkscape:connector-type="polyline"
    inkscape:connector-curvature="0"
    inkscape:connection-start="#g0"
    inkscape:connection-start-point="d4"
    inkscape:connection-end="#g2"
    inkscape:connection-end-point="d4" />
<path
    style="fill:none;stroke:black;stroke-width:2;stroke-linecap:butt;stroke-linejoin:miter;stroke-miterlimit:4;stroke-opacity:1;stroke-dasharray:none"
    d="M 127.27399235960013,376.14630568201443 106.23680753779713,253.56294051839436"
    id="path114"
    inkscape:connector-type="polyline"
    inkscape:connector-curvature="0"
    inkscape:connection-start="#g4"
    inkscape:connection-start-point="d4"
    inkscape:connection-end="#g10"
    inkscape:connection-end-point="d4" />
<path
    style="fill:none;stroke:black;stroke-width:2;stroke-linecap:butt;stroke-linejoin:miter;stroke-miterlimit:4;stroke-opacity:1;stroke-dasharray:none"
    d="M 195.10894072770938,298.4130689570468 113.1049315510527,248.87752745712535"
    id="path115"
    inkscape:connector-type="polyline"
    inkscape:connector-curvature="0"
    inkscape:connection-start="#g2"
    inkscape:connection-start-point="d4"
    inkscape:connection-end="#g10"
    inkscape:connection-end-point="d4" />
<path
    style="fill:none;stroke:black;stroke-width:2;stroke-linecap:butt;stroke-linejoin:miter;stroke-miterlimit:4;stroke-opacity:1;stroke-dasharray:none"
    d="M 195.10894072770938,298.4130689570468 133.84906151541628,368.6118205903685"
    id="path116"
    inkscape:connector-type="polyline"
    inkscape:connector-curvature="0"
    inkscape:connection-start="#g2"
    inkscape:connection-start-point="d4"
    inkscape:connection-end="#g4"
    inkscape:connection-end-point="d4" />
<path
    style="fill:none;stroke:black;stroke-width:2;stroke-linecap:butt;stroke-linejoin:miter;stroke-miterlimit:4;stroke-opacity:1;stroke-dasharray:none"
    d="M 104.54538127454816,243.70702467074267 38.17379813833939,190.53492921092052"
    id="path117"
    inkscape:connector-type="polyline"
    inkscape:connector-curvature="0"
    inkscape:connection-start="#g10"
    inkscape:connection-start-point="d4"
    inkscape:connection-end="#g26"
    inkscape:connection-end-point="d4" />
<path
    style="fill:none;stroke:black;stroke-width:2;stroke-linecap:butt;stroke-linejoin:miter;stroke-miterlimit:4;stroke-opacity:1;stroke-dasharray:none"
    d="M 199.21906269368284,237.83666233091387 114.52621264043984,243.08815049481282"
    id="path118"
    inkscape:connector-type="polyline"
    inkscape:connector-curvature="0"
    inkscape:connection-start="#g0"
    inkscape:connection-start-point="d4"
    inkscape:connection-end="#g10"
    inkscape:connection-end-point="d4" />
<path
    style="fill:none;stroke:black;stroke-width:2;stroke-linecap:butt;stroke-linejoin:miter;stroke-miterlimit:4;stroke-opacity:1;stroke-dasharray:none"
    d="M 199.21906269368284,237.83666233091387 39.90144442150516,187.30589236205628"
    id="path119"
    inkscape:connector-type="polyline"
    inkscape:connector-curvature="0"
    inkscape:connection-start="#g0"
    inkscape:connection-start-point="d4"
    inkscape:connection-end="#g26"
    inkscape:connection-end-point="d4" />
<path
    style="fill:none;stroke:black;stroke-width:2;stroke-linecap:butt;stroke-linejoin:miter;stroke-miterlimit:4;stroke-opacity:1;stroke-dasharray:none"
    d="M 199.21906269368284,237.83666233091387 258.552488545742,274.27543875622126"
    id="path120"
    inkscape:connector-type="polyline"
    inkscape:connector-curvature="0"
    inkscape:connection-start="#g0"
    inkscape:connection-start-point="d4"
    inkscape:connection-end="#g3"
    inkscape:connection-end-point="d4" />
<path
    style="fill:none;stroke:black;stroke-width:2;stroke-linecap:butt;stroke-linejoin:miter;stroke-miterlimit:4;stroke-opacity:1;stroke-dasharray:none"
    d="M 199.21906269368284,237.83666233091387 195.78588641520787,288.43600804031496"
    id="path121"
    inkscape:connector-type="polyline"
    inkscape:connector-curvature="0"
    inkscape:connection-start="#g0"
    inkscape:connection-start-point="d4"
    inkscape:connection-end="#g2"
    inkscape:connection-end-point="d4" />
<path
    style="fill:none;stroke:black;stroke-width:2;stroke-linecap:butt;stroke-linejoin:miter;stroke-miterlimit:4;stroke-opacity:1;stroke-dasharray:none"
    d="M 199.21906269368284,237.83666233091387 245.02553558219137,380.4788822272923"
    id="path122"
    inkscape:connector-type="polyline"
    inkscape:connector-curvature="0"
    inkscape:connection-start="#g0"
    inkscape:connection-start-point="d4"
    inkscape:connection-end="#g27"
    inkscape:connection-end-point="d4" />
<path
    style="fill:none;stroke:black;stroke-width:2;stroke-linecap:butt;stroke-linejoin:miter;stroke-miterlimit:4;stroke-opacity:1;stroke-dasharray:none"
    d="M 195.10894072770938,298.4130689570468 243.07620841310577,381.3436921758686"
    id="path123"
    inkscape:connector-type="polyline"
    inkscape:connector-curvature="0"
    inkscape:connection-start="#g2"
    inkscape:connection-start-point="d4"
    inkscape:connection-end="#g27"
    inkscape:connection-end-point="d4" />
  </g>

  <g inkscape:label="Nodes"                     inkscape:groupmode="layer" id="layer1">
  <!-- Vertices -->
    <g id="g0" transform="translate(199.21906269368284,237.83666233091387)">
     <circle cx="0" cy="0" r="10" fill="red"/>
      <text sodipodi:linespacing="125%" y="5.0" x="0" id="text0" style="font-size:16pxpx;font-style:normal;font-weight:normal;text-align:center;line-height:125%;letter-spacing:0px;word-spacing:0px;text-anchor:middle;fill:#000000;fill-opacity:1;stroke:none;font-family:Sans">
<tspan y="5.0" x="0" id="tspan0" sodipodi:role="line">1</tspan></text>
    </g>
    <g id="g1" transform="translate(269.91625555915283,157.02738695336907)">
     <circle cx="0" cy="0" r="10" fill="red"/>
      <text sodipodi:linespacing="125%" y="5.0" x="0" id="text1" style="font-size:16pxpx;font-style:normal;font-weight:normal;text-align:center;line-height:125%;letter-spacing:0px;word-spacing:0px;text-anchor:middle;fill:#000000;fill-opacity:1;stroke:none;font-family:Sans">
<tspan y="5.0" x="0" id="tspan1" sodipodi:role="line">2</tspan></text>
    </g>
    <g id="g2" transform="translate(195.10894072770938,298.4130689570468)">
     <circle cx="0" cy="0" r="10" fill="red"/>
      <text sodipodi:linespacing="125%" y="5.0" x="0" id="text2" style="font-size:16pxpx;font-style:normal;font-weight:normal;text-align:center;line-height:125%;letter-spacing:0px;word-spacing:0px;text-anchor:middle;fill:#000000;fill-opacity:1;stroke:none;font-family:Sans">
<tspan y="5.0" x="0" id="tspan2" sodipodi:role="line">3</tspan></text>
    </g>
    <g id="g3" transform="translate(267.0738183892479,279.50869182655674)">
     <circle cx="0" cy="0" r="10" fill="red"/>
      <text sodipodi:linespacing="125%" y="5.0" x="0" id="text3" style="font-size:16pxpx;font-style:normal;font-weight:normal;text-align:center;line-height:125%;letter-spacing:0px;word-spacing:0px;text-anchor:middle;fill:#000000;fill-opacity:1;stroke:none;font-family:Sans">
<tspan y="5.0" x="0" id="tspan3" sodipodi:role="line">4</tspan></text>
    </g>
    <g id="g4" transform="translate(127.27399235960013,376.14630568201443)">
     <circle cx="0" cy="0" r="10" fill="red"/>
      <text sodipodi:linespacing="125%" y="5.0" x="0" id="text4" style="font-size:16pxpx;font-style:normal;font-weight:normal;text-align:center;line-height:125%;letter-spacing:0px;word-spacing:0px;text-anchor:middle;fill:#000000;fill-opacity:1;stroke:none;font-family:Sans">
<tspan y="5.0" x="0" id="tspan4" sodipodi:role="line">5</tspan></text>
    </g>
    <g id="g5" transform="translate(199.81539916516695,144.57310534730175)">
     <circle cx="0" cy="0" r="10" fill="red"/>
      <text sodipodi:linespacing="125%" y="5.0" x="0" id="text5" style="font-size:16pxpx;font-style:normal;font-weight:normal;text-align:center;line-height:125%;letter-spacing:0px;word-spacing:0px;text-anchor:middle;fill:#000000;fill-opacity:1;stroke:none;font-family:Sans">
<tspan y="5.0" x="0" id="tspan5" sodipodi:role="line">6</tspan></text>
    </g>
    <g id="g6" transform="translate(193.11389177721043,89.50883804189053)">
     <circle cx="0" cy="0" r="10" fill="red"/>
      <text sodipodi:linespacing="125%" y="5.0" x="0" id="text6" style="font-size:16pxpx;font-style:normal;font-weight:normal;text-align:center;line-height:125%;letter-spacing:0px;word-spacing:0px;text-anchor:middle;fill:#000000;fill-opacity:1;stroke:none;font-family:Sans">
<tspan y="5.0" x="0" id="tspan6" sodipodi:role="line">7</tspan></text>
    </g>
    <g id="g7" transform="translate(10.0,231.9962906563246)">
     <circle cx="0" cy="0" r="10" fill="red"/>
      <text sodipodi:linespacing="125%" y="5.0" x="0" id="text7" style="font-size:16pxpx;font-style:normal;font-weight:normal;text-align:center;line-height:125%;letter-spacing:0px;word-spacing:0px;text-anchor:middle;fill:#000000;fill-opacity:1;stroke:none;font-family:Sans">
<tspan y="5.0" x="0" id="tspan7" sodipodi:role="line">8</tspan></text>
    </g>
    <g id="g8" transform="translate(69.9580271819026,307.42779640137525)">
     <circle cx="0" cy="0" r="10" fill="red"/>
      <text sodipodi:linespacing="125%" y="5.0" x="0" id="text8" style="font-size:16pxpx;font-style:normal;font-weight:normal;text-align:center;line-height:125%;letter-spacing:0px;word-spacing:0px;text-anchor:middle;fill:#000000;fill-opacity:1;stroke:none;font-family:Sans">
<tspan y="5.0" x="0" id="tspan8" sodipodi:role="line">9</tspan></text>
    </g>
    <g id="g9" transform="translate(52.209535587126865,348.61205612911124)">
     <circle cx="0" cy="0" r="10" fill="red"/>
      <text sodipodi:linespacing="125%" y="5.0" x="0" id="text9" style="font-size:16pxpx;font-style:normal;font-weight:normal;text-align:center;line-height:125%;letter-spacing:0px;word-spacing:0px;text-anchor:middle;fill:#000000;fill-opacity:1;stroke:none;font-family:Sans">
<tspan y="5.0" x="0" id="tspan9" sodipodi:role="line">10</tspan></text>
    </g>
    <g id="g10" transform="translate(104.54538127454816,243.70702467074267)">
     <circle cx="0" cy="0" r="10" fill="red"/>
      <text sodipodi:linespacing="125%" y="5.0" x="0" id="text10" style="font-size:16pxpx;font-style:normal;font-weight:normal;text-align:center;line-height:125%;letter-spacing:0px;word-spacing:0px;text-anchor:middle;fill:#000000;fill-opacity:1;stroke:none;font-family:Sans">
<tspan y="5.0" x="0" id="tspan10" sodipodi:role="line">11</tspan></text>
    </g>
    <g id="g11" transform="translate(21.02340549637838,286.7700451648477)">
     <circle cx="0" cy="0" r="10" fill="red"/>
      <text sodipodi:linespacing="125%" y="5.0" x="0" id="text11" style="font-size:16pxpx;font-style:normal;font-weight:normal;text-align:center;line-height:125%;letter-spacing:0px;word-spacing:0px;text-anchor:middle;fill:#000000;fill-opacity:1;stroke:none;font-family:Sans">
<tspan y="5.0" x="0" id="tspan11" sodipodi:role="line">12</tspan></text>
    </g>
    <g id="g12" transform="translate(137.49820196909428,333.2723195810678)">
     <circle cx="0" cy="0" r="10" fill="red"/>
      <text sodipodi:linespacing="125%" y="5.0" x="0" id="text12" style="font-size:16pxpx;font-style:normal;font-weight:normal;text-align:center;line-height:125%;letter-spacing:0px;word-spacing:0px;text-anchor:middle;fill:#000000;fill-opacity:1;stroke:none;font-family:Sans">
<tspan y="5.0" x="0" id="tspan12" sodipodi:role="line">13</tspan></text>
    </g>
    <g id="g13" transform="translate(352.10133182203055,137.32059005532005)">
     <circle cx="0" cy="0" r="10" fill="red"/>
      <text sodipodi:linespacing="125%" y="5.0" x="0" id="text13" style="font-size:16pxpx;font-style:normal;font-weight:normal;text-align:center;line-height:125%;letter-spacing:0px;word-spacing:0px;text-anchor:middle;fill:#000000;fill-opacity:1;stroke:none;font-family:Sans">
<tspan y="5.0" x="0" id="tspan13" sodipodi:role="line">14</tspan></text>
    </g>
    <g id="g14" transform="translate(279.04198221178683,103.67862651569516)">
     <circle cx="0" cy="0" r="10" fill="red"/>
      <text sodipodi:linespacing="125%" y="5.0" x="0" id="text14" style="font-size:16pxpx;font-style:normal;font-weight:normal;text-align:center;line-height:125%;letter-spacing:0px;word-spacing:0px;text-anchor:middle;fill:#000000;fill-opacity:1;stroke:none;font-family:Sans">
<tspan y="5.0" x="0" id="tspan14" sodipodi:role="line">15</tspan></text>
    </g>
    <g id="g15" transform="translate(330.78111524041617,198.91273838832586)">
     <circle cx="0" cy="0" r="10" fill="red"/>
      <text sodipodi:linespacing="125%" y="5.0" x="0" id="text15" style="font-size:16pxpx;font-style:normal;font-weight:normal;text-align:center;line-height:125%;letter-spacing:0px;word-spacing:0px;text-anchor:middle;fill:#000000;fill-opacity:1;stroke:none;font-family:Sans">
<tspan y="5.0" x="0" id="tspan15" sodipodi:role="line">16</tspan></text>
    </g>
    <g id="g16" transform="translate(203.2536058734643,388.5300913225644)">
     <circle cx="0" cy="0" r="10" fill="red"/>
      <text sodipodi:linespacing="125%" y="5.0" x="0" id="text16" style="font-size:16pxpx;font-style:normal;font-weight:normal;text-align:center;line-height:125%;letter-spacing:0px;word-spacing:0px;text-anchor:middle;fill:#000000;fill-opacity:1;stroke:none;font-family:Sans">
<tspan y="5.0" x="0" id="tspan16" sodipodi:role="line">17</tspan></text>
    </g>
    <g id="g17" transform="translate(390.00000000000006,259.2267548345395)">
     <circle cx="0" cy="0" r="10" fill="red"/>
      <text sodipodi:linespacing="125%" y="5.0" x="0" id="text17" style="font-size:16pxpx;font-style:normal;font-weight:normal;text-align:center;line-height:125%;letter-spacing:0px;word-spacing:0px;text-anchor:middle;fill:#000000;fill-opacity:1;stroke:none;font-family:Sans">
<tspan y="5.0" x="0" id="tspan17" sodipodi:role="line">18</tspan></text>
    </g>
    <g id="g18" transform="translate(107.62479675976154,147.6082731147481)">
     <circle cx="0" cy="0" r="10" fill="red"/>
      <text sodipodi:linespacing="125%" y="5.0" x="0" id="text18" style="font-size:16pxpx;font-style:normal;font-weight:normal;text-align:center;line-height:125%;letter-spacing:0px;word-spacing:0px;text-anchor:middle;fill:#000000;fill-opacity:1;stroke:none;font-family:Sans">
<tspan y="5.0" x="0" id="tspan18" sodipodi:role="line">19</tspan></text>
    </g>
    <g id="g19" transform="translate(377.996971889981,193.49997778770657)">
     <circle cx="0" cy="0" r="10" fill="red"/>
      <text sodipodi:linespacing="125%" y="5.0" x="0" id="text19" style="font-size:16pxpx;font-style:normal;font-weight:normal;text-align:center;line-height:125%;letter-spacing:0px;word-spacing:0px;text-anchor:middle;fill:#000000;fill-opacity:1;stroke:none;font-family:Sans">
<tspan y="5.0" x="0" id="tspan19" sodipodi:role="line">20</tspan></text>
    </g>
    <g id="g20" transform="translate(291.96460345199404,10.0)">
     <circle cx="0" cy="0" r="10" fill="red"/>
      <text sodipodi:linespacing="125%" y="5.0" x="0" id="text20" style="font-size:16pxpx;font-style:normal;font-weight:normal;text-align:center;line-height:125%;letter-spacing:0px;word-spacing:0px;text-anchor:middle;fill:#000000;fill-opacity:1;stroke:none;font-family:Sans">
<tspan y="5.0" x="0" id="tspan20" sodipodi:role="line">21</tspan></text>
    </g>
    <g id="g21" transform="translate(50.170920652672876,134.6981115855537)">
     <circle cx="0" cy="0" r="10" fill="red"/>
      <text sodipodi:linespacing="125%" y="5.0" x="0" id="text21" style="font-size:16pxpx;font-style:normal;font-weight:normal;text-align:center;line-height:125%;letter-spacing:0px;word-spacing:0px;text-anchor:middle;fill:#000000;fill-opacity:1;stroke:none;font-family:Sans">
<tspan y="5.0" x="0" id="tspan21" sodipodi:role="line">22</tspan></text>
    </g>
    <g id="g22" transform="translate(121.8486529903281,92.8391228998664)">
     <circle cx="0" cy="0" r="10" fill="red"/>
      <text sodipodi:linespacing="125%" y="5.0" x="0" id="text22" style="font-size:16pxpx;font-style:normal;font-weight:normal;text-align:center;line-height:125%;letter-spacing:0px;word-spacing:0px;text-anchor:middle;fill:#000000;fill-opacity:1;stroke:none;font-family:Sans">
<tspan y="5.0" x="0" id="tspan22" sodipodi:role="line">23</tspan></text>
    </g>
    <g id="g23" transform="translate(354.92052992062486,293.86233906146293)">
     <circle cx="0" cy="0" r="10" fill="red"/>
      <text sodipodi:linespacing="125%" y="5.0" x="0" id="text23" style="font-size:16pxpx;font-style:normal;font-weight:normal;text-align:center;line-height:125%;letter-spacing:0px;word-spacing:0px;text-anchor:middle;fill:#000000;fill-opacity:1;stroke:none;font-family:Sans">
<tspan y="5.0" x="0" id="tspan23" sodipodi:role="line">24</tspan></text>
    </g>
    <g id="g24" transform="translate(296.5836696604302,369.6788260519657)">
     <circle cx="0" cy="0" r="10" fill="red"/>
      <text sodipodi:linespacing="125%" y="5.0" x="0" id="text24" style="font-size:16pxpx;font-style:normal;font-weight:normal;text-align:center;line-height:125%;letter-spacing:0px;word-spacing:0px;text-anchor:middle;fill:#000000;fill-opacity:1;stroke:none;font-family:Sans">
<tspan y="5.0" x="0" id="tspan24" sodipodi:role="line">25</tspan></text>
    </g>
    <g id="g25" transform="translate(356.3678396119894,346.9511596271383)">
     <circle cx="0" cy="0" r="10" fill="red"/>
      <text sodipodi:linespacing="125%" y="5.0" x="0" id="text25" style="font-size:16pxpx;font-style:normal;font-weight:normal;text-align:center;line-height:125%;letter-spacing:0px;word-spacing:0px;text-anchor:middle;fill:#000000;fill-opacity:1;stroke:none;font-family:Sans">
<tspan y="5.0" x="0" id="tspan25" sodipodi:role="line">26</tspan></text>
    </g>
    <g id="g26" transform="translate(30.369404016493363,184.28261504807688)">
     <circle cx="0" cy="0" r="10" fill="red"/>
      <text sodipodi:linespacing="125%" y="5.0" x="0" id="text26" style="font-size:16pxpx;font-style:normal;font-weight:normal;text-align:center;line-height:125%;letter-spacing:0px;word-spacing:0px;text-anchor:middle;fill:#000000;fill-opacity:1;stroke:none;font-family:Sans">
<tspan y="5.0" x="0" id="tspan26" sodipodi:role="line">27</tspan></text>
    </g>
    <g id="g27" transform="translate(248.08303723521286,390.0)">
     <circle cx="0" cy="0" r="10" fill="red"/>
      <text sodipodi:linespacing="125%" y="5.0" x="0" id="text27" style="font-size:16pxpx;font-style:normal;font-weight:normal;text-align:center;line-height:125%;letter-spacing:0px;word-spacing:0px;text-anchor:middle;fill:#000000;fill-opacity:1;stroke:none;font-family:Sans">
<tspan y="5.0" x="0" id="tspan27" sodipodi:role="line">28</tspan></text>
    </g>
</g>

</svg>
