;1; 2; 3; 4; 5; 6; 7; 8; 9; 10; 11; 12; 13; 14; 15; 16; 17; 18; 19; 20; 21; 22; 23; 24; 25; 26; 27; 28; 29; 30; 31; 32; 33; 34; 35; 36; 37; 38; 39; 40; 41; 42; 43; 44; 45; 46; 47; 48; 49; 50; 51; 52; 53; 54; 55; 56; 57; 58; 59; 60; 61; 62; 63; 64; 65; 66; 67; 68; 69; 70; 71; 72; 73; 74; 75; 76; 77; 78; 79; 80; 81; 82
1;1,000000;0,563972;0,255961;0,400047;0,338086;0,313419;0,380093;0,428830;0,644134;0,493179;0,291471;0,575092;0,200642;0,421475;0,259251;0,236006;0,465309;0,659396;0,305982;0,000000;0,221260;0,236006;0,236006;0,236006;0,194339;0,194339;0,194339;0,194339;0,733601;0,456021;0,298116;0,321583;0,321583;0,345497;0,385372;0,000000;0,000000;0,569339;0,363335;0,543145;0,236006;0,236006;0,194339;0,194339;0,194339;0,194339;0,570296;0,404916;0,404916;0,319339;0,319339;0,259251;0,664049;0,488475;0,236006;0,213624;0,000000;0,319339;0,569339;0,236006;0,236006;0,236006;0,569339;0,569339;0,321583;0,321583;0,319339;0,244339;0,319339;0,319339;0,000000;0,000000;0,000000;0,194339;0,319339;0,526782;0,428830;0,631976;0,319339;0,319339;0,569339;0,595497;
2;;1,000000;0,357149;0,500000;0,438039;0,467264;0,323625;0,583333;0,575291;0,583333;0,446723;0,422245;0,183719;0,338150;0,242327;0,219082;0,830371;0,756165;0,289059;0,000000;0,204337;0,219082;0,219082;0,219082;0,177416;0,177416;0,177416;0,177416;0,830371;0,262763;0,379760;0,186200;0,186200;0,177416;0,116702;0,000000;0,000000;0,552416;0,346411;0,438427;0,219082;0,219082;0,177416;0,177416;0,177416;0,177416;0,670249;0,227867;0,227867;0,302416;0,302416;0,242327;0,437362;0,280282;0,219082;0,196701;0,000000;0,302416;0,552416;0,219082;0,219082;0,219082;0,552416;0,552416;0,186200;0,186200;0,302416;0,227416;0,302416;0,302416;0,000000;0,000000;0,000000;0,177416;0,302416;0,000000;0,219082;0,610973;0,302416;0,302416;0,552416;0,302416;
3;;;1,000000;0,308130;0,239849;0,105809;0,591149;0,233386;0,355472;0,440483;0,303872;0,214778;0,391464;0,049956;0,000000;0,000000;0,346157;0,389404;0,000000;0,000000;0,000000;0,000000;0,000000;0,000000;0,000000;0,000000;0,000000;0,000000;0,281668;0,000000;0,299444;0,156668;0,156668;0,000000;0,000000;0,000000;0,000000;0,000000;0,000000;0,228097;0,000000;0,000000;0,000000;0,000000;0,000000;0,000000;0,000000;0,198335;0,198335;0,000000;0,000000;0,000000;0,281668;0,000000;0,000000;0,143292;0,000000;0,000000;0,000000;0,000000;0,000000;0,000000;0,000000;0,000000;0,156668;0,156668;0,000000;0,151599;0,000000;0,000000;0,000000;0,000000;0,000000;0,183130;0,309311;0,000000;0,000000;0,281668;0,000000;0,000000;0,000000;0,000000;
4;;;;1,000000;0,438039;0,260211;0,262482;0,237830;0,387212;0,000000;0,000000;0,172675;0,833578;0,274990;0,261075;0,237830;0,327356;0,500000;0,307807;0,000000;0,223085;0,237830;0,237830;0,237830;0,196163;0,196163;0,196163;0,196163;0,500000;0,281511;0,376728;0,000000;0,000000;0,196163;0,135450;0,000000;0,000000;0,571163;0,365159;0,202472;0,237830;0,237830;0,196163;0,196163;0,196163;0,196163;0,670249;0,000000;0,000000;0,321163;0,321163;0,261075;0,138910;0,299030;0,237830;0,547701;0,000000;0,321163;0,571163;0,237830;0,237830;0,237830;0,571163;0,571163;0,000000;0,000000;0,321163;0,583578;0,321163;0,321163;0,000000;0,000000;0,000000;0,583578;0,321163;0,000000;0,237830;0,321163;0,321163;0,321163;0,571163;0,321163;
5;;;;;1,000000;0,288440;0,359596;0,266059;0,325251;0,000000;0,000000;0,200903;0,230695;0,303219;0,289304;0,266059;0,355585;0,438039;0,336036;0,000000;0,333273;0,266059;0,266059;0,266059;0,224392;0,224392;0,224392;0,224392;0,438039;0,309740;0,312988;0,000000;0,000000;0,224392;0,163679;0,000000;0,000000;0,599392;0,393388;0,230701;0,266059;0,266059;0,224392;0,224392;0,224392;0,224392;0,608288;0,000000;0,000000;0,349392;0,349392;0,289304;0,167139;0,327259;0,463661;0,455525;0,000000;0,349392;0,599392;0,266059;0,266059;0,266059;0,599392;0,599392;0,000000;0,000000;0,630328;0,496942;0,349392;0,349392;0,000000;0,000000;0,000000;0,540138;0,349392;0,000000;0,266059;0,349392;0,349392;0,349392;0,599392;0,349392;
6;;;;;;1,000000;0,382859;0,550598;0,358905;0,126938;0,133502;0,290560;0,320351;0,449450;0,378960;0,355715;0,638392;0,382134;0,425692;0,000000;0,340970;0,355715;0,355715;0,355715;0,314048;0,314048;0,314048;0,314048;0,386946;0,670618;0,000000;0,000000;0,000000;0,672062;0,510735;0,000000;0,000000;0,689048;0,483044;0,320357;0,355715;0,355715;0,314048;0,314048;0,314048;0,314048;0,470167;0,000000;0,000000;0,439048;0,439048;0,378960;0,256795;0,629956;0,355715;0,333333;0,000000;0,439048;0,689048;0,355715;0,355715;0,355715;0,689048;0,689048;0,000000;0,000000;0,439048;0,364048;0,439048;0,439048;0,000000;0,000000;0,000000;0,314048;0,439048;0,000000;0,609937;0,439048;0,439048;0,439048;0,689048;0,439048;
7;;;;;;;1,000000;0,369770;0,372800;0,406958;0,513259;0,361514;0,345815;0,383869;0,364881;0,386878;0,312633;0,263166;0,261980;0,547466;0,350796;0,358169;0,358169;0,358169;0,407091;0,407091;0,407091;0,407091;0,311752;0,359719;0,271023;0,333280;0,333280;0,420526;0,412342;0,000000;0,000000;0,000000;0,250099;0,258181;0,363700;0,363700;0,407034;0,407034;0,407034;0,407034;0,212623;0,228419;0,228419;0,264726;0,264726;0,365064;0,311752;0,336196;0,357921;0,403910;0,573636;0,288472;0,000000;0,358098;0,358098;0,358098;0,000000;0,000000;0,318714;0,318714;0,262745;0,338991;0,264577;0,264577;0,000000;0,000000;0,000000;0,409348;0,265025;0,000000;0,375252;0,311752;0,264574;0,264574;0,000000;0,274675;
8;;;;;;;;1,000000;0,474974;0,254515;0,189082;0,268178;0,297970;0,370494;0,356579;0,333333;0,754461;0,359753;0,403310;0,000000;0,318588;0,333333;0,333333;0,333333;0,291667;0,291667;0,291667;0,291667;0,364564;0,693858;0,000000;0,000000;0,000000;0,583333;0,469777;0,000000;0,000000;0,666667;0,460662;0,297976;0,333333;0,333333;0,291667;0,291667;0,291667;0,291667;0,447786;0,000000;0,000000;0,416667;0,416667;0,356579;0,234413;0,726311;0,333333;0,310952;0,000000;0,416667;0,666667;0,333333;0,333333;0,333333;0,666667;0,666667;0,000000;0,000000;0,416667;0,341667;0,416667;0,416667;0,000000;0,000000;0,000000;0,291667;0,416667;0,000000;0,666667;0,416667;0,416667;0,416667;0,666667;0,833333;
9;;;;;;;;;1,000000;0,325732;0,516020;0,491938;0,258033;0,448262;0,513115;0,466624;0,562769;0,387212;0,363373;0,000000;0,278651;0,293396;0,293396;0,293396;0,251730;0,251730;0,251730;0,251730;0,387212;0,337077;0,550809;0,515645;0,515645;0,251730;0,540931;0,000000;0,000000;0,626730;0,420725;0,558606;0,534826;0,534826;0,251730;0,251730;0,251730;0,251730;0,557461;0,408361;0,408361;0,376730;0,376730;0,513115;0,463620;0,354597;0,293396;0,271015;0,000000;0,376730;0,626730;0,293396;0,293396;0,293396;0,626730;0,626730;0,474986;0,474986;0,376730;0,301730;0,376730;0,376730;0,000000;0,000000;0,000000;0,251730;0,376730;0,567294;0,293396;0,376730;0,376730;0,376730;0,626730;0,376730;
10;;;;;;;;;;1,000000;0,530056;0,700174;0,000000;0,463419;0,000000;0,000000;0,572341;0,457607;0,000000;0,000000;0,000000;0,000000;0,000000;0,000000;0,000000;0,000000;0,000000;0,000000;0,506193;0,000000;0,000000;0,671596;0,671596;0,000000;0,272940;0,000000;0,000000;0,000000;0,000000;0,671596;0,000000;0,000000;0,000000;0,000000;0,000000;0,000000;0,000000;0,754930;0,754930;0,000000;0,000000;0,000000;0,843417;0,000000;0,000000;0,000000;0,000000;0,000000;0,000000;0,000000;0,000000;0,000000;0,000000;0,000000;0,671596;0,671596;0,000000;0,000000;0,000000;0,000000;0,000000;0,000000;0,000000;0,000000;0,000000;0,663547;0,000000;0,506193;0,000000;0,000000;0,000000;0,000000;
11;;;;;;;;;;;1,000000;0,428662;0,000000;0,271506;0,209465;0,186220;0,435731;0,381109;0,000000;0,000000;0,000000;0,000000;0,000000;0,000000;0,000000;0,000000;0,000000;0,000000;0,429695;0,112825;0,000000;0,659861;0,659861;0,164773;0,132194;0,000000;0,000000;0,000000;0,000000;0,523890;0,257860;0,257860;0,000000;0,000000;0,000000;0,000000;0,000000;0,530456;0,530456;0,000000;0,000000;0,209465;0,429695;0,000000;0,000000;0,000000;0,000000;0,000000;0,000000;0,000000;0,000000;0,000000;0,000000;0,000000;0,586284;0,586284;0,000000;0,000000;0,000000;0,000000;0,000000;0,000000;0,000000;0,000000;0,000000;0,000000;0,000000;0,429695;0,000000;0,000000;0,000000;0,000000;
12;;;;;;;;;;;;1,000000;0,232814;0,668469;0,291423;0,268178;0,644605;0,703700;0,338155;0,000000;0,253433;0,268178;0,268178;0,268178;0,226511;0,226511;0,226511;0,226511;0,771463;0,311859;0,000000;0,669501;0,669501;0,226511;0,408133;0,000000;0,000000;0,601511;0,395507;0,790139;0,465497;0,465497;0,226511;0,226511;0,226511;0,226511;0,382630;0,611912;0,611912;0,351511;0,351511;0,291423;0,911043;0,329378;0,268178;0,245796;0,000000;0,351511;0,601511;0,268178;0,268178;0,268178;0,601511;0,601511;0,528578;0,528578;0,351511;0,276511;0,351511;0,351511;0,000000;0,000000;0,000000;0,226511;0,351511;0,589907;0,268178;0,811272;0,351511;0,351511;0,601511;0,351511;
13;;;;;;;;;;;;;1,000000;0,335130;0,321215;0,297970;0,387496;0,324389;0,367947;0,000000;0,283224;0,297970;0,297970;0,297970;0,256303;0,256303;0,256303;0,256303;0,329201;0,341651;0,000000;0,000000;0,000000;0,256303;0,195590;0,000000;0,000000;0,631303;0,425299;0,262612;0,297970;0,297970;0,256303;0,256303;0,256303;0,256303;0,412422;0,000000;0,000000;0,381303;0,381303;0,321215;0,199050;0,359170;0,297970;0,714123;0,000000;0,381303;0,631303;0,297970;0,297970;0,297970;0,631303;0,631303;0,000000;0,000000;0,381303;0,750000;0,381303;0,381303;0,000000;0,000000;0,000000;0,750000;0,381303;0,000000;0,297970;0,381303;0,381303;0,381303;0,631303;0,381303;
14;;;;;;;;;;;;;;1,000000;0,616431;0,659258;0,560510;0,619605;0,440471;0,000000;0,355749;0,370494;0,370494;0,370494;0,328827;0,328827;0,328827;0,328827;0,687368;0,490859;0,000000;0,291823;0,291823;0,487028;0,424234;0,000000;0,000000;0,703827;0,497823;0,636522;0,370494;0,370494;0,328827;0,328827;0,328827;0,328827;0,484946;0,375156;0,375156;0,453827;0,453827;0,638106;0,757426;0,431694;0,370494;0,348112;0,000000;0,453827;0,703827;0,370494;0,370494;0,370494;0,703827;0,703827;0,291823;0,291823;0,453827;0,378827;0,453827;0,453827;0,000000;0,000000;0,000000;0,328827;0,453827;0,523026;0,370494;0,727177;0,453827;0,453827;0,703827;0,453827;
15;;;;;;;;;;;;;;;1,000000;0,713157;0,446105;0,382998;0,426555;0,000000;0,341833;0,356579;0,356579;0,356579;0,314912;0,314912;0,314912;0,314912;0,387809;0,400260;0,000000;0,000000;0,000000;0,314912;0,571058;0,000000;0,000000;0,689912;0,483907;0,321221;0,356579;0,356579;0,314912;0,314912;0,314912;0,314912;0,471031;0,000000;0,000000;0,439912;0,439912;0,759648;0,257659;0,417779;0,356579;0,334197;0,000000;0,439912;0,689912;0,356579;0,356579;0,356579;0,689912;0,689912;0,000000;0,000000;0,439912;0,364912;0,439912;0,439912;0,000000;0,000000;0,000000;0,314912;0,439912;0,000000;0,356579;0,439912;0,439912;0,439912;0,689912;0,439912;
16;;;;;;;;;;;;;;;;1,000000;0,422859;0,359753;0,403310;0,000000;0,318588;0,333333;0,333333;0,333333;0,291667;0,291667;0,291667;0,291667;0,364564;0,377014;0,000000;0,000000;0,000000;0,291667;0,524567;0,000000;0,000000;0,666667;0,460662;0,297976;0,333333;0,333333;0,291667;0,291667;0,291667;0,291667;0,447786;0,000000;0,000000;0,416667;0,416667;1,000000;0,234413;0,394533;0,333333;0,310952;0,000000;0,416667;0,666667;0,333333;0,333333;0,333333;0,666667;0,666667;0,000000;0,000000;0,416667;0,341667;0,416667;0,416667;0,000000;0,000000;0,000000;0,291667;0,416667;0,000000;0,333333;0,416667;0,416667;0,416667;0,666667;0,416667;
17;;;;;;;;;;;;;;;;;1,000000;0,725762;0,492836;0,000000;0,408114;0,422859;0,422859;0,422859;0,381193;0,381193;0,381193;0,381193;0,793525;0,466540;0,000000;0,186804;0,186804;0,381193;0,320479;0,000000;0,000000;0,756193;0,550188;0,660788;0,422859;0,422859;0,381193;0,381193;0,381193;0,381193;0,537312;0,228471;0,228471;0,506193;0,506193;0,446105;0,659723;0,484060;0,422859;0,400478;0,000000;0,506193;0,756193;0,422859;0,422859;0,422859;0,756193;0,756193;0,186804;0,186804;0,506193;0,431193;0,506193;0,506193;0,000000;0,000000;0,000000;0,381193;0,506193;0,000000;0,422859;0,833333;0,506193;0,506193;0,756193;0,506193;
18;;;;;;;;;;;;;;;;;;1,000000;0,429730;0,000000;0,345008;0,359753;0,359753;0,359753;0,318086;0,318086;0,318086;0,318086;0,925794;0,403434;0,303316;0,326414;0,326414;0,318086;0,257373;0,000000;0,000000;0,693086;0,487082;0,719883;0,359753;0,359753;0,318086;0,318086;0,318086;0,318086;0,670249;0,368080;0,368080;0,443086;0,443086;0,382998;0,718818;0,420953;0,359753;0,337371;0,000000;0,443086;0,693086;0,359753;0,359753;0,359753;0,693086;0,693086;0,326414;0,326414;0,443086;0,368086;0,443086;0,443086;0,000000;0,000000;0,000000;0,318086;0,443086;0,000000;0,359753;0,892428;0,443086;0,443086;0,693086;0,443086;
19;;;;;;;;;;;;;;;;;;;1,000000;0,349809;0,501268;0,403310;0,403310;0,403310;0,361643;0,361643;0,361643;0,361643;0,434541;0,446991;0,000000;0,000000;0,000000;0,361643;0,300930;0,000000;0,000000;0,736643;0,553469;0,367953;0,403310;0,403310;0,361643;0,361643;0,361643;0,361643;0,517763;0,000000;0,000000;0,486643;0,486643;0,426555;0,304390;0,464510;0,642563;0,537571;0,389213;0,872516;0,736643;0,403310;0,403310;0,403310;0,736643;0,736643;0,000000;0,000000;0,486643;0,411643;0,486643;0,486643;0,000000;0,000000;0,000000;0,361643;0,486643;0,000000;0,403310;0,486643;0,486643;0,486643;0,736643;0,486643;
20;;;;;;;;;;;;;;;;;;;;1,000000;0,437835;0,000000;0,000000;0,000000;0,000000;0,000000;0,000000;0,000000;0,000000;0,000000;0,000000;0,000000;0,000000;0,000000;0,000000;0,000000;0,000000;0,000000;0,410917;0,000000;0,000000;0,000000;0,000000;0,000000;0,000000;0,000000;0,000000;0,000000;0,000000;0,000000;0,000000;0,000000;0,000000;0,000000;0,416667;0,357898;0,500000;0,000000;0,000000;0,000000;0,000000;0,000000;0,000000;0,000000;0,000000;0,000000;0,000000;0,000000;0,000000;0,000000;0,000000;0,000000;0,000000;0,000000;0,000000;0,000000;0,000000;0,000000;0,000000;0,000000;0,000000;0,000000;
21;;;;;;;;;;;;;;;;;;;;;1,000000;0,318588;0,318588;0,318588;0,276921;0,276921;0,276921;0,276921;0,349819;0,362269;0,000000;0,000000;0,000000;0,276921;0,216208;0,000000;0,000000;0,651921;0,780005;0,283231;0,318588;0,318588;0,276921;0,276921;0,276921;0,276921;0,433040;0,000000;0,000000;0,401921;0,401921;0,341833;0,219668;0,379788;0,536279;0,431737;0,437835;0,401921;0,651921;0,318588;0,318588;0,318588;0,651921;0,651921;0,000000;0,000000;0,401921;0,452945;0,401921;0,401921;0,000000;0,000000;0,000000;0,452945;0,401921;0,000000;0,318588;0,401921;0,401921;0,401921;0,651921;0,401921;
22;;;;;;;;;;;;;;;;;;;;;;1,000000;0,666667;0,666667;0,291667;0,291667;0,291667;0,291667;0,364564;0,377014;0,000000;0,000000;0,000000;0,291667;0,230953;0,000000;0,000000;0,666667;0,460662;0,297976;0,333333;0,333333;0,291667;0,291667;0,291667;0,291667;0,447786;0,000000;0,000000;0,416667;0,416667;0,356579;0,234413;0,394533;0,333333;0,310952;0,000000;0,416667;0,666667;0,333333;0,333333;0,333333;0,666667;0,666667;0,000000;0,000000;0,416667;0,341667;0,416667;0,416667;0,000000;0,000000;0,000000;0,291667;0,416667;0,000000;0,333333;0,416667;0,416667;0,416667;0,666667;0,416667;
23;;;;;;;;;;;;;;;;;;;;;;;1,000000;0,666667;0,291667;0,291667;0,291667;0,291667;0,364564;0,377014;0,000000;0,000000;0,000000;0,291667;0,230953;0,000000;0,000000;0,666667;0,460662;0,297976;0,333333;0,333333;0,291667;0,291667;0,291667;0,291667;0,447786;0,000000;0,000000;0,416667;0,416667;0,356579;0,234413;0,394533;0,333333;0,310952;0,000000;0,416667;0,666667;0,333333;0,333333;0,333333;0,666667;0,666667;0,000000;0,000000;0,416667;0,341667;0,416667;0,416667;0,000000;0,000000;0,000000;0,291667;0,416667;0,000000;0,333333;0,416667;0,416667;0,416667;0,666667;0,416667;
24;;;;;;;;;;;;;;;;;;;;;;;;1,000000;0,291667;0,291667;0,291667;0,291667;0,364564;0,377014;0,000000;0,000000;0,000000;0,291667;0,230953;0,000000;0,000000;0,666667;0,460662;0,297976;0,333333;0,333333;0,291667;0,291667;0,291667;0,291667;0,447786;0,000000;0,000000;0,416667;0,416667;0,356579;0,234413;0,394533;0,333333;0,310952;0,000000;0,416667;0,666667;0,333333;0,333333;0,333333;0,666667;0,666667;0,000000;0,000000;0,416667;0,341667;0,416667;0,416667;0,000000;0,000000;0,000000;0,291667;0,416667;0,000000;0,333333;0,416667;0,416667;0,416667;0,666667;0,416667;
25;;;;;;;;;;;;;;;;;;;;;;;;;1,000000;0,750000;0,750000;0,750000;0,322898;0,335348;0,000000;0,000000;0,000000;0,250000;0,189287;0,000000;0,000000;0,625000;0,418996;0,256309;0,291667;0,291667;0,250000;0,250000;0,250000;0,250000;0,406119;0,000000;0,000000;0,375000;0,375000;0,314912;0,192747;0,352867;0,291667;0,269285;0,000000;0,375000;0,625000;0,291667;0,291667;0,291667;0,625000;0,625000;0,000000;0,000000;0,375000;0,300000;0,375000;0,375000;0,000000;0,000000;0,000000;0,250000;0,375000;0,000000;0,291667;0,375000;0,375000;0,375000;0,625000;0,375000;
26;;;;;;;;;;;;;;;;;;;;;;;;;;1,000000;0,750000;0,750000;0,322898;0,335348;0,000000;0,000000;0,000000;0,250000;0,189287;0,000000;0,000000;0,625000;0,418996;0,256309;0,291667;0,291667;0,250000;0,250000;0,250000;0,250000;0,406119;0,000000;0,000000;0,375000;0,375000;0,314912;0,192747;0,352867;0,291667;0,269285;0,000000;0,375000;0,625000;0,291667;0,291667;0,291667;0,625000;0,625000;0,000000;0,000000;0,375000;0,300000;0,375000;0,375000;0,000000;0,000000;0,000000;0,250000;0,375000;0,000000;0,291667;0,375000;0,375000;0,375000;0,625000;0,375000;
27;;;;;;;;;;;;;;;;;;;;;;;;;;;1,000000;0,750000;0,322898;0,335348;0,000000;0,000000;0,000000;0,250000;0,189287;0,000000;0,000000;0,625000;0,418996;0,256309;0,291667;0,291667;0,250000;0,250000;0,250000;0,250000;0,406119;0,000000;0,000000;0,375000;0,375000;0,314912;0,192747;0,352867;0,291667;0,269285;0,000000;0,375000;0,625000;0,291667;0,291667;0,291667;0,625000;0,625000;0,000000;0,000000;0,375000;0,300000;0,375000;0,375000;0,000000;0,000000;0,000000;0,250000;0,375000;0,000000;0,291667;0,375000;0,375000;0,375000;0,625000;0,375000;
28;;;;;;;;;;;;;;;;;;;;;;;;;;;;1,000000;0,322898;0,335348;0,000000;0,000000;0,000000;0,250000;0,189287;0,000000;0,000000;0,625000;0,418996;0,256309;0,291667;0,291667;0,250000;0,250000;0,250000;0,250000;0,406119;0,000000;0,000000;0,375000;0,375000;0,314912;0,192747;0,352867;0,291667;0,269285;0,000000;0,375000;0,625000;0,291667;0,291667;0,291667;0,625000;0,625000;0,000000;0,000000;0,375000;0,300000;0,375000;0,375000;0,000000;0,000000;0,000000;0,250000;0,375000;0,000000;0,291667;0,375000;0,375000;0,375000;0,625000;0,375000;
29;;;;;;;;;;;;;;;;;;;;;;;;;;;;;1,000000;0,408245;0,299388;0,375000;0,375000;0,322898;0,262184;0,000000;0,000000;0,697898;0,491893;0,787646;0,364564;0,364564;0,322898;0,322898;0,322898;0,322898;0,670249;0,416667;0,416667;0,447898;0,447898;0,387809;0,786581;0,425764;0,364564;0,342183;0,000000;0,447898;0,697898;0,364564;0,364564;0,364564;0,697898;0,697898;0,375000;0,375000;0,447898;0,372898;0,447898;0,447898;0,000000;0,000000;0,000000;0,322898;0,447898;0,000000;0,364564;0,960191;0,447898;0,447898;0,697898;0,447898;
30;;;;;;;;;;;;;;;;;;;;;;;;;;;;;;1,000000;0,000000;0,000000;0,000000;0,778883;0,616831;0,000000;0,000000;0,710348;0,504343;0,341657;0,377014;0,377014;0,335348;0,335348;0,335348;0,335348;0,491467;0,000000;0,000000;0,460348;0,460348;0,400260;0,278094;0,753502;0,377014;0,354633;0,000000;0,460348;0,710348;0,377014;0,377014;0,377014;0,710348;0,710348;0,000000;0,000000;0,460348;0,385348;0,460348;0,460348;0,000000;0,000000;0,000000;0,335348;0,460348;0,000000;0,913689;0,460348;0,460348;0,460348;0,710348;0,860525;
31;;;;;;;;;;;;;;;;;;;;;;;;;;;;;;;1,000000;0,000000;0,000000;0,000000;0,000000;0,000000;0,000000;0,000000;0,000000;0,000000;0,000000;0,000000;0,000000;0,000000;0,000000;0,000000;0,406822;0,000000;0,000000;0,000000;0,000000;0,000000;0,000000;0,000000;0,000000;0,000000;0,000000;0,000000;0,000000;0,000000;0,000000;0,000000;0,000000;0,000000;0,000000;0,000000;0,000000;0,000000;0,000000;0,000000;0,000000;0,000000;0,000000;0,000000;0,000000;0,000000;0,000000;0,000000;0,000000;0,000000;0,000000;0,000000;
32;;;;;;;;;;;;;;;;;;;;;;;;;;;;;;;;1,000000;0,750000;0,000000;0,234393;0,000000;0,000000;0,000000;0,000000;0,500000;0,291667;0,291667;0,000000;0,000000;0,000000;0,000000;0,000000;0,583333;0,583333;0,000000;0,000000;0,000000;0,671821;0,000000;0,000000;0,000000;0,000000;0,000000;0,000000;0,000000;0,000000;0,000000;0,000000;0,000000;0,500000;0,500000;0,000000;0,000000;0,000000;0,000000;0,000000;0,000000;0,000000;0,000000;0,000000;0,625000;0,000000;0,375000;0,000000;0,000000;0,000000;0,000000;
33;;;;;;;;;;;;;;;;;;;;;;;;;;;;;;;;;1,000000;0,000000;0,234393;0,000000;0,000000;0,000000;0,000000;0,500000;0,291667;0,291667;0,000000;0,000000;0,000000;0,000000;0,000000;0,583333;0,583333;0,000000;0,000000;0,000000;0,671821;0,000000;0,000000;0,000000;0,000000;0,000000;0,000000;0,000000;0,000000;0,000000;0,000000;0,000000;0,500000;0,500000;0,000000;0,000000;0,000000;0,000000;0,000000;0,000000;0,000000;0,000000;0,000000;0,625000;0,000000;0,375000;0,000000;0,000000;0,000000;0,000000;
34;;;;;;;;;;;;;;;;;;;;;;;;;;;;;;;;;;1,000000;0,587336;0,000000;0,000000;0,625000;0,418996;0,256309;0,291667;0,291667;0,250000;0,250000;0,250000;0,250000;0,406119;0,000000;0,000000;0,375000;0,375000;0,314912;0,192747;0,822933;0,291667;0,269285;0,000000;0,375000;0,625000;0,291667;0,291667;0,291667;0,625000;0,625000;0,000000;0,000000;0,375000;0,300000;0,375000;0,375000;0,000000;0,000000;0,000000;0,250000;0,375000;0,000000;0,583333;0,375000;0,375000;0,375000;0,625000;0,750000;
35;;;;;;;;;;;;;;;;;;;;;;;;;;;;;;;;;;;1,000000;0,000000;0,000000;0,564287;0,358282;0,371335;0,230953;0,230953;0,189287;0,189287;0,189287;0,189287;0,345406;0,276059;0,276059;0,314287;0,314287;0,571058;0,439593;0,660269;0,230953;0,208572;0,000000;0,314287;0,564287;0,230953;0,230953;0,230953;0,564287;0,564287;0,234393;0,234393;0,314287;0,239287;0,314287;0,314287;0,000000;0,000000;0,000000;0,189287;0,314287;0,609393;0,469777;0,314287;0,314287;0,314287;0,564287;0,636443;
36;;;;;;;;;;;;;;;;;;;;;;;;;;;;;;;;;;;;1,000000;0,000000;0,000000;0,000000;0,000000;0,000000;0,000000;0,000000;0,000000;0,000000;0,000000;0,000000;0,000000;0,000000;0,000000;0,000000;0,000000;0,000000;0,000000;0,000000;0,000000;0,000000;0,000000;0,000000;0,000000;0,000000;0,000000;0,000000;0,000000;0,000000;0,000000;0,000000;0,000000;0,000000;0,000000;0,000000;0,000000;0,000000;0,000000;0,000000;0,000000;0,000000;0,000000;0,000000;0,000000;0,000000;0,000000;
37;;;;;;;;;;;;;;;;;;;;;;;;;;;;;;;;;;;;;1,000000;0,000000;0,000000;0,000000;0,000000;0,000000;0,000000;0,000000;0,000000;0,000000;0,000000;0,000000;0,000000;0,000000;0,000000;0,000000;0,000000;0,000000;0,000000;0,000000;0,000000;0,000000;0,000000;0,000000;0,000000;0,000000;0,000000;0,000000;0,000000;0,000000;0,000000;0,000000;0,000000;0,000000;0,000000;0,000000;0,000000;0,000000;0,000000;0,000000;0,000000;0,000000;0,000000;0,000000;0,000000;0,000000;
38;;;;;;;;;;;;;;;;;;;;;;;;;;;;;;;;;;;;;;1,000000;0,793996;0,631309;0,666667;0,666667;0,625000;0,625000;0,625000;0,625000;0,781119;0,000000;0,000000;0,750000;0,750000;0,689912;0,567747;0,727867;0,666667;0,644285;0,000000;0,750000;1,000000;0,666667;0,666667;0,666667;1,000000;1,000000;0,000000;0,000000;0,750000;0,675000;0,750000;0,750000;0,000000;0,000000;0,000000;0,625000;0,750000;0,000000;0,666667;0,750000;0,750000;0,750000;1,000000;0,750000;
39;;;;;;;;;;;;;;;;;;;;;;;;;;;;;;;;;;;;;;;1,000000;0,425305;0,460662;0,460662;0,418996;0,418996;0,418996;0,418996;0,575115;0,000000;0,000000;0,543996;0,543996;0,483907;0,361742;0,521862;0,460662;0,438281;0,410917;0,543996;0,793996;0,460662;0,460662;0,460662;0,793996;0,793996;0,000000;0,000000;0,543996;0,468996;0,543996;0,543996;0,000000;0,000000;0,000000;0,418996;0,543996;0,000000;0,460662;0,543996;0,543996;0,543996;0,793996;0,543996;
40;;;;;;;;;;;;;;;;;;;;;;;;;;;;;;;;;;;;;;;;1,000000;0,297976;0,297976;0,256309;0,256309;0,256309;0,256309;0,412428;0,583333;0,583333;0,381309;0,381309;0,321221;0,879096;0,359176;0,297976;0,275594;0,000000;0,381309;0,631309;0,297976;0,297976;0,297976;0,631309;0,631309;0,684716;0,684716;0,381309;0,306309;0,381309;0,381309;0,000000;0,000000;0,000000;0,256309;0,381309;0,556816;0,297976;0,827455;0,381309;0,381309;0,631309;0,381309;
41;;;;;;;;;;;;;;;;;;;;;;;;;;;;;;;;;;;;;;;;;1,000000;0,666667;0,291667;0,291667;0,291667;0,291667;0,447786;0,000000;0,000000;0,416667;0,416667;0,356579;0,234413;0,394533;0,333333;0,310952;0,000000;0,416667;0,666667;0,333333;0,333333;0,333333;0,666667;0,666667;0,000000;0,000000;0,416667;0,341667;0,416667;0,416667;0,000000;0,000000;0,000000;0,291667;0,416667;0,000000;0,333333;0,416667;0,416667;0,416667;0,666667;0,416667;
42;;;;;;;;;;;;;;;;;;;;;;;;;;;;;;;;;;;;;;;;;;1,000000;0,291667;0,291667;0,291667;0,291667;0,447786;0,000000;0,000000;0,416667;0,416667;0,356579;0,234413;0,394533;0,333333;0,310952;0,000000;0,416667;0,666667;0,333333;0,333333;0,333333;0,666667;0,666667;0,000000;0,000000;0,416667;0,341667;0,416667;0,416667;0,000000;0,000000;0,000000;0,291667;0,416667;0,000000;0,333333;0,416667;0,416667;0,416667;0,666667;0,416667;
43;;;;;;;;;;;;;;;;;;;;;;;;;;;;;;;;;;;;;;;;;;;1,000000;0,750000;0,750000;0,750000;0,406119;0,000000;0,000000;0,375000;0,375000;0,314912;0,192747;0,352867;0,291667;0,269285;0,000000;0,375000;0,625000;0,291667;0,291667;0,291667;0,625000;0,625000;0,000000;0,000000;0,375000;0,300000;0,375000;0,375000;0,000000;0,000000;0,000000;0,250000;0,375000;0,000000;0,291667;0,375000;0,375000;0,375000;0,625000;0,375000;
44;;;;;;;;;;;;;;;;;;;;;;;;;;;;;;;;;;;;;;;;;;;;1,000000;0,750000;0,750000;0,406119;0,000000;0,000000;0,375000;0,375000;0,314912;0,192747;0,352867;0,291667;0,269285;0,000000;0,375000;0,625000;0,291667;0,291667;0,291667;0,625000;0,625000;0,000000;0,000000;0,375000;0,300000;0,375000;0,375000;0,000000;0,000000;0,000000;0,250000;0,375000;0,000000;0,291667;0,375000;0,375000;0,375000;0,625000;0,375000;
45;;;;;;;;;;;;;;;;;;;;;;;;;;;;;;;;;;;;;;;;;;;;;1,000000;0,750000;0,406119;0,000000;0,000000;0,375000;0,375000;0,314912;0,192747;0,352867;0,291667;0,269285;0,000000;0,375000;0,625000;0,291667;0,291667;0,291667;0,625000;0,625000;0,000000;0,000000;0,375000;0,300000;0,375000;0,375000;0,000000;0,000000;0,000000;0,250000;0,375000;0,000000;0,291667;0,375000;0,375000;0,375000;0,625000;0,375000;
46;;;;;;;;;;;;;;;;;;;;;;;;;;;;;;;;;;;;;;;;;;;;;;1,000000;0,406119;0,000000;0,000000;0,375000;0,375000;0,314912;0,192747;0,352867;0,291667;0,269285;0,000000;0,375000;0,625000;0,291667;0,291667;0,291667;0,625000;0,625000;0,000000;0,000000;0,375000;0,300000;0,375000;0,375000;0,000000;0,000000;0,000000;0,250000;0,375000;0,000000;0,291667;0,375000;0,375000;0,375000;0,625000;0,375000;
47;;;;;;;;;;;;;;;;;;;;;;;;;;;;;;;;;;;;;;;;;;;;;;;1,000000;0,000000;0,000000;0,531119;0,531119;0,471031;0,348866;0,508986;0,447786;0,425404;0,000000;0,531119;0,781119;0,447786;0,447786;0,447786;0,781119;0,781119;0,000000;0,000000;0,531119;0,456119;0,531119;0,531119;0,000000;0,000000;0,000000;0,406119;0,531119;0,000000;0,447786;0,531119;0,531119;0,531119;0,781119;0,531119;
48;;;;;;;;;;;;;;;;;;;;;;;;;;;;;;;;;;;;;;;;;;;;;;;;1,000000;0,666667;0,000000;0,000000;0,000000;0,755154;0,000000;0,000000;0,000000;0,000000;0,000000;0,000000;0,000000;0,000000;0,000000;0,000000;0,000000;0,583333;0,583333;0,000000;0,000000;0,000000;0,000000;0,000000;0,000000;0,000000;0,000000;0,000000;0,666667;0,000000;0,416667;0,000000;0,000000;0,000000;0,000000;
49;;;;;;;;;;;;;;;;;;;;;;;;;;;;;;;;;;;;;;;;;;;;;;;;;1,000000;0,000000;0,000000;0,000000;0,755154;0,000000;0,000000;0,000000;0,000000;0,000000;0,000000;0,000000;0,000000;0,000000;0,000000;0,000000;0,583333;0,583333;0,000000;0,000000;0,000000;0,000000;0,000000;0,000000;0,000000;0,000000;0,000000;0,666667;0,000000;0,416667;0,000000;0,000000;0,000000;0,000000;
50;;;;;;;;;;;;;;;;;;;;;;;;;;;;;;;;;;;;;;;;;;;;;;;;;;1,000000;0,500000;0,439912;0,317747;0,477867;0,416667;0,394285;0,000000;0,500000;0,750000;0,416667;0,416667;0,416667;0,750000;0,750000;0,000000;0,000000;0,500000;0,425000;0,500000;0,500000;0,000000;0,000000;0,000000;0,375000;0,500000;0,000000;0,416667;0,500000;0,500000;0,500000;0,750000;0,500000;
51;;;;;;;;;;;;;;;;;;;;;;;;;;;;;;;;;;;;;;;;;;;;;;;;;;;1,000000;0,439912;0,317747;0,477867;0,416667;0,394285;0,000000;0,500000;0,750000;0,416667;0,416667;0,416667;0,750000;0,750000;0,000000;0,000000;0,500000;0,425000;0,500000;0,500000;0,000000;0,000000;0,000000;0,375000;0,500000;0,000000;0,416667;0,500000;0,500000;0,500000;0,750000;0,500000;
52;;;;;;;;;;;;;;;;;;;;;;;;;;;;;;;;;;;;;;;;;;;;;;;;;;;;1,000000;0,257659;0,417779;0,356579;0,334197;0,000000;0,439912;0,689912;0,356579;0,356579;0,356579;0,689912;0,689912;0,000000;0,000000;0,439912;0,364912;0,439912;0,439912;0,000000;0,000000;0,000000;0,314912;0,439912;0,000000;0,356579;0,439912;0,439912;0,439912;0,689912;0,439912;
53;;;;;;;;;;;;;;;;;;;;;;;;;;;;;;;;;;;;;;;;;;;;;;;;;;;;;1,000000;0,295613;0,234413;0,212032;0,000000;0,317747;0,567747;0,234413;0,234413;0,234413;0,567747;0,567747;0,671821;0,671821;0,317747;0,242747;0,317747;0,317747;0,000000;0,000000;0,000000;0,192747;0,317747;0,675378;0,234413;0,826389;0,317747;0,317747;0,567747;0,317747;
54;;;;;;;;;;;;;;;;;;;;;;;;;;;;;;;;;;;;;;;;;;;;;;;;;;;;;;1,000000;0,394533;0,372152;0,000000;0,477867;0,727867;0,394533;0,394533;0,394533;0,727867;0,727867;0,000000;0,000000;0,477867;0,402867;0,477867;0,477867;0,000000;0,000000;0,000000;0,352867;0,477867;0,000000;0,726311;0,477867;0,477867;0,477867;0,727867;0,892978;
55;;;;;;;;;;;;;;;;;;;;;;;;;;;;;;;;;;;;;;;;;;;;;;;;;;;;;;;1,000000;0,561675;0,000000;0,416667;0,666667;0,333333;0,333333;0,333333;0,666667;0,666667;0,000000;0,000000;0,416667;0,583333;0,416667;0,416667;0,000000;0,000000;0,000000;0,583333;0,416667;0,000000;0,333333;0,416667;0,416667;0,416667;0,666667;0,416667;
56;;;;;;;;;;;;;;;;;;;;;;;;;;;;;;;;;;;;;;;;;;;;;;;;;;;;;;;;1,000000;0,000000;0,394285;0,644285;0,310952;0,310952;0,310952;0,644285;0,644285;0,000000;0,000000;0,714262;0,621342;0,394285;0,394285;0,000000;0,000000;0,000000;0,664761;0,394285;0,000000;0,310952;0,394285;0,394285;0,394285;0,644285;0,394285;
57;;;;;;;;;;;;;;;;;;;;;;;;;;;;;;;;;;;;;;;;;;;;;;;;;;;;;;;;;1,000000;0,500000;0,000000;0,000000;0,000000;0,000000;0,000000;0,000000;0,000000;0,000000;0,000000;0,000000;0,000000;0,000000;0,000000;0,000000;0,000000;0,000000;0,000000;0,000000;0,000000;0,000000;0,000000;0,000000;0,000000;0,000000;
58;;;;;;;;;;;;;;;;;;;;;;;;;;;;;;;;;;;;;;;;;;;;;;;;;;;;;;;;;;1,000000;0,750000;0,416667;0,416667;0,416667;0,750000;0,750000;0,000000;0,000000;0,500000;0,425000;0,500000;0,500000;0,000000;0,000000;0,000000;0,375000;0,500000;0,000000;0,416667;0,500000;0,500000;0,500000;0,750000;0,500000;
59;;;;;;;;;;;;;;;;;;;;;;;;;;;;;;;;;;;;;;;;;;;;;;;;;;;;;;;;;;;1,000000;0,666667;0,666667;0,666667;1,000000;1,000000;0,000000;0,000000;0,750000;0,675000;0,750000;0,750000;0,000000;0,000000;0,000000;0,625000;0,750000;0,000000;0,666667;0,750000;0,750000;0,750000;1,000000;0,750000;
60;;;;;;;;;;;;;;;;;;;;;;;;;;;;;;;;;;;;;;;;;;;;;;;;;;;;;;;;;;;;1,000000;0,666667;0,666667;0,666667;0,666667;0,000000;0,000000;0,416667;0,341667;0,416667;0,416667;0,000000;0,000000;0,000000;0,291667;0,416667;0,000000;0,333333;0,416667;0,416667;0,416667;0,666667;0,416667;
61;;;;;;;;;;;;;;;;;;;;;;;;;;;;;;;;;;;;;;;;;;;;;;;;;;;;;;;;;;;;;1,000000;0,666667;0,666667;0,666667;0,000000;0,000000;0,416667;0,341667;0,416667;0,416667;0,000000;0,000000;0,000000;0,291667;0,416667;0,000000;0,333333;0,416667;0,416667;0,416667;0,666667;0,416667;
62;;;;;;;;;;;;;;;;;;;;;;;;;;;;;;;;;;;;;;;;;;;;;;;;;;;;;;;;;;;;;;1,000000;0,666667;0,666667;0,000000;0,000000;0,416667;0,341667;0,416667;0,416667;0,000000;0,000000;0,000000;0,291667;0,416667;0,000000;0,333333;0,416667;0,416667;0,416667;0,666667;0,416667;
63;;;;;;;;;;;;;;;;;;;;;;;;;;;;;;;;;;;;;;;;;;;;;;;;;;;;;;;;;;;;;;;1,000000;1,000000;0,000000;0,000000;0,750000;0,675000;0,750000;0,750000;0,000000;0,000000;0,000000;0,625000;0,750000;0,000000;0,666667;0,750000;0,750000;0,750000;1,000000;0,750000;
64;;;;;;;;;;;;;;;;;;;;;;;;;;;;;;;;;;;;;;;;;;;;;;;;;;;;;;;;;;;;;;;;1,000000;0,000000;0,000000;0,750000;0,675000;0,750000;0,750000;0,000000;0,000000;0,000000;0,625000;0,750000;0,000000;0,666667;0,750000;0,750000;0,750000;1,000000;0,750000;
65;;;;;;;;;;;;;;;;;;;;;;;;;;;;;;;;;;;;;;;;;;;;;;;;;;;;;;;;;;;;;;;;;1,000000;0,750000;0,000000;0,000000;0,000000;0,000000;0,000000;0,000000;0,000000;0,000000;0,000000;0,625000;0,000000;0,375000;0,000000;0,000000;0,000000;0,000000;
66;;;;;;;;;;;;;;;;;;;;;;;;;;;;;;;;;;;;;;;;;;;;;;;;;;;;;;;;;;;;;;;;;;1,000000;0,000000;0,000000;0,000000;0,000000;0,000000;0,000000;0,000000;0,000000;0,000000;0,625000;0,000000;0,375000;0,000000;0,000000;0,000000;0,000000;
67;;;;;;;;;;;;;;;;;;;;;;;;;;;;;;;;;;;;;;;;;;;;;;;;;;;;;;;;;;;;;;;;;;;1,000000;0,425000;0,500000;0,500000;0,000000;0,000000;0,000000;0,750000;0,500000;0,000000;0,416667;0,500000;0,500000;0,500000;0,750000;0,500000;
68;;;;;;;;;;;;;;;;;;;;;;;;;;;;;;;;;;;;;;;;;;;;;;;;;;;;;;;;;;;;;;;;;;;;1,000000;0,425000;0,425000;0,000000;0,000000;0,000000;0,706392;0,425000;0,000000;0,341667;0,425000;0,425000;0,425000;0,675000;0,425000;
69;;;;;;;;;;;;;;;;;;;;;;;;;;;;;;;;;;;;;;;;;;;;;;;;;;;;;;;;;;;;;;;;;;;;;1,000000;0,500000;0,000000;0,000000;0,000000;0,375000;0,500000;0,000000;0,416667;0,500000;0,500000;0,500000;0,750000;0,500000;
70;;;;;;;;;;;;;;;;;;;;;;;;;;;;;;;;;;;;;;;;;;;;;;;;;;;;;;;;;;;;;;;;;;;;;;1,000000;0,000000;0,000000;0,000000;0,375000;0,500000;0,000000;0,416667;0,500000;0,500000;0,500000;0,750000;0,500000;
71;;;;;;;;;;;;;;;;;;;;;;;;;;;;;;;;;;;;;;;;;;;;;;;;;;;;;;;;;;;;;;;;;;;;;;;1,000000;0,500000;0,500000;0,000000;0,000000;0,000000;0,000000;0,000000;0,000000;0,000000;0,000000;0,000000;
72;;;;;;;;;;;;;;;;;;;;;;;;;;;;;;;;;;;;;;;;;;;;;;;;;;;;;;;;;;;;;;;;;;;;;;;;1,000000;0,500000;0,000000;0,000000;0,000000;0,000000;0,000000;0,000000;0,000000;0,000000;0,000000;
73;;;;;;;;;;;;;;;;;;;;;;;;;;;;;;;;;;;;;;;;;;;;;;;;;;;;;;;;;;;;;;;;;;;;;;;;;1,000000;0,000000;0,000000;0,000000;0,000000;0,000000;0,000000;0,000000;0,000000;0,000000;
74;;;;;;;;;;;;;;;;;;;;;;;;;;;;;;;;;;;;;;;;;;;;;;;;;;;;;;;;;;;;;;;;;;;;;;;;;;1,000000;0,375000;0,000000;0,291667;0,375000;0,375000;0,375000;0,625000;0,375000;
75;;;;;;;;;;;;;;;;;;;;;;;;;;;;;;;;;;;;;;;;;;;;;;;;;;;;;;;;;;;;;;;;;;;;;;;;;;;1,000000;0,000000;0,416667;0,500000;0,500000;0,500000;0,750000;0,500000;
76;;;;;;;;;;;;;;;;;;;;;;;;;;;;;;;;;;;;;;;;;;;;;;;;;;;;;;;;;;;;;;;;;;;;;;;;;;;;1,000000;0,000000;0,000000;0,000000;0,000000;0,000000;0,000000;
77;;;;;;;;;;;;;;;;;;;;;;;;;;;;;;;;;;;;;;;;;;;;;;;;;;;;;;;;;;;;;;;;;;;;;;;;;;;;;1,000000;0,416667;0,416667;0,416667;0,666667;0,833333;
78;;;;;;;;;;;;;;;;;;;;;;;;;;;;;;;;;;;;;;;;;;;;;;;;;;;;;;;;;;;;;;;;;;;;;;;;;;;;;;1,000000;0,500000;0,500000;0,750000;0,500000;
79;;;;;;;;;;;;;;;;;;;;;;;;;;;;;;;;;;;;;;;;;;;;;;;;;;;;;;;;;;;;;;;;;;;;;;;;;;;;;;;1,000000;0,500000;0,750000;0,500000;
80;;;;;;;;;;;;;;;;;;;;;;;;;;;;;;;;;;;;;;;;;;;;;;;;;;;;;;;;;;;;;;;;;;;;;;;;;;;;;;;;1,000000;0,750000;0,500000;
81;;;;;;;;;;;;;;;;;;;;;;;;;;;;;;;;;;;;;;;;;;;;;;;;;;;;;;;;;;;;;;;;;;;;;;;;;;;;;;;;;1,000000;0,750000;
82;;;;;;;;;;;;;;;;;;;;;;;;;;;;;;;;;;;;;;;;;;;;;;;;;;;;;;;;;;;;;;;;;;;;;;;;;;;;;;;;;;1,000000;
