;1; 2; 3; 4; 5; 6; 7; 8; 9; 10; 11; 12; 13; 14; 15; 16; 17; 18; 19; 20; 21; 22; 23; 24; 25; 26; 27; 28; 29; 30; 31; 32; 33; 34; 35; 36; 37; 38; 39; 40; 41; 42; 43; 44; 45; 46; 47; 48; 49; 50; 51; 52; 53; 54; 55; 56; 57; 58; 59; 60; 61; 62; 63; 64; 65; 66
1;1,000000;0,377003;0,377003;0,377003;0,494879;0,640189;0,572764;0,556097;0,572764;0,277420;0,436316;0,427109;0,516654;0,511559;0,429540;0,429540;0,429540;0,429540;0,434785;0,555747;0,482996;0,418735;0,335979;0,442264;0,442264;0,375650;0,375650;0,375650;0,504188;0,538742;0,504188;0,287395;0,471043;0,375585;0,375585;0,375585;0,452549;0,452549;0,287395;0,460628;0,000000;0,000000;0,000000;0,000000;0,000000;0,000000;0,000000;0,482996;0,000000;0,000000;0,441925;0,441925;0,499480;0,499480;0,499480;0,499480;0,499480;0,499480;0,532828;0,182998;0,182998;0,482996;0,363203;0,363203;0,452549;0,452549;
2;;1,000000;0,666667;0,666667;0,328991;0,330246;0,266667;0,285340;0,266667;0,416667;0,294997;0,266511;0,310952;0,341667;0,291667;0,291667;0,291667;0,291667;0,383954;0,328789;0,333333;0,000000;0,000000;0,225603;0,225603;0,333333;0,333333;0,333333;0,291667;0,291667;0,291667;0,416667;0,333333;0,333333;0,333333;0,333333;0,333333;0,333333;0,416667;0,333333;0,000000;0,000000;0,000000;0,000000;0,000000;0,000000;0,000000;0,333333;0,000000;0,000000;0,291667;0,291667;0,291667;0,291667;0,291667;0,291667;0,291667;0,291667;0,291667;0,000000;0,000000;0,333333;0,416667;0,416667;0,333333;0,333333;
3;;;1,000000;0,666667;0,328991;0,330246;0,266667;0,285340;0,266667;0,416667;0,294997;0,266511;0,310952;0,341667;0,291667;0,291667;0,291667;0,291667;0,383954;0,328789;0,333333;0,000000;0,000000;0,225603;0,225603;0,333333;0,333333;0,333333;0,291667;0,291667;0,291667;0,416667;0,333333;0,333333;0,333333;0,333333;0,333333;0,333333;0,416667;0,333333;0,000000;0,000000;0,000000;0,000000;0,000000;0,000000;0,000000;0,333333;0,000000;0,000000;0,291667;0,291667;0,291667;0,291667;0,291667;0,291667;0,291667;0,291667;0,291667;0,000000;0,000000;0,333333;0,416667;0,416667;0,333333;0,333333;
4;;;;1,000000;0,328991;0,330246;0,266667;0,285340;0,266667;0,416667;0,294997;0,266511;0,310952;0,341667;0,291667;0,291667;0,291667;0,291667;0,383954;0,328789;0,333333;0,000000;0,000000;0,225603;0,225603;0,333333;0,333333;0,333333;0,291667;0,291667;0,291667;0,416667;0,333333;0,333333;0,333333;0,333333;0,333333;0,333333;0,416667;0,333333;0,000000;0,000000;0,000000;0,000000;0,000000;0,000000;0,000000;0,333333;0,000000;0,000000;0,291667;0,291667;0,291667;0,291667;0,291667;0,291667;0,291667;0,291667;0,291667;0,000000;0,000000;0,333333;0,416667;0,416667;0,333333;0,333333;
5;;;;;1,000000;0,578737;0,720631;0,704308;0,720631;0,412325;0,449968;0,430341;0,517047;0,506693;0,287325;0,287325;0,287325;0,287325;0,663051;0,533304;0,561810;0,000000;0,000000;0,348570;0,348570;0,328991;0,328991;0,328991;0,630128;0,570896;0,630128;0,412325;0,561810;0,328991;0,328991;0,328991;0,561810;0,561810;0,412325;0,772654;0,000000;0,000000;0,000000;0,000000;0,000000;0,000000;0,000000;0,561810;0,000000;0,000000;0,287325;0,287325;0,478476;0,478476;0,478476;0,478476;0,478476;0,478476;0,630128;0,000000;0,000000;0,561810;0,728476;0,728476;0,561810;0,561810;
6;;;;;;1,000000;0,616357;0,599773;0,616357;0,685690;0,491426;0,485527;0,580654;0,459465;0,288580;0,288580;0,288580;0,288580;0,494739;0,571801;0,542799;0,423716;0,345275;0,490043;0,490043;0,330246;0,330246;0,330246;0,560040;0,578165;0,560040;0,680978;0,519024;0,330246;0,330246;0,330246;0,505064;0,505064;0,680978;0,515809;0,000000;0,000000;0,000000;0,000000;0,000000;0,000000;0,000000;0,542799;0,000000;0,000000;0,593762;0,593762;0,553692;0,553692;0,553692;0,553692;0,553692;0,553692;0,570061;0,188761;0,188761;0,542799;0,413580;0,413580;0,505064;0,505064;
7;;;;;;;1,000000;0,783271;0,800000;0,350000;0,421491;0,401865;0,488570;0,478217;0,225000;0,225000;0,225000;0,225000;0,634574;0,504828;0,533333;0,000000;0,000000;0,320094;0,320094;0,266667;0,266667;0,266667;0,450000;0,614953;0,450000;0,700000;0,533333;0,266667;0,266667;0,266667;0,533333;0,533333;0,700000;0,800000;0,000000;0,000000;0,000000;0,000000;0,000000;0,000000;0,000000;0,533333;0,000000;0,000000;0,225000;0,225000;0,450000;0,450000;0,450000;0,450000;0,450000;0,450000;0,675000;0,000000;0,000000;0,533333;0,700000;0,700000;0,533333;0,533333;
8;;;;;;;;1,000000;0,783271;0,368673;0,458837;0,439211;0,525917;0,515563;0,243673;0,243673;0,243673;0,243673;0,671920;0,542174;0,570680;0,000000;0,000000;0,357440;0,357440;0,285340;0,285340;0,285340;0,487346;0,623771;0,487346;0,691538;0,570680;0,285340;0,285340;0,285340;0,570680;0,570680;0,691538;0,570680;0,000000;0,000000;0,000000;0,000000;0,000000;0,000000;0,000000;0,570680;0,000000;0,000000;0,243673;0,243673;0,487346;0,487346;0,487346;0,487346;0,487346;0,487346;0,683818;0,000000;0,000000;0,570680;0,737346;0,737346;0,570680;0,570680;
9;;;;;;;;;1,000000;0,350000;0,421491;0,401865;0,488570;0,478217;0,225000;0,225000;0,225000;0,225000;0,634574;0,504828;0,533333;0,000000;0,000000;0,320094;0,320094;0,266667;0,266667;0,266667;0,450000;0,614953;0,450000;0,700000;0,533333;0,266667;0,266667;0,266667;0,533333;0,533333;0,700000;0,800000;0,000000;0,000000;0,000000;0,000000;0,000000;0,000000;0,000000;0,533333;0,000000;0,000000;0,225000;0,225000;0,450000;0,450000;0,450000;0,450000;0,450000;0,450000;0,675000;0,000000;0,000000;0,533333;0,700000;0,700000;0,533333;0,533333;
10;;;;;;;;;;1,000000;0,378330;0,349845;0,394285;0,425000;0,375000;0,375000;0,375000;0,375000;0,467287;0,412123;0,416667;0,375000;0,335887;0,673454;0,673454;0,416667;0,416667;0,416667;0,375000;0,375000;0,375000;0,500000;0,833333;0,416667;0,416667;0,416667;0,416667;0,416667;0,500000;0,416667;0,000000;0,000000;0,000000;0,000000;0,000000;0,000000;0,000000;0,416667;0,000000;0,000000;0,375000;0,375000;0,375000;0,375000;0,375000;0,375000;0,375000;0,375000;0,375000;0,000000;0,000000;0,416667;0,500000;0,500000;0,416667;0,416667;
11;;;;;;;;;;;1,000000;0,433378;0,510062;0,499708;0,253330;0,253330;0,253330;0,253330;0,656065;0,526319;0,554825;0,577805;0,513749;0,727699;0,727699;0,294997;0,294997;0,294997;0,471491;0,471491;0,471491;0,378330;0,554825;0,294997;0,294997;0,294997;0,554825;0,554825;0,378330;0,554825;0,000000;0,000000;0,000000;0,000000;0,000000;0,000000;0,000000;0,554825;0,000000;0,000000;0,253330;0,253330;0,471491;0,471491;0,471491;0,471491;0,471491;0,471491;0,471491;0,216600;0,216600;0,554825;0,721491;0,721491;0,554825;0,554825;
12;;;;;;;;;;;;1,000000;0,608873;0,596943;0,224845;0,224845;0,224845;0,224845;0,752390;0,637586;0,752390;0,207097;0,494311;0,375460;0,375460;0,266511;0,266511;0,266511;0,451865;0,451865;0,451865;0,349845;0,535198;0,266511;0,266511;0,266511;0,535198;0,535198;0,349845;0,535198;0,000000;0,000000;0,000000;0,000000;0,000000;0,000000;0,000000;0,752390;0,000000;0,000000;0,401289;0,401289;0,451865;0,451865;0,451865;0,451865;0,451865;0,451865;0,451865;0,516852;0,516852;0,752390;0,701865;0,701865;0,535198;0,535198;
13;;;;;;;;;;;;;1,000000;0,701036;0,269285;0,269285;0,269285;0,269285;0,856482;0,759019;0,856482;0,000000;0,251374;0,408664;0,408664;0,310952;0,310952;0,310952;0,538570;0,538570;0,538570;0,394285;0,621904;0,310952;0,310952;0,310952;0,621904;0,621904;0,394285;0,621904;0,000000;0,000000;0,000000;0,000000;0,000000;0,000000;0,000000;0,856482;0,000000;0,000000;0,464051;0,464051;0,538570;0,538570;0,538570;0,538570;0,538570;0,538570;0,538570;0,310952;0,310952;0,856482;0,788570;0,788570;0,621904;0,621904;
14;;;;;;;;;;;;;;1,000000;0,300000;0,300000;0,300000;0,300000;0,844553;0,763767;0,844553;0,000000;0,000000;0,398311;0,398311;0,341667;0,341667;0,341667;0,528217;0,528217;0,528217;0,425000;0,611550;0,341667;0,341667;0,341667;0,611550;0,611550;0,425000;0,611550;0,000000;0,000000;0,000000;0,000000;0,000000;0,000000;0,000000;0,844553;0,000000;0,000000;0,706892;0,706892;0,528217;0,528217;0,528217;0,528217;0,528217;0,528217;0,528217;0,000000;0,000000;0,844553;0,778217;0,778217;0,611550;0,611550;
15;;;;;;;;;;;;;;;1,000000;0,750000;0,750000;0,750000;0,342287;0,287123;0,291667;0,000000;0,000000;0,183936;0,183936;0,291667;0,291667;0,291667;0,250000;0,250000;0,250000;0,375000;0,291667;0,291667;0,291667;0,291667;0,291667;0,291667;0,375000;0,291667;0,000000;0,000000;0,000000;0,000000;0,000000;0,000000;0,000000;0,291667;0,000000;0,000000;0,250000;0,250000;0,250000;0,250000;0,250000;0,250000;0,250000;0,250000;0,250000;0,000000;0,000000;0,291667;0,375000;0,375000;0,291667;0,291667;
16;;;;;;;;;;;;;;;;1,000000;0,750000;0,750000;0,342287;0,287123;0,291667;0,000000;0,000000;0,183936;0,183936;0,291667;0,291667;0,291667;0,250000;0,250000;0,250000;0,375000;0,291667;0,291667;0,291667;0,291667;0,291667;0,291667;0,375000;0,291667;0,000000;0,000000;0,000000;0,000000;0,000000;0,000000;0,000000;0,291667;0,000000;0,000000;0,250000;0,250000;0,250000;0,250000;0,250000;0,250000;0,250000;0,250000;0,250000;0,000000;0,000000;0,291667;0,375000;0,375000;0,291667;0,291667;
17;;;;;;;;;;;;;;;;;1,000000;0,750000;0,342287;0,287123;0,291667;0,000000;0,000000;0,183936;0,183936;0,291667;0,291667;0,291667;0,250000;0,250000;0,250000;0,375000;0,291667;0,291667;0,291667;0,291667;0,291667;0,291667;0,375000;0,291667;0,000000;0,000000;0,000000;0,000000;0,000000;0,000000;0,000000;0,291667;0,000000;0,000000;0,250000;0,250000;0,250000;0,250000;0,250000;0,250000;0,250000;0,250000;0,250000;0,000000;0,000000;0,291667;0,375000;0,375000;0,291667;0,291667;
18;;;;;;;;;;;;;;;;;;1,000000;0,342287;0,287123;0,291667;0,000000;0,000000;0,183936;0,183936;0,291667;0,291667;0,291667;0,250000;0,250000;0,250000;0,375000;0,291667;0,291667;0,291667;0,291667;0,291667;0,291667;0,375000;0,291667;0,000000;0,000000;0,000000;0,000000;0,000000;0,000000;0,000000;0,291667;0,000000;0,000000;0,250000;0,250000;0,250000;0,250000;0,250000;0,250000;0,250000;0,250000;0,250000;0,000000;0,000000;0,291667;0,375000;0,375000;0,291667;0,291667;
19;;;;;;;;;;;;;;;;;;;1,000000;0,739402;1,000000;0,000000;0,000000;0,554668;0,554668;0,383954;0,383954;0,383954;0,684574;0,684574;0,684574;0,467287;0,767907;0,383954;0,383954;0,383954;0,767907;0,767907;0,467287;0,767907;0,000000;0,000000;0,000000;0,000000;0,000000;0,000000;0,000000;1,000000;0,000000;0,000000;0,535274;0,535274;0,684574;0,684574;0,684574;0,684574;0,684574;0,684574;0,684574;0,000000;0,000000;1,000000;0,934574;0,934574;0,767907;0,767907;
20;;;;;;;;;;;;;;;;;;;;1,000000;0,638161;0,000000;0,141140;0,424922;0,424922;0,328789;0,328789;0,328789;0,554828;0,554828;0,554828;0,412123;0,638161;0,328789;0,328789;0,328789;0,638161;0,638161;0,412123;0,638161;0,000000;0,000000;0,000000;0,000000;0,000000;0,000000;0,000000;0,638161;0,000000;0,000000;0,586529;0,586529;0,554828;0,554828;0,554828;0,554828;0,554828;0,554828;0,554828;0,200718;0,200718;0,638161;0,804828;0,804828;0,638161;0,638161;
21;;;;;;;;;;;;;;;;;;;;;1,000000;0,000000;0,000000;0,453427;0,453427;0,333333;0,333333;0,333333;0,583333;0,583333;0,583333;0,416667;0,666667;0,333333;0,333333;0,333333;0,666667;0,666667;0,416667;0,666667;0,000000;0,000000;0,000000;0,000000;0,000000;0,000000;0,000000;1,000000;0,000000;0,000000;0,583333;0,583333;0,583333;0,583333;0,583333;0,583333;0,583333;0,583333;0,583333;0,000000;0,000000;1,000000;0,833333;0,833333;0,666667;0,666667;
22;;;;;;;;;;;;;;;;;;;;;;1,000000;0,651882;0,690078;0,690078;0,000000;0,000000;0,000000;0,000000;0,000000;0,000000;0,000000;0,291667;0,000000;0,000000;0,000000;0,000000;0,000000;0,000000;0,000000;0,000000;0,000000;0,000000;0,000000;0,000000;0,000000;0,000000;0,000000;0,000000;0,000000;0,000000;0,000000;0,000000;0,000000;0,000000;0,000000;0,000000;0,000000;0,000000;0,291667;0,291667;0,000000;0,000000;0,000000;0,000000;0,000000;
23;;;;;;;;;;;;;;;;;;;;;;;1,000000;0,598923;0,598923;0,000000;0,000000;0,000000;0,000000;0,000000;0,000000;0,000000;0,252554;0,000000;0,000000;0,000000;0,000000;0,000000;0,000000;0,000000;0,000000;0,000000;0,000000;0,000000;0,000000;0,000000;0,000000;0,000000;0,000000;0,000000;0,000000;0,000000;0,000000;0,000000;0,000000;0,000000;0,000000;0,000000;0,000000;0,566360;0,566360;0,000000;0,000000;0,000000;0,000000;0,000000;
24;;;;;;;;;;;;;;;;;;;;;;;;1,000000;0,750000;0,225603;0,225603;0,225603;0,370094;0,370094;0,370094;0,308936;0,720555;0,225603;0,225603;0,225603;0,453427;0,453427;0,308936;0,453427;0,000000;0,000000;0,000000;0,000000;0,000000;0,000000;0,000000;0,453427;0,000000;0,000000;0,183936;0,183936;0,370094;0,370094;0,370094;0,370094;0,370094;0,370094;0,370094;0,254598;0,254598;0,453427;0,620094;0,620094;0,453427;0,453427;
25;;;;;;;;;;;;;;;;;;;;;;;;;1,000000;0,225603;0,225603;0,225603;0,370094;0,370094;0,370094;0,308936;0,720555;0,225603;0,225603;0,225603;0,453427;0,453427;0,308936;0,453427;0,000000;0,000000;0,000000;0,000000;0,000000;0,000000;0,000000;0,453427;0,000000;0,000000;0,183936;0,183936;0,370094;0,370094;0,370094;0,370094;0,370094;0,370094;0,370094;0,254598;0,254598;0,453427;0,620094;0,620094;0,453427;0,453427;
26;;;;;;;;;;;;;;;;;;;;;;;;;;1,000000;0,666667;0,666667;0,291667;0,291667;0,291667;0,416667;0,333333;0,333333;0,333333;0,333333;0,333333;0,333333;0,416667;0,333333;0,000000;0,000000;0,000000;0,000000;0,000000;0,000000;0,000000;0,333333;0,000000;0,000000;0,291667;0,291667;0,291667;0,291667;0,291667;0,291667;0,291667;0,291667;0,291667;0,000000;0,000000;0,333333;0,416667;0,416667;0,333333;0,333333;
27;;;;;;;;;;;;;;;;;;;;;;;;;;;1,000000;0,666667;0,291667;0,291667;0,291667;0,416667;0,333333;0,333333;0,333333;0,333333;0,333333;0,333333;0,416667;0,333333;0,000000;0,000000;0,000000;0,000000;0,000000;0,000000;0,000000;0,333333;0,000000;0,000000;0,291667;0,291667;0,291667;0,291667;0,291667;0,291667;0,291667;0,291667;0,291667;0,000000;0,000000;0,333333;0,416667;0,416667;0,333333;0,333333;
28;;;;;;;;;;;;;;;;;;;;;;;;;;;;1,000000;0,291667;0,291667;0,291667;0,416667;0,333333;0,333333;0,333333;0,333333;0,333333;0,333333;0,416667;0,333333;0,000000;0,000000;0,000000;0,000000;0,000000;0,000000;0,000000;0,333333;0,000000;0,000000;0,291667;0,291667;0,291667;0,291667;0,291667;0,291667;0,291667;0,291667;0,291667;0,000000;0,000000;0,333333;0,416667;0,416667;0,333333;0,333333;
29;;;;;;;;;;;;;;;;;;;;;;;;;;;;;1,000000;0,690651;0,750000;0,375000;0,583333;0,291667;0,291667;0,291667;0,583333;0,583333;0,375000;0,583333;0,000000;0,000000;0,000000;0,000000;0,000000;0,000000;0,000000;0,583333;0,000000;0,000000;0,250000;0,250000;0,500000;0,500000;0,500000;0,500000;0,500000;0,500000;0,750000;0,000000;0,000000;0,583333;0,750000;0,750000;0,583333;0,583333;
30;;;;;;;;;;;;;;;;;;;;;;;;;;;;;;1,000000;0,690651;0,691687;0,583333;0,291667;0,291667;0,291667;0,583333;0,583333;0,691687;0,583333;0,000000;0,000000;0,000000;0,000000;0,000000;0,000000;0,000000;0,583333;0,000000;0,000000;0,250000;0,250000;0,500000;0,500000;0,500000;0,500000;0,500000;0,500000;0,689953;0,000000;0,000000;0,583333;0,750000;0,750000;0,583333;0,583333;
31;;;;;;;;;;;;;;;;;;;;;;;;;;;;;;;1,000000;0,375000;0,583333;0,291667;0,291667;0,291667;0,583333;0,583333;0,375000;0,583333;0,000000;0,000000;0,000000;0,000000;0,000000;0,000000;0,000000;0,583333;0,000000;0,000000;0,250000;0,250000;0,500000;0,500000;0,500000;0,500000;0,500000;0,500000;0,750000;0,000000;0,000000;0,583333;0,750000;0,750000;0,583333;0,583333;
32;;;;;;;;;;;;;;;;;;;;;;;;;;;;;;;;1,000000;0,416667;0,416667;0,416667;0,416667;0,416667;0,416667;1,000000;0,416667;0,000000;0,000000;0,000000;0,000000;0,000000;0,000000;0,000000;0,416667;0,000000;0,000000;0,375000;0,375000;0,375000;0,375000;0,375000;0,375000;0,375000;0,375000;0,750000;0,000000;0,000000;0,416667;0,500000;0,500000;0,416667;0,416667;
33;;;;;;;;;;;;;;;;;;;;;;;;;;;;;;;;;1,000000;0,333333;0,333333;0,333333;0,666667;0,666667;0,416667;0,666667;0,000000;0,000000;0,000000;0,000000;0,000000;0,000000;0,000000;0,666667;0,000000;0,000000;0,291667;0,291667;0,583333;0,583333;0,583333;0,583333;0,583333;0,583333;0,583333;0,000000;0,000000;0,666667;0,833333;0,833333;0,666667;0,666667;
34;;;;;;;;;;;;;;;;;;;;;;;;;;;;;;;;;;1,000000;0,666667;0,666667;0,333333;0,333333;0,416667;0,333333;0,000000;0,000000;0,000000;0,000000;0,000000;0,000000;0,000000;0,333333;0,000000;0,000000;0,291667;0,291667;0,291667;0,291667;0,291667;0,291667;0,291667;0,291667;0,291667;0,000000;0,000000;0,333333;0,416667;0,416667;0,333333;0,333333;
35;;;;;;;;;;;;;;;;;;;;;;;;;;;;;;;;;;;1,000000;0,666667;0,333333;0,333333;0,416667;0,333333;0,000000;0,000000;0,000000;0,000000;0,000000;0,000000;0,000000;0,333333;0,000000;0,000000;0,291667;0,291667;0,291667;0,291667;0,291667;0,291667;0,291667;0,291667;0,291667;0,000000;0,000000;0,333333;0,416667;0,416667;0,333333;0,333333;
36;;;;;;;;;;;;;;;;;;;;;;;;;;;;;;;;;;;;1,000000;0,333333;0,333333;0,416667;0,333333;0,000000;0,000000;0,000000;0,000000;0,000000;0,000000;0,000000;0,333333;0,000000;0,000000;0,291667;0,291667;0,291667;0,291667;0,291667;0,291667;0,291667;0,291667;0,291667;0,000000;0,000000;0,333333;0,416667;0,416667;0,333333;0,333333;
37;;;;;;;;;;;;;;;;;;;;;;;;;;;;;;;;;;;;;1,000000;0,666667;0,416667;0,666667;0,000000;0,000000;0,000000;0,000000;0,000000;0,000000;0,000000;0,666667;0,000000;0,000000;0,291667;0,291667;0,583333;0,583333;0,583333;0,583333;0,583333;0,583333;0,583333;0,000000;0,000000;0,666667;0,833333;0,833333;0,666667;0,666667;
38;;;;;;;;;;;;;;;;;;;;;;;;;;;;;;;;;;;;;;1,000000;0,416667;0,666667;0,000000;0,000000;0,000000;0,000000;0,000000;0,000000;0,000000;0,666667;0,000000;0,000000;0,291667;0,291667;0,583333;0,583333;0,583333;0,583333;0,583333;0,583333;0,583333;0,000000;0,000000;0,666667;0,833333;0,833333;0,666667;0,666667;
39;;;;;;;;;;;;;;;;;;;;;;;;;;;;;;;;;;;;;;;1,000000;0,416667;0,000000;0,000000;0,000000;0,000000;0,000000;0,000000;0,000000;0,416667;0,000000;0,000000;0,375000;0,375000;0,375000;0,375000;0,375000;0,375000;0,375000;0,375000;0,750000;0,000000;0,000000;0,416667;0,500000;0,500000;0,416667;0,416667;
40;;;;;;;;;;;;;;;;;;;;;;;;;;;;;;;;;;;;;;;;1,000000;0,000000;0,000000;0,000000;0,000000;0,000000;0,000000;0,000000;0,666667;0,000000;0,000000;0,291667;0,291667;0,583333;0,583333;0,583333;0,583333;0,583333;0,583333;0,583333;0,000000;0,000000;0,666667;0,833333;0,833333;0,666667;0,666667;
41;;;;;;;;;;;;;;;;;;;;;;;;;;;;;;;;;;;;;;;;;1,000000;0,833333;0,833333;0,833333;0,833333;0,833333;0,833333;0,000000;0,000000;0,000000;0,000000;0,000000;0,000000;0,000000;0,000000;0,000000;0,000000;0,000000;0,000000;0,000000;0,000000;0,000000;0,000000;0,000000;0,000000;0,000000;
42;;;;;;;;;;;;;;;;;;;;;;;;;;;;;;;;;;;;;;;;;;1,000000;0,833333;0,833333;0,833333;0,833333;0,833333;0,000000;0,000000;0,000000;0,000000;0,000000;0,000000;0,000000;0,000000;0,000000;0,000000;0,000000;0,000000;0,000000;0,000000;0,000000;0,000000;0,000000;0,000000;0,000000;
43;;;;;;;;;;;;;;;;;;;;;;;;;;;;;;;;;;;;;;;;;;;1,000000;0,833333;0,833333;0,833333;0,833333;0,000000;0,000000;0,000000;0,000000;0,000000;0,000000;0,000000;0,000000;0,000000;0,000000;0,000000;0,000000;0,000000;0,000000;0,000000;0,000000;0,000000;0,000000;0,000000;
44;;;;;;;;;;;;;;;;;;;;;;;;;;;;;;;;;;;;;;;;;;;;1,000000;0,833333;0,833333;0,833333;0,000000;0,000000;0,000000;0,000000;0,000000;0,000000;0,000000;0,000000;0,000000;0,000000;0,000000;0,000000;0,000000;0,000000;0,000000;0,000000;0,000000;0,000000;0,000000;
45;;;;;;;;;;;;;;;;;;;;;;;;;;;;;;;;;;;;;;;;;;;;;1,000000;0,833333;0,833333;0,000000;0,000000;0,000000;0,000000;0,000000;0,000000;0,000000;0,000000;0,000000;0,000000;0,000000;0,000000;0,000000;0,000000;0,000000;0,000000;0,000000;0,000000;0,000000;
46;;;;;;;;;;;;;;;;;;;;;;;;;;;;;;;;;;;;;;;;;;;;;;1,000000;0,833333;0,000000;0,000000;0,000000;0,000000;0,000000;0,000000;0,000000;0,000000;0,000000;0,000000;0,000000;0,000000;0,000000;0,000000;0,000000;0,000000;0,000000;0,000000;0,000000;
47;;;;;;;;;;;;;;;;;;;;;;;;;;;;;;;;;;;;;;;;;;;;;;;1,000000;0,000000;0,000000;0,000000;0,000000;0,000000;0,000000;0,000000;0,000000;0,000000;0,000000;0,000000;0,000000;0,000000;0,000000;0,000000;0,000000;0,000000;0,000000;0,000000;
48;;;;;;;;;;;;;;;;;;;;;;;;;;;;;;;;;;;;;;;;;;;;;;;;1,000000;0,000000;0,000000;0,583333;0,583333;0,583333;0,583333;0,583333;0,583333;0,583333;0,583333;0,583333;0,000000;0,000000;1,000000;0,833333;0,833333;0,666667;0,666667;
49;;;;;;;;;;;;;;;;;;;;;;;;;;;;;;;;;;;;;;;;;;;;;;;;;1,000000;0,000000;0,000000;0,000000;0,000000;0,000000;0,000000;0,000000;0,000000;0,000000;0,000000;0,000000;0,000000;0,000000;0,000000;0,000000;0,000000;0,000000;
50;;;;;;;;;;;;;;;;;;;;;;;;;;;;;;;;;;;;;;;;;;;;;;;;;;1,000000;0,000000;0,000000;0,000000;0,000000;0,000000;0,000000;0,000000;0,000000;0,000000;0,000000;0,000000;0,000000;0,000000;0,000000;0,000000;0,000000;
51;;;;;;;;;;;;;;;;;;;;;;;;;;;;;;;;;;;;;;;;;;;;;;;;;;;1,000000;0,750000;0,250000;0,250000;0,250000;0,250000;0,250000;0,250000;0,250000;0,000000;0,000000;0,583333;0,375000;0,375000;0,291667;0,291667;
52;;;;;;;;;;;;;;;;;;;;;;;;;;;;;;;;;;;;;;;;;;;;;;;;;;;;1,000000;0,250000;0,250000;0,250000;0,250000;0,250000;0,250000;0,250000;0,000000;0,000000;0,583333;0,375000;0,375000;0,291667;0,291667;
53;;;;;;;;;;;;;;;;;;;;;;;;;;;;;;;;;;;;;;;;;;;;;;;;;;;;;1,000000;0,750000;0,750000;0,500000;0,500000;0,500000;0,500000;0,000000;0,000000;0,583333;0,750000;0,750000;0,583333;0,583333;
54;;;;;;;;;;;;;;;;;;;;;;;;;;;;;;;;;;;;;;;;;;;;;;;;;;;;;;1,000000;0,750000;0,500000;0,500000;0,500000;0,500000;0,000000;0,000000;0,583333;0,750000;0,750000;0,583333;0,583333;
55;;;;;;;;;;;;;;;;;;;;;;;;;;;;;;;;;;;;;;;;;;;;;;;;;;;;;;;1,000000;0,500000;0,500000;0,500000;0,500000;0,000000;0,000000;0,583333;0,750000;0,750000;0,583333;0,583333;
56;;;;;;;;;;;;;;;;;;;;;;;;;;;;;;;;;;;;;;;;;;;;;;;;;;;;;;;;1,000000;0,750000;0,750000;0,500000;0,000000;0,000000;0,583333;0,750000;0,750000;0,583333;0,583333;
57;;;;;;;;;;;;;;;;;;;;;;;;;;;;;;;;;;;;;;;;;;;;;;;;;;;;;;;;;1,000000;0,750000;0,500000;0,000000;0,000000;0,583333;0,750000;0,750000;0,583333;0,583333;
58;;;;;;;;;;;;;;;;;;;;;;;;;;;;;;;;;;;;;;;;;;;;;;;;;;;;;;;;;;1,000000;0,500000;0,000000;0,000000;0,583333;0,750000;0,750000;0,583333;0,583333;
59;;;;;;;;;;;;;;;;;;;;;;;;;;;;;;;;;;;;;;;;;;;;;;;;;;;;;;;;;;;1,000000;0,000000;0,000000;0,583333;0,750000;0,750000;0,583333;0,583333;
60;;;;;;;;;;;;;;;;;;;;;;;;;;;;;;;;;;;;;;;;;;;;;;;;;;;;;;;;;;;;1,000000;0,666667;0,000000;0,000000;0,000000;0,000000;0,000000;
61;;;;;;;;;;;;;;;;;;;;;;;;;;;;;;;;;;;;;;;;;;;;;;;;;;;;;;;;;;;;;1,000000;0,000000;0,000000;0,000000;0,000000;0,000000;
62;;;;;;;;;;;;;;;;;;;;;;;;;;;;;;;;;;;;;;;;;;;;;;;;;;;;;;;;;;;;;;1,000000;0,833333;0,833333;0,666667;0,666667;
63;;;;;;;;;;;;;;;;;;;;;;;;;;;;;;;;;;;;;;;;;;;;;;;;;;;;;;;;;;;;;;;1,000000;1,000000;0,833333;0,833333;
64;;;;;;;;;;;;;;;;;;;;;;;;;;;;;;;;;;;;;;;;;;;;;;;;;;;;;;;;;;;;;;;;1,000000;0,833333;0,833333;
65;;;;;;;;;;;;;;;;;;;;;;;;;;;;;;;;;;;;;;;;;;;;;;;;;;;;;;;;;;;;;;;;;1,000000;0,666667;
66;;;;;;;;;;;;;;;;;;;;;;;;;;;;;;;;;;;;;;;;;;;;;;;;;;;;;;;;;;;;;;;;;;1,000000;
