;1; 2; 3; 4; 5; 6; 7; 8; 9; 10; 11; 12; 13; 14; 15; 16; 17; 18; 19; 20; 21; 22; 23; 24; 25; 26; 27; 28; 29; 30; 31; 32; 33; 34; 35; 36; 37; 38; 39; 40; 41; 42; 43; 44; 45; 46; 47; 48; 49; 50; 51; 52; 53; 54; 55; 56; 57; 58; 59; 60; 61; 62; 63; 64; 65; 66; 67; 68; 69; 70; 71; 72; 73; 74; 75; 76; 77; 78; 79; 80; 81; 82; 83; 84; 85; 86; 87; 88; 89; 90; 91; 92; 93; 94; 95; 96; 97; 98; 99; 100; 101; 102; 103; 104; 105; 106; 107; 108; 109; 110; 111; 112; 113; 114; 115; 116; 117; 118; 119; 120; 121; 122; 123; 124; 125; 126
1;1,000000;0,508908;0,435072;0,656046;0,660840;0,696299;0,000000;0,596672;0,663327;0,632754;0,683514;0,386770;0,664471;0,639803;0,506887;0,579282;0,532016;0,492064;0,662149;0,334882;0,333333;0,000000;0,000000;0,000000;0,000000;0,335702;0,510176;0,709847;0,607151;0,000000;0,579907;0,662563;0,681331;0,662579;0,658592;0,835571;0,518674;0,662064;0,498993;0,000000;0,000000;0,000000;0,497692;0,584697;0,661397;0,665739;0,662149;0,332180;0,332180;0,771832;0,662411;0,662411;0,661977;0,662690;0,741235;0,662563;0,745169;0,660007;0,666667;0,666667;0,666667;0,000000;0,000000;0,000000;0,000000;0,000000;0,000000;0,000000;0,000000;0,000000;0,000000;0,724521;0,000000;0,000000;0,000000;0,000000;0,548022;0,498554;0,333333;0,000000;0,000000;0,498510;0,498510;0,498510;0,573958;0,638887;0,750000;0,750000;0,750000;0,603318;0,603318;0,741987;0,741987;0,707047;0,746764;0,797681;0,797681;0,797681;0,797681;0,500000;0,500000;0,668904;0,000000;0,000000;0,000000;0,000000;0,000000;0,498151;0,664471;0,662278;0,000000;0,000000;0,000000;0,000000;0,000000;0,000000;0,000000;0,000000;0,000000;0,000000;0,000000;0,500000;0,500000;0,500000;0,659906;0,503030;
2;;1,000000;0,000000;0,424242;0,464646;0,400704;0,954545;0,459574;0,369146;0,525924;0,546745;0,505029;0,369146;0,486446;0,529950;0,459574;0,502120;0,744755;0,432881;0,448442;0,393939;0,272727;0,272727;0,272727;0,353106;0,352196;0,629371;0,361687;0,500000;0,426598;0,432295;0,369146;0,474449;0,369146;0,398990;0,000000;0,479095;0,000000;0,520661;0,348485;0,348485;0,348485;0,520661;0,412879;0,424242;0,464646;0,432881;0,348485;0,348485;0,378033;0,369146;0,369146;0,424242;0,369146;0,329545;0,369146;0,293388;0,398990;0,369146;0,369146;0,369146;0,545455;0,545455;0,318182;0,318182;0,227273;0,227273;0,227273;0,227273;0,227273;0,975207;0,329545;0,227273;0,227273;0,227273;0,227273;0,459574;0,520661;0,393939;0,545455;0,545455;0,000000;0,000000;0,000000;0,389809;0,447980;0,293388;0,293388;0,293388;0,459574;0,459574;0,329545;0,329545;0,361687;0,293388;0,247934;0,247934;0,247934;0,247934;0,520661;0,520661;0,369146;0,500000;0,272727;0,272727;0,272727;0,975207;0,520661;0,369146;0,369146;0,500000;0,272727;0,272727;0,272727;0,272727;0,196970;0,196970;0,196970;0,196970;0,196970;0,196970;0,520661;0,520661;0,629371;0,398990;0,537879;
3;;;1,000000;0,000000;0,000000;0,000000;0,000000;0,000000;0,000000;0,000000;0,441626;0,621558;0,000000;0,000000;0,600000;0,000000;0,000000;0,000000;0,479752;0,591451;0,666667;0,786241;0,786241;0,786241;0,777411;0,740571;0,636364;0,000000;0,458982;0,000000;0,000000;0,000000;0,000000;0,000000;0,000000;0,000000;0,000000;0,000000;0,000000;0,000000;0,000000;0,000000;0,000000;0,000000;0,450360;0,437315;0,495578;0,000000;0,000000;0,000000;0,000000;0,000000;0,378788;0,351852;0,000000;0,000000;0,000000;0,000000;0,000000;0,000000;0,000000;0,500000;0,500000;0,731016;0,731016;0,000000;0,000000;0,000000;0,000000;0,000000;0,000000;0,000000;0,000000;0,000000;0,000000;0,000000;0,000000;0,000000;0,657904;0,500000;0,500000;0,000000;0,000000;0,000000;0,000000;0,357143;0,000000;0,000000;0,000000;0,000000;0,000000;0,300000;0,300000;0,000000;0,000000;0,000000;0,000000;0,000000;0,000000;0,000000;0,000000;0,000000;0,000000;0,000000;0,000000;0,000000;0,000000;0,000000;0,000000;0,000000;0,481481;0,000000;0,000000;0,000000;0,000000;0,000000;0,000000;0,000000;0,000000;0,000000;0,000000;0,000000;0,000000;0,000000;0,000000;0,000000;
4;;;;1,000000;0,620929;0,596634;0,733333;0,376954;0,333333;0,339122;0,346557;0,000000;0,333333;0,340034;0,433333;0,376954;0,383954;0,541667;0,333333;0,000000;0,000000;0,000000;0,000000;0,000000;0,000000;0,000000;0,466667;0,540874;0,000000;0,000000;0,333333;0,666667;0,843968;0,333333;0,333333;0,000000;0,353258;0,000000;0,458333;0,000000;0,000000;0,000000;0,458333;0,482228;0,333333;0,333333;0,333333;0,000000;0,000000;0,295841;0,333333;0,333333;0,333333;0,333333;0,566667;0,666667;0,516475;0,333333;0,333333;0,333333;0,333333;0,000000;0,000000;0,000000;0,000000;0,000000;0,000000;0,000000;0,000000;0,000000;0,833333;0,283333;0,000000;0,000000;0,000000;0,000000;0,376954;0,458333;0,000000;0,000000;0,000000;0,000000;0,000000;0,000000;0,310952;0,315690;0,270833;0,270833;0,270833;0,376954;0,376954;0,283333;0,283333;0,306475;0,270833;0,233333;0,233333;0,233333;0,233333;0,458333;0,458333;0,333333;0,000000;0,000000;0,000000;0,000000;0,833333;0,458333;0,333333;0,333333;0,000000;0,000000;0,000000;0,000000;0,000000;0,000000;0,000000;0,000000;0,000000;0,000000;0,000000;0,458333;0,458333;0,466667;0,333333;0,433333;
5;;;;;1,000000;0,628667;0,809524;0,385263;0,333333;0,341775;0,352224;0,000000;0,333333;0,342639;0,452381;0,385263;0,396609;0,804033;0,333333;0,000000;0,000000;0,000000;0,000000;0,000000;0,000000;0,000000;0,500000;0,603026;0,000000;0,000000;0,333333;0,635126;0,605707;0,333333;0,333333;0,000000;0,359161;0,000000;0,472222;0,000000;0,000000;0,000000;0,472222;0,629188;0,333333;0,333333;0,333333;0,000000;0,000000;0,286468;0,635126;0,635126;0,333333;0,333333;0,726190;0,635126;0,726176;0,333333;0,333333;0,333333;0,333333;0,000000;0,000000;0,000000;0,000000;0,000000;0,000000;0,000000;0,000000;0,000000;0,888889;0,273810;0,000000;0,000000;0,000000;0,000000;0,385263;0,472222;0,000000;0,000000;0,000000;0,000000;0,000000;0,000000;0,305356;0,309275;0,263889;0,263889;0,263889;0,385263;0,385263;0,273810;0,273810;0,301360;0,263889;0,222222;0,222222;0,222222;0,222222;0,472222;0,472222;0,333333;0,000000;0,000000;0,000000;0,000000;0,888889;0,472222;0,333333;0,333333;0,000000;0,000000;0,000000;0,000000;0,000000;0,000000;0,000000;0,000000;0,000000;0,000000;0,000000;0,472222;0,472222;0,500000;0,333333;0,452381;
6;;;;;;1,000000;0,721093;0,364714;0,325683;0,315079;0,323607;0,000000;0,325683;0,318614;0,421093;0,364714;0,368654;0,699881;0,318033;0,000000;0,000000;0,000000;0,000000;0,000000;0,000000;0,000000;0,451367;0,882706;0,000000;0,000000;0,315848;0,901399;0,661265;0,325683;0,321093;0,000000;0,335772;0,000000;0,450683;0,000000;0,000000;0,000000;0,450683;0,601428;0,318033;0,314208;0,318033;0,000000;0,000000;0,280541;0,599941;0,599941;0,318033;0,325683;0,582278;0,901399;0,689694;0,321093;0,325683;0,325683;0,325683;0,000000;0,000000;0,000000;0,000000;0,000000;0,000000;0,000000;0,000000;0,000000;0,825683;0,271093;0,000000;0,000000;0,000000;0,000000;0,364714;0,450683;0,000000;0,000000;0,000000;0,000000;0,000000;0,000000;0,295652;0,295290;0,263183;0,263183;0,263183;0,364714;0,364714;0,271093;0,271093;0,294235;0,263183;0,225683;0,225683;0,225683;0,225683;0,450683;0,450683;0,325683;0,000000;0,000000;0,000000;0,000000;0,825683;0,450683;0,325683;0,325683;0,000000;0,000000;0,000000;0,000000;0,000000;0,000000;0,000000;0,000000;0,000000;0,000000;0,000000;0,450683;0,450683;0,451367;0,321093;0,421093;
7;;;;;;;1,000000;0,703017;0,555556;0,901592;0,888405;0,000000;0,555556;0,856815;0,750000;0,703017;0,773830;0,900000;0,733333;0,000000;0,000000;0,000000;0,000000;0,000000;0,000000;0,000000;0,840000;0,644285;0,000000;0,000000;0,777778;0,555556;0,830689;0,555556;0,666667;0,000000;0,793275;0,000000;0,666667;0,000000;0,000000;0,000000;0,666667;0,675000;0,733333;0,809524;0,733333;0,000000;0,000000;0,703340;0,555556;0,555556;0,733333;0,555556;0,625000;0,555556;0,500000;0,666667;0,555556;0,555556;0,555556;0,000000;0,000000;0,000000;0,000000;0,000000;0,000000;0,000000;0,000000;0,000000;1,000000;0,625000;0,000000;0,000000;0,000000;0,000000;0,703017;0,666667;0,000000;0,000000;0,000000;0,000000;0,000000;0,000000;0,715428;0,820101;0,500000;0,500000;0,500000;0,703017;0,703017;0,625000;0,625000;0,644285;0,500000;0,466667;0,466667;0,466667;0,466667;0,666667;0,666667;0,555556;0,000000;0,000000;0,000000;0,000000;1,000000;0,666667;0,555556;0,555556;0,000000;0,000000;0,000000;0,000000;0,000000;0,000000;0,000000;0,000000;0,000000;0,000000;0,000000;0,666667;0,666667;0,840000;0,666667;0,750000;
8;;;;;;;;1,000000;0,715134;0,569251;0,402433;0,000000;0,715134;0,763885;0,453017;0,406035;0,417450;0,543621;0,376954;0,000000;0,000000;0,000000;0,000000;0,000000;0,000000;0,000000;0,483621;0,347303;0,396947;0,000000;0,698849;0,357567;0,385215;0,715134;0,739368;0,000000;0,749375;0,000000;0,468678;0,000000;0,000000;0,000000;0,468678;0,378017;0,376954;0,385263;0,376954;0,000000;0,000000;0,654326;0,357567;0,357567;0,376954;0,357567;0,328017;0,357567;0,302012;0,369684;0,357567;0,357567;0,357567;0,000000;0,000000;0,000000;0,000000;0,000000;0,000000;0,000000;0,000000;0,000000;0,802012;0,328017;0,000000;0,000000;0,000000;0,000000;0,406035;0,468678;0,000000;0,000000;0,000000;0,000000;0,000000;0,000000;0,359049;0,374627;0,302012;0,302012;0,302012;0,406035;0,406035;0,328017;0,328017;0,347303;0,302012;0,268678;0,268678;0,268678;0,268678;0,468678;0,468678;0,357567;0,000000;0,000000;0,000000;0,000000;0,802012;0,468678;0,715134;0,357567;0,000000;0,000000;0,000000;0,000000;0,000000;0,000000;0,000000;0,000000;0,000000;0,000000;0,000000;0,468678;0,468678;0,483621;0,739368;0,453017;
9;;;;;;;;;1,000000;0,648321;0,338623;0,000000;0,666667;0,657738;0,388889;0,357567;0,358644;0,437500;0,333333;0,000000;0,000000;0,000000;0,000000;0,000000;0,000000;0,000000;0,400000;0,318412;0,333333;0,000000;0,627815;0,333333;0,331822;0,666667;0,666667;0,000000;0,658131;0,000000;0,416667;0,000000;0,000000;0,000000;0,416667;0,338889;0,333333;0,333333;0,333333;0,000000;0,000000;0,604428;0,333333;0,333333;0,333333;0,333333;0,305556;0,333333;0,291667;0,333333;0,333333;0,333333;0,333333;0,000000;0,000000;0,000000;0,000000;0,000000;0,000000;0,000000;0,000000;0,000000;0,666667;0,305556;0,000000;0,000000;0,000000;0,000000;0,357567;0,416667;0,000000;0,000000;0,000000;0,000000;0,000000;0,000000;0,322143;0,325772;0,291667;0,291667;0,291667;0,357567;0,357567;0,305556;0,305556;0,318412;0,291667;0,266667;0,266667;0,266667;0,266667;0,416667;0,416667;0,333333;0,000000;0,000000;0,000000;0,000000;0,666667;0,416667;0,666667;0,333333;0,000000;0,000000;0,000000;0,000000;0,000000;0,000000;0,000000;0,000000;0,000000;0,000000;0,000000;0,416667;0,416667;0,400000;0,666667;0,388889;
10;;;;;;;;;;1,000000;0,367362;0,000000;0,654342;0,579507;0,477965;0,586845;0,559523;0,666503;0,339122;0,390456;0,000000;0,000000;0,000000;0,000000;0,000000;0,333333;0,548646;0,299613;0,509934;0,372221;0,496519;0,335584;0,336022;0,644418;0,440096;0,615385;0,485693;0,638889;0,488362;0,333333;0,333333;0,333333;0,488362;0,351592;0,339122;0,341775;0,339122;0,638889;0,638889;0,425682;0,335584;0,335584;0,339122;0,335584;0,266976;0,335584;0,259196;0,337489;0,335584;0,335584;0,335584;0,000000;0,000000;0,000000;0,000000;0,211111;0,211111;0,211111;0,211111;0,211111;0,946696;0,522581;0,211111;0,211111;0,211111;0,211111;0,399006;0,488362;0,000000;0,000000;0,000000;0,000000;0,000000;0,000000;0,303951;0,308619;0,259196;0,259196;0,259196;0,399006;0,399006;0,266976;0,266976;0,299613;0,259196;0,399964;0,399964;0,399964;0,399964;0,488362;0,488362;0,335584;0,474359;0,256944;0,256944;0,256944;0,946696;0,953114;0,654342;0,335584;0,486111;0,256944;0,256944;0,256944;0,256944;0,180556;0,180556;0,180556;0,180556;0,180556;0,180556;0,488362;0,488362;0,548646;0,631391;0,478515;
11;;;;;;;;;;;1,000000;0,423119;0,338623;0,362045;0,477459;0,402433;0,422487;0,659057;0,635361;0,522249;0,638889;0,398889;0,398889;0,398889;0,436806;0,411004;0,546557;0,306326;0,638218;0,369696;0,346470;0,338623;0,348144;0,338623;0,342950;0,000000;0,381794;0,000000;0,488623;0,333333;0,333333;0,333333;0,488623;0,356587;0,549912;0,589877;0,676885;0,333333;0,333333;0,309657;0,338623;0,338623;0,639593;0,644648;0,274769;0,338623;0,263623;0,919679;0,338623;0,338623;0,338623;0,500000;0,500000;0,488889;0,488889;0,213333;0,213333;0,213333;0,213333;0,213333;0,938623;0,274769;0,213333;0,213333;0,213333;0,213333;0,578089;0,488623;0,700000;0,500000;0,500000;0,250000;0,250000;0,250000;0,435994;0,548430;0,263623;0,263623;0,263623;0,402433;0,402433;0,721254;0,721254;0,559913;0,498239;0,218623;0,218623;0,218623;0,218623;0,488623;0,488623;0,338623;0,469697;0,258333;0,258333;0,258333;0,938623;0,488623;0,338623;0,648239;0,966667;0,258333;0,258333;0,258333;0,258333;0,183333;0,183333;0,183333;0,183333;0,183333;0,183333;0,488623;0,488623;0,546557;0,342950;0,479314;
12;;;;;;;;;;;;1,000000;0,000000;0,000000;0,000000;0,000000;0,000000;0,000000;0,493244;0,505692;0,357567;0,268678;0,268678;0,268678;0,314881;0,474201;0,000000;0,000000;0,479167;0,000000;0,000000;0,000000;0,000000;0,000000;0,000000;0,000000;0,000000;0,000000;0,000000;0,000000;0,000000;0,000000;0,000000;0,000000;0,365749;0,371923;0,628657;0,000000;0,000000;0,000000;0,000000;0,000000;0,433333;0,388889;0,000000;0,000000;0,000000;0,000000;0,000000;0,000000;0,000000;0,468678;0,468678;0,302012;0,302012;0,000000;0,000000;0,000000;0,000000;0,000000;0,000000;0,000000;0,000000;0,000000;0,000000;0,000000;0,000000;0,000000;0,644395;0,468678;0,468678;0,000000;0,000000;0,000000;0,000000;0,437500;0,000000;0,000000;0,000000;0,000000;0,000000;0,375000;0,375000;0,000000;0,000000;0,000000;0,000000;0,000000;0,000000;0,000000;0,000000;0,000000;0,000000;0,000000;0,000000;0,000000;0,000000;0,000000;0,000000;0,000000;0,000000;0,000000;0,000000;0,000000;0,000000;0,000000;0,000000;0,000000;0,000000;0,000000;0,000000;0,000000;0,000000;0,000000;0,000000;0,000000;
13;;;;;;;;;;;;;1,000000;0,657738;0,388889;0,644185;0,642659;0,437500;0,333333;0,000000;0,000000;0,000000;0,000000;0,000000;0,000000;0,000000;0,400000;0,318412;0,666667;0,000000;0,961294;0,333333;0,331822;0,666667;0,666667;0,000000;0,658131;0,000000;0,416667;0,000000;0,000000;0,000000;0,416667;0,338889;0,333333;0,333333;0,333333;0,000000;0,000000;0,897099;0,333333;0,333333;0,333333;0,333333;0,305556;0,333333;0,291667;0,333333;0,333333;0,333333;0,333333;0,000000;0,000000;0,000000;0,000000;0,000000;0,000000;0,000000;0,000000;0,000000;0,666667;0,305556;0,000000;0,000000;0,000000;0,000000;0,357567;0,416667;0,000000;0,000000;0,000000;0,000000;0,000000;0,000000;0,322143;0,325772;0,291667;0,291667;0,291667;0,357567;0,357567;0,305556;0,305556;0,318412;0,291667;0,266667;0,266667;0,266667;0,266667;0,416667;0,416667;0,333333;0,000000;0,000000;0,000000;0,000000;0,666667;0,416667;1,000000;0,333333;0,000000;0,000000;0,000000;0,000000;0,000000;0,000000;0,000000;0,000000;0,000000;0,000000;0,000000;0,416667;0,416667;0,400000;0,666667;0,388889;
14;;;;;;;;;;;;;;1,000000;0,466927;0,724938;0,634725;0,631700;0,340034;0,384224;0,000000;0,000000;0,000000;0,000000;0,000000;0,333333;0,526700;0,303481;0,514630;0,366329;0,664657;0,336125;0,337945;0,657738;0,501495;0,333333;0,574962;0,333333;0,927497;0,333333;0,333333;0,333333;0,481958;0,351259;0,340034;0,342639;0,340034;0,625000;0,625000;0,468488;0,336125;0,336125;0,340034;0,336125;0,273482;0,336125;0,263208;0,338296;0,336125;0,336125;0,336125;0,000000;0,000000;0,000000;0,000000;0,216667;0,216667;0,216667;0,216667;0,216667;0,919458;0,325590;0,216667;0,216667;0,216667;0,216667;0,394842;0,481958;0,000000;0,000000;0,000000;0,000000;0,000000;0,000000;0,308699;0,315141;0,263208;0,263208;0,263208;0,394842;0,394842;0,273482;0,273482;0,303481;0,263208;0,402497;0,402497;0,402497;0,402497;0,481958;0,481958;0,336125;0,462963;0,260417;0,260417;0,260417;0,919458;0,481958;0,657738;0,336125;0,479167;0,260417;0,260417;0,260417;0,260417;0,187500;0,187500;0,187500;0,187500;0,187500;0,187500;0,481958;0,481958;0,526700;0,650794;0,467926;
15;;;;;;;;;;;;;;;1,000000;0,453017;0,473830;0,600000;0,433333;0,462414;0,000000;0,000000;0,000000;0,000000;0,000000;0,433333;0,823116;0,394285;0,500000;0,468542;0,444444;0,388889;0,455689;0,388889;0,416667;0,000000;0,459941;0,000000;0,500000;0,388889;0,388889;0,388889;0,500000;0,425000;0,433333;0,452381;0,433333;0,388889;0,388889;0,415013;0,388889;0,388889;0,433333;0,388889;0,375000;0,388889;0,333333;0,416667;0,388889;0,388889;0,388889;0,000000;0,000000;0,000000;0,000000;0,300000;0,300000;0,300000;0,300000;0,300000;0,833333;0,375000;0,300000;0,300000;0,300000;0,300000;0,453017;0,500000;0,000000;0,000000;0,000000;0,000000;0,000000;0,000000;0,415428;0,445101;0,333333;0,333333;0,333333;0,453017;0,453017;0,375000;0,375000;0,394285;0,333333;0,300000;0,300000;0,300000;0,300000;0,500000;0,500000;0,388889;0,500000;0,333333;0,333333;0,333333;0,833333;0,500000;0,388889;0,388889;0,500000;0,333333;0,333333;0,333333;0,333333;0,277778;0,277778;0,277778;0,277778;0,277778;0,277778;0,500000;0,500000;0,540000;0,416667;0,500000;
16;;;;;;;;;;;;;;;;1,000000;0,587789;0,543621;0,376954;0,000000;0,000000;0,000000;0,000000;0,000000;0,000000;0,000000;0,483621;0,347303;0,333333;0,000000;0,553079;0,357567;0,385215;0,357567;0,369684;0,000000;0,397298;0,000000;0,937357;0,000000;0,000000;0,000000;0,468678;0,378017;0,376954;0,385263;0,376954;0,000000;0,000000;0,527211;0,357567;0,357567;0,376954;0,357567;0,328017;0,357567;0,302012;0,369684;0,357567;0,357567;0,357567;0,000000;0,000000;0,000000;0,000000;0,000000;0,000000;0,000000;0,000000;0,000000;0,802012;0,328017;0,000000;0,000000;0,000000;0,000000;0,406035;0,468678;0,000000;0,000000;0,000000;0,000000;0,000000;0,000000;0,359049;0,374627;0,302012;0,302012;0,302012;0,406035;0,406035;0,328017;0,328017;0,347303;0,302012;0,268678;0,268678;0,268678;0,268678;0,468678;0,468678;0,357567;0,000000;0,000000;0,000000;0,000000;0,802012;0,468678;0,644185;0,357567;0,000000;0,000000;0,000000;0,000000;0,000000;0,000000;0,000000;0,000000;0,000000;0,000000;0,000000;0,468678;0,468678;0,483621;0,369684;0,453017;
17;;;;;;;;;;;;;;;;;1,000000;0,592287;0,383954;0,000000;0,000000;0,000000;0,000000;0,000000;0,000000;0,000000;0,517287;0,346972;0,333333;0,000000;0,523561;0,358644;0,397301;0,358644;0,373830;0,000000;0,411110;0,000000;0,483644;0,000000;0,000000;0,000000;0,483644;0,383830;0,383954;0,396609;0,383954;0,000000;0,000000;0,494916;0,358644;0,358644;0,383954;0,358644;0,323830;0,358644;0,296144;0,373830;0,358644;0,358644;0,358644;0,000000;0,000000;0,000000;0,000000;0,000000;0,000000;0,000000;0,000000;0,000000;0,858644;0,323830;0,000000;0,000000;0,000000;0,000000;0,417450;0,483644;0,000000;0,000000;0,000000;0,000000;0,000000;0,000000;0,361572;0,383184;0,296144;0,296144;0,296144;0,417450;0,417450;0,323830;0,323830;0,346972;0,296144;0,258644;0,258644;0,258644;0,258644;0,483644;0,483644;0,358644;0,000000;0,000000;0,000000;0,000000;0,858644;0,483644;0,642659;0,358644;0,000000;0,000000;0,000000;0,000000;0,000000;0,000000;0,000000;0,000000;0,000000;0,000000;0,000000;0,483644;0,483644;0,517287;0,373830;0,473830;
18;;;;;;;;;;;;;;;;;;1,000000;0,541667;0,000000;0,000000;0,000000;0,000000;0,000000;0,000000;0,000000;0,675000;0,656997;0,000000;0,000000;0,571429;0,750000;0,607585;0,437500;0,500000;0,000000;0,591353;0,000000;0,562500;0,000000;0,000000;0,000000;0,562500;0,700000;0,541667;0,593750;0,541667;0,000000;0,000000;0,504175;0,750000;0,750000;0,541667;0,437500;0,700000;0,750000;0,625000;0,500000;0,437500;0,437500;0,437500;0,000000;0,000000;0,000000;0,000000;0,000000;0,000000;0,000000;0,000000;0,000000;0,937500;0,450000;0,000000;0,000000;0,000000;0,000000;0,543621;0,562500;0,000000;0,000000;0,000000;0,000000;0,000000;0,000000;0,519285;0,593468;0,375000;0,375000;0,375000;0,543621;0,543621;0,450000;0,450000;0,473142;0,375000;0,337500;0,337500;0,337500;0,337500;0,562500;0,562500;0,437500;0,000000;0,000000;0,000000;0,000000;0,937500;0,562500;0,437500;0,437500;0,000000;0,000000;0,000000;0,000000;0,000000;0,000000;0,000000;0,000000;0,000000;0,000000;0,000000;0,562500;0,562500;0,675000;0,500000;0,600000;
19;;;;;;;;;;;;;;;;;;;1,000000;0,666667;0,666667;0,233333;0,233333;0,233333;0,267569;0,466434;0,466667;0,306475;0,346163;0,000000;0,333333;0,333333;0,329807;0,333333;0,333333;0,000000;0,353258;0,000000;0,458333;0,000000;0,000000;0,000000;0,458333;0,343333;0,753441;0,729743;0,522630;0,000000;0,000000;0,295841;0,333333;0,333333;0,538371;0,333333;0,283333;0,333333;0,270833;0,604534;0,333333;0,333333;0,333333;0,458333;0,458333;0,270833;0,270833;0,000000;0,000000;0,000000;0,000000;0,000000;0,833333;0,283333;0,000000;0,000000;0,000000;0,000000;0,376954;0,458333;0,583333;0,458333;0,458333;0,000000;0,000000;0,000000;0,310952;0,315690;0,270833;0,270833;0,270833;0,376954;0,376954;0,283333;0,283333;0,306475;0,270833;0,233333;0,233333;0,233333;0,233333;0,458333;0,458333;0,333333;0,000000;0,000000;0,000000;0,000000;0,833333;0,458333;0,333333;0,333333;0,458333;0,000000;0,000000;0,000000;0,000000;0,000000;0,000000;0,000000;0,000000;0,000000;0,000000;0,458333;0,458333;0,466667;0,333333;0,433333;
20;;;;;;;;;;;;;;;;;;;;1,000000;0,666667;0,383333;0,383333;0,383333;0,401806;0,416860;0,000000;0,000000;0,544165;0,399983;0,374877;0,000000;0,000000;0,000000;0,000000;0,000000;0,000000;0,000000;0,000000;0,351509;0,351509;0,351509;0,000000;0,000000;0,333333;0,333333;0,500000;0,351509;0,351509;0,369684;0,000000;0,000000;0,333333;0,333333;0,000000;0,000000;0,000000;0,000000;0,000000;0,000000;0,000000;0,458333;0,458333;0,458333;0,458333;0,251509;0,251509;0,251509;0,251509;0,251509;0,000000;0,000000;0,251509;0,251509;0,251509;0,251509;0,000000;0,000000;0,333333;0,458333;0,458333;0,000000;0,000000;0,000000;0,000000;0,305556;0,000000;0,000000;0,000000;0,000000;0,000000;0,283333;0,283333;0,000000;0,000000;0,000000;0,000000;0,000000;0,000000;0,000000;0,000000;0,000000;0,462414;0,289009;0,289009;0,289009;0,000000;0,000000;0,000000;0,000000;0,476509;0,289009;0,289009;0,289009;0,289009;0,226509;0,226509;0,226509;0,226509;0,226509;0,226509;0,000000;0,000000;0,000000;0,000000;0,000000;
21;;;;;;;;;;;;;;;;;;;;;1,000000;0,266667;0,266667;0,266667;0,296798;0,566551;0,000000;0,000000;0,338180;0,000000;0,000000;0,000000;0,000000;0,000000;0,000000;0,000000;0,000000;0,000000;0,000000;0,000000;0,000000;0,000000;0,000000;0,000000;0,333333;0,333333;0,583333;0,000000;0,000000;0,000000;0,000000;0,000000;0,000000;0,000000;0,000000;0,000000;0,000000;0,000000;0,000000;0,000000;0,000000;0,416667;0,416667;0,291667;0,291667;0,000000;0,000000;0,000000;0,000000;0,000000;0,000000;0,000000;0,000000;0,000000;0,000000;0,000000;0,000000;0,000000;0,333333;0,416667;0,416667;0,000000;0,000000;0,000000;0,000000;0,000000;0,000000;0,000000;0,000000;0,000000;0,000000;0,000000;0,000000;0,000000;0,000000;0,000000;0,000000;0,000000;0,000000;0,000000;0,000000;0,000000;0,000000;0,000000;0,000000;0,000000;0,000000;0,000000;0,000000;0,000000;0,416667;0,000000;0,000000;0,000000;0,000000;0,000000;0,000000;0,000000;0,000000;0,000000;0,000000;0,000000;0,000000;0,000000;0,000000;0,000000;
22;;;;;;;;;;;;;;;;;;;;;;1,000000;0,800000;0,800000;0,758653;0,769047;0,000000;0,000000;0,208889;0,000000;0,000000;0,000000;0,000000;0,000000;0,000000;0,000000;0,000000;0,000000;0,000000;0,000000;0,000000;0,000000;0,000000;0,000000;0,000000;0,000000;0,233333;0,000000;0,000000;0,000000;0,000000;0,000000;0,000000;0,000000;0,000000;0,000000;0,000000;0,000000;0,000000;0,000000;0,000000;0,350000;0,350000;0,675000;0,675000;0,000000;0,000000;0,000000;0,000000;0,000000;0,000000;0,000000;0,000000;0,000000;0,000000;0,000000;0,000000;0,000000;0,266667;0,350000;0,350000;0,000000;0,000000;0,000000;0,000000;0,000000;0,000000;0,000000;0,000000;0,000000;0,000000;0,000000;0,000000;0,000000;0,000000;0,000000;0,000000;0,000000;0,000000;0,000000;0,000000;0,000000;0,000000;0,000000;0,000000;0,000000;0,000000;0,000000;0,000000;0,000000;0,000000;0,000000;0,000000;0,000000;0,000000;0,000000;0,000000;0,000000;0,000000;0,000000;0,000000;0,000000;0,000000;0,000000;0,000000;0,000000;
23;;;;;;;;;;;;;;;;;;;;;;;1,000000;0,800000;0,758653;0,769047;0,000000;0,000000;0,208889;0,000000;0,000000;0,000000;0,000000;0,000000;0,000000;0,000000;0,000000;0,000000;0,000000;0,000000;0,000000;0,000000;0,000000;0,000000;0,000000;0,000000;0,233333;0,000000;0,000000;0,000000;0,000000;0,000000;0,000000;0,000000;0,000000;0,000000;0,000000;0,000000;0,000000;0,000000;0,000000;0,350000;0,350000;0,675000;0,675000;0,000000;0,000000;0,000000;0,000000;0,000000;0,000000;0,000000;0,000000;0,000000;0,000000;0,000000;0,000000;0,000000;0,266667;0,350000;0,350000;0,000000;0,000000;0,000000;0,000000;0,000000;0,000000;0,000000;0,000000;0,000000;0,000000;0,000000;0,000000;0,000000;0,000000;0,000000;0,000000;0,000000;0,000000;0,000000;0,000000;0,000000;0,000000;0,000000;0,000000;0,000000;0,000000;0,000000;0,000000;0,000000;0,000000;0,000000;0,000000;0,000000;0,000000;0,000000;0,000000;0,000000;0,000000;0,000000;0,000000;0,000000;0,000000;0,000000;0,000000;0,000000;
24;;;;;;;;;;;;;;;;;;;;;;;;1,000000;0,758653;0,769047;0,000000;0,000000;0,208889;0,000000;0,000000;0,000000;0,000000;0,000000;0,000000;0,000000;0,000000;0,000000;0,000000;0,000000;0,000000;0,000000;0,000000;0,000000;0,000000;0,000000;0,233333;0,000000;0,000000;0,000000;0,000000;0,000000;0,000000;0,000000;0,000000;0,000000;0,000000;0,000000;0,000000;0,000000;0,000000;0,350000;0,350000;0,675000;0,675000;0,000000;0,000000;0,000000;0,000000;0,000000;0,000000;0,000000;0,000000;0,000000;0,000000;0,000000;0,000000;0,000000;0,266667;0,350000;0,350000;0,000000;0,000000;0,000000;0,000000;0,000000;0,000000;0,000000;0,000000;0,000000;0,000000;0,000000;0,000000;0,000000;0,000000;0,000000;0,000000;0,000000;0,000000;0,000000;0,000000;0,000000;0,000000;0,000000;0,000000;0,000000;0,000000;0,000000;0,000000;0,000000;0,000000;0,000000;0,000000;0,000000;0,000000;0,000000;0,000000;0,000000;0,000000;0,000000;0,000000;0,000000;0,000000;0,000000;0,000000;0,000000;
25;;;;;;;;;;;;;;;;;;;;;;;;;1,000000;0,777601;0,000000;0,000000;0,237428;0,000000;0,000000;0,000000;0,000000;0,000000;0,000000;0,000000;0,000000;0,000000;0,000000;0,000000;0,000000;0,000000;0,000000;0,000000;0,000000;0,000000;0,267569;0,000000;0,000000;0,000000;0,000000;0,000000;0,000000;0,000000;0,000000;0,000000;0,000000;0,000000;0,000000;0,000000;0,000000;0,407909;0,407909;0,692849;0,692849;0,000000;0,000000;0,000000;0,000000;0,000000;0,000000;0,000000;0,000000;0,000000;0,000000;0,000000;0,000000;0,000000;0,296798;0,407909;0,407909;0,000000;0,000000;0,000000;0,000000;0,000000;0,000000;0,000000;0,000000;0,000000;0,000000;0,000000;0,000000;0,000000;0,000000;0,000000;0,000000;0,000000;0,000000;0,000000;0,000000;0,000000;0,000000;0,000000;0,000000;0,000000;0,000000;0,000000;0,000000;0,000000;0,000000;0,000000;0,000000;0,000000;0,000000;0,000000;0,000000;0,000000;0,000000;0,000000;0,000000;0,000000;0,000000;0,000000;0,000000;0,000000;
26;;;;;;;;;;;;;;;;;;;;;;;;;;1,000000;0,000000;0,000000;0,651443;0,354545;0,333333;0,000000;0,000000;0,000000;0,000000;0,000000;0,000000;0,000000;0,000000;0,333333;0,333333;0,333333;0,000000;0,000000;0,333333;0,333333;0,278530;0,333333;0,333333;0,333333;0,000000;0,000000;0,333333;0,333333;0,000000;0,000000;0,000000;0,000000;0,000000;0,000000;0,000000;0,430932;0,430932;0,707185;0,707185;0,233333;0,233333;0,233333;0,233333;0,233333;0,000000;0,000000;0,233333;0,233333;0,233333;0,233333;0,000000;0,000000;0,305932;0,430932;0,430932;0,000000;0,000000;0,000000;0,000000;0,305556;0,000000;0,000000;0,000000;0,000000;0,000000;0,283333;0,283333;0,000000;0,000000;0,000000;0,000000;0,000000;0,000000;0,000000;0,000000;0,000000;0,433333;0,270833;0,270833;0,270833;0,000000;0,000000;0,000000;0,000000;0,916667;0,270833;0,270833;0,270833;0,270833;0,208333;0,208333;0,208333;0,208333;0,208333;0,208333;0,000000;0,000000;0,000000;0,000000;0,000000;
27;;;;;;;;;;;;;;;;;;;;;;;;;;;1,000000;0,413142;0,500000;0,000000;0,485714;0,400000;0,507585;0,400000;0,440000;0,000000;0,505639;0,000000;0,525000;0,000000;0,000000;0,000000;0,525000;0,450000;0,466667;0,500000;0,466667;0,000000;0,000000;0,429175;0,400000;0,400000;0,466667;0,400000;0,390000;0,400000;0,337500;0,440000;0,400000;0,400000;0,400000;0,000000;0,000000;0,000000;0,000000;0,000000;0,000000;0,000000;0,000000;0,000000;0,900000;0,390000;0,000000;0,000000;0,000000;0,000000;0,483621;0,525000;0,000000;0,000000;0,000000;0,000000;0,000000;0,000000;0,444285;0,493468;0,337500;0,337500;0,337500;0,483621;0,483621;0,390000;0,390000;0,413142;0,337500;0,300000;0,300000;0,300000;0,300000;0,525000;0,525000;0,400000;0,000000;0,000000;0,000000;0,000000;0,900000;0,525000;0,400000;0,400000;0,000000;0,000000;0,000000;0,000000;0,000000;0,000000;0,000000;0,000000;0,000000;0,000000;0,000000;0,525000;0,525000;0,600000;0,440000;0,540000;
28;;;;;;;;;;;;;;;;;;;;;;;;;;;;1,000000;0,000000;0,000000;0,303491;0,859094;0,681405;0,318412;0,310952;0,000000;0,318988;0,000000;0,429523;0,000000;0,000000;0,000000;0,809633;0,621723;0,306475;0,301360;0,306475;0,000000;0,000000;0,276482;0,587221;0,587221;0,306475;0,318412;0,605530;0,859094;0,693417;0,310952;0,318412;0,318412;0,318412;0,000000;0,000000;0,000000;0,000000;0,000000;0,000000;0,000000;0,000000;0,000000;0,762857;0,269285;0,000000;0,000000;0,000000;0,000000;0,347303;0,429523;0,000000;0,000000;0,000000;0,000000;0,000000;0,000000;0,288570;0,286529;0,262857;0,262857;0,262857;0,347303;0,347303;0,269285;0,269285;0,288570;0,262857;0,229523;0,229523;0,229523;0,229523;0,429523;0,429523;0,318412;0,000000;0,000000;0,000000;0,000000;0,762857;0,429523;0,318412;0,318412;0,000000;0,000000;0,000000;0,000000;0,000000;0,000000;0,000000;0,000000;0,000000;0,000000;0,000000;0,429523;0,429523;0,413142;0,310952;0,394285;
29;;;;;;;;;;;;;;;;;;;;;;;;;;;;;1,000000;0,709877;0,666667;0,000000;0,000000;0,333333;0,375000;0,333333;0,407407;0,333333;0,000000;0,666667;0,666667;0,666667;0,000000;0,000000;0,333333;0,333333;0,000000;0,666667;0,666667;0,666667;0,000000;0,000000;0,333333;0,333333;0,000000;0,000000;0,000000;0,000000;0,000000;0,000000;0,000000;0,000000;0,000000;0,255556;0,255556;0,800000;0,800000;0,800000;0,800000;0,800000;0,000000;0,333333;0,786931;0,786931;0,786931;0,786931;0,000000;0,000000;0,000000;0,000000;0,000000;0,000000;0,000000;0,000000;0,000000;0,275000;0,000000;0,000000;0,000000;0,000000;0,000000;0,260417;0,260417;0,000000;0,000000;0,208889;0,208889;0,208889;0,208889;0,000000;0,000000;0,000000;0,486237;0,736584;0,736584;0,736584;0,000000;0,000000;0,666667;0,000000;0,493736;0,750000;0,750000;0,750000;0,750000;0,833333;0,833333;0,833333;0,833333;0,833333;0,833333;0,000000;0,000000;0,000000;0,333333;0,000000;
30;;;;;;;;;;;;;;;;;;;;;;;;;;;;;;1,000000;0,358473;0,000000;0,000000;0,000000;0,000000;0,000000;0,000000;0,000000;0,000000;0,342761;0,342761;0,342761;0,000000;0,000000;0,000000;0,000000;0,000000;0,342761;0,342761;0,354545;0,000000;0,000000;0,000000;0,000000;0,000000;0,000000;0,000000;0,000000;0,000000;0,000000;0,000000;0,000000;0,000000;0,000000;0,000000;0,231649;0,231649;0,231649;0,231649;0,231649;0,000000;0,000000;0,766470;0,766470;0,766470;0,766470;0,000000;0,000000;0,000000;0,000000;0,000000;0,000000;0,000000;0,000000;0,000000;0,000000;0,000000;0,000000;0,000000;0,000000;0,000000;0,000000;0,000000;0,000000;0,000000;0,000000;0,000000;0,000000;0,000000;0,000000;0,000000;0,000000;0,468542;0,715763;0,715763;0,715763;0,000000;0,000000;0,000000;0,000000;0,481649;0,273316;0,273316;0,273316;0,273316;0,203872;0,203872;0,203872;0,203872;0,203872;0,203872;0,000000;0,000000;0,000000;0,000000;0,000000;
31;;;;;;;;;;;;;;;;;;;;;;;;;;;;;;;1,000000;0,333333;0,329102;0,878763;0,608556;0,666667;0,578361;0,629081;0,466667;0,333333;0,333333;0,333333;0,466667;0,344444;0,333333;0,333333;0,333333;0,333333;0,333333;0,711121;0,333333;0,333333;0,333333;0,333333;0,277778;0,333333;0,266667;0,333333;0,333333;0,333333;0,333333;0,000000;0,000000;0,000000;0,000000;0,226667;0,226667;0,226667;0,226667;0,226667;0,866667;0,534995;0,226667;0,226667;0,226667;0,226667;0,381801;0,466667;0,000000;0,000000;0,000000;0,000000;0,000000;0,000000;0,307754;0,312162;0,466667;0,466667;0,466667;0,381801;0,381801;0,277778;0,277778;0,303491;0,266667;0,226667;0,226667;0,226667;0,226667;0,466667;0,466667;0,333333;0,444444;0,266667;0,266667;0,266667;0,866667;0,866667;0,961294;0,333333;0,466667;0,266667;0,266667;0,266667;0,266667;0,200000;0,200000;0,200000;0,200000;0,200000;0,200000;0,466667;0,466667;0,485714;0,802618;0,444444;
32;;;;;;;;;;;;;;;;;;;;;;;;;;;;;;;;1,000000;0,634694;0,333333;0,333333;0,000000;0,342631;0,000000;0,416667;0,000000;0,000000;0,000000;0,416667;0,611111;0,333333;0,333333;0,333333;0,000000;0,000000;0,314587;0,666667;0,666667;0,333333;0,333333;0,611111;1,000000;0,583333;0,333333;0,333333;0,333333;0,333333;0,000000;0,000000;0,000000;0,000000;0,000000;0,000000;0,000000;0,000000;0,000000;0,666667;0,305556;0,000000;0,000000;0,000000;0,000000;0,357567;0,416667;0,000000;0,000000;0,000000;0,000000;0,000000;0,000000;0,322143;0,325772;0,291667;0,291667;0,291667;0,357567;0,357567;0,305556;0,305556;0,318412;0,291667;0,266667;0,266667;0,266667;0,266667;0,416667;0,416667;0,333333;0,000000;0,000000;0,000000;0,000000;0,666667;0,416667;0,333333;0,333333;0,000000;0,000000;0,000000;0,000000;0,000000;0,000000;0,000000;0,000000;0,000000;0,000000;0,000000;0,416667;0,416667;0,400000;0,333333;0,388889;
33;;;;;;;;;;;;;;;;;;;;;;;;;;;;;;;;;1,000000;0,331822;0,330689;0,000000;0,356996;0,000000;0,474679;0,000000;0,000000;0,000000;0,910593;0,618065;0,329807;0,328525;0,329807;0,000000;0,000000;0,279818;0,626421;0,626421;0,329807;0,331822;0,696353;0,634694;0,711417;0,330689;0,331822;0,331822;0,331822;0,000000;0,000000;0,000000;0,000000;0,000000;0,000000;0,000000;0,000000;0,000000;0,903251;0,268189;0,000000;0,000000;0,000000;0,000000;0,385215;0,474679;0,000000;0,000000;0,000000;0,000000;0,000000;0,000000;0,299965;0,301579;0,260394;0,260394;0,260394;0,385215;0,385215;0,268189;0,268189;0,297116;0,260394;0,217536;0,217536;0,217536;0,217536;0,474679;0,474679;0,331822;0,000000;0,000000;0,000000;0,000000;0,903251;0,474679;0,331822;0,331822;0,000000;0,000000;0,000000;0,000000;0,000000;0,000000;0,000000;0,000000;0,000000;0,000000;0,000000;0,474679;0,474679;0,507585;0,330689;0,455689;
34;;;;;;;;;;;;;;;;;;;;;;;;;;;;;;;;;;1,000000;0,666667;0,333333;0,658131;0,000000;0,416667;0,000000;0,000000;0,000000;0,416667;0,338889;0,333333;0,333333;0,333333;0,000000;0,000000;0,604428;0,333333;0,333333;0,333333;0,333333;0,305556;0,333333;0,291667;0,333333;0,333333;0,333333;0,333333;0,000000;0,000000;0,000000;0,000000;0,000000;0,000000;0,000000;0,000000;0,000000;0,666667;0,548638;0,000000;0,000000;0,000000;0,000000;0,357567;0,416667;0,000000;0,000000;0,000000;0,000000;0,000000;0,000000;0,322143;0,325772;0,291667;0,291667;0,291667;0,357567;0,357567;0,305556;0,305556;0,318412;0,291667;0,266667;0,266667;0,266667;0,266667;0,416667;0,416667;0,333333;0,000000;0,000000;0,000000;0,000000;0,666667;0,416667;0,666667;0,333333;0,000000;0,000000;0,000000;0,000000;0,000000;0,000000;0,000000;0,000000;0,000000;0,000000;0,000000;0,416667;0,416667;0,400000;0,666667;0,388889;
35;;;;;;;;;;;;;;;;;;;;;;;;;;;;;;;;;;;1,000000;0,589526;0,659164;0,666667;0,444444;0,000000;0,000000;0,000000;0,444444;0,341667;0,333333;0,333333;0,333333;0,000000;0,000000;0,567084;0,333333;0,333333;0,333333;0,333333;0,291667;0,333333;0,277778;0,333333;0,333333;0,333333;0,333333;0,000000;0,000000;0,000000;0,000000;0,000000;0,000000;0,000000;0,000000;0,000000;0,777778;0,559218;0,000000;0,000000;0,000000;0,000000;0,369684;0,444444;0,000000;0,000000;0,000000;0,000000;0,000000;0,000000;0,315428;0,320101;0,444444;0,444444;0,444444;0,369684;0,369684;0,291667;0,291667;0,310952;0,277778;0,244444;0,244444;0,244444;0,244444;0,444444;0,444444;0,333333;0,000000;0,000000;0,000000;0,000000;0,777778;0,444444;0,666667;0,333333;0,000000;0,000000;0,000000;0,000000;0,000000;0,000000;0,000000;0,000000;0,000000;0,000000;0,000000;0,444444;0,444444;0,440000;0,666667;0,416667;
36;;;;;;;;;;;;;;;;;;;;;;;;;;;;;;;;;;;;1,000000;0,569712;0,611111;0,000000;0,000000;0,000000;0,000000;0,000000;0,000000;0,000000;0,000000;0,000000;0,000000;0,000000;0,000000;0,000000;0,000000;0,000000;0,000000;0,000000;0,000000;0,000000;0,000000;0,000000;0,000000;0,000000;0,000000;0,000000;0,000000;0,000000;0,000000;0,000000;0,000000;0,000000;0,000000;0,000000;0,589526;0,000000;0,000000;0,000000;0,000000;0,000000;0,000000;0,000000;0,000000;0,000000;0,000000;0,000000;0,000000;0,000000;0,000000;0,277778;0,277778;0,277778;0,000000;0,000000;0,000000;0,000000;0,000000;0,000000;0,000000;0,000000;0,000000;0,000000;0,000000;0,000000;0,000000;0,000000;0,000000;0,000000;0,000000;0,000000;0,444444;0,000000;0,000000;0,000000;0,000000;0,000000;0,000000;0,000000;0,000000;0,000000;0,000000;0,000000;0,000000;0,000000;0,000000;0,000000;0,000000;0,333333;0,000000;
37;;;;;;;;;;;;;;;;;;;;;;;;;;;;;;;;;;;;;1,000000;0,666667;0,475965;0,000000;0,000000;0,000000;0,475965;0,359941;0,353258;0,359161;0,353258;0,000000;0,000000;0,506114;0,342631;0,342631;0,353258;0,342631;0,293275;0,342631;0,275965;0,348830;0,342631;0,342631;0,342631;0,000000;0,000000;0,000000;0,000000;0,000000;0,000000;0,000000;0,000000;0,000000;0,875965;0,534953;0,000000;0,000000;0,000000;0,000000;0,397298;0,475965;0,000000;0,000000;0,000000;0,000000;0,000000;0,000000;0,327679;0,340056;0,275965;0,275965;0,275965;0,397298;0,397298;0,293275;0,293275;0,318988;0,275965;0,235965;0,235965;0,235965;0,235965;0,475965;0,475965;0,342631;0,000000;0,000000;0,000000;0,000000;0,875965;0,475965;0,658131;0,342631;0,000000;0,000000;0,000000;0,000000;0,000000;0,000000;0,000000;0,000000;0,000000;0,000000;0,000000;0,475965;0,475965;0,505639;0,652440;0,459941;
38;;;;;;;;;;;;;;;;;;;;;;;;;;;;;;;;;;;;;;1,000000;0,000000;0,000000;0,000000;0,000000;0,000000;0,000000;0,000000;0,000000;0,000000;0,000000;0,000000;0,000000;0,000000;0,000000;0,000000;0,000000;0,000000;0,000000;0,000000;0,000000;0,000000;0,000000;0,000000;0,000000;0,000000;0,000000;0,000000;0,000000;0,000000;0,000000;0,000000;0,000000;0,000000;0,666667;0,000000;0,000000;0,000000;0,000000;0,000000;0,000000;0,000000;0,000000;0,000000;0,000000;0,000000;0,000000;0,000000;0,000000;0,000000;0,000000;0,000000;0,000000;0,000000;0,000000;0,000000;0,000000;0,000000;0,000000;0,000000;0,000000;0,000000;0,000000;0,000000;0,000000;0,000000;0,000000;0,000000;0,000000;0,000000;0,416667;0,000000;0,000000;0,000000;0,000000;0,000000;0,000000;0,000000;0,000000;0,000000;0,000000;0,000000;0,000000;0,000000;0,000000;0,000000;0,000000;0,333333;0,000000;
39;;;;;;;;;;;;;;;;;;;;;;;;;;;;;;;;;;;;;;;1,000000;0,000000;0,000000;0,000000;0,500000;0,450000;0,458333;0,472222;0,458333;0,000000;0,000000;0,439587;0,416667;0,416667;0,458333;0,416667;0,416667;0,416667;0,375000;0,444444;0,416667;0,416667;0,416667;0,000000;0,000000;0,000000;0,000000;0,000000;0,000000;0,000000;0,000000;0,000000;0,750000;0,416667;0,000000;0,000000;0,000000;0,000000;0,468678;0,500000;0,000000;0,000000;0,000000;0,000000;0,000000;0,000000;0,447143;0,468629;0,375000;0,375000;0,375000;0,468678;0,468678;0,416667;0,416667;0,429523;0,375000;0,350000;0,350000;0,350000;0,350000;0,500000;0,500000;0,416667;0,000000;0,000000;0,000000;0,000000;0,750000;0,500000;0,416667;0,416667;0,000000;0,000000;0,000000;0,000000;0,000000;0,000000;0,000000;0,000000;0,000000;0,000000;0,000000;0,500000;0,500000;0,525000;0,444444;0,500000;
40;;;;;;;;;;;;;;;;;;;;;;;;;;;;;;;;;;;;;;;;1,000000;0,666667;0,666667;0,000000;0,000000;0,000000;0,000000;0,000000;0,333333;0,333333;0,333333;0,000000;0,000000;0,000000;0,000000;0,000000;0,000000;0,000000;0,000000;0,000000;0,000000;0,000000;0,000000;0,000000;0,000000;0,000000;0,266667;0,266667;0,266667;0,266667;0,266667;0,000000;0,000000;0,266667;0,266667;0,266667;0,266667;0,000000;0,000000;0,000000;0,000000;0,000000;0,000000;0,000000;0,000000;0,000000;0,000000;0,000000;0,000000;0,000000;0,000000;0,000000;0,000000;0,000000;0,000000;0,000000;0,000000;0,000000;0,000000;0,000000;0,000000;0,000000;0,000000;0,388889;0,291667;0,291667;0,291667;0,000000;0,000000;0,000000;0,000000;0,416667;0,291667;0,291667;0,291667;0,291667;0,250000;0,250000;0,250000;0,250000;0,250000;0,250000;0,000000;0,000000;0,000000;0,000000;0,000000;
41;;;;;;;;;;;;;;;;;;;;;;;;;;;;;;;;;;;;;;;;;1,000000;0,666667;0,000000;0,000000;0,000000;0,000000;0,000000;0,333333;0,333333;0,333333;0,000000;0,000000;0,000000;0,000000;0,000000;0,000000;0,000000;0,000000;0,000000;0,000000;0,000000;0,000000;0,000000;0,000000;0,000000;0,266667;0,266667;0,266667;0,266667;0,266667;0,000000;0,000000;0,266667;0,266667;0,266667;0,266667;0,000000;0,000000;0,000000;0,000000;0,000000;0,000000;0,000000;0,000000;0,000000;0,000000;0,000000;0,000000;0,000000;0,000000;0,000000;0,000000;0,000000;0,000000;0,000000;0,000000;0,000000;0,000000;0,000000;0,000000;0,000000;0,000000;0,388889;0,291667;0,291667;0,291667;0,000000;0,000000;0,000000;0,000000;0,416667;0,291667;0,291667;0,291667;0,291667;0,250000;0,250000;0,250000;0,250000;0,250000;0,250000;0,000000;0,000000;0,000000;0,000000;0,000000;
42;;;;;;;;;;;;;;;;;;;;;;;;;;;;;;;;;;;;;;;;;;1,000000;0,000000;0,000000;0,000000;0,000000;0,000000;0,333333;0,333333;0,333333;0,000000;0,000000;0,000000;0,000000;0,000000;0,000000;0,000000;0,000000;0,000000;0,000000;0,000000;0,000000;0,000000;0,000000;0,000000;0,266667;0,266667;0,266667;0,266667;0,266667;0,000000;0,000000;0,266667;0,266667;0,266667;0,266667;0,000000;0,000000;0,000000;0,000000;0,000000;0,000000;0,000000;0,000000;0,000000;0,000000;0,000000;0,000000;0,000000;0,000000;0,000000;0,000000;0,000000;0,000000;0,000000;0,000000;0,000000;0,000000;0,000000;0,000000;0,000000;0,000000;0,388889;0,291667;0,291667;0,291667;0,000000;0,000000;0,000000;0,000000;0,416667;0,291667;0,291667;0,291667;0,291667;0,250000;0,250000;0,250000;0,250000;0,250000;0,250000;0,000000;0,000000;0,000000;0,000000;0,000000;
43;;;;;;;;;;;;;;;;;;;;;;;;;;;;;;;;;;;;;;;;;;;1,000000;0,450000;0,458333;0,472222;0,458333;0,000000;0,000000;0,439587;0,416667;0,416667;0,458333;0,416667;0,794719;0,416667;0,375000;0,444444;0,416667;0,416667;0,416667;0,000000;0,000000;0,000000;0,000000;0,000000;0,000000;0,000000;0,000000;0,000000;0,750000;0,416667;0,000000;0,000000;0,000000;0,000000;0,468678;0,500000;0,000000;0,000000;0,000000;0,000000;0,000000;0,000000;0,447143;0,468629;0,375000;0,375000;0,375000;0,468678;0,468678;0,416667;0,416667;0,429523;0,375000;0,350000;0,350000;0,350000;0,350000;0,500000;0,500000;0,416667;0,000000;0,000000;0,000000;0,000000;0,750000;0,500000;0,416667;0,416667;0,000000;0,000000;0,000000;0,000000;0,000000;0,000000;0,000000;0,000000;0,000000;0,000000;0,000000;0,500000;0,500000;0,525000;0,444444;0,500000;
44;;;;;;;;;;;;;;;;;;;;;;;;;;;;;;;;;;;;;;;;;;;;1,000000;0,343333;0,345238;0,343333;0,000000;0,000000;0,313340;0,611111;0,611111;0,343333;0,338889;0,647002;0,611111;0,721065;0,341667;0,338889;0,338889;0,338889;0,000000;0,000000;0,000000;0,000000;0,000000;0,000000;0,000000;0,000000;0,000000;0,783333;0,300000;0,000000;0,000000;0,000000;0,000000;0,378017;0,450000;0,000000;0,000000;0,000000;0,000000;0,000000;0,000000;0,325428;0,332601;0,283333;0,283333;0,283333;0,378017;0,378017;0,300000;0,300000;0,319285;0,283333;0,250000;0,250000;0,250000;0,250000;0,450000;0,450000;0,338889;0,000000;0,000000;0,000000;0,000000;0,783333;0,450000;0,338889;0,338889;0,000000;0,000000;0,000000;0,000000;0,000000;0,000000;0,000000;0,000000;0,000000;0,000000;0,000000;0,450000;0,450000;0,450000;0,341667;0,425000;
45;;;;;;;;;;;;;;;;;;;;;;;;;;;;;;;;;;;;;;;;;;;;;1,000000;0,724614;0,753441;0,000000;0,000000;0,295841;0,333333;0,333333;0,736881;0,641118;0,283333;0,333333;0,270833;0,626163;0,333333;0,333333;0,333333;0,000000;0,000000;0,000000;0,000000;0,000000;0,000000;0,000000;0,000000;0,000000;0,833333;0,283333;0,000000;0,000000;0,000000;0,000000;0,376954;0,458333;0,333333;0,000000;0,000000;0,000000;0,000000;0,000000;0,310952;0,507060;0,270833;0,270833;0,270833;0,376954;0,376954;0,525789;0,525789;0,306475;0,270833;0,233333;0,233333;0,233333;0,233333;0,458333;0,458333;0,333333;0,000000;0,000000;0,000000;0,000000;0,833333;0,458333;0,333333;0,333333;0,000000;0,000000;0,000000;0,000000;0,000000;0,000000;0,000000;0,000000;0,000000;0,000000;0,000000;0,458333;0,458333;0,466667;0,333333;0,433333;
46;;;;;;;;;;;;;;;;;;;;;;;;;;;;;;;;;;;;;;;;;;;;;;1,000000;0,729743;0,000000;0,000000;0,286468;0,333333;0,333333;0,644257;0,934470;0,273810;0,333333;0,263889;0,612839;0,333333;0,333333;0,333333;0,000000;0,000000;0,000000;0,000000;0,000000;0,000000;0,000000;0,000000;0,000000;0,888889;0,273810;0,000000;0,000000;0,000000;0,000000;0,385263;0,472222;0,333333;0,000000;0,000000;0,000000;0,000000;0,000000;0,305356;0,438261;0,263889;0,263889;0,263889;0,385263;0,385263;0,493319;0,493319;0,301360;0,263889;0,222222;0,222222;0,222222;0,222222;0,472222;0,472222;0,333333;0,000000;0,000000;0,000000;0,000000;0,888889;0,472222;0,333333;0,333333;0,000000;0,000000;0,000000;0,000000;0,000000;0,000000;0,000000;0,000000;0,000000;0,000000;0,000000;0,472222;0,472222;0,500000;0,333333;0,452381;
47;;;;;;;;;;;;;;;;;;;;;;;;;;;;;;;;;;;;;;;;;;;;;;;1,000000;0,000000;0,000000;0,295841;0,333333;0,333333;0,538371;0,333333;0,283333;0,333333;0,270833;0,604534;0,333333;0,333333;0,333333;0,458333;0,458333;0,270833;0,270833;0,000000;0,000000;0,000000;0,000000;0,000000;0,833333;0,283333;0,000000;0,000000;0,000000;0,000000;0,376954;0,458333;0,666667;0,458333;0,458333;0,000000;0,000000;0,000000;0,310952;0,315690;0,270833;0,270833;0,270833;0,376954;0,376954;0,283333;0,283333;0,306475;0,270833;0,233333;0,233333;0,233333;0,233333;0,458333;0,458333;0,333333;0,000000;0,000000;0,000000;0,000000;0,833333;0,458333;0,333333;0,333333;0,000000;0,000000;0,000000;0,000000;0,000000;0,000000;0,000000;0,000000;0,000000;0,000000;0,000000;0,458333;0,458333;0,466667;0,333333;0,433333;
48;;;;;;;;;;;;;;;;;;;;;;;;;;;;;;;;;;;;;;;;;;;;;;;;1,000000;0,666667;0,666667;0,000000;0,000000;0,000000;0,000000;0,000000;0,000000;0,000000;0,000000;0,000000;0,000000;0,000000;0,000000;0,000000;0,000000;0,000000;0,266667;0,266667;0,266667;0,266667;0,266667;0,000000;0,000000;0,266667;0,266667;0,266667;0,266667;0,000000;0,000000;0,000000;0,000000;0,000000;0,000000;0,000000;0,000000;0,000000;0,000000;0,000000;0,000000;0,000000;0,000000;0,000000;0,000000;0,000000;0,000000;0,000000;0,266667;0,266667;0,266667;0,266667;0,000000;0,000000;0,000000;0,388889;0,291667;0,291667;0,291667;0,000000;0,000000;0,000000;0,000000;0,416667;0,291667;0,291667;0,291667;0,291667;0,250000;0,250000;0,250000;0,250000;0,250000;0,250000;0,000000;0,000000;0,000000;0,000000;0,000000;
49;;;;;;;;;;;;;;;;;;;;;;;;;;;;;;;;;;;;;;;;;;;;;;;;;1,000000;0,666667;0,000000;0,000000;0,000000;0,000000;0,000000;0,000000;0,000000;0,000000;0,000000;0,000000;0,000000;0,000000;0,000000;0,000000;0,000000;0,266667;0,266667;0,266667;0,266667;0,266667;0,000000;0,000000;0,266667;0,266667;0,266667;0,266667;0,000000;0,000000;0,000000;0,000000;0,000000;0,000000;0,000000;0,000000;0,000000;0,000000;0,000000;0,000000;0,000000;0,000000;0,000000;0,000000;0,000000;0,000000;0,000000;0,266667;0,266667;0,266667;0,266667;0,000000;0,000000;0,000000;0,388889;0,291667;0,291667;0,291667;0,000000;0,000000;0,000000;0,000000;0,416667;0,291667;0,291667;0,291667;0,291667;0,250000;0,250000;0,250000;0,250000;0,250000;0,250000;0,000000;0,000000;0,000000;0,000000;0,000000;
50;;;;;;;;;;;;;;;;;;;;;;;;;;;;;;;;;;;;;;;;;;;;;;;;;;1,000000;0,314587;0,314587;0,295841;0,314587;0,253340;0,314587;0,252087;0,303340;0,314587;0,314587;0,314587;0,000000;0,000000;0,000000;0,000000;0,233333;0,233333;0,233333;0,233333;0,233333;0,814587;0,253340;0,233333;0,233333;0,233333;0,233333;0,346960;0,439587;0,000000;0,000000;0,000000;0,000000;0,000000;0,000000;0,273460;0,265701;0,252087;0,252087;0,252087;0,346960;0,346960;0,253340;0,253340;0,276482;0,252087;0,757968;0,757968;0,757968;0,757968;0,439587;0,439587;0,314587;0,433333;0,270833;0,270833;0,270833;0,814587;0,439587;0,897099;0,314587;0,458333;0,270833;0,270833;0,270833;0,270833;0,208333;0,208333;0,208333;0,208333;0,208333;0,208333;0,439587;0,439587;0,429175;0,567084;0,403340;
51;;;;;;;;;;;;;;;;;;;;;;;;;;;;;;;;;;;;;;;;;;;;;;;;;;;1,000000;0,666667;0,333333;0,333333;0,611111;0,666667;0,583333;0,333333;0,333333;0,333333;0,333333;0,000000;0,000000;0,000000;0,000000;0,000000;0,000000;0,000000;0,000000;0,000000;0,666667;0,305556;0,000000;0,000000;0,000000;0,000000;0,357567;0,416667;0,000000;0,000000;0,000000;0,000000;0,000000;0,000000;0,322143;0,325772;0,291667;0,291667;0,291667;0,357567;0,357567;0,305556;0,305556;0,318412;0,291667;0,266667;0,266667;0,266667;0,266667;0,416667;0,416667;0,333333;0,000000;0,000000;0,000000;0,000000;0,666667;0,416667;0,333333;0,333333;0,000000;0,000000;0,000000;0,000000;0,000000;0,000000;0,000000;0,000000;0,000000;0,000000;0,000000;0,416667;0,416667;0,400000;0,333333;0,388889;
52;;;;;;;;;;;;;;;;;;;;;;;;;;;;;;;;;;;;;;;;;;;;;;;;;;;;1,000000;0,333333;0,333333;0,611111;0,666667;0,583333;0,333333;0,333333;0,333333;0,333333;0,000000;0,000000;0,000000;0,000000;0,000000;0,000000;0,000000;0,000000;0,000000;0,666667;0,305556;0,000000;0,000000;0,000000;0,000000;0,357567;0,416667;0,000000;0,000000;0,000000;0,000000;0,000000;0,000000;0,322143;0,325772;0,291667;0,291667;0,291667;0,357567;0,357567;0,305556;0,305556;0,318412;0,291667;0,266667;0,266667;0,266667;0,266667;0,416667;0,416667;0,333333;0,000000;0,000000;0,000000;0,000000;0,666667;0,416667;0,333333;0,333333;0,000000;0,000000;0,000000;0,000000;0,000000;0,000000;0,000000;0,000000;0,000000;0,000000;0,000000;0,416667;0,416667;0,400000;0,333333;0,388889;
53;;;;;;;;;;;;;;;;;;;;;;;;;;;;;;;;;;;;;;;;;;;;;;;;;;;;;1,000000;0,613434;0,283333;0,333333;0,270833;0,626163;0,333333;0,333333;0,333333;0,000000;0,000000;0,000000;0,000000;0,000000;0,000000;0,000000;0,000000;0,000000;0,833333;0,283333;0,000000;0,000000;0,000000;0,000000;0,376954;0,458333;0,000000;0,000000;0,000000;0,000000;0,000000;0,000000;0,310952;0,433235;0,270833;0,270833;0,270833;0,376954;0,376954;0,481494;0,481494;0,306475;0,270833;0,233333;0,233333;0,233333;0,233333;0,458333;0,458333;0,333333;0,000000;0,000000;0,000000;0,000000;0,833333;0,458333;0,333333;0,333333;0,000000;0,000000;0,000000;0,000000;0,000000;0,000000;0,000000;0,000000;0,000000;0,000000;0,000000;0,458333;0,458333;0,466667;0,333333;0,433333;
54;;;;;;;;;;;;;;;;;;;;;;;;;;;;;;;;;;;;;;;;;;;;;;;;;;;;;;1,000000;0,305556;0,333333;0,291667;0,666667;0,333333;0,333333;0,333333;0,000000;0,000000;0,000000;0,000000;0,000000;0,000000;0,000000;0,000000;0,000000;0,666667;0,305556;0,000000;0,000000;0,000000;0,000000;0,357567;0,416667;0,000000;0,000000;0,000000;0,000000;0,000000;0,000000;0,322143;0,627462;0,291667;0,291667;0,291667;0,357567;0,357567;0,611111;0,611111;0,318412;0,291667;0,266667;0,266667;0,266667;0,266667;0,416667;0,416667;0,333333;0,000000;0,000000;0,000000;0,000000;0,666667;0,416667;0,333333;0,333333;0,000000;0,000000;0,000000;0,000000;0,000000;0,000000;0,000000;0,000000;0,000000;0,000000;0,000000;0,416667;0,416667;0,400000;0,333333;0,388889;
55;;;;;;;;;;;;;;;;;;;;;;;;;;;;;;;;;;;;;;;;;;;;;;;;;;;;;;;1,000000;0,611111;0,710195;0,291667;0,305556;0,305556;0,305556;0,000000;0,000000;0,000000;0,000000;0,000000;0,000000;0,000000;0,000000;0,000000;0,750000;0,250000;0,000000;0,000000;0,000000;0,000000;0,328017;0,416667;0,000000;0,000000;0,000000;0,000000;0,000000;0,000000;0,265428;0,257601;0,250000;0,250000;0,250000;0,328017;0,328017;0,250000;0,250000;0,269285;0,250000;0,216667;0,216667;0,216667;0,216667;0,416667;0,416667;0,305556;0,000000;0,000000;0,000000;0,000000;0,750000;0,416667;0,305556;0,305556;0,000000;0,000000;0,000000;0,000000;0,000000;0,000000;0,000000;0,000000;0,000000;0,000000;0,000000;0,416667;0,416667;0,390000;0,291667;0,375000;
56;;;;;;;;;;;;;;;;;;;;;;;;;;;;;;;;;;;;;;;;;;;;;;;;;;;;;;;;1,000000;0,583333;0,333333;0,333333;0,333333;0,333333;0,000000;0,000000;0,000000;0,000000;0,000000;0,000000;0,000000;0,000000;0,000000;0,666667;0,305556;0,000000;0,000000;0,000000;0,000000;0,357567;0,416667;0,000000;0,000000;0,000000;0,000000;0,000000;0,000000;0,322143;0,325772;0,291667;0,291667;0,291667;0,357567;0,357567;0,305556;0,305556;0,318412;0,291667;0,266667;0,266667;0,266667;0,266667;0,416667;0,416667;0,333333;0,000000;0,000000;0,000000;0,000000;0,666667;0,416667;0,333333;0,333333;0,000000;0,000000;0,000000;0,000000;0,000000;0,000000;0,000000;0,000000;0,000000;0,000000;0,000000;0,416667;0,416667;0,400000;0,333333;0,388889;
57;;;;;;;;;;;;;;;;;;;;;;;;;;;;;;;;;;;;;;;;;;;;;;;;;;;;;;;;;1,000000;0,277778;0,291667;0,291667;0,291667;0,000000;0,000000;0,000000;0,000000;0,000000;0,000000;0,000000;0,000000;0,000000;0,625000;0,250000;0,000000;0,000000;0,000000;0,000000;0,302012;0,375000;0,000000;0,000000;0,000000;0,000000;0,000000;0,000000;0,259643;0,254343;0,250000;0,250000;0,250000;0,302012;0,302012;0,250000;0,250000;0,262857;0,250000;0,225000;0,225000;0,225000;0,225000;0,375000;0,375000;0,291667;0,000000;0,000000;0,000000;0,000000;0,625000;0,375000;0,291667;0,291667;0,000000;0,000000;0,000000;0,000000;0,000000;0,000000;0,000000;0,000000;0,000000;0,000000;0,000000;0,375000;0,375000;0,337500;0,277778;0,333333;
58;;;;;;;;;;;;;;;;;;;;;;;;;;;;;;;;;;;;;;;;;;;;;;;;;;;;;;;;;;1,000000;0,333333;0,333333;0,333333;0,000000;0,000000;0,000000;0,000000;0,000000;0,000000;0,000000;0,000000;0,000000;0,777778;0,291667;0,000000;0,000000;0,000000;0,000000;0,369684;0,444444;0,000000;0,000000;0,000000;0,000000;0,000000;0,000000;0,315428;0,320101;0,277778;0,277778;0,277778;0,369684;0,369684;0,291667;0,291667;0,310952;0,277778;0,244444;0,244444;0,244444;0,244444;0,444444;0,444444;0,333333;0,000000;0,000000;0,000000;0,000000;0,777778;0,444444;0,333333;0,333333;0,000000;0,000000;0,000000;0,000000;0,000000;0,000000;0,000000;0,000000;0,000000;0,000000;0,000000;0,444444;0,444444;0,440000;0,333333;0,416667;
59;;;;;;;;;;;;;;;;;;;;;;;;;;;;;;;;;;;;;;;;;;;;;;;;;;;;;;;;;;;1,000000;0,666667;0,666667;0,000000;0,000000;0,000000;0,000000;0,000000;0,000000;0,000000;0,000000;0,000000;0,666667;0,305556;0,000000;0,000000;0,000000;0,000000;0,357567;0,416667;0,000000;0,000000;0,000000;0,000000;0,000000;0,000000;0,322143;0,325772;0,291667;0,291667;0,291667;0,357567;0,357567;0,305556;0,305556;0,318412;0,291667;0,266667;0,266667;0,266667;0,266667;0,416667;0,416667;0,333333;0,000000;0,000000;0,000000;0,000000;0,666667;0,416667;0,333333;0,333333;0,000000;0,000000;0,000000;0,000000;0,000000;0,000000;0,000000;0,000000;0,000000;0,000000;0,000000;0,416667;0,416667;0,400000;0,333333;0,388889;
60;;;;;;;;;;;;;;;;;;;;;;;;;;;;;;;;;;;;;;;;;;;;;;;;;;;;;;;;;;;;1,000000;0,666667;0,000000;0,000000;0,000000;0,000000;0,000000;0,000000;0,000000;0,000000;0,000000;0,666667;0,305556;0,000000;0,000000;0,000000;0,000000;0,357567;0,416667;0,000000;0,000000;0,000000;0,000000;0,000000;0,000000;0,322143;0,325772;0,291667;0,291667;0,291667;0,357567;0,357567;0,305556;0,305556;0,318412;0,291667;0,266667;0,266667;0,266667;0,266667;0,416667;0,416667;0,333333;0,000000;0,000000;0,000000;0,000000;0,666667;0,416667;0,333333;0,333333;0,000000;0,000000;0,000000;0,000000;0,000000;0,000000;0,000000;0,000000;0,000000;0,000000;0,000000;0,416667;0,416667;0,400000;0,333333;0,388889;
61;;;;;;;;;;;;;;;;;;;;;;;;;;;;;;;;;;;;;;;;;;;;;;;;;;;;;;;;;;;;;1,000000;0,000000;0,000000;0,000000;0,000000;0,000000;0,000000;0,000000;0,000000;0,000000;0,666667;0,305556;0,000000;0,000000;0,000000;0,000000;0,357567;0,416667;0,000000;0,000000;0,000000;0,000000;0,000000;0,000000;0,322143;0,325772;0,291667;0,291667;0,291667;0,357567;0,357567;0,305556;0,305556;0,318412;0,291667;0,266667;0,266667;0,266667;0,266667;0,416667;0,416667;0,333333;0,000000;0,000000;0,000000;0,000000;0,666667;0,416667;0,333333;0,333333;0,000000;0,000000;0,000000;0,000000;0,000000;0,000000;0,000000;0,000000;0,000000;0,000000;0,000000;0,416667;0,416667;0,400000;0,333333;0,388889;
62;;;;;;;;;;;;;;;;;;;;;;;;;;;;;;;;;;;;;;;;;;;;;;;;;;;;;;;;;;;;;;1,000000;0,500000;0,375000;0,375000;0,000000;0,000000;0,000000;0,000000;0,000000;0,000000;0,000000;0,000000;0,000000;0,000000;0,000000;0,000000;0,000000;0,416667;0,500000;0,500000;0,000000;0,000000;0,000000;0,000000;0,000000;0,000000;0,000000;0,000000;0,000000;0,000000;0,000000;0,000000;0,000000;0,000000;0,000000;0,000000;0,000000;0,000000;0,000000;0,000000;0,000000;0,000000;0,000000;0,000000;0,000000;0,000000;0,000000;0,000000;0,000000;0,000000;0,000000;0,000000;0,000000;0,000000;0,000000;0,000000;0,000000;0,000000;0,000000;0,000000;0,000000;0,000000;0,000000;0,000000;0,000000;
63;;;;;;;;;;;;;;;;;;;;;;;;;;;;;;;;;;;;;;;;;;;;;;;;;;;;;;;;;;;;;;;1,000000;0,375000;0,375000;0,000000;0,000000;0,000000;0,000000;0,000000;0,000000;0,000000;0,000000;0,000000;0,000000;0,000000;0,000000;0,000000;0,416667;0,500000;0,500000;0,000000;0,000000;0,000000;0,000000;0,000000;0,000000;0,000000;0,000000;0,000000;0,000000;0,000000;0,000000;0,000000;0,000000;0,000000;0,000000;0,000000;0,000000;0,000000;0,000000;0,000000;0,000000;0,000000;0,000000;0,000000;0,000000;0,000000;0,000000;0,000000;0,000000;0,000000;0,000000;0,000000;0,000000;0,000000;0,000000;0,000000;0,000000;0,000000;0,000000;0,000000;0,000000;0,000000;0,000000;0,000000;
64;;;;;;;;;;;;;;;;;;;;;;;;;;;;;;;;;;;;;;;;;;;;;;;;;;;;;;;;;;;;;;;;1,000000;0,750000;0,000000;0,000000;0,000000;0,000000;0,000000;0,000000;0,000000;0,000000;0,000000;0,000000;0,000000;0,000000;0,000000;0,291667;0,375000;0,375000;0,000000;0,000000;0,000000;0,000000;0,000000;0,000000;0,000000;0,000000;0,000000;0,000000;0,000000;0,000000;0,000000;0,000000;0,000000;0,000000;0,000000;0,000000;0,000000;0,000000;0,000000;0,000000;0,000000;0,000000;0,000000;0,000000;0,000000;0,000000;0,000000;0,000000;0,000000;0,000000;0,000000;0,000000;0,000000;0,000000;0,000000;0,000000;0,000000;0,000000;0,000000;0,000000;0,000000;0,000000;0,000000;
65;;;;;;;;;;;;;;;;;;;;;;;;;;;;;;;;;;;;;;;;;;;;;;;;;;;;;;;;;;;;;;;;;1,000000;0,000000;0,000000;0,000000;0,000000;0,000000;0,000000;0,000000;0,000000;0,000000;0,000000;0,000000;0,000000;0,000000;0,291667;0,375000;0,375000;0,000000;0,000000;0,000000;0,000000;0,000000;0,000000;0,000000;0,000000;0,000000;0,000000;0,000000;0,000000;0,000000;0,000000;0,000000;0,000000;0,000000;0,000000;0,000000;0,000000;0,000000;0,000000;0,000000;0,000000;0,000000;0,000000;0,000000;0,000000;0,000000;0,000000;0,000000;0,000000;0,000000;0,000000;0,000000;0,000000;0,000000;0,000000;0,000000;0,000000;0,000000;0,000000;0,000000;0,000000;0,000000;
66;;;;;;;;;;;;;;;;;;;;;;;;;;;;;;;;;;;;;;;;;;;;;;;;;;;;;;;;;;;;;;;;;;1,000000;0,800000;0,800000;0,800000;0,800000;0,000000;0,000000;0,200000;0,200000;0,200000;0,200000;0,000000;0,000000;0,000000;0,000000;0,000000;0,000000;0,000000;0,000000;0,000000;0,000000;0,000000;0,000000;0,000000;0,000000;0,000000;0,000000;0,000000;0,000000;0,000000;0,000000;0,000000;0,000000;0,000000;0,000000;0,000000;0,000000;0,300000;0,225000;0,225000;0,225000;0,000000;0,000000;0,000000;0,000000;0,350000;0,225000;0,225000;0,225000;0,225000;0,183333;0,183333;0,183333;0,183333;0,183333;0,183333;0,000000;0,000000;0,000000;0,000000;0,000000;
67;;;;;;;;;;;;;;;;;;;;;;;;;;;;;;;;;;;;;;;;;;;;;;;;;;;;;;;;;;;;;;;;;;;1,000000;0,800000;0,800000;0,800000;0,000000;0,000000;0,200000;0,200000;0,200000;0,200000;0,000000;0,000000;0,000000;0,000000;0,000000;0,000000;0,000000;0,000000;0,000000;0,000000;0,000000;0,000000;0,000000;0,000000;0,000000;0,000000;0,000000;0,000000;0,000000;0,000000;0,000000;0,000000;0,000000;0,000000;0,000000;0,000000;0,300000;0,225000;0,225000;0,225000;0,000000;0,000000;0,000000;0,000000;0,350000;0,225000;0,225000;0,225000;0,225000;0,183333;0,183333;0,183333;0,183333;0,183333;0,183333;0,000000;0,000000;0,000000;0,000000;0,000000;
68;;;;;;;;;;;;;;;;;;;;;;;;;;;;;;;;;;;;;;;;;;;;;;;;;;;;;;;;;;;;;;;;;;;;1,000000;0,800000;0,800000;0,000000;0,000000;0,200000;0,200000;0,200000;0,200000;0,000000;0,000000;0,000000;0,000000;0,000000;0,000000;0,000000;0,000000;0,000000;0,000000;0,000000;0,000000;0,000000;0,000000;0,000000;0,000000;0,000000;0,000000;0,000000;0,000000;0,000000;0,000000;0,000000;0,000000;0,000000;0,000000;0,300000;0,225000;0,225000;0,225000;0,000000;0,000000;0,000000;0,000000;0,350000;0,225000;0,225000;0,225000;0,225000;0,183333;0,183333;0,183333;0,183333;0,183333;0,183333;0,000000;0,000000;0,000000;0,000000;0,000000;
69;;;;;;;;;;;;;;;;;;;;;;;;;;;;;;;;;;;;;;;;;;;;;;;;;;;;;;;;;;;;;;;;;;;;;1,000000;0,800000;0,000000;0,000000;0,200000;0,200000;0,200000;0,200000;0,000000;0,000000;0,000000;0,000000;0,000000;0,000000;0,000000;0,000000;0,000000;0,000000;0,000000;0,000000;0,000000;0,000000;0,000000;0,000000;0,000000;0,000000;0,000000;0,000000;0,000000;0,000000;0,000000;0,000000;0,000000;0,000000;0,300000;0,225000;0,225000;0,225000;0,000000;0,000000;0,000000;0,000000;0,350000;0,225000;0,225000;0,225000;0,225000;0,183333;0,183333;0,183333;0,183333;0,183333;0,183333;0,000000;0,000000;0,000000;0,000000;0,000000;
70;;;;;;;;;;;;;;;;;;;;;;;;;;;;;;;;;;;;;;;;;;;;;;;;;;;;;;;;;;;;;;;;;;;;;;1,000000;0,000000;0,000000;0,200000;0,200000;0,200000;0,200000;0,000000;0,000000;0,000000;0,000000;0,000000;0,000000;0,000000;0,000000;0,000000;0,000000;0,000000;0,000000;0,000000;0,000000;0,000000;0,000000;0,000000;0,000000;0,000000;0,000000;0,000000;0,000000;0,000000;0,000000;0,000000;0,000000;0,300000;0,225000;0,225000;0,225000;0,000000;0,000000;0,000000;0,000000;0,350000;0,225000;0,225000;0,225000;0,225000;0,183333;0,183333;0,183333;0,183333;0,183333;0,183333;0,000000;0,000000;0,000000;0,000000;0,000000;
71;;;;;;;;;;;;;;;;;;;;;;;;;;;;;;;;;;;;;;;;;;;;;;;;;;;;;;;;;;;;;;;;;;;;;;;1,000000;0,750000;0,000000;0,000000;0,000000;0,000000;0,802012;0,750000;0,000000;0,000000;0,000000;0,000000;0,000000;0,000000;0,822143;0,897201;0,625000;0,625000;0,625000;0,802012;0,802012;0,750000;0,750000;0,762857;0,625000;0,600000;0,600000;0,600000;0,600000;0,750000;0,750000;0,666667;0,000000;0,000000;0,000000;0,000000;1,000000;0,750000;0,666667;0,666667;0,000000;0,000000;0,000000;0,000000;0,000000;0,000000;0,000000;0,000000;0,000000;0,000000;0,000000;0,750000;0,750000;0,900000;0,777778;0,833333;
72;;;;;;;;;;;;;;;;;;;;;;;;;;;;;;;;;;;;;;;;;;;;;;;;;;;;;;;;;;;;;;;;;;;;;;;;1,000000;0,000000;0,000000;0,000000;0,000000;0,328017;0,416667;0,000000;0,000000;0,000000;0,000000;0,000000;0,000000;0,265428;0,257601;0,750000;0,750000;0,750000;0,328017;0,328017;0,250000;0,250000;0,269285;0,250000;0,216667;0,216667;0,216667;0,216667;0,416667;0,416667;0,305556;0,000000;0,000000;0,000000;0,000000;0,750000;0,416667;0,305556;0,305556;0,000000;0,000000;0,000000;0,000000;0,000000;0,000000;0,000000;0,000000;0,000000;0,000000;0,000000;0,416667;0,416667;0,390000;0,291667;0,375000;
73;;;;;;;;;;;;;;;;;;;;;;;;;;;;;;;;;;;;;;;;;;;;;;;;;;;;;;;;;;;;;;;;;;;;;;;;;1,000000;0,800000;0,800000;0,800000;0,000000;0,000000;0,000000;0,000000;0,000000;0,000000;0,000000;0,000000;0,000000;0,000000;0,000000;0,000000;0,000000;0,000000;0,000000;0,000000;0,000000;0,000000;0,000000;0,000000;0,000000;0,000000;0,000000;0,000000;0,000000;0,000000;0,600000;0,450000;0,450000;0,450000;0,000000;0,000000;0,000000;0,000000;0,350000;0,225000;0,225000;0,225000;0,225000;0,183333;0,183333;0,183333;0,183333;0,183333;0,183333;0,000000;0,000000;0,000000;0,000000;0,000000;
74;;;;;;;;;;;;;;;;;;;;;;;;;;;;;;;;;;;;;;;;;;;;;;;;;;;;;;;;;;;;;;;;;;;;;;;;;;1,000000;0,800000;0,800000;0,000000;0,000000;0,000000;0,000000;0,000000;0,000000;0,000000;0,000000;0,000000;0,000000;0,000000;0,000000;0,000000;0,000000;0,000000;0,000000;0,000000;0,000000;0,000000;0,000000;0,000000;0,000000;0,000000;0,000000;0,000000;0,000000;0,600000;0,450000;0,450000;0,450000;0,000000;0,000000;0,000000;0,000000;0,350000;0,225000;0,225000;0,225000;0,225000;0,183333;0,183333;0,183333;0,183333;0,183333;0,183333;0,000000;0,000000;0,000000;0,000000;0,000000;
75;;;;;;;;;;;;;;;;;;;;;;;;;;;;;;;;;;;;;;;;;;;;;;;;;;;;;;;;;;;;;;;;;;;;;;;;;;;1,000000;0,800000;0,000000;0,000000;0,000000;0,000000;0,000000;0,000000;0,000000;0,000000;0,000000;0,000000;0,000000;0,000000;0,000000;0,000000;0,000000;0,000000;0,000000;0,000000;0,000000;0,000000;0,000000;0,000000;0,000000;0,000000;0,000000;0,000000;0,600000;0,450000;0,450000;0,450000;0,000000;0,000000;0,000000;0,000000;0,350000;0,225000;0,225000;0,225000;0,225000;0,183333;0,183333;0,183333;0,183333;0,183333;0,183333;0,000000;0,000000;0,000000;0,000000;0,000000;
76;;;;;;;;;;;;;;;;;;;;;;;;;;;;;;;;;;;;;;;;;;;;;;;;;;;;;;;;;;;;;;;;;;;;;;;;;;;;1,000000;0,000000;0,000000;0,000000;0,000000;0,000000;0,000000;0,000000;0,000000;0,000000;0,000000;0,000000;0,000000;0,000000;0,000000;0,000000;0,000000;0,000000;0,000000;0,000000;0,000000;0,000000;0,000000;0,000000;0,000000;0,000000;0,000000;0,600000;0,450000;0,450000;0,450000;0,000000;0,000000;0,000000;0,000000;0,350000;0,225000;0,225000;0,225000;0,225000;0,183333;0,183333;0,183333;0,183333;0,183333;0,183333;0,000000;0,000000;0,000000;0,000000;0,000000;
77;;;;;;;;;;;;;;;;;;;;;;;;;;;;;;;;;;;;;;;;;;;;;;;;;;;;;;;;;;;;;;;;;;;;;;;;;;;;;1,000000;0,468678;0,000000;0,000000;0,000000;0,277778;0,277778;0,277778;0,527825;0,537689;0,302012;0,302012;0,302012;0,406035;0,406035;0,549678;0,549678;0,588248;0,533119;0,268678;0,268678;0,268678;0,268678;0,468678;0,468678;0,357567;0,000000;0,000000;0,000000;0,000000;0,802012;0,468678;0,357567;0,644230;0,000000;0,000000;0,000000;0,000000;0,000000;0,000000;0,000000;0,000000;0,000000;0,000000;0,000000;0,468678;0,468678;0,483621;0,369684;0,453017;
78;;;;;;;;;;;;;;;;;;;;;;;;;;;;;;;;;;;;;;;;;;;;;;;;;;;;;;;;;;;;;;;;;;;;;;;;;;;;;;1,000000;0,000000;0,000000;0,000000;0,000000;0,000000;0,000000;0,447143;0,907191;0,375000;0,375000;0,375000;0,468678;0,468678;0,416667;0,416667;0,429523;0,375000;0,350000;0,350000;0,350000;0,350000;0,500000;0,500000;0,416667;0,000000;0,000000;0,000000;0,000000;0,750000;0,500000;0,416667;0,833333;0,000000;0,000000;0,000000;0,000000;0,000000;0,000000;0,000000;0,000000;0,000000;0,000000;0,000000;0,500000;0,500000;0,525000;0,444444;0,500000;
79;;;;;;;;;;;;;;;;;;;;;;;;;;;;;;;;;;;;;;;;;;;;;;;;;;;;;;;;;;;;;;;;;;;;;;;;;;;;;;;1,000000;0,416667;0,416667;0,000000;0,000000;0,000000;0,000000;0,000000;0,000000;0,000000;0,000000;0,000000;0,000000;0,000000;0,000000;0,000000;0,000000;0,000000;0,000000;0,000000;0,000000;0,000000;0,000000;0,000000;0,000000;0,000000;0,000000;0,000000;0,000000;0,000000;0,000000;0,000000;0,000000;0,000000;0,000000;0,000000;0,000000;0,000000;0,000000;0,000000;0,000000;0,000000;0,000000;0,000000;0,000000;0,000000;0,000000;0,000000;
80;;;;;;;;;;;;;;;;;;;;;;;;;;;;;;;;;;;;;;;;;;;;;;;;;;;;;;;;;;;;;;;;;;;;;;;;;;;;;;;;1,000000;0,500000;0,000000;0,000000;0,000000;0,000000;0,000000;0,000000;0,000000;0,000000;0,000000;0,000000;0,000000;0,000000;0,000000;0,000000;0,000000;0,000000;0,000000;0,000000;0,000000;0,000000;0,000000;0,000000;0,000000;0,000000;0,000000;0,000000;0,000000;0,000000;0,000000;0,000000;0,000000;0,000000;0,000000;0,000000;0,000000;0,000000;0,000000;0,000000;0,000000;0,000000;0,000000;0,000000;0,000000;0,000000;0,000000;
81;;;;;;;;;;;;;;;;;;;;;;;;;;;;;;;;;;;;;;;;;;;;;;;;;;;;;;;;;;;;;;;;;;;;;;;;;;;;;;;;;1,000000;0,000000;0,000000;0,000000;0,000000;0,000000;0,000000;0,000000;0,000000;0,000000;0,000000;0,000000;0,000000;0,000000;0,000000;0,000000;0,000000;0,000000;0,000000;0,000000;0,000000;0,000000;0,000000;0,000000;0,000000;0,000000;0,000000;0,000000;0,000000;0,000000;0,000000;0,000000;0,000000;0,000000;0,000000;0,000000;0,000000;0,000000;0,000000;0,000000;0,000000;0,000000;0,000000;0,000000;0,000000;0,000000;
82;;;;;;;;;;;;;;;;;;;;;;;;;;;;;;;;;;;;;;;;;;;;;;;;;;;;;;;;;;;;;;;;;;;;;;;;;;;;;;;;;;1,000000;0,750000;0,750000;0,685819;0,713366;0,000000;0,000000;0,000000;0,000000;0,000000;0,250000;0,250000;0,525714;0,500000;0,000000;0,000000;0,000000;0,000000;0,000000;0,000000;0,000000;0,000000;0,000000;0,000000;0,000000;0,000000;0,000000;0,000000;0,291667;0,000000;0,000000;0,000000;0,000000;0,000000;0,000000;0,000000;0,000000;0,000000;0,000000;0,000000;0,000000;0,000000;0,000000;0,000000;0,000000;
83;;;;;;;;;;;;;;;;;;;;;;;;;;;;;;;;;;;;;;;;;;;;;;;;;;;;;;;;;;;;;;;;;;;;;;;;;;;;;;;;;;;1,000000;0,750000;0,685819;0,713366;0,000000;0,000000;0,000000;0,000000;0,000000;0,250000;0,250000;0,525714;0,500000;0,000000;0,000000;0,000000;0,000000;0,000000;0,000000;0,000000;0,000000;0,000000;0,000000;0,000000;0,000000;0,000000;0,000000;0,291667;0,000000;0,000000;0,000000;0,000000;0,000000;0,000000;0,000000;0,000000;0,000000;0,000000;0,000000;0,000000;0,000000;0,000000;0,000000;0,000000;
84;;;;;;;;;;;;;;;;;;;;;;;;;;;;;;;;;;;;;;;;;;;;;;;;;;;;;;;;;;;;;;;;;;;;;;;;;;;;;;;;;;;;1,000000;0,685819;0,713366;0,000000;0,000000;0,000000;0,000000;0,000000;0,250000;0,250000;0,525714;0,500000;0,000000;0,000000;0,000000;0,000000;0,000000;0,000000;0,000000;0,000000;0,000000;0,000000;0,000000;0,000000;0,000000;0,000000;0,291667;0,000000;0,000000;0,000000;0,000000;0,000000;0,000000;0,000000;0,000000;0,000000;0,000000;0,000000;0,000000;0,000000;0,000000;0,000000;0,000000;
85;;;;;;;;;;;;;;;;;;;;;;;;;;;;;;;;;;;;;;;;;;;;;;;;;;;;;;;;;;;;;;;;;;;;;;;;;;;;;;;;;;;;;1,000000;0,704413;0,259643;0,259643;0,259643;0,359049;0,359049;0,468212;0,468212;0,627132;0,708801;0,222143;0,222143;0,222143;0,222143;0,447143;0,447143;0,322143;0,000000;0,000000;0,000000;0,000000;0,822143;0,447143;0,322143;0,605132;0,000000;0,000000;0,000000;0,000000;0,000000;0,000000;0,000000;0,000000;0,000000;0,000000;0,000000;0,447143;0,447143;0,444285;0,315428;0,415428;
86;;;;;;;;;;;;;;;;;;;;;;;;;;;;;;;;;;;;;;;;;;;;;;;;;;;;;;;;;;;;;;;;;;;;;;;;;;;;;;;;;;;;;;1,000000;0,254343;0,254343;0,254343;0,374627;0,374627;0,691484;0,691484;0,633382;0,706038;0,211486;0,211486;0,211486;0,211486;0,468629;0,468629;0,325772;0,000000;0,000000;0,000000;0,000000;0,897201;0,468629;0,325772;0,621477;0,000000;0,000000;0,000000;0,000000;0,000000;0,000000;0,000000;0,000000;0,000000;0,000000;0,000000;0,468629;0,468629;0,493468;0,320101;0,445101;
87;;;;;;;;;;;;;;;;;;;;;;;;;;;;;;;;;;;;;;;;;;;;;;;;;;;;;;;;;;;;;;;;;;;;;;;;;;;;;;;;;;;;;;;1,000000;0,750000;0,750000;0,302012;0,302012;0,250000;0,250000;0,262857;0,250000;0,225000;0,225000;0,225000;0,225000;0,375000;0,375000;0,291667;0,000000;0,000000;0,000000;0,000000;0,625000;0,375000;0,291667;0,291667;0,000000;0,000000;0,000000;0,000000;0,000000;0,000000;0,000000;0,000000;0,000000;0,000000;0,000000;0,375000;0,375000;0,337500;0,277778;0,333333;
88;;;;;;;;;;;;;;;;;;;;;;;;;;;;;;;;;;;;;;;;;;;;;;;;;;;;;;;;;;;;;;;;;;;;;;;;;;;;;;;;;;;;;;;;1,000000;0,750000;0,302012;0,302012;0,250000;0,250000;0,262857;0,250000;0,225000;0,225000;0,225000;0,225000;0,375000;0,375000;0,291667;0,000000;0,000000;0,000000;0,000000;0,625000;0,375000;0,291667;0,291667;0,000000;0,000000;0,000000;0,000000;0,000000;0,000000;0,000000;0,000000;0,000000;0,000000;0,000000;0,375000;0,375000;0,337500;0,277778;0,333333;
89;;;;;;;;;;;;;;;;;;;;;;;;;;;;;;;;;;;;;;;;;;;;;;;;;;;;;;;;;;;;;;;;;;;;;;;;;;;;;;;;;;;;;;;;;1,000000;0,302012;0,302012;0,250000;0,250000;0,262857;0,250000;0,225000;0,225000;0,225000;0,225000;0,375000;0,375000;0,291667;0,000000;0,000000;0,000000;0,000000;0,625000;0,375000;0,291667;0,291667;0,000000;0,000000;0,000000;0,000000;0,000000;0,000000;0,000000;0,000000;0,000000;0,000000;0,000000;0,375000;0,375000;0,337500;0,277778;0,333333;
90;;;;;;;;;;;;;;;;;;;;;;;;;;;;;;;;;;;;;;;;;;;;;;;;;;;;;;;;;;;;;;;;;;;;;;;;;;;;;;;;;;;;;;;;;;1,000000;0,600061;0,328017;0,328017;0,347303;0,302012;0,268678;0,268678;0,268678;0,268678;0,468678;0,468678;0,715134;0,000000;0,000000;0,000000;0,000000;0,802012;0,468678;0,357567;0,357567;0,000000;0,000000;0,000000;0,000000;0,000000;0,000000;0,000000;0,000000;0,000000;0,000000;0,000000;0,468678;0,468678;0,483621;0,369684;0,453017;
91;;;;;;;;;;;;;;;;;;;;;;;;;;;;;;;;;;;;;;;;;;;;;;;;;;;;;;;;;;;;;;;;;;;;;;;;;;;;;;;;;;;;;;;;;;;1,000000;0,328017;0,328017;0,347303;0,302012;0,268678;0,268678;0,268678;0,268678;0,468678;0,468678;0,715134;0,000000;0,000000;0,000000;0,000000;0,802012;0,468678;0,357567;0,357567;0,000000;0,000000;0,000000;0,000000;0,000000;0,000000;0,000000;0,000000;0,000000;0,000000;0,000000;0,468678;0,468678;0,483621;0,369684;0,453017;
92;;;;;;;;;;;;;;;;;;;;;;;;;;;;;;;;;;;;;;;;;;;;;;;;;;;;;;;;;;;;;;;;;;;;;;;;;;;;;;;;;;;;;;;;;;;;1,000000;0,750000;0,538570;0,500000;0,216667;0,216667;0,216667;0,216667;0,416667;0,416667;0,305556;0,000000;0,000000;0,000000;0,000000;0,750000;0,416667;0,305556;0,611111;0,000000;0,000000;0,000000;0,000000;0,000000;0,000000;0,000000;0,000000;0,000000;0,000000;0,000000;0,416667;0,416667;0,390000;0,291667;0,375000;
93;;;;;;;;;;;;;;;;;;;;;;;;;;;;;;;;;;;;;;;;;;;;;;;;;;;;;;;;;;;;;;;;;;;;;;;;;;;;;;;;;;;;;;;;;;;;;1,000000;0,538570;0,500000;0,216667;0,216667;0,216667;0,216667;0,416667;0,416667;0,305556;0,000000;0,000000;0,000000;0,000000;0,750000;0,416667;0,305556;0,611111;0,000000;0,000000;0,000000;0,000000;0,000000;0,000000;0,000000;0,000000;0,000000;0,000000;0,000000;0,416667;0,416667;0,390000;0,291667;0,375000;
94;;;;;;;;;;;;;;;;;;;;;;;;;;;;;;;;;;;;;;;;;;;;;;;;;;;;;;;;;;;;;;;;;;;;;;;;;;;;;;;;;;;;;;;;;;;;;;1,000000;0,788570;0,229523;0,229523;0,229523;0,229523;0,429523;0,429523;0,318412;0,000000;0,000000;0,000000;0,000000;0,762857;0,429523;0,318412;0,636825;0,000000;0,000000;0,000000;0,000000;0,000000;0,000000;0,000000;0,000000;0,000000;0,000000;0,000000;0,429523;0,429523;0,413142;0,310952;0,394285;
95;;;;;;;;;;;;;;;;;;;;;;;;;;;;;;;;;;;;;;;;;;;;;;;;;;;;;;;;;;;;;;;;;;;;;;;;;;;;;;;;;;;;;;;;;;;;;;;1,000000;0,225000;0,225000;0,225000;0,225000;0,375000;0,375000;0,291667;0,000000;0,000000;0,000000;0,000000;0,625000;0,375000;0,291667;0,583333;0,000000;0,000000;0,000000;0,000000;0,000000;0,000000;0,000000;0,000000;0,000000;0,000000;0,000000;0,375000;0,375000;0,337500;0,277778;0,333333;
96;;;;;;;;;;;;;;;;;;;;;;;;;;;;;;;;;;;;;;;;;;;;;;;;;;;;;;;;;;;;;;;;;;;;;;;;;;;;;;;;;;;;;;;;;;;;;;;;1,000000;0,800000;0,800000;0,800000;0,350000;0,350000;0,266667;0,000000;0,000000;0,000000;0,000000;0,600000;0,350000;0,266667;0,266667;0,000000;0,000000;0,000000;0,000000;0,000000;0,000000;0,000000;0,000000;0,000000;0,000000;0,000000;0,350000;0,350000;0,300000;0,244444;0,300000;
97;;;;;;;;;;;;;;;;;;;;;;;;;;;;;;;;;;;;;;;;;;;;;;;;;;;;;;;;;;;;;;;;;;;;;;;;;;;;;;;;;;;;;;;;;;;;;;;;;1,000000;0,800000;0,800000;0,350000;0,350000;0,266667;0,000000;0,000000;0,000000;0,000000;0,600000;0,350000;0,266667;0,266667;0,000000;0,000000;0,000000;0,000000;0,000000;0,000000;0,000000;0,000000;0,000000;0,000000;0,000000;0,350000;0,350000;0,300000;0,244444;0,300000;
98;;;;;;;;;;;;;;;;;;;;;;;;;;;;;;;;;;;;;;;;;;;;;;;;;;;;;;;;;;;;;;;;;;;;;;;;;;;;;;;;;;;;;;;;;;;;;;;;;;1,000000;0,800000;0,350000;0,350000;0,266667;0,000000;0,000000;0,000000;0,000000;0,600000;0,350000;0,266667;0,266667;0,000000;0,000000;0,000000;0,000000;0,000000;0,000000;0,000000;0,000000;0,000000;0,000000;0,000000;0,350000;0,350000;0,300000;0,244444;0,300000;
99;;;;;;;;;;;;;;;;;;;;;;;;;;;;;;;;;;;;;;;;;;;;;;;;;;;;;;;;;;;;;;;;;;;;;;;;;;;;;;;;;;;;;;;;;;;;;;;;;;;1,000000;0,350000;0,350000;0,266667;0,000000;0,000000;0,000000;0,000000;0,600000;0,350000;0,266667;0,266667;0,000000;0,000000;0,000000;0,000000;0,000000;0,000000;0,000000;0,000000;0,000000;0,000000;0,000000;0,350000;0,350000;0,300000;0,244444;0,300000;
100;;;;;;;;;;;;;;;;;;;;;;;;;;;;;;;;;;;;;;;;;;;;;;;;;;;;;;;;;;;;;;;;;;;;;;;;;;;;;;;;;;;;;;;;;;;;;;;;;;;;1,000000;0,500000;0,416667;0,000000;0,000000;0,000000;0,000000;0,750000;0,500000;0,416667;0,416667;0,000000;0,000000;0,000000;0,000000;0,000000;0,000000;0,000000;0,000000;0,000000;0,000000;0,000000;0,500000;0,500000;0,525000;0,444444;0,500000;
101;;;;;;;;;;;;;;;;;;;;;;;;;;;;;;;;;;;;;;;;;;;;;;;;;;;;;;;;;;;;;;;;;;;;;;;;;;;;;;;;;;;;;;;;;;;;;;;;;;;;;1,000000;0,416667;0,000000;0,000000;0,000000;0,000000;0,750000;0,500000;0,416667;0,416667;0,000000;0,000000;0,000000;0,000000;0,000000;0,000000;0,000000;0,000000;0,000000;0,000000;0,000000;0,500000;0,500000;0,525000;0,444444;0,500000;
102;;;;;;;;;;;;;;;;;;;;;;;;;;;;;;;;;;;;;;;;;;;;;;;;;;;;;;;;;;;;;;;;;;;;;;;;;;;;;;;;;;;;;;;;;;;;;;;;;;;;;;1,000000;0,000000;0,000000;0,000000;0,000000;0,666667;0,416667;0,333333;0,333333;0,000000;0,000000;0,000000;0,000000;0,000000;0,000000;0,000000;0,000000;0,000000;0,000000;0,000000;0,416667;0,416667;0,400000;0,333333;0,388889;
103;;;;;;;;;;;;;;;;;;;;;;;;;;;;;;;;;;;;;;;;;;;;;;;;;;;;;;;;;;;;;;;;;;;;;;;;;;;;;;;;;;;;;;;;;;;;;;;;;;;;;;;1,000000;0,666667;0,666667;0,666667;0,000000;0,000000;0,000000;0,000000;0,500000;0,333333;0,333333;0,333333;0,333333;0,277778;0,277778;0,277778;0,277778;0,277778;0,277778;0,000000;0,000000;0,000000;0,000000;0,000000;
104;;;;;;;;;;;;;;;;;;;;;;;;;;;;;;;;;;;;;;;;;;;;;;;;;;;;;;;;;;;;;;;;;;;;;;;;;;;;;;;;;;;;;;;;;;;;;;;;;;;;;;;;1,000000;0,750000;0,750000;0,000000;0,000000;0,000000;0,000000;0,375000;0,250000;0,250000;0,250000;0,250000;0,208333;0,208333;0,208333;0,208333;0,208333;0,208333;0,000000;0,000000;0,000000;0,000000;0,000000;
105;;;;;;;;;;;;;;;;;;;;;;;;;;;;;;;;;;;;;;;;;;;;;;;;;;;;;;;;;;;;;;;;;;;;;;;;;;;;;;;;;;;;;;;;;;;;;;;;;;;;;;;;;1,000000;0,750000;0,000000;0,000000;0,000000;0,000000;0,375000;0,250000;0,250000;0,250000;0,250000;0,208333;0,208333;0,208333;0,208333;0,208333;0,208333;0,000000;0,000000;0,000000;0,000000;0,000000;
106;;;;;;;;;;;;;;;;;;;;;;;;;;;;;;;;;;;;;;;;;;;;;;;;;;;;;;;;;;;;;;;;;;;;;;;;;;;;;;;;;;;;;;;;;;;;;;;;;;;;;;;;;;1,000000;0,000000;0,000000;0,000000;0,000000;0,375000;0,250000;0,250000;0,250000;0,250000;0,208333;0,208333;0,208333;0,208333;0,208333;0,208333;0,000000;0,000000;0,000000;0,000000;0,000000;
107;;;;;;;;;;;;;;;;;;;;;;;;;;;;;;;;;;;;;;;;;;;;;;;;;;;;;;;;;;;;;;;;;;;;;;;;;;;;;;;;;;;;;;;;;;;;;;;;;;;;;;;;;;;1,000000;0,750000;0,666667;0,666667;0,000000;0,000000;0,000000;0,000000;0,000000;0,000000;0,000000;0,000000;0,000000;0,000000;0,000000;0,750000;0,750000;0,900000;0,777778;0,833333;
108;;;;;;;;;;;;;;;;;;;;;;;;;;;;;;;;;;;;;;;;;;;;;;;;;;;;;;;;;;;;;;;;;;;;;;;;;;;;;;;;;;;;;;;;;;;;;;;;;;;;;;;;;;;;1,000000;0,416667;0,416667;0,000000;0,000000;0,000000;0,000000;0,000000;0,000000;0,000000;0,000000;0,000000;0,000000;0,000000;0,500000;0,500000;0,525000;0,888889;0,500000;
109;;;;;;;;;;;;;;;;;;;;;;;;;;;;;;;;;;;;;;;;;;;;;;;;;;;;;;;;;;;;;;;;;;;;;;;;;;;;;;;;;;;;;;;;;;;;;;;;;;;;;;;;;;;;;1,000000;0,333333;0,000000;0,000000;0,000000;0,000000;0,000000;0,000000;0,000000;0,000000;0,000000;0,000000;0,000000;0,416667;0,416667;0,400000;0,666667;0,388889;
110;;;;;;;;;;;;;;;;;;;;;;;;;;;;;;;;;;;;;;;;;;;;;;;;;;;;;;;;;;;;;;;;;;;;;;;;;;;;;;;;;;;;;;;;;;;;;;;;;;;;;;;;;;;;;;1,000000;0,000000;0,000000;0,000000;0,000000;0,000000;0,000000;0,000000;0,000000;0,000000;0,000000;0,000000;0,416667;0,416667;0,400000;0,333333;0,388889;
111;;;;;;;;;;;;;;;;;;;;;;;;;;;;;;;;;;;;;;;;;;;;;;;;;;;;;;;;;;;;;;;;;;;;;;;;;;;;;;;;;;;;;;;;;;;;;;;;;;;;;;;;;;;;;;;1,000000;0,375000;0,375000;0,375000;0,375000;0,333333;0,333333;0,333333;0,333333;0,333333;0,333333;0,000000;0,000000;0,000000;0,000000;0,000000;
112;;;;;;;;;;;;;;;;;;;;;;;;;;;;;;;;;;;;;;;;;;;;;;;;;;;;;;;;;;;;;;;;;;;;;;;;;;;;;;;;;;;;;;;;;;;;;;;;;;;;;;;;;;;;;;;;1,000000;0,750000;0,750000;0,750000;0,208333;0,208333;0,208333;0,208333;0,208333;0,208333;0,000000;0,000000;0,000000;0,000000;0,000000;
113;;;;;;;;;;;;;;;;;;;;;;;;;;;;;;;;;;;;;;;;;;;;;;;;;;;;;;;;;;;;;;;;;;;;;;;;;;;;;;;;;;;;;;;;;;;;;;;;;;;;;;;;;;;;;;;;;1,000000;0,750000;0,750000;0,208333;0,208333;0,208333;0,208333;0,208333;0,208333;0,000000;0,000000;0,000000;0,000000;0,000000;
114;;;;;;;;;;;;;;;;;;;;;;;;;;;;;;;;;;;;;;;;;;;;;;;;;;;;;;;;;;;;;;;;;;;;;;;;;;;;;;;;;;;;;;;;;;;;;;;;;;;;;;;;;;;;;;;;;;1,000000;0,750000;0,208333;0,208333;0,208333;0,208333;0,208333;0,208333;0,000000;0,000000;0,000000;0,000000;0,000000;
115;;;;;;;;;;;;;;;;;;;;;;;;;;;;;;;;;;;;;;;;;;;;;;;;;;;;;;;;;;;;;;;;;;;;;;;;;;;;;;;;;;;;;;;;;;;;;;;;;;;;;;;;;;;;;;;;;;;1,000000;0,208333;0,208333;0,208333;0,208333;0,208333;0,208333;0,000000;0,000000;0,000000;0,000000;0,000000;
116;;;;;;;;;;;;;;;;;;;;;;;;;;;;;;;;;;;;;;;;;;;;;;;;;;;;;;;;;;;;;;;;;;;;;;;;;;;;;;;;;;;;;;;;;;;;;;;;;;;;;;;;;;;;;;;;;;;;1,000000;0,833333;0,833333;0,833333;0,833333;0,833333;0,000000;0,000000;0,000000;0,000000;0,000000;
117;;;;;;;;;;;;;;;;;;;;;;;;;;;;;;;;;;;;;;;;;;;;;;;;;;;;;;;;;;;;;;;;;;;;;;;;;;;;;;;;;;;;;;;;;;;;;;;;;;;;;;;;;;;;;;;;;;;;;1,000000;0,833333;0,833333;0,833333;0,833333;0,000000;0,000000;0,000000;0,000000;0,000000;
118;;;;;;;;;;;;;;;;;;;;;;;;;;;;;;;;;;;;;;;;;;;;;;;;;;;;;;;;;;;;;;;;;;;;;;;;;;;;;;;;;;;;;;;;;;;;;;;;;;;;;;;;;;;;;;;;;;;;;;1,000000;0,833333;0,833333;0,833333;0,000000;0,000000;0,000000;0,000000;0,000000;
119;;;;;;;;;;;;;;;;;;;;;;;;;;;;;;;;;;;;;;;;;;;;;;;;;;;;;;;;;;;;;;;;;;;;;;;;;;;;;;;;;;;;;;;;;;;;;;;;;;;;;;;;;;;;;;;;;;;;;;;1,000000;0,833333;0,833333;0,000000;0,000000;0,000000;0,000000;0,000000;
120;;;;;;;;;;;;;;;;;;;;;;;;;;;;;;;;;;;;;;;;;;;;;;;;;;;;;;;;;;;;;;;;;;;;;;;;;;;;;;;;;;;;;;;;;;;;;;;;;;;;;;;;;;;;;;;;;;;;;;;;1,000000;0,833333;0,000000;0,000000;0,000000;0,000000;0,000000;
121;;;;;;;;;;;;;;;;;;;;;;;;;;;;;;;;;;;;;;;;;;;;;;;;;;;;;;;;;;;;;;;;;;;;;;;;;;;;;;;;;;;;;;;;;;;;;;;;;;;;;;;;;;;;;;;;;;;;;;;;;1,000000;0,000000;0,000000;0,000000;0,000000;0,000000;
122;;;;;;;;;;;;;;;;;;;;;;;;;;;;;;;;;;;;;;;;;;;;;;;;;;;;;;;;;;;;;;;;;;;;;;;;;;;;;;;;;;;;;;;;;;;;;;;;;;;;;;;;;;;;;;;;;;;;;;;;;;1,000000;0,500000;0,525000;0,444444;0,500000;
123;;;;;;;;;;;;;;;;;;;;;;;;;;;;;;;;;;;;;;;;;;;;;;;;;;;;;;;;;;;;;;;;;;;;;;;;;;;;;;;;;;;;;;;;;;;;;;;;;;;;;;;;;;;;;;;;;;;;;;;;;;;1,000000;0,525000;0,444444;0,500000;
124;;;;;;;;;;;;;;;;;;;;;;;;;;;;;;;;;;;;;;;;;;;;;;;;;;;;;;;;;;;;;;;;;;;;;;;;;;;;;;;;;;;;;;;;;;;;;;;;;;;;;;;;;;;;;;;;;;;;;;;;;;;;1,000000;0,440000;0,540000;
125;;;;;;;;;;;;;;;;;;;;;;;;;;;;;;;;;;;;;;;;;;;;;;;;;;;;;;;;;;;;;;;;;;;;;;;;;;;;;;;;;;;;;;;;;;;;;;;;;;;;;;;;;;;;;;;;;;;;;;;;;;;;;1,000000;0,416667;
126;;;;;;;;;;;;;;;;;;;;;;;;;;;;;;;;;;;;;;;;;;;;;;;;;;;;;;;;;;;;;;;;;;;;;;;;;;;;;;;;;;;;;;;;;;;;;;;;;;;;;;;;;;;;;;;;;;;;;;;;;;;;;;1,000000;
