;1; 2; 3; 4; 5; 6; 7; 8; 9; 10; 11; 12; 13; 14; 15; 16; 17; 18; 19; 20; 21; 22; 23; 24; 25; 26; 27; 28; 29; 30; 31; 32; 33; 34; 35; 36; 37; 38; 39; 40; 41; 42; 43; 44; 45; 46; 47; 48; 49; 50; 51; 52; 53; 54; 55; 56; 57; 58; 59
1;1,000000;0,502824;0,581393;0,664823;0,498123;0,498330;0,501440;0,746429;0,707217;0,692193;0,496338;0,497842;0,575318;0,638969;0,641275;0,671748;0,662821;0,614738;0,659559;0,661891;0,618319;0,000000;0,000000;0,655754;0,663066;0,540070;0,499050;0,501440;0,746188;0,746188;0,743135;0,568158;0,663766;0,662782;0,662782;0,498123;0,543596;0,498811;0,746048;0,689755;0,497220;0,567566;0,742696;0,742696;0,742696;0,623249;0,596259;0,663722;0,663722;0,499050;0,664801;0,664801;0,500000;0,000000;0,663814;0,663862;0,499050;0,663839;0,499440;
2;;1,000000;0,602883;0,680535;0,984337;0,770312;0,507584;0,524980;0,614335;0,652977;0,972154;0,770312;0,853344;0,402023;0,382969;0,616195;0,352028;0,453067;0,382820;0,368386;0,661674;0,000000;0,000000;0,692074;0,368386;0,907043;0,991646;0,507584;0,524980;0,524980;0,546837;0,490850;0,680535;0,352028;0,352028;0,984337;0,432000;0,507584;0,274250;0,652977;0,977887;0,870127;0,546837;0,546837;0,546837;0,550811;0,819897;0,680535;0,680535;0,991646;0,352028;0,352028;0,507584;0,974250;0,680535;0,680535;0,991646;0,352028;0,507584;
3;;;1,000000;0,662983;0,496998;0,496998;0,989514;0,744236;0,703421;0,687505;0,560160;0,496998;0,570378;0,421563;0,498338;0,544806;0,662417;0,674767;0,338722;0,336998;0,406791;0,000000;0,000000;0,728933;0,692189;0,536686;0,498468;0,989514;0,743848;0,743848;0,740067;0,648758;0,662417;0,662417;0,662417;0,496998;0,406791;0,498468;0,499152;0,686205;0,495585;0,565276;0,738298;0,738298;0,738298;0,462782;0,593196;0,661917;0,661917;0,498468;0,335203;0,335203;0,988489;0,988264;0,662065;0,662140;0,498468;0,661958;0,498468;
4;;;;1,000000;0,777778;0,696245;0,833333;0,583333;0,636825;0,651367;0,733333;0,696245;0,696509;0,334972;0,338889;0,644646;0,333333;0,338257;0,333333;0,333333;0,654859;0,000000;0,000000;0,661313;0,333333;0,708655;0,833333;0,833333;0,583333;0,583333;0,611111;0,357813;0,666667;0,333333;0,333333;0,777778;0,357567;0,416667;0,291667;0,651367;0,750000;0,717287;0,611111;0,611111;0,611111;0,624988;0,715134;0,666667;0,666667;0,833333;0,333333;0,333333;0,416667;0,666667;0,666667;0,666667;0,833333;0,333333;0,416667;
5;;;;;1,000000;0,877700;0,500000;0,666667;0,788570;0,842187;1,000000;0,877700;0,955920;0,447176;0,425000;0,893696;0,388889;0,471716;0,433333;0,416667;0,815621;0,000000;0,000000;0,879966;0,416667;0,976742;1,000000;0,500000;0,666667;0,666667;0,750000;0,485244;0,777778;0,388889;0,388889;1,000000;0,453017;0,500000;0,333333;0,842187;1,000000;0,947659;0,750000;0,750000;0,750000;0,819424;0,906035;0,777778;0,777778;1,000000;0,388889;0,388889;0,500000;0,833333;0,777778;0,777778;1,000000;0,388889;0,500000;
6;;;;;;1,000000;0,500000;0,585134;0,666271;0,695427;0,836934;0,755401;0,781206;0,447176;0,425000;0,698017;0,388889;0,471716;0,433333;0,416667;0,693322;0,000000;0,000000;0,716900;0,416667;0,802028;0,918467;0,500000;0,585134;0,585134;0,627700;0,485244;0,696245;0,388889;0,388889;0,877700;0,453017;0,500000;0,333333;0,695427;0,853241;0,800900;0,627700;0,627700;0,627700;0,656358;0,783735;0,696245;0,696245;0,918467;0,388889;0,388889;0,500000;0,833333;0,696245;0,696245;0,918467;0,388889;0,500000;
7;;;;;;;1,000000;0,375000;0,429523;0,450683;0,514286;0,500000;0,487143;0,468305;0,450000;0,478899;0,416667;0,484090;0,458333;0,444444;0,468678;0,000000;0,000000;0,503859;0,444444;0,493216;0,500000;1,000000;0,375000;0,375000;0,416667;0,491147;0,416667;0,416667;0,416667;0,500000;0,468678;0,500000;0,375000;0,450683;0,500000;0,483644;0,416667;0,416667;0,416667;0,473501;0,468678;0,416667;0,416667;0,500000;0,416667;0,416667;0,500000;0,750000;0,416667;0,416667;0,500000;0,416667;0,500000;
8;;;;;;;;1,000000;0,737709;0,737228;0,600000;0,585134;0,791667;0,268305;0,283333;0,496498;0,291667;0,265340;0,270833;0,277778;0,543748;0,000000;0,000000;0,527980;0,277778;0,569766;0,750000;0,375000;0,500000;0,500000;0,500000;0,291147;0,583333;0,291667;0,291667;0,666667;0,302012;0,375000;0,250000;0,526367;0,625000;0,592287;0,500000;0,500000;0,500000;0,491655;0,604023;0,583333;0,583333;0,750000;0,291667;0,291667;0,375000;0,625000;0,875000;0,583333;0,750000;0,291667;0,375000;
9;;;;;;;;;1,000000;0,707498;0,718094;0,666271;0,795091;0,306223;0,319285;0,555409;0,318412;0,307271;0,306475;0,310952;0,604192;0,000000;0,000000;0,598060;0,310952;0,674699;0,859047;0,429523;0,525714;0,525714;0,538570;0,344291;0,636825;0,318412;0,318412;0,788570;0,347303;0,429523;0,262857;0,588471;0,746284;0,693944;0,538570;0,538570;0,538570;0,537518;0,694605;0,636825;0,636825;0,859047;0,318412;0,318412;0,429523;0,762857;0,636825;0,636825;0,859047;0,318412;0,429523;
10;;;;;;;;;;1,000000;0,774552;0,695427;0,695561;0,319359;0,331093;0,568107;0,325683;0,323730;0,318033;0,321093;0,620932;0,000000;0,000000;0,620223;0,321093;0,722890;0,901367;0,450683;0,526367;0,526367;0,542187;0,368305;0,651367;0,325683;0,325683;0,842187;0,364714;0,450683;0,263183;0,605467;0,802733;0,737307;0,542187;0,542187;0,542187;0,542384;0,729428;0,651367;0,651367;0,901367;0,325683;0,325683;0,450683;0,825683;0,924728;0,651367;0,901367;0,325683;0,450683;
11;;;;;;;;;;;1,000000;0,836934;0,931431;0,456478;0,423810;0,822827;0,380952;0,499172;0,435374;0,412698;0,754162;0,000000;0,000000;0,819949;0,412698;0,963821;1,000000;0,514286;0,600000;0,600000;0,666667;0,513581;0,733333;0,380952;0,380952;1,000000;0,461166;0,514286;0,314286;0,774552;1,000000;0,925228;0,666667;0,666667;0,666667;0,729137;0,874713;0,733333;0,733333;1,000000;0,380952;0,380952;0,514286;0,914286;0,733333;0,733333;1,000000;0,380952;0,514286;
12;;;;;;;;;;;;1,000000;0,781206;0,447176;0,425000;0,902038;0,699775;0,471716;0,641246;0,416667;0,902576;0,000000;0,000000;0,716900;0,416667;0,802028;0,918467;0,500000;0,585134;0,585134;0,627700;0,732883;0,696245;0,388889;0,388889;0,877700;0,682579;0,500000;0,333333;0,695427;0,853241;0,800900;0,627700;0,627700;0,627700;0,912172;0,783735;0,696245;0,696245;0,918467;0,388889;0,388889;0,500000;0,833333;0,696245;0,696245;0,918467;0,699775;0,500000;
13;;;;;;;;;;;;;1,000000;0,377675;0,370817;0,700628;0,348254;0,401969;0,366906;0,358912;0,692522;0,000000;0,000000;0,731374;0,358912;0,882158;0,974286;0,487143;0,557620;0,557620;0,598777;0,441123;0,696509;0,348254;0,348254;0,955920;0,410842;0,487143;0,278810;0,695561;0,942145;0,860362;0,598777;0,598777;0,598777;0,630471;0,821684;0,696509;0,696509;0,974286;0,348254;0,348254;0,487143;0,903810;0,696509;0,696509;0,974286;0,348254;0,487143;
14;;;;;;;;;;;;;;1,000000;0,610678;0,537701;0,617031;0,549191;0,547105;0,618428;0,384532;0,000000;0,000000;0,584981;0,479792;0,393870;0,468305;0,468305;0,268305;0,268305;0,394718;0,398630;0,617031;0,617031;0,617031;0,447176;0,573720;0,468305;0,721811;0,468758;0,432083;0,394697;0,280509;0,280509;0,280509;0,354516;0,384532;0,334972;0,334972;0,468305;0,334972;0,334972;0,468305;0,868305;0,334972;0,334972;0,468305;0,334972;0,468305;
15;;;;;;;;;;;;;;;1,000000;0,754096;0,611111;0,484110;0,646163;0,683333;0,378017;0,000000;0,000000;0,583824;0,505221;0,381228;0,450000;0,450000;0,283333;0,283333;0,441416;0,385244;0,611111;0,611111;0,611111;0,425000;0,378017;0,450000;0,781874;0,502584;0,410000;0,383830;0,300000;0,300000;0,300000;0,355835;0,378017;0,338889;0,338889;0,450000;0,338889;0,338889;0,450000;0,783333;0,338889;0,338889;0,450000;0,338889;0,450000;
16;;;;;;;;;;;;;;;;1,000000;0,632066;0,395064;0,591685;0,602943;0,746159;0,000000;0,000000;0,672488;0,488983;0,745475;0,940942;0,478899;0,723015;0,723015;0,614543;0,562865;0,644646;0,632144;0,632144;0,893696;0,550386;0,478899;0,710279;0,646609;0,855040;0,759875;0,493696;0,493696;0,493696;0,746030;0,743352;0,644646;0,644646;0,940942;0,632130;0,632130;0,478899;0,923343;0,644646;0,644646;0,940942;0,632066;0,478899;
17;;;;;;;;;;;;;;;;;1,000000;0,636895;0,613532;0,333333;0,644167;0,000000;0,000000;0,683628;0,614592;0,354327;0,416667;0,416667;0,291667;0,291667;0,572055;0,666667;0,666667;0,666667;0,666667;0,388889;0,644167;0,416667;0,583333;0,626615;0,375000;0,358644;0,305556;0,305556;0,305556;0,664731;0,357567;0,333333;0,333333;0,416667;0,333333;0,333333;0,416667;0,666667;0,333333;0,333333;0,416667;0,666667;0,416667;
18;;;;;;;;;;;;;;;;;;1,000000;0,447380;0,613862;0,561932;0,000000;0,000000;0,634027;0,492233;0,423225;0,484090;0,484090;0,265340;0,265340;0,392980;0,623075;0,636895;0,636895;0,636895;0,471716;0,561703;0,928645;0,491062;0,602801;0,461817;0,416019;0,277272;0,277272;0,277272;0,527427;0,398632;0,338257;0,338257;0,484090;0,338257;0,338257;0,484090;0,921590;0,338257;0,338257;0,484090;0,636979;0,935343;
19;;;;;;;;;;;;;;;;;;;1,000000;0,626163;0,541151;0,000000;0,000000;0,413031;0,333333;0,380570;0,458333;0,458333;0,270833;0,270833;0,283333;0,545216;0,333333;0,333333;0,333333;0,433333;0,541151;0,863797;0,516352;0,318033;0,416667;0,383954;0,283333;0,283333;0,283333;0,541069;0,376954;0,333333;0,333333;0,458333;0,333333;0,333333;0,458333;0,833333;0,333333;0,333333;0,458333;0,613532;0,458333;
20;;;;;;;;;;;;;;;;;;;;1,000000;0,369684;0,000000;0,000000;0,395321;0,333333;0,369323;0,444444;0,444444;0,277778;0,277778;0,291667;0,374133;0,333333;0,333333;0,333333;0,416667;0,633135;0,444444;0,555556;0,321093;0,400000;0,373830;0,291667;0,291667;0,291667;0,344724;0,369684;0,333333;0,333333;0,444444;0,333333;0,333333;0,444444;0,777778;0,333333;0,333333;0,444444;0,333333;0,444444;
21;;;;;;;;;;;;;;;;;;;;;1,000000;0,000000;0,000000;0,634128;0,369684;0,713344;0,877081;0,468678;0,543748;0,543748;0,565621;0,621667;0,654859;0,357567;0,357567;0,815621;0,599167;0,468678;0,302012;0,620932;0,778746;0,726405;0,565621;0,565621;0,565621;0,782273;0,721656;0,654859;0,654859;0,877081;0,357567;0,357567;0,468678;0,802012;0,654859;0,654859;0,877081;0,644167;0,468678;
22;;;;;;;;;;;;;;;;;;;;;;1,000000;0,000000;0,000000;0,000000;0,000000;0,000000;0,000000;0,000000;0,000000;0,000000;0,000000;0,000000;0,000000;0,000000;0,000000;0,000000;0,000000;0,000000;0,000000;0,000000;0,000000;0,000000;0,000000;0,000000;0,000000;0,000000;0,000000;0,000000;0,000000;0,000000;0,000000;0,000000;0,000000;0,000000;0,000000;0,000000;0,000000;0,000000;
23;;;;;;;;;;;;;;;;;;;;;;;1,000000;0,000000;0,000000;0,000000;0,000000;0,000000;0,000000;0,000000;0,000000;0,000000;0,000000;0,000000;0,000000;0,000000;0,000000;0,000000;0,000000;0,000000;0,000000;0,000000;0,000000;0,000000;0,000000;0,000000;0,000000;0,000000;0,000000;0,000000;0,000000;0,000000;0,000000;0,000000;0,000000;0,000000;0,000000;0,000000;0,000000;
24;;;;;;;;;;;;;;;;;;;;;;;;1,000000;0,590786;0,763764;0,927980;0,503859;0,527980;0,527980;0,711520;0,487514;0,975069;0,683628;0,683628;0,879966;0,443788;0,503859;0,550294;0,835641;0,845670;0,770898;0,546633;0,546633;0,546633;0,549086;0,754679;0,661313;0,661313;0,927980;0,661511;0,661511;0,503859;0,903859;0,661313;0,661313;0,927980;0,370526;0,503859;
25;;;;;;;;;;;;;;;;;;;;;;;;;1,000000;0,369323;0,444444;0,444444;0,277778;0,277778;0,446638;0,374133;0,614592;0,614592;0,614592;0,416667;0,369684;0,444444;0,503481;0,508850;0,400000;0,373830;0,291667;0,291667;0,291667;0,344724;0,369684;0,333333;0,333333;0,444444;0,615124;0,615124;0,444444;0,777778;0,333333;0,333333;0,444444;0,333333;0,444444;
26;;;;;;;;;;;;;;;;;;;;;;;;;;1,000000;0,986433;0,493216;0,569766;0,569766;0,619599;0,457318;0,708655;0,354327;0,354327;0,976742;0,421253;0,493216;0,284883;0,722890;0,969474;0,887691;0,619599;0,619599;0,619599;0,662861;0,842506;0,708655;0,708655;0,986433;0,354327;0,354327;0,493216;0,909883;0,708655;0,708655;0,986433;0,354327;0,493216;
27;;;;;;;;;;;;;;;;;;;;;;;;;;;1,000000;0,500000;0,750000;0,750000;0,833333;0,491147;0,833333;0,416667;0,416667;1,000000;0,468678;0,500000;0,375000;0,901367;1,000000;0,967287;0,833333;0,833333;0,833333;0,891655;0,937357;0,833333;0,833333;1,000000;0,416667;0,416667;0,500000;0,750000;0,833333;0,833333;1,000000;0,416667;0,500000;
28;;;;;;;;;;;;;;;;;;;;;;;;;;;;1,000000;0,375000;0,375000;0,416667;0,491147;0,416667;0,416667;0,416667;0,500000;0,468678;0,500000;0,375000;0,450683;0,500000;0,483644;0,416667;0,416667;0,416667;0,473501;0,468678;0,416667;0,416667;0,500000;0,416667;0,416667;0,500000;0,750000;0,416667;0,416667;0,500000;0,416667;0,500000;
29;;;;;;;;;;;;;;;;;;;;;;;;;;;;;1,000000;0,750000;0,710119;0,291147;0,583333;0,291667;0,291667;0,666667;0,302012;0,375000;0,250000;0,737228;0,625000;0,592287;0,500000;0,500000;0,500000;0,491655;0,604023;0,583333;0,583333;0,750000;0,291667;0,291667;0,375000;0,625000;0,583333;0,583333;0,750000;0,291667;0,375000;
30;;;;;;;;;;;;;;;;;;;;;;;;;;;;;;1,000000;0,710119;0,291147;0,583333;0,291667;0,291667;0,666667;0,302012;0,375000;0,250000;0,737228;0,625000;0,592287;0,500000;0,500000;0,500000;0,491655;0,604023;0,583333;0,583333;0,750000;0,291667;0,291667;0,375000;0,625000;0,583333;0,583333;0,750000;0,291667;0,375000;
31;;;;;;;;;;;;;;;;;;;;;;;;;;;;;;;1,000000;0,318578;0,876536;0,572055;0,572055;0,750000;0,328017;0,416667;0,460944;0,700111;0,700000;0,647659;0,500000;0,500000;0,500000;0,606680;0,656035;0,611111;0,611111;0,833333;0,305556;0,305556;0,416667;0,750000;0,611111;0,611111;0,833333;0,305556;0,416667;
32;;;;;;;;;;;;;;;;;;;;;;;;;;;;;;;;1,000000;0,357813;0,357813;0,357813;0,485244;0,621667;0,491147;0,291147;0,525490;0,481029;0,443642;0,318578;0,318578;0,318578;0,661829;0,422601;0,357813;0,357813;0,491147;0,357813;0,357813;0,491147;0,891147;0,357813;0,357813;0,491147;0,666667;0,491147;
33;;;;;;;;;;;;;;;;;;;;;;;;;;;;;;;;;1,000000;0,666667;0,666667;0,777778;0,357567;0,416667;0,583333;0,951466;0,750000;0,717287;0,611111;0,611111;0,611111;0,624988;0,715134;0,666667;0,666667;0,833333;0,333333;0,333333;0,416667;0,666667;0,666667;0,666667;0,833333;0,333333;0,416667;
34;;;;;;;;;;;;;;;;;;;;;;;;;;;;;;;;;;1,000000;0,666667;0,388889;0,357567;0,416667;0,583333;0,626615;0,375000;0,358644;0,305556;0,305556;0,305556;0,340168;0,357567;0,333333;0,333333;0,416667;0,333333;0,333333;0,416667;0,666667;0,333333;0,333333;0,416667;0,333333;0,416667;
35;;;;;;;;;;;;;;;;;;;;;;;;;;;;;;;;;;;1,000000;0,388889;0,357567;0,416667;0,583333;0,626615;0,375000;0,358644;0,305556;0,305556;0,305556;0,340168;0,357567;0,333333;0,333333;0,416667;0,333333;0,333333;0,416667;0,666667;0,333333;0,333333;0,416667;0,333333;0,416667;
36;;;;;;;;;;;;;;;;;;;;;;;;;;;;;;;;;;;;1,000000;0,453017;0,500000;0,333333;0,842187;1,000000;0,947659;0,750000;0,750000;0,750000;0,819424;0,906035;0,777778;0,777778;1,000000;0,388889;0,388889;0,500000;0,833333;0,777778;0,777778;1,000000;0,388889;0,500000;
37;;;;;;;;;;;;;;;;;;;;;;;;;;;;;;;;;;;;;1,000000;0,468678;0,302012;0,364714;0,443621;0,417450;0,328017;0,328017;0,328017;0,618441;0,406035;0,357567;0,357567;0,468678;0,357567;0,357567;0,468678;0,802012;0,357567;0,357567;0,468678;0,644167;0,468678;
38;;;;;;;;;;;;;;;;;;;;;;;;;;;;;;;;;;;;;;1,000000;0,375000;0,450683;0,500000;0,483644;0,416667;0,416667;0,416667;0,473501;0,468678;0,416667;0,416667;0,500000;0,416667;0,416667;0,500000;0,750000;0,416667;0,416667;0,500000;0,416667;0,500000;
39;;;;;;;;;;;;;;;;;;;;;;;;;;;;;;;;;;;;;;;1,000000;0,501615;0,312500;0,296144;0,250000;0,250000;0,250000;0,273501;0,302012;0,291667;0,291667;0,375000;0,291667;0,291667;0,375000;0,625000;0,291667;0,291667;0,375000;0,291667;0,375000;
40;;;;;;;;;;;;;;;;;;;;;;;;;;;;;;;;;;;;;;;;1,000000;0,802733;0,737307;0,542187;0,542187;0,542187;0,542384;0,729428;0,651367;0,651367;0,901367;0,325683;0,325683;0,450683;0,825683;0,651367;0,651367;0,901367;0,325683;0,450683;
41;;;;;;;;;;;;;;;;;;;;;;;;;;;;;;;;;;;;;;;;;1,000000;0,934574;0,700000;0,700000;0,700000;0,767831;0,887242;0,750000;0,750000;1,000000;0,375000;0,375000;0,500000;0,875000;0,750000;0,750000;1,000000;0,375000;0,500000;
42;;;;;;;;;;;;;;;;;;;;;;;;;;;;;;;;;;;;;;;;;;1,000000;0,647659;0,647659;0,647659;0,693059;0,834901;0,717287;0,717287;0,967287;0,358644;0,358644;0,483644;0,858644;0,717287;0,717287;0,967287;0,358644;0,483644;
43;;;;;;;;;;;;;;;;;;;;;;;;;;;;;;;;;;;;;;;;;;;1,000000;0,750000;0,750000;0,486091;0,656035;0,611111;0,611111;0,833333;0,305556;0,305556;0,416667;0,750000;0,611111;0,611111;0,833333;0,305556;0,416667;
44;;;;;;;;;;;;;;;;;;;;;;;;;;;;;;;;;;;;;;;;;;;;1,000000;0,750000;0,486091;0,656035;0,611111;0,611111;0,833333;0,305556;0,305556;0,416667;0,750000;0,611111;0,611111;0,833333;0,305556;0,416667;
45;;;;;;;;;;;;;;;;;;;;;;;;;;;;;;;;;;;;;;;;;;;;;1,000000;0,486091;0,656035;0,611111;0,611111;0,833333;0,305556;0,305556;0,416667;0,750000;0,611111;0,611111;0,833333;0,305556;0,416667;
46;;;;;;;;;;;;;;;;;;;;;;;;;;;;;;;;;;;;;;;;;;;;;;1,000000;0,694137;0,624988;0,624988;0,891655;0,340168;0,340168;0,473501;0,873501;0,624988;0,624988;0,891655;0,664731;0,910592;
47;;;;;;;;;;;;;;;;;;;;;;;;;;;;;;;;;;;;;;;;;;;;;;;1,000000;0,715134;0,715134;0,937357;0,357567;0,357567;0,468678;0,802012;0,715134;0,715134;0,937357;0,357567;0,468678;
48;;;;;;;;;;;;;;;;;;;;;;;;;;;;;;;;;;;;;;;;;;;;;;;;1,000000;0,666667;0,833333;0,333333;0,333333;0,416667;0,666667;0,666667;0,666667;0,833333;0,333333;0,416667;
49;;;;;;;;;;;;;;;;;;;;;;;;;;;;;;;;;;;;;;;;;;;;;;;;;1,000000;0,833333;0,333333;0,333333;0,416667;0,666667;0,666667;0,666667;0,833333;0,333333;0,416667;
50;;;;;;;;;;;;;;;;;;;;;;;;;;;;;;;;;;;;;;;;;;;;;;;;;;1,000000;0,416667;0,416667;0,500000;0,750000;0,833333;0,833333;1,000000;0,416667;0,500000;
51;;;;;;;;;;;;;;;;;;;;;;;;;;;;;;;;;;;;;;;;;;;;;;;;;;;1,000000;0,666667;0,416667;0,666667;0,333333;0,333333;0,416667;0,333333;0,416667;
52;;;;;;;;;;;;;;;;;;;;;;;;;;;;;;;;;;;;;;;;;;;;;;;;;;;;1,000000;0,416667;0,666667;0,333333;0,333333;0,416667;0,333333;0,416667;
53;;;;;;;;;;;;;;;;;;;;;;;;;;;;;;;;;;;;;;;;;;;;;;;;;;;;;1,000000;0,750000;0,416667;0,416667;0,500000;0,416667;0,500000;
54;;;;;;;;;;;;;;;;;;;;;;;;;;;;;;;;;;;;;;;;;;;;;;;;;;;;;;1,000000;0,666667;0,666667;0,750000;0,666667;0,750000;
55;;;;;;;;;;;;;;;;;;;;;;;;;;;;;;;;;;;;;;;;;;;;;;;;;;;;;;;1,000000;0,666667;0,833333;0,333333;0,416667;
56;;;;;;;;;;;;;;;;;;;;;;;;;;;;;;;;;;;;;;;;;;;;;;;;;;;;;;;;1,000000;0,833333;0,333333;0,416667;
57;;;;;;;;;;;;;;;;;;;;;;;;;;;;;;;;;;;;;;;;;;;;;;;;;;;;;;;;;1,000000;0,416667;0,500000;
58;;;;;;;;;;;;;;;;;;;;;;;;;;;;;;;;;;;;;;;;;;;;;;;;;;;;;;;;;;1,000000;0,416667;
59;;;;;;;;;;;;;;;;;;;;;;;;;;;;;;;;;;;;;;;;;;;;;;;;;;;;;;;;;;;1,000000;
