;1; 2; 3; 4; 5; 6; 7; 8; 9; 10; 11; 12; 13; 14; 15; 16; 17; 18; 19; 20; 21; 22; 23; 24; 25; 26; 27; 28; 29; 30; 31; 32; 33; 34; 35; 36; 37; 38; 39; 40; 41; 42; 43; 44; 45; 46; 47; 48; 49; 50; 51; 52; 53; 54; 55; 56; 57; 58; 59; 60; 61; 62; 63; 64; 65
1;1,000000;0,619895;0,563334;0,632217;0,638749;0,676394;0,611864;0,497428;0,641776;0,831117;0,831117;0,831117;0,831117;0,809891;0,831117;0,661345;0,703726;0,745780;0,707300;0,659825;0,683755;0,696425;0,675612;0,746495;0,690177;0,663790;0,626005;0,699855;0,664463;0,661110;0,743408;0,497428;0,494965;0,745783;0,664004;0,687722;0,498700;0,770232;0,739444;0,739444;0,498700;0,742596;0,723550;0,664056;0,746242;0,746242;0,612194;0,494965;0,746992;0,720241;0,690646;0,745392;0,745392;0,746054;0,746054;0,746054;0,594933;0,841372;0,498700;0,497428;0,715308;0,498700;0,664228;0,664228;0,498700;
2;;1,000000;0,563665;0,632887;0,633098;0,516640;0,612088;0,497483;0,643127;0,168979;0,168979;0,168979;0,168979;0,330971;0,168979;0,744656;0,704353;0,498836;0,521634;0,497783;0,673038;0,696556;0,682766;0,746600;0,691010;0,663852;0,626495;0,715244;0,993713;0,661556;0,743548;0,500000;0,500000;0,498847;0,664084;0,688118;0,498728;0,770534;0,739590;0,739590;0,498728;0,742873;0,637944;0,664112;0,746323;0,746323;0,500000;0,502845;0,747143;0,720676;0,683625;0,498915;0,498915;0,746139;0,746139;0,746139;0,595077;0,500000;0,500000;0,500000;0,707867;0,498728;0,664352;0,664352;0,500000;
3;;;1,000000;0,752453;0,739750;0,578614;0,787734;0,986377;0,716918;0,178972;0,178972;0,178972;0,178972;0,224672;0,178972;0,989652;0,710276;0,258337;0,557376;0,265916;0,313976;0,645027;0,633308;0,516674;0,791859;0,675404;0,769698;0,511583;0,337702;0,531671;0,762379;0,493188;0,487512;0,258337;0,675404;0,654367;0,992864;0,692616;0,651482;0,651482;0,992864;0,531832;0,599690;0,997526;0,516674;0,516674;0,585015;0,487512;0,516674;0,762335;0,678330;0,258337;0,258337;0,516674;0,516674;0,516674;0,815531;0,493188;0,496432;0,493188;0,479678;0,992864;0,675404;0,675404;0,496432;
4;;;;1,000000;0,745456;0,798052;0,737746;0,930786;0,695829;0,194510;0,194510;0,194510;0,194510;0,243867;0,194510;0,750629;0,662753;0,265939;0,806263;0,277893;0,491449;0,653318;0,645701;0,531878;0,652683;0,674735;0,887061;0,548247;0,337368;0,555653;0,555786;0,465393;0,444629;0,265939;0,674735;0,657715;0,960449;0,516377;0,568310;0,568310;0,960449;0,555786;0,589439;0,674735;0,531878;0,531878;0,505260;0,444629;0,778329;0,607838;0,798503;0,265939;0,265939;0,531878;0,531878;0,531878;0,789838;0,465393;0,480225;0,465393;0,666540;0,960449;0,992615;0,992615;0,480225;
5;;;;;1,000000;0,678346;0,720690;0,961270;0,686044;0,177198;0,177198;0,177198;0,177198;0,460332;0,177198;0,747751;0,638777;0,731479;0,614428;0,600621;0,509478;0,602021;0,590941;0,508908;0,663331;0,665771;0,733173;0,490899;0,334061;0,669178;0,516826;0,483873;0,470971;0,731720;0,665771;0,629174;0,979496;0,470118;0,531669;0,531669;0,979496;0,516826;0,625249;0,665771;0,745553;0,745553;0,560680;0,470971;0,749285;0,566171;0,697026;0,493475;0,493475;0,508908;0,508908;0,508908;0,794221;0,482101;0,491462;0,483873;0,717614;0,979496;0,665771;0,665771;0,491462;
6;;;;;;1,000000;0,596719;0,841436;0,678020;0,350432;0,350432;0,350432;0,350432;0,505355;0,350432;0,681296;0,539033;0,501066;0,825893;0,501777;0,595094;0,547981;0,541887;0,504861;0,555266;0,638195;0,772059;0,488016;0,334972;0,669650;0,508102;0,468678;0,453017;0,717581;0,638195;0,581846;0,904861;0,473072;0,519234;0,519234;0,904861;0,508102;0,610332;0,638195;0,504861;0,504861;0,503353;0,453017;0,739577;0,539094;0,810544;0,501066;0,501066;0,504861;0,504861;0,504861;0,716149;0,441016;0,481207;0,468678;0,759738;0,904861;0,939577;0,939577;0,481207;
7;;;;;;;1,000000;0,956300;0,707853;0,187982;0,187982;0,187982;0,187982;0,236485;0,187982;0,759764;0,800224;0,262982;0,575007;0,273604;0,320912;0,653954;0,644813;0,525965;0,653138;0,675965;0,755467;0,535511;0,337982;0,547064;0,547209;0,478150;0,463023;0,262982;0,675965;0,658662;0,975965;0,504216;0,560871;0,560871;0,975965;0,547209;0,578599;0,675965;0,525965;0,525965;0,537437;0,463023;0,525965;0,720274;0,614689;0,262982;0,262982;0,525965;0,525965;0,525965;0,802538;0,478150;0,487982;0,478150;0,500271;0,975965;0,675965;0,675965;0,487982;
8;;;;;;;;1,000000;0,941717;0,277778;0,277778;0,277778;0,277778;0,352316;0,277778;0,879895;0,922212;0,333333;0,805384;0,375000;0,450020;0,895873;0,892064;0,666667;0,883990;0,777778;0,917869;0,784319;0,388889;0,749911;0,750000;0,500000;0,500000;0,333333;0,777778;0,850000;1,000000;0,723727;0,758349;0,758349;1,000000;0,750000;0,850862;0,777778;0,666667;0,666667;0,535714;0,500000;0,666667;0,820074;0,850087;0,333333;0,333333;0,666667;0,666667;0,666667;0,906035;0,500000;0,500000;0,500000;0,721316;1,000000;0,777778;0,777778;0,500000;
9;;;;;;;;;1,000000;0,182618;0,182618;0,182618;0,182618;0,337540;0,182618;0,741542;0,609178;0,489089;0,619696;0,479996;0,367625;0,708686;0,817913;0,985667;0,612744;0,665179;0,724093;0,823030;0,945514;0,669561;0,525050;0,473855;0,455181;0,489089;0,665179;0,630839;0,968209;0,481262;0,538966;0,538966;0,968209;0,525050;0,580494;0,665179;0,513664;0,513664;0,531044;0,455181;0,513664;0,573288;0,635248;0,489089;0,489089;0,513664;0,513664;0,513664;0,945946;0,473557;0,485739;0,473855;0,590532;0,968209;0,665179;0,665179;0,485739;
10;;;;;;;;;;1,000000;0,833333;0,833333;0,833333;0,761607;0,833333;0,284210;0,178608;0,208333;0,200683;0,194444;0,332086;0,184535;0,187281;0,208333;0,188386;0,250000;0,208694;0,195294;0,250000;0,222222;0,194444;0,000000;0,000000;0,416667;0,250000;0,203125;0,333333;0,185687;0,197227;0,197227;0,333333;0,194444;0,183017;0,250000;0,208333;0,208333;0,000000;0,000000;0,208333;0,193773;0,195351;0,208333;0,208333;0,208333;0,208333;0,208333;0,246456;0,000000;0,000000;0,000000;0,207301;0,333333;0,250000;0,250000;0,000000;
11;;;;;;;;;;;1,000000;0,833333;0,833333;0,761607;0,833333;0,284210;0,178608;0,208333;0,200683;0,194444;0,332086;0,184535;0,187281;0,208333;0,188386;0,250000;0,208694;0,195294;0,250000;0,222222;0,194444;0,000000;0,000000;0,416667;0,250000;0,203125;0,333333;0,185687;0,197227;0,197227;0,333333;0,194444;0,183017;0,250000;0,208333;0,208333;0,000000;0,000000;0,208333;0,193773;0,195351;0,208333;0,208333;0,208333;0,208333;0,208333;0,246456;0,000000;0,000000;0,000000;0,207301;0,333333;0,250000;0,250000;0,000000;
12;;;;;;;;;;;;1,000000;0,833333;0,761607;0,833333;0,284210;0,178608;0,208333;0,200683;0,194444;0,332086;0,184535;0,187281;0,208333;0,188386;0,250000;0,208694;0,195294;0,250000;0,222222;0,194444;0,000000;0,000000;0,416667;0,250000;0,203125;0,333333;0,185687;0,197227;0,197227;0,333333;0,194444;0,183017;0,250000;0,208333;0,208333;0,000000;0,000000;0,208333;0,193773;0,195351;0,208333;0,208333;0,208333;0,208333;0,208333;0,246456;0,000000;0,000000;0,000000;0,207301;0,333333;0,250000;0,250000;0,000000;
13;;;;;;;;;;;;;1,000000;0,761607;0,833333;0,284210;0,178608;0,208333;0,200683;0,194444;0,332086;0,184535;0,187281;0,208333;0,188386;0,250000;0,208694;0,195294;0,250000;0,222222;0,194444;0,000000;0,000000;0,416667;0,250000;0,203125;0,333333;0,185687;0,197227;0,197227;0,333333;0,194444;0,183017;0,250000;0,208333;0,208333;0,000000;0,000000;0,208333;0,193773;0,195351;0,208333;0,208333;0,208333;0,208333;0,208333;0,246456;0,000000;0,000000;0,000000;0,207301;0,333333;0,250000;0,250000;0,000000;
14;;;;;;;;;;;;;;1,000000;0,761607;0,361964;0,219441;0,443018;0,357240;0,414526;0,457682;0,226410;0,231216;0,234877;0,231018;0,290433;0,262023;0,235249;0,290433;0,419801;0,227316;0,000000;0,000000;0,654323;0,290433;0,247779;0,401544;0,214179;0,231491;0,231491;0,401544;0,227316;0,326799;0,290433;0,234877;0,234877;0,000000;0,000000;0,234877;0,232816;0,347432;0,443018;0,443018;0,234877;0,234877;0,234877;0,305333;0,375000;0,000000;0,000000;0,378567;0,401544;0,290433;0,290433;0,000000;
15;;;;;;;;;;;;;;;1,000000;0,284210;0,178608;0,208333;0,200683;0,194444;0,332086;0,184535;0,187281;0,208333;0,188386;0,250000;0,208694;0,195294;0,250000;0,222222;0,194444;0,000000;0,000000;0,416667;0,250000;0,203125;0,333333;0,185687;0,197227;0,197227;0,333333;0,194444;0,183017;0,250000;0,208333;0,208333;0,000000;0,000000;0,208333;0,193773;0,195351;0,208333;0,208333;0,208333;0,208333;0,208333;0,246456;0,000000;0,000000;0,000000;0,207301;0,333333;0,250000;0,250000;0,000000;
16;;;;;;;;;;;;;;;;1,000000;0,725677;0,339765;0,661258;0,384648;0,465028;0,715716;0,711907;0,586597;0,933795;0,697708;0,757730;0,640194;0,395321;0,629807;0,875000;0,416667;0,388889;0,339765;0,697708;0,705874;0,919930;0,777158;0,814007;0,814007;0,919930;0,629895;0,679283;0,697708;0,586597;0,586597;0,416667;0,388889;0,586597;0,897504;0,878921;0,339765;0,339765;0,586597;0,586597;0,586597;0,785930;0,416667;0,444444;0,416667;0,601211;0,919930;0,697708;0,697708;0,444444;
17;;;;;;;;;;;;;;;;;1,000000;0,253608;0,528137;0,256560;0,324075;0,578961;0,569820;0,507217;0,679356;0,966985;0,697780;0,488640;0,328608;0,512976;0,735428;0,461106;0,434179;0,253608;0,657217;0,611791;0,957217;0,761889;0,837986;0,837986;0,957217;0,513121;0,671428;0,657217;0,507217;0,507217;0,503958;0,434179;0,507217;0,710669;0,557002;0,253608;0,253608;0,507217;0,507217;0,507217;0,768451;0,461106;0,478608;0,461106;0,720580;0,957217;0,657217;0,657217;0,478608;
18;;;;;;;;;;;;;;;;;;1,000000;0,689411;0,707102;0,708064;0,255964;0,258709;0,250000;0,257830;0,291667;0,275361;0,257794;0,291667;0,503516;0,250000;0,000000;0,000000;0,500000;0,291667;0,265625;0,375000;0,241242;0,252783;0,252783;0,375000;0,250000;0,470194;0,291667;0,250000;0,250000;0,000000;0,000000;0,250000;0,256273;0,476838;0,500000;0,500000;0,250000;0,250000;0,250000;0,302012;0,666667;0,000000;0,000000;0,476027;0,375000;0,291667;0,291667;0,000000;
19;;;;;;;;;;;;;;;;;;;1,000000;0,576120;0,633929;0,536804;0,531726;0,503365;0,543650;0,628365;0,782809;0,487130;0,325683;0,640158;0,505384;0,433333;0,404762;0,474880;0,628365;0,569230;0,878365;0,473857;0,515403;0,515403;0,878365;0,505384;0,573520;0,628365;0,503365;0,503365;0,442708;0,404762;0,746310;0,531822;0,793161;0,474880;0,474880;0,503365;0,503365;0,503365;0,692626;0,683026;0,458333;0,433333;0,752650;0,878365;0,933810;0,933810;0,458333;
20;;;;;;;;;;;;;;;;;;;;1,000000;0,546066;0,260436;0,265242;0,250000;0,263424;0,305556;0,292268;0,262470;0,305556;0,505275;0,250000;0,000000;0,000000;0,500000;0,305556;0,275000;0,416667;0,236863;0,254175;0,254175;0,416667;0,250000;0,448904;0,305556;0,250000;0,250000;0,000000;0,000000;0,250000;0,260037;0,461397;0,500000;0,500000;0,250000;0,250000;0,250000;0,328017;0,425000;0,500000;0,000000;0,464040;0,416667;0,305556;0,305556;0,000000;
21;;;;;;;;;;;;;;;;;;;;;1,000000;0,446279;0,343454;0,253136;0,349373;0,326053;0,437635;0,352454;0,326053;0,592232;0,255576;0,000000;0,000000;0,710192;0,624797;0,446933;0,471886;0,345739;0,262070;0,262070;0,471886;0,460691;0,437845;0,326053;0,253136;0,253136;0,000000;0,000000;0,484547;0,355152;0,565991;0,703574;0,703574;0,253136;0,253136;0,253136;0,376936;0,466667;0,500000;0,000000;0,543694;0,471886;0,630380;0,630380;0,000000;
22;;;;;;;;;;;;;;;;;;;;;;1,000000;0,858346;0,738351;0,589204;0,654784;0,685562;0,849418;0,918087;0,830311;0,520873;0,447936;0,416698;0,255964;0,976328;0,611164;0,940499;0,481463;0,533396;0,533396;0,940499;0,520873;0,525960;0,654784;0,511927;0,511927;0,473521;0,416698;0,511927;0,561286;0,563554;0,255964;0,255964;0,511927;0,511927;0,511927;0,917115;0,447936;0,470249;0,447936;0,477846;0,940499;0,654784;0,654784;0,470249;
23;;;;;;;;;;;;;;;;;;;;;;;1,000000;0,736663;0,582279;0,652608;0,679468;0,730460;0,638119;0,774094;0,517064;0,451670;0,422672;0,258709;0,944204;0,606085;0,938322;0,477654;0,529588;0,529588;0,938322;0,517064;0,519035;0,652608;0,509751;0,509751;0,480310;0,422672;0,509751;0,556208;0,557460;0,258709;0,258709;0,509751;0,509751;0,509751;0,751116;0,451670;0,472383;0,451670;0,474037;0,938322;0,652608;0,652608;0,472383;
24;;;;;;;;;;;;;;;;;;;;;;;;1,000000;0,515661;0,583333;0,550722;0,954310;0,583333;0,499941;0,500000;0,333333;0,300000;0,250000;0,583333;0,531250;0,750000;0,482485;0,505566;0,505566;0,750000;0,500000;0,496336;0,583333;0,500000;0,500000;0,312500;0,300000;0,500000;0,512546;0,510052;0,250000;0,250000;0,500000;0,500000;0,500000;0,833333;0,333333;0,375000;0,333333;0,480877;0,750000;0,583333;0,583333;0,375000;
25;;;;;;;;;;;;;;;;;;;;;;;;;1,000000;0,654550;0,682656;0,510736;0,327275;0,526721;0,755224;0,441995;0,409770;0,257830;0,654550;0,613362;0,932328;0,615449;0,668090;0,668090;0,932328;0,526847;0,535991;0,654550;0,515661;0,515661;0,460991;0,409770;0,515661;0,752956;0,756601;0,257830;0,257830;0,515661;0,515661;0,515661;0,749754;0,441995;0,466164;0,441995;0,485869;0,932328;0,654550;0,654550;0,466164;
26;;;;;;;;;;;;;;;;;;;;;;;;;;1,000000;0,684055;0,615200;0,333333;0,611052;0,916667;0,388889;0,366667;0,291667;0,666667;0,656250;0,833333;0,593596;0,616677;0,616677;0,833333;0,611111;0,635225;0,666667;0,583333;0,583333;0,381944;0,366667;0,583333;0,637546;0,643386;0,291667;0,291667;0,583333;0,583333;0,583333;0,715134;0,388889;0,416667;0,388889;0,870281;0,833333;0,666667;0,666667;0,416667;
27;;;;;;;;;;;;;;;;;;;;;;;;;;;1,000000;0,586288;0,342028;0,584418;0,584536;0,458935;0,438402;0,275361;0,684055;0,680118;0,950722;0,549505;0,595668;0,595668;0,950722;0,584536;0,631123;0,684055;0,765955;0,765955;0,487113;0,438402;0,769247;0,637366;0,772434;0,275361;0,275361;0,550722;0,550722;0,550722;0,792582;0,458935;0,475361;0,458935;0,663824;0,950722;0,969247;0,969247;0,475361;
28;;;;;;;;;;;;;;;;;;;;;;;;;;;;1,000000;0,640587;0,713657;0,484319;0,403340;0,361914;0,257794;0,885167;0,542899;0,865200;0,452792;0,494338;0,494338;0,865200;0,484319;0,467255;0,615200;0,490200;0,490200;0,395843;0,361914;0,490200;0,505491;0,499140;0,257794;0,257794;0,490200;0,490200;0,490200;0,896295;0,403340;0,439587;0,403340;0,449898;0,865200;0,615200;0,615200;0,439587;
29;;;;;;;;;;;;;;;;;;;;;;;;;;;;;1,000000;0,333333;0,305556;0,000000;0,000000;0,291667;0,333333;0,328125;0,416667;0,296798;0,308339;0,308339;0,416667;0,305556;0,321906;0,333333;0,291667;0,291667;0,000000;0,000000;0,291667;0,318773;0,328684;0,291667;0,291667;0,291667;0,291667;0,291667;0,644179;0,000000;0,000000;0,000000;0,318412;0,416667;0,333333;0,333333;0,000000;
30;;;;;;;;;;;;;;;;;;;;;;;;;;;;;;1,000000;0,499911;0,416667;0,388889;0,503516;0,942994;0,549894;0,833274;0,473638;0,508261;0,508261;0,833274;0,499911;0,627255;0,611052;0,499941;0,499941;0,416667;0,388889;0,499941;0,519967;0,649690;0,503516;0,503516;0,499941;0,499941;0,499941;0,655946;0,416667;0,444444;0,416667;0,619250;0,833274;0,611052;0,611052;0,444444;
31;;;;;;;;;;;;;;;;;;;;;;;;;;;;;;;1,000000;0,375000;0,333333;0,250000;0,611111;0,550000;0,833333;0,652158;0,689007;0,689007;0,833333;0,500000;0,493719;0,611111;0,500000;0,500000;0,357143;0,333333;0,500000;0,747504;0,712254;0,250000;0,250000;0,500000;0,500000;0,500000;0,656035;0,375000;0,416667;0,375000;0,680421;0,833333;0,611111;0,611111;0,416667;
32;;;;;;;;;;;;;;;;;;;;;;;;;;;;;;;;1,000000;0,500000;0,000000;0,388889;0,425000;0,500000;0,361863;0,379175;0,379175;0,500000;0,375000;0,433884;0,388889;0,333333;0,333333;0,535714;0,500000;0,333333;0,410037;0,444444;0,000000;0,000000;0,333333;0,333333;0,333333;0,453017;0,500000;0,500000;1,000000;0,416667;0,500000;0,388889;0,388889;0,500000;
33;;;;;;;;;;;;;;;;;;;;;;;;;;;;;;;;;1,000000;0,000000;0,366667;0,392857;0,500000;0,315818;0,338899;0,338899;0,500000;0,333333;0,397153;0,366667;0,300000;0,300000;0,555556;0,500000;0,300000;0,371481;0,416667;0,000000;0,000000;0,300000;0,300000;0,300000;0,437357;0,500000;0,500000;0,500000;0,388889;0,500000;0,366667;0,366667;0,500000;
34;;;;;;;;;;;;;;;;;;;;;;;;;;;;;;;;;;1,000000;0,291667;0,265625;0,375000;0,241242;0,252783;0,252783;0,375000;0,250000;0,470194;0,291667;0,250000;0,250000;0,000000;0,000000;0,250000;0,256273;0,476838;0,500000;0,500000;0,250000;0,250000;0,250000;0,302012;0,333333;0,000000;0,000000;0,476027;0,375000;0,291667;0,291667;0,000000;
35;;;;;;;;;;;;;;;;;;;;;;;;;;;;;;;;;;;1,000000;0,656250;0,833333;0,593596;0,616677;0,616677;0,833333;0,611111;0,635225;0,666667;0,583333;0,583333;0,381944;0,366667;0,583333;0,637546;0,643386;0,291667;0,291667;0,583333;0,583333;0,583333;0,715134;0,388889;0,416667;0,388889;0,591988;0,833333;0,666667;0,666667;0,416667;
36;;;;;;;;;;;;;;;;;;;;;;;;;;;;;;;;;;;;1,000000;0,906250;0,667223;0,560019;0,560019;0,906250;0,773612;0,725425;0,656250;0,531250;0,531250;0,429688;0,392857;0,531250;0,724787;0,735373;0,500000;0,500000;0,531250;0,531250;0,531250;0,737242;0,425000;0,453125;0,425000;0,515579;0,906250;0,656250;0,656250;0,453125;
37;;;;;;;;;;;;;;;;;;;;;;;;;;;;;;;;;;;;;1,000000;0,815818;0,838899;0,838899;1,000000;0,833333;0,913003;0,833333;0,750000;0,750000;0,520833;0,500000;0,750000;0,887546;0,910052;0,375000;0,375000;0,750000;0,750000;0,750000;0,937357;0,500000;0,500000;0,500000;0,814210;1,000000;0,833333;0,833333;0,500000;
38;;;;;;;;;;;;;;;;;;;;;;;;;;;;;;;;;;;;;;1,000000;0,776166;0,776166;0,815818;0,661343;0,561493;0,593596;0,482485;0,482485;0,338376;0,315818;0,482485;0,732871;0,687766;0,450735;0,450735;0,482485;0,482485;0,482485;0,629762;0,361863;0,407909;0,361863;0,445043;0,815818;0,593596;0,593596;0,407909;
39;;;;;;;;;;;;;;;;;;;;;;;;;;;;;;;;;;;;;;;1,000000;0,745877;0,838899;0,508349;0,600799;0,616677;0,505566;0,505566;0,363106;0,338899;0,505566;0,777555;0,630930;0,252783;0,252783;0,505566;0,505566;0,505566;0,664384;0,379175;0,419450;0,379175;0,479665;0,838899;0,616677;0,616677;0,419450;
40;;;;;;;;;;;;;;;;;;;;;;;;;;;;;;;;;;;;;;;;1,000000;0,838899;0,508349;0,600799;0,616677;0,505566;0,505566;0,363106;0,338899;0,505566;0,777555;0,630930;0,252783;0,252783;0,505566;0,505566;0,505566;0,664384;0,379175;0,419450;0,379175;0,479665;0,838899;0,616677;0,616677;0,419450;
41;;;;;;;;;;;;;;;;;;;;;;;;;;;;;;;;;;;;;;;;;1,000000;0,833333;0,913003;0,833333;0,750000;0,750000;0,520833;0,500000;0,750000;0,887546;0,910052;0,375000;0,375000;0,750000;0,750000;0,750000;0,937357;0,500000;0,500000;0,500000;0,814210;1,000000;0,833333;0,833333;0,500000;
42;;;;;;;;;;;;;;;;;;;;;;;;;;;;;;;;;;;;;;;;;;1,000000;0,703217;0,611111;0,500000;0,500000;0,357143;0,333333;0,500000;0,706218;0,712389;0,500000;0,500000;0,500000;0,500000;0,500000;0,656035;0,375000;0,416667;0,375000;0,471316;0,833333;0,611111;0,611111;0,416667;
43;;;;;;;;;;;;;;;;;;;;;;;;;;;;;;;;;;;;;;;;;;;1,000000;0,635225;0,496336;0,496336;0,446797;0,397153;0,496336;0,600328;0,577065;0,689297;0,689297;0,496336;0,496336;0,496336;0,716626;0,432086;0,461432;0,433884;0,680346;0,913003;0,635225;0,635225;0,461432;
44;;;;;;;;;;;;;;;;;;;;;;;;;;;;;;;;;;;;;;;;;;;;1,000000;0,583333;0,583333;0,381944;0,366667;0,583333;0,637546;0,643386;0,291667;0,291667;0,583333;0,583333;0,583333;0,715134;0,388889;0,416667;0,388889;0,591988;0,833333;0,666667;0,666667;0,416667;
45;;;;;;;;;;;;;;;;;;;;;;;;;;;;;;;;;;;;;;;;;;;;;1,000000;0,750000;0,312500;0,300000;0,500000;0,512546;0,510052;0,250000;0,250000;0,500000;0,500000;0,500000;0,604023;0,333333;0,375000;0,333333;0,480877;0,750000;0,583333;0,583333;0,375000;
46;;;;;;;;;;;;;;;;;;;;;;;;;;;;;;;;;;;;;;;;;;;;;;1,000000;0,312500;0,300000;0,500000;0,512546;0,510052;0,250000;0,250000;0,500000;0,500000;0,500000;0,604023;0,333333;0,375000;0,333333;0,480877;0,750000;0,583333;0,583333;0,375000;
47;;;;;;;;;;;;;;;;;;;;;;;;;;;;;;;;;;;;;;;;;;;;;;;1,000000;0,555556;0,312500;0,406307;0,462963;0,000000;0,000000;0,312500;0,312500;0,312500;0,468596;0,535714;0,520833;0,535714;0,416667;0,520833;0,381944;0,381944;1,000000;
48;;;;;;;;;;;;;;;;;;;;;;;;;;;;;;;;;;;;;;;;;;;;;;;;1,000000;0,300000;0,371481;0,416667;0,000000;0,000000;0,300000;0,300000;0,300000;0,437357;0,500000;0,500000;0,500000;0,388889;0,500000;0,366667;0,366667;0,500000;
49;;;;;;;;;;;;;;;;;;;;;;;;;;;;;;;;;;;;;;;;;;;;;;;;;1,000000;0,512546;0,739727;0,250000;0,250000;0,500000;0,500000;0,500000;0,604023;0,333333;0,375000;0,333333;0,690873;0,750000;0,875000;0,875000;0,375000;
50;;;;;;;;;;;;;;;;;;;;;;;;;;;;;;;;;;;;;;;;;;;;;;;;;;1,000000;0,780353;0,467221;0,467221;0,512546;0,512546;0,512546;0,707315;0,410037;0,443773;0,410037;0,485652;0,887546;0,637546;0,637546;0,443773;
51;;;;;;;;;;;;;;;;;;;;;;;;;;;;;;;;;;;;;;;;;;;;;;;;;;;1,000000;0,693572;0,693572;0,510052;0,510052;0,510052;0,724800;0,432410;0,466667;0,444444;0,734279;0,910052;0,939727;0,939727;0,466667;
52;;;;;;;;;;;;;;;;;;;;;;;;;;;;;;;;;;;;;;;;;;;;;;;;;;;;1,000000;0,750000;0,250000;0,250000;0,250000;0,302012;0,333333;0,000000;0,000000;0,476027;0,375000;0,291667;0,291667;0,000000;
53;;;;;;;;;;;;;;;;;;;;;;;;;;;;;;;;;;;;;;;;;;;;;;;;;;;;;1,000000;0,250000;0,250000;0,250000;0,302012;0,333333;0,000000;0,000000;0,476027;0,375000;0,291667;0,291667;0,000000;
54;;;;;;;;;;;;;;;;;;;;;;;;;;;;;;;;;;;;;;;;;;;;;;;;;;;;;;1,000000;0,750000;0,750000;0,604023;0,333333;0,375000;0,333333;0,480877;0,750000;0,583333;0,583333;0,375000;
55;;;;;;;;;;;;;;;;;;;;;;;;;;;;;;;;;;;;;;;;;;;;;;;;;;;;;;;1,000000;0,750000;0,604023;0,333333;0,375000;0,333333;0,480877;0,750000;0,583333;0,583333;0,375000;
56;;;;;;;;;;;;;;;;;;;;;;;;;;;;;;;;;;;;;;;;;;;;;;;;;;;;;;;;1,000000;0,604023;0,333333;0,375000;0,333333;0,480877;0,750000;0,583333;0,583333;0,375000;
57;;;;;;;;;;;;;;;;;;;;;;;;;;;;;;;;;;;;;;;;;;;;;;;;;;;;;;;;;1,000000;0,453017;0,468678;0,453017;0,627350;0,937357;0,715134;0,715134;0,468678;
58;;;;;;;;;;;;;;;;;;;;;;;;;;;;;;;;;;;;;;;;;;;;;;;;;;;;;;;;;;1,000000;0,500000;0,500000;0,387652;0,500000;0,388889;0,388889;0,500000;
59;;;;;;;;;;;;;;;;;;;;;;;;;;;;;;;;;;;;;;;;;;;;;;;;;;;;;;;;;;;1,000000;0,500000;0,444444;0,500000;0,416667;0,416667;0,500000;
60;;;;;;;;;;;;;;;;;;;;;;;;;;;;;;;;;;;;;;;;;;;;;;;;;;;;;;;;;;;;1,000000;0,416667;0,500000;0,388889;0,388889;0,500000;
61;;;;;;;;;;;;;;;;;;;;;;;;;;;;;;;;;;;;;;;;;;;;;;;;;;;;;;;;;;;;;1,000000;0,814210;0,857540;0,857540;0,444444;
62;;;;;;;;;;;;;;;;;;;;;;;;;;;;;;;;;;;;;;;;;;;;;;;;;;;;;;;;;;;;;;1,000000;0,833333;0,833333;0,500000;
63;;;;;;;;;;;;;;;;;;;;;;;;;;;;;;;;;;;;;;;;;;;;;;;;;;;;;;;;;;;;;;;1,000000;1,000000;0,416667;
64;;;;;;;;;;;;;;;;;;;;;;;;;;;;;;;;;;;;;;;;;;;;;;;;;;;;;;;;;;;;;;;;1,000000;0,416667;
65;;;;;;;;;;;;;;;;;;;;;;;;;;;;;;;;;;;;;;;;;;;;;;;;;;;;;;;;;;;;;;;;;1,000000;
