;1; 2; 3; 4; 5; 6; 7; 8; 9; 10; 11; 12; 13; 14; 15; 16; 17; 18; 19; 20; 21; 22; 23; 24; 25; 26; 27
1;1,000000;0,495157;0,500000;0,466544;0,653688;0,676438;0,000000;0,000000;0,423444;0,500425;0,500790;0,549648;0,500425;0,593965;0,492772;0,655480;0,655480;0,750000;0,750000;0,750000;0,750000;0,661866;0,661866;0,654271;0,000000;0,500000;0,500000;
2;;1,000000;0,500000;0,589411;0,585059;0,685408;0,857143;0,916667;0,341942;0,280762;0,302735;0,361972;0,280762;0,499481;0,500000;0,361111;0,361111;0,291667;0,291667;0,291667;0,291667;0,361111;0,361111;0,361111;0,905762;0,500000;0,500000;
3;;;1,000000;0,940469;0,492730;0,416667;0,666667;0,750000;0,458333;0,000000;0,000000;0,466667;0,000000;0,476509;0,500000;0,416667;0,416667;0,375000;0,375000;0,375000;0,375000;0,416667;0,416667;0,416667;0,000000;0,500000;0,500000;
4;;;;1,000000;0,566346;0,685303;0,916667;0,952381;0,365022;0,287017;0,314780;0,391271;0,287017;0,533064;0,523810;0,380952;0,380952;0,309524;0,309524;0,309524;0,309524;0,380952;0,380952;0,380952;0,929874;0,523810;0,523810;
5;;;;;1,000000;0,691023;0,000000;0,000000;0,676685;0,750000;0,750000;0,680556;0,750000;0,000000;0,555556;0,324074;0,324074;0,000000;0,000000;0,000000;0,000000;0,407407;0,407407;0,648148;0,000000;0,000000;0,000000;
6;;;;;;1,000000;0,000000;0,000000;0,312500;0,291667;0,305556;0,316667;0,291667;0,500000;0,000000;0,000000;0,000000;0,000000;0,000000;0,000000;0,000000;0,000000;0,000000;0,000000;0,666667;0,000000;0,000000;
7;;;;;;;1,000000;1,000000;0,733333;0,000000;0,000000;0,777778;0,000000;0,762414;0,666667;0,555556;0,555556;0,500000;0,500000;0,500000;0,500000;0,555556;0,555556;0,555556;0,000000;0,666667;0,666667;
8;;;;;;;;1,000000;0,833333;0,000000;0,000000;0,866667;0,000000;0,851509;0,750000;0,666667;0,666667;0,625000;0,625000;0,625000;0,625000;0,666667;0,666667;0,666667;0,000000;0,750000;0,750000;
9;;;;;;;;;1,000000;0,717046;0,698481;0,700556;0,717046;0,398797;0,458333;0,587939;0,587939;0,270833;0,270833;0,270833;0,270833;0,333333;0,333333;0,587939;0,812500;0,458333;0,458333;
10;;;;;;;;;;1,000000;0,750000;0,721518;1,000000;0,437500;0,000000;0,291667;0,291667;0,000000;0,000000;0,000000;0,000000;0,000000;0,000000;0,583333;0,625000;0,000000;0,000000;
11;;;;;;;;;;;1,000000;0,703704;0,750000;0,550000;0,000000;0,305556;0,305556;0,000000;0,000000;0,000000;0,000000;0,000000;0,000000;0,611111;0,750000;0,000000;0,000000;
12;;;;;;;;;;;;1,000000;0,721518;0,422371;0,466667;0,636892;0,636892;0,266667;0,266667;0,266667;0,266667;0,333333;0,333333;0,601529;0,850000;0,466667;0,466667;
13;;;;;;;;;;;;;1,000000;0,437500;0,000000;0,291667;0,291667;0,000000;0,000000;0,000000;0,000000;0,000000;0,000000;0,583333;0,625000;0,000000;0,000000;
14;;;;;;;;;;;;;;1,000000;0,476509;0,351509;0,351509;0,289009;0,289009;0,289009;0,289009;0,650650;0,650650;0,351509;1,000000;0,476509;0,476509;
15;;;;;;;;;;;;;;;1,000000;0,416667;0,416667;0,375000;0,375000;0,375000;0,375000;0,833333;0,833333;0,416667;0,000000;0,500000;0,500000;
16;;;;;;;;;;;;;;;;1,000000;0,666667;0,291667;0,291667;0,291667;0,291667;0,333333;0,333333;0,666667;0,000000;0,416667;0,416667;
17;;;;;;;;;;;;;;;;;1,000000;0,291667;0,291667;0,291667;0,291667;0,333333;0,333333;0,666667;0,000000;0,416667;0,416667;
18;;;;;;;;;;;;;;;;;;1,000000;0,750000;0,750000;0,750000;0,291667;0,291667;0,291667;0,000000;0,375000;0,375000;
19;;;;;;;;;;;;;;;;;;;1,000000;0,750000;0,750000;0,291667;0,291667;0,291667;0,000000;0,375000;0,375000;
20;;;;;;;;;;;;;;;;;;;;1,000000;0,750000;0,291667;0,291667;0,291667;0,000000;0,375000;0,375000;
21;;;;;;;;;;;;;;;;;;;;;1,000000;0,291667;0,291667;0,291667;0,000000;0,375000;0,375000;
22;;;;;;;;;;;;;;;;;;;;;;1,000000;0,666667;0,333333;0,000000;0,416667;0,416667;
23;;;;;;;;;;;;;;;;;;;;;;;1,000000;0,333333;0,000000;0,416667;0,416667;
24;;;;;;;;;;;;;;;;;;;;;;;;1,000000;0,000000;0,416667;0,416667;
25;;;;;;;;;;;;;;;;;;;;;;;;;1,000000;0,000000;0,000000;
26;;;;;;;;;;;;;;;;;;;;;;;;;;1,000000;0,500000;
27;;;;;;;;;;;;;;;;;;;;;;;;;;;1,000000;
