;1; 2; 3; 4; 5; 6; 7; 8; 9; 10; 11; 12; 13; 14; 15; 16; 17; 18; 19; 20; 21; 22; 23; 24; 25; 26; 27; 28; 29; 30; 31; 32; 33; 34; 35; 36; 37; 38; 39; 40; 41; 42; 43; 44; 45; 46; 47; 48; 49; 50; 51; 52; 53; 54; 55; 56; 57; 58; 59; 60; 61; 62; 63; 64; 65; 66; 67; 68; 69; 70; 71; 72; 73; 74; 75; 76; 77; 78; 79; 80; 81; 82; 83; 84; 85; 86; 87; 88
1;1,000000;0,624515;0,701313;0,655965;0,755752;0,745100;0,612500;0,712850;0,743883;0,700064;0,734838;0,740039;0,663684;0,800000;0,800000;0,800000;0,800000;0,800000;0,663684;0,796551;0,694581;0,746216;0,508945;0,667922;0,747305;0,663684;0,685953;0,499496;0,746957;0,578523;0,746816;0,722152;0,500000;0,500269;0,704122;0,791600;0,614162;0,730422;0,720753;0,747610;0,747610;0,717963;0,700655;0,596496;0,702775;0,663143;0,663143;0,746607;0,496481;0,499745;0,663113;0,664714;0,642764;0,498282;0,656637;0,689237;0,498282;0,740788;0,505122;0,000000;0,000000;0,747711;0,747711;0,747711;0,332418;0,332418;0,620176;0,666667;0,666667;0,500000;0,500000;0,000000;0,000000;0,000000;0,000000;0,664679;0,000000;0,000000;0,000000;0,500000;0,500000;0,498282;0,000000;0,000000;0,000000;0,000000;0,000000;0,000000;
2;;1,000000;0,696812;0,716762;0,833089;0,787527;0,825739;0,689727;0,738768;0,752307;0,770670;0,732279;0,985831;0,204789;0,204789;0,204789;0,204789;0,204789;0,985831;0,793223;0,458902;0,743699;0,701047;0,699884;0,744165;0,985831;0,747398;0,489915;0,744683;0,585464;0,744273;0,718718;0,491667;0,489447;0,684003;0,777017;0,651424;0,455308;0,281522;0,253123;0,253123;0,716869;0,295250;0,783099;0,693137;0,662294;0,662294;0,743699;0,970032;0,494789;0,662294;0,333678;0,825653;0,494789;0,654369;0,552138;0,494789;0,258783;0,000000;0,491667;0,491667;0,253123;0,253123;0,253123;0,000000;0,000000;0,496570;0,333678;0,333678;0,494789;0,494789;0,978123;0,000000;0,978123;0,978123;0,333678;0,330556;0,330556;0,330556;0,494789;0,494789;0,494789;0,000000;0,000000;0,978123;0,975000;0,491667;0,491667;
3;;;1,000000;0,695455;0,890457;0,883065;0,593534;0,813984;0,979211;0,820827;0,548163;0,537154;0,650672;0,218669;0,218669;0,218669;0,218669;0,218669;0,650672;1,000000;0,507166;0,517339;0,637688;0,725904;0,776008;0,650672;0,832610;0,431116;0,776008;0,898068;0,776008;0,740011;0,000000;0,431116;0,555169;0,462231;0,528898;0,335244;0,282915;0,258669;0,258669;0,690671;0,290959;0,368472;0,290162;0,650672;0,650672;0,517339;0,862231;0,458669;0,650672;0,325336;0,387625;0,917339;0,632392;0,570564;0,917339;0,268577;0,000000;0,000000;0,000000;0,258669;0,258669;0,258669;0,000000;0,000000;0,418512;0,325336;0,325336;0,458669;0,458669;0,858669;0,000000;0,858669;0,858669;0,325336;0,000000;0,000000;0,000000;0,458669;0,458669;0,917339;0,000000;0,000000;0,858669;0,000000;0,000000;0,000000;
4;;;;1,000000;0,751270;0,737557;0,711402;0,681398;0,739826;0,712607;0,726455;0,734112;0,661808;0,202657;0,202657;0,202657;0,202657;0,202657;0,661808;0,794250;0,486324;0,744104;0,456017;0,643006;0,745573;0,661808;0,682285;0,976738;0,744344;0,878625;0,744483;0,839270;0,495192;0,493745;0,703678;0,985453;0,831280;0,558660;0,465549;0,251695;0,251695;0,877471;0,626916;0,794664;0,701952;0,660497;0,660497;0,744500;0,493892;0,988145;0,660618;0,661222;0,844216;0,989409;0,649687;0,602546;0,989409;0,729152;0,000000;0,495192;0,495192;0,251695;0,251695;0,251695;0,000000;0,000000;0,502705;0,333426;0,333426;0,496887;0,496887;0,987272;0,000000;0,987272;0,987272;0,660618;0,331731;0,331731;0,331731;0,496887;0,496887;0,989409;0,000000;0,000000;0,987272;0,985577;0,495192;0,495192;
5;;;;;1,000000;0,763168;0,522465;0,611846;0,942030;0,612689;0,484183;0,487346;0,618673;0,209337;0,209337;0,209337;0,209337;0,209337;0,618673;0,813769;0,445753;0,493673;0,544126;0,563406;0,717018;0,618673;0,689690;0,394938;0,717018;0,745797;0,717018;0,610319;0,000000;0,394938;0,417430;0,392969;0,489877;0,286899;0,256219;0,246837;0,246837;0,583358;0,259299;0,338559;0,268081;0,618673;0,618673;0,493673;0,789877;0,434337;0,618673;0,309337;0,347840;0,845606;0,570680;0,508867;0,845606;0,243673;0,000000;0,000000;0,000000;0,246837;0,246837;0,246837;0,000000;0,000000;0,374866;0,309337;0,309337;0,434337;0,434337;0,809337;0,000000;0,809337;0,809337;0,309337;0,000000;0,000000;0,000000;0,434337;0,434337;0,845606;0,000000;0,000000;0,809337;0,000000;0,000000;0,000000;
6;;;;;;1,000000;0,543374;0,647376;0,727269;0,649855;0,492332;0,494249;0,636333;0,207055;0,207055;0,207055;0,207055;0,207055;0,636333;0,802499;0,440668;0,497444;0,580293;0,573207;0,736740;0,636333;0,734185;0,426380;0,736740;0,806917;0,736740;0,631298;0,000000;0,426380;0,458546;0,408395;0,495618;0,310296;0,262807;0,248722;0,248722;0,594318;0,268020;0,359262;0,275359;0,636333;0,636333;0,497444;0,852761;0,457055;0,636333;0,318166;0,377333;0,904897;0,598415;0,523425;0,904897;0,247124;0,000000;0,000000;0,000000;0,248722;0,248722;0,248722;0,000000;0,000000;0,411115;0,318166;0,318166;0,457055;0,457055;0,873722;0,000000;0,873722;0,873722;0,318166;0,000000;0,000000;0,000000;0,457055;0,457055;0,904897;0,000000;0,000000;0,873722;0,000000;0,000000;0,000000;
7;;;;;;;1,000000;0,686776;0,529167;0,805554;0,551042;0,538282;0,978164;0,223311;0,223311;0,223311;0,223311;0,223311;0,978164;0,433681;0,504716;0,517014;0,655778;0,735142;0,769830;0,978164;0,612136;0,454248;0,517014;0,545371;0,517014;0,452502;0,000000;0,454248;0,285051;0,458011;0,717351;0,370317;0,299383;0,264978;0,264978;0,397069;0,311369;0,387130;0,477627;0,655903;0,655903;0,517014;0,886310;0,473311;0,655903;0,334422;0,587819;0,473311;0,642449;0,575612;0,473311;0,283700;0,000000;0,000000;0,000000;0,264978;0,264978;0,264978;0,000000;0,000000;0,447691;0,334422;0,334422;0,473311;0,473311;0,889978;0,000000;0,889978;0,889978;0,334422;0,000000;0,000000;0,000000;0,473311;0,473311;0,473311;0,000000;0,000000;0,889978;0,000000;0,000000;0,000000;
8;;;;;;;;1,000000;0,729098;0,695950;0,705009;0,719830;0,656237;0,205306;0,205306;0,205306;0,205306;0,205306;0,656237;0,598853;0,480159;0,738602;0,657651;0,747300;0,738853;0,656237;0,868619;0,472448;0,738853;0,842027;0,738853;0,662288;0,000000;0,472448;0,441619;0,766419;0,819327;0,368328;0,275885;0,251972;0,251972;0,639101;0,286574;0,924619;0,673653;0,656237;0,656237;0,738602;0,938778;0,485306;0,656237;0,329750;0,784081;0,957126;0,639059;0,544609;0,957126;0,255221;0,000000;0,000000;0,000000;0,251972;0,251972;0,251972;0,000000;0,000000;0,471303;0,329750;0,329750;0,485306;0,485306;0,951972;0,000000;0,951972;0,951972;0,329750;0,000000;0,000000;0,000000;0,485306;0,485306;0,957126;0,000000;0,000000;0,951972;0,000000;0,000000;0,000000;
9;;;;;;;;;1,000000;0,731553;0,500000;0,500000;0,611111;0,216667;0,216667;0,216667;0,216667;0,216667;0,611111;0,866667;0,471968;0,500000;0,545896;0,683526;0,750000;0,611111;0,761726;0,375000;0,750000;0,805365;0,750000;0,699994;0,000000;0,375000;0,500000;0,450000;0,500000;0,283808;0,260037;0,250000;0,250000;0,669457;0,262857;0,328017;0,269285;0,611111;0,611111;0,500000;0,750000;0,416667;0,611111;0,305556;0,333333;0,833333;0,566667;0,518145;0,833333;0,250000;0,000000;0,000000;0,000000;0,250000;0,250000;0,250000;0,000000;0,000000;0,354954;0,305556;0,305556;0,416667;0,416667;0,750000;0,000000;0,750000;0,750000;0,305556;0,000000;0,000000;0,000000;0,416667;0,416667;0,833333;0,000000;0,000000;0,750000;0,000000;0,000000;0,000000;
10;;;;;;;;;;1,000000;0,726525;0,731128;0,976623;0,205446;0,205446;0,205446;0,205446;0,205446;0,976623;0,599057;0,472023;0,738804;0,676493;0,660237;0,979348;0,976623;0,814989;0,476953;0,740234;0,849671;0,976604;0,764788;0,000000;0,476953;0,798040;0,765035;0,650686;0,417949;0,446813;0,252505;0,252505;0,788033;0,523972;0,761824;0,681762;0,659304;0,659304;0,742969;0,949056;0,487799;0,974098;0,330936;0,800109;0,961252;0,646903;0,605868;0,961252;0,470205;0,000000;0,000000;0,000000;0,252505;0,252505;0,252505;0,000000;0,000000;0,477679;0,330936;0,330936;0,487799;0,487799;0,958387;0,000000;0,958387;0,958387;0,645763;0,000000;0,000000;0,000000;0,487799;0,487799;0,961252;0,000000;0,000000;0,958387;0,000000;0,000000;0,000000;
11;;;;;;;;;;;1,000000;0,750000;0,638889;0,208333;0,208333;0,208333;0,208333;0,208333;0,638889;0,416667;0,608083;0,750000;0,590152;0,649855;0,500000;0,638889;0,762839;0,428571;0,500000;0,500000;0,500000;0,554273;0,000000;0,428571;0,250000;0,428571;0,500000;0,315015;0,265682;0,250000;0,250000;0,508148;0,271428;0,361453;0,277550;0,638889;0,638889;0,750000;0,857143;0,458333;0,638889;0,319444;0,380208;0,458333;0,604167;0,530241;0,458333;0,250000;0,000000;0,000000;0,000000;0,250000;0,250000;0,250000;0,000000;0,000000;0,413991;0,319444;0,319444;0,458333;0,458333;0,875000;0,000000;0,875000;0,875000;0,319444;0,000000;0,000000;0,000000;0,458333;0,458333;0,458333;0,000000;0,000000;0,875000;0,000000;0,000000;0,000000;
12;;;;;;;;;;;;1,000000;0,625000;0,212500;0,212500;0,212500;0,212500;0,212500;0,625000;0,425000;0,645928;0,750000;0,563107;0,678988;0,500000;0,625000;0,934634;0,400000;0,500000;0,500000;0,500000;0,599010;0,000000;0,400000;0,250000;0,440000;0,500000;0,296101;0,262546;0,250000;0,250000;0,556519;0,266530;0,343621;0,273142;0,625000;0,625000;1,000000;0,800000;0,437500;0,625000;0,312500;0,354167;0,437500;0,583333;0,523329;0,437500;0,250000;0,000000;0,000000;0,000000;0,250000;0,250000;0,250000;0,000000;0,000000;0,381193;0,312500;0,312500;0,437500;0,437500;0,812500;0,000000;0,812500;0,812500;0,312500;0,000000;0,000000;0,000000;0,437500;0,437500;0,437500;0,000000;0,000000;0,812500;0,000000;0,000000;0,000000;
13;;;;;;;;;;;;;1,000000;0,266667;0,266667;0,266667;0,266667;0,266667;1,000000;0,533333;0,626839;0,583333;0,675243;0,946778;0,875000;1,000000;0,657369;0,388889;0,583333;0,633333;0,583333;0,599900;0,000000;0,388889;0,322917;0,577778;0,885566;0,342856;0,318773;0,291667;0,291667;0,568515;0,324381;0,357567;0,586932;0,666667;0,666667;0,583333;0,777778;0,416667;0,666667;0,333333;0,644672;0,416667;0,666667;0,644220;0,416667;0,312500;0,000000;0,000000;0,000000;0,291667;0,291667;0,291667;0,000000;0,000000;0,378096;0,333333;0,333333;0,416667;0,416667;0,666667;0,000000;0,666667;0,666667;0,333333;0,000000;0,000000;0,000000;0,416667;0,416667;0,416667;0,000000;0,000000;0,666667;0,000000;0,000000;0,000000;
14;;;;;;;;;;;;;;1,000000;0,800000;0,800000;0,800000;0,800000;0,266667;0,200000;0,212653;0,225000;0,227682;0,209970;0,225000;0,266667;0,222018;0,300000;0,225000;0,243333;0,225000;0,215018;0,000000;0,300000;0,000000;0,200000;0,250000;0,224338;0,218773;0,225000;0,225000;0,222143;0,217714;0,268678;0,229523;0,266667;0,266667;0,225000;0,300000;0,350000;0,266667;0,266667;0,264583;0,350000;0,233333;0,222018;0,350000;0,212500;0,000000;0,000000;0,000000;0,225000;0,225000;0,225000;0,000000;0,000000;0,278096;0,266667;0,266667;0,350000;0,350000;0,600000;0,000000;0,600000;0,600000;0,266667;0,000000;0,000000;0,000000;0,350000;0,350000;0,350000;0,000000;0,000000;0,600000;0,000000;0,000000;0,000000;
15;;;;;;;;;;;;;;;1,000000;0,800000;0,800000;0,800000;0,266667;0,200000;0,212653;0,225000;0,227682;0,209970;0,225000;0,266667;0,222018;0,300000;0,225000;0,243333;0,225000;0,215018;0,000000;0,300000;0,000000;0,200000;0,250000;0,224338;0,218773;0,225000;0,225000;0,222143;0,217714;0,268678;0,229523;0,266667;0,266667;0,225000;0,300000;0,350000;0,266667;0,266667;0,264583;0,350000;0,233333;0,222018;0,350000;0,212500;0,000000;0,000000;0,000000;0,225000;0,225000;0,225000;0,000000;0,000000;0,278096;0,266667;0,266667;0,350000;0,350000;0,600000;0,000000;0,600000;0,600000;0,266667;0,000000;0,000000;0,000000;0,350000;0,350000;0,350000;0,000000;0,000000;0,600000;0,000000;0,000000;0,000000;
16;;;;;;;;;;;;;;;;1,000000;0,800000;0,800000;0,266667;0,200000;0,212653;0,225000;0,227682;0,209970;0,225000;0,266667;0,222018;0,300000;0,225000;0,243333;0,225000;0,215018;0,000000;0,300000;0,000000;0,200000;0,250000;0,224338;0,218773;0,225000;0,225000;0,222143;0,217714;0,268678;0,229523;0,266667;0,266667;0,225000;0,300000;0,350000;0,266667;0,266667;0,264583;0,350000;0,233333;0,222018;0,350000;0,212500;0,000000;0,000000;0,000000;0,225000;0,225000;0,225000;0,000000;0,000000;0,278096;0,266667;0,266667;0,350000;0,350000;0,600000;0,000000;0,600000;0,600000;0,266667;0,000000;0,000000;0,000000;0,350000;0,350000;0,350000;0,000000;0,000000;0,600000;0,000000;0,000000;0,000000;
17;;;;;;;;;;;;;;;;;1,000000;0,800000;0,266667;0,200000;0,212653;0,225000;0,227682;0,209970;0,225000;0,266667;0,222018;0,300000;0,225000;0,243333;0,225000;0,215018;0,000000;0,300000;0,000000;0,200000;0,250000;0,224338;0,218773;0,225000;0,225000;0,222143;0,217714;0,268678;0,229523;0,266667;0,266667;0,225000;0,300000;0,350000;0,266667;0,266667;0,264583;0,350000;0,233333;0,222018;0,350000;0,212500;0,000000;0,000000;0,000000;0,225000;0,225000;0,225000;0,000000;0,000000;0,278096;0,266667;0,266667;0,350000;0,350000;0,600000;0,000000;0,600000;0,600000;0,266667;0,000000;0,000000;0,000000;0,350000;0,350000;0,350000;0,000000;0,000000;0,600000;0,000000;0,000000;0,000000;
18;;;;;;;;;;;;;;;;;;1,000000;0,266667;0,200000;0,212653;0,225000;0,227682;0,209970;0,225000;0,266667;0,222018;0,300000;0,225000;0,243333;0,225000;0,215018;0,000000;0,300000;0,000000;0,200000;0,250000;0,224338;0,218773;0,225000;0,225000;0,222143;0,217714;0,268678;0,229523;0,266667;0,266667;0,225000;0,300000;0,350000;0,266667;0,266667;0,264583;0,350000;0,233333;0,222018;0,350000;0,212500;0,000000;0,000000;0,000000;0,225000;0,225000;0,225000;0,000000;0,000000;0,278096;0,266667;0,266667;0,350000;0,350000;0,600000;0,000000;0,600000;0,600000;0,266667;0,000000;0,000000;0,000000;0,350000;0,350000;0,350000;0,000000;0,000000;0,600000;0,000000;0,000000;0,000000;
19;;;;;;;;;;;;;;;;;;;1,000000;0,533333;0,626839;0,583333;0,675243;0,946778;0,875000;1,000000;0,657369;0,388889;0,583333;0,633333;0,583333;0,599900;0,000000;0,388889;0,322917;0,577778;0,885566;0,342856;0,318773;0,291667;0,291667;0,568515;0,324381;0,357567;0,586932;0,666667;0,666667;0,583333;0,777778;0,416667;0,666667;0,333333;0,644672;0,416667;0,666667;0,644220;0,416667;0,312500;0,000000;0,000000;0,000000;0,291667;0,291667;0,291667;0,000000;0,000000;0,378096;0,333333;0,333333;0,416667;0,416667;0,666667;0,000000;0,666667;0,666667;0,333333;0,000000;0,000000;0,000000;0,416667;0,416667;0,416667;0,000000;0,000000;0,666667;0,000000;0,000000;0,000000;
20;;;;;;;;;;;;;;;;;;;;1,000000;0,398268;0,450000;0,435243;0,579737;0,675000;0,533333;0,637036;0,300000;0,675000;0,663219;0,675000;0,599996;0,000000;0,300000;0,412500;0,400000;0,433333;0,224338;0,218773;0,225000;0,225000;0,587161;0,217714;0,268678;0,229523;0,533333;0,533333;0,450000;0,600000;0,350000;0,533333;0,266667;0,264583;0,700000;0,466667;0,430887;0,700000;0,212500;0,000000;0,000000;0,000000;0,225000;0,225000;0,225000;0,000000;0,000000;0,278096;0,266667;0,266667;0,350000;0,350000;0,600000;0,000000;0,600000;0,600000;0,266667;0,000000;0,000000;0,000000;0,350000;0,350000;0,700000;0,000000;0,000000;0,600000;0,000000;0,000000;0,000000;
21;;;;;;;;;;;;;;;;;;;;;1,000000;0,705398;0,578192;0,460000;0,483982;0,626839;0,638979;0,447143;0,483982;0,455149;0,483982;0,413728;0,000000;0,447143;0,384649;0,384164;0,471968;0,590114;0,606965;0,706732;0,706732;0,387953;0,662996;0,376669;0,288570;0,626839;0,626839;0,705398;0,846968;0,469796;0,626839;0,619600;0,401746;0,469796;0,811195;0,665823;0,469796;0,679819;0,396888;0,000000;0,000000;0,476743;0,476743;0,476743;0,321429;0,321429;0,437780;0,326939;0,326939;0,469796;0,469796;0,898367;0,000000;0,898367;0,898367;0,641332;0,000000;0,000000;0,000000;0,469796;0,469796;0,469796;0,000000;0,000000;0,898367;0,000000;0,000000;0,000000;
22;;;;;;;;;;;;;;;;;;;;;;1,000000;0,525243;0,721069;0,500000;0,583333;0,754622;0,333333;0,500000;0,500000;0,500000;0,679538;0,000000;0,333333;0,250000;0,466667;0,500000;0,496808;0,493056;0,250000;0,250000;0,653259;0,515428;0,302012;0,262857;0,583333;0,583333;0,750000;0,666667;0,375000;0,875000;0,291667;0,302083;0,375000;0,541667;0,723484;0,375000;0,500000;0,000000;0,000000;0,000000;0,250000;0,250000;0,250000;0,000000;0,000000;0,315596;0,291667;0,291667;0,375000;0,375000;0,625000;0,000000;0,625000;0,625000;0,583333;0,000000;0,000000;0,000000;0,375000;0,375000;0,375000;0,000000;0,000000;0,625000;0,000000;0,000000;0,000000;
23;;;;;;;;;;;;;;;;;;;;;;;1,000000;0,544190;0,525243;0,675243;0,660869;0,495785;0,525243;0,577670;0,525243;0,461940;0,000000;0,495785;0,488160;0,250331;0,545896;0,503320;0,471999;0,502578;0,502578;0,393651;0,411478;0,418905;0,322797;0,675243;0,675243;0,525243;0,954987;0,497682;0,675243;0,652578;0,462955;0,497682;0,688107;0,615355;0,497682;0,306705;0,000000;0,000000;0,000000;0,502578;0,502578;0,502578;0,000000;0,000000;0,503494;0,347682;0,347682;0,497682;0,497682;0,947682;0,000000;0,947682;0,947682;0,347682;0,000000;0,000000;0,000000;0,497682;0,497682;0,497682;0,000000;0,000000;0,947682;0,000000;0,000000;0,000000;
24;;;;;;;;;;;;;;;;;;;;;;;;1,000000;0,953652;0,946778;0,804010;0,457947;0,713070;0,749941;0,713070;0,627154;0,000000;0,457947;0,370319;0,769919;0,629559;0,354386;0,279085;0,254415;0,254415;0,613066;0,288958;0,553656;0,693449;0,632491;0,632491;0,721069;0,871818;0,476637;0,632491;0,328489;0,661854;0,927865;0,582782;0,489319;0,927865;0,260836;0,000000;0,000000;0,000000;0,254415;0,254415;0,254415;0,000000;0,000000;0,451662;0,328489;0,328489;0,476637;0,476637;0,921081;0,000000;0,921081;0,921081;0,328489;0,000000;0,000000;0,000000;0,476637;0,476637;0,927865;0,000000;0,000000;0,921081;0,000000;0,000000;0,000000;
25;;;;;;;;;;;;;;;;;;;;;;;;;1,000000;0,875000;0,757036;0,333333;0,750000;0,783219;0,750000;0,719996;0,000000;0,333333;0,500000;0,700000;0,718900;0,268782;0,256273;0,250000;0,250000;0,699661;0,257714;0,302012;0,475821;0,583333;0,583333;0,500000;0,666667;0,375000;0,583333;0,291667;0,519672;0,750000;0,541667;0,510887;0,750000;0,250000;0,000000;0,000000;0,000000;0,250000;0,250000;0,250000;0,000000;0,000000;0,315596;0,291667;0,291667;0,375000;0,375000;0,625000;0,000000;0,625000;0,625000;0,291667;0,000000;0,000000;0,000000;0,375000;0,375000;0,750000;0,000000;0,000000;0,625000;0,000000;0,000000;0,000000;
26;;;;;;;;;;;;;;;;;;;;;;;;;;1,000000;0,657369;0,388889;0,583333;0,633333;0,583333;0,599900;0,000000;0,388889;0,322917;0,577778;0,885566;0,342856;0,318773;0,291667;0,291667;0,568515;0,324381;0,357567;0,586932;0,666667;0,666667;0,583333;0,777778;0,416667;0,666667;0,333333;0,644672;0,416667;0,666667;0,644220;0,416667;0,312500;0,000000;0,000000;0,000000;0,291667;0,291667;0,291667;0,000000;0,000000;0,378096;0,333333;0,333333;0,416667;0,416667;0,666667;0,000000;0,666667;0,666667;0,333333;0,000000;0,000000;0,000000;0,416667;0,416667;0,416667;0,000000;0,000000;0,666667;0,000000;0,000000;0,000000;
27;;;;;;;;;;;;;;;;;;;;;;;;;;;1,000000;0,436696;0,757036;0,850638;0,757036;0,797054;0,000000;0,436696;0,484358;0,606543;0,540059;0,346405;0,290090;0,262018;0,262018;0,761713;0,299329;0,374053;0,295743;0,657369;0,657369;0,969496;0,873392;0,462018;0,657369;0,328684;0,394800;0,895634;0,646742;0,587305;0,895634;0,275752;0,000000;0,000000;0,000000;0,262018;0,262018;0,262018;0,000000;0,000000;0,425687;0,328684;0,328684;0,462018;0,462018;0,862018;0,000000;0,862018;0,862018;0,328684;0,000000;0,000000;0,000000;0,462018;0,462018;0,895634;0,000000;0,000000;0,862018;0,000000;0,000000;0,000000;
28;;;;;;;;;;;;;;;;;;;;;;;;;;;;1,000000;0,333333;0,472222;0,333333;0,425031;0,000000;0,500000;0,000000;0,350000;0,425000;0,896473;0,410037;0,333333;0,333333;0,415428;0,429523;0,453017;0,394285;0,388889;0,388889;0,333333;0,500000;1,000000;0,388889;0,777778;0,483333;0,500000;0,433333;0,436696;0,500000;0,400000;0,000000;0,000000;0,000000;0,333333;0,333333;0,333333;0,000000;0,000000;0,504954;0,388889;0,388889;0,500000;0,500000;0,833333;0,000000;0,833333;0,833333;0,388889;0,000000;0,000000;0,000000;0,500000;0,500000;0,500000;0,000000;0,000000;0,833333;0,000000;0,000000;0,000000;
29;;;;;;;;;;;;;;;;;;;;;;;;;;;;;1,000000;0,783219;0,750000;0,719996;0,000000;0,333333;0,500000;0,466667;0,500000;0,268782;0,256273;0,250000;0,250000;0,699661;0,257714;0,302012;0,262857;0,583333;0,583333;0,500000;0,666667;0,375000;0,583333;0,291667;0,302083;0,750000;0,541667;0,510887;0,750000;0,250000;0,000000;0,000000;0,000000;0,250000;0,250000;0,250000;0,000000;0,000000;0,315596;0,291667;0,291667;0,375000;0,375000;0,625000;0,000000;0,625000;0,625000;0,291667;0,000000;0,000000;0,000000;0,375000;0,375000;0,750000;0,000000;0,000000;0,625000;0,000000;0,000000;0,000000;
30;;;;;;;;;;;;;;;;;;;;;;;;;;;;;;1,000000;0,783219;0,758039;0,000000;0,472222;0,500000;0,544444;0,500000;0,417457;0,335767;0,283333;0,283333;0,706123;0,352618;0,409579;0,331269;0,633333;0,633333;0,500000;0,833333;0,483333;0,633333;0,350000;0,440476;0,966667;0,595238;0,527217;0,966667;0,321429;0,000000;0,000000;0,000000;0,283333;0,283333;0,283333;0,000000;0,000000;0,471363;0,350000;0,350000;0,483333;0,483333;0,883333;0,000000;0,883333;0,883333;0,350000;0,000000;0,000000;0,000000;0,483333;0,483333;0,966667;0,000000;0,000000;0,883333;0,000000;0,000000;0,000000;
31;;;;;;;;;;;;;;;;;;;;;;;;;;;;;;;1,000000;0,719996;0,000000;0,333333;0,750000;0,466667;0,500000;0,268782;0,256273;0,250000;0,250000;0,955716;0,257714;0,302012;0,262857;0,583333;0,583333;0,500000;0,666667;0,375000;0,583333;0,291667;0,302083;0,750000;0,541667;0,510887;0,750000;0,250000;0,000000;0,000000;0,000000;0,250000;0,250000;0,250000;0,000000;0,000000;0,315596;0,291667;0,291667;0,375000;0,375000;0,625000;0,000000;0,625000;0,625000;0,291667;0,000000;0,000000;0,000000;0,375000;0,375000;0,750000;0,000000;0,000000;0,625000;0,000000;0,000000;0,000000;
32;;;;;;;;;;;;;;;;;;;;;;;;;;;;;;;;1,000000;0,450000;0,421623;0,655973;0,576005;0,444278;0,339279;0,275092;0,255018;0,255018;0,729282;0,281831;0,362387;0,284078;0,599900;0,599900;0,679538;0,777612;0,455018;0,599900;0,321685;0,379801;0,892540;0,523596;0,443634;0,892540;0,260754;0,000000;0,450000;0,450000;0,255018;0,255018;0,255018;0,000000;0,000000;0,410688;0,321685;0,321685;0,455018;0,455018;0,855018;0,000000;0,855018;0,855018;0,321685;0,316667;0,316667;0,316667;0,455018;0,455018;0,892540;0,000000;0,000000;0,855018;0,850000;0,450000;0,450000;
33;;;;;;;;;;;;;;;;;;;;;;;;;;;;;;;;;1,000000;0,500000;0,500000;0,000000;0,000000;0,555556;0,000000;0,000000;0,000000;0,437500;0,000000;0,000000;0,000000;0,000000;0,000000;0,000000;0,000000;0,000000;0,000000;0,000000;0,000000;0,000000;0,000000;0,000000;0,000000;0,000000;0,000000;0,500000;0,500000;0,000000;0,000000;0,000000;0,000000;0,000000;0,500000;0,000000;0,000000;0,000000;0,000000;0,000000;0,000000;0,000000;0,000000;0,000000;0,416667;0,416667;0,416667;0,000000;0,000000;0,000000;0,000000;0,000000;0,000000;0,750000;0,500000;0,500000;
34;;;;;;;;;;;;;;;;;;;;;;;;;;;;;;;;;;1,000000;0,500000;0,350000;0,425000;0,497620;0,410037;0,333333;0,333333;0,407500;0,429523;0,453017;0,394285;0,388889;0,388889;0,333333;0,500000;0,500000;0,388889;0,388889;0,483333;0,500000;0,433333;0,436696;0,500000;0,400000;0,000000;0,500000;0,500000;0,333333;0,333333;0,333333;0,000000;0,000000;0,504954;0,777778;0,777778;0,500000;0,500000;0,833333;0,000000;0,833333;0,833333;0,388889;0,388889;0,388889;0,388889;0,500000;0,500000;0,500000;0,000000;0,000000;0,833333;0,833333;0,500000;0,500000;
35;;;;;;;;;;;;;;;;;;;;;;;;;;;;;;;;;;;1,000000;0,211111;0,250000;0,000000;0,475000;0,343750;0,343750;0,667494;0,522727;0,000000;0,000000;0,322917;0,322917;0,250000;0,444444;0,000000;0,322917;0,416667;0,000000;0,468750;0,308333;0,303030;0,468750;0,000000;0,000000;0,500000;0,500000;0,343750;0,343750;0,343750;0,000000;0,000000;0,500000;0,000000;0,000000;0,000000;0,000000;0,000000;0,000000;0,000000;0,000000;0,000000;0,666667;0,666667;0,666667;0,000000;0,000000;0,468750;0,000000;0,000000;0,000000;0,000000;0,500000;0,500000;
36;;;;;;;;;;;;;;;;;;;;;;;;;;;;;;;;;;;;1,000000;0,450000;0,243808;0,230037;0,233333;0,233333;0,574820;0,229523;0,606035;0,656347;0,288889;0,288889;0,466667;0,350000;0,400000;0,288889;0,288889;0,707478;0,800000;0,253333;0,236696;0,800000;0,220000;0,000000;0,000000;0,000000;0,233333;0,233333;0,233333;0,000000;0,000000;0,324954;0,288889;0,288889;0,400000;0,400000;0,733333;0,000000;0,733333;0,733333;0,288889;0,000000;0,000000;0,000000;0,400000;0,400000;0,800000;0,000000;0,000000;0,733333;0,000000;0,000000;0,000000;
37;;;;;;;;;;;;;;;;;;;;;;;;;;;;;;;;;;;;;1,000000;0,363808;0,320037;0,283333;0,283333;0,409624;0,329523;0,378017;0,463731;0,611111;0,611111;0,500000;0,750000;0,450000;0,611111;0,338889;0,531475;0,450000;0,566667;0,518145;0,450000;0,310000;0,000000;0,000000;0,000000;0,283333;0,283333;0,283333;0,000000;0,000000;0,414954;0,338889;0,338889;0,450000;0,450000;0,783333;0,000000;0,783333;0,783333;0,338889;0,000000;0,000000;0,000000;0,450000;0,450000;0,450000;0,000000;0,000000;0,783333;0,000000;0,000000;0,000000;
38;;;;;;;;;;;;;;;;;;;;;;;;;;;;;;;;;;;;;;1,000000;0,773371;0,731093;0,731093;0,328574;0,678179;0,408635;0,314664;0,342856;0,342856;0,268782;0,483808;0,942485;0,644956;0,646189;0,447616;0,491004;0,356707;0,489591;0,491004;0,690673;0,000000;0,555556;0,555556;0,725948;0,725948;0,725948;0,000000;0,000000;0,486927;0,342856;0,342856;0,491004;0,491004;0,935449;0,000000;0,935449;0,935449;0,948052;0,407407;0,407407;0,407407;0,491004;0,491004;0,491004;0,000000;0,000000;0,935449;1,000000;0,555556;0,555556;
39;;;;;;;;;;;;;;;;;;;;;;;;;;;;;;;;;;;;;;;1,000000;0,700353;0,700353;0,281831;0,643151;0,353658;0,283179;0,318773;0,318773;0,256273;0,410037;0,443773;0,618056;0,613518;0,366713;0,443773;0,304213;0,588775;0,443773;0,714621;0,000000;0,000000;0,000000;0,488518;0,488518;0,488518;0,000000;0,000000;0,393739;0,318773;0,318773;0,443773;0,443773;0,818773;0,000000;0,818773;0,818773;0,919810;0,000000;0,000000;0,000000;0,443773;0,443773;0,443773;0,000000;0,000000;0,818773;0,000000;0,000000;0,000000;
40;;;;;;;;;;;;;;;;;;;;;;;;;;;;;;;;;;;;;;;;1,000000;0,750000;0,259643;0,703886;0,302012;0,262857;0,291667;0,291667;0,250000;0,333333;0,375000;0,291667;0,583333;0,302083;0,375000;0,270833;0,262018;0,375000;0,250000;0,000000;0,000000;0,000000;0,500000;0,500000;0,500000;0,000000;0,000000;0,315596;0,291667;0,291667;0,375000;0,375000;0,625000;0,000000;0,625000;0,625000;0,291667;0,000000;0,000000;0,000000;0,375000;0,375000;0,375000;0,000000;0,000000;0,625000;0,000000;0,000000;0,000000;
41;;;;;;;;;;;;;;;;;;;;;;;;;;;;;;;;;;;;;;;;;1,000000;0,259643;0,703886;0,302012;0,262857;0,291667;0,291667;0,250000;0,333333;0,375000;0,291667;0,583333;0,302083;0,375000;0,270833;0,262018;0,375000;0,250000;0,000000;0,000000;0,000000;0,500000;0,500000;0,500000;0,000000;0,000000;0,315596;0,291667;0,291667;0,375000;0,375000;0,625000;0,000000;0,625000;0,625000;0,291667;0,000000;0,000000;0,000000;0,375000;0,375000;0,375000;0,000000;0,000000;0,625000;0,000000;0,000000;0,000000;
42;;;;;;;;;;;;;;;;;;;;;;;;;;;;;;;;;;;;;;;;;;1,000000;0,288570;0,359049;0,288570;0,568515;0,568515;0,653259;0,709624;0,447143;0,568515;0,322143;0,373452;0,862606;0,470363;0,394220;0,862606;0,269285;0,000000;0,437500;0,437500;0,259643;0,259643;0,259643;0,000000;0,000000;0,400478;0,322143;0,322143;0,447143;0,447143;0,822143;0,000000;0,822143;0,822143;0,322143;0,312500;0,312500;0,312500;0,447143;0,447143;0,862606;0,000000;0,000000;0,822143;0,812500;0,437500;0,437500;
43;;;;;;;;;;;;;;;;;;;;;;;;;;;;;;;;;;;;;;;;;;;1,000000;0,366880;0,288570;0,324381;0,324381;0,257714;0,429523;0,457714;0,648761;0,605469;0,385578;0,457714;0,535689;0,557568;0,457714;0,705726;0,369687;0,000000;0,000000;0,472135;0,472135;0,472135;0,316667;0,316667;0,416465;0,324381;0,324381;0,457714;0,457714;0,857714;0,000000;0,857714;0,857714;0,648761;0,000000;0,000000;0,000000;0,457714;0,457714;0,457714;0,000000;0,000000;0,857714;0,000000;0,000000;0,000000;
44;;;;;;;;;;;;;;;;;;;;;;;;;;;;;;;;;;;;;;;;;;;;1,000000;0,694605;0,357567;0,357567;0,302012;0,453017;0,468678;0,357567;0,357567;0,946815;0,468678;0,376954;0,374053;0,468678;0,343621;0,000000;0,000000;0,000000;0,302012;0,302012;0,302012;0,000000;0,000000;0,448575;0,357567;0,357567;0,468678;0,468678;0,802012;0,000000;0,802012;0,802012;0,357567;0,000000;0,000000;0,000000;0,468678;0,468678;0,468678;0,000000;0,000000;0,802012;0,000000;0,000000;0,000000;
45;;;;;;;;;;;;;;;;;;;;;;;;;;;;;;;;;;;;;;;;;;;;;1,000000;0,318412;0,318412;0,262857;0,394285;0,429523;0,318412;0,318412;0,775094;0,429523;0,306475;0,295743;0,429523;0,273142;0,000000;0,000000;0,000000;0,262857;0,262857;0,262857;0,000000;0,000000;0,378096;0,318412;0,318412;0,429523;0,429523;0,762857;0,000000;0,762857;0,762857;0,318412;0,000000;0,000000;0,000000;0,429523;0,429523;0,429523;0,000000;0,000000;0,762857;0,000000;0,000000;0,000000;
46;;;;;;;;;;;;;;;;;;;;;;;;;;;;;;;;;;;;;;;;;;;;;;1,000000;0,666667;0,583333;0,777778;0,416667;0,666667;0,333333;0,364583;0,416667;0,666667;0,644220;0,416667;0,312500;0,000000;0,000000;0,000000;0,291667;0,291667;0,291667;0,000000;0,000000;0,378096;0,333333;0,333333;0,416667;0,416667;0,666667;0,000000;0,666667;0,666667;0,333333;0,000000;0,000000;0,000000;0,416667;0,416667;0,416667;0,000000;0,000000;0,666667;0,000000;0,000000;0,000000;
47;;;;;;;;;;;;;;;;;;;;;;;;;;;;;;;;;;;;;;;;;;;;;;;1,000000;0,583333;0,777778;0,416667;0,666667;0,333333;0,364583;0,416667;0,666667;0,644220;0,416667;0,312500;0,000000;0,000000;0,000000;0,291667;0,291667;0,291667;0,000000;0,000000;0,378096;0,333333;0,333333;0,416667;0,416667;0,666667;0,000000;0,666667;0,666667;0,333333;0,000000;0,000000;0,000000;0,416667;0,416667;0,416667;0,000000;0,000000;0,666667;0,000000;0,000000;0,000000;
48;;;;;;;;;;;;;;;;;;;;;;;;;;;;;;;;;;;;;;;;;;;;;;;;1,000000;0,666667;0,375000;0,583333;0,291667;0,302083;0,375000;0,541667;0,510887;0,375000;0,250000;0,000000;0,000000;0,000000;0,250000;0,250000;0,250000;0,000000;0,000000;0,315596;0,291667;0,291667;0,375000;0,375000;0,625000;0,000000;0,625000;0,625000;0,291667;0,000000;0,000000;0,000000;0,375000;0,375000;0,375000;0,000000;0,000000;0,625000;0,000000;0,000000;0,000000;
49;;;;;;;;;;;;;;;;;;;;;;;;;;;;;;;;;;;;;;;;;;;;;;;;;1,000000;0,500000;0,777778;0,388889;0,483333;0,500000;0,866667;0,851478;0,500000;0,400000;0,000000;0,000000;0,000000;0,333333;0,333333;0,333333;0,000000;0,000000;0,504954;0,388889;0,388889;0,500000;0,500000;0,833333;0,000000;0,833333;0,833333;0,388889;0,000000;0,000000;0,000000;0,500000;0,500000;0,500000;0,000000;0,000000;0,833333;0,000000;0,000000;0,000000;
50;;;;;;;;;;;;;;;;;;;;;;;;;;;;;;;;;;;;;;;;;;;;;;;;;;1,000000;0,416667;0,833333;0,489583;0,500000;0,458333;0,462018;0,500000;0,437500;0,000000;0,000000;0,000000;0,375000;0,375000;0,375000;0,000000;0,000000;0,503096;0,416667;0,416667;0,500000;0,500000;0,750000;0,000000;0,750000;0,750000;0,416667;0,000000;0,000000;0,000000;0,500000;0,500000;0,500000;0,000000;0,000000;0,750000;0,000000;0,000000;0,000000;
51;;;;;;;;;;;;;;;;;;;;;;;;;;;;;;;;;;;;;;;;;;;;;;;;;;;1,000000;0,333333;0,364583;0,416667;0,666667;0,923484;0,416667;0,625000;0,000000;0,000000;0,000000;0,291667;0,291667;0,291667;0,000000;0,000000;0,378096;0,333333;0,333333;0,416667;0,416667;0,666667;0,000000;0,666667;0,666667;0,666667;0,000000;0,000000;0,000000;0,416667;0,416667;0,416667;0,000000;0,000000;0,666667;0,000000;0,000000;0,000000;
52;;;;;;;;;;;;;;;;;;;;;;;;;;;;;;;;;;;;;;;;;;;;;;;;;;;;1,000000;0,364583;0,416667;0,333333;0,328684;0,416667;0,312500;0,000000;0,000000;0,000000;0,583333;0,583333;0,583333;0,000000;0,000000;0,378096;0,333333;0,333333;0,416667;0,416667;0,666667;0,000000;0,666667;0,666667;0,333333;0,000000;0,000000;0,000000;0,416667;0,416667;0,416667;0,000000;0,000000;0,666667;0,000000;0,000000;0,000000;
53;;;;;;;;;;;;;;;;;;;;;;;;;;;;;;;;;;;;;;;;;;;;;;;;;;;;;1,000000;0,489583;0,395833;0,394800;0,489583;0,354167;0,000000;0,000000;0,000000;0,302083;0,302083;0,302083;0,000000;0,000000;0,485359;0,364583;0,364583;0,489583;0,489583;0,864583;0,000000;0,864583;0,864583;0,364583;0,000000;0,000000;0,000000;0,489583;0,489583;0,489583;0,000000;0,000000;0,864583;0,000000;0,000000;0,000000;
54;;;;;;;;;;;;;;;;;;;;;;;;;;;;;;;;;;;;;;;;;;;;;;;;;;;;;;1,000000;0,458333;0,462018;1,000000;0,437500;0,000000;0,000000;0,000000;0,375000;0,375000;0,375000;0,000000;0,000000;0,503096;0,416667;0,416667;0,500000;0,500000;0,750000;0,000000;0,750000;0,750000;0,416667;0,000000;0,000000;0,000000;0,500000;0,500000;1,000000;0,000000;0,000000;0,750000;0,000000;0,000000;0,000000;
55;;;;;;;;;;;;;;;;;;;;;;;;;;;;;;;;;;;;;;;;;;;;;;;;;;;;;;;1,000000;0,618567;0,458333;0,583333;0,000000;0,000000;0,000000;0,270833;0,270833;0,270833;0,000000;0,000000;0,422859;0,333333;0,333333;0,458333;0,458333;0,833333;0,000000;0,833333;0,833333;0,333333;0,000000;0,000000;0,000000;0,458333;0,458333;0,458333;0,000000;0,000000;0,833333;0,000000;0,000000;0,000000;
56;;;;;;;;;;;;;;;;;;;;;;;;;;;;;;;;;;;;;;;;;;;;;;;;;;;;;;;;1,000000;0,462018;0,629209;0,369687;0,000000;0,000000;0,262018;0,262018;0,262018;0,316667;0,316667;0,425687;0,328684;0,328684;0,462018;0,462018;0,862018;0,000000;0,862018;0,862018;0,893631;0,000000;0,000000;0,000000;0,462018;0,462018;0,462018;0,000000;0,000000;0,862018;0,000000;0,000000;0,000000;
57;;;;;;;;;;;;;;;;;;;;;;;;;;;;;;;;;;;;;;;;;;;;;;;;;;;;;;;;;1,000000;0,437500;0,000000;0,000000;0,000000;0,375000;0,375000;0,375000;0,000000;0,000000;0,503096;0,416667;0,416667;0,500000;0,500000;0,750000;0,000000;0,750000;0,750000;0,416667;0,000000;0,000000;0,000000;0,500000;0,500000;1,000000;0,000000;0,000000;0,750000;0,000000;0,000000;0,000000;
58;;;;;;;;;;;;;;;;;;;;;;;;;;;;;;;;;;;;;;;;;;;;;;;;;;;;;;;;;;1,000000;0,666667;0,000000;0,000000;0,250000;0,250000;0,250000;0,685948;0,685948;0,381193;0,312500;0,312500;0,437500;0,437500;0,812500;0,807718;0,812500;0,812500;0,937500;0,000000;0,000000;0,000000;0,437500;0,437500;0,437500;0,504824;0,504824;0,812500;0,000000;0,000000;0,000000;
59;;;;;;;;;;;;;;;;;;;;;;;;;;;;;;;;;;;;;;;;;;;;;;;;;;;;;;;;;;;1,000000;0,000000;0,000000;0,000000;0,000000;0,000000;0,679464;0,679464;0,000000;0,000000;0,000000;0,000000;0,000000;0,000000;0,000000;0,000000;0,000000;0,000000;0,000000;0,000000;0,000000;0,000000;0,000000;0,000000;0,500000;0,500000;0,000000;0,000000;0,000000;0,000000;
60;;;;;;;;;;;;;;;;;;;;;;;;;;;;;;;;;;;;;;;;;;;;;;;;;;;;;;;;;;;;1,000000;0,500000;0,000000;0,000000;0,000000;0,000000;0,000000;0,000000;0,000000;0,000000;0,000000;0,000000;0,000000;0,000000;0,000000;0,000000;0,000000;0,416667;0,416667;0,416667;0,000000;0,000000;0,000000;0,000000;0,000000;0,000000;0,750000;0,500000;0,500000;
61;;;;;;;;;;;;;;;;;;;;;;;;;;;;;;;;;;;;;;;;;;;;;;;;;;;;;;;;;;;;;1,000000;0,000000;0,000000;0,000000;0,000000;0,000000;0,000000;0,000000;0,000000;0,000000;0,000000;0,000000;0,000000;0,000000;0,000000;0,000000;0,416667;0,416667;0,416667;0,000000;0,000000;0,000000;0,000000;0,000000;0,000000;0,750000;0,500000;0,500000;
62;;;;;;;;;;;;;;;;;;;;;;;;;;;;;;;;;;;;;;;;;;;;;;;;;;;;;;;;;;;;;;1,000000;0,750000;0,750000;0,000000;0,000000;0,315596;0,291667;0,291667;0,375000;0,375000;0,625000;0,000000;0,625000;0,625000;0,291667;0,000000;0,000000;0,000000;0,375000;0,375000;0,375000;0,000000;0,000000;0,625000;0,000000;0,000000;0,000000;
63;;;;;;;;;;;;;;;;;;;;;;;;;;;;;;;;;;;;;;;;;;;;;;;;;;;;;;;;;;;;;;;1,000000;0,750000;0,000000;0,000000;0,315596;0,291667;0,291667;0,375000;0,375000;0,625000;0,000000;0,625000;0,625000;0,291667;0,000000;0,000000;0,000000;0,375000;0,375000;0,375000;0,000000;0,000000;0,625000;0,000000;0,000000;0,000000;
64;;;;;;;;;;;;;;;;;;;;;;;;;;;;;;;;;;;;;;;;;;;;;;;;;;;;;;;;;;;;;;;;1,000000;0,000000;0,000000;0,315596;0,291667;0,291667;0,375000;0,375000;0,625000;0,000000;0,625000;0,625000;0,291667;0,000000;0,000000;0,000000;0,375000;0,375000;0,375000;0,000000;0,000000;0,625000;0,000000;0,000000;0,000000;
65;;;;;;;;;;;;;;;;;;;;;;;;;;;;;;;;;;;;;;;;;;;;;;;;;;;;;;;;;;;;;;;;;1,000000;0,666667;0,000000;0,000000;0,000000;0,000000;0,000000;0,000000;0,555556;0,000000;0,000000;0,000000;0,000000;0,000000;0,000000;0,000000;0,000000;0,000000;0,416667;0,416667;0,000000;0,000000;0,000000;0,000000;
66;;;;;;;;;;;;;;;;;;;;;;;;;;;;;;;;;;;;;;;;;;;;;;;;;;;;;;;;;;;;;;;;;;1,000000;0,000000;0,000000;0,000000;0,000000;0,000000;0,000000;0,555556;0,000000;0,000000;0,000000;0,000000;0,000000;0,000000;0,000000;0,000000;0,000000;0,416667;0,416667;0,000000;0,000000;0,000000;0,000000;
67;;;;;;;;;;;;;;;;;;;;;;;;;;;;;;;;;;;;;;;;;;;;;;;;;;;;;;;;;;;;;;;;;;;1,000000;0,666667;0,666667;0,503096;0,503096;0,878096;0,000000;0,878096;0,878096;0,378096;0,000000;0,000000;0,000000;0,503096;0,503096;0,503096;0,000000;0,000000;0,878096;0,000000;0,000000;0,000000;
68;;;;;;;;;;;;;;;;;;;;;;;;;;;;;;;;;;;;;;;;;;;;;;;;;;;;;;;;;;;;;;;;;;;;1,000000;0,666667;0,416667;0,416667;0,666667;0,000000;0,666667;0,666667;0,333333;0,000000;0,000000;0,000000;0,416667;0,416667;0,416667;0,000000;0,000000;0,666667;0,000000;0,000000;0,000000;
69;;;;;;;;;;;;;;;;;;;;;;;;;;;;;;;;;;;;;;;;;;;;;;;;;;;;;;;;;;;;;;;;;;;;;1,000000;0,416667;0,416667;0,666667;0,000000;0,666667;0,666667;0,333333;0,000000;0,000000;0,000000;0,416667;0,416667;0,416667;0,000000;0,000000;0,666667;0,000000;0,000000;0,000000;
70;;;;;;;;;;;;;;;;;;;;;;;;;;;;;;;;;;;;;;;;;;;;;;;;;;;;;;;;;;;;;;;;;;;;;;1,000000;0,500000;0,750000;0,000000;0,750000;0,750000;0,416667;0,000000;0,000000;0,000000;0,500000;0,500000;0,500000;0,000000;0,000000;0,750000;0,000000;0,000000;0,000000;
71;;;;;;;;;;;;;;;;;;;;;;;;;;;;;;;;;;;;;;;;;;;;;;;;;;;;;;;;;;;;;;;;;;;;;;;1,000000;0,750000;0,000000;0,750000;0,750000;0,416667;0,000000;0,000000;0,000000;0,500000;0,500000;0,500000;0,000000;0,000000;0,750000;0,000000;0,000000;0,000000;
72;;;;;;;;;;;;;;;;;;;;;;;;;;;;;;;;;;;;;;;;;;;;;;;;;;;;;;;;;;;;;;;;;;;;;;;;1,000000;0,000000;1,000000;1,000000;0,666667;0,000000;0,000000;0,000000;0,750000;0,750000;0,750000;0,000000;0,000000;1,000000;0,000000;0,000000;0,000000;
73;;;;;;;;;;;;;;;;;;;;;;;;;;;;;;;;;;;;;;;;;;;;;;;;;;;;;;;;;;;;;;;;;;;;;;;;;1,000000;0,000000;0,000000;0,000000;0,000000;0,000000;0,000000;0,000000;0,000000;0,000000;0,666667;0,666667;0,000000;0,000000;0,000000;0,000000;
74;;;;;;;;;;;;;;;;;;;;;;;;;;;;;;;;;;;;;;;;;;;;;;;;;;;;;;;;;;;;;;;;;;;;;;;;;;1,000000;1,000000;0,666667;0,000000;0,000000;0,000000;0,750000;0,750000;0,750000;0,000000;0,000000;1,000000;0,000000;0,000000;0,000000;
75;;;;;;;;;;;;;;;;;;;;;;;;;;;;;;;;;;;;;;;;;;;;;;;;;;;;;;;;;;;;;;;;;;;;;;;;;;;1,000000;0,666667;0,000000;0,000000;0,000000;0,750000;0,750000;0,750000;0,000000;0,000000;1,000000;0,000000;0,000000;0,000000;
76;;;;;;;;;;;;;;;;;;;;;;;;;;;;;;;;;;;;;;;;;;;;;;;;;;;;;;;;;;;;;;;;;;;;;;;;;;;;1,000000;0,000000;0,000000;0,000000;0,416667;0,416667;0,416667;0,000000;0,000000;0,666667;0,000000;0,000000;0,000000;
77;;;;;;;;;;;;;;;;;;;;;;;;;;;;;;;;;;;;;;;;;;;;;;;;;;;;;;;;;;;;;;;;;;;;;;;;;;;;;1,000000;0,666667;0,666667;0,000000;0,000000;0,000000;0,000000;0,000000;0,000000;0,666667;0,416667;0,416667;
78;;;;;;;;;;;;;;;;;;;;;;;;;;;;;;;;;;;;;;;;;;;;;;;;;;;;;;;;;;;;;;;;;;;;;;;;;;;;;;1,000000;0,666667;0,000000;0,000000;0,000000;0,000000;0,000000;0,000000;0,666667;0,416667;0,416667;
79;;;;;;;;;;;;;;;;;;;;;;;;;;;;;;;;;;;;;;;;;;;;;;;;;;;;;;;;;;;;;;;;;;;;;;;;;;;;;;;1,000000;0,000000;0,000000;0,000000;0,000000;0,000000;0,000000;0,666667;0,416667;0,416667;
80;;;;;;;;;;;;;;;;;;;;;;;;;;;;;;;;;;;;;;;;;;;;;;;;;;;;;;;;;;;;;;;;;;;;;;;;;;;;;;;;1,000000;0,500000;0,500000;0,000000;0,000000;0,750000;0,000000;0,000000;0,000000;
81;;;;;;;;;;;;;;;;;;;;;;;;;;;;;;;;;;;;;;;;;;;;;;;;;;;;;;;;;;;;;;;;;;;;;;;;;;;;;;;;;1,000000;0,500000;0,000000;0,000000;0,750000;0,000000;0,000000;0,000000;
82;;;;;;;;;;;;;;;;;;;;;;;;;;;;;;;;;;;;;;;;;;;;;;;;;;;;;;;;;;;;;;;;;;;;;;;;;;;;;;;;;;1,000000;0,000000;0,000000;0,750000;0,000000;0,000000;0,000000;
83;;;;;;;;;;;;;;;;;;;;;;;;;;;;;;;;;;;;;;;;;;;;;;;;;;;;;;;;;;;;;;;;;;;;;;;;;;;;;;;;;;;1,000000;0,500000;0,000000;0,000000;0,000000;0,000000;
84;;;;;;;;;;;;;;;;;;;;;;;;;;;;;;;;;;;;;;;;;;;;;;;;;;;;;;;;;;;;;;;;;;;;;;;;;;;;;;;;;;;;1,000000;0,000000;0,000000;0,000000;0,000000;
85;;;;;;;;;;;;;;;;;;;;;;;;;;;;;;;;;;;;;;;;;;;;;;;;;;;;;;;;;;;;;;;;;;;;;;;;;;;;;;;;;;;;;1,000000;0,000000;0,000000;0,000000;
86;;;;;;;;;;;;;;;;;;;;;;;;;;;;;;;;;;;;;;;;;;;;;;;;;;;;;;;;;;;;;;;;;;;;;;;;;;;;;;;;;;;;;;1,000000;0,750000;0,750000;
87;;;;;;;;;;;;;;;;;;;;;;;;;;;;;;;;;;;;;;;;;;;;;;;;;;;;;;;;;;;;;;;;;;;;;;;;;;;;;;;;;;;;;;;1,000000;0,500000;
88;;;;;;;;;;;;;;;;;;;;;;;;;;;;;;;;;;;;;;;;;;;;;;;;;;;;;;;;;;;;;;;;;;;;;;;;;;;;;;;;;;;;;;;;1,000000;
