;1; 2; 3; 4; 5; 6; 7; 8; 9; 10; 11; 12; 13; 14; 15; 16; 17; 18; 19; 20; 21; 22; 23; 24; 25; 26; 27; 28; 29; 30; 31; 32; 33; 34; 35; 36; 37; 38; 39; 40; 41; 42; 43; 44; 45; 46; 47; 48; 49; 50
1;1,000000;0,500000;0,500000;0,416667;0,505888;0,503959;0,473830;0,473830;0,388889;0,500000;0,493051;0,388889;0,500000;0,416667;0,416667;0,451930;0,455689;0,388889;0,388889;0,388889;0,600000;0,436696;0,388889;0,833333;0,433333;0,503096;0,433333;0,500000;0,375000;0,375000;0,375000;0,375000;0,509648;0,388889;0,500000;0,394285;0,388889;0,500000;0,500000;0,500000;0,453017;0,416667;0,416667;0,833333;0,500000;0,500000;0,388889;0,333333;0,333333;0,833333;
2;;1,000000;0,500000;0,416667;0,505888;0,503959;0,473830;0,473830;0,388889;0,500000;0,493051;0,388889;0,500000;0,416667;0,416667;0,451930;0,455689;0,388889;0,388889;0,388889;0,600000;0,436696;0,388889;0,833333;0,433333;0,503096;0,433333;0,500000;0,375000;0,375000;0,375000;0,375000;0,509648;0,388889;0,500000;0,394285;0,388889;0,500000;0,500000;0,500000;0,453017;0,416667;0,416667;0,833333;0,500000;0,500000;0,388889;0,333333;0,333333;0,833333;
3;;;1,000000;0,666200;0,610737;0,603493;0,575853;0,575853;0,669263;0,500793;0,677991;0,665388;0,503018;0,665411;0,665411;0,621307;0,664296;0,665456;0,665456;0,664664;0,500000;0,684712;0,663283;0,000000;0,664476;0,577309;0,663963;0,503846;0,750000;0,750000;0,750000;0,750000;0,663137;0,664518;0,500314;0,707195;0,664664;0,500000;0,500000;0,500381;0,591022;0,662715;0,662715;0,000000;0,500000;0,500000;0,664069;0,746533;0,746533;0,000000;
4;;;;1,000000;0,666902;0,664234;0,373830;0,373830;0,333333;0,888889;0,955400;0,666667;0,761905;0,666667;0,666667;0,351930;0,330689;0,666667;0,666667;0,333333;0,488889;0,576544;0,333333;0,777778;0,580743;0,378096;0,333333;0,444444;0,291667;0,291667;0,291667;0,291667;0,709927;0,666667;0,416667;0,310952;0,333333;0,444444;0,444444;0,713931;0,369684;0,333333;0,333333;0,777778;0,444444;0,444444;0,333333;0,277778;0,277778;0,777778;
5;;;;;1,000000;0,681274;0,451926;0,451926;0,344758;0,503091;0,593835;0,988034;0,931070;0,661912;0,661912;0,404642;0,476194;0,666790;0,666790;0,344758;0,758578;0,582315;0,344758;0,978091;0,473540;0,648170;0,568893;0,503091;0,279697;0,279697;0,279697;0,279697;0,735268;0,666790;0,505888;0,584036;0,344758;0,503091;0,503091;0,752428;0,420872;0,665036;0,665036;0,978091;0,503091;0,503091;0,344758;0,507477;0,507477;0,978091;
6;;;;;;1,000000;0,447833;0,447833;0,342340;0,984844;0,647583;0,664519;0,508837;0,664234;0,664234;0,399400;0,553363;0,662719;0,662719;0,342340;0,762887;0,559765;0,662717;0,981229;0,473136;0,520062;0,358274;0,502062;0,273959;0,273959;0,273959;0,273959;0,743834;0,662717;0,503959;0,847367;0,342340;0,502062;0,502062;0,503959;0,642023;0,662543;0,662543;0,981229;0,502062;0,502062;0,342340;0,504797;0,504797;0,981229;
7;;;;;;;1,000000;0,571273;0,717287;0,483644;0,436309;0,358644;0,459109;0,373830;0,373830;0,407199;0,397301;0,358644;0,358644;0,358644;0,591185;0,381223;0,358644;0,858644;0,383954;0,460511;0,383954;0,483644;0,323830;0,323830;0,323830;0,323830;0,485407;0,358644;0,473830;0,346972;0,358644;0,483644;0,483644;0,473830;0,417450;0,373830;0,373830;0,858644;0,483644;0,483644;0,358644;0,296144;0,296144;0,858644;
8;;;;;;;;1,000000;0,717287;0,483644;0,436309;0,358644;0,459109;0,373830;0,373830;0,407199;0,397301;0,358644;0,358644;0,358644;0,591185;0,381223;0,358644;0,858644;0,383954;0,460511;0,383954;0,483644;0,323830;0,323830;0,323830;0,323830;0,485407;0,358644;0,473830;0,346972;0,358644;0,483644;0,483644;0,473830;0,417450;0,373830;0,373830;0,858644;0,483644;0,483644;0,358644;0,296144;0,296144;0,858644;
9;;;;;;;;;1,000000;0,416667;0,340738;0,333333;0,361111;0,333333;0,333333;0,344956;0,331822;0,333333;0,333333;0,333333;0,426667;0,328684;0,333333;0,666667;0,333333;0,358912;0,333333;0,416667;0,305556;0,305556;0,305556;0,305556;0,395321;0,333333;0,388889;0,318412;0,333333;0,416667;0,416667;0,388889;0,357567;0,333333;0,333333;0,666667;0,416667;0,416667;0,333333;0,291667;0,291667;0,666667;
10;;;;;;;;;;1,000000;0,969700;0,416667;0,500000;0,888889;0,888889;0,469956;0,474679;0,416667;0,416667;0,416667;0,560000;0,462018;0,416667;0,750000;0,862965;0,501769;0,458333;0,500000;0,416667;0,416667;0,416667;0,416667;0,917729;0,416667;0,500000;0,429523;0,416667;0,500000;0,500000;0,500000;0,468678;0,444444;0,444444;0,750000;0,500000;0,500000;0,416667;0,375000;0,375000;0,750000;
11;;;;;;;;;;;1,000000;0,658112;0,878513;0,651521;0,651521;0,713317;0,598020;0,658112;0,658112;0,655363;0,720979;0,681403;0,970596;0,962960;0,468384;0,491992;0,352934;0,496294;0,274301;0,274301;0,274301;0,274301;0,727228;0,972869;0,493051;0,693797;0,655363;0,496294;0,496294;0,733339;0,410831;0,646985;0,646985;0,962960;0,496294;0,496294;0,340738;0,735250;0,735250;0,962960;
12;;;;;;;;;;;;1,000000;0,722222;0,333333;0,333333;0,344956;0,631636;0,666667;0,666667;0,333333;0,426667;0,908953;0,333333;0,666667;0,333333;0,358912;0,333333;0,416667;0,305556;0,305556;0,305556;0,305556;0,395321;0,666667;0,388889;0,636825;0,333333;0,416667;0,416667;0,698176;0,357567;0,666667;0,666667;0,666667;0,416667;0,416667;0,333333;0,583333;0,583333;0,666667;
13;;;;;;;;;;;;;1,000000;0,380952;0,380952;0,424890;0,419434;0,722222;0,722222;0,361111;0,666667;0,664610;0,361111;0,916667;0,395833;0,505630;0,395833;0,500000;0,321429;0,321429;0,321429;0,321429;0,513782;0,722222;0,500000;0,348979;0,361111;0,500000;0,500000;0,829425;0,432882;0,380952;0,380952;0,916667;0,500000;0,500000;0,361111;0,291667;0,291667;0,916667;
14;;;;;;;;;;;;;;1,000000;0,666667;0,351930;0,330689;0,333333;0,333333;0,333333;0,488889;0,325585;0,333333;0,777778;0,580743;0,378096;0,333333;0,444444;0,291667;0,291667;0,291667;0,291667;0,709927;0,333333;0,416667;0,310952;0,333333;0,444444;0,444444;0,416667;0,369684;0,333333;0,333333;0,777778;0,444444;0,444444;0,333333;0,277778;0,277778;0,777778;
15;;;;;;;;;;;;;;;1,000000;0,351930;0,330689;0,333333;0,333333;0,333333;0,488889;0,325585;0,333333;0,777778;0,580743;0,378096;0,333333;0,444444;0,291667;0,291667;0,291667;0,291667;0,709927;0,333333;0,416667;0,310952;0,333333;0,444444;0,444444;0,416667;0,369684;0,333333;0,333333;0,777778;0,444444;0,444444;0,333333;0,277778;0,277778;0,777778;
16;;;;;;;;;;;;;;;;1,000000;0,564443;0,344956;0,344956;0,689912;0,559899;0,634604;0,689912;0,844956;0,356579;0,424011;0,356579;0,469956;0,301930;0,301930;0,301930;0,301930;0,463507;0,344956;0,451930;0,560809;0,689912;0,469956;0,469956;0,451930;0,395550;0,351930;0,351930;0,844956;0,469956;0,469956;0,344956;0,564912;0,564912;0,844956;
17;;;;;;;;;;;;;;;;;1,000000;0,331822;0,331822;0,644632;0,609102;0,636829;0,633221;0,903251;0,329807;0,417570;0,329807;0,474679;0,268189;0,268189;0,268189;0,268189;0,470160;0,633221;0,455689;0,782207;0,644632;0,474679;0,474679;0,455689;0,385215;0,605363;0,605363;0,903251;0,474679;0,474679;0,331822;0,711095;0,711095;0,903251;
18;;;;;;;;;;;;;;;;;;1,000000;0,666667;0,333333;0,426667;0,612593;0,333333;0,666667;0,333333;0,358912;0,333333;0,416667;0,305556;0,305556;0,305556;0,305556;0,395321;0,666667;0,388889;0,318412;0,333333;0,416667;0,416667;0,698176;0,357567;0,333333;0,333333;0,666667;0,416667;0,416667;0,333333;0,291667;0,291667;0,666667;
19;;;;;;;;;;;;;;;;;;;1,000000;0,333333;0,426667;0,612593;0,333333;0,666667;0,333333;0,358912;0,333333;0,416667;0,305556;0,305556;0,305556;0,305556;0,395321;0,666667;0,388889;0,318412;0,333333;0,416667;0,416667;0,698176;0,357567;0,333333;0,333333;0,666667;0,416667;0,416667;0,333333;0,291667;0,291667;0,666667;
20;;;;;;;;;;;;;;;;;;;;1,000000;0,426667;0,626909;0,666667;0,666667;0,333333;0,358912;0,333333;0,416667;0,305556;0,305556;0,305556;0,305556;0,395321;0,333333;0,388889;0,587195;1,000000;0,416667;0,416667;0,388889;0,357567;0,333333;0,333333;0,666667;0,416667;0,416667;0,333333;0,583333;0,583333;0,666667;
21;;;;;;;;;;;;;;;;;;;;;1,000000;0,555044;0,426667;0,960000;0,533333;0,684954;0,533333;0,560000;0,433333;0,433333;0,433333;0,433333;0,612864;0,426667;0,600000;0,459047;0,426667;0,560000;0,560000;0,600000;0,537357;0,488889;0,488889;0,960000;0,560000;0,560000;0,426667;0,360000;0,360000;0,960000;
22;;;;;;;;;;;;;;;;;;;;;;1,000000;0,626909;0,862018;0,323371;0,391007;0,323371;0,462018;0,270029;0,270029;0,270029;0,270029;0,449560;0,612593;0,436696;0,682102;0,626909;0,462018;0,462018;0,639563;0,374053;0,599989;0,599989;0,862018;0,462018;0,462018;0,328684;0,724039;0,724039;0,862018;
23;;;;;;;;;;;;;;;;;;;;;;;1,000000;0,666667;0,333333;0,358912;0,333333;0,416667;0,305556;0,305556;0,305556;0,305556;0,395321;0,666667;0,388889;0,904354;0,666667;0,416667;0,416667;0,388889;0,357567;0,333333;0,333333;0,666667;0,416667;0,416667;0,333333;0,583333;0,583333;0,666667;
24;;;;;;;;;;;;;;;;;;;;;;;;1,000000;0,833333;0,930341;0,833333;0,750000;0,750000;0,750000;0,750000;0,750000;0,839765;0,666667;0,833333;0,762857;0,666667;0,750000;0,750000;0,833333;0,802012;0,777778;0,777778;1,000000;0,750000;0,750000;0,666667;0,625000;0,625000;1,000000;
25;;;;;;;;;;;;;;;;;;;;;;;;;1,000000;0,599304;0,565033;0,458333;0,283333;0,283333;0,283333;0,283333;0,632656;0,333333;0,826013;0,306475;0,333333;0,458333;0,458333;0,433333;0,586018;0,333333;0,333333;0,833333;0,458333;0,458333;0,641406;0,270833;0,270833;0,833333;
26;;;;;;;;;;;;;;;;;;;;;;;;;;1,000000;0,599304;0,501769;0,315596;0,315596;0,315596;0,315596;0,729618;0,358912;0,503096;0,344524;0,358912;0,501769;0,501769;0,503096;0,616378;0,378096;0,378096;0,930341;0,501769;0,501769;0,666667;0,287484;0,287484;0,930341;
27;;;;;;;;;;;;;;;;;;;;;;;;;;;1,000000;0,458333;0,283333;0,283333;0,283333;0,283333;0,676611;0,333333;0,826013;0,306475;0,333333;0,458333;0,458333;0,642729;0,542084;0,333333;0,333333;0,833333;0,458333;0,458333;0,613803;0,270833;0,270833;0,833333;
28;;;;;;;;;;;;;;;;;;;;;;;;;;;;1,000000;0,416667;0,416667;0,416667;0,416667;0,506432;0,416667;0,500000;0,429523;0,416667;0,500000;0,500000;0,500000;0,468678;0,444444;0,444444;0,750000;0,500000;0,500000;0,416667;0,375000;0,375000;0,750000;
29;;;;;;;;;;;;;;;;;;;;;;;;;;;;;1,000000;0,750000;0,750000;0,750000;0,384648;0,305556;0,375000;0,269285;0,305556;0,416667;0,416667;0,375000;0,328017;0,291667;0,291667;0,750000;0,416667;0,416667;0,305556;0,250000;0,250000;0,750000;
30;;;;;;;;;;;;;;;;;;;;;;;;;;;;;;1,000000;0,750000;0,750000;0,384648;0,305556;0,375000;0,269285;0,305556;0,416667;0,416667;0,375000;0,328017;0,291667;0,291667;0,750000;0,416667;0,416667;0,305556;0,250000;0,250000;0,750000;
31;;;;;;;;;;;;;;;;;;;;;;;;;;;;;;;1,000000;0,750000;0,384648;0,305556;0,375000;0,269285;0,305556;0,416667;0,416667;0,375000;0,328017;0,291667;0,291667;0,750000;0,416667;0,416667;0,305556;0,250000;0,250000;0,750000;
32;;;;;;;;;;;;;;;;;;;;;;;;;;;;;;;;1,000000;0,384648;0,305556;0,375000;0,269285;0,305556;0,416667;0,416667;0,375000;0,328017;0,291667;0,291667;0,750000;0,416667;0,416667;0,305556;0,250000;0,250000;0,750000;
33;;;;;;;;;;;;;;;;;;;;;;;;;;;;;;;;;1,000000;0,395321;0,509648;0,403933;0,395321;0,506432;0,506432;0,509648;0,462665;0,426314;0,426314;0,839765;0,506432;0,506432;0,395321;0,339765;0,339765;0,839765;
34;;;;;;;;;;;;;;;;;;;;;;;;;;;;;;;;;;1,000000;0,388889;0,636825;0,333333;0,416667;0,416667;0,698176;0,357567;0,333333;0,333333;0,666667;0,416667;0,416667;0,333333;0,291667;0,291667;0,666667;
35;;;;;;;;;;;;;;;;;;;;;;;;;;;;;;;;;;;1,000000;0,394285;0,388889;0,500000;0,500000;0,500000;0,453017;0,416667;0,416667;0,833333;0,500000;0,500000;0,388889;0,333333;0,333333;0,833333;
36;;;;;;;;;;;;;;;;;;;;;;;;;;;;;;;;;;;;1,000000;0,587195;0,429523;0,429523;0,394285;0,347303;0,621904;0,621904;0,762857;0,429523;0,429523;0,318412;0,737685;0,737685;0,762857;
37;;;;;;;;;;;;;;;;;;;;;;;;;;;;;;;;;;;;;1,000000;0,416667;0,416667;0,388889;0,357567;0,333333;0,333333;0,666667;0,416667;0,416667;0,333333;0,583333;0,583333;0,666667;
38;;;;;;;;;;;;;;;;;;;;;;;;;;;;;;;;;;;;;;1,000000;0,500000;0,500000;0,468678;0,444444;0,444444;0,750000;0,500000;0,500000;0,416667;0,375000;0,375000;0,750000;
39;;;;;;;;;;;;;;;;;;;;;;;;;;;;;;;;;;;;;;;1,000000;0,500000;0,468678;0,444444;0,444444;0,750000;0,500000;0,500000;0,416667;0,375000;0,375000;0,750000;
40;;;;;;;;;;;;;;;;;;;;;;;;;;;;;;;;;;;;;;;;1,000000;0,453017;0,416667;0,416667;0,833333;0,500000;0,500000;0,700358;0,333333;0,333333;0,833333;
41;;;;;;;;;;;;;;;;;;;;;;;;;;;;;;;;;;;;;;;;;1,000000;0,369684;0,369684;0,802012;0,468678;0,468678;0,644316;0,302012;0,302012;0,802012;
42;;;;;;;;;;;;;;;;;;;;;;;;;;;;;;;;;;;;;;;;;;1,000000;0,666667;0,777778;0,444444;0,444444;0,333333;0,555556;0,555556;0,777778;
43;;;;;;;;;;;;;;;;;;;;;;;;;;;;;;;;;;;;;;;;;;;1,000000;0,777778;0,444444;0,444444;0,333333;0,555556;0,555556;0,777778;
44;;;;;;;;;;;;;;;;;;;;;;;;;;;;;;;;;;;;;;;;;;;;1,000000;0,750000;0,750000;0,666667;0,625000;0,625000;1,000000;
45;;;;;;;;;;;;;;;;;;;;;;;;;;;;;;;;;;;;;;;;;;;;;1,000000;0,500000;0,416667;0,375000;0,375000;0,750000;
46;;;;;;;;;;;;;;;;;;;;;;;;;;;;;;;;;;;;;;;;;;;;;;1,000000;0,416667;0,375000;0,375000;0,750000;
47;;;;;;;;;;;;;;;;;;;;;;;;;;;;;;;;;;;;;;;;;;;;;;;1,000000;0,291667;0,291667;0,666667;
48;;;;;;;;;;;;;;;;;;;;;;;;;;;;;;;;;;;;;;;;;;;;;;;;1,000000;0,750000;0,625000;
49;;;;;;;;;;;;;;;;;;;;;;;;;;;;;;;;;;;;;;;;;;;;;;;;;1,000000;0,625000;
50;;;;;;;;;;;;;;;;;;;;;;;;;;;;;;;;;;;;;;;;;;;;;;;;;;1,000000;
