;1; 2; 3; 4; 5; 6; 7; 8; 9; 10; 11; 12; 13; 14; 15; 16; 17; 18; 19; 20; 21; 22; 23; 24; 25; 26; 27; 28; 29; 30; 31; 32; 33; 34; 35; 36; 37; 38; 39; 40; 41; 42; 43; 44; 45; 46; 47; 48; 49; 50
1;1,000000;0,161823;0,208722;0,163405;0,260728;0,262338;0,212998;0,213511;0,179710;0,242136;0,232662;0,185436;0,251410;0,189079;0,189859;0,218482;0,195838;0,195423;0,196021;0,200994;0,447069;0,193395;0,204753;0,580912;0,207502;0,287389;0,212290;0,283987;0,177631;0,177838;0,178047;0,178255;0,282292;0,207295;0,290624;0,189702;0,210454;0,297362;0,297362;0,290066;0,249990;0,215534;0,215778;0,580912;0,302006;0,302006;0,220070;0,180860;0,181074;0,580912;
2;;1,000000;0,226901;0,163405;0,260728;0,262338;0,212998;0,213511;0,179710;0,242136;0,232662;0,185436;0,251410;0,189079;0,189859;0,218482;0,195838;0,195423;0,196021;0,200994;0,447069;0,193395;0,204753;0,580912;0,207502;0,287389;0,212290;0,283987;0,177631;0,177838;0,178047;0,178255;0,282292;0,207295;0,290624;0,189702;0,210454;0,297362;0,297362;0,290066;0,249990;0,215534;0,215778;0,580912;0,302006;0,302006;0,220070;0,180860;0,181074;0,580912;
3;;;1,000000;0,342144;0,328675;0,350700;0,297972;0,302956;0,347198;0,232288;0,450352;0,366528;0,243344;0,373752;0,376050;0,352759;0,443057;0,409012;0,410591;0,357711;0,188619;0,481675;0,353463;0,000000;0,428072;0,311216;0,400651;0,314847;0,414101;0,414836;0,415538;0,416212;0,309240;0,392495;0,283858;0,415818;0,375280;0,370541;0,371180;0,336461;0,384613;0,393255;0,393850;0,000000;0,374615;0,375130;0,393667;0,449477;0,449877;0,000000;
4;;;;1,000000;0,482774;0,482441;0,214580;0,215093;0,181292;0,743145;0,761393;0,512223;0,733959;0,533443;0,533443;0,220064;0,197420;0,529478;0,529478;0,202576;0,448651;0,386046;0,206335;0,582493;0,431558;0,288971;0,213872;0,285569;0,179213;0,179420;0,179628;0,179837;0,595341;0,542468;0,292206;0,191284;0,212035;0,298944;0,298944;0,592359;0,251572;0,217116;0,217360;0,582493;0,303588;0,303588;0,221652;0,182442;0,182656;0,582493;
5;;;;;1,000000;0,534873;0,311903;0,312416;0,278615;0,341040;0,451755;0,803929;0,748816;0,534888;0,537168;0,317387;0,398890;0,544335;0,544335;0,299899;0,545974;0,541678;0,303658;0,679816;0,418799;0,516417;0,475407;0,382892;0,276536;0,276743;0,276951;0,277160;0,555982;0,557325;0,389528;0,490753;0,309358;0,396267;0,396267;0,607216;0,348895;0,551352;0,551352;0,679816;0,400910;0,400910;0,318975;0,464810;0,465048;0,679816;
6;;;;;;1,000000;0,313513;0,314026;0,280225;0,739296;0,545810;0,492851;0,351925;0,529595;0,529595;0,318997;0,471111;0,551940;0,553348;0,301509;0,547584;0,500086;0,515259;0,681426;0,427710;0,387904;0,312804;0,384502;0,278146;0,278353;0,278561;0,278770;0,591493;0,515259;0,391138;0,660097;0,310968;0,397877;0,397877;0,390581;0,521032;0,544361;0,544361;0,681426;0,402520;0,402520;0,320585;0,457819;0,458057;0,681426;
7;;;;;;;1,000000;0,494873;0,713912;0,293311;0,283837;0,236611;0,302585;0,240254;0,241034;0,269657;0,247013;0,246598;0,247196;0,252169;0,498244;0,244570;0,255928;0,632087;0,258677;0,338564;0,263465;0,335162;0,228806;0,229013;0,229222;0,229430;0,333467;0,258470;0,341799;0,240877;0,261629;0,348537;0,348537;0,341241;0,301165;0,266709;0,266953;0,632087;0,353181;0,353181;0,271245;0,232035;0,232249;0,632087;
8;;;;;;;;1,000000;0,718060;0,293823;0,284350;0,237124;0,303098;0,240767;0,241547;0,270170;0,247526;0,247110;0,247709;0,252682;0,498757;0,245083;0,256441;0,632599;0,259190;0,339077;0,263977;0,335675;0,229319;0,229526;0,229734;0,229943;0,333979;0,258983;0,342311;0,241390;0,262141;0,349050;0,349050;0,341754;0,301678;0,267222;0,267466;0,632599;0,353693;0,353693;0,271758;0,232548;0,232762;0,632599;
9;;;;;;;;;1,000000;0,260022;0,250549;0,203323;0,269297;0,206966;0,207746;0,236369;0,213725;0,213309;0,213908;0,218881;0,464956;0,211282;0,222640;0,598798;0,225389;0,305276;0,230176;0,301874;0,195518;0,195725;0,195933;0,196142;0,300178;0,225182;0,308510;0,207589;0,228340;0,315249;0,315249;0,307953;0,267877;0,233421;0,233665;0,598798;0,319893;0,319893;0,237957;0,198747;0,198961;0,598798;
10;;;;;;;;;;1,000000;0,704801;0,265749;0,331722;0,790298;0,790298;0,298795;0,276150;0,275735;0,276334;0,281307;0,527381;0,273708;0,285066;0,661224;0,688413;0,367702;0,292602;0,364300;0,257944;0,258151;0,258359;0,258568;0,852196;0,287608;0,370936;0,270014;0,290766;0,377675;0,377675;0,370378;0,330303;0,295847;0,296091;0,661224;0,382318;0,382318;0,300383;0,261173;0,261387;0,661224;
11;;;;;;;;;;;1,000000;0,481204;0,702940;0,495100;0,495100;0,545835;0,556268;0,498459;0,498459;0,495612;0,517908;0,617577;0,723761;0,651751;0,393215;0,358228;0,283129;0,354827;0,248471;0,248678;0,248886;0,249095;0,556998;0,741383;0,361463;0,576162;0,507561;0,368202;0,368202;0,561340;0,320829;0,542404;0,542954;0,651751;0,372845;0,372845;0,290910;0,606287;0,606651;0,651751;
12;;;;;;;;;;;;1,000000;0,778264;0,212692;0,213472;0,242096;0,444053;0,573784;0,573784;0,224607;0,470682;0,737748;0,228367;0,604525;0,231115;0,311002;0,235903;0,307601;0,201245;0,201452;0,201660;0,201869;0,305905;0,586773;0,314237;0,535916;0,234067;0,320976;0,320976;0,636664;0,273604;0,596515;0,596515;0,604525;0,325619;0,325619;0,243684;0,509973;0,510211;0,604525;
13;;;;;;;;;;;;;1,000000;0,278666;0,279446;0,308069;0,285425;0,795519;0,795519;0,290581;0,536656;0,652088;0,294340;0,670498;0,297089;0,376976;0,301876;0,373574;0,267218;0,267425;0,267633;0,267842;0,371878;0,808509;0,380210;0,279289;0,300040;0,386949;0,386949;0,858400;0,339577;0,305121;0,305365;0,670498;0,391593;0,391593;0,309657;0,270447;0,270661;0,670498;
14;;;;;;;;;;;;;;1,000000;0,580597;0,245738;0,223093;0,222678;0,223277;0,228250;0,474325;0,220651;0,232009;0,608167;0,478712;0,314645;0,239545;0,311243;0,204887;0,205094;0,205302;0,205511;0,642495;0,234551;0,317879;0,216958;0,237709;0,324618;0,324618;0,317322;0,277246;0,242790;0,243034;0,608167;0,329261;0,329261;0,247326;0,208116;0,208330;0,608167;
15;;;;;;;;;;;;;;;1,000000;0,246518;0,223873;0,223458;0,224057;0,229030;0,475105;0,221431;0,232789;0,608947;0,478712;0,315425;0,240325;0,312023;0,205667;0,205874;0,206082;0,206291;0,642495;0,235331;0,318659;0,217738;0,238489;0,325398;0,325398;0,318102;0,278026;0,243570;0,243814;0,608947;0,330041;0,330041;0,248106;0,208896;0,209110;0,608947;
16;;;;;;;;;;;;;;;;1,000000;0,538183;0,252082;0,252680;0,667798;0,503728;0,559225;0,674879;0,637571;0,264161;0,344048;0,268949;0,340647;0,234291;0,234498;0,234706;0,234915;0,338951;0,263955;0,347283;0,550167;0,679747;0,354021;0,354021;0,346725;0,306649;0,272193;0,272437;0,637571;0,358665;0,358665;0,276730;0,605403;0,605675;0,637571;
17;;;;;;;;;;;;;;;;;1,000000;0,229437;0,230036;0,551773;0,481083;0,600626;0,499355;0,614926;0,241516;0,321404;0,246304;0,318002;0,211646;0,211853;0,212061;0,212270;0,316306;0,499355;0,324638;0,662380;0,562770;0,331377;0,331377;0,324081;0,284005;0,495563;0,495563;0,614926;0,336020;0,336020;0,254085;0,608265;0,608609;0,614926;
18;;;;;;;;;;;;;;;;;;1,000000;0,591038;0,234594;0,480668;0,447607;0,238353;0,614511;0,241101;0,320989;0,245889;0,317587;0,211231;0,211438;0,211646;0,211855;0,315891;0,604028;0,324223;0,223301;0,244053;0,330962;0,330962;0,653919;0,283590;0,249134;0,249378;0,614511;0,335605;0,335605;0,253670;0,214460;0,214674;0,614511;
19;;;;;;;;;;;;;;;;;;;1,000000;0,235192;0,481267;0,447607;0,238951;0,615110;0,241700;0,321587;0,246488;0,318186;0,211829;0,212037;0,212245;0,212453;0,316490;0,604028;0,324822;0,223900;0,244652;0,331560;0,331560;0,653919;0,284188;0,249732;0,249976;0,615110;0,336204;0,336204;0,254269;0,215058;0,215272;0,615110;
20;;;;;;;;;;;;;;;;;;;;1,000000;0,486240;0,509002;0,624656;0,620083;0,246673;0,326560;0,251461;0,323159;0,216802;0,217009;0,217218;0,217426;0,321463;0,246466;0,329795;0,499943;1,000000;0,336533;0,336533;0,329237;0,289161;0,254705;0,254949;0,620083;0,341177;0,341177;0,259241;0,555180;0,555451;0,620083;
21;;;;;;;;;;;;;;;;;;;;;1,000000;0,478641;0,489999;0,866157;0,492747;0,572635;0,497535;0,569233;0,462877;0,463084;0,463292;0,463501;0,567537;0,492541;0,575869;0,474948;0,495699;0,582608;0,582608;0,575312;0,535236;0,500780;0,501024;0,866157;0,587251;0,587251;0,505316;0,466106;0,466320;0,866157;
22;;;;;;;;;;;;;;;;;;;;;;1,000000;0,516083;0,612484;0,239074;0,318961;0,243862;0,315560;0,209204;0,209411;0,209619;0,209828;0,313864;0,460597;0,322196;0,630851;0,520951;0,328935;0,328935;0,510488;0,281563;0,518783;0,518783;0,612484;0,333578;0,333578;0,251643;0,664750;0,664750;0,612484;
23;;;;;;;;;;;;;;;;;;;;;;;1,000000;0,623842;0,250432;0,330319;0,255220;0,326918;0,220562;0,220769;0,220977;0,221186;0,325222;0,640351;0,333554;0,852400;0,636604;0,340292;0,340292;0,332996;0,292920;0,258464;0,258708;0,623842;0,344936;0,344936;0,263001;0,562261;0,562532;0,623842;
24;;;;;;;;;;;;;;;;;;;;;;;;1,000000;0,626590;0,706478;0,631378;0,703076;0,596720;0,596927;0,597135;0,597344;0,701380;0,626384;0,709712;0,608791;0,629542;0,716451;0,716451;0,709154;0,669079;0,634623;0,634867;1,000000;0,721094;0,721094;0,639159;0,599949;0,600163;1,000000;
25;;;;;;;;;;;;;;;;;;;;;;;;;1,000000;0,587260;0,533716;0,329666;0,223310;0,223517;0,223725;0,223934;0,540610;0,252974;0,762490;0,235381;0,256132;0,343041;0,343041;0,335745;0,572432;0,261213;0,261457;0,626590;0,347684;0,347684;0,618874;0,226539;0,226753;0,626590;
26;;;;;;;;;;;;;;;;;;;;;;;;;;1,000000;0,597137;0,409553;0,303197;0,303404;0,303613;0,303821;0,677712;0,332861;0,416190;0,315268;0,336020;0,422928;0,422928;0,415632;0,622172;0,341100;0,341344;0,706478;0,427572;0,427572;0,668614;0,306426;0,306640;0,706478;
27;;;;;;;;;;;;;;;;;;;;;;;;;;;1,000000;0,334454;0,228098;0,228305;0,228513;0,228722;0,636702;0,257762;0,771226;0,240169;0,260920;0,347829;0,347829;0,593414;0,563644;0,266001;0,266245;0,631378;0,352472;0,352472;0,580243;0,231327;0,231541;0,631378;
28;;;;;;;;;;;;;;;;;;;;;;;;;;;;1,000000;0,299796;0,300003;0,300211;0,300420;0,404456;0,329460;0,412788;0,311866;0,332618;0,419527;0,419527;0,412230;0,372155;0,337699;0,337943;0,703076;0,424170;0,424170;0,342235;0,303025;0,303239;0,703076;
29;;;;;;;;;;;;;;;;;;;;;;;;;;;;;1,000000;0,785311;0,786003;0,786680;0,298100;0,223104;0,306432;0,205510;0,226262;0,313171;0,313171;0,305874;0,265799;0,231343;0,231586;0,596720;0,317814;0,317814;0,235879;0,196668;0,196883;0,596720;
30;;;;;;;;;;;;;;;;;;;;;;;;;;;;;;1,000000;0,786680;0,787342;0,298307;0,223311;0,306639;0,205717;0,226469;0,313378;0,313378;0,306081;0,266006;0,231550;0,231794;0,596927;0,318021;0,318021;0,236086;0,196875;0,197090;0,596927;
31;;;;;;;;;;;;;;;;;;;;;;;;;;;;;;;1,000000;0,787989;0,298515;0,223519;0,306847;0,205926;0,226677;0,313586;0,313586;0,306289;0,266214;0,231758;0,232002;0,597135;0,318229;0,318229;0,236294;0,197084;0,197298;0,597135;
32;;;;;;;;;;;;;;;;;;;;;;;;;;;;;;;;1,000000;0,298724;0,223728;0,307056;0,206134;0,226886;0,313795;0,313795;0,306498;0,266423;0,231967;0,232210;0,597344;0,318438;0,318438;0,236503;0,197292;0,197507;0,597344;
33;;;;;;;;;;;;;;;;;;;;;;;;;;;;;;;;;1,000000;0,327764;0,411092;0,310171;0,330922;0,417831;0,417831;0,410534;0,370459;0,336003;0,336247;0,701380;0,422474;0,422474;0,340539;0,301329;0,301543;0,701380;
34;;;;;;;;;;;;;;;;;;;;;;;;;;;;;;;;;;1,000000;0,336096;0,598102;0,255926;0,342835;0,342835;0,666909;0,295463;0,261007;0,261250;0,626384;0,347478;0,347478;0,265543;0,226332;0,226547;0,626384;
35;;;;;;;;;;;;;;;;;;;;;;;;;;;;;;;;;;;1,000000;0,318503;0,339254;0,426163;0,426163;0,418866;0,378791;0,344335;0,344579;0,709712;0,430806;0,430806;0,348871;0,309661;0,309875;0,709712;
36;;;;;;;;;;;;;;;;;;;;;;;;;;;;;;;;;;;;1,000000;0,511892;0,325241;0,325241;0,317945;0,277869;0,587426;0,587426;0,608791;0,329885;0,329885;0,247949;0,725338;0,725338;0,608791;
37;;;;;;;;;;;;;;;;;;;;;;;;;;;;;;;;;;;;;1,000000;0,345993;0,345993;0,338696;0,298621;0,264165;0,264409;0,629542;0,350636;0,350636;0,268701;0,567129;0,567400;0,629542;
38;;;;;;;;;;;;;;;;;;;;;;;;;;;;;;;;;;;;;;1,000000;0,432902;0,425605;0,385529;0,351074;0,351317;0,716451;0,437545;0,437545;0,355610;0,316399;0,316614;0,716451;
39;;;;;;;;;;;;;;;;;;;;;;;;;;;;;;;;;;;;;;;1,000000;0,425605;0,385529;0,351074;0,351317;0,716451;0,437545;0,437545;0,355610;0,316399;0,316614;0,716451;
40;;;;;;;;;;;;;;;;;;;;;;;;;;;;;;;;;;;;;;;;1,000000;0,378233;0,343777;0,344021;0,709154;0,430248;0,430248;0,737355;0,309103;0,309317;0,709154;
41;;;;;;;;;;;;;;;;;;;;;;;;;;;;;;;;;;;;;;;;;1,000000;0,303701;0,303945;0,669079;0,390173;0,390173;0,653787;0,269027;0,269241;0,669079;
42;;;;;;;;;;;;;;;;;;;;;;;;;;;;;;;;;;;;;;;;;;1,000000;0,648026;0,634623;0,355717;0,355717;0,273782;0,561484;0,561722;0,634623;
43;;;;;;;;;;;;;;;;;;;;;;;;;;;;;;;;;;;;;;;;;;;1,000000;0,634867;0,355961;0,355961;0,274026;0,561484;0,561722;0,634867;
44;;;;;;;;;;;;;;;;;;;;;;;;;;;;;;;;;;;;;;;;;;;;1,000000;0,721094;0,721094;0,639159;0,599949;0,600163;1,000000;
45;;;;;;;;;;;;;;;;;;;;;;;;;;;;;;;;;;;;;;;;;;;;;1,000000;0,442188;0,360253;0,321043;0,321257;0,721094;
46;;;;;;;;;;;;;;;;;;;;;;;;;;;;;;;;;;;;;;;;;;;;;;1,000000;0,360253;0,321043;0,321257;0,721094;
47;;;;;;;;;;;;;;;;;;;;;;;;;;;;;;;;;;;;;;;;;;;;;;;1,000000;0,239108;0,239322;0,639159;
48;;;;;;;;;;;;;;;;;;;;;;;;;;;;;;;;;;;;;;;;;;;;;;;;1,000000;0,759237;0,599949;
49;;;;;;;;;;;;;;;;;;;;;;;;;;;;;;;;;;;;;;;;;;;;;;;;;1,000000;0,600163;
50;;;;;;;;;;;;;;;;;;;;;;;;;;;;;;;;;;;;;;;;;;;;;;;;;;1,000000;
