;1; 2; 3; 4; 5; 6; 7; 8; 9; 10; 11; 12; 13; 14; 15; 16; 17; 18; 19; 20; 21; 22; 23; 24; 25; 26; 27; 28; 29; 30; 31; 32; 33; 34; 35; 36; 37; 38; 39; 40; 41; 42; 43; 44; 45; 46; 47; 48; 49; 50; 51; 52; 53; 54; 55; 56; 57; 58; 59; 60; 61; 62; 63; 64; 65; 66
1;1,000000;0,180139;0,328777;0,346585;0,326525;0,313405;0,273047;0,281242;0,580677;0,563752;0,650373;0,000000;0,000000;0,000000;0,707205;0,584280;0,707205;0,451661;0,000000;0,000000;0,383477;0,000000;0,299807;0,300070;0,267710;0,300601;0,330523;0,330963;0,430661;0,000000;0,000000;0,000000;0,000000;0,000000;0,000000;0,337728;0,423204;0,423204;0,574872;0,488814;0,454240;0,339962;0,000000;0,707205;0,707205;0,305439;0,305468;0,505386;0,305356;0,337411;0,412400;0,000000;0,000000;0,000000;0,000000;0,707205;0,345468;0,707205;0,707205;0,313019;0,313175;0,313330;0,418624;0,707205;0,309156;0,422039;
2;;1,000000;0,330180;0,341889;0,353497;0,436701;0,370037;0,402981;0,366975;0,350490;0,041801;0,000000;0,000000;0,043710;0,000000;0,368692;0,000000;0,378120;0,000000;0,000000;0,260529;0,000000;0,417793;0,418705;0,330867;0,420380;0,388272;0,389233;0,476737;0,000000;0,000000;0,000000;0,000000;0,000000;0,000000;0,416761;0,368310;0,368995;0,403615;0,432662;0,267457;0,397669;0,312797;0,000000;0,000000;0,432448;0,436212;0,245120;0,438608;0,374520;0,289732;0,000000;0,000000;0,000000;0,000000;0,000000;0,391197;0,000000;0,000000;0,440067;0,440330;0,440588;0,295993;0,000000;0,431573;0,277292;
3;;;1,000000;0,384204;0,540582;0,483782;0,379121;0,402222;0,215713;0,215994;0,564740;0,000000;0,000000;0,000000;0,621572;0,226455;0,621572;0,649645;0,000000;0,000000;0,297844;0,000000;0,214174;0,214437;0,182077;0,214968;0,244890;0,245330;0,696517;0,000000;0,000000;0,000000;0,000000;0,000000;0,000000;0,765654;0,337571;0,337571;0,251845;0,372245;0,692934;0,540695;0,000000;0,621572;0,621572;0,611443;0,623518;0,653667;0,608961;0,515530;0,326767;0,000000;0,000000;0,000000;0,000000;0,621572;0,544921;0,621572;0,621572;0,227386;0,227542;0,227697;0,332991;0,621572;0,443749;0,699017;
4;;;;1,000000;0,258700;0,639442;0,363491;0,408197;0,233522;0,233803;0,668591;0,000000;0,000000;0,000000;0,639380;0,244263;0,639380;0,757759;0,000000;0,000000;0,315653;0,000000;0,231982;0,232245;0,199886;0,232776;0,498948;0,498948;0,464308;0,000000;0,000000;0,000000;0,000000;0,000000;0,000000;0,576455;0,355379;0,355379;0,269654;0,488764;0,696024;0,559836;0,000000;0,639380;0,639380;0,569651;0,569184;0,653215;0,466901;0,543504;0,344576;0,000000;0,000000;0,000000;0,000000;0,639380;0,559400;0,639380;0,639380;0,437260;0,437366;0,437473;0,350799;0,639380;0,420866;0,354214;
5;;;;;1,000000;0,407164;0,568883;0,545162;0,213461;0,213742;0,562488;0,000000;0,000000;0,000000;0,619320;0,224202;0,619320;0,467292;0,000000;0,000000;0,295592;0,000000;0,211921;0,212185;0,179825;0,212716;0,530720;0,531706;0,558075;0,000000;0,000000;0,000000;0,000000;0,000000;0,000000;0,464849;0,335318;0,335318;0,249593;0,267904;0,457371;0,489781;0,000000;0,619320;0,619320;0,432238;0,402698;0,543061;0,431094;0,507871;0,324515;0,000000;0,000000;0,000000;0,000000;0,619320;0,494008;0,619320;0,619320;0,618441;0,618739;0,619032;0,330739;0,619320;0,628502;0,691358;
6;;;;;;1,000000;0,553082;0,598758;0,200342;0,200623;0,628451;0,000000;0,000000;0,000000;0,606200;0,211083;0,606200;0,586656;0,000000;0,000000;0,282473;0,000000;0,198802;0,199065;0,166706;0,199596;0,481028;0,481028;0,550298;0,000000;0,000000;0,000000;0,000000;0,000000;0,000000;0,528475;0,322199;0,322199;0,236474;0,441331;0,628469;0,362725;0,000000;0,606200;0,606200;0,522385;0,521918;0,665835;0,560656;0,485341;0,311396;0,000000;0,000000;0,000000;0,000000;0,606200;0,244463;0,606200;0,606200;0,419341;0,419446;0,419553;0,317619;0,606200;0,574197;0,321034;
7;;;;;;;1,000000;0,615112;0,159983;0,160264;0,509010;0,000000;0,000000;0,000000;0,565842;0,170725;0,565842;0,386430;0,000000;0,000000;0,242114;0,000000;0,158444;0,158707;0,126347;0,159238;0,515161;0,515161;0,563595;0,000000;0,000000;0,000000;0,000000;0,000000;0,000000;0,359089;0,281841;0,281841;0,196116;0,214426;0,312878;0,198599;0,000000;0,565842;0,565842;0,420984;0,164105;0,531807;0,419841;0,496618;0,271037;0,000000;0,000000;0,000000;0,000000;0,565842;0,204105;0,565842;0,565842;0,453473;0,453579;0,453686;0,277261;0,565842;0,723583;0,680105;
8;;;;;;;;1,000000;0,168178;0,168459;0,635780;0,000000;0,000000;0,000000;0,574037;0,178920;0,574037;0,501261;0,000000;0,000000;0,250309;0,000000;0,166639;0,166902;0,134542;0,167433;0,465971;0,465971;0,520084;0,000000;0,000000;0,000000;0,000000;0,000000;0,000000;0,382190;0,290036;0,290036;0,204311;0,360657;0,321073;0,370054;0,000000;0,574037;0,574037;0,444085;0,172300;0,673568;0,442942;0,519719;0,279232;0,000000;0,000000;0,000000;0,000000;0,574037;0,212300;0,574037;0,574037;0,404284;0,404389;0,404496;0,285456;0,574037;0,650022;0,703206;
9;;;;;;;;;1,000000;0,552317;0,537310;0,000000;0,000000;0,000000;0,594142;0,563305;0,594142;0,276215;0,000000;0,000000;0,778852;0,000000;0,186743;0,187006;0,154647;0,187538;0,217460;0,217900;0,232765;0,000000;0,000000;0,000000;0,000000;0,000000;0,000000;0,224664;0,310140;0,310140;0,599730;0,570552;0,341177;0,226899;0,000000;0,594142;0,594142;0,192376;0,192405;0,392323;0,192293;0,224348;0,778852;0,000000;0,000000;0,000000;0,000000;0,594142;0,232404;0,594142;0,594142;0,199956;0,200112;0,200266;0,778852;0,594142;0,196092;0,308976;
10;;;;;;;;;;1,000000;0,537591;0,000000;0,000000;0,000000;0,594423;1,000000;0,594423;0,276496;0,000000;0,000000;0,773466;0,000000;0,187024;0,187287;0,154928;0,187819;0,217741;0,218181;0,233046;0,000000;0,000000;0,000000;0,000000;0,000000;0,000000;0,224945;0,310421;0,310421;0,594345;0,565167;0,341458;0,227180;0,000000;0,594423;0,594423;0,192657;0,192686;0,392604;0,192574;0,224629;0,773466;0,000000;0,000000;0,000000;0,000000;0,594423;0,232685;0,594423;0,594423;0,200237;0,200393;0,200547;0,773466;0,594423;0,196373;0,309257;
11;;;;;;;;;;;1,000000;0,000000;0,000000;0,000000;0,943168;0,548051;0,943168;0,706486;0,000000;0,000000;0,619441;0,000000;0,535770;0,536033;0,503673;0,536564;0,566486;0,566926;0,581792;0,000000;0,000000;0,000000;0,000000;0,000000;0,000000;0,573691;0,659167;0,659167;0,573442;0,724877;0,690204;0,734275;0,000000;0,943168;0,943168;0,541402;0,541431;0,851289;0,541319;0,573374;0,648364;0,000000;0,000000;0,000000;0,000000;0,943168;0,581431;0,943168;0,943168;0,548982;0,549138;0,549293;0,654587;0,943168;0,752275;0,658002;
12;;;;;;;;;;;;1,000000;0,469466;0,419505;0,000000;0,000000;0,000000;0,000000;0,485622;0,485622;0,000000;0,734733;0,000000;0,000000;0,321459;0,000000;0,000000;0,000000;0,000000;0,000000;0,000000;0,000000;0,000000;0,000000;0,000000;0,000000;0,000000;0,000000;0,000000;0,000000;0,000000;0,000000;0,503249;0,000000;0,000000;0,000000;0,000000;0,000000;0,000000;0,000000;0,000000;0,384430;0,384569;0,384709;0,384850;0,000000;0,000000;0,000000;0,000000;0,000000;0,000000;0,000000;0,000000;0,000000;0,000000;0,000000;
13;;;;;;;;;;;;;1,000000;0,420754;0,000000;0,000000;0,000000;0,000000;0,485622;0,485622;0,000000;0,734733;0,000000;0,000000;0,321459;0,000000;0,000000;0,000000;0,000000;0,000000;0,000000;0,000000;0,000000;0,000000;0,000000;0,000000;0,000000;0,000000;0,000000;0,000000;0,000000;0,000000;0,503249;0,000000;0,000000;0,000000;0,000000;0,000000;0,000000;0,000000;0,000000;0,384430;0,384569;0,384709;0,384850;0,000000;0,000000;0,000000;0,000000;0,000000;0,000000;0,000000;0,000000;0,000000;0,000000;0,000000;
14;;;;;;;;;;;;;;1,000000;0,000000;0,000000;0,000000;0,000000;0,426533;0,427427;0,000000;0,000000;0,204205;0,204881;0,242486;0,206180;0,000000;0,000000;0,000000;0,000000;0,000000;0,000000;0,000000;0,000000;0,000000;0,000000;0,000000;0,000000;0,000000;0,000000;0,000000;0,000000;0,350258;0,000000;0,000000;0,000000;0,000000;0,000000;0,000000;0,000000;0,000000;0,655269;0,655676;0,656075;0,656465;0,000000;0,000000;0,000000;0,000000;0,000000;0,000000;0,000000;0,000000;0,000000;0,000000;0,000000;
15;;;;;;;;;;;;;;;1,000000;0,604883;1,000000;0,682073;0,000000;0,000000;0,676272;0,000000;0,592602;0,592865;0,560505;0,593396;0,623318;0,623758;0,638624;0,000000;0,000000;0,000000;0,000000;0,000000;0,000000;0,630523;0,715999;0,715999;0,630274;0,648584;0,747036;0,632757;0,000000;1,000000;1,000000;0,598234;0,598263;0,798181;0,598151;0,630206;0,705196;0,000000;0,000000;0,000000;0,000000;1,000000;0,638263;1,000000;1,000000;0,605814;0,605970;0,606125;0,711419;1,000000;0,601951;0,714834;
16;;;;;;;;;;;;;;;;1,000000;0,604883;0,286956;0,000000;0,000000;0,784454;0,000000;0,197484;0,197748;0,165388;0,198279;0,228201;0,228641;0,243506;0,000000;0,000000;0,000000;0,000000;0,000000;0,000000;0,235406;0,320882;0,320882;0,605332;0,576155;0,351918;0,237640;0,000000;0,604883;0,604883;0,203117;0,203146;0,403064;0,203034;0,235089;0,784454;0,000000;0,000000;0,000000;0,000000;0,604883;0,243146;0,604883;0,604883;0,210697;0,210853;0,211008;0,784454;0,604883;0,206834;0,319717;
17;;;;;;;;;;;;;;;;;1,000000;0,682073;0,000000;0,000000;0,676272;0,000000;0,592602;0,592865;0,560505;0,593396;0,623318;0,623758;0,638624;0,000000;0,000000;0,000000;0,000000;0,000000;0,000000;0,630523;0,715999;0,715999;0,630274;0,648584;0,747036;0,632757;0,000000;1,000000;1,000000;0,598234;0,598263;0,798181;0,598151;0,630206;0,705196;0,000000;0,000000;0,000000;0,000000;1,000000;0,638263;1,000000;1,000000;0,605814;0,605970;0,606125;0,711419;1,000000;0,601951;0,714834;
18;;;;;;;;;;;;;;;;;;1,000000;0,000000;0,000000;0,358346;0,000000;0,274675;0,274938;0,242579;0,275470;0,305392;0,305832;0,530225;0,000000;0,000000;0,000000;0,000000;0,000000;0,000000;0,635331;0,398072;0,398072;0,541252;0,431363;0,589472;0,655294;0,000000;0,682073;0,682073;0,680849;0,684181;0,713668;0,617892;0,733296;0,387269;0,000000;0,000000;0,000000;0,000000;0,682073;0,544766;0,682073;0,682073;0,287888;0,288044;0,288198;0,393493;0,682073;0,610373;0,706325;
19;;;;;;;;;;;;;;;;;;;1,000000;0,501779;0,000000;0,750889;0,000000;0,000000;0,337616;0,000000;0,000000;0,000000;0,000000;0,000000;0,000000;0,000000;0,000000;0,000000;0,000000;0,000000;0,000000;0,000000;0,000000;0,000000;0,000000;0,000000;0,519405;0,000000;0,000000;0,000000;0,000000;0,000000;0,000000;0,000000;0,000000;0,400586;0,400726;0,400866;0,401006;0,000000;0,000000;0,000000;0,000000;0,000000;0,000000;0,000000;0,000000;0,000000;0,000000;0,000000;
20;;;;;;;;;;;;;;;;;;;;1,000000;0,000000;0,750889;0,000000;0,000000;0,337616;0,000000;0,000000;0,000000;0,000000;0,000000;0,000000;0,000000;0,000000;0,000000;0,000000;0,000000;0,000000;0,000000;0,000000;0,000000;0,000000;0,000000;0,519405;0,000000;0,000000;0,000000;0,000000;0,000000;0,000000;0,000000;0,000000;0,400586;0,400726;0,400866;0,401006;0,000000;0,000000;0,000000;0,000000;0,000000;0,000000;0,000000;0,000000;0,000000;0,000000;0,000000;
21;;;;;;;;;;;;;;;;;;;;;1,000000;0,000000;0,268874;0,269137;0,236778;0,269669;0,299591;0,300031;0,314896;0,000000;0,000000;0,000000;0,000000;0,000000;0,000000;0,306795;0,392271;0,392271;0,820879;0,791701;0,423308;0,309030;0,000000;0,676272;0,676272;0,274507;0,274536;0,474454;0,274423;0,306479;1,000000;0,000000;0,000000;0,000000;0,000000;0,676272;0,314535;0,676272;0,676272;0,282087;0,282243;0,282397;1,000000;0,676272;0,278223;0,391106;
22;;;;;;;;;;;;;;;;;;;;;;1,000000;0,000000;0,000000;0,586726;0,000000;0,000000;0,000000;0,000000;0,000000;0,000000;0,000000;0,000000;0,000000;0,000000;0,000000;0,000000;0,000000;0,000000;0,000000;0,000000;0,000000;0,768516;0,000000;0,000000;0,000000;0,000000;0,000000;0,000000;0,000000;0,000000;0,649697;0,649836;0,649976;0,650117;0,000000;0,000000;0,000000;0,000000;0,000000;0,000000;0,000000;0,000000;0,000000;0,000000;0,000000;
23;;;;;;;;;;;;;;;;;;;;;;;1,000000;0,803118;0,705981;0,804814;0,215920;0,216360;0,231225;0,000000;0,000000;0,000000;0,000000;0,000000;0,000000;0,223125;0,308600;0,308600;0,222875;0,241186;0,339637;0,225359;0,473291;0,592602;0,592602;0,190836;0,190865;0,390783;0,190753;0,222808;0,297797;0,000000;0,000000;0,000000;0,000000;0,592602;0,230865;0,592602;0,592602;0,198416;0,198572;0,198727;0,304021;0,592602;0,194553;0,307436;
24;;;;;;;;;;;;;;;;;;;;;;;;1,000000;0,706595;0,805626;0,216183;0,216623;0,231489;0,000000;0,000000;0,000000;0,000000;0,000000;0,000000;0,223388;0,308864;0,308864;0,223139;0,241449;0,339901;0,225622;0,473968;0,592865;0,592865;0,191099;0,191128;0,391046;0,191016;0,223071;0,298060;0,000000;0,000000;0,000000;0,000000;0,592865;0,231128;0,592865;0,592865;0,198679;0,198835;0,198990;0,304284;0,592865;0,194816;0,307699;
25;;;;;;;;;;;;;;;;;;;;;;;;;1,000000;0,707772;0,183824;0,184264;0,199129;0,000000;0,000000;0,000000;0,000000;0,000000;0,000000;0,191028;0,276504;0,276504;0,190779;0,209090;0,307541;0,193263;0,355242;0,560505;0,560505;0,158740;0,158769;0,358687;0,158656;0,190712;0,265701;0,236423;0,236563;0,236703;0,236843;0,560505;0,198768;0,560505;0,560505;0,166320;0,166476;0,166630;0,271925;0,560505;0,162456;0,275339;
26;;;;;;;;;;;;;;;;;;;;;;;;;;1,000000;0,216714;0,217154;0,232020;0,000000;0,000000;0,000000;0,000000;0,000000;0,000000;0,223919;0,309395;0,309395;0,223670;0,241981;0,340432;0,226154;0,475267;0,593396;0,593396;0,191630;0,191660;0,391577;0,191547;0,223603;0,298592;0,000000;0,000000;0,000000;0,000000;0,593396;0,231659;0,593396;0,593396;0,199210;0,199366;0,199521;0,304815;0,593396;0,195347;0,308230;
27;;;;;;;;;;;;;;;;;;;;;;;;;;;1,000000;0,650617;0,261942;0,000000;0,000000;0,000000;0,000000;0,000000;0,000000;0,253841;0,339317;0,339317;0,253592;0,271902;0,370354;0,256075;0,000000;0,623318;0,623318;0,221552;0,221581;0,421499;0,221469;0,253524;0,328514;0,000000;0,000000;0,000000;0,000000;0,623318;0,261581;0,623318;0,623318;0,588930;0,589035;0,589142;0,334737;0,623318;0,225269;0,338152;
28;;;;;;;;;;;;;;;;;;;;;;;;;;;;1,000000;0,262382;0,000000;0,000000;0,000000;0,000000;0,000000;0,000000;0,254281;0,339757;0,339757;0,254032;0,272342;0,370794;0,256515;0,000000;0,623758;0,623758;0,221992;0,222021;0,421939;0,221909;0,253964;0,328954;0,000000;0,000000;0,000000;0,000000;0,623758;0,262021;0,623758;0,623758;0,588930;0,589035;0,589142;0,335177;0,623758;0,225709;0,338592;
29;;;;;;;;;;;;;;;;;;;;;;;;;;;;;1,000000;0,000000;0,000000;0,000000;0,000000;0,000000;0,000000;0,681957;0,354622;0,354622;0,520253;0,397733;0,670774;0,515578;0,000000;0,638624;0,638624;0,597099;0,601358;0,532287;0,598195;0,497097;0,343819;0,000000;0,000000;0,000000;0,000000;0,638624;0,733697;0,638624;0,638624;0,244438;0,244594;0,244749;0,350043;0,638624;0,623214;0,680584;
30;;;;;;;;;;;;;;;;;;;;;;;;;;;;;;1,000000;0,877170;0,877594;0,878010;0,878415;0,878812;0,000000;0,000000;0,000000;0,000000;0,000000;0,000000;0,000000;0,000000;0,000000;0,000000;0,000000;0,000000;0,000000;0,000000;0,000000;0,000000;0,000000;0,000000;0,000000;0,000000;0,000000;0,000000;0,000000;0,000000;0,000000;0,000000;0,000000;0,000000;0,000000;0,000000;0,000000;
31;;;;;;;;;;;;;;;;;;;;;;;;;;;;;;;1,000000;0,878010;0,878415;0,878812;0,879200;0,000000;0,000000;0,000000;0,000000;0,000000;0,000000;0,000000;0,000000;0,000000;0,000000;0,000000;0,000000;0,000000;0,000000;0,000000;0,000000;0,000000;0,000000;0,000000;0,000000;0,000000;0,000000;0,000000;0,000000;0,000000;0,000000;0,000000;0,000000;0,000000;0,000000;0,000000;
32;;;;;;;;;;;;;;;;;;;;;;;;;;;;;;;;1,000000;0,878812;0,879200;0,879580;0,000000;0,000000;0,000000;0,000000;0,000000;0,000000;0,000000;0,000000;0,000000;0,000000;0,000000;0,000000;0,000000;0,000000;0,000000;0,000000;0,000000;0,000000;0,000000;0,000000;0,000000;0,000000;0,000000;0,000000;0,000000;0,000000;0,000000;0,000000;0,000000;0,000000;0,000000;
33;;;;;;;;;;;;;;;;;;;;;;;;;;;;;;;;;1,000000;0,879580;0,879952;0,000000;0,000000;0,000000;0,000000;0,000000;0,000000;0,000000;0,000000;0,000000;0,000000;0,000000;0,000000;0,000000;0,000000;0,000000;0,000000;0,000000;0,000000;0,000000;0,000000;0,000000;0,000000;0,000000;0,000000;0,000000;0,000000;0,000000;0,000000;0,000000;0,000000;0,000000;
34;;;;;;;;;;;;;;;;;;;;;;;;;;;;;;;;;;1,000000;0,880317;0,000000;0,000000;0,000000;0,000000;0,000000;0,000000;0,000000;0,000000;0,000000;0,000000;0,000000;0,000000;0,000000;0,000000;0,000000;0,000000;0,000000;0,000000;0,000000;0,000000;0,000000;0,000000;0,000000;0,000000;0,000000;0,000000;0,000000;0,000000;0,000000;0,000000;0,000000;
35;;;;;;;;;;;;;;;;;;;;;;;;;;;;;;;;;;;1,000000;0,000000;0,000000;0,000000;0,000000;0,000000;0,000000;0,000000;0,000000;0,000000;0,000000;0,000000;0,000000;0,000000;0,000000;0,000000;0,000000;0,000000;0,000000;0,000000;0,000000;0,000000;0,000000;0,000000;0,000000;0,000000;0,000000;0,000000;0,000000;0,000000;0,000000;0,000000;
36;;;;;;;;;;;;;;;;;;;;;;;;;;;;;;;;;;;;1,000000;0,346522;0,346522;0,260797;0,535824;0,814952;0,514239;0,000000;0,630523;0,630523;0,741775;0,745536;0,530688;0,418721;0,495498;0,335718;0,000000;0,000000;0,000000;0,000000;0,630523;0,518466;0,630523;0,630523;0,236337;0,236493;0,236648;0,341942;0,630523;0,423717;0,678985;
37;;;;;;;;;;;;;;;;;;;;;;;;;;;;;;;;;;;;;1,000000;0,431998;0,346272;0,364583;0,463034;0,348756;0,000000;0,715999;0,715999;0,314233;0,314262;0,514180;0,314150;0,346205;0,421194;0,000000;0,000000;0,000000;0,000000;0,715999;0,354262;0,715999;0,715999;0,321813;0,321969;0,322124;0,427418;0,715999;0,317950;0,430833;
38;;;;;;;;;;;;;;;;;;;;;;;;;;;;;;;;;;;;;;1,000000;0,346272;0,364583;0,463034;0,348756;0,000000;0,715999;0,715999;0,314233;0,314262;0,514180;0,314150;0,346205;0,421194;0,000000;0,000000;0,000000;0,000000;0,715999;0,354262;0,715999;0,715999;0,321813;0,321969;0,322124;0,427418;0,715999;0,317950;0,430833;
39;;;;;;;;;;;;;;;;;;;;;;;;;;;;;;;;;;;;;;;1,000000;0,612580;0,377309;0,263031;0,000000;0,630274;0,630274;0,228508;0,228537;0,428455;0,228425;0,260480;0,820879;0,000000;0,000000;0,000000;0,000000;0,630274;0,268537;0,630274;0,630274;0,236088;0,236244;0,236399;0,820879;0,630274;0,232224;0,345108;
40;;;;;;;;;;;;;;;;;;;;;;;;;;;;;;;;;;;;;;;;1,000000;0,614320;0,459152;0,000000;0,648584;0,648584;0,454945;0,454782;0,576167;0,246735;0,278791;0,791701;0,000000;0,000000;0,000000;0,000000;0,648584;0,286847;0,648584;0,648584;0,254399;0,254555;0,254709;0,791701;0,648584;0,477152;0,363418;
41;;;;;;;;;;;;;;;;;;;;;;;;;;;;;;;;;;;;;;;;;1,000000;0,633689;0,000000;0,747036;0,747036;0,631458;0,826197;0,656772;0,552875;0,629478;0,452231;0,000000;0,000000;0,000000;0,000000;0,747036;0,637915;0,747036;0,747036;0,352850;0,353006;0,353161;0,458455;0,747036;0,348986;0,461870;
42;;;;;;;;;;;;;;;;;;;;;;;;;;;;;;;;;;;;;;;;;;1,000000;0,000000;0,632757;0,632757;0,230992;0,579016;0,585564;0,230908;0,262964;0,337953;0,000000;0,000000;0,000000;0,000000;0,632757;0,670326;0,632757;0,632757;0,238572;0,238728;0,238882;0,344177;0,632757;0,486549;0,347591;
43;;;;;;;;;;;;;;;;;;;;;;;;;;;;;;;;;;;;;;;;;;;1,000000;0,000000;0,000000;0,000000;0,000000;0,000000;0,000000;0,000000;0,000000;0,418212;0,418352;0,418492;0,418632;0,000000;0,000000;0,000000;0,000000;0,000000;0,000000;0,000000;0,000000;0,000000;0,000000;0,000000;
44;;;;;;;;;;;;;;;;;;;;;;;;;;;;;;;;;;;;;;;;;;;;1,000000;1,000000;0,598234;0,598263;0,798181;0,598151;0,630206;0,705196;0,000000;0,000000;0,000000;0,000000;1,000000;0,638263;1,000000;1,000000;0,605814;0,605970;0,606125;0,711419;1,000000;0,601951;0,714834;
45;;;;;;;;;;;;;;;;;;;;;;;;;;;;;;;;;;;;;;;;;;;;;1,000000;0,598234;0,598263;0,798181;0,598151;0,630206;0,705196;0,000000;0,000000;0,000000;0,000000;1,000000;0,638263;1,000000;1,000000;0,605814;0,605970;0,606125;0,711419;1,000000;0,601951;0,714834;
46;;;;;;;;;;;;;;;;;;;;;;;;;;;;;;;;;;;;;;;;;;;;;;1,000000;0,745683;0,592582;0,480616;0,557393;0,303430;0,000000;0,000000;0,000000;0,000000;0,598234;0,236497;0,598234;0,598234;0,204048;0,204205;0,204359;0,309653;0,598234;0,485612;0,740880;
47;;;;;;;;;;;;;;;;;;;;;;;;;;;;;;;;;;;;;;;;;;;;;;;1,000000;0,396444;0,196414;0,228470;0,303459;0,000000;0,000000;0,000000;0,000000;0,598263;0,583243;0,598263;0,598263;0,204078;0,204234;0,204388;0,309682;0,598263;0,200214;0,313097;
48;;;;;;;;;;;;;;;;;;;;;;;;;;;;;;;;;;;;;;;;;;;;;;;;1,000000;0,791499;0,906902;0,503377;0,000000;0,000000;0,000000;0,000000;0,798181;0,436444;0,798181;0,798181;0,403995;0,404151;0,404306;0,509600;0,798181;0,782679;0,851703;
49;;;;;;;;;;;;;;;;;;;;;;;;;;;;;;;;;;;;;;;;;;;;;;;;;1,000000;0,884597;0,303347;0,000000;0,000000;0,000000;0,000000;0,598151;0,236414;0,598151;0,598151;0,203965;0,204121;0,204276;0,309570;0,598151;0,484468;0,739736;
50;;;;;;;;;;;;;;;;;;;;;;;;;;;;;;;;;;;;;;;;;;;;;;;;;;1,000000;0,335402;0,000000;0,000000;0,000000;0,000000;0,630206;0,268469;0,630206;0,630206;0,236021;0,236177;0,236331;0,341625;0,630206;0,561245;0,816513;
51;;;;;;;;;;;;;;;;;;;;;;;;;;;;;;;;;;;;;;;;;;;;;;;;;;;1,000000;0,000000;0,000000;0,000000;0,000000;0,705196;0,343458;0,705196;0,705196;0,311010;0,311166;0,311320;1,000000;0,705196;0,307146;0,420030;
52;;;;;;;;;;;;;;;;;;;;;;;;;;;;;;;;;;;;;;;;;;;;;;;;;;;;1,000000;0,807996;0,808311;0,808623;0,000000;0,000000;0,000000;0,000000;0,000000;0,000000;0,000000;0,000000;0,000000;0,000000;0,000000;
53;;;;;;;;;;;;;;;;;;;;;;;;;;;;;;;;;;;;;;;;;;;;;;;;;;;;;1,000000;0,808623;0,808930;0,000000;0,000000;0,000000;0,000000;0,000000;0,000000;0,000000;0,000000;0,000000;0,000000;0,000000;
54;;;;;;;;;;;;;;;;;;;;;;;;;;;;;;;;;;;;;;;;;;;;;;;;;;;;;;1,000000;0,809234;0,000000;0,000000;0,000000;0,000000;0,000000;0,000000;0,000000;0,000000;0,000000;0,000000;0,000000;
55;;;;;;;;;;;;;;;;;;;;;;;;;;;;;;;;;;;;;;;;;;;;;;;;;;;;;;;1,000000;0,000000;0,000000;0,000000;0,000000;0,000000;0,000000;0,000000;0,000000;0,000000;0,000000;0,000000;
56;;;;;;;;;;;;;;;;;;;;;;;;;;;;;;;;;;;;;;;;;;;;;;;;;;;;;;;;1,000000;0,638263;1,000000;1,000000;0,605814;0,605970;0,606125;0,711419;1,000000;0,601951;0,714834;
57;;;;;;;;;;;;;;;;;;;;;;;;;;;;;;;;;;;;;;;;;;;;;;;;;;;;;;;;;1,000000;0,638263;0,638263;0,244077;0,244233;0,244388;0,349682;0,638263;0,240214;0,353097;
58;;;;;;;;;;;;;;;;;;;;;;;;;;;;;;;;;;;;;;;;;;;;;;;;;;;;;;;;;;1,000000;1,000000;0,605814;0,605970;0,606125;0,711419;1,000000;0,601951;0,714834;
59;;;;;;;;;;;;;;;;;;;;;;;;;;;;;;;;;;;;;;;;;;;;;;;;;;;;;;;;;;;1,000000;0,605814;0,605970;0,606125;0,711419;1,000000;0,601951;0,714834;
60;;;;;;;;;;;;;;;;;;;;;;;;;;;;;;;;;;;;;;;;;;;;;;;;;;;;;;;;;;;;1,000000;0,819327;0,819581;0,317233;0,605814;0,207765;0,320648;
61;;;;;;;;;;;;;;;;;;;;;;;;;;;;;;;;;;;;;;;;;;;;;;;;;;;;;;;;;;;;;1,000000;0,819832;0,317389;0,605970;0,207921;0,320804;
62;;;;;;;;;;;;;;;;;;;;;;;;;;;;;;;;;;;;;;;;;;;;;;;;;;;;;;;;;;;;;;1,000000;0,317544;0,606125;0,208076;0,320959;
63;;;;;;;;;;;;;;;;;;;;;;;;;;;;;;;;;;;;;;;;;;;;;;;;;;;;;;;;;;;;;;;1,000000;0,711419;0,313370;0,426253;
64;;;;;;;;;;;;;;;;;;;;;;;;;;;;;;;;;;;;;;;;;;;;;;;;;;;;;;;;;;;;;;;;1,000000;0,601951;0,714834;
65;;;;;;;;;;;;;;;;;;;;;;;;;;;;;;;;;;;;;;;;;;;;;;;;;;;;;;;;;;;;;;;;;1,000000;0,744732;
66;;;;;;;;;;;;;;;;;;;;;;;;;;;;;;;;;;;;;;;;;;;;;;;;;;;;;;;;;;;;;;;;;;1,000000;
