;1; 2; 3; 4; 5; 6; 7; 8; 9; 10; 11; 12
1;1,000000;0,000000;0,833333;0,802012;0,750000;0,750000;0,888889;0,000000;0,000000;1,000000;0,666667;0,666667;
2;;1,000000;0,502027;0,614352;0,500000;0,500000;0,500000;0,000000;0,000000;0,000000;0,658748;0,658748;
3;;;1,000000;0,453017;0,500000;0,500000;0,583333;0,000000;0,000000;0,833333;0,702058;0,702058;
4;;;;1,000000;0,468678;0,468678;0,827225;0,000000;0,000000;0,802012;0,645625;0,645625;
5;;;;;1,000000;0,500000;0,555556;0,000000;0,000000;0,750000;0,416667;0,416667;
6;;;;;;1,000000;0,555556;0,000000;0,000000;0,750000;0,416667;0,416667;
7;;;;;;;1,000000;0,000000;0,000000;0,888889;0,444444;0,444444;
8;;;;;;;;1,000000;0,000000;0,000000;0,000000;0,000000;
9;;;;;;;;;1,000000;0,000000;0,000000;0,000000;
10;;;;;;;;;;1,000000;0,666667;0,666667;
11;;;;;;;;;;;1,000000;0,666667;
12;;;;;;;;;;;;1,000000;
