;1; 2; 3; 4; 5; 6; 7; 8; 9; 10; 11; 12; 13; 14; 15; 16; 17; 18; 19; 20; 21; 22; 23; 24; 25; 26; 27; 28; 29; 30; 31; 32; 33; 34; 35; 36; 37; 38; 39; 40; 41; 42; 43; 44; 45; 46; 47; 48; 49; 50; 51; 52; 53; 54; 55; 56; 57; 58; 59; 60; 61; 62; 63; 64; 65; 66; 67; 68; 69; 70; 71; 72; 73; 74; 75; 76; 77; 78; 79; 80; 81; 82; 83; 84; 85; 86; 87; 88; 89; 90; 91; 92; 93; 94; 95; 96; 97; 98; 99; 100; 101; 102; 103; 104; 105; 106; 107; 108; 109; 110; 111; 112; 113; 114; 115; 116; 117; 118; 119; 120; 121; 122; 123; 124
1;1,000000;0,164294;0,633225;0,500000;0,617458;0,539873;0,708805;0,500000;0,500000;0,500000;0,500000;0,500000;0,583333;0,837767;0,536351;0,753776;0,523245;0,505493;0,586942;0,558241;0,500000;0,500000;0,477618;0,484664;0,508570;0,583333;0,500000;0,508333;0,500000;0,500000;0,500000;0,500000;0,500000;0,433333;0,433333;0,433333;0,433333;0,500000;0,500000;0,500000;0,550620;0,500000;0,445197;0,433333;0,461102;0,445197;0,833333;0,514528;0,833333;0,458333;0,458333;0,500000;0,500000;0,536351;0,523245;0,500000;0,500000;0,503375;0,583333;0,589526;0,536351;0,433333;0,433333;0,433333;0,447064;0,000000;0,000000;0,000000;0,583333;0,500000;0,525885;0,500000;0,500000;0,500000;0,536351;0,536351;0,500000;0,500000;0,000000;0,000000;0,000000;0,508333;0,476021;0,500000;0,500000;0,433333;0,433333;0,433333;0,433333;0,477618;0,583333;0,433333;0,525885;0,458333;0,583333;0,458333;0,477618;0,500000;0,833333;0,433333;0,433333;0,433333;0,529880;0,833333;0,500000;0,583333;0,500000;0,500000;0,500000;0,500000;0,833333;0,833333;0,500000;0,500000;0,583333;0,583333;0,500000;0,500000;0,500000;0,583333;0,833333;0,500000;0,583333;0,583333;
2;;1,000000;0,536477;0,430003;0,515739;0,390528;0,444749;0,383392;0,383392;0,360422;0,378808;0,358385;0,307056;0,244591;0,334488;0,355701;0,340012;0,390617;0,278598;0,298973;0,383392;0,383392;0,443285;0,410929;0,386040;0,297754;0,408642;0,388246;0,362770;0,362770;0,350764;0,350764;0,350764;0,453927;0,453927;0,453927;0,453927;0,383392;0,383392;0,350001;0,323785;0,350001;0,481407;0,466880;0,493934;0,481407;0,000000;0,473192;0,000000;0,434084;0,434084;0,359430;0,352439;0,326471;0,371464;0,369990;0,365271;0,490213;0,261350;0,288473;0,318157;0,447685;0,447685;0,447685;0,450897;0,000000;0,000000;0,000000;0,264691;0,358385;0,390058;0,355159;0,355159;0,350868;0,317766;0,317766;0,370233;0,370233;0,000000;0,000000;0,000000;0,381267;0,466232;0,385615;0,385615;0,434143;0,434143;0,434143;0,434143;0,406834;0,297754;0,458427;0,393201;0,446376;0,276724;0,424923;0,406282;0,350868;0,000000;0,428084;0,428084;0,428084;0,345525;0,000000;0,352356;0,282481;0,379002;0,350725;0,350725;0,350725;0,000000;0,000000;0,347416;0,347416;0,271960;0,263641;0,351912;0,351912;0,369927;0,282481;0,000000;0,361597;0,262431;0,263890;
3;;;1,000000;0,559777;0,539506;0,555916;0,679867;0,521501;0,521501;0,347475;0,347475;0,347475;0,430809;0,526528;0,383826;0,347475;0,513742;0,474602;0,434417;0,405717;0,521501;0,521501;0,621975;0,636129;0,610701;0,430809;0,548376;0,642469;0,548376;0,548376;0,347475;0,347475;0,347475;0,599317;0,599317;0,599317;0,599317;0,521501;0,521501;0,347475;0,398096;0,347475;0,587782;0,599207;0,606606;0,587782;0,680809;0,460112;0,680809;0,569198;0,569198;0,442364;0,347475;0,494875;0,417969;0,639916;0,548376;0,461848;0,430809;0,437001;0,383826;0,280809;0,280809;0,280809;0,294539;0,000000;0,000000;0,000000;0,698816;0,347475;0,373360;0,347475;0,347475;0,347475;0,383826;0,383826;0,347475;0,347475;0,000000;0,000000;0,000000;0,355809;0,449663;0,528756;0,528756;0,415043;0,415043;0,415043;0,415043;0,325094;0,430809;0,280809;0,373360;0,465043;0,715043;0,445335;0,409358;0,347475;0,680809;0,280809;0,280809;0,280809;0,377355;0,680809;0,347475;0,430809;0,347475;0,347475;0,347475;0,347475;0,680809;0,680809;0,347475;0,347475;0,430809;0,430809;0,528668;0,528668;0,347475;0,430809;0,680809;0,347475;0,430809;0,707252;
4;;;;1,000000;0,578842;0,751590;0,702595;0,587185;0,587185;0,333333;0,333333;0,333333;0,695586;0,512386;0,369684;0,333333;0,356579;0,476500;0,420275;0,391575;0,587185;0,587185;0,585689;0,657291;0,668052;0,753851;0,846416;0,503851;0,588012;0,588012;0,333333;0,333333;0,333333;0,453851;0,453851;0,453851;0,453851;0,587185;0,587185;0,333333;0,383954;0,333333;0,419985;0,453851;0,563264;0,419985;0,666667;0,659281;0,666667;0,503851;0,503851;0,333333;0,333333;0,369684;0,508960;0,588012;0,588012;0,562167;0,416667;0,422859;0,369684;0,266667;0,266667;0,266667;0,280397;0,000000;0,000000;0,000000;0,416667;0,333333;0,518177;0,333333;0,333333;0,333333;0,369684;0,369684;0,333333;0,333333;0,000000;0,000000;0,000000;0,505168;0,520793;0,587185;0,587185;0,454679;0,454679;0,454679;0,454679;0,543738;0,753851;0,455168;0,518177;0,708333;0,754679;0,291667;0,310952;0,333333;0,666667;0,266667;0,266667;0,266667;0,363213;0,666667;0,333333;0,416667;0,333333;0,333333;0,333333;0,333333;0,666667;0,666667;0,333333;0,333333;0,416667;0,416667;0,333333;0,333333;0,333333;0,416667;0,666667;0,333333;0,416667;0,416667;
5;;;;;1,000000;0,664733;0,616022;0,568461;0,568461;0,338910;0,338910;0,338910;0,676862;0,517963;0,375261;0,338910;0,362156;0,457776;0,425852;0,397152;0,568461;0,568461;0,557019;0,470227;0,487365;0,735128;0,568461;0,485128;0,519457;0,519457;0,338910;0,338910;0,338910;0,435128;0,435128;0,435128;0,435128;0,568461;0,568461;0,338910;0,389531;0,338910;0,593809;0,547852;0,526736;0,593809;0,672244;0,514737;0,672244;0,485128;0,485128;0,338910;0,338910;0,499054;0,632464;0,533006;0,533006;0,479737;0,422244;0,428436;0,375261;0,383575;0,383575;0,383575;0,352051;0,000000;0,000000;0,000000;0,422244;0,338910;0,536896;0,338910;0,338910;0,338910;0,375261;0,375261;0,516908;0,516908;0,000000;0,000000;0,000000;0,619414;0,515694;0,568461;0,568461;0,606856;0,606856;0,606856;0,606856;0,629507;0,735128;0,496651;0,536896;0,571651;0,422244;0,585381;0,566888;0,338910;0,672244;0,272244;0,272244;0,272244;0,368790;0,672244;0,338910;0,683575;0,516908;0,338910;0,338910;0,338910;0,672244;0,672244;0,338910;0,338910;0,422244;0,422244;0,532847;0,532847;0,516908;0,683575;0,672244;0,338910;0,422244;0,422244;
6;;;;;;1,000000;0,761353;0,682243;0,682243;0,373206;0,373206;0,373206;0,790644;0,552258;0,571222;0,373206;0,396451;0,571558;0,460148;0,431447;0,682243;0,682243;0,562248;0,584009;0,601147;0,848910;0,905174;0,598910;0,600249;0,600249;0,373206;0,373206;0,373206;0,548910;0,548910;0,548910;0,548910;0,682243;0,682243;0,373206;0,423826;0,373206;0,515044;0,548910;0,622022;0,515044;0,706539;0,718039;0,706539;0,598910;0,598910;0,373206;0,373206;0,409557;0,396451;0,600249;0,600249;0,444961;0,456539;0,462732;0,409557;0,306539;0,306539;0,306539;0,320270;0,000000;0,000000;0,000000;0,456539;0,373206;0,399090;0,373206;0,373206;0,373206;0,409557;0,409557;0,373206;0,373206;0,000000;0,000000;0,000000;0,381539;0,430250;0,682243;0,682243;0,466916;0,466916;0,466916;0,466916;0,350824;0,848910;0,306539;0,399090;0,516916;0,766916;0,331539;0,350824;0,373206;0,706539;0,306539;0,306539;0,306539;0,403086;0,706539;0,373206;0,456539;0,373206;0,373206;0,373206;0,373206;0,706539;0,706539;0,373206;0,373206;0,456539;0,456539;0,373206;0,373206;0,373206;0,456539;0,706539;0,373206;0,456539;0,456539;
7;;;;;;;1,000000;0,546672;0,546672;0,310952;0,310952;0,310952;0,655073;0,490004;0,347303;0,310952;0,334197;0,435986;0,397894;0,369193;0,546672;0,546672;0,426676;0,448438;0,465576;0,713338;0,856179;0,463338;0,621904;0,621904;0,310952;0,310952;0,310952;0,413338;0,413338;0,413338;0,413338;0,546672;0,546672;0,310952;0,361572;0,310952;0,379472;0,413338;0,573027;0,379472;0,644285;0,669044;0,644285;0,463338;0,463338;0,310952;0,310952;0,347303;0,334197;0,621904;0,621904;0,466616;0,394285;0,400478;0,347303;0,244285;0,244285;0,244285;0,258016;0,000000;0,000000;0,000000;0,394285;0,310952;0,336836;0,310952;0,310952;0,310952;0,347303;0,347303;0,310952;0,310952;0,000000;0,000000;0,000000;0,319285;0,451904;0,546672;0,546672;0,488570;0,488570;0,488570;0,488570;0,288570;0,713338;0,244285;0,336836;0,538570;0,788570;0,269285;0,288570;0,310952;0,644285;0,244285;0,244285;0,244285;0,340832;0,644285;0,310952;0,394285;0,310952;0,310952;0,310952;0,310952;0,644285;0,644285;0,310952;0,310952;0,394285;0,394285;0,310952;0,310952;0,310952;0,394285;0,644285;0,310952;0,394285;0,394285;
8;;;;;;;;1,000000;0,666667;0,333333;0,333333;0,333333;0,775068;0,512386;0,369684;0,333333;0,356579;0,555982;0,420275;0,391575;0,666667;0,666667;0,546672;0,568433;0,585571;0,833333;0,666667;0,583333;0,333333;0,333333;0,333333;0,333333;0,333333;0,533333;0,533333;0,533333;0,533333;0,666667;0,666667;0,333333;0,383954;0,333333;0,499467;0,533333;0,499617;0,499467;0,666667;0,577724;0,666667;0,583333;0,583333;0,333333;0,333333;0,369684;0,356579;0,333333;0,333333;0,336708;0,416667;0,422859;0,369684;0,266667;0,266667;0,266667;0,280397;0,000000;0,000000;0,000000;0,416667;0,333333;0,359218;0,333333;0,333333;0,333333;0,369684;0,369684;0,333333;0,333333;0,000000;0,000000;0,000000;0,341667;0,309355;0,666667;0,666667;0,266667;0,266667;0,266667;0,266667;0,310952;0,833333;0,266667;0,359218;0,291667;0,416667;0,291667;0,310952;0,333333;0,666667;0,266667;0,266667;0,266667;0,363213;0,666667;0,333333;0,416667;0,333333;0,333333;0,333333;0,333333;0,666667;0,666667;0,333333;0,333333;0,416667;0,416667;0,333333;0,333333;0,333333;0,416667;0,666667;0,333333;0,416667;0,416667;
9;;;;;;;;;1,000000;0,333333;0,333333;0,333333;0,775068;0,512386;0,369684;0,333333;0,356579;0,555982;0,420275;0,391575;0,666667;0,666667;0,546672;0,568433;0,585571;0,833333;0,666667;0,583333;0,333333;0,333333;0,333333;0,333333;0,333333;0,533333;0,533333;0,533333;0,533333;0,666667;0,666667;0,333333;0,383954;0,333333;0,499467;0,533333;0,499617;0,499467;0,666667;0,577724;0,666667;0,583333;0,583333;0,333333;0,333333;0,369684;0,356579;0,333333;0,333333;0,336708;0,416667;0,422859;0,369684;0,266667;0,266667;0,266667;0,280397;0,000000;0,000000;0,000000;0,416667;0,333333;0,359218;0,333333;0,333333;0,333333;0,369684;0,369684;0,333333;0,333333;0,000000;0,000000;0,000000;0,341667;0,309355;0,666667;0,666667;0,266667;0,266667;0,266667;0,266667;0,310952;0,833333;0,266667;0,359218;0,291667;0,416667;0,291667;0,310952;0,333333;0,666667;0,266667;0,266667;0,266667;0,363213;0,666667;0,333333;0,416667;0,333333;0,333333;0,333333;0,333333;0,666667;0,666667;0,333333;0,333333;0,416667;0,416667;0,333333;0,333333;0,333333;0,416667;0,666667;0,333333;0,416667;0,416667;
10;;;;;;;;;;1,000000;0,636720;0,666667;0,416667;0,512386;0,369684;0,333333;0,356579;0,338827;0,420275;0,391575;0,333333;0,333333;0,310952;0,317998;0,341904;0,416667;0,333333;0,341667;0,333333;0,333333;0,333333;0,333333;0,333333;0,266667;0,266667;0,266667;0,266667;0,333333;0,333333;0,333333;0,383954;0,333333;0,278530;0,266667;0,294435;0,278530;0,666667;0,347862;0,666667;0,291667;0,291667;0,333333;0,333333;0,369684;0,356579;0,333333;0,333333;0,336708;0,416667;0,666667;0,632909;0,266667;0,266667;0,266667;0,280397;0,000000;0,000000;0,000000;0,416667;0,666667;0,359218;0,333333;0,333333;0,333333;0,369684;0,369684;0,333333;0,333333;0,000000;0,000000;0,000000;0,341667;0,309355;0,333333;0,333333;0,266667;0,266667;0,266667;0,266667;0,310952;0,416667;0,266667;0,359218;0,291667;0,416667;0,291667;0,310952;0,333333;0,666667;0,266667;0,266667;0,266667;0,363213;0,666667;0,333333;0,416667;0,333333;0,333333;0,333333;0,333333;0,666667;0,666667;0,333333;0,333333;0,416667;0,416667;0,333333;0,333333;0,333333;0,416667;0,666667;0,333333;0,416667;0,416667;
11;;;;;;;;;;;1,000000;0,636653;0,416667;0,512386;0,369684;0,333333;0,356579;0,338827;0,420275;0,391575;0,333333;0,333333;0,310952;0,317998;0,341904;0,416667;0,333333;0,341667;0,333333;0,333333;0,333333;0,333333;0,333333;0,266667;0,266667;0,266667;0,266667;0,333333;0,333333;0,333333;0,383954;0,333333;0,278530;0,266667;0,294435;0,278530;0,666667;0,347862;0,666667;0,291667;0,291667;0,333333;0,333333;0,369684;0,356579;0,333333;0,333333;0,336708;0,416667;0,624790;0,609674;0,266667;0,266667;0,266667;0,280397;0,000000;0,000000;0,000000;0,416667;0,636653;0,359218;0,333333;0,333333;0,333333;0,369684;0,369684;0,333333;0,333333;0,000000;0,000000;0,000000;0,341667;0,309355;0,333333;0,333333;0,266667;0,266667;0,266667;0,266667;0,310952;0,416667;0,266667;0,359218;0,291667;0,416667;0,291667;0,310952;0,333333;0,666667;0,266667;0,266667;0,266667;0,363213;0,666667;0,333333;0,416667;0,333333;0,333333;0,333333;0,333333;0,666667;0,666667;0,333333;0,333333;0,416667;0,416667;0,333333;0,333333;0,333333;0,416667;0,666667;0,333333;0,416667;0,416667;
12;;;;;;;;;;;;1,000000;0,416667;0,512386;0,369684;0,333333;0,356579;0,338827;0,420275;0,391575;0,333333;0,333333;0,310952;0,317998;0,341904;0,416667;0,333333;0,341667;0,333333;0,333333;0,333333;0,333333;0,333333;0,266667;0,266667;0,266667;0,266667;0,333333;0,333333;0,333333;0,383954;0,333333;0,278530;0,266667;0,294435;0,278530;0,666667;0,347862;0,666667;0,291667;0,291667;0,333333;0,333333;0,369684;0,356579;0,333333;0,333333;0,336708;0,416667;0,666667;0,632909;0,266667;0,266667;0,266667;0,280397;0,000000;0,000000;0,000000;0,416667;1,000000;0,359218;0,333333;0,333333;0,333333;0,369684;0,369684;0,333333;0,333333;0,000000;0,000000;0,000000;0,341667;0,309355;0,333333;0,333333;0,266667;0,266667;0,266667;0,266667;0,310952;0,416667;0,266667;0,359218;0,291667;0,416667;0,291667;0,310952;0,333333;0,666667;0,266667;0,266667;0,266667;0,363213;0,666667;0,333333;0,416667;0,333333;0,333333;0,333333;0,333333;0,666667;0,666667;0,333333;0,333333;0,416667;0,416667;0,333333;0,333333;0,333333;0,416667;0,666667;0,333333;0,416667;0,416667;
13;;;;;;;;;;;;;1,000000;0,595719;0,453017;0,416667;0,439912;0,664383;0,503608;0,474908;0,775068;0,775068;0,655073;0,676835;0,693972;0,941735;0,775068;0,691735;0,416667;0,416667;0,416667;0,416667;0,416667;0,641735;0,641735;0,641735;0,641735;0,775068;0,775068;0,416667;0,467287;0,416667;0,607869;0,641735;0,608018;0,607869;0,750000;0,686125;0,750000;0,691735;0,691735;0,416667;0,416667;0,453017;0,439912;0,416667;0,416667;0,420042;0,500000;0,506193;0,453017;0,350000;0,350000;0,350000;0,363731;0,000000;0,000000;0,000000;0,500000;0,416667;0,442551;0,416667;0,416667;0,416667;0,453017;0,453017;0,416667;0,416667;0,000000;0,000000;0,000000;0,425000;0,392688;0,775068;0,775068;0,350000;0,350000;0,350000;0,350000;0,394285;0,941735;0,350000;0,442551;0,375000;0,500000;0,375000;0,394285;0,416667;0,750000;0,350000;0,350000;0,350000;0,446547;0,750000;0,416667;0,500000;0,416667;0,416667;0,416667;0,416667;0,750000;0,750000;0,416667;0,416667;0,500000;0,500000;0,416667;0,416667;0,416667;0,500000;0,750000;0,416667;0,500000;0,500000;
14;;;;;;;;;;;;;;1,000000;0,716968;0,750658;0,535631;0,517879;0,599327;0,570627;0,512386;0,512386;0,490004;0,497050;0,520956;0,595719;0,512386;0,520719;0,512386;0,512386;0,512386;0,512386;0,512386;0,445719;0,445719;0,445719;0,445719;0,512386;0,512386;0,512386;0,563006;0,512386;0,457582;0,445719;0,473487;0,457582;0,845719;0,526914;0,845719;0,470719;0,470719;0,512386;0,512386;0,548736;0,535631;0,512386;0,512386;0,515760;0,595719;0,601912;0,548736;0,445719;0,445719;0,445719;0,459450;0,000000;0,000000;0,000000;0,595719;0,512386;0,538270;0,512386;0,512386;0,512386;0,548736;0,548736;0,512386;0,512386;0,000000;0,000000;0,000000;0,520719;0,488407;0,512386;0,512386;0,445719;0,445719;0,445719;0,445719;0,490004;0,595719;0,445719;0,538270;0,470719;0,595719;0,470719;0,490004;0,512386;0,845719;0,445719;0,445719;0,445719;0,542265;0,845719;0,512386;0,595719;0,512386;0,512386;0,512386;0,512386;0,845719;0,845719;0,512386;0,512386;0,595719;0,595719;0,512386;0,512386;0,512386;0,595719;0,845719;0,512386;0,595719;0,595719;
15;;;;;;;;;;;;;;;1,000000;0,632944;0,392929;0,375177;0,456626;0,427925;0,369684;0,369684;0,347303;0,354348;0,378255;0,453017;0,369684;0,378017;0,369684;0,369684;0,369684;0,369684;0,369684;0,303017;0,303017;0,303017;0,303017;0,369684;0,369684;0,369684;0,420304;0,369684;0,314881;0,303017;0,330786;0,314881;0,703017;0,384212;0,703017;0,328017;0,328017;0,369684;0,369684;0,406035;0,392929;0,369684;0,369684;0,373059;0,453017;0,459210;0,406035;0,303017;0,303017;0,303017;0,316748;0,000000;0,000000;0,000000;0,453017;0,369684;0,395569;0,369684;0,369684;0,369684;0,406035;0,406035;0,369684;0,369684;0,000000;0,000000;0,000000;0,378017;0,345705;0,369684;0,369684;0,303017;0,303017;0,303017;0,303017;0,347303;0,453017;0,303017;0,395569;0,328017;0,453017;0,328017;0,347303;0,369684;0,703017;0,303017;0,303017;0,303017;0,399564;0,703017;0,369684;0,453017;0,369684;0,369684;0,369684;0,369684;0,703017;0,703017;0,369684;0,369684;0,453017;0,453017;0,369684;0,369684;0,369684;0,453017;0,703017;0,369684;0,453017;0,453017;
16;;;;;;;;;;;;;;;;1,000000;0,356579;0,338827;0,420275;0,391575;0,333333;0,333333;0,310952;0,317998;0,341904;0,416667;0,333333;0,341667;0,333333;0,333333;0,333333;0,333333;0,333333;0,266667;0,266667;0,266667;0,266667;0,333333;0,333333;0,333333;0,383954;0,333333;0,278530;0,266667;0,294435;0,278530;0,666667;0,347862;0,666667;0,291667;0,291667;0,333333;0,333333;0,369684;0,356579;0,333333;0,333333;0,336708;0,416667;0,422859;0,369684;0,266667;0,266667;0,266667;0,280397;0,000000;0,000000;0,000000;0,416667;0,333333;0,359218;0,333333;0,333333;0,333333;0,369684;0,369684;0,333333;0,333333;0,000000;0,000000;0,000000;0,341667;0,309355;0,333333;0,333333;0,266667;0,266667;0,266667;0,266667;0,310952;0,416667;0,266667;0,359218;0,291667;0,416667;0,291667;0,310952;0,333333;0,666667;0,266667;0,266667;0,266667;0,363213;0,666667;0,333333;0,416667;0,333333;0,333333;0,333333;0,333333;0,666667;0,666667;0,333333;0,333333;0,416667;0,416667;0,333333;0,333333;0,333333;0,416667;0,666667;0,333333;0,416667;0,416667;
17;;;;;;;;;;;;;;;;;1,000000;0,546043;0,443520;0,414820;0,356579;0,356579;0,334197;0,341243;0,365149;0,439912;0,356579;0,364912;0,356579;0,356579;0,356579;0,356579;0,356579;0,289912;0,289912;0,289912;0,289912;0,356579;0,356579;0,356579;0,407199;0,356579;0,301775;0,289912;0,317680;0,301775;0,689912;0,371107;0,689912;0,576841;0,576841;0,713096;0,645586;0,392929;0,379824;0,356579;0,356579;0,359953;0,439912;0,446105;0,392929;0,289912;0,289912;0,289912;0,303643;0,000000;0,000000;0,000000;0,439912;0,356579;0,382463;0,356579;0,356579;0,356579;0,392929;0,392929;0,356579;0,356579;0,000000;0,000000;0,000000;0,364912;0,332600;0,356579;0,356579;0,289912;0,289912;0,289912;0,289912;0,334197;0,439912;0,289912;0,382463;0,314912;0,439912;0,314912;0,334197;0,356579;0,689912;0,289912;0,289912;0,289912;0,386458;0,689912;0,356579;0,439912;0,356579;0,356579;0,356579;0,356579;0,689912;0,689912;0,356579;0,356579;0,439912;0,439912;0,356579;0,356579;0,356579;0,439912;0,689912;0,356579;0,439912;0,439912;
18;;;;;;;;;;;;;;;;;;1,000000;0,425768;0,397068;0,555982;0,555982;0,435986;0,457748;0,474886;0,722648;0,555982;0,472648;0,338827;0,338827;0,338827;0,338827;0,338827;0,422648;0,422648;0,422648;0,422648;0,555982;0,555982;0,338827;0,389447;0,338827;0,388782;0,422648;0,388932;0,388782;0,672160;0,467039;0,672160;0,653416;0,653416;0,636903;0,867499;0,375177;0,362072;0,338827;0,338827;0,342202;0,422160;0,428353;0,375177;0,272160;0,272160;0,272160;0,285891;0,000000;0,000000;0,000000;0,422160;0,338827;0,364711;0,338827;0,338827;0,338827;0,375177;0,375177;0,338827;0,338827;0,000000;0,000000;0,000000;0,347160;0,314848;0,555982;0,555982;0,272160;0,272160;0,272160;0,272160;0,316445;0,722648;0,272160;0,364711;0,297160;0,422160;0,297160;0,316445;0,338827;0,672160;0,272160;0,272160;0,272160;0,368707;0,672160;0,338827;0,422160;0,338827;0,338827;0,338827;0,338827;0,672160;0,672160;0,338827;0,338827;0,422160;0,422160;0,338827;0,338827;0,338827;0,422160;0,672160;0,338827;0,422160;0,422160;
19;;;;;;;;;;;;;;;;;;;1,000000;0,577381;0,420275;0,420275;0,397894;0,404939;0,428846;0,503608;0,420275;0,428608;0,420275;0,420275;0,420275;0,420275;0,420275;0,353608;0,353608;0,353608;0,353608;0,420275;0,420275;0,420275;0,470895;0,420275;0,365472;0,353608;0,381377;0,365472;0,753608;0,434803;0,753608;0,378608;0,378608;0,420275;0,420275;0,456626;0,443520;0,420275;0,420275;0,423650;0,503608;0,509801;0,456626;0,353608;0,353608;0,353608;0,367339;0,000000;0,000000;0,000000;0,503608;0,420275;0,446160;0,420275;0,420275;0,420275;0,456626;0,456626;0,420275;0,420275;0,000000;0,000000;0,000000;0,428608;0,396296;0,420275;0,420275;0,353608;0,353608;0,353608;0,353608;0,397894;0,503608;0,353608;0,446160;0,378608;0,503608;0,378608;0,397894;0,420275;0,753608;0,353608;0,353608;0,353608;0,450155;0,753608;0,420275;0,503608;0,420275;0,420275;0,420275;0,420275;0,753608;0,753608;0,420275;0,420275;0,503608;0,503608;0,420275;0,420275;0,420275;0,503608;0,753608;0,787808;0,503608;0,503608;
20;;;;;;;;;;;;;;;;;;;;1,000000;0,391575;0,391575;0,369193;0,376239;0,400145;0,474908;0,391575;0,399908;0,391575;0,391575;0,391575;0,391575;0,391575;0,324908;0,324908;0,324908;0,324908;0,391575;0,391575;0,391575;0,442195;0,391575;0,336772;0,324908;0,352677;0,336772;0,724908;0,406103;0,724908;0,349908;0,349908;0,391575;0,391575;0,427925;0,414820;0,391575;0,391575;0,394950;0,474908;0,481101;0,427925;0,324908;0,324908;0,324908;0,338639;0,000000;0,000000;0,000000;0,474908;0,391575;0,417459;0,391575;0,391575;0,391575;0,427925;0,427925;0,391575;0,391575;0,000000;0,000000;0,000000;0,399908;0,367596;0,391575;0,391575;0,324908;0,324908;0,324908;0,324908;0,369193;0,474908;0,324908;0,417459;0,349908;0,474908;0,349908;0,369193;0,391575;0,724908;0,324908;0,324908;0,324908;0,421455;0,724908;0,391575;0,474908;0,391575;0,391575;0,391575;0,391575;0,724908;0,724908;0,391575;0,391575;0,474908;0,474908;0,391575;0,391575;0,391575;0,474908;0,724908;0,783149;0,474908;0,474908;
21;;;;;;;;;;;;;;;;;;;;;1,000000;0,666667;0,546672;0,568433;0,585571;0,833333;0,666667;0,583333;0,333333;0,333333;0,333333;0,333333;0,333333;0,533333;0,533333;0,533333;0,533333;0,666667;0,666667;0,333333;0,383954;0,333333;0,499467;0,533333;0,499617;0,499467;0,666667;0,577724;0,666667;0,583333;0,583333;0,333333;0,333333;0,369684;0,356579;0,333333;0,333333;0,336708;0,416667;0,422859;0,369684;0,266667;0,266667;0,266667;0,280397;0,000000;0,000000;0,000000;0,416667;0,333333;0,359218;0,333333;0,333333;0,333333;0,369684;0,369684;0,333333;0,333333;0,000000;0,000000;0,000000;0,341667;0,309355;0,666667;0,666667;0,266667;0,266667;0,266667;0,266667;0,310952;0,833333;0,266667;0,359218;0,291667;0,416667;0,291667;0,310952;0,333333;0,666667;0,266667;0,266667;0,266667;0,363213;0,666667;0,333333;0,416667;0,333333;0,333333;0,333333;0,333333;0,666667;0,666667;0,333333;0,333333;0,416667;0,416667;0,333333;0,333333;0,333333;0,416667;0,666667;0,333333;0,416667;0,416667;
22;;;;;;;;;;;;;;;;;;;;;;1,000000;0,546672;0,568433;0,585571;0,833333;0,666667;0,583333;0,333333;0,333333;0,333333;0,333333;0,333333;0,533333;0,533333;0,533333;0,533333;0,666667;0,666667;0,333333;0,383954;0,333333;0,499467;0,533333;0,499617;0,499467;0,666667;0,577724;0,666667;0,583333;0,583333;0,333333;0,333333;0,369684;0,356579;0,333333;0,333333;0,336708;0,416667;0,422859;0,369684;0,266667;0,266667;0,266667;0,280397;0,000000;0,000000;0,000000;0,416667;0,333333;0,359218;0,333333;0,333333;0,333333;0,369684;0,369684;0,333333;0,333333;0,000000;0,000000;0,000000;0,341667;0,309355;0,666667;0,666667;0,266667;0,266667;0,266667;0,266667;0,310952;0,833333;0,266667;0,359218;0,291667;0,416667;0,291667;0,310952;0,333333;0,666667;0,266667;0,266667;0,266667;0,363213;0,666667;0,333333;0,416667;0,333333;0,333333;0,333333;0,333333;0,666667;0,666667;0,333333;0,333333;0,416667;0,416667;0,333333;0,333333;0,333333;0,416667;0,666667;0,333333;0,416667;0,416667;
23;;;;;;;;;;;;;;;;;;;;;;;1,000000;0,673776;0,682805;0,713338;0,546672;0,935117;0,310952;0,310952;0,310952;0,310952;0,310952;0,413338;0,413338;0,413338;0,413338;0,546672;0,546672;0,310952;0,361572;0,310952;0,379472;0,413338;0,379621;0,379472;0,644285;0,457729;0,644285;0,463338;0,463338;0,310952;0,310952;0,347303;0,441115;0,310952;0,310952;0,407418;0,394285;0,400478;0,347303;0,244285;0,244285;0,244285;0,258016;0,000000;0,000000;0,000000;0,752346;0,310952;0,450333;0,310952;0,310952;0,310952;0,347303;0,347303;0,310952;0,310952;0,000000;0,000000;0,000000;0,437323;0,355356;0,546672;0,546672;0,244285;0,244285;0,244285;0,244285;0,475894;0,713338;0,387323;0,450333;0,437323;0,394285;0,269285;0,288570;0,310952;0,644285;0,244285;0,244285;0,244285;0,340832;0,644285;0,310952;0,394285;0,310952;0,310952;0,310952;0,310952;0,644285;0,644285;0,310952;0,310952;0,394285;0,394285;0,310952;0,310952;0,310952;0,394285;0,644285;0,310952;0,394285;0,394285;
24;;;;;;;;;;;;;;;;;;;;;;;;1,000000;0,745356;0,735100;0,568433;0,681096;0,317998;0,317998;0,317998;0,317998;0,317998;0,435100;0,435100;0,435100;0,435100;0,568433;0,568433;0,317998;0,368618;0,317998;0,401234;0,435100;0,401383;0,401234;0,651331;0,479490;0,651331;0,485100;0,485100;0,317998;0,317998;0,354348;0,341243;0,317998;0,317998;0,321373;0,401331;0,407524;0,354348;0,251331;0,251331;0,251331;0,265062;0,000000;0,000000;0,000000;0,766138;0,317998;0,343882;0,317998;0,317998;0,317998;0,354348;0,354348;0,317998;0,317998;0,000000;0,000000;0,000000;0,326331;0,408825;0,568433;0,568433;0,251331;0,251331;0,251331;0,251331;0,295616;0,735100;0,251331;0,343882;0,276331;0,401331;0,276331;0,295616;0,317998;0,651331;0,251331;0,251331;0,251331;0,347878;0,651331;0,317998;0,401331;0,317998;0,317998;0,317998;0,317998;0,651331;0,651331;0,317998;0,317998;0,401331;0,401331;0,317998;0,317998;0,317998;0,401331;0,651331;0,317998;0,401331;0,401331;
25;;;;;;;;;;;;;;;;;;;;;;;;;1,000000;0,752238;0,585571;0,783831;0,341904;0,341904;0,341904;0,341904;0,341904;0,452238;0,452238;0,452238;0,452238;0,585571;0,585571;0,341904;0,392524;0,341904;0,418372;0,452238;0,418521;0,418372;0,675237;0,496628;0,675237;0,502238;0,502238;0,341904;0,341904;0,378255;0,365149;0,341904;0,341904;0,345279;0,425237;0,431430;0,378255;0,275237;0,275237;0,275237;0,288968;0,000000;0,000000;0,000000;0,425237;0,341904;0,367788;0,341904;0,341904;0,341904;0,378255;0,378255;0,341904;0,341904;0,000000;0,000000;0,000000;0,350237;0,425233;0,585571;0,585571;0,275237;0,275237;0,275237;0,275237;0,319522;0,752238;0,275237;0,367788;0,300237;0,425237;0,300237;0,319522;0,341904;0,675237;0,275237;0,275237;0,275237;0,371784;0,675237;0,341904;0,425237;0,341904;0,341904;0,341904;0,341904;0,675237;0,675237;0,341904;0,341904;0,425237;0,425237;0,341904;0,341904;0,341904;0,425237;0,675237;0,341904;0,425237;0,425237;
26;;;;;;;;;;;;;;;;;;;;;;;;;;1,000000;0,833333;0,750000;0,416667;0,416667;0,416667;0,416667;0,416667;0,700000;0,700000;0,700000;0,700000;0,833333;0,833333;0,416667;0,467287;0,416667;0,666134;0,700000;0,666283;0,666134;0,750000;0,744391;0,750000;0,750000;0,750000;0,416667;0,416667;0,453017;0,439912;0,416667;0,416667;0,420042;0,500000;0,506193;0,453017;0,350000;0,350000;0,350000;0,363731;0,000000;0,000000;0,000000;0,500000;0,416667;0,442551;0,416667;0,416667;0,416667;0,453017;0,453017;0,416667;0,416667;0,000000;0,000000;0,000000;0,425000;0,392688;0,833333;0,833333;0,350000;0,350000;0,350000;0,350000;0,394285;1,000000;0,350000;0,442551;0,375000;0,500000;0,375000;0,394285;0,416667;0,750000;0,350000;0,350000;0,350000;0,446547;0,750000;0,416667;0,500000;0,416667;0,416667;0,416667;0,416667;0,750000;0,750000;0,416667;0,416667;0,500000;0,500000;0,416667;0,416667;0,416667;0,500000;0,750000;0,416667;0,500000;0,500000;
27;;;;;;;;;;;;;;;;;;;;;;;;;;;1,000000;0,583333;0,666667;0,666667;0,333333;0,333333;0,333333;0,533333;0,533333;0,533333;0,533333;0,666667;0,666667;0,333333;0,383954;0,333333;0,499467;0,533333;0,716848;0,499467;0,666667;0,812865;0,666667;0,583333;0,583333;0,333333;0,333333;0,369684;0,356579;0,666667;0,666667;0,511379;0,416667;0,422859;0,369684;0,266667;0,266667;0,266667;0,280397;0,000000;0,000000;0,000000;0,416667;0,333333;0,359218;0,333333;0,333333;0,333333;0,369684;0,369684;0,333333;0,333333;0,000000;0,000000;0,000000;0,341667;0,496667;0,666667;0,666667;0,533333;0,533333;0,533333;0,533333;0,310952;0,833333;0,266667;0,359218;0,583333;0,833333;0,291667;0,310952;0,333333;0,666667;0,266667;0,266667;0,266667;0,363213;0,666667;0,333333;0,416667;0,333333;0,333333;0,333333;0,333333;0,666667;0,666667;0,333333;0,333333;0,416667;0,416667;0,333333;0,333333;0,333333;0,416667;0,666667;0,333333;0,416667;0,416667;
28;;;;;;;;;;;;;;;;;;;;;;;;;;;;1,000000;0,341667;0,341667;0,341667;0,341667;0,341667;0,450000;0,450000;0,450000;0,450000;0,583333;0,583333;0,341667;0,392287;0,341667;0,416134;0,450000;0,416283;0,416134;0,675000;0,494391;0,675000;0,500000;0,500000;0,341667;0,341667;0,378017;0,364912;0,341667;0,341667;0,345042;0,425000;0,431193;0,378017;0,275000;0,275000;0,275000;0,288731;0,000000;0,000000;0,000000;0,750000;0,341667;0,367551;0,341667;0,341667;0,341667;0,378017;0,378017;0,341667;0,341667;0,000000;0,000000;0,000000;0,350000;0,317688;0,583333;0,583333;0,275000;0,275000;0,275000;0,275000;0,319285;0,750000;0,275000;0,367551;0,300000;0,425000;0,300000;0,319285;0,341667;0,675000;0,275000;0,275000;0,275000;0,371547;0,675000;0,341667;0,425000;0,341667;0,341667;0,341667;0,341667;0,675000;0,675000;0,341667;0,341667;0,425000;0,425000;0,341667;0,341667;0,341667;0,425000;0,675000;0,341667;0,425000;0,425000;
29;;;;;;;;;;;;;;;;;;;;;;;;;;;;;1,000000;0,666667;0,333333;0,333333;0,333333;0,266667;0,266667;0,266667;0,266667;0,333333;0,333333;0,333333;0,383954;0,333333;0,278530;0,266667;0,514719;0,278530;0,666667;0,578402;0,666667;0,291667;0,291667;0,333333;0,333333;0,369684;0,356579;0,666667;0,666667;0,511379;0,416667;0,422859;0,369684;0,266667;0,266667;0,266667;0,280397;0,000000;0,000000;0,000000;0,416667;0,333333;0,359218;0,333333;0,333333;0,333333;0,369684;0,369684;0,333333;0,333333;0,000000;0,000000;0,000000;0,341667;0,496667;0,333333;0,333333;0,533333;0,533333;0,533333;0,533333;0,310952;0,416667;0,266667;0,359218;0,583333;0,833333;0,291667;0,310952;0,333333;0,666667;0,266667;0,266667;0,266667;0,363213;0,666667;0,333333;0,416667;0,333333;0,333333;0,333333;0,333333;0,666667;0,666667;0,333333;0,333333;0,416667;0,416667;0,333333;0,333333;0,333333;0,416667;0,666667;0,333333;0,416667;0,416667;
30;;;;;;;;;;;;;;;;;;;;;;;;;;;;;;1,000000;0,333333;0,333333;0,333333;0,266667;0,266667;0,266667;0,266667;0,333333;0,333333;0,333333;0,383954;0,333333;0,278530;0,266667;0,514719;0,278530;0,666667;0,578402;0,666667;0,291667;0,291667;0,333333;0,333333;0,369684;0,356579;0,666667;0,666667;0,511379;0,416667;0,422859;0,369684;0,266667;0,266667;0,266667;0,280397;0,000000;0,000000;0,000000;0,416667;0,333333;0,359218;0,333333;0,333333;0,333333;0,369684;0,369684;0,333333;0,333333;0,000000;0,000000;0,000000;0,341667;0,496667;0,333333;0,333333;0,533333;0,533333;0,533333;0,533333;0,310952;0,416667;0,266667;0,359218;0,583333;0,833333;0,291667;0,310952;0,333333;0,666667;0,266667;0,266667;0,266667;0,363213;0,666667;0,333333;0,416667;0,333333;0,333333;0,333333;0,333333;0,666667;0,666667;0,333333;0,333333;0,416667;0,416667;0,333333;0,333333;0,333333;0,416667;0,666667;0,333333;0,416667;0,416667;
31;;;;;;;;;;;;;;;;;;;;;;;;;;;;;;;1,000000;0,666667;0,666667;0,266667;0,266667;0,266667;0,266667;0,333333;0,333333;0,333333;0,383954;0,333333;0,278530;0,266667;0,294435;0,278530;0,666667;0,347862;0,666667;0,291667;0,291667;0,333333;0,333333;0,369684;0,356579;0,333333;0,333333;0,336708;0,416667;0,422859;0,369684;0,266667;0,266667;0,266667;0,280397;0,000000;0,000000;0,000000;0,416667;0,333333;0,359218;0,333333;0,333333;0,333333;0,369684;0,369684;0,333333;0,333333;0,000000;0,000000;0,000000;0,341667;0,309355;0,333333;0,333333;0,266667;0,266667;0,266667;0,266667;0,310952;0,416667;0,266667;0,359218;0,291667;0,416667;0,291667;0,310952;0,333333;0,666667;0,266667;0,266667;0,266667;0,363213;0,666667;0,333333;0,416667;0,333333;0,333333;0,333333;0,333333;0,666667;0,666667;0,333333;0,333333;0,416667;0,416667;0,333333;0,333333;0,333333;0,416667;0,666667;0,333333;0,416667;0,416667;
32;;;;;;;;;;;;;;;;;;;;;;;;;;;;;;;;1,000000;0,666667;0,266667;0,266667;0,266667;0,266667;0,333333;0,333333;0,333333;0,383954;0,333333;0,278530;0,266667;0,294435;0,278530;0,666667;0,347862;0,666667;0,291667;0,291667;0,333333;0,333333;0,369684;0,356579;0,333333;0,333333;0,336708;0,416667;0,422859;0,369684;0,266667;0,266667;0,266667;0,280397;0,000000;0,000000;0,000000;0,416667;0,333333;0,359218;0,333333;0,333333;0,333333;0,369684;0,369684;0,333333;0,333333;0,000000;0,000000;0,000000;0,341667;0,309355;0,333333;0,333333;0,266667;0,266667;0,266667;0,266667;0,310952;0,416667;0,266667;0,359218;0,291667;0,416667;0,291667;0,310952;0,333333;0,666667;0,266667;0,266667;0,266667;0,363213;0,666667;0,333333;0,416667;0,333333;0,333333;0,333333;0,333333;0,666667;0,666667;0,333333;0,333333;0,416667;0,416667;0,333333;0,333333;0,333333;0,416667;0,666667;0,333333;0,416667;0,416667;
33;;;;;;;;;;;;;;;;;;;;;;;;;;;;;;;;;1,000000;0,266667;0,266667;0,266667;0,266667;0,333333;0,333333;0,333333;0,383954;0,333333;0,278530;0,266667;0,294435;0,278530;0,666667;0,347862;0,666667;0,291667;0,291667;0,333333;0,333333;0,369684;0,356579;0,333333;0,333333;0,336708;0,416667;0,422859;0,369684;0,266667;0,266667;0,266667;0,280397;0,000000;0,000000;0,000000;0,416667;0,333333;0,359218;0,333333;0,333333;0,333333;0,369684;0,369684;0,333333;0,333333;0,000000;0,000000;0,000000;0,341667;0,309355;0,333333;0,333333;0,266667;0,266667;0,266667;0,266667;0,310952;0,416667;0,266667;0,359218;0,291667;0,416667;0,291667;0,310952;0,333333;0,666667;0,266667;0,266667;0,266667;0,363213;0,666667;0,333333;0,416667;0,333333;0,333333;0,333333;0,333333;0,666667;0,666667;0,333333;0,333333;0,416667;0,416667;0,333333;0,333333;0,333333;0,416667;0,666667;0,333333;0,416667;0,416667;
34;;;;;;;;;;;;;;;;;;;;;;;;;;;;;;;;;;1,000000;0,800000;0,800000;0,800000;0,533333;0,533333;0,266667;0,317287;0,266667;0,366134;0,400000;0,366283;0,366134;0,600000;0,444391;0,600000;0,450000;0,450000;0,266667;0,266667;0,303017;0,289912;0,266667;0,266667;0,270042;0,350000;0,356193;0,303017;0,200000;0,200000;0,200000;0,213731;0,000000;0,000000;0,000000;0,350000;0,266667;0,292551;0,266667;0,266667;0,266667;0,303017;0,303017;0,266667;0,266667;0,000000;0,000000;0,000000;0,275000;0,242688;0,533333;0,533333;0,200000;0,200000;0,200000;0,200000;0,244285;0,700000;0,200000;0,292551;0,225000;0,350000;0,225000;0,244285;0,266667;0,600000;0,200000;0,200000;0,200000;0,296547;0,600000;0,266667;0,350000;0,266667;0,266667;0,266667;0,266667;0,600000;0,600000;0,266667;0,266667;0,350000;0,350000;0,266667;0,266667;0,266667;0,350000;0,600000;0,266667;0,350000;0,350000;
35;;;;;;;;;;;;;;;;;;;;;;;;;;;;;;;;;;;1,000000;0,800000;0,800000;0,533333;0,533333;0,266667;0,317287;0,266667;0,366134;0,400000;0,366283;0,366134;0,600000;0,444391;0,600000;0,450000;0,450000;0,266667;0,266667;0,303017;0,289912;0,266667;0,266667;0,270042;0,350000;0,356193;0,303017;0,200000;0,200000;0,200000;0,213731;0,000000;0,000000;0,000000;0,350000;0,266667;0,292551;0,266667;0,266667;0,266667;0,303017;0,303017;0,266667;0,266667;0,000000;0,000000;0,000000;0,275000;0,242688;0,533333;0,533333;0,200000;0,200000;0,200000;0,200000;0,244285;0,700000;0,200000;0,292551;0,225000;0,350000;0,225000;0,244285;0,266667;0,600000;0,200000;0,200000;0,200000;0,296547;0,600000;0,266667;0,350000;0,266667;0,266667;0,266667;0,266667;0,600000;0,600000;0,266667;0,266667;0,350000;0,350000;0,266667;0,266667;0,266667;0,350000;0,600000;0,266667;0,350000;0,350000;
36;;;;;;;;;;;;;;;;;;;;;;;;;;;;;;;;;;;;1,000000;0,800000;0,533333;0,533333;0,266667;0,317287;0,266667;0,366134;0,400000;0,366283;0,366134;0,600000;0,444391;0,600000;0,450000;0,450000;0,266667;0,266667;0,303017;0,289912;0,266667;0,266667;0,270042;0,350000;0,356193;0,303017;0,200000;0,200000;0,200000;0,213731;0,000000;0,000000;0,000000;0,350000;0,266667;0,292551;0,266667;0,266667;0,266667;0,303017;0,303017;0,266667;0,266667;0,000000;0,000000;0,000000;0,275000;0,242688;0,533333;0,533333;0,200000;0,200000;0,200000;0,200000;0,244285;0,700000;0,200000;0,292551;0,225000;0,350000;0,225000;0,244285;0,266667;0,600000;0,200000;0,200000;0,200000;0,296547;0,600000;0,266667;0,350000;0,266667;0,266667;0,266667;0,266667;0,600000;0,600000;0,266667;0,266667;0,350000;0,350000;0,266667;0,266667;0,266667;0,350000;0,600000;0,266667;0,350000;0,350000;
37;;;;;;;;;;;;;;;;;;;;;;;;;;;;;;;;;;;;;1,000000;0,533333;0,533333;0,266667;0,317287;0,266667;0,366134;0,400000;0,366283;0,366134;0,600000;0,444391;0,600000;0,450000;0,450000;0,266667;0,266667;0,303017;0,289912;0,266667;0,266667;0,270042;0,350000;0,356193;0,303017;0,200000;0,200000;0,200000;0,213731;0,000000;0,000000;0,000000;0,350000;0,266667;0,292551;0,266667;0,266667;0,266667;0,303017;0,303017;0,266667;0,266667;0,000000;0,000000;0,000000;0,275000;0,242688;0,533333;0,533333;0,200000;0,200000;0,200000;0,200000;0,244285;0,700000;0,200000;0,292551;0,225000;0,350000;0,225000;0,244285;0,266667;0,600000;0,200000;0,200000;0,200000;0,296547;0,600000;0,266667;0,350000;0,266667;0,266667;0,266667;0,266667;0,600000;0,600000;0,266667;0,266667;0,350000;0,350000;0,266667;0,266667;0,266667;0,350000;0,600000;0,266667;0,350000;0,350000;
38;;;;;;;;;;;;;;;;;;;;;;;;;;;;;;;;;;;;;;1,000000;0,666667;0,333333;0,383954;0,333333;0,499467;0,533333;0,499617;0,499467;0,666667;0,577724;0,666667;0,583333;0,583333;0,333333;0,333333;0,369684;0,356579;0,333333;0,333333;0,336708;0,416667;0,422859;0,369684;0,266667;0,266667;0,266667;0,280397;0,000000;0,000000;0,000000;0,416667;0,333333;0,359218;0,333333;0,333333;0,333333;0,369684;0,369684;0,333333;0,333333;0,000000;0,000000;0,000000;0,341667;0,309355;0,666667;0,666667;0,266667;0,266667;0,266667;0,266667;0,310952;0,833333;0,266667;0,359218;0,291667;0,416667;0,291667;0,310952;0,333333;0,666667;0,266667;0,266667;0,266667;0,363213;0,666667;0,333333;0,416667;0,333333;0,333333;0,333333;0,333333;0,666667;0,666667;0,333333;0,333333;0,416667;0,416667;0,333333;0,333333;0,333333;0,416667;0,666667;0,333333;0,416667;0,416667;
39;;;;;;;;;;;;;;;;;;;;;;;;;;;;;;;;;;;;;;;1,000000;0,333333;0,383954;0,333333;0,499467;0,533333;0,499617;0,499467;0,666667;0,577724;0,666667;0,583333;0,583333;0,333333;0,333333;0,369684;0,356579;0,333333;0,333333;0,336708;0,416667;0,422859;0,369684;0,266667;0,266667;0,266667;0,280397;0,000000;0,000000;0,000000;0,416667;0,333333;0,359218;0,333333;0,333333;0,333333;0,369684;0,369684;0,333333;0,333333;0,000000;0,000000;0,000000;0,341667;0,309355;0,666667;0,666667;0,266667;0,266667;0,266667;0,266667;0,310952;0,833333;0,266667;0,359218;0,291667;0,416667;0,291667;0,310952;0,333333;0,666667;0,266667;0,266667;0,266667;0,363213;0,666667;0,333333;0,416667;0,333333;0,333333;0,333333;0,333333;0,666667;0,666667;0,333333;0,333333;0,416667;0,416667;0,333333;0,333333;0,333333;0,416667;0,666667;0,333333;0,416667;0,416667;
40;;;;;;;;;;;;;;;;;;;;;;;;;;;;;;;;;;;;;;;;1,000000;0,618763;0,666667;0,278530;0,266667;0,294435;0,278530;0,666667;0,347862;0,666667;0,291667;0,291667;0,333333;0,333333;0,369684;0,356579;0,333333;0,333333;0,336708;0,833333;0,422859;0,369684;0,266667;0,266667;0,266667;0,280397;0,000000;0,000000;0,000000;0,416667;0,333333;0,359218;0,333333;0,333333;0,333333;0,369684;0,369684;0,333333;0,333333;0,000000;0,000000;0,000000;0,341667;0,309355;0,333333;0,333333;0,266667;0,266667;0,266667;0,266667;0,310952;0,416667;0,266667;0,359218;0,291667;0,416667;0,291667;0,310952;0,333333;0,666667;0,266667;0,266667;0,266667;0,363213;0,666667;0,333333;0,416667;0,333333;0,333333;0,333333;0,333333;0,666667;0,666667;0,333333;0,333333;0,416667;0,416667;0,333333;0,333333;0,333333;0,416667;0,666667;0,333333;0,416667;0,416667;
41;;;;;;;;;;;;;;;;;;;;;;;;;;;;;;;;;;;;;;;;;1,000000;0,618763;0,329151;0,317287;0,345056;0,329151;0,717287;0,398482;0,717287;0,342287;0,342287;0,383954;0,383954;0,420304;0,407199;0,383954;0,383954;0,387329;0,467287;0,473480;0,420304;0,317287;0,317287;0,317287;0,331018;0,000000;0,000000;0,000000;0,467287;0,383954;0,409838;0,383954;0,383954;0,383954;0,420304;0,420304;0,383954;0,383954;0,000000;0,000000;0,000000;0,392287;0,359975;0,383954;0,383954;0,317287;0,317287;0,317287;0,317287;0,361572;0,467287;0,317287;0,409838;0,342287;0,467287;0,342287;0,361572;0,383954;0,717287;0,317287;0,317287;0,317287;0,413834;0,717287;0,383954;0,467287;0,383954;0,383954;0,383954;0,383954;0,717287;0,717287;0,383954;0,383954;0,467287;0,467287;0,383954;0,383954;0,383954;0,467287;0,717287;0,383954;0,467287;0,467287;
42;;;;;;;;;;;;;;;;;;;;;;;;;;;;;;;;;;;;;;;;;;1,000000;0,278530;0,266667;0,294435;0,278530;0,666667;0,347862;0,666667;0,291667;0,291667;0,333333;0,333333;0,369684;0,356579;0,333333;0,333333;0,336708;0,833333;0,422859;0,369684;0,266667;0,266667;0,266667;0,280397;0,000000;0,000000;0,000000;0,416667;0,333333;0,359218;0,333333;0,333333;0,333333;0,369684;0,369684;0,333333;0,333333;0,000000;0,000000;0,000000;0,341667;0,309355;0,333333;0,333333;0,266667;0,266667;0,266667;0,266667;0,310952;0,416667;0,266667;0,359218;0,291667;0,416667;0,291667;0,310952;0,333333;0,666667;0,266667;0,266667;0,266667;0,363213;0,666667;0,333333;0,416667;0,333333;0,333333;0,333333;0,333333;0,666667;0,666667;0,333333;0,333333;0,416667;0,416667;0,333333;0,333333;0,333333;0,416667;0,666667;0,333333;0,416667;0,416667;
43;;;;;;;;;;;;;;;;;;;;;;;;;;;;;;;;;;;;;;;;;;;1,000000;0,788254;0,721883;0,776927;0,611863;0,493094;0,611863;0,416134;0,416134;0,278530;0,278530;0,314881;0,493562;0,479190;0,278530;0,523327;0,361863;0,368056;0,314881;0,375037;0,375037;0,375037;0,343513;0,000000;0,000000;0,000000;0,361863;0,278530;0,439112;0,278530;0,278530;0,278530;0,314881;0,314881;0,508371;0,508371;0,000000;0,000000;0,000000;0,525037;0,439763;0,499467;0,499467;0,211863;0,211863;0,211863;0,211863;0,463608;0,666134;0,375037;0,439112;0,425037;0,361863;0,425037;0,463608;0,278530;0,611863;0,211863;0,211863;0,211863;0,308410;0,611863;0,278530;0,675037;0,508371;0,278530;0,278530;0,278530;0,611863;0,611863;0,278530;0,278530;0,361863;0,361863;0,278530;0,278530;0,508371;0,675037;0,611863;0,278530;0,361863;0,361863;
44;;;;;;;;;;;;;;;;;;;;;;;;;;;;;;;;;;;;;;;;;;;;1,000000;0,733845;0,788254;0,600000;0,444391;0,600000;0,450000;0,450000;0,266667;0,266667;0,303017;0,289912;0,455463;0,266667;0,598369;0,350000;0,356193;0,303017;0,200000;0,200000;0,200000;0,213731;0,000000;0,000000;0,000000;0,350000;0,266667;0,292551;0,266667;0,266667;0,266667;0,303017;0,303017;0,266667;0,266667;0,000000;0,000000;0,000000;0,275000;0,242688;0,533333;0,533333;0,200000;0,200000;0,200000;0,200000;0,244285;0,700000;0,200000;0,292551;0,225000;0,350000;0,225000;0,244285;0,266667;0,600000;0,200000;0,200000;0,200000;0,296547;0,600000;0,266667;0,350000;0,266667;0,266667;0,266667;0,266667;0,600000;0,600000;0,266667;0,266667;0,350000;0,350000;0,266667;0,266667;0,266667;0,350000;0,600000;0,266667;0,350000;0,350000;
45;;;;;;;;;;;;;;;;;;;;;;;;;;;;;;;;;;;;;;;;;;;;;1,000000;0,721883;0,627768;0,591640;0,627768;0,416283;0,416283;0,294435;0,294435;0,330786;0,491218;0,514719;0,740824;0,530512;0,377768;0,383961;0,330786;0,372694;0,372694;0,372694;0,341169;0,000000;0,000000;0,000000;0,377768;0,294435;0,436768;0,294435;0,294435;0,294435;0,330786;0,330786;0,506027;0,506027;0,000000;0,000000;0,000000;0,522694;0,508007;0,499617;0,499617;0,381385;0,381385;0,381385;0,381385;0,461264;0,666283;0,372694;0,436768;0,598034;0,681385;0,422694;0,461264;0,294435;0,627768;0,227768;0,227768;0,227768;0,324315;0,627768;0,294435;0,672694;0,506027;0,294435;0,294435;0,294435;0,627768;0,627768;0,294435;0,294435;0,377768;0,377768;0,294435;0,294435;0,506027;0,672694;0,627768;0,294435;0,377768;0,377768;
46;;;;;;;;;;;;;;;;;;;;;;;;;;;;;;;;;;;;;;;;;;;;;;1,000000;0,611863;0,493094;0,611863;0,416134;0,416134;0,278530;0,278530;0,314881;0,493562;0,479190;0,278530;0,523327;0,361863;0,368056;0,314881;0,375037;0,375037;0,375037;0,343513;0,000000;0,000000;0,000000;0,361863;0,278530;0,439112;0,278530;0,278530;0,278530;0,314881;0,314881;0,508371;0,508371;0,000000;0,000000;0,000000;0,525037;0,439763;0,499467;0,499467;0,211863;0,211863;0,211863;0,211863;0,463608;0,666134;0,375037;0,439112;0,425037;0,361863;0,425037;0,463608;0,278530;0,611863;0,211863;0,211863;0,211863;0,308410;0,611863;0,278530;0,675037;0,508371;0,278530;0,278530;0,278530;0,611863;0,611863;0,278530;0,278530;0,361863;0,361863;0,278530;0,278530;0,508371;0,675037;0,611863;0,278530;0,361863;0,361863;
47;;;;;;;;;;;;;;;;;;;;;;;;;;;;;;;;;;;;;;;;;;;;;;;1,000000;0,681195;1,000000;0,625000;0,625000;0,666667;0,666667;0,703017;0,689912;0,666667;0,666667;0,670042;0,750000;0,756193;0,703017;0,600000;0,600000;0,600000;0,613731;0,000000;0,000000;0,000000;0,750000;0,666667;0,692551;0,666667;0,666667;0,666667;0,703017;0,703017;0,666667;0,666667;0,000000;0,000000;0,000000;0,675000;0,642688;0,666667;0,666667;0,600000;0,600000;0,600000;0,600000;0,644285;0,750000;0,600000;0,692551;0,625000;0,750000;0,625000;0,644285;0,666667;1,000000;0,600000;0,600000;0,600000;0,696547;1,000000;0,666667;0,750000;0,666667;0,666667;0,666667;0,666667;1,000000;1,000000;0,666667;0,666667;0,750000;0,750000;0,666667;0,666667;0,666667;0,750000;1,000000;0,666667;0,750000;0,750000;
48;;;;;;;;;;;;;;;;;;;;;;;;;;;;;;;;;;;;;;;;;;;;;;;;1,000000;0,681195;0,494391;0,494391;0,347862;0,347862;0,620158;0,620090;0,578402;0,578402;0,569436;0,431195;0,437388;0,384212;0,408292;0,408292;0,408292;0,376768;0,000000;0,000000;0,000000;0,431195;0,347862;0,472366;0,347862;0,347862;0,347862;0,384212;0,384212;0,541625;0,541625;0,000000;0,000000;0,000000;0,558292;0,631137;0,577724;0,577724;0,445069;0,445069;0,445069;0,445069;0,496862;0,744391;0,408292;0,472366;0,644716;0,745069;0,614305;0,595951;0,347862;0,681195;0,281195;0,281195;0,281195;0,377741;0,681195;0,347862;0,708292;0,739880;0,347862;0,347862;0,347862;0,681195;0,681195;0,347862;0,347862;0,431195;0,431195;0,547672;0,547672;0,739305;0,708292;0,681195;0,347862;0,431195;0,431195;
49;;;;;;;;;;;;;;;;;;;;;;;;;;;;;;;;;;;;;;;;;;;;;;;;;1,000000;0,625000;0,625000;0,666667;0,666667;0,703017;0,689912;0,666667;0,666667;0,670042;0,750000;0,756193;0,703017;0,600000;0,600000;0,600000;0,613731;0,000000;0,000000;0,000000;0,750000;0,666667;0,692551;0,666667;0,666667;0,666667;0,703017;0,703017;0,666667;0,666667;0,000000;0,000000;0,000000;0,675000;0,642688;0,666667;0,666667;0,600000;0,600000;0,600000;0,600000;0,644285;0,750000;0,600000;0,692551;0,625000;0,750000;0,625000;0,644285;0,666667;1,000000;0,600000;0,600000;0,600000;0,696547;1,000000;0,666667;0,750000;0,666667;0,666667;0,666667;0,666667;1,000000;1,000000;0,666667;0,666667;0,750000;0,750000;0,666667;0,666667;0,666667;0,750000;1,000000;0,666667;0,750000;0,750000;
50;;;;;;;;;;;;;;;;;;;;;;;;;;;;;;;;;;;;;;;;;;;;;;;;;;1,000000;0,750000;0,505463;0,291667;0,328017;0,314912;0,291667;0,291667;0,295042;0,375000;0,381193;0,328017;0,225000;0,225000;0,225000;0,238731;0,000000;0,000000;0,000000;0,375000;0,291667;0,317551;0,291667;0,291667;0,291667;0,328017;0,328017;0,291667;0,291667;0,000000;0,000000;0,000000;0,300000;0,267688;0,583333;0,583333;0,225000;0,225000;0,225000;0,225000;0,269285;0,750000;0,225000;0,317551;0,250000;0,375000;0,250000;0,269285;0,291667;0,625000;0,225000;0,225000;0,225000;0,321547;0,625000;0,291667;0,375000;0,291667;0,291667;0,291667;0,291667;0,625000;0,625000;0,291667;0,291667;0,375000;0,375000;0,291667;0,291667;0,291667;0,375000;0,625000;0,291667;0,375000;0,375000;
51;;;;;;;;;;;;;;;;;;;;;;;;;;;;;;;;;;;;;;;;;;;;;;;;;;;1,000000;0,505463;0,291667;0,328017;0,314912;0,291667;0,291667;0,295042;0,375000;0,381193;0,328017;0,225000;0,225000;0,225000;0,238731;0,000000;0,000000;0,000000;0,375000;0,291667;0,317551;0,291667;0,291667;0,291667;0,328017;0,328017;0,291667;0,291667;0,000000;0,000000;0,000000;0,300000;0,267688;0,583333;0,583333;0,225000;0,225000;0,225000;0,225000;0,269285;0,750000;0,225000;0,317551;0,250000;0,375000;0,250000;0,269285;0,291667;0,625000;0,225000;0,225000;0,225000;0,321547;0,625000;0,291667;0,375000;0,291667;0,291667;0,291667;0,291667;0,625000;0,625000;0,291667;0,291667;0,375000;0,375000;0,291667;0,291667;0,291667;0,375000;0,625000;0,291667;0,375000;0,375000;
52;;;;;;;;;;;;;;;;;;;;;;;;;;;;;;;;;;;;;;;;;;;;;;;;;;;;1,000000;0,666667;0,369684;0,356579;0,333333;0,333333;0,336708;0,416667;0,422859;0,369684;0,266667;0,266667;0,266667;0,280397;0,000000;0,000000;0,000000;0,416667;0,333333;0,359218;0,333333;0,333333;0,333333;0,369684;0,369684;0,333333;0,333333;0,000000;0,000000;0,000000;0,341667;0,309355;0,333333;0,333333;0,266667;0,266667;0,266667;0,266667;0,310952;0,416667;0,266667;0,359218;0,291667;0,416667;0,291667;0,310952;0,333333;0,666667;0,266667;0,266667;0,266667;0,363213;0,666667;0,333333;0,416667;0,333333;0,333333;0,333333;0,333333;0,666667;0,666667;0,333333;0,333333;0,416667;0,416667;0,333333;0,333333;0,333333;0,416667;0,666667;0,333333;0,416667;0,416667;
53;;;;;;;;;;;;;;;;;;;;;;;;;;;;;;;;;;;;;;;;;;;;;;;;;;;;;1,000000;0,369684;0,356579;0,333333;0,333333;0,336708;0,416667;0,422859;0,369684;0,266667;0,266667;0,266667;0,280397;0,000000;0,000000;0,000000;0,416667;0,333333;0,359218;0,333333;0,333333;0,333333;0,369684;0,369684;0,333333;0,333333;0,000000;0,000000;0,000000;0,341667;0,309355;0,333333;0,333333;0,266667;0,266667;0,266667;0,266667;0,310952;0,416667;0,266667;0,359218;0,291667;0,416667;0,291667;0,310952;0,333333;0,666667;0,266667;0,266667;0,266667;0,363213;0,666667;0,333333;0,416667;0,333333;0,333333;0,333333;0,333333;0,666667;0,666667;0,333333;0,333333;0,416667;0,416667;0,333333;0,333333;0,333333;0,416667;0,666667;0,333333;0,416667;0,416667;
54;;;;;;;;;;;;;;;;;;;;;;;;;;;;;;;;;;;;;;;;;;;;;;;;;;;;;;1,000000;0,522174;0,369684;0,369684;0,717522;0,453017;0,459210;0,406035;0,303017;0,303017;0,303017;0,316748;0,000000;0,000000;0,000000;0,453017;0,369684;0,395569;0,369684;0,369684;0,369684;0,406035;0,406035;0,369684;0,369684;0,000000;0,000000;0,000000;0,378017;0,597551;0,369684;0,369684;0,303017;0,303017;0,303017;0,303017;0,347303;0,453017;0,303017;0,395569;0,328017;0,453017;0,549540;0,513563;0,369684;0,703017;0,303017;0,303017;0,303017;0,399564;0,703017;0,369684;0,453017;0,739368;0,369684;0,369684;0,369684;0,703017;0,703017;0,369684;0,369684;0,453017;0,453017;0,632873;0,632873;0,369684;0,453017;0,703017;0,369684;0,453017;0,453017;
55;;;;;;;;;;;;;;;;;;;;;;;;;;;;;;;;;;;;;;;;;;;;;;;;;;;;;;;1,000000;0,356579;0,356579;0,548456;0,439912;0,446105;0,392929;0,518524;0,518524;0,518524;0,487000;0,000000;0,000000;0,000000;0,439912;0,356579;0,724170;0,356579;0,356579;0,356579;0,392929;0,392929;0,651858;0,651858;0,000000;0,000000;0,000000;0,806688;0,583249;0,356579;0,356579;0,289912;0,289912;0,289912;0,289912;0,816780;0,439912;0,683925;0,724170;0,758925;0,439912;0,721214;0,702722;0,356579;0,689912;0,289912;0,289912;0,289912;0,386458;0,689912;0,356579;0,818524;0,651858;0,356579;0,356579;0,356579;0,689912;0,689912;0,356579;0,356579;0,439912;0,439912;0,555967;0,555967;0,651858;0,818524;0,689912;0,356579;0,439912;0,439912;
56;;;;;;;;;;;;;;;;;;;;;;;;;;;;;;;;;;;;;;;;;;;;;;;;;;;;;;;;1,000000;0,666667;0,606106;0,416667;0,422859;0,369684;0,266667;0,266667;0,266667;0,280397;0,000000;0,000000;0,000000;0,416667;0,333333;0,359218;0,333333;0,333333;0,333333;0,369684;0,369684;0,333333;0,333333;0,000000;0,000000;0,000000;0,341667;0,496667;0,333333;0,333333;0,533333;0,533333;0,533333;0,533333;0,310952;0,416667;0,266667;0,359218;0,583333;0,833333;0,291667;0,310952;0,333333;0,666667;0,266667;0,266667;0,266667;0,363213;0,666667;0,333333;0,416667;0,333333;0,333333;0,333333;0,333333;0,666667;0,666667;0,333333;0,333333;0,416667;0,416667;0,333333;0,333333;0,333333;0,416667;0,666667;0,333333;0,416667;0,416667;
57;;;;;;;;;;;;;;;;;;;;;;;;;;;;;;;;;;;;;;;;;;;;;;;;;;;;;;;;;1,000000;0,511379;0,416667;0,422859;0,369684;0,266667;0,266667;0,266667;0,280397;0,000000;0,000000;0,000000;0,416667;0,333333;0,359218;0,333333;0,333333;0,333333;0,369684;0,369684;0,333333;0,333333;0,000000;0,000000;0,000000;0,341667;0,496667;0,333333;0,333333;0,533333;0,533333;0,533333;0,533333;0,310952;0,416667;0,266667;0,359218;0,583333;0,833333;0,291667;0,310952;0,333333;0,666667;0,266667;0,266667;0,266667;0,363213;0,666667;0,333333;0,416667;0,333333;0,333333;0,333333;0,333333;0,666667;0,666667;0,333333;0,333333;0,416667;0,416667;0,333333;0,333333;0,333333;0,416667;0,666667;0,333333;0,416667;0,416667;
58;;;;;;;;;;;;;;;;;;;;;;;;;;;;;;;;;;;;;;;;;;;;;;;;;;;;;;;;;;1,000000;0,420042;0,426234;0,373059;0,617631;0,617631;0,617631;0,509084;0,000000;0,000000;0,000000;0,420042;0,336708;0,654998;0,336708;0,336708;0,336708;0,373059;0,373059;0,522704;0,522704;0,000000;0,000000;0,000000;0,570717;0,623941;0,336708;0,336708;0,378046;0,378046;0,378046;0,378046;0,596547;0,420042;0,636355;0,654998;0,603834;0,678046;0,572132;0,553688;0,336708;0,670042;0,383614;0,383614;0,383614;0,414285;0,670042;0,336708;0,420042;0,543301;0,336708;0,336708;0,336708;0,670042;0,670042;0,516947;0,516947;0,420042;0,420042;0,511444;0,511444;0,521074;0,420042;0,670042;0,336708;0,420042;0,420042;
59;;;;;;;;;;;;;;;;;;;;;;;;;;;;;;;;;;;;;;;;;;;;;;;;;;;;;;;;;;;1,000000;0,506193;0,453017;0,350000;0,350000;0,350000;0,363731;0,000000;0,000000;0,000000;0,500000;0,416667;0,442551;0,416667;0,416667;0,416667;0,453017;0,453017;0,416667;0,416667;0,000000;0,000000;0,000000;0,425000;0,392688;0,416667;0,416667;0,350000;0,350000;0,350000;0,350000;0,394285;0,500000;0,350000;0,442551;0,375000;0,500000;0,375000;0,394285;0,416667;0,750000;0,350000;0,350000;0,350000;0,446547;0,750000;0,416667;0,500000;0,416667;0,416667;0,416667;0,416667;0,750000;0,750000;0,416667;0,416667;0,500000;0,500000;0,416667;0,416667;0,416667;0,500000;0,750000;0,416667;0,500000;0,500000;
60;;;;;;;;;;;;;;;;;;;;;;;;;;;;;;;;;;;;;;;;;;;;;;;;;;;;;;;;;;;;1,000000;0,632909;0,356193;0,356193;0,356193;0,369924;0,000000;0,000000;0,000000;0,506193;0,666667;0,448744;0,422859;0,422859;0,422859;0,459210;0,459210;0,422859;0,422859;0,000000;0,000000;0,000000;0,431193;0,398881;0,422859;0,422859;0,356193;0,356193;0,356193;0,356193;0,400478;0,506193;0,356193;0,448744;0,381193;0,506193;0,381193;0,400478;0,422859;0,756193;0,356193;0,356193;0,356193;0,452739;0,756193;0,422859;0,506193;0,422859;0,422859;0,422859;0,422859;0,756193;0,756193;0,422859;0,422859;0,506193;0,506193;0,422859;0,422859;0,422859;0,506193;0,756193;0,422859;0,506193;0,506193;
61;;;;;;;;;;;;;;;;;;;;;;;;;;;;;;;;;;;;;;;;;;;;;;;;;;;;;;;;;;;;;1,000000;0,303017;0,303017;0,303017;0,316748;0,000000;0,000000;0,000000;0,453017;0,632909;0,395569;0,369684;0,369684;0,369684;0,406035;0,406035;0,369684;0,369684;0,000000;0,000000;0,000000;0,378017;0,345705;0,369684;0,369684;0,303017;0,303017;0,303017;0,303017;0,347303;0,453017;0,303017;0,395569;0,328017;0,453017;0,328017;0,347303;0,369684;0,703017;0,303017;0,303017;0,303017;0,399564;0,703017;0,369684;0,453017;0,369684;0,369684;0,369684;0,369684;0,703017;0,703017;0,369684;0,369684;0,453017;0,453017;0,369684;0,369684;0,369684;0,453017;0,703017;0,369684;0,453017;0,453017;
62;;;;;;;;;;;;;;;;;;;;;;;;;;;;;;;;;;;;;;;;;;;;;;;;;;;;;;;;;;;;;;1,000000;0,800000;0,800000;0,689115;0,000000;0,000000;0,000000;0,350000;0,266667;0,464074;0,266667;0,266667;0,266667;0,303017;0,303017;0,533333;0,533333;0,000000;0,000000;0,000000;0,550000;0,464725;0,266667;0,266667;0,200000;0,200000;0,200000;0,200000;0,488570;0,350000;0,400000;0,464074;0,450000;0,350000;0,450000;0,488570;0,266667;0,600000;0,400000;0,400000;0,400000;0,430671;0,600000;0,266667;0,700000;0,533333;0,266667;0,266667;0,266667;0,600000;0,600000;0,533333;0,533333;0,350000;0,350000;0,266667;0,266667;0,533333;0,700000;0,600000;0,266667;0,350000;0,350000;
63;;;;;;;;;;;;;;;;;;;;;;;;;;;;;;;;;;;;;;;;;;;;;;;;;;;;;;;;;;;;;;;1,000000;0,800000;0,689115;0,000000;0,000000;0,000000;0,350000;0,266667;0,464074;0,266667;0,266667;0,266667;0,303017;0,303017;0,533333;0,533333;0,000000;0,000000;0,000000;0,550000;0,464725;0,266667;0,266667;0,200000;0,200000;0,200000;0,200000;0,488570;0,350000;0,400000;0,464074;0,450000;0,350000;0,450000;0,488570;0,266667;0,600000;0,400000;0,400000;0,400000;0,430671;0,600000;0,266667;0,700000;0,533333;0,266667;0,266667;0,266667;0,600000;0,600000;0,533333;0,533333;0,350000;0,350000;0,266667;0,266667;0,533333;0,700000;0,600000;0,266667;0,350000;0,350000;
64;;;;;;;;;;;;;;;;;;;;;;;;;;;;;;;;;;;;;;;;;;;;;;;;;;;;;;;;;;;;;;;;1,000000;0,689115;0,000000;0,000000;0,000000;0,350000;0,266667;0,464074;0,266667;0,266667;0,266667;0,303017;0,303017;0,533333;0,533333;0,000000;0,000000;0,000000;0,550000;0,464725;0,266667;0,266667;0,200000;0,200000;0,200000;0,200000;0,488570;0,350000;0,400000;0,464074;0,450000;0,350000;0,450000;0,488570;0,266667;0,600000;0,400000;0,400000;0,400000;0,430671;0,600000;0,266667;0,700000;0,533333;0,266667;0,266667;0,266667;0,600000;0,600000;0,533333;0,533333;0,350000;0,350000;0,266667;0,266667;0,533333;0,700000;0,600000;0,266667;0,350000;0,350000;
65;;;;;;;;;;;;;;;;;;;;;;;;;;;;;;;;;;;;;;;;;;;;;;;;;;;;;;;;;;;;;;;;;1,000000;0,000000;0,000000;0,000000;0,363731;0,280397;0,432550;0,280397;0,280397;0,280397;0,316748;0,316748;0,501809;0,501809;0,000000;0,000000;0,000000;0,518476;0,433201;0,280397;0,280397;0,213731;0,213731;0,213731;0,213731;0,457046;0,363731;0,368476;0,432550;0,418476;0,363731;0,418476;0,457046;0,280397;0,613731;0,609595;0,609595;0,609595;0,523730;0,613731;0,280397;0,668476;0,501809;0,280397;0,280397;0,280397;0,613731;0,613731;0,486745;0,486745;0,525392;0,363731;0,280397;0,280397;0,501809;0,668476;0,613731;0,280397;0,642310;0,363731;
66;;;;;;;;;;;;;;;;;;;;;;;;;;;;;;;;;;;;;;;;;;;;;;;;;;;;;;;;;;;;;;;;;;1,000000;0,500000;0,500000;0,000000;0,000000;0,000000;0,000000;0,000000;0,000000;0,000000;0,000000;0,000000;0,000000;0,000000;0,000000;0,000000;0,000000;0,000000;0,000000;0,000000;0,000000;0,000000;0,000000;0,000000;0,000000;0,000000;0,000000;0,000000;0,000000;0,000000;0,000000;0,000000;0,000000;0,000000;0,000000;0,000000;0,000000;0,000000;0,000000;0,000000;0,000000;0,000000;0,000000;0,000000;0,000000;0,000000;0,000000;0,000000;0,000000;0,000000;0,000000;0,000000;0,000000;0,000000;0,000000;0,000000;0,000000;0,000000;0,000000;
67;;;;;;;;;;;;;;;;;;;;;;;;;;;;;;;;;;;;;;;;;;;;;;;;;;;;;;;;;;;;;;;;;;;1,000000;0,500000;0,000000;0,000000;0,000000;0,000000;0,000000;0,000000;0,000000;0,000000;0,000000;0,000000;0,000000;0,000000;0,000000;0,000000;0,000000;0,000000;0,000000;0,000000;0,000000;0,000000;0,000000;0,000000;0,000000;0,000000;0,000000;0,000000;0,000000;0,000000;0,000000;0,000000;0,000000;0,000000;0,000000;0,000000;0,000000;0,000000;0,000000;0,000000;0,000000;0,000000;0,000000;0,000000;0,000000;0,000000;0,000000;0,000000;0,000000;0,000000;0,000000;0,000000;0,000000;0,000000;0,000000;0,000000;0,000000;0,000000;
68;;;;;;;;;;;;;;;;;;;;;;;;;;;;;;;;;;;;;;;;;;;;;;;;;;;;;;;;;;;;;;;;;;;;1,000000;0,000000;0,000000;0,000000;0,000000;0,000000;0,000000;0,000000;0,000000;0,000000;0,000000;0,000000;0,000000;0,000000;0,000000;0,000000;0,000000;0,000000;0,000000;0,000000;0,000000;0,000000;0,000000;0,000000;0,000000;0,000000;0,000000;0,000000;0,000000;0,000000;0,000000;0,000000;0,000000;0,000000;0,000000;0,000000;0,000000;0,000000;0,000000;0,000000;0,000000;0,000000;0,000000;0,000000;0,000000;0,000000;0,000000;0,000000;0,000000;0,000000;0,000000;0,000000;0,000000;0,000000;0,000000;0,000000;0,000000;
69;;;;;;;;;;;;;;;;;;;;;;;;;;;;;;;;;;;;;;;;;;;;;;;;;;;;;;;;;;;;;;;;;;;;;1,000000;0,416667;0,442551;0,416667;0,416667;0,416667;0,453017;0,453017;0,416667;0,416667;0,000000;0,000000;0,000000;0,425000;0,392688;0,416667;0,416667;0,350000;0,350000;0,350000;0,350000;0,394285;0,500000;0,350000;0,442551;0,375000;0,500000;0,375000;0,394285;0,416667;0,750000;0,350000;0,350000;0,350000;0,446547;0,750000;0,416667;0,500000;0,416667;0,416667;0,416667;0,416667;0,750000;0,750000;0,416667;0,416667;0,500000;0,500000;0,416667;0,416667;0,416667;0,500000;0,750000;0,416667;0,500000;0,500000;
70;;;;;;;;;;;;;;;;;;;;;;;;;;;;;;;;;;;;;;;;;;;;;;;;;;;;;;;;;;;;;;;;;;;;;;1,000000;0,359218;0,333333;0,333333;0,333333;0,369684;0,369684;0,333333;0,333333;0,000000;0,000000;0,000000;0,341667;0,309355;0,333333;0,333333;0,266667;0,266667;0,266667;0,266667;0,310952;0,416667;0,266667;0,359218;0,291667;0,416667;0,291667;0,310952;0,333333;0,666667;0,266667;0,266667;0,266667;0,363213;0,666667;0,333333;0,416667;0,333333;0,333333;0,333333;0,333333;0,666667;0,666667;0,333333;0,333333;0,416667;0,416667;0,333333;0,333333;0,333333;0,416667;0,666667;0,333333;0,416667;0,416667;
71;;;;;;;;;;;;;;;;;;;;;;;;;;;;;;;;;;;;;;;;;;;;;;;;;;;;;;;;;;;;;;;;;;;;;;;1,000000;0,359218;0,359218;0,359218;0,395569;0,395569;0,597408;0,597408;0,000000;0,000000;0,000000;0,763008;0,720617;0,359218;0,359218;0,292551;0,292551;0,292551;0,292551;0,773100;0,442551;0,819142;0,838232;0,715245;0,442551;0,514074;0,552644;0,359218;0,692551;0,292551;0,292551;0,292551;0,389098;0,692551;0,359218;0,764074;0,597408;0,359218;0,359218;0,359218;0,692551;0,692551;0,359218;0,359218;0,442551;0,442551;0,359218;0,359218;0,597408;0,764074;0,692551;0,359218;0,442551;0,442551;
72;;;;;;;;;;;;;;;;;;;;;;;;;;;;;;;;;;;;;;;;;;;;;;;;;;;;;;;;;;;;;;;;;;;;;;;;1,000000;0,666667;0,666667;0,369684;0,369684;0,333333;0,333333;0,000000;0,000000;0,000000;0,341667;0,309355;0,333333;0,333333;0,266667;0,266667;0,266667;0,266667;0,310952;0,416667;0,266667;0,359218;0,291667;0,416667;0,291667;0,310952;0,666667;0,666667;0,266667;0,266667;0,266667;0,363213;0,666667;0,333333;0,416667;0,333333;0,333333;0,333333;0,333333;0,666667;0,666667;0,333333;0,333333;0,416667;0,416667;0,333333;0,333333;0,333333;0,416667;0,666667;0,333333;0,416667;0,416667;
73;;;;;;;;;;;;;;;;;;;;;;;;;;;;;;;;;;;;;;;;;;;;;;;;;;;;;;;;;;;;;;;;;;;;;;;;;1,000000;0,666667;0,369684;0,369684;0,333333;0,333333;0,000000;0,000000;0,000000;0,341667;0,309355;0,333333;0,333333;0,266667;0,266667;0,266667;0,266667;0,310952;0,416667;0,266667;0,359218;0,291667;0,416667;0,291667;0,310952;0,666667;0,666667;0,266667;0,266667;0,266667;0,363213;0,666667;0,333333;0,416667;0,333333;0,333333;0,333333;0,333333;0,666667;0,666667;0,333333;0,333333;0,416667;0,416667;0,333333;0,333333;0,333333;0,416667;0,666667;0,333333;0,416667;0,416667;
74;;;;;;;;;;;;;;;;;;;;;;;;;;;;;;;;;;;;;;;;;;;;;;;;;;;;;;;;;;;;;;;;;;;;;;;;;;1,000000;0,369684;0,369684;0,333333;0,333333;0,000000;0,000000;0,000000;0,341667;0,309355;0,333333;0,333333;0,266667;0,266667;0,266667;0,266667;0,310952;0,416667;0,266667;0,359218;0,291667;0,416667;0,291667;0,310952;1,000000;0,666667;0,266667;0,266667;0,266667;0,363213;0,666667;0,333333;0,416667;0,333333;0,333333;0,333333;0,333333;0,666667;0,666667;0,333333;0,333333;0,416667;0,416667;0,333333;0,333333;0,333333;0,416667;0,666667;0,333333;0,416667;0,416667;
75;;;;;;;;;;;;;;;;;;;;;;;;;;;;;;;;;;;;;;;;;;;;;;;;;;;;;;;;;;;;;;;;;;;;;;;;;;;1,000000;0,599442;0,369684;0,369684;0,000000;0,000000;0,000000;0,378017;0,345705;0,369684;0,369684;0,303017;0,303017;0,303017;0,303017;0,347303;0,453017;0,303017;0,395569;0,328017;0,453017;0,328017;0,347303;0,369684;0,703017;0,303017;0,303017;0,303017;0,399564;0,703017;0,739368;0,453017;0,369684;0,369684;0,369684;0,369684;0,703017;0,703017;0,369684;0,369684;0,453017;0,453017;0,369684;0,369684;0,369684;0,453017;0,703017;0,369684;0,453017;0,453017;
76;;;;;;;;;;;;;;;;;;;;;;;;;;;;;;;;;;;;;;;;;;;;;;;;;;;;;;;;;;;;;;;;;;;;;;;;;;;;1,000000;0,369684;0,369684;0,000000;0,000000;0,000000;0,378017;0,345705;0,369684;0,369684;0,303017;0,303017;0,303017;0,303017;0,347303;0,453017;0,303017;0,395569;0,328017;0,453017;0,328017;0,347303;0,369684;0,703017;0,303017;0,303017;0,303017;0,399564;0,703017;0,739368;0,453017;0,369684;0,369684;0,369684;0,369684;0,703017;0,703017;0,369684;0,369684;0,453017;0,453017;0,369684;0,369684;0,369684;0,453017;0,703017;0,369684;0,453017;0,453017;
77;;;;;;;;;;;;;;;;;;;;;;;;;;;;;;;;;;;;;;;;;;;;;;;;;;;;;;;;;;;;;;;;;;;;;;;;;;;;;1,000000;0,666667;0,000000;0,000000;0,000000;0,683333;0,598059;0,333333;0,333333;0,266667;0,266667;0,266667;0,266667;0,621904;0,416667;0,533333;0,597408;0,583333;0,416667;0,583333;0,621904;0,333333;0,666667;0,266667;0,266667;0,266667;0,363213;0,666667;0,333333;0,833333;0,666667;0,333333;0,333333;0,333333;0,666667;0,666667;0,333333;0,333333;0,416667;0,416667;0,333333;0,333333;0,666667;0,833333;0,666667;0,333333;0,416667;0,416667;
78;;;;;;;;;;;;;;;;;;;;;;;;;;;;;;;;;;;;;;;;;;;;;;;;;;;;;;;;;;;;;;;;;;;;;;;;;;;;;;1,000000;0,000000;0,000000;0,000000;0,683333;0,598059;0,333333;0,333333;0,266667;0,266667;0,266667;0,266667;0,621904;0,416667;0,533333;0,597408;0,583333;0,416667;0,583333;0,621904;0,333333;0,666667;0,266667;0,266667;0,266667;0,363213;0,666667;0,333333;0,833333;0,666667;0,333333;0,333333;0,333333;0,666667;0,666667;0,333333;0,333333;0,416667;0,416667;0,333333;0,333333;0,666667;0,833333;0,666667;0,333333;0,416667;0,416667;
79;;;;;;;;;;;;;;;;;;;;;;;;;;;;;;;;;;;;;;;;;;;;;;;;;;;;;;;;;;;;;;;;;;;;;;;;;;;;;;;1,000000;0,500000;0,500000;0,000000;0,000000;0,000000;0,000000;0,000000;0,000000;0,000000;0,000000;0,000000;0,000000;0,000000;0,000000;0,000000;0,000000;0,000000;0,000000;0,000000;0,000000;0,000000;0,000000;0,000000;0,000000;0,000000;0,000000;0,000000;0,000000;0,000000;0,000000;0,000000;0,000000;0,000000;0,000000;0,000000;0,000000;0,000000;0,000000;0,000000;0,000000;0,000000;0,000000;0,000000;0,000000;0,000000;
80;;;;;;;;;;;;;;;;;;;;;;;;;;;;;;;;;;;;;;;;;;;;;;;;;;;;;;;;;;;;;;;;;;;;;;;;;;;;;;;;1,000000;0,500000;0,000000;0,000000;0,000000;0,000000;0,000000;0,000000;0,000000;0,000000;0,000000;0,000000;0,000000;0,000000;0,000000;0,000000;0,000000;0,000000;0,000000;0,000000;0,000000;0,000000;0,000000;0,000000;0,000000;0,000000;0,000000;0,000000;0,000000;0,000000;0,000000;0,000000;0,000000;0,000000;0,000000;0,000000;0,000000;0,000000;0,000000;0,000000;0,000000;0,000000;0,000000;0,000000;0,000000;
81;;;;;;;;;;;;;;;;;;;;;;;;;;;;;;;;;;;;;;;;;;;;;;;;;;;;;;;;;;;;;;;;;;;;;;;;;;;;;;;;;1,000000;0,000000;0,000000;0,000000;0,000000;0,000000;0,000000;0,000000;0,000000;0,000000;0,000000;0,000000;0,000000;0,000000;0,000000;0,000000;0,000000;0,000000;0,000000;0,000000;0,000000;0,000000;0,000000;0,000000;0,000000;0,000000;0,000000;0,000000;0,000000;0,000000;0,000000;0,000000;0,000000;0,000000;0,000000;0,000000;0,000000;0,000000;0,000000;0,000000;0,000000;0,000000;0,000000;0,000000;
82;;;;;;;;;;;;;;;;;;;;;;;;;;;;;;;;;;;;;;;;;;;;;;;;;;;;;;;;;;;;;;;;;;;;;;;;;;;;;;;;;;1,000000;0,731854;0,341667;0,341667;0,275000;0,275000;0,275000;0,275000;0,855618;0,425000;0,722763;0,763008;0,797763;0,425000;0,600000;0,638570;0,341667;0,675000;0,275000;0,275000;0,275000;0,371547;0,675000;0,341667;0,850000;0,683333;0,341667;0,341667;0,341667;0,675000;0,675000;0,341667;0,341667;0,425000;0,425000;0,341667;0,341667;0,683333;0,850000;0,675000;0,341667;0,425000;0,425000;
83;;;;;;;;;;;;;;;;;;;;;;;;;;;;;;;;;;;;;;;;;;;;;;;;;;;;;;;;;;;;;;;;;;;;;;;;;;;;;;;;;;;1,000000;0,309355;0,309355;0,363334;0,363334;0,363334;0,363334;0,641824;0,392688;0,701600;0,720617;0,659973;0,663334;0,514725;0,553295;0,309355;0,642688;0,242688;0,242688;0,242688;0,339235;0,642688;0,309355;0,764725;0,813092;0,309355;0,309355;0,309355;0,642688;0,642688;0,309355;0,309355;0,392688;0,392688;0,309355;0,309355;0,598059;0,764725;0,642688;0,309355;0,392688;0,392688;
84;;;;;;;;;;;;;;;;;;;;;;;;;;;;;;;;;;;;;;;;;;;;;;;;;;;;;;;;;;;;;;;;;;;;;;;;;;;;;;;;;;;;1,000000;0,666667;0,266667;0,266667;0,266667;0,266667;0,310952;0,833333;0,266667;0,359218;0,291667;0,416667;0,291667;0,310952;0,333333;0,666667;0,266667;0,266667;0,266667;0,363213;0,666667;0,333333;0,416667;0,333333;0,333333;0,333333;0,333333;0,666667;0,666667;0,333333;0,333333;0,416667;0,416667;0,333333;0,333333;0,333333;0,416667;0,666667;0,333333;0,416667;0,416667;
85;;;;;;;;;;;;;;;;;;;;;;;;;;;;;;;;;;;;;;;;;;;;;;;;;;;;;;;;;;;;;;;;;;;;;;;;;;;;;;;;;;;;;1,000000;0,266667;0,266667;0,266667;0,266667;0,310952;0,833333;0,266667;0,359218;0,291667;0,416667;0,291667;0,310952;0,333333;0,666667;0,266667;0,266667;0,266667;0,363213;0,666667;0,333333;0,416667;0,333333;0,333333;0,333333;0,333333;0,666667;0,666667;0,333333;0,333333;0,416667;0,416667;0,333333;0,333333;0,333333;0,416667;0,666667;0,333333;0,416667;0,416667;
86;;;;;;;;;;;;;;;;;;;;;;;;;;;;;;;;;;;;;;;;;;;;;;;;;;;;;;;;;;;;;;;;;;;;;;;;;;;;;;;;;;;;;;1,000000;0,800000;0,800000;0,800000;0,244285;0,350000;0,200000;0,292551;0,450000;0,700000;0,225000;0,244285;0,266667;0,600000;0,200000;0,200000;0,200000;0,296547;0,600000;0,266667;0,350000;0,266667;0,266667;0,266667;0,266667;0,600000;0,600000;0,266667;0,266667;0,350000;0,350000;0,266667;0,266667;0,266667;0,350000;0,600000;0,266667;0,350000;0,350000;
87;;;;;;;;;;;;;;;;;;;;;;;;;;;;;;;;;;;;;;;;;;;;;;;;;;;;;;;;;;;;;;;;;;;;;;;;;;;;;;;;;;;;;;;1,000000;0,800000;0,800000;0,244285;0,350000;0,200000;0,292551;0,450000;0,700000;0,225000;0,244285;0,266667;0,600000;0,200000;0,200000;0,200000;0,296547;0,600000;0,266667;0,350000;0,266667;0,266667;0,266667;0,266667;0,600000;0,600000;0,266667;0,266667;0,350000;0,350000;0,266667;0,266667;0,266667;0,350000;0,600000;0,266667;0,350000;0,350000;
88;;;;;;;;;;;;;;;;;;;;;;;;;;;;;;;;;;;;;;;;;;;;;;;;;;;;;;;;;;;;;;;;;;;;;;;;;;;;;;;;;;;;;;;;1,000000;0,800000;0,244285;0,350000;0,200000;0,292551;0,450000;0,700000;0,225000;0,244285;0,266667;0,600000;0,200000;0,200000;0,200000;0,296547;0,600000;0,266667;0,350000;0,266667;0,266667;0,266667;0,266667;0,600000;0,600000;0,266667;0,266667;0,350000;0,350000;0,266667;0,266667;0,266667;0,350000;0,600000;0,266667;0,350000;0,350000;
89;;;;;;;;;;;;;;;;;;;;;;;;;;;;;;;;;;;;;;;;;;;;;;;;;;;;;;;;;;;;;;;;;;;;;;;;;;;;;;;;;;;;;;;;;1,000000;0,244285;0,350000;0,200000;0,292551;0,450000;0,700000;0,225000;0,244285;0,266667;0,600000;0,200000;0,200000;0,200000;0,296547;0,600000;0,266667;0,350000;0,266667;0,266667;0,266667;0,266667;0,600000;0,600000;0,266667;0,266667;0,350000;0,350000;0,266667;0,266667;0,266667;0,350000;0,600000;0,266667;0,350000;0,350000;
90;;;;;;;;;;;;;;;;;;;;;;;;;;;;;;;;;;;;;;;;;;;;;;;;;;;;;;;;;;;;;;;;;;;;;;;;;;;;;;;;;;;;;;;;;;1,000000;0,394285;0,732855;0,773100;0,807855;0,394285;0,538570;0,577141;0,310952;0,644285;0,244285;0,244285;0,244285;0,340832;0,644285;0,310952;0,788570;0,621904;0,310952;0,310952;0,310952;0,644285;0,644285;0,310952;0,310952;0,394285;0,394285;0,310952;0,310952;0,621904;0,788570;0,644285;0,310952;0,394285;0,394285;
91;;;;;;;;;;;;;;;;;;;;;;;;;;;;;;;;;;;;;;;;;;;;;;;;;;;;;;;;;;;;;;;;;;;;;;;;;;;;;;;;;;;;;;;;;;;1,000000;0,350000;0,442551;0,375000;0,500000;0,375000;0,394285;0,416667;0,750000;0,350000;0,350000;0,350000;0,446547;0,750000;0,416667;0,500000;0,416667;0,416667;0,416667;0,416667;0,750000;0,750000;0,416667;0,416667;0,500000;0,500000;0,416667;0,416667;0,416667;0,500000;0,750000;0,416667;0,500000;0,500000;
92;;;;;;;;;;;;;;;;;;;;;;;;;;;;;;;;;;;;;;;;;;;;;;;;;;;;;;;;;;;;;;;;;;;;;;;;;;;;;;;;;;;;;;;;;;;;1,000000;0,819142;0,675000;0,350000;0,450000;0,488570;0,266667;0,600000;0,200000;0,200000;0,200000;0,296547;0,600000;0,266667;0,700000;0,533333;0,266667;0,266667;0,266667;0,600000;0,600000;0,266667;0,266667;0,350000;0,350000;0,266667;0,266667;0,533333;0,700000;0,600000;0,266667;0,350000;0,350000;
93;;;;;;;;;;;;;;;;;;;;;;;;;;;;;;;;;;;;;;;;;;;;;;;;;;;;;;;;;;;;;;;;;;;;;;;;;;;;;;;;;;;;;;;;;;;;;1,000000;0,715245;0,442551;0,514074;0,552644;0,359218;0,692551;0,292551;0,292551;0,292551;0,389098;0,692551;0,359218;0,764074;0,597408;0,359218;0,359218;0,359218;0,692551;0,692551;0,359218;0,359218;0,442551;0,442551;0,359218;0,359218;0,597408;0,764074;0,692551;0,359218;0,442551;0,442551;
94;;;;;;;;;;;;;;;;;;;;;;;;;;;;;;;;;;;;;;;;;;;;;;;;;;;;;;;;;;;;;;;;;;;;;;;;;;;;;;;;;;;;;;;;;;;;;;1,000000;0,750000;0,500000;0,538570;0,291667;0,625000;0,225000;0,225000;0,225000;0,321547;0,625000;0,291667;0,750000;0,583333;0,291667;0,291667;0,291667;0,625000;0,625000;0,291667;0,291667;0,375000;0,375000;0,291667;0,291667;0,583333;0,750000;0,625000;0,291667;0,375000;0,375000;
95;;;;;;;;;;;;;;;;;;;;;;;;;;;;;;;;;;;;;;;;;;;;;;;;;;;;;;;;;;;;;;;;;;;;;;;;;;;;;;;;;;;;;;;;;;;;;;;1,000000;0,375000;0,394285;0,416667;0,750000;0,350000;0,350000;0,350000;0,446547;0,750000;0,416667;0,500000;0,416667;0,416667;0,416667;0,416667;0,750000;0,750000;0,416667;0,416667;0,500000;0,500000;0,416667;0,416667;0,416667;0,500000;0,750000;0,416667;0,500000;0,500000;
96;;;;;;;;;;;;;;;;;;;;;;;;;;;;;;;;;;;;;;;;;;;;;;;;;;;;;;;;;;;;;;;;;;;;;;;;;;;;;;;;;;;;;;;;;;;;;;;;1,000000;0,731507;0,291667;0,625000;0,225000;0,225000;0,225000;0,321547;0,625000;0,291667;0,750000;0,583333;0,291667;0,291667;0,291667;0,625000;0,625000;0,291667;0,291667;0,375000;0,375000;0,583333;0,583333;0,875000;0,750000;0,625000;0,291667;0,375000;0,375000;
97;;;;;;;;;;;;;;;;;;;;;;;;;;;;;;;;;;;;;;;;;;;;;;;;;;;;;;;;;;;;;;;;;;;;;;;;;;;;;;;;;;;;;;;;;;;;;;;;;1,000000;0,310952;0,644285;0,244285;0,244285;0,244285;0,340832;0,644285;0,310952;0,788570;0,621904;0,310952;0,310952;0,310952;0,644285;0,644285;0,310952;0,310952;0,394285;0,394285;0,547357;0,547357;0,621904;0,788570;0,644285;0,310952;0,394285;0,394285;
98;;;;;;;;;;;;;;;;;;;;;;;;;;;;;;;;;;;;;;;;;;;;;;;;;;;;;;;;;;;;;;;;;;;;;;;;;;;;;;;;;;;;;;;;;;;;;;;;;;1,000000;0,666667;0,266667;0,266667;0,266667;0,363213;0,666667;0,333333;0,416667;0,333333;0,333333;0,333333;0,333333;0,666667;0,666667;0,333333;0,333333;0,416667;0,416667;0,333333;0,333333;0,333333;0,416667;0,666667;0,333333;0,416667;0,416667;
99;;;;;;;;;;;;;;;;;;;;;;;;;;;;;;;;;;;;;;;;;;;;;;;;;;;;;;;;;;;;;;;;;;;;;;;;;;;;;;;;;;;;;;;;;;;;;;;;;;;1,000000;0,600000;0,600000;0,600000;0,696547;1,000000;0,666667;0,750000;0,666667;0,666667;0,666667;0,666667;1,000000;1,000000;0,666667;0,666667;0,750000;0,750000;0,666667;0,666667;0,666667;0,750000;1,000000;0,666667;0,750000;0,750000;
100;;;;;;;;;;;;;;;;;;;;;;;;;;;;;;;;;;;;;;;;;;;;;;;;;;;;;;;;;;;;;;;;;;;;;;;;;;;;;;;;;;;;;;;;;;;;;;;;;;;;1,000000;0,800000;0,800000;0,713519;0,600000;0,266667;0,350000;0,266667;0,266667;0,266667;0,266667;0,600000;0,600000;0,533333;0,533333;0,583082;0,350000;0,266667;0,266667;0,266667;0,350000;0,600000;0,266667;0,700000;0,350000;
101;;;;;;;;;;;;;;;;;;;;;;;;;;;;;;;;;;;;;;;;;;;;;;;;;;;;;;;;;;;;;;;;;;;;;;;;;;;;;;;;;;;;;;;;;;;;;;;;;;;;;1,000000;0,800000;0,713519;0,600000;0,266667;0,350000;0,266667;0,266667;0,266667;0,266667;0,600000;0,600000;0,533333;0,533333;0,583082;0,350000;0,266667;0,266667;0,266667;0,350000;0,600000;0,266667;0,700000;0,350000;
102;;;;;;;;;;;;;;;;;;;;;;;;;;;;;;;;;;;;;;;;;;;;;;;;;;;;;;;;;;;;;;;;;;;;;;;;;;;;;;;;;;;;;;;;;;;;;;;;;;;;;;1,000000;0,713519;0,600000;0,266667;0,350000;0,266667;0,266667;0,266667;0,266667;0,600000;0,600000;0,533333;0,533333;0,583082;0,350000;0,266667;0,266667;0,266667;0,350000;0,600000;0,266667;0,700000;0,350000;
103;;;;;;;;;;;;;;;;;;;;;;;;;;;;;;;;;;;;;;;;;;;;;;;;;;;;;;;;;;;;;;;;;;;;;;;;;;;;;;;;;;;;;;;;;;;;;;;;;;;;;;;1,000000;0,696547;0,363213;0,446547;0,363213;0,363213;0,363213;0,363213;0,696547;0,696547;0,564004;0,564004;0,446547;0,814806;0,363213;0,363213;0,363213;0,446547;0,696547;0,363213;0,446547;0,446547;
104;;;;;;;;;;;;;;;;;;;;;;;;;;;;;;;;;;;;;;;;;;;;;;;;;;;;;;;;;;;;;;;;;;;;;;;;;;;;;;;;;;;;;;;;;;;;;;;;;;;;;;;;1,000000;0,666667;0,750000;0,666667;0,666667;0,666667;0,666667;1,000000;1,000000;0,666667;0,666667;0,750000;0,750000;0,666667;0,666667;0,666667;0,750000;1,000000;0,666667;0,750000;0,750000;
105;;;;;;;;;;;;;;;;;;;;;;;;;;;;;;;;;;;;;;;;;;;;;;;;;;;;;;;;;;;;;;;;;;;;;;;;;;;;;;;;;;;;;;;;;;;;;;;;;;;;;;;;;1,000000;0,416667;0,333333;0,333333;0,333333;0,333333;0,666667;0,666667;0,333333;0,333333;0,416667;0,416667;0,333333;0,333333;0,333333;0,416667;0,666667;0,333333;0,416667;0,416667;
106;;;;;;;;;;;;;;;;;;;;;;;;;;;;;;;;;;;;;;;;;;;;;;;;;;;;;;;;;;;;;;;;;;;;;;;;;;;;;;;;;;;;;;;;;;;;;;;;;;;;;;;;;;1,000000;0,833333;0,416667;0,416667;0,416667;0,750000;0,750000;0,416667;0,416667;0,500000;0,500000;0,416667;0,416667;0,833333;1,000000;0,750000;0,416667;0,500000;0,500000;
107;;;;;;;;;;;;;;;;;;;;;;;;;;;;;;;;;;;;;;;;;;;;;;;;;;;;;;;;;;;;;;;;;;;;;;;;;;;;;;;;;;;;;;;;;;;;;;;;;;;;;;;;;;;1,000000;0,333333;0,333333;0,333333;0,666667;0,666667;0,333333;0,333333;0,416667;0,416667;0,333333;0,333333;0,666667;0,833333;0,666667;0,333333;0,416667;0,416667;
108;;;;;;;;;;;;;;;;;;;;;;;;;;;;;;;;;;;;;;;;;;;;;;;;;;;;;;;;;;;;;;;;;;;;;;;;;;;;;;;;;;;;;;;;;;;;;;;;;;;;;;;;;;;;1,000000;0,666667;0,666667;0,666667;0,666667;0,333333;0,333333;0,416667;0,416667;0,333333;0,333333;0,333333;0,416667;0,666667;0,333333;0,416667;0,416667;
109;;;;;;;;;;;;;;;;;;;;;;;;;;;;;;;;;;;;;;;;;;;;;;;;;;;;;;;;;;;;;;;;;;;;;;;;;;;;;;;;;;;;;;;;;;;;;;;;;;;;;;;;;;;;;1,000000;0,666667;0,666667;0,666667;0,333333;0,333333;0,416667;0,416667;0,333333;0,333333;0,333333;0,416667;0,666667;0,333333;0,416667;0,416667;
110;;;;;;;;;;;;;;;;;;;;;;;;;;;;;;;;;;;;;;;;;;;;;;;;;;;;;;;;;;;;;;;;;;;;;;;;;;;;;;;;;;;;;;;;;;;;;;;;;;;;;;;;;;;;;;1,000000;0,666667;0,666667;0,333333;0,333333;0,416667;0,416667;0,333333;0,333333;0,333333;0,416667;0,666667;0,333333;0,416667;0,416667;
111;;;;;;;;;;;;;;;;;;;;;;;;;;;;;;;;;;;;;;;;;;;;;;;;;;;;;;;;;;;;;;;;;;;;;;;;;;;;;;;;;;;;;;;;;;;;;;;;;;;;;;;;;;;;;;;1,000000;1,000000;0,666667;0,666667;0,750000;0,750000;0,666667;0,666667;0,666667;0,750000;1,000000;0,666667;0,750000;0,750000;
112;;;;;;;;;;;;;;;;;;;;;;;;;;;;;;;;;;;;;;;;;;;;;;;;;;;;;;;;;;;;;;;;;;;;;;;;;;;;;;;;;;;;;;;;;;;;;;;;;;;;;;;;;;;;;;;;1,000000;0,666667;0,666667;0,750000;0,750000;0,666667;0,666667;0,666667;0,750000;1,000000;0,666667;0,750000;0,750000;
113;;;;;;;;;;;;;;;;;;;;;;;;;;;;;;;;;;;;;;;;;;;;;;;;;;;;;;;;;;;;;;;;;;;;;;;;;;;;;;;;;;;;;;;;;;;;;;;;;;;;;;;;;;;;;;;;;1,000000;0,666667;0,416667;0,416667;0,333333;0,333333;0,333333;0,416667;0,666667;0,333333;0,416667;0,416667;
114;;;;;;;;;;;;;;;;;;;;;;;;;;;;;;;;;;;;;;;;;;;;;;;;;;;;;;;;;;;;;;;;;;;;;;;;;;;;;;;;;;;;;;;;;;;;;;;;;;;;;;;;;;;;;;;;;;1,000000;0,416667;0,416667;0,333333;0,333333;0,333333;0,416667;0,666667;0,333333;0,416667;0,416667;
115;;;;;;;;;;;;;;;;;;;;;;;;;;;;;;;;;;;;;;;;;;;;;;;;;;;;;;;;;;;;;;;;;;;;;;;;;;;;;;;;;;;;;;;;;;;;;;;;;;;;;;;;;;;;;;;;;;;1,000000;0,500000;0,416667;0,416667;0,416667;0,500000;0,750000;0,416667;0,883082;0,500000;
116;;;;;;;;;;;;;;;;;;;;;;;;;;;;;;;;;;;;;;;;;;;;;;;;;;;;;;;;;;;;;;;;;;;;;;;;;;;;;;;;;;;;;;;;;;;;;;;;;;;;;;;;;;;;;;;;;;;;1,000000;0,416667;0,416667;0,416667;0,500000;0,750000;0,416667;0,500000;0,500000;
117;;;;;;;;;;;;;;;;;;;;;;;;;;;;;;;;;;;;;;;;;;;;;;;;;;;;;;;;;;;;;;;;;;;;;;;;;;;;;;;;;;;;;;;;;;;;;;;;;;;;;;;;;;;;;;;;;;;;;1,000000;0,666667;0,333333;0,416667;0,666667;0,333333;0,416667;0,416667;
118;;;;;;;;;;;;;;;;;;;;;;;;;;;;;;;;;;;;;;;;;;;;;;;;;;;;;;;;;;;;;;;;;;;;;;;;;;;;;;;;;;;;;;;;;;;;;;;;;;;;;;;;;;;;;;;;;;;;;;1,000000;0,333333;0,416667;0,666667;0,333333;0,416667;0,416667;
119;;;;;;;;;;;;;;;;;;;;;;;;;;;;;;;;;;;;;;;;;;;;;;;;;;;;;;;;;;;;;;;;;;;;;;;;;;;;;;;;;;;;;;;;;;;;;;;;;;;;;;;;;;;;;;;;;;;;;;;1,000000;0,833333;0,666667;0,333333;0,416667;0,416667;
120;;;;;;;;;;;;;;;;;;;;;;;;;;;;;;;;;;;;;;;;;;;;;;;;;;;;;;;;;;;;;;;;;;;;;;;;;;;;;;;;;;;;;;;;;;;;;;;;;;;;;;;;;;;;;;;;;;;;;;;;1,000000;0,750000;0,416667;0,500000;0,500000;
121;;;;;;;;;;;;;;;;;;;;;;;;;;;;;;;;;;;;;;;;;;;;;;;;;;;;;;;;;;;;;;;;;;;;;;;;;;;;;;;;;;;;;;;;;;;;;;;;;;;;;;;;;;;;;;;;;;;;;;;;;1,000000;0,666667;0,750000;0,750000;
122;;;;;;;;;;;;;;;;;;;;;;;;;;;;;;;;;;;;;;;;;;;;;;;;;;;;;;;;;;;;;;;;;;;;;;;;;;;;;;;;;;;;;;;;;;;;;;;;;;;;;;;;;;;;;;;;;;;;;;;;;;1,000000;0,416667;0,416667;
123;;;;;;;;;;;;;;;;;;;;;;;;;;;;;;;;;;;;;;;;;;;;;;;;;;;;;;;;;;;;;;;;;;;;;;;;;;;;;;;;;;;;;;;;;;;;;;;;;;;;;;;;;;;;;;;;;;;;;;;;;;;1,000000;0,500000;
124;;;;;;;;;;;;;;;;;;;;;;;;;;;;;;;;;;;;;;;;;;;;;;;;;;;;;;;;;;;;;;;;;;;;;;;;;;;;;;;;;;;;;;;;;;;;;;;;;;;;;;;;;;;;;;;;;;;;;;;;;;;;1,000000;
