;1; 2; 3; 4; 5; 6; 7; 8; 9; 10; 11; 12; 13; 14; 15; 16; 17; 18; 19; 20; 21; 22; 23; 24; 25; 26; 27; 28; 29; 30; 31; 32; 33; 34; 35; 36; 37; 38
1;1,000000;0,735198;0,674476;0,674476;0,493002;0,750781;0,622543;0,622543;0,582667;0,347211;0,435018;0,341153;0,438884;0,503034;0,497989;0,441979;0,687991;0,625981;0,000000;0,608442;0,302215;0,408442;0,813884;0,294435;0,294435;0,288878;0,000000;0,000000;0,000000;0,402215;0,858442;0,402215;0,813884;0,813884;0,438260;0,438260;0,313884;0,313884;
2;;1,000000;0,743845;0,743845;0,692185;0,791479;0,660346;0,660346;0,642331;0,487433;0,595417;0,542732;0,500310;0,738196;0,744536;0,762577;0,741659;0,444407;0,000000;0,659701;0,658812;0,792780;0,000000;0,661006;0,661006;0,666667;0,256250;0,256250;0,256250;0,500604;0,495946;0,494605;0,000000;0,000000;0,740286;0,740286;0,660842;0,660842;
3;;;1,000000;0,750000;0,740045;0,450000;0,466667;0,466667;0,492069;0,291667;0,261617;0,287484;0,375000;0,483164;0,463852;0,241242;0,000000;0,000000;0,000000;0,583333;0,277778;0,225000;0,625000;0,270833;0,270833;0,266667;0,000000;0,000000;0,000000;0,333333;0,375000;0,333333;0,625000;0,625000;0,500000;0,500000;0,291667;0,291667;
4;;;;1,000000;0,740045;0,450000;0,466667;0,466667;0,492069;0,291667;0,261617;0,287484;0,375000;0,483164;0,463852;0,241242;0,000000;0,000000;0,000000;0,583333;0,277778;0,225000;0,625000;0,270833;0,270833;0,266667;0,000000;0,000000;0,000000;0,333333;0,375000;0,333333;0,625000;0,625000;0,500000;0,500000;0,291667;0,291667;
5;;;;;1,000000;0,415186;0,428036;0,428036;0,680889;0,513774;0,608029;0,523571;0,503673;0,637666;0,529616;0,678261;0,000000;0,000000;0,000000;0,659631;0,365755;0,609767;0,962006;0,378493;0,378493;0,389532;0,000000;0,000000;0,000000;0,506781;0,503673;0,506781;0,962006;0,962006;0,750026;0,750026;0,350895;0,350895;
6;;;;;;1,000000;0,744758;0,744758;0,770468;0,250000;0,403300;0,244627;0,350000;0,394600;0,402460;0,415818;0,675000;0,637500;0,000000;0,800000;0,244444;0,400000;0,600000;0,233333;0,233333;0,226667;0,000000;0,000000;0,000000;0,300000;0,700000;0,300000;0,600000;0,600000;0,216667;0,216667;0,266667;0,266667;
7;;;;;;;1,000000;0,771164;0,732907;0,285714;0,336613;0,278096;0,400000;0,328966;0,349358;0,382671;0,690764;0,647129;0,750000;0,805508;0,266667;0,372629;0,733333;0,253333;0,253333;0,244444;0,250000;0,250000;0,250000;0,269075;0,772629;0,350000;0,733333;0,733333;0,225000;0,225000;0,288889;0,288889;
8;;;;;;;;1,000000;0,732907;0,285714;0,336613;0,278096;0,400000;0,328966;0,349358;0,382671;0,690764;0,647129;0,750000;0,805508;0,266667;0,372629;0,733333;0,253333;0,253333;0,244444;0,250000;0,250000;0,250000;0,269075;0,772629;0,350000;0,733333;0,733333;0,225000;0,225000;0,288889;0,288889;
9;;;;;;;;;1,000000;0,787707;0,631993;0,562232;0,483783;0,627676;0,724209;0,751417;0,730692;0,707105;0,925000;0,642069;0,619196;0,783818;0,933783;0,334457;0,334457;0,334717;0,250000;0,250000;0,250000;0,305644;0,483783;0,891923;0,933783;0,933783;0,489689;0,489689;0,333783;0,333783;
10;;;;;;;;;;1,000000;0,465440;0,848485;0,500000;0,690823;0,640039;0,523451;0,000000;0,000000;0,000000;0,361111;0,761905;0,500000;0,916667;0,395833;0,395833;0,407407;0,000000;0,000000;0,000000;0,500000;0,500000;1,000000;0,916667;0,916667;0,321429;0,321429;0,361111;0,361111;
11;;;;;;;;;;;1,000000;0,594863;0,955174;0,630193;0,755096;0,843667;0,245833;0,239286;0,000000;0,647745;0,635193;0,780154;0,949117;0,345349;0,345349;0,348286;0,000000;0,000000;0,000000;0,917244;0,953300;0,482986;0,949117;0,949117;0,490680;0,490680;0,338006;0,338006;
12;;;;;;;;;;;;1,000000;0,501769;0,493238;0,477908;0,416290;0,000000;0,333333;0,000000;0,358912;0,666667;0,438095;0,930341;0,393017;0,393017;0,404954;0,285714;0,285714;0,285714;0,503096;0,501769;0,916667;0,930341;0,930341;0,315596;0,315596;0,358912;0,358912;
13;;;;;;;;;;;;;1,000000;0,463371;0,448090;0,407909;0,000000;0,000000;0,000000;0,416667;0,888889;0,350000;0,750000;0,458333;0,458333;0,466667;0,000000;0,000000;0,000000;1,000000;0,500000;0,500000;0,750000;0,750000;0,416667;0,416667;0,416667;0,416667;
14;;;;;;;;;;;;;;1,000000;0,730044;0,736382;0,245079;0,238518;0,000000;0,623172;0,579952;0,773670;0,891942;0,303420;0,303420;0,297437;0,000000;0,000000;0,000000;0,435898;0,908886;0,829952;0,891942;0,891942;0,682218;0,682218;0,320513;0,320513;
15;;;;;;;;;;;;;;;1,000000;0,771536;0,243111;0,235237;0,000000;0,615793;0,561801;0,792268;0,848090;0,293526;0,293526;0,286892;0,000000;0,000000;0,000000;0,413483;0,882460;0,784023;0,848090;0,848090;0,685401;0,685401;0,314757;0,314757;
16;;;;;;;;;;;;;;;;1,000000;0,241242;0,234236;0,000000;0,593596;0,499749;1,000000;0,741242;0,267569;0,267569;0,260262;0,000000;0,000000;0,000000;0,361863;0,815818;0,666416;0,741242;0,741242;0,473727;0,473727;0,296798;0,296798;
17;;;;;;;;;;;;;;;;;1,000000;0,750000;0,625000;0,291667;0,000000;0,225000;0,000000;0,000000;0,000000;0,000000;0,250000;0,250000;0,250000;0,250000;0,375000;0,000000;0,000000;0,000000;0,000000;0,000000;0,000000;0,000000;
18;;;;;;;;;;;;;;;;;;1,000000;0,000000;0,312500;0,000000;0,212500;0,000000;0,000000;0,000000;0,000000;0,750000;0,750000;0,750000;0,750000;0,437500;0,000000;0,000000;0,000000;0,000000;0,000000;0,000000;0,000000;
19;;;;;;;;;;;;;;;;;;;1,000000;0,000000;0,000000;0,000000;0,000000;0,000000;0,000000;0,000000;0,625000;0,625000;0,625000;0,750000;0,000000;0,000000;0,000000;0,000000;0,000000;0,000000;0,000000;0,000000;
20;;;;;;;;;;;;;;;;;;;;1,000000;0,333333;0,533333;0,666667;0,333333;0,333333;0,333333;0,000000;0,000000;0,000000;0,388889;0,833333;0,388889;0,666667;0,666667;0,305556;0,305556;0,333333;0,333333;
21;;;;;;;;;;;;;;;;;;;;;1,000000;0,488889;0,777778;0,333333;0,333333;0,333333;0,000000;0,000000;0,000000;0,833333;0,444444;0,833333;0,777778;0,777778;0,291667;0,291667;0,333333;0,333333;
22;;;;;;;;;;;;;;;;;;;;;;1,000000;0,600000;0,233333;0,233333;0,226667;0,000000;0,000000;0,000000;0,300000;0,700000;0,600000;0,600000;0,600000;0,433333;0,433333;0,266667;0,266667;
23;;;;;;;;;;;;;;;;;;;;;;;1,000000;0,833333;0,833333;0,866667;0,000000;0,000000;0,000000;0,833333;0,750000;0,833333;1,000000;1,000000;0,750000;0,750000;0,666667;0,666667;
24;;;;;;;;;;;;;;;;;;;;;;;;1,000000;0,666667;0,634899;0,000000;0,000000;0,000000;0,433333;0,458333;0,433333;0,833333;0,833333;0,283333;0,283333;0,666667;0,666667;
25;;;;;;;;;;;;;;;;;;;;;;;;;1,000000;0,634899;0,000000;0,000000;0,000000;0,433333;0,458333;0,433333;0,833333;0,833333;0,283333;0,283333;0,666667;0,666667;
26;;;;;;;;;;;;;;;;;;;;;;;;;;1,000000;0,000000;0,000000;0,000000;0,444444;0,466667;0,444444;0,866667;0,866667;0,277778;0,277778;0,618832;0,618832;
27;;;;;;;;;;;;;;;;;;;;;;;;;;;1,000000;0,750000;0,750000;0,750000;0,000000;0,000000;0,000000;0,000000;0,000000;0,000000;0,000000;0,000000;
28;;;;;;;;;;;;;;;;;;;;;;;;;;;;1,000000;0,750000;0,750000;0,000000;0,000000;0,000000;0,000000;0,000000;0,000000;0,000000;0,000000;
29;;;;;;;;;;;;;;;;;;;;;;;;;;;;;1,000000;0,750000;0,000000;0,000000;0,000000;0,000000;0,000000;0,000000;0,000000;0,000000;
30;;;;;;;;;;;;;;;;;;;;;;;;;;;;;;1,000000;0,500000;0,500000;0,833333;0,833333;0,375000;0,375000;0,388889;0,388889;
31;;;;;;;;;;;;;;;;;;;;;;;;;;;;;;;1,000000;0,500000;0,750000;0,750000;0,416667;0,416667;0,416667;0,416667;
32;;;;;;;;;;;;;;;;;;;;;;;;;;;;;;;;1,000000;0,833333;0,833333;0,375000;0,375000;0,388889;0,388889;
33;;;;;;;;;;;;;;;;;;;;;;;;;;;;;;;;;1,000000;1,000000;0,750000;0,750000;0,666667;0,666667;
34;;;;;;;;;;;;;;;;;;;;;;;;;;;;;;;;;;1,000000;0,750000;0,750000;0,666667;0,666667;
35;;;;;;;;;;;;;;;;;;;;;;;;;;;;;;;;;;;1,000000;0,750000;0,305556;0,305556;
36;;;;;;;;;;;;;;;;;;;;;;;;;;;;;;;;;;;;1,000000;0,305556;0,305556;
37;;;;;;;;;;;;;;;;;;;;;;;;;;;;;;;;;;;;;1,000000;0,666667;
38;;;;;;;;;;;;;;;;;;;;;;;;;;;;;;;;;;;;;;1,000000;
